%!PS-Adobe-3.0 EPSF-3.0
%%For: tab
%%Title: PGPLOT PostScript plot
%%Creator: PGPLOT [PSDRIV 6.6]
%%CreationDate: 30-May-2007 20:47
%%BoundingBox: (atend)
%%DocumentFonts: (atend)
%%LanguageLevel: 1
%%Orientation: Landscape
%%Pages: (atend)
%%EndComments
%%BeginProlog
/L {moveto rlineto currentpoint stroke moveto} bind def
/C {rlineto currentpoint stroke moveto} bind def
/D {moveto 0 0 rlineto currentpoint stroke moveto} bind def
/LW {5 mul setlinewidth} bind def
/BP {newpath moveto} bind def
/LP /rlineto load def
/EP {rlineto closepath eofill} bind def
/MB {gsave translate MFAC dup scale 1 setlinewidth 2 setlinecap 0 setlinejoin newpath} bind def
/ME /grestore load def
/CC {0 360 arc stroke} bind def
/FC {0 360 arc fill} bind def
/G {1024 div setgray} bind def
/K {3 -1 roll 1024 div 3 -1 roll 1024 div 3 -1 roll 1024 div setrgbcolor} bind def
% Uncomment next line to convert color to grey shades
%/K {3 -1 roll 3413 div 3 -1 roll 1739 div 3 -1 roll 9309 div add add setgray} bind def
%%EndProlog
%%BeginSetup
/#copies 1 def
%%EndSetup
 
%%Page: 1 1
%%BeginPageSetup
/PGPLOT save def
0.072 0.072 scale
8149 250 translate 90 rotate
1 setlinejoin 1 setlinecap 1 LW 1
%%EndPageSetup
%%PageBoundingBox: (atend)
0 0 0 K 1 LW 3110 0 195 6044 L 0 1560 C -3110 0 C 0 -1560 C
6 3 524 7499 L 9 9 C 0 -63 C -30 -63 617 7511 L 42 0 575 7511 L 54 0 638 7475 L 0 -63 716 7511 L 39 0 716 7511 L 24 0 716 7481 L
36 0 767 7472 L 0 6 C -3 6 C -3 3 C -6 3 C -9 0 C -6 -3 C -6 -6 C -3 -9 C 0 -6 C 3 -9 C 6 -6 C 6 -3 C 9 0 C 6 3 C 6 6 C
0 -63 824 7511 L 6 6 824 7481 L 6 3 C 9 0 C 6 -3 C 6 -6 C 3 -9 C 0 -6 C -3 -9 C -6 -6 C -6 -3 C -9 0 C -6 3 C -6 6 C 54 0 881 7475 L
-9 -3 974 7511 L -6 -9 C -3 -15 C 0 -9 C 3 -15 C 6 -9 C 9 -3 C 6 0 C 9 3 C 6 9 C 3 15 C 0 9 C -3 15 C -6 9 C -9 3 C -6 0 C
-3 6 1055 7502 L -9 3 C -6 0 C -9 -3 C -6 -9 C -3 -15 C 0 -15 C 3 -12 C 6 -6 C 9 -3 C 3 0 C 9 3 C 6 6 C 3 9 C 0 3 C -3 9 C -6 6 C
-9 3 C -3 0 C -9 -3 C -6 -6 C -3 -9 C
-24 -63 533 7199 L 24 -63 533 7199 L 30 0 518 7157 L 0 -42 572 7178 L 3 9 572 7160 L 6 6 C 6 3 C 9 0 C -6 6 644 7169 L -6 3 C -9 0 C
-6 -3 C -6 -6 C -3 -9 C 0 -6 C 3 -9 C 6 -6 C 6 -3 C 9 0 C 6 3 C 6 6 C 54 0 665 7163 L -9 -3 758 7199 L -6 -9 C -3 -15 C 0 -9 C
3 -15 C 6 -9 C 9 -3 C 6 0 C 9 3 C 6 9 C 3 15 C 0 9 C -3 15 C -6 9 C -9 3 C -6 0 C -30 -42 830 7199 L 45 0 C 0 -63 830 7199 L
-9 -3 878 7199 L -6 -9 C -3 -15 C 0 -9 C 3 -15 C 6 -9 C 9 -3 C 6 0 C 9 3 C 6 9 C 3 15 C 0 9 C -3 15 C -6 9 C -9 3 C -6 0 C
54 0 911 7130 L 33 0 983 7199 L -18 -24 C 9 0 C 6 -3 C 3 -3 C 3 -9 C 0 -6 C -3 -9 C -6 -6 C -9 -3 C -9 0 C -9 3 C -3 3 C -3 6 C
-3 -3 1043 7142 L 3 -3 C 3 3 C -3 3 C -6 0 1088 7199 L -6 -3 C -3 -9 C 0 -51 C 21 0 1064 7178 L 3 -3 1103 7199 L 3 3 C -3 3 C
-3 -3 C 0 -42 1106 7178 L 0 -51 1133 7199 L 3 -9 C 6 -3 C 6 0 C 21 0 1124 7178 L -3 6 1196 7169 L -9 3 C -9 0 C -9 -3 C -3 -6 C
3 -6 C 6 -3 C 15 -3 C 6 -3 C 3 -6 C 0 -3 C -3 -6 C -9 -3 C -9 0 C -9 3 C -3 6 C
-30 0 647 6965 L -3 -27 C 3 3 C 9 3 C 9 0 C 9 -3 C 6 -6 C 3 -9 C 0 -6 C -3 -9 C -6 -6 C -9 -3 C -9 0 C -9 3 C -3 3 C -3 6 C
-30 -42 701 6965 L 45 0 C 0 -63 701 6965 L 6 3 884 6953 L 9 9 C 0 -63 C -3 6 968 6935 L -9 3 C -9 0 C -9 -3 C -3 -6 C 3 -6 C 6 -3 C
15 -3 C 6 -3 C 3 -6 C 0 -3 C -3 -6 C -9 -3 C -9 0 C -9 3 C -3 6 C 0 -42 1085 6944 L 9 9 1085 6932 L 6 3 C 9 0 C 6 -3 C 3 -9 C
0 -30 C 0 -48 1175 6944 L -3 -9 C -3 -3 C -6 -3 C -9 0 C -6 3 C -6 6 1175 6935 L -6 3 C -9 0 C -6 -3 C -6 -6 C -3 -9 C 0 -6 C 3 -9 C
6 -6 C 6 -3 C 9 0 C 6 3 C 6 6 C 33 0 1202 6965 L -18 -24 C 9 0 C 6 -3 C 3 -3 C 3 -9 C 0 -6 C -3 -9 C -6 -6 C -9 -3 C -9 0 C -9 3 C
-3 3 C -3 6 C -9 -3 1466 6965 L -6 -9 C -3 -15 C 0 -9 C 3 -15 C 6 -9 C 9 -3 C 6 0 C 9 3 C 6 9 C 3 15 C 0 9 C -3 15 C -6 9 C -9 3 C
-6 0 C -3 -3 1514 6908 L 3 -3 C 3 3 C -3 3 C -3 6 1577 6956 L -9 3 C -6 0 C -9 -3 C -6 -9 C -3 -15 C 0 -15 C 3 -12 C 6 -6 C 9 -3 C
3 0 C 9 3 C 6 6 C 3 9 C 0 3 C -3 9 C -6 6 C -9 3 C -3 0 C -9 -3 C -6 -6 C -3 -9 C -3 -9 1637 6944 L -6 -6 C -9 -3 C -3 0 C -9 3 C
-6 6 C -3 9 C 0 3 C 3 9 C 6 6 C 9 3 C 3 0 C 9 -3 C 6 -6 C 3 -12 C 0 -15 C -3 -15 C -6 -9 C -9 -3 C -6 0 C -9 3 C -3 6 C
0 3 1661 6950 L 3 6 C 3 3 C 6 3 C 12 0 C 6 -3 C 3 -3 C 3 -6 C 0 -6 C -3 -6 C -6 -9 C -30 -30 C 42 0 C 33 0 1724 6965 L -18 -24 C
9 0 C 6 -3 C 3 -3 C 3 -9 C 0 -6 C -3 -9 C -6 -6 C -9 -3 C -9 0 C -9 3 C -3 3 C -3 6 C 6 3 1931 6953 L 9 9 C 0 -63 C
-3 -3 1988 6908 L 3 -3 C 3 3 C -3 3 C 33 0 2018 6965 L -18 -24 C 9 0 C 6 -3 C 3 -3 C 3 -9 C 0 -6 C -3 -9 C -6 -6 C -9 -3 C -9 0 C
-9 3 C -3 3 C -3 6 C -3 6 2111 6956 L -9 3 C -6 0 C -9 -3 C -6 -9 C -3 -15 C 0 -15 C 3 -12 C 6 -6 C 9 -3 C 3 0 C 9 3 C 6 6 C 3 9 C
0 3 C -3 9 C -6 6 C -9 3 C -3 0 C -9 -3 C -6 -6 C -3 -9 C 6 3 2141 6953 L 9 9 C 0 -63 C -30 0 2228 6965 L -3 -27 C 3 3 C 9 3 C 9 0 C
9 -3 C 6 -6 C 3 -9 C 0 -6 C -3 -9 C -6 -6 C -9 -3 C -9 0 C -9 3 C -3 3 C -3 6 C
3109 0 3695 6044 L 0 1560 C -3109 0 C 0 -1560 C 0 54 C 0 27 3848 6044 L 0 27 4001 6044 L 0 27 4155 6044 L 0 27 4308 6044 L
0 54 4462 6044 L 0 27 4615 6044 L 0 27 4768 6044 L 0 27 4922 6044 L 0 27 5075 6044 L 0 54 5228 6044 L 0 27 5382 6044 L
0 27 5535 6044 L 0 27 5689 6044 L 0 27 5842 6044 L 0 54 5995 6044 L 0 27 6149 6044 L 0 27 6302 6044 L 0 27 6455 6044 L
0 27 6609 6044 L 0 54 6762 6044 L 0 54 3695 7550 L 0 27 3848 7577 L 0 27 4001 7577 L 0 27 4155 7577 L 0 27 4308 7577 L
0 54 4462 7550 L 0 27 4615 7577 L 0 27 4768 7577 L 0 27 4922 7577 L 0 27 5075 7577 L 0 54 5228 7550 L 0 27 5382 7577 L
0 27 5535 7577 L 0 27 5689 7577 L 0 27 5842 7577 L 0 54 5995 7550 L 0 27 6149 7577 L 0 27 6302 7577 L 0 27 6455 7577 L
0 27 6609 7577 L 0 54 6762 7550 L -11 -3 3691 5979 L -7 -11 C -4 -18 C 0 -11 C 4 -18 C 7 -11 C 11 -3 C 7 0 C 11 3 C 7 11 C 4 18 C
0 11 C -4 18 C -7 11 C -11 3 C -7 0 C 7 4 4339 5965 L 11 10 C 0 -75 C -11 -3 4422 5979 L -7 -11 C -4 -18 C 0 -11 C 4 -18 C 7 -11 C
11 -3 C 7 0 C 11 3 C 7 11 C 4 18 C 0 11 C -4 18 C -7 11 C -11 3 C -7 0 C -11 -3 4494 5979 L -7 -11 C -4 -18 C 0 -11 C 4 -18 C
7 -11 C 11 -3 C 7 0 C 11 3 C 7 11 C 4 18 C 0 11 C -4 18 C -7 11 C -11 3 C -7 0 C -11 -3 4566 5979 L -7 -11 C -4 -18 C 0 -11 C
4 -18 C 7 -11 C 11 -3 C 7 0 C 11 3 C 7 11 C 4 18 C 0 11 C -4 18 C -7 11 C -11 3 C -7 0 C 0 4 5099 5961 L 3 7 C 4 4 C 7 3 C 15 0 C
7 -3 C 3 -4 C 4 -7 C 0 -7 C -4 -7 C -7 -11 C -36 -36 C 51 0 C -11 -3 5189 5979 L -7 -11 C -4 -18 C 0 -11 C 4 -18 C 7 -11 C 11 -3 C
7 0 C 11 3 C 7 11 C 4 18 C 0 11 C -4 18 C -7 11 C -11 3 C -7 0 C -11 -3 5261 5979 L -7 -11 C -4 -18 C 0 -11 C 4 -18 C 7 -11 C
11 -3 C 7 0 C 11 3 C 7 11 C 4 18 C 0 11 C -4 18 C -7 11 C -11 3 C -7 0 C -11 -3 5333 5979 L -7 -11 C -4 -18 C 0 -11 C 4 -18 C
7 -11 C 11 -3 C 7 0 C 11 3 C 7 11 C 4 18 C 0 11 C -4 18 C -7 11 C -11 3 C -7 0 C 40 0 5869 5979 L -22 -28 C 11 0 C 7 -4 C 4 -4 C
4 -10 C 0 -8 C -4 -10 C -7 -8 C -11 -3 C -11 0 C -11 3 C -3 4 C -4 7 C -11 -3 5956 5979 L -7 -11 C -4 -18 C 0 -11 C 4 -18 C 7 -11 C
11 -3 C 7 0 C 11 3 C 7 11 C 3 18 C 0 11 C -3 18 C -7 11 C -11 3 C -7 0 C -11 -3 6028 5979 L -7 -11 C -4 -18 C 0 -11 C 4 -18 C
7 -11 C 11 -3 C 7 0 C 11 3 C 7 11 C 3 18 C 0 11 C -3 18 C -7 11 C -11 3 C -7 0 C -11 -3 6100 5979 L -7 -11 C -4 -18 C 0 -11 C
4 -18 C 7 -11 C 11 -3 C 7 0 C 11 3 C 7 11 C 3 18 C 0 11 C -3 18 C -7 11 C -11 3 C -7 0 C -36 -50 6665 5979 L 54 0 C
0 -75 6665 5979 L -11 -3 6723 5979 L -7 -11 C -4 -18 C 0 -11 C 4 -18 C 7 -11 C 11 -3 C 7 0 C 11 3 C 7 11 C 3 18 C 0 11 C -3 18 C
-7 11 C -11 3 C -7 0 C -11 -3 6795 5979 L -7 -11 C -4 -18 C 0 -11 C 4 -18 C 7 -11 C 11 -3 C 7 0 C 11 3 C 7 11 C 3 18 C 0 11 C
-3 18 C -7 11 C -11 3 C -7 0 C -11 -3 6867 5979 L -7 -11 C -4 -18 C 0 -11 C 4 -18 C 7 -11 C 11 -3 C 7 0 C 11 3 C 7 11 C 3 18 C
0 11 C -3 18 C -7 11 C -11 3 C -7 0 C 54 0 3695 6115 L 27 0 3695 6292 L 54 0 3695 6470 L 27 0 3695 6647 L 54 0 3695 6824 L
27 0 3695 7001 L 54 0 3695 7179 L 27 0 3695 7356 L 54 0 3695 7533 L 54 0 6750 6115 L 27 0 6777 6292 L 54 0 6750 6470 L
27 0 6777 6647 L 54 0 6750 6824 L 27 0 6777 7001 L 54 0 6750 7179 L 27 0 6777 7356 L 54 0 6750 7533 L 0 65 3580 5993 L
4 -10 3537 6104 L 11 -8 C 18 -3 C 10 0 C 18 3 C 11 8 C 4 10 C 0 8 C -4 10 C -11 8 C -18 3 C -10 0 C -18 -3 C -11 -8 C -4 -10 C
0 -8 C 3 -4 3606 6162 L 4 4 C -4 4 C -3 -4 C 51 -36 3537 6227 L 0 54 C 76 0 3537 6227 L 0 65 3580 6347 L 4 -11 3537 6459 L 11 -7 C
18 -4 C 10 0 C 18 4 C 11 7 C 4 11 C 0 7 C -4 11 C -11 7 C -18 4 C -10 0 C -18 -4 C -11 -7 C -4 -11 C 0 -7 C 3 -3 3606 6516 L 4 3 C
-4 4 C -3 -4 C -3 0 3555 6549 L -8 3 C -3 4 C -4 7 C 0 15 C 4 7 C 3 3 C 8 4 C 7 0 C 7 -4 C 11 -7 C 36 -36 C 0 51 C 4 -11 3537 6821 L
11 -7 C 18 -4 C 10 0 C 18 4 C 11 7 C 4 11 C 0 7 C -4 11 C -11 7 C -18 3 C -10 0 C -18 -3 C -11 -7 C -4 -11 C 0 -7 C
4 -11 3537 7121 L 11 -7 C 18 -4 C 10 0 C 18 4 C 11 7 C 4 11 C 0 7 C -4 11 C -11 7 C -18 4 C -10 0 C -18 -4 C -11 -7 C -4 -11 C
0 -7 C 3 -4 3606 7179 L 4 4 C -4 3 C -3 -3 C -3 0 3555 7211 L -8 4 C -3 3 C -4 7 C 0 15 C 4 7 C 3 4 C 8 3 C 7 0 C 7 -3 C 11 -8 C
36 -36 C 0 51 C 4 -11 3537 7476 L 11 -7 C 18 -4 C 10 0 C 18 4 C 11 7 C 4 11 C 0 7 C -4 11 C -11 7 C -18 3 C -10 0 C -18 -3 C
-11 -7 C -4 -11 C 0 -7 C 3 -3 3606 7533 L 4 3 C -4 4 C -3 -4 C 51 -36 3537 7598 L 0 54 C 76 0 3537 7598 L
3109 0 3695 6824 L
/M4 {MB 0 0 7 CC ME} bind def                                                   
/MFAC      3.600 def    
5482 7083 M4 5531 6752 M4 5567 6971 M4 5585 6977 M4 5811 6987 M4 5841 6973 M4 5888 6792 M4 6105 6553 M4 6215 6723 M4 6310 6550 M4
6646 6115 M4 6676 6115 M4
/M5 {MB -5 -5 moveto 10 10 rlineto -5 5 moveto                                  
10 -10 rlineto stroke ME} bind def                                              
/MFAC      7.199 def    
6646 6115 M5 6676 6115 M5
/M31 {MB 2 -6 moveto 0 -9 lineto -2 -6 lineto 5 -3                              
moveto 0 -8 lineto -5 -3 lineto 0 -8 moveto 0 9 lineto                          
stroke ME} bind def                                                             
6646 6115 M31 6676 6115 M31
3706 6869 D 3737 6848 D 3767 6831 D 3798 6818 D 3829 6809 D 3860 6803 D 3890 6799 D 3921 6798 D 3952 6798 D 3982 6800 D 4013 6803 D
4044 6807 D 4074 6812 D 4105 6817 D 4136 6823 D 4166 6828 D 4197 6834 D 4228 6839 D 4258 6844 D 4289 6848 D 4320 6852 D 4350 6855 D
4381 6858 D 4412 6860 D 4442 6861 D 4473 6861 D 4504 6861 D 4534 6860 D 4565 6858 D 4596 6856 D 4626 6853 D 4657 6849 D 4688 6845 D
4718 6840 D 4749 6835 D 4780 6829 D 4810 6823 D 4841 6817 D 4872 6811 D 4902 6804 D 4933 6798 D 4964 6791 D 4995 6785 D 5025 6778 D
5056 6772 D 5087 6766 D 5117 6760 D 5148 6755 D 5179 6750 D 5209 6746 D 5240 6742 D 5271 6738 D 5301 6736 D 5332 6733 D 5363 6732 D
5393 6731 D 5424 6731 D 5455 6732 D 5485 6733 D 5516 6735 D 5547 6738 D 5577 6741 D 5608 6745 D 5639 6750 D 5669 6755 D 5700 6761 D
5731 6768 D 5761 6775 D 5792 6782 D 5823 6790 D 5853 6798 D 5884 6807 D 5915 6815 D 5945 6824 D 5976 6833 D 6007 6842 D 6037 6850 D
6068 6859 D 6099 6867 D 6130 6874 D 6160 6882 D 6191 6888 D 6222 6894 D 6252 6899 D 6283 6903 D 6314 6907 D 6344 6909 D 6375 6910 D
6406 6909 D 6436 6908 D 6467 6905 D 6498 6900 D 6528 6894 D 6559 6886 D 6590 6877 D 6620 6865 D 6651 6852 D 6682 6838 D 6712 6821 D
6743 6802 D 6774 6782 D
7 4 4526 7712 L 11 10 C 0 -75 C -3 7 4864 7716 L -11 3 C -7 0 C -11 -3 C -7 -11 C -4 -18 C 0 -18 C 4 -14 C 7 -8 C 11 -3 C 3 0 C
11 3 C 7 8 C 4 10 C 0 4 C -4 11 C -7 7 C -11 4 C -3 0 C -11 -4 C -7 -7 C -4 -11 C 7 4 5073 7712 L 11 10 C 0 -75 C -11 -3 5156 7726 L
-7 -11 C -4 -18 C 0 -11 C 4 -18 C 7 -11 C 11 -3 C 7 0 C 11 3 C 7 11 C 4 18 C 0 11 C -4 18 C -7 11 C -11 3 C -7 0 C
-11 -3 5401 7726 L -7 -11 C -4 -18 C 0 -11 C 4 -18 C 7 -11 C 11 -3 C 7 0 C 11 3 C 7 11 C 3 18 C 0 11 C -3 18 C -7 11 C -11 3 C
-7 0 C -3 -4 5458 7658 L 3 -3 C 4 3 C -4 4 C 7 4 5498 7712 L 11 10 C 0 -75 C -11 -3 5581 7726 L -7 -11 C -4 -18 C 0 -11 C 4 -18 C
7 -11 C 11 -3 C 7 0 C 11 3 C 7 11 C 3 18 C 0 11 C -3 18 C -7 11 C -11 3 C -7 0 C 0 4 5635 7708 L 3 7 C 4 4 C 7 3 C 14 0 C 8 -3 C
3 -4 C 4 -7 C 0 -7 C -4 -7 C -7 -11 C -36 -36 C 50 0 C 65 0 5822 7683 L -10 -3 5933 7726 L -8 -11 C -3 -18 C 0 -11 C 3 -18 C 8 -11 C
10 -3 C 8 0 C 10 3 C 8 11 C 3 18 C 0 11 C -3 18 C -8 11 C -10 3 C -8 0 C -4 -4 5991 7658 L 4 -3 C 4 3 C -4 4 C 7 4 6031 7712 L
11 10 C 0 -75 C -36 0 6135 7726 L -4 -32 C 4 4 C 11 3 C 11 0 C 10 -3 C 8 -8 C 3 -10 C 0 -8 C -3 -10 C -8 -8 C -10 -3 C -11 0 C
-11 3 C -4 4 C -3 7 C -36 -50 6200 7726 L 54 0 C 0 -75 6200 7726 L
3110 0 7194 6044 L 0 1560 C -3110 0 C 0 -1560 C 0 54 C 0 27 7348 6044 L 0 27 7501 6044 L 0 27 7654 6044 L 0 27 7808 6044 L
0 54 7961 6044 L 0 27 8115 6044 L 0 27 8268 6044 L 0 27 8421 6044 L 0 27 8575 6044 L 0 54 8728 6044 L 0 27 8881 6044 L
0 27 9035 6044 L 0 27 9188 6044 L 0 27 9342 6044 L 0 54 9495 6044 L 0 27 9648 6044 L 0 27 9802 6044 L 0 27 9955 6044 L
0 27 10108 6044 L 0 54 10262 6044 L 0 54 7194 7550 L 0 27 7348 7577 L 0 27 7501 7577 L 0 27 7654 7577 L 0 27 7808 7577 L
0 54 7961 7550 L 0 27 8115 7577 L 0 27 8268 7577 L 0 27 8421 7577 L 0 27 8575 7577 L 0 54 8728 7550 L 0 27 8881 7577 L
0 27 9035 7577 L 0 27 9188 7577 L 0 27 9342 7577 L 0 54 9495 7550 L 0 27 9648 7577 L 0 27 9802 7577 L 0 27 9955 7577 L
0 27 10108 7577 L 0 54 10262 7550 L -11 -3 7191 5979 L -7 -11 C -4 -18 C 0 -11 C 4 -18 C 7 -11 C 11 -3 C 7 0 C 11 3 C 7 11 C 4 18 C
0 11 C -4 18 C -7 11 C -11 3 C -7 0 C 7 4 7839 5965 L 11 10 C 0 -75 C -11 -3 7922 5979 L -7 -11 C -4 -18 C 0 -11 C 4 -18 C 7 -11 C
11 -3 C 7 0 C 11 3 C 7 11 C 3 18 C 0 11 C -3 18 C -7 11 C -11 3 C -7 0 C -11 -3 7994 5979 L -7 -11 C -4 -18 C 0 -11 C 4 -18 C
7 -11 C 11 -3 C 7 0 C 11 3 C 7 11 C 3 18 C 0 11 C -3 18 C -7 11 C -11 3 C -7 0 C -11 -3 8066 5979 L -7 -11 C -4 -18 C 0 -11 C
4 -18 C 7 -11 C 11 -3 C 7 0 C 11 3 C 7 11 C 3 18 C 0 11 C -3 18 C -7 11 C -11 3 C -7 0 C 0 4 8598 5961 L 4 7 C 4 4 C 7 3 C 14 0 C
7 -3 C 4 -4 C 4 -7 C 0 -7 C -4 -7 C -7 -11 C -36 -36 C 50 0 C -10 -3 8688 5979 L -8 -11 C -3 -18 C 0 -11 C 3 -18 C 8 -11 C 10 -3 C
8 0 C 10 3 C 8 11 C 3 18 C 0 11 C -3 18 C -8 11 C -10 3 C -8 0 C -10 -3 8760 5979 L -8 -11 C -3 -18 C 0 -11 C 3 -18 C 8 -11 C
10 -3 C 8 0 C 10 3 C 8 11 C 3 18 C 0 11 C -3 18 C -8 11 C -10 3 C -8 0 C -10 -3 8832 5979 L -8 -11 C -3 -18 C 0 -11 C 3 -18 C
8 -11 C 10 -3 C 8 0 C 10 3 C 8 11 C 3 18 C 0 11 C -3 18 C -8 11 C -10 3 C -8 0 C 40 0 9369 5979 L -22 -28 C 11 0 C 7 -4 C 4 -4 C
3 -10 C 0 -8 C -3 -10 C -8 -8 C -10 -3 C -11 0 C -11 3 C -4 4 C -3 7 C -10 -3 9455 5979 L -8 -11 C -3 -18 C 0 -11 C 3 -18 C 8 -11 C
10 -3 C 8 0 C 10 3 C 8 11 C 3 18 C 0 11 C -3 18 C -8 11 C -10 3 C -8 0 C -10 -3 9527 5979 L -8 -11 C -3 -18 C 0 -11 C 3 -18 C
8 -11 C 10 -3 C 8 0 C 10 3 C 8 11 C 3 18 C 0 11 C -3 18 C -8 11 C -10 3 C -8 0 C -10 -3 9599 5979 L -8 -11 C -3 -18 C 0 -11 C
3 -18 C 8 -11 C 10 -3 C 8 0 C 10 3 C 8 11 C 3 18 C 0 11 C -3 18 C -8 11 C -10 3 C -8 0 C -36 -50 10165 5979 L 54 0 C
0 -75 10165 5979 L -11 -3 10222 5979 L -7 -11 C -3 -18 C 0 -11 C 3 -18 C 7 -11 C 11 -3 C 7 0 C 11 3 C 7 11 C 4 18 C 0 11 C -4 18 C
-7 11 C -11 3 C -7 0 C -11 -3 10294 5979 L -7 -11 C -3 -18 C 0 -11 C 3 -18 C 7 -11 C 11 -3 C 7 0 C 11 3 C 7 11 C 4 18 C 0 11 C
-4 18 C -7 11 C -11 3 C -7 0 C -11 -3 10366 5979 L -7 -11 C -3 -18 C 0 -11 C 3 -18 C 7 -11 C 11 -3 C 7 0 C 11 3 C 7 11 C 4 18 C
0 11 C -4 18 C -7 11 C -11 3 C -7 0 C 54 0 7194 6115 L 27 0 7194 6292 L 54 0 7194 6470 L 27 0 7194 6647 L 54 0 7194 6824 L
27 0 7194 7001 L 54 0 7194 7179 L 27 0 7194 7356 L 54 0 7194 7533 L 54 0 10250 6115 L 27 0 10277 6292 L 54 0 10250 6470 L
27 0 10277 6647 L 54 0 10250 6824 L 27 0 10277 7001 L 54 0 10250 7179 L 27 0 10277 7356 L 54 0 10250 7533 L 0 65 7080 5993 L
3 -10 7037 6104 L 11 -8 C 18 -3 C 11 0 C 18 3 C 11 8 C 3 10 C 0 8 C -3 10 C -11 8 C -18 3 C -11 0 C -18 -3 C -11 -8 C -3 -10 C
0 -8 C 4 -4 7105 6162 L 3 4 C -3 4 C -4 -4 C 50 -36 7037 6227 L 0 54 C 75 0 7037 6227 L 0 65 7080 6347 L 3 -11 7037 6459 L 11 -7 C
18 -4 C 11 0 C 18 4 C 11 7 C 3 11 C 0 7 C -3 11 C -11 7 C -18 4 C -11 0 C -18 -4 C -11 -7 C -3 -11 C 0 -7 C 4 -3 7105 6516 L 3 3 C
-3 4 C -4 -4 C -4 0 7055 6549 L -7 3 C -4 4 C -3 7 C 0 15 C 3 7 C 4 3 C 7 4 C 7 0 C 8 -4 C 10 -7 C 36 -36 C 0 51 C 3 -11 7037 6821 L
11 -7 C 18 -4 C 11 0 C 18 4 C 11 7 C 3 11 C 0 7 C -3 11 C -11 7 C -18 3 C -11 0 C -18 -3 C -11 -7 C -3 -11 C 0 -7 C
3 -11 7037 7121 L 11 -7 C 18 -4 C 11 0 C 18 4 C 11 7 C 3 11 C 0 7 C -3 11 C -11 7 C -18 4 C -11 0 C -18 -4 C -11 -7 C -3 -11 C
0 -7 C 4 -4 7105 7179 L 3 4 C -3 3 C -4 -3 C -4 0 7055 7211 L -7 4 C -4 3 C -3 7 C 0 15 C 3 7 C 4 4 C 7 3 C 7 0 C 8 -3 C 10 -8 C
36 -36 C 0 51 C 3 -11 7037 7476 L 11 -7 C 18 -4 C 11 0 C 18 4 C 11 7 C 3 11 C 0 7 C -3 11 C -11 7 C -18 3 C -11 0 C -18 -3 C
-11 -7 C -3 -11 C 0 -7 C 4 -3 7105 7533 L 3 3 C -3 4 C -4 -4 C 50 -36 7037 7598 L 0 54 C 75 0 7037 7598 L
3110 0 7194 6824 L
/MFAC      3.600 def    
7257 6566 M4 7322 6860 M4 7574 6791 M4 7760 6825 M4 8075 6745 M4 8098 6889 M4 8148 6810 M4 8186 7006 M4 8209 6950 M4 8396 6692 M4
8437 6580 M4 8479 6910 M4 8492 6728 M4 8657 7056 M4 8690 6766 M4 8809 6918 M4 8982 6885 M4 9005 6820 M4 9197 6893 M4 9244 6887 M4
9271 6743 M4 9379 6853 M4 9490 6820 M4 9510 6866 M4 9571 6764 M4 9728 6616 M4 9769 6884 M4 9936 6737 M4 10095 6638 M4 10221 6846 M4
7206 6930 D 7236 6910 D 7267 6893 D 7298 6878 D 7329 6865 D 7359 6854 D 7390 6845 D 7421 6837 D 7451 6831 D 7482 6825 D 7513 6821 D
7543 6818 D 7574 6815 D 7605 6814 D 7635 6812 D 7666 6812 D 7697 6812 D 7727 6812 D 7758 6813 D 7789 6813 D 7819 6814 D 7850 6815 D
7881 6816 D 7911 6818 D 7942 6819 D 7973 6820 D 8003 6821 D 8034 6821 D 8065 6822 D 8095 6823 D 8126 6823 D 8157 6823 D 8187 6823 D
8218 6823 D 8249 6822 D 8279 6822 D 8310 6821 D 8341 6820 D 8371 6819 D 8402 6817 D 8433 6816 D 8464 6814 D 8494 6813 D 8525 6811 D
8556 6809 D 8586 6807 D 8617 6805 D 8648 6804 D 8678 6802 D 8709 6800 D 8740 6798 D 8770 6797 D 8801 6795 D 8832 6794 D 8862 6793 D
8893 6792 D 8924 6791 D 8954 6791 D 8985 6791 D 9016 6791 D 9046 6791 D 9077 6792 D 9108 6793 D 9138 6794 D 9169 6796 D 9200 6798 D
9230 6800 D 9261 6802 D 9292 6805 D 9322 6809 D 9353 6812 D 9384 6816 D 9414 6820 D 9445 6824 D 9476 6829 D 9506 6834 D 9537 6838 D
9568 6843 D 9598 6848 D 9629 6853 D 9660 6858 D 9691 6863 D 9721 6868 D 9752 6872 D 9783 6876 D 9813 6880 D 9844 6883 D 9875 6886 D
9905 6888 D 9936 6889 D 9967 6889 D 9997 6888 D 10028 6886 D 10059 6883 D 10089 6878 D 10120 6872 D 10151 6864 D 10181 6854 D
10212 6841 D 10243 6827 D 10273 6810 D 10304 6790 D
0 4 8018 7708 L 4 7 C 4 4 C 7 3 C 14 0 C 7 -3 C 4 -4 C 4 -7 C 0 -7 C -4 -7 C -7 -11 C -36 -36 C 50 0 C -4 7 8364 7716 L -10 3 C
-8 0 C -10 -3 C -8 -11 C -3 -18 C 0 -18 C 3 -14 C 8 -8 C 10 -3 C 4 0 C 11 3 C 7 8 C 4 10 C 0 4 C -4 11 C -7 7 C -11 4 C -4 0 C
-10 -4 C -8 -7 C -3 -11 C 40 0 8569 7726 L -22 -28 C 11 0 C 7 -4 C 4 -4 C 3 -10 C 0 -8 C -3 -10 C -7 -8 C -11 -3 C -11 0 C -11 3 C
-3 4 C -4 7 C -11 -3 8656 7726 L -7 -11 C -4 -18 C 0 -11 C 4 -18 C 7 -11 C 11 -3 C 7 0 C 11 3 C 7 11 C 3 18 C 0 11 C -3 18 C -7 11 C
-11 3 C -7 0 C -10 -3 8900 7726 L -8 -11 C -3 -18 C 0 -11 C 3 -18 C 8 -11 C 10 -3 C 8 0 C 10 3 C 8 11 C 3 18 C 0 11 C -3 18 C
-8 11 C -10 3 C -8 0 C -4 -4 8958 7658 L 4 -3 C 4 3 C -4 4 C -10 -3 9008 7726 L -8 -11 C -3 -18 C 0 -11 C 3 -18 C 8 -11 C 10 -3 C
8 0 C 10 3 C 8 11 C 3 18 C 0 11 C -3 18 C -8 11 C -10 3 C -8 0 C -4 7 9106 7716 L -11 3 C -7 0 C -11 -3 C -7 -11 C -4 -18 C 0 -18 C
4 -14 C 7 -8 C 11 -3 C 4 0 C 10 3 C 8 8 C 3 10 C 0 4 C -3 11 C -8 7 C -10 4 C -4 0 C -11 -4 C -7 -7 C -4 -11 C -36 0 9174 7726 L
-4 -32 C 4 4 C 11 3 C 11 0 C 10 -3 C 8 -8 C 3 -10 C 0 -8 C -3 -10 C -8 -8 C -10 -3 C -11 0 C -11 3 C -4 4 C -3 7 C 65 0 9321 7683 L
-11 -3 9433 7726 L -7 -11 C -4 -18 C 0 -11 C 4 -18 C 7 -11 C 11 -3 C 7 0 C 11 3 C 7 11 C 4 18 C 0 11 C -4 18 C -7 11 C -11 3 C
-7 0 C -4 -4 9491 7658 L 4 -3 C 3 3 C -3 4 C 7 4 9530 7712 L 11 10 C 0 -75 C -36 -50 9627 7726 L 54 0 C 0 -75 9627 7726 L
-3 7 9710 7716 L -11 3 C -7 0 C -11 -3 C -7 -11 C -4 -18 C 0 -18 C 4 -14 C 7 -8 C 11 -3 C 3 0 C 11 3 C 7 8 C 4 10 C 0 4 C -4 11 C
-7 7 C -11 4 C -3 0 C -11 -4 C -7 -7 C -4 -11 C
3110 0 195 4094 L 0 1560 C -3110 0 C 0 -1560 C 0 54 C 0 27 348 4094 L 0 27 502 4094 L 0 27 655 4094 L 0 27 808 4094 L
0 54 962 4094 L 0 27 1115 4094 L 0 27 1269 4094 L 0 27 1422 4094 L 0 27 1575 4094 L 0 54 1729 4094 L 0 27 1882 4094 L
0 27 2035 4094 L 0 27 2189 4094 L 0 27 2342 4094 L 0 54 2496 4094 L 0 27 2649 4094 L 0 27 2802 4094 L 0 27 2956 4094 L
0 27 3109 4094 L 0 54 3263 4094 L 0 54 195 5600 L 0 27 348 5627 L 0 27 502 5627 L 0 27 655 5627 L 0 27 808 5627 L 0 54 962 5600 L
0 27 1115 5627 L 0 27 1269 5627 L 0 27 1422 5627 L 0 27 1575 5627 L 0 54 1729 5600 L 0 27 1882 5627 L 0 27 2035 5627 L
0 27 2189 5627 L 0 27 2342 5627 L 0 54 2496 5600 L 0 27 2649 5627 L 0 27 2802 5627 L 0 27 2956 5627 L 0 27 3109 5627 L
0 54 3263 5600 L -10 -4 191 4030 L -8 -11 C -3 -18 C 0 -11 C 3 -18 C 8 -10 C 10 -4 C 8 0 C 10 4 C 8 10 C 3 18 C 0 11 C -3 18 C
-8 11 C -10 4 C -8 0 C 8 4 839 4015 L 10 11 C 0 -76 C -11 -4 922 4030 L -7 -11 C -3 -18 C 0 -11 C 3 -18 C 7 -10 C 11 -4 C 7 0 C
11 4 C 7 10 C 4 18 C 0 11 C -4 18 C -7 11 C -11 4 C -7 0 C -11 -4 994 4030 L -7 -11 C -3 -18 C 0 -11 C 3 -18 C 7 -10 C 11 -4 C 7 0 C
11 4 C 7 10 C 4 18 C 0 11 C -4 18 C -7 11 C -11 4 C -7 0 C -11 -4 1066 4030 L -7 -11 C -3 -18 C 0 -11 C 3 -18 C 7 -10 C 11 -4 C
7 0 C 11 4 C 7 10 C 4 18 C 0 11 C -4 18 C -7 11 C -11 4 C -7 0 C 0 3 1599 4012 L 4 7 C 3 4 C 8 4 C 14 0 C 7 -4 C 4 -4 C 3 -7 C
0 -7 C -3 -7 C -7 -11 C -36 -36 C 50 0 C -11 -4 1689 4030 L -7 -11 C -3 -18 C 0 -11 C 3 -18 C 7 -10 C 11 -4 C 7 0 C 11 4 C 7 10 C
4 18 C 0 11 C -4 18 C -7 11 C -11 4 C -7 0 C -11 -4 1761 4030 L -7 -11 C -3 -18 C 0 -11 C 3 -18 C 7 -10 C 11 -4 C 7 0 C 11 4 C
7 10 C 4 18 C 0 11 C -4 18 C -7 11 C -11 4 C -7 0 C -11 -4 1833 4030 L -7 -11 C -3 -18 C 0 -11 C 3 -18 C 7 -10 C 11 -4 C 7 0 C
11 4 C 7 10 C 4 18 C 0 11 C -4 18 C -7 11 C -11 4 C -7 0 C 39 0 2370 4030 L -21 -29 C 10 0 C 8 -4 C 3 -3 C 4 -11 C 0 -7 C -4 -11 C
-7 -7 C -11 -4 C -11 0 C -10 4 C -4 3 C -4 7 C -11 -4 2456 4030 L -7 -11 C -4 -18 C 0 -11 C 4 -18 C 7 -10 C 11 -4 C 7 0 C 11 4 C
7 10 C 4 18 C 0 11 C -4 18 C -7 11 C -11 4 C -7 0 C -11 -4 2528 4030 L -7 -11 C -4 -18 C 0 -11 C 4 -18 C 7 -10 C 11 -4 C 7 0 C
11 4 C 7 10 C 4 18 C 0 11 C -4 18 C -7 11 C -11 4 C -7 0 C -11 -4 2600 4030 L -7 -11 C -4 -18 C 0 -11 C 4 -18 C 7 -10 C 11 -4 C
7 0 C 11 4 C 7 10 C 4 18 C 0 11 C -4 18 C -7 11 C -11 4 C -7 0 C -36 -51 3165 4030 L 54 0 C 0 -76 3165 4030 L -11 -4 3223 4030 L
-7 -11 C -4 -18 C 0 -11 C 4 -18 C 7 -10 C 11 -4 C 7 0 C 11 4 C 7 10 C 4 18 C 0 11 C -4 18 C -7 11 C -11 4 C -7 0 C
-11 -4 3295 4030 L -7 -11 C -4 -18 C 0 -11 C 4 -18 C 7 -10 C 11 -4 C 7 0 C 11 4 C 7 10 C 4 18 C 0 11 C -4 18 C -7 11 C -11 4 C
-7 0 C -11 -4 3367 4030 L -7 -11 C -4 -18 C 0 -11 C 4 -18 C 7 -10 C 11 -4 C 7 0 C 11 4 C 7 10 C 4 18 C 0 11 C -4 18 C -7 11 C
-11 4 C -7 0 C 54 0 195 4165 L 27 0 195 4343 L 54 0 195 4520 L 27 0 195 4697 L 54 0 195 4874 L 27 0 195 5052 L 54 0 195 5229 L
27 0 195 5406 L 54 0 195 5583 L 54 0 3251 4165 L 27 0 3278 4343 L 54 0 3251 4520 L 27 0 3278 4697 L 54 0 3251 4874 L
27 0 3278 5052 L 54 0 3251 5229 L 27 0 3278 5406 L 54 0 3251 5583 L 0 65 81 4043 L 4 -11 37 4155 L 11 -7 C 18 -4 C 11 0 C 18 4 C
10 7 C 4 11 C 0 7 C -4 11 C -10 7 C -18 3 C -11 0 C -18 -3 C -11 -7 C -4 -11 C 0 -7 C 3 -3 106 4212 L 4 3 C -4 4 C -3 -4 C
51 -36 37 4277 L 0 54 C 76 0 37 4277 L 0 65 81 4397 L 4 -11 37 4509 L 11 -7 C 18 -4 C 11 0 C 18 4 C 10 7 C 4 11 C 0 7 C -4 11 C
-10 7 C -18 4 C -11 0 C -18 -4 C -11 -7 C -4 -11 C 0 -7 C 3 -4 106 4567 L 4 4 C -4 3 C -3 -3 C -3 0 55 4599 L -7 4 C -4 3 C -4 7 C
0 15 C 4 7 C 4 4 C 7 3 C 7 0 C 7 -3 C 11 -8 C 36 -36 C 0 51 C 4 -11 37 4871 L 11 -7 C 18 -4 C 11 0 C 18 4 C 10 7 C 4 11 C 0 7 C
-4 11 C -10 7 C -18 4 C -11 0 C -18 -4 C -11 -7 C -4 -11 C 0 -7 C 4 -11 37 5171 L 11 -7 C 18 -3 C 11 0 C 18 3 C 10 7 C 4 11 C 0 7 C
-4 11 C -10 7 C -18 4 C -11 0 C -18 -4 C -11 -7 C -4 -11 C 0 -7 C 3 -4 106 5229 L 4 4 C -4 3 C -3 -3 C -3 0 55 5261 L -7 4 C -4 3 C
-4 8 C 0 14 C 4 7 C 4 4 C 7 3 C 7 0 C 7 -3 C 11 -7 C 36 -36 C 0 50 C 4 -11 37 5526 L 11 -7 C 18 -4 C 11 0 C 18 4 C 10 7 C 4 11 C
0 7 C -4 11 C -10 7 C -18 4 C -11 0 C -18 -4 C -11 -7 C -4 -11 C 0 -7 C 3 -3 106 5583 L 4 3 C -4 4 C -3 -4 C 51 -36 37 5648 L 0 54 C
76 0 37 5648 L
3110 0 195 4874 L
456 5146 M4 529 5126 M4 650 4727 M4 772 4995 M4 872 4879 M4 1209 4728 M4 1477 4581 M4 1626 4864 M4 1762 4925 M4 1805 4768 M4
1890 4748 M4 2002 4896 M4 2048 4929 M4 2368 4869 M4 2413 4928 M4 2487 4685 M4 2578 4845 M4 2865 5106 M4 2954 4984 M4 3043 5079 M4
3066 5113 M4
206 4947 D 237 4901 D 268 4862 D 299 4832 D 329 4809 D 360 4791 D 391 4779 D 421 4772 D 452 4768 D 483 4768 D 513 4770 D 544 4775 D
575 4782 D 605 4790 D 636 4799 D 667 4809 D 697 4820 D 728 4830 D 759 4841 D 789 4852 D 820 4862 D 851 4872 D 881 4882 D 912 4890 D
943 4899 D 973 4906 D 1004 4913 D 1035 4918 D 1065 4924 D 1096 4928 D 1127 4931 D 1157 4934 D 1188 4937 D 1219 4938 D 1249 4939 D
1280 4940 D 1311 4940 D 1341 4939 D 1372 4938 D 1403 4937 D 1433 4936 D 1464 4935 D 1495 4933 D 1526 4931 D 1556 4930 D 1587 4928 D
1618 4926 D 1648 4925 D 1679 4923 D 1710 4922 D 1740 4921 D 1771 4920 D 1802 4919 D 1832 4918 D 1863 4918 D 1894 4917 D 1924 4917 D
1955 4917 D 1986 4916 D 2016 4916 D 2047 4916 D 2078 4916 D 2108 4915 D 2139 4915 D 2170 4914 D 2200 4913 D 2231 4912 D 2262 4910 D
2292 4908 D 2323 4906 D 2354 4903 D 2384 4899 D 2415 4895 D 2446 4890 D 2476 4885 D 2507 4878 D 2538 4872 D 2568 4864 D 2599 4856 D
2630 4848 D 2661 4839 D 2691 4829 D 2722 4820 D 2753 4810 D 2783 4800 D 2814 4790 D 2845 4781 D 2875 4772 D 2906 4764 D 2937 4757 D
2967 4752 D 2998 4748 D 3029 4748 D 3059 4749 D 3090 4755 D 3121 4764 D 3151 4778 D 3182 4797 D 3213 4822 D 3243 4854 D 3274 4893 D
3305 4941 D
39 0 1023 5777 L -21 -29 C 11 0 C 7 -4 C 3 -3 C 4 -11 C 0 -7 C -4 -11 C -7 -7 C -11 -4 C -10 0 C -11 4 C -4 3 C -3 7 C
-4 7 1365 5766 L -11 4 C -7 0 C -11 -4 C -7 -11 C -4 -18 C 0 -18 C 4 -14 C 7 -7 C 11 -4 C 4 0 C 10 4 C 8 7 C 3 11 C 0 3 C -3 11 C
-8 7 C -10 4 C -4 0 C -11 -4 C -7 -7 C -4 -11 C 0 3 1566 5759 L 4 7 C 3 4 C 8 4 C 14 0 C 7 -4 C 4 -4 C 3 -7 C 0 -7 C -3 -7 C
-7 -11 C -36 -36 C 50 0 C 8 4 1645 5762 L 10 11 C 0 -76 C -11 -4 1901 5777 L -7 -11 C -4 -18 C 0 -11 C 4 -18 C 7 -10 C 11 -4 C 7 0 C
11 4 C 7 10 C 4 18 C 0 11 C -4 18 C -7 11 C -11 4 C -7 0 C -4 -3 1959 5708 L 4 -4 C 3 4 C -3 3 C -11 -4 2009 5777 L -7 -11 C
-4 -18 C 0 -11 C 4 -18 C 7 -10 C 11 -4 C 7 0 C 11 4 C 7 10 C 4 18 C 0 11 C -4 18 C -7 11 C -11 4 C -7 0 C -10 -4 2077 5777 L -4 -7 C
0 -7 C 4 -8 C 7 -3 C 14 -4 C 11 -3 C 7 -8 C 4 -7 C 0 -11 C -4 -7 C -3 -3 C -11 -4 C -15 0 C -10 4 C -4 3 C -4 7 C 0 11 C 4 7 C 7 8 C
11 3 C 14 4 C 8 3 C 3 8 C 0 7 C -3 7 C -11 4 C -15 0 C -3 -10 2178 5751 L -8 -8 C -10 -3 C -4 0 C -11 3 C -7 8 C -4 10 C 0 4 C
4 11 C 7 7 C 11 4 C 4 0 C 10 -4 C 8 -7 C 3 -15 C 0 -18 C -3 -18 C -8 -10 C -10 -4 C -8 0 C -10 4 C -4 7 C 65 0 2322 5733 L
-11 -4 2434 5777 L -7 -11 C -4 -18 C 0 -11 C 4 -18 C 7 -10 C 11 -4 C 7 0 C 11 4 C 7 10 C 4 18 C 0 11 C -4 18 C -7 11 C -11 4 C
-7 0 C -3 -3 2491 5708 L 3 -4 C 4 4 C -4 3 C 7 4 2531 5762 L 11 11 C 0 -76 C -4 7 2639 5766 L -10 4 C -8 0 C -10 -4 C -8 -11 C
-3 -18 C 0 -18 C 3 -14 C 8 -7 C 10 -4 C 4 0 C 11 4 C 7 7 C 4 11 C 0 3 C -4 11 C -7 7 C -11 4 C -4 0 C -10 -4 C -8 -7 C -3 -11 C
-4 7 2711 5766 L -10 4 C -8 0 C -10 -4 C -8 -11 C -3 -18 C 0 -18 C 3 -14 C 8 -7 C 10 -4 C 4 0 C 11 4 C 7 7 C 4 11 C 0 3 C -4 11 C
-7 7 C -11 4 C -4 0 C -10 -4 C -8 -7 C -3 -11 C
3109 0 3695 4094 L 0 1560 C -3109 0 C 0 -1560 C 0 54 C 0 27 3848 4094 L 0 27 4001 4094 L 0 27 4155 4094 L 0 27 4308 4094 L
0 54 4462 4094 L 0 27 4615 4094 L 0 27 4768 4094 L 0 27 4922 4094 L 0 27 5075 4094 L 0 54 5228 4094 L 0 27 5382 4094 L
0 27 5535 4094 L 0 27 5689 4094 L 0 27 5842 4094 L 0 54 5995 4094 L 0 27 6149 4094 L 0 27 6302 4094 L 0 27 6455 4094 L
0 27 6609 4094 L 0 54 6762 4094 L 0 54 3695 5600 L 0 27 3848 5627 L 0 27 4001 5627 L 0 27 4155 5627 L 0 27 4308 5627 L
0 54 4462 5600 L 0 27 4615 5627 L 0 27 4768 5627 L 0 27 4922 5627 L 0 27 5075 5627 L 0 54 5228 5600 L 0 27 5382 5627 L
0 27 5535 5627 L 0 27 5689 5627 L 0 27 5842 5627 L 0 54 5995 5600 L 0 27 6149 5627 L 0 27 6302 5627 L 0 27 6455 5627 L
0 27 6609 5627 L 0 54 6762 5600 L -11 -4 3691 4030 L -7 -11 C -4 -18 C 0 -11 C 4 -18 C 7 -10 C 11 -4 C 7 0 C 11 4 C 7 10 C 4 18 C
0 11 C -4 18 C -7 11 C -11 4 C -7 0 C 7 4 4339 4015 L 11 11 C 0 -76 C -11 -4 4422 4030 L -7 -11 C -4 -18 C 0 -11 C 4 -18 C 7 -10 C
11 -4 C 7 0 C 11 4 C 7 10 C 4 18 C 0 11 C -4 18 C -7 11 C -11 4 C -7 0 C -11 -4 4494 4030 L -7 -11 C -4 -18 C 0 -11 C 4 -18 C
7 -10 C 11 -4 C 7 0 C 11 4 C 7 10 C 4 18 C 0 11 C -4 18 C -7 11 C -11 4 C -7 0 C -11 -4 4566 4030 L -7 -11 C -4 -18 C 0 -11 C
4 -18 C 7 -10 C 11 -4 C 7 0 C 11 4 C 7 10 C 4 18 C 0 11 C -4 18 C -7 11 C -11 4 C -7 0 C 0 3 5099 4012 L 3 7 C 4 4 C 7 4 C 15 0 C
7 -4 C 3 -4 C 4 -7 C 0 -7 C -4 -7 C -7 -11 C -36 -36 C 51 0 C -11 -4 5189 4030 L -7 -11 C -4 -18 C 0 -11 C 4 -18 C 7 -10 C 11 -4 C
7 0 C 11 4 C 7 10 C 4 18 C 0 11 C -4 18 C -7 11 C -11 4 C -7 0 C -11 -4 5261 4030 L -7 -11 C -4 -18 C 0 -11 C 4 -18 C 7 -10 C
11 -4 C 7 0 C 11 4 C 7 10 C 4 18 C 0 11 C -4 18 C -7 11 C -11 4 C -7 0 C -11 -4 5333 4030 L -7 -11 C -4 -18 C 0 -11 C 4 -18 C
7 -10 C 11 -4 C 7 0 C 11 4 C 7 10 C 4 18 C 0 11 C -4 18 C -7 11 C -11 4 C -7 0 C 40 0 5869 4030 L -22 -29 C 11 0 C 7 -4 C 4 -3 C
4 -11 C 0 -7 C -4 -11 C -7 -7 C -11 -4 C -11 0 C -11 4 C -3 3 C -4 7 C -11 -4 5956 4030 L -7 -11 C -4 -18 C 0 -11 C 4 -18 C 7 -10 C
11 -4 C 7 0 C 11 4 C 7 10 C 3 18 C 0 11 C -3 18 C -7 11 C -11 4 C -7 0 C -11 -4 6028 4030 L -7 -11 C -4 -18 C 0 -11 C 4 -18 C
7 -10 C 11 -4 C 7 0 C 11 4 C 7 10 C 3 18 C 0 11 C -3 18 C -7 11 C -11 4 C -7 0 C -11 -4 6100 4030 L -7 -11 C -4 -18 C 0 -11 C
4 -18 C 7 -10 C 11 -4 C 7 0 C 11 4 C 7 10 C 3 18 C 0 11 C -3 18 C -7 11 C -11 4 C -7 0 C -36 -51 6665 4030 L 54 0 C
0 -76 6665 4030 L -11 -4 6723 4030 L -7 -11 C -4 -18 C 0 -11 C 4 -18 C 7 -10 C 11 -4 C 7 0 C 11 4 C 7 10 C 3 18 C 0 11 C -3 18 C
-7 11 C -11 4 C -7 0 C -11 -4 6795 4030 L -7 -11 C -4 -18 C 0 -11 C 4 -18 C 7 -10 C 11 -4 C 7 0 C 11 4 C 7 10 C 3 18 C 0 11 C
-3 18 C -7 11 C -11 4 C -7 0 C -11 -4 6867 4030 L -7 -11 C -4 -18 C 0 -11 C 4 -18 C 7 -10 C 11 -4 C 7 0 C 11 4 C 7 10 C 3 18 C
0 11 C -3 18 C -7 11 C -11 4 C -7 0 C 54 0 3695 4165 L 27 0 3695 4343 L 54 0 3695 4520 L 27 0 3695 4697 L 54 0 3695 4874 L
27 0 3695 5052 L 54 0 3695 5229 L 27 0 3695 5406 L 54 0 3695 5583 L 54 0 6750 4165 L 27 0 6777 4343 L 54 0 6750 4520 L
27 0 6777 4697 L 54 0 6750 4874 L 27 0 6777 5052 L 54 0 6750 5229 L 27 0 6777 5406 L 54 0 6750 5583 L 0 65 3580 4043 L
4 -11 3537 4155 L 11 -7 C 18 -4 C 10 0 C 18 4 C 11 7 C 4 11 C 0 7 C -4 11 C -11 7 C -18 3 C -10 0 C -18 -3 C -11 -7 C -4 -11 C
0 -7 C 3 -3 3606 4212 L 4 3 C -4 4 C -3 -4 C 51 -36 3537 4277 L 0 54 C 76 0 3537 4277 L 0 65 3580 4397 L 4 -11 3537 4509 L 11 -7 C
18 -4 C 10 0 C 18 4 C 11 7 C 4 11 C 0 7 C -4 11 C -11 7 C -18 4 C -10 0 C -18 -4 C -11 -7 C -4 -11 C 0 -7 C 3 -4 3606 4567 L 4 4 C
-4 3 C -3 -3 C -3 0 3555 4599 L -8 4 C -3 3 C -4 7 C 0 15 C 4 7 C 3 4 C 8 3 C 7 0 C 7 -3 C 11 -8 C 36 -36 C 0 51 C 4 -11 3537 4871 L
11 -7 C 18 -4 C 10 0 C 18 4 C 11 7 C 4 11 C 0 7 C -4 11 C -11 7 C -18 4 C -10 0 C -18 -4 C -11 -7 C -4 -11 C 0 -7 C
4 -11 3537 5171 L 11 -7 C 18 -3 C 10 0 C 18 3 C 11 7 C 4 11 C 0 7 C -4 11 C -11 7 C -18 4 C -10 0 C -18 -4 C -11 -7 C -4 -11 C
0 -7 C 3 -4 3606 5229 L 4 4 C -4 3 C -3 -3 C -3 0 3555 5261 L -8 4 C -3 3 C -4 8 C 0 14 C 4 7 C 3 4 C 8 3 C 7 0 C 7 -3 C 11 -7 C
36 -36 C 0 50 C 4 -11 3537 5526 L 11 -7 C 18 -4 C 10 0 C 18 4 C 11 7 C 4 11 C 0 7 C -4 11 C -11 7 C -18 4 C -10 0 C -18 -4 C
-11 -7 C -4 -11 C 0 -7 C 3 -3 3606 5583 L 4 3 C -4 4 C -3 -4 C 51 -36 3537 5648 L 0 54 C 76 0 3537 5648 L
3109 0 3695 4874 L
3851 4298 M4 4238 4902 M4 4394 5053 M4 4747 4919 M4 4879 4780 M4 4975 4645 M4 5130 4804 M4 5303 4849 M4 5444 4911 M4 5545 5076 M4
5631 5201 M4 5725 4957 M4 5875 4639 M4 6115 4559 M4
3706 4990 D 3737 4981 D 3767 4971 D 3798 4962 D 3829 4953 D 3860 4945 D 3890 4937 D 3921 4930 D 3952 4923 D 3982 4916 D 4013 4910 D
4044 4905 D 4074 4900 D 4105 4895 D 4136 4891 D 4166 4888 D 4197 4885 D 4228 4882 D 4258 4879 D 4289 4878 D 4320 4876 D 4350 4875 D
4381 4874 D 4412 4873 D 4442 4872 D 4473 4872 D 4504 4872 D 4534 4872 D 4565 4872 D 4596 4873 D 4626 4873 D 4657 4874 D 4688 4874 D
4718 4874 D 4749 4875 D 4780 4875 D 4810 4876 D 4841 4876 D 4872 4876 D 4902 4876 D 4933 4877 D 4964 4877 D 4995 4876 D 5025 4876 D
5056 4876 D 5087 4875 D 5117 4875 D 5148 4874 D 5179 4873 D 5209 4873 D 5240 4872 D 5271 4871 D 5301 4870 D 5332 4869 D 5363 4868 D
5393 4867 D 5424 4866 D 5455 4865 D 5485 4864 D 5516 4863 D 5547 4862 D 5577 4862 D 5608 4861 D 5639 4861 D 5669 4861 D 5700 4861 D
5731 4862 D 5761 4862 D 5792 4863 D 5823 4864 D 5853 4866 D 5884 4868 D 5915 4870 D 5945 4872 D 5976 4875 D 6007 4877 D 6037 4880 D
6068 4884 D 6099 4887 D 6130 4891 D 6160 4894 D 6191 4898 D 6222 4902 D 6252 4906 D 6283 4909 D 6314 4912 D 6344 4915 D 6375 4918 D
6406 4920 D 6436 4921 D 6467 4921 D 6498 4921 D 6528 4919 D 6559 4916 D 6590 4911 D 6620 4905 D 6651 4896 D 6682 4886 D 6712 4872 D
6743 4856 D 6774 4837 D
-36 -51 4551 5777 L 54 0 C 0 -76 4551 5777 L -3 7 4864 5766 L -11 4 C -7 0 C -11 -4 C -7 -11 C -4 -18 C 0 -18 C 4 -14 C 7 -7 C
11 -4 C 3 0 C 11 4 C 7 7 C 4 11 C 0 3 C -4 11 C -7 7 C -11 4 C -3 0 C -11 -4 C -7 -7 C -4 -11 C 7 4 5073 5762 L 11 11 C 0 -76 C
-36 -51 5170 5777 L 54 0 C 0 -76 5170 5777 L -11 -4 5401 5777 L -7 -11 C -4 -18 C 0 -11 C 4 -18 C 7 -10 C 11 -4 C 7 0 C 11 4 C
7 10 C 3 18 C 0 11 C -3 18 C -7 11 C -11 4 C -7 0 C -3 -3 5458 5708 L 3 -4 C 4 4 C -4 3 C 7 4 5498 5762 L 11 11 C 0 -76 C
40 0 5566 5777 L -22 -29 C 11 0 C 7 -4 C 4 -3 C 3 -11 C 0 -7 C -3 -11 C -7 -7 C -11 -4 C -11 0 C -11 4 C -3 3 C -4 7 C
-11 -4 5653 5777 L -7 -11 C -4 -18 C 0 -11 C 4 -18 C 7 -10 C 11 -4 C 7 0 C 11 4 C 7 10 C 3 18 C 0 11 C -3 18 C -7 11 C -11 4 C
-7 0 C 65 0 5822 5733 L -10 -4 5933 5777 L -8 -11 C -3 -18 C 0 -11 C 3 -18 C 8 -10 C 10 -4 C 8 0 C 10 4 C 8 10 C 3 18 C 0 11 C
-3 18 C -8 11 C -10 4 C -8 0 C -4 -3 5991 5708 L 4 -4 C 4 4 C -4 3 C 40 0 6027 5777 L -22 -29 C 11 0 C 7 -4 C 4 -3 C 3 -11 C 0 -7 C
-3 -11 C -8 -7 C -10 -4 C -11 0 C -11 4 C -4 3 C -3 7 C 0 3 6095 5759 L 4 7 C 4 4 C 7 4 C 14 0 C 7 -4 C 4 -4 C 4 -7 C 0 -7 C -4 -7 C
-7 -11 C -36 -36 C 50 0 C -36 0 6207 5777 L -4 -33 C 4 4 C 11 3 C 11 0 C 10 -3 C 8 -7 C 3 -11 C 0 -7 C -3 -11 C -8 -7 C -10 -4 C
-11 0 C -11 4 C -4 3 C -3 7 C
3110 0 7194 4094 L 0 1560 C -3110 0 C 0 -1560 C 0 54 C 0 27 7348 4094 L 0 27 7501 4094 L 0 27 7654 4094 L 0 27 7808 4094 L
0 54 7961 4094 L 0 27 8115 4094 L 0 27 8268 4094 L 0 27 8421 4094 L 0 27 8575 4094 L 0 54 8728 4094 L 0 27 8881 4094 L
0 27 9035 4094 L 0 27 9188 4094 L 0 27 9342 4094 L 0 54 9495 4094 L 0 27 9648 4094 L 0 27 9802 4094 L 0 27 9955 4094 L
0 27 10108 4094 L 0 54 10262 4094 L 0 54 7194 5600 L 0 27 7348 5627 L 0 27 7501 5627 L 0 27 7654 5627 L 0 27 7808 5627 L
0 54 7961 5600 L 0 27 8115 5627 L 0 27 8268 5627 L 0 27 8421 5627 L 0 27 8575 5627 L 0 54 8728 5600 L 0 27 8881 5627 L
0 27 9035 5627 L 0 27 9188 5627 L 0 27 9342 5627 L 0 54 9495 5600 L 0 27 9648 5627 L 0 27 9802 5627 L 0 27 9955 5627 L
0 27 10108 5627 L 0 54 10262 5600 L -11 -4 7191 4030 L -7 -11 C -4 -18 C 0 -11 C 4 -18 C 7 -10 C 11 -4 C 7 0 C 11 4 C 7 10 C 4 18 C
0 11 C -4 18 C -7 11 C -11 4 C -7 0 C 7 4 7839 4015 L 11 11 C 0 -76 C -11 -4 7922 4030 L -7 -11 C -4 -18 C 0 -11 C 4 -18 C 7 -10 C
11 -4 C 7 0 C 11 4 C 7 10 C 3 18 C 0 11 C -3 18 C -7 11 C -11 4 C -7 0 C -11 -4 7994 4030 L -7 -11 C -4 -18 C 0 -11 C 4 -18 C
7 -10 C 11 -4 C 7 0 C 11 4 C 7 10 C 3 18 C 0 11 C -3 18 C -7 11 C -11 4 C -7 0 C -11 -4 8066 4030 L -7 -11 C -4 -18 C 0 -11 C
4 -18 C 7 -10 C 11 -4 C 7 0 C 11 4 C 7 10 C 3 18 C 0 11 C -3 18 C -7 11 C -11 4 C -7 0 C 0 3 8598 4012 L 4 7 C 4 4 C 7 4 C 14 0 C
7 -4 C 4 -4 C 4 -7 C 0 -7 C -4 -7 C -7 -11 C -36 -36 C 50 0 C -10 -4 8688 4030 L -8 -11 C -3 -18 C 0 -11 C 3 -18 C 8 -10 C 10 -4 C
8 0 C 10 4 C 8 10 C 3 18 C 0 11 C -3 18 C -8 11 C -10 4 C -8 0 C -10 -4 8760 4030 L -8 -11 C -3 -18 C 0 -11 C 3 -18 C 8 -10 C
10 -4 C 8 0 C 10 4 C 8 10 C 3 18 C 0 11 C -3 18 C -8 11 C -10 4 C -8 0 C -10 -4 8832 4030 L -8 -11 C -3 -18 C 0 -11 C 3 -18 C
8 -10 C 10 -4 C 8 0 C 10 4 C 8 10 C 3 18 C 0 11 C -3 18 C -8 11 C -10 4 C -8 0 C 40 0 9369 4030 L -22 -29 C 11 0 C 7 -4 C 4 -3 C
3 -11 C 0 -7 C -3 -11 C -8 -7 C -10 -4 C -11 0 C -11 4 C -4 3 C -3 7 C -10 -4 9455 4030 L -8 -11 C -3 -18 C 0 -11 C 3 -18 C 8 -10 C
10 -4 C 8 0 C 10 4 C 8 10 C 3 18 C 0 11 C -3 18 C -8 11 C -10 4 C -8 0 C -10 -4 9527 4030 L -8 -11 C -3 -18 C 0 -11 C 3 -18 C
8 -10 C 10 -4 C 8 0 C 10 4 C 8 10 C 3 18 C 0 11 C -3 18 C -8 11 C -10 4 C -8 0 C -10 -4 9599 4030 L -8 -11 C -3 -18 C 0 -11 C
3 -18 C 8 -10 C 10 -4 C 8 0 C 10 4 C 8 10 C 3 18 C 0 11 C -3 18 C -8 11 C -10 4 C -8 0 C -36 -51 10165 4030 L 54 0 C
0 -76 10165 4030 L -11 -4 10222 4030 L -7 -11 C -3 -18 C 0 -11 C 3 -18 C 7 -10 C 11 -4 C 7 0 C 11 4 C 7 10 C 4 18 C 0 11 C -4 18 C
-7 11 C -11 4 C -7 0 C -11 -4 10294 4030 L -7 -11 C -3 -18 C 0 -11 C 3 -18 C 7 -10 C 11 -4 C 7 0 C 11 4 C 7 10 C 4 18 C 0 11 C
-4 18 C -7 11 C -11 4 C -7 0 C -11 -4 10366 4030 L -7 -11 C -3 -18 C 0 -11 C 3 -18 C 7 -10 C 11 -4 C 7 0 C 11 4 C 7 10 C 4 18 C
0 11 C -4 18 C -7 11 C -11 4 C -7 0 C 54 0 7194 4165 L 27 0 7194 4343 L 54 0 7194 4520 L 27 0 7194 4697 L 54 0 7194 4874 L
27 0 7194 5052 L 54 0 7194 5229 L 27 0 7194 5406 L 54 0 7194 5583 L 54 0 10250 4165 L 27 0 10277 4343 L 54 0 10250 4520 L
27 0 10277 4697 L 54 0 10250 4874 L 27 0 10277 5052 L 54 0 10250 5229 L 27 0 10277 5406 L 54 0 10250 5583 L 0 65 7080 4043 L
3 -11 7037 4155 L 11 -7 C 18 -4 C 11 0 C 18 4 C 11 7 C 3 11 C 0 7 C -3 11 C -11 7 C -18 3 C -11 0 C -18 -3 C -11 -7 C -3 -11 C
0 -7 C 4 -3 7105 4212 L 3 3 C -3 4 C -4 -4 C 50 -36 7037 4277 L 0 54 C 75 0 7037 4277 L 0 65 7080 4397 L 3 -11 7037 4509 L 11 -7 C
18 -4 C 11 0 C 18 4 C 11 7 C 3 11 C 0 7 C -3 11 C -11 7 C -18 4 C -11 0 C -18 -4 C -11 -7 C -3 -11 C 0 -7 C 4 -4 7105 4567 L 3 4 C
-3 3 C -4 -3 C -4 0 7055 4599 L -7 4 C -4 3 C -3 7 C 0 15 C 3 7 C 4 4 C 7 3 C 7 0 C 8 -3 C 10 -8 C 36 -36 C 0 51 C 3 -11 7037 4871 L
11 -7 C 18 -4 C 11 0 C 18 4 C 11 7 C 3 11 C 0 7 C -3 11 C -11 7 C -18 4 C -11 0 C -18 -4 C -11 -7 C -3 -11 C 0 -7 C
3 -11 7037 5171 L 11 -7 C 18 -3 C 11 0 C 18 3 C 11 7 C 3 11 C 0 7 C -3 11 C -11 7 C -18 4 C -11 0 C -18 -4 C -11 -7 C -3 -11 C
0 -7 C 4 -4 7105 5229 L 3 4 C -3 3 C -4 -3 C -4 0 7055 5261 L -7 4 C -4 3 C -3 8 C 0 14 C 3 7 C 4 4 C 7 3 C 7 0 C 8 -3 C 10 -7 C
36 -36 C 0 50 C 3 -11 7037 5526 L 11 -7 C 18 -4 C 11 0 C 18 4 C 11 7 C 3 11 C 0 7 C -3 11 C -11 7 C -18 4 C -11 0 C -18 -4 C
-11 -7 C -3 -11 C 0 -7 C 4 -3 7105 5583 L 3 3 C -3 4 C -4 -4 C 50 -36 7037 5648 L 0 54 C 75 0 7037 5648 L
3110 0 7194 4874 L
7524 5006 M4 7933 4886 M4 8038 4812 M4 8069 4838 M4 8228 4766 M4 8421 4831 M4 8847 5026 M4 9312 4857 M4 9429 5012 M4 9553 4829 M4
9624 4919 M4 9711 4857 M4 9961 4757 M4 10142 4878 M4 10178 4875 M4 10245 5199 M4
7206 4904 D 7236 4887 D 7267 4874 D 7298 4863 D 7329 4855 D 7359 4849 D 7390 4845 D 7421 4842 D 7451 4841 D 7482 4841 D 7513 4843 D
7543 4845 D 7574 4848 D 7605 4852 D 7635 4856 D 7666 4861 D 7697 4866 D 7727 4871 D 7758 4876 D 7789 4880 D 7819 4885 D 7850 4890 D
7881 4894 D 7911 4898 D 7942 4901 D 7973 4905 D 8003 4907 D 8034 4910 D 8065 4912 D 8095 4913 D 8126 4914 D 8157 4914 D 8187 4914 D
8218 4914 D 8249 4913 D 8279 4912 D 8310 4910 D 8341 4908 D 8371 4905 D 8402 4903 D 8433 4899 D 8464 4896 D 8494 4893 D 8525 4889 D
8556 4885 D 8586 4881 D 8617 4877 D 8648 4873 D 8678 4869 D 8709 4865 D 8740 4861 D 8770 4858 D 8801 4854 D 8832 4851 D 8862 4848 D
8893 4845 D 8924 4842 D 8954 4840 D 8985 4838 D 9016 4836 D 9046 4835 D 9077 4834 D 9108 4834 D 9138 4834 D 9169 4834 D 9200 4835 D
9230 4837 D 9261 4838 D 9292 4840 D 9322 4843 D 9353 4846 D 9384 4849 D 9414 4852 D 9445 4856 D 9476 4860 D 9506 4864 D 9537 4868 D
9568 4873 D 9598 4877 D 9629 4881 D 9660 4885 D 9691 4889 D 9721 4893 D 9752 4896 D 9783 4898 D 9813 4900 D 9844 4901 D 9875 4902 D
9905 4901 D 9936 4899 D 9967 4896 D 9997 4892 D 10028 4886 D 10059 4878 D 10089 4868 D 10120 4857 D 10151 4843 D 10181 4827 D
10212 4808 D 10243 4786 D 10273 4761 D 10304 4733 D
-36 0 8076 5777 L -4 -33 C 4 4 C 11 3 C 11 0 C 10 -3 C 8 -7 C 3 -11 C 0 -7 C -3 -11 C -8 -7 C -10 -4 C -11 0 C -11 4 C -4 3 C -3 7 C
-4 7 8382 5766 L -10 4 C -8 0 C -10 -4 C -8 -11 C -3 -18 C 0 -18 C 3 -14 C 8 -7 C 10 -4 C 4 0 C 11 4 C 7 7 C 4 11 C 0 3 C -4 11 C
-7 7 C -11 4 C -4 0 C -10 -4 C -8 -7 C -3 -11 C 7 4 8591 5762 L 11 11 C 0 -76 C -4 7 8699 5766 L -11 4 C -7 0 C -11 -4 C -7 -11 C
-3 -18 C 0 -18 C 3 -14 C 7 -7 C 11 -4 C 4 0 C 11 4 C 7 7 C 3 11 C 0 3 C -3 11 C -7 7 C -11 4 C -4 0 C -11 -4 C -7 -7 C -3 -11 C
-10 -4 8918 5777 L -8 -11 C -3 -18 C 0 -11 C 3 -18 C 8 -10 C 10 -4 C 8 0 C 10 4 C 8 10 C 3 18 C 0 11 C -3 18 C -8 11 C -10 4 C
-8 0 C -4 -3 8976 5708 L 4 -4 C 4 4 C -4 3 C -10 -4 9026 5777 L -8 -11 C -3 -18 C 0 -11 C 3 -18 C 8 -10 C 10 -4 C 8 0 C 10 4 C
8 10 C 3 18 C 0 11 C -3 18 C -8 11 C -10 4 C -8 0 C -4 7 9124 5766 L -11 4 C -7 0 C -11 -4 C -7 -11 C -4 -18 C 0 -18 C 4 -14 C
7 -7 C 11 -4 C 4 0 C 10 4 C 8 7 C 3 11 C 0 3 C -3 11 C -8 7 C -10 4 C -4 0 C -11 -4 C -7 -7 C -4 -11 C 40 0 9156 5777 L -22 -29 C
11 0 C 7 -4 C 4 -3 C 3 -11 C 0 -7 C -3 -11 C -8 -7 C -10 -4 C -11 0 C -11 4 C -4 3 C -3 7 C -11 -4 9415 5777 L -7 -11 C -4 -18 C
0 -11 C 4 -18 C 7 -10 C 11 -4 C 7 0 C 11 4 C 7 10 C 4 18 C 0 11 C -4 18 C -7 11 C -11 4 C -7 0 C -4 -3 9473 5708 L 4 -4 C 3 4 C
-3 3 C 7 4 9512 5762 L 11 11 C 0 -76 C -10 -4 9591 5777 L -4 -7 C 0 -7 C 4 -8 C 7 -3 C 14 -4 C 11 -3 C 7 -8 C 4 -7 C 0 -11 C -4 -7 C
-3 -3 C -11 -4 C -15 0 C -10 4 C -4 3 C -4 7 C 0 11 C 4 7 C 7 8 C 11 3 C 14 4 C 8 3 C 3 8 C 0 7 C -3 7 C -11 4 C -15 0 C
39 0 9653 5777 L -21 -29 C 10 0 C 8 -4 C 3 -3 C 4 -11 C 0 -7 C -4 -11 C -7 -7 C -11 -4 C -11 0 C -10 4 C -4 3 C -4 7 C
3110 0 195 2145 L 0 1560 C -3110 0 C 0 -1560 C 0 54 C 0 27 348 2145 L 0 27 502 2145 L 0 27 655 2145 L 0 27 808 2145 L
0 54 962 2145 L 0 27 1115 2145 L 0 27 1269 2145 L 0 27 1422 2145 L 0 27 1575 2145 L 0 54 1729 2145 L 0 27 1882 2145 L
0 27 2035 2145 L 0 27 2189 2145 L 0 27 2342 2145 L 0 54 2496 2145 L 0 27 2649 2145 L 0 27 2802 2145 L 0 27 2956 2145 L
0 27 3109 2145 L 0 54 3263 2145 L 0 54 195 3651 L 0 27 348 3678 L 0 27 502 3678 L 0 27 655 3678 L 0 27 808 3678 L 0 54 962 3651 L
0 27 1115 3678 L 0 27 1269 3678 L 0 27 1422 3678 L 0 27 1575 3678 L 0 54 1729 3651 L 0 27 1882 3678 L 0 27 2035 3678 L
0 27 2189 3678 L 0 27 2342 3678 L 0 54 2496 3651 L 0 27 2649 3678 L 0 27 2802 3678 L 0 27 2956 3678 L 0 27 3109 3678 L
0 54 3263 3651 L -10 -4 191 2080 L -8 -10 C -3 -18 C 0 -11 C 3 -18 C 8 -11 C 10 -4 C 8 0 C 10 4 C 8 11 C 3 18 C 0 11 C -3 18 C
-8 10 C -10 4 C -8 0 C 8 3 839 2066 L 10 11 C 0 -76 C -11 -4 922 2080 L -7 -10 C -3 -18 C 0 -11 C 3 -18 C 7 -11 C 11 -4 C 7 0 C
11 4 C 7 11 C 4 18 C 0 11 C -4 18 C -7 10 C -11 4 C -7 0 C -11 -4 994 2080 L -7 -10 C -3 -18 C 0 -11 C 3 -18 C 7 -11 C 11 -4 C 7 0 C
11 4 C 7 11 C 4 18 C 0 11 C -4 18 C -7 10 C -11 4 C -7 0 C -11 -4 1066 2080 L -7 -10 C -3 -18 C 0 -11 C 3 -18 C 7 -11 C 11 -4 C
7 0 C 11 4 C 7 11 C 4 18 C 0 11 C -4 18 C -7 10 C -11 4 C -7 0 C 0 4 1599 2062 L 4 7 C 3 3 C 8 4 C 14 0 C 7 -4 C 4 -3 C 3 -7 C
0 -8 C -3 -7 C -7 -11 C -36 -36 C 50 0 C -11 -4 1689 2080 L -7 -10 C -3 -18 C 0 -11 C 3 -18 C 7 -11 C 11 -4 C 7 0 C 11 4 C 7 11 C
4 18 C 0 11 C -4 18 C -7 10 C -11 4 C -7 0 C -11 -4 1761 2080 L -7 -10 C -3 -18 C 0 -11 C 3 -18 C 7 -11 C 11 -4 C 7 0 C 11 4 C
7 11 C 4 18 C 0 11 C -4 18 C -7 10 C -11 4 C -7 0 C -11 -4 1833 2080 L -7 -10 C -3 -18 C 0 -11 C 3 -18 C 7 -11 C 11 -4 C 7 0 C
11 4 C 7 11 C 4 18 C 0 11 C -4 18 C -7 10 C -11 4 C -7 0 C 39 0 2370 2080 L -21 -29 C 10 0 C 8 -3 C 3 -4 C 4 -11 C 0 -7 C -4 -11 C
-7 -7 C -11 -4 C -11 0 C -10 4 C -4 4 C -4 7 C -11 -4 2456 2080 L -7 -10 C -4 -18 C 0 -11 C 4 -18 C 7 -11 C 11 -4 C 7 0 C 11 4 C
7 11 C 4 18 C 0 11 C -4 18 C -7 10 C -11 4 C -7 0 C -11 -4 2528 2080 L -7 -10 C -4 -18 C 0 -11 C 4 -18 C 7 -11 C 11 -4 C 7 0 C
11 4 C 7 11 C 4 18 C 0 11 C -4 18 C -7 10 C -11 4 C -7 0 C -11 -4 2600 2080 L -7 -10 C -4 -18 C 0 -11 C 4 -18 C 7 -11 C 11 -4 C
7 0 C 11 4 C 7 11 C 4 18 C 0 11 C -4 18 C -7 10 C -11 4 C -7 0 C -36 -50 3165 2080 L 54 0 C 0 -76 3165 2080 L -11 -4 3223 2080 L
-7 -10 C -4 -18 C 0 -11 C 4 -18 C 7 -11 C 11 -4 C 7 0 C 11 4 C 7 11 C 4 18 C 0 11 C -4 18 C -7 10 C -11 4 C -7 0 C
-11 -4 3295 2080 L -7 -10 C -4 -18 C 0 -11 C 4 -18 C 7 -11 C 11 -4 C 7 0 C 11 4 C 7 11 C 4 18 C 0 11 C -4 18 C -7 10 C -11 4 C
-7 0 C -11 -4 3367 2080 L -7 -10 C -4 -18 C 0 -11 C 4 -18 C 7 -11 C 11 -4 C 7 0 C 11 4 C 7 11 C 4 18 C 0 11 C -4 18 C -7 10 C
-11 4 C -7 0 C 54 0 195 2216 L 27 0 195 2393 L 54 0 195 2570 L 27 0 195 2747 L 54 0 195 2925 L 27 0 195 3102 L 54 0 195 3279 L
27 0 195 3456 L 54 0 195 3634 L 54 0 3251 2216 L 27 0 3278 2393 L 54 0 3251 2570 L 27 0 3278 2747 L 54 0 3251 2925 L
27 0 3278 3102 L 54 0 3251 3279 L 27 0 3278 3456 L 54 0 3251 3634 L 0 65 81 2093 L 4 -11 37 2205 L 11 -7 C 18 -4 C 11 0 C 18 4 C
10 7 C 4 11 C 0 7 C -4 11 C -10 7 C -18 4 C -11 0 C -18 -4 C -11 -7 C -4 -11 C 0 -7 C 3 -3 106 2262 L 4 3 C -4 4 C -3 -4 C
51 -36 37 2327 L 0 54 C 76 0 37 2327 L 0 65 81 2448 L 4 -10 37 2559 L 11 -8 C 18 -3 C 11 0 C 18 3 C 10 8 C 4 10 C 0 8 C -4 10 C
-10 8 C -18 3 C -11 0 C -18 -3 C -11 -8 C -4 -10 C 0 -8 C 3 -4 106 2617 L 4 4 C -4 4 C -3 -4 C -3 0 55 2649 L -7 4 C -4 4 C -4 7 C
0 14 C 4 7 C 4 4 C 7 4 C 7 0 C 7 -4 C 11 -7 C 36 -36 C 0 50 C 4 -11 37 2921 L 11 -7 C 18 -4 C 11 0 C 18 4 C 10 7 C 4 11 C 0 7 C
-4 11 C -10 7 C -18 4 C -11 0 C -18 -4 C -11 -7 C -4 -11 C 0 -7 C 4 -11 37 3222 L 11 -7 C 18 -4 C 11 0 C 18 4 C 10 7 C 4 11 C 0 7 C
-4 11 C -10 7 C -18 3 C -11 0 C -18 -3 C -11 -7 C -4 -11 C 0 -7 C 3 -3 106 3279 L 4 3 C -4 4 C -3 -4 C -3 0 55 3312 L -7 3 C -4 4 C
-4 7 C 0 14 C 4 8 C 4 3 C 7 4 C 7 0 C 7 -4 C 11 -7 C 36 -36 C 0 50 C 4 -11 37 3576 L 11 -7 C 18 -4 C 11 0 C 18 4 C 10 7 C 4 11 C
0 7 C -4 11 C -10 7 C -18 4 C -11 0 C -18 -4 C -11 -7 C -4 -11 C 0 -7 C 3 -4 106 3634 L 4 4 C -4 3 C -3 -3 C 51 -36 37 3698 L 0 54 C
76 0 37 3698 L
3110 0 195 2925 L
856 2872 M4 1441 2980 M4 2117 3274 M4 3030 2216 M4
/MFAC      7.199 def    
3030 2216 M5
3030 2216 M31
206 2934 D 237 2929 D 268 2925 D 299 2922 D 329 2921 D 360 2920 D 391 2920 D 421 2920 D 452 2921 D 483 2922 D 513 2923 D 544 2925 D
575 2927 D 605 2928 D 636 2930 D 667 2932 D 697 2934 D 728 2935 D 759 2937 D 789 2938 D 820 2939 D 851 2940 D 881 2941 D 912 2941 D
943 2941 D 973 2941 D 1004 2940 D 1035 2940 D 1065 2939 D 1096 2938 D 1127 2936 D 1157 2935 D 1188 2933 D 1219 2931 D 1249 2929 D
1280 2926 D 1311 2924 D 1341 2921 D 1372 2918 D 1403 2916 D 1433 2913 D 1464 2910 D 1495 2907 D 1526 2904 D 1556 2901 D 1587 2899 D
1618 2896 D 1648 2893 D 1679 2891 D 1710 2888 D 1740 2886 D 1771 2884 D 1802 2882 D 1832 2881 D 1863 2879 D 1894 2878 D 1924 2877 D
1955 2876 D 1986 2875 D 2016 2875 D 2047 2875 D 2078 2875 D 2108 2875 D 2139 2876 D 2170 2877 D 2200 2878 D 2231 2879 D 2262 2880 D
2292 2882 D 2323 2884 D 2354 2886 D 2384 2888 D 2415 2891 D 2446 2893 D 2476 2896 D 2507 2899 D 2538 2901 D 2568 2904 D 2599 2907 D
2630 2910 D 2661 2913 D 2691 2915 D 2722 2918 D 2753 2921 D 2783 2923 D 2814 2925 D 2845 2927 D 2875 2929 D 2906 2931 D 2937 2932 D
2967 2933 D 2998 2933 D 3029 2933 D 3059 2933 D 3090 2932 D 3121 2931 D 3151 2930 D 3182 2927 D 3213 2925 D 3243 2921 D 3274 2918 D
3305 2913 D
-4 7 1088 3816 L -11 4 C -7 0 C -11 -4 C -7 -10 C -4 -18 C 0 -18 C 4 -15 C 7 -7 C 11 -4 C 4 0 C 10 4 C 8 7 C 3 11 C 0 4 C -3 10 C
-8 8 C -10 3 C -4 0 C -11 -3 C -7 -8 C -4 -10 C -4 7 1390 3816 L -11 4 C -7 0 C -11 -4 C -7 -10 C -3 -18 C 0 -18 C 3 -15 C 7 -7 C
11 -4 C 4 0 C 11 4 C 7 7 C 3 11 C 0 4 C -3 10 C -7 8 C -11 3 C -4 0 C -11 -3 C -7 -8 C -3 -10 C 39 0 1653 3827 L -21 -29 C 10 0 C
8 -3 C 3 -4 C 4 -11 C 0 -7 C -4 -11 C -7 -7 C -11 -4 C -11 0 C -10 4 C -4 4 C -4 7 C -11 -4 1912 3827 L -7 -10 C -4 -18 C 0 -11 C
4 -18 C 7 -11 C 11 -4 C 7 0 C 11 4 C 7 11 C 4 18 C 0 11 C -4 18 C -7 10 C -11 4 C -7 0 C -3 -4 1969 3759 L 3 -4 C 4 4 C -4 4 C
7 3 2009 3813 L 11 11 C 0 -76 C 7 3 2081 3813 L 11 11 C 0 -76 C -4 7 2189 3816 L -10 4 C -8 0 C -10 -4 C -8 -10 C -3 -18 C 0 -18 C
3 -15 C 8 -7 C 10 -4 C 4 0 C 11 4 C 7 7 C 4 11 C 0 4 C -4 10 C -7 8 C -11 3 C -4 0 C -10 -3 C -8 -8 C -3 -10 C -11 -4 2409 3827 L
-7 -10 C -4 -18 C 0 -11 C 4 -18 C 7 -11 C 11 -4 C 7 0 C 11 4 C 7 11 C 3 18 C 0 11 C -3 18 C -7 10 C -11 4 C -7 0 C -3 -4 2466 3759 L
3 -4 C 4 4 C -4 4 C 7 3 2506 3813 L 11 11 C 0 -76 C -4 -11 2614 3802 L -7 -7 C -11 -4 C -3 0 C -11 4 C -7 7 C -4 11 C 0 3 C 4 11 C
7 7 C 11 4 C 3 0 C 11 -4 C 7 -7 C 4 -14 C 0 -18 C -4 -18 C -7 -11 C -11 -4 C -7 0 C -11 4 C -3 7 C -36 -76 2689 3827 L
50 0 2639 3827 L
3109 0 3695 2145 L 0 1560 C -3109 0 C 0 -1560 C 0 54 C 0 27 3848 2145 L 0 27 4001 2145 L 0 27 4155 2145 L 0 27 4308 2145 L
0 54 4462 2145 L 0 27 4615 2145 L 0 27 4768 2145 L 0 27 4922 2145 L 0 27 5075 2145 L 0 54 5228 2145 L 0 27 5382 2145 L
0 27 5535 2145 L 0 27 5689 2145 L 0 27 5842 2145 L 0 54 5995 2145 L 0 27 6149 2145 L 0 27 6302 2145 L 0 27 6455 2145 L
0 27 6609 2145 L 0 54 6762 2145 L 0 54 3695 3651 L 0 27 3848 3678 L 0 27 4001 3678 L 0 27 4155 3678 L 0 27 4308 3678 L
0 54 4462 3651 L 0 27 4615 3678 L 0 27 4768 3678 L 0 27 4922 3678 L 0 27 5075 3678 L 0 54 5228 3651 L 0 27 5382 3678 L
0 27 5535 3678 L 0 27 5689 3678 L 0 27 5842 3678 L 0 54 5995 3651 L 0 27 6149 3678 L 0 27 6302 3678 L 0 27 6455 3678 L
0 27 6609 3678 L 0 54 6762 3651 L -11 -4 3691 2080 L -7 -10 C -4 -18 C 0 -11 C 4 -18 C 7 -11 C 11 -4 C 7 0 C 11 4 C 7 11 C 4 18 C
0 11 C -4 18 C -7 10 C -11 4 C -7 0 C 7 3 4339 2066 L 11 11 C 0 -76 C -11 -4 4422 2080 L -7 -10 C -4 -18 C 0 -11 C 4 -18 C 7 -11 C
11 -4 C 7 0 C 11 4 C 7 11 C 4 18 C 0 11 C -4 18 C -7 10 C -11 4 C -7 0 C -11 -4 4494 2080 L -7 -10 C -4 -18 C 0 -11 C 4 -18 C
7 -11 C 11 -4 C 7 0 C 11 4 C 7 11 C 4 18 C 0 11 C -4 18 C -7 10 C -11 4 C -7 0 C -11 -4 4566 2080 L -7 -10 C -4 -18 C 0 -11 C
4 -18 C 7 -11 C 11 -4 C 7 0 C 11 4 C 7 11 C 4 18 C 0 11 C -4 18 C -7 10 C -11 4 C -7 0 C 0 4 5099 2062 L 3 7 C 4 3 C 7 4 C 15 0 C
7 -4 C 3 -3 C 4 -7 C 0 -8 C -4 -7 C -7 -11 C -36 -36 C 51 0 C -11 -4 5189 2080 L -7 -10 C -4 -18 C 0 -11 C 4 -18 C 7 -11 C 11 -4 C
7 0 C 11 4 C 7 11 C 4 18 C 0 11 C -4 18 C -7 10 C -11 4 C -7 0 C -11 -4 5261 2080 L -7 -10 C -4 -18 C 0 -11 C 4 -18 C 7 -11 C
11 -4 C 7 0 C 11 4 C 7 11 C 4 18 C 0 11 C -4 18 C -7 10 C -11 4 C -7 0 C -11 -4 5333 2080 L -7 -10 C -4 -18 C 0 -11 C 4 -18 C
7 -11 C 11 -4 C 7 0 C 11 4 C 7 11 C 4 18 C 0 11 C -4 18 C -7 10 C -11 4 C -7 0 C 40 0 5869 2080 L -22 -29 C 11 0 C 7 -3 C 4 -4 C
4 -11 C 0 -7 C -4 -11 C -7 -7 C -11 -4 C -11 0 C -11 4 C -3 4 C -4 7 C -11 -4 5956 2080 L -7 -10 C -4 -18 C 0 -11 C 4 -18 C 7 -11 C
11 -4 C 7 0 C 11 4 C 7 11 C 3 18 C 0 11 C -3 18 C -7 10 C -11 4 C -7 0 C -11 -4 6028 2080 L -7 -10 C -4 -18 C 0 -11 C 4 -18 C
7 -11 C 11 -4 C 7 0 C 11 4 C 7 11 C 3 18 C 0 11 C -3 18 C -7 10 C -11 4 C -7 0 C -11 -4 6100 2080 L -7 -10 C -4 -18 C 0 -11 C
4 -18 C 7 -11 C 11 -4 C 7 0 C 11 4 C 7 11 C 3 18 C 0 11 C -3 18 C -7 10 C -11 4 C -7 0 C -36 -50 6665 2080 L 54 0 C
0 -76 6665 2080 L -11 -4 6723 2080 L -7 -10 C -4 -18 C 0 -11 C 4 -18 C 7 -11 C 11 -4 C 7 0 C 11 4 C 7 11 C 3 18 C 0 11 C -3 18 C
-7 10 C -11 4 C -7 0 C -11 -4 6795 2080 L -7 -10 C -4 -18 C 0 -11 C 4 -18 C 7 -11 C 11 -4 C 7 0 C 11 4 C 7 11 C 3 18 C 0 11 C
-3 18 C -7 10 C -11 4 C -7 0 C -11 -4 6867 2080 L -7 -10 C -4 -18 C 0 -11 C 4 -18 C 7 -11 C 11 -4 C 7 0 C 11 4 C 7 11 C 3 18 C
0 11 C -3 18 C -7 10 C -11 4 C -7 0 C 54 0 3695 2216 L 27 0 3695 2393 L 54 0 3695 2570 L 27 0 3695 2747 L 54 0 3695 2925 L
27 0 3695 3102 L 54 0 3695 3279 L 27 0 3695 3456 L 54 0 3695 3634 L 54 0 6750 2216 L 27 0 6777 2393 L 54 0 6750 2570 L
27 0 6777 2747 L 54 0 6750 2925 L 27 0 6777 3102 L 54 0 6750 3279 L 27 0 6777 3456 L 54 0 6750 3634 L 0 65 3580 2093 L
4 -11 3537 2205 L 11 -7 C 18 -4 C 10 0 C 18 4 C 11 7 C 4 11 C 0 7 C -4 11 C -11 7 C -18 4 C -10 0 C -18 -4 C -11 -7 C -4 -11 C
0 -7 C 3 -3 3606 2262 L 4 3 C -4 4 C -3 -4 C 51 -36 3537 2327 L 0 54 C 76 0 3537 2327 L 0 65 3580 2448 L 4 -10 3537 2559 L 11 -8 C
18 -3 C 10 0 C 18 3 C 11 8 C 4 10 C 0 8 C -4 10 C -11 8 C -18 3 C -10 0 C -18 -3 C -11 -8 C -4 -10 C 0 -8 C 3 -4 3606 2617 L 4 4 C
-4 4 C -3 -4 C -3 0 3555 2649 L -8 4 C -3 4 C -4 7 C 0 14 C 4 7 C 3 4 C 8 4 C 7 0 C 7 -4 C 11 -7 C 36 -36 C 0 50 C 4 -11 3537 2921 L
11 -7 C 18 -4 C 10 0 C 18 4 C 11 7 C 4 11 C 0 7 C -4 11 C -11 7 C -18 4 C -10 0 C -18 -4 C -11 -7 C -4 -11 C 0 -7 C
4 -11 3537 3222 L 11 -7 C 18 -4 C 10 0 C 18 4 C 11 7 C 4 11 C 0 7 C -4 11 C -11 7 C -18 3 C -10 0 C -18 -3 C -11 -7 C -4 -11 C
0 -7 C 3 -3 3606 3279 L 4 3 C -4 4 C -3 -4 C -3 0 3555 3312 L -8 3 C -3 4 C -4 7 C 0 14 C 4 8 C 3 3 C 8 4 C 7 0 C 7 -4 C 11 -7 C
36 -36 C 0 50 C 4 -11 3537 3576 L 11 -7 C 18 -4 C 10 0 C 18 4 C 11 7 C 4 11 C 0 7 C -4 11 C -11 7 C -18 4 C -10 0 C -18 -4 C
-11 -7 C -4 -11 C 0 -7 C 3 -4 3606 3634 L 4 4 C -4 3 C -3 -3 C 51 -36 3537 3698 L 0 54 C 76 0 3537 3698 L
3109 0 3695 2925 L
/MFAC      3.600 def    
3809 3634 M4 3975 2216 M4 4056 2925 M4
/MFAC      7.199 def    
3809 3634 M5 3975 2216 M5
/M30 {MB 2 6 moveto 0 9 lineto -2 6 lineto 5 3 moveto                           
0 8 lineto -5 3 lineto 0 8 moveto 0 -9 lineto stroke ME}                        
bind def                                                                        
3809 3634 M30
3975 2216 M31
3706 2925 D 3737 2925 D 3767 2925 D 3798 2925 D 3829 2925 D 3860 2925 D 3890 2925 D 3921 2925 D 3952 2925 D 3982 2925 D 4013 2925 D
4044 2925 D 4074 2925 D 4105 2925 D 4136 2925 D 4166 2925 D 4197 2925 D 4228 2925 D 4258 2925 D 4289 2925 D 4320 2925 D 4350 2925 D
4381 2925 D 4412 2925 D 4442 2925 D 4473 2925 D 4504 2925 D 4534 2925 D 4565 2925 D 4596 2925 D 4626 2925 D 4657 2925 D 4688 2925 D
4718 2925 D 4749 2925 D 4780 2925 D 4810 2925 D 4841 2925 D 4872 2925 D 4902 2925 D 4933 2925 D 4964 2925 D 4995 2925 D 5025 2925 D
5056 2925 D 5087 2925 D 5117 2925 D 5148 2925 D 5179 2925 D 5209 2925 D 5240 2925 D 5271 2925 D 5301 2925 D 5332 2925 D 5363 2925 D
5393 2925 D 5424 2925 D 5455 2925 D 5485 2925 D 5516 2925 D 5547 2925 D 5577 2925 D 5608 2925 D 5639 2925 D 5669 2925 D 5700 2925 D
5731 2925 D 5761 2925 D 5792 2925 D 5823 2925 D 5853 2925 D 5884 2925 D 5915 2925 D 5945 2925 D 5976 2925 D 6007 2925 D 6037 2925 D
6068 2925 D 6099 2925 D 6130 2925 D 6160 2925 D 6191 2925 D 6222 2925 D 6252 2925 D 6283 2925 D 6314 2925 D 6344 2925 D 6375 2925 D
6406 2925 D 6436 2925 D 6467 2925 D 6498 2925 D 6528 2925 D 6559 2925 D 6590 2925 D 6620 2925 D 6651 2925 D 6682 2925 D 6712 2925 D
6743 2925 D 6774 2925 D
-36 -76 4591 3827 L 51 0 4540 3827 L -4 7 4890 3816 L -11 4 C -7 0 C -11 -4 C -7 -10 C -4 -18 C 0 -18 C 4 -15 C 7 -7 C 11 -4 C 4 0 C
10 4 C 8 7 C 3 11 C 0 4 C -3 10 C -8 8 C -10 3 C -4 0 C -11 -3 C -7 -8 C -4 -10 C 7 3 5156 3813 L 11 11 C 0 -76 C -10 -4 5411 3827 L
-8 -10 C -3 -18 C 0 -11 C 3 -18 C 8 -11 C 10 -4 C 8 0 C 10 4 C 8 11 C 3 18 C 0 11 C -3 18 C -8 10 C -10 4 C -8 0 C -4 -4 5469 3759 L
4 -4 C 4 4 C -4 4 C -10 -4 5519 3827 L -8 -10 C -3 -18 C 0 -11 C 3 -18 C 8 -11 C 10 -4 C 8 0 C 10 4 C 8 11 C 3 18 C 0 11 C -3 18 C
-8 10 C -10 4 C -8 0 C -10 -4 5591 3827 L -8 -10 C -3 -18 C 0 -11 C 3 -18 C 8 -11 C 10 -4 C 8 0 C 10 4 C 8 11 C 3 18 C 0 11 C
-3 18 C -8 10 C -10 4 C -8 0 C -10 -4 5663 3827 L -8 -10 C -3 -18 C 0 -11 C 3 -18 C 8 -11 C 10 -4 C 8 0 C 10 4 C 8 11 C 3 18 C
0 11 C -3 18 C -8 10 C -10 4 C -8 0 C -11 -4 5908 3827 L -7 -10 C -3 -18 C 0 -11 C 3 -18 C 7 -11 C 11 -4 C 7 0 C 11 4 C 7 11 C
4 18 C 0 11 C -4 18 C -7 10 C -11 4 C -7 0 C -4 -4 5966 3759 L 4 -4 C 3 4 C -3 4 C -11 -4 6016 3827 L -7 -10 C -3 -18 C 0 -11 C
3 -18 C 7 -11 C 11 -4 C 7 0 C 11 4 C 7 11 C 4 18 C 0 11 C -4 18 C -7 10 C -11 4 C -7 0 C -11 -4 6088 3827 L -7 -10 C -3 -18 C
0 -11 C 3 -18 C 7 -11 C 11 -4 C 7 0 C 11 4 C 7 11 C 4 18 C 0 11 C -4 18 C -7 10 C -11 4 C -7 0 C -11 -4 6160 3827 L -7 -10 C
-3 -18 C 0 -11 C 3 -18 C 7 -11 C 11 -4 C 7 0 C 11 4 C 7 11 C 4 18 C 0 11 C -4 18 C -7 10 C -11 4 C -7 0 C
3110 0 7194 2145 L 0 1560 C -3110 0 C 0 -1560 C 0 27 C 0 54 7505 2145 L 0 27 7816 2145 L 0 54 8127 2145 L 0 27 8438 2145 L
0 54 8749 2145 L 0 27 9060 2145 L 0 54 9371 2145 L 0 27 9682 2145 L 0 54 9993 2145 L 0 27 10304 2145 L 0 27 7194 3678 L
0 54 7505 3651 L 0 27 7816 3678 L 0 54 8127 3651 L 0 27 8438 3678 L 0 54 8749 3651 L 0 27 9060 3678 L 0 54 9371 3651 L
0 27 9682 3678 L 0 54 9993 3651 L 0 27 10304 3678 L -11 -4 7502 2080 L -7 -10 C -4 -18 C 0 -11 C 4 -18 C 7 -11 C 11 -4 C 7 0 C
11 4 C 7 11 C 3 18 C 0 11 C -3 18 C -7 10 C -11 4 C -7 0 C 0 4 8106 2062 L 3 7 C 4 3 C 7 4 C 14 0 C 8 -4 C 3 -3 C 4 -7 C 0 -8 C
-4 -7 C -7 -11 C -36 -36 C 50 0 C -36 -50 8760 2080 L 54 0 C 0 -76 8760 2080 L -4 7 9393 2069 L -11 4 C -7 0 C -11 -4 C -7 -10 C
-3 -18 C 0 -18 C 3 -15 C 7 -7 C 11 -4 C 4 0 C 11 4 C 7 7 C 3 11 C 0 4 C -3 10 C -7 8 C -11 3 C -4 0 C -11 -3 C -7 -8 C -3 -10 C
-11 -4 9986 2080 L -4 -7 C 0 -7 C 4 -7 C 7 -4 C 15 -3 C 10 -4 C 8 -7 C 3 -7 C 0 -11 C -3 -7 C -4 -4 C -11 -4 C -14 0 C -11 4 C
-4 4 C -3 7 C 0 11 C 3 7 C 8 7 C 10 4 C 15 3 C 7 4 C 4 7 C 0 7 C -4 7 C -11 4 C -14 0 C 54 0 7194 2145 L 27 0 7194 2221 L
27 0 7194 2297 L 27 0 7194 2373 L 27 0 7194 2449 L 54 0 7194 2525 L 27 0 7194 2601 L 27 0 7194 2677 L 27 0 7194 2753 L
27 0 7194 2830 L 54 0 7194 2906 L 27 0 7194 2982 L 27 0 7194 3058 L 27 0 7194 3134 L 27 0 7194 3210 L 54 0 7194 3286 L
27 0 7194 3362 L 27 0 7194 3438 L 27 0 7194 3514 L 27 0 7194 3590 L 54 0 7194 3666 L 54 0 10250 2145 L 27 0 10277 2221 L
27 0 10277 2297 L 27 0 10277 2373 L 27 0 10277 2449 L 54 0 10250 2525 L 27 0 10277 2601 L 27 0 10277 2677 L 27 0 10277 2753 L
27 0 10277 2830 L 54 0 10250 2906 L 27 0 10277 2982 L 27 0 10277 3058 L 27 0 10277 3134 L 27 0 10277 3210 L 54 0 10250 3286 L
27 0 10277 3362 L 27 0 10277 3438 L 27 0 10277 3514 L 27 0 10277 3590 L 54 0 10250 3666 L 3 -11 7037 2141 L 11 -7 C 18 -3 C 11 0 C
18 3 C 11 7 C 3 11 C 0 7 C -3 11 C -11 7 C -18 4 C -11 0 C -18 -4 C -11 -7 C -3 -11 C 0 -7 C 3 -11 7037 2468 L 11 -7 C 18 -4 C
11 0 C 18 4 C 11 7 C 3 11 C 0 7 C -3 11 C -11 7 C -18 3 C -11 0 C -18 -3 C -11 -7 C -3 -11 C 0 -7 C 4 -3 7105 2525 L 3 3 C -3 4 C
-4 -4 C -3 7 7051 2565 L -11 11 C 75 0 C 3 -11 7037 2848 L 11 -7 C 18 -4 C 11 0 C 18 4 C 11 7 C 3 11 C 0 7 C -3 11 C -11 7 C -18 4 C
-11 0 C -18 -4 C -11 -7 C -3 -11 C 0 -7 C 4 -4 7105 2906 L 3 4 C -3 3 C -4 -3 C -4 0 7055 2938 L -7 4 C -4 3 C -3 7 C 0 15 C 3 7 C
4 4 C 7 3 C 7 0 C 8 -3 C 10 -8 C 36 -36 C 0 51 C 3 -10 7037 3228 L 11 -8 C 18 -3 C 11 0 C 18 3 C 11 8 C 3 10 C 0 8 C -3 10 C -11 8 C
-18 3 C -11 0 C -18 -3 C -11 -8 C -3 -10 C 0 -8 C 4 -4 7105 3286 L 3 4 C -3 4 C -4 -4 C 0 40 7037 3322 L 29 -22 C 0 11 C 3 7 C 4 4 C
11 3 C 7 0 C 11 -3 C 7 -8 C 3 -10 C 0 -11 C -3 -11 C -4 -4 C -7 -3 C 3 -11 7037 3609 L 11 -7 C 18 -4 C 11 0 C 18 4 C 11 7 C 3 11 C
0 7 C -3 11 C -11 7 C -18 4 C -11 0 C -18 -4 C -11 -7 C -3 -11 C 0 -7 C 4 -3 7105 3666 L 3 3 C -3 4 C -4 -4 C 50 -36 7037 3731 L
0 54 C 75 0 7037 3731 L
311 -138 7816 2532 L 311 88 C 311 158 C 311 -254 C 311 201 C 311 -442 C
/MFAC      3.600 def    
7816 2732 M4 8127 2698 M4 8438 2774 M4 8749 3383 M4 9060 2842 M4 9371 2894 M4 9682 2145 M4
78 0 7505 2715 L 78 0 7661 2715 L 78 0 7817 2715 L 78 0 7973 2715 L 78 0 8129 2715 L 78 0 8285 2715 L 78 0 8441 2715 L
78 0 8597 2715 L 78 0 8753 2715 L 78 0 8909 2715 L 78 0 9065 2715 L 78 0 9221 2715 L 78 0 9377 2715 L 78 0 9533 2715 L
78 0 9689 2715 L 78 0 9845 2715 L
18 -76 7847 3804 L -18 -76 7883 3804 L 18 -76 7883 3804 L -18 -76 7919 3804 L 0 -76 7941 3804 L 32 0 7941 3804 L 11 -4 C 4 -4 C
3 -7 C 0 -7 C -3 -7 C -4 -4 C -11 -3 C -32 0 C 25 -40 7966 3768 L 0 -76 8017 3804 L 28 -76 8017 3804 L -29 -76 8074 3804 L
0 -76 8074 3804 L -7 7 8150 3793 L -11 4 C -15 0 C -10 -4 C -8 -7 C 0 -7 C 4 -8 C 4 -3 C 7 -4 C 21 -7 C 8 -4 C 3 -3 C 4 -7 C 0 -11 C
-7 -7 C -11 -4 C -15 0 C -10 4 C -8 7 C 0 -50 8272 3778 L -7 7 8272 3768 L -7 3 C -11 0 C -7 -3 C -7 -7 C -4 -11 C 0 -7 C 4 -11 C
7 -7 C 7 -4 C 11 0 C 7 4 C 7 7 C 0 -50 8301 3778 L 11 11 8301 3764 L 7 3 C 11 0 C 7 -3 C 4 -11 C 0 -36 C 0 -76 8409 3804 L
-7 7 8409 3768 L -7 3 C -11 0 C -7 -3 C -8 -7 C -3 -11 C 0 -7 C 3 -11 C 8 -7 C 7 -4 C 11 0 C 7 4 C 7 7 C 0 -76 8495 3804 L
0 -76 8546 3804 L 51 0 8495 3768 L 4 -4 8571 3804 L 3 4 C -3 3 C -4 -3 C 0 -50 8575 3778 L 0 -57 8643 3778 L -4 -11 C -3 -4 C
-7 -3 C -11 0 C -7 3 C -7 7 8643 3768 L -7 3 C -11 0 C -7 -3 C -8 -7 C -3 -11 C 0 -7 C 3 -11 C 8 -7 C 7 -4 C 11 0 C 7 4 C 7 7 C
0 -76 8672 3804 L 11 11 8672 3764 L 7 3 C 11 0 C 7 -3 C 3 -11 C 0 -36 C 0 -76 8798 3804 L 32 0 8798 3804 L 11 -4 C 4 -4 C 3 -7 C
0 -7 C -3 -7 C -4 -4 C -11 -3 C -32 0 C 25 -40 8823 3768 L 43 0 8870 3757 L 0 7 C -4 7 C -3 4 C -7 3 C -11 0 C -7 -3 C -8 -7 C
-3 -11 C 0 -7 C 3 -11 C 8 -7 C 7 -4 C 11 0 C 7 4 C 7 7 C -3 7 8974 3768 L -11 3 C -11 0 C -11 -3 C -3 -7 C 3 -8 C 7 -3 C 18 -4 C
8 -3 C 3 -8 C 0 -3 C -3 -7 C -11 -4 C -11 0 C -11 4 C -3 7 C 3 -4 8996 3804 L 4 4 C -4 3 C -3 -3 C 0 -50 8999 3778 L
0 -76 9068 3804 L -7 7 9068 3768 L -8 3 C -10 0 C -8 -3 C -7 -7 C -3 -11 C 0 -7 C 3 -11 C 7 -7 C 8 -4 C 10 0 C 8 4 C 7 7 C
-3 -3 9100 3735 L 3 -4 C 4 4 C -4 3 C 22 -50 9183 3778 L -21 -50 9226 3778 L -4 7 9284 3768 L -11 3 C -10 0 C -11 -3 C -4 -7 C
4 -8 C 7 -3 C 18 -4 C 7 -3 C 4 -8 C 0 -3 C -4 -7 C -11 -4 C -10 0 C -11 4 C -4 7 C -3 -3 9312 3735 L 3 -4 C 4 4 C -4 3 C
0 -50 9402 3778 L 4 11 9402 3757 L 7 7 C 7 3 C 11 0 C -8 -3 9464 3778 L -7 -7 C -3 -11 C 0 -7 C 3 -11 C 7 -7 C 8 -4 C 10 0 C 8 4 C
7 7 C 3 11 C 0 7 C -3 11 C -7 7 C -8 3 C -10 0 C 14 -50 9514 3778 L -15 -50 9543 3778 L 14 -50 9543 3778 L -15 -50 9572 3778 L
-25 -115 9622 3818 L -26 -115 9644 3818 L 50 0 9597 3771 L 51 0 9593 3750 L
3110 0 195 195 L 0 1560 C -3110 0 C 0 -1560 C 0 27 C 0 54 506 195 L 0 27 817 195 L 0 54 1128 195 L 0 27 1439 195 L 0 54 1750 195 L
0 27 2061 195 L 0 54 2372 195 L 0 27 2683 195 L 0 54 2994 195 L 0 27 3305 195 L 0 27 195 1728 L 0 54 506 1701 L 0 27 817 1728 L
0 54 1128 1701 L 0 27 1439 1728 L 0 54 1750 1701 L 0 27 2061 1728 L 0 54 2372 1701 L 0 27 2683 1728 L 0 54 2994 1701 L
0 27 3305 1728 L -10 -3 502 130 L -8 -11 C -3 -18 C 0 -11 C 3 -18 C 8 -11 C 10 -3 C 8 0 C 10 3 C 8 11 C 3 18 C 0 11 C -3 18 C
-8 11 C -10 3 C -8 0 C 0 4 1106 112 L 4 7 C 3 4 C 8 3 C 14 0 C 7 -3 C 4 -4 C 3 -7 C 0 -7 C -3 -8 C -7 -10 C -36 -36 C 50 0 C
-36 -50 1761 130 L 54 0 C 0 -75 1761 130 L -3 8 2393 119 L -11 3 C -7 0 C -11 -3 C -7 -11 C -4 -18 C 0 -18 C 4 -15 C 7 -7 C 11 -3 C
3 0 C 11 3 C 7 7 C 4 11 C 0 4 C -4 11 C -7 7 C -11 3 C -3 0 C -11 -3 C -7 -7 C -4 -11 C -11 -3 2987 130 L -4 -8 C 0 -7 C 4 -7 C
7 -4 C 14 -3 C 11 -4 C 7 -7 C 4 -7 C 0 -11 C -4 -7 C -3 -4 C -11 -3 C -14 0 C -11 3 C -4 4 C -3 7 C 0 11 C 3 7 C 7 7 C 11 4 C 15 3 C
7 4 C 3 7 C 0 7 C -3 8 C -11 3 C -14 0 C 27 0 195 200 L 54 0 195 291 L 27 0 195 382 L 27 0 195 473 L 27 0 195 564 L 27 0 195 656 L
54 0 195 747 L 27 0 195 838 L 27 0 195 929 L 27 0 195 1020 L 27 0 195 1112 L 54 0 195 1203 L 27 0 195 1294 L 27 0 195 1385 L
27 0 195 1477 L 27 0 195 1568 L 54 0 195 1659 L 27 0 195 1750 L 27 0 3278 200 L 54 0 3251 291 L 27 0 3278 382 L 27 0 3278 473 L
27 0 3278 564 L 27 0 3278 656 L 54 0 3251 747 L 27 0 3278 838 L 27 0 3278 929 L 27 0 3278 1020 L 27 0 3278 1112 L 54 0 3251 1203 L
27 0 3278 1294 L 27 0 3278 1385 L 27 0 3278 1477 L 27 0 3278 1568 L 54 0 3251 1659 L 27 0 3278 1750 L 4 -11 37 287 L 11 -7 C 18 -3 C
11 0 C 18 3 C 10 7 C 4 11 C 0 7 C -4 11 C -10 7 C -18 4 C -11 0 C -18 -4 C -11 -7 C -4 -11 C 0 -7 C -4 8 52 696 L -11 10 C 76 0 C
4 -11 37 779 L 11 -7 C 18 -3 C 11 0 C 18 3 C 10 7 C 4 11 C 0 7 C -4 11 C -10 7 C -18 4 C -11 0 C -18 -4 C -11 -7 C -4 -11 C 0 -7 C
-3 0 55 1145 L -7 4 C -4 4 C -4 7 C 0 14 C 4 7 C 4 4 C 7 4 C 7 0 C 7 -4 C 11 -7 C 36 -36 C 0 50 C 4 -10 37 1235 L 11 -8 C 18 -3 C
11 0 C 18 3 C 10 8 C 4 10 C 0 8 C -4 10 C -10 8 C -18 3 C -11 0 C -18 -3 C -11 -8 C -4 -10 C 0 -8 C 0 40 37 1605 L 29 -22 C 0 11 C
4 7 C 3 4 C 11 3 C 7 0 C 11 -3 C 7 -8 C 4 -10 C 0 -11 C -4 -11 C -3 -4 C -7 -3 C 4 -10 37 1691 L 11 -8 C 18 -3 C 11 0 C 18 3 C
10 8 C 4 10 C 0 8 C -4 10 C -10 8 C -18 3 C -11 0 C -18 -3 C -11 -8 C -4 -10 C 0 -8 C
311 912 817 747 L 311 -410 C 311 -320 C 311 91 C 311 -592 C 311 -92 C
817 382 M4 1128 291 M4 1439 291 M4 1750 291 M4 2061 291 M4 2372 336 M4 2683 382 M4
-25 -115 1035 1868 L -25 -115 1057 1868 L 51 0 1010 1821 L 50 0 1007 1800 L -7 -4 1158 1829 L -8 -7 C -3 -11 C 0 -7 C 3 -11 C 8 -7 C
7 -4 C 11 0 C 7 4 C 7 7 C 4 11 C 0 7 C -4 11 C -7 7 C -7 4 C -11 0 C -7 0 1233 1854 L -7 -4 C -4 -11 C 0 -61 C 25 0 1205 1829 L
0 -76 1312 1829 L 8 7 1312 1818 L 7 4 C 11 0 C 7 -4 C 7 -7 C 4 -11 C 0 -7 C -4 -11 C -7 -7 C -7 -4 C -11 0 C -7 4 C -8 7 C
-7 -4 1395 1829 L -7 -7 C -4 -11 C 0 -7 C 4 -11 C 7 -7 C 7 -4 C 11 0 C 7 4 C 7 7 C 4 11 C 0 7 C -4 11 C -7 7 C -7 4 C -11 0 C
3 -4 1446 1854 L 4 4 C -4 3 C -3 -3 C 0 -51 1449 1829 L 0 -51 1478 1829 L 11 11 1478 1814 L 7 4 C 11 0 C 7 -4 C 4 -11 C 0 -36 C
0 -61 1550 1854 L 4 -11 C 7 -4 C 7 0 C 25 0 1539 1829 L -4 7 1626 1818 L -11 4 C -11 0 C -10 -4 C -4 -7 C 4 -7 C 7 -4 C 18 -4 C
7 -3 C 4 -7 C 0 -4 C -4 -7 C -11 -4 C -11 0 C -10 4 C -4 7 C 0 -36 1708 1829 L 4 -11 C 7 -4 C 11 0 C 7 4 C 11 11 C 0 -51 1748 1829 L
-4 7 1813 1818 L -11 4 C -10 0 C -11 -4 C -4 -7 C 4 -7 C 7 -4 C 18 -4 C 7 -3 C 4 -7 C 0 -4 C -4 -7 C -11 -4 C -10 0 C -11 4 C -4 7 C
44 0 1834 1807 L 0 7 C -4 7 C -4 4 C -7 4 C -11 0 C -7 -4 C -7 -7 C -4 -11 C 0 -7 C 4 -11 C 7 -7 C 7 -4 C 11 0 C 7 4 C 8 7 C
0 -76 1942 1854 L -7 7 1942 1818 L -7 4 C -11 0 C -7 -4 C -7 -7 C -4 -11 C 0 -7 C 4 -11 C 7 -7 C 7 -4 C 11 0 C 7 4 C 7 7 C
-3 -4 1978 1782 L -4 4 C 4 3 C 3 -3 C 0 -7 C -3 -8 C -4 -3 C 0 -51 2065 1829 L 3 11 2065 1807 L 8 7 C 7 4 C 11 0 C 43 0 2108 1807 L
0 7 C -3 7 C -4 4 C -7 4 C -11 0 C -7 -4 C -7 -7 C -4 -11 C 0 -7 C 4 -11 C 7 -7 C 7 -4 C 11 0 C 7 4 C 7 7 C 4 -4 2180 1854 L 3 4 C
-3 3 C -4 -3 C 0 -62 2184 1829 L -4 -10 C -7 -4 C -7 0 C 43 0 2209 1807 L 0 7 C -4 7 C -3 4 C -7 4 C -11 0 C -7 -4 C -8 -7 C
-3 -11 C 0 -7 C 3 -11 C 8 -7 C 7 -4 C 11 0 C 7 4 C 7 7 C -7 7 2317 1818 L -8 4 C -10 0 C -8 -4 C -7 -7 C -3 -11 C 0 -7 C 3 -11 C
7 -7 C 8 -4 C 10 0 C 8 4 C 7 7 C 0 -61 2346 1854 L 3 -11 C 7 -4 C 8 0 C 25 0 2335 1829 L 43 0 2382 1807 L 0 7 C -4 7 C -3 4 C -8 4 C
-10 0 C -8 -4 C -7 -7 C -3 -11 C 0 -7 C 3 -11 C 7 -7 C 8 -4 C 10 0 C 8 4 C 7 7 C 0 -76 2490 1854 L -8 7 2490 1818 L -7 4 C -11 0 C
-7 -4 C -7 -7 C -4 -11 C 0 -7 C 4 -11 C 7 -7 C 7 -4 C 11 0 C 7 4 C 8 7 C
PGPLOT restore showpage
%%PageTrailer
%%PageBoundingBox: 30 20 584 767
 
%%Trailer
%%BoundingBox: 30 20 584 767
%%DocumentFonts: 
%%Pages: 1
%%EOF
