%!PS-Adobe-3.0 EPSF-3.0
%%For: tab
%%Title: PGPLOT PostScript plot
%%Creator: PGPLOT
%%CreationDate: 20-Apr-1995 16:30
%%BoundingBox: 25 18 587 774
%%DocumentFonts: (atend)
%%LanguageLevel: 1
%%Orientation: Landscape
%%Pages: (atend)
%%EndComments
%%BeginProlog
/l {moveto rlineto currentpoint stroke moveto} bind def
/c {rlineto currentpoint stroke moveto} bind def
/d {moveto 0 0 rlineto currentpoint stroke moveto} bind def
/SLW {5 mul setlinewidth} bind def
/SCF /pop load def
/BP {newpath moveto} bind def
/LP /rlineto load def
/EP {rlineto closepath eofill} bind def
/MB {gsave translate MFAC dup scale 1 setlinewidth 2 setlinecap 0 setlinejoin newpath} bind def
/ME /grestore load def
/C {0 360 arc stroke} bind def
/FC {0 360 arc fill} bind def
%%EndProlog
 
%%Page: 1 1
%%BeginPageSetup
/PGPLOT save def
0.072 0.072 scale
8150 250 translate 90 rotate
1 setlinejoin 1 setlinecap 1 SLW 1 SCF
%%EndPageSetup
0.000 setgray 1 SLW 8939 0 780 780 l 0 6239 c -8939 0 c 0 -6239 c 0 -45 1116 780 l 0 -45 1554 780 l 0 -45 1991 780 l
0 -45 2428 780 l 0 -90 2865 780 l 0 -45 3302 780 l 0 -45 3739 780 l 0 -45 4176 780 l 0 -45 4613 780 l 0 -90 5051 780 l
0 -45 5488 780 l 0 -45 5925 780 l 0 -45 6362 780 l 0 -45 6799 780 l 0 -90 7236 780 l 0 -45 7673 780 l 0 -45 8110 780 l
0 -45 8548 780 l 0 -45 8985 780 l 0 -90 9422 780 l 0 -45 1116 7064 l 0 -45 1554 7064 l 0 -45 1991 7064 l 0 -45 2428 7064 l
0 -90 2865 7109 l 0 -45 3302 7064 l 0 -45 3739 7064 l 0 -45 4176 7064 l 0 -45 4613 7064 l 0 -90 5051 7109 l 0 -45 5488 7064 l
0 -45 5925 7064 l 0 -45 6362 7064 l 0 -45 6799 7064 l 0 -90 7236 7109 l 0 -45 7673 7064 l 0 -45 8110 7064 l 0 -45 8548 7064 l
0 -45 8985 7064 l 0 -90 9422 7109 l -60 0 2775 672 l -6 -54 c 6 6 c 18 6 c 18 0 c 18 -6 c 12 -12 c 6 -18 c 0 -12 c -6 -18 c
-12 -12 c -18 -6 c -18 0 c -18 6 c -6 6 c -6 12 c -18 -6 2859 672 l -12 -18 c -6 -30 c 0 -18 c 6 -30 c 12 -18 c 18 -6 c 12 0 c
18 6 c 12 18 c 6 30 c 0 18 c -6 30 c -12 18 c -18 6 c -12 0 c -18 -6 2979 672 l -12 -18 c -6 -30 c 0 -18 c 6 -30 c 12 -18 c 18 -6 c
12 0 c 18 6 c 12 18 c 6 30 c 0 18 c -6 30 c -12 18 c -18 6 c -12 0 c 12 6 4847 648 l 18 18 c 0 -126 c -18 -6 4985 672 l -12 -18 c
-6 -30 c 0 -18 c 6 -30 c 12 -18 c 18 -6 c 12 0 c 18 6 c 12 18 c 6 30 c 0 18 c -6 30 c -12 18 c -18 6 c -12 0 c -18 -6 5105 672 l
-12 -18 c -6 -30 c 0 -18 c 6 -30 c 12 -18 c 18 -6 c 12 0 c 18 6 c 12 18 c 6 30 c 0 18 c -6 30 c -12 18 c -18 6 c -12 0 c
-18 -6 5225 672 l -12 -18 c -6 -30 c 0 -18 c 6 -30 c 12 -18 c 18 -6 c 12 0 c 18 6 c 12 18 c 6 30 c 0 18 c -6 30 c -12 18 c -18 6 c
-12 0 c 12 6 7032 648 l 18 18 c 0 -126 c -60 0 7206 672 l -6 -54 c 6 6 c 18 6 c 18 0 c 18 -6 c 12 -12 c 6 -18 c 0 -12 c -6 -18 c
-12 -12 c -18 -6 c -18 0 c -18 6 c -6 6 c -6 12 c -18 -6 7290 672 l -12 -18 c -6 -30 c 0 -18 c 6 -30 c 12 -18 c 18 -6 c 12 0 c
18 6 c 12 18 c 6 30 c 0 18 c -6 30 c -12 18 c -18 6 c -12 0 c -18 -6 7410 672 l -12 -18 c -6 -30 c 0 -18 c 6 -30 c 12 -18 c 18 -6 c
12 0 c 18 6 c 12 18 c 6 30 c 0 18 c -6 30 c -12 18 c -18 6 c -12 0 c 0 6 9206 642 l 6 12 c 6 6 c 12 6 c 24 0 c 12 -6 c 6 -6 c
6 -12 c 0 -12 c -6 -12 c -12 -18 c -60 -60 c 84 0 c -18 -6 9356 672 l -12 -18 c -6 -30 c 0 -18 c 6 -30 c 12 -18 c 18 -6 c 12 0 c
18 6 c 12 18 c 6 30 c 0 18 c -6 30 c -12 18 c -18 6 c -12 0 c -18 -6 9476 672 l -12 -18 c -6 -30 c 0 -18 c 6 -30 c 12 -18 c 18 -6 c
12 0 c 18 6 c 12 18 c 6 30 c 0 18 c -6 30 c -12 18 c -18 6 c -12 0 c -18 -6 9596 672 l -12 -18 c -6 -30 c 0 -18 c 6 -30 c 12 -18 c
18 -6 c 12 0 c 18 6 c 12 18 c 6 30 c 0 18 c -6 30 c -12 18 c -18 6 c -12 0 c -90 0 780 780 l -45 0 780 1116 l -45 0 780 1453 l
-45 0 780 1789 l -45 0 780 2126 l -90 0 780 2462 l -45 0 780 2798 l -45 0 780 3135 l -45 0 780 3471 l -45 0 780 3808 l
-90 0 780 4144 l -45 0 780 4481 l -45 0 780 4817 l -45 0 780 5153 l -45 0 780 5490 l -90 0 780 5826 l -45 0 780 6163 l
-45 0 780 6499 l -45 0 780 6836 l -90 0 9809 780 l -45 0 9764 1116 l -45 0 9764 1453 l -45 0 9764 1789 l -45 0 9764 2126 l
-90 0 9809 2462 l -45 0 9764 2798 l -45 0 9764 3135 l -45 0 9764 3471 l -45 0 9764 3808 l -90 0 9809 4144 l -45 0 9764 4481 l
-45 0 9764 4817 l -45 0 9764 5153 l -45 0 9764 5490 l -90 0 9809 5826 l -45 0 9764 6163 l -45 0 9764 6499 l -45 0 9764 6836 l
6 -18 517 774 l 18 -12 c 30 -6 c 18 0 c 30 6 c 18 12 c 6 18 c 0 12 c -6 18 c -18 12 c -30 6 c -18 0 c -30 -6 c -18 -12 c -6 -18 c
0 -12 c 0 -60 517 2312 l 54 -6 c -6 6 c -6 18 c 0 18 c 6 18 c 12 12 c 18 6 c 12 0 c 18 -6 c 12 -12 c 6 -18 c 0 -18 c -6 -18 c
-6 -6 c -12 -6 c 6 -18 517 2396 l 18 -12 c 30 -6 c 18 0 c 30 6 c 18 12 c 6 18 c 0 12 c -6 18 c -18 12 c -30 6 c -18 0 c -30 -6 c
-18 -12 c -6 -18 c 0 -12 c 6 -18 517 2516 l 18 -12 c 30 -6 c 18 0 c 30 6 c 18 12 c 6 18 c 0 12 c -6 18 c -18 12 c -30 6 c -18 0 c
-30 -6 c -18 -12 c -6 -18 c 0 -12 c 6 -18 517 2636 l 18 -12 c 30 -6 c 18 0 c 30 6 c 18 12 c 6 18 c 0 12 c -6 18 c -18 12 c -30 6 c
-18 0 c -30 -6 c -18 -12 c -6 -18 c 0 -12 c -6 12 541 4024 l -18 18 c 126 0 c 6 -18 517 4162 l 18 -12 c 30 -6 c 18 0 c 30 6 c
18 12 c 6 18 c 0 12 c -6 18 c -18 12 c -30 6 c -18 0 c -30 -6 c -18 -12 c -6 -18 c 0 -12 c 63 -45 453 4287 l 0 67 c 94 0 453 4287 l
-6 12 541 5490 l -18 18 c 126 0 c 6 -6 631 5604 l 6 6 c -6 6 c -6 -6 c 0 -60 517 5724 l 54 -6 c -6 6 c -6 18 c 0 18 c 6 18 c 12 12 c
18 6 c 12 0 c 18 -6 c 12 -12 c 6 -18 c 0 -18 c -6 -18 c -6 -6 c -12 -6 c 84 84 547 5778 l 84 -84 547 5862 l -6 12 541 5922 l
-18 18 c 126 0 c 6 -18 517 6060 l 18 -12 c 30 -6 c 18 0 c 30 6 c 18 12 c 6 18 c 0 12 c -6 18 c -18 12 c -30 6 c -18 0 c -30 -6 c
-18 -12 c -6 -18 c 0 -12 c 63 -45 453 6185 l 0 67 c 94 0 453 6185 l
4 41 780 923 l 5 -34 c 4 -98 c 4 -38 c 5 -2 c 4 2 c 4 2 c 5 7 c 4 10 c 5 0 c 4 -11 c 4 -8 c 5 -1 c 4 2 c 4 -2 c 5 -1 c 4 -1 c 5 1 c
4 -1 c 4 0 c 5 -1 c 4 2 c 4 0 c 5 0 c 4 2 c 5 5 c 4 10 c 4 25 c 5 28 c 4 32 c 4 4 c 5 -33 c 4 -42 c 5 -1 c 4 12 c 4 -5 c 5 -23 c
4 -13 c 4 -1 c 5 -2 c 4 1 c 4 -1 c 5 0 c 4 0 c 5 0 c 4 -1 c 4 1 c 5 1 c 4 0 c 4 -1 c 5 0 c 4 2 c 5 -2 c 4 1 c 4 0 c 5 1 c 4 0 c
4 0 c 5 -1 c 4 1 c 5 2 c 4 7 c 4 9 c 5 27 c 4 14 c 4 -13 c 5 -35 c 4 -10 c 5 -1 c 4 1 c 4 0 c 5 -1 c 4 0 c 4 -1 c 5 -1 c 4 0 c 4 0 c
5 0 c 4 0 c 5 1 c 4 -1 c 4 2 c 5 0 c 4 -12 c 4 0 c 5 11 c 4 -1 c 5 1 c 4 -1 c 4 2 c 5 3 c 4 6 c 4 16 c 5 18 c 4 -6 c 5 -20 c 4 -14 c
4 1 c 5 4 c 4 7 c 4 15 c 5 2 c 4 -7 c 5 -18 c 4 0 c 4 11 c 5 14 c 4 -3 c 4 -9 c 5 -11 c 4 -5 c 4 -4 c 5 1 c 4 2 c 5 5 c 4 2 c 4 -3 c
5 -7 c 4 -1 c 4 0 c 5 1 c 4 0 c 5 1 c 4 0 c 4 -1 c 5 -1 c 4 2 c 4 -2 c 5 1 c 4 1 c 5 -1 c 4 -1 c 4 1 c 5 1 c 4 1 c 4 -1 c 5 -1 c
4 2 c 5 2 c 4 3 c 4 2 c 5 -3 c 4 -4 c 4 -2 c 5 1 c 4 0 c 4 0 c 5 5 c 4 1 c 5 0 c 4 -4 c 4 1 c 5 5 c 4 21 c 4 42 c 5 120 c 4 196 c
5 54 c 4 -75 c 4 -174 c 5 -109 c 4 -74 c 4 -7 c 5 -1 c 4 1 c 5 -2 c 4 -1 c 4 0 c 5 0 c 4 2 c 4 2 c 5 7 c 4 5 c 4 -4 c 5 -5 c 4 0 c
5 11 c 4 31 c 4 60 c 5 22 c 4 -29 c 4 -65 c 5 -20 c 4 -7 c 5 1 c 4 -3 c 4 0 c 5 2 c 4 14 c 4 6 c 5 -6 c 4 -19 c 5 -5 c 4 -1 c 4 1 c
5 0 c 4 2 c 4 2 c 5 1 c 4 1 c 5 -3 c 4 -1 c 4 1 c 5 3 c 4 0 c 4 -3 c 5 -3 c 4 0 c 4 1 c 5 -1 c 4 3 c 5 3 c 4 -1 c 4 -3 c 5 -1 c
4 0 c 4 0 c 5 0 c 4 1 c 5 2 c 4 1 c 4 -1 c 5 -2 c 4 -2 c 4 1 c 5 1 c 4 0 c 5 0 c 4 1 c 4 0 c 5 0 c 4 3 c 4 1 c 5 2 c 4 2 c 5 3 c
4 4 c 4 12 c 5 68 c 4 209 c 4 573 c 5 1087 c 4 374 c 4 -675 c 5 -1140 c 4 -382 c 5 51 c 4 33 c 4 -60 c 5 -118 c 4 -34 c 4 -2 c 5 0 c
4 -5 c 5 -5 c 4 0 c 4 2 c 5 0 c 4 -1 c 4 -1 c 5 3 c 4 -3 c 5 -1 c 4 0 c 4 -1 c 5 1 c 4 1 c 4 2 c 5 12 c 4 42 c 5 133 c 4 350 c
4 238 c 5 -91 c 4 -379 c 4 -261 c 5 -35 c 4 -8 c 4 -3 c 5 -2 c 4 0 c 5 1 c 4 1 c 4 7 c 5 3 c 4 -3 c 4 -9 c 5 -3 c 4 1 c 5 -1 c 4 1 c
4 0 c 5 1 c 4 0 c 4 -2 c 5 1 c 4 -1 c 5 1 c 4 0 c 4 -1 c 5 0 c 4 1 c 4 -1 c 5 2 c 4 2 c 5 6 c 4 13 c 4 3 c 5 -7 c 4 -3 c 4 14 c
5 11 c 4 -14 c 4 -18 c 5 -7 c 4 -1 c 5 1 c 4 -2 c 4 2 c 5 0 c 4 1 c 4 0 c 5 2 c 4 2 c 5 -1 c 4 -2 c 4 -1 c 5 1 c 4 0 c 4 -1 c 5 -1 c
4 -1 c 5 0 c 4 10 c 4 28 c 5 100 c 4 62 c 4 -17 c 5 -111 c 4 -50 c 4 -10 c 5 0 c 4 -2 c 5 -7 c 4 -3 c 4 0 c 5 0 c 4 -1 c 4 1 c 5 0 c
4 -1 c 5 0 c 4 0 c 4 4 c 5 15 c 4 20 c 4 -1 c 5 -16 c 4 -17 c 5 -4 c 4 0 c 4 -1 c 5 2 c 4 0 c 4 1 c 5 0 c 4 1 c 5 2 c 4 2 c 4 2 c
5 -2 c 4 -4 c 4 -2 c 5 1 c 4 -1 c 4 0 c 5 1 c 4 -1 c 5 -1 c 4 1 c 4 0 c 5 -1 c 4 0 c 4 0 c 5 0 c 4 1 c 5 0 c 4 -1 c 4 0 c 5 0 c
4 0 c 4 0 c 5 1 c 4 0 c 5 3 c 4 17 c 4 45 c 5 29 c 4 -16 c 4 -46 c 5 -18 c 4 -3 c 5 -4 c 4 -5 c 4 -2 c 5 1 c 4 -1 c 4 0 c 5 0 c
4 2 c 4 1 c 5 10 c 4 46 c 5 141 c 4 52 c 4 -63 c 5 -145 c 4 -38 c 4 -3 c 5 1 c 4 -2 c 5 0 c 4 0 c 4 10 c 5 27 c 4 23 c 4 -6 c
5 -29 c 4 14 c 5 140 c 4 235 c 4 42 c 5 -165 c 4 -224 c 4 -59 c 5 -6 c 4 0 c 5 -1 c 4 0 c 4 1 c 5 -2 c 4 0 c 4 -1 c 5 0 c 4 -2 c
4 2 c 5 0 c 4 1 c 5 1 c 4 -1 c 4 0 c 5 1 c 4 1 c 4 -1 c 5 3 c 4 2 c 5 2 c 4 4 c 4 18 c 5 149 c 4 935 c 4 1232 c 5 18 c 4 -1216 c
5 -1002 c 4 -130 c 4 -6 c 5 -2 c 4 1 c 4 10 c 5 17 c 4 3 c 5 -15 c 4 -18 c 4 -4 c 5 -1 c 4 -2 c 4 -1 c 5 0 c 4 1 c 4 -1 c 5 1 c
4 -1 c 5 0 c 4 0 c 4 0 c 5 1 c 4 -1 c 4 2 c 5 0 c 4 0 c 5 13 c 4 40 c 4 17 c 5 -21 c 4 -41 c 4 -10 c 5 0 c 4 0 c 5 3 c 4 0 c 4 -1 c
5 -1 c 4 -1 c 4 1 c 5 0 c 4 19 c 4 51 c 5 17 c 4 -23 c 5 -49 c 4 -11 c 4 -3 c 5 -2 c 4 0 c 4 0 c 5 -1 c 4 0 c 5 0 c 4 1 c 4 3 c
5 12 c 4 23 c 4 0 c 5 -21 c 4 -15 c 5 0 c 4 -2 c 4 0 c 5 0 c 4 1 c 4 4 c 5 4 c 4 1 c 5 -4 c 4 -4 c 4 -2 c 5 -1 c 4 2 c 4 -1 c 5 7 c
4 5 c 4 0 c 5 -8 c 4 -4 c 5 1 c 4 15 c 4 79 c 5 54 c 4 -19 c 4 -90 c 5 -37 c 4 -3 c 5 -1 c 4 0 c 4 0 c 5 1 c 4 -1 c 4 1 c 5 0 c
4 0 c 5 1 c 4 3 c 4 19 c 5 25 c 4 2 c 4 -24 c 5 -19 c 4 -3 c 5 -1 c 4 -3 c 4 1 c 5 0 c 4 1 c 4 0 c 5 7 c 4 2 c 4 -4 c 5 -4 c 4 -2 c
5 -1 c 4 -1 c 4 3 c 5 6 c 4 2 c 4 -4 c 5 -6 c 4 0 c 5 -1 c 4 1 c 4 1 c 5 4 c 4 4 c 4 1 c 5 -4 c 4 -5 c 5 -2 c 4 1 c 4 4 c 5 7 c
4 -1 c 4 -4 c 5 -4 c 4 1 c 5 13 c 4 4 c 4 -3 c 5 -4 c 4 7 c 4 8 c 5 -7 c 4 -13 c 4 -6 c 5 4 c 4 2 c 5 0 c 4 -5 c 4 -2 c 5 1 c 4 0 c
4 -1 c 5 -1 c 4 1 c 5 -1 c 4 2 c 4 8 c 5 12 c 4 0 c 4 -11 c 5 -8 c 4 -1 c 5 -2 c 4 -1 c 4 1 c 5 1 c 4 -1 c 4 1 c 5 1 c 4 23 c
4 100 c 5 45 c 4 -32 c 5 -102 c 4 -34 c 4 -2 c 5 0 c 4 1 c 4 5 c 5 5 c 4 1 c 5 -3 c 4 0 c 4 18 c 5 3 c 4 -5 c 4 -14 c 5 -3 c 4 -4 c
5 -1 c 4 1 c 4 1 c 5 1 c 4 -2 c 4 -1 c 5 -2 c 4 -1 c 5 1 c 4 -2 c 4 0 c 5 0 c 4 1 c 4 1 c 5 4 c 4 5 c 4 -1 c 5 -2 c 4 1 c 5 3 c
4 0 c 4 -5 c 5 6 c 4 32 c 4 12 c 5 -13 c 4 -29 c 5 -2 c 4 4 c 4 1 c 5 -6 c 4 -4 c 4 -3 c 5 4 c 4 7 c 5 7 c 4 -2 c 4 -8 c 5 -4 c
4 -2 c 4 -2 c 5 -2 c 4 -1 c 5 1 c 4 -2 c 4 1 c 5 3 c 4 7 c 4 -1 c 5 -7 c 4 -1 c 4 -1 c 5 -1 c 4 0 c 5 0 c 4 -1 c 4 1 c 5 1 c 4 2 c
4 0 c 5 -1 c 4 -1 c 5 0 c 4 2 c 4 0 c 5 0 c 4 -2 c 4 1 c 5 0 c 4 1 c 5 0 c 4 1 c 4 9 c 5 0 c 4 -3 c 4 -8 c 5 0 c 4 5 c 5 4 c 4 0 c
4 -1 c 5 -1 c 4 -2 c 4 0 c 5 -4 c 4 0 c 4 -2 c 5 1 c 4 -1 c 5 0 c 4 3 c 4 2 c 5 1 c 4 -3 c 4 -1 c 5 0 c 4 4 c 5 2 c 4 0 c 4 -7 c
5 -2 c 4 3 c 4 4 c 5 3 c 4 -2 c 5 -5 c 4 -3 c 4 1 c 5 1 c 4 0 c 4 0 c 5 0 c 4 -2 c 5 1 c 4 -1 c 4 2 c 5 0 c 4 0 c 4 -2 c 5 0 c 4 0 c
4 1 c 5 1 c 4 3 c 5 3 c 4 1 c 4 -4 c 5 -3 c 4 1 c 4 3 c 5 1 c 4 -1 c 5 -3 c 4 0 c 4 -1 c 5 0 c 4 1 c 4 0 c 5 0 c 4 1 c 5 2 c 4 0 c
4 0 c 5 2 c 4 1 c 4 4 c 5 9 c 4 27 c 4 186 c 5 607 c 4 461 c 5 -168 c 4 -632 c 4 -215 c 5 382 c 4 131 c 4 -205 c 5 -449 c 4 -124 c
5 -11 c 4 -5 c 4 0 c 5 -2 c 4 0 c 4 0 c 5 3 c 4 14 c 5 52 c 4 34 c 4 -6 c 5 -39 c 4 -23 c 4 -16 c 5 -12 c 4 -9 c 5 0 c 4 -2 c 4 0 c
5 1 c 4 -1 c 4 1 c 5 -1 c 4 0 c 4 -1 c 5 1 c 4 0 c 5 0 c 4 0 c 4 0 c 5 0 c 4 -1 c 4 1 c 5 -1 c 4 1 c 5 1 c 4 0 c 4 3 c 5 2 c 4 0 c
4 -3 c 5 -3 c 4 1 c 5 -1 c 4 0 c 4 2 c 5 7 c 4 10 c 4 0 c 5 -7 c 4 -10 c 5 -1 c 4 -1 c 4 1 c 5 3 c 4 0 c 4 -2 c 5 -2 c 4 0 c 4 0 c
5 2 c 4 -2 c 5 1 c 4 -1 c 4 0 c 5 2 c 4 -1 c 4 0 c 5 2 c 4 5 c 5 55 c 4 120 c 4 28 c 5 -72 c 4 -113 c 4 -17 c 5 -4 c 4 2 c 5 3 c
4 14 c 4 131 c 5 731 c 4 642 c 4 -112 c 5 -819 c 4 -533 c 5 -52 c 4 -1 c 4 3 c 5 12 c 4 8 c 4 -1 c 5 -12 c 4 -12 c 4 4 c 5 23 c
4 6 c 5 -9 c 4 -19 c 4 -3 c 5 0 c 4 -4 c 4 -5 c 5 -1 c 4 -1 c 5 1 c 4 -1 c 4 1 c 5 -1 c 4 -1 c 4 0 c 5 0 c 4 2 c 5 2 c 4 0 c 4 0 c
5 -5 c 4 1 c 4 0 c 5 0 c 4 1 c 5 -1 c 4 2 c 4 3 c 5 1 c 4 -3 c 4 -2 c 5 1 c 4 12 c 4 36 c 5 22 c 4 -15 c 5 -42 c 4 -14 c 4 -1 c
5 1 c 4 2 c 4 13 c 5 11 c 4 0 c 5 -12 c 4 -11 c 4 -17 c 5 14 c 4 1 c 4 -1 c 5 2 c 4 1 c 5 -1 c 4 -1 c 4 0 c 5 2 c 4 2 c 4 -2 c 5 2 c
4 5 c 4 7 c 5 -2 c 4 -9 c 5 -3 c 4 3 c 4 2 c 5 1 c 4 0 c 4 0 c 5 9 c 4 110 c 5 564 c 4 431 c 4 -75 c 5 -599 c 4 -408 c 4 -34 c
5 -1 c 4 -1 c 5 1 c 4 -1 c 4 -1 c 5 10 c 4 34 c 4 17 c 5 -1 c 4 4 c 5 7 c 4 -9 c 4 -39 c 5 -20 c 4 -1 c 4 7 c 5 2 c 4 1 c 4 -7 c
5 -3 c 4 0 c 5 0 c 4 19 c 4 98 c 5 137 c 4 15 c 4 -111 c 5 -127 c 4 -27 c 5 -4 c 4 -1 c 4 -1 c 5 -2 c 4 0 c 4 0 c 5 3 c 4 0 c 5 -1 c
4 -2 c 4 -1 c 5 2 c 4 14 c 4 95 c 5 83 c 4 -10 c 5 -106 c 4 -69 c 4 -8 c 5 -1 c 4 0 c 4 11 c 5 22 c 4 11 c 4 -12 c 5 -22 c 4 -7 c
5 -1 c 4 -1 c 4 -1 c 5 0 c 4 -1 c 4 3 c 5 0 c 4 0 c 5 3 c 4 10 c 4 0 c 5 -7 c 4 -5 c 4 1 c 5 11 c 4 15 c 5 2 c 4 -11 c 4 -14 c
5 -4 c 4 0 c 4 1 c 5 0 c 4 7 c 5 15 c 4 9 c 4 5 c 5 -9 c 4 -9 c 4 -14 c 5 -4 c 4 -4 c 4 2 c 5 0 c 4 1 c 5 -1 c 4 1 c 4 0 c 5 -2 c
4 1 c 4 6 c 5 65 c 4 157 c 5 47 c 4 -71 c 4 -155 c 5 -46 c 4 -3 c 4 -3 c 5 0 c 4 1 c 5 0 c 4 0 c 4 0 c 5 0 c 4 0 c 4 1 c 5 1 c 4 0 c
4 0 c 5 -1 c 4 1 c 5 1 c 4 3 c 4 0 c 5 -21 c 4 25 c 4 4 c 5 12 c 4 59 c 5 402 c 4 588 c 4 728 c 5 244 c 4 -477 c 4 -875 c 5 -597 c
4 -78 c 5 -6 c 4 -29 c 4 0 c 5 54 c 4 -1 c 4 -10 c 5 -15 c 4 -9 c 5 2 c 4 4 c 4 6 c 5 3 c 4 -2 c 4 -6 c 5 -5 c 4 -4 c 4 2 c 5 5 c
4 1 c 5 -1 c 4 -6 c 4 -1 c 5 -1 c 4 5 c 4 18 c 5 8 c 4 -5 c 5 -17 c 4 22 c 4 76 c 5 30 c 4 -35 c 4 -74 c 5 -24 c 4 0 c 5 2 c 4 9 c
4 2 c 5 6 c 4 50 c 4 39 c 5 -2 c 4 -42 c 5 -35 c 4 -13 c 4 -13 c 5 -6 c 4 -1 c 4 0 c 5 1 c 4 4 c 4 6 c 5 0 c 4 -3 c 5 9 c 4 131 c
4 332 c 5 122 c 4 -138 c 4 -344 c 5 -111 c 4 -6 c 5 -2 c 4 1 c 4 -2 c 5 0 c 4 1 c 4 2 c 5 5 c 4 -1 c 5 -1 c 4 -1 c 4 5 c 5 6 c
4 17 c 4 57 c 5 24 c 4 -25 c 5 -62 c 4 -26 c 4 0 c 5 0 c 4 5 c 4 16 c 5 23 c 4 3 c 4 -11 c 5 -16 c 4 -13 c 5 -9 c 4 -1 c 4 -1 c
5 1 c 4 1 c 4 2 c 5 0 c 4 0 c 5 -3 c 4 0 c 4 2 c 5 9 c 4 18 c 4 3 c 5 -11 c 4 -15 c 5 7 c 4 16 c 4 2 c 5 -9 c 4 -11 c 4 0 c 5 -2 c
4 1 c 5 30 c 4 43 c 4 46 c 5 75 c 4 1 c 4 -52 c 5 -114 c 4 -34 c 4 -1 c 5 -2 c 4 0 c 5 -1 c 4 4 c 4 6 c 5 2 c 4 4 c 4 41 c 5 54 c
4 4 c 5 -51 c 4 -53 c 4 -8 c 5 -1 c 4 1 c 4 1 c 5 22 c 4 15 c 5 -6 c 4 -22 c 4 -12 c 5 4 c 4 6 c 4 2 c 5 -5 c 4 -6 c 4 0 c 5 2 c
4 -1 c 5 2 c 4 1 c 4 -1 c 5 -2 c 4 -3 c 4 0 c 5 2 c 4 23 c 5 67 c 4 29 c 4 -31 c 5 -61 c 4 -26 c 4 -1 c 5 -1 c 4 2 c 5 1 c 4 2 c
4 -2 c 5 3 c 4 13 c 4 6 c 5 -2 c 4 -10 c 5 -2 c 4 -5 c 4 -3 c 5 2 c 4 -2 c 4 -1 c 5 -1 c 4 4 c 4 48 c 5 103 c 4 18 c 5 -54 c 4 -96 c
4 -22 c 5 15 c 4 59 c 4 32 c 5 -15 c 4 -59 c 5 -29 c 4 -2 c 4 0 c 5 -3 c 4 0 c 4 -1 c 5 0 c 4 0 c 5 6 c 4 12 c 4 27 c 5 37 c 4 -2 c
4 -95 c 5 31 c 4 -12 c 5 -2 c 4 -2 c 4 0 c 5 2 c 4 4 c 4 5 c 5 20 c 4 12 c 4 -8 c 5 -23 c 4 -12 c 5 -1 c 4 0 c 4 1 c 5 0 c 4 0 c
4 0 c 5 3 c 4 5 c 5 26 c 4 37 c 4 61 c 5 11 c 4 -39 c 4 -69 c 5 -31 c 4 -3 c 5 -1 c 4 -1 c 4 -1 c 5 1 c 4 2 c 4 3 c 5 3 c 4 4 c
5 -2 c 4 -3 c 4 -2 c 5 -3 c 4 -2 c 4 0 c 5 -1 c 4 1 c 4 -1 c 5 0 c 4 1 c 5 1 c 4 4 c 4 1 c 5 -2 c 4 -1 c 4 2 c 5 8 c 4 3 c 5 -3 c
4 -6 c 4 -2 c 5 -2 c 4 2 c 4 1 c 5 2 c 4 0 c 5 -3 c 4 -2 c 4 0 c 5 3 c 4 19 c 4 112 c 5 114 c 4 11 c 5 -100 c 4 -100 c 4 0 c 5 33 c
4 -11 c 4 -27 c 5 -40 c 4 -11 c 4 -1 c 5 -1 c 4 2 c 5 8 c 4 10 c 4 12 c 5 -1 c 4 -10 c 4 -12 c 5 -9 c 4 -1 c 5 2 c 4 18 c 4 58 c
5 29 c 4 -17 c 4 -60 c 5 -30 c 4 -2 c 5 0 c 4 0 c 4 1 c 5 15 c 4 27 c 4 7 c 5 -13 c 4 -26 c 4 -4 c 5 -2 c 4 -2 c 5 -1 c 4 -3 c 4 2 c
5 4 c 4 2 c 4 0 c 5 -2 c 4 -1 c 5 -1 c 4 -1 c 4 -3 c 5 1 c 4 0 c 4 2 c 5 6 c 4 11 c 5 17 c 4 75 c 4 158 c 5 39 c 4 -83 c 4 -172 c
5 -43 c 4 -3 c 5 -2 c 4 -3 c 4 1 c 5 0 c 4 1 c 4 -1 c 5 4 c 4 8 c 4 10 c 5 2 c 4 1 c 5 -8 c 4 -8 c 4 -8 c 5 -2 c 4 2 c 4 2 c 5 -1 c
4 -3 c 5 2 c 4 1 c 4 0 c 5 0 c 4 -4 c 4 2 c 5 -2 c 4 0 c 5 -1 c 4 -1 c 4 0 c 5 2 c 4 0 c 4 2 c 5 -2 c 4 -1 c 5 2 c 4 1 c 4 2 c 5 0 c
4 0 c 4 1 c 5 2 c 4 23 c 4 110 c 5 98 c 4 5 c 5 -101 c 4 -99 c 4 -19 c 5 7 c 4 16 c 4 -3 c 5 -15 c 4 -21 c 5 -4 c 4 1 c 4 -3 c
5 -3 c 4 -1 c 4 0 c 5 1 c 4 1 c 5 2 c 4 2 c 4 -2 c 5 -2 c 4 -1 c 4 1 c 5 -1 c 4 0 c 5 0 c 4 6 c 4 10 c 5 6 c 4 10 c 4 60 c 5 37 c
4 -10 c 4 -72 c 5 -35 c 4 -3 c 5 35 c 4 96 c 4 26 c 5 -34 c 4 -99 c 4 -30 c 5 -3 c 4 0 c 5 4 c 4 22 c 4 20 c 5 -4 c 4 -22 c 4 -16 c
5 -1 c 4 0 c 5 -1 c 4 -2 c 4 -1 c 5 -1 c 4 2 c 4 0 c 5 0 c 4 0 c 5 1 c 4 0 c 4 -2 c 5 0 c 4 0 c 4 0 c 5 1 c 4 -1 c 4 0 c 5 0 c 4 0 c
5 0 c 4 1 c 4 6 c 5 12 c 4 5 c 4 -4 c 5 -5 c 4 77 c 5 126 c 4 21 c 4 -77 c 5 -125 c 4 26 c 4 91 c 5 12 c 4 -50 c 5 -94 c 4 -19 c
4 -1 c 5 -1 c 4 0 c 4 1 c 5 -1 c 4 0 c 4 0 c 5 4 c 4 15 c 5 13 c 4 7 c 4 -10 c 5 -11 c 4 -12 c 4 -5 c 5 -1 c 4 5 c 5 24 c 4 17 c
4 2 c 5 -27 c 4 -20 c 4 1 c 5 1 c 4 2 c 5 0 c 4 2 c 4 4 c 5 18 c 4 7 c 4 -8 c 5 -12 c 4 1 c 5 -1 c 4 -5 c 4 -7 c 5 0 c 4 0 c 4 2 c
5 3 c 4 3 c 4 1 c 5 0 c 4 -1 c 5 8 c 4 40 c 4 38 c 5 -3 c 4 -33 c 4 -24 c 5 4 c 4 32 c 5 229 c 4 2125 c 4 3332 c 5 282 c 4 -1949 c
4 -2770 c 5 -54 c 4 -9 c 5 -508 c 4 -553 c 4 -135 c 5 -26 c 4 -11 c 4 -7 c 5 -4 c 4 -2 c 5 -1 c 4 -1 c 4 -2 c 5 -2 c 4 -2 c 4 -3 c
5 2 c 4 5 c 4 1 c 5 -3 c 4 -5 c 5 0 c 4 1 c 4 3 c 5 5 c 4 15 c 4 25 c 5 7 c 4 -20 c 5 -30 c 4 10 c 4 98 c 5 80 c 4 -9 c 4 -90 c
5 -83 c 4 -3 c 5 27 c 4 8 c 4 -5 c 5 -26 c 4 -12 c 4 0 c 5 -2 c 4 -2 c 5 3 c 4 0 c 4 -1 c 5 -2 c 4 -1 c 4 0 c 5 0 c 4 2 c 4 -1 c
5 1 c 4 0 c 5 -1 c 4 0 c 4 0 c 5 11 c 4 12 c 4 1 c 5 -10 c 4 -15 c 5 -1 c 4 1 c 4 0 c 5 1 c 4 0 c 4 -1 c 5 3 c 4 13 c 5 11 c 4 -2 c
4 -11 c 5 -12 c 4 1 c 4 -2 c 5 -1 c 4 0 c 4 2 c 5 4 c 4 2 c 5 10 c 4 36 c 4 33 c 5 -1 c 4 -32 c 4 -32 c 5 -13 c 4 -3 c 5 -5 c 4 -1 c
4 0 c 5 -1 c 4 2 c 4 -2 c 5 2 c 4 -2 c 5 2 c 4 1 c 4 1 c 5 7 c 4 90 c 4 226 c 5 61 c 4 -65 c 5 -233 c 4 -73 c 4 4 c 5 32 c 4 6 c
4 -15 c 5 -32 c 4 -6 c 4 -2 c 5 1 c 4 5 c 5 2 c 4 -4 c 4 -1 c 5 3 c 4 4 c 4 0 c 5 -4 c 4 -6 c 5 -2 c 4 -1 c 4 -1 c 5 1 c 4 0 c 4 0 c
5 1 c 4 0 c 5 -1 c 4 0 c 4 0 c 5 -2 c 4 1 c 4 2 c 5 2 c 4 -1 c 5 -3 c 4 0 c 4 3 c 5 0 c 4 -1 c 4 -3 c 5 0 c 4 -1 c 4 2 c 5 -1 c
4 1 c 5 -1 c 4 1 c 4 2 c 5 9 c 4 8 c 4 -1 c 5 -6 c 4 -8 c 5 17 c 4 19 c 4 2 c 5 -17 c 4 -22 c 4 -2 c 5 -1 c 4 3 c 5 3 c 4 4 c 4 3 c
5 -1 c 4 1 c 4 -4 c 5 -3 c 4 -2 c 5 6 c 4 11 c 4 5 c 5 -8 c 4 -8 c 4 -4 c 5 3 c 4 43 c 4 361 c 5 337 c 4 60 c 5 -297 c 4 -434 c
4 -68 c 5 -3 c 4 -2 c 4 -2 c 5 3 c 4 26 c 5 53 c 4 8 c 4 -26 c 5 -56 c 4 -10 c 4 0 c 5 0 c 4 0 c 5 -2 c 4 0 c 4 1 c 5 0 c 4 2 c
4 2 c 5 3 c 4 3 c 5 14 c 4 63 c 4 72 c 5 31 c 4 -46 c 4 -78 c 5 -38 c 4 -14 c 4 -3 c 5 -4 c 4 0 c 5 -1 c 4 -4 c 4 -2 c 5 -1 c 4 0 c
4 0 c 5 1 c 4 0 c 5 1 c 4 1 c 4 3 c 5 7 c 4 5 c 4 2 c 5 -9 c 4 -2 c 5 -2 c 4 2 c 4 9 c 5 14 c 4 6 c 4 -5 c 5 -8 c 4 13 c 4 112 c
5 620 c 4 974 c 5 299 c 4 -509 c 4 -1007 c 5 -448 c 4 -47 c 4 -9 c 5 -2 c 4 -3 c 5 -2 c 4 -3 c 4 -5 c 5 -1 c 4 1 c 4 24 c 5 68 c
4 18 c 5 -17 c 4 -72 c 4 -23 c 5 -3 c 4 -2 c 4 -1 c 5 0 c 4 0 c 5 -2 c 4 0 c 4 1 c 5 1 c 4 -1 c 4 1 c 5 -1 c 4 1 c 4 1 c 5 0 c 4 1 c
5 -2 c 4 -1 c 4 -1 c 5 1 c 4 0 c 4 3 c 5 4 c 4 1 c 5 -2 c 4 -5 c 4 -2 c 5 1 c 4 0 c 4 0 c 5 0 c 4 0 c 5 1 c 4 -1 c 4 1 c 5 0 c 4 0 c
4 1 c 5 1 c 4 1 c 5 9 c 4 70 c 4 107 c 5 7 c 4 -61 c 4 -113 c 5 -21 c 4 0 c 4 -1 c 5 1 c 4 1 c 5 3 c 4 3 c 4 0 c 5 -1 c 4 -1 c 4 1 c
5 4 c 4 -2 c 5 -6 c 4 -4 c 4 3 c 5 -1 c 4 -1 c 4 -1 c 5 -1 c 4 0 c 5 0 c 4 -1 c 4 0 c 5 -1 c 4 1 c 4 1 c
5 2 c 4 -1 c 5 -1 c 4 -1 c 4 -10 c 5 0 c 4 11 c 4 0 c 5 2 c 4 2 c 4 -2 c 5 0 c 4 0 c 5 0 c 4 -1 c 4 0 c 5 -1 c 4 1 c 4 -2 c 5 0 c
4 1 c 5 2 c 4 -1 c 4 1 c 5 3 c 4 12 c 4 9 c 5 -3 c 4 -10 c 5 -13 c 4 1 c 4 1 c 5 1 c 4 0 c 4 -1 c 5 1 c 4 1 c 5 4 c 4 9 c 4 4 c
5 -5 c 4 -7 c 4 -6 c 5 -2 c 4 1 c
0 -126 3315 418 l 54 0 3315 418 l 18 -6 c 6 -6 c 6 -12 c 0 -12 c -6 -12 c -6 -6 c -18 -6 c -54 0 c 42 -66 3357 358 l
-12 -6 3465 376 l -12 -12 c -6 -18 c 0 -12 c 6 -18 c 12 -12 c 12 -6 c 18 0 c 12 6 c 12 12 c 6 18 c 0 12 c -6 18 c -12 12 c -12 6 c
-18 0 c 24 -84 3549 376 l -24 -84 3597 376 l 24 -84 3597 376 l -24 -84 3645 376 l 108 0 3687 364 l 108 0 3687 328 l
-60 -84 4089 418 l 90 0 c 0 -126 4089 418 l -12 -6 4275 376 l -12 -12 c -6 -18 c 0 -12 c 6 -18 c 12 -12 c 12 -6 c 18 0 c 12 6 c
12 12 c 6 18 c 0 12 c -6 18 c -12 12 c -12 6 c -18 0 c -12 0 4401 418 l -12 -6 c -6 -18 c 0 -102 c 42 0 4353 376 l 66 0 4539 418 l
-36 -48 c 18 0 c 12 -6 c 6 -6 c 6 -18 c 0 -12 c -6 -18 c -12 -12 c -18 -6 c -18 0 c -18 6 c -6 6 c -6 12 c -6 -18 4725 376 l
-12 -12 c -18 -6 c -6 0 c -18 6 c -12 12 c -6 18 c 0 6 c 6 18 c 12 12 c 18 6 c 6 0 c 18 -6 c 12 -12 c 6 -24 c 0 -30 c -6 -30 c
-12 -18 c -18 -6 c -12 0 c -18 6 c -6 12 c 12 6 5169 394 l 18 18 c 0 -126 c -6 -6 5282 376 l 6 -6 c 6 6 c -6 6 c -6 -6 5282 304 l
6 -6 c 6 6 c -6 6 c -48 -126 5462 418 l 48 -126 5462 418 l 60 0 5432 334 l 0 -84 5540 376 l 6 18 5540 340 l 12 12 c 12 6 c 18 0 c
-12 12 5684 358 l -12 6 c -18 0 c -12 -6 c -12 -12 c -6 -18 c 0 -12 c 6 -18 c 12 -12 c 12 -6 c 18 0 c 12 6 c 12 12 c
108 0 5726 346 l -18 -6 5912 418 l -12 -18 c -6 -30 c 0 -18 c 6 -30 c 12 -18 c 18 -6 c 12 0 c 18 6 c 12 18 c 6 30 c 0 18 c -6 30 c
-12 18 c -18 6 c -12 0 c 66 0 6008 418 l -36 -48 c 18 0 c 12 -6 c 6 -6 c 6 -18 c 0 -12 c -6 -18 c -12 -12 c -18 -6 c -18 0 c -18 6 c
-6 6 c -6 12 c -60 0 6188 418 l -6 -54 c 6 6 c 18 6 c 18 0 c 18 -6 c 12 -12 c 6 -18 c 0 -12 c -6 -18 c -12 -12 c -18 -6 c -18 0 c
-18 6 c -6 6 c -6 12 c -6 -6 6248 304 l 6 -6 c 6 6 c -6 6 c -12 0 6338 418 l -12 -6 c -6 -18 c 0 -102 c 42 0 6290 376 l
6 -6 6368 418 l 6 6 c -6 6 c -6 -6 c 0 -84 6374 376 l 0 -102 6428 418 l 6 -18 c 12 -6 c 12 0 c 42 0 6410 376 l -6 12 6554 358 l
-18 6 c -18 0 c -18 -6 c -6 -12 c 6 -12 c 12 -6 c 30 -6 c 12 -6 c 6 -12 c 0 -6 c -6 -12 c -18 -6 c -18 0 c -18 6 c -6 12 c
0 -192 6884 442 l 0 -192 6890 442 l 42 0 6884 442 l 42 0 6884 250 l 0 6 6968 388 l 6 12 c 6 6 c 12 6 c 24 0 c 12 -6 c 6 -6 c 6 -12 c
0 -12 c -6 -12 c -12 -18 c -60 -60 c 84 0 c -6 -6 7094 376 l 6 -6 c 6 6 c -6 6 c -6 -6 7094 304 l 6 -6 c 6 6 c -6 6 c
0 -192 7274 442 l 0 -192 7280 442 l 42 0 7238 442 l 42 0 7238 250 l
0 -250 1566 1360 l 0 42 1523 1439 l 30 -23 c 0 11 c 4 8 c 4 4 c 11 3 c 7 0 c 12 -3 c 7 -8 c 4 -11 c 0 -12 c -4 -11 c -3 -4 c -8 -4 c
79 -38 1523 1560 l 0 53 1523 1507 l -8 -4 1534 1632 l -3 -11 c 0 -8 c 3 -11 c 12 -8 c 19 -4 c 19 0 c 15 4 c 7 8 c 4 11 c 0 4 c
-4 11 c -7 8 c -12 4 c -3 0 c -12 -4 c -7 -8 c -4 -11 c 0 -4 c 4 -11 c 7 -8 c 12 -4 c 0 41 1523 1666 l 30 -22 c 0 11 c 4 8 c 4 3 c
11 4 c 7 0 c 12 -4 c 7 -7 c 4 -12 c 0 -11 c -4 -11 c -3 -4 c -8 -4 c 3 -3 1595 1741 l 4 3 c -4 4 c -3 -4 c 0 -38 1523 1817 l 34 -4 c
-4 4 c -4 11 c 0 12 c 4 11 c 8 8 c 11 4 c 7 0 c 12 -4 c 7 -8 c 4 -11 c 0 -12 c -4 -11 c -3 -4 c -8 -3 c 3 -11 1523 1870 l 12 -8 c
19 -4 c 11 0 c 19 4 c 11 8 c 4 11 c 0 7 c -4 12 c -11 7 c -19 4 c -11 0 c -19 -4 c -12 -7 c -3 -12 c 0 -7 c 0 -38 1523 1968 l
34 -3 c -4 3 c -4 12 c 0 11 c 4 11 c 8 8 c 11 4 c 7 0 c 12 -4 c 7 -8 c 4 -11 c 0 -11 c -4 -12 c -3 -3 c -8 -4 c 0 -250 1841 3570 l
0 42 1798 3649 l 30 -23 c 0 11 c 4 8 c 4 4 c 11 4 c 7 0 c 12 -4 c 7 -8 c 4 -11 c 0 -11 c -4 -12 c -3 -4 c -8 -3 c 79 -38 1798 3770 l
0 53 1798 3717 l -7 -4 1809 3842 l -4 -11 c 0 -8 c 4 -11 c 11 -8 c 19 -3 c 19 0 c 15 3 c 7 8 c 4 11 c 0 4 c -4 11 c -7 8 c -12 4 c
-3 0 c -12 -4 c -7 -8 c -4 -11 c 0 -4 c 4 -11 c 7 -8 c 12 -3 c 0 -38 1798 3914 l 34 -4 c -4 4 c -4 11 c 0 12 c 4 11 c 8 8 c 11 3 c
7 0 c 12 -3 c 7 -8 c 4 -11 c 0 -12 c -4 -11 c -3 -4 c -8 -4 c 3 -4 1870 3952 l 4 4 c -4 3 c -3 -3 c -4 0 1817 3986 l -8 3 c -3 4 c
-4 8 c 0 15 c 4 7 c 3 4 c 8 4 c 7 0 c 8 -4 c 11 -7 c 38 -38 c 0 53 c 79 -38 1798 4110 l 0 53 1798 4057 l 4 -12 1798 4156 l 11 -7 c
19 -4 c 11 0 c 19 4 c 11 7 c 4 12 c 0 7 c -4 12 c -11 7 c -19 4 c -11 0 c -19 -4 c -11 -7 c -4 -12 c 0 -7 c 0 -249 1974 2009 l
0 41 1930 2089 l 31 -22 c 0 11 c 4 8 c 3 3 c 12 4 c 7 0 c 12 -4 c 7 -7 c 4 -12 c 0 -11 c -4 -11 c -4 -4 c -7 -4 c 80 -38 1930 2210 l
0 53 1930 2157 l -8 -3 1942 2281 l -4 -12 c 0 -7 c 4 -12 c 12 -7 c 19 -4 c 18 0 c 16 4 c 7 7 c 4 12 c 0 4 c -4 11 c -7 7 c -12 4 c
-4 0 c -11 -4 c -7 -7 c -4 -11 c 0 -4 c 4 -12 c 7 -7 c 11 -4 c -8 -4 1942 2357 l -4 -11 c 0 -8 c 4 -11 c 12 -7 c 19 -4 c 18 0 c
16 4 c 7 7 c 4 11 c 0 4 c -4 12 c -7 7 c -12 4 c -4 0 c -11 -4 c -7 -7 c -4 -12 c 0 -4 c 4 -11 c 7 -7 c 11 -4 c 4 -4 2002 2391 l
4 4 c -4 4 c -4 -4 c -4 7 1946 2433 l -12 12 c 80 0 c -4 8 1946 2508 l -12 11 c 80 0 c 11 -4 1957 2622 l 8 -8 c 4 -11 c 0 -4 c
-4 -11 c -8 -8 c -11 -3 c -4 0 c -11 3 c -8 8 c -4 11 c 0 4 c 4 11 c 8 8 c 15 4 c 19 0 c 19 -4 c 11 -8 c 4 -11 c 0 -8 c -4 -11 c
-7 -4 c 0 -249 2254 1429 l 0 42 2210 1508 l 31 -23 c 0 12 c 3 7 c 4 4 c 12 4 c 7 0 c 11 -4 c 8 -8 c 4 -11 c 0 -11 c -4 -12 c -4 -3 c
-7 -4 c 80 -37 2210 1629 l 0 52 2210 1577 l -8 -4 2222 1701 l -4 -11 c 0 -7 c 4 -12 c 12 -7 c 18 -4 c 19 0 c 15 4 c 8 7 c 4 12 c
0 3 c -4 12 c -8 7 c -11 4 c -4 0 c -11 -4 c -8 -7 c -3 -12 c 0 -3 c 3 -12 c 8 -7 c 11 -4 c 80 -38 2210 1781 l 0 53 2210 1728 l
4 -4 2282 1811 l 4 4 c -4 4 c -4 -4 c 11 -4 2237 1890 l 8 -7 c 4 -11 c 0 -4 c -4 -12 c -8 -7 c -11 -4 c -4 0 c -11 4 c -8 7 c
-4 12 c 0 4 c 4 11 c 8 7 c 15 4 c 19 0 c 19 -4 c 11 -7 c 4 -11 c 0 -8 c -4 -11 c -8 -4 c 4 -11 2210 1939 l 12 -8 c 18 -3 c 12 0 c
19 3 c 11 8 c 4 11 c 0 8 c -4 11 c -11 8 c -19 4 c -12 0 c -18 -4 c -12 -8 c -4 -11 c 0 -8 c -4 7 2226 2004 l -12 11 c 80 0 c
0 -250 2594 1482 l 0 42 2550 1561 l 30 -23 c 0 11 c 4 8 c 4 4 c 11 4 c 8 0 c 11 -4 c 8 -8 c 3 -11 c 0 -11 c -3 -12 c -4 -4 c -8 -3 c
79 -38 2550 1682 l 0 53 2550 1629 l 79 -38 2550 1758 l 0 53 2550 1705 l 4 -11 2550 1803 l 11 -8 c 19 -4 c 11 0 c 19 4 c 12 8 c
3 11 c 0 8 c -3 11 c -12 8 c -19 3 c -11 0 c -19 -3 c -11 -8 c -4 -11 c 0 -8 c 4 -4 2622 1864 l 3 4 c -3 3 c -4 -3 c
4 -12 2550 1917 l 11 -7 c 19 -4 c 11 0 c 19 4 c 12 7 c 3 12 c 0 7 c -3 11 c -12 8 c -19 4 c -11 0 c -19 -4 c -11 -8 c -4 -11 c
0 -7 c 0 -38 2550 2015 l 34 -4 c -4 4 c -3 11 c 0 12 c 3 11 c 8 8 c 11 3 c 8 0 c 11 -3 c 8 -8 c 3 -11 c 0 -12 c -3 -11 c -4 -4 c
-8 -4 c -7 -4 2561 2094 l -4 -11 c 0 -8 c 4 -11 c 11 -7 c 19 -4 c 19 0 c 15 4 c 8 7 c 3 11 c 0 4 c -3 12 c -8 7 c -11 4 c -4 0 c
-11 -4 c -8 -7 c -4 -12 c 0 -4 c 4 -11 c 8 -7 c 11 -4 c 0 -249 2802 3595 l 0 41 2758 3675 l 30 -22 c 0 11 c 4 8 c 4 3 c 11 4 c 8 0 c
11 -4 c 8 -7 c 3 -12 c 0 -11 c -3 -11 c -4 -4 c -8 -4 c 79 -38 2758 3796 l 0 53 2758 3743 l 79 -38 2758 3871 l 0 53 2758 3818 l
-4 8 2773 3905 l -11 11 c 79 0 c 4 -4 2830 3977 l 3 4 c -3 4 c -4 -4 c 0 41 2758 4015 l 30 -22 c 0 11 c 4 8 c 4 3 c 11 4 c 8 0 c
11 -4 c 8 -7 c 3 -11 c 0 -12 c -3 -11 c -4 -4 c -8 -4 c 79 -38 2758 4136 l 0 53 2758 4083 l -4 7 2773 4170 l -11 12 c 79 0 c
0 -250 3005 1318 l 0 42 2961 1397 l 30 -23 c 0 11 c 4 8 c 4 4 c 11 3 c 8 0 c 11 -3 c 8 -8 c 3 -11 c 0 -12 c -3 -11 c -4 -4 c -8 -4 c
79 -38 2961 1518 l 0 53 2961 1465 l 79 -38 2961 1594 l 0 53 2961 1541 l -4 0 2980 1620 l -7 4 c -4 4 c -4 7 c 0 15 c 4 8 c 4 4 c
7 3 c 8 0 c 7 -3 c 12 -8 c 37 -38 c 0 53 c 4 -3 3033 1699 l 3 3 c -3 4 c -4 -4 c -7 -4 2972 1779 l -4 -11 c 0 -8 c 4 -11 c 11 -8 c
19 -4 c 19 0 c 15 4 c 8 8 c 3 11 c 0 4 c -3 11 c -8 8 c -11 4 c -4 0 c -11 -4 c -8 -8 c -4 -11 c 0 -4 c 4 -11 c 8 -8 c 11 -4 c
0 -38 2961 1851 l 34 -4 c -4 4 c -4 11 c 0 11 c 4 12 c 8 7 c 11 4 c 8 0 c 11 -4 c 8 -7 c 3 -12 c 0 -11 c -3 -11 c -4 -4 c -8 -4 c
4 -11 2961 1903 l 11 -7 c 19 -4 c 11 0 c 19 4 c 12 7 c 3 11 c 0 8 c -3 11 c -12 8 c -19 4 c -11 0 c -19 -4 c -11 -8 c -4 -11 c
0 -8 c 0 -249 3181 1378 l 0 41 3137 1458 l 30 -22 c 0 11 c 4 8 c 4 3 c 11 4 c 8 0 c 11 -4 c 8 -7 c 3 -11 c 0 -12 c -3 -11 c -4 -4 c
-8 -4 c 79 -38 3137 1579 l 0 53 3137 1526 l 79 -37 3137 1654 l 0 53 3137 1601 l 0 41 3137 1685 l 30 -22 c 0 11 c 4 7 c 4 4 c 11 4 c
8 0 c 11 -4 c 8 -7 c 3 -12 c 0 -11 c -3 -11 c -4 -4 c -8 -4 c 4 -4 3209 1760 l 3 4 c -3 4 c -4 -4 c 79 -37 3137 1843 l
0 53 3137 1790 l 0 -37 3137 1911 l 34 -4 c -4 4 c -4 11 c 0 11 c 4 12 c 8 7 c 11 4 c 8 0 c 11 -4 c 8 -7 c 3 -12 c 0 -11 c -3 -11 c
-4 -4 c -8 -4 c 79 -38 3137 1995 l 0 53 3137 1942 l 0 -250 3582 1400 l 0 41 3539 1479 l 30 -22 c 0 11 c 4 8 c 3 3 c 12 4 c 7 0 c
12 -4 c 7 -7 c 4 -11 c 0 -12 c -4 -11 c -4 -4 c -7 -4 c 79 -38 3539 1600 l 0 53 3539 1547 l 79 -37 3539 1675 l 0 53 3539 1622 l
-8 -4 3550 1747 l -3 -11 c 0 -7 c 3 -12 c 12 -7 c 19 -4 c 18 0 c 16 4 c 7 7 c 4 12 c 0 3 c -4 12 c -7 7 c -12 4 c -4 0 c -11 -4 c
-7 -7 c -4 -12 c 0 -3 c 4 -12 c 7 -7 c 11 -4 c 4 -4 3610 1781 l 4 4 c -4 4 c -4 -4 c -3 0 3557 1815 l -8 4 c -4 4 c -3 7 c 0 15 c
3 8 c 4 4 c 8 4 c 7 0 c 8 -4 c 11 -8 c 38 -38 c 0 53 c 79 -38 3539 1940 l 0 53 3539 1887 l -4 8 3554 1974 l -11 11 c 79 0 c
0 -249 3766 1285 l 0 41 3722 1365 l 30 -22 c 0 11 c 4 8 c 4 3 c 11 4 c 8 0 c 11 -4 c 8 -7 c 3 -12 c 0 -11 c -3 -11 c -4 -4 c -8 -4 c
79 -38 3722 1486 l 0 53 3722 1433 l 79 -38 3722 1561 l 0 53 3722 1508 l 79 -38 3722 1637 l 0 53 3722 1584 l 4 -4 3794 1667 l 3 4 c
-3 4 c -4 -4 c 53 -38 3722 1735 l 0 57 c 79 0 3722 1735 l -4 8 3737 1784 l -11 11 c 79 0 c 79 -37 3722 1901 l 0 52 3722 1849 l
0 -250 4716 2759 l 0 42 4672 2838 l 30 -23 c 0 11 c 4 8 c 4 4 c 11 4 c 8 0 c 11 -4 c 8 -8 c 3 -11 c 0 -11 c -3 -12 c -4 -4 c -8 -3 c
79 -38 4672 2959 l 0 53 4672 2906 l 4 -12 4672 3001 l 7 -3 c 8 0 c 7 3 c 4 8 c 4 15 c 4 11 c 7 8 c 8 4 c 11 0 c 8 -4 c 4 -4 c
3 -11 c 0 -15 c -3 -12 c -4 -3 c -8 -4 c -11 0 c -8 4 c -7 7 c -4 11 c -4 16 c -4 7 c -7 4 c -8 0 c -7 -4 c -4 -11 c 0 -15 c
0 42 4672 3065 l 30 -23 c 0 11 c 4 8 c 4 4 c 11 3 c 8 0 c 11 -3 c 8 -8 c 3 -11 c 0 -12 c -3 -11 c -4 -4 c -8 -4 c 4 -4 4744 3141 l
3 4 c -3 3 c -4 -3 c -4 0 4691 3175 l -8 3 c -3 4 c -4 8 c 0 15 c 4 7 c 3 4 c 8 4 c 8 0 c 7 -4 c 11 -7 c 38 -38 c 0 53 c
12 -3 4698 3295 l 7 -8 c 4 -11 c 0 -4 c -4 -11 c -7 -8 c -12 -4 c -3 0 c -12 4 c -7 8 c -4 11 c 0 4 c 4 11 c 7 8 c 15 3 c 19 0 c
19 -3 c 12 -8 c 3 -11 c 0 -8 c -3 -11 c -8 -4 c -7 -4 4683 3371 l -4 -11 c 0 -8 c 4 -11 c 11 -7 c 19 -4 c 19 0 c 15 4 c 8 7 c 3 11 c
0 4 c -3 12 c -8 7 c -11 4 c -4 0 c -12 -4 c -7 -7 c -4 -12 c 0 -4 c 4 -11 c 7 -7 c 12 -4 c 0 -249 4924 1302 l 0 42 4881 1381 l
30 -23 c 0 12 c 4 7 c 3 4 c 12 4 c 7 0 c 12 -4 c 7 -8 c 4 -11 c 0 -11 c -4 -12 c -4 -3 c -7 -4 c 79 -37 4881 1502 l 0 53 4881 1449 l
3 -11 4881 1544 l 8 -4 c 7 0 c 8 4 c 4 7 c 4 15 c 3 12 c 8 7 c 7 4 c 12 0 c 7 -4 c 4 -4 c 4 -11 c 0 -15 c -4 -11 c -4 -4 c -7 -4 c
-12 0 c -7 4 c -8 7 c -3 12 c -4 15 c -4 7 c -8 4 c -7 0 c -8 -4 c -3 -11 c 0 -15 c 52 -37 4881 1638 l 0 56 c 79 0 4881 1638 l
4 -4 4952 1684 l 4 4 c -4 4 c -4 -4 c 0 -37 4881 1759 l 34 -4 c -4 4 c -4 11 c 0 11 c 4 12 c 7 7 c 12 4 c 7 0 c 12 -4 c 7 -7 c
4 -12 c 0 -11 c -4 -11 c -4 -4 c -7 -4 c 79 -38 4881 1843 l 0 53 4881 1790 l 0 -38 4881 1911 l 34 -4 c -4 4 c -4 11 c 0 11 c 4 12 c
7 7 c 12 4 c 7 0 c 12 -4 c 7 -7 c 4 -12 c 0 -11 c -4 -11 c -4 -4 c -7 -4 c 0 -250 5091 2354 l 0 42 5048 2433 l 30 -23 c 0 11 c 4 8 c
4 4 c 11 3 c 7 0 c 12 -3 c 7 -8 c 4 -11 c 0 -12 c -4 -11 c -3 -4 c -8 -4 c 79 -38 5048 2554 l 0 53 5048 2501 l 4 -12 5048 2596 l
7 -4 c 8 0 c 7 4 c 4 8 c 4 15 c 4 11 c 7 8 c 8 4 c 11 0 c 8 -4 c 3 -4 c 4 -11 c 0 -15 c -4 -12 c -3 -4 c -8 -3 c -11 0 c -8 3 c
-7 8 c -4 11 c -4 15 c -4 8 c -7 4 c -8 0 c -7 -4 c -4 -11 c 0 -15 c 0 -38 5048 2698 l 34 -4 c -4 4 c -4 11 c 0 12 c 4 11 c 8 7 c
11 4 c 7 0 c 12 -4 c 7 -7 c 4 -11 c 0 -12 c -4 -11 c -3 -4 c -8 -4 c 3 -3 5120 2735 l 4 3 c -4 4 c -3 -4 c -7 -4 5059 2815 l
-4 -11 c 0 -8 c 4 -11 c 11 -8 c 19 -4 c 19 0 c 15 4 c 7 8 c 4 11 c 0 4 c -4 11 c -7 8 c -12 4 c -3 0 c -12 -4 c -7 -8 c -4 -11 c
0 -4 c 4 -11 c 7 -8 c 12 -4 c 4 -11 5048 2864 l 11 -8 c 19 -4 c 11 0 c 19 4 c 11 8 c 4 11 c 0 7 c -4 12 c -11 7 c -19 4 c -11 0 c
-19 -4 c -11 -7 c -4 -12 c 0 -7 c 4 -12 5048 2940 l 11 -7 c 19 -4 c 11 0 c 19 4 c 11 7 c 4 12 c 0 7 c -4 11 c -11 8 c -19 4 c
-11 0 c -19 -4 c -11 -8 c -4 -11 c 0 -7 c 0 -249 5947 1835 l 0 41 5903 1915 l 30 -23 c 0 12 c 4 7 c 4 4 c 11 4 c 8 0 c 11 -4 c
8 -7 c 3 -12 c 0 -11 c -3 -11 c -4 -4 c -8 -4 c 79 -38 5903 2036 l 0 53 5903 1983 l 12 -3 5929 2107 l 7 -8 c 4 -11 c 0 -4 c -4 -11 c
-7 -8 c -12 -4 c -3 0 c -12 4 c -7 8 c -4 11 c 0 4 c 4 11 c 7 8 c 15 3 c 19 0 c 19 -3 c 12 -8 c 3 -11 c 0 -8 c -3 -11 c -8 -4 c
4 -11 5903 2156 l 11 -7 c 19 -4 c 11 0 c 19 4 c 12 7 c 3 11 c 0 8 c -3 11 c -12 8 c -19 4 c -11 0 c -19 -4 c -11 -8 c -4 -11 c
0 -8 c 4 -4 5975 2217 l 3 4 c -3 4 c -4 -4 c 79 -38 5903 2300 l 0 53 5903 2247 l 12 -4 5929 2372 l 7 -7 c 4 -12 c 0 -4 c -4 -11 c
-7 -7 c -12 -4 c -3 0 c -12 4 c -7 7 c -4 11 c 0 4 c 4 12 c 7 7 c 15 4 c 19 0 c 19 -4 c 12 -7 c 3 -12 c 0 -7 c -3 -12 c -8 -3 c
0 -38 5903 2444 l 34 -4 c -4 4 c -4 11 c 0 12 c 4 11 c 8 7 c 11 4 c 8 0 c 11 -4 c 8 -7 c 3 -11 c 0 -12 c -3 -11 c -4 -4 c -8 -4 c
0 -250 6710 1375 l 0 42 6667 1454 l 30 -23 c 0 11 c 4 8 c 3 4 c 12 4 c 7 0 c 12 -4 c 7 -8 c 4 -11 c 0 -11 c -4 -12 c -4 -4 c -7 -3 c
79 -38 6667 1575 l 0 53 6667 1522 l 11 -4 6693 1647 l 8 -7 c 4 -12 c 0 -3 c -4 -12 c -8 -7 c -11 -4 c -4 0 c -11 4 c -8 7 c -3 12 c
0 3 c 3 12 c 8 7 c 15 4 c 19 0 c 19 -4 c 11 -7 c 4 -12 c 0 -7 c -4 -12 c -7 -3 c 0 -38 6667 1719 l 34 -4 c -4 4 c -4 11 c 0 12 c
4 11 c 7 8 c 12 3 c 7 0 c 12 -3 c 7 -8 c 4 -11 c 0 -12 c -4 -11 c -4 -4 c -7 -4 c 4 -4 6738 1757 l 4 4 c -4 3 c -4 -3 c
0 42 6667 1794 l 30 -23 c 0 12 c 4 7 c 3 4 c 12 4 c 7 0 c 12 -4 c 7 -8 c 4 -11 c 0 -11 c -4 -12 c -4 -3 c -7 -4 c 3 -11 6667 1881 l
8 -4 c 8 0 c 7 4 c 4 8 c 4 15 c 3 11 c 8 8 c 8 3 c 11 0 c 7 -3 c 4 -4 c 4 -12 c 0 -15 c -4 -11 c -4 -4 c -7 -4 c -11 0 c -8 4 c
-8 8 c -3 11 c -4 15 c -4 8 c -7 4 c -8 0 c -8 -4 c -3 -12 c 0 -15 c 3 -12 6667 1961 l 12 -7 c 19 -4 c 11 0 c 19 4 c 11 7 c 4 12 c
0 7 c -4 12 c -11 7 c -19 4 c -11 0 c -19 -4 c -12 -7 c -3 -12 c 0 -7 c 0 -250 7170 1540 l 0 42 7126 1619 l 30 -23 c 0 12 c 4 7 c
4 4 c 11 4 c 8 0 c 11 -4 c 8 -8 c 4 -11 c 0 -11 c -4 -12 c -4 -3 c -8 -4 c 80 -37 7126 1740 l 0 53 7126 1687 l 11 -4 7153 1812 l
8 -7 c 3 -12 c 0 -3 c -3 -12 c -8 -7 c -11 -4 c -4 0 c -11 4 c -8 7 c -4 12 c 0 3 c 4 12 c 8 7 c 15 4 c 19 0 c 18 -4 c 12 -7 c
4 -12 c 0 -7 c -4 -11 c -8 -4 c 4 -11 7126 1857 l 8 -4 c 7 0 c 8 4 c 3 8 c 4 15 c 4 11 c 8 8 c 7 4 c 11 0 c 8 -4 c 4 -4 c 4 -11 c
0 -16 c -4 -11 c -4 -4 c -8 -3 c -11 0 c -7 3 c -8 8 c -4 11 c -4 15 c -3 8 c -8 4 c -7 0 c -8 -4 c -4 -11 c 0 -16 c
4 -4 7198 1922 l 4 4 c -4 4 c -4 -4 c -3 8 7141 1963 l -12 11 c 80 0 c 4 -11 7126 2050 l 11 -8 c 19 -3 c 12 0 c 18 3 c 12 8 c 4 11 c
0 8 c -4 11 c -12 8 c -18 3 c -12 0 c -19 -3 c -11 -8 c -4 -11 c 0 -8 c 0 41 7126 2111 l 30 -22 c 0 11 c 4 8 c 4 3 c 11 4 c 8 0 c
11 -4 c 8 -7 c 4 -12 c 0 -11 c -4 -11 c -4 -4 c -8 -4 c 0 -249 8018 7019 l 0 42 7974 7098 l 30 -23 c 0 12 c 4 7 c 4 4 c 11 4 c 8 0 c
11 -4 c 8 -8 c 4 -11 c 0 -11 c -4 -12 c -4 -3 c -8 -4 c 4 -11 7974 7185 l 7 -4 c 8 0 c 8 4 c 3 8 c 4 15 c 4 11 c 7 8 c 8 3 c 11 0 c
8 -3 c 4 -4 c 4 -11 c 0 -16 c -4 -11 c -4 -4 c -8 -3 c -11 0 c -8 3 c -7 8 c -4 11 c -4 15 c -3 8 c -8 4 c -8 0 c -7 -4 c -4 -11 c
0 -16 c 4 -12 7974 7265 l 11 -7 c 19 -4 c 11 0 c 19 4 c 12 7 c 4 12 c 0 7 c -4 12 c -12 7 c -19 4 c -11 0 c -19 -4 c -11 -7 c
-4 -12 c 0 -7 c 0 42 7974 7325 l 30 -23 c 0 11 c 4 8 c 4 4 c 11 4 c 8 0 c 11 -4 c 8 -8 c 4 -11 c 0 -11 c -4 -12 c -4 -4 c -8 -3 c
4 -4 8046 7401 l 4 4 c -4 4 c -4 -4 c 4 -12 7974 7454 l 11 -7 c 19 -4 c 11 0 c 19 4 c 12 7 c 4 12 c 0 7 c -4 12 c -12 7 c -19 4 c
-11 0 c -19 -4 c -11 -7 c -4 -12 c 0 -7 c 80 -38 7974 7560 l 0 53 7974 7507 l 0 -38 7974 7628 l 34 -4 c -4 4 c -3 11 c 0 11 c 3 12 c
8 7 c 11 4 c 8 0 c 11 -4 c 8 -7 c 4 -12 c 0 -11 c -4 -11 c -4 -4 c -8 -4 c 0 -249 8848 2040 l 0 41 8804 2120 l 30 -23 c 0 12 c 4 7 c
4 4 c 11 4 c 8 0 c 11 -4 c 8 -7 c 3 -12 c 0 -11 c -3 -11 c -4 -4 c -8 -4 c 4 -11 8804 2206 l 7 -4 c 8 0 c 7 4 c 4 8 c 4 15 c 4 11 c
7 8 c 8 3 c 11 0 c 8 -3 c 4 -4 c 3 -11 c 0 -16 c -3 -11 c -4 -4 c -8 -3 c -11 0 c -8 3 c -7 8 c -4 11 c -4 15 c -4 8 c -7 4 c -8 0 c
-7 -4 c -4 -11 c 0 -16 c 4 -11 8804 2286 l 11 -8 c 19 -4 c 11 0 c 19 4 c 12 8 c 3 11 c 0 7 c -3 12 c -12 7 c -19 4 c -11 0 c
-19 -4 c -11 -7 c -4 -12 c 0 -7 c 79 -38 8804 2392 l 0 53 8804 2339 l 4 -4 8876 2422 l 3 4 c -3 4 c -4 -4 c 4 -11 8804 2471 l 7 -4 c
8 0 c 7 4 c 4 7 c 4 15 c 4 12 c 7 7 c 8 4 c 11 0 c 8 -4 c 4 -4 c 3 -11 c 0 -15 c -3 -11 c -4 -4 c -8 -4 c -11 0 c -8 4 c -7 7 c
-4 12 c -4 15 c -4 7 c -7 4 c -8 0 c -7 -4 c -4 -11 c 0 -15 c 79 -38 8804 2581 l 0 53 8804 2528 l 53 -38 8804 2641 l 0 57 c
79 0 8804 2641 l 0 -250 9124 3273 l 0 42 9080 3352 l 31 -23 c 0 11 c 3 8 c 4 4 c 12 3 c 7 0 c 11 -3 c 8 -8 c 4 -11 c 0 -12 c
-4 -11 c -4 -4 c -7 -4 c 4 -11 9080 3439 l 8 -4 c 7 0 c 8 4 c 4 7 c 3 15 c 4 12 c 8 7 c 7 4 c 12 0 c 7 -4 c 4 -4 c 4 -11 c 0 -15 c
-4 -11 c -4 -4 c -7 -4 c -12 0 c -7 4 c -8 7 c -4 12 c -3 15 c -4 7 c -8 4 c -7 0 c -8 -4 c -4 -11 c 0 -15 c 4 -11 9080 3518 l
12 -8 c 18 -3 c 12 0 c 19 3 c 11 8 c 4 11 c 0 8 c -4 11 c -11 8 c -19 3 c -12 0 c -18 -3 c -12 -8 c -4 -11 c 0 -8 c
11 -3 9107 3620 l 8 -8 c 4 -11 c 0 -4 c -4 -11 c -8 -8 c -11 -4 c -4 0 c -11 4 c -8 8 c -4 11 c 0 4 c 4 11 c 8 8 c 15 3 c 19 0 c
19 -3 c 11 -8 c 4 -11 c 0 -8 c -4 -11 c -8 -4 c 4 -3 9152 3654 l 4 3 c -4 4 c -4 -4 c 53 -37 9080 3722 l 0 56 c 80 0 9080 3722 l
0 -37 9080 3805 l 34 -4 c -3 4 c -4 11 c 0 11 c 4 12 c 7 7 c 12 4 c 7 0 c 11 -4 c 8 -7 c 4 -12 c 0 -11 c -4 -11 c -4 -4 c -7 -4 c
-8 -4 9092 3885 l -4 -11 c 0 -8 c 4 -11 c 12 -8 c 18 -3 c 19 0 c 15 3 c 8 8 c 4 11 c 0 4 c -4 11 c -8 8 c -11 4 c -4 0 c -11 -4 c
-8 -8 c -3 -11 c 0 -4 c 3 -11 c 8 -8 c 11 -3 c
showpage PGPLOT restore
 
%%Trailer
%%DocumentFonts: 
%%Pages: 1
%%EOF
