%!PS-Adobe-3.0 EPSF-3.0
%%For: tab
%%Title: PGPLOT PostScript plot
%%Creator: PGPLOT
%%CreationDate: 20-Apr-1995 16:31
%%BoundingBox: 25 18 587 774
%%DocumentFonts: (atend)
%%LanguageLevel: 1
%%Orientation: Landscape
%%Pages: (atend)
%%EndComments
%%BeginProlog
/l {moveto rlineto currentpoint stroke moveto} bind def
/c {rlineto currentpoint stroke moveto} bind def
/d {moveto 0 0 rlineto currentpoint stroke moveto} bind def
/SLW {5 mul setlinewidth} bind def
/SCF /pop load def
/BP {newpath moveto} bind def
/LP /rlineto load def
/EP {rlineto closepath eofill} bind def
/MB {gsave translate MFAC dup scale 1 setlinewidth 2 setlinecap 0 setlinejoin newpath} bind def
/ME /grestore load def
/C {0 360 arc stroke} bind def
/FC {0 360 arc fill} bind def
%%EndProlog
 
%%Page: 1 1
%%BeginPageSetup
/PGPLOT save def
0.072 0.072 scale
8150 250 translate 90 rotate
1 setlinejoin 1 setlinecap 1 SLW 1 SCF
%%EndPageSetup
0.000 setgray 1 SLW 8939 0 780 780 l 0 6239 c -8939 0 c 0 -6239 c 0 -45 1116 780 l 0 -45 1554 780 l 0 -45 1991 780 l
0 -45 2428 780 l 0 -90 2865 780 l 0 -45 3302 780 l 0 -45 3739 780 l 0 -45 4176 780 l 0 -45 4613 780 l 0 -90 5051 780 l
0 -45 5488 780 l 0 -45 5925 780 l 0 -45 6362 780 l 0 -45 6799 780 l 0 -90 7236 780 l 0 -45 7673 780 l 0 -45 8110 780 l
0 -45 8548 780 l 0 -45 8985 780 l 0 -90 9422 780 l 0 -45 1116 7064 l 0 -45 1554 7064 l 0 -45 1991 7064 l 0 -45 2428 7064 l
0 -90 2865 7109 l 0 -45 3302 7064 l 0 -45 3739 7064 l 0 -45 4176 7064 l 0 -45 4613 7064 l 0 -90 5051 7109 l 0 -45 5488 7064 l
0 -45 5925 7064 l 0 -45 6362 7064 l 0 -45 6799 7064 l 0 -90 7236 7109 l 0 -45 7673 7064 l 0 -45 8110 7064 l 0 -45 8548 7064 l
0 -45 8985 7064 l 0 -90 9422 7109 l -60 0 2775 672 l -6 -54 c 6 6 c 18 6 c 18 0 c 18 -6 c 12 -12 c 6 -18 c 0 -12 c -6 -18 c
-12 -12 c -18 -6 c -18 0 c -18 6 c -6 6 c -6 12 c -18 -6 2859 672 l -12 -18 c -6 -30 c 0 -18 c 6 -30 c 12 -18 c 18 -6 c 12 0 c
18 6 c 12 18 c 6 30 c 0 18 c -6 30 c -12 18 c -18 6 c -12 0 c -18 -6 2979 672 l -12 -18 c -6 -30 c 0 -18 c 6 -30 c 12 -18 c 18 -6 c
12 0 c 18 6 c 12 18 c 6 30 c 0 18 c -6 30 c -12 18 c -18 6 c -12 0 c 12 6 4847 648 l 18 18 c 0 -126 c -18 -6 4985 672 l -12 -18 c
-6 -30 c 0 -18 c 6 -30 c 12 -18 c 18 -6 c 12 0 c 18 6 c 12 18 c 6 30 c 0 18 c -6 30 c -12 18 c -18 6 c -12 0 c -18 -6 5105 672 l
-12 -18 c -6 -30 c 0 -18 c 6 -30 c 12 -18 c 18 -6 c 12 0 c 18 6 c 12 18 c 6 30 c 0 18 c -6 30 c -12 18 c -18 6 c -12 0 c
-18 -6 5225 672 l -12 -18 c -6 -30 c 0 -18 c 6 -30 c 12 -18 c 18 -6 c 12 0 c 18 6 c 12 18 c 6 30 c 0 18 c -6 30 c -12 18 c -18 6 c
-12 0 c 12 6 7032 648 l 18 18 c 0 -126 c -60 0 7206 672 l -6 -54 c 6 6 c 18 6 c 18 0 c 18 -6 c 12 -12 c 6 -18 c 0 -12 c -6 -18 c
-12 -12 c -18 -6 c -18 0 c -18 6 c -6 6 c -6 12 c -18 -6 7290 672 l -12 -18 c -6 -30 c 0 -18 c 6 -30 c 12 -18 c 18 -6 c 12 0 c
18 6 c 12 18 c 6 30 c 0 18 c -6 30 c -12 18 c -18 6 c -12 0 c -18 -6 7410 672 l -12 -18 c -6 -30 c 0 -18 c 6 -30 c 12 -18 c 18 -6 c
12 0 c 18 6 c 12 18 c 6 30 c 0 18 c -6 30 c -12 18 c -18 6 c -12 0 c 0 6 9206 642 l 6 12 c 6 6 c 12 6 c 24 0 c 12 -6 c 6 -6 c
6 -12 c 0 -12 c -6 -12 c -12 -18 c -60 -60 c 84 0 c -18 -6 9356 672 l -12 -18 c -6 -30 c 0 -18 c 6 -30 c 12 -18 c 18 -6 c 12 0 c
18 6 c 12 18 c 6 30 c 0 18 c -6 30 c -12 18 c -18 6 c -12 0 c -18 -6 9476 672 l -12 -18 c -6 -30 c 0 -18 c 6 -30 c 12 -18 c 18 -6 c
12 0 c 18 6 c 12 18 c 6 30 c 0 18 c -6 30 c -12 18 c -18 6 c -12 0 c -18 -6 9596 672 l -12 -18 c -6 -30 c 0 -18 c 6 -30 c 12 -18 c
18 -6 c 12 0 c 18 6 c 12 18 c 6 30 c 0 18 c -6 30 c -12 18 c -18 6 c -12 0 c -90 0 780 780 l -45 0 780 1102 l -45 0 780 1424 l
-45 0 780 1746 l -45 0 780 2068 l -90 0 780 2389 l -45 0 780 2711 l -45 0 780 3033 l -45 0 780 3355 l -45 0 780 3677 l
-90 0 780 3999 l -45 0 780 4321 l -45 0 780 4643 l -45 0 780 4965 l -45 0 780 5287 l -90 0 780 5609 l -45 0 780 5930 l
-45 0 780 6252 l -45 0 780 6574 l -45 0 780 6896 l -90 0 9809 780 l -45 0 9764 1102 l -45 0 9764 1424 l -45 0 9764 1746 l
-45 0 9764 2068 l -90 0 9809 2389 l -45 0 9764 2711 l -45 0 9764 3033 l -45 0 9764 3355 l -45 0 9764 3677 l -90 0 9809 3999 l
-45 0 9764 4321 l -45 0 9764 4643 l -45 0 9764 4965 l -45 0 9764 5287 l -90 0 9809 5609 l -45 0 9764 5930 l -45 0 9764 6252 l
-45 0 9764 6574 l -45 0 9764 6896 l 6 -18 517 774 l 18 -12 c 30 -6 c 18 0 c 30 6 c 18 12 c 6 18 c 0 12 c -6 18 c -18 12 c -30 6 c
-18 0 c -30 -6 c -18 -12 c -6 -18 c 0 -12 c 0 -60 517 2239 l 54 -6 c -6 6 c -6 18 c 0 18 c 6 18 c 12 12 c 18 6 c 12 0 c 18 -6 c
12 -12 c 6 -18 c 0 -18 c -6 -18 c -6 -6 c -12 -6 c 6 -18 517 2323 l 18 -12 c 30 -6 c 18 0 c 30 6 c 18 12 c 6 18 c 0 12 c -6 18 c
-18 12 c -30 6 c -18 0 c -30 -6 c -18 -12 c -6 -18 c 0 -12 c 6 -18 517 2443 l 18 -12 c 30 -6 c 18 0 c 30 6 c 18 12 c 6 18 c 0 12 c
-6 18 c -18 12 c -30 6 c -18 0 c -30 -6 c -18 -12 c -6 -18 c 0 -12 c 6 -18 517 2563 l 18 -12 c 30 -6 c 18 0 c 30 6 c 18 12 c 6 18 c
0 12 c -6 18 c -18 12 c -30 6 c -18 0 c -30 -6 c -18 -12 c -6 -18 c 0 -12 c -6 12 541 3879 l -18 18 c 126 0 c 6 -18 517 4017 l
18 -12 c 30 -6 c 18 0 c 30 6 c 18 12 c 6 18 c 0 12 c -6 18 c -18 12 c -30 6 c -18 0 c -30 -6 c -18 -12 c -6 -18 c 0 -12 c
63 -45 453 4142 l 0 67 c 94 0 453 4142 l -6 12 541 5273 l -18 18 c 126 0 c 6 -6 631 5387 l 6 6 c -6 6 c -6 -6 c 0 -60 517 5507 l
54 -6 c -6 6 c -6 18 c 0 18 c 6 18 c 12 12 c 18 6 c 12 0 c 18 -6 c 12 -12 c 6 -18 c 0 -18 c -6 -18 c -6 -6 c -12 -6 c
84 84 547 5561 l 84 -84 547 5645 l -6 12 541 5705 l -18 18 c 126 0 c 6 -18 517 5843 l 18 -12 c 30 -6 c 18 0 c 30 6 c 18 12 c 6 18 c
0 12 c -6 18 c -18 12 c -30 6 c -18 0 c -30 -6 c -18 -12 c -6 -18 c 0 -12 c 63 -45 453 5967 l 0 68 c 94 0 453 5967 l
4 -2 780 799 l 5 2 c 4 -1 c 4 -2 c 5 1 c 4 -1 c 4 -1 c 5 -1 c 4 1 c 5 -1 c 4 2 c 4 0 c 5 0 c 4 0 c 4 1 c 5 0 c 4 1 c 5 1 c 4 2 c
4 5 c 5 12 c 4 77 c 4 174 c 5 281 c 4 801 c 5 841 c 4 -287 c 4 -1210 c 5 -624 c 4 -63 c 4 -3 c 5 2 c 4 3 c 5 10 c 4 11 c 4 -3 c
5 -16 c 4 -13 c 4 -2 c 5 0 c 4 -2 c 4 -1 c 5 0 c 4 1 c 5 -2 c 4 1 c 4 0 c 5 1 c 4 -1 c 4 0 c 5 0 c 4 1 c 5 1 c 4 6 c 4 4 c 5 22 c
4 31 c 4 -5 c 5 -32 c 4 -25 c 5 -3 c 4 0 c 4 0 c 5 2 c 4 0 c 4 -1 c 5 -1 c 4 2 c 5 6 c 4 9 c 4 28 c 5 33 c 4 -7 c 4 -39 c 5 -26 c
4 -3 c 4 -3 c 5 -1 c 4 0 c 5 0 c 4 -1 c 4 1 c 5 2 c 4 -15 c 4 0 c 5 42 c 4 6 c 5 -11 c 4 -17 c 4 -5 c 5 -1 c 4 0 c 4 -1 c 5 2 c
4 3 c 5 4 c 4 1 c 4 -3 c 5 -4 c 4 -2 c 4 0 c 5 0 c 4 0 c 5 5 c 4 5 c 4 0 c 5 -5 c 4 -2 c 4 9 c 5 17 c 4 49 c 4 55 c 5 -9 c 4 -72 c
5 -47 c 4 -6 c 4 0 c 5 0 c 4 -1 c 4 0 c 5 2 c 4 0 c 5 -1 c 4 1 c 4 3 c 5 6 c 4 13 c 4 22 c 5 0 c 4 -19 c 5 -18 c 4 -4 c 4 -2 c 5 0 c
4 -1 c 4 2 c 5 0 c 4 1 c 5 4 c 4 3 c 4 -3 c 5 -5 c 4 -2 c 4 1 c 5 0 c 4 1 c 4 6 c 5 0 c 4 -4 c 5 -3 c 4 -2 c 4 0 c 5 0 c 4 3 c 4 4 c
5 2 c 4 -2 c 5 -2 c 4 -4 c 4 0 c 5 0 c 4 6 c 4 4 c 5 -2 c 4 -3 c 5 -3 c 4 3 c 4 12 c 5 4 c 4 -4 c 4 -3 c 5 9 c 4 0 c 4 -8 c 5 -10 c
4 -4 c 5 4 c 4 3 c 4 -2 c 5 -4 c 4 -1 c 4 1 c 5 -2 c 4 0 c 5 1 c 4 1 c 4 3 c 5 2 c 4 9 c 4 5 c 5 -4 c 4 -10 c 5 -6 c 4 -2 c 4 1 c
5 0 c 4 -1 c 4 3 c 5 -1 c 4 7 c 5 18 c 4 53 c 4 70 c 5 -7 c 4 -67 c 4 -65 c 5 -9 c 4 -1 c 4 2 c 5 3 c 4 5 c 5 2 c 4 -1 c 4 -2 c
5 12 c 4 10 c 4 -6 c 5 -10 c 4 -7 c 5 -2 c 4 -3 c 4 0 c 5 2 c 4 0 c 4 -1 c 5 -1 c 4 -2 c 5 -1 c 4 -1 c 4 0 c 5 0 c 4 0 c 4 1 c 5 0 c
4 3 c 5 4 c 4 2 c 4 -1 c 5 -2 c 4 5 c 4 -2 c 5 0 c 4 5 c 4 23 c 5 16 c 4 -11 c 5 -23 c 4 -8 c 4 5 c 5 0 c 4 -4 c 4 -5 c 5 -2 c 4 3 c
5 7 c 4 6 c 4 -3 c 5 -5 c 4 -5 c 4 -1 c 5 -2 c 4 -4 c 5 -1 c 4 1 c 4 0 c 5 -1 c 4 5 c 4 5 c 5 -2 c 4 -4 c 5 -3 c 4 -1 c 4 -1 c 5 0 c
4 1 c 4 0 c 5 -1 c 4 1 c 4 2 c 5 0 c 4 0 c 5 -1 c 4 0 c 4 1 c 5 0 c 4 0 c 4 0 c 5 0 c 4 0 c 5 1 c 4 1 c 4 3 c 5 7 c 4 -1 c 4 -5 c
5 -6 c 4 2 c 5 3 c 4 5 c 4 -2 c 5 -2 c 4 -1 c 4 -1 c 5 -3 c 4 -2 c 5 0 c 4 0 c 4 1 c 5 -2 c 4 1 c 4 4 c 5 0 c 4 0 c 4 -2 c 5 0 c
4 1 c 5 4 c 4 3 c 4 -4 c 5 -7 c 4 0 c 4 4 c 5 5 c 4 0 c 5 -3 c 4 -6 c 4 0 c 5 2 c 4 -1 c 4 1 c 5 -2 c 4 -1 c 5 1 c 4 1 c 4 -1 c
5 0 c 4 1 c 4 -1 c 5 0 c 4 0 c 4 0 c 5 1 c 4 2 c 5 5 c 4 1 c 4 -2 c 5 -3 c 4 -1 c 4 3 c 5 2 c 4 -2 c 5 -3 c 4 0 c 4 -1 c 5 0 c 4 1 c
4 -1 c 5 1 c 4 0 c 5 2 c 4 0 c 4 0 c 5 3 c 4 2 c 4 4 c 5 10 c 4 39 c 5 165 c 4 507 c 4 483 c 5 -82 c 4 -583 c 4 -269 c 5 336 c
4 167 c 4 -197 c 5 -440 c 4 -126 c 5 -11 c 4 -5 c 4 -2 c 5 -1 c 4 0 c 4 0 c 5 5 c 4 16 c 5 44 c 4 31 c 4 -6 c 5 -34 c 4 -23 c
4 -15 c 5 -13 c 4 -6 c 5 -1 c 4 -2 c 4 0 c 5 0 c 4 1 c 4 -1 c 5 0 c 4 0 c 5 -1 c 4 0 c 4 0 c 5 0 c 4 0 c 4 1 c 5 -2 c 4 2 c 4 -1 c
5 0 c 4 0 c 5 1 c 4 2 c 4 3 c 5 0 c 4 -1 c 4 -3 c 5 0 c 4 -3 c 5 1 c 4 2 c 4 2 c 5 10 c 4 7 c 4 -2 c 5 -12 c 4 -4 c 5 -2 c 4 2 c
4 1 c 5 2 c 4 -3 c 4 -2 c 5 0 c 4 0 c 5 -1 c 4 2 c 4 -1 c 5 0 c 4 0 c 4 -1 c 5 2 c 4 0 c 4 1 c 5 2 c 4 24 c 5 103 c 4 82 c 4 -28 c
5 -122 c 4 -52 c 4 -4 c 5 0 c 4 2 c 5 9 c 4 62 c 4 453 c 5 930 c 4 123 c 4 -658 c 5 -785 c 4 -128 c 5 -3 c 4 2 c 4 9 c 5 7 c 4 2 c
4 -11 c 5 -12 c 4 -1 c 5 23 c 4 14 c 4 -5 c 5 -25 c 4 -3 c 4 0 c 5 -6 c 4 -5 c 4 1 c 5 -1 c 4 0 c 5 -1 c 4 -1 c 4 1 c 5 0 c 4 -1 c
4 0 c 5 0 c 4 2 c 5 1 c 4 -1 c 4 -2 c 5 0 c 4 -1 c 4 2 c 5 -1 c 4 0 c 5 1 c 4 4 c 4 0 c 5 -2 c 4 -2 c 4 1 c 5 12 c 4 42 c 4 16 c
5 -19 c 4 -40 c 5 -12 c 4 -1 c 4 0 c 5 3 c 4 13 c 4 12 c 5 -2 c 4 -12 c 5 -10 c 4 -3 c 4 0 c 5 0 c 4 1 c 4 1 c 5 1 c 4 -2 c 5 0 c
4 0 c 4 3 c 5 1 c 4 -2 c 4 2 c 5 9 c 4 3 c 5 -4 c 4 -10 c 4 1 c 5 2 c 4 2 c 4 1 c 5 0 c 4 0 c 4 18 c 5 225 c 4 676 c 5 300 c
4 -382 c 4 -667 c 5 -164 c 4 -8 c 4 -1 c 5 -1 c 4 0 c 5 -1 c 4 4 c 4 21 c 5 31 c 4 7 c 4 -9 c 5 15 c 4 -1 c 5 -29 c 4 -34 c 4 -4 c
5 3 c 4 7 c 4 0 c 5 -4 c 4 -5 c 5 0 c 4 0 c 4 6 c 5 54 c 4 157 c 4 61 c 5 -77 c 4 -150 c 4 -45 c 5 -6 c 4 -2 c 5 -1 c 4 -1 c 4 -1 c
5 0 c 4 2 c 4 2 c 5 -2 c 4 -2 c 5 -2 c 4 1 c 4 10 c 5 70 c 4 104 c 4 9 c 5 -99 c 4 -83 c 5 -8 c 4 -2 c 4 -2 c 5 10 c 4 21 c 4 12 c
5 -10 c 4 -20 c 5 -9 c 4 -1 c 4 1 c 5 -2 c 4 -1 c 4 1 c 5 1 c 4 0 c 4 -1 c 5 4 c 4 9 c 5 4 c 4 -8 c 4 -6 c 5 2 c 4 10 c 4 17 c 5 0 c
4 -13 c 5 -12 c 4 -3 c 4 0 c 5 0 c 4 0 c 4 9 c 5 13 c 4 9 c 5 3 c 4 -10 c 4 -7 c 5 -15 c 4 -3 c 4 -2 c 5 1 c 4 -1 c 4 1 c 5 1 c
4 1 c 5 -1 c 4 -1 c 4 1 c 5 9 c 4 99 c 4 160 c 5 8 c 4 -138 c 5 -125 c 4 -14 c 4 -1 c 5 -2 c 4 1 c 4 0 c 5 -1 c 4 0 c 5 0 c 4 1 c
4 0 c 5 1 c 4 -1 c 4 1 c 5 -1 c 4 1 c 5 0 c 4 3 c 4 1 c 5 1 c 4 1 c 4 4 c 5 7 c 4 16 c 4 198 c 5 607 c 4 631 c 5 614 c 4 -347 c
4 -715 c 5 -848 c 4 -155 c 4 -6 c 5 -3 c 4 13 c 5 12 c 4 7 c 4 -13 c 5 -15 c 4 -12 c 4 0 c 5 7 c 4 6 c 5 3 c 4 -1 c 4 -5 c 5 -5 c
4 -5 c 4 0 c 5 6 c 4 3 c 5 -1 c 4 -6 c 4 -3 c 5 -2 c 4 4 c 4 18 c 5 12 c 4 -7 c 4 -15 c 5 14 c 4 73 c 5 37 c 4 -31 c 4 -77 c 5 -22 c
4 -1 c 4 2 c 5 9 c 4 3 c 5 3 c 4 53 c 4 39 c 5 -7 c 4 -50 c 4 -25 c 5 -11 c 4 -15 c 5 -4 c 4 -1 c 4 1 c 5 0 c 4 6 c 4 5 c 5 -1 c
4 -4 c 5 14 c 4 160 c 4 345 c 5 50 c 4 -223 c 4 -305 c 5 -43 c 4 -2 c 4 -2 c 5 0 c 4 -1 c 5 2 c 4 -1 c 4 5 c 5 2 c 4 1 c 4 -3 c
5 0 c 4 9 c 5 5 c 4 32 c 4 49 c 5 8 c 4 -56 c 4 -46 c 5 -6 c 4 0 c 5 2 c 4 8 c 4 23 c 5 12 c 4 -2 c 4 -15 c 5 -14 c 4 -13 c 5 -4 c
4 0 c 4 0 c 5 0 c 4 2 c 4 1 c 5 -1 c 4 -2 c 4 1 c 5 1 c 4 4 c 5 19 c 4 6 c 4 -6 c 5 -17 c 4 0 c 4 16 c 5 8 c 4 -8 c 5 -12 c 4 -1 c
4 -2 c 5 1 c 4 17 c 4 45 c 5 37 c 4 77 c 5 7 c 4 -39 c 4 -108 c 5 -40 c 4 -3 c 4 -1 c 5 0 c 4 0 c 4 2 c 5 7 c 4 4 c 5 2 c 4 34 c
4 54 c 5 0 c 4 -49 c 4 -48 c 5 -4 c 4 -1 c 5 0 c 4 5 c 4 21 c 5 10 c 4 -4 c 4 -25 c 5 -9 c 4 8 c 5 4 c 4 2 c 4 -7 c 5 -6 c 4 3 c
4 1 c 5 0 c 4 -1 c 5 2 c 4 -1 c 4 -3 c 5 -3 c 4 1 c 4 6 c 5 33 c 4 64 c 4 10 c 5 -43 c 4 -60 c 5 -9 c 4 0 c 4 2 c 5 2 c 4 0 c 4 0 c
5 -1 c 4 7 c 5 12 c 4 4 c 4 -7 c 5 -6 c 4 -2 c 4 -8 c 5 2 c 4 2 c 5 -2 c 4 -3 c 4 0 c 5 21 c 4 87 c 4 57 c 5 -16 c 4 -100 c 5 -47 c
4 4 c 4 43 c 5 47 c 4 -1 c 4 -46 c 5 -44 c 4 -4 c 4 1 c 5 -2 c 4 -1 c 5 -1 c 4 -1 c 4 1 c 5 4 c 4 12 c 4 22 c 5 34 c 4 5 c 5 -22 c
4 -39 c 4 -11 c 5 -5 c 4 -1 c 4 1 c 5 2 c 4 2 c 5 5 c 4 17 c 4 9 c 5 -5 c 4 -20 c 4 -11 c 5 0 c 4 1 c 5 0 c 4 -1 c 4 0 c 5 1 c 4 3 c
4 7 c 5 23 c 4 35 c 4 57 c 5 4 c 4 -42 c 5 -67 c 4 -18 c 4 -2 c 5 0 c 4 -2 c 4 0 c 5 1 c 4 2 c 5 4 c 4 2 c 4 4 c 5 -3 c 4 -4 c
4 -4 c 5 -1 c 4 0 c 5 0 c 4 -1 c 4 0 c 5 0 c 4 -1 c 4 2 c 5 4 c 4 3 c 5 -1 c 4 -2 c 4 -2 c 5 5 c 4 6 c 4 3 c 5 -7 c 4 -4 c 4 -2 c
5 0 c 4 2 c 5 2 c 4 0 c 4 -1 c 5 -3 c 4 -1 c 4 1 c 5 11 c 4 60 c 5 134 c 4 37 c 4 -260 c 5 82 c 4 -16 c 4 27 c 5 4 c 4 -23 c 5 -39 c
4 -15 c 4 -1 c 5 0 c 4 0 c 4 7 c 5 10 c 4 8 c 4 4 c 5 -9 c 4 -12 c 5 -8 c 4 -1 c 4 2 c 5 15 c 4 49 c 4 31 c 5 -18 c 4 -53 c 5 -27 c
4 -2 c 4 2 c 5 0 c 4 0 c 4 17 c 5 27 c 4 3 c 5 -17 c 4 -23 c 4 -3 c 5 0 c 4 -3 c 4 -1 c 5 -3 c 4 3 c 5 5 c 4 2 c 4 -2 c 5 -4 c 4 0 c
4 0 c 5 -1 c 4 -1 c 4 0 c 5 1 c 4 3 c 5 7 c 4 14 c 4 24 c 5 110 c 4 124 c 4 -15 c 5 -142 c 4 -106 c 5 -12 c 4 -3 c 4 -3 c 5 0 c
4 1 c 4 0 c 5 0 c 4 2 c 5 6 c 4 10 c 4 4 c 5 1 c 4 -5 c 4 -5 c 5 -12 c 4 -3 c 5 2 c 4 3 c 4 -1 c 5 -1 c 4 -2 c 4 3 c 5 0 c 4 -2 c
4 1 c 5 -2 c 4 -1 c 5 -1 c 4 0 c 4 -1 c 5 1 c 4 0 c 4 0 c 5 2 c 4 -2 c 5 0 c 4 1 c 4 1 c 5 1 c 4 -1 c 4 2 c 5 2 c 4 3 c 5 24 c
4 96 c 4 96 c 5 -6 c 4 -103 c 4 -76 c 5 -17 c 4 6 c 5 13 c 4 -2 c 4 -18 c 5 -15 c 4 -2 c 4 0 c 5 -3 c 4 -3 c 4 -1 c 5 1 c 4 1 c
5 1 c 4 3 c 4 0 c 5 -2 c 4 -4 c 4 2 c 5 0 c 4 -1 c 5 1 c 4 2 c 4 10 c 5 9 c 4 2 c 4 29 c 5 57 c 4 13 c 5 -43 c 4 -58 c 4 -12 c
5 10 c 4 76 c 4 71 c 5 -17 c 4 -81 c 4 -60 c 5 -8 c 4 0 c 5 1 c 4 15 c 4 24 c 5 -56 c 4 45 c 4 -22 c 5 -3 c 4 -1 c 5 -2 c 4 -1 c
4 0 c 5 -2 c 4 0 c 4 -1 c 5 3 c 4 0 c 5 1 c 4 -17 c 4 0 c 5 16 c 4 -1 c 4 2 c 5 -1 c 4 1 c 5 -3 c 4 1 c 4 0 c 5 0 c 4 1 c 4 6 c
5 13 c 4 3 c 4 -5 c 5 0 c 4 79 c 5 114 c 4 10 c 4 -95 c 5 -95 c 4 43 c 4 77 c 5 2 c 4 -71 c 5 -70 c 4 -10 c 4 0 c 5 0 c 4 -2 c 4 2 c
5 -2 c 4 1 c 5 1 c 4 7 c 4 18 c 5 7 c 4 3 c 4 -11 c 5 -12 c 4 -11 c 5 -2 c 4 1 c 4 15 c 5 27 c 4 5 c 4 -13 c 5 -27 c 4 -8 c 4 3 c
5 0 c 4 2 c 5 1 c 4 2 c 4 16 c 5 11 c 4 -2 c 4 -13 c 5 -4 c 4 2 c 5 -4 c 4 -8 c 4 -2 c 5 1 c 4 1 c 4 3 c 5 2 c 4 2 c 5 2 c 4 0 c
4 6 c 5 30 c 4 41 c 4 8 c 5 -36 c 4 -23 c 5 9 c 4 35 c 4 250 c 5 2028 c 4 3308 c 4 370 c 5 -2342 c 4 -2407 c 4 5 c 5 -48 c 4 -580 c
5 -499 c 4 -109 c 4 -21 c 5 -11 c 4 -7 c 4 -2 c 5 -3 c 4 -2 c 5 -1 c 4 1 c 4 -5 c 5 -3 c 4 -1 c 4 4 c 5 3 c 4 -1 c 5 -5 c 4 -2 c
4 -1 c 5 1 c 4 5 c 4 7 c 5 26 c 4 16 c 5 -7 c 4 -28 c 4 -14 c 5 44 c 4 112 c 4 32 c 5 -50 c 4 -109 c 4 -30 c 5 17 c 4 20 c 5 -1 c
4 -19 c 4 -18 c 5 -6 c 4 0 c 4 -1 c 5 2 c 4 1 c 5 -2 c 4 -1 c 4 -1 c 5 0 c 4 0 c 4 0 c 5 2 c 4 0 c 5 0 c 4 0 c 4 -2 c 5 0 c 4 11 c
4 12 c 5 2 c 4 -10 c 4 -14 c 5 -2 c 4 0 c 5 1 c 4 0 c 4 0 c 5 0 c 4 3 c 4 16 c 5 8 c 4 -3 c 5 -15 c 4 -8 c 4 -1 c 5 0 c 4 0 c 4 -1 c
5 4 c 4 3 c 5 3 c 4 18 c 4 33 c 5 28 c 4 -13 c 4 -34 c 5 -25 c 4 -9 c 5 -5 c 4 -3 c 4 1 c 5 -2 c 4 0 c 4 1 c 5 0 c 4 1 c 4 -1 c
5 1 c 4 1 c 5 4 c 4 33 c 4 189 c 5 156 c 4 -18 c 4 -200 c 5 -137 c 4 -13 c 5 25 c 4 14 c 4 -6 c 5 -30 c 4 -15 c 4 0 c 5 -1 c 4 4 c
5 3 c 4 0 c 4 -5 c 5 3 c 4 6 c 4 -29 c 5 24 c 4 -5 c 5 -2 c 4 -2 c 4 0 c 5 0 c 4 2 c 4 -1 c 5 0 c 4 0 c 4 -1 c 5 0 c 4 -1 c 5 -1 c
4 2 c 4 2 c 5 1 c 4 -2 c 4 -1 c 5 0 c 4 2 c 5 1 c 4 -2 c 4 -2 c 5 -1 c 4 0 c 4 0 c 5 0 c 4 1 c 5 -1 c 4 2 c 4 2 c 5 11 c 4 5 c
4 -3 c 5 -9 c 4 2 c 5 23 c 4 11 c 4 -5 c 5 -25 c 4 -11 c 4 -1 c 5 1 c 4 4 c 4 4 c 5 3 c 4 1 c 5 0 c 4 -3 c 4 -3 c 5 -4 c 4 5 c
4 11 c 5 8 c 4 -6 c 5 -10 c 4 -4 c 4 2 c 5 23 c 4 250 c 4 466 c 5 102 c 4 -278 c 5 -459 c 4 -99 c 4 -5 c 5 -4 c 4 -3 c 4 2 c 5 29 c
4 51 c 5 11 c 4 -30 c 4 -52 c 5 -10 c 4 -2 c 4 1 c 5 -1 c 4 0 c 4 -2 c 5 1 c 4 0 c 5 4 c 4 1 c 4 3 c 5 6 c 4 18 c 4 75 c 5 64 c
4 10 c 5 -69 c 4 -59 c 4 -30 c 5 -9 c 4 -3 c 4 -5 c 5 0 c 4 -1 c 5 -3 c 4 -1 c 4 0 c 5 0 c 4 -1 c 4 1 c 5 0 c 4 2 c 4 0 c 5 7 c
4 6 c 5 2 c 4 -5 c 4 -5 c 5 0 c 4 -2 c 4 6 c 5 16 c 4 9 c 5 -1 c 4 -8 c 4 6 c 5 61 c 4 434 c 4 942 c 5 531 c 4 -423 c 5 -958 c
4 -515 c 4 -71 c 5 -11 c 4 -4 c 4 -2 c 5 -1 c 4 -5 c 5 -4 c 4 -1 c 4 2 c 5 21 c 4 64 c 4 25 c 5 -24 c 4 -67 c 4 -25 c 5 0 c 4 -3 c
5 -2 c 4 1 c 4 -1 c 5 0 c 4 0 c 4 1 c 5 -1 c 4 0 c 5 0 c 4 1 c 4 -1 c 5 3 c 4 1 c 4 -1 c 5 -2 c 4 -1 c 5 0 c 4 1 c 4 0 c 5 6 c 4 3 c
4 -1 c 5 -5 c 4 -4 c 5 -1 c 4 1 c 4 -1 c 5 2 c 4 0 c 4 1 c 5 -1 c 4 2 c 4 -2 c 5 0 c 4 0 c 5 2 c 4 3 c 4 3 c 5 46 c 4 109 c 4 31 c
5 -50 c 4 -110 c 5 -32 c 4 -1 c 4 0 c 5 0 c 4 1 c 4 1 c 5 4 c 4 1 c 5 0 c 4 -3 c 4 3 c 5 3 c 4 0 c 4 -7 c 5 -4 c 4 2 c 5 -1 c 4 0 c
4 -2 c 5 -1 c 4 0 c 4 0 c 5 -1 c 4 1 c 4 -1 c 5 0 c 4 2 c 5 1 c 4 -1 c 4 -1 c 5 -2 c 4 3 c 4 0 c 5 1 c 4 -2 c 5 2 c 4 2 c 4 -2 c
5 0 c 4 0 c 4 -1 c 5 -1 c 4 0 c 5 -1 c 4 1 c 4 -1 c 5 0 c 4 1 c 4 2 c 5 0 c 4 1 c 5 9 c 4 12 c 4 3 c 5 -10 c 4 -12 c 4 -4 c 5 0 c
4 1 c 4 1 c 5 0 c 4 0 c 5 2 c 4 3 c 4 8 c 5 4 c 4 -2 c 4 -8 c 5 -8 c 4 1 c 5 -1 c 4 2 c 4 2 c 5 5 c 4 16 c 4 8 c 5 6 c 4 62 c
5 442 c 4 276 c 4 -59 c 5 -435 c 4 -292 c 4 -27 c 5 -2 c 4 -2 c 4 2 c 5 2 c 4 2 c 5 5 c 4 2 c 4 -3 c 5 -4 c 4 -5 c 4 -4 c 5 -1 c
4 2 c 5 0 c 4 1 c 4 -1 c 5 0 c 4 11 c 4 43 c 5 27 c 4 -14 c 5 -40 c 4 -14 c 4 17 c 5 61 c 4 29 c 4 -17 c 5 -70 c 4 -32 c 5 0 c
4 -1 c 4 -2 c 5 1 c 4 0 c 4 0 c 5 -1 c 4 -1 c 4 0 c 5 0 c 4 -1 c 5 1 c 4 1 c 4 -1 c 5 1 c 4 -1 c 4 0 c 5 -1 c 4 0 c 5 0 c 4 1 c
4 -2 c 5 1 c 4 1 c 4 3 c 5 -1 c 4 0 c 5 -2 c 4 1 c 4 -2 c 5 1 c 4 0 c 4 0 c 5 -1 c 4 0 c 5 0 c 4 0 c 4 0 c 5 0 c 4 -1 c 4 2 c 5 1 c
4 -1 c 4 14 c 5 25 c 4 3 c 5 -14 c 4 -23 c 4 -4 c 5 0 c 4 -1 c 4 0 c 5 0 c 4 0 c 5 -1 c 4 2 c 4 0 c 5 0 c 4 0 c 4 0 c 5 -1 c 4 1 c
5 1 c 4 1 c 4 8 c 5 39 c 4 32 c 4 -7 c 5 -42 c 4 -29 c 5 -3 c 4 0 c 4 2 c 5 0 c 4 -1 c 4 4 c 5 24 c 4 21 c 4 -4 c 5 -26 c 4 -17 c
5 -1 c 4 1 c 4 -3 c 5 -1 c 4 -1 c 4 1 c 5 0 c 4 1 c 5 9 c 4 9 c 4 3 c 5 -9 c 4 -9 c 4 -1 c 5 0 c 4 0 c 5 -2 c 4 0 c 4 0 c 5 -1 c
4 1 c 4 -1 c 5 0 c 4 1 c 4 4 c 5 4 c 4 2 c 5 -4 c 4 -3 c 4 -3 c 5 0 c 4 -1 c 4 1 c 5 4 c 4 8 c 5 0 c 4 -3 c 4 -8 c 5 -2 c 4 -1 c
4 -1 c 5 1 c 4 0 c 5 0 c 4 0 c 4 0 c 5 1 c 4 4 c 4 1 c 5 -1 c 4 -4 c 5 0 c 4 0 c 4 2 c 5 5 c 4 2 c 4 3 c 5 12 c 4 5 c 4 -5 c 5 -14 c
4 9 c 5 13 c 4 5 c 4 -13 c 5 -15 c 4 -6 c 4 -1 c 5 -2 c 4 -1 c 5 0 c 4 0 c 4 0 c 5 1 c 4 1 c 4 -2 c 5 -1 c 4 1 c 5 1 c 4 -1 c 4 0 c
5 0 c 4 0 c 4 0 c 5 0 c 4 0 c 5 1 c 4 3 c 4 0 c 5 -2 c 4 -2 c 4 2 c 5 -2 c 4 2 c 4 -2 c 5 0 c 4 0 c 5 0 c 4 -1 c 4 1 c 5 0 c 4 0 c
4 1 c 5 0 c 4 1 c 5 0 c 4 0 c 4 0 c 5 2 c 4 15 c 4 115 c 5 94 c 4 -7 c 5 -110 c 4 -99 c 4 -10 c 5 -1 c 4 0 c 4 1 c 5 -1 c 4 -1 c
5 1 c 4 2 c 4 15 c 5 33 c 4 8 c 4 -12 c 5 -30 c 4 -5 c 4 1 c 5 -2 c 4 -4 c 5 -2 c 4 -3 c 4 1 c 5 4 c 4 2 c 4 7 c 5 -2 c 4 -5 c
5 -6 c 4 -3 c 4 0 c 5 0 c 4 -1 c 4 0 c 5 0 c 4 0 c 5 2 c 4 0 c 4 1 c 5 -2 c 4 0 c 4 -1 c 5 1 c 4 -1 c 5 1 c 4 -1 c 4 0 c 5 2 c 4 4 c
4 5 c 5 1 c 4 -2 c 4 -5 c 5 -4 c 4 -1 c 5 1 c 4 3 c 4 0 c 5 1 c 4 -2 c 4 -2 c 5 0 c 4 -1 c 5 0 c 4 0 c 4 1 c 5 2 c 4 3 c 4 14 c
5 62 c 4 41 c 5 -6 c 4 -60 c 4 -45 c 5 -7 c 4 -3 c 4 -1 c 5 -1 c 4 1 c 4 1 c 5 1 c 4 0 c 5 1 c 4 12 c 4 76 c 5 52 c 4 -5 c 4 -73 c
5 -57 c 4 -7 c 5 0 c 4 0 c 4 0 c 5 0 c 4 -1 c 4 -1 c 5 0 c 4 1 c 5 0 c 4 0 c 4 0 c 5 1 c 4 1 c 4 -1 c 5 0 c 4 0 c 5 -1 c 4 0 c 4 3 c
5 8 c 4 71 c 4 73 c 5 -3 c 4 -65 c 4 -76 c 5 -11 c 4 0 c 5 -1 c 4 0 c 4 0 c 5 0 c 4 0 c 4 0 c 5 3 c 4 5 c 5 2 c 4 -4 c 4 -5 c 5 -1 c
4 -1 c 4 1 c 5 0 c 4 0 c 5 0 c 4 1 c 4 0 c 5 -1 c 4 2 c 4 3 c 5 34 c 4 81 c 5 34 c 4 -12 c 4 -76 c 5 -40 c 4 -22 c 4 0 c 5 4 c 4 2 c
4 -2 c 5 -5 c 4 -3 c 5 -1 c 4 1 c 4 0 c 5 0 c 4 0 c 4 0 c 5 -1 c 4 0 c 5 0 c 4 1 c 4 2 c 5 3 c 4 0 c 4 0 c 5 -3 c 4 -2 c 5 2 c 4 8 c
4 5 c 5 -1 c 4 -7 c 4 -6 c
5 0 c 4 -1 c 5 2 c 4 17 c 4 -28 c 5 0 c 4 61 c 4 -40 c 5 -11 c 4 -1 c 4 2 c 5 1 c 4 4 c 5 1 c 4 7 c 4 4 c 5 -1 c 4 -10 c 4 -6 c
5 4 c 4 12 c 5 4 c 4 -3 c 4 -11 c 5 3 c 4 33 c 4 13 c 5 -5 c 4 -33 c 5 -18 c 4 -1 c 4 -1 c 5 0 c 4 0 c 4 -1 c 5 1 c 4 0 c 5 0 c
4 1 c 4 -1 c 5 1 c 4 0 c 4 2 c 5 0 c 4 -1 c
0 -126 3315 418 l 54 0 3315 418 l 18 -6 c 6 -6 c 6 -12 c 0 -12 c -6 -12 c -6 -6 c -18 -6 c -54 0 c 42 -66 3357 358 l
-12 -6 3465 376 l -12 -12 c -6 -18 c 0 -12 c 6 -18 c 12 -12 c 12 -6 c 18 0 c 12 6 c 12 12 c 6 18 c 0 12 c -6 18 c -12 12 c -12 6 c
-18 0 c 24 -84 3549 376 l -24 -84 3597 376 l 24 -84 3597 376 l -24 -84 3645 376 l 108 0 3687 364 l 108 0 3687 328 l
-60 -84 4089 418 l 90 0 c 0 -126 4089 418 l -12 -6 4275 376 l -12 -12 c -6 -18 c 0 -12 c 6 -18 c 12 -12 c 12 -6 c 18 0 c 12 6 c
12 12 c 6 18 c 0 12 c -6 18 c -12 12 c -12 6 c -18 0 c -12 0 4401 418 l -12 -6 c -6 -18 c 0 -102 c 42 0 4353 376 l 66 0 4539 418 l
-36 -48 c 18 0 c 12 -6 c 6 -6 c 6 -18 c 0 -12 c -6 -18 c -12 -12 c -18 -6 c -18 0 c -18 6 c -6 6 c -6 12 c -6 -18 4725 376 l
-12 -12 c -18 -6 c -6 0 c -18 6 c -12 12 c -6 18 c 0 6 c 6 18 c 12 12 c 18 6 c 6 0 c 18 -6 c 12 -12 c 6 -24 c 0 -30 c -6 -30 c
-12 -18 c -18 -6 c -12 0 c -18 6 c -6 12 c 12 6 5169 394 l 18 18 c 0 -126 c -6 -6 5282 376 l 6 -6 c 6 6 c -6 6 c -6 -6 5282 304 l
6 -6 c 6 6 c -6 6 c -48 -126 5462 418 l 48 -126 5462 418 l 60 0 5432 334 l 0 -84 5540 376 l 6 18 5540 340 l 12 12 c 12 6 c 18 0 c
-12 12 5684 358 l -12 6 c -18 0 c -12 -6 c -12 -12 c -6 -18 c 0 -12 c 6 -18 c 12 -12 c 12 -6 c 18 0 c 12 6 c 12 12 c
108 0 5726 346 l -18 -6 5912 418 l -12 -18 c -6 -30 c 0 -18 c 6 -30 c 12 -18 c 18 -6 c 12 0 c 18 6 c 12 18 c 6 30 c 0 18 c -6 30 c
-12 18 c -18 6 c -12 0 c -60 0 6068 418 l -6 -54 c 6 6 c 18 6 c 18 0 c 18 -6 c 12 -12 c 6 -18 c 0 -12 c -6 -18 c -12 -12 c -18 -6 c
-18 0 c -18 6 c -6 6 c -6 12 c -60 -126 6200 418 l 84 0 6116 418 l -6 -6 6248 304 l 6 -6 c 6 6 c -6 6 c -12 0 6338 418 l -12 -6 c
-6 -18 c 0 -102 c 42 0 6290 376 l 6 -6 6368 418 l 6 6 c -6 6 c -6 -6 c 0 -84 6374 376 l 0 -102 6428 418 l 6 -18 c 12 -6 c 12 0 c
42 0 6410 376 l -6 12 6554 358 l -18 6 c -18 0 c -18 -6 c -6 -12 c 6 -12 c 12 -6 c 30 -6 c 12 -6 c 6 -12 c 0 -6 c -6 -12 c -18 -6 c
-18 0 c -18 6 c -6 12 c 0 -192 6884 442 l 0 -192 6890 442 l 42 0 6884 442 l 42 0 6884 250 l 0 6 6968 388 l 6 12 c 6 6 c 12 6 c
24 0 c 12 -6 c 6 -6 c 6 -12 c 0 -12 c -6 -12 c -12 -18 c -60 -60 c 84 0 c -6 -6 7094 376 l 6 -6 c 6 6 c -6 6 c -6 -6 7094 304 l
6 -6 c 6 6 c -6 6 c 0 -192 7274 442 l 0 -192 7280 442 l 42 0 7238 442 l 42 0 7238 250 l
0 -250 894 3429 l 0 42 851 3508 l 30 -23 c 0 11 c 4 8 c 4 4 c 11 3 c 7 0 c 12 -3 c 7 -8 c 4 -11 c 0 -12 c -4 -11 c -3 -4 c -8 -3 c
79 -38 851 3629 l 0 53 851 3576 l 79 -38 851 3705 l 0 53 851 3652 l -4 7 866 3739 l -11 12 c 79 0 c 3 -3 923 3810 l 4 3 c -4 4 c
-3 -4 c 0 42 851 3848 l 30 -23 c 0 11 c 4 8 c 4 4 c 11 4 c 7 0 c 12 -4 c 7 -8 c 4 -11 c 0 -11 c -4 -12 c -3 -4 c -8 -3 c
79 -38 851 3969 l 0 53 851 3916 l -4 8 866 4003 l -11 11 c 79 0 c 0 -250 1096 1309 l 0 42 1052 1388 l 31 -23 c 0 11 c 3 8 c 4 4 c
11 3 c 8 0 c 11 -3 c 8 -8 c 4 -11 c 0 -12 c -4 -11 c -4 -4 c -7 -4 c 80 -38 1052 1509 l 0 53 1052 1456 l 80 -37 1052 1584 l
0 52 1052 1532 l -4 0 1071 1611 l -7 4 c -4 3 c -4 8 c 0 15 c 4 8 c 4 4 c 7 3 c 8 0 c 8 -3 c 11 -8 c 38 -38 c 0 53 c
4 -3 1124 1690 l 4 3 c -4 4 c -4 -4 c -8 -4 1064 1770 l -4 -11 c 0 -8 c 4 -11 c 11 -8 c 19 -4 c 19 0 c 15 4 c 8 8 c 4 11 c 0 4 c
-4 11 c -8 8 c -11 3 c -4 0 c -11 -3 c -8 -8 c -3 -11 c 0 -4 c 3 -11 c 8 -8 c 11 -4 c 0 -37 1052 1841 l 34 -4 c -3 4 c -4 11 c
0 11 c 4 12 c 7 7 c 11 4 c 8 0 c 11 -4 c 8 -7 c 4 -12 c 0 -11 c -4 -11 c -4 -4 c -7 -4 c 4 -11 1052 1894 l 11 -8 c 19 -3 c 12 0 c
19 3 c 11 8 c 4 11 c 0 8 c -4 11 c -11 8 c -19 4 c -12 0 c -19 -4 c -11 -8 c -4 -11 c 0 -8 c 0 -250 1271 1364 l 0 42 1227 1443 l
30 -23 c 0 12 c 4 7 c 4 4 c 11 4 c 8 0 c 11 -4 c 8 -8 c 3 -11 c 0 -11 c -3 -12 c -4 -4 c -8 -3 c 79 -38 1227 1564 l 0 53 1227 1511 l
79 -38 1227 1640 l 0 53 1227 1587 l 0 42 1227 1670 l 30 -23 c 0 11 c 4 8 c 4 4 c 11 3 c 8 0 c 11 -3 c 8 -8 c 3 -11 c 0 -12 c
-3 -11 c -4 -4 c -8 -4 c 4 -4 1299 1746 l 3 4 c -3 3 c -4 -3 c 79 -38 1227 1829 l 0 53 1227 1776 l 0 -38 1227 1897 l 34 -4 c -4 4 c
-3 11 c 0 12 c 3 11 c 8 8 c 11 3 c 8 0 c 11 -3 c 8 -8 c 3 -11 c 0 -12 c -3 -11 c -4 -4 c -8 -4 c 79 -38 1227 1980 l 0 53 1227 1927 l
0 -249 1669 1379 l 0 41 1626 1459 l 30 -22 c 0 11 c 4 8 c 3 3 c 12 4 c 7 0 c 12 -4 c 7 -7 c 4 -12 c 0 -11 c -4 -11 c -4 -4 c -7 -4 c
79 -38 1626 1580 l 0 53 1626 1527 l 79 -37 1626 1655 l 0 53 1626 1602 l -8 -4 1637 1727 l -3 -11 c 0 -8 c 3 -11 c 12 -7 c 19 -4 c
18 0 c 16 4 c 7 7 c 4 11 c 0 4 c -4 12 c -7 7 c -12 4 c -4 0 c -11 -4 c -7 -7 c -4 -12 c 0 -4 c 4 -11 c 7 -7 c 11 -4 c
4 -4 1697 1761 l 4 4 c -4 4 c -4 -4 c -3 0 1644 1795 l -8 4 c -4 4 c -3 7 c 0 15 c 3 8 c 4 4 c 8 4 c 7 0 c 8 -4 c 11 -8 c 38 -38 c
0 53 c 79 -38 1626 1920 l 0 53 1626 1867 l -4 7 1641 1954 l -11 12 c 79 0 c 0 -249 1851 1283 l 0 41 1808 1363 l 30 -22 c 0 11 c
4 7 c 4 4 c 11 4 c 7 0 c 12 -4 c 7 -7 c 4 -12 c 0 -11 c -4 -11 c -3 -4 c -8 -4 c 79 -38 1808 1484 l 0 53 1808 1431 l
79 -38 1808 1559 l 0 53 1808 1506 l 79 -38 1808 1635 l 0 53 1808 1582 l 3 -4 1880 1665 l 4 4 c -4 4 c -3 -4 c 53 -38 1808 1733 l
0 57 c 79 0 1808 1733 l -4 8 1823 1782 l -11 11 c 79 0 c 79 -37 1808 1899 l 0 53 1808 1846 l 0 -249 2794 2817 l 0 41 2750 2897 l
30 -22 c 0 11 c 4 8 c 4 3 c 11 4 c 8 0 c 11 -4 c 8 -7 c 3 -11 c 0 -12 c -3 -11 c -4 -4 c -8 -4 c 79 -38 2750 3018 l 0 53 2750 2965 l
4 -11 2750 3059 l 7 -4 c 8 0 c 8 4 c 3 8 c 4 15 c 4 11 c 7 8 c 8 3 c 11 0 c 8 -3 c 4 -4 c 3 -12 c 0 -15 c -3 -11 c -4 -4 c -8 -4 c
-11 0 c -8 4 c -7 8 c -4 11 c -4 15 c -3 8 c -8 4 c -8 0 c -7 -4 c -4 -12 c 0 -15 c 0 41 2750 3124 l 30 -22 c 0 11 c 4 7 c 4 4 c
11 4 c 8 0 c 11 -4 c 8 -7 c 3 -12 c 0 -11 c -3 -11 c -4 -4 c -8 -4 c 4 -4 2822 3199 l 3 4 c -3 4 c -4 -4 c -4 0 2769 3233 l -7 4 c
-4 4 c -4 7 c 0 15 c 4 8 c 4 4 c 7 4 c 8 0 c 7 -4 c 12 -8 c 37 -38 c 0 53 c 11 -4 2777 3354 l 7 -7 c 4 -12 c 0 -3 c -4 -12 c -7 -7 c
-11 -4 c -4 0 c -12 4 c -7 7 c -4 12 c 0 3 c 4 12 c 7 7 c 16 4 c 18 0 c 19 -4 c 12 -7 c 3 -12 c 0 -7 c -3 -11 c -8 -4 c
-7 -4 2761 3430 l -4 -11 c 0 -8 c 4 -11 c 11 -8 c 19 -4 c 19 0 c 15 4 c 8 8 c 3 11 c 0 4 c -3 11 c -8 8 c -11 4 c -4 0 c -11 -4 c
-8 -8 c -4 -11 c 0 -4 c 4 -11 c 8 -8 c 11 -4 c 0 -250 3000 1303 l 0 42 2957 1382 l 30 -23 c 0 11 c 4 8 c 4 4 c 11 4 c 7 0 c 12 -4 c
7 -8 c 4 -11 c 0 -11 c -4 -12 c -3 -4 c -8 -3 c 79 -38 2957 1503 l 0 53 2957 1450 l 4 -12 2957 1545 l 7 -3 c 8 0 c 7 3 c 4 8 c
4 15 c 4 11 c 7 8 c 8 4 c 11 0 c 8 -4 c 3 -4 c 4 -11 c 0 -15 c -4 -12 c -3 -3 c -8 -4 c -11 0 c -8 4 c -7 7 c -4 12 c -4 15 c -4 7 c
-7 4 c -8 0 c -7 -4 c -4 -11 c 0 -15 c 53 -38 2957 1639 l 0 57 c 79 0 2957 1639 l 3 -4 3029 1685 l 4 4 c -4 3 c -3 -3 c
0 -38 2957 1760 l 34 -3 c -4 3 c -4 12 c 0 11 c 4 11 c 8 8 c 11 4 c 7 0 c 12 -4 c 7 -8 c 4 -11 c 0 -11 c -4 -12 c -3 -3 c -8 -4 c
79 -37 2957 1843 l 0 53 2957 1790 l 0 -37 2957 1911 l 34 -4 c -4 4 c -4 11 c 0 11 c 4 12 c 8 7 c 11 4 c 7 0 c 12 -4 c 7 -7 c 4 -12 c
0 -11 c -4 -11 c -3 -4 c -8 -4 c 0 -249 3166 2460 l 0 42 3123 2539 l 30 -23 c 0 12 c 4 7 c 3 4 c 12 4 c 7 0 c 12 -4 c 7 -8 c 4 -11 c
0 -11 c -4 -12 c -3 -3 c -8 -4 c 79 -37 3123 2660 l 0 53 3123 2607 l 3 -11 3123 2702 l 8 -4 c 8 0 c 7 4 c 4 7 c 4 15 c 3 12 c 8 7 c
8 4 c 11 0 c 8 -4 c 3 -4 c 4 -11 c 0 -15 c -4 -11 c -3 -4 c -8 -4 c -11 0 c -8 4 c -8 7 c -3 12 c -4 15 c -4 7 c -7 4 c -8 0 c
-8 -4 c -3 -11 c 0 -15 c 0 -38 3123 2804 l 34 -4 c -4 4 c -4 12 c 0 11 c 4 11 c 7 8 c 12 4 c 7 0 c 12 -4 c 7 -8 c 4 -11 c 0 -11 c
-4 -12 c -3 -4 c -8 -3 c 3 -4 3195 2842 l 4 4 c -4 4 c -3 -4 c -8 -4 3134 2921 l -3 -11 c 0 -8 c 3 -11 c 12 -7 c 19 -4 c 19 0 c
15 4 c 7 7 c 4 11 c 0 4 c -4 12 c -7 7 c -12 4 c -3 0 c -12 -4 c -7 -7 c -4 -12 c 0 -4 c 4 -11 c 7 -7 c 12 -4 c 3 -11 3123 2970 l
12 -8 c 19 -3 c 11 0 c 19 3 c 11 8 c 4 11 c 0 8 c -4 11 c -11 8 c -19 4 c -11 0 c -19 -4 c -12 -8 c -3 -11 c 0 -8 c
3 -11 3123 3046 l 12 -8 c 19 -4 c 11 0 c 19 4 c 11 8 c 4 11 c 0 7 c -4 12 c -11 7 c -19 4 c -11 0 c -19 -4 c -12 -7 c -3 -12 c
0 -7 c 0 -249 4013 1809 l 0 41 3970 1889 l 30 -23 c 0 12 c 4 7 c 4 4 c 11 4 c 7 0 c 12 -4 c 7 -7 c 4 -12 c 0 -11 c -4 -11 c -3 -4 c
-8 -4 c 79 -38 3970 2010 l 0 53 3970 1957 l 12 -3 3996 2081 l 7 -8 c 4 -11 c 0 -4 c -4 -11 c -7 -8 c -12 -4 c -4 0 c -11 4 c -7 8 c
-4 11 c 0 4 c 4 11 c 7 8 c 15 3 c 19 0 c 19 -3 c 11 -8 c 4 -11 c 0 -8 c -4 -11 c -7 -4 c 4 -11 3970 2130 l 11 -7 c 19 -4 c 11 0 c
19 4 c 11 7 c 4 11 c 0 8 c -4 11 c -11 8 c -19 4 c -11 0 c -19 -4 c -11 -8 c -4 -11 c 0 -8 c 3 -4 4042 2191 l 4 4 c -4 4 c -3 -4 c
79 -38 3970 2274 l 0 53 3970 2221 l 12 -4 3996 2346 l 7 -7 c 4 -12 c 0 -4 c -4 -11 c -7 -7 c -12 -4 c -4 0 c -11 4 c -7 7 c -4 11 c
0 4 c 4 12 c 7 7 c 15 4 c 19 0 c 19 -4 c 11 -7 c 4 -12 c 0 -7 c -4 -12 c -7 -3 c 0 -38 3970 2418 l 34 -4 c -4 4 c -4 11 c 0 12 c
4 11 c 8 7 c 11 4 c 7 0 c 12 -4 c 7 -7 c 4 -11 c 0 -12 c -4 -11 c -3 -4 c -8 -4 c 0 -249 4769 1361 l 0 41 4725 1441 l 31 -22 c
0 11 c 3 7 c 4 4 c 11 4 c 8 0 c 11 -4 c 8 -7 c 4 -12 c 0 -11 c -4 -11 c -4 -4 c -7 -4 c 80 -38 4725 1562 l 0 53 4725 1509 l
11 -3 4752 1633 l 8 -8 c 3 -11 c 0 -4 c -3 -11 c -8 -8 c -11 -4 c -4 0 c -11 4 c -8 8 c -4 11 c 0 4 c 4 11 c 8 8 c 15 3 c 19 0 c
19 -3 c 11 -8 c 4 -11 c 0 -8 c -4 -11 c -8 -4 c 0 -38 4725 1705 l 34 -3 c -3 3 c -4 12 c 0 11 c 4 11 c 7 8 c 11 4 c 8 0 c 11 -4 c
8 -8 c 4 -11 c 0 -11 c -4 -12 c -4 -3 c -7 -4 c 4 -4 4797 1743 l 4 4 c -4 4 c -4 -4 c 0 41 4725 1781 l 31 -22 c 0 11 c 3 8 c 4 3 c
11 4 c 8 0 c 11 -4 c 8 -7 c 4 -12 c 0 -11 c -4 -11 c -4 -4 c -7 -4 c 4 -12 4725 1868 l 8 -3 c 7 0 c 8 3 c 4 8 c 3 15 c 4 11 c 8 8 c
7 4 c 12 0 c 7 -4 c 4 -4 c 4 -11 c 0 -15 c -4 -12 c -4 -3 c -7 -4 c -12 0 c -7 4 c -8 7 c -4 11 c -3 16 c -4 7 c -8 4 c -7 0 c
-8 -4 c -4 -11 c 0 -15 c 4 -11 4725 1947 l 11 -8 c 19 -4 c 12 0 c 19 4 c 11 8 c 4 11 c 0 8 c -4 11 c -11 8 c -19 3 c -12 0 c
-19 -3 c -11 -8 c -4 -11 c 0 -8 c 0 -249 5223 1515 l 0 41 5179 1595 l 30 -22 c 0 11 c 4 8 c 4 3 c 11 4 c 8 0 c 11 -4 c 8 -7 c
3 -12 c 0 -11 c -3 -11 c -4 -4 c -8 -4 c 79 -38 5179 1716 l 0 53 5179 1663 l 11 -4 5206 1788 l 7 -8 c 4 -11 c 0 -4 c -4 -11 c
-7 -8 c -11 -4 c -4 0 c -12 4 c -7 8 c -4 11 c 0 4 c 4 11 c 7 8 c 16 4 c 18 0 c 19 -4 c 12 -8 c 3 -11 c 0 -8 c -3 -11 c -8 -4 c
4 -11 5179 1833 l 7 -4 c 8 0 c 8 4 c 3 7 c 4 15 c 4 12 c 7 7 c 8 4 c 11 0 c 8 -4 c 4 -4 c 3 -11 c 0 -15 c -3 -11 c -4 -4 c -8 -4 c
-11 0 c -8 4 c -7 7 c -4 12 c -4 15 c -3 7 c -8 4 c -8 0 c -7 -4 c -4 -11 c 0 -15 c 4 -4 5251 1897 l 3 4 c -3 4 c -4 -4 c
-4 7 5194 1939 l -11 12 c 79 0 c 4 -12 5179 2026 l 11 -7 c 19 -4 c 11 0 c 19 4 c 12 7 c 3 12 c 0 7 c -3 12 c -12 7 c -19 4 c -11 0 c
-19 -4 c -11 -7 c -4 -12 c 0 -7 c 0 42 5179 2086 l 30 -23 c 0 11 c 4 8 c 4 4 c 11 3 c 8 0 c 11 -3 c 8 -8 c 3 -11 c 0 -12 c -3 -11 c
-4 -4 c -8 -3 c 0 -249 6059 7019 l 0 42 6016 7098 l 30 -23 c 0 12 c 4 7 c 4 4 c 11 4 c 7 0 c 12 -4 c 7 -8 c 4 -11 c 0 -11 c -4 -12 c
-3 -3 c -8 -4 c 3 -11 6016 7185 l 8 -4 c 8 0 c 7 4 c 4 8 c 4 15 c 4 11 c 7 8 c 8 3 c 11 0 c 8 -3 c 3 -4 c 4 -11 c 0 -16 c -4 -11 c
-3 -4 c -8 -3 c -11 0 c -8 3 c -7 8 c -4 11 c -4 15 c -4 8 c -7 4 c -8 0 c -8 -4 c -3 -11 c 0 -16 c 3 -12 6016 7265 l 12 -7 c
19 -4 c 11 0 c 19 4 c 11 7 c 4 12 c 0 7 c -4 12 c -11 7 c -19 4 c -11 0 c -19 -4 c -12 -7 c -3 -12 c 0 -7 c 0 42 6016 7325 l
30 -23 c 0 11 c 4 8 c 4 4 c 11 4 c 7 0 c 12 -4 c 7 -8 c 4 -11 c 0 -11 c -4 -12 c -3 -4 c -8 -3 c 3 -4 6088 7401 l 4 4 c -4 4 c
-3 -4 c 3 -12 6016 7454 l 12 -7 c 19 -4 c 11 0 c 19 4 c 11 7 c 4 12 c 0 7 c -4 12 c -11 7 c -19 4 c -11 0 c -19 -4 c -12 -7 c
-3 -12 c 0 -7 c 79 -38 6016 7560 l 0 53 6016 7507 l 0 -38 6016 7628 l 34 -4 c -4 4 c -4 11 c 0 11 c 4 12 c 8 7 c 11 4 c 7 0 c
12 -4 c 7 -7 c 4 -12 c 0 -11 c -4 -11 c -3 -4 c -8 -4 c 0 -250 6877 2082 l 0 42 6833 2161 l 30 -23 c 0 12 c 4 7 c 4 4 c 11 4 c 8 0 c
11 -4 c 8 -8 c 4 -11 c 0 -11 c -4 -12 c -4 -3 c -8 -4 c 4 -11 6833 2248 l 8 -4 c 7 0 c 8 4 c 3 8 c 4 15 c 4 11 c 8 8 c 7 3 c 11 0 c
8 -3 c 4 -4 c 4 -12 c 0 -15 c -4 -11 c -4 -4 c -8 -4 c -11 0 c -7 4 c -8 8 c -4 11 c -4 15 c -3 8 c -8 4 c -7 0 c -8 -4 c -4 -12 c
0 -15 c 4 -12 6833 2328 l 11 -7 c 19 -4 c 12 0 c 18 4 c 12 7 c 4 12 c 0 7 c -4 12 c -12 7 c -18 4 c -12 0 c -19 -4 c -11 -7 c
-4 -12 c 0 -7 c 80 -38 6833 2434 l 0 53 6833 2381 l 4 -4 6905 2464 l 4 4 c -4 4 c -4 -4 c 4 -11 6833 2513 l 8 -4 c 7 0 c 8 4 c 3 7 c
4 15 c 4 12 c 8 7 c 7 4 c 11 0 c 8 -4 c 4 -4 c 4 -11 c 0 -15 c -4 -11 c -4 -4 c -8 -4 c -11 0 c -7 4 c -8 7 c -4 12 c -4 15 c -3 7 c
-8 4 c -7 0 c -8 -4 c -4 -11 c 0 -15 c 80 -37 6833 2622 l 0 52 6833 2570 l 53 -38 6833 2683 l 0 57 c 80 0 6833 2683 l
0 -249 7149 3233 l 0 41 7105 3313 l 31 -22 c 0 11 c 3 7 c 4 4 c 12 4 c 7 0 c 11 -4 c 8 -7 c 4 -12 c 0 -11 c -4 -11 c -4 -4 c -7 -4 c
4 -12 7105 3400 l 8 -4 c 7 0 c 8 4 c 4 8 c 3 15 c 4 11 c 8 8 c 7 4 c 12 0 c 7 -4 c 4 -4 c 4 -11 c 0 -15 c -4 -12 c -4 -4 c -7 -3 c
-12 0 c -7 3 c -8 8 c -4 11 c -3 15 c -4 8 c -8 4 c -7 0 c -8 -4 c -4 -11 c 0 -15 c 4 -11 7105 3479 l 12 -8 c 18 -4 c 12 0 c 19 4 c
11 8 c 4 11 c 0 8 c -4 11 c -11 7 c -19 4 c -12 0 c -18 -4 c -12 -7 c -4 -11 c 0 -8 c 11 -4 7132 3581 l 8 -7 c 4 -12 c 0 -3 c
-4 -12 c -8 -7 c -11 -4 c -4 0 c -11 4 c -8 7 c -4 12 c 0 3 c 4 12 c 8 7 c 15 4 c 19 0 c 19 -4 c 11 -7 c 4 -12 c 0 -7 c -4 -12 c
-8 -3 c 4 -4 7177 3615 l 4 4 c -4 4 c -4 -4 c 53 -38 7105 3683 l 0 57 c 80 0 7105 3683 l 0 -38 7105 3766 l 34 -3 c -3 3 c -4 12 c
0 11 c 4 11 c 7 8 c 12 4 c 7 0 c 11 -4 c 8 -8 c 4 -11 c 0 -11 c -4 -12 c -4 -3 c -7 -4 c -8 -4 7117 3846 l -4 -12 c 0 -7 c 4 -11 c
12 -8 c 18 -4 c 19 0 c 15 4 c 8 8 c 4 11 c 0 4 c -4 11 c -8 8 c -11 3 c -4 0 c -11 -3 c -8 -8 c -3 -11 c 0 -4 c 3 -11 c 8 -8 c
11 -4 c 0 -249 7775 2050 l 0 41 7732 2130 l 30 -23 c 0 12 c 4 7 c 3 4 c 12 4 c 7 0 c 12 -4 c 7 -7 c 4 -12 c 0 -11 c -4 -11 c -4 -4 c
-7 -4 c 3 -11 7732 2216 l 8 -4 c 7 0 c 8 4 c 4 8 c 4 15 c 3 11 c 8 8 c 7 3 c 12 0 c 7 -3 c 4 -4 c 4 -11 c 0 -16 c -4 -11 c -4 -4 c
-7 -3 c -12 0 c -7 3 c -8 8 c -3 11 c -4 15 c -4 8 c -8 4 c -7 0 c -8 -4 c -3 -11 c 0 -16 c -4 8 7747 2284 l -11 11 c 79 0 c
0 42 7732 2356 l 30 -23 c 0 12 c 4 7 c 3 4 c 12 4 c 7 0 c 12 -4 c 7 -8 c 4 -11 c 0 -11 c -4 -12 c -4 -3 c -7 -4 c 4 -4 7803 2432 l
4 4 c -4 4 c -4 -4 c 3 -12 7732 2485 l 12 -7 c 19 -4 c 11 0 c 19 4 c 11 7 c 4 12 c 0 7 c -4 12 c -11 7 c -19 4 c -11 0 c -19 -4 c
-12 -7 c -3 -12 c 0 -7 c -8 -4 7743 2587 l -3 -11 c 0 -8 c 3 -11 c 12 -8 c 19 -4 c 18 0 c 16 4 c 7 8 c 4 11 c 0 4 c -4 11 c -7 8 c
-12 4 c -4 0 c -11 -4 c -7 -8 c -4 -11 c 0 -4 c 4 -11 c 7 -8 c 11 -4 c 3 -11 7732 2632 l 8 -4 c 7 0 c 8 4 c 4 7 c 4 16 c 3 11 c
8 7 c 7 4 c 12 0 c 7 -4 c 4 -3 c 4 -12 c 0 -15 c -4 -11 c -4 -4 c -7 -4 c -12 0 c -7 4 c -8 8 c -3 11 c -4 15 c -4 8 c -8 3 c -7 0 c
-8 -3 c -3 -12 c 0 -15 c 0 -250 8764 1455 l 0 42 8720 1534 l 30 -23 c 0 11 c 4 8 c 4 4 c 11 4 c 8 0 c 11 -4 c 8 -8 c 3 -11 c 0 -12 c
-3 -11 c -4 -4 c -8 -3 c 4 -11 8720 1621 l 7 -4 c 8 0 c 7 4 c 4 7 c 4 15 c 4 12 c 7 7 c 8 4 c 11 0 c 8 -4 c 4 -3 c 3 -12 c 0 -15 c
-3 -11 c -4 -4 c -8 -4 c -11 0 c -8 4 c -7 8 c -4 11 c -4 15 c -4 8 c -7 3 c -8 0 c -7 -3 c -4 -12 c 0 -15 c -4 8 8735 1689 l
-11 11 c 79 0 c 4 -11 8720 1772 l 7 -4 c 8 0 c 7 4 c 4 7 c 4 16 c 4 11 c 7 7 c 8 4 c 11 0 c 8 -4 c 4 -3 c 3 -12 c 0 -15 c -3 -11 c
-4 -4 c -8 -4 c -11 0 c -8 4 c -7 8 c -4 11 c -4 15 c -4 8 c -7 3 c -8 0 c -7 -3 c -4 -12 c 0 -15 c 4 -4 8792 1837 l 3 4 c -3 3 c
-4 -3 c -7 -4 8731 1916 l -4 -11 c 0 -8 c 4 -11 c 11 -8 c 19 -3 c 19 0 c 15 3 c 8 8 c 3 11 c 0 4 c -3 11 c -8 8 c -11 4 c -4 0 c
-11 -4 c -8 -8 c -4 -11 c 0 -4 c 4 -11 c 8 -8 c 11 -3 c 4 -11 8720 1961 l 7 -4 c 8 0 c 7 4 c 4 7 c 4 16 c 4 11 c 7 7 c 8 4 c 11 0 c
8 -4 c 4 -3 c 3 -12 c 0 -15 c -3 -11 c -4 -4 c -8 -4 c -11 0 c -8 4 c -7 8 c -4 11 c -4 15 c -4 8 c -7 3 c -8 0 c -7 -3 c -4 -12 c
0 -15 c -7 -4 8731 2067 l -4 -11 c 0 -8 c 4 -11 c 11 -8 c 19 -3 c 19 0 c 15 3 c 8 8 c 3 11 c 0 4 c -3 12 c -8 7 c -11 4 c -4 0 c
-11 -4 c -8 -7 c -4 -12 c 0 -4 c 4 -11 c 8 -8 c 11 -3 c 0 -249 9139 1369 l 0 41 9096 1449 l 30 -22 c 0 11 c 4 8 c 4 3 c 11 4 c 7 0 c
12 -4 c 7 -7 c 4 -11 c 0 -12 c -4 -11 c -3 -4 c -8 -4 c 3 -12 9096 1536 l 8 -3 c 8 0 c 7 3 c 4 8 c 4 15 c 4 11 c 7 8 c 8 4 c 11 0 c
8 -4 c 3 -4 c 4 -11 c 0 -15 c -4 -12 c -3 -3 c -8 -4 c -11 0 c -8 4 c -7 7 c -4 12 c -4 15 c -4 7 c -7 4 c -8 0 c -8 -4 c -3 -11 c
0 -15 c -4 0 9115 1596 l -8 4 c -4 4 c -3 7 c 0 15 c 3 8 c 4 4 c 8 4 c 7 0 c 8 -4 c 11 -8 c 38 -38 c 0 53 c 3 -12 9096 1691 l
12 -7 c 19 -4 c 11 0 c 19 4 c 11 7 c 4 12 c 0 7 c -4 12 c -11 7 c -19 4 c -11 0 c -19 -4 c -12 -7 c -3 -12 c 0 -7 c 3 -4 9168 1751 l
4 4 c -4 4 c -3 -4 c 79 -37 9096 1834 l 0 53 9096 1781 l 12 -4 9122 1906 l 7 -7 c 4 -12 c 0 -3 c -4 -12 c -7 -7 c -12 -4 c -4 0 c
-11 4 c -8 7 c -3 12 c 0 3 c 3 12 c 8 7 c 15 4 c 19 0 c 19 -4 c 11 -7 c 4 -12 c 0 -7 c -4 -11 c -7 -4 c 0 42 9096 1940 l 30 -23 c
0 11 c 4 8 c 4 4 c 11 4 c 7 0 c 12 -4 c 7 -8 c 4 -11 c 0 -11 c -4 -12 c -3 -4 c -8 -3 c 0 -250 9254 1382 l 0 41 9210 1461 l 30 -22 c
0 11 c 4 8 c 4 3 c 11 4 c 8 0 c 11 -4 c 8 -7 c 3 -11 c 0 -12 c -3 -11 c -4 -4 c -8 -4 c 4 -12 9210 1548 l 7 -3 c 8 0 c 7 3 c 4 8 c
4 15 c 4 11 c 7 8 c 8 4 c 11 0 c 8 -4 c 4 -4 c 3 -11 c 0 -15 c -3 -12 c -4 -3 c -8 -4 c -11 0 c -8 4 c -7 7 c -4 12 c -4 15 c -4 7 c
-7 4 c -8 0 c -7 -4 c -4 -11 c 0 -15 c -4 0 9229 1608 l -7 4 c -4 4 c -4 7 c 0 16 c 4 7 c 4 4 c 7 4 c 8 0 c 7 -4 c 12 -8 c 37 -38 c
0 53 c -4 8 9225 1691 l -11 11 c 79 0 c 4 -4 9282 1763 l 3 4 c -3 4 c -4 -4 c 53 -38 9210 1831 l 0 57 c 79 0 9210 1831 l
0 41 9210 1877 l 30 -22 c 0 11 c 4 7 c 4 4 c 11 4 c 8 0 c 11 -4 c 8 -7 c 3 -12 c 0 -11 c -3 -11 c -4 -4 c -8 -4 c -4 8 9225 1956 l
-11 11 c 79 0 c 0 -250 9383 1380 l 0 42 9340 1459 l 30 -23 c 0 12 c 4 7 c 4 4 c 11 4 c 7 0 c 12 -4 c 7 -8 c 4 -11 c 0 -11 c -4 -12 c
-3 -3 c -8 -4 c 4 -11 9340 1546 l 7 -4 c 8 0 c 7 4 c 4 8 c 4 15 c 4 11 c 7 8 c 8 3 c 11 0 c 8 -3 c 3 -4 c 4 -12 c 0 -15 c -4 -11 c
-3 -4 c -8 -4 c -11 0 c -8 4 c -7 8 c -4 11 c -4 15 c -4 8 c -7 4 c -8 0 c -7 -4 c -4 -12 c 0 -15 c -4 0 9359 1607 l -8 4 c -3 3 c
-4 8 c 0 15 c 4 8 c 3 3 c 8 4 c 7 0 c 8 -4 c 11 -7 c 38 -38 c 0 53 c -4 0 9359 1682 l -8 4 c -3 4 c -4 7 c 0 16 c 4 7 c 3 4 c 8 4 c
7 0 c 8 -4 c 11 -8 c 38 -37 c 0 52 c 3 -4 9412 1762 l 4 4 c -4 3 c -3 -3 c -4 8 9355 1803 l -11 11 c 79 0 c 53 -37 9340 1905 l
0 56 c 79 0 9340 1905 l 4 -11 9340 1962 l 7 -4 c 8 0 c 7 4 c 4 7 c 4 15 c 4 12 c 7 7 c 8 4 c 11 0 c 8 -4 c 3 -4 c 4 -11 c 0 -15 c
-4 -11 c -3 -4 c -8 -4 c -11 0 c -8 4 c -7 7 c -4 12 c -4 15 c -4 7 c -7 4 c -8 0 c -7 -4 c -4 -11 c 0 -15 c
showpage PGPLOT restore
 
%%Trailer
%%DocumentFonts: 
%%Pages: 1
%%EOF
