%!PS-Adobe-3.0 EPSF-3.0
%%For: tom
%%Title: PGPLOT PostScript plot
%%Creator: PGPLOT
%%CreationDate:  9-Nov-1994 13:31
%%BoundingBox: 25 18 587 774
%%DocumentFonts: (atend)
%%LanguageLevel: 1
%%Orientation: Landscape
%%Pages: (atend)
%%EndComments
%%BeginProlog
/l {moveto rlineto currentpoint stroke moveto} bind def
/c {rlineto currentpoint stroke moveto} bind def
/d {moveto 0 0 rlineto currentpoint stroke moveto} bind def
/SLW {5 mul setlinewidth} bind def
/SCF /pop load def
/BP {newpath moveto} bind def
/LP /rlineto load def
/EP {rlineto closepath eofill} bind def
/MB {gsave translate MFAC dup scale 1 setlinewidth 2 setlinecap 0 setlinejoin newpath} bind def
/ME /grestore load def
/C {0 360 arc stroke} bind def
/FC {0 360 arc fill} bind def
%%EndProlog
 
%%Page: 1 1
%%BeginPageSetup
/PGPLOT save def
0.072 0.072 scale
8150 250 translate 90 rotate
1 setlinejoin 1 setlinecap 1 SLW 1 SCF
%%EndPageSetup
0.00 setgray 1 SLW 8939 0 780 780 l 0 6239 c -8939 0 c 0 -6239 c 0 -45 1116 780 l 0 -45 1554 780 l 0 -45 1991 780 l 0 -45 2428 780 l
0 -90 2865 780 l 0 -45 3302 780 l 0 -45 3739 780 l 0 -45 4176 780 l 0 -45 4613 780 l 0 -90 5051 780 l 0 -45 5488 780 l
0 -45 5925 780 l 0 -45 6362 780 l 0 -45 6799 780 l 0 -90 7236 780 l 0 -45 7673 780 l 0 -45 8110 780 l 0 -45 8548 780 l
0 -45 8985 780 l 0 -90 9422 780 l 0 -45 1116 7064 l 0 -45 1554 7064 l 0 -45 1991 7064 l 0 -45 2428 7064 l 0 -90 2865 7109 l
0 -45 3302 7064 l 0 -45 3739 7064 l 0 -45 4176 7064 l 0 -45 4613 7064 l 0 -90 5051 7109 l 0 -45 5488 7064 l 0 -45 5925 7064 l
0 -45 6362 7064 l 0 -45 6799 7064 l 0 -90 7236 7109 l 0 -45 7673 7064 l 0 -45 8110 7064 l 0 -45 8548 7064 l 0 -45 8985 7064 l
0 -90 9422 7109 l -60 0 2775 672 l -6 -54 c 6 6 c 18 6 c 18 0 c 18 -6 c 12 -12 c 6 -18 c 0 -12 c -6 -18 c -12 -12 c -18 -6 c -18 0 c
-18 6 c -6 6 c -6 12 c -18 -6 2859 672 l -12 -18 c -6 -30 c 0 -18 c 6 -30 c 12 -18 c 18 -6 c 12 0 c 18 6 c 12 18 c 6 30 c 0 18 c
-6 30 c -12 18 c -18 6 c -12 0 c -18 -6 2979 672 l -12 -18 c -6 -30 c 0 -18 c 6 -30 c 12 -18 c 18 -6 c 12 0 c 18 6 c 12 18 c 6 30 c
0 18 c -6 30 c -12 18 c -18 6 c -12 0 c 12 6 4847 648 l 18 18 c 0 -126 c -18 -6 4985 672 l -12 -18 c -6 -30 c 0 -18 c 6 -30 c
12 -18 c 18 -6 c 12 0 c 18 6 c 12 18 c 6 30 c 0 18 c -6 30 c -12 18 c -18 6 c -12 0 c -18 -6 5105 672 l -12 -18 c -6 -30 c 0 -18 c
6 -30 c 12 -18 c 18 -6 c 12 0 c 18 6 c 12 18 c 6 30 c 0 18 c -6 30 c -12 18 c -18 6 c -12 0 c -18 -6 5225 672 l -12 -18 c -6 -30 c
0 -18 c 6 -30 c 12 -18 c 18 -6 c 12 0 c 18 6 c 12 18 c 6 30 c 0 18 c -6 30 c -12 18 c -18 6 c -12 0 c 12 6 7032 648 l 18 18 c
0 -126 c -60 0 7206 672 l -6 -54 c 6 6 c 18 6 c 18 0 c 18 -6 c 12 -12 c 6 -18 c 0 -12 c -6 -18 c -12 -12 c -18 -6 c -18 0 c -18 6 c
-6 6 c -6 12 c -18 -6 7290 672 l -12 -18 c -6 -30 c 0 -18 c 6 -30 c 12 -18 c 18 -6 c 12 0 c 18 6 c 12 18 c 6 30 c 0 18 c -6 30 c
-12 18 c -18 6 c -12 0 c -18 -6 7410 672 l -12 -18 c -6 -30 c 0 -18 c 6 -30 c 12 -18 c 18 -6 c 12 0 c 18 6 c 12 18 c 6 30 c 0 18 c
-6 30 c -12 18 c -18 6 c -12 0 c 0 6 9206 642 l 6 12 c 6 6 c 12 6 c 24 0 c 12 -6 c 6 -6 c 6 -12 c 0 -12 c -6 -12 c -12 -18 c
-60 -60 c 84 0 c -18 -6 9356 672 l -12 -18 c -6 -30 c 0 -18 c 6 -30 c 12 -18 c 18 -6 c 12 0 c 18 6 c 12 18 c 6 30 c 0 18 c -6 30 c
-12 18 c -18 6 c -12 0 c -18 -6 9476 672 l -12 -18 c -6 -30 c 0 -18 c 6 -30 c 12 -18 c 18 -6 c 12 0 c 18 6 c 12 18 c 6 30 c 0 18 c
-6 30 c -12 18 c -18 6 c -12 0 c -18 -6 9596 672 l -12 -18 c -6 -30 c 0 -18 c 6 -30 c 12 -18 c 18 -6 c 12 0 c 18 6 c 12 18 c 6 30 c
0 18 c -6 30 c -12 18 c -18 6 c -12 0 c -90 0 780 780 l -45 0 780 1246 l -45 0 780 1713 l -45 0 780 2179 l -45 0 780 2645 l
-90 0 780 3112 l -45 0 780 3578 l -45 0 780 4045 l -45 0 780 4511 l -45 0 780 4977 l -90 0 780 5444 l -45 0 780 5910 l
-45 0 780 6377 l -45 0 780 6843 l -90 0 9809 780 l -45 0 9764 1246 l -45 0 9764 1713 l -45 0 9764 2179 l -45 0 9764 2645 l
-90 0 9809 3112 l -45 0 9764 3578 l -45 0 9764 4045 l -45 0 9764 4511 l -45 0 9764 4977 l -90 0 9809 5444 l -45 0 9764 5910 l
-45 0 9764 6377 l -45 0 9764 6843 l 6 -18 517 774 l 18 -12 c 30 -6 c 18 0 c 30 6 c 18 12 c 6 18 c 0 12 c -6 18 c -18 12 c -30 6 c
-18 0 c -30 -6 c -18 -12 c -6 -18 c 0 -12 c 0 -60 517 2962 l 54 -6 c -6 6 c -6 18 c 0 18 c 6 18 c 12 12 c 18 6 c 12 0 c 18 -6 c
12 -12 c 6 -18 c 0 -18 c -6 -18 c -6 -6 c -12 -6 c 6 -18 517 3046 l 18 -12 c 30 -6 c 18 0 c 30 6 c 18 12 c 6 18 c 0 12 c -6 18 c
-18 12 c -30 6 c -18 0 c -30 -6 c -18 -12 c -6 -18 c 0 -12 c 6 -18 517 3166 l 18 -12 c 30 -6 c 18 0 c 30 6 c 18 12 c 6 18 c 0 12 c
-6 18 c -18 12 c -30 6 c -18 0 c -30 -6 c -18 -12 c -6 -18 c 0 -12 c 6 -18 517 3286 l 18 -12 c 30 -6 c 18 0 c 30 6 c 18 12 c 6 18 c
0 12 c -6 18 c -18 12 c -30 6 c -18 0 c -30 -6 c -18 -12 c -6 -18 c 0 -12 c -6 12 541 5324 l -18 18 c 126 0 c 6 -18 517 5462 l
18 -12 c 30 -6 c 18 0 c 30 6 c 18 12 c 6 18 c 0 12 c -6 18 c -18 12 c -30 6 c -18 0 c -30 -6 c -18 -12 c -6 -18 c 0 -12 c
63 -45 453 5586 l 0 68 c 94 0 453 5586 l
4 -1 780 814 l 5 -1 c 4 0 c 4 0 c 5 0 c 4 0 c 4 1 c 5 1 c 4 4 c 5 3 c 4 1 c 4 8 c 5 12 c 4 40 c 4 48 c 5 4 c 4 -18 c 5 -48 c 4 -46 c
4 -6 c 5 -1 c 4 2 c 4 3 c 5 0 c 4 3 c 5 12 c 4 45 c 4 81 c 5 185 c 4 391 c 4 103 c 5 -76 c 4 -266 c 5 -395 c 4 -72 c 4 -9 c 5 -3 c
4 -5 c 4 3 c 5 -1 c 4 1 c 4 -2 c 5 1 c 4 -2 c 5 0 c 4 -1 c 4 -3 c 5 4 c 4 0 c 4 4 c 5 3 c 4 0 c 5 -2 c 4 -3 c 4 -1 c 5 4 c 4 12 c
4 1 c 5 6 c 4 10 c 5 5 c 4 46 c 4 60 c 5 23 c 4 -18 c 4 -53 c 5 -59 c 4 -17 c 5 -5 c 4 -8 c 4 -9 c 5 1 c 4 -2 c 4 1 c 5 0 c 4 1 c
4 -1 c 5 1 c 4 1 c 5 1 c 4 4 c 4 -1 c 5 2 c 4 -41 c 5 37 1151 780 l 4 0 c 5 -4 c 4 0 c 4 -1 c 5 1 c 4 -2 c 4 1 c 5 1 c 4 -1 c 5 0 c
4 0 c 4 1 c 5 -1 c 4 1 c 4 1 c 5 -2 c 4 1 c 5 0 c 4 2 c 4 1 c 5 1 c 4 4 c 4 1 c 5 -2 c 4 -4 c 4 -1 c 5 -2 c 4 0 c 5 1 c 4 2 c 4 -1 c
5 4 c 4 1 c 4 7 c 5 8 c 4 3 c 5 -5 c 4 -3 c 4 6 c 5 24 c 4 13 c 4 0 c 5 -18 c 4 -23 c 5 -11 c 4 -3 c 4 8 c 5 4 c 4 -4 c 4 -2 c
5 -6 c 4 1 c 5 8 c 4 2 c 4 -3 c 5 -2 c 4 -6 c 4 2 c 5 0 c 4 6 c 4 20 c 5 34 c 4 100 c 5 157 c 4 27 c 4 -30 c 5 -140 c 4 -128 c
4 -14 c 5 -10 c 4 -6 c 5 -15 c 4 -6 c 4 0 c 5 0 c 4 -1 c 4 0 c 5 0 c 4 -2 c 5 3 c 4 0 c 4 -2 c 5 0 c 4 2 c 4 0 c 5 5 c 4 3 c 4 0 c
5 -4 c 4 -1 c 5 -1 c 4 6 c 4 16 c 5 6 c 4 0 c 4 -7 c 5 -15 c 4 -6 c 5 -1 c 4 1 c 4 -2 c 5 -1 c 4 0 c 4 1 c 5 4 c 4 9 c 5 13 c 4 6 c
4 -4 c 5 -10 c 4 10 c 4 11 c 5 39 c 4 58 c 5 42 c 4 35 c 4 -44 c 5 -65 c 4 -64 c 4 -38 c 5 -1 c 4 -2 c 4 2 c 5 -1 c 4 -2 c 5 1 c
4 3 c 4 -3 c 5 2 c 4 -2 c 4 1 c 5 0 c 4 1 c 5 -2 c 4 4 c 4 0 c 5 0 c 4 0 c 4 -3 c 5 4 c 4 9 c 5 3 c 4 1 c 4 -6 c 5 -9 c 4 0 c 4 -3 c
5 2 c 4 -1 c 5 0 c 4 -1 c 4 0 c 5 1 c 4 0 c 4 -2 c 5 2 c 4 -1 c 4 -1 c 5 3 c 4 1 c 5 4 c 4 1 c 4 1 c 5 0 c 4 -5 c 4 0 c 5 -2 c
4 -2 c 5 0 c 4 0 c 4 0 c 5 1 c 4 0 c 4 -1 c 5 1 c 4 2 c 5 1 c 4 2 c 4 -3 c 5 0 c 4 1 c 4 -1 c 5 0 c 4 1 c 5 -1 c 4 0 c 4 -1 c 5 0 c
4 1 c 4 0 c 5 1 c 4 4 c 4 -2 c 5 7 c 4 19 c 5 50 c 4 22 c 4 -9 c 5 -25 c 4 -56 c 4 -11 c 5 -1 c 4 1 c 5 -1 c 4 -2 c 4 1 c 5 -1 c
4 1 c 4 1 c 5 0 c 4 1 c 5 -1 c 4 0 c 4 3 c 5 6 c 4 2 c 4 -1 c 5 -2 c 4 -3 c 5 -2 c 4 5 c 4 10 c 5 3 c 4 -2 c 4 -6 c 5 -4 c 4 4 c
4 16 c 5 74 c 4 75 c 5 -6 c 4 -36 c 4 -76 c 5 -38 c 4 10 c 4 4 c 5 -1 c 4 2 c 5 -5 c 4 5 c 4 8 c 5 21 c 4 131 c 4 468 c 5 1248 c
4 824 c 5 -40 c 4 -595 c 4 -1345 c 5 -563 c 4 -107 c 4 -37 c 5 -17 c 4 -12 c 4 -7 c 5 -5 c 4 0 c 5 -2 c 4 -2 c 4 -1 c 5 2 c 4 3 c
4 6 c 5 4 c 4 13 c 5 8 c 4 -6 c 4 -1 c 5 -17 c 4 -10 c 4 -3 c 5 -1 c 4 0 c 5 -3 c 4 4 c 4 -2 c 5 2 c 4 -1 c 4 -2 c 5 2 c 4 -2 c
5 -1 c 4 2 c 4 0 c 5 -1 c 4 1 c 4 1 c 5 1 c 4 -1 c 4 1 c 5 -1 c 4 2 c 5 -1 c 4 -1 c 4 0 c 5 3 c 4 3 c 4 17 c 5 91 c 4 273 c 5 98 c
4 -17 c 4 -155 c 5 -248 c 4 -54 c 4 -3 c 5 -4 c 4 -3 c 5 0 c 4 -1 c 4 0 c 5 2 c 4 3 c 4 3 c 5 -1 c 4 -2 c 5 -4 c 4 -2 c 4 0 c 5 0 c
4 1 c 4 0 c 5 -1 c 4 1 c 4 1 c 5 -2 c 4 4 c 5 13 c 4 45 c 4 26 c 5 -6 c 4 -15 c 4 -51 c 5 -12 c 4 1 c 5 0 c 4 -1 c 4 -2 c 5 -1 c
4 1 c 4 1 c 5 -1 c 4 2 c 5 -2 c 4 3 c 4 2 c 5 -2 c 4 -1 c 4 1 c 5 -3 c 4 1 c 5 -1 c 4 -2 c 4 1 c 5 1 c 4 2 c 4 -2 c 5 5 c 4 10 c
4 11 c 5 1 c 4 -5 c 5 -11 c 4 -10 c 4 3 c 5 2 c 4 3 c 4 4 c 5 0 c 4 -1 c 5 -3 c 4 -2 c 4 -2 c 5 -4 c 4 1 c 4 5 c 5 10 c 4 2 c 5 5 c
4 -5 c 4 -2 c 5 18 c 4 214 c 4 851 c 5 503 c 4 40 c 4 -323 c 5 -953 c 4 -334 c 5 -15 c 4 -6 c 4 -6 c 5 -1 c 4 -1 c 4 2 c 5 8 c
4 38 c 5 30 c 4 6 c 4 -5 c 5 -50 c 4 -16 c 4 -10 c 5 1 c 4 2 c 5 3 c 4 13 c 4 5 c 5 -2 c 4 -6 c 4 -16 c 5 -7 c 4 -1 c 5 0 c 4 -2 c
4 1 c 5 2 c 4 1 c 4 -3 c 5 -1 c 4 1 c 4 2 c 5 0 c 4 -2 c 5 1 c 4 2 c 4 -2 c 5 -1 c 4 0 c 4 0 c 5 -1 c 4 2 c 5 -3 c 4 3 c 4 4 c 5 4 c
4 0 c 4 -2 c 5 2 c 4 7 c 5 38 c 4 54 c 4 28 c 5 4 c 4 -40 c 4 -48 c 5 -21 c 4 -13 c 5 15 c 4 73 c 4 32 c 5 -1 c 4 -41 c 4 -69 c
5 -6 c 4 24 c 4 5 c 5 4 c 4 7 c 5 -1 c 4 -3 c 4 -7 c 5 -25 c 4 -14 c 4 -1 c 5 0 c 4 0 c 5 -3 c 4 -1 c 4 -2 c 5 0 c 4 0 c 4 0 c
5 -3 c 4 1 c 5 -2 c 4 2 c 4 -2 c 5 1 c 4 3 c 4 0 c 5 0 c 4 0 c 5 5 c 4 12 c 4 8 c 5 4 c 4 -1 c 4 -10 c 5 4 c 4 38 c 4 11 c 5 -3 c
4 -19 c 5 -45 c 4 -8 c 4 0 c 5 -2 c 4 1 c 4 0 c 5 1 c 4 -2 c 5 0 c 4 1 c 4 0 c 5 -1 c 4 0 c 4 1 c 5 -1 c 4 1 c 5 0 c 4 0 c 4 0 c
5 -1 c 4 1 c 4 2 c 5 0 c 4 7 c 5 9 c 4 7 c 4 14 c 5 22 c 4 -1 c 4 -9 c 5 -12 c 4 -25 c 4 -10 c 5 0 c 4 -2 c 5 2 c 4 -1 c 4 -1 c
5 1 c 4 0 c 4 0 c 5 4 c 4 0 c 5 1 c 4 0 c 4 2 c 5 14 c 4 7 c 4 1 c 5 -5 c 4 -16 c 5 -8 c 4 2 c 4 2 c 5 2 c 4 -1 c 4 0 c 5 -2 c
4 -1 c 4 -1 c 5 2 c 4 -1 c 5 4 c 4 -2 c 4 0 c 5 1 c 4 0 c 4 4 c 5 -3 c 4 2 c 5 -2 c 4 4 c 4 4 c 5 2 c 4 5 c 4 6 c 5 48 c 4 39 c
5 67 c 4 725 c 4 928 c 5 149 c 4 59 c 4 -794 c 5 -796 c 4 -151 c 5 -177 c 4 -94 c 4 -17 c 5 -5 c 4 -1 c 4 -1 c 5 0 c 4 -2 c 4 0 c
5 -2 c 4 2 c 5 -3 c 4 1 c 4 -1 c 5 2 c 4 -1 c 4 3 c 5 -2 c 4 1 c 5 0 c 4 -2 c 4 1 c 5 2 c 4 3 c 4 -1 c 5 0 c 4 -1 c 5 -2 c 4 0 c
4 1 c 5 -1 c 4 1 c 4 -1 c 5 1 c 4 -1 c 5 1 c 4 -1 c 4 -1 c 5 2 c 4 -1 c 4 3 c 5 0 c 4 2 c 4 6 c 5 10 c 4 6 c 5 -1 c 4 0 c 4 13 c
5 2 c 4 0 c 4 -11 c 5 -21 c 4 9 c 5 38 c 4 80 c 4 40 c 5 -16 c 4 -47 c 4 -74 c 5 -35 c 4 -3 c 5 -2 c 4 4 c 4 1 c 5 0 c 4 0 c 4 -3 c
5 3 c 4 0 c 5 -1 c 4 -1 c 4 4 c 5 31 c 4 24 c 4 6 c 5 -9 c 4 -35 c 4 -15 c 5 -5 c 4 -3 c 5 2 c 4 -1 c 4 1 c 5 8 c 4 64 c 4 166 c
5 89 c 4 -7 c 5 -90 c 4 -153 c 4 -56 c 5 6 c 4 9 c 4 41 c 5 215 c 4 214 c 5 201 c 4 -37 c 4 -227 c 5 -233 c 4 -171 c 4 -25 c 5 -1 c
4 -4 c 5 -6 c 4 0 c 4 0 c 5 0 c 4 2 c 4 -1 c 5 0 c 4 1 c 4 1 c 5 2 c 4 9 c 5 0 c 4 4 c 4 0 c 5 -4 c 4 24 c 4 304 c 5 1609 c 4 961 c
5 87 c 4 -459 c 4 -1745 c 5 -739 c 4 -39 c 4 -3 c 5 -1 c 4 -2 c 5 -5 c 4 -5 c 4 0 c 5 1 c 4 0 c 4 4 c 5 6 c 4 0 c 4 -2 c 5 -6 c
4 -7 c 5 -4 c 4 1 c 4 0 c 5 7 c 4 8 c 4 2 c 5 2 c 4 -5 c 5 -9 c 4 -3 c 4 2 c 5 8 c 4 -1 c 4 13 c 5 36 c 4 7 c 5 3 c 4 -11 c 4 -40 c
5 -11 c 4 -5 c 4 -1 c 5 -2 c 4 3 c 5 5 c 4 2 c 4 0 c 5 5 c 4 0 c 4 6 c 5 0 c 4 10 c 4 3 c 5 -7 c 4 -6 c 5 -12 c 4 5 c 4 12 c 5 4 c
4 -6 c 4 -11 c 5 -12 c 4 0 c 5 -1 c 4 1 c 4 2 c 5 1 c 4 -1 c 4 0 c 5 -1 c 4 -2 c 5 1 c 4 1 c 4 -1 c 5 -1 c 4 0 c 4 3 c 5 -1 c 4 1 c
5 -2 c 4 4 c 4 3 c 5 -2 c 4 -2 c 4 -2 c 5 1 c 4 1 c 4 0 c 5 -2 c 4 -4 c 5 8 c 4 15 c 4 10 c 5 -1 c 4 -3 c 4 -2 c 5 29 c 4 8 c 5 1 c
4 -17 c 4 -31 c 5 -12 c 4 -4 c 4 14 c 5 17 c 4 6 c 5 -1 c 4 -9 c 4 -12 c 5 0 c 4 2 c 4 0 c 5 -2 c 4 -5 c 5 -6 c 4 -3 c 4 -1 c 5 1 c
4 1 c 4 1 c 5 -2 c 4 1 c 4 8 c 5 5 c 4 8 c 5 30 c 4 51 c 4 51 c 5 -7 c 4 -33 c 4 -61 c 5 -51 c 4 3 c 5 2 c 4 2 c 4 -1 c 5 -2 c
4 -1 c 4 -3 c 5 0 c 4 -1 c 5 1 c 4 3 c 4 8 c 5 0 c 4 0 c 4 -8 c 5 -5 c 4 4 c 5 3 c 4 32 c 4 103 c 5 49 c 4 -6 c 4 -50 c 5 -94 c
4 -30 c 4 -1 c 5 -1 c 4 -4 c 5 11 c 4 49 c 4 18 c 5 5 c 4 -3 c 4 -17 c 5 -9 c 4 -2 c 5 -18 c 4 -24 c 4 -57 c 5 55 c 4 0 c 4 0 c
5 -5 c 4 11 c 5 21 c 4 8 c 4 0 c 5 -8 c 4 -16 c 4 9 c 5 12 c 4 21 c 4 142 c 5 867 c 4 1767 c 5 543 c 4 -82 c 4 -1013 c 5 -1648 c
4 -511 c 4 -68 c 5 -24 c 4 -14 c 5 -7 c 4 -5 c 4 -4 c 5 2 c 4 -4 c 4 1 c 5 -3 c 4 0 c 5 -1 c 4 -1 c 4 1 c 5 -1 c 4 1 c 4 -2 c 5 -1 c
4 0 c 5 0 c 4 0 c 4 1 c 5 -1 c 4 1 c 4 0 c 5 -2 c 4 7 c 4 0 c 5 1 c 4 0 c 5 0 c 4 1 c 4 0 c 5 4 c 4 28 c 4 174 c 5 180 c 4 17 c
5 -42 c 4 -203 c 4 -149 c 5 -12 c 4 1 c 4 3 c 5 -2 c 4 0 c 5 27 c 4 54 c 4 20 c 5 -2 c 4 -27 c 4 -56 c 5 -12 c 4 -6 c 5 0 c 4 2 c
4 2 c 5 3 c 4 5 c 4 1 c 5 -3 c 4 -5 c 4 -7 c 5 -4 c 4 -1 c 5 1 c 4 -3 c 4 1 c 5 0 c 4 0 c 4 -2 c 5 1 c 4 0 c 5 2 c 4 1 c 4 3 c
5 -1 c 4 0 c 4 1 c 5 0 c 4 1 c 5 11 c 4 19 c 4 5 c 5 -3 c 4 -14 c 4 -14 c 5 22 c 4 33 c 5 10 c 4 4 c 4 -31 c 5 -29 c 4 -4 c 4 1 c
5 1 c 4 0 c 4 -6 c 5 -7 c 4 1 c 5 2 c 4 23 c 4 22 c 5 1 c 4 -5 c 4 -21 c 5 -12 c 4 41 c 5 42 c 4 4 c 4 -7 c 5 -47 c 4 -44 c 4 -2 c
5 1 c 4 -2 c 5 4 c 4 1 c 4 0 c 5 3 c 4 2 c 4 -3 c 5 -3 c 4 1 c 4 6 c 5 21 c 4 98 c 5 138 c 4 34 c 4 -20 c 5 -323 c 4 87 c 4 -31 c
5 0 c 4 37 c 5 95 c 4 23 c 4 1 c 5 -44 c 4 -94 c 4 -7 c 5 12 c 4 0 c 5 -2 c 4 -77 c 5 149 5706 780 l 4 226 c 4 794 c 5 587 c 4 -31 c
5 -209 c 4 -838 c 4 -566 c 5 -41 c 4 -8 c 4 -1 c 5 -7 c 4 -1 c 4 -4 c 5 3 c 4 -1 c 5 9 c 4 88 c 4 289 c 5 109 c 4 1 c 4 -87 c
5 -297 c 4 -100 c 5 -5 c 4 0 c 4 5 c 5 13 c 4 47 c 4 215 c 5 753 c 4 413 c 5 17 c 4 -251 c 4 -783 c 5 -381 c 4 -16 c 4 -6 c 5 3 c
4 4 c 5 15 c 4 115 c 4 1014 c 5 3289 c 4 1532 c 4 -96 c 5 -1153 c 4 -3324 c 4 -1266 c 5 -95 c 4 -12 c 5 -9 c 4 -18 c 4 -11 c 5 -8 c
4 1 c 4 6 c 5 43 c 4 369 c 5 618 c 4 181 c 4 -24 c 5 -414 c 4 -644 c 4 -128 c 5 -12 c 4 -3 c 5 -5 c 4 0 c 4 -1 c 5 -1 c 4 1 c 4 0 c
5 -1 c 4 3 c 5 0 c 4 2 c 4 3 c 5 3 c 4 11 c 4 76 c 5 707 c 4 1179 c 4 322 c 5 -82 c 4 -790 c 5 -1059 c 4 -248 c 4 -13 c 5 -14 c
4 -63 c 4 -25 c 5 1 c 4 8 c 5 6 c 4 23 c 4 156 c 5 274 c 4 74 c 4 1 c 5 -3 c 4 98 c 5 5 c 4 -37 c 4 -199 c 5 -335 c 4 -53 c 4 6 c
5 0 c 4 2 c 5 7 c 4 71 c 4 32 c 5 -3 c 4 -31 c 4 -80 c 5 -35 c 4 -4 c 4 -2 c 5 -2 c 4 0 c 5 0 c 4 3 c 4 7 c 5 1 c 4 0 c 4 -3 c 5 2 c
4 -2 c 5 0 c 4 -4 c 4 -5 c 5 0 c 4 3 c 4 -1 c 5 4 c 4 -3 c 5 -3 c 4 -1 c 4 -1 c 5 4 c 4 7 c 4 10 c 5 4 c 4 1 c 4 -10 c 5 -8 c 4 -3 c
5 -3 c 4 -1 c 4 -2 c 5 1 c 4 -1 c 4 0 c 5 0 c 4 1 c 5 -1 c 4 2 c 4 -2 c 5 3 c 4 1 c 4 1 c 5 1 c 4 -3 c 5 0 c 4 2 c 4 0 c 5 -2 c
4 0 c 4 0 c 5 3 c 4 8 c 5 1 c 4 1 c 4 -7 c 5 -5 c 4 -1 c 4 7 c 5 22 c 4 46 c 4 20 c 5 -7 c 4 -21 c 5 -35 c 4 15 c 4 13 c 5 -3 c
4 -8 c 4 -26 c 5 -22 c 4 -3 c 5 0 c 4 4 c 4 1 c 5 3 c 4 0 c 4 4 c 5 5 c 4 4 c 5 -1 c 4 7 c 4 2 c 5 6 c 4 -5 c 4 -70 c 5 50 c 4 0 c
5 -2 c 4 2 c 4 -4 c 5 1 c 4 18 c 4 6 c 5 -1 c 4 2 c 4 -21 c 5 -7 c 4 -1 c 5 2 c 4 5 c 4 24 c 5 31 c 4 6 c 4 36 c 5 81 c 4 17 c
5 25 c 4 -34 c 4 -95 c 5 -43 c 4 -40 c 4 -11 c 5 1 c 4 -1 c 5 -1 c 4 -1 c 4 3 c 5 -1 c 4 3 c 4 -2 c 5 1 c 4 -4 c 5 -2 c 4 -1 c 4 2 c
5 3 c 4 32 c 4 58 c 5 11 c 4 3 c 4 -34 c 5 -57 c 4 -11 c 5 28 c 4 27 c 4 6 c 5 -3 c 4 -29 c 4 -24 c 5 6 c 4 143 c 5 368 c 4 111 c
4 -17 c 5 -122 c 4 -383 c 4 -97 c 5 -2 c 4 2 c 5 0 c 4 -3 c 4 -8 c 5 -1 c 4 1 c 4 -1 c 5 -2 c 4 3 c 5 0 c 4 -5 c 4 1 c 5 3 c 4 23 c
4 36 c 5 9 c 4 -4 c 4 -13 c 5 36 c 4 180 c 5 76 c 4 -18 c 4 -62 c 5 -198 c 4 -59 c 4 -8 c 5 -1 c 4 0 c 5 -1 c 4 -2 c 4 -4 c 5 2 c
4 2 c 4 0 c 5 0 c 4 6 c 5 -3 c 4 0 c 4 0 c 5 -1 c 4 1 c 4 2 c 5 2 c 4 -4 c 4 -2 c 5 -3 c 4 2 c 5 1 c 4 1 c 4 2 c 5 -5 c 4 0 c 4 9 c
5 11 c 4 6 c 5 1 c 4 -4 c 4 -11 c 5 -5 c 4 -4 c 4 2 c 5 1 c 4 30 c 5 121 c 4 47 c 4 -7 c 5 -25 c 4 -120 c 4 -47 c 5 -5 c 4 0 c
5 -1 c 4 1 c 4 4 c 5 2 c 4 2 c 4 1 c 5 0 c 4 -1 c 4 -1 c 5 -1 c 4 -4 c 5 -1 c 4 1 c 4 3 c 5 6 c 4 16 c 4 127 c 5 151 c 4 10 c
5 -23 c 4 -115 c 4 -151 c 5 -17 c 4 3 c 4 3 c 5 -2 c 4 -2 c 5 -6 c 4 -2 c 4 -2 c 5 -1 c 4 2 c 4 2 c 5 1 c 4 3 c 5 -2 c 4 4 c 4 -2 c
5 -2 c 4 0 c 4 2 c 5 2 c 4 3 c 4 0 c 5 -4 c 4 -5 c 5 -2 c 4 -1 c 4 -2 c 5 -1 c 4 0 c 4 6 c 5 4 c 4 3 c 5 2 c 4 1 c 4 -5 c 5 -2 c
4 -3 c 4 -3 c 5 -1 c 4 1 c 5 0 c 4 -2 c 4 2 c 5 -3 c 4 1 c 4 3 c 5 9 c 4 7 c 5 4 c 4 -1 c 4 -9 c 5 -8 c 4 -2 c 4 -2 c 5 2 c 4 1 c
4 6 c 5 7 c 4 0 c 5 -6 c 4 -5 c 4 -9 c 5 0 c 4 1 c 4 -1 c 5 1 c 4 -1 c 5 2 c 4 -1 c 4 10 c 5 9 c 4 3 c 4 -1 c 5 -8 c 4 -8 c 5 0 c
4 -1 c 4 2 c 5 -3 c 4 1 c 4 2 c 5 -2 c 4 1 c 5 4 c 4 31 c 4 177 c 5 112 c 4 4 c 4 -20 c 5 -162 c 4 -122 c 4 -6 c 5 -3 c 4 -7 c
5 -2 c 4 10 c 4 131 c 5 232 c 4 59 c 4 1 c 5 -134 c 4 -235 c 5 -48 c 4 -5 c 4 -1 c 5 2 c 4 17 c 4 12 c 5 3 c 4 12 c 5 -21 c 4 -5 c
4 23 c 5 2 c 4 -11 c 4 -10 c 5 -25 c 4 -15 c 4 2 c 5 8 c 4 2 c 5 -1 c 4 -3 c 4 -9 c 5 -1 c 4 3 c 4 -1 c 5 7 c 4 25 c 5 3 c 4 7 c
4 9 c 5 190 c 4 546 c 4 210 c 5 -34 c 4 -151 c 5 -585 c 4 -214 c 4 -11 c 5 0 c 4 14 c 4 46 c 5 17 c 4 4 c 5 -9 c 4 -42 c 4 -22 c
5 -6 c 4 -4 c 4 -1 c 5 22 c 4 72 c 4 80 c 5 -1 c 4 -12 c 5 -64 c 4 -74 c 4 -19 c 5 -5 c 4 -1 c 4 -3 c 5 3 c 4 4 c 5 3 c 4 1 c 4 5 c
5 -1 c 4 -2 c 4 -1 c 5 -1 c 4 -4 c 5 2 c 4 4 c 4 3 c 5 20 c 4 226 c 4 861 c 5 354 c 4 21 c 5 -135 c 4 -726 c 4 -405 c 5 -24 c
4 -22 c 4 -114 c 5 -55 c 4 -7 c 4 6 c 5 0 c 4 0 c 5 -2 c 4 -5 c 4 -5 c 5 -2 c 4 1 c 4 1 c 5 11 c 4 2 c 5 4 c 4 6 c 4 -5 c 5 -7 c
4 -4 c 4 -7 c 5 -5 c 4 2 c 5 5 c 4 5 c 4 -1 c 5 -1 c 4 5 c 4 7 c 5 1 c 4 2 c 5 -8 c 4 -11 c 4 -5 c 5 -2 c 4 0 c 4 3 c 5 7 c 4 5 c
4 -1 c 5 -1 c 4 -8 c 5 -4 c 4 1 c 4 2 c 5 0 c 4 3 c 4 -2 c 5 0 c 4 -3 c 5 0 c 4 1 c 4 4 c 5 8 c 4 -1 c 4 5 c 5 -4 c 4 -6 c 5 -3 c
4 -2 c 4 1 c 5 5 c 4 6 c 4 6 c 5 0 c 4 -5 c 4 -5 c 5 -6 c 4 -3 c 5 -1 c 4 1 c 4 -3 c 5 2 c 4 0 c 4 0 c 5 0 c 4 -2 c 5 1 c 4 3 c
4 4 c 5 -3 c 4 0 c 4 -2 c 5 -1 c 4 -1 c 5 -1 c 4 3 c 4 0 c 5 -4 c 4 0 c 4 4 c 5 5 c 4 0 c 5 2 c 4 4 c 4 7 c 5 3 c 4 5 c 4 -1 c
5 -11 c 4 -2 c 4 -4 c 5 0 c 4 1 c 5 4 c 4 -3 c 4 -4 c 5 -5 c 4 2 c 4 12 c 5 1 c 4 0 c 5 -3 c 4 -8 c 4 -6 c 5 3 c 4 0 c 4 -1 c 5 1 c
4 -2 c 5 1 c 4 2 c 4 -2 c 5 0 c 4 0 c 4 -4 c 5 11 c 4 3 c 5 0 c 4 0 c 4 -7 c 5 -6 c 4 0 c 4 -1 c 5 0 c 4 -1 c 4 1 c 5 -3 c 4 2 c
5 0 c 4 -1 c 4 0 c 5 0 c 4 1 c 4 17 c 5 11 c 4 -5 c 5 1 c 4 -7 c 4 -12 c 5 12 c 4 22 c 4 9 c 5 69 c 4 59 c 5 -9 c 4 -17 c 4 -49 c
5 -86 c 4 1 c 4 14 c 5 3 c 4 -1 c 5 -6 c 4 -15 c 4 4 c 5 43 c 4 140 c 4 66 c 5 1 c 4 -40 c 4 -107 c 5 -75 c 4 -11 c 5 -7 c 4 -4 c
4 -16 c 5 -1 c 4 0 c 4 17 c 5 35 c 4 4 c 5 4 c 4 -16 c 4 -34 c 5 -4 c 4 3 c 4 8 c 5 38 c 4 230 c 5 357 c 4 89 c 4 -8 c 5 -183 c
4 -384 c 4 -109 c 5 -19 c 4 -8 c 5 10 c 4 25 c 4 7 c 5 14 c 4 111 c 4 117 c 5 26 c 4 -15 c 4 -112 c 5 -167 c 4 -22 c 5 0 c 4 -3 c
4 -2 c 5 -8 c 4 -4 c 4 0 c 5 1 c 4 0 c 5 3 c 4 6 c 4 2 c 5 -1 c 4 0 c 4 -8 c 5 -3 c 4 -1 c 5 1 c 4 -1 c 4 -1 c 5 1 c 4 3 c 4 15 c
5 27 c 4 10 c 4 14 c 5 48 c 4 8 c 5 -3 c 4 -9 c 4 -49 c 5 -46 c 4 -11 c 4 -2 c 5 1 c 4 10 c 5 8 c 4 10 c 4 18 c 5 12 c 4 -7 c
4 -13 c 5 -19 c 4 -20 c 5 -4 c 4 1 c 4 4 c 5 36 c 4 23 c 4 3 c 5 -5 c 4 -25 c 5 -29 c 4 2 c 4 2 c 5 0 c 4 -1 c 4 -4 c 5 -5 c 4 0 c
4 -2 c 5 1 c 4 5 c 5 -1 c 4 0 c 4 -1 c 5 -4 c 4 -3 c 4 -1 c 5 1 c 4 -3 c 5 2 c 4 1 c 4 1 c 5 2 c 4 -1 c 4 5 c 5 22 c 4 16 c 5 -4 c
4 -1 c 4 -21 c 5 -18 c 4 0 c 4 0 c 5 3 c 4 29 c 5 96 c 4 40 c 4 2 c 5 -21 c 4 -85 c 4 -56 c 5 -5 c 4 -2 c 4 4 c 5 12 c 4 19 c 5 5 c
4 -1 c 4 -14 c 5 -16 c 4 0 c 4 -2 c 5 -1 c 4 -3 c 5 -6 c 4 4 c 4 -1 c 5 6 c 4 22 c 4 19 c 5 3 c 4 3 c 5 -15 c 4 -6 c 4 124 c 5 578 c
4 185 c 4 42 c
5 -84 c 4 -484 c 5 -351 c 4 -23 c 4 -56 c 4 45 9549 780 l 4 10 c 5 3 c 4 -3 c 4 -7 c 5 -11 c 4 1 c 5 2 c 4 5 c 4 8 c 5 1 c 4 -3 c
4 -3 c 5 -10 c 4 -3 c 5 2 c 4 1 c 4 -1 c 5 -3 c 4 1 c 4 0 c 5 2 c 4 2 c 5 -3 c 4 0 c 4 -1 c 5 -2 c 4 2 c 4 2 c 5 -3 c 4 1 c 5 -3 c
4 1 c 4 -2 c 5 3 c 4 1 c 4 3 c 5 1 c 4 -2 c
0 -126 3042 418 l 54 0 3042 418 l 18 -6 c 6 -6 c 6 -12 c 0 -12 c -6 -12 c -6 -6 c -18 -6 c -54 0 c 42 -66 3084 358 l
-12 -6 3192 376 l -12 -12 c -6 -18 c 0 -12 c 6 -18 c 12 -12 c 12 -6 c 18 0 c 12 6 c 12 12 c 6 18 c 0 12 c -6 18 c -12 12 c -12 6 c
-18 0 c 24 -84 3276 376 l -24 -84 3324 376 l 24 -84 3324 376 l -24 -84 3372 376 l 108 0 3414 364 l 108 0 3414 328 l 66 0 3768 418 l
-36 -48 c 18 0 c 12 -6 c 6 -6 c 6 -18 c 0 -12 c -6 -18 c -12 -12 c -18 -6 c -18 0 c -18 6 c -6 6 c -6 12 c 12 6 4278 394 l 18 18 c
0 -126 c -6 -6 4392 376 l 6 -6 c 6 6 c -6 6 c -6 -6 4392 304 l 6 -6 c 6 6 c -6 6 c -48 -126 4572 418 l 48 -126 4572 418 l
60 0 4542 334 l 0 -84 4650 376 l 6 18 4650 340 l 12 12 c 12 6 c 18 0 c -12 12 4794 358 l -12 6 c -18 0 c -12 -6 c -12 -12 c -6 -18 c
0 -12 c 6 -18 c 12 -12 c 12 -6 c 18 0 c 12 6 c 12 12 c 108 0 4836 346 l -18 -6 5022 418 l -12 -18 c -6 -30 c 0 -18 c 6 -30 c
12 -18 c 18 -6 c 12 0 c 18 6 c 12 18 c 6 30 c 0 18 c -6 30 c -12 18 c -18 6 c -12 0 c 66 0 5118 418 l -36 -48 c 18 0 c 12 -6 c
6 -6 c 6 -18 c 0 -12 c -6 -18 c -12 -12 c -18 -6 c -18 0 c -18 6 c -6 6 c -6 12 c -59 0 5297 418 l -6 -54 c 6 6 c 18 6 c 17 0 c
18 -6 c 12 -12 c 6 -18 c 0 -12 c -6 -18 c -12 -12 c -18 -6 c -17 0 c -18 6 c -6 6 c -6 12 c -6 -6 5357 304 l 6 -6 c 6 6 c -6 6 c
-12 0 5447 418 l -12 -6 c -6 -18 c 0 -102 c 42 0 5399 376 l 6 -6 5477 418 l 6 6 c -6 6 c -6 -6 c 0 -84 5483 376 l 0 -102 5537 418 l
6 -18 c 12 -6 c 12 0 c 42 0 5519 376 l -6 12 5663 358 l -18 6 c -18 0 c -18 -6 c -6 -12 c 6 -12 c 12 -6 c 30 -6 c 12 -6 c 6 -12 c
0 -6 c -6 -12 c -18 -6 c -18 0 c -18 6 c -6 12 c 0 -192 5993 442 l 0 -192 5999 442 l 42 0 5993 442 l 42 0 5993 250 l 0 6 6077 388 l
6 12 c 6 6 c 12 6 c 24 0 c 12 -6 c 6 -6 c 6 -12 c 0 -12 c -6 -12 c -12 -18 c -60 -60 c 84 0 c -6 -6 6203 376 l 6 -6 c 6 6 c -6 6 c
-6 -6 6203 304 l 6 -6 c 6 6 c -6 6 c -48 -126 6383 418 l 48 -126 6383 418 l 60 0 6353 334 l 0 -84 6461 376 l 6 18 6461 340 l 12 12 c
12 6 c 18 0 c -12 12 6605 358 l -12 6 c -18 0 c -12 -6 c -12 -12 c -6 -18 c 0 -12 c 6 -18 c 12 -12 c 12 -6 c 18 0 c 12 6 c 12 12 c
108 0 6647 346 l -18 -6 6833 418 l -12 -18 c -6 -30 c 0 -18 c 6 -30 c 12 -18 c 18 -6 c 12 0 c 18 6 c 12 18 c 6 30 c 0 18 c -6 30 c
-12 18 c -18 6 c -12 0 c 66 0 6929 418 l -36 -48 c 18 0 c 12 -6 c 6 -6 c 6 -18 c 0 -12 c -6 -18 c -12 -12 c -18 -6 c -18 0 c -18 6 c
-6 6 c -6 12 c -6 12 7115 400 l -18 6 c -12 0 c -18 -6 c -12 -18 c -6 -30 c 0 -30 c 6 -24 c 12 -12 c 18 -6 c 6 0 c 18 6 c 12 12 c
6 18 c 0 6 c -6 18 c -12 12 c -18 6 c -6 0 c -18 -6 c -12 -12 c -6 -18 c -6 -6 7169 304 l 6 -6 c 6 6 c -6 6 c -12 0 7259 418 l
-12 -6 c -6 -18 c 0 -102 c 42 0 7211 376 l 6 -6 7289 418 l 6 6 c -6 6 c -6 -6 c 0 -84 7295 376 l 0 -102 7349 418 l 6 -18 c 12 -6 c
12 0 c 42 0 7331 376 l -6 12 7475 358 l -18 6 c -18 0 c -18 -6 c -6 -12 c 6 -12 c 12 -6 c 30 -6 c 12 -6 c 6 -12 c 0 -6 c -6 -12 c
-18 -6 c -18 0 c -18 6 c -6 12 c 0 -192 7547 442 l 0 -192 7553 442 l 42 0 7511 442 l 42 0 7511 250 l
0 -249 1060 1418 l 0 41 1016 1498 l 31 -22 c 0 11 c 3 7 c 4 4 c 11 4 c 8 0 c 11 -4 c 8 -7 c 4 -12 c 0 -11 c -4 -11 c -4 -4 c -7 -4 c
4 -12 1016 1585 l 8 -4 c 7 0 c 8 4 c 4 8 c 3 15 c 4 11 c 8 8 c 7 4 c 12 0 c 7 -4 c 4 -4 c 4 -11 c 0 -15 c -4 -12 c -4 -4 c -7 -3 c
-12 0 c -7 3 c -8 8 c -4 11 c -3 15 c -4 8 c -8 4 c -7 0 c -8 -4 c -4 -11 c 0 -15 c 53 -38 1016 1679 l 0 57 c 80 0 1016 1679 l
-4 0 1035 1721 l -7 3 c -4 4 c -4 8 c 0 15 c 4 7 c 4 4 c 7 4 c 8 0 c 8 -4 c 11 -7 c 38 -38 c 0 53 c 4 -4 1088 1800 l 4 4 c -4 4 c
-4 -4 c 4 -11 1016 1849 l 8 -4 c 7 0 c 8 4 c 4 7 c 3 15 c 4 12 c 8 7 c 7 4 c 12 0 c 7 -4 c 4 -3 c 4 -12 c 0 -15 c -4 -11 c -4 -4 c
-7 -4 c -12 0 c -7 4 c -8 8 c -4 11 c -3 15 c -4 8 c -8 3 c -7 0 c -8 -3 c -4 -12 c 0 -15 c 11 -4 1043 1955 l 8 -7 c 3 -12 c 0 -3 c
-3 -12 c -8 -7 c -11 -4 c -4 0 c -11 4 c -8 7 c -4 12 c 0 3 c 4 12 c 8 7 c 15 4 c 19 0 c 19 -4 c 11 -7 c 4 -12 c 0 -7 c -4 -12 c
-8 -3 c 80 -37 1016 2034 l 0 53 1016 1981 l 0 -250 1440 1601 l 0 42 1396 1680 l 31 -23 c 0 12 c 3 7 c 4 4 c 12 4 c 7 0 c 11 -4 c
8 -8 c 4 -11 c 0 -11 c -4 -12 c -4 -4 c -7 -3 c 4 -11 1396 1767 l 8 -4 c 7 0 c 8 4 c 4 7 c 3 16 c 4 11 c 8 7 c 7 4 c 12 0 c 7 -4 c
4 -3 c 4 -12 c 0 -15 c -4 -11 c -4 -4 c -7 -4 c -12 0 c -7 4 c -8 8 c -4 11 c -3 15 c -4 8 c -8 3 c -7 0 c -8 -3 c -4 -12 c 0 -15 c
53 -38 1396 1862 l 0 57 c 80 0 1396 1862 l 0 -38 1396 1945 l 34 -4 c -3 4 c -4 11 c 0 12 c 4 11 c 7 8 c 12 3 c 7 0 c 11 -3 c 8 -8 c
4 -11 c 0 -12 c -4 -11 c -4 -4 c -7 -4 c 4 -4 1468 1983 l 4 4 c -4 3 c -4 -3 c 53 -38 1396 2051 l 0 57 c 80 0 1396 2051 l
4 -11 1396 2111 l 11 -8 c 19 -4 c 12 0 c 19 4 c 11 8 c 4 11 c 0 8 c -4 11 c -11 8 c -19 3 c -12 0 c -19 -3 c -11 -8 c -4 -11 c
0 -8 c 0 -37 1396 2209 l 34 -4 c -3 4 c -4 11 c 0 11 c 4 12 c 7 7 c 12 4 c 7 0 c 11 -4 c 8 -7 c 4 -12 c 0 -11 c -4 -11 c -4 -4 c
-7 -4 c 0 -249 1662 1464 l 0 41 1618 1544 l 31 -22 c 0 11 c 3 7 c 4 4 c 11 4 c 8 0 c 11 -4 c 8 -7 c 4 -12 c 0 -11 c -4 -11 c -4 -4 c
-7 -4 c 4 -12 1618 1631 l 8 -4 c 7 0 c 8 4 c 4 8 c 3 15 c 4 11 c 8 8 c 7 4 c 12 0 c 7 -4 c 4 -4 c 4 -11 c 0 -15 c -4 -12 c -4 -4 c
-7 -3 c -12 0 c -7 3 c -8 8 c -4 11 c -3 15 c -4 8 c -8 4 c -7 0 c -8 -4 c -4 -11 c 0 -15 c 53 -38 1618 1725 l 0 57 c
80 0 1618 1725 l -8 -4 1630 1812 l -4 -11 c 0 -8 c 4 -11 c 11 -8 c 19 -3 c 19 0 c 15 3 c 8 8 c 4 11 c 0 4 c -4 11 c -8 8 c -11 4 c
-4 0 c -11 -4 c -8 -8 c -3 -11 c 0 -4 c 3 -11 c 8 -8 c 11 -3 c 4 -4 1690 1846 l 4 4 c -4 4 c -4 -4 c 4 -11 1618 1895 l 8 -4 c 7 0 c
8 4 c 4 7 c 3 15 c 4 12 c 8 7 c 7 4 c 12 0 c 7 -4 c 4 -3 c 4 -12 c 0 -15 c -4 -11 c -4 -4 c -7 -4 c -12 0 c -7 4 c -8 8 c -4 11 c
-3 15 c -4 8 c -8 3 c -7 0 c -8 -3 c -4 -12 c 0 -15 c 4 -12 1618 1971 l 8 -3 c 7 0 c 8 3 c 4 8 c 3 15 c 4 11 c 8 8 c 7 4 c 12 0 c
7 -4 c 4 -4 c 4 -11 c 0 -15 c -4 -12 c -4 -3 c -7 -4 c -12 0 c -7 4 c -8 7 c -4 11 c -3 16 c -4 7 c -8 4 c -7 0 c -8 -4 c -4 -11 c
0 -15 c 4 -11 1618 2046 l 8 -4 c 7 0 c 8 4 c 4 8 c 3 15 c 4 11 c 8 8 c 7 3 c 12 0 c 7 -3 c 4 -4 c 4 -12 c 0 -15 c -4 -11 c -4 -4 c
-7 -4 c -12 0 c -7 4 c -8 8 c -4 11 c -3 15 c -4 8 c -8 4 c -7 0 c -8 -4 c -4 -12 c 0 -15 c 0 -250 2234 3990 l 0 42 2190 4069 l
30 -23 c 0 11 c 4 8 c 4 4 c 11 3 c 8 0 c 11 -3 c 8 -8 c 3 -11 c 0 -12 c -3 -11 c -4 -4 c -8 -4 c 4 -11 2190 4156 l 7 -4 c 8 0 c
7 4 c 4 7 c 4 15 c 4 12 c 7 7 c 8 4 c 11 0 c 8 -4 c 4 -4 c 3 -11 c 0 -15 c -3 -11 c -4 -4 c -8 -4 c -11 0 c -8 4 c -7 7 c -4 12 c
-4 15 c -4 7 c -7 4 c -8 0 c -7 -4 c -4 -11 c 0 -15 c 0 -38 2190 4258 l 34 -4 c -4 4 c -4 12 c 0 11 c 4 11 c 8 8 c 11 4 c 8 0 c
11 -4 c 8 -8 c 3 -11 c 0 -11 c -3 -12 c -4 -4 c -8 -3 c 4 -11 2190 4311 l 11 -8 c 19 -4 c 11 0 c 19 4 c 12 8 c 3 11 c 0 7 c -3 12 c
-12 7 c -19 4 c -11 0 c -19 -4 c -11 -7 c -4 -12 c 0 -7 c 4 -3 2262 4371 l 3 3 c -3 4 c -4 -4 c 0 -38 2190 4447 l 34 -4 c -4 4 c
-4 11 c 0 12 c 4 11 c 8 8 c 11 4 c 8 0 c 11 -4 c 8 -8 c 3 -11 c 0 -12 c -3 -11 c -4 -4 c -8 -3 c 4 -11 2190 4496 l 7 -4 c 8 0 c
7 4 c 4 7 c 4 15 c 4 12 c 7 7 c 8 4 c 11 0 c 8 -4 c 4 -3 c 3 -12 c 0 -15 c -3 -11 c -4 -4 c -8 -4 c -11 0 c -8 4 c -7 8 c -4 11 c
-4 15 c -4 8 c -7 3 c -8 0 c -7 -3 c -4 -12 c 0 -15 c -4 8 2205 4564 l -11 11 c 79 0 c 0 -250 2473 1740 l 0 42 2429 1819 l 31 -23 c
0 11 c 3 8 c 4 4 c 12 4 c 7 0 c 12 -4 c 7 -8 c 4 -11 c 0 -11 c -4 -12 c -4 -4 c -7 -3 c 4 -11 2429 1906 l 8 -4 c 7 0 c 8 4 c 4 7 c
3 16 c 4 11 c 8 7 c 7 4 c 12 0 c 7 -4 c 4 -3 c 4 -12 c 0 -15 c -4 -11 c -4 -4 c -7 -4 c -12 0 c -7 4 c -8 8 c -4 11 c -3 15 c -4 8 c
-8 3 c -7 0 c -8 -3 c -4 -12 c 0 -15 c 0 -38 2429 2008 l 34 -3 c -3 3 c -4 12 c 0 11 c 4 11 c 7 8 c 12 4 c 7 0 c 12 -4 c 7 -8 c
4 -11 c 0 -11 c -4 -12 c -4 -3 c -7 -4 c -3 0 2448 2042 l -8 4 c -4 4 c -4 7 c 0 15 c 4 8 c 4 4 c 8 4 c 7 0 c 8 -4 c 11 -8 c
38 -38 c 0 53 c 4 -4 2501 2122 l 4 4 c -4 3 c -4 -3 c -4 8 2445 2163 l -12 11 c 80 0 c 0 42 2429 2235 l 31 -23 c 0 11 c 3 8 c 4 4 c
12 3 c 7 0 c 12 -3 c 7 -8 c 4 -11 c 0 -12 c -4 -11 c -4 -4 c -7 -4 c 0 -37 2429 2348 l 34 -4 c -3 4 c -4 11 c 0 11 c 4 12 c 7 7 c
12 4 c 7 0 c 12 -4 c 7 -7 c 4 -12 c 0 -11 c -4 -11 c -4 -4 c -7 -4 c 0 -249 2841 2899 l 0 42 2798 2978 l 30 -23 c 0 12 c 4 7 c 4 4 c
11 4 c 8 0 c 11 -4 c 7 -7 c 4 -12 c 0 -11 c -4 -12 c -3 -3 c -8 -4 c 4 -11 2798 3065 l 7 -4 c 8 0 c 7 4 c 4 8 c 4 15 c 4 11 c 7 8 c
8 3 c 11 0 c 8 -3 c 3 -4 c 4 -11 c 0 -16 c -4 -11 c -3 -4 c -8 -3 c -11 0 c -8 3 c -7 8 c -4 11 c -4 15 c -4 8 c -7 4 c -8 0 c
-7 -4 c -4 -11 c 0 -16 c 0 -37 2798 3167 l 34 -4 c -4 4 c -4 11 c 0 11 c 4 12 c 8 7 c 11 4 c 8 0 c 11 -4 c 7 -7 c 4 -12 c 0 -11 c
-4 -11 c -3 -4 c -8 -4 c 53 -37 2798 3235 l 0 56 c 79 0 2798 3235 l 3 -4 2870 3281 l 4 4 c -4 4 c -3 -4 c 0 -37 2798 3356 l 34 -4 c
-4 4 c -4 11 c 0 11 c 4 12 c 8 7 c 11 4 c 8 0 c 11 -4 c 7 -7 c 4 -12 c 0 -11 c -4 -11 c -3 -4 c -8 -4 c -4 8 2813 3398 l -11 11 c
79 0 c -4 7 2813 3474 l -11 12 c 79 0 c 0 -249 3675 3298 l 0 41 3631 3378 l 30 -23 c 0 12 c 4 7 c 4 4 c 11 4 c 8 0 c 11 -4 c 8 -7 c
3 -12 c 0 -11 c -3 -11 c -4 -4 c -8 -4 c 4 -11 3631 3464 l 7 -4 c 8 0 c 7 4 c 4 8 c 4 15 c 4 11 c 7 8 c 8 3 c 11 0 c 8 -3 c 4 -4 c
3 -11 c 0 -16 c -3 -11 c -4 -4 c -8 -3 c -11 0 c -8 3 c -7 8 c -4 11 c -4 15 c -4 8 c -7 4 c -8 0 c -7 -4 c -4 -11 c 0 -16 c
0 -38 3631 3567 l 34 -4 c -4 4 c -4 11 c 0 11 c 4 12 c 8 7 c 11 4 c 8 0 c 11 -4 c 8 -7 c 3 -12 c 0 -11 c -3 -11 c -4 -4 c -8 -4 c
12 -4 3657 3646 l 7 -7 c 4 -12 c 0 -4 c -4 -11 c -7 -7 c -12 -4 c -3 0 c -12 4 c -7 7 c -4 11 c 0 4 c 4 12 c 7 7 c 15 4 c 19 0 c
19 -4 c 12 -7 c 3 -12 c 0 -7 c -3 -12 c -8 -3 c 4 -4 3703 3680 l 3 4 c -3 4 c -4 -4 c 4 -11 3631 3729 l 7 -4 c 8 0 c 7 4 c 4 7 c
4 15 c 4 12 c 7 7 c 8 4 c 11 0 c 8 -4 c 4 -4 c 3 -11 c 0 -15 c -3 -11 c -4 -4 c -8 -4 c -11 0 c -8 4 c -7 7 c -4 12 c -4 15 c -4 7 c
-7 4 c -8 0 c -7 -4 c -4 -11 c 0 -15 c 53 -38 3631 3824 l 0 56 c 79 0 3631 3824 l 4 -11 3631 3884 l 11 -8 c 19 -4 c 11 0 c 19 4 c
12 8 c 3 11 c 0 8 c -3 11 c -12 7 c -19 4 c -11 0 c -19 -4 c -11 -7 c -4 -11 c 0 -8 c 0 -250 4236 4264 l 0 42 4193 4343 l 30 -23 c
0 11 c 4 8 c 3 4 c 12 3 c 7 0 c 12 -3 c 7 -8 c 4 -11 c 0 -12 c -4 -11 c -4 -4 c -7 -3 c 3 -11 4193 4430 l 8 -4 c 8 0 c 7 4 c 4 7 c
4 15 c 3 12 c 8 7 c 8 4 c 11 0 c 7 -4 c 4 -4 c 4 -11 c 0 -15 c -4 -11 c -4 -4 c -7 -4 c -11 0 c -8 4 c -8 7 c -3 12 c -4 15 c -4 7 c
-7 4 c -8 0 c -8 -4 c -3 -11 c 0 -15 c -8 -4 4204 4536 l -3 -11 c 0 -8 c 3 -11 c 12 -8 c 19 -4 c 19 0 c 15 4 c 7 8 c 4 11 c 0 4 c
-4 11 c -7 8 c -12 4 c -3 0 c -12 -4 c -7 -8 c -4 -11 c 0 -4 c 4 -11 c 7 -8 c 12 -4 c 0 41 4193 4570 l 30 -22 c 0 11 c 4 8 c 3 3 c
12 4 c 7 0 c 12 -4 c 7 -7 c 4 -11 c 0 -12 c -4 -11 c -4 -4 c -7 -4 c 4 -3 4264 4645 l 4 3 c -4 4 c -4 -4 c 53 -37 4193 4713 l 0 56 c
79 0 4193 4713 l 3 -11 4193 4774 l 12 -8 c 19 -4 c 11 0 c 19 4 c 11 8 c 4 11 c 0 7 c -4 12 c -11 7 c -19 4 c -11 0 c -19 -4 c
-12 -7 c -3 -12 c 0 -7 c -8 -4 4204 4876 l -3 -11 c 0 -8 c 3 -11 c 12 -8 c 19 -3 c 19 0 c 15 3 c 7 8 c 4 11 c 0 4 c -4 11 c -7 8 c
-12 4 c -3 0 c -12 -4 c -7 -8 c -4 -11 c 0 -4 c 4 -11 c 7 -8 c 12 -3 c 0 -249 4791 1412 l 0 41 4747 1492 l 30 -22 c 0 11 c 4 7 c
4 4 c 11 4 c 8 0 c 11 -4 c 8 -7 c 3 -12 c 0 -11 c -3 -11 c -4 -4 c -8 -4 c 4 -12 4747 1579 l 7 -4 c 8 0 c 8 4 c 3 8 c 4 15 c 4 11 c
7 8 c 8 4 c 11 0 c 8 -4 c 4 -4 c 3 -11 c 0 -15 c -3 -12 c -4 -4 c -8 -3 c -11 0 c -8 3 c -7 8 c -4 11 c -4 15 c -3 8 c -8 4 c -8 0 c
-7 -4 c -4 -11 c 0 -15 c -7 -3 4758 1684 l -4 -12 c 0 -7 c 4 -12 c 11 -7 c 19 -4 c 19 0 c 15 4 c 8 7 c 3 12 c 0 4 c -3 11 c -8 7 c
-11 4 c -4 0 c -11 -4 c -8 -7 c -4 -11 c 0 -4 c 4 -12 c 8 -7 c 11 -4 c -7 -4 4758 1760 l -4 -11 c 0 -8 c 4 -11 c 11 -8 c 19 -3 c
19 0 c 15 3 c 8 8 c 3 11 c 0 4 c -3 11 c -8 8 c -11 4 c -4 0 c -11 -4 c -8 -8 c -4 -11 c 0 -4 c 4 -11 c 8 -8 c 11 -3 c
4 -4 4819 1794 l 3 4 c -3 4 c -4 -4 c 11 -3 4774 1873 l 7 -8 c 4 -11 c 0 -4 c -4 -11 c -7 -8 c -11 -4 c -4 0 c -12 4 c -7 8 c
-4 11 c 0 4 c 4 11 c 7 8 c 16 3 c 18 0 c 19 -3 c 12 -8 c 3 -11 c 0 -8 c -3 -11 c -8 -4 c 4 -12 4747 1923 l 11 -7 c 19 -4 c 11 0 c
19 4 c 12 7 c 3 12 c 0 7 c -3 11 c -12 8 c -19 4 c -11 0 c -19 -4 c -11 -8 c -4 -11 c 0 -7 c 11 -4 4774 2025 l 7 -8 c 4 -11 c 0 -4 c
-4 -11 c -7 -8 c -11 -4 c -4 0 c -12 4 c -7 8 c -4 11 c 0 4 c 4 11 c 7 8 c 16 4 c 18 0 c 19 -4 c 12 -8 c 3 -11 c 0 -8 c -3 -11 c
-8 -4 c 0 -249 5052 4643 l 0 41 5008 4723 l 31 -22 c 0 11 c 3 7 c 4 4 c 12 4 c 7 0 c 11 -4 c 8 -7 c 4 -12 c 0 -11 c -4 -11 c -4 -4 c
-7 -4 c 4 -12 5008 4810 l 8 -4 c 7 0 c 8 4 c 4 8 c 3 15 c 4 11 c 8 8 c 7 4 c 12 0 c 7 -4 c 4 -4 c 4 -11 c 0 -15 c -4 -12 c -4 -4 c
-7 -3 c -12 0 c -7 3 c -8 8 c -4 11 c -3 15 c -4 8 c -8 4 c -7 0 c -8 -4 c -4 -11 c 0 -15 c -8 -3 5020 4915 l -4 -12 c 0 -7 c
4 -12 c 12 -7 c 18 -4 c 19 0 c 15 4 c 8 7 c 4 12 c 0 3 c -4 12 c -8 7 c -11 4 c -4 0 c -11 -4 c -8 -7 c -3 -12 c 0 -3 c 3 -12 c
8 -7 c 11 -4 c 4 -12 5008 4961 l 8 -3 c 7 0 c 8 3 c 4 8 c 3 15 c 4 11 c 8 8 c 7 4 c 12 0 c 7 -4 c 4 -4 c 4 -11 c 0 -15 c -4 -12 c
-4 -3 c -7 -4 c -12 0 c -7 4 c -8 7 c -4 12 c -3 15 c -4 7 c -8 4 c -7 0 c -8 -4 c -4 -11 c 0 -15 c 4 -4 5080 5025 l 4 4 c -4 4 c
-4 -4 c 0 -38 5008 5101 l 34 -4 c -3 4 c -4 11 c 0 11 c 4 12 c 7 7 c 12 4 c 7 0 c 11 -4 c 8 -7 c 4 -12 c 0 -11 c -4 -11 c -4 -4 c
-7 -4 c -3 0 5027 5135 l -8 3 c -4 4 c -4 8 c 0 15 c 4 7 c 4 4 c 8 4 c 7 0 c 8 -4 c 11 -7 c 38 -38 c 0 53 c 4 -11 5008 5225 l 8 -4 c
7 0 c 8 4 c 4 8 c 3 15 c 4 11 c 8 8 c 7 3 c 12 0 c 7 -3 c 4 -4 c 4 -12 c 0 -15 c -4 -11 c -4 -4 c -7 -4 c -12 0 c -7 4 c -8 8 c
-4 11 c -3 15 c -4 8 c -8 4 c -7 0 c -8 -4 c -4 -12 c 0 -15 c 0 -250 5234 1671 l 0 42 5190 1750 l 30 -23 c 0 11 c 4 8 c 4 4 c 11 4 c
8 0 c 11 -4 c 8 -8 c 3 -11 c 0 -11 c -3 -12 c -4 -4 c -8 -3 c 4 -11 5190 1837 l 7 -4 c 8 0 c 8 4 c 3 7 c 4 16 c 4 11 c 7 7 c 8 4 c
11 0 c 8 -4 c 4 -3 c 3 -12 c 0 -15 c -3 -11 c -4 -4 c -8 -4 c -11 0 c -8 4 c -7 8 c -4 11 c -4 15 c -3 8 c -8 3 c -8 0 c -7 -3 c
-4 -12 c 0 -15 c -7 -4 5201 1943 l -4 -11 c 0 -8 c 4 -11 c 11 -8 c 19 -3 c 19 0 c 15 3 c 8 8 c 3 11 c 0 4 c -3 11 c -8 8 c -11 4 c
-4 0 c -11 -4 c -8 -8 c -4 -11 c 0 -4 c 4 -11 c 8 -8 c 11 -3 c 11 -4 5217 2019 l 7 -8 c 4 -11 c 0 -4 c -4 -11 c -7 -8 c -11 -4 c
-4 0 c -12 4 c -7 8 c -4 11 c 0 4 c 4 11 c 7 8 c 16 4 c 18 0 c 19 -4 c 12 -8 c 3 -11 c 0 -8 c -3 -11 c -8 -4 c 4 -4 5262 2053 l
3 4 c -3 3 c -4 -3 c -7 -4 5201 2132 l -4 -11 c 0 -8 c 4 -11 c 11 -8 c 19 -3 c 19 0 c 15 3 c 8 8 c 3 11 c 0 4 c -3 11 c -8 8 c
-11 4 c -4 0 c -11 -4 c -8 -8 c -4 -11 c 0 -4 c 4 -11 c 8 -8 c 11 -3 c -7 -4 5201 2208 l -4 -12 c 0 -7 c 4 -11 c 11 -8 c 19 -4 c
19 0 c 15 4 c 8 8 c 3 11 c 0 4 c -3 11 c -8 8 c -11 3 c -4 0 c -11 -3 c -8 -8 c -4 -11 c 0 -4 c 4 -11 c 8 -8 c 11 -4 c
0 41 5190 2242 l 30 -23 c 0 12 c 4 7 c 4 4 c 11 4 c 8 0 c 11 -4 c 8 -7 c 3 -12 c 0 -11 c -3 -11 c -4 -4 c -8 -4 c 0 -249 5727 2972 l
0 41 5683 3052 l 31 -22 c 0 11 c 3 8 c 4 3 c 11 4 c 8 0 c 11 -4 c 8 -7 c 4 -12 c 0 -11 c -4 -11 c -4 -4 c -7 -4 c 4 -12 5683 3139 l
8 -3 c 7 0 c 8 3 c 4 8 c 3 15 c 4 11 c 8 8 c 7 4 c 12 0 c 7 -4 c 4 -4 c 4 -11 c 0 -15 c -4 -12 c -4 -3 c -7 -4 c -12 0 c -7 4 c
-8 7 c -4 11 c -3 16 c -4 7 c -8 4 c -7 0 c -8 -4 c -4 -11 c 0 -15 c 80 -37 5683 3248 l 0 53 5683 3195 l -4 0 5702 3275 l -7 4 c
-4 3 c -4 8 c 0 15 c 4 8 c 4 3 c 7 4 c 8 0 c 8 -4 c 11 -7 c 38 -38 c 0 53 c 4 -4 5755 3354 l 4 4 c -4 4 c -4 -4 c 80 -37 5683 3437 l
0 53 5683 3384 l -4 0 5702 3464 l -7 4 c -4 3 c -4 8 c 0 15 c 4 8 c 4 3 c 7 4 c 8 0 c 8 -4 c 11 -7 c 38 -38 c 0 53 c
-4 0 5702 3539 l -7 4 c -4 4 c -4 7 c 0 16 c 4 7 c 4 4 c 7 4 c 8 0 c 8 -4 c 11 -8 c 38 -37 c 0 52 c 0 -249 5905 7019 l
0 42 5862 7098 l 30 -23 c 0 12 c 4 7 c 4 4 c 11 4 c 7 0 c 12 -4 c 7 -8 c 4 -11 c 0 -11 c -4 -12 c -3 -3 c -8 -4 c 4 -11 5862 7185 l
7 -4 c 8 0 c 7 4 c 4 8 c 4 15 c 4 11 c 7 8 c 8 3 c 11 0 c 8 -3 c 3 -4 c 4 -11 c 0 -16 c -4 -11 c -3 -4 c -8 -3 c -11 0 c -8 3 c
-7 8 c -4 11 c -4 15 c -4 8 c -7 4 c -8 0 c -7 -4 c -4 -11 c 0 -16 c 79 -38 5862 7295 l 0 53 5862 7242 l 0 42 5862 7325 l 30 -23 c
0 11 c 4 8 c 4 4 c 11 4 c 7 0 c 12 -4 c 7 -8 c 4 -11 c 0 -11 c -4 -12 c -3 -4 c -8 -3 c 3 -4 5934 7401 l 4 4 c -4 4 c -3 -4 c
4 -11 5862 7450 l 7 -4 c 8 0 c 7 4 c 4 7 c 4 15 c 4 12 c 7 7 c 8 4 c 11 0 c 8 -4 c 3 -4 c 4 -11 c 0 -15 c -4 -11 c -3 -4 c -8 -4 c
-11 0 c -8 4 c -7 7 c -4 12 c -4 15 c -4 7 c -7 4 c -8 0 c -7 -4 c -4 -11 c 0 -15 c -4 0 5881 7510 l -8 4 c -3 4 c -4 8 c 0 15 c
4 7 c 3 4 c 8 4 c 7 0 c 8 -4 c 11 -8 c 38 -37 c 0 53 c -4 0 5881 7586 l -8 4 c -3 4 c -4 7 c 0 15 c 4 8 c 3 4 c 8 3 c 7 0 c 8 -3 c
11 -8 c 38 -38 c 0 53 c 0 -249 6075 3574 l 0 41 6031 3654 l 30 -23 c 0 12 c 4 7 c 4 4 c 11 4 c 8 0 c 11 -4 c 8 -7 c 3 -12 c 0 -11 c
-3 -11 c -4 -4 c -8 -4 c 4 -11 6031 3740 l 7 -4 c 8 0 c 7 4 c 4 8 c 4 15 c 4 11 c 7 8 c 8 3 c 11 0 c 8 -3 c 4 -4 c 3 -11 c 0 -16 c
-3 -11 c -4 -4 c -8 -3 c -11 0 c -8 3 c -7 8 c -4 11 c -4 15 c -4 8 c -7 4 c -8 0 c -7 -4 c -4 -11 c 0 -16 c 79 -38 6031 3850 l
0 53 6031 3797 l 53 -38 6031 3911 l 0 56 c 79 0 6031 3911 l 4 -4 6103 3956 l 3 4 c -3 4 c -4 -4 c 4 -11 6031 4005 l 7 -4 c 8 0 c
7 4 c 4 7 c 4 15 c 4 12 c 7 7 c 8 4 c 11 0 c 8 -4 c 4 -4 c 3 -11 c 0 -15 c -3 -11 c -4 -4 c -8 -4 c -11 0 c -8 4 c -7 7 c -4 12 c
-4 15 c -4 7 c -7 4 c -8 0 c -7 -4 c -4 -11 c 0 -15 c -7 -4 6042 4111 l -4 -11 c 0 -8 c 4 -11 c 11 -8 c 19 -4 c 19 0 c 15 4 c 8 8 c
3 11 c 0 4 c -3 11 c -8 8 c -11 4 c -4 0 c -11 -4 c -8 -8 c -4 -11 c 0 -4 c 4 -11 c 8 -8 c 11 -4 c -4 0 6050 4141 l -7 4 c -4 4 c
-4 7 c 0 15 c 4 8 c 4 4 c 7 3 c 8 0 c 7 -3 c 12 -8 c 37 -38 c 0 53 c 0 -250 6152 1923 l 0 42 6108 2002 l 31 -23 c 0 11 c 3 8 c 4 4 c
11 3 c 8 0 c 11 -3 c 8 -8 c 4 -11 c 0 -12 c -4 -11 c -4 -4 c -7 -3 c 4 -11 6108 2089 l 8 -4 c 7 0 c 8 4 c 4 7 c 3 15 c 4 12 c 8 7 c
7 4 c 12 0 c 7 -4 c 4 -3 c 4 -12 c 0 -15 c -4 -11 c -4 -4 c -7 -4 c -12 0 c -7 4 c -8 8 c -4 11 c -3 15 c -4 8 c -8 3 c -7 0 c
-8 -3 c -4 -12 c 0 -15 c 80 -38 6108 2199 l 0 53 6108 2146 l 0 -38 6108 2267 l 34 -4 c -3 4 c -4 11 c 0 12 c 4 11 c 7 7 c 11 4 c
8 0 c 11 -4 c 8 -7 c 4 -11 c 0 -12 c -4 -11 c -4 -4 c -7 -4 c 4 -4 6180 2305 l 4 4 c -4 3 c -4 -3 c 0 42 6108 2342 l 31 -23 c 0 12 c
3 7 c 4 4 c 11 4 c 8 0 c 11 -4 c 8 -8 c 4 -11 c 0 -11 c -4 -12 c -4 -3 c -7 -4 c 80 -38 6108 2463 l 0 53 6108 2410 l
0 42 6108 2493 l 31 -23 c 0 12 c 3 7 c 4 4 c 11 4 c 8 0 c 11 -4 c 8 -8 c 4 -11 c 0 -11 c -4 -12 c -4 -3 c -7 -4 c 0 -250 6696 1487 l
0 42 6653 1566 l 30 -23 c 0 12 c 4 7 c 3 4 c 12 4 c 7 0 c 12 -4 c 7 -8 c 4 -11 c 0 -11 c -4 -12 c -4 -3 c -7 -4 c 3 -11 6653 1653 l
8 -4 c 7 0 c 8 4 c 4 8 c 4 15 c 3 11 c 8 8 c 8 3 c 11 0 c 7 -3 c 4 -4 c 4 -12 c 0 -15 c -4 -11 c -4 -4 c -7 -4 c -11 0 c -8 4 c
-8 8 c -3 11 c -4 15 c -4 8 c -8 4 c -7 0 c -8 -4 c -3 -12 c 0 -15 c 79 -38 6653 1763 l 0 53 6653 1710 l 3 -12 6653 1805 l 8 -4 c
7 0 c 8 4 c 4 8 c 4 15 c 3 11 c 8 8 c 8 4 c 11 0 c 7 -4 c 4 -4 c 4 -11 c 0 -15 c -4 -12 c -4 -4 c -7 -3 c -11 0 c -8 3 c -8 8 c
-3 11 c -4 15 c -4 8 c -8 4 c -7 0 c -8 -4 c -3 -11 c 0 -15 c 4 -4 6724 1869 l 4 4 c -4 4 c -4 -4 c -8 -4 6664 1948 l -3 -11 c
0 -8 c 3 -11 c 12 -7 c 19 -4 c 19 0 c 15 4 c 7 7 c 4 11 c 0 4 c -4 12 c -7 7 c -12 4 c -3 0 c -12 -4 c -7 -7 c -4 -12 c 0 -4 c
4 -11 c 7 -7 c 12 -4 c -8 -4 6664 2024 l -3 -11 c 0 -8 c 3 -11 c 12 -8 c 19 -4 c 19 0 c 15 4 c 7 8 c 4 11 c 0 4 c -4 11 c -7 8 c
-12 4 c -3 0 c -12 -4 c -7 -8 c -4 -11 c 0 -4 c 4 -11 c 7 -8 c 12 -4 c -3 0 6671 2054 l -8 4 c -4 4 c -3 7 c 0 15 c 3 8 c 4 4 c
8 3 c 7 0 c 8 -3 c 11 -8 c 38 -38 c 0 53 c 0 -249 6858 1898 l 0 41 6814 1978 l 30 -22 c 0 11 c 4 7 c 4 4 c 11 4 c 8 0 c 11 -4 c
8 -7 c 4 -12 c 0 -11 c -4 -11 c -4 -4 c -8 -4 c 4 -12 6814 2065 l 8 -4 c 7 0 c 8 4 c 3 8 c 4 15 c 4 11 c 8 8 c 7 4 c 11 0 c 8 -4 c
4 -4 c 4 -11 c 0 -15 c -4 -12 c -4 -4 c -8 -3 c -11 0 c -7 3 c -8 8 c -4 11 c -4 16 c -3 7 c -8 4 c -7 0 c -8 -4 c -4 -11 c 0 -15 c
80 -38 6814 2174 l 0 53 6814 2121 l 11 -4 6841 2246 l 8 -7 c 3 -12 c 0 -3 c -3 -12 c -8 -7 c -11 -4 c -4 0 c -11 4 c -8 7 c -4 12 c
0 3 c 4 12 c 8 7 c 15 4 c 19 0 c 18 -4 c 12 -7 c 4 -12 c 0 -7 c -4 -12 c -8 -3 c 4 -4 6886 2280 l 4 4 c -4 4 c -4 -4 c
-8 -3 6826 2359 l -4 -12 c 0 -7 c 4 -12 c 11 -7 c 19 -4 c 19 0 c 15 4 c 8 7 c 4 12 c 0 4 c -4 11 c -8 7 c -11 4 c -4 0 c -11 -4 c
-8 -7 c -4 -11 c 0 -4 c 4 -12 c 8 -7 c 11 -4 c 53 -38 6814 2424 l 0 57 c 80 0 6814 2424 l 53 -38 6814 2499 l 0 57 c 80 0 6814 2499 l
0 -249 8070 2754 l 0 41 8026 2834 l 31 -22 c 0 11 c 3 8 c 4 3 c 12 4 c 7 0 c 11 -4 c 8 -7 c 4 -11 c 0 -12 c -4 -11 c -4 -4 c -7 -4 c
4 -12 8026 2921 l 8 -3 c 7 0 c 8 3 c 4 8 c 3 15 c 4 11 c 8 8 c 7 4 c 12 0 c 7 -4 c 4 -4 c 4 -11 c 0 -15 c -4 -12 c -4 -3 c -7 -4 c
-12 0 c -7 4 c -8 7 c -4 12 c -3 15 c -4 7 c -8 4 c -7 0 c -8 -4 c -4 -11 c 0 -15 c 4 -11 8026 2996 l 8 -4 c 7 0 c 8 4 c 4 8 c
3 15 c 4 11 c 8 8 c 7 3 c 12 0 c 7 -3 c 4 -4 c 4 -12 c 0 -15 c -4 -11 c -4 -4 c -7 -4 c -12 0 c -7 4 c -8 8 c -4 11 c -3 15 c -4 8 c
-8 4 c -7 0 c -8 -4 c -4 -12 c 0 -15 c -8 -4 8038 3102 l -4 -11 c 0 -7 c 4 -12 c 12 -7 c 18 -4 c 19 0 c 15 4 c 8 7 c 4 12 c 0 3 c
-4 12 c -8 7 c -11 4 c -4 0 c -11 -4 c -8 -7 c -3 -12 c 0 -3 c 3 -12 c 8 -7 c 11 -4 c 4 -4 8098 3136 l 4 4 c -4 4 c -4 -4 c
11 -4 8053 3216 l 8 -8 c 4 -11 c 0 -4 c -4 -11 c -8 -8 c -11 -4 c -4 0 c -11 4 c -8 8 c -4 11 c 0 4 c 4 11 c 8 8 c 15 4 c 19 0 c
19 -4 c 11 -8 c 4 -11 c 0 -8 c -4 -11 c -8 -4 c -4 8 8042 3253 l -12 11 c 80 0 c -8 -4 8038 3367 l -4 -11 c 0 -8 c 4 -11 c 12 -8 c
18 -4 c 19 0 c 15 4 c 8 8 c 4 11 c 0 4 c -4 11 c -8 8 c -11 4 c -4 0 c -11 -4 c -8 -8 c -3 -11 c 0 -4 c 3 -11 c 8 -8 c 11 -4 c
0 -250 8929 1989 l 0 42 8886 2068 l 30 -23 c 0 11 c 4 8 c 3 4 c 12 3 c 7 0 c 12 -3 c 7 -8 c 4 -11 c 0 -12 c -4 -11 c -4 -4 c -7 -4 c
3 -11 8886 2155 l 8 -4 c 8 0 c 7 4 c 4 7 c 4 15 c 3 12 c 8 7 c 8 4 c 11 0 c 7 -4 c 4 -4 c 4 -11 c 0 -15 c -4 -11 c -4 -4 c -7 -4 c
-11 0 c -8 4 c -8 7 c -3 12 c -4 15 c -4 7 c -7 4 c -8 0 c -8 -4 c -3 -11 c 0 -15 c 11 -4 8912 2261 l 8 -8 c 4 -11 c 0 -4 c -4 -11 c
-8 -8 c -11 -3 c -4 0 c -11 3 c -8 8 c -3 11 c 0 4 c 3 11 c 8 8 c 15 4 c 19 0 c 19 -4 c 11 -8 c 4 -11 c 0 -7 c -4 -12 c -7 -4 c
-4 7 8901 2299 l -11 11 c 79 0 c 4 -3 8957 2370 l 4 3 c -4 4 c -4 -4 c 11 -4 8912 2450 l 8 -8 c 4 -11 c 0 -4 c -4 -11 c -8 -8 c
-11 -3 c -4 0 c -11 3 c -8 8 c -3 11 c 0 4 c 3 11 c 8 8 c 15 4 c 19 0 c 19 -4 c 11 -8 c 4 -11 c 0 -7 c -4 -12 c -7 -4 c
79 -38 8886 2529 l 0 53 8886 2476 l 11 -4 8912 2601 l 8 -7 c 4 -12 c 0 -4 c -4 -11 c -8 -7 c -11 -4 c -4 0 c -11 4 c -8 7 c -3 11 c
0 4 c 3 12 c 8 7 c 15 4 c 19 0 c 19 -4 c 11 -7 c 4 -12 c 0 -7 c -4 -12 c -7 -3 c 0 -250 9216 1322 l 0 41 9173 1401 l 30 -22 c 0 11 c
4 8 c 3 3 c 12 4 c 7 0 c 12 -4 c 7 -7 c 4 -11 c 0 -12 c -4 -11 c -4 -4 c -7 -4 c 3 -12 9173 1488 l 8 -3 c 7 0 c 8 3 c 4 8 c 4 15 c
3 11 c 8 8 c 7 4 c 12 0 c 7 -4 c 4 -4 c 4 -11 c 0 -15 c -4 -12 c -4 -3 c -7 -4 c -12 0 c -7 4 c -8 7 c -3 12 c -4 15 c -4 7 c -8 4 c
-7 0 c -8 -4 c -3 -11 c 0 -15 c 11 -4 9199 1594 l 8 -8 c 4 -11 c 0 -4 c -4 -11 c -8 -8 c -11 -4 c -4 0 c -11 4 c -8 8 c -3 11 c
0 4 c 3 11 c 8 8 c 15 4 c 19 0 c 19 -4 c 11 -8 c 4 -11 c 0 -8 c -4 -11 c -7 -4 c 0 41 9173 1628 l 30 -22 c 0 11 c 4 7 c 3 4 c 12 4 c
7 0 c 12 -4 c 7 -7 c 4 -12 c 0 -11 c -4 -11 c -4 -4 c -7 -4 c 4 -4 9244 1703 l 4 4 c -4 4 c -4 -4 c -8 -4 9184 1783 l -3 -12 c
0 -7 c 3 -11 c 12 -8 c 19 -4 c 18 0 c 16 4 c 7 8 c 4 11 c 0 4 c -4 11 c -7 8 c -12 3 c -4 0 c -11 -3 c -7 -8 c -4 -11 c 0 -4 c
4 -11 c 7 -8 c 11 -4 c 0 -37 9173 1854 l 34 -4 c -4 4 c -4 11 c 0 11 c 4 12 c 7 7 c 12 4 c 7 0 c 12 -4 c 7 -7 c 4 -12 c 0 -11 c
-4 -11 c -4 -4 c -7 -4 c -3 0 9191 1888 l -8 4 c -4 4 c -3 8 c 0 15 c 3 7 c 4 4 c 8 4 c 7 0 c 8 -4 c 11 -8 c 38 -37 c 0 53 c
0 -249 9521 2214 l 0 41 9478 2294 l 30 -22 c 0 11 c 4 8 c 3 3 c 12 4 c 7 0 c 12 -4 c 7 -7 c 4 -12 c 0 -11 c -4 -11 c -4 -4 c -7 -4 c
3 -12 9478 2381 l 8 -3 c 7 0 c 8 3 c 4 8 c 4 15 c 3 11 c 8 8 c 7 4 c 12 0 c 7 -4 c 4 -4 c 4 -11 c 0 -15 c -4 -12 c -4 -3 c -7 -4 c
-12 0 c -7 4 c -8 7 c -3 11 c -4 16 c -4 7 c -8 4 c -7 0 c -8 -4 c -3 -11 c 0 -15 c 11 -3 9504 2486 l 8 -8 c 4 -11 c 0 -4 c -4 -11 c
-8 -8 c -11 -4 c -4 0 c -11 4 c -8 8 c -3 11 c 0 4 c 3 11 c 8 8 c 15 3 c 19 0 c 19 -3 c 11 -8 c 4 -11 c 0 -8 c -4 -11 c -7 -4 c
0 -37 9478 2558 l 34 -4 c -4 4 c -4 11 c 0 11 c 4 12 c 7 7 c 12 4 c 7 0 c 12 -4 c 7 -7 c 4 -12 c 0 -11 c -4 -11 c -4 -4 c -7 -4 c
4 -4 9549 2596 l 4 4 c -4 4 c -4 -4 c 52 -38 9478 2664 l 0 57 c 79 0 9478 2664 l -4 8 9493 2713 l -11 11 c 79 0 c 11 -4 9504 2827 l
8 -8 c 4 -11 c 0 -4 c -4 -11 c -8 -8 c -11 -3 c -4 0 c -11 3 c -8 8 c -3 11 c 0 4 c 3 11 c 8 8 c 15 4 c 19 0 c 19 -4 c 11 -8 c
4 -11 c 0 -8 c -4 -11 c -7 -4 c
showpage PGPLOT restore
 
%%Trailer
%%DocumentFonts: 
%%Pages: 1
%%EOF
