%!PS-Adobe-3.0 EPSF-3.0
%%For: tab
%%Title: PGPLOT PostScript plot
%%Creator: PGPLOT
%%CreationDate: 20-Apr-1995 16:28
%%BoundingBox: 25 18 587 774
%%DocumentFonts: (atend)
%%LanguageLevel: 1
%%Orientation: Landscape
%%Pages: (atend)
%%EndComments
%%BeginProlog
/l {moveto rlineto currentpoint stroke moveto} bind def
/c {rlineto currentpoint stroke moveto} bind def
/d {moveto 0 0 rlineto currentpoint stroke moveto} bind def
/SLW {5 mul setlinewidth} bind def
/SCF /pop load def
/BP {newpath moveto} bind def
/LP /rlineto load def
/EP {rlineto closepath eofill} bind def
/MB {gsave translate MFAC dup scale 1 setlinewidth 2 setlinecap 0 setlinejoin newpath} bind def
/ME /grestore load def
/C {0 360 arc stroke} bind def
/FC {0 360 arc fill} bind def
%%EndProlog
 
%%Page: 1 1
%%BeginPageSetup
/PGPLOT save def
0.072 0.072 scale
8150 250 translate 90 rotate
1 setlinejoin 1 setlinecap 1 SLW 1 SCF
%%EndPageSetup
0.000 setgray 1 SLW 8939 0 780 780 l 0 6239 c -8939 0 c 0 -6239 c 0 -45 1116 780 l 0 -45 1554 780 l 0 -45 1991 780 l
0 -45 2428 780 l 0 -90 2865 780 l 0 -45 3302 780 l 0 -45 3739 780 l 0 -45 4176 780 l 0 -45 4613 780 l 0 -90 5051 780 l
0 -45 5488 780 l 0 -45 5925 780 l 0 -45 6362 780 l 0 -45 6799 780 l 0 -90 7236 780 l 0 -45 7673 780 l 0 -45 8110 780 l
0 -45 8548 780 l 0 -45 8985 780 l 0 -90 9422 780 l 0 -45 1116 7064 l 0 -45 1554 7064 l 0 -45 1991 7064 l 0 -45 2428 7064 l
0 -90 2865 7109 l 0 -45 3302 7064 l 0 -45 3739 7064 l 0 -45 4176 7064 l 0 -45 4613 7064 l 0 -90 5051 7109 l 0 -45 5488 7064 l
0 -45 5925 7064 l 0 -45 6362 7064 l 0 -45 6799 7064 l 0 -90 7236 7109 l 0 -45 7673 7064 l 0 -45 8110 7064 l 0 -45 8548 7064 l
0 -45 8985 7064 l 0 -90 9422 7109 l -60 0 2775 672 l -6 -54 c 6 6 c 18 6 c 18 0 c 18 -6 c 12 -12 c 6 -18 c 0 -12 c -6 -18 c
-12 -12 c -18 -6 c -18 0 c -18 6 c -6 6 c -6 12 c -18 -6 2859 672 l -12 -18 c -6 -30 c 0 -18 c 6 -30 c 12 -18 c 18 -6 c 12 0 c
18 6 c 12 18 c 6 30 c 0 18 c -6 30 c -12 18 c -18 6 c -12 0 c -18 -6 2979 672 l -12 -18 c -6 -30 c 0 -18 c 6 -30 c 12 -18 c 18 -6 c
12 0 c 18 6 c 12 18 c 6 30 c 0 18 c -6 30 c -12 18 c -18 6 c -12 0 c 12 6 4847 648 l 18 18 c 0 -126 c -18 -6 4985 672 l -12 -18 c
-6 -30 c 0 -18 c 6 -30 c 12 -18 c 18 -6 c 12 0 c 18 6 c 12 18 c 6 30 c 0 18 c -6 30 c -12 18 c -18 6 c -12 0 c -18 -6 5105 672 l
-12 -18 c -6 -30 c 0 -18 c 6 -30 c 12 -18 c 18 -6 c 12 0 c 18 6 c 12 18 c 6 30 c 0 18 c -6 30 c -12 18 c -18 6 c -12 0 c
-18 -6 5225 672 l -12 -18 c -6 -30 c 0 -18 c 6 -30 c 12 -18 c 18 -6 c 12 0 c 18 6 c 12 18 c 6 30 c 0 18 c -6 30 c -12 18 c -18 6 c
-12 0 c 12 6 7032 648 l 18 18 c 0 -126 c -60 0 7206 672 l -6 -54 c 6 6 c 18 6 c 18 0 c 18 -6 c 12 -12 c 6 -18 c 0 -12 c -6 -18 c
-12 -12 c -18 -6 c -18 0 c -18 6 c -6 6 c -6 12 c -18 -6 7290 672 l -12 -18 c -6 -30 c 0 -18 c 6 -30 c 12 -18 c 18 -6 c 12 0 c
18 6 c 12 18 c 6 30 c 0 18 c -6 30 c -12 18 c -18 6 c -12 0 c -18 -6 7410 672 l -12 -18 c -6 -30 c 0 -18 c 6 -30 c 12 -18 c 18 -6 c
12 0 c 18 6 c 12 18 c 6 30 c 0 18 c -6 30 c -12 18 c -18 6 c -12 0 c 0 6 9206 642 l 6 12 c 6 6 c 12 6 c 24 0 c 12 -6 c 6 -6 c
6 -12 c 0 -12 c -6 -12 c -12 -18 c -60 -60 c 84 0 c -18 -6 9356 672 l -12 -18 c -6 -30 c 0 -18 c 6 -30 c 12 -18 c 18 -6 c 12 0 c
18 6 c 12 18 c 6 30 c 0 18 c -6 30 c -12 18 c -18 6 c -12 0 c -18 -6 9476 672 l -12 -18 c -6 -30 c 0 -18 c 6 -30 c 12 -18 c 18 -6 c
12 0 c 18 6 c 12 18 c 6 30 c 0 18 c -6 30 c -12 18 c -18 6 c -12 0 c -18 -6 9596 672 l -12 -18 c -6 -30 c 0 -18 c 6 -30 c 12 -18 c
18 -6 c 12 0 c 18 6 c 12 18 c 6 30 c 0 18 c -6 30 c -12 18 c -18 6 c -12 0 c -90 0 780 810 l -45 0 780 1423 l -90 0 780 2036 l
-45 0 780 2649 l -90 0 780 3263 l -45 0 780 3876 l -90 0 780 4489 l -45 0 780 5102 l -90 0 780 5715 l -45 0 780 6328 l
-90 0 780 6941 l -90 0 9809 810 l -45 0 9764 1423 l -90 0 9809 2036 l -45 0 9764 2649 l -90 0 9809 3263 l -45 0 9764 3876 l
-90 0 9809 4489 l -45 0 9764 5102 l -90 0 9809 5715 l -45 0 9764 6328 l -90 0 9809 6941 l 6 -18 517 804 l 18 -12 c 30 -6 c 18 0 c
30 6 c 18 12 c 6 18 c 0 12 c -6 18 c -18 12 c -30 6 c -18 0 c -30 -6 c -18 -12 c -6 -18 c 0 -12 c -6 0 547 1820 l -12 6 c -6 6 c
-6 12 c 0 24 c 6 12 c 6 6 c 12 6 c 12 0 c 12 -6 c 18 -12 c 60 -60 c 0 84 c 6 -18 517 1970 l 18 -12 c 30 -6 c 18 0 c 30 6 c 18 12 c
6 18 c 0 12 c -6 18 c -18 12 c -30 6 c -18 0 c -30 -6 c -18 -12 c -6 -18 c 0 -12 c 6 -18 517 2090 l 18 -12 c 30 -6 c 18 0 c 30 6 c
18 12 c 6 18 c 0 12 c -6 18 c -18 12 c -30 6 c -18 0 c -30 -6 c -18 -12 c -6 -18 c 0 -12 c 6 -18 517 2210 l 18 -12 c 30 -6 c 18 0 c
30 6 c 18 12 c 6 18 c 0 12 c -6 18 c -18 12 c -30 6 c -18 0 c -30 -6 c -18 -12 c -6 -18 c 0 -12 c 84 -60 517 3101 l 0 90 c
126 0 517 3101 l 6 -18 517 3197 l 18 -12 c 30 -6 c 18 0 c 30 6 c 18 12 c 6 18 c 0 12 c -6 18 c -18 12 c -30 6 c -18 0 c -30 -6 c
-18 -12 c -6 -18 c 0 -12 c 6 -18 517 3317 l 18 -12 c 30 -6 c 18 0 c 30 6 c 18 12 c 6 18 c 0 12 c -6 18 c -18 12 c -30 6 c -18 0 c
-30 -6 c -18 -12 c -6 -18 c 0 -12 c 6 -18 517 3437 l 18 -12 c 30 -6 c 18 0 c 30 6 c 18 12 c 6 18 c 0 12 c -6 18 c -18 12 c -30 6 c
-18 0 c -30 -6 c -18 -12 c -6 -18 c 0 -12 c -12 -6 535 4345 l -6 -18 c 0 -12 c 6 -18 c 18 -12 c 30 -6 c 30 0 c 24 6 c 12 12 c 6 18 c
0 6 c -6 18 c -12 12 c -18 6 c -6 0 c -18 -6 c -12 -12 c -6 -18 c 0 -6 c 6 -18 c 12 -12 c 18 -6 c 6 -18 517 4423 l 18 -12 c 30 -6 c
18 0 c 30 6 c 18 12 c 6 18 c 0 12 c -6 18 c -18 12 c -30 6 c -18 0 c -30 -6 c -18 -12 c -6 -18 c 0 -12 c 6 -18 517 4543 l 18 -12 c
30 -6 c 18 0 c 30 6 c 18 12 c 6 18 c 0 12 c -6 18 c -18 12 c -30 6 c -18 0 c -30 -6 c -18 -12 c -6 -18 c 0 -12 c 6 -18 517 4663 l
18 -12 c 30 -6 c 18 0 c 30 6 c 18 12 c 6 18 c 0 12 c -6 18 c -18 12 c -30 6 c -18 0 c -30 -6 c -18 -12 c -6 -18 c 0 -12 c
6 -18 517 5523 l 12 -6 c 12 0 c 12 6 c 6 12 c 6 24 c 6 18 c 12 12 c 12 6 c 18 0 c 12 -6 c 6 -6 c 6 -18 c 0 -24 c -6 -18 c -6 -6 c
-12 -6 c -18 0 c -12 6 c -12 12 c -6 18 c -6 24 c -6 12 c -12 6 c -12 0 c -12 -6 c -6 -18 c 0 -24 c 6 -18 517 5649 l 18 -12 c
30 -6 c 18 0 c 30 6 c 18 12 c 6 18 c 0 12 c -6 18 c -18 12 c -30 6 c -18 0 c -30 -6 c -18 -12 c -6 -18 c 0 -12 c 6 -18 517 5769 l
18 -12 c 30 -6 c 18 0 c 30 6 c 18 12 c 6 18 c 0 12 c -6 18 c -18 12 c -30 6 c -18 0 c -30 -6 c -18 -12 c -6 -18 c 0 -12 c
6 -18 517 5889 l 18 -12 c 30 -6 c 18 0 c 30 6 c 18 12 c 6 18 c 0 12 c -6 18 c -18 12 c -30 6 c -18 0 c -30 -6 c -18 -12 c -6 -18 c
0 -12 c -6 12 541 6821 l -18 18 c 126 0 c 6 -18 517 6959 l 18 -12 c 30 -6 c 18 0 c 30 6 c 18 12 c 6 18 c 0 12 c -6 18 c -18 12 c
-30 6 c -18 0 c -30 -6 c -18 -12 c -6 -18 c 0 -12 c 63 -45 453 7084 l 0 67 c 94 0 453 7084 l
4 -1 780 829 l 5 -1 c 4 0 c 4 0 c 5 0 c 4 0 c 4 2 c 5 4 c 4 14 c 5 18 c 4 -2 c 4 -17 c 5 -14 c 4 1 c 4 7 c 5 3 c 4 -3 c 5 -10 c
4 -2 c 4 -1 c 5 -3 c 4 4 c 4 -1 c 5 -1 c 4 0 c 5 0 c 4 0 c 4 -1 c 5 0 c 4 0 c 4 0 c 5 4 c 4 1 c 5 1 c 4 1 c 4 2 c 5 5 c 4 -7 c
4 -2 c 5 -1 c 4 -3 c 4 -1 c 5 0 c 4 0 c 5 1 c 4 0 c 4 -1 c 5 2 c 4 0 c 4 0 c 5 0 c 4 0 c 5 -4 c 4 2 c 4 0 c 5 0 c 4 1 c 4 1 c 5 4 c
4 6 c 5 11 c 4 14 c 4 -1 c 5 -19 c 4 -14 c 4 -1 c 5 -2 c 4 2 c 5 0 c 4 3 c 4 -1 c 5 3 c 4 4 c 4 -4 c 5 -4 c 4 3 c 4 2 c 5 6 c 4 4 c
5 0 c 4 7 c 4 19 c 5 65 c 4 -124 c 4 0 c 5 117 c 4 -45 c 5 -30 c 4 -21 c 4 -5 c 5 1 c 4 0 c 4 -1 c 5 -1 c 4 1 c 5 3 c 4 -3 c 4 1 c
5 0 c 4 -2 c 4 4 c 5 0 c 4 -1 c 5 5 c 4 3 c 4 -1 c 5 0 c 4 -2 c 4 -4 c 5 3 c 4 3 c 4 2 c 5 2 c 4 -2 c 5 -1 c 4 -7 c 4 -1 c 5 0 c
4 3 c 4 4 c 5 1 c 4 -5 c 5 -2 c 4 -2 c 4 0 c 5 0 c 4 -1 c 4 5 c 5 -2 c 4 1 c 5 -1 c 4 -2 c 4 -1 c 5 1 c 4 -1 c 4 1 c 5 0 c 4 1 c
5 -1 c 4 0 c 4 -1 c 5 0 c 4 0 c 4 2 c 5 -1 c 4 0 c 4 0 c 5 0 c 4 1 c 5 -1 c 4 1 c 4 3 c 5 1 c 4 -4 c 4 -2 c 5 0 c 4 0 c 5 1 c 4 1 c
4 -4 c 5 2 c 4 0 c 4 0 c 5 1 c 4 0 c 5 1 c 4 0 c 4 -2 c 5 3 c 4 1 c 4 2 c 5 8 c 4 2 c 4 0 c 5 -12 c 4 -4 c 5 2 c 4 -1 c 4 0 c 5 -1 c
4 2 c 4 1 c 5 1 c 4 -3 c 5 1 c 4 0 c 4 -2 c 5 1 c 4 1 c 4 0 c 5 0 c 4 1 c 5 -3 c 4 1 c 4 1 c 5 7 c 4 1 c 4 -2 c 5 -4 c 4 -3 c 5 -2 c
4 2 c 4 1 c 5 1 c 4 2 c 4 -2 c 5 2 c 4 1 c 4 -4 c 5 -1 c 4 2 c 5 -2 c 4 0 c 4 -1 c 5 3 c 4 -3 c 4 1 c 5 0 c 4 0 c 5 0 c 4 0 c 4 1 c
5 -2 c 4 1 c 4 0 c 5 2 c 4 -2 c 5 0 c 4 1 c 4 -1 c 5 1 c 4 -1 c 4 -1 c 5 1 c 4 0 c 5 -1 c 4 0 c 4 0 c 5 0 c 4 2 c 4 -1 c 5 1 c
4 -2 c 4 0 c 5 3 c 4 3 c 5 8 c 4 2 c 4 -4 c 5 -8 c 4 -4 c 4 2 c 5 -1 c 4 1 c 5 5 c 4 0 c 4 0 c 5 -3 c 4 -3 c 4 3 c 5 -2 c 4 1 c
5 4 c 4 3 c 4 6 c 5 7 c 4 -5 c 4 -4 c 5 -4 c 4 -5 c 5 3 c 4 14 c 4 11 c 5 -5 c 4 -19 c 4 -7 c 5 1 c 4 -1 c 4 1 c 5 1 c 4 2 c 5 6 c
4 12 c 4 16 c 5 -2 c 4 -16 c 4 -15 c 5 -1 c 4 0 c 5 -2 c 4 2 c 4 5 c 5 1 c 4 1 c 4 -2 c 5 1 c 4 -7 c 5 -1 c 4 -2 c 4 3 c 5 -2 c
4 0 c 4 2 c 5 -4 c 4 3 c 5 -1 c 4 3 c 4 3 c 5 5 c 4 6 c 4 16 c 5 46 c 4 18 c 4 -24 c 5 -38 c 4 -18 c 5 -15 c 4 -3 c 4 -1 c 5 2 c
4 0 c 4 -2 c 5 0 c 4 1 c 5 -1 c 4 0 c 4 1 c 5 0 c 4 2 c 4 -1 c 5 0 c 4 -2 c 5 0 c 4 2 c 4 0 c 5 2 c 4 -1 c 4 -1 c 5 1 c 4 -2 c
4 -1 c 5 1 c 4 2 c 5 3 c 4 -2 c 4 0 c 5 -1 c 4 1 c 4 0 c 5 1 c 4 -2 c 5 -2 c 4 0 c 4 -1 c 5 3 c 4 -2 c 4 2 c 5 -1 c 4 3 c 5 8 c
4 7 c 4 12 c 5 -3 c 4 -7 c 4 -16 c 5 -3 c 4 2 c 5 0 c 4 -2 c 4 2 c 5 1 c 4 4 c 4 3 c 5 2 c 4 32 c 4 46 c 5 4 c 4 -33 c 5 20 c
4 255 c 4 372 c 5 31 c 4 -343 c 4 -342 c 5 -46 c 4 -4 c 5 -1 c 4 0 c 4 3 c 5 13 c 4 20 c 4 -3 c 5 -16 c 4 -11 c 5 -4 c 4 -2 c 4 -3 c
5 0 c 4 0 c 4 0 c 5 1 c 4 -2 c 5 -2 c 4 4 c 4 0 c 5 2 c 4 4 c 4 16 c 5 84 c 4 143 c 4 15 c 5 -124 c 4 -121 c 5 -16 c 4 0 c 4 8 c
5 35 c 4 13 c 4 -13 c 5 -33 c 4 -11 c 5 -2 c 4 -2 c 4 3 c 5 10 c 4 60 c 4 126 c 5 39 c 4 -84 c 5 -107 c 4 -27 c 4 -5 c 5 2 c 4 33 c
4 23 c 5 -13 c 4 -38 c 5 -20 c 4 -1 c 4 2 c 5 -2 c 4 2 c 4 3 c 5 7 c 4 0 c 4 1 c 5 -2 c 4 -3 c 5 -4 c 4 2 c 4 33 c 5 169 c 4 136 c
4 -39 c 5 -183 c 4 -98 c 5 -11 c 4 -5 c 4 -7 c 5 0 c 4 -1 c 4 1 c 5 -2 c 4 3 c 5 -2 c 4 0 c 4 0 c 5 2 c 4 -3 c 4 2 c 5 -1 c 4 -1 c
5 1 c 4 -1 c 4 2 c 5 -2 c 4 2 c 4 7 c 5 -4 c 4 -3 c 4 -1 c 5 0 c 4 0 c 5 0 c 4 1 c 4 0 c 5 5 c 4 10 c 4 4 c 5 -3 c 4 -10 c 5 -1 c
4 28 c 4 116 c 5 64 c 4 -43 c 4 -114 c 5 0 c 4 17 c 5 -14 c 4 -11 c 4 43 c 5 17 c 4 -2 c 4 105 c 5 95 c 4 -38 c 4 -189 c 5 -71 c
4 1 c 5 55 c 4 192 c 4 80 c 5 -16 c 4 -101 c 4 -52 c 5 -80 c 4 -70 c 5 14 c 4 5 c 4 -7 c 5 -21 c 4 -7 c 4 -1 c 5 0 c 4 -1 c 5 1 c
4 2 c 4 2 c 5 0 c 4 -2 c 4 -4 c 5 0 c 4 3 c 5 4 c 4 2 c 4 -4 c 5 -5 c 4 0 c 4 0 c 5 1 c 4 4 c 4 1 c 5 6 c 4 8 c 5 -5 c 4 -9 c 4 -4 c
5 -4 c 4 3 c 4 -1 c 5 8 c 4 51 c 5 34 c 4 -4 c 4 -56 c 5 -30 c 4 -1 c 4 0 c 5 0 c 4 -1 c 5 -2 c 4 3 c 4 -2 c 5 -1 c 4 0 c 4 1 c
5 0 c 4 2 c 5 -1 c 4 -2 c 4 2 c 5 0 c 4 0 c 4 0 c 5 1 c 4 -1 c 4 20 c 5 56 c 4 17 c 5 -24 c 4 -58 c 4 -11 c 5 1 c 4 10 c 4 2 c
5 -5 c 4 -7 c 5 1 c 4 4 c 4 1 c 5 -3 c 4 -1 c 4 -2 c 5 -1 c 4 2 c 5 0 c 4 3 c 4 6 c 5 6 c 4 -6 c 4 -8 c 5 5 c 4 19 c 5 6 c 4 -8 c
4 -20 c 5 -1 c 4 2 c 4 0 c 5 -4 c 4 -2 c 4 -1 c 5 2 c 4 2 c 5 1 c 4 6 c 4 48 c 5 38 c 4 -2 c 4 -64 c 5 -28 c 4 -1 c 5 3 c 4 3 c
4 0 c 5 0 c 4 -4 c 4 -3 c 5 1 c 4 -1 c 5 -1 c 4 1 c 4 1 c 5 1 c 4 5 c 4 2 c 5 -1 c 4 -3 c 4 -2 c 5 -1 c 4 0 c 5 1 c 4 10 c 4 41 c
5 15 c 4 -16 c 4 -45 c 5 -8 c 4 0 c 5 0 c 4 0 c 4 1 c 5 -2 c 4 1 c 4 0 c 5 7 c 4 60 c 5 90 c 4 4 c 4 -82 c 5 -67 c 4 -1 c 4 11 c
5 10 c 4 13 c 5 -1 c 4 -17 c 4 -20 c 5 -5 c 4 -1 c 4 -1 c 5 2 c 4 -1 c 4 2 c 5 0 c 4 3 c 5 0 c 4 0 c 4 -1 c 5 -2 c 4 6 c 4 18 c
5 5 c 4 -10 c 5 -18 c 4 -3 c 4 1 c 5 -1 c 4 3 c 4 3 c 5 0 c 4 0 c 5 2 c 4 3 c 4 -4 c 5 -3 c 4 4 c 4 18 c 5 5 c 4 -1 c 5 -15 c 4 -5 c
4 -5 c 5 -3 c 4 4 c 4 1 c 5 -4 c 4 -2 c 4 -2 c 5 0 c 4 0 c 5 2 c 4 -1 c 4 0 c 5 2 c 4 -2 c 4 -1 c 5 0 c 4 1 c 5 2 c 4 -2 c 4 2 c
5 8 c 4 44 c 4 24 c 5 -10 c 4 -47 c 5 -20 c 4 0 c 4 1 c 5 -2 c 4 -1 c 4 -1 c 5 2 c 4 -1 c 5 3 c 4 -3 c 4 0 c 5 4 c 4 16 c 4 14 c
5 -3 c 4 -18 c 4 -9 c 5 -1 c 4 4 c 5 0 c 4 1 c 4 -1 c 5 -3 c 4 -1 c 4 -1 c 5 -2 c 4 3 c 5 1 c 4 5 c 4 25 c 5 35 c 4 -4 c 4 -34 c
5 -26 c 4 -1 c 5 3 c 4 27 c 4 218 c 5 255 c 4 -15 c 4 -261 c 5 -207 c 4 -16 c 5 3 c 4 -1 c 4 -2 c 5 -3 c 4 -1 c 4 -3 c 5 0 c 4 0 c
4 1 c 5 1 c 4 -2 c 5 0 c 4 -1 c 4 0 c 5 1 c 4 1 c 4 0 c 5 2 c 4 0 c 5 -1 c 4 0 c 4 0 c 5 -1 c 4 3 c 4 0 c 5 -1 c 4 0 c 5 0 c 4 0 c
4 -1 c 5 0 c 4 0 c 4 1 c 5 3 c 4 1 c 4 1 c 5 3 c 4 -3 c 5 3 c 4 -1 c 4 4 c 5 -3 c 4 -5 c 4 -4 c 5 -1 c 4 0 c 5 -2 c 4 2 c 4 0 c
5 -1 c 4 3 c 4 3 c 5 -3 c 4 -1 c 5 -2 c 4 1 c 4 0 c 5 -1 c 4 0 c 4 1 c 5 -3 c 4 2 c 5 1 c 4 -1 c 4 2 c 5 8 c 4 20 c 4 -2 c 5 -11 c
4 -14 c 4 -3 c 5 0 c 4 2 c 5 2 c 4 -3 c 4 1 c 5 0 c 4 3 c 4 23 c 5 187 c 4 248 c 5 2 c 4 -202 c 4 -229 c 5 -26 c 4 -1 c 4 0 c 5 -3 c
4 0 c 5 -3 c 4 2 c 4 0 c 5 7 c 4 3 c 4 -3 c 5 -5 c 4 0 c 5 -2 c 4 2 c 4 21 c 5 105 c 4 74 c 4 -32 c 5 -110 c 4 -50 c 4 33 c 5 22 c
4 6 c 5 30 c 4 82 c 4 -4 c 5 -82 c 4 -38 c 4 7 c 5 -3 c 4 -26 c 5 -14 c 4 -14 c 4 -11 c 5 1 c 4 2 c 4 14 c 5 20 c 4 3 c 5 -18 c
4 -19 c 4 1 c 5 -1 c 4 0 c 4 -1 c 5 -1 c 4 4 c 5 -1 c 4 -2 c 4 0 c 5 20 c 4 49 c 4 7 c 5 -29 c 4 -36 c 4 -3 c 5 40 c 4 43 c 5 -4 c
4 -42 c 4 -28 c 5 6 c 4 -1 c 4 -9 c 5 -14 c 4 -3 c 5 2 c 4 -2 c 4 1 c 5 3 c 4 -2 c 4 0 c 5 0 c 4 2 c 5 -1 c 4 -2 c 4 0 c 5 1 c 4 0 c
4 0 c 5 2 c 4 3 c 5 19 c 4 114 c 4 103 c 5 -22 c 4 -113 c 4 -88 c 5 -6 c 4 -9 c 4 -3 c 5 0 c 4 6 c 5 0 c 4 -2 c 4 -4 c 5 -1 c 4 7 c
4 7 c 5 6 c 4 9 c 5 23 c 4 10 c 4 -83 c 5 37 c 4 -12 c 4 -3 c 5 3 c 4 0 c 5 4 c 4 -2 c 4 -2 c 5 -2 c 4 0 c 4 4 c 5 7 c 4 4 c 4 3 c
5 -11 c 4 -7 c 5 0 c 4 2 c 4 1 c 5 4 c 4 1 c 4 -1 c 5 -2 c 4 4 c 5 75 c 4 338 c 4 220 c 5 -91 c 4 -348 c 4 -179 c 5 -9 c 4 14 c
5 18 c 4 38 c 4 61 c 5 16 c 4 -41 c 4 -88 c 5 -30 c 4 -1 c 5 -2 c 4 2 c 4 -2 c 5 3 c 4 1 c 4 -2 c 5 4 c 4 -2 c 4 3 c 5 25 c 4 177 c
5 194 c 4 5 c 4 -202 c 5 -172 c 4 -31 c 4 -4 c 5 2 c 4 -1 c 5 -1 c 4 1 c 4 1 c 5 3 c 4 0 c 4 -5 c 5 6 c 4 10 c 5 -1 c 4 -4 c 4 -7 c
5 2 c 4 -1 c 4 -3 c 5 -4 c 4 1 c 5 -2 c 4 2 c 4 -1 c 5 1 c 4 0 c 4 1 c 5 0 c 4 1 c 4 1 c 5 4 c 4 -4 c 5 2 c 4 -1 c 4 2 c 5 -1 c
4 2 c 4 -2 c 5 0 c 4 -2 c 5 0 c 4 -3 c 4 0 c 5 4 c 4 3 c 4 3 c 5 5 c 4 13 c 5 11 c 4 -7 c 4 -19 c 5 -11 c 4 0 c 4 1 c 5 -2 c 4 0 c
5 -2 c 4 0 c 4 2 c 5 2 c 4 1 c 4 2 c 5 -3 c 4 -1 c 4 -1 c 5 3 c 4 21 c 5 12 c 4 -4 c 4 -19 c 5 -10 c 4 -2 c 4 -1 c 5 1 c 4 -1 c
5 0 c 4 -1 c 4 2 c 5 -5 c 4 3 c 4 3 c 5 10 c 4 2 c 5 -2 c 4 -12 c 4 -4 c 5 2 c 4 4 c 4 12 c 5 18 c 4 27 c 4 12 c 5 4 c 4 -24 c
5 -24 c 4 -20 c 4 -6 c 5 -23 c 4 23 c 4 2 c 5 1 c 4 -3 c 5 -1 c 4 2 c 4 3 c 5 0 c 4 5 c 4 6 c 5 -3 c 4 -3 c 5 -10 c 4 -22 c 4 0 c
5 22 c 4 -2 c 4 7 c 5 3 c 4 5 c 5 -2 c 4 -5 c 4 -7 c 5 1 c 4 3 c 4 -2 c 5 -1 c 4 -2 c 4 1 c 5 -1 c 4 1 c 5 3 c 4 0 c 4 -1 c 5 4 c
4 -1 c 4 -3 c 5 1 c 4 -1 c 5 -2 c 4 0 c 4 1 c 5 1 c 4 2 c 4 3 c 5 4 c 4 28 c 5 246 c 4 358 c 4 43 c 5 -269 c 4 -343 c 4 -65 c 5 -4 c
4 0 c 5 1 c 4 8 c 4 14 c 5 4 c 4 25 c 4 87 c 5 32 c 4 -42 c 4 -96 c 5 -34 c 4 0 c 5 5 c 4 10 c 4 33 c 5 11 c 4 -10 c 4 -25 c 5 -2 c
4 -1 c 5 -10 c 4 -12 c 4 -2 c 5 -1 c 4 1 c 4 4 c 5 0 c 4 -1 c 5 0 c 4 -1 c 4 -2 c 5 0 c 4 2 c 4 -1 c 5 0 c 4 1 c 5 1 c 4 3 c 4 -4 c
5 1 c 4 6 c 4 26 c 5 35 c 4 5 c 4 -22 c 5 -28 c 4 -12 c 5 0 c 4 -6 c 4 -7 c 5 0 c 4 3 c 4 6 c 5 0 c 4 -5 c 5 -5 c 4 -1 c 4 2 c 5 0 c
4 4 c 4 9 c 5 4 c 4 -2 c 5 -11 c 4 -2 c 4 -1 c 5 -1 c 4 1 c 4 0 c 5 0 c 4 -3 c 5 1 c 4 0 c 4 1 c 5 0 c 4 1 c 4 1 c 5 1 c 4 0 c
4 -2 c 5 -1 c 4 -1 c 5 0 c 4 0 c 4 1 c 5 1 c 4 1 c 4 -1 c 5 -2 c 4 2 c 5 1 c 4 1 c 4 1 c 5 -3 c 4 2 c 4 2 c 5 0 c 4 -4 c 5 -3 c
4 2 c 4 4 c 5 18 c 4 4 c 4 -4 c 5 -13 c 4 -8 c 4 1 c 5 5 c 4 4 c 5 -2 c 4 10 c 4 16 c 5 5 c 4 -10 c 4 -19 c 5 -11 c 4 1 c 5 2 c
4 -2 c 4 0 c 5 0 c 4 -1 c 4 2 c 5 -1 c 4 2 c 5 7 c 4 13 c 4 26 c 5 5 c 4 -16 c 4 -23 c 5 -11 c 4 0 c 5 -2 c 4 -1 c 4 0 c 5 0 c
4 -2 c 4 3 c 5 4 c 4 4 c 4 2 c 5 -6 c 4 -3 c 5 -1 c 4 -2 c 4 -1 c 5 0 c 4 1 c 4 7 c 5 8 c 4 -1 c 5 -5 c 4 -10 c 4 -1 c 5 1 c 4 1 c
4 3 c 5 5 c 4 16 c 5 11 c 4 -6 c 4 -20 c 5 -7 c 4 -3 c 4 -21 c 5 27 c 4 -1 c 5 -3 c 4 0 c 4 3 c 5 12 c 4 9 c 4 -3 c 5 -9 c 4 -6 c
4 -6 c 5 -1 c 4 -3 c 5 1 c 4 0 c 4 -1 c 5 6 c 4 1 c 4 4 c 5 6 c 4 3 c 5 -6 c 4 -9 c 4 -3 c 5 3 c 4 2 c 4 -3 c 5 -1 c 4 2 c 5 -1 c
4 1 c 4 4 c 5 10 c 4 19 c 4 11 c 5 -2 c 4 -14 c 5 -14 c 4 -6 c 4 -6 c 5 0 c 4 5 c 4 3 c 5 -3 c 4 -2 c 4 -6 c 5 1 c 4 1 c 5 2 c 4 5 c
4 0 c 5 -1 c 4 -3 c 4 -2 c 5 1 c 4 11 c 5 40 c 4 49 c 4 -7 c 5 -45 c 4 -40 c 4 -6 c 5 1 c 4 -2 c 5 -1 c 4 4 c 4 2 c 5 1 c 4 -4 c
4 -3 c 5 -1 c 4 3 c 5 1 c 4 1 c 4 -7 c 5 0 c 4 -2 c 4 3 c 5 0 c 4 0 c 4 1 c 5 10 c 4 39 c 5 25 c 4 -3 c 4 -38 c 5 -25 c 4 0 c 4 0 c
5 -2 c 4 1 c 5 1 c 4 5 c 4 7 c 5 14 c 4 86 c 4 410 c 5 1074 c 4 628 c 5 -261 c 4 -1098 c 4 -704 c 5 -109 c 4 -27 c 4 -8 c 5 -5 c
4 -4 c 4 -3 c 5 0 c 4 -5 c 5 -4 c 4 1 c 4 6 c 5 3 c 4 5 c 4 8 c 5 3 c 4 -1 c 5 -15 c 4 -4 c 4 2 c 5 2 c 4 4 c 4 -4 c 5 -4 c 4 -4 c
5 -2 c 4 2 c 4 4 c 5 7 c 4 12 c 4 7 c 5 0 c 4 -11 c 5 -8 c 4 6 c 4 1 c 5 -1 c 4 7 c 4 8 c 5 9 c 4 13 c 4 9 c 5 41 c 4 364 c 5 3394 c
1 2315 c 4 -4920 7254 7019 l 4 -1079 c 5 -82 c 4 -31 c 5 -18 c 4 -13 c 4 6 c 5 8 c 4 1 c 4 -7 c 5 -12 c 4 9 c 5 154 c 4 190 c 4 44 c
5 11 c 4 876 c 4 1204 c 5 419 c 4 -951 c 5 -1172 c 4 -563 c 4 -213 c 5 -20 c 4 -5 c 4 -4 c 5 0 c 4 11 c 4 21 c 5 3 c 4 26 c 5 184 c
4 105 c 4 -13 c 5 -198 c 4 -36 c 4 170 c 5 93 c 4 -81 c 5 -189 c 4 -89 c 4 -15 c 5 -1 c 4 1 c 4 4 c 5 1 c 4 9 c 5 22 c 4 -1 c
4 -11 c 5 -24 c 4 -4 c 4 0 c 5 0 c 4 -2 c 5 3 c 4 2 c 4 2 c 5 1 c 4 5 c 4 5 c 5 -4 c 4 -9 c 4 2 c 5 7 c 4 2 c 5 33 c 4 225 c 4 189 c
5 -3 c 4 -229 c 4 -192 c 5 26 c 4 53 c 5 3 c 4 -50 c 4 -47 c 5 -5 c 4 14 c 4 2 c 5 -8 c 4 -12 c 5 -3 c 4 -2 c 4 3 c 5 5 c 4 9 c
4 5 c 5 7 c 4 33 c 5 248 c 4 2085 c 4 3259 c 5 358 c 4 -2153 c 4 -3139 c 5 -647 c 4 -34 c 4 -14 c 5 -3 c 4 -1 c 5 16 c 4 224 c
4 961 c 5 626 c 4 -130 c 4 -897 c 5 -622 c 4 -88 c 5 -85 c 4 -23 c 4 -1 c 5 -5 c 4 -2 c 4 -1 c 5 0 c 4 -4 c 5 1 c 4 2 c 4 4 c 5 46 c
4 149 c 4 69 c 5 -47 c 4 -141 c 4 -75 c 5 -4 c 4 -3 c 5 -4 c 4 1 c 4 -1 c 5 2 c 4 -1 c 4 1 c 5 -2 c 4 -2 c 5 1 c 4 -2 c 4 2 c 5 2 c
4 -2 c 4 1 c 5 1 c 4 1 c 5 -2 c 4 1 c 4 -1 c 5 -1 c 4 -2 c 4 9 c 5 26 c 4 16 c 5 -9 c 4 -21 c 4 -20 c 5 -2 c 4 3 c 4 1 c 5 -3 c
4 1 c 4 0 c 5 0 c 4 2 c 5 11 c 4 44 c 4 110 c 5 13 c 4 -58 c 4 -86 c 5 -29 c 4 2 c 5 1 c 4 -2 c 4 -3 c 5 2 c 4 5 c 4 6 c 5 0 c
4 -7 c 5 -9 c 4 -4 c 4 3 c 5 -1 c 4 -1 c 4 0 c 5 -1 c 4 2 c 5 1 c 4 -1 c 4 0 c 5 3 c 4 5 c 4 2 c 5 -5 c 4 2 c 4 3 c 5 3 c 4 4 c
5 50 c 4 178 c 4 124 c 5 -16 c 4 -175 c 4 -140 c 5 -29 c 4 3 c 5 5 c 4 13 c 4 32 c 5 10 c 4 -17 c 4 -35 c 5 -19 c 4 -2 c 5 -1 c
4 -1 c 4 -1 c 5 0 c 4 4 c 4 -2 c 5 0 c 4 4 c 5 0 c 4 -3 c 4 1 c 5 0 c 4 3 c 4 2 c 5 -1 c 4 -3 c 4 0 c 5 2 c 4 2 c 5 3 c 4 53 c
4 91 c 5 15 c 4 -57 c 4 -91 c 5 -15 c 4 4 c 5 6 c 4 -4 c 4 -3 c 5 -4 c 4 1 c 4 -2 c 5 2 c 4 2 c 5 -1 c 4 -2 c 4 -2 c 5 2 c 4 1 c
4 6 c 5 2 c 4 -3 c 4 -6 c 5 1 c 4 1 c 5 -3 c 4 1 c 4 -1 c 5 3 c 4 -3 c 4 1 c 5 -1 c 4 6 c 5 1 c 4 -3 c 4 -7 c 5 1 c 4 2 c 4 2 c
5 0 c 4 -5 c 5 1 c 4 0 c 4 -1 c 5 -1 c 4 2 c 4 -1 c 5 3 c 4 -1 c 5 3 c 4 8 c 4 28 c 5 44 c 4 294 c 4 329 c 5 -39 c 4 -287 c 4 -332 c
5 -27 c 4 11 c 5 -1 c 4 -15 c 4 -12 c 5 -2 c 4 0 c 4 -3 c 5 -3 c 4 1 c 5 2 c 4 3 c 4 15 c 5 28 c 4 7 c 4 -14 c 5 -12 c 4 28 c 5 7 c
4 -13 c 4 -20 c 5 18 c 4 3 c 4 -14 c 5 -29 c 4 -4 c 5 -2 c 4 3 c 4 0 c 5 0 c 4 14 c 4 88 c 5 102 c 4 4 c 4 -93 c 5 -100 c 4 -13 c
5 2 c 4 -1 c 4 0 c 5 0 c 4 13 c 4 118 c 5 644 c 4 428 c 5 -62 c 4 -629 c 4 -471 c 5 -39 c 4 -3 c 4 -3 c 5 0 c 4 4 c 5 1 c 4 -2 c
4 -1 c 5 -3 c 4 -1 c 4 -2 c 5 1 c 4 -3 c 5 0 c 4 0 c 4 1 c 5 3 c 4 -2 c 4 1 c 5 -1 c 4 -1 c 4 1 c 5 0 c 4 0 c 5 1 c 4 0 c 4 5 c
5 13 c 4 0 c 4 -4 c 5 -10 c 4 0 c 5 -2 c 4 0 c 4 1 c 5 3 c 4 0 c 4 0 c 5 2 c 4 14 c 5 2 c 4 0 c 4 -11 c 5 -2 c 4 -4 c 4 9 c 5 4 c
4 4 c 5 7 c 4 16 c 4 42 c 5 238 c 4 1203 c 4 1426 c 5 151 c 4 -1050 c 4 -1522 c 5 -394 c 4 -56 c 5 -24 c 4 -18 c 4 -8 c 5 -12 c
4 -8 c 4 -3 c 5 3 c 4 -1 c 5 0 c 4 -3 c 4 -3 c 5 0 c 4 -8 c 4 2 c 5 3 c 4 15 c 5 8 c 4 -7 c 4 -11 c 5 12 c 4 24 c 4 8 c 5 -19 c
4 -27 c 4 -4 c 5 -1 c 4 -5 c 5 -1 c 4 2 c 4 -1 c 5 0 c 4 0 c 4 0 c 5 1 c 4 4 c 5 9 c 4 39 c 4 103 c 5 37 c 4 -38 c 4 -108 c 5 -41 c
4 -5 c 5 0 c 4 1 c 4 0 c 5 0 c 4 3 c 4 4 c 5 1 c 4 -1 c 5 4 c 4 84 c 4 100 c 5 -4 c 4 -84 c 4 -92 c 5 -8 c 4 8 c 4 6 c 5 -5 c 4 -2 c
5 -8 c 4 -5 c 4 -4 c 5 0 c 4 0 c 4 3 c 5 -1 c 4 -1 c 5 1 c 4 -2 c 4 1 c 5 0 c 4 0 c 4 2 c 5 3 c 4 7 c 5 5 c 4 8 c 4 15 c 5 7 c
4 -7 c 4 -22 c 5 -18 c 4 -1 c 5 -2 c 4 1 c 4 -1 c 5 0 c 4 4 c 4 7 c 5 3 c 4 -2 c 4 -9 c 5 -4 c 4 3 c 5 -2 c 4 0 c 4 0 c 5 0 c 4 0 c
4 -1 c 5 1 c 4 1 c 5 2 c 4 0 c 4 -3 c 5 3 c 4 0 c 4 -2 c 5 -1 c 4 1 c 5 -1 c 4 2 c 4 1 c 5 0 c 4 1 c 4 -2 c
5 -1 c 4 5 c 5 -2 c 4 0 c 4 -21 c 5 0 c 4 17 c 4 4 c 5 0 c 4 -2 c 4 -1 c 5 0 c 4 0 c 5 4 c 4 0 c 4 0 c 5 -1 c 4 -2 c 4 -2 c 5 0 c
4 1 c 5 -1 c 4 -1 c 4 2 c 5 3 c 4 23 c 4 33 c 5 3 c 4 -18 c 5 -38 c 4 -5 c 4 -1 c 5 -1 c 4 -2 c 4 4 c 5 0 c 4 0 c 5 -1 c 4 10 c
4 60 c 5 53 c 4 8 c 4 -60 c 5 -60 c 4 -9 c
0 -126 3315 418 l 54 0 3315 418 l 18 -6 c 6 -6 c 6 -12 c 0 -12 c -6 -12 c -6 -6 c -18 -6 c -54 0 c 42 -66 3357 358 l
-12 -6 3465 376 l -12 -12 c -6 -18 c 0 -12 c 6 -18 c 12 -12 c 12 -6 c 18 0 c 12 6 c 12 12 c 6 18 c 0 12 c -6 18 c -12 12 c -12 6 c
-18 0 c 24 -84 3549 376 l -24 -84 3597 376 l 24 -84 3597 376 l -24 -84 3645 376 l 108 0 3687 364 l 108 0 3687 328 l 0 6 4035 388 l
6 12 c 6 6 c 12 6 c 24 0 c 12 -6 c 6 -6 c 6 -12 c 0 -12 c -6 -12 c -12 -18 c -60 -60 c 84 0 c -12 -6 4275 376 l -12 -12 c -6 -18 c
0 -12 c 6 -18 c 12 -12 c 12 -6 c 18 0 c 12 6 c 12 12 c 6 18 c 0 12 c -6 18 c -12 12 c -12 6 c -18 0 c -12 0 4401 418 l -12 -6 c
-6 -18 c 0 -102 c 42 0 4353 376 l 66 0 4539 418 l -36 -48 c 18 0 c 12 -6 c 6 -6 c 6 -18 c 0 -12 c -6 -18 c -12 -12 c -18 -6 c
-18 0 c -18 6 c -6 6 c -6 12 c -6 -18 4725 376 l -12 -12 c -18 -6 c -6 0 c -18 6 c -12 12 c -6 18 c 0 6 c 6 18 c 12 12 c 18 6 c
6 0 c 18 -6 c 12 -12 c 6 -24 c 0 -30 c -6 -30 c -12 -18 c -18 -6 c -12 0 c -18 6 c -6 12 c 12 6 5169 394 l 18 18 c 0 -126 c
-6 -6 5282 376 l 6 -6 c 6 6 c -6 6 c -6 -6 5282 304 l 6 -6 c 6 6 c -6 6 c -48 -126 5462 418 l 48 -126 5462 418 l 60 0 5432 334 l
0 -84 5540 376 l 6 18 5540 340 l 12 12 c 12 6 c 18 0 c -12 12 5684 358 l -12 6 c -18 0 c -12 -6 c -12 -12 c -6 -18 c 0 -12 c 6 -18 c
12 -12 c 12 -6 c 18 0 c 12 6 c 12 12 c 108 0 5726 346 l -18 -6 5912 418 l -12 -18 c -6 -30 c 0 -18 c 6 -30 c 12 -18 c 18 -6 c 12 0 c
18 6 c 12 18 c 6 30 c 0 18 c -6 30 c -12 18 c -18 6 c -12 0 c 66 0 6008 418 l -36 -48 c 18 0 c 12 -6 c 6 -6 c 6 -18 c 0 -12 c
-6 -18 c -12 -12 c -18 -6 c -18 0 c -18 6 c -6 6 c -6 12 c -60 0 6188 418 l -6 -54 c 6 6 c 18 6 c 18 0 c 18 -6 c 12 -12 c 6 -18 c
0 -12 c -6 -18 c -12 -12 c -18 -6 c -18 0 c -18 6 c -6 6 c -6 12 c -6 -6 6248 304 l 6 -6 c 6 6 c -6 6 c -12 0 6338 418 l -12 -6 c
-6 -18 c 0 -102 c 42 0 6290 376 l 6 -6 6368 418 l 6 6 c -6 6 c -6 -6 c 0 -84 6374 376 l 0 -102 6428 418 l 6 -18 c 12 -6 c 12 0 c
42 0 6410 376 l -6 12 6554 358 l -18 6 c -18 0 c -18 -6 c -6 -12 c 6 -12 c 12 -6 c 30 -6 c 12 -6 c 6 -12 c 0 -6 c -6 -12 c -18 -6 c
-18 0 c -18 6 c -6 12 c 0 -192 6884 442 l 0 -192 6890 442 l 42 0 6884 442 l 42 0 6884 250 l 0 6 6968 388 l 6 12 c 6 6 c 12 6 c
24 0 c 12 -6 c 6 -6 c 6 -12 c 0 -12 c -6 -12 c -12 -18 c -60 -60 c 84 0 c -6 -6 7094 376 l 6 -6 c 6 6 c -6 6 c -6 -6 7094 304 l
6 -6 c 6 6 c -6 6 c 0 -192 7274 442 l 0 -192 7280 442 l 42 0 7238 442 l 42 0 7238 250 l
0 -249 2148 1362 l 0 41 2104 1442 l 31 -22 c 0 11 c 3 8 c 4 3 c 12 4 c 7 0 c 11 -4 c 8 -7 c 4 -12 c 0 -11 c -4 -11 c -4 -4 c -7 -4 c
-8 -4 2116 1559 l -4 -11 c 0 -8 c 4 -11 c 11 -8 c 19 -3 c 19 0 c 15 3 c 8 8 c 4 11 c 0 4 c -4 11 c -8 8 c -11 4 c -4 0 c -11 -4 c
-8 -8 c -3 -11 c 0 -4 c 3 -11 c 8 -8 c 11 -3 c 4 -11 2104 1604 l 8 -4 c 7 0 c 8 4 c 4 8 c 3 15 c 4 11 c 8 8 c 7 3 c 12 0 c 7 -3 c
4 -4 c 4 -12 c 0 -15 c -4 -11 c -4 -4 c -7 -4 c -12 0 c -7 4 c -8 8 c -4 11 c -3 15 c -4 8 c -8 4 c -7 0 c -8 -4 c -4 -12 c 0 -15 c
4 -11 2104 1680 l 8 -4 c 7 0 c 8 4 c 4 7 c 3 15 c 4 12 c 8 7 c 7 4 c 12 0 c 7 -4 c 4 -4 c 4 -11 c 0 -15 c -4 -11 c -4 -4 c -7 -4 c
-12 0 c -7 4 c -8 7 c -4 12 c -3 15 c -4 7 c -8 4 c -7 0 c -8 -4 c -4 -11 c 0 -15 c 4 -4 2176 1744 l 4 4 c -4 4 c -4 -4 c
80 -38 2104 1827 l 0 53 2104 1774 l -8 -4 2116 1899 l -4 -11 c 0 -8 c 4 -11 c 11 -7 c 19 -4 c 19 0 c 15 4 c 8 7 c 4 11 c 0 4 c
-4 12 c -8 7 c -11 4 c -4 0 c -11 -4 c -8 -7 c -3 -12 c 0 -4 c 3 -11 c 8 -7 c 11 -4 c 4 -11 2104 1948 l 11 -8 c 19 -3 c 12 0 c
19 3 c 11 8 c 4 11 c 0 8 c -4 11 c -11 8 c -19 3 c -12 0 c -19 -3 c -11 -8 c -4 -11 c 0 -8 c 0 -249 2448 2005 l 0 41 2404 2085 l
30 -22 c 0 11 c 4 8 c 4 3 c 11 4 c 8 0 c 11 -4 c 8 -7 c 4 -12 c 0 -11 c -4 -11 c -4 -4 c -8 -4 c -8 -4 2416 2202 l -4 -11 c 0 -8 c
4 -11 c 11 -8 c 19 -3 c 19 0 c 15 3 c 8 8 c 4 11 c 0 4 c -4 11 c -8 8 c -11 4 c -4 0 c -11 -4 c -8 -8 c -4 -11 c 0 -4 c 4 -11 c
8 -8 c 11 -3 c 11 -4 2431 2278 l 8 -8 c 3 -11 c 0 -4 c -3 -11 c -8 -8 c -11 -4 c -4 0 c -11 4 c -8 8 c -4 11 c 0 4 c 4 11 c 8 8 c
15 4 c 19 0 c 18 -4 c 12 -8 c 4 -11 c 0 -8 c -4 -11 c -8 -4 c 4 -12 2404 2327 l 11 -7 c 19 -4 c 12 0 c 18 4 c 12 7 c 4 12 c 0 7 c
-4 12 c -12 7 c -18 4 c -12 0 c -19 -4 c -11 -7 c -4 -12 c 0 -7 c 4 -4 2476 2387 l 4 4 c -4 4 c -4 -4 c -8 -4 2416 2467 l -4 -12 c
0 -7 c 4 -11 c 11 -8 c 19 -4 c 19 0 c 15 4 c 8 8 c 4 11 c 0 4 c -4 11 c -8 8 c -11 3 c -4 0 c -11 -3 c -8 -8 c -4 -11 c 0 -4 c
4 -11 c 8 -8 c 11 -4 c -4 0 2423 2497 l -7 4 c -4 3 c -4 8 c 0 15 c 4 8 c 4 3 c 7 4 c 8 0 c 7 -4 c 12 -7 c 38 -38 c 0 53 c
53 -37 2404 2606 l 0 56 c 80 0 2404 2606 l 0 -249 2761 1610 l 0 41 2718 1690 l 30 -22 c 0 11 c 4 7 c 4 4 c 11 4 c 7 0 c 12 -4 c
7 -7 c 4 -12 c 0 -11 c -4 -11 c -3 -4 c -8 -4 c -7 -4 2729 1807 l -4 -11 c 0 -8 c 4 -11 c 11 -8 c 19 -4 c 19 0 c 15 4 c 7 8 c 4 11 c
0 4 c -4 11 c -7 8 c -12 4 c -3 0 c -12 -4 c -7 -8 c -4 -11 c 0 -4 c 4 -11 c 7 -8 c 12 -4 c 12 -3 2744 1882 l 7 -8 c 4 -11 c 0 -4 c
-4 -11 c -7 -8 c -12 -4 c -4 0 c -11 4 c -7 8 c -4 11 c 0 4 c 4 11 c 7 8 c 15 3 c 19 0 c 19 -3 c 11 -8 c 4 -11 c 0 -8 c -4 -11 c
-7 -4 c -4 0 2737 1913 l -8 3 c -3 4 c -4 8 c 0 15 c 4 7 c 3 4 c 8 4 c 7 0 c 8 -4 c 11 -7 c 38 -38 c 0 53 c 3 -4 2790 1992 l 4 4 c
-4 4 c -3 -4 c 0 -38 2718 2068 l 34 -4 c -4 4 c -4 11 c 0 12 c 4 11 c 8 7 c 11 4 c 7 0 c 12 -4 c 7 -7 c 4 -11 c 0 -12 c -4 -11 c
-3 -4 c -8 -4 c -7 -4 2729 2147 l -4 -11 c 0 -8 c 4 -11 c 11 -8 c 19 -3 c 19 0 c 15 3 c 7 8 c 4 11 c 0 4 c -4 11 c -7 8 c -12 4 c
-3 0 c -12 -4 c -7 -8 c -4 -11 c 0 -4 c 4 -11 c 7 -8 c 12 -3 c -7 -4 2729 2223 l -4 -12 c 0 -7 c 4 -11 c 11 -8 c 19 -4 c 19 0 c
15 4 c 7 8 c 4 11 c 0 4 c -4 11 c -7 8 c -12 3 c -3 0 c -12 -3 c -7 -8 c -4 -11 c 0 -4 c 4 -11 c 7 -8 c 12 -4 c 0 -249 3203 1359 l
0 42 3159 1438 l 31 -23 c 0 12 c 3 7 c 4 4 c 11 4 c 8 0 c 11 -4 c 8 -8 c 4 -11 c 0 -11 c -4 -12 c -4 -3 c -7 -4 c -8 -4 3171 1556 l
-4 -12 c 0 -7 c 4 -11 c 11 -8 c 19 -4 c 19 0 c 15 4 c 8 8 c 4 11 c 0 4 c -4 11 c -8 8 c -11 3 c -4 0 c -11 -3 c -8 -8 c -3 -11 c
0 -4 c 3 -11 c 8 -8 c 11 -4 c 11 -4 3186 1631 l 8 -7 c 3 -11 c 0 -4 c -3 -12 c -8 -7 c -11 -4 c -4 0 c -11 4 c -8 7 c -4 12 c 0 4 c
4 11 c 8 7 c 15 4 c 19 0 c 19 -4 c 11 -7 c 4 -11 c 0 -8 c -4 -11 c -8 -4 c 0 -38 3159 1703 l 34 -4 c -3 4 c -4 12 c 0 11 c 4 11 c
7 8 c 11 4 c 8 0 c 11 -4 c 8 -8 c 4 -11 c 0 -11 c -4 -12 c -4 -4 c -7 -3 c 4 -4 3231 1741 l 4 4 c -4 4 c -4 -4 c -4 0 3178 1775 l
-7 4 c -4 3 c -4 8 c 0 15 c 4 8 c 4 3 c 7 4 c 8 0 c 8 -4 c 11 -7 c 38 -38 c 0 53 c 4 -12 3159 1866 l 8 -4 c 7 0 c 8 4 c 4 8 c 3 15 c
4 11 c 8 8 c 7 4 c 12 0 c 7 -4 c 4 -4 c 4 -11 c 0 -15 c -4 -12 c -4 -4 c -7 -3 c -12 0 c -7 3 c -8 8 c -4 11 c -3 15 c -4 8 c -8 4 c
-7 0 c -8 -4 c -4 -11 c 0 -15 c 11 -3 3186 1971 l 8 -8 c 3 -11 c 0 -4 c -3 -11 c -8 -8 c -11 -4 c -4 0 c -11 4 c -8 8 c -4 11 c
0 4 c 4 11 c 8 8 c 15 3 c 19 0 c 19 -3 c 11 -8 c 4 -11 c 0 -8 c -4 -11 c -8 -4 c 0 -250 3663 1428 l 0 42 3619 1507 l 31 -23 c 0 12 c
3 7 c 4 4 c 12 4 c 7 0 c 11 -4 c 8 -8 c 4 -11 c 0 -11 c -4 -12 c -4 -4 c -7 -3 c -8 -3 3631 1624 l -4 -12 c 0 -7 c 4 -12 c 12 -7 c
18 -4 c 19 0 c 15 4 c 8 7 c 4 12 c 0 4 c -4 11 c -8 7 c -11 4 c -4 0 c -11 -4 c -8 -7 c -3 -11 c 0 -4 c 3 -12 c 8 -7 c 11 -4 c
11 -4 3646 1700 l 8 -7 c 4 -12 c 0 -3 c -4 -12 c -8 -7 c -11 -4 c -4 0 c -11 4 c -8 7 c -4 12 c 0 3 c 4 12 c 8 7 c 15 4 c 19 0 c
19 -4 c 11 -7 c 4 -12 c 0 -7 c -4 -12 c -8 -3 c 4 -11 3619 1745 l 8 -4 c 7 0 c 8 4 c 4 8 c 3 15 c 4 11 c 8 8 c 7 3 c 12 0 c 7 -3 c
4 -4 c 4 -11 c 0 -16 c -4 -11 c -4 -4 c -7 -4 c -12 0 c -7 4 c -8 8 c -4 11 c -3 15 c -4 8 c -8 4 c -7 0 c -8 -4 c -4 -11 c 0 -16 c
4 -4 3691 1810 l 4 4 c -4 3 c -4 -3 c -4 8 3635 1851 l -12 11 c 80 0 c 4 -11 3619 1938 l 12 -8 c 18 -4 c 12 0 c 19 4 c 11 8 c 4 11 c
0 8 c -4 11 c -11 8 c -19 3 c -12 0 c -18 -3 c -12 -8 c -4 -11 c 0 -8 c -8 -4 3631 2040 l -4 -11 c 0 -7 c 4 -12 c 12 -7 c 18 -4 c
19 0 c 15 4 c 8 7 c 4 12 c 0 3 c -4 12 c -8 7 c -11 4 c -4 0 c -11 -4 c -8 -7 c -3 -12 c 0 -3 c 3 -12 c 8 -7 c 11 -4 c
0 -249 4507 1732 l 0 41 4463 1812 l 30 -22 c 0 11 c 4 8 c 4 3 c 11 4 c 8 0 c 11 -4 c 8 -7 c 3 -12 c 0 -11 c -3 -11 c -4 -4 c -8 -4 c
79 -38 4463 1933 l 0 53 4463 1880 l 4 -11 4463 1978 l 11 -8 c 19 -4 c 11 0 c 19 4 c 12 8 c 3 11 c 0 8 c -3 11 c -12 8 c -19 3 c
-11 0 c -19 -3 c -11 -8 c -4 -11 c 0 -8 c 0 41 4463 2039 l 30 -23 c 0 12 c 4 7 c 4 4 c 11 4 c 8 0 c 11 -4 c 8 -7 c 3 -12 c 0 -11 c
-3 -11 c -4 -4 c -8 -4 c 4 -4 4535 2114 l 3 4 c -3 4 c -4 -4 c -4 0 4482 2148 l -7 4 c -4 4 c -4 7 c 0 15 c 4 8 c 4 4 c 7 3 c 8 0 c
7 -3 c 12 -8 c 37 -38 c 0 53 c 0 41 4463 2228 l 30 -23 c 0 12 c 4 7 c 4 4 c 11 4 c 8 0 c 11 -4 c 8 -7 c 3 -12 c 0 -11 c -3 -11 c
-4 -4 c -8 -4 c 4 -11 4463 2318 l 11 -8 c 19 -3 c 11 0 c 19 3 c 12 8 c 3 11 c 0 8 c -3 11 c -12 8 c -19 3 c -11 0 c -19 -3 c
-11 -8 c -4 -11 c 0 -8 c 0 -249 5095 1911 l 0 41 5052 1991 l 30 -22 c 0 11 c 4 8 c 3 3 c 12 4 c 7 0 c 12 -4 c 7 -7 c 4 -12 c 0 -11 c
-4 -11 c -4 -4 c -7 -4 c 79 -38 5052 2112 l 0 53 5052 2059 l 3 -11 5052 2157 l 12 -8 c 19 -4 c 11 0 c 19 4 c 11 8 c 4 11 c 0 8 c
-4 11 c -11 8 c -19 3 c -11 0 c -19 -3 c -12 -8 c -3 -11 c 0 -8 c -8 -4 5063 2259 l -3 -11 c 0 -8 c 3 -11 c 12 -7 c 19 -4 c 19 0 c
15 4 c 7 7 c 4 11 c 0 4 c -4 12 c -7 7 c -12 4 c -3 0 c -12 -4 c -7 -7 c -4 -12 c 0 -4 c 4 -11 c 7 -7 c 12 -4 c 4 -4 5123 2293 l
4 4 c -4 4 c -4 -4 c 79 -37 5052 2376 l 0 53 5052 2323 l -8 -4 5063 2448 l -3 -11 c 0 -8 c 3 -11 c 12 -7 c 19 -4 c 19 0 c 15 4 c
7 7 c 4 11 c 0 4 c -4 12 c -7 7 c -12 4 c -3 0 c -12 -4 c -7 -7 c -4 -12 c 0 -4 c 4 -11 c 7 -7 c 12 -4 c 79 -38 5052 2528 l
0 53 5052 2475 l 0 -250 7036 3505 l 0 42 6992 3584 l 31 -23 c 0 11 c 3 8 c 4 4 c 11 4 c 8 0 c 11 -4 c 8 -8 c 4 -11 c 0 -11 c
-4 -12 c -4 -4 c -7 -3 c 80 -38 6992 3705 l 0 53 6992 3652 l -3 8 7007 3739 l -12 11 c 80 0 c 4 -11 6992 3822 l 8 -4 c 7 0 c 8 4 c
4 8 c 3 15 c 4 11 c 8 8 c 7 3 c 12 0 c 7 -3 c 4 -4 c 4 -12 c 0 -15 c -4 -11 c -4 -4 c -7 -4 c -12 0 c -7 4 c -8 8 c -4 11 c -3 15 c
-4 8 c -8 4 c -7 0 c -8 -4 c -4 -12 c 0 -15 c 4 -4 7064 3887 l 4 4 c -4 3 c -4 -3 c -4 0 7011 3921 l -7 3 c -4 4 c -4 8 c 0 15 c
4 7 c 4 4 c 7 4 c 8 0 c 8 -4 c 11 -7 c 38 -38 c 0 53 c 4 -11 6992 4015 l 11 -8 c 19 -4 c 12 0 c 19 4 c 11 8 c 4 11 c 0 8 c -4 11 c
-11 8 c -19 3 c -12 0 c -19 -3 c -11 -8 c -4 -11 c 0 -8 c -8 -4 7004 4117 l -4 -11 c 0 -8 c 4 -11 c 11 -7 c 19 -4 c 19 0 c 15 4 c
8 7 c 4 11 c 0 4 c -4 12 c -8 7 c -11 4 c -4 0 c -11 -4 c -8 -7 c -3 -12 c 0 -4 c 3 -11 c 8 -7 c 11 -4 c 0 -249 7248 7019 l
0 42 7204 7098 l 31 -23 c 0 12 c 4 7 c 3 4 c 12 4 c 7 0 c 12 -4 c 7 -8 c 4 -11 c 0 -11 c -4 -12 c -4 -3 c -7 -4 c 80 -37 7204 7219 l
0 52 7204 7167 l -4 8 7220 7253 l -12 11 c 80 0 c 11 -4 7231 7367 l 8 -8 c 4 -11 c 0 -4 c -4 -11 c -8 -8 c -11 -3 c -4 0 c -11 3 c
-8 8 c -4 11 c 0 4 c 4 11 c 8 8 c 15 4 c 19 0 c 19 -4 c 11 -8 c 4 -11 c 0 -7 c -4 -12 c -7 -4 c 4 -4 7276 7401 l 4 4 c -4 4 c
-4 -4 c 53 -38 7204 7469 l 0 57 c 80 0 7204 7469 l 0 42 7204 7514 l 31 -23 c 0 11 c 4 8 c 3 4 c 12 4 c 7 0 c 12 -4 c 7 -8 c 4 -11 c
0 -11 c -4 -12 c -4 -4 c -7 -3 c 0 -38 7204 7628 l 35 -4 c -4 4 c -4 11 c 0 11 c 4 12 c 7 7 c 12 4 c 7 0 c 12 -4 c 7 -7 c 4 -12 c
0 -11 c -4 -11 c -4 -4 c -7 -4 c 0 -249 7557 1737 l 0 41 7514 1817 l 30 -23 c 0 12 c 4 7 c 3 4 c 12 4 c 7 0 c 12 -4 c 7 -7 c 4 -12 c
0 -11 c -4 -11 c -4 -4 c -7 -4 c 79 -37 7514 1937 l 0 52 7514 1885 l -4 0 7533 1964 l -8 4 c -4 3 c -3 8 c 0 15 c 3 8 c 4 4 c 8 3 c
7 0 c 8 -3 c 11 -8 c 38 -38 c 0 53 c -4 8 7529 2047 l -11 11 c 79 0 c 4 -4 7585 2119 l 4 4 c -4 4 c -4 -4 c -4 0 7533 2153 l -8 4 c
-4 3 c -3 8 c 0 15 c 3 8 c 4 3 c 8 4 c 7 0 c 8 -4 c 11 -7 c 38 -38 c 0 53 c -4 8 7529 2236 l -11 11 c 79 0 c 0 -38 7514 2346 l
34 -4 c -4 4 c -4 11 c 0 12 c 4 11 c 7 7 c 12 4 c 7 0 c 12 -4 c 7 -7 c 4 -11 c 0 -12 c -4 -11 c -4 -4 c -7 -4 c 0 -249 7663 7019 l
0 42 7620 7098 l 30 -23 c 0 12 c 4 7 c 3 4 c 12 4 c 7 0 c 12 -4 c 7 -8 c 4 -11 c 0 -11 c -4 -12 c -4 -3 c -7 -4 c 79 -37 7620 7219 l
0 52 7620 7167 l -4 0 7639 7246 l -8 4 c -4 3 c -3 8 c 0 15 c 3 8 c 4 3 c 8 4 c 7 0 c 8 -4 c 11 -7 c 38 -38 c 0 53 c
-4 8 7635 7329 l -11 11 c 79 0 c 4 -4 7691 7401 l 4 4 c -4 4 c -4 -4 c 3 -11 7620 7450 l 8 -4 c 8 0 c 7 4 c 4 7 c 4 15 c 3 12 c
8 7 c 8 4 c 11 0 c 7 -4 c 4 -4 c 4 -11 c 0 -15 c -4 -11 c -4 -4 c -7 -4 c -11 0 c -8 4 c -8 7 c -3 12 c -4 15 c -4 7 c -7 4 c -8 0 c
-8 -4 c -3 -11 c 0 -15 c -4 0 7639 7510 l -8 4 c -4 4 c -3 8 c 0 15 c 3 7 c 4 4 c 8 4 c 7 0 c 8 -4 c 11 -8 c 38 -37 c 0 53 c
0 -38 7620 7628 l 34 -4 c -4 4 c -4 11 c 0 11 c 4 12 c 7 7 c 12 4 c 7 0 c 12 -4 c 7 -7 c 4 -12 c 0 -11 c -4 -11 c -4 -4 c -7 -4 c
0 -250 8289 1436 l 0 42 8245 1515 l 30 -23 c 0 12 c 4 7 c 4 4 c 11 4 c 8 0 c 11 -4 c 8 -8 c 3 -11 c 0 -11 c -3 -12 c -4 -3 c -8 -4 c
79 -37 8245 1636 l 0 53 8245 1583 l -4 0 8264 1663 l -7 4 c -4 3 c -4 8 c 0 15 c 4 8 c 4 3 c 7 4 c 8 0 c 7 -4 c 12 -7 c 37 -38 c
0 53 c 0 -38 8245 1780 l 34 -4 c -4 4 c -4 11 c 0 12 c 4 11 c 8 8 c 11 4 c 8 0 c 11 -4 c 8 -8 c 3 -11 c 0 -12 c -3 -11 c -4 -4 c
-8 -3 c 4 -4 8317 1818 l 3 4 c -3 4 c -4 -4 c 0 41 8245 1856 l 30 -23 c 0 12 c 4 7 c 4 4 c 11 4 c 8 0 c 11 -4 c 8 -7 c 3 -12 c
0 -11 c -3 -11 c -4 -4 c -8 -4 c 12 -4 8271 1973 l 7 -8 c 4 -11 c 0 -4 c -4 -11 c -7 -8 c -12 -3 c -3 0 c -12 3 c -7 8 c -4 11 c
0 4 c 4 11 c 7 8 c 15 4 c 19 0 c 19 -4 c 12 -8 c 3 -11 c 0 -8 c -3 -11 c -8 -4 c 0 41 8245 2007 l 30 -22 c 0 11 c 4 8 c 4 3 c 11 4 c
8 0 c 11 -4 c 8 -7 c 3 -12 c 0 -11 c -3 -11 c -4 -4 c -8 -4 c 0 -249 8523 1975 l 0 41 8480 2055 l 30 -22 c 0 11 c 4 8 c 4 3 c 11 4 c
8 0 c 11 -4 c 7 -7 c 4 -12 c 0 -11 c -4 -11 c -3 -4 c -8 -4 c 79 -38 8480 2176 l 0 53 8480 2123 l -4 0 8499 2202 l -8 4 c -3 4 c
-4 7 c 0 15 c 4 8 c 3 4 c 8 4 c 7 0 c 8 -4 c 11 -8 c 38 -38 c 0 53 c -7 -4 8491 2323 l -4 -11 c 0 -8 c 4 -11 c 11 -7 c 19 -4 c
19 0 c 15 4 c 7 7 c 4 11 c 0 4 c -4 12 c -7 7 c -11 4 c -4 0 c -12 -4 c -7 -7 c -4 -12 c 0 -4 c 4 -11 c 7 -7 c 12 -4 c
3 -4 8552 2357 l 4 4 c -4 4 c -3 -4 c 79 -38 8480 2440 l 0 53 8480 2387 l -4 0 8499 2467 l -8 4 c -3 3 c -4 8 c 0 15 c 4 8 c 3 3 c
8 4 c 7 0 c 8 -4 c 11 -7 c 38 -38 c 0 53 c 0 -38 8480 2584 l 34 -4 c -4 4 c -4 11 c 0 12 c 4 11 c 8 8 c 11 3 c 8 0 c 11 -3 c 7 -8 c
4 -11 c 0 -12 c -4 -11 c -3 -4 c -8 -3 c 0 -250 8733 2479 l 0 41 8689 2558 l 30 -22 c 0 11 c 4 8 c 4 3 c 11 4 c 8 0 c 11 -4 c 8 -7 c
3 -11 c 0 -12 c -3 -11 c -4 -4 c -8 -4 c 79 -38 8689 2679 l 0 53 8689 2626 l -4 0 8708 2705 l -7 4 c -4 4 c -4 7 c 0 16 c 4 7 c
4 4 c 7 4 c 8 0 c 7 -4 c 12 -8 c 37 -37 c 0 52 c 79 -38 8689 2830 l 0 53 8689 2777 l 4 -4 8761 2860 l 3 4 c -3 4 c -4 -4 c
12 -4 8715 2940 l 7 -8 c 4 -11 c 0 -4 c -4 -11 c -7 -8 c -12 -4 c -3 0 c -12 4 c -7 8 c -4 11 c 0 4 c 4 11 c 7 8 c 15 4 c 19 0 c
19 -4 c 12 -8 c 3 -11 c 0 -8 c -3 -11 c -8 -4 c 4 -12 8689 2989 l 11 -7 c 19 -4 c 11 0 c 19 4 c 12 7 c 3 12 c 0 7 c -3 12 c -12 7 c
-19 4 c -11 0 c -19 -4 c -11 -7 c -4 -12 c 0 -7 c 0 42 8689 3049 l 30 -23 c 0 11 c 4 8 c 4 4 c 11 4 c 8 0 c 11 -4 c 8 -8 c 3 -11 c
0 -11 c -3 -12 c -4 -4 c -8 -3 c 0 -250 8983 4376 l 0 42 8940 4455 l 30 -23 c 0 12 c 4 7 c 3 4 c 12 4 c 7 0 c 12 -4 c 7 -8 c 4 -11 c
0 -11 c -4 -12 c -4 -3 c -7 -4 c 79 -37 8940 4576 l 0 53 8940 4523 l -3 0 8958 4603 l -8 4 c -4 3 c -3 8 c 0 15 c 3 8 c 4 3 c 8 4 c
7 0 c 8 -4 c 11 -7 c 38 -38 c 0 53 c 11 -4 8966 4724 l 8 -8 c 4 -11 c 0 -4 c -4 -11 c -8 -8 c -11 -3 c -4 0 c -11 3 c -8 8 c -3 11 c
0 4 c 3 11 c 8 8 c 15 4 c 19 0 c 19 -4 c 11 -8 c 4 -11 c 0 -8 c -4 -11 c -7 -4 c 4 -4 9011 4758 l 4 4 c -4 4 c -4 -4 c
0 41 8940 4796 l 30 -23 c 0 12 c 4 7 c 3 4 c 12 4 c 7 0 c 12 -4 c 7 -7 c 4 -12 c 0 -11 c -4 -11 c -4 -4 c -7 -4 c 3 -11 8940 4886 l
12 -8 c 19 -3 c 11 0 c 19 3 c 11 8 c 4 11 c 0 8 c -4 11 c -11 8 c -19 3 c -11 0 c -19 -3 c -12 -8 c -3 -11 c 0 -8 c
11 -3 8966 4988 l 8 -8 c 4 -11 c 0 -4 c -4 -12 c -8 -7 c -11 -4 c -4 0 c -11 4 c -8 7 c -3 12 c 0 4 c 3 11 c 8 8 c 15 3 c 19 0 c
19 -3 c 11 -8 c 4 -11 c 0 -8 c -4 -11 c -7 -4 c 0 -249 9644 1326 l 0 41 9600 1406 l 30 -22 c 0 11 c 4 7 c 4 4 c 11 4 c 8 0 c 11 -4 c
7 -7 c 4 -12 c 0 -11 c -4 -11 c -3 -4 c -8 -4 c 79 -38 9600 1527 l 0 53 9600 1474 l 0 41 9600 1557 l 30 -22 c 0 11 c 4 8 c 4 3 c
11 4 c 8 0 c 11 -4 c 7 -7 c 4 -11 c 0 -12 c -4 -11 c -3 -4 c -8 -4 c -4 0 9619 1629 l -8 3 c -3 4 c -4 8 c 0 15 c 4 7 c 3 4 c 8 4 c
8 0 c 7 -4 c 11 -7 c 38 -38 c 0 53 c 3 -4 9672 1708 l 4 4 c -4 4 c -3 -4 c 12 -3 9626 1787 l 7 -8 c 4 -11 c 0 -4 c -4 -11 c -7 -8 c
-12 -4 c -3 0 c -12 4 c -7 8 c -4 11 c 0 4 c 4 11 c 7 8 c 15 3 c 19 0 c 19 -3 c 11 -8 c 4 -11 c 0 -8 c -4 -11 c -7 -4 c
4 -12 9600 1833 l 7 -3 c 8 0 c 7 3 c 4 8 c 4 15 c 4 11 c 7 8 c 8 4 c 11 0 c 8 -4 c 3 -4 c 4 -11 c 0 -15 c -4 -12 c -3 -3 c -8 -4 c
-11 0 c -8 4 c -7 7 c -4 12 c -4 15 c -4 7 c -7 4 c -8 0 c -7 -4 c -4 -11 c 0 -15 c 0 -38 9600 1935 l 34 -4 c -4 4 c -4 11 c 0 12 c
4 11 c 8 8 c 11 3 c 8 0 c 11 -3 c 7 -8 c 4 -11 c 0 -12 c -4 -11 c -3 -4 c -8 -4 c
showpage PGPLOT restore
 
%%Trailer
%%DocumentFonts: 
%%Pages: 1
%%EOF
