%!PS-Adobe-3.0 EPSF-3.0
%%For: tom
%%Title: PGPLOT PostScript plot
%%Creator: PGPLOT
%%CreationDate:  9-Nov-1994 13:32
%%BoundingBox: 25 18 587 774
%%DocumentFonts: (atend)
%%LanguageLevel: 1
%%Orientation: Landscape
%%Pages: (atend)
%%EndComments
%%BeginProlog
/l {moveto rlineto currentpoint stroke moveto} bind def
/c {rlineto currentpoint stroke moveto} bind def
/d {moveto 0 0 rlineto currentpoint stroke moveto} bind def
/SLW {5 mul setlinewidth} bind def
/SCF /pop load def
/BP {newpath moveto} bind def
/LP /rlineto load def
/EP {rlineto closepath eofill} bind def
/MB {gsave translate MFAC dup scale 1 setlinewidth 2 setlinecap 0 setlinejoin newpath} bind def
/ME /grestore load def
/C {0 360 arc stroke} bind def
/FC {0 360 arc fill} bind def
%%EndProlog
 
%%Page: 1 1
%%BeginPageSetup
/PGPLOT save def
0.072 0.072 scale
8150 250 translate 90 rotate
1 setlinejoin 1 setlinecap 1 SLW 1 SCF
%%EndPageSetup
0.00 setgray 1 SLW 8939 0 780 780 l 0 6239 c -8939 0 c 0 -6239 c 0 -45 1116 780 l 0 -45 1554 780 l 0 -45 1991 780 l 0 -45 2428 780 l
0 -90 2865 780 l 0 -45 3302 780 l 0 -45 3739 780 l 0 -45 4176 780 l 0 -45 4613 780 l 0 -90 5051 780 l 0 -45 5488 780 l
0 -45 5925 780 l 0 -45 6362 780 l 0 -45 6799 780 l 0 -90 7236 780 l 0 -45 7673 780 l 0 -45 8110 780 l 0 -45 8548 780 l
0 -45 8985 780 l 0 -90 9422 780 l 0 -45 1116 7064 l 0 -45 1554 7064 l 0 -45 1991 7064 l 0 -45 2428 7064 l 0 -90 2865 7109 l
0 -45 3302 7064 l 0 -45 3739 7064 l 0 -45 4176 7064 l 0 -45 4613 7064 l 0 -90 5051 7109 l 0 -45 5488 7064 l 0 -45 5925 7064 l
0 -45 6362 7064 l 0 -45 6799 7064 l 0 -90 7236 7109 l 0 -45 7673 7064 l 0 -45 8110 7064 l 0 -45 8548 7064 l 0 -45 8985 7064 l
0 -90 9422 7109 l -60 0 2775 672 l -6 -54 c 6 6 c 18 6 c 18 0 c 18 -6 c 12 -12 c 6 -18 c 0 -12 c -6 -18 c -12 -12 c -18 -6 c -18 0 c
-18 6 c -6 6 c -6 12 c -18 -6 2859 672 l -12 -18 c -6 -30 c 0 -18 c 6 -30 c 12 -18 c 18 -6 c 12 0 c 18 6 c 12 18 c 6 30 c 0 18 c
-6 30 c -12 18 c -18 6 c -12 0 c -18 -6 2979 672 l -12 -18 c -6 -30 c 0 -18 c 6 -30 c 12 -18 c 18 -6 c 12 0 c 18 6 c 12 18 c 6 30 c
0 18 c -6 30 c -12 18 c -18 6 c -12 0 c 12 6 4847 648 l 18 18 c 0 -126 c -18 -6 4985 672 l -12 -18 c -6 -30 c 0 -18 c 6 -30 c
12 -18 c 18 -6 c 12 0 c 18 6 c 12 18 c 6 30 c 0 18 c -6 30 c -12 18 c -18 6 c -12 0 c -18 -6 5105 672 l -12 -18 c -6 -30 c 0 -18 c
6 -30 c 12 -18 c 18 -6 c 12 0 c 18 6 c 12 18 c 6 30 c 0 18 c -6 30 c -12 18 c -18 6 c -12 0 c -18 -6 5225 672 l -12 -18 c -6 -30 c
0 -18 c 6 -30 c 12 -18 c 18 -6 c 12 0 c 18 6 c 12 18 c 6 30 c 0 18 c -6 30 c -12 18 c -18 6 c -12 0 c 12 6 7032 648 l 18 18 c
0 -126 c -60 0 7206 672 l -6 -54 c 6 6 c 18 6 c 18 0 c 18 -6 c 12 -12 c 6 -18 c 0 -12 c -6 -18 c -12 -12 c -18 -6 c -18 0 c -18 6 c
-6 6 c -6 12 c -18 -6 7290 672 l -12 -18 c -6 -30 c 0 -18 c 6 -30 c 12 -18 c 18 -6 c 12 0 c 18 6 c 12 18 c 6 30 c 0 18 c -6 30 c
-12 18 c -18 6 c -12 0 c -18 -6 7410 672 l -12 -18 c -6 -30 c 0 -18 c 6 -30 c 12 -18 c 18 -6 c 12 0 c 18 6 c 12 18 c 6 30 c 0 18 c
-6 30 c -12 18 c -18 6 c -12 0 c 0 6 9206 642 l 6 12 c 6 6 c 12 6 c 24 0 c 12 -6 c 6 -6 c 6 -12 c 0 -12 c -6 -12 c -12 -18 c
-60 -60 c 84 0 c -18 -6 9356 672 l -12 -18 c -6 -30 c 0 -18 c 6 -30 c 12 -18 c 18 -6 c 12 0 c 18 6 c 12 18 c 6 30 c 0 18 c -6 30 c
-12 18 c -18 6 c -12 0 c -18 -6 9476 672 l -12 -18 c -6 -30 c 0 -18 c 6 -30 c 12 -18 c 18 -6 c 12 0 c 18 6 c 12 18 c 6 30 c 0 18 c
-6 30 c -12 18 c -18 6 c -12 0 c -18 -6 9596 672 l -12 -18 c -6 -30 c 0 -18 c 6 -30 c 12 -18 c 18 -6 c 12 0 c 18 6 c 12 18 c 6 30 c
0 18 c -6 30 c -12 18 c -18 6 c -12 0 c -90 0 780 780 l -45 0 780 1701 l -90 0 780 2622 l -45 0 780 3543 l -90 0 780 4464 l
-45 0 780 5386 l -90 0 780 6307 l -90 0 9809 780 l -45 0 9764 1701 l -90 0 9809 2622 l -45 0 9764 3543 l -90 0 9809 4464 l
-45 0 9764 5386 l -90 0 9809 6307 l 6 -18 517 774 l 18 -12 c 30 -6 c 18 0 c 30 6 c 18 12 c 6 18 c 0 12 c -6 18 c -18 12 c -30 6 c
-18 0 c -30 -6 c -18 -12 c -6 -18 c 0 -12 c -6 0 547 2364 l -12 6 c -6 6 c -6 12 c 0 24 c 6 12 c 6 6 c 12 6 c 12 0 c 12 -6 c
18 -12 c 60 -60 c 0 84 c 84 84 547 2484 l 84 -84 547 2568 l -6 12 541 2628 l -18 18 c 126 0 c 6 -18 517 2766 l 18 -12 c 30 -6 c
18 0 c 30 6 c 18 12 c 6 18 c 0 12 c -6 18 c -18 12 c -30 6 c -18 0 c -30 -6 c -18 -12 c -6 -18 c 0 -12 c 63 -45 453 2891 l 0 67 c
94 0 453 2891 l 84 -60 517 4260 l 0 90 c 126 0 517 4260 l 84 84 547 4326 l 84 -84 547 4410 l -6 12 541 4470 l -18 18 c 126 0 c
6 -18 517 4608 l 18 -12 c 30 -6 c 18 0 c 30 6 c 18 12 c 6 18 c 0 12 c -6 18 c -18 12 c -30 6 c -18 0 c -30 -6 c -18 -12 c -6 -18 c
0 -12 c 63 -45 453 4733 l 0 67 c 94 0 453 4733 l -12 -6 535 6121 l -6 -18 c 0 -12 c 6 -18 c 18 -12 c 30 -6 c 30 0 c 24 6 c 12 12 c
6 18 c 0 6 c -6 18 c -12 12 c -18 6 c -6 0 c -18 -6 c -12 -12 c -6 -18 c 0 -6 c 6 -18 c 12 -12 c 18 -6 c 84 84 547 6169 l
84 -84 547 6253 l -6 12 541 6313 l -18 18 c 126 0 c 6 -18 517 6451 l 18 -12 c 30 -6 c 18 0 c 30 6 c 18 12 c 6 18 c 0 12 c -6 18 c
-18 12 c -30 6 c -18 0 c -30 -6 c -18 -12 c -6 -18 c 0 -12 c 63 -45 453 6575 l 0 68 c 94 0 453 6575 l
4 -1 780 787 l 5 0 c 4 1 c 4 -1 c 5 1 c 4 0 c 4 1 c 5 0 c 4 0 c 5 0 c 4 -1 c 4 -1 c 5 0 c 4 1 c 4 0 c 5 1 c 4 0 c 5 0 c 4 -1 c 4 0 c
5 0 c 4 0 c 4 -1 c 5 0 c 4 0 c 5 1 c 4 0 c 4 1 c 5 0 c 4 0 c 4 0 c 5 -1 c 4 0 c 5 0 c 4 0 c 4 0 c 5 0 c 4 0 c 4 1 c 5 3 c 4 4 c
4 15 c 5 7 c 4 -3 c 5 -6 c 4 -15 c 4 -4 c 5 -1 c 4 1 c 4 3 c 5 5 c 4 15 c 5 15 c 4 0 c 4 -8 c 5 -20 c 4 -10 c 4 0 c 5 0 c 4 1 c
5 2 c 4 0 c 4 1 c 5 -1 c 4 -1 c 4 2 c 5 0 c 4 -2 c 5 -1 c 4 -2 c 4 -1 c 5 1 c 4 0 c 4 0 c 5 0 c 4 -1 c 4 0 c 5 1 c 4 0 c 5 1 c 4 4 c
4 4 c 5 9 c 4 -26 c 5 103 1151 780 l 4 -9 c 5 -36 c 4 -45 c 4 -5 c 5 0 c 4 2 c 4 4 c 5 1 c 4 0 c 5 -2 c 4 -3 c 4 -2 c 5 0 c 4 2 c
4 3 c 5 7 c 4 6 c 5 0 c 4 -5 c 4 -8 c 5 -4 c 4 -1 c 4 0 c 5 0 c 4 0 c 4 0 c 5 1 c 4 0 c 5 0 c 4 0 c 4 0 c 5 -1 c 4 0 c 4 1 c 5 3 c
4 11 c 5 22 c 4 67 c 4 56 c 5 -7 c 4 -24 c 4 -73 c 5 -34 c 4 -3 c 5 -8 c 4 -9 c 4 -2 c 5 0 c 4 1 c 4 -1 c 5 0 c 4 -1 c 5 0 c 4 0 c
4 0 c 5 1 c 4 1 c 4 0 c 5 1 c 4 -1 c 4 -1 c 5 0 c 4 -1 c 5 0 c 4 0 c 4 0 c 5 0 c 4 1 c 4 1 c 5 1 c 4 0 c 5 -1 c 4 -2 c 4 0 c 5 0 c
4 0 c 4 0 c 5 1 c 4 0 c 5 0 c 4 -1 c 4 0 c 5 0 c 4 0 c 4 0 c 5 1 c 4 1 c 4 -1 c 5 0 c 4 -1 c 5 1 c 4 0 c 4 1 c 5 0 c 4 -1 c 4 0 c
5 -1 c 4 0 c 5 1 c 4 1 c 4 1 c 5 -1 c 4 -1 c 4 0 c 5 -1 c 4 0 c 5 0 c 4 0 c 4 0 c 5 1 c 4 -1 c 4 0 c 5 0 c 4 0 c 5 0 c 4 0 c 4 0 c
5 0 c 4 0 c 4 1 c 5 -1 c 4 0 c 4 0 c 5 0 c 4 1 c 5 0 c 4 0 c 4 0 c 5 2 c 4 0 c 4 1 c 5 0 c 4 -1 c 5 -1 c 4 -1 c 4 1 c 5 0 c 4 -1 c
4 0 c 5 0 c 4 0 c 5 1 c 4 0 c 4 0 c 5 -1 c 4 -1 c 4 1 c 5 0 c 4 0 c 5 0 c 4 -1 c 4 0 c 5 0 c 4 0 c 4 0 c 5 0 c 4 2 c 4 0 c 5 0 c
4 0 c 5 -1 c 4 -1 c 4 1 c 5 -1 c 4 0 c 4 0 c 5 0 c 4 0 c 5 0 c 4 0 c 4 0 c 5 1 c 4 1 c 4 2 c 5 0 c 4 -1 c 5 -2 c 4 1 c 4 4 c 5 3 c
4 9 c 4 8 c 5 -3 c 4 -3 c 5 -12 c 4 -5 c 4 2 c 5 0 c 4 0 c 4 -2 c 5 0 c 4 4 c 4 15 c 5 15 c 4 3 c 5 -7 c 4 -15 c 4 -12 c 5 -1 c
4 -2 c 4 -2 c 5 -1 c 4 1 c 5 3 c 4 4 c 4 1 c 5 -1 c 4 -3 c 4 -3 c 5 0 c 4 3 c 5 12 c 4 38 c 4 49 c 5 8 c 4 -11 c 4 -49 c 5 -40 c
4 -6 c 5 -1 c 4 1 c 4 4 c 5 3 c 4 8 c 4 23 c 5 7 c 4 -3 c 4 -15 c 5 -25 c 4 -5 c 5 0 c 4 -1 c 4 -1 c 5 0 c 4 0 c 4 0 c 5 0 c 4 0 c
5 1 c 4 1 c 4 -1 c 5 0 c 4 -2 c 4 0 c 5 0 c 4 0 c 5 1 c 4 0 c 4 1 c 5 5 c 4 3 c 4 2 c 5 8 c 4 2 c 4 -2 c 5 -3 c 4 -11 c 5 -4 c
4 -1 c 4 0 c 5 2 c 4 2 c 4 2 c 5 4 c 4 -1 c 5 -2 c 4 -2 c 4 -5 c 5 -1 c 4 1 c 4 2 c 5 8 c 4 0 c 5 0 c 4 -4 c 4 -4 c 5 0 c 4 0 c
4 0 c 5 -1 c 4 -1 c 5 0 c 4 0 c 4 0 c 5 1 c 4 0 c 4 0 c 5 -1 c 4 0 c 4 -1 c 5 0 c 4 0 c 5 0 c 4 0 c 4 0 c 5 0 c 4 1 c 4 4 c 5 3 c
4 0 c 5 -1 c 4 -4 c 4 -3 c 5 1 c 4 1 c 4 5 c 5 17 c 4 10 c 5 -2 c 4 -9 c 4 -17 c 5 -4 c 4 0 c 4 1 c 5 3 c 4 3 c 5 0 c 4 -1 c 4 -4 c
5 -2 c 4 0 c 4 -1 c 5 0 c 4 0 c 4 0 c 5 1 c 4 3 c 5 5 c 4 1 c 4 0 c 5 -1 c 4 6 c 4 62 c 5 95 c 4 19 c 5 -21 c 4 -74 c 4 -84 c 5 -9 c
4 -1 c 4 -1 c 5 2 c 4 1 c 5 0 c 4 -1 c 4 -3 c 5 1 c 4 0 c 4 2 c 5 0 c 4 0 c 5 0 c 4 -3 c 4 0 c 5 0 c 4 0 c 4 0 c 5 -1 c 4 1 c 4 0 c
5 0 c 4 0 c 5 0 c 4 0 c 4 0 c 5 0 c 4 -1 c 4 0 c 5 0 c 4 0 c 5 0 c 4 0 c 4 1 c 5 1 c 4 -1 c 4 0 c 5 -1 c 4 0 c 5 1 c 4 -1 c 4 0 c
5 0 c 4 0 c 4 0 c 5 1 c 4 0 c 4 -1 c 5 1 c 4 -1 c 5 0 c 4 1 c 4 0 c 5 0 c 4 -1 c 4 0 c 5 0 c 4 0 c 5 0 c 4 0 c 4 1 c 5 0 c 4 -1 c
4 1 c 5 -1 c 4 0 c 5 0 c 4 0 c 4 0 c 5 1 c 4 0 c 4 1 c 5 0 c 4 -1 c 5 0 c 4 -1 c 4 1 c 5 1 c 4 0 c 4 1 c 5 -2 c 4 0 c 4 0 c 5 0 c
4 -1 c 5 0 c 4 1 c 4 0 c 5 1 c 4 0 c 4 1 c 5 0 c 4 1 c 5 -1 c 4 0 c 4 -2 c 5 0 c 4 2 c 4 3 c 5 30 c 4 56 c 5 11 c 4 5 c 4 -38 c
5 -47 c 4 -10 c 4 -9 c 5 -3 c 4 0 c 5 -1 c 4 1 c 4 0 c 5 4 c 4 4 c 4 1 c 5 -1 c 4 -5 c 4 -3 c 5 0 c 4 0 c 5 4 c 4 6 c 4 1 c 5 -1 c
4 -5 c 4 -5 c 5 0 c 4 0 c 5 0 c 4 -1 c 4 0 c 5 1 c 4 0 c 4 0 c 5 -1 c 4 0 c 5 0 c 4 1 c 4 0 c 5 0 c 4 0 c 4 0 c 5 1 c 4 0 c 5 3 c
4 5 c 4 1 c 5 -1 c 4 -4 c 4 -3 c 5 7 c 4 9 c 4 0 c 5 -1 c 4 -9 c 5 -5 c 4 4 c 4 1 c 5 2 c 4 6 c 4 7 c 5 -1 c 4 -1 c 5 -11 c 4 -9 c
4 -1 c 5 1 c 4 -1 c 4 0 c 5 1 c 4 -1 c 5 1 c 4 0 c 4 0 c 5 2 c 4 16 c 4 19 c 5 20 c 4 6 c 5 -18 c 4 -14 c 4 -22 c 5 -5 c 4 0 c 4 6 c
5 103 c 4 325 c 4 111 c 5 6 c 4 -163 c 5 -321 c 4 -64 c 4 -2 c 5 -2 c 4 0 c 4 9 c 5 17 c 4 2 c 5 -1 c 4 -14 c 4 -13 c 5 -2 c 4 1 c
4 0 c 5 -2 c 4 0 c 5 0 c 4 0 c 4 0 c 5 0 c 4 0 c 4 0 c 5 1 c 4 8 c 4 19 c 5 3 c 4 -1 c 5 -12 c 4 -17 c 4 -1 c 5 0 c 4 -1 c 4 0 c
5 1 c 4 -1 c 5 1 c 4 -1 c 4 1 c 5 -1 c 4 3 c 4 8 c 5 4 c 4 3 c 5 -2 c 4 -7 c 4 -3 c 5 -5 c 4 0 c 4 -1 c 5 1 c 4 0 c 5 0 c 4 2 c
4 2 c 5 1 c 4 0 c 4 -2 c 5 -2 c 4 -1 c 4 0 c 5 0 c 4 1 c 5 1 c 4 1 c 4 2 c 5 -1 c 4 -1 c 4 -1 c 5 0 c 4 0 c 5 0 c 4 0 c 4 0 c 5 0 c
4 19 c 4 70 c 5 17 c 4 -1 c 5 -32 c 4 -63 c 4 -10 c 5 1 c 4 1 c 4 1 c 5 0 c 4 -1 c 5 -2 c 4 0 c 4 9 c 5 7 c 4 1 c 4 -2 c 5 -10 c
4 -7 c 4 0 c 5 0 c 4 1 c 5 0 c 4 1 c 4 1 c 5 -1 c 4 0 c 4 -1 c 5 0 c 4 2 c 5 1 c 4 0 c 4 3 c 5 5 c 4 68 c 4 185 c 5 58 c 4 -7 c
5 -94 c 4 -175 c 4 -31 c 5 1 c 4 -3 c 4 -7 c 5 -3 c 4 -2 c 5 0 c 4 2 c 4 0 c 5 0 c 4 -1 c 4 -1 c 5 0 c 4 0 c 4 0 c 5 -1 c 4 -1 c
5 0 c 4 -1 c 4 1 c 5 0 c 4 -1 c 4 1 c 5 0 c 4 1 c 5 2 c 4 -1 c 4 0 c 5 -1 c 4 -1 c 4 1 c 5 0 c 4 1 c 5 8 c 4 65 c 4 48 c 5 1 c
4 -6 c 4 -78 c 5 -34 c 4 1 c 5 3 c 4 0 c 4 -2 c 5 -5 c 4 -3 c 4 0 c 5 0 c 4 0 c 4 0 c 5 0 c 4 0 c 5 0 c 4 0 c 4 0 c 5 0 c 4 1 c
4 0 c 5 1 c 4 0 c 5 1 c 4 1 c 4 0 c 5 -1 c 4 -1 c 4 0 c 5 0 c 4 -1 c 5 -1 c 4 -1 c 4 0 c 5 0 c 4 0 c 4 0 c 5 1 c 4 1 c 4 0 c 5 1 c
4 1 c 5 -1 c 4 1 c 4 1 c 5 -1 c 4 0 c 4 0 c 5 -2 c 4 -1 c 5 0 c 4 0 c 4 0 c 5 1 c 4 0 c 4 0 c 5 1 c 4 0 c 5 0 c 4 0 c 4 -2 c 5 0 c
4 0 c 4 0 c 5 1 c 4 0 c 5 0 c 4 1 c 4 5 c 5 3 c 4 1 c 4 -2 c 5 -5 c 4 0 c 4 4 c 5 4 c 4 -2 c 5 -3 c 4 -4 c 4 -3 c 5 0 c 4 2 c 4 5 c
5 1 c 4 0 c 5 -3 c 4 -4 c 4 -1 c 5 -1 c 4 1 c 4 1 c 5 0 c 4 1 c 5 1 c 4 3 c 4 4 c 5 1 c 4 0 c 4 -4 c 5 -5 c 4 0 c 5 -1 c 4 0 c
4 -1 c 5 0 c 4 0 c 4 0 c 5 -1 c 4 0 c 4 0 c 5 2 c 4 0 c 5 0 c 4 -1 c 4 -1 c 5 1 c 4 1 c 4 0 c 5 1 c 4 0 c 5 -2 c 4 0 c 4 0 c 5 0 c
4 1 c 4 6 c 5 5 c 4 -2 c 5 -1 c 4 -6 c 4 -2 c 5 0 c 4 0 c 4 3 c 5 4 c 4 1 c 5 -1 c 4 -4 c 4 -1 c 5 11 c 4 8 c 4 0 c 5 -3 c 4 -13 c
4 -6 c 5 0 c 4 0 c 5 0 c 4 -1 c 4 0 c 5 1 c 4 -1 c 4 0 c 5 1 c 4 1 c 5 0 c 4 -1 c 4 0 c 5 0 c 4 0 c 4 0 c 5 0 c 4 0 c 5 1 c 4 3 c
4 3 c 5 0 c 4 -1 c 4 -2 c 5 -2 c 4 2 c 5 -1 c 4 -1 c 4 -1 c 5 -2 c 4 1 c 4 -1 c 5 0 c 4 1 c 4 0 c 5 1 c 4 0 c 5 0 c 4 1 c 4 0 c
5 -1 c 4 0 c 4 -1 c 5 1 c 4 4 c 5 3 c 4 0 c 4 -17 c 5 12 c 4 -2 c 4 -1 c 5 0 c 4 1 c 5 5 c 4 5 c 4 1 c 5 -2 c 4 -5 c 4 -4 c 5 0 c
4 1 c 4 4 c 5 2 c 4 1 c 5 -1 c 4 -3 c 4 -2 c 5 -1 c 4 -1 c 4 0 c 5 0 c 4 0 c 5 1 c 4 1 c 4 0 c 5 0 c 4 -1 c 4 -2 c 5 1 c 4 0 c 5 1 c
4 4 c 4 15 c 5 15 c 4 3 c 4 -4 c 5 -16 c 4 -14 c 5 -3 c 4 1 c 4 1 c 5 1 c 4 2 c 4 12 c 5 97 c 4 121 c 4 54 c 5 3 c 4 -111 c 5 -117 c
4 -50 c 4 -13 c 5 -1 c 4 0 c 4 0 c 5 2 c 4 4 c 5 19 c 4 71 c 4 27 c 5 4 c 4 -29 c 4 -72 c 5 -26 c 4 -1 c 5 0 c 4 2 c 4 0 c 5 0 c
4 -1 c 4 -1 c 5 0 c 4 0 c 5 0 c 4 0 c 4 1 c 5 0 c 4 0 c 4 0 c 5 0 c 4 -1 c 4 0 c 5 1 c 4 4 c 5 33 c 4 32 c 4 6 c 5 -4 c 4 -32 c
4 -25 c 5 -4 c 4 -7 c 5 -3 c 4 0 c 4 0 c 5 0 c 4 -1 c 4 1 c 5 -1 c 4 -1 c 5 0 c 4 0 c 4 0 c 5 0 c 4 0 c 4 1 c 5 0 c 4 3 c 5 5 c
4 2 c 4 0 c 5 -3 c 4 -3 c 4 25 c 5 127 c 4 84 c 4 10 c 5 -28 c 4 -129 c 5 -83 c 4 -7 c 4 -2 c 5 -1 c 4 -1 c 4 1 c 5 0 c 4 4 c 5 6 c
4 1 c 4 -1 c 5 -4 c 4 -5 c 4 0 c 5 0 c 4 0 c 5 -1 c 4 -1 c 4 2 c 5 5 c 4 2 c 4 2 c 5 0 c 4 -3 c 4 -1 c 5 -1 c 4 -1 c 5 0 c 4 4 c
4 29 c 5 -47 c 4 113 c 4 -5 c 5 -33 c 4 -48 c 5 -13 c 4 -3 c 4 -1 c 5 0 c 4 0 c 4 0 c 5 -1 c 4 0 c 5 0 c 4 -9 c 5 10 5706 780 l
4 0 c 4 3 c 5 3 c 4 2 c 5 -1 c 4 -1 c 4 -4 c 5 -2 c 4 1 c 4 0 c 5 3 c 4 1 c 4 1 c 5 -1 c 4 -1 c 5 -2 c 4 0 c 4 -1 c 5 0 c 4 1 c
4 1 c 5 0 c 4 6 c 5 4 c 4 -1 c 4 0 c 5 -7 c 4 -4 c 4 -1 c 5 0 c 4 0 c 5 1 c 4 0 c 4 0 c 5 1 c 4 1 c 4 0 c 5 1 c 4 1 c 5 2 c 4 5 c
4 10 c 5 98 c 4 409 c 4 264 c 5 13 c 4 -119 c 4 -445 c 5 -215 c 4 -18 c 5 1 c 4 2 c 4 -1 c 5 6 c 4 52 c 4 54 c 5 10 c 4 16 c 5 -50 c
4 -50 c 4 -13 c 5 -24 c 4 -11 c 4 -1 c 5 0 c 4 0 c 5 1 c 4 0 c 4 0 c 5 3 c 4 1 c 4 0 c 5 -1 c 4 1 c 5 11 c 4 15 c 4 1 c 5 -2 c
4 -15 c 4 -13 c 5 -1 c 4 1 c 4 0 c 5 0 c 4 -2 c 5 -1 c 4 0 c 4 0 c 5 0 c 4 1 c 4 0 c 5 1 c 4 2 c 5 4 c 4 2 c 4 -2 c 5 -2 c 4 -4 c
4 -1 c 5 0 c 4 1 c 5 7 c 4 14 c 4 11 c 5 14 c 4 -2 c 4 -12 c 5 -9 c 4 -17 c 5 -5 c 4 0 c 4 2 c 5 6 c 4 2 c 4 -1 c 5 -4 c 4 -6 c
4 -1 c 5 2 c 4 14 c 5 41 c 4 26 c 4 -2 c 5 -13 c 4 -44 c 4 -22 c 5 -2 c 4 0 c 5 1 c 4 1 c 4 2 c 5 -1 c 4 0 c 4 -2 c 5 1 c 4 13 c
5 35 c 4 15 c 4 27 c 5 121 c 4 63 c 4 -11 c 5 -30 c 4 -144 c 4 -83 c 5 -6 c 4 -1 c 5 1 c 4 6 c 4 7 c 5 2 c 4 1 c 4 -5 c 5 -6 c 4 1 c
5 19 c 4 16 c 4 3 c 5 -5 c 4 -23 c 4 -16 c 5 -2 c 4 -1 c 5 0 c 4 0 c 4 0 c 5 0 c 4 1 c 4 1 c 5 0 c 4 -1 c 5 1 c 4 0 c 4 1 c 5 3 c
4 4 c 4 1 c 5 3 c 4 1 c 4 -5 c 5 -2 c 4 -3 c 5 -3 c 4 1 c 4 2 c 5 4 c 4 8 c 4 20 c 5 5 c 4 -3 c 5 -9 c 4 -17 c 4 -1 c 5 3 c 4 2 c
4 2 c 5 -5 c 4 -2 c 5 -4 c 4 -5 c 4 -3 c 5 0 c 4 0 c 4 -9 c 5 9 c 4 0 c 5 0 c 4 0 c 4 -1 c 5 1 c 4 1 c 4 2 c 5 2 c 4 3 c 4 2 c
5 -2 c 4 -1 c 5 -3 c 4 -3 c 4 0 c 5 0 c 4 0 c 4 0 c 5 0 c 4 -1 c 5 0 c 4 2 c 4 8 c 5 5 c 4 4 c 4 1 c 5 -8 c 4 -4 c 5 -4 c 4 -2 c
4 0 c 5 -1 c 4 0 c 4 1 c 5 2 c 4 0 c 5 1 c 4 1 c 4 -1 c 5 -1 c 4 -2 c 4 -2 c 5 0 c 4 0 c 4 1 c 5 1 c 4 -1 c 5 0 c 4 2 c 4 2 c 5 1 c
4 0 c 4 13 c 5 35 c 4 9 c 5 -3 c 4 -12 c 4 -37 c 5 -7 c 4 2 c 4 2 c 5 0 c 4 -2 c 5 -2 c 4 2 c 4 3 c 5 -1 c 4 0 c 4 -4 c 5 -3 c 4 0 c
5 0 c 4 0 c 4 0 c 5 0 c 4 1 c 4 -1 c 5 0 c 4 3 c 4 5 c 5 1 c 4 0 c 5 -2 c 4 -6 c 4 -1 c 5 -1 c 4 0 c 4 0 c 5 0 c 4 1 c 5 0 c 4 0 c
4 0 c 5 0 c 4 0 c 4 3 c 5 2 c 4 -1 c 5 1 c 4 -2 c 4 0 c 5 0 c 4 2 c 4 4 c 5 3 c 4 1 c 4 -1 c 5 -5 c 4 -3 c 5 -1 c 4 3 c 4 44 c
5 137 c 4 47 c 4 4 c 5 -45 c 4 -132 c 5 -50 c 4 -3 c 4 -4 c 5 -2 c 4 -2 c 4 1 c 5 -1 c 4 0 c 5 0 c 4 1 c 4 0 c 5 1 c 4 0 c 4 0 c
5 1 c 4 0 c 5 0 c 4 7 c 4 10 c 5 2 c 4 0 c 4 -10 c 5 -9 c 4 -3 c 4 0 c 5 0 c 4 1 c 5 0 c 4 0 c 4 0 c 5 0 c 4 0 c 4 2 c 5 1 c 4 3 c
5 1 c 4 1 c 4 -1 c 5 -1 c 4 4 c 4 5 c 5 3 c 4 29 c 5 246 c 4 296 c 4 50 c 5 -23 c 4 -252 c 4 -253 c 5 -41 c 4 -4 c 5 -8 c 4 -35 c
4 -18 c 5 -2 c 4 2 c 4 -1 c 5 0 c 4 -1 c 4 0 c 5 1 c 4 3 c 5 22 c 4 20 c 4 9 c 5 13 c 4 111 c 4 416 c 5 198 c 4 29 c 5 -145 c
4 -406 c 4 -216 c 5 -41 c 4 -8 c 4 -3 c 5 -1 c 4 0 c 5 4 c 4 32 c 4 27 c 5 4 c 4 -2 c 4 -34 c 5 -29 c 4 -4 c 5 -2 c 4 -1 c 4 0 c
5 0 c 4 -1 c 4 1 c 5 0 c 4 0 c 4 0 c 5 1 c 4 0 c 5 0 c 4 -1 c 4 -1 c 5 -1 c 4 1 c 4 0 c 5 2 c 4 13 c 5 9 c 4 2 c 4 -3 c 5 -12 c
4 -9 c 4 3 c 5 2 c 4 0 c 5 -1 c 4 -4 c 4 -3 c 5 0 c 4 1 c 4 0 c 5 0 c 4 1 c 5 10 c 4 39 c 4 17 c 5 1 c 4 -9 c 4 -40 c 5 -14 c 4 9 c
4 5 c 5 7 c 4 42 c 5 20 c 4 -2 c 4 -6 c 5 -40 c 4 -35 c 4 -3 c 5 -1 c 4 -1 c 5 0 c 4 0 c 4 0 c 5 0 c 4 -1 c 4 3 c 5 6 c 4 2 c 5 -1 c
4 0 c 4 -1 c 5 1 c 4 0 c 4 0 c 5 -4 c 4 -2 c 4 0 c 5 -1 c 4 -1 c 5 0 c 4 0 c 4 -1 c 5 1 c 4 1 c 4 2 c 5 4 c 4 2 c 5 -2 c 4 -2 c
4 -2 c 5 0 c 4 1 c 4 3 c 5 4 c 4 8 c 5 25 c 4 162 c 4 415 c 5 157 c 4 -3 c 4 -141 c 5 -389 c 4 -169 c 5 -32 c 4 -8 c 4 1 c 5 13 c
4 -3 c 4 -5 c 5 4 c 4 -11 c 4 -8 c 5 -2 c 4 -11 c 5 -7 c 4 -1 c 4 -1 c 5 1 c 4 2 c 4 4 c 5 3 c 4 5 c 5 34 c 4 23 c 4 2 c 5 11 c
4 40 c 4 18 c 5 3 c 4 -6 c 5 -61 c 4 -45 c 4 8 c 5 8 c 4 37 c 4 208 c 5 2450 c 4 3296 c 5 -81 c 4 -35 c 4 -71 c 5 -4461 c 4 -1278 c
4 -52 c 5 -9 c 4 -3 c 4 -6 c 5 -9 c 4 -4 c 5 -5 c 4 -3 c 4 -4 c 5 -9 c 4 -7 c 4 -1 c 5 0 c 4 -1 c 5 -1 c 4 0 c 4 1 c 5 4 c 4 16 c
4 22 c 5 4 c 4 -5 c 5 -13 c 4 -23 c 4 -8 c 5 -1 c 4 -1 c 4 -1 c 5 1 c 4 0 c 5 -1 c 4 1 c 4 0 c 5 -1 c 4 1 c 4 -1 c 5 0 c 4 0 c 4 0 c
5 0 c 4 0 c 5 -1 c 4 0 c 4 0 c 5 -1 c 4 0 c 4 0 c 5 1 c 4 2 c 5 0 c 4 1 c 4 0 c 5 2 c 4 23 c 4 37 c 5 18 c 4 -2 c 5 -22 c 4 -34 c
4 -17 c 5 -3 c 4 -1 c 4 -2 c 5 0 c 4 -1 c 4 -1 c 5 0 c 4 -1 c 5 -1 c 4 0 c 4 1 c 5 0 c 4 0 c 4 0 c 5 1 c 4 0 c 5 0 c 4 0 c 4 0 c
5 -1 c 4 1 c 4 1 c 5 6 c 4 15 c 5 4 c 4 -1 c 4 -4 c 5 -14 c 4 -5 c 4 1 c 5 6 c 4 56 c 5 62 c 4 7 c 4 0 c 5 -44 c 4 -77 c 4 -10 c
5 0 c 4 0 c 4 1 c 5 2 c 4 14 c 5 97 c 4 190 c 4 78 c 5 -2 c 4 -64 c 4 -205 c 5 -90 c 4 -12 c 5 -6 c 4 -1 c 4 -1 c 5 -1 c 4 1 c 4 5 c
5 75 c 4 188 c 5 48 c 4 1 c 4 -54 c 5 -186 c 4 -64 c 4 0 c 5 2 c 4 -2 c 5 -6 c 4 -1 c 4 0 c 5 7 c 4 8 c 4 -2 c 5 -4 c 4 -6 c 4 -4 c
5 -1 c 4 1 c 5 -1 c 4 -2 c 4 -1 c 5 2 c 4 2 c 4 4 c 5 9 c 4 48 c 5 490 c 4 954 c 4 214 c 5 -37 c 4 -350 c 4 -1031 c 5 -274 c 4 -22 c
5 -4 c 4 -3 c 4 -2 c 5 -1 c 4 -1 c 4 0 c 5 0 c 4 0 c 5 0 c 4 -1 c 4 -1 c 5 1 c 4 2 c 4 3 c 5 1 c 4 1 c 4 5 c 5 2 c 4 0 c 5 -1 c
4 -5 c 4 -8 c 5 -2 c 4 -1 c 4 -1 c 5 0 c 4 0 c 5 1 c 4 0 c 4 0 c 5 0 c 4 0 c 4 -1 c 5 0 c 4 0 c 5 0 c 4 2 c 4 3 c 5 1 c 4 0 c 4 -2 c
5 -3 c 4 -2 c 5 1 c 4 0 c 4 0 c 5 0 c 4 -1 c 4 0 c 5 0 c 4 0 c 4 2 c 5 8 c 4 8 c 5 4 c 4 1 c 4 -4 c 5 -9 c 4 -4 c 4 -3 c 5 -2 c
4 0 c 5 0 c 4 0 c 4 0 c 5 0 c 4 0 c 4 0 c 5 3 c 4 10 c 5 4 c 4 0 c 4 -1 c 5 -5 c 4 -3 c 4 -1 c 5 -1 c 4 -4 c 4 -2 c 5 -1 c 4 3 c
5 7 c 4 2 c 4 1 c 5 -1 c 4 -7 c 4 -4 c 5 1 c 4 -1 c 5 -1 c 4 0 c 4 0 c 5 0 c 4 0 c 4 1 c 5 1 c 4 7 c 5 27 c 4 11 c 4 -1 c 5 -5 c
4 -26 c 4 -14 c 5 -1 c 4 0 c 5 0 c 4 1 c 4 2 c 5 3 c 4 6 c 4 2 c 5 0 c 4 -3 c 4 -6 c 5 -3 c 4 -1 c 5 1 c 4 0 c 4 -1 c 5 0 c 4 0 c
4 0 c 5 3 c 4 33 c 5 80 c 4 19 c 4 0 c 5 -26 c 4 -83 c 4 -25 c 5 -2 c 4 0 c 5 0 c 4 0 c 4 1 c 5 0 c 4 0 c 4 0 c 5 0 c 4 0 c 5 -1 c
4 0 c 4 0 c 5 0 c 4 0 c 4 1 c 5 1 c 4 0 c 4 0 c 5 0 c 4 -1 c 5 0 c 4 0 c 4 0 c 5 0 c 4 1 c 4 2 c 5 9 c 4 61 c 5 44 c 4 0 c 4 -5 c
5 -51 c 4 -56 c 4 -5 c 5 0 c 4 1 c 5 3 c 4 2 c 4 -1 c 5 0 c 4 -2 c 4 -3 c
5 0 c 4 -1 c 5 0 c 4 1 c 4 -9 c 4 45 9549 780 l 4 -1 c 5 -5 c 4 -22 c 4 -5 c 5 11 c 4 15 c 5 9 c 4 1 c 4 0 c 5 -4 c 4 1 c 4 23 c
5 46 c 4 5 c 5 -13 c 4 -18 c 4 -57 c 5 -21 c 4 -1 c 4 1 c 5 -1 c 4 0 c 5 -1 c 4 0 c 4 0 c 5 0 c 4 3 c 4 4 c 5 1 c 4 -1 c 5 -3 c
4 -4 c 4 0 c 5 2 c 4 1 c 4 0 c 5 -1 c 4 -1 c
0 -126 3042 418 l 54 0 3042 418 l 18 -6 c 6 -6 c 6 -12 c 0 -12 c -6 -12 c -6 -6 c -18 -6 c -54 0 c 42 -66 3084 358 l
-12 -6 3192 376 l -12 -12 c -6 -18 c 0 -12 c 6 -18 c 12 -12 c 12 -6 c 18 0 c 12 6 c 12 12 c 6 18 c 0 12 c -6 18 c -12 12 c -12 6 c
-18 0 c 24 -84 3276 376 l -24 -84 3324 376 l 24 -84 3324 376 l -24 -84 3372 376 l 108 0 3414 364 l 108 0 3414 328 l
-60 -84 3816 418 l 90 0 c 0 -126 3816 418 l 12 6 4278 394 l 18 18 c 0 -126 c -6 -6 4392 376 l 6 -6 c 6 6 c -6 6 c -6 -6 4392 304 l
6 -6 c 6 6 c -6 6 c -48 -126 4572 418 l 48 -126 4572 418 l 60 0 4542 334 l 0 -84 4650 376 l 6 18 4650 340 l 12 12 c 12 6 c 18 0 c
-12 12 4794 358 l -12 6 c -18 0 c -12 -6 c -12 -12 c -6 -18 c 0 -12 c 6 -18 c 12 -12 c 12 -6 c 18 0 c 12 6 c 12 12 c
108 0 4836 346 l -18 -6 5022 418 l -12 -18 c -6 -30 c 0 -18 c 6 -30 c 12 -18 c 18 -6 c 12 0 c 18 6 c 12 18 c 6 30 c 0 18 c -6 30 c
-12 18 c -18 6 c -12 0 c 66 0 5118 418 l -36 -48 c 18 0 c 12 -6 c 6 -6 c 6 -18 c 0 -12 c -6 -18 c -12 -12 c -18 -6 c -18 0 c -18 6 c
-6 6 c -6 12 c -59 0 5297 418 l -6 -54 c 6 6 c 18 6 c 17 0 c 18 -6 c 12 -12 c 6 -18 c 0 -12 c -6 -18 c -12 -12 c -18 -6 c -17 0 c
-18 6 c -6 6 c -6 12 c -6 -6 5357 304 l 6 -6 c 6 6 c -6 6 c -12 0 5447 418 l -12 -6 c -6 -18 c 0 -102 c 42 0 5399 376 l
6 -6 5477 418 l 6 6 c -6 6 c -6 -6 c 0 -84 5483 376 l 0 -102 5537 418 l 6 -18 c 12 -6 c 12 0 c 42 0 5519 376 l -6 12 5663 358 l
-18 6 c -18 0 c -18 -6 c -6 -12 c 6 -12 c 12 -6 c 30 -6 c 12 -6 c 6 -12 c 0 -6 c -6 -12 c -18 -6 c -18 0 c -18 6 c -6 12 c
0 -192 5993 442 l 0 -192 5999 442 l 42 0 5993 442 l 42 0 5993 250 l 0 6 6077 388 l 6 12 c 6 6 c 12 6 c 24 0 c 12 -6 c 6 -6 c 6 -12 c
0 -12 c -6 -12 c -12 -18 c -60 -60 c 84 0 c -6 -6 6203 376 l 6 -6 c 6 6 c -6 6 c -6 -6 6203 304 l 6 -6 c 6 6 c -6 6 c
-48 -126 6383 418 l 48 -126 6383 418 l 60 0 6353 334 l 0 -84 6461 376 l 6 18 6461 340 l 12 12 c 12 6 c 18 0 c -12 12 6605 358 l
-12 6 c -18 0 c -12 -6 c -12 -12 c -6 -18 c 0 -12 c 6 -18 c 12 -12 c 12 -6 c 18 0 c 12 6 c 12 12 c 108 0 6647 346 l
-18 -6 6833 418 l -12 -18 c -6 -30 c 0 -18 c 6 -30 c 12 -18 c 18 -6 c 12 0 c 18 6 c 12 18 c 6 30 c 0 18 c -6 30 c -12 18 c -18 6 c
-12 0 c 66 0 6929 418 l -36 -48 c 18 0 c 12 -6 c 6 -6 c 6 -18 c 0 -12 c -6 -18 c -12 -12 c -18 -6 c -18 0 c -18 6 c -6 6 c -6 12 c
-6 12 7115 400 l -18 6 c -12 0 c -18 -6 c -12 -18 c -6 -30 c 0 -30 c 6 -24 c 12 -12 c 18 -6 c 6 0 c 18 6 c 12 12 c 6 18 c 0 6 c
-6 18 c -12 12 c -18 6 c -6 0 c -18 -6 c -12 -12 c -6 -18 c -6 -6 7169 304 l 6 -6 c 6 6 c -6 6 c -12 0 7259 418 l -12 -6 c -6 -18 c
0 -102 c 42 0 7211 376 l 6 -6 7289 418 l 6 6 c -6 6 c -6 -6 c 0 -84 7295 376 l 0 -102 7349 418 l 6 -18 c 12 -6 c 12 0 c
42 0 7331 376 l -6 12 7475 358 l -18 6 c -18 0 c -18 -6 c -6 -12 c 6 -12 c 12 -6 c 30 -6 c 12 -6 c 6 -12 c 0 -6 c -6 -12 c -18 -6 c
-18 0 c -18 6 c -6 12 c 0 -192 7547 442 l 0 -192 7553 442 l 42 0 7511 442 l 42 0 7511 250 l
0 -249 1329 1384 l 0 41 1286 1464 l 30 -22 c 0 11 c 4 7 c 3 4 c 12 4 c 7 0 c 12 -4 c 7 -7 c 4 -12 c 0 -11 c -4 -11 c -4 -4 c -7 -4 c
3 -12 1286 1551 l 8 -4 c 8 0 c 7 4 c 4 8 c 4 15 c 3 11 c 8 8 c 8 4 c 11 0 c 7 -4 c 4 -4 c 4 -11 c 0 -15 c -4 -12 c -4 -4 c -7 -3 c
-11 0 c -8 3 c -8 8 c -3 11 c -4 15 c -4 8 c -7 4 c -8 0 c -8 -4 c -3 -11 c 0 -15 c 3 -11 1286 1626 l 8 -4 c 8 0 c 7 4 c 4 7 c
4 16 c 3 11 c 8 7 c 8 4 c 11 0 c 7 -4 c 4 -3 c 4 -12 c 0 -15 c -4 -11 c -4 -4 c -7 -4 c -11 0 c -8 4 c -8 8 c -3 11 c -4 15 c -4 8 c
-7 3 c -8 0 c -8 -3 c -3 -12 c 0 -15 c -8 -4 1297 1732 l -3 -11 c 0 -8 c 3 -11 c 12 -8 c 19 -3 c 19 0 c 15 3 c 7 8 c 4 11 c 0 4 c
-4 11 c -7 8 c -12 4 c -3 0 c -12 -4 c -7 -8 c -4 -11 c 0 -4 c 4 -11 c 7 -8 c 12 -3 c 4 -4 1357 1766 l 4 4 c -4 4 c -4 -4 c
11 -3 1312 1845 l 8 -8 c 4 -11 c 0 -4 c -4 -11 c -8 -8 c -11 -4 c -4 0 c -11 4 c -8 8 c -3 11 c 0 4 c 3 11 c 8 8 c 15 3 c 19 0 c
19 -3 c 11 -8 c 4 -11 c 0 -8 c -4 -11 c -7 -4 c -4 8 1301 1883 l -11 11 c 79 0 c -8 -4 1297 1997 l -3 -12 c 0 -7 c 3 -11 c 12 -8 c
19 -4 c 19 0 c 15 4 c 7 8 c 4 11 c 0 4 c -4 11 c -7 8 c -12 3 c -3 0 c -12 -3 c -7 -8 c -4 -11 c 0 -4 c 4 -11 c 7 -8 c 12 -4 c
0 -249 2095 1336 l 0 41 2052 1416 l 30 -23 c 0 12 c 4 7 c 4 4 c 11 4 c 8 0 c 11 -4 c 7 -7 c 4 -12 c 0 -11 c -4 -11 c -3 -4 c -8 -4 c
4 -11 2052 1502 l 7 -4 c 8 0 c 7 4 c 4 8 c 4 15 c 4 11 c 7 8 c 8 4 c 11 0 c 8 -4 c 3 -4 c 4 -11 c 0 -16 c -4 -11 c -3 -4 c -8 -3 c
-11 0 c -8 3 c -7 8 c -4 11 c -4 15 c -4 8 c -7 4 c -8 0 c -7 -4 c -4 -11 c 0 -16 c 12 -3 2078 1608 l 7 -8 c 4 -11 c 0 -4 c -4 -11 c
-7 -8 c -12 -4 c -3 0 c -12 4 c -7 8 c -4 11 c 0 4 c 4 11 c 7 8 c 15 3 c 19 0 c 19 -3 c 11 -8 c 4 -11 c 0 -8 c -4 -11 c -7 -4 c
-4 8 2067 1646 l -11 11 c 79 0 c 3 -4 2124 1718 l 4 4 c -4 4 c -3 -4 c 12 -3 2078 1797 l 7 -8 c 4 -11 c 0 -4 c -4 -12 c -7 -7 c
-12 -4 c -3 0 c -12 4 c -7 7 c -4 12 c 0 4 c 4 11 c 7 8 c 15 3 c 19 0 c 19 -3 c 11 -8 c 4 -11 c 0 -8 c -4 -11 c -7 -4 c
79 -38 2052 1877 l 0 53 2052 1824 l 12 -3 2078 1948 l 7 -8 c 4 -11 c 0 -4 c -4 -11 c -7 -8 c -12 -4 c -3 0 c -12 4 c -7 8 c -4 11 c
0 4 c 4 11 c 7 8 c 15 3 c 19 0 c 19 -3 c 11 -8 c 4 -11 c 0 -8 c -4 -11 c -7 -4 c 0 -249 2350 1235 l 0 41 2307 1315 l 30 -23 c 0 12 c
4 7 c 3 4 c 12 4 c 7 0 c 12 -4 c 7 -7 c 4 -12 c 0 -11 c -4 -11 c -4 -4 c -7 -4 c 3 -12 2307 1402 l 8 -4 c 8 0 c 7 4 c 4 8 c 4 15 c
3 11 c 8 8 c 8 4 c 11 0 c 7 -4 c 4 -4 c 4 -11 c 0 -15 c -4 -12 c -4 -4 c -7 -3 c -11 0 c -8 3 c -8 8 c -3 11 c -4 15 c -4 8 c -7 4 c
-8 0 c -8 -4 c -3 -11 c 0 -15 c 11 -3 2333 1507 l 8 -8 c 4 -11 c 0 -4 c -4 -11 c -8 -8 c -11 -4 c -4 0 c -11 4 c -8 8 c -3 11 c
0 4 c 3 11 c 8 8 c 15 3 c 19 0 c 19 -3 c 11 -8 c 4 -11 c 0 -8 c -4 -11 c -7 -4 c 0 42 2307 1541 l 30 -23 c 0 12 c 4 7 c 3 4 c 12 4 c
7 0 c 12 -4 c 7 -8 c 4 -11 c 0 -11 c -4 -12 c -4 -3 c -7 -4 c 4 -4 2378 1617 l 4 4 c -4 4 c -4 -4 c -8 -3 2318 1696 l -3 -12 c
0 -7 c 3 -12 c 12 -7 c 19 -4 c 19 0 c 15 4 c 7 7 c 4 12 c 0 3 c -4 12 c -7 7 c -12 4 c -3 0 c -12 -4 c -7 -7 c -4 -12 c 0 -3 c
4 -12 c 7 -7 c 12 -4 c 0 -38 2307 1768 l 34 -3 c -4 3 c -4 12 c 0 11 c 4 11 c 7 8 c 12 4 c 7 0 c 12 -4 c 7 -8 c 4 -11 c 0 -11 c
-4 -12 c -4 -3 c -7 -4 c -4 0 2326 1802 l -8 4 c -4 4 c -3 7 c 0 15 c 3 8 c 4 4 c 8 3 c 7 0 c 8 -3 c 11 -8 c 38 -38 c 0 53 c
0 -250 2620 1416 l 0 42 2577 1495 l 30 -23 c 0 11 c 4 8 c 4 4 c 11 3 c 8 0 c 11 -3 c 7 -8 c 4 -11 c 0 -12 c -4 -11 c -3 -4 c -8 -4 c
4 -11 2577 1582 l 7 -4 c 8 0 c 7 4 c 4 7 c 4 15 c 4 12 c 7 7 c 8 4 c 11 0 c 8 -4 c 3 -4 c 4 -11 c 0 -15 c -4 -11 c -3 -4 c -8 -4 c
-11 0 c -8 4 c -7 7 c -4 12 c -4 15 c -4 7 c -7 4 c -8 0 c -7 -4 c -4 -11 c 0 -15 c 12 -4 2603 1688 l 7 -8 c 4 -11 c 0 -4 c -4 -11 c
-7 -8 c -12 -3 c -4 0 c -11 3 c -7 8 c -4 11 c 0 4 c 4 11 c 7 8 c 15 4 c 19 0 c 19 -4 c 11 -8 c 4 -11 c 0 -8 c -4 -11 c -7 -4 c
0 -38 2577 1760 l 34 -4 c -4 4 c -4 11 c 0 11 c 4 12 c 8 7 c 11 4 c 8 0 c 11 -4 c 7 -7 c 4 -12 c 0 -11 c -4 -11 c -3 -4 c -8 -4 c
3 -3 2649 1797 l 4 3 c -4 4 c -3 -4 c 53 -37 2577 1865 l 0 56 c 79 0 2577 1865 l -4 8 2592 1914 l -11 11 c 79 0 c 12 -4 2603 2028 l
7 -7 c 4 -12 c 0 -4 c -4 -11 c -7 -7 c -12 -4 c -4 0 c -11 4 c -7 7 c -4 11 c 0 4 c 4 12 c 7 7 c 15 4 c 19 0 c 19 -4 c 11 -7 c
4 -12 c 0 -7 c -4 -12 c -7 -3 c 0 -249 3085 1332 l 0 42 3041 1411 l 31 -23 c 0 12 c 3 7 c 4 4 c 11 4 c 8 0 c 11 -4 c 8 -8 c 4 -11 c
0 -11 c -4 -12 c -4 -3 c -7 -4 c 4 -11 3041 1498 l 8 -4 c 7 0 c 8 4 c 4 8 c 3 15 c 4 11 c 8 8 c 7 3 c 12 0 c 7 -3 c 4 -4 c 4 -11 c
0 -16 c -4 -11 c -4 -4 c -7 -4 c -12 0 c -7 4 c -8 8 c -4 11 c -3 15 c -4 8 c -8 4 c -7 0 c -8 -4 c -4 -11 c 0 -16 c
11 -4 3068 1604 l 8 -7 c 3 -11 c 0 -4 c -3 -12 c -8 -7 c -11 -4 c -4 0 c -11 4 c -8 7 c -4 12 c 0 4 c 4 11 c 8 7 c 15 4 c 19 0 c
19 -4 c 11 -7 c 4 -11 c 0 -8 c -4 -11 c -8 -4 c 4 -12 3041 1650 l 8 -4 c 7 0 c 8 4 c 4 8 c 3 15 c 4 11 c 8 8 c 7 4 c 12 0 c 7 -4 c
4 -4 c 4 -11 c 0 -15 c -4 -12 c -4 -4 c -7 -3 c -12 0 c -7 3 c -8 8 c -4 11 c -3 15 c -4 8 c -8 4 c -7 0 c -8 -4 c -4 -11 c 0 -15 c
4 -4 3113 1714 l 4 4 c -4 4 c -4 -4 c 53 -38 3041 1782 l 0 57 c 80 0 3041 1782 l 0 42 3041 1827 l 31 -23 c 0 11 c 3 8 c 4 4 c 11 4 c
8 0 c 11 -4 c 8 -8 c 4 -11 c 0 -11 c -4 -12 c -4 -4 c -7 -3 c 80 -38 3041 1948 l 0 53 3041 1895 l 0 -250 3583 1257 l
0 42 3539 1336 l 30 -23 c 0 11 c 4 8 c 4 4 c 11 3 c 8 0 c 11 -3 c 8 -8 c 3 -11 c 0 -12 c -3 -11 c -4 -4 c -8 -4 c 11 -4 3566 1453 l
7 -7 c 4 -11 c 0 -4 c -4 -12 c -7 -7 c -11 -4 c -4 0 c -12 4 c -7 7 c -4 12 c 0 4 c 4 11 c 7 7 c 16 4 c 18 0 c 19 -4 c 12 -7 c
3 -11 c 0 -8 c -3 -11 c -8 -4 c 4 -11 3539 1502 l 11 -8 c 19 -3 c 11 0 c 19 3 c 12 8 c 3 11 c 0 8 c -3 11 c -12 8 c -19 4 c -11 0 c
-19 -4 c -11 -8 c -4 -11 c 0 -8 c -4 7 3554 1567 l -11 11 c 79 0 c 4 -3 3611 1638 l 3 3 c -3 4 c -4 -4 c -7 -4 3550 1718 l -4 -11 c
0 -8 c 4 -11 c 11 -8 c 19 -4 c 19 0 c 15 4 c 8 8 c 3 11 c 0 4 c -3 11 c -8 8 c -11 4 c -4 0 c -11 -4 c -8 -8 c -4 -11 c 0 -4 c
4 -11 c 8 -8 c 11 -4 c -7 -3 3550 1793 l -4 -12 c 0 -7 c 4 -12 c 11 -7 c 19 -4 c 19 0 c 15 4 c 8 7 c 3 12 c 0 3 c -3 12 c -8 7 c
-11 4 c -4 0 c -11 -4 c -8 -7 c -4 -12 c 0 -3 c 4 -12 c 8 -7 c 11 -4 c -4 0 3558 1824 l -7 3 c -4 4 c -4 8 c 0 15 c 4 7 c 4 4 c
7 4 c 8 0 c 7 -4 c 12 -7 c 37 -38 c 0 53 c 0 -250 3806 1334 l 0 42 3763 1413 l 30 -23 c 0 12 c 4 7 c 4 4 c 11 4 c 7 0 c 12 -4 c
7 -8 c 4 -11 c 0 -11 c -4 -12 c -3 -3 c -8 -4 c 12 -4 3789 1531 l 7 -8 c 4 -11 c 0 -4 c -4 -11 c -7 -8 c -12 -4 c -4 0 c -11 4 c
-7 8 c -4 11 c 0 4 c 4 11 c 7 8 c 15 4 c 19 0 c 19 -4 c 11 -8 c 4 -11 c 0 -8 c -4 -11 c -7 -4 c 4 -12 3763 1580 l 11 -7 c 19 -4 c
11 0 c 19 4 c 11 7 c 4 12 c 0 7 c -4 12 c -11 7 c -19 4 c -11 0 c -19 -4 c -11 -7 c -4 -12 c 0 -7 c 0 42 3763 1640 l 30 -23 c 0 11 c
4 8 c 4 4 c 11 4 c 7 0 c 12 -4 c 7 -8 c 4 -11 c 0 -11 c -4 -12 c -3 -4 c -8 -3 c 3 -4 3835 1716 l 4 4 c -4 4 c -3 -4 c
-4 8 3778 1757 l -11 11 c 79 0 c 4 -11 3763 1844 l 11 -8 c 19 -3 c 11 0 c 19 3 c 11 8 c 4 11 c 0 8 c -4 11 c -11 8 c -19 3 c -11 0 c
-19 -3 c -11 -8 c -4 -11 c 0 -8 c -4 0 3782 1901 l -8 4 c -3 4 c -4 7 c 0 15 c 4 8 c 3 4 c 8 3 c 7 0 c 8 -3 c 11 -8 c 38 -38 c
0 53 c 0 -250 3959 1549 l 0 42 3916 1628 l 30 -23 c 0 11 c 4 8 c 4 4 c 11 3 c 7 0 c 12 -3 c 7 -8 c 4 -11 c 0 -12 c -4 -11 c -3 -4 c
-8 -3 c 12 -4 3942 1745 l 7 -7 c 4 -11 c 0 -4 c -4 -12 c -7 -7 c -12 -4 c -4 0 c -11 4 c -7 7 c -4 12 c 0 4 c 4 11 c 7 7 c 15 4 c
19 0 c 19 -4 c 11 -7 c 4 -11 c 0 -8 c -4 -11 c -7 -4 c 4 -11 3916 1794 l 11 -8 c 19 -3 c 11 0 c 19 3 c 11 8 c 4 11 c 0 8 c -4 11 c
-11 8 c -19 4 c -11 0 c -19 -4 c -11 -8 c -4 -11 c 0 -8 c 53 -38 3916 1885 l 0 57 c 79 0 3916 1885 l 3 -3 3988 1930 l 4 3 c -4 4 c
-3 -4 c 4 -11 3916 1983 l 11 -8 c 19 -3 c 11 0 c 19 3 c 11 8 c 4 11 c 0 8 c -4 11 c -11 8 c -19 4 c -11 0 c -19 -4 c -11 -8 c
-4 -11 c 0 -8 c 4 -11 3916 2055 l 7 -4 c 8 0 c 7 4 c 4 7 c 4 16 c 4 11 c 7 7 c 8 4 c 11 0 c 8 -4 c 3 -3 c 4 -12 c 0 -15 c -4 -11 c
-3 -4 c -8 -4 c -11 0 c -8 4 c -7 8 c -4 11 c -4 15 c -4 8 c -7 3 c -8 0 c -7 -3 c -4 -12 c 0 -15 c 0 42 3916 2119 l 30 -23 c 0 12 c
4 7 c 4 4 c 11 4 c 7 0 c 12 -4 c 7 -8 c 4 -11 c 0 -11 c -4 -12 c -3 -3 c -8 -4 c 0 -249 4132 1350 l 0 41 4088 1430 l 30 -23 c 0 12 c
4 7 c 4 4 c 11 4 c 8 0 c 11 -4 c 8 -7 c 4 -12 c 0 -11 c -4 -11 c -4 -4 c -8 -4 c 11 -4 4115 1547 l 8 -8 c 3 -11 c 0 -4 c -3 -11 c
-8 -8 c -11 -3 c -4 0 c -11 3 c -8 8 c -4 11 c 0 4 c 4 11 c 8 8 c 15 4 c 19 0 c 18 -4 c 12 -8 c 4 -11 c 0 -7 c -4 -12 c -8 -4 c
4 -11 4088 1596 l 11 -8 c 19 -4 c 12 0 c 18 4 c 12 8 c 4 11 c 0 7 c -4 12 c -12 7 c -18 4 c -12 0 c -19 -4 c -11 -7 c -4 -12 c
0 -7 c 0 -38 4088 1694 l 34 -3 c -4 3 c -3 12 c 0 11 c 3 11 c 8 8 c 11 4 c 8 0 c 11 -4 c 8 -8 c 4 -11 c 0 -11 c -4 -12 c -4 -3 c
-8 -4 c 4 -4 4160 1732 l 4 4 c -4 4 c -4 -4 c -3 7 4103 1774 l -12 11 c 80 0 c 4 -12 4088 1857 l 8 -3 c 7 0 c 8 3 c 3 8 c 4 15 c
4 11 c 8 8 c 7 4 c 11 0 c 8 -4 c 4 -4 c 4 -11 c 0 -15 c -4 -12 c -4 -3 c -8 -4 c -11 0 c -7 4 c -8 7 c -4 11 c -4 16 c -3 7 c -8 4 c
-7 0 c -8 -4 c -4 -11 c 0 -15 c -8 -3 4100 1962 l -4 -12 c 0 -7 c 4 -12 c 11 -7 c 19 -4 c 19 0 c 15 4 c 8 7 c 4 12 c 0 4 c -4 11 c
-8 7 c -11 4 c -4 0 c -11 -4 c -8 -7 c -4 -11 c 0 -4 c 4 -12 c 8 -7 c 11 -4 c 0 -250 5192 1520 l 0 42 5148 1599 l 30 -23 c 0 11 c
4 8 c 4 4 c 11 3 c 8 0 c 11 -3 c 8 -8 c 4 -11 c 0 -12 c -4 -11 c -4 -4 c -8 -4 c 11 -4 5175 1716 l 8 -7 c 3 -11 c 0 -4 c -3 -12 c
-8 -7 c -11 -4 c -4 0 c -11 4 c -8 7 c -4 12 c 0 4 c 4 11 c 8 7 c 15 4 c 19 0 c 18 -4 c 12 -7 c 4 -11 c 0 -8 c -4 -11 c -8 -4 c
-3 8 5163 1754 l -12 11 c 80 0 c -3 7 5163 1830 l -12 11 c 80 0 c 4 -3 5220 1901 l 4 3 c -4 4 c -4 -4 c 11 -4 5175 1981 l 8 -8 c
3 -11 c 0 -4 c -3 -11 c -8 -8 c -11 -3 c -4 0 c -11 3 c -8 8 c -4 11 c 0 4 c 4 11 c 8 8 c 15 4 c 19 0 c 18 -4 c 12 -8 c 4 -11 c
0 -7 c -4 -12 c -8 -4 c 4 -11 5148 2030 l 11 -8 c 19 -4 c 12 0 c 18 4 c 12 8 c 4 11 c 0 7 c -4 12 c -12 7 c -18 4 c -12 0 c -19 -4 c
-11 -7 c -4 -12 c 0 -7 c 11 -4 5175 2132 l 8 -7 c 3 -12 c 0 -4 c -3 -11 c -8 -7 c -11 -4 c -4 0 c -11 4 c -8 7 c -4 11 c 0 4 c
4 12 c 8 7 c 15 4 c 19 0 c 18 -4 c 12 -7 c 4 -12 c 0 -7 c -4 -12 c -8 -3 c 0 -250 5910 2033 l 0 42 5867 2112 l 30 -23 c 0 12 c 4 7 c
4 4 c 11 4 c 7 0 c 12 -4 c 7 -8 c 4 -11 c 0 -11 c -4 -12 c -3 -3 c -8 -4 c 12 -4 5893 2230 l 7 -8 c 4 -11 c 0 -4 c -4 -11 c -7 -8 c
-12 -4 c -4 0 c -11 4 c -7 8 c -4 11 c 0 4 c 4 11 c 7 8 c 15 4 c 19 0 c 19 -4 c 11 -8 c 4 -11 c 0 -8 c -4 -11 c -7 -4 c
-4 8 5882 2267 l -11 11 c 79 0 c -7 -4 5878 2381 l -4 -11 c 0 -8 c 4 -11 c 11 -8 c 19 -4 c 19 0 c 15 4 c 7 8 c 4 11 c 0 4 c -4 11 c
-7 8 c -12 4 c -3 0 c -12 -4 c -7 -8 c -4 -11 c 0 -4 c 4 -11 c 7 -8 c 12 -4 c 3 -4 5939 2415 l 4 4 c -4 4 c -3 -4 c
53 -38 5867 2483 l 0 57 c 79 0 5867 2483 l -4 7 5882 2532 l -11 12 c 79 0 c 4 -11 5867 2615 l 7 -4 c 8 0 c 7 4 c 4 7 c 4 15 c 4 12 c
7 7 c 8 4 c 11 0 c 8 -4 c 3 -3 c 4 -12 c 0 -15 c -4 -11 c -3 -4 c -8 -4 c -11 0 c -8 4 c -7 8 c -4 11 c -4 15 c -4 8 c -7 3 c -8 0 c
-7 -3 c -4 -12 c 0 -15 c 0 -250 6047 1259 l 0 42 6003 1338 l 31 -23 c 0 12 c 3 7 c 4 4 c 12 4 c 7 0 c 11 -4 c 8 -8 c 4 -11 c 0 -11 c
-4 -12 c -4 -3 c -7 -4 c 11 -4 6030 1456 l 8 -8 c 4 -11 c 0 -4 c -4 -11 c -8 -8 c -11 -4 c -4 0 c -11 4 c -8 8 c -4 11 c 0 4 c
4 11 c 8 8 c 15 4 c 19 0 c 19 -4 c 11 -8 c 4 -11 c 0 -8 c -4 -11 c -8 -4 c -4 8 6019 1493 l -12 11 c 80 0 c 80 -38 6003 1611 l
0 53 6003 1558 l 4 -4 6075 1641 l 4 4 c -4 4 c -4 -4 c -3 0 6022 1675 l -8 4 c -4 3 c -4 8 c 0 15 c 4 8 c 4 3 c 8 4 c 7 0 c 8 -4 c
11 -7 c 38 -38 c 0 53 c -8 -4 6015 1796 l -4 -11 c 0 -8 c 4 -11 c 12 -8 c 18 -4 c 19 0 c 15 4 c 8 8 c 4 11 c 0 4 c -4 11 c -8 8 c
-11 3 c -4 0 c -11 -3 c -8 -8 c -3 -11 c 0 -4 c 3 -11 c 8 -8 c 11 -4 c 11 -3 6030 1871 l 8 -8 c 4 -11 c 0 -4 c -4 -11 c -8 -8 c
-11 -4 c -4 0 c -11 4 c -8 8 c -4 11 c 0 4 c 4 11 c 8 8 c 15 3 c 19 0 c 19 -3 c 11 -8 c 4 -11 c 0 -8 c -4 -11 c -8 -4 c
0 -250 6329 1503 l 0 42 6286 1582 l 30 -23 c 0 11 c 4 8 c 4 4 c 11 4 c 7 0 c 12 -4 c 7 -8 c 4 -11 c 0 -11 c -4 -12 c -3 -4 c -8 -3 c
12 -3 6312 1699 l 7 -8 c 4 -11 c 0 -4 c -4 -11 c -7 -8 c -12 -4 c -4 0 c -11 4 c -7 8 c -4 11 c 0 4 c 4 11 c 7 8 c 15 3 c 19 0 c
19 -3 c 11 -8 c 4 -11 c 0 -8 c -4 -11 c -7 -4 c -4 8 6301 1737 l -11 11 c 79 0 c 12 -4 6312 1851 l 7 -8 c 4 -11 c 0 -4 c -4 -11 c
-7 -8 c -12 -4 c -4 0 c -11 4 c -7 8 c -4 11 c 0 4 c 4 11 c 7 8 c 15 4 c 19 0 c 19 -4 c 11 -8 c 4 -11 c 0 -8 c -4 -11 c -7 -4 c
3 -4 6358 1885 l 4 4 c -4 3 c -3 -3 c 4 -11 6286 1937 l 11 -7 c 19 -4 c 11 0 c 19 4 c 11 7 c 4 11 c 0 8 c -4 11 c -11 8 c -19 4 c
-11 0 c -19 -4 c -11 -8 c -4 -11 c 0 -8 c -4 0 6305 1994 l -8 4 c -3 4 c -4 7 c 0 15 c 4 8 c 3 4 c 8 4 c 7 0 c 8 -4 c 11 -8 c
38 -38 c 0 53 c 0 41 6286 2074 l 30 -23 c 0 12 c 4 7 c 4 4 c 11 4 c 7 0 c 12 -4 c 7 -7 c 4 -12 c 0 -11 c -4 -11 c -3 -4 c -8 -4 c
0 -250 7107 1465 l 0 42 7064 1544 l 30 -23 c 0 11 c 4 8 c 4 4 c 11 4 c 8 0 c 11 -4 c 7 -8 c 4 -11 c 0 -11 c -4 -12 c -3 -4 c -8 -3 c
12 -3 7090 1661 l 7 -8 c 4 -11 c 0 -4 c -4 -11 c -7 -8 c -12 -4 c -3 0 c -12 4 c -7 8 c -4 11 c 0 4 c 4 11 c 7 8 c 15 3 c 19 0 c
19 -3 c 11 -8 c 4 -11 c 0 -8 c -4 -11 c -7 -4 c -4 0 7083 1692 l -8 3 c -3 4 c -4 8 c 0 15 c 4 7 c 3 4 c 8 4 c 8 0 c 7 -4 c 11 -7 c
38 -38 c 0 53 c 0 42 7064 1771 l 30 -23 c 0 11 c 4 8 c 4 4 c 11 3 c 8 0 c 11 -3 c 7 -8 c 4 -11 c 0 -12 c -4 -11 c -3 -4 c -8 -4 c
3 -4 7136 1847 l 4 4 c -4 3 c -3 -3 c 4 -12 7064 1896 l 7 -3 c 8 0 c 7 3 c 4 8 c 4 15 c 4 11 c 7 8 c 8 4 c 11 0 c 8 -4 c 3 -4 c
4 -11 c 0 -15 c -4 -12 c -3 -3 c -8 -4 c -11 0 c -8 4 c -7 7 c -4 11 c -4 16 c -4 7 c -7 4 c -8 0 c -7 -4 c -4 -11 c 0 -15 c
4 -11 7064 1975 l 11 -8 c 19 -4 c 11 0 c 19 4 c 11 8 c 4 11 c 0 8 c -4 11 c -11 8 c -19 3 c -11 0 c -19 -3 c -11 -8 c -4 -11 c
0 -8 c 4 -12 7064 2051 l 11 -7 c 19 -4 c 11 0 c 19 4 c 11 7 c 4 12 c 0 7 c -4 12 c -11 7 c -19 4 c -11 0 c -19 -4 c -11 -7 c
-4 -12 c 0 -7 c 0 -250 7320 1867 l 0 42 7276 1946 l 30 -23 c 0 11 c 4 8 c 4 4 c 11 3 c 8 0 c 11 -3 c 8 -8 c 4 -11 c 0 -12 c -4 -11 c
-4 -4 c -8 -3 c 11 -4 7303 2063 l 8 -7 c 3 -11 c 0 -4 c -3 -12 c -8 -7 c -11 -4 c -4 0 c -11 4 c -8 7 c -4 12 c 0 4 c 4 11 c 8 7 c
15 4 c 19 0 c 18 -4 c 12 -7 c 4 -11 c 0 -8 c -4 -11 c -8 -4 c -4 0 7295 2093 l -7 4 c -4 4 c -4 8 c 0 15 c 4 7 c 4 4 c 7 4 c 8 0 c
7 -4 c 12 -8 c 38 -37 c 0 53 c 0 -38 7276 2211 l 34 -4 c -4 4 c -3 11 c 0 12 c 3 11 c 8 7 c 11 4 c 8 0 c 11 -4 c 8 -7 c 4 -11 c
0 -12 c -4 -11 c -4 -4 c -8 -4 c 4 -3 7348 2248 l 4 3 c -4 4 c -4 -4 c 4 -11 7276 2301 l 11 -8 c 19 -3 c 12 0 c 18 3 c 12 8 c 4 11 c
0 8 c -4 11 c -12 8 c -18 4 c -12 0 c -19 -4 c -11 -8 c -4 -11 c 0 -8 c 11 -3 7303 2403 l 8 -8 c 3 -11 c 0 -4 c -3 -11 c -8 -8 c
-11 -4 c -4 0 c -11 4 c -8 8 c -4 11 c 0 4 c 4 11 c 8 8 c 15 3 c 19 0 c 18 -3 c 12 -8 c 4 -11 c 0 -8 c -4 -11 c -8 -4 c
0 42 7276 2437 l 30 -23 c 0 12 c 4 7 c 4 4 c 11 4 c 8 0 c 11 -4 c 8 -8 c 4 -11 c 0 -11 c -4 -12 c -4 -3 c -8 -4 c 0 -249 7423 2053 l
0 41 7379 2133 l 30 -23 c 0 12 c 4 7 c 4 4 c 11 4 c 8 0 c 11 -4 c 8 -7 c 3 -12 c 0 -11 c -3 -11 c -4 -4 c -8 -4 c 12 -4 7405 2250 l
7 -8 c 4 -11 c 0 -4 c -4 -11 c -7 -8 c -12 -3 c -3 0 c -12 3 c -7 8 c -4 11 c 0 4 c 4 11 c 7 8 c 15 4 c 19 0 c 19 -4 c 12 -8 c
3 -11 c 0 -7 c -3 -12 c -8 -4 c -4 0 7398 2280 l -7 4 c -4 4 c -4 7 c 0 15 c 4 8 c 4 4 c 7 3 c 8 0 c 7 -3 c 12 -8 c 37 -38 c 0 53 c
0 -38 7379 2397 l 34 -3 c -4 3 c -4 12 c 0 11 c 4 11 c 8 8 c 11 4 c 8 0 c 11 -4 c 8 -8 c 3 -11 c 0 -11 c -3 -12 c -4 -3 c -8 -4 c
4 -4 7451 2435 l 3 4 c -3 4 c -4 -4 c 79 -38 7379 2518 l 0 53 7379 2465 l -4 8 7394 2552 l -11 11 c 79 0 c 12 -3 7405 2665 l 7 -8 c
4 -11 c 0 -4 c -4 -11 c -7 -8 c -12 -4 c -3 0 c -12 4 c -7 8 c -4 11 c 0 4 c 4 11 c 7 8 c 15 3 c 19 0 c 19 -3 c 12 -8 c 3 -11 c
0 -8 c -3 -11 c -8 -4 c 0 -249 7903 2005 l 0 41 7859 2085 l 31 -22 c 0 11 c 3 8 c 4 3 c 12 4 c 7 0 c 11 -4 c 8 -7 c 4 -11 c 0 -12 c
-4 -11 c -4 -4 c -7 -4 c 11 -4 7886 2202 l 8 -7 c 4 -12 c 0 -3 c -4 -12 c -8 -7 c -11 -4 c -4 0 c -11 4 c -8 7 c -4 12 c 0 3 c
4 12 c 8 7 c 15 4 c 19 0 c 19 -4 c 11 -7 c 4 -12 c 0 -7 c -4 -12 c -8 -3 c -3 0 7878 2232 l -8 4 c -4 4 c -4 7 c 0 15 c 4 8 c 4 4 c
8 4 c 7 0 c 8 -4 c 11 -8 c 38 -38 c 0 53 c 4 -11 7859 2323 l 8 -4 c 7 0 c 8 4 c 4 7 c 3 15 c 4 12 c 8 7 c 7 4 c 12 0 c 7 -4 c 4 -4 c
4 -11 c 0 -15 c -4 -11 c -4 -4 c -7 -4 c -12 0 c -7 4 c -8 7 c -4 12 c -3 15 c -4 7 c -8 4 c -7 0 c -8 -4 c -4 -11 c 0 -15 c
4 -4 7931 2387 l 4 4 c -4 4 c -4 -4 c -8 -4 7871 2467 l -4 -12 c 0 -7 c 4 -11 c 12 -8 c 18 -4 c 19 0 c 15 4 c 8 8 c 4 11 c 0 4 c
-4 11 c -8 8 c -11 3 c -4 0 c -11 -3 c -8 -8 c -3 -11 c 0 -4 c 3 -11 c 8 -8 c 11 -4 c -3 0 7878 2497 l -8 4 c -4 3 c -4 8 c 0 15 c
4 8 c 4 3 c 8 4 c 7 0 c 8 -4 c 11 -7 c 38 -38 c 0 53 c 0 42 7859 2576 l 31 -23 c 0 11 c 3 8 c 4 4 c 12 4 c 7 0 c 11 -4 c 8 -8 c
4 -11 c 0 -11 c -4 -12 c -4 -4 c -7 -3 c 0 -249 8077 7019 l 0 42 8034 7098 l 30 -23 c 0 12 c 4 7 c 3 4 c 12 4 c 7 0 c 12 -4 c 7 -8 c
4 -11 c 0 -11 c -4 -12 c -4 -3 c -7 -4 c 11 -4 8060 7216 l 8 -8 c 4 -11 c 0 -4 c -4 -11 c -8 -8 c -11 -3 c -4 0 c -11 3 c -8 8 c
-3 11 c 0 4 c 3 11 c 8 8 c 15 4 c 19 0 c 19 -4 c 11 -8 c 4 -11 c 0 -8 c -4 -11 c -7 -4 c -3 0 8052 7246 l -8 4 c -4 3 c -3 8 c
0 15 c 3 8 c 4 3 c 8 4 c 7 0 c 8 -4 c 11 -7 c 38 -38 c 0 53 c 11 -4 8060 7367 l 8 -8 c 4 -11 c 0 -4 c -4 -11 c -8 -8 c -11 -3 c
-4 0 c -11 3 c -8 8 c -3 11 c 0 4 c 3 11 c 8 8 c 15 4 c 19 0 c 19 -4 c 11 -8 c 4 -11 c 0 -7 c -4 -12 c -7 -4 c 4 -4 8105 7401 l
4 4 c -4 4 c -4 -4 c -8 -4 8045 7480 l -3 -11 c 0 -7 c 3 -12 c 12 -7 c 19 -4 c 18 0 c 16 4 c 7 7 c 4 12 c 0 3 c -4 12 c -7 7 c
-12 4 c -4 0 c -11 -4 c -7 -7 c -4 -12 c 0 -3 c 4 -12 c 7 -7 c 11 -4 c -8 -4 8045 7556 l -3 -11 c 0 -8 c 3 -11 c 12 -8 c 19 -4 c
18 0 c 16 4 c 7 8 c 4 11 c 0 4 c -4 11 c -7 8 c -12 4 c -4 0 c -11 -4 c -7 -8 c -4 -11 c 0 -4 c 4 -11 c 7 -8 c 11 -4 c
11 -3 8060 7631 l 8 -8 c 4 -11 c 0 -4 c -4 -11 c -8 -8 c -11 -4 c -4 0 c -11 4 c -8 8 c -3 11 c 0 4 c 3 11 c 8 8 c 15 3 c 19 0 c
19 -3 c 11 -8 c 4 -11 c 0 -8 c -4 -11 c -7 -4 c 0 -249 8340 1310 l 0 41 8296 1390 l 30 -22 c 0 11 c 4 8 c 4 3 c 11 4 c 8 0 c 11 -4 c
8 -7 c 3 -12 c 0 -11 c -3 -11 c -4 -4 c -8 -4 c 12 -4 8322 1507 l 7 -7 c 4 -12 c 0 -4 c -4 -11 c -7 -7 c -12 -4 c -3 0 c -12 4 c
-7 7 c -4 11 c 0 4 c 4 12 c 7 7 c 15 4 c 19 0 c 19 -4 c 12 -7 c 3 -12 c 0 -7 c -3 -12 c -8 -3 c 0 42 8296 1541 l 30 -23 c 0 11 c
4 8 c 4 4 c 11 3 c 8 0 c 11 -3 c 8 -8 c 3 -11 c 0 -12 c -3 -11 c -4 -4 c -8 -4 c -4 8 8311 1620 l -11 11 c 79 0 c 4 -4 8368 1692 l
3 4 c -3 4 c -4 -4 c -4 0 8315 1726 l -7 4 c -4 4 c -4 7 c 0 15 c 4 8 c 4 4 c 7 4 c 8 0 c 7 -4 c 12 -8 c 37 -38 c 0 53 c
0 -37 8296 1843 l 34 -4 c -4 4 c -4 11 c 0 11 c 4 12 c 8 7 c 11 4 c 8 0 c 11 -4 c 8 -7 c 3 -12 c 0 -11 c -3 -11 c -4 -4 c -8 -4 c
79 -37 8296 1926 l 0 52 8296 1874 l 0 -249 8620 1549 l 0 41 8576 1629 l 30 -23 c 0 12 c 4 7 c 4 4 c 11 4 c 8 0 c 11 -4 c 8 -7 c
3 -12 c 0 -11 c -3 -11 c -4 -4 c -8 -4 c 11 -4 8603 1746 l 7 -8 c 4 -11 c 0 -4 c -4 -11 c -7 -8 c -11 -3 c -4 0 c -12 3 c -7 8 c
-4 11 c 0 4 c 4 11 c 7 8 c 16 4 c 18 0 c 19 -4 c 12 -8 c 3 -11 c 0 -8 c -3 -11 c -8 -4 c 0 41 8576 1780 l 30 -22 c 0 11 c 4 8 c
4 3 c 11 4 c 8 0 c 11 -4 c 8 -7 c 3 -12 c 0 -11 c -3 -11 c -4 -4 c -8 -4 c -4 0 8595 1852 l -7 3 c -4 4 c -4 8 c 0 15 c 4 7 c 4 4 c
7 4 c 8 0 c 7 -4 c 12 -7 c 37 -38 c 0 53 c 4 -4 8648 1931 l 3 4 c -3 4 c -4 -4 c 11 -4 8603 2010 l 7 -7 c 4 -11 c 0 -4 c -4 -12 c
-7 -7 c -11 -4 c -4 0 c -12 4 c -7 7 c -4 12 c 0 4 c 4 11 c 7 7 c 16 4 c 18 0 c 19 -4 c 12 -7 c 3 -11 c 0 -8 c -3 -11 c -8 -4 c
-4 8 8591 2048 l -11 11 c 79 0 c -4 7 8591 2124 l -11 12 c 79 0 c 0 -249 8746 2955 l 0 41 8702 3035 l 31 -22 c 0 11 c 3 7 c 4 4 c
11 4 c 8 0 c 11 -4 c 8 -7 c 4 -12 c 0 -11 c -4 -11 c -4 -4 c -7 -4 c 11 -4 8729 3152 l 8 -8 c 3 -11 c 0 -4 c -3 -11 c -8 -8 c
-11 -3 c -4 0 c -11 3 c -8 8 c -4 11 c 0 4 c 4 11 c 8 8 c 15 4 c 19 0 c 19 -4 c 11 -8 c 4 -11 c 0 -7 c -4 -12 c -8 -4 c
0 41 8702 3186 l 31 -22 c 0 11 c 3 8 c 4 3 c 11 4 c 8 0 c 11 -4 c 8 -7 c 4 -12 c 0 -11 c -4 -11 c -4 -4 c -7 -4 c 0 42 8702 3261 l
31 -23 c 0 12 c 3 7 c 4 4 c 11 4 c 8 0 c 11 -4 c 8 -8 c 4 -11 c 0 -11 c -4 -12 c -4 -3 c -7 -4 c 4 -4 8774 3337 l 4 4 c -4 4 c
-4 -4 c -8 -3 8714 3416 l -4 -12 c 0 -7 c 4 -12 c 11 -7 c 19 -4 c 19 0 c 15 4 c 8 7 c 4 12 c 0 3 c -4 12 c -8 7 c -11 4 c -4 0 c
-11 -4 c -8 -7 c -3 -12 c 0 -3 c 3 -12 c 8 -7 c 11 -4 c -8 -4 8714 3492 l -4 -11 c 0 -8 c 4 -11 c 11 -8 c 19 -3 c 19 0 c 15 3 c
8 8 c 4 11 c 0 4 c -4 11 c -8 8 c -11 4 c -4 0 c -11 -4 c -8 -8 c -3 -11 c 0 -4 c 3 -11 c 8 -8 c 11 -3 c -3 7 8717 3530 l -12 12 c
80 0 c 0 -249 8847 1244 l 0 42 8804 1323 l 30 -23 c 0 12 c 4 7 c 4 4 c 11 4 c 8 0 c 11 -4 c 7 -8 c 4 -11 c 0 -11 c -4 -12 c -3 -3 c
-8 -4 c 12 -4 8830 1441 l 7 -8 c 4 -11 c 0 -4 c -4 -11 c -7 -8 c -12 -4 c -3 0 c -12 4 c -7 8 c -4 11 c 0 4 c 4 11 c 7 8 c 15 4 c
19 0 c 19 -4 c 11 -8 c 4 -11 c 0 -8 c -4 -11 c -7 -4 c 0 41 8804 1475 l 30 -22 c 0 11 c 4 7 c 4 4 c 11 4 c 8 0 c 11 -4 c 7 -7 c
4 -12 c 0 -11 c -4 -11 c -3 -4 c -8 -4 c 53 -37 8804 1580 l 0 56 c 79 0 8804 1580 l 3 -4 8876 1626 l 4 4 c -4 4 c -3 -4 c
-4 0 8823 1660 l -8 4 c -3 3 c -4 8 c 0 15 c 4 8 c 3 3 c 8 4 c 8 0 c 7 -4 c 11 -7 c 38 -38 c 0 53 c 79 -38 8804 1785 l
0 53 8804 1732 l 53 -38 8804 1845 l 0 57 c 79 0 8804 1845 l 0 -250 9202 1272 l 0 42 9158 1351 l 30 -23 c 0 11 c 4 8 c 4 4 c 11 4 c
8 0 c 11 -4 c 8 -8 c 3 -11 c 0 -11 c -3 -12 c -4 -4 c -8 -3 c 12 -3 9184 1468 l 7 -8 c 4 -11 c 0 -4 c -4 -11 c -7 -8 c -12 -4 c
-3 0 c -12 4 c -7 8 c -4 11 c 0 4 c 4 11 c 7 8 c 15 3 c 19 0 c 19 -3 c 12 -8 c 3 -11 c 0 -8 c -3 -11 c -8 -4 c 0 42 9158 1502 l
30 -23 c 0 12 c 4 7 c 4 4 c 11 4 c 8 0 c 11 -4 c 8 -8 c 3 -11 c 0 -11 c -3 -12 c -4 -3 c -8 -4 c -7 -4 9169 1620 l -4 -12 c 0 -7 c
4 -11 c 11 -8 c 19 -4 c 19 0 c 15 4 c 8 8 c 3 11 c 0 4 c -3 11 c -8 8 c -11 3 c -4 0 c -11 -3 c -8 -8 c -4 -11 c 0 -4 c 4 -11 c
8 -8 c 11 -4 c 4 -4 9230 1654 l 3 4 c -3 3 c -4 -3 c 0 42 9158 1691 l 30 -23 c 0 12 c 4 7 c 4 4 c 11 4 c 8 0 c 11 -4 c 8 -8 c
3 -11 c 0 -11 c -3 -12 c -4 -3 c -8 -4 c 0 -38 9158 1805 l 34 -4 c -4 4 c -4 11 c 0 12 c 4 11 c 8 8 c 11 3 c 8 0 c 11 -3 c 8 -8 c
3 -11 c 0 -12 c -3 -11 c -4 -4 c -8 -4 c 0 41 9158 1843 l 30 -23 c 0 12 c 4 7 c 4 4 c 11 4 c 8 0 c 11 -4 c 8 -7 c 3 -12 c 0 -11 c
-3 -11 c -4 -4 c -8 -4 c 0 -250 9319 1361 l 0 42 9275 1440 l 31 -23 c 0 11 c 3 8 c 4 4 c 11 3 c 8 0 c 11 -3 c 8 -8 c 4 -11 c 0 -12 c
-4 -11 c -4 -4 c -7 -3 c 11 -4 9302 1557 l 8 -7 c 3 -11 c 0 -4 c -3 -12 c -8 -7 c -11 -4 c -4 0 c -11 4 c -8 7 c -4 12 c 0 4 c
4 11 c 8 7 c 15 4 c 19 0 c 19 -4 c 11 -7 c 4 -11 c 0 -8 c -4 -11 c -8 -4 c 0 42 9275 1591 l 31 -23 c 0 12 c 3 7 c 4 4 c 11 4 c 8 0 c
11 -4 c 8 -8 c 4 -11 c 0 -11 c -4 -12 c -4 -3 c -7 -4 c 80 -38 9275 1712 l 0 53 9275 1659 l 4 -3 9347 1742 l 4 3 c -4 4 c -4 -4 c
4 -11 9275 1795 l 11 -8 c 19 -3 c 12 0 c 19 3 c 11 8 c 4 11 c 0 8 c -4 11 c -11 8 c -19 4 c -12 0 c -19 -4 c -11 -8 c -4 -11 c
0 -8 c 53 -38 9275 1886 l 0 57 c 80 0 9275 1886 l -3 8 9290 1935 l -12 11 c 80 0 c
showpage PGPLOT restore
 
%%Trailer
%%DocumentFonts: 
%%Pages: 1
%%EOF
