%!PS-Adobe-3.0 EPSF-3.0
%%For: tab
%%Title: PGPLOT PostScript plot
%%Creator: PGPLOT
%%CreationDate: 20-Apr-1995 16:31
%%BoundingBox: 25 18 587 774
%%DocumentFonts: (atend)
%%LanguageLevel: 1
%%Orientation: Landscape
%%Pages: (atend)
%%EndComments
%%BeginProlog
/l {moveto rlineto currentpoint stroke moveto} bind def
/c {rlineto currentpoint stroke moveto} bind def
/d {moveto 0 0 rlineto currentpoint stroke moveto} bind def
/SLW {5 mul setlinewidth} bind def
/SCF /pop load def
/BP {newpath moveto} bind def
/LP /rlineto load def
/EP {rlineto closepath eofill} bind def
/MB {gsave translate MFAC dup scale 1 setlinewidth 2 setlinecap 0 setlinejoin newpath} bind def
/ME /grestore load def
/C {0 360 arc stroke} bind def
/FC {0 360 arc fill} bind def
%%EndProlog
 
%%Page: 1 1
%%BeginPageSetup
/PGPLOT save def
0.072 0.072 scale
8150 250 translate 90 rotate
1 setlinejoin 1 setlinecap 1 SLW 1 SCF
%%EndPageSetup
0.000 setgray 1 SLW 8939 0 780 780 l 0 6239 c -8939 0 c 0 -6239 c 0 -45 1116 780 l 0 -45 1554 780 l 0 -45 1991 780 l
0 -45 2428 780 l 0 -90 2865 780 l 0 -45 3302 780 l 0 -45 3739 780 l 0 -45 4176 780 l 0 -45 4613 780 l 0 -90 5051 780 l
0 -45 5488 780 l 0 -45 5925 780 l 0 -45 6362 780 l 0 -45 6799 780 l 0 -90 7236 780 l 0 -45 7673 780 l 0 -45 8110 780 l
0 -45 8548 780 l 0 -45 8985 780 l 0 -90 9422 780 l 0 -45 1116 7064 l 0 -45 1554 7064 l 0 -45 1991 7064 l 0 -45 2428 7064 l
0 -90 2865 7109 l 0 -45 3302 7064 l 0 -45 3739 7064 l 0 -45 4176 7064 l 0 -45 4613 7064 l 0 -90 5051 7109 l 0 -45 5488 7064 l
0 -45 5925 7064 l 0 -45 6362 7064 l 0 -45 6799 7064 l 0 -90 7236 7109 l 0 -45 7673 7064 l 0 -45 8110 7064 l 0 -45 8548 7064 l
0 -45 8985 7064 l 0 -90 9422 7109 l -60 0 2775 672 l -6 -54 c 6 6 c 18 6 c 18 0 c 18 -6 c 12 -12 c 6 -18 c 0 -12 c -6 -18 c
-12 -12 c -18 -6 c -18 0 c -18 6 c -6 6 c -6 12 c -18 -6 2859 672 l -12 -18 c -6 -30 c 0 -18 c 6 -30 c 12 -18 c 18 -6 c 12 0 c
18 6 c 12 18 c 6 30 c 0 18 c -6 30 c -12 18 c -18 6 c -12 0 c -18 -6 2979 672 l -12 -18 c -6 -30 c 0 -18 c 6 -30 c 12 -18 c 18 -6 c
12 0 c 18 6 c 12 18 c 6 30 c 0 18 c -6 30 c -12 18 c -18 6 c -12 0 c 12 6 4847 648 l 18 18 c 0 -126 c -18 -6 4985 672 l -12 -18 c
-6 -30 c 0 -18 c 6 -30 c 12 -18 c 18 -6 c 12 0 c 18 6 c 12 18 c 6 30 c 0 18 c -6 30 c -12 18 c -18 6 c -12 0 c -18 -6 5105 672 l
-12 -18 c -6 -30 c 0 -18 c 6 -30 c 12 -18 c 18 -6 c 12 0 c 18 6 c 12 18 c 6 30 c 0 18 c -6 30 c -12 18 c -18 6 c -12 0 c
-18 -6 5225 672 l -12 -18 c -6 -30 c 0 -18 c 6 -30 c 12 -18 c 18 -6 c 12 0 c 18 6 c 12 18 c 6 30 c 0 18 c -6 30 c -12 18 c -18 6 c
-12 0 c 12 6 7032 648 l 18 18 c 0 -126 c -60 0 7206 672 l -6 -54 c 6 6 c 18 6 c 18 0 c 18 -6 c 12 -12 c 6 -18 c 0 -12 c -6 -18 c
-12 -12 c -18 -6 c -18 0 c -18 6 c -6 6 c -6 12 c -18 -6 7290 672 l -12 -18 c -6 -30 c 0 -18 c 6 -30 c 12 -18 c 18 -6 c 12 0 c
18 6 c 12 18 c 6 30 c 0 18 c -6 30 c -12 18 c -18 6 c -12 0 c -18 -6 7410 672 l -12 -18 c -6 -30 c 0 -18 c 6 -30 c 12 -18 c 18 -6 c
12 0 c 18 6 c 12 18 c 6 30 c 0 18 c -6 30 c -12 18 c -18 6 c -12 0 c 0 6 9206 642 l 6 12 c 6 6 c 12 6 c 24 0 c 12 -6 c 6 -6 c
6 -12 c 0 -12 c -6 -12 c -12 -18 c -60 -60 c 84 0 c -18 -6 9356 672 l -12 -18 c -6 -30 c 0 -18 c 6 -30 c 12 -18 c 18 -6 c 12 0 c
18 6 c 12 18 c 6 30 c 0 18 c -6 30 c -12 18 c -18 6 c -12 0 c -18 -6 9476 672 l -12 -18 c -6 -30 c 0 -18 c 6 -30 c 12 -18 c 18 -6 c
12 0 c 18 6 c 12 18 c 6 30 c 0 18 c -6 30 c -12 18 c -18 6 c -12 0 c -18 -6 9596 672 l -12 -18 c -6 -30 c 0 -18 c 6 -30 c 12 -18 c
18 -6 c 12 0 c 18 6 c 12 18 c 6 30 c 0 18 c -6 30 c -12 18 c -18 6 c -12 0 c -90 0 780 780 l -45 0 780 1140 l -45 0 780 1500 l
-45 0 780 1860 l -45 0 780 2220 l -90 0 780 2579 l -45 0 780 2939 l -45 0 780 3299 l -45 0 780 3659 l -45 0 780 4019 l
-90 0 780 4379 l -45 0 780 4739 l -45 0 780 5099 l -45 0 780 5459 l -45 0 780 5819 l -90 0 780 6178 l -45 0 780 6538 l
-45 0 780 6898 l -90 0 9809 780 l -45 0 9764 1140 l -45 0 9764 1500 l -45 0 9764 1860 l -45 0 9764 2220 l -90 0 9809 2579 l
-45 0 9764 2939 l -45 0 9764 3299 l -45 0 9764 3659 l -45 0 9764 4019 l -90 0 9809 4379 l -45 0 9764 4739 l -45 0 9764 5099 l
-45 0 9764 5459 l -45 0 9764 5819 l -90 0 9809 6178 l -45 0 9764 6538 l -45 0 9764 6898 l 6 -18 517 774 l 18 -12 c 30 -6 c 18 0 c
30 6 c 18 12 c 6 18 c 0 12 c -6 18 c -18 12 c -30 6 c -18 0 c -30 -6 c -18 -12 c -6 -18 c 0 -12 c 0 -60 517 2429 l 54 -6 c -6 6 c
-6 18 c 0 18 c 6 18 c 12 12 c 18 6 c 12 0 c 18 -6 c 12 -12 c 6 -18 c 0 -18 c -6 -18 c -6 -6 c -12 -6 c 6 -18 517 2513 l 18 -12 c
30 -6 c 18 0 c 30 6 c 18 12 c 6 18 c 0 12 c -6 18 c -18 12 c -30 6 c -18 0 c -30 -6 c -18 -12 c -6 -18 c 0 -12 c 6 -18 517 2633 l
18 -12 c 30 -6 c 18 0 c 30 6 c 18 12 c 6 18 c 0 12 c -6 18 c -18 12 c -30 6 c -18 0 c -30 -6 c -18 -12 c -6 -18 c 0 -12 c
6 -18 517 2753 l 18 -12 c 30 -6 c 18 0 c 30 6 c 18 12 c 6 18 c 0 12 c -6 18 c -18 12 c -30 6 c -18 0 c -30 -6 c -18 -12 c -6 -18 c
0 -12 c -6 12 541 4259 l -18 18 c 126 0 c 6 -18 517 4397 l 18 -12 c 30 -6 c 18 0 c 30 6 c 18 12 c 6 18 c 0 12 c -6 18 c -18 12 c
-30 6 c -18 0 c -30 -6 c -18 -12 c -6 -18 c 0 -12 c 63 -45 453 4521 l 0 68 c 94 0 453 4521 l -6 12 541 5842 l -18 18 c 126 0 c
6 -6 631 5956 l 6 6 c -6 6 c -6 -6 c 0 -60 517 6076 l 54 -6 c -6 6 c -6 18 c 0 18 c 6 18 c 12 12 c 18 6 c 12 0 c 18 -6 c 12 -12 c
6 -18 c 0 -18 c -6 -18 c -6 -6 c -12 -6 c 84 84 547 6130 l 84 -84 547 6214 l -6 12 541 6274 l -18 18 c 126 0 c 6 -18 517 6412 l
18 -12 c 30 -6 c 18 0 c 30 6 c 18 12 c 6 18 c 0 12 c -6 18 c -18 12 c -30 6 c -18 0 c -30 -6 c -18 -12 c -6 -18 c 0 -12 c
63 -45 453 6537 l 0 67 c 94 0 453 6537 l
4 -24 780 823 l 5 -6 c 4 -1 c 4 -1 c 5 1 c 4 3 c 4 2 c 5 2 c 4 2 c 5 -2 c 4 -1 c 4 0 c 5 6 c 4 18 c 4 35 c 5 84 c 4 37 c 5 -50 c
4 -99 c 4 -27 c 5 -5 c 4 -2 c 4 -1 c 5 -1 c 4 0 c 5 1 c 4 -2 c 4 1 c 5 -1 c 4 0 c 4 -1 c 5 1 c 4 0 c 5 0 c 4 1 c 4 -2 c 5 1 c 4 1 c
4 -1 c 5 -1 c 4 4 c 4 0 c 5 -2 c 4 -1 c 5 0 c 4 0 c 4 1 c 5 -1 c 4 2 c 4 2 c 5 2 c 4 4 c 5 1 c 4 -2 c 4 5 c 5 14 c 4 36 c 4 51 c
5 -8 c 4 -50 c 5 -26 c 4 12 c 4 2 c 5 -9 c 4 15 c 4 23 c 5 10 c 4 21 c 5 61 c 4 -11 c 4 -79 c 5 -58 c 4 7 c 4 26 c 5 70 c 4 68 c
4 -6 c 5 -53 c 4 -37 c 5 -32 c 4 -43 c 4 -2 c 5 5 c 4 -33 c 4 0 c 5 14 c 4 -2 c 5 1 c 4 -2 c 4 3 c 5 -1 c 4 3 c 4 -1 c 5 -2 c 4 0 c
5 0 c 4 2 c 4 3 c 5 -2 c 4 -1 c 4 -3 c 5 -1 c 4 0 c 5 1 c 4 2 c 4 2 c 5 2 c 4 2 c 4 -1 c 5 -4 c 4 -3 c 4 1 c 5 2 c 4 3 c 5 7 c
4 20 c 4 21 c 5 -7 c 4 -31 c 4 -16 c 5 0 c 4 0 c 5 2 c 4 -1 c 4 0 c 5 -1 c 4 -1 c 4 2 c 5 -2 c 4 2 c 5 -1 c 4 0 c 4 1 c 5 -1 c 4 0 c
4 -1 c 5 1 c 4 1 c 5 3 c 4 4 c 4 15 c 5 25 c 4 5 c 4 -26 c 5 -23 c 4 -3 c 4 2 c 5 5 c 4 -1 c 5 -2 c 4 -3 c 4 0 c 5 3 c 4 -1 c 4 -1 c
5 -1 c 4 -1 c 5 0 c 4 1 c 4 0 c 5 4 c 4 4 c 4 0 c 5 -4 c 4 0 c 5 6 c 4 10 c 4 -4 c 5 -9 c 4 -7 c 4 2 c 5 -1 c 4 -1 c 4 -2 c 5 0 c
4 1 c 5 0 c 4 4 c 4 3 c 5 16 c 4 28 c 4 3 c 5 -20 c 4 -27 c 5 -6 c 4 1 c 4 0 c 5 2 c 4 1 c 4 -2 c 5 -2 c 4 -1 c 5 1 c 4 -2 c 4 1 c
5 -1 c 4 1 c 4 3 c 5 2 c 4 0 c 5 -1 c 4 -2 c 4 0 c 5 -1 c 4 1 c 4 5 c 5 18 c 4 14 c 4 -5 c 5 -22 c 4 -12 c 5 0 c 4 0 c 4 -1 c 5 0 c
4 1 c 4 0 c 5 3 c 4 9 c 5 27 c 4 43 c 4 7 c 5 -35 c 4 -44 c 4 -3 c 5 8 c 4 5 c 5 6 c 4 2 c 4 -12 c 5 -12 c 4 -3 c 4 0 c 5 0 c 4 0 c
5 0 c 4 -1 c 4 1 c 5 2 c 4 1 c 4 -2 c 5 0 c 4 0 c 4 5 c 5 9 c 4 3 c 5 -9 c 4 -7 c 4 -3 c 5 1 c 4 -1 c 4 2 c 5 2 c 4 1 c 5 -1 c 4 1 c
4 2 c 5 -2 c 4 0 c 4 3 c 5 10 c 4 3 c 5 -5 c 4 -8 c 4 -3 c 5 -2 c 4 0 c 4 1 c 5 -1 c 4 -2 c 5 -2 c 4 0 c 4 2 c 5 0 c 4 -1 c 4 1 c
5 1 c 4 -2 c 4 -2 c 5 2 c 4 0 c 5 1 c 4 -1 c 4 1 c 5 4 c 4 13 c 4 26 c 5 4 c 4 -17 c 5 -27 c 4 -3 c 4 1 c 5 -1 c 4 -1 c 4 0 c 5 0 c
4 0 c 5 0 c 4 1 c 4 0 c 5 -1 c 4 6 c 4 11 c 5 1 c 4 -5 c 5 -10 c 4 -1 c 4 1 c 5 1 c 4 0 c 4 0 c 5 -2 c 4 0 c 4 -2 c 5 1 c 4 0 c
5 0 c 4 4 c 4 10 c 5 21 c 4 6 c 4 -12 c 5 -25 c 4 -3 c 5 4 c 4 20 c 4 77 c 5 164 c 4 27 c 4 -108 c 5 -152 c 4 -27 c 5 -1 c 4 0 c
4 0 c 5 -3 c 4 -2 c 4 0 c 5 -1 c 4 0 c 4 0 c 5 0 c 4 -1 c 5 0 c 4 1 c 4 0 c 5 0 c 4 1 c 4 -1 c 5 1 c 4 2 c 5 -1 c 4 1 c 4 -2 c
5 -2 c 4 3 c 4 0 c 5 0 c 4 1 c 5 -1 c 4 -1 c 4 0 c 5 0 c 4 1 c 4 0 c 5 1 c 4 2 c 5 1 c 4 1 c 4 -1 c 5 1 c 4 1 c 4 0 c 5 0 c 4 -5 c
4 -2 c 5 -2 c 4 2 c 5 -1 c 4 0 c 4 1 c 5 0 c 4 1 c 4 1 c 5 0 c 4 -2 c 5 -1 c 4 1 c 4 -3 c 5 2 c 4 1 c 4 0 c 5 0 c 4 0 c 5 2 c 4 1 c
4 1 c 5 7 c 4 7 c 4 -2 c 5 -7 c 4 -9 c 5 0 c 4 0 c 4 -1 c 5 2 c 4 -1 c 4 1 c 5 1 c 4 7 c 4 39 c 5 145 c 4 101 c 5 -47 c 4 -171 c
4 -67 c 5 -6 c 4 -1 c 4 -1 c 5 0 c 4 1 c 5 0 c 4 0 c 4 2 c 5 2 c 4 -1 c 4 -2 c 5 -1 c 4 -1 c 5 1 c 4 7 c 4 39 c 5 64 c 4 6 c 4 -51 c
5 -54 c 4 8 c 5 20 c 4 7 c 4 8 c 5 51 c 4 10 c 4 -34 c 5 -43 c 4 6 c 4 -1 c 5 -17 c 4 -10 c 5 -10 c 4 -7 c 4 0 c 5 -1 c 4 8 c 4 15 c
5 2 c 4 -8 c 5 -14 c 4 -2 c 4 0 c 5 2 c 4 -3 c 4 0 c 5 2 c 4 -1 c 5 1 c 4 -1 c 4 11 c 5 28 c 4 7 c 4 -13 c 5 -26 c 4 -1 c 5 18 c
4 31 c 4 -1 c 5 -24 c 4 -21 c 4 6 c 5 -2 c 4 -6 c 4 -6 c 5 -3 c 4 2 c 5 -2 c 4 0 c 4 0 c 5 1 c 4 0 c 4 0 c 5 0 c 4 0 c 5 0 c 4 -1 c
4 0 c 5 1 c 4 -1 c 4 1 c 5 2 c 4 15 c 5 67 c 4 47 c 4 -15 c 5 -74 c 4 -34 c 4 -3 c 5 -1 c 4 -4 c 4 0 c 5 4 c 4 0 c 5 -2 c 4 -2 c
4 1 c 5 4 c 4 4 c 4 4 c 5 7 c 4 16 c 5 5 c 4 -18 c 4 -17 c 5 -5 c 4 -1 c 4 1 c 5 1 c 4 3 c 5 -3 c 4 -1 c 4 -1 c 5 3 c 4 2 c 4 4 c
5 2 c 4 -4 c 5 -5 c 4 -1 c 4 0 c 5 2 c 4 1 c 4 2 c 5 0 c 4 -1 c 4 -2 c 5 11 c 4 120 c 5 224 c 4 33 c 4 -165 c 5 -190 c 4 -27 c 4 3 c
5 18 c 4 10 c 5 34 c 4 29 c 4 -15 c 5 -49 c 4 -34 c 4 -4 c 5 1 c 4 -2 c 5 1 c 4 1 c 4 0 c 5 1 c 4 -1 c 4 0 c 5 2 c 4 4 c 5 70 c
4 157 c 4 41 c 5 -106 c 4 -139 c 4 -29 c 5 -3 c 4 0 c 4 1 c 5 0 c 4 0 c 5 -1 c 4 2 c 4 2 c 5 -2 c 4 2 c 4 5 c 5 1 c 4 -4 c 5 -3 c
4 2 c 4 -1 c 5 -3 c 4 -1 c 4 0 c 5 0 c 4 1 c 5 -1 c 4 0 c 4 -1 c 5 2 c 4 0 c 4 1 c 5 2 c 4 1 c 5 -1 c 4 -1 c 4 1 c 5 0 c 4 1 c
4 -1 c 5 -1 c 4 -1 c 4 0 c 5 -1 c 4 1 c 5 -1 c 4 1 c 4 3 c 5 2 c 4 4 c 4 9 c 5 4 c 4 -5 c 5 -14 c 4 -5 c 4 0 c 5 1 c 4 -1 c 4 0 c
5 0 c 4 0 c 5 2 c 4 -1 c 4 3 c 5 -2 c 4 0 c 4 -2 c 5 2 c 4 4 c 4 12 c 5 4 c 4 -5 c 5 -12 c 4 -5 c 4 -1 c 5 3 c 4 0 c 4 -1 c 5 -1 c
4 -1 c 5 2 c 4 -2 c 4 1 c 5 6 c 4 4 c 4 -1 c 5 -6 c 4 -3 c 5 1 c 4 0 c 4 5 c 5 9 c 4 14 c 4 11 c 5 7 c 4 -11 c 5 -13 c 4 -14 c
4 -7 c 5 -1 c 4 0 c 4 1 c 5 0 c 4 0 c 4 -1 c 5 0 c 4 2 c 5 1 c 4 2 c 4 5 c 5 -1 c 4 -3 c 4 -5 c 5 -2 c 4 1 c 5 -1 c 4 0 c 4 2 c
5 2 c 4 5 c 4 -2 c 5 -4 c 4 -3 c 5 1 c 4 1 c 4 -1 c 5 -1 c 4 0 c 4 0 c 5 1 c 4 1 c 5 0 c 4 0 c 4 0 c 5 2 c 4 -1 c 4 -1 c 5 -1 c
4 0 c 4 0 c 5 -1 c 4 1 c 5 -1 c 4 2 c 4 3 c 5 2 c 4 17 c 4 166 c 5 222 c 4 -16 c 5 -207 c 4 -171 c 4 -15 c 5 0 c 4 0 c 4 1 c 5 7 c
4 6 c 5 6 c 4 25 c 4 46 c 5 12 c 4 -42 c 4 -54 c 5 -9 c 4 2 c 5 3 c 4 12 c 4 17 c 5 5 c 4 -13 c 4 -13 c 5 3 c 4 -4 c 4 -6 c 5 -4 c
4 0 c 5 2 c 4 -1 c 4 -2 c 5 1 c 4 1 c 4 -2 c 5 1 c 4 -2 c 5 1 c 4 0 c 4 0 c 5 1 c 4 -1 c 4 2 c 5 -1 c 4 -2 c 5 3 c 4 10 c 4 21 c
5 13 c 4 -9 c 4 -18 c 5 -10 c 4 -1 c 5 -4 c 4 -4 c 4 -1 c 5 2 c 4 4 c 4 -1 c 5 -2 c 4 -4 c 4 0 c 5 1 c 4 0 c 5 2 c 4 5 c 4 5 c
5 -1 c 4 -6 c 4 -5 c 5 0 c 4 0 c 5 0 c 4 -1 c 4 0 c 5 2 c 4 -2 c 4 0 c 5 -1 c 4 1 c 5 1 c 4 2 c 4 1 c 5 -3 c 4 1 c 4 -2 c 5 0 c
4 0 c 4 1 c 5 0 c 4 1 c 5 0 c 4 -1 c 4 -1 c 5 1 c 4 2 c 4 1 c 5 -2 c 4 0 c 5 1 c 4 1 c 4 -1 c 5 -3 c 4 1 c 4 0 c 5 4 c 4 9 c 5 2 c
4 -5 c 4 -8 c 5 -3 c 4 2 c 4 4 c 5 0 c 4 0 c 5 9 c 4 10 c 4 0 c 5 -12 c 4 -11 c 4 1 c 5 -2 c 4 1 c 4 0 c 5 -3 c 4 1 c 5 1 c 4 0 c
4 1 c 5 2 c 4 6 c 4 16 c 5 11 c 4 -8 c 5 -14 c 4 -10 c 4 0 c 5 -3 c 4 -1 c 4 0 c 5 -1 c 4 1 c 5 1 c 4 0 c 4 4 c 5 2 c 4 -2 c 4 -3 c
5 -1 c 4 0 c 5 0 c 4 -2 c 4 1 c 5 2 c 4 5 c 4 1 c 5 -4 c 4 -4 c 4 -2 c 5 1 c 4 0 c 5 2 c 4 2 c 4 9 c 5 8 c 4 -3 c 4 -11 c 5 -6 c
4 0 c 5 1 c 4 1 c 4 -1 c 5 0 c 4 -1 c 4 2 c 5 7 c 4 4 c 5 -1 c 4 -5 c 4 -4 c 5 -3 c 4 0 c 4 -1 c 5 1 c 4 -1 c 5 2 c 4 -2 c 4 3 c
5 3 c 4 3 c 4 2 c 5 -5 c 4 -6 c 4 0 c 5 1 c 4 1 c 5 0 c 4 0 c 4 -1 c 5 0 c 4 2 c 4 4 c 5 7 c 4 12 c 5 3 c 4 -6 c 4 -10 c 5 -3 c
4 -5 c 4 -4 c 5 5 c 4 1 c 5 2 c 4 -4 c 4 -2 c 5 -2 c 4 0 c 4 2 c 5 3 c 4 1 c 5 -1 c 4 -2 c 4 0 c 5 0 c 4 2 c 4 16 c 5 30 c 4 8 c
4 -20 c 5 -29 c 4 -6 c 5 -1 c 4 -1 c 4 0 c 5 3 c 4 3 c 4 -2 c 5 -2 c 4 0 c 5 0 c 4 0 c 4 -18 c 5 16 c 4 -2 c 4 0 c 5 0 c 4 1 c 5 0 c
4 0 c 4 2 c 5 5 c 4 22 c 4 15 c 5 -2 c 4 -23 c 4 -12 c 5 -2 c 4 0 c 5 -1 c 4 1 c 4 1 c 5 3 c 4 5 c 4 13 c 5 58 c 4 281 c 5 610 c
4 307 c 4 -271 c 5 -649 c 4 -295 c 4 -37 c 5 -13 c 4 -3 c 5 -4 c 4 -1 c 4 -1 c 5 -2 c 4 -2 c 4 -1 c 5 0 c 4 4 c 5 2 c 4 3 c 4 7 c
5 -1 c 4 -6 c 4 -5 c 5 0 c 4 1 c 4 0 c 5 2 c 4 -3 c 5 -3 c 4 0 c 4 -1 c 5 2 c 4 3 c 4 7 c 5 6 c 4 3 c 5 -4 c 4 -10 c 4 3 c 5 2 c
4 0 c 4 1 c 5 7 c 4 6 c 5 5 c 4 7 c 4 24 c 5 123 c 4 1165 c 4 3392 c 5 1296 c 4 -1509 c 5 -3402 c 4 -999 c 4 -73 c 5 -13 c 4 -11 c
4 -7 c 5 -1 c 4 6 c 4 1 c 5 -4 c 4 -7 c 5 5 c 4 76 c 4 113 c 5 29 c 4 -4 c 4 423 c 5 658 c 4 176 c 5 -423 c 4 -622 c 4 -321 c
5 -109 c 4 -11 c 4 -1 c 5 0 c 4 -1 c 5 7 c 4 12 c 4 1 c 5 29 c 4 113 c 4 56 c 5 -48 c 4 -113 c 5 19 c 4 98 c 4 28 c 5 -74 c 4 -100 c
4 -31 c 5 -2 c 4 -1 c 4 2 c 5 1 c 4 -1 c 5 12 c 4 8 c 4 -1 c 5 -12 c 4 -10 c 4 -2 c 5 0 c 4 0 c 5 0 c 4 2 c 4 1 c 5 1 c 4 3 c 4 3 c
5 -1 c 4 -4 c 5 -2 c 4 3 c 4 2 c 5 12 c 4 80 c 4 151 c 5 28 c 4 -97 c 4 -138 c 5 -14 c 4 34 c 5 7 c 4 -16 c 4 -35 c 5 -37 c 4 34 c
4 3 c 5 -2 c 4 -6 c 5 -4 c 4 0 c 4 1 c 5 3 c 4 4 c 4 5 c 5 6 c 4 24 c 5 143 c 4 -211 c 4 0 c 5 3445 c 4 -1268 c 4 -1741 c 5 -374 c
4 -15 c 5 -8 c 4 -3 c 4 2 c 5 18 c 4 172 c 4 608 c 5 359 c 4 -217 c 4 -577 c 5 -274 c 4 -53 c 5 -39 c 4 -10 c 4 -2 c 5 -1 c 4 -3 c
4 0 c 5 1 c 4 -1 c 5 2 c 4 -1 c 4 5 c 5 44 c 4 72 c 4 15 c 5 -48 c 4 -71 c 5 -17 c 4 -1 c 4 -2 c 5 -1 c 4 -1 c 4 1 c 5 0 c 4 0 c
5 0 c 4 -1 c 4 0 c 5 0 c 4 -1 c 4 -1 c 5 1 c 4 1 c 4 0 c 5 0 c 4 1 c 5 0 c 4 -1 c 4 0 c 5 1 c 4 1 c 4 13 c 5 14 c 4 -2 c 5 -15 c
4 -12 c 4 -1 c 5 1 c 4 0 c 4 0 c 5 -1 c 4 0 c 5 1 c 4 1 c 4 5 c 5 29 c 4 61 c 4 14 c 5 -35 c 4 -57 c 5 -15 c 4 0 c 4 0 c 5 0 c 4 0 c
4 1 c 5 3 c 4 4 c 4 0 c 5 -7 c 4 -5 c 5 0 c 4 1 c 4 -2 c 5 0 c 4 1 c 4 0 c 5 -1 c 4 1 c 5 -1 c 4 2 c 4 3 c 5 3 c 4 -1 c 4 -4 c 5 4 c
4 1 c 5 3 c 4 9 c 4 63 c 5 108 c 4 32 c 4 -67 c 5 -108 c 4 -36 c 5 -5 c 4 4 c 4 4 c 5 16 c 4 13 c 4 -2 c 5 -20 c 4 -19 c 4 -1 c
5 -1 c 4 1 c 5 -2 c 4 1 c 4 0 c 5 0 c 4 -1 c 4 2 c 5 -1 c 4 0 c 5 0 c 4 0 c 4 2 c 5 0 c 4 0 c 4 -2 c 5 0 c 4 2 c 5 0 c 4 4 c 4 30 c
5 49 c 4 13 c 4 -37 c 5 -49 c 4 -10 c 4 3 c 5 4 c 4 -2 c 5 -4 c 4 0 c 4 -2 c 5 0 c 4 2 c 4 1 c 5 -1 c 4 -2 c 5 -1 c 4 2 c 4 3 c
5 2 c 4 0 c 4 -2 c 5 -2 c 4 1 c 5 0 c 4 -2 c 4 -1 c 5 2 c 4 -1 c 4 0 c 5 0 c 4 0 c 5 3 c 4 1 c 4 -4 c 5 -2 c 4 1 c 4 0 c 5 2 c
4 -1 c 4 -3 c 5 0 c 4 0 c 5 1 c 4 -1 c 4 2 c 5 -1 c 4 1 c 4 1 c 5 5 c 4 14 c 5 23 c 4 131 c 4 228 c 5 23 c 4 -157 c 4 -219 c 5 -37 c
4 6 c 5 -1 c 4 -5 c 4 -11 c 5 0 c 4 -1 c 4 -15 c 5 14 c 4 -1 c 5 1 c 4 3 c 4 8 c 5 17 c 4 6 c 4 -9 c 5 -6 c 4 15 c 4 2 c 5 -12 c
4 -5 c 5 11 c 4 1 c 4 -14 c 5 -14 c 4 -2 c 4 1 c 5 0 c 4 1 c 5 1 c 4 17 c 4 67 c 5 38 c 4 -16 c 4 -71 c 5 -32 c 4 -3 c 5 1 c 4 -1 c
4 1 c 5 4 c 4 20 c 4 209 c 5 397 c 4 95 c 5 -234 c 4 -400 c 4 -84 c 5 -8 c 4 0 c 4 -1 c 5 0 c 4 3 c 4 0 c 5 -2 c 4 -2 c 5 -1 c
4 -1 c 4 0 c 5 0 c 4 -1 c 4 1 c 5 -1 c 4 1 c 5 1 c 4 -1 c 4 -2 c 5 1 c 4 -1 c 4 1 c 5 1 c 4 1 c 5 0 c 4 4 c 4 6 c 5 -1 c 4 -1 c
4 -6 c 5 -2 c 4 0 c 5 0 c 4 1 c 4 1 c 5 2 c 4 0 c 4 3 c 5 7 c 4 0 c 4 -2 c 5 -6 c 4 -1 c 5 2 c 4 3 c 4 3 c 5 4 c 4 7 c 4 12 c 5 42 c
4 304 c 5 888 c 4 617 c 4 -248 c 5 -925 c 4 -554 c 4 -96 c 5 -24 c 4 -9 c 5 -10 c 4 -5 c 4 -6 c 5 -3 c 4 -1 c 4 2 c 5 -1 c 4 0 c
4 -2 c 5 -2 c 4 -2 c 5 -2 c 4 1 c 4 9 c 5 6 c 4 0 c 4 -7 c 5 3 c 4 16 c 5 5 c 4 -10 c 4 -15 c 5 -4 c 4 -3 c 4 -2 c 5 1 c 4 -1 c
5 1 c 4 -1 c 4 0 c 5 0 c 4 2 c 4 1 c 5 6 c 4 28 c 5 59 c 4 17 c 4 -31 c 5 -57 c 4 -23 c 4 -1 c 5 1 c 4 0 c 4 1 c 5 -1 c 4 1 c 5 3 c
4 0 c 4 -1 c 5 15 c 4 63 c 4 32 c 5 -14 c 4 -58 c 5 -37 c 4 1 c 4 7 c 5 2 c 4 -4 c 4 -6 c 5 -4 c 4 -2 c 5 0 c 4 -1 c 4 3 c 5 -1 c
4 1 c 4 0 c 5 -3 c 4 0 c 5 0 c 4 0 c 4 2 c 5 1 c 4 6 c 4 3 c 5 5 c 4 4 c 4 10 c 5 -5 c 4 -12 c 5 -11 c 4 -3 c 4 0 c 5 0 c 4 0 c
4 -1 c 5 2 c 4 5 c 5 2 c 4 -1 c 4 -5 c 5 -2 c 4 0 c 4 -1 c 5 1 c 4 -2 c 5 0 c 4 1 c 4 1 c 5 -1 c 4 2 c 4 0 c 5 0 c 4 1 c 5 0 c
4 -1 c 4 0 c 5 -1 c 4 -1 c 4 0 c 5 2 c 4 0 c 4 1 c 5 -1 c 4 0 c 5 -1 c 4 1 c 4 1 c 5 -2 c 4 0 c 4 1 c 5 -1 c 4 2 c 5 -1 c 4 -1 c
4 -2 c 5 0 c 4 4 c 4 0 c 5 1 c 4 0 c 5 -2 c 4 -1 c 4 -1 c 5 1 c 4 -2 c 4 1 c 5 0 c 4 2 c 5 11 c 4 24 c 4 4 c 5 -13 c 4 -22 c 4 -5 c
5 -1 c 4 1 c 4 -1 c 5 1 c 4 -1 c 5 1 c 4 2 c 4 6 c 5 33 c 4 26 c 4 -2 c 5 -35 c 4 -25 c 5 -5 c 4 -1 c 4 1 c 5 1 c 4 -1 c 4 0 c 5 0 c
4 1 c 5 7 c 4 28 c 4 49 c 5 2 c 4 -28 c 4 -45 c 5 -15 c 4 1 c 4 -1 c 5 -1 c 4 2 c 5 -1 c 4 0 c 4 0 c 5 -1 c 4 1 c 4 -1 c 5 1 c 4 0 c
5 -1 c 4 1 c 4 1 c 5 0 c 4 -1 c 4 0 c 5 1 c 4 2 c 5 -2 c 4 -1 c 4 -1 c 5 0 c 4 2 c 4 -1 c 5 1 c 4 1 c 5 0 c 4 0 c 4 0 c 5 7 c 4 36 c
4 45 c 5 6 c 4 -39 c 4 -45 c 5 -6 c 4 -2 c 5 -3 c 4 1 c 4 1 c 5 14 c 4 73 c 4 76 c 5 -2 c 4 -77 c 5 -75 c 4 -10 c 4 -2 c 5 0 c
4 -1 c 4 2 c 5 -1 c 4 0 c 5 -1 c 4 1 c 4 0 c 5 0 c 4 1 c 4 0 c 5 1 c 4 -1 c 5 0 c 4 1 c 4 1 c 5 2 c 4 -2 c 4 3 c 5 15 c 4 6 c 4 -4 c
5 -13 c 4 -9 c 5 -2 c 4 0 c 4 1 c 5 -2 c 4 1 c 4 1 c 5 -1 c 4 0 c 5 0 c 4 1 c 4 0 c 5 1 c 4 -1 c 4 -1 c 5 1 c 4 0 c 5 0 c 4 -1 c
4 1 c 5 0 c 4 2 c 4 -1 c 5 2 c 4 -2 c 5 0 c 4 0 c 4 -1 c 5 0 c 4 0 c 4 -1 c 5 1 c 4 0 c 4 0 c 5 -1 c 4 0 c 5 1 c 4 0 c 4 5 c 5 2 c
4 -1 c 4 -3 c 5 0 c 4 -1 c 5 2 c 4 -1 c 4 0 c 5 -2 c 4 0 c 4 -1 c 5 1 c 4 2 c 5 1 c 4 4 c 4 23 c 5 17 c 4 -1 c 4 -21 c 5 -18 c
4 -5 c 4 0 c 5 5 c 4 24 c 5 185 c 4 239 c 4 13 c 5 -191 c 4 -225 c 4 -35 c 5 -2 c 4 -1 c 5 -5 c 4 -7 c 4 1 c 5 -1 c 4 -1 c 4 0 c
5 1 c 4 14 c 5 70 c 4 48 c 4 -13 c 5 -68 c 4 -47 c 4 -2 c 5 0 c 4 0 c 5 -1 c 4 1 c 4 0 c 5 2 c 4 2 c 4 10 c 5 35 c 4 213 c 4 420 c
5 101 c 4 -161 c 5 -426 c 4 -155 c 4 -22 c 5 -9 c 4 -4 c 4 -3 c 5 2 c 4 -2 c 5 -1 c 4 -4 c 4 -2 c 5 0 c 4 0 c 4 -2 c 5 3 c 4 -1 c
5 1 c 4 1 c 4 1 c 5 -3 c 4 0 c 4 0 c 5 0 c 4 -2 c 5 0 c 4 0 c 4 0 c 5 1 c 4 0 c 4 1 c 5 1 c 4 2 c 4 4 c 5 4 c 4 -1 c 5 0 c 4 36 c
4 25 c 5 -5 c 4 -35 c 4 -27 c 5 -5 c 4 0 c 5 0 c 4 0 c 4 0 c 5 -1 c 4 1 c 4 -1 c 5 1 c 4 -1 c 5 1 c 4 1 c 4 0 c 5 0 c 4 -1 c 4 -2 c
5 -1 c 4 2 c 5 0 c 4 -1 c 4 0 c 5 1 c 4 -1 c 4 1 c 5 -1 c 4 0 c 4 0 c 5 0 c 4 0 c 5 2 c 4 1 c 4 0 c 5 1 c 4 -2 c 4 -2 c 5 1 c 4 0 c
5 0 c 4 0 c 4 -1 c 5 1 c 4 -1 c 4 1 c 5 0 c 4 0 c 5 0 c 4 1 c 4 0 c 5 3 c 4 5 c 4 3 c 5 -1 c 4 -7 c 5 -3 c 4 -1 c 4 0 c 5 0 c 4 -1 c
4 0 c 5 2 c 4 7 c 4 10 c 5 2 c 4 -9 c 5 -8 c 4 -2 c 4 0 c 5 0 c 4 -1 c 4 1 c 5 -1 c 4 1 c 5 0 c 4 0 c 4 0 c 5 1 c 4 0 c 4 1 c 5 8 c
4 30 c 5 8 c 4 -5 c 4 -26 c 5 -12 c 4 0 c 4 1 c 5 3 c 4 0 c 4 3 c 5 5 c 4 14 c 5 73 c 4 724 c 4 1375 c 5 200 c 4 -690 c 4 -1343 c
5 -335 c 4 -14 c 5 -4 c 4 -5 c 4 1 c 5 -2 c 4 -3 c 4 -3 c 5 -1 c 4 -2 c 5 -2 c 4 0 c 4 2 c 5 -2 c 4 0 c 4 1 c 5 -1 c 4 -1 c 5 0 c
4 1 c 4 0 c 5 -1 c 4 0 c 4 0 c 5 0 c 4 1 c 4 0 c 5 0 c 4 -2 c 5 0 c 4 1 c 4 2 c 5 0 c 4 1 c 4 -1 c 5 -2 c 4 -1 c 5 2 c 4 -1 c 4 3 c
5 4 c 4 2 c 4 -4 c 5 -4 c 4 -2 c 5 0 c 4 1 c 4 -1 c 5 1 c 4 -1 c 4 0 c 5 -1 c 4 1 c 5 -1 c 4 0 c 4 2 c 5 -1 c 4 1 c 4 -1 c 5 0 c
4 0 c 4 0 c 5 0 c 4 1 c 5 -1 c 4 1 c 4 1 c 5 9 c 4 76 c 4 140 c 5 17 c 4 -66 c 5 -142 c 4 -33 c 4 -2 c 5 -1 c 4 0 c 4 1 c 5 0 c
4 -1 c 5 0 c 4 -1 c 4 0 c 5 1 c 4 0 c 4 -1 c
5 1 c 4 2 c 5 1 c 4 1 c 4 -13 c 5 0 c 4 10 c 4 6 c 5 3 c 4 -2 c 4 -3 c 5 -5 c 4 0 c 5 -1 c 4 0 c 4 0 c 5 0 c 4 1 c 4 1 c 5 2 c 4 2 c
5 -1 c 4 -1 c 4 0 c 5 4 c 4 0 c 4 0 c 5 -4 c 4 1 c 5 0 c 4 -1 c 4 -2 c 5 -1 c 4 -1 c 4 0 c 5 1 c 4 -1 c 5 -1 c 4 0 c 4 1 c 5 2 c
4 -1 c 4 1 c 5 0 c 4 -2 c
0 -126 3315 418 l 54 0 3315 418 l 18 -6 c 6 -6 c 6 -12 c 0 -12 c -6 -12 c -6 -6 c -18 -6 c -54 0 c 42 -66 3357 358 l
-12 -6 3465 376 l -12 -12 c -6 -18 c 0 -12 c 6 -18 c 12 -12 c 12 -6 c 18 0 c 12 6 c 12 12 c 6 18 c 0 12 c -6 18 c -12 12 c -12 6 c
-18 0 c 24 -84 3549 376 l -24 -84 3597 376 l 24 -84 3597 376 l -24 -84 3645 376 l 108 0 3687 364 l 108 0 3687 328 l 0 6 4035 388 l
6 12 c 6 6 c 12 6 c 24 0 c 12 -6 c 6 -6 c 6 -12 c 0 -12 c -6 -12 c -12 -18 c -60 -60 c 84 0 c -12 -6 4275 376 l -12 -12 c -6 -18 c
0 -12 c 6 -18 c 12 -12 c 12 -6 c 18 0 c 12 6 c 12 12 c 6 18 c 0 12 c -6 18 c -12 12 c -12 6 c -18 0 c -12 0 4401 418 l -12 -6 c
-6 -18 c 0 -102 c 42 0 4353 376 l 66 0 4539 418 l -36 -48 c 18 0 c 12 -6 c 6 -6 c 6 -18 c 0 -12 c -6 -18 c -12 -12 c -18 -6 c
-18 0 c -18 6 c -6 6 c -6 12 c -6 -18 4725 376 l -12 -12 c -18 -6 c -6 0 c -18 6 c -12 12 c -6 18 c 0 6 c 6 18 c 12 12 c 18 6 c
6 0 c 18 -6 c 12 -12 c 6 -24 c 0 -30 c -6 -30 c -12 -18 c -18 -6 c -12 0 c -18 6 c -6 12 c 12 6 5169 394 l 18 18 c 0 -126 c
-6 -6 5282 376 l 6 -6 c 6 6 c -6 6 c -6 -6 5282 304 l 6 -6 c 6 6 c -6 6 c -48 -126 5462 418 l 48 -126 5462 418 l 60 0 5432 334 l
0 -84 5540 376 l 6 18 5540 340 l 12 12 c 12 6 c 18 0 c -12 12 5684 358 l -12 6 c -18 0 c -12 -6 c -12 -12 c -6 -18 c 0 -12 c 6 -18 c
12 -12 c 12 -6 c 18 0 c 12 6 c 12 12 c 108 0 5726 346 l -18 -6 5912 418 l -12 -18 c -6 -30 c 0 -18 c 6 -30 c 12 -18 c 18 -6 c 12 0 c
18 6 c 12 18 c 6 30 c 0 18 c -6 30 c -12 18 c -18 6 c -12 0 c -60 0 6068 418 l -6 -54 c 6 6 c 18 6 c 18 0 c 18 -6 c 12 -12 c 6 -18 c
0 -12 c -6 -18 c -12 -12 c -18 -6 c -18 0 c -18 6 c -6 6 c -6 12 c -60 -126 6200 418 l 84 0 6116 418 l -6 -6 6248 304 l 6 -6 c 6 6 c
-6 6 c -12 0 6338 418 l -12 -6 c -6 -18 c 0 -102 c 42 0 6290 376 l 6 -6 6368 418 l 6 6 c -6 6 c -6 -6 c 0 -84 6374 376 l
0 -102 6428 418 l 6 -18 c 12 -6 c 12 0 c 42 0 6410 376 l -6 12 6554 358 l -18 6 c -18 0 c -18 -6 c -6 -12 c 6 -12 c 12 -6 c 30 -6 c
12 -6 c 6 -12 c 0 -6 c -6 -12 c -18 -6 c -18 0 c -18 6 c -6 12 c 0 -192 6884 442 l 0 -192 6890 442 l 42 0 6884 442 l 42 0 6884 250 l
0 6 6968 388 l 6 12 c 6 6 c 12 6 c 24 0 c 12 -6 c 6 -6 c 6 -12 c 0 -12 c -6 -12 c -12 -18 c -60 -60 c 84 0 c -6 -6 7094 376 l 6 -6 c
6 6 c -6 6 c -6 -6 7094 304 l 6 -6 c 6 6 c -6 6 c 0 -192 7274 442 l 0 -192 7280 442 l 42 0 7238 442 l 42 0 7238 250 l
0 -250 854 1415 l 0 41 810 1494 l 30 -22 c 0 11 c 4 8 c 4 3 c 11 4 c 8 0 c 11 -4 c 8 -7 c 3 -11 c 0 -12 c -3 -11 c -4 -4 c -8 -4 c
-7 -4 821 1611 l -4 -11 c 0 -8 c 4 -11 c 11 -8 c 19 -3 c 19 0 c 15 3 c 8 8 c 3 11 c 0 4 c -3 12 c -8 7 c -11 4 c -4 0 c -11 -4 c
-8 -7 c -4 -12 c 0 -4 c 4 -11 c 8 -8 c 11 -3 c 12 -4 836 1687 l 7 -8 c 4 -11 c 0 -4 c -4 -11 c -7 -8 c -12 -3 c -3 0 c -12 3 c
-7 8 c -4 11 c 0 4 c 4 11 c 7 8 c 15 4 c 19 0 c 19 -4 c 12 -8 c 3 -11 c 0 -8 c -3 -11 c -8 -4 c -4 0 829 1717 l -7 4 c -4 3 c -4 8 c
0 15 c 4 8 c 4 3 c 7 4 c 8 0 c 7 -4 c 12 -7 c 37 -38 c 0 53 c 4 -4 882 1796 l 3 4 c -3 4 c -4 -4 c 0 -38 810 1872 l 34 -4 c -4 4 c
-4 11 c 0 12 c 4 11 c 8 8 c 11 3 c 8 0 c 11 -3 c 8 -8 c 3 -11 c 0 -12 c -3 -11 c -4 -4 c -8 -3 c -7 -4 821 1951 l -4 -11 c 0 -7 c
4 -12 c 11 -7 c 19 -4 c 19 0 c 15 4 c 8 7 c 3 12 c 0 3 c -3 12 c -8 7 c -11 4 c -4 0 c -11 -4 c -8 -7 c -4 -12 c 0 -3 c 4 -12 c
8 -7 c 11 -4 c -7 -4 821 2027 l -4 -11 c 0 -8 c 4 -11 c 11 -8 c 19 -4 c 19 0 c 15 4 c 8 8 c 3 11 c 0 4 c -3 11 c -8 8 c -11 4 c
-4 0 c -11 -4 c -8 -8 c -4 -11 c 0 -4 c 4 -11 c 8 -8 c 11 -4 c 0 -250 1292 1283 l 0 42 1248 1362 l 31 -23 c 0 11 c 3 8 c 4 4 c
12 3 c 7 0 c 12 -3 c 7 -8 c 4 -11 c 0 -12 c -4 -11 c -4 -4 c -7 -4 c -8 -4 1260 1479 l -4 -11 c 0 -8 c 4 -11 c 12 -7 c 18 -4 c
19 0 c 16 4 c 7 7 c 4 11 c 0 4 c -4 12 c -7 7 c -12 4 c -4 0 c -11 -4 c -8 -7 c -3 -12 c 0 -4 c 3 -11 c 8 -7 c 11 -4 c
11 -4 1275 1555 l 8 -8 c 4 -11 c 0 -4 c -4 -11 c -8 -8 c -11 -3 c -4 0 c -11 3 c -8 8 c -4 11 c 0 4 c 4 11 c 8 8 c 15 4 c 19 0 c
19 -4 c 11 -8 c 4 -11 c 0 -8 c -4 -11 c -7 -4 c 0 -38 1248 1627 l 34 -4 c -3 4 c -4 11 c 0 11 c 4 12 c 7 7 c 12 4 c 7 0 c 12 -4 c
7 -7 c 4 -12 c 0 -11 c -4 -11 c -4 -4 c -7 -4 c 4 -3 1320 1664 l 4 3 c -4 4 c -4 -4 c -3 0 1267 1698 l -8 4 c -4 4 c -4 7 c 0 16 c
4 7 c 4 4 c 8 4 c 7 0 c 8 -4 c 11 -8 c 38 -37 c 0 52 c 4 -11 1248 1789 l 8 -4 c 7 0 c 8 4 c 4 7 c 3 15 c 4 12 c 8 7 c 7 4 c 12 0 c
7 -4 c 4 -3 c 4 -12 c 0 -15 c -4 -11 c -4 -4 c -7 -4 c -12 0 c -7 4 c -8 7 c -4 12 c -3 15 c -4 8 c -8 3 c -7 0 c -8 -3 c -4 -12 c
0 -15 c 11 -4 1275 1895 l 8 -7 c 4 -12 c 0 -4 c -4 -11 c -8 -7 c -11 -4 c -4 0 c -11 4 c -8 7 c -4 11 c 0 4 c 4 12 c 8 7 c 15 4 c
19 0 c 19 -4 c 11 -7 c 4 -12 c 0 -7 c -4 -12 c -7 -3 c 0 -250 1749 1319 l 0 42 1705 1398 l 30 -23 c 0 11 c 4 8 c 4 4 c 11 4 c 8 0 c
11 -4 c 8 -8 c 4 -11 c 0 -11 c -4 -12 c -4 -4 c -8 -3 c -7 -3 1716 1515 l -4 -12 c 0 -7 c 4 -12 c 11 -7 c 19 -4 c 19 0 c 15 4 c
8 7 c 4 12 c 0 3 c -4 12 c -8 7 c -11 4 c -4 0 c -11 -4 c -8 -7 c -4 -12 c 0 -3 c 4 -12 c 8 -7 c 11 -4 c 11 -4 1732 1591 l 7 -7 c
4 -12 c 0 -4 c -4 -11 c -7 -7 c -11 -4 c -4 0 c -12 4 c -7 7 c -4 11 c 0 4 c 4 12 c 7 7 c 16 4 c 18 0 c 19 -4 c 12 -7 c 4 -12 c
0 -7 c -4 -12 c -8 -3 c 4 -11 1705 1636 l 7 -4 c 8 0 c 8 4 c 3 7 c 4 16 c 4 11 c 7 8 c 8 3 c 11 0 c 8 -3 c 4 -4 c 4 -12 c 0 -15 c
-4 -11 c -4 -4 c -8 -4 c -11 0 c -8 4 c -7 8 c -4 11 c -4 15 c -3 8 c -8 4 c -8 0 c -7 -4 c -4 -12 c 0 -15 c 4 -4 1777 1701 l 4 4 c
-4 3 c -4 -3 c -4 8 1720 1742 l -11 11 c 80 0 c 4 -11 1705 1829 l 11 -8 c 19 -4 c 11 0 c 19 4 c 12 8 c 4 11 c 0 8 c -4 11 c -12 7 c
-19 4 c -11 0 c -19 -4 c -11 -7 c -4 -11 c 0 -8 c -7 -4 1716 1931 l -4 -11 c 0 -8 c 4 -11 c 11 -7 c 19 -4 c 19 0 c 15 4 c 8 7 c
4 11 c 0 4 c -4 12 c -8 7 c -11 4 c -4 0 c -11 -4 c -8 -7 c -4 -12 c 0 -4 c 4 -11 c 8 -7 c 11 -4 c 0 -249 2586 1524 l
0 41 2542 1604 l 31 -22 c 0 11 c 3 7 c 4 4 c 11 4 c 8 0 c 11 -4 c 8 -7 c 4 -12 c 0 -11 c -4 -11 c -4 -4 c -7 -4 c 80 -38 2542 1725 l
0 53 2542 1672 l 4 -11 2542 1770 l 11 -8 c 19 -4 c 12 0 c 19 4 c 11 8 c 4 11 c 0 8 c -4 11 c -11 7 c -19 4 c -12 0 c -19 -4 c
-11 -7 c -4 -11 c 0 -8 c 0 42 2542 1830 l 31 -23 c 0 12 c 3 7 c 4 4 c 11 4 c 8 0 c 11 -4 c 8 -8 c 4 -11 c 0 -11 c -4 -12 c -4 -3 c
-7 -4 c 4 -4 2614 1906 l 4 4 c -4 4 c -4 -4 c -4 0 2561 1940 l -7 4 c -4 4 c -4 7 c 0 15 c 4 8 c 4 4 c 7 3 c 8 0 c 8 -3 c 11 -8 c
38 -38 c 0 53 c 0 42 2542 2019 l 31 -23 c 0 12 c 3 7 c 4 4 c 11 4 c 8 0 c 11 -4 c 8 -8 c 4 -11 c 0 -11 c -4 -12 c -4 -3 c -7 -4 c
4 -11 2542 2110 l 11 -8 c 19 -4 c 12 0 c 19 4 c 11 8 c 4 11 c 0 8 c -4 11 c -11 8 c -19 3 c -12 0 c -19 -3 c -11 -8 c -4 -11 c
0 -8 c 0 -250 3170 1622 l 0 42 3126 1701 l 30 -23 c 0 11 c 4 8 c 4 4 c 11 4 c 8 0 c 11 -4 c 8 -8 c 3 -11 c 0 -11 c -3 -12 c -4 -4 c
-8 -3 c 79 -38 3126 1822 l 0 53 3126 1769 l 4 -12 3126 1868 l 11 -7 c 19 -4 c 11 0 c 19 4 c 12 7 c 3 12 c 0 7 c -3 11 c -12 8 c
-19 4 c -11 0 c -19 -4 c -11 -8 c -4 -11 c 0 -7 c -7 -4 3137 1970 l -4 -12 c 0 -7 c 4 -11 c 11 -8 c 19 -4 c 19 0 c 15 4 c 8 8 c
3 11 c 0 4 c -3 11 c -8 8 c -11 3 c -4 0 c -11 -3 c -8 -8 c -4 -11 c 0 -4 c 4 -11 c 8 -8 c 11 -4 c 4 -4 3198 2004 l 3 4 c -3 3 c
-4 -3 c 79 -38 3126 2087 l 0 53 3126 2034 l -7 -4 3137 2159 l -4 -12 c 0 -7 c 4 -11 c 11 -8 c 19 -4 c 19 0 c 15 4 c 8 8 c 3 11 c
0 4 c -3 11 c -8 8 c -11 3 c -4 0 c -11 -3 c -8 -8 c -4 -11 c 0 -4 c 4 -11 c 8 -8 c 11 -4 c 79 -38 3126 2238 l 0 53 3126 2185 l
0 -250 5090 2515 l 0 42 5046 2594 l 31 -23 c 0 11 c 3 8 c 4 4 c 12 3 c 7 0 c 11 -3 c 8 -8 c 4 -11 c 0 -12 c -4 -11 c -4 -4 c -7 -3 c
80 -38 5046 2715 l 0 53 5046 2662 l -4 8 5062 2749 l -12 11 c 80 0 c 4 -11 5046 2832 l 8 -4 c 7 0 c 8 4 c 4 7 c 3 16 c 4 11 c 8 7 c
7 4 c 12 0 c 7 -4 c 4 -3 c 4 -12 c 0 -15 c -4 -11 c -4 -4 c -7 -4 c -12 0 c -7 4 c -8 8 c -4 11 c -3 15 c -4 8 c -8 3 c -7 0 c
-8 -3 c -4 -12 c 0 -15 c 4 -3 5118 2896 l 4 3 c -4 4 c -4 -4 c -3 0 5065 2930 l -8 4 c -4 4 c -4 8 c 0 15 c 4 7 c 4 4 c 8 4 c 7 0 c
8 -4 c 11 -8 c 38 -37 c 0 53 c 4 -11 5046 3025 l 12 -8 c 18 -4 c 12 0 c 19 4 c 11 8 c 4 11 c 0 8 c -4 11 c -11 7 c -19 4 c -12 0 c
-18 -4 c -12 -7 c -4 -11 c 0 -8 c -8 -4 5058 3127 l -4 -11 c 0 -8 c 4 -11 c 12 -8 c 18 -3 c 19 0 c 15 3 c 8 8 c 4 11 c 0 4 c -4 11 c
-8 8 c -11 4 c -4 0 c -11 -4 c -8 -8 c -3 -11 c 0 -4 c 3 -11 c 8 -8 c 11 -3 c 0 -249 5300 7019 l 0 42 5256 7098 l 30 -23 c 0 12 c
4 7 c 4 4 c 11 4 c 8 0 c 11 -4 c 8 -8 c 3 -11 c 0 -11 c -3 -12 c -4 -3 c -8 -4 c 79 -37 5256 7219 l 0 52 5256 7167 l
-4 8 5271 7253 l -11 11 c 79 0 c 12 -4 5282 7367 l 7 -8 c 4 -11 c 0 -4 c -4 -11 c -7 -8 c -12 -3 c -3 0 c -12 3 c -7 8 c -4 11 c
0 4 c 4 11 c 7 8 c 15 4 c 19 0 c 19 -4 c 12 -8 c 3 -11 c 0 -7 c -3 -12 c -8 -4 c 4 -4 5328 7401 l 3 4 c -3 4 c -4 -4 c
53 -38 5256 7469 l 0 57 c 79 0 5256 7469 l 0 42 5256 7514 l 30 -23 c 0 11 c 4 8 c 4 4 c 11 4 c 8 0 c 11 -4 c 8 -8 c 3 -11 c 0 -11 c
-3 -12 c -4 -4 c -8 -3 c 0 -38 5256 7628 l 34 -4 c -4 4 c -4 11 c 0 11 c 4 12 c 8 7 c 11 4 c 8 0 c 11 -4 c 8 -7 c 3 -12 c 0 -11 c
-3 -11 c -4 -4 c -8 -4 c 0 -250 5605 1513 l 0 42 5561 1592 l 30 -23 c 0 11 c 4 8 c 4 4 c 11 3 c 8 0 c 11 -3 c 8 -8 c 4 -11 c 0 -12 c
-4 -11 c -4 -4 c -8 -4 c 80 -38 5561 1713 l 0 53 5561 1660 l -4 0 5580 1739 l -7 4 c -4 4 c -4 7 c 0 16 c 4 7 c 4 4 c 7 4 c 8 0 c
7 -4 c 12 -8 c 38 -37 c 0 52 c -4 8 5576 1822 l -11 11 c 80 0 c 4 -3 5633 1894 l 4 3 c -4 4 c -4 -4 c -4 0 5580 1928 l -7 4 c -4 4 c
-4 7 c 0 16 c 4 7 c 4 4 c 7 4 c 8 0 c 7 -4 c 12 -8 c 38 -37 c 0 52 c -4 8 5576 2011 l -11 11 c 80 0 c 0 -38 5561 2121 l 34 -4 c
-4 4 c -3 12 c 0 11 c 3 11 c 8 8 c 11 4 c 8 0 c 11 -4 c 8 -8 c 4 -11 c 0 -11 c -4 -12 c -4 -4 c -8 -3 c 0 -250 6326 1329 l
0 42 6282 1408 l 30 -23 c 0 11 c 4 8 c 4 4 c 11 3 c 8 0 c 11 -3 c 8 -8 c 4 -11 c 0 -12 c -4 -11 c -4 -4 c -8 -3 c 80 -38 6282 1529 l
0 53 6282 1476 l -4 0 6301 1555 l -7 4 c -4 4 c -4 8 c 0 15 c 4 7 c 4 4 c 7 4 c 8 0 c 7 -4 c 12 -8 c 38 -37 c 0 53 c
0 -38 6282 1673 l 34 -4 c -4 4 c -3 11 c 0 12 c 3 11 c 8 7 c 11 4 c 8 0 c 11 -4 c 8 -7 c 4 -11 c 0 -12 c -4 -11 c -4 -4 c -8 -4 c
4 -3 6354 1710 l 4 3 c -4 4 c -4 -4 c 0 42 6282 1748 l 30 -23 c 0 11 c 4 8 c 4 4 c 11 4 c 8 0 c 11 -4 c 8 -8 c 4 -11 c 0 -11 c
-4 -12 c -4 -4 c -8 -3 c 11 -3 6309 1865 l 8 -8 c 3 -11 c 0 -4 c -3 -11 c -8 -8 c -11 -4 c -4 0 c -11 4 c -8 8 c -4 11 c 0 4 c
4 11 c 8 8 c 15 3 c 19 0 c 18 -3 c 12 -8 c 4 -11 c 0 -8 c -4 -11 c -8 -4 c 0 42 6282 1899 l 30 -23 c 0 12 c 4 7 c 4 4 c 11 4 c 8 0 c
11 -4 c 8 -8 c 4 -11 c 0 -11 c -4 -12 c -4 -3 c -8 -4 c 0 -249 6557 1656 l 0 41 6514 1736 l 30 -22 c 0 11 c 4 8 c 3 3 c 12 4 c 7 0 c
12 -4 c 7 -7 c 4 -12 c 0 -11 c -4 -11 c -4 -4 c -7 -4 c 79 -38 6514 1857 l 0 53 6514 1804 l -3 0 6532 1883 l -8 4 c -4 4 c -3 7 c
0 15 c 3 8 c 4 4 c 8 4 c 7 0 c 8 -4 c 11 -8 c 38 -38 c 0 53 c -8 -4 6525 2004 l -3 -11 c 0 -8 c 3 -11 c 12 -7 c 19 -4 c 19 0 c
15 4 c 7 7 c 4 11 c 0 4 c -4 12 c -7 7 c -12 4 c -3 0 c -12 -4 c -7 -7 c -4 -12 c 0 -4 c 4 -11 c 7 -7 c 12 -4 c 4 -4 6585 2038 l
4 4 c -4 4 c -4 -4 c 79 -38 6514 2121 l 0 53 6514 2068 l -3 0 6532 2148 l -8 4 c -4 3 c -3 8 c 0 15 c 3 8 c 4 3 c 8 4 c 7 0 c 8 -4 c
11 -7 c 38 -38 c 0 53 c 0 -38 6514 2265 l 34 -4 c -4 4 c -4 11 c 0 12 c 4 11 c 7 8 c 12 3 c 7 0 c 12 -3 c 7 -8 c 4 -11 c 0 -12 c
-4 -11 c -4 -4 c -7 -3 c 0 -250 6763 1961 l 0 41 6720 2040 l 30 -22 c 0 11 c 4 8 c 3 3 c 12 4 c 7 0 c 12 -4 c 7 -7 c 4 -11 c 0 -12 c
-4 -11 c -4 -4 c -7 -4 c 79 -38 6720 2161 l 0 53 6720 2108 l -4 0 6739 2187 l -8 4 c -4 4 c -3 7 c 0 16 c 3 7 c 4 4 c 8 4 c 7 0 c
8 -4 c 11 -8 c 38 -37 c 0 52 c 79 -38 6720 2312 l 0 53 6720 2259 l 4 -4 6791 2342 l 4 4 c -4 4 c -4 -4 c 11 -4 6746 2422 l 8 -8 c
4 -11 c 0 -4 c -4 -11 c -8 -8 c -11 -4 c -4 0 c -11 4 c -8 8 c -3 11 c 0 4 c 3 11 c 8 8 c 15 4 c 19 0 c 19 -4 c 11 -8 c 4 -11 c
0 -8 c -4 -11 c -7 -4 c 3 -12 6720 2471 l 12 -7 c 19 -4 c 11 0 c 19 4 c 11 7 c 4 12 c 0 7 c -4 12 c -11 7 c -19 4 c -11 0 c -19 -4 c
-12 -7 c -3 -12 c 0 -7 c 0 42 6720 2531 l 30 -23 c 0 11 c 4 8 c 3 4 c 12 4 c 7 0 c 12 -4 c 7 -8 c 4 -11 c 0 -11 c -4 -12 c -4 -4 c
-7 -3 c 0 -250 7010 3119 l 0 42 6966 3198 l 31 -23 c 0 11 c 3 8 c 4 4 c 11 3 c 8 0 c 11 -3 c 8 -8 c 4 -11 c 0 -12 c -4 -11 c -4 -4 c
-7 -4 c 80 -38 6966 3319 l 0 53 6966 3266 l -4 0 6985 3345 l -7 4 c -4 4 c -4 8 c 0 15 c 4 7 c 4 4 c 7 4 c 8 0 c 8 -4 c 11 -8 c
38 -37 c 0 53 c 11 -3 6993 3466 l 8 -8 c 3 -11 c 0 -4 c -3 -11 c -8 -8 c -11 -4 c -4 0 c -11 4 c -8 8 c -4 11 c 0 4 c 4 11 c 8 8 c
15 3 c 19 0 c 19 -3 c 11 -8 c 4 -11 c 0 -8 c -4 -11 c -8 -4 c 4 -3 7038 3500 l 4 3 c -4 4 c -4 -4 c 0 42 6966 3538 l 31 -23 c 0 11 c
3 8 c 4 4 c 11 4 c 8 0 c 11 -4 c 8 -8 c 4 -11 c 0 -11 c -4 -12 c -4 -4 c -7 -3 c 4 -11 6966 3629 l 11 -8 c 19 -4 c 12 0 c 19 4 c
11 8 c 4 11 c 0 7 c -4 12 c -11 7 c -19 4 c -12 0 c -19 -4 c -11 -7 c -4 -12 c 0 -7 c 11 -4 6993 3731 l 8 -7 c 3 -12 c 0 -3 c
-3 -12 c -8 -7 c -11 -4 c -4 0 c -11 4 c -8 7 c -4 12 c 0 3 c 4 12 c 8 7 c 15 4 c 19 0 c 19 -4 c 11 -7 c 4 -12 c 0 -7 c -4 -12 c
-8 -3 c 0 -249 7659 1268 l 0 41 7616 1348 l 30 -22 c 0 11 c 4 7 c 4 4 c 11 4 c 7 0 c 12 -4 c 7 -7 c 4 -12 c 0 -11 c -4 -11 c -3 -4 c
-8 -4 c 79 -38 7616 1469 l 0 53 7616 1416 l 0 41 7616 1499 l 30 -22 c 0 11 c 4 8 c 4 3 c 11 4 c 7 0 c 12 -4 c 7 -7 c 4 -11 c 0 -12 c
-4 -11 c -3 -4 c -8 -4 c -4 0 7635 1571 l -8 3 c -3 4 c -4 8 c 0 15 c 4 7 c 3 4 c 8 4 c 7 0 c 8 -4 c 11 -7 c 38 -38 c 0 53 c
3 -4 7688 1650 l 4 4 c -4 4 c -3 -4 c 12 -3 7642 1729 l 7 -8 c 4 -11 c 0 -4 c -4 -11 c -7 -8 c -12 -4 c -4 0 c -11 4 c -7 8 c
-4 11 c 0 4 c 4 11 c 7 8 c 15 3 c 19 0 c 19 -3 c 11 -8 c 4 -11 c 0 -8 c -4 -11 c -7 -4 c 4 -12 7616 1775 l 7 -3 c 8 0 c 7 3 c 4 8 c
4 15 c 4 11 c 7 8 c 8 4 c 11 0 c 8 -4 c 3 -4 c 4 -11 c 0 -15 c -4 -12 c -3 -3 c -8 -4 c -11 0 c -8 4 c -7 7 c -4 12 c -4 15 c -4 7 c
-7 4 c -8 0 c -7 -4 c -4 -11 c 0 -15 c 0 -38 7616 1877 l 34 -4 c -4 4 c -4 11 c 0 12 c 4 11 c 8 8 c 11 3 c 7 0 c 12 -3 c 7 -8 c
4 -11 c 0 -12 c -4 -11 c -3 -4 c -8 -4 c 0 -250 7781 1316 l 0 42 7738 1395 l 30 -23 c 0 11 c 4 8 c 3 4 c 12 4 c 7 0 c 12 -4 c 7 -8 c
4 -11 c 0 -11 c -4 -12 c -4 -4 c -7 -3 c 79 -38 7738 1516 l 0 53 7738 1463 l 0 42 7738 1546 l 30 -23 c 0 12 c 4 7 c 3 4 c 12 4 c
7 0 c 12 -4 c 7 -8 c 4 -11 c 0 -11 c -4 -12 c -4 -3 c -7 -4 c 0 42 7738 1622 l 30 -23 c 0 11 c 4 8 c 3 4 c 12 3 c 7 0 c 12 -3 c
7 -8 c 4 -11 c 0 -12 c -4 -11 c -4 -4 c -7 -4 c 4 -4 7809 1698 l 4 4 c -4 3 c -4 -3 c -8 -4 7749 1777 l -3 -11 c 0 -8 c 3 -11 c
12 -8 c 19 -3 c 19 0 c 15 3 c 7 8 c 4 11 c 0 4 c -4 11 c -7 8 c -12 4 c -3 0 c -12 -4 c -7 -8 c -4 -11 c 0 -4 c 4 -11 c 7 -8 c
12 -3 c 79 -38 7738 1856 l 0 53 7738 1803 l -4 0 7757 1883 l -8 4 c -4 3 c -3 8 c 0 15 c 3 8 c 4 3 c 8 4 c 7 0 c 8 -4 c 11 -7 c
38 -38 c 0 53 c 0 -250 8538 2016 l 0 42 8495 2095 l 30 -23 c 0 12 c 4 7 c 4 4 c 11 4 c 8 0 c 11 -4 c 7 -8 c 4 -11 c 0 -11 c -4 -12 c
-3 -3 c -8 -4 c 79 -38 8495 2216 l 0 53 8495 2163 l 0 41 8495 2247 l 30 -23 c 0 12 c 4 7 c 4 4 c 11 4 c 8 0 c 11 -4 c 7 -7 c 4 -12 c
0 -11 c -4 -11 c -3 -4 c -8 -4 c 79 -37 8495 2367 l 0 52 8495 2315 l 3 -4 8567 2398 l 4 4 c -4 3 c -3 -3 c 4 -12 8495 2447 l 7 -3 c
8 0 c 7 3 c 4 8 c 4 15 c 4 12 c 7 7 c 8 4 c 11 0 c 8 -4 c 3 -4 c 4 -11 c 0 -15 c -4 -12 c -3 -3 c -8 -4 c -11 0 c -8 4 c -7 7 c
-4 12 c -4 15 c -4 7 c -7 4 c -8 0 c -7 -4 c -4 -11 c 0 -15 c 4 -11 8495 2522 l 7 -4 c 8 0 c 7 4 c 4 8 c 4 15 c 4 11 c 7 8 c 8 3 c
11 0 c 8 -3 c 3 -4 c 4 -11 c 0 -16 c -4 -11 c -3 -4 c -8 -3 c -11 0 c -8 3 c -7 8 c -4 11 c -4 15 c -4 8 c -7 4 c -8 0 c -7 -4 c
-4 -11 c 0 -16 c 12 -4 8521 2628 l 7 -7 c 4 -11 c 0 -4 c -4 -12 c -7 -7 c -12 -4 c -3 0 c -12 4 c -7 7 c -4 12 c 0 4 c 4 11 c 7 7 c
15 4 c 19 0 c 19 -4 c 11 -7 c 4 -11 c 0 -8 c -4 -11 c -7 -4 c 0 -249 9137 3631 l 0 41 9093 3711 l 30 -23 c 0 12 c 4 7 c 4 4 c 11 4 c
8 0 c 11 -4 c 8 -7 c 4 -12 c 0 -11 c -4 -11 c -4 -4 c -8 -4 c 80 -38 9093 3832 l 0 53 9093 3779 l 53 -38 9093 3892 l 0 57 c
80 0 9093 3892 l -3 8 9108 3941 l -12 11 c 80 0 c 4 -4 9165 4013 l 4 4 c -4 4 c -4 -4 c -3 7 9108 4055 l -12 11 c 80 0 c
4 -12 9093 4138 l 8 -3 c 7 0 c 8 3 c 3 8 c 4 15 c 4 11 c 8 8 c 7 4 c 11 0 c 8 -4 c 4 -4 c 4 -11 c 0 -15 c -4 -12 c -4 -3 c -8 -4 c
-11 0 c -7 4 c -8 7 c -4 11 c -4 16 c -3 7 c -8 4 c -7 0 c -8 -4 c -4 -11 c 0 -15 c 0 41 9093 4202 l 30 -22 c 0 11 c 4 8 c 4 3 c
11 4 c 8 0 c 11 -4 c 8 -7 c 4 -11 c 0 -12 c -4 -11 c -4 -4 c -8 -4 c 0 -249 9456 1469 l 0 41 9412 1549 l 30 -22 c 0 11 c 4 8 c 4 3 c
11 4 c 8 0 c 11 -4 c 8 -7 c 4 -12 c 0 -11 c -4 -11 c -4 -4 c -7 -4 c 80 -38 9412 1670 l 0 53 9412 1617 l 53 -38 9412 1730 l 0 57 c
80 0 9412 1730 l -4 0 9431 1772 l -7 4 c -4 3 c -4 8 c 0 15 c 4 8 c 4 3 c 7 4 c 8 0 c 7 -4 c 12 -7 c 38 -38 c 0 53 c
4 -4 9484 1851 l 4 4 c -4 4 c -4 -4 c 11 -4 9439 1931 l 8 -8 c 3 -11 c 0 -4 c -3 -11 c -8 -8 c -11 -4 c -4 0 c -11 4 c -8 8 c
-4 11 c 0 4 c 4 11 c 8 8 c 15 4 c 19 0 c 19 -4 c 11 -8 c 4 -11 c 0 -8 c -4 -11 c -8 -4 c -4 0 9431 1961 l -7 4 c -4 3 c -4 8 c
0 15 c 4 8 c 4 3 c 7 4 c 8 0 c 7 -4 c 12 -7 c 38 -38 c 0 53 c 0 42 9412 2040 l 30 -23 c 0 11 c 4 8 c 4 4 c 11 3 c 8 0 c 11 -3 c
8 -8 c 4 -11 c 0 -12 c -4 -11 c -4 -4 c -7 -3 c
showpage PGPLOT restore
 
%%Trailer
%%DocumentFonts: 
%%Pages: 1
%%EOF
