%!PS-Adobe-3.0 EPSF-3.0
%%For: tab
%%Title: PGPLOT PostScript plot
%%Creator: PGPLOT
%%CreationDate: 20-Apr-1995 16:31
%%BoundingBox: 25 18 587 774
%%DocumentFonts: (atend)
%%LanguageLevel: 1
%%Orientation: Landscape
%%Pages: (atend)
%%EndComments
%%BeginProlog
/l {moveto rlineto currentpoint stroke moveto} bind def
/c {rlineto currentpoint stroke moveto} bind def
/d {moveto 0 0 rlineto currentpoint stroke moveto} bind def
/SLW {5 mul setlinewidth} bind def
/SCF /pop load def
/BP {newpath moveto} bind def
/LP /rlineto load def
/EP {rlineto closepath eofill} bind def
/MB {gsave translate MFAC dup scale 1 setlinewidth 2 setlinecap 0 setlinejoin newpath} bind def
/ME /grestore load def
/C {0 360 arc stroke} bind def
/FC {0 360 arc fill} bind def
%%EndProlog
 
%%Page: 1 1
%%BeginPageSetup
/PGPLOT save def
0.072 0.072 scale
8150 250 translate 90 rotate
1 setlinejoin 1 setlinecap 1 SLW 1 SCF
%%EndPageSetup
0.000 setgray 1 SLW 8939 0 780 780 l 0 6239 c -8939 0 c 0 -6239 c 0 -45 1116 780 l 0 -45 1554 780 l 0 -45 1991 780 l
0 -45 2428 780 l 0 -90 2865 780 l 0 -45 3302 780 l 0 -45 3739 780 l 0 -45 4176 780 l 0 -45 4613 780 l 0 -90 5051 780 l
0 -45 5488 780 l 0 -45 5925 780 l 0 -45 6362 780 l 0 -45 6799 780 l 0 -90 7236 780 l 0 -45 7673 780 l 0 -45 8110 780 l
0 -45 8548 780 l 0 -45 8985 780 l 0 -90 9422 780 l 0 -45 1116 7064 l 0 -45 1554 7064 l 0 -45 1991 7064 l 0 -45 2428 7064 l
0 -90 2865 7109 l 0 -45 3302 7064 l 0 -45 3739 7064 l 0 -45 4176 7064 l 0 -45 4613 7064 l 0 -90 5051 7109 l 0 -45 5488 7064 l
0 -45 5925 7064 l 0 -45 6362 7064 l 0 -45 6799 7064 l 0 -90 7236 7109 l 0 -45 7673 7064 l 0 -45 8110 7064 l 0 -45 8548 7064 l
0 -45 8985 7064 l 0 -90 9422 7109 l -60 0 2775 672 l -6 -54 c 6 6 c 18 6 c 18 0 c 18 -6 c 12 -12 c 6 -18 c 0 -12 c -6 -18 c
-12 -12 c -18 -6 c -18 0 c -18 6 c -6 6 c -6 12 c -18 -6 2859 672 l -12 -18 c -6 -30 c 0 -18 c 6 -30 c 12 -18 c 18 -6 c 12 0 c
18 6 c 12 18 c 6 30 c 0 18 c -6 30 c -12 18 c -18 6 c -12 0 c -18 -6 2979 672 l -12 -18 c -6 -30 c 0 -18 c 6 -30 c 12 -18 c 18 -6 c
12 0 c 18 6 c 12 18 c 6 30 c 0 18 c -6 30 c -12 18 c -18 6 c -12 0 c 12 6 4847 648 l 18 18 c 0 -126 c -18 -6 4985 672 l -12 -18 c
-6 -30 c 0 -18 c 6 -30 c 12 -18 c 18 -6 c 12 0 c 18 6 c 12 18 c 6 30 c 0 18 c -6 30 c -12 18 c -18 6 c -12 0 c -18 -6 5105 672 l
-12 -18 c -6 -30 c 0 -18 c 6 -30 c 12 -18 c 18 -6 c 12 0 c 18 6 c 12 18 c 6 30 c 0 18 c -6 30 c -12 18 c -18 6 c -12 0 c
-18 -6 5225 672 l -12 -18 c -6 -30 c 0 -18 c 6 -30 c 12 -18 c 18 -6 c 12 0 c 18 6 c 12 18 c 6 30 c 0 18 c -6 30 c -12 18 c -18 6 c
-12 0 c 12 6 7032 648 l 18 18 c 0 -126 c -60 0 7206 672 l -6 -54 c 6 6 c 18 6 c 18 0 c 18 -6 c 12 -12 c 6 -18 c 0 -12 c -6 -18 c
-12 -12 c -18 -6 c -18 0 c -18 6 c -6 6 c -6 12 c -18 -6 7290 672 l -12 -18 c -6 -30 c 0 -18 c 6 -30 c 12 -18 c 18 -6 c 12 0 c
18 6 c 12 18 c 6 30 c 0 18 c -6 30 c -12 18 c -18 6 c -12 0 c -18 -6 7410 672 l -12 -18 c -6 -30 c 0 -18 c 6 -30 c 12 -18 c 18 -6 c
12 0 c 18 6 c 12 18 c 6 30 c 0 18 c -6 30 c -12 18 c -18 6 c -12 0 c 0 6 9206 642 l 6 12 c 6 6 c 12 6 c 24 0 c 12 -6 c 6 -6 c
6 -12 c 0 -12 c -6 -12 c -12 -18 c -60 -60 c 84 0 c -18 -6 9356 672 l -12 -18 c -6 -30 c 0 -18 c 6 -30 c 12 -18 c 18 -6 c 12 0 c
18 6 c 12 18 c 6 30 c 0 18 c -6 30 c -12 18 c -18 6 c -12 0 c -18 -6 9476 672 l -12 -18 c -6 -30 c 0 -18 c 6 -30 c 12 -18 c 18 -6 c
12 0 c 18 6 c 12 18 c 6 30 c 0 18 c -6 30 c -12 18 c -18 6 c -12 0 c -18 -6 9596 672 l -12 -18 c -6 -30 c 0 -18 c 6 -30 c 12 -18 c
18 -6 c 12 0 c 18 6 c 12 18 c 6 30 c 0 18 c -6 30 c -12 18 c -18 6 c -12 0 c -90 0 780 780 l -45 0 780 1095 l -45 0 780 1410 l
-45 0 780 1725 l -45 0 780 2040 l -90 0 780 2355 l -45 0 780 2669 l -45 0 780 2984 l -45 0 780 3299 l -45 0 780 3614 l
-90 0 780 3929 l -45 0 780 4244 l -45 0 780 4559 l -45 0 780 4874 l -45 0 780 5189 l -90 0 780 5504 l -45 0 780 5819 l
-45 0 780 6134 l -45 0 780 6449 l -45 0 780 6764 l -90 0 9809 780 l -45 0 9764 1095 l -45 0 9764 1410 l -45 0 9764 1725 l
-45 0 9764 2040 l -90 0 9809 2355 l -45 0 9764 2669 l -45 0 9764 2984 l -45 0 9764 3299 l -45 0 9764 3614 l -90 0 9809 3929 l
-45 0 9764 4244 l -45 0 9764 4559 l -45 0 9764 4874 l -45 0 9764 5189 l -90 0 9809 5504 l -45 0 9764 5819 l -45 0 9764 6134 l
-45 0 9764 6449 l -45 0 9764 6764 l 6 -18 517 774 l 18 -12 c 30 -6 c 18 0 c 30 6 c 18 12 c 6 18 c 0 12 c -6 18 c -18 12 c -30 6 c
-18 0 c -30 -6 c -18 -12 c -6 -18 c 0 -12 c 0 -60 517 2205 l 54 -6 c -6 6 c -6 18 c 0 18 c 6 18 c 12 12 c 18 6 c 12 0 c 18 -6 c
12 -12 c 6 -18 c 0 -18 c -6 -18 c -6 -6 c -12 -6 c 6 -18 517 2289 l 18 -12 c 30 -6 c 18 0 c 30 6 c 18 12 c 6 18 c 0 12 c -6 18 c
-18 12 c -30 6 c -18 0 c -30 -6 c -18 -12 c -6 -18 c 0 -12 c 6 -18 517 2409 l 18 -12 c 30 -6 c 18 0 c 30 6 c 18 12 c 6 18 c 0 12 c
-6 18 c -18 12 c -30 6 c -18 0 c -30 -6 c -18 -12 c -6 -18 c 0 -12 c 6 -18 517 2529 l 18 -12 c 30 -6 c 18 0 c 30 6 c 18 12 c 6 18 c
0 12 c -6 18 c -18 12 c -30 6 c -18 0 c -30 -6 c -18 -12 c -6 -18 c 0 -12 c -6 12 541 3809 l -18 18 c 126 0 c 6 -18 517 3947 l
18 -12 c 30 -6 c 18 0 c 30 6 c 18 12 c 6 18 c 0 12 c -6 18 c -18 12 c -30 6 c -18 0 c -30 -6 c -18 -12 c -6 -18 c 0 -12 c
63 -45 453 4072 l 0 67 c 94 0 453 4072 l -6 12 541 5168 l -18 18 c 126 0 c 6 -6 631 5282 l 6 6 c -6 6 c -6 -6 c 0 -60 517 5402 l
54 -6 c -6 6 c -6 18 c 0 18 c 6 18 c 12 12 c 18 6 c 12 0 c 18 -6 c 12 -12 c 6 -18 c 0 -18 c -6 -18 c -6 -6 c -12 -6 c
84 84 547 5456 l 84 -84 547 5540 l -6 12 541 5600 l -18 18 c 126 0 c 6 -18 517 5738 l 18 -12 c 30 -6 c 18 0 c 30 6 c 18 12 c 6 18 c
0 12 c -6 18 c -18 12 c -30 6 c -18 0 c -30 -6 c -18 -12 c -6 -18 c 0 -12 c 63 -45 453 5862 l 0 68 c 94 0 453 5862 l
4 -2 780 796 l 5 -2 c 4 0 c 4 1 c 5 2 c 4 -2 c 4 -2 c 5 2 c 4 -1 c 5 0 c 4 2 c 4 3 c 5 5 c 4 5 c 4 3 c 5 4 c 4 2 c 5 -11 c 4 -11 c
4 -2 c 5 0 c 4 -1 c 4 1 c 5 2 c 4 3 c 5 2 c 4 1 c 4 -5 c 5 -3 c 4 0 c 4 0 c 5 -1 c 4 0 c 5 1 c 4 0 c 4 0 c 5 1 c 4 0 c 4 -1 c 5 0 c
4 0 c 4 -1 c 5 0 c 4 0 c 5 0 c 4 2 c 4 1 c 5 0 c 4 -2 c 4 1 c 5 -1 c 4 2 c 5 -1 c 4 -1 c 4 0 c 5 1 c 4 0 c 4 0 c 5 -1 c 4 -2 c 5 2 c
4 4 c 4 -2 c 5 0 c 4 -2 c 4 -1 c 5 0 c 4 1 c 5 -1 c 4 4 c 4 3 c 5 10 c 4 17 c 4 2 c 5 -12 c 4 -19 c 4 -5 c 5 0 c 4 1 c 5 1 c 4 1 c
4 3 c 5 8 c 4 -25 c 4 0 c 5 80 c 4 -22 c 5 -31 c 4 -14 c 4 -1 c 5 -1 c 4 2 c 4 0 c 5 1 c 4 6 c 5 11 c 4 23 c 4 38 c 5 7 c 4 -31 c
4 -46 c 5 -10 c 4 -1 c 5 1 c 4 0 c 4 1 c 5 0 c 4 -1 c 4 1 c 5 -1 c 4 0 c 4 -1 c 5 0 c 4 1 c 5 1 c 4 -1 c 4 0 c 5 1 c 4 0 c 4 1 c
5 -1 c 4 -1 c 5 0 c 4 0 c 4 1 c 5 0 c 4 1 c 4 0 c 5 6 c 4 12 c 5 31 c 4 45 c 4 4 c 5 -38 c 4 -47 c 4 -8 c 5 -2 c 4 1 c 5 14 c 4 21 c
4 72 c 5 72 c 4 -14 c 4 -97 c 5 -65 c 4 -7 c 4 -2 c 5 1 c 4 0 c 5 -2 c 4 1 c 4 -1 c 5 1 c 4 0 c 4 1 c 5 0 c 4 2 c 5 -2 c 4 1 c 4 2 c
5 2 c 4 2 c 4 3 c 5 11 c 4 11 c 5 -4 c 4 -15 c 4 -12 c 5 -3 c 4 1 c 4 -1 c 5 1 c 4 0 c 4 -1 c 5 1 c 4 -1 c 5 1 c 4 1 c 4 0 c 5 -1 c
4 -1 c 4 1 c 5 0 c 4 1 c 5 1 c 4 1 c 4 1 c 5 0 c 4 0 c 4 -1 c 5 -1 c 4 -1 c 5 -1 c 4 -1 c 4 1 c 5 0 c 4 0 c 4 0 c 5 0 c 4 1 c 5 4 c
4 5 c 4 1 c 5 -2 c 4 -4 c 4 -1 c 5 3 c 4 1 c 4 -3 c 5 -2 c 4 -1 c 5 0 c 4 3 c 4 4 c 5 10 c 4 26 c 4 25 c 5 -7 c 4 -29 c 5 -22 c
4 -2 c 4 24 c 5 69 c 4 211 c 4 346 c 5 43 c 4 -295 c 5 -338 c 4 -40 c 4 -5 c 5 -7 c 4 -7 c 4 -4 c 5 -1 c 4 -1 c 5 8 c 4 17 c 4 60 c
5 103 c 4 8 c 4 -84 c 5 -98 c 4 -8 c 4 0 c 5 -1 c 4 0 c 5 0 c 4 3 c 4 11 c 5 52 c 4 148 c 4 445 c 5 539 c 4 1 c 5 -549 c 4 -514 c
4 -103 c 5 -20 c 4 -6 c 4 0 c 5 1 c 4 0 c 5 -7 c 4 -7 c 4 -1 c 5 0 c 4 0 c 4 2 c 5 1 c 4 2 c 5 -1 c 4 -1 c 4 -2 c 5 0 c 4 -2 c 4 0 c
5 0 c 4 0 c 4 -1 c 5 1 c 4 2 c 5 3 c 4 4 c 4 8 c 5 6 c 4 6 c 4 26 c 5 66 c 4 5 c 5 -51 c 4 -65 c 4 -9 c 5 0 c 4 1 c 4 -1 c 5 1 c
4 -2 c 5 0 c 4 1 c 4 1 c 5 1 c 4 2 c 4 1 c 5 -4 c 4 -2 c 5 0 c 4 1 c 4 -1 c 5 -1 c 4 -1 c 4 1 c 5 0 c 4 0 c 4 1 c 5 -1 c 4 1 c 5 0 c
4 2 c 4 3 c 5 -1 c 4 -2 c 4 -1 c 5 0 c 4 1 c 5 -3 c 4 0 c 4 0 c 5 0 c 4 1 c 4 0 c 5 1 c 4 -1 c 5 2 c 4 1 c 4 12 c 5 11 c 4 -2 c
4 -11 c 5 -11 c 4 -1 c 4 0 c 5 0 c 4 0 c 5 3 c 4 12 c 4 22 c 5 7 c 4 -19 c 4 -21 c 5 -2 c 4 0 c 5 0 c 4 0 c 4 0 c 5 1 c 4 -2 c 4 1 c
5 1 c 4 3 c 5 3 c 4 16 c 4 56 c 5 38 c 4 -25 c 4 -58 c 5 -23 c 4 2 c 5 1 c 4 6 c 4 6 c 5 20 c 4 128 c 4 619 c 5 2883 c 4 2364 c
4 -762 c 5 -3463 c 4 -1618 c 5 -154 c 4 -11 c 4 -6 c 5 -1 c 4 -4 c 4 -8 c 5 -5 c 4 -1 c 5 -2 c 4 -2 c 4 -2 c 5 0 c 4 0 c 4 1 c 5 0 c
4 0 c 5 0 c 4 -2 c 4 -2 c 5 -1 c 4 1 c 4 3 c 5 3 c 4 -2 c 5 -2 c 4 -1 c 4 2 c 5 4 c 4 3 c 4 -2 c 5 -4 c 4 -2 c 4 -1 c 5 5 c 4 12 c
5 9 c 4 -4 c 4 -13 c 5 -8 c 4 -1 c 4 0 c 5 2 c 4 -1 c 5 -2 c 4 -1 c 4 0 c 5 1 c 4 1 c 4 0 c 5 0 c 4 -1 c 5 0 c 4 0 c 4 -1 c 5 2 c
4 0 c 4 1 c 5 2 c 4 21 c 5 137 c 4 410 c 4 175 c 5 -189 c 4 -436 c 4 -111 c 5 -8 c 4 1 c 4 -2 c 5 1 c 4 -2 c 5 -2 c 4 1 c 4 -1 c
5 0 c 4 0 c 4 1 c 5 6 c 4 7 c 5 -2 c 4 -7 c 4 -1 c 5 10 c 4 20 c 4 2 c 5 -16 c 4 -18 c 5 -2 c 4 0 c 4 1 c 5 0 c 4 0 c 4 4 c 5 7 c
4 6 c 5 -3 c 4 -4 c 4 9 c 5 7 c 4 -5 c 4 -15 c 5 -8 c 4 1 c 4 1 c 5 -1 c 4 -1 c 5 0 c 4 0 c 4 0 c 5 0 c 4 0 c 4 2 c 5 3 c 4 1 c
5 0 c 4 -4 c 4 -2 c 5 0 c 4 -1 c 4 0 c 5 1 c 4 1 c 5 2 c 4 1 c 4 -1 c 5 7 c 4 11 c 4 2 c 5 19 c 4 40 c 4 3 c 5 -41 c 4 -37 c 5 -1 c
4 3 c 4 8 c 5 3 c 4 -4 c 4 -10 c 5 -5 c 4 1 c 5 2 c 4 0 c 4 1 c 5 5 c 4 17 c 4 10 c 5 -9 c 4 -17 c 5 -4 c 4 6 c 4 0 c 5 -5 c 4 -3 c
4 8 c 5 5 c 4 -4 c 5 -2 c 4 27 c 4 218 c 5 282 c 4 5 c 4 -267 c 5 -204 c 4 -3 c 4 -13 c 5 -33 c 4 -17 c 5 0 c 4 1 c 4 1 c 5 14 c
4 68 c 4 56 c 5 110 c 4 305 c 5 89 c 4 -204 c 4 -362 c 5 -74 c 4 -5 c 4 -2 c 5 -1 c 4 2 c 5 12 c 4 10 c 4 -2 c 5 -14 c 4 -8 c 4 -1 c
5 2 c 4 2 c 5 23 c 4 57 c 4 35 c 5 -27 c 4 -59 c 4 -29 c 5 -5 c 4 1 c 4 0 c 5 0 c 4 -1 c 5 -1 c 4 1 c 4 0 c 5 0 c 4 0 c 4 0 c 5 3 c
4 10 c 5 9 c 4 -5 c 4 -11 c 5 -2 c 4 1 c 4 3 c 5 1 c 4 -3 c 5 1 c 4 2 c 4 0 c 5 -3 c 4 -3 c 4 -1 c 5 -1 c 4 -1 c 5 1 c 4 0 c 4 0 c
5 0 c 4 2 c 4 8 c 5 88 c 4 235 c 4 39 c 5 -134 c 4 -203 c 5 -34 c 4 0 c 4 1 c 5 0 c 4 0 c 4 -1 c 5 -1 c 4 1 c 5 -1 c 4 2 c 4 0 c
5 2 c 4 0 c 4 -2 c 5 -2 c 4 -1 c 5 0 c 4 0 c 4 3 c 5 1 c 4 0 c 4 5 c 5 49 c 4 188 c 4 125 c 5 -62 c 4 -195 c 5 -99 c 4 -13 c 4 -2 c
5 -1 c 4 1 c 4 0 c 5 -1 c 4 2 c 5 -1 c 4 0 c 4 -1 c 5 0 c 4 0 c 4 0 c 5 0 c 4 0 c 5 1 c 4 2 c 4 1 c 5 2 c 4 -3 c 4 -1 c 5 5 c 4 8 c
5 1 c 4 -1 c 4 4 c 5 39 c 4 18 c 4 -14 c 5 -42 c 4 -13 c 4 -2 c 5 -1 c 4 -1 c 5 1 c 4 0 c 4 -2 c 5 1 c 4 1 c 4 3 c 5 14 c 4 93 c
5 75 c 4 -24 c 4 -104 c 5 -45 c 4 17 c 4 18 c 5 -6 c 4 -29 c 5 -14 c 4 0 c 4 0 c 5 0 c 4 -1 c 4 1 c 5 0 c 4 -2 c 5 1 c 4 0 c 4 -1 c
5 0 c 4 1 c 4 1 c 5 -1 c 4 0 c 4 2 c 5 -1 c 4 1 c 5 -2 c 4 4 c 4 2 c 5 -3 c 4 -3 c 4 -1 c 5 2 c 4 0 c 5 1 c 4 14 c 4 66 c 5 54 c
4 -15 c 4 -73 c 5 -44 c 4 -5 c 5 12 c 4 18 c 4 4 c 5 -8 c 4 -20 c 4 -4 c 5 -2 c 4 1 c 5 -1 c 4 1 c 4 0 c 5 2 c 4 3 c 4 18 c 5 168 c
4 178 c 4 -12 c 5 -204 c 4 -121 c 5 6 c 4 -7 c 4 -17 c 5 -11 c 4 -2 c 4 0 c 5 1 c 4 2 c 5 0 c 4 -1 c 4 -3 c 5 0 c 4 -1 c 4 0 c
5 -1 c 4 0 c 5 1 c 4 -1 c 4 1 c 5 1 c 4 -1 c 4 0 c 5 2 c 4 5 c 5 8 c 4 1 c 4 -10 c 5 -6 c 4 0 c 4 1 c 5 1 c 4 0 c 4 -1 c 5 -1 c
4 0 c 5 0 c 4 2 c 4 0 c 5 -1 c 4 -1 c 4 1 c 5 -1 c 4 1 c 5 3 c 4 0 c 4 0 c 5 -2 c 4 1 c 4 1 c 5 0 c 4 2 c 5 2 c 4 9 c 4 102 c
5 518 c 4 411 c 4 -131 c 5 -581 c 4 -312 c 4 -17 c 5 -3 c 4 1 c 5 7 c 4 14 c 4 2 c 5 -10 c 4 -11 c 4 -3 c 5 -1 c 4 1 c 5 1 c 4 0 c
4 -4 c 5 1 c 4 0 c 4 1 c 5 1 c 4 0 c 5 0 c 4 17 c 4 47 c 5 16 c 4 -22 c 4 -41 c 5 -9 c 4 -1 c 5 -3 c 4 -1 c 4 11 c 5 38 c 4 158 c
4 162 c 5 -17 c 4 -186 c 4 -138 c 5 -22 c 4 -5 c 5 0 c 4 1 c 4 -2 c 5 -3 c 4 -2 c 4 0 c 5 1 c 4 0 c 5 0 c 4 2 c 4 -1 c 5 5 c 4 19 c
4 92 c 5 91 c 4 -5 c 5 -101 c 4 -82 c 4 -17 c 5 -3 c 4 -1 c 4 2 c 5 9 c 4 21 c 5 7 c 4 -13 c 4 -19 c 5 -5 c 4 4 c 4 0 c 5 0 c 4 2 c
4 7 c 5 58 c 4 435 c 5 560 c 4 3 c 4 -524 c 5 -486 c 4 -53 c 4 -4 c 5 0 c 4 -1 c 5 2 c 4 -1 c 4 1 c 5 -1 c 4 -1 c 4 -2 c 5 -2 c
4 1 c 5 -2 c 4 1 c 4 0 c 5 0 c 4 -1 c 4 3 c 5 15 c 4 63 c 5 47 c 4 -15 c 4 -67 c 5 -38 c 4 -5 c 4 -1 c 5 -1 c 4 0 c 4 0 c 5 0 c
4 1 c 5 2 c 4 -1 c 4 0 c 5 0 c 4 1 c 4 -4 c 5 1 c 4 -1 c 5 -1 c 4 0 c 4 2 c 5 1 c 4 -1 c 4 1 c 5 5 c 4 3 c 5 -1 c 4 3 c 4 14 c 5 4 c
4 -7 c 4 -17 c 5 -3 c 4 0 c 5 -2 c 4 0 c 4 0 c 5 2 c 4 4 c 4 23 c 5 44 c 4 16 c 4 -31 c 5 -38 c 4 -7 c 5 -3 c 4 0 c 4 -2 c 5 -3 c
4 -4 c 4 0 c 5 0 c 4 0 c 5 1 c 4 5 c 4 -21 c 5 23 c 4 0 c 4 2 c 5 0 c 4 -6 c 5 -4 c 4 0 c 4 0 c 5 0 c 4 0 c 4 0 c 5 1 c 4 -1 c
4 -1 c 5 -1 c 4 0 c 5 0 c 4 0 c 4 -1 c 5 1 c 4 0 c 4 0 c 5 0 c 4 0 c 5 1 c 4 1 c 4 -1 c 5 -1 c 4 1 c 4 1 c 5 3 c 4 3 c 5 0 c 4 -3 c
4 -3 c 5 0 c 4 7 c 4 51 c 5 88 c 4 16 c 5 -66 c 4 -80 c 4 -13 c 5 0 c 4 1 c 4 -1 c 5 -2 c 4 -2 c 4 0 c 5 -1 c 4 1 c 5 -1 c 4 2 c
4 -1 c 5 2 c 4 -1 c 4 1 c 5 8 c 4 40 c 5 48 c 4 -1 c 4 -48 c 5 -40 c 4 -2 c 4 5 c 5 3 c 4 24 c 5 174 c 4 216 c 4 7 c 5 -210 c
4 -198 c 4 -23 c 5 -1 c 4 -2 c 5 6 c 4 21 c 4 34 c 5 6 c 4 -24 c 4 -33 c 5 -5 c 4 6 c 4 -1 c 5 -5 c 4 -3 c 5 -1 c 4 0 c 4 -3 c 5 0 c
4 0 c 4 2 c 5 3 c 4 1 c 5 1 c 4 -2 c 4 -1 c 5 12 c 4 58 c 4 65 c 5 97 c 4 25 c 5 -55 c 4 -116 c 4 -52 c 5 54 c 4 21 c 4 -30 c
5 -61 c 4 -19 c 5 -1 c 4 -1 c 4 -1 c 5 -1 c 4 0 c 4 0 c 5 0 c 4 1 c 4 0 c 5 -1 c 4 1 c 5 0 c 4 1 c 4 1 c 5 0 c 4 -1 c 4 0 c 5 0 c
4 1 c 5 1 c 4 0 c 4 -1 c 5 -1 c 4 1 c 4 -1 c 5 0 c 4 11 c 5 60 c 4 66 c 4 3 c 5 -65 c 4 -61 c 4 -10 c 5 -1 c 4 0 c 4 1 c 5 1 c 4 0 c
5 -4 c 4 0 c 4 -2 c 5 -14 c 4 14 c 4 0 c 5 0 c 4 1 c 5 1 c 4 1 c 4 0 c 5 1 c 4 -1 c 4 -2 c 5 0 c 4 0 c 5 0 c 4 -15 c 4 0 c 5 16 c
4 1 c 4 33 c 5 52 c 4 11 c 5 -37 c 4 -51 c 4 -6 c 5 4 c 4 -1 c 4 13 c 5 42 c 4 18 c 4 -17 c 5 -45 c 4 -17 c 5 13 c 4 37 c 4 17 c
5 -4 c 4 -29 c 4 -16 c 5 -13 c 4 -8 c 5 1 c 4 4 c 4 11 c 5 9 c 4 -4 c 4 -12 c 5 -8 c 4 0 c 5 0 c 4 2 c 4 4 c 5 -1 c 4 -2 c 4 -2 c
5 0 c 4 0 c 5 1 c 4 -1 c 4 -1 c 5 1 c 4 1 c 4 -1 c 5 -1 c 4 0 c 4 4 c 5 0 c 4 0 c 5 -2 c 4 2 c 4 3 c 5 10 c 4 2 c 4 -4 c 5 -11 c
4 -3 c 5 0 c 4 -1 c 4 0 c 5 5 c 4 8 c 4 2 c 5 -3 c 4 -6 c 5 -1 c 4 2 c 4 7 c 5 17 c 4 102 c 4 411 c 5 235 c 4 81 c 5 -298 c 4 -239 c
4 -209 c 5 -98 c 4 -6 c 4 -1 c 5 0 c 4 -2 c 4 -2 c 5 -1 c 4 -2 c 5 0 c 4 0 c 4 5 c 5 14 c 4 10 c 4 -3 c 5 -17 c 4 -5 c 5 1 c 4 17 c
4 87 c 5 104 c 4 17 c 4 -82 c 5 -93 c 4 -27 c 5 -12 c 4 -1 c 4 2 c 5 -6 c 4 -6 c 4 14 c 5 23 c 4 9 c 5 -19 c 4 -28 c 4 -6 c 5 0 c
4 1 c 4 2 c 5 0 c 4 1 c 4 4 c 5 4 c 4 -4 c 5 -3 c 4 -5 c 4 4 c 5 5 c 4 0 c 4 -2 c 5 -5 c 4 -1 c 5 -1 c 4 0 c 4 1 c 5 7 c 4 3 c
4 -1 c 5 -3 c 4 -3 c 5 -1 c 4 -3 c 4 1 c 5 1 c 4 2 c 4 6 c 5 0 c 4 -3 c 4 -5 c 5 0 c 4 1 c 5 0 c 4 2 c 4 1 c 5 -1 c 4 1 c 4 0 c
5 2 c 4 3 c 5 3 c 4 1 c 4 5 c 5 3 c 4 6 c 4 1 c 5 9 c 4 30 c 5 162 c 4 969 c 4 1840 c 5 693 c 4 -949 c 4 -1816 c 5 -764 c 4 7 c
5 137 c 4 -6 c 4 -146 c 5 -152 c 4 -21 c 4 1 c 5 -2 c 4 -7 c 4 -6 c 5 -4 c 4 2 c 5 3 c 4 -1 c 4 0 c 5 -2 c 4 1 c 4 0 c 5 -3 c 4 -1 c
5 0 c 4 1 c 4 1 c 5 1 c 4 1 c 4 9 c 5 28 c 4 135 c 5 516 c 4 459 c 4 -39 c 5 -549 c 4 -456 c 4 -125 c 5 28 c 4 -7 c 5 -1 c 4 -2 c
4 0 c 5 -2 c 4 1 c 4 9 c 5 7 c 4 -1 c 4 -11 c 5 -6 c 4 -2 c 5 1 c 4 -1 c 4 0 c 5 1 c 4 0 c 4 0 c 5 0 c 4 -1 c 5 -1 c 4 2 c 4 -2 c
5 0 c 4 0 c 4 1 c 5 0 c 4 -1 c 5 0 c 4 3 c 4 4 c 5 13 c 4 13 c 4 1 c 5 -16 c 4 -3 c 5 24 c 4 11 c 4 -8 c 5 -25 c 4 -12 c 4 -4 c
5 0 c 4 0 c 4 0 c 5 0 c 4 1 c 5 1 c 4 2 c 4 -1 c 5 3 c 4 1 c 4 -2 c 5 -2 c 4 0 c 5 1 c 4 -1 c 4 0 c 5 -2 c 4 0 c 4 0 c 5 2 c 4 10 c
5 60 c 4 147 c 4 42 c 5 -49 c 4 -141 c 4 -49 c 5 -10 c 4 4 c 5 -3 c 4 -5 c 4 -8 c 5 -2 c 4 1 c 4 0 c 5 -1 c 4 1 c 4 -2 c 5 1 c
4 -1 c 5 1 c 4 0 c 4 7 c 5 27 c 4 14 c 4 -6 c 5 -21 c 4 -16 c 5 -5 c 4 0 c 4 1 c 5 0 c 4 0 c 4 0 c 5 2 c 4 1 c 5 0 c 4 0 c 4 3 c
5 1 c 4 -2 c 4 -1 c 5 -4 c 4 -1 c 4 -1 c 5 1 c 4 0 c 5 -2 c 4 2 c 4 1 c 5 0 c 4 0 c 4 -2 c 5 1 c 4 0 c 5 0 c 4 1 c 4 1 c 5 -1 c
4 -1 c 4 1 c 5 -1 c 4 0 c 5 0 c 4 1 c 4 0 c 5 0 c 4 3 c 4 14 c 5 52 c 4 32 c 5 -12 c 4 -49 c 4 -25 c 5 -1 c 4 -3 c 4 -6 c 5 -4 c
4 -1 c 4 1 c 5 0 c 4 -1 c 5 0 c 4 1 c 4 2 c 5 2 c 4 5 c 4 73 c 5 146 c 4 28 c 5 -78 c 4 -139 c 4 -34 c 5 -3 c 4 0 c 4 0 c 5 -1 c
4 -1 c 5 2 c 4 7 c 4 31 c 5 23 c 4 -6 c 4 -27 c 5 -16 c 4 58 c 5 206 c 4 164 c 4 -26 c 5 -212 c 4 -165 c 4 -31 c 5 -5 c 4 -2 c 4 1 c
5 0 c 4 1 c 5 -1 c 4 -3 c 4 0 c 5 0 c 4 0 c 4 1 c 5 -1 c 4 0 c 5 3 c 4 -1 c 4 -2 c 5 2 c 4 0 c 4 1 c 5 -1 c 4 1 c 5 3 c 4 3 c 4 2 c
5 2 c 4 6 c 4 18 c 5 150 c 4 1017 c 5 992 c 4 -36 c 4 -1115 c 5 -904 c 4 -119 c 4 -6 c 5 -5 c 4 0 c 4 0 c 5 10 c 4 14 c 5 2 c
4 -14 c 4 -16 c 5 -4 c 4 -2 c 4 -1 c 5 -1 c 4 0 c 5 0 c 4 0 c 4 0 c 5 0 c 4 0 c 4 0 c 5 1 c 4 -1 c 5 0 c 4 -1 c 4 1 c 5 2 c 4 -2 c
4 0 c 5 6 c 4 35 c 5 17 c 4 -9 c 4 -30 c 5 -18 c 4 -2 c 4 -1 c 5 1 c 4 1 c 4 1 c 5 -1 c 4 0 c 5 -1 c 4 0 c 4 2 c 5 0 c 4 20 c 4 38 c
5 13 c 4 -20 c 5 -39 c 4 -11 c 4 0 c 5 -3 c 4 0 c 4 0 c 5 0 c 4 0 c 5 0 c 4 0 c 4 0 c 5 0 c 4 6 c 4 18 c 5 8 c 4 -7 c 4 -18 c 5 -6 c
4 0 c 5 0 c 4 -2 c 4 1 c 5 0 c 4 1 c 4 4 c 5 3 c 4 -1 c 5 -3 c 4 -3 c 4 -2 c 5 1 c 4 0 c 4 0 c 5 2 c 4 5 c 5 3 c 4 -3 c 4 -6 c
5 -1 c 4 0 c 4 6 c 5 44 c 4 54 c 5 7 c 4 -51 c 4 -53 c 5 -7 c 4 0 c 4 0 c 5 -1 c 4 0 c 4 -1 c 5 1 c 4 0 c 5 0 c 4 0 c 4 1 c 5 0 c
4 2 c 4 12 c 5 18 c 4 3 c 5 -13 c 4 -16 c 4 -4 c 5 -1 c 4 -1 c 4 -1 c 5 0 c 4 0 c 5 1 c 4 0 c 4 3 c 5 3 c 4 -1 c 4 -2 c 5 -3 c
4 -1 c 5 0 c 4 -1 c 4 2 c 5 3 c 4 2 c 4 0 c 5 -6 c 4 -1 c 4 1 c 5 0 c 4 1 c 5 0 c 4 1 c 4 4 c 5 0 c 4 -1 c 4 -4 c 5 0 c 4 -3 c 5 3 c
4 3 c 4 4 c 5 -2 c 4 -3 c 4 -2 c 5 -1 c 4 4 c 5 9 c 4 0 c 4 -2 c 5 -4 c 4 5 c 4 7 c 5 -4 c 4 -9 c 5 -5 c 4 0 c 4 4 c 5 0 c 4 -1 c
4 -4 c 5 0 c 4 0 c 4 0 c 5 0 c 4 0 c 5 0 c 4 0 c 4 1 c 5 0 c 4 5 c 4 7 c 5 0 c 4 -5 c 5 -6 c 4 -2 c 4 -1 c 5 1 c 4 0 c 4 0 c 5 0 c
4 0 c 5 -1 c 4 2 c 4 4 c 5 36 c 4 48 c 4 4 c 5 -34 c 4 -49 c 4 -10 c 5 -1 c 4 1 c 5 2 c 4 0 c 4 4 c 5 1 c 4 -2 c 4 -3 c 5 3 c 4 10 c
5 3 c 4 -5 c 4 -8 c 5 -1 c 4 -2 c 4 -1 c 5 -1 c 4 1 c 5 0 c 4 1 c 4 -2 c 5 0 c 4 -1 c 4 -1 c 5 1 c 4 0 c 5 -1 c 4 1 c 4 0 c 5 0 c
4 1 c 4 1 c 5 4 c 4 0 c 4 -1 c 5 -2 c 4 3 c 5 0 c 4 0 c 4 -1 c 5 2 c 4 12 c 4 11 c 5 -4 c 4 -12 c 5 -10 c 4 2 c 4 2 c 5 0 c 4 -4 c
4 -2 c 5 0 c 4 0 c 5 4 c 4 2 c 4 3 c 5 -3 c 4 -3 c 4 -1 c 5 -1 c 4 -1 c 5 -1 c 4 -1 c 4 0 c 5 0 c 4 0 c 4 0 c 5 2 c 4 2 c 4 0 c
5 -1 c 4 -4 c 5 0 c 4 1 c 4 -1 c 5 0 c 4 0 c 4 0 c 5 0 c 4 1 c 5 0 c 4 1 c 4 0 c 5 -2 c 4 1 c 4 0 c 5 1 c 4 1 c 5 -1 c 4 -1 c 4 -1 c
5 1 c 4 0 c 4 1 c 5 1 c 4 0 c 5 3 c 4 1 c 4 -1 c 5 -4 c 4 0 c 4 -1 c 5 2 c 4 3 c 4 -1 c 5 -1 c 4 1 c 5 -1 c 4 0 c 4 -2 c 5 -1 c
4 -1 c 4 0 c 5 0 c 4 0 c 5 0 c 4 2 c 4 1 c 5 0 c 4 -1 c 4 0 c 5 -1 c 4 1 c 5 2 c 4 0 c 4 0 c 5 -3 c 4 0 c 4 0 c 5 2 c 4 2 c 5 -2 c
4 0 c 4 -2 c 5 -1 c 4 1 c 4 0 c 5 -1 c 4 0 c 4 0 c 5 0 c 4 1 c 5 -1 c 4 0 c 4 0 c 5 0 c 4 0 c 4 0 c 5 0 c 4 0 c 5 0 c 4 0 c 4 1 c
5 1 c 4 1 c 4 1 c 5 -2 c 4 0 c 5 -1 c 4 2 c 4 0 c 5 0 c 4 -2 c 4 0 c 5 0 c 4 0 c 4 -1 c 5 2 c 4 -1 c 5 1 c 4 0 c 4 0 c 5 1 c 4 0 c
4 0 c 5 0 c 4 1 c 5 1 c 4 1 c 4 4 c 5 11 c 4 63 c 4 221 c 5 148 c 4 -40 c 5 -205 c 4 -143 c 4 87 c 5 119 c 4 -3 c 4 -108 c 5 -132 c
4 -21 c 5 -2 c 4 -2 c 4 0 c 5 -1 c 4 0 c 4 -1 c 5 1 c 4 2 c 4 2 c 5 14 c 4 12 c 5 4 c 4 -11 c 4 -9 c 5 -6 c 4 -3 c 4 -5 c 5 -2 c
4 -1 c 5 1 c 4 0 c 4 0 c 5 0 c 4 0 c 4 0 c 5 0 c 4 0 c 5 0 c 4 0 c 4 0 c 5 0 c 4 -1 c 4 0 c 5 0 c 4 1 c 5 -1 c 4 0 c 4 0 c 5 0 c
4 0 c 4 0 c 5 1 c 4 1 c 4 0 c 5 0 c 4 -1 c 5 0 c 4 -2 c 4 2 c 5 -1 c 4 0 c 4 1 c 5 3 c 4 1 c 5 2 c 4 -3 c 4 -2 c 5 -2 c 4 1 c 4 1 c
5 0 c 4 1 c 5 -2 c 4 1 c 4 -2 c 5 0 c 4 0 c 4 2 c
5 -1 c 4 -1 c 5 0 c 4 0 c 4 -7 c 5 0 c 4 8 c 4 1 c 5 -1 c 4 1 c 4 2 c 5 23 c 4 31 c 5 -3 c 4 -17 c 4 -29 c 5 -6 c 4 -1 c 4 1 c 5 0 c
4 0 c 5 5 c 4 30 c 4 198 c 5 168 c 4 -13 c 4 -178 c 5 -190 c 4 -17 c 5 -1 c 4 -2 c 4 1 c 5 4 c 4 1 c 4 -1 c 5 -3 c 4 -2 c 5 -1 c
4 3 c 4 6 c 5 1 c 4 -3 c 4 -4 c 5 -2 c 4 0 c
0 -126 3315 418 l 54 0 3315 418 l 18 -6 c 6 -6 c 6 -12 c 0 -12 c -6 -12 c -6 -6 c -18 -6 c -54 0 c 42 -66 3357 358 l
-12 -6 3465 376 l -12 -12 c -6 -18 c 0 -12 c 6 -18 c 12 -12 c 12 -6 c 18 0 c 12 6 c 12 12 c 6 18 c 0 12 c -6 18 c -12 12 c -12 6 c
-18 0 c 24 -84 3549 376 l -24 -84 3597 376 l 24 -84 3597 376 l -24 -84 3645 376 l 108 0 3687 364 l 108 0 3687 328 l 66 0 4041 418 l
-36 -48 c 18 0 c 12 -6 c 6 -6 c 6 -18 c 0 -12 c -6 -18 c -12 -12 c -18 -6 c -18 0 c -18 6 c -6 6 c -6 12 c -12 -6 4275 376 l
-12 -12 c -6 -18 c 0 -12 c 6 -18 c 12 -12 c 12 -6 c 18 0 c 12 6 c 12 12 c 6 18 c 0 12 c -6 18 c -12 12 c -12 6 c -18 0 c
-12 0 4401 418 l -12 -6 c -6 -18 c 0 -102 c 42 0 4353 376 l 66 0 4539 418 l -36 -48 c 18 0 c 12 -6 c 6 -6 c 6 -18 c 0 -12 c -6 -18 c
-12 -12 c -18 -6 c -18 0 c -18 6 c -6 6 c -6 12 c -6 -18 4725 376 l -12 -12 c -18 -6 c -6 0 c -18 6 c -12 12 c -6 18 c 0 6 c 6 18 c
12 12 c 18 6 c 6 0 c 18 -6 c 12 -12 c 6 -24 c 0 -30 c -6 -30 c -12 -18 c -18 -6 c -12 0 c -18 6 c -6 12 c 12 6 5169 394 l 18 18 c
0 -126 c -6 -6 5282 376 l 6 -6 c 6 6 c -6 6 c -6 -6 5282 304 l 6 -6 c 6 6 c -6 6 c -48 -126 5462 418 l 48 -126 5462 418 l
60 0 5432 334 l 0 -84 5540 376 l 6 18 5540 340 l 12 12 c 12 6 c 18 0 c -12 12 5684 358 l -12 6 c -18 0 c -12 -6 c -12 -12 c -6 -18 c
0 -12 c 6 -18 c 12 -12 c 12 -6 c 18 0 c 12 6 c 12 12 c 108 0 5726 346 l -18 -6 5912 418 l -12 -18 c -6 -30 c 0 -18 c 6 -30 c
12 -18 c 18 -6 c 12 0 c 18 6 c 12 18 c 6 30 c 0 18 c -6 30 c -12 18 c -18 6 c -12 0 c -60 0 6068 418 l -6 -54 c 6 6 c 18 6 c 18 0 c
18 -6 c 12 -12 c 6 -18 c 0 -12 c -6 -18 c -12 -12 c -18 -6 c -18 0 c -18 6 c -6 6 c -6 12 c -60 -126 6200 418 l 84 0 6116 418 l
-6 -6 6248 304 l 6 -6 c 6 6 c -6 6 c -12 0 6338 418 l -12 -6 c -6 -18 c 0 -102 c 42 0 6290 376 l 6 -6 6368 418 l 6 6 c -6 6 c
-6 -6 c 0 -84 6374 376 l 0 -102 6428 418 l 6 -18 c 12 -6 c 12 0 c 42 0 6410 376 l -6 12 6554 358 l -18 6 c -18 0 c -18 -6 c -6 -12 c
6 -12 c 12 -6 c 30 -6 c 12 -6 c 6 -12 c 0 -6 c -6 -12 c -18 -6 c -18 0 c -18 6 c -6 12 c 0 -192 6884 442 l 0 -192 6890 442 l
42 0 6884 442 l 42 0 6884 250 l 0 6 6968 388 l 6 12 c 6 6 c 12 6 c 24 0 c 12 -6 c 6 -6 c 6 -12 c 0 -12 c -6 -12 c -12 -18 c
-60 -60 c 84 0 c -6 -6 7094 376 l 6 -6 c 6 6 c -6 6 c -6 -6 7094 304 l 6 -6 c 6 6 c -6 6 c 0 -192 7274 442 l 0 -192 7280 442 l
42 0 7238 442 l 42 0 7238 250 l
0 -250 1102 1264 l 0 42 1058 1343 l 30 -23 c 0 11 c 4 8 c 4 4 c 11 3 c 8 0 c 11 -3 c 8 -8 c 3 -11 c 0 -12 c -3 -11 c -4 -4 c -8 -3 c
79 -38 1058 1464 l 0 53 1058 1411 l 0 42 1058 1494 l 30 -23 c 0 12 c 4 7 c 4 4 c 11 4 c 8 0 c 11 -4 c 8 -8 c 3 -11 c 0 -11 c
-3 -12 c -4 -4 c -8 -3 c -4 0 1077 1566 l -7 4 c -4 4 c -4 7 c 0 15 c 4 8 c 4 4 c 7 3 c 8 0 c 7 -3 c 12 -8 c 37 -38 c 0 53 c
4 -3 1130 1645 l 3 3 c -3 4 c -4 -4 c 11 -4 1085 1725 l 7 -8 c 4 -11 c 0 -4 c -4 -11 c -7 -8 c -11 -3 c -4 0 c -12 3 c -7 8 c
-4 11 c 0 4 c 4 11 c 7 8 c 16 4 c 18 0 c 19 -4 c 12 -8 c 3 -11 c 0 -7 c -3 -12 c -8 -4 c 4 -11 1058 1770 l 7 -4 c 8 0 c 8 4 c 3 7 c
4 16 c 4 11 c 7 7 c 8 4 c 11 0 c 8 -4 c 4 -3 c 3 -12 c 0 -15 c -3 -11 c -4 -4 c -8 -4 c -11 0 c -8 4 c -7 8 c -4 11 c -4 15 c -3 8 c
-8 3 c -8 0 c -7 -3 c -4 -12 c 0 -15 c 0 -38 1058 1872 l 34 -3 c -4 3 c -3 12 c 0 11 c 3 11 c 8 8 c 11 4 c 8 0 c 11 -4 c 8 -8 c
3 -11 c 0 -11 c -3 -12 c -4 -3 c -8 -4 c 0 -249 1211 1315 l 0 41 1167 1395 l 31 -22 c 0 11 c 3 7 c 4 4 c 11 4 c 8 0 c 11 -4 c 8 -7 c
4 -12 c 0 -11 c -4 -11 c -4 -4 c -7 -4 c 80 -38 1167 1516 l 0 53 1167 1463 l 0 41 1167 1546 l 31 -22 c 0 11 c 3 8 c 4 3 c 11 4 c
8 0 c 11 -4 c 8 -7 c 4 -11 c 0 -12 c -4 -11 c -4 -4 c -7 -4 c 0 42 1167 1621 l 31 -23 c 0 12 c 3 7 c 4 4 c 11 4 c 8 0 c 11 -4 c
8 -8 c 4 -11 c 0 -11 c -4 -12 c -4 -3 c -7 -4 c 4 -4 1239 1697 l 4 4 c -4 4 c -4 -4 c -8 -3 1179 1776 l -4 -12 c 0 -7 c 4 -12 c
11 -7 c 19 -4 c 19 0 c 15 4 c 8 7 c 4 12 c 0 4 c -4 11 c -8 7 c -11 4 c -4 0 c -11 -4 c -8 -7 c -3 -11 c 0 -4 c 3 -12 c 8 -7 c
11 -4 c 80 -38 1167 1856 l 0 53 1167 1803 l -4 0 1186 1882 l -7 4 c -4 4 c -4 7 c 0 15 c 4 8 c 4 4 c 7 4 c 8 0 c 8 -4 c 11 -8 c
38 -38 c 0 53 c 0 -250 1888 2438 l 0 42 1844 2517 l 31 -23 c 0 12 c 3 7 c 4 4 c 11 4 c 8 0 c 11 -4 c 8 -8 c 4 -11 c 0 -11 c -4 -12 c
-4 -3 c -7 -4 c 80 -37 1844 2638 l 0 53 1844 2585 l 0 41 1844 2669 l 31 -23 c 0 12 c 3 7 c 4 4 c 11 4 c 8 0 c 11 -4 c 8 -7 c 4 -12 c
0 -11 c -4 -11 c -4 -4 c -7 -4 c 80 -37 1844 2789 l 0 52 1844 2737 l 4 -4 1916 2820 l 4 4 c -4 3 c -4 -3 c 4 -11 1844 2869 l 8 -4 c
7 0 c 8 4 c 4 7 c 3 15 c 4 12 c 8 7 c 7 4 c 12 0 c 7 -4 c 4 -4 c 4 -11 c 0 -15 c -4 -11 c -4 -4 c -7 -4 c -12 0 c -7 4 c -8 7 c
-4 12 c -3 15 c -4 7 c -8 4 c -7 0 c -8 -4 c -4 -11 c 0 -15 c 4 -11 1844 2944 l 8 -4 c 7 0 c 8 4 c 4 8 c 3 15 c 4 11 c 8 8 c 7 3 c
12 0 c 7 -3 c 4 -4 c 4 -11 c 0 -16 c -4 -11 c -4 -4 c -7 -3 c -12 0 c -7 3 c -8 8 c -4 11 c -3 15 c -4 8 c -8 4 c -7 0 c -8 -4 c
-4 -11 c 0 -16 c 11 -4 1871 3050 l 8 -7 c 3 -11 c 0 -4 c -3 -12 c -8 -7 c -11 -4 c -4 0 c -11 4 c -8 7 c -4 12 c 0 4 c 4 11 c 8 7 c
15 4 c 19 0 c 19 -4 c 11 -7 c 4 -11 c 0 -8 c -4 -11 c -8 -4 c 0 -249 2420 7019 l 0 42 2377 7098 l 30 -23 c 0 12 c 4 7 c 3 4 c 12 4 c
7 0 c 12 -4 c 7 -8 c 4 -11 c 0 -11 c -4 -12 c -4 -3 c -7 -4 c 79 -37 2377 7219 l 0 52 2377 7167 l 52 -38 2377 7280 l 0 57 c
79 0 2377 7280 l -4 8 2392 7329 l -11 11 c 79 0 c 4 -4 2448 7401 l 4 4 c -4 4 c -4 -4 c -4 8 2392 7442 l -11 11 c 79 0 c
3 -12 2377 7526 l 8 -4 c 7 0 c 8 4 c 4 8 c 4 15 c 3 11 c 8 8 c 7 4 c 12 0 c 7 -4 c 4 -4 c 4 -11 c 0 -15 c -4 -12 c -4 -4 c -7 -3 c
-12 0 c -7 3 c -8 8 c -3 11 c -4 15 c -4 8 c -8 4 c -7 0 c -8 -4 c -3 -11 c 0 -15 c 0 41 2377 7590 l 30 -22 c 0 11 c 4 8 c 3 3 c
12 4 c 7 0 c 12 -4 c 7 -7 c 4 -12 c 0 -11 c -4 -11 c -4 -4 c -7 -4 c 0 -250 2703 1979 l 0 42 2659 2058 l 31 -23 c 0 11 c 4 8 c 3 4 c
12 4 c 7 0 c 12 -4 c 7 -8 c 4 -11 c 0 -11 c -4 -12 c -4 -4 c -7 -3 c 80 -38 2659 2179 l 0 53 2659 2126 l 53 -38 2659 2240 l 0 57 c
80 0 2659 2240 l -3 0 2678 2281 l -8 4 c -4 4 c -4 7 c 0 15 c 4 8 c 4 4 c 8 4 c 7 0 c 8 -4 c 11 -8 c 38 -38 c 0 53 c
4 -4 2731 2361 l 4 4 c -4 3 c -4 -3 c 11 -4 2686 2440 l 8 -7 c 4 -12 c 0 -3 c -4 -12 c -8 -7 c -11 -4 c -4 0 c -11 4 c -8 7 c
-4 12 c 0 3 c 4 12 c 8 7 c 15 4 c 19 0 c 19 -4 c 11 -7 c 4 -12 c 0 -7 c -4 -12 c -7 -3 c -3 0 2678 2470 l -8 4 c -4 4 c -4 7 c
0 15 c 4 8 c 4 4 c 8 4 c 7 0 c 8 -4 c 11 -8 c 38 -38 c 0 53 c 0 41 2659 2550 l 31 -23 c 0 12 c 4 7 c 3 4 c 12 4 c 7 0 c 12 -4 c
7 -7 c 4 -12 c 0 -11 c -4 -11 c -4 -4 c -7 -4 c 0 -250 3200 1881 l 0 42 3157 1960 l 30 -23 c 0 12 c 4 7 c 3 4 c 12 4 c 7 0 c 12 -4 c
7 -8 c 4 -11 c 0 -11 c -4 -12 c -3 -3 c -8 -4 c 79 -37 3157 2081 l 0 53 3157 2028 l 53 -38 3157 2142 l 0 57 c 79 0 3157 2142 l
0 -38 3157 2225 l 34 -4 c -4 4 c -4 12 c 0 11 c 4 11 c 7 8 c 12 4 c 7 0 c 12 -4 c 7 -8 c 4 -11 c 0 -11 c -4 -12 c -3 -4 c -8 -3 c
3 -4 3229 2263 l 4 4 c -4 4 c -3 -4 c 11 -4 3183 2342 l 8 -7 c 4 -12 c 0 -3 c -4 -12 c -8 -7 c -11 -4 c -4 0 c -11 4 c -8 7 c
-3 12 c 0 3 c 3 12 c 8 7 c 15 4 c 19 0 c 19 -4 c 11 -7 c 4 -12 c 0 -7 c -4 -11 c -7 -4 c 79 -38 3157 2422 l 0 53 3157 2369 l
-4 7 3172 2456 l -11 11 c 79 0 c 0 -249 3458 1604 l 0 41 3415 1684 l 30 -23 c 0 12 c 4 7 c 4 4 c 11 4 c 8 0 c 11 -4 c 7 -7 c 4 -12 c
0 -11 c -4 -11 c -3 -4 c -8 -4 c 79 -37 3415 1804 l 0 52 3415 1752 l 53 -38 3415 1865 l 0 57 c 79 0 3415 1865 l 79 -38 3415 1956 l
0 53 3415 1903 l 3 -4 3487 1986 l 4 4 c -4 4 c -3 -4 c 0 -37 3415 2061 l 34 -4 c -4 4 c -4 11 c 0 11 c 4 12 c 8 7 c 11 4 c 8 0 c
11 -4 c 7 -7 c 4 -12 c 0 -11 c -4 -11 c -3 -4 c -8 -4 c 0 42 3415 2099 l 30 -23 c 0 12 c 4 7 c 4 4 c 11 4 c 8 0 c 11 -4 c 7 -8 c
4 -11 c 0 -11 c -4 -12 c -3 -4 c -8 -3 c 12 -3 3441 2216 l 7 -8 c 4 -11 c 0 -4 c -4 -11 c -7 -8 c -12 -4 c -3 0 c -12 4 c -7 8 c
-4 11 c 0 4 c 4 11 c 7 8 c 15 3 c 19 0 c 19 -3 c 11 -8 c 4 -11 c 0 -8 c -4 -11 c -7 -4 c 0 -250 3713 1306 l 0 42 3669 1385 l
31 -23 c 0 12 c 3 7 c 4 4 c 12 4 c 7 0 c 11 -4 c 8 -8 c 4 -11 c 0 -11 c -4 -12 c -4 -3 c -7 -4 c 80 -37 3669 1506 l 0 53 3669 1453 l
53 -38 3669 1567 l 0 57 c 80 0 3669 1567 l 11 -4 3696 1654 l 8 -8 c 4 -11 c 0 -4 c -4 -11 c -8 -8 c -11 -3 c -4 0 c -11 3 c -8 8 c
-4 11 c 0 4 c 4 11 c 8 8 c 15 4 c 19 0 c 19 -4 c 11 -8 c 4 -11 c 0 -8 c -4 -11 c -8 -4 c 4 -4 3741 1688 l 4 4 c -4 3 c -4 -3 c
4 -12 3669 1741 l 12 -7 c 18 -4 c 12 0 c 19 4 c 11 7 c 4 12 c 0 7 c -4 12 c -11 7 c -19 4 c -12 0 c -18 -4 c -12 -7 c -4 -12 c
0 -7 c 4 -11 3669 1812 l 8 -4 c 7 0 c 8 4 c 4 8 c 3 15 c 4 11 c 8 8 c 7 3 c 12 0 c 7 -3 c 4 -4 c 4 -11 c 0 -16 c -4 -11 c -4 -4 c
-7 -3 c -12 0 c -7 3 c -8 8 c -4 11 c -3 15 c -4 8 c -8 4 c -7 0 c -8 -4 c -4 -11 c 0 -16 c 53 -38 3669 1907 l 0 57 c
80 0 3669 1907 l 0 -249 3946 1367 l 0 41 3902 1447 l 31 -23 c 0 12 c 3 7 c 4 4 c 11 4 c 8 0 c 11 -4 c 8 -7 c 4 -12 c 0 -11 c
-4 -11 c -4 -4 c -7 -4 c 80 -37 3902 1567 l 0 52 3902 1515 l 0 -37 3902 1635 l 34 -4 c -3 4 c -4 11 c 0 11 c 4 12 c 7 7 c 11 4 c
8 0 c 11 -4 c 8 -7 c 4 -12 c 0 -11 c -4 -11 c -4 -4 c -7 -4 c 4 -11 3902 1688 l 11 -7 c 19 -4 c 12 0 c 19 4 c 11 7 c 4 11 c 0 8 c
-4 11 c -11 8 c -19 4 c -12 0 c -19 -4 c -11 -8 c -4 -11 c 0 -8 c 4 -4 3974 1749 l 4 4 c -4 4 c -4 -4 c 53 -38 3902 1817 l 0 57 c
80 0 3902 1817 l 11 -4 3929 1904 l 8 -8 c 3 -11 c 0 -4 c -3 -11 c -8 -8 c -11 -3 c -4 0 c -11 3 c -8 8 c -4 11 c 0 4 c 4 11 c 8 8 c
15 4 c 19 0 c 19 -4 c 11 -8 c 4 -11 c 0 -7 c -4 -12 c -8 -4 c 53 -38 3902 1968 l 0 57 c 80 0 3902 1968 l 0 -250 4034 1600 l
0 42 3990 1679 l 31 -23 c 0 11 c 3 8 c 4 4 c 12 3 c 7 0 c 11 -3 c 8 -8 c 4 -11 c 0 -12 c -4 -11 c -4 -4 c -7 -4 c 80 -38 3990 1800 l
0 53 3990 1747 l 0 -38 3990 1868 l 34 -4 c -3 4 c -4 11 c 0 12 c 4 11 c 7 8 c 12 4 c 7 0 c 11 -4 c 8 -8 c 4 -11 c 0 -12 c -4 -11 c
-4 -4 c -7 -3 c -3 7 4005 1910 l -12 11 c 80 0 c 4 -3 4062 1981 l 4 3 c -4 4 c -4 -4 c 4 -11 3990 2034 l 11 -8 c 19 -3 c 12 0 c
19 3 c 11 8 c 4 11 c 0 8 c -4 11 c -11 8 c -19 3 c -12 0 c -19 -3 c -11 -8 c -4 -11 c 0 -8 c -4 0 4009 2091 l -7 4 c -4 3 c -4 8 c
0 15 c 4 8 c 4 4 c 7 3 c 8 0 c 8 -3 c 11 -8 c 38 -38 c 0 53 c -4 0 4009 2167 l -7 3 c -4 4 c -4 8 c 0 15 c 4 7 c 4 4 c 7 4 c 8 0 c
8 -4 c 11 -7 c 38 -38 c 0 53 c 0 -249 4291 2278 l 0 41 4248 2358 l 30 -23 c 0 12 c 4 7 c 3 4 c 12 4 c 7 0 c 12 -4 c 7 -7 c 4 -12 c
0 -11 c -4 -11 c -4 -4 c -7 -4 c 79 -37 4248 2478 l 0 52 4248 2426 l 0 -37 4248 2546 l 34 -4 c -4 4 c -4 11 c 0 11 c 4 12 c 7 7 c
12 4 c 7 0 c 12 -4 c 7 -7 c 4 -12 c 0 -11 c -4 -11 c -4 -4 c -7 -4 c -3 0 4266 2580 l -8 4 c -4 4 c -3 8 c 0 15 c 3 7 c 4 4 c 8 4 c
7 0 c 8 -4 c 11 -7 c 38 -38 c 0 53 c 4 -4 4319 2660 l 4 4 c -4 4 c -4 -4 c 0 -37 4248 2735 l 34 -4 c -4 4 c -4 11 c 0 11 c 4 12 c
7 7 c 12 4 c 7 0 c 12 -4 c 7 -7 c 4 -12 c 0 -11 c -4 -11 c -4 -4 c -7 -4 c 79 -38 4248 2819 l 0 53 4248 2766 l 3 -11 4248 2864 l
12 -8 c 19 -4 c 11 0 c 19 4 c 11 8 c 4 11 c 0 8 c -4 11 c -11 7 c -19 4 c -11 0 c -19 -4 c -12 -7 c -3 -11 c 0 -8 c
0 -249 4629 2303 l 0 41 4585 2383 l 30 -23 c 0 12 c 4 7 c 4 4 c 11 4 c 8 0 c 11 -4 c 8 -7 c 4 -12 c 0 -11 c -4 -11 c -4 -4 c -7 -4 c
80 -38 4585 2504 l 0 53 4585 2451 l 0 -38 4585 2572 l 34 -4 c -4 4 c -3 11 c 0 11 c 3 12 c 8 7 c 11 4 c 8 0 c 11 -4 c 8 -7 c 4 -12 c
0 -11 c -4 -11 c -4 -4 c -7 -4 c 53 -38 4585 2640 l 0 56 c 80 0 4585 2640 l 4 -4 4657 2685 l 4 4 c -4 4 c -4 -4 c 0 -38 4585 2761 l
34 -4 c -4 4 c -3 11 c 0 11 c 3 12 c 8 7 c 11 4 c 8 0 c 11 -4 c 8 -7 c 4 -12 c 0 -11 c -4 -11 c -4 -4 c -7 -4 c 11 -4 4612 2840 l
8 -7 c 3 -12 c 0 -4 c -3 -11 c -8 -7 c -11 -4 c -4 0 c -11 4 c -8 7 c -4 11 c 0 4 c 4 12 c 8 7 c 15 4 c 19 0 c 19 -4 c 11 -7 c
4 -12 c 0 -7 c -4 -12 c -8 -3 c 0 41 4585 2874 l 30 -22 c 0 11 c 4 8 c 4 3 c 11 4 c 8 0 c 11 -4 c 8 -7 c 4 -11 c 0 -12 c -4 -11 c
-4 -4 c -7 -4 c 0 -250 4733 1358 l 0 42 4689 1437 l 30 -23 c 0 11 c 4 8 c 4 4 c 11 4 c 8 0 c 11 -4 c 8 -8 c 3 -11 c 0 -11 c -3 -12 c
-4 -4 c -8 -3 c 79 -38 4689 1558 l 0 53 4689 1505 l 0 -38 4689 1626 l 34 -3 c -4 3 c -4 12 c 0 11 c 4 11 c 8 8 c 11 4 c 8 0 c
11 -4 c 8 -8 c 3 -11 c 0 -11 c -3 -12 c -4 -3 c -8 -4 c 0 -38 4689 1702 l 34 -4 c -4 4 c -4 11 c 0 12 c 4 11 c 8 8 c 11 3 c 8 0 c
11 -3 c 8 -8 c 3 -11 c 0 -12 c -3 -11 c -4 -4 c -8 -4 c 4 -4 4761 1740 l 3 4 c -3 3 c -4 -3 c -4 0 4708 1774 l -7 3 c -4 4 c -4 8 c
0 15 c 4 7 c 4 4 c 7 4 c 8 0 c 7 -4 c 12 -7 c 37 -38 c 0 53 c -4 7 4704 1857 l -11 12 c 79 0 c -4 0 4708 1925 l -7 4 c -4 3 c -4 8 c
0 15 c 4 8 c 4 3 c 7 4 c 8 0 c 7 -4 c 12 -7 c 37 -38 c 0 53 c 0 -250 4915 1320 l 0 41 4871 1399 l 30 -22 c 0 11 c 4 8 c 4 3 c 11 4 c
8 0 c 11 -4 c 8 -7 c 3 -11 c 0 -12 c -3 -11 c -4 -4 c -8 -4 c 79 -38 4871 1520 l 0 53 4871 1467 l 0 -38 4871 1588 l 34 -4 c -4 4 c
-4 11 c 0 12 c 4 11 c 8 8 c 11 3 c 8 0 c 11 -3 c 8 -8 c 3 -11 c 0 -12 c -3 -11 c -4 -4 c -8 -3 c -7 -4 4882 1667 l -4 -11 c 0 -7 c
4 -12 c 11 -7 c 19 -4 c 19 0 c 15 4 c 8 7 c 3 12 c 0 3 c -3 12 c -8 7 c -11 4 c -4 0 c -12 -4 c -7 -7 c -4 -12 c 0 -3 c 4 -12 c
7 -7 c 12 -4 c 4 -4 4943 1701 l 3 4 c -3 4 c -4 -4 c -4 0 4890 1735 l -8 4 c -3 4 c -4 7 c 0 15 c 4 8 c 3 4 c 8 4 c 8 0 c 7 -4 c
11 -8 c 38 -38 c 0 53 c 12 -4 4897 1856 l 7 -7 c 4 -11 c 0 -4 c -4 -12 c -7 -7 c -12 -4 c -3 0 c -12 4 c -7 7 c -4 12 c 0 4 c 4 11 c
7 7 c 15 4 c 19 0 c 19 -4 c 12 -7 c 3 -11 c 0 -8 c -3 -11 c -8 -4 c 53 -37 4871 1920 l 0 56 c 79 0 4871 1920 l 0 -249 5150 1393 l
0 41 5106 1473 l 30 -22 c 0 11 c 4 8 c 4 3 c 11 4 c 8 0 c 11 -4 c 8 -7 c 4 -12 c 0 -11 c -4 -11 c -4 -4 c -8 -4 c 80 -38 5106 1594 l
0 53 5106 1541 l 0 -38 5106 1662 l 34 -4 c -4 4 c -3 11 c 0 12 c 3 11 c 8 7 c 11 4 c 8 0 c 11 -4 c 8 -7 c 4 -11 c 0 -12 c -4 -11 c
-4 -4 c -8 -4 c 80 -38 5106 1745 l 0 53 5106 1692 l 4 -4 5178 1775 l 4 4 c -4 4 c -4 -4 c -8 -3 5118 1854 l -4 -12 c 0 -7 c 4 -12 c
11 -7 c 19 -4 c 19 0 c 15 4 c 8 7 c 4 12 c 0 4 c -4 11 c -8 7 c -11 4 c -4 0 c -11 -4 c -8 -7 c -4 -11 c 0 -4 c 4 -12 c 8 -7 c
11 -4 c 11 -4 5133 1930 l 8 -7 c 3 -12 c 0 -3 c -3 -12 c -8 -7 c -11 -4 c -4 0 c -11 4 c -8 7 c -4 12 c 0 3 c 4 12 c 8 7 c 15 4 c
19 0 c 18 -4 c 12 -7 c 4 -12 c 0 -7 c -4 -12 c -8 -3 c 53 -38 5106 1994 l 0 57 c 80 0 5106 1994 l 0 -250 5280 1667 l
0 42 5237 1746 l 30 -23 c 0 11 c 4 8 c 3 4 c 12 3 c 7 0 c 12 -3 c 7 -8 c 4 -11 c 0 -12 c -4 -11 c -4 -4 c -7 -4 c 79 -38 5237 1867 l
0 53 5237 1814 l 0 -38 5237 1935 l 34 -4 c -4 4 c -4 11 c 0 12 c 4 11 c 7 8 c 12 3 c 7 0 c 12 -3 c 7 -8 c 4 -11 c 0 -12 c -4 -11 c
-4 -4 c -7 -3 c 3 -11 5237 1984 l 8 -4 c 7 0 c 8 4 c 4 7 c 4 15 c 3 12 c 8 7 c 7 4 c 12 0 c 7 -4 c 4 -3 c 4 -12 c 0 -15 c -4 -11 c
-4 -4 c -7 -4 c -12 0 c -7 4 c -8 7 c -3 12 c -4 15 c -4 8 c -8 3 c -7 0 c -8 -3 c -3 -12 c 0 -15 c 4 -3 5308 2048 l 4 3 c -4 4 c
-4 -4 c 52 -37 5237 2116 l 0 56 c 79 0 5237 2116 l -8 -4 5248 2203 l -3 -11 c 0 -7 c 3 -12 c 12 -7 c 19 -4 c 18 0 c 16 4 c 7 7 c
4 12 c 0 3 c -4 12 c -7 7 c -12 4 c -4 0 c -11 -4 c -7 -7 c -4 -12 c 0 -3 c 4 -12 c 7 -7 c 11 -4 c 79 -38 5237 2283 l
0 53 5237 2230 l 0 -250 6138 1463 l 0 42 6094 1542 l 30 -23 c 0 12 c 4 7 c 4 4 c 11 4 c 8 0 c 11 -4 c 8 -8 c 3 -11 c 0 -11 c
-3 -12 c -4 -3 c -8 -4 c 79 -38 6094 1663 l 0 53 6094 1610 l -7 -4 6105 1735 l -4 -11 c 0 -8 c 4 -11 c 11 -7 c 19 -4 c 19 0 c 15 4 c
8 7 c 3 11 c 0 4 c -3 12 c -8 7 c -11 4 c -4 0 c -11 -4 c -8 -7 c -4 -12 c 0 -4 c 4 -11 c 8 -7 c 11 -4 c 0 42 6094 1769 l 30 -23 c
0 11 c 4 8 c 4 4 c 11 3 c 8 0 c 11 -3 c 8 -8 c 3 -11 c 0 -12 c -3 -11 c -4 -4 c -8 -3 c 4 -4 6166 1845 l 3 4 c -3 3 c -4 -3 c
0 -38 6094 1920 l 34 -3 c -4 3 c -3 12 c 0 11 c 3 12 c 8 7 c 11 4 c 8 0 c 11 -4 c 8 -7 c 3 -12 c 0 -11 c -3 -12 c -4 -3 c -8 -4 c
4 -11 6094 1973 l 11 -8 c 19 -3 c 11 0 c 19 3 c 12 8 c 3 11 c 0 8 c -3 11 c -12 8 c -19 3 c -11 0 c -19 -3 c -11 -8 c -4 -11 c
0 -8 c 0 -37 6094 2071 l 34 -4 c -4 4 c -3 11 c 0 11 c 3 12 c 8 7 c 11 4 c 8 0 c 11 -4 c 8 -7 c 3 -12 c 0 -11 c -3 -11 c -4 -4 c
-8 -4 c 0 -250 6440 4964 l 0 42 6397 5043 l 30 -23 c 0 11 c 4 8 c 4 4 c 11 3 c 7 0 c 12 -3 c 7 -8 c 4 -11 c 0 -12 c -4 -11 c -3 -4 c
-8 -3 c 79 -38 6397 5164 l 0 53 6397 5111 l -8 -4 6408 5236 l -3 -11 c 0 -8 c 3 -11 c 12 -8 c 19 -3 c 19 0 c 15 3 c 7 8 c 4 11 c
0 4 c -4 11 c -7 8 c -12 4 c -3 0 c -12 -4 c -7 -8 c -4 -11 c 0 -4 c 4 -11 c 7 -8 c 12 -3 c 0 -38 6397 5308 l 34 -4 c -4 4 c -4 11 c
0 12 c 4 11 c 8 7 c 11 4 c 7 0 c 12 -4 c 7 -7 c 4 -11 c 0 -12 c -4 -11 c -3 -4 c -8 -4 c 3 -3 6469 5345 l 4 3 c -4 4 c -3 -4 c
-4 0 6416 5380 l -8 3 c -4 4 c -3 8 c 0 15 c 3 7 c 4 4 c 8 4 c 7 0 c 8 -4 c 11 -7 c 38 -38 c 0 53 c 79 -38 6397 5504 l
0 53 6397 5451 l 3 -12 6397 5550 l 12 -7 c 19 -4 c 11 0 c 19 4 c 11 7 c 4 12 c 0 7 c -4 11 c -11 8 c -19 4 c -11 0 c -19 -4 c
-12 -8 c -3 -11 c 0 -7 c 0 -250 6587 2386 l 0 42 6543 2465 l 30 -23 c 0 12 c 4 7 c 4 4 c 11 4 c 8 0 c 11 -4 c 8 -8 c 3 -11 c 0 -11 c
-3 -12 c -4 -4 c -8 -3 c 79 -38 6543 2586 l 0 53 6543 2533 l -7 -4 6554 2658 l -4 -11 c 0 -8 c 4 -11 c 11 -8 c 19 -3 c 19 0 c 15 3 c
8 8 c 3 11 c 0 4 c -3 11 c -8 8 c -11 4 c -4 0 c -11 -4 c -8 -8 c -4 -11 c 0 -4 c 4 -11 c 8 -8 c 11 -3 c -7 -4 6554 2734 l -4 -11 c
0 -8 c 4 -11 c 11 -8 c 19 -4 c 19 0 c 15 4 c 8 8 c 3 11 c 0 4 c -3 11 c -8 8 c -11 3 c -4 0 c -11 -3 c -8 -8 c -4 -11 c 0 -4 c
4 -11 c 8 -8 c 11 -4 c 4 -4 6615 2768 l 3 4 c -3 3 c -4 -3 c -4 8 6558 2809 l -11 11 c 79 0 c -4 7 6558 2885 l -11 12 c 79 0 c
11 -4 6570 2998 l 7 -7 c 4 -11 c 0 -4 c -4 -12 c -7 -7 c -11 -4 c -4 0 c -12 4 c -7 7 c -4 12 c 0 4 c 4 11 c 7 7 c 16 4 c 18 0 c
19 -4 c 12 -7 c 3 -11 c 0 -8 c -3 -11 c -8 -4 c 0 -250 6895 1492 l 0 41 6852 1571 l 30 -22 c 0 11 c 4 8 c 3 3 c 12 4 c 7 0 c 12 -4 c
7 -7 c 4 -11 c 0 -12 c -4 -11 c -4 -4 c -7 -4 c 79 -38 6852 1692 l 0 53 6852 1639 l -8 -4 6863 1764 l -3 -11 c 0 -8 c 3 -11 c
12 -8 c 19 -4 c 19 0 c 15 4 c 7 8 c 4 11 c 0 4 c -4 11 c -7 8 c -12 3 c -3 0 c -12 -3 c -7 -8 c -4 -11 c 0 -4 c 4 -11 c 7 -8 c
12 -4 c 79 -38 6852 1843 l 0 53 6852 1790 l 4 -4 6923 1873 l 4 4 c -4 4 c -4 -4 c 11 -4 6878 1953 l 8 -8 c 4 -11 c 0 -4 c -4 -11 c
-8 -8 c -11 -3 c -4 0 c -11 3 c -8 8 c -3 11 c 0 4 c 3 11 c 8 8 c 15 4 c 19 0 c 19 -4 c 11 -8 c 4 -11 c 0 -8 c -4 -11 c -7 -4 c
3 -12 6852 2002 l 12 -7 c 19 -4 c 11 0 c 19 4 c 11 7 c 4 12 c 0 7 c -4 12 c -11 7 c -19 4 c -11 0 c -19 -4 c -12 -7 c -3 -12 c
0 -7 c -4 8 6867 2066 l -11 11 c 79 0 c 0 -250 7270 1487 l 0 42 7227 1566 l 30 -23 c 0 11 c 4 8 c 4 4 c 11 4 c 7 0 c 12 -4 c 7 -8 c
4 -11 c 0 -11 c -4 -12 c -3 -4 c -8 -3 c 79 -38 7227 1687 l 0 53 7227 1634 l 79 -38 7227 1763 l 0 53 7227 1710 l 4 -11 7227 1808 l
11 -8 c 19 -4 c 11 0 c 19 4 c 11 8 c 4 11 c 0 8 c -4 11 c -11 8 c -19 3 c -11 0 c -19 -3 c -11 -8 c -4 -11 c 0 -8 c 3 -4 7299 1869 l
4 4 c -4 3 c -3 -3 c 4 -12 7227 1922 l 11 -7 c 19 -4 c 11 0 c 19 4 c 11 7 c 4 12 c 0 7 c -4 11 c -11 8 c -19 4 c -11 0 c -19 -4 c
-11 -8 c -4 -11 c 0 -7 c 0 -38 7227 2020 l 34 -4 c -4 4 c -4 11 c 0 12 c 4 11 c 8 8 c 11 3 c 7 0 c 12 -3 c 7 -8 c 4 -11 c 0 -12 c
-4 -11 c -3 -4 c -8 -4 c -7 -4 7238 2099 l -4 -11 c 0 -8 c 4 -11 c 11 -7 c 19 -4 c 19 0 c 15 4 c 7 7 c 4 11 c 0 4 c -4 12 c -7 7 c
-12 4 c -3 0 c -12 -4 c -7 -7 c -4 -12 c 0 -4 c 4 -11 c 7 -7 c 12 -4 c 0 -250 7500 3426 l 0 42 7457 3505 l 30 -23 c 0 11 c 4 8 c
4 4 c 11 3 c 8 0 c 11 -3 c 7 -8 c 4 -11 c 0 -12 c -4 -11 c -3 -4 c -8 -4 c 79 -38 7457 3626 l 0 53 7457 3573 l 79 -38 7457 3702 l
0 53 7457 3649 l -4 7 7472 3736 l -11 11 c 79 0 c 3 -3 7529 3807 l 4 3 c -4 4 c -3 -4 c 0 42 7457 3845 l 30 -23 c 0 11 c 4 8 c 4 4 c
11 4 c 8 0 c 11 -4 c 7 -8 c 4 -11 c 0 -11 c -4 -12 c -3 -4 c -8 -3 c 79 -38 7457 3966 l 0 53 7457 3913 l -4 8 7472 4000 l -11 11 c
79 0 c 0 -249 7725 1301 l 0 42 7682 1380 l 30 -23 c 0 12 c 4 7 c 4 4 c 11 4 c 7 0 c 12 -4 c 7 -8 c 4 -11 c 0 -11 c -4 -12 c -3 -3 c
-8 -4 c 79 -37 7682 1501 l 0 52 7682 1449 l 79 -38 7682 1577 l 0 53 7682 1524 l -4 0 7701 1603 l -8 4 c -3 4 c -4 8 c 0 15 c 4 7 c
3 4 c 8 4 c 7 0 c 8 -4 c 11 -8 c 38 -37 c 0 53 c 3 -4 7754 1683 l 4 4 c -4 4 c -3 -4 c -7 -4 7693 1762 l -4 -11 c 0 -7 c 4 -12 c
11 -7 c 19 -4 c 19 0 c 15 4 c 7 7 c 4 12 c 0 3 c -4 12 c -7 7 c -12 4 c -3 0 c -12 -4 c -7 -7 c -4 -12 c 0 -3 c 4 -12 c 7 -7 c
12 -4 c 0 -38 7682 1834 l 34 -4 c -4 4 c -4 12 c 0 11 c 4 11 c 8 8 c 11 4 c 7 0 c 12 -4 c 7 -8 c 4 -11 c 0 -11 c -4 -12 c -3 -4 c
-8 -3 c 4 -11 7682 1887 l 11 -8 c 19 -4 c 11 0 c 19 4 c 11 8 c 4 11 c 0 7 c -4 12 c -11 7 c -19 4 c -11 0 c -19 -4 c -11 -7 c
-4 -12 c 0 -7 c 0 -249 7921 1338 l 0 41 7877 1418 l 30 -22 c 0 11 c 4 8 c 4 3 c 11 4 c 8 0 c 11 -4 c 8 -7 c 3 -11 c 0 -12 c -3 -11 c
-4 -4 c -8 -4 c 79 -38 7877 1539 l 0 53 7877 1486 l 79 -37 7877 1614 l 0 53 7877 1561 l 0 41 7877 1645 l 30 -22 c 0 11 c 4 7 c 4 4 c
11 4 c 8 0 c 11 -4 c 8 -7 c 3 -12 c 0 -11 c -3 -11 c -4 -4 c -8 -4 c 4 -4 7949 1720 l 3 4 c -3 4 c -4 -4 c 79 -37 7877 1803 l
0 53 7877 1750 l 0 -37 7877 1871 l 34 -4 c -4 4 c -3 11 c 0 11 c 3 12 c 8 7 c 11 4 c 8 0 c 11 -4 c 8 -7 c 3 -12 c 0 -11 c -3 -11 c
-4 -4 c -8 -4 c 79 -38 7877 1955 l 0 53 7877 1902 l 0 -249 8367 1320 l 0 41 8323 1400 l 30 -23 c 0 12 c 4 7 c 4 4 c 11 4 c 8 0 c
11 -4 c 8 -7 c 4 -12 c 0 -11 c -4 -11 c -4 -4 c -8 -4 c 80 -38 8323 1521 l 0 53 8323 1468 l 80 -38 8323 1596 l 0 53 8323 1543 l
-8 -4 8335 1668 l -4 -11 c 0 -8 c 4 -11 c 11 -8 c 19 -3 c 19 0 c 15 3 c 8 8 c 4 11 c 0 4 c -4 11 c -8 8 c -11 4 c -4 0 c -11 -4 c
-8 -8 c -4 -11 c 0 -4 c 4 -11 c 8 -8 c 11 -3 c 4 -4 8395 1702 l 4 4 c -4 4 c -4 -4 c -4 0 8342 1736 l -7 4 c -4 4 c -4 7 c 0 15 c
4 8 c 4 4 c 7 3 c 8 0 c 7 -3 c 12 -8 c 38 -38 c 0 53 c 80 -38 8323 1861 l 0 53 8323 1808 l -3 7 8338 1895 l -12 12 c 80 0 c
0 -249 9634 1627 l 0 41 9590 1707 l 30 -22 c 0 11 c 4 7 c 4 4 c 11 4 c 8 0 c 11 -4 c 8 -7 c 3 -12 c 0 -11 c -3 -11 c -4 -4 c -8 -4 c
79 -38 9590 1828 l 0 53 9590 1775 l 4 -11 9590 1869 l 7 -4 c 8 0 c 7 4 c 4 7 c 4 16 c 4 11 c 7 7 c 8 4 c 11 0 c 8 -4 c 4 -3 c
3 -12 c 0 -15 c -3 -11 c -4 -4 c -8 -4 c -11 0 c -8 4 c -7 8 c -4 11 c -4 15 c -4 8 c -7 3 c -8 0 c -7 -3 c -4 -12 c 0 -15 c
0 42 9590 1933 l 30 -23 c 0 12 c 4 7 c 4 4 c 11 4 c 8 0 c 11 -4 c 8 -8 c 3 -11 c 0 -11 c -3 -12 c -4 -3 c -8 -4 c 4 -4 9662 2009 l
3 4 c -3 4 c -4 -4 c -4 0 9609 2043 l -7 4 c -4 4 c -4 7 c 0 15 c 4 8 c 4 4 c 7 3 c 8 0 c 7 -3 c 12 -8 c 37 -38 c 0 53 c
12 -4 9616 2164 l 7 -7 c 4 -12 c 0 -3 c -4 -12 c -7 -7 c -12 -4 c -3 0 c -12 4 c -7 7 c -4 12 c 0 3 c 4 12 c 7 7 c 15 4 c 19 0 c
19 -4 c 12 -7 c 3 -12 c 0 -7 c -3 -12 c -8 -3 c -7 -4 9601 2240 l -4 -12 c 0 -7 c 4 -11 c 11 -8 c 19 -4 c 19 0 c 15 4 c 8 8 c 3 11 c
0 4 c -3 11 c -8 8 c -11 3 c -4 0 c -11 -3 c -8 -8 c -4 -11 c 0 -4 c 4 -11 c 8 -8 c 11 -4 c
showpage PGPLOT restore
 
%%Trailer
%%DocumentFonts: 
%%Pages: 1
%%EOF
