%!PS-Adobe-3.0 EPSF-3.0
%%For: tab
%%Title: PGPLOT PostScript plot
%%Creator: PGPLOT
%%CreationDate: 20-Apr-1995 16:29
%%BoundingBox: 25 18 587 774
%%DocumentFonts: (atend)
%%LanguageLevel: 1
%%Orientation: Landscape
%%Pages: (atend)
%%EndComments
%%BeginProlog
/l {moveto rlineto currentpoint stroke moveto} bind def
/c {rlineto currentpoint stroke moveto} bind def
/d {moveto 0 0 rlineto currentpoint stroke moveto} bind def
/SLW {5 mul setlinewidth} bind def
/SCF /pop load def
/BP {newpath moveto} bind def
/LP /rlineto load def
/EP {rlineto closepath eofill} bind def
/MB {gsave translate MFAC dup scale 1 setlinewidth 2 setlinecap 0 setlinejoin newpath} bind def
/ME /grestore load def
/C {0 360 arc stroke} bind def
/FC {0 360 arc fill} bind def
%%EndProlog
 
%%Page: 1 1
%%BeginPageSetup
/PGPLOT save def
0.072 0.072 scale
8150 250 translate 90 rotate
1 setlinejoin 1 setlinecap 1 SLW 1 SCF
%%EndPageSetup
0.000 setgray 1 SLW 8939 0 780 780 l 0 6239 c -8939 0 c 0 -6239 c 0 -45 1116 780 l 0 -45 1554 780 l 0 -45 1991 780 l
0 -45 2428 780 l 0 -90 2865 780 l 0 -45 3302 780 l 0 -45 3739 780 l 0 -45 4176 780 l 0 -45 4613 780 l 0 -90 5051 780 l
0 -45 5488 780 l 0 -45 5925 780 l 0 -45 6362 780 l 0 -45 6799 780 l 0 -90 7236 780 l 0 -45 7673 780 l 0 -45 8110 780 l
0 -45 8548 780 l 0 -45 8985 780 l 0 -90 9422 780 l 0 -45 1116 7064 l 0 -45 1554 7064 l 0 -45 1991 7064 l 0 -45 2428 7064 l
0 -90 2865 7109 l 0 -45 3302 7064 l 0 -45 3739 7064 l 0 -45 4176 7064 l 0 -45 4613 7064 l 0 -90 5051 7109 l 0 -45 5488 7064 l
0 -45 5925 7064 l 0 -45 6362 7064 l 0 -45 6799 7064 l 0 -90 7236 7109 l 0 -45 7673 7064 l 0 -45 8110 7064 l 0 -45 8548 7064 l
0 -45 8985 7064 l 0 -90 9422 7109 l -60 0 2775 672 l -6 -54 c 6 6 c 18 6 c 18 0 c 18 -6 c 12 -12 c 6 -18 c 0 -12 c -6 -18 c
-12 -12 c -18 -6 c -18 0 c -18 6 c -6 6 c -6 12 c -18 -6 2859 672 l -12 -18 c -6 -30 c 0 -18 c 6 -30 c 12 -18 c 18 -6 c 12 0 c
18 6 c 12 18 c 6 30 c 0 18 c -6 30 c -12 18 c -18 6 c -12 0 c -18 -6 2979 672 l -12 -18 c -6 -30 c 0 -18 c 6 -30 c 12 -18 c 18 -6 c
12 0 c 18 6 c 12 18 c 6 30 c 0 18 c -6 30 c -12 18 c -18 6 c -12 0 c 12 6 4847 648 l 18 18 c 0 -126 c -18 -6 4985 672 l -12 -18 c
-6 -30 c 0 -18 c 6 -30 c 12 -18 c 18 -6 c 12 0 c 18 6 c 12 18 c 6 30 c 0 18 c -6 30 c -12 18 c -18 6 c -12 0 c -18 -6 5105 672 l
-12 -18 c -6 -30 c 0 -18 c 6 -30 c 12 -18 c 18 -6 c 12 0 c 18 6 c 12 18 c 6 30 c 0 18 c -6 30 c -12 18 c -18 6 c -12 0 c
-18 -6 5225 672 l -12 -18 c -6 -30 c 0 -18 c 6 -30 c 12 -18 c 18 -6 c 12 0 c 18 6 c 12 18 c 6 30 c 0 18 c -6 30 c -12 18 c -18 6 c
-12 0 c 12 6 7032 648 l 18 18 c 0 -126 c -60 0 7206 672 l -6 -54 c 6 6 c 18 6 c 18 0 c 18 -6 c 12 -12 c 6 -18 c 0 -12 c -6 -18 c
-12 -12 c -18 -6 c -18 0 c -18 6 c -6 6 c -6 12 c -18 -6 7290 672 l -12 -18 c -6 -30 c 0 -18 c 6 -30 c 12 -18 c 18 -6 c 12 0 c
18 6 c 12 18 c 6 30 c 0 18 c -6 30 c -12 18 c -18 6 c -12 0 c -18 -6 7410 672 l -12 -18 c -6 -30 c 0 -18 c 6 -30 c 12 -18 c 18 -6 c
12 0 c 18 6 c 12 18 c 6 30 c 0 18 c -6 30 c -12 18 c -18 6 c -12 0 c 0 6 9206 642 l 6 12 c 6 6 c 12 6 c 24 0 c 12 -6 c 6 -6 c
6 -12 c 0 -12 c -6 -12 c -12 -18 c -60 -60 c 84 0 c -18 -6 9356 672 l -12 -18 c -6 -30 c 0 -18 c 6 -30 c 12 -18 c 18 -6 c 12 0 c
18 6 c 12 18 c 6 30 c 0 18 c -6 30 c -12 18 c -18 6 c -12 0 c -18 -6 9476 672 l -12 -18 c -6 -30 c 0 -18 c 6 -30 c 12 -18 c 18 -6 c
12 0 c 18 6 c 12 18 c 6 30 c 0 18 c -6 30 c -12 18 c -18 6 c -12 0 c -18 -6 9596 672 l -12 -18 c -6 -30 c 0 -18 c 6 -30 c 12 -18 c
18 -6 c 12 0 c 18 6 c 12 18 c 6 30 c 0 18 c -6 30 c -12 18 c -18 6 c -12 0 c -90 0 780 780 l -45 0 780 1108 l -45 0 780 1436 l
-45 0 780 1763 l -45 0 780 2091 l -90 0 780 2419 l -45 0 780 2747 l -45 0 780 3075 l -45 0 780 3403 l -45 0 780 3731 l
-90 0 780 4059 l -45 0 780 4386 l -45 0 780 4714 l -45 0 780 5042 l -45 0 780 5370 l -90 0 780 5698 l -45 0 780 6026 l
-45 0 780 6354 l -45 0 780 6681 l -45 0 780 7009 l -90 0 9809 780 l -45 0 9764 1108 l -45 0 9764 1436 l -45 0 9764 1763 l
-45 0 9764 2091 l -90 0 9809 2419 l -45 0 9764 2747 l -45 0 9764 3075 l -45 0 9764 3403 l -45 0 9764 3731 l -90 0 9809 4059 l
-45 0 9764 4386 l -45 0 9764 4714 l -45 0 9764 5042 l -45 0 9764 5370 l -90 0 9809 5698 l -45 0 9764 6026 l -45 0 9764 6354 l
-45 0 9764 6681 l -45 0 9764 7009 l 6 -18 517 774 l 18 -12 c 30 -6 c 18 0 c 30 6 c 18 12 c 6 18 c 0 12 c -6 18 c -18 12 c -30 6 c
-18 0 c -30 -6 c -18 -12 c -6 -18 c 0 -12 c 0 -60 517 2269 l 54 -6 c -6 6 c -6 18 c 0 18 c 6 18 c 12 12 c 18 6 c 12 0 c 18 -6 c
12 -12 c 6 -18 c 0 -18 c -6 -18 c -6 -6 c -12 -6 c 6 -18 517 2353 l 18 -12 c 30 -6 c 18 0 c 30 6 c 18 12 c 6 18 c 0 12 c -6 18 c
-18 12 c -30 6 c -18 0 c -30 -6 c -18 -12 c -6 -18 c 0 -12 c 6 -18 517 2473 l 18 -12 c 30 -6 c 18 0 c 30 6 c 18 12 c 6 18 c 0 12 c
-6 18 c -18 12 c -30 6 c -18 0 c -30 -6 c -18 -12 c -6 -18 c 0 -12 c 6 -18 517 2593 l 18 -12 c 30 -6 c 18 0 c 30 6 c 18 12 c 6 18 c
0 12 c -6 18 c -18 12 c -30 6 c -18 0 c -30 -6 c -18 -12 c -6 -18 c 0 -12 c -6 12 541 3939 l -18 18 c 126 0 c 6 -18 517 4077 l
18 -12 c 30 -6 c 18 0 c 30 6 c 18 12 c 6 18 c 0 12 c -6 18 c -18 12 c -30 6 c -18 0 c -30 -6 c -18 -12 c -6 -18 c 0 -12 c
63 -45 453 4201 l 0 67 c 94 0 453 4201 l -6 12 541 5362 l -18 18 c 126 0 c 6 -6 631 5476 l 6 6 c -6 6 c -6 -6 c 0 -60 517 5596 l
54 -6 c -6 6 c -6 18 c 0 18 c 6 18 c 12 12 c 18 6 c 12 0 c 18 -6 c 12 -12 c 6 -18 c 0 -18 c -6 -18 c -6 -6 c -12 -6 c
84 84 547 5650 l 84 -84 547 5734 l -6 12 541 5794 l -18 18 c 126 0 c 6 -18 517 5932 l 18 -12 c 30 -6 c 18 0 c 30 6 c 18 12 c 6 18 c
0 12 c -6 18 c -18 12 c -30 6 c -18 0 c -30 -6 c -18 -12 c -6 -18 c 0 -12 c 63 -45 453 6056 l 0 68 c 94 0 453 6056 l
4 0 780 791 l 5 0 c 4 2 c 4 2 c 5 0 c 4 2 c 4 -2 c 5 -2 c 4 2 c 5 -2 c 4 1 c 4 2 c 5 3 c 4 5 c 4 51 c 5 135 c 4 201 c 5 495 c
4 888 c 4 70 c 5 -777 c 4 -876 c 4 -178 c 5 -10 c 4 -2 c 5 -2 c 4 -1 c 4 0 c 5 1 c 4 4 c 4 3 c 5 14 c 4 47 c 5 58 c 4 50 c 4 119 c
5 217 c 4 53 c 4 -188 c 5 -246 c 4 -103 c 4 -31 c 5 -2 c 4 -2 c 5 1 c 4 4 c 4 6 c 5 7 c 4 14 c 4 31 c 5 15 c 4 -15 c 5 -30 c 4 22 c
4 19 c 5 -16 c 4 -39 c 4 -17 c 5 -2 c 4 -1 c 5 2 c 4 0 c 4 1 c 5 3 c 4 2 c 4 -3 c 5 -5 c 4 0 c 5 -2 c 4 1 c 4 0 c 5 1 c 4 0 c 4 2 c
5 0 c 4 2 c 4 -3 c 5 0 c 4 3 c 5 9 c 4 12 c 4 34 c 5 43 c 4 -113 c 4 0 c 5 25 c 4 5 c 5 7 c 4 -5 c 4 -14 c 5 -3 c 4 2 c 4 0 c 5 -2 c
4 -1 c 5 -1 c 4 0 c 4 1 c 5 2 c 4 8 c 4 41 c 5 115 c 4 192 c 5 541 c 4 477 c 4 -187 c 5 -730 c 4 -417 c 4 -35 c 5 -1 c 4 4 c 4 24 c
5 43 c 4 121 c 5 206 c 4 12 c 4 -145 c 5 -199 c 4 -47 c 4 -20 c 5 -7 c 4 0 c 5 0 c 4 0 c 4 -2 c 5 1 c 4 0 c 4 4 c 5 7 c 4 14 c
5 33 c 4 3 c 4 -18 c 5 -35 c 4 -7 c 4 -1 c 5 0 c 4 -1 c 5 0 c 4 1 c 4 0 c 5 0 c 4 -1 c 4 0 c 5 -1 c 4 1 c 4 1 c 5 -1 c 4 1 c 5 0 c
4 -1 c 4 1 c 5 0 c 4 0 c 4 1 c 5 2 c 4 6 c 5 4 c 4 -5 c 4 -8 c 5 -1 c 4 1 c 4 -2 c 5 1 c 4 0 c 5 0 c 4 1 c 4 5 c 5 9 c 4 20 c 4 13 c
5 -9 c 4 -25 c 4 -12 c 5 1 c 4 -1 c 5 1 c 4 -2 c 4 3 c 5 1 c 4 0 c 4 -3 c 5 -2 c 4 -1 c 5 1 c 4 -1 c 4 0 c 5 0 c 4 0 c 4 2 c 5 -1 c
4 0 c 5 1 c 4 2 c 4 -1 c 5 -1 c 4 2 c 4 5 c 5 7 c 4 20 c 5 50 c 4 23 c 4 -22 c 5 -56 c 4 -23 c 4 -2 c 5 3 c 4 3 c 4 7 c 5 2 c 4 -6 c
5 -11 c 4 -3 c 4 0 c 5 0 c 4 0 c 4 0 c 5 0 c 4 0 c 5 0 c 4 1 c 4 -1 c 5 0 c 4 1 c 4 1 c 5 0 c 4 -2 c 5 1 c 4 0 c 4 2 c 5 3 c 4 13 c
4 26 c 5 3 c 4 -17 c 5 -25 c 4 -4 c 4 3 c 5 0 c 4 -2 c 4 0 c 5 0 c 4 -1 c 4 1 c 5 0 c 4 0 c 5 -1 c 4 0 c 4 -1 c 5 3 c 4 1 c 4 -1 c
5 -1 c 4 0 c 5 -1 c 4 -1 c 4 -1 c 5 1 c 4 1 c 4 -1 c 5 2 c 4 0 c 5 0 c 4 0 c 4 -1 c 5 0 c 4 1 c 4 -1 c 5 0 c 4 -1 c 5 0 c 4 0 c
4 1 c 5 -3 c 4 2 c 4 0 c 5 3 c 4 6 c 4 21 c 5 45 c 4 132 c 5 49 c 4 -65 c 4 -149 c 5 -32 c 4 0 c 4 0 c 5 -5 c 4 -5 c 5 0 c 4 -1 c
4 1 c 5 0 c 4 0 c 4 2 c 5 9 c 4 8 c 5 1 c 4 -6 c 4 5 c 5 2 c 4 -1 c 4 -7 c 5 4 c 4 0 c 5 -8 c 4 -8 c 4 2 c 5 -1 c 4 1 c 4 2 c 5 10 c
4 40 c 4 27 c 5 -14 c 4 -46 c 5 -19 c 4 -1 c 4 0 c 5 1 c 4 6 c 4 33 c 5 125 c 4 253 c 5 34 c 4 -171 c 4 -240 c 5 -38 c 4 -3 c 4 0 c
5 0 c 4 2 c 5 0 c 4 0 c 4 -3 c 5 0 c 4 -1 c 4 0 c 5 0 c 4 0 c 4 -1 c 5 1 c 4 0 c 5 1 c 4 -2 c 4 1 c 5 0 c 4 1 c 4 1 c 5 0 c 4 1 c
5 3 c 4 1 c 4 0 c 5 -4 c 4 -1 c 4 -1 c 5 1 c 4 1 c 5 0 c 4 1 c 4 2 c 5 3 c 4 2 c 4 -3 c 5 -3 c 4 0 c 5 1 c 4 3 c 4 2 c 5 6 c 4 16 c
4 83 c 5 319 c 4 672 c 4 235 c 5 -334 c 4 -694 c 5 -247 c 4 -31 c 4 -11 c 5 -8 c 4 -5 c 4 -4 c 5 0 c 4 -2 c 5 2 c 4 -1 c 4 -1 c
5 -3 c 4 1 c 4 -1 c 5 1 c 4 6 c 5 3 c 4 -2 c 4 -2 c 5 10 c 4 5 c 4 -2 c 5 -13 c 4 -6 c 5 -2 c 4 0 c 4 -1 c 5 0 c 4 2 c 4 -2 c 5 1 c
4 0 c 4 2 c 5 9 c 4 30 c 5 45 c 4 2 c 4 -41 c 5 -40 c 4 -6 c 4 -1 c 5 1 c 4 0 c 5 0 c 4 2 c 4 2 c 5 0 c 4 5 c 4 41 c 5 44 c 4 2 c
5 -59 c 4 -31 c 4 1 c 5 5 c 4 -2 c 4 -1 c 5 -7 c 4 -1 c 5 -2 c 4 -1 c 4 1 c 5 2 c 4 -1 c 4 -1 c 5 -1 c 4 0 c 4 1 c 5 0 c 4 2 c 5 4 c
4 5 c 4 3 c 5 8 c 4 2 c 4 -4 c 5 -15 c 4 -6 c 5 0 c 4 1 c 4 -1 c 5 1 c 4 3 c 4 5 c 5 -1 c 4 -3 c 5 -3 c 4 -1 c 4 -1 c 5 0 c 4 -1 c
4 0 c 5 1 c 4 0 c 5 1 c 4 1 c 4 -1 c 5 -1 c 4 0 c 4 1 c 5 -1 c 4 -1 c 4 1 c 5 0 c 4 2 c 5 -1 c 4 0 c 4 0 c 5 1 c 4 0 c 4 1 c 5 -2 c
4 -2 c 5 2 c 4 2 c 4 -1 c 5 0 c 4 -1 c 4 0 c 5 0 c 4 2 c 5 0 c 4 -2 c 4 0 c 5 0 c 4 -2 c 4 1 c 5 0 c 4 1 c 4 3 c 5 18 c 4 18 c
5 -2 c 4 -21 c 4 -16 c 5 0 c 4 0 c 4 -1 c 5 1 c 4 2 c 5 -2 c 4 4 c 4 29 c 5 47 c 4 5 c 4 -38 c 5 -40 c 4 -7 c 5 0 c 4 0 c 4 1 c
5 0 c 4 -1 c 4 1 c 5 10 c 4 33 c 5 54 c 4 3 c 4 -50 c 5 -46 c 4 -6 c 4 1 c 5 -1 c 4 1 c 4 0 c 5 0 c 4 0 c 5 -1 c 4 1 c 4 -1 c 5 0 c
4 0 c 4 0 c 5 1 c 4 -1 c 5 1 c 4 0 c 4 1 c 5 -1 c 4 1 c 4 -1 c 5 -1 c 4 1 c 5 2 c 4 -1 c 4 1 c 5 -2 c 4 1 c 4 4 c 5 32 c 4 64 c
5 5 c 4 -37 c 4 -55 c 5 -8 c 4 -2 c 4 -1 c 5 -2 c 4 12 c 4 95 c 5 123 c 4 8 c 5 -123 c 4 -101 c 4 -13 c 5 -1 c 4 -1 c 4 0 c 5 0 c
4 0 c 5 -1 c 4 1 c 4 -1 c 5 1 c 4 1 c 4 1 c 5 -1 c 4 -1 c 5 2 c 4 2 c 4 1 c 5 0 c 4 11 c 4 17 c 5 4 c 4 -16 c 5 -17 c 4 -5 c 4 0 c
5 0 c 4 0 c 4 0 c 5 1 c 4 -1 c 4 -1 c 5 1 c 4 1 c 5 1 c 4 -1 c 4 -1 c 5 0 c 4 0 c 4 1 c 5 -1 c 4 1 c 5 1 c 4 2 c 4 0 c 5 0 c 4 -2 c
4 -1 c 5 0 c 4 -1 c 5 1 c 4 0 c 4 -2 c 5 1 c 4 0 c 4 0 c 5 2 c 4 4 c 4 4 c 5 0 c 4 -2 c 5 -3 c 4 1 c 4 2 c 5 0 c 4 -3 c 4 -3 c 5 0 c
4 2 c 5 2 c 4 2 c 4 10 c 5 40 c 4 21 c 4 -14 c 5 -38 c 4 -18 c 5 -3 c 4 7 c 4 53 c 5 395 c 4 366 c 4 -15 c 5 -438 c 4 -322 c 5 -22 c
4 -5 c 4 -8 c 5 -8 c 4 -2 c 4 -1 c 5 -3 c 4 3 c 4 7 c 5 91 c 4 112 c 5 1 c 4 -104 c 4 -96 c 5 -8 c 4 1 c 4 -1 c 5 2 c 4 -2 c 5 3 c
4 2 c 4 19 c 5 95 c 4 533 c 4 647 c 5 32 c 4 -605 c 5 -570 c 4 -123 c 4 -19 c 5 -6 c 4 -1 c 4 2 c 5 -1 c 4 -7 c 5 -6 c 4 0 c 4 -2 c
5 1 c 4 1 c 4 2 c 5 2 c 4 1 c 4 -3 c 5 -2 c 4 -1 c 5 0 c 4 0 c 4 0 c 5 -1 c 4 -1 c 4 2 c 5 0 c 4 2 c 5 4 c 4 8 c 4 5 c 5 1 c 4 12 c
4 77 c 5 24 c 4 -28 c 5 -83 c 4 -21 c 4 0 c 5 1 c 4 -1 c 4 1 c 5 -3 c 4 1 c 5 -1 c 4 0 c 4 1 c 5 3 c 4 4 c 4 -4 c 5 -2 c 4 -1 c
4 0 c 5 -1 c 4 -1 c 5 0 c 4 -1 c 4 1 c 5 1 c 4 -1 c 4 0 c 5 0 c 4 0 c 5 1 c 4 3 c 4 3 c 5 -3 c 4 -1 c 4 0 c 5 0 c 4 -1 c 5 -2 c
4 0 c 4 1 c 5 0 c 4 0 c 4 -1 c 5 2 c 4 0 c 5 1 c 4 3 c 4 14 c 5 11 c 4 -7 c 4 -14 c 5 -5 c 4 -2 c 4 0 c 5 -1 c 4 0 c 5 2 c 4 18 c
4 19 c 5 0 c 4 -21 c 4 -17 c 5 1 c 4 0 c 5 -1 c 4 0 c 4 2 c 5 0 c 4 -1 c 4 -1 c 5 2 c 4 3 c 5 1 c 4 18 c 4 68 c 5 25 c 4 -17 c
4 -69 c 5 -20 c 4 2 c 4 2 c 5 3 c 4 8 c 5 14 c 4 45 c 4 521 c 5 3092 c 4 2344 c 4 -557 c 5 -3480 c 4 -1804 c 5 -154 c 4 -18 c 4 -3 c
5 0 c 4 -4 c 4 -9 c 5 -4 c 4 -2 c 5 -2 c 4 -2 c 4 0 c 5 0 c 4 -1 c 4 1 c 5 -1 c 4 1 c 5 0 c 4 -1 c 4 0 c 5 -2 c 4 1 c 4 0 c 5 3 c
4 0 c 4 -3 c 5 -1 c 4 2 c 5 4 c 4 2 c 4 2 c 5 -6 c 4 -3 c 4 0 c 5 2 c 4 9 c 5 12 c 4 -1 c 4 -8 c 5 -13 c 4 -1 c 4 -3 c 5 3 c 4 1 c
5 -1 c 4 -1 c 4 -1 c 5 -1 c 4 0 c 4 2 c 5 -1 c 4 -1 c 5 1 c 4 0 c 4 -1 c 5 3 c 4 -1 c 4 1 c 5 0 c 4 4 c 4 46 c 5 299 c 4 355 c
5 13 c 4 -346 c 4 -334 c 5 -33 c 4 -2 c 4 -1 c 5 -1 c 4 0 c 5 -1 c 4 -1 c 4 -1 c 5 0 c 4 0 c 4 0 c 5 4 c 4 8 c 5 2 c 4 -2 c 4 -8 c
5 0 c 4 14 c 4 18 c 5 -2 c 4 -18 c 5 -15 c 4 -1 c 4 1 c 5 1 c 4 -1 c 4 1 c 5 4 c 4 8 c 4 3 c 5 -4 c 4 -1 c 5 9 c 4 6 c 4 -6 c
5 -15 c 4 -5 c 4 0 c 5 0 c 4 0 c 5 -1 c 4 -1 c 4 0 c 5 0 c 4 1 c 4 -1 c 5 2 c 4 2 c 5 4 c 4 -2 c 4 -3 c 5 -3 c 4 0 c 4 0 c 5 0 c
4 0 c 5 2 c 4 3 c 4 -1 c 5 0 c 4 4 c 4 11 c 5 2 c 4 18 c 4 37 c 5 10 c 4 -36 c 5 -39 c 4 -5 c 4 1 c 5 9 c 4 4 c 4 -3 c 5 -10 c
4 -6 c 5 1 c 4 1 c 4 -15 c 5 17 c 4 4 c 4 15 c 5 10 c 4 -4 c 5 -12 c 4 -10 c 4 3 c 5 4 c 4 -4 c 4 -4 c 5 4 c 4 6 c 4 -1 c 5 -4 c
4 15 c 5 145 c 4 342 c 4 106 c 5 -145 c 4 -336 c 4 -69 c 5 -4 c 4 -26 c 5 -30 c 4 -4 c 4 0 c 5 2 c 4 7 c 4 47 c 5 82 c 4 66 c
5 223 c 4 168 c 4 -25 c 5 -317 c 4 -230 c 4 -23 c 5 -1 c 4 -2 c 5 0 c 4 6 c 4 13 c 5 3 c 4 -4 c 4 -13 c 5 -6 c 4 2 c 4 1 c 5 8 c
4 36 c 5 57 c 4 12 c 4 -38 c 5 -58 c 4 -18 c 4 -2 c 5 0 c 4 1 c 5 -1 c 4 -1 c 4 -1 c 5 0 c 4 2 c 4 -1 c 5 0 c 4 1 c 5 3 c 4 10 c
4 7 c 5 -4 c 4 -9 c 4 -5 c 5 3 c 4 3 c 5 -2 c 4 2 c 4 -2 c 5 1 c 4 0 c 4 -2 c 5 -2 c 4 -1 c 4 -3 c 5 0 c 4 1 c 5 0 c 4 0 c 4 0 c
5 2 c 4 9 c 4 93 c 5 218 c 4 60 c 5 -114 c 4 -210 c 4 -55 c 5 -1 c 4 1 c 4 0 c 5 -1 c 4 0 c 5 -1 c 4 1 c 4 -1 c 5 1 c 4 2 c 4 1 c
5 -1 c 4 0 c 5 -2 c 4 -1 c 4 -2 c 5 1 c 4 2 c 4 2 c 5 0 c 4 3 c 4 34 c 5 180 c 4 172 c 5 4 c 4 -195 c 4 -167 c 5 -31 c 4 -3 c 4 -2 c
5 0 c 4 1 c 5 -1 c 4 0 c 4 0 c 5 -1 c 4 0 c 4 0 c 5 1 c 4 -1 c 5 1 c 4 -1 c 4 1 c 5 1 c 4 4 c 4 0 c 5 -2 c 4 -1 c 4 2 c 5 6 c 4 5 c
5 1 c 4 -1 c 4 21 c 5 -49 c 4 86 c 4 -27 c 5 -33 c 4 -8 c 5 -1 c 4 0 c 4 -2 c 5 0 c 4 1 c 4 -1 c 5 1 c 4 2 c 5 4 c 4 -22 c 4 0 c
5 226 c 4 -41 c 4 -115 c 5 -39 c 4 21 c 5 12 c 4 -10 c 4 -31 c 5 -9 c 4 1 c 4 0 c 5 0 c 4 -1 c 4 0 c 5 1 c 4 -2 c 5 0 c 4 0 c 4 -1 c
5 0 c 4 1 c 4 1 c 5 0 c 4 -1 c 5 2 c 4 0 c 4 1 c 5 -2 c 4 3 c 4 0 c 5 0 c 4 -2 c 5 -1 c 4 0 c 4 -1 c 5 2 c 4 13 c 4 59 c 5 67 c
4 -9 c 5 -66 c 4 -58 c 4 -6 c 5 6 c 4 18 c 4 9 c 5 -8 c 4 -18 c 4 -7 c 5 0 c 4 -2 c 5 0 c 4 1 c 4 1 c 5 1 c 4 0 c 4 11 c 5 118 c
4 210 c 5 45 c 4 -117 c 4 -206 c 5 -30 c 4 1 c 4 -13 c 5 -16 c 4 -3 c 5 -2 c 4 1 c 4 1 c 5 1 c 4 -1 c 4 -1 c 5 -1 c 4 0 c 5 -2 c
4 1 c 4 -2 c 5 1 c 4 1 c 4 -1 c 5 2 c 4 -2 c 4 2 c 5 0 c 4 1 c 5 8 c 4 3 c 4 -3 c 5 -6 c 4 -4 c 4 -1 c 5 0 c 4 2 c 5 0 c 4 0 c
4 -1 c 5 0 c 4 0 c 4 2 c 5 0 c 4 -1 c 5 -1 c 4 0 c 4 0 c 5 1 c 4 2 c 4 0 c 5 -1 c 4 1 c 5 -1 c 4 1 c 4 0 c 5 2 c 4 2 c 4 12 c
5 137 c 4 528 c 4 305 c 5 -99 c 4 -550 c 5 -310 c 4 -24 c 4 -3 c 5 2 c 4 8 c 4 11 c 5 4 c 4 -8 c 5 -13 c 4 -4 c 4 0 c 5 1 c 4 1 c
4 -1 c 5 -3 c 4 -1 c 5 2 c 4 2 c 4 -1 c 5 0 c 4 0 c 4 11 c 5 46 c 4 26 c 4 -12 c 5 -43 c 4 -19 c 5 -2 c 4 -1 c 4 -2 c 5 4 c 4 24 c
4 120 c 5 210 c 4 46 c 5 -122 c 4 -207 c 4 -64 c 5 -8 c 4 -2 c 4 -1 c 5 2 c 4 -4 c 5 -4 c 4 -1 c 4 2 c 5 0 c 4 1 c 4 0 c 5 0 c 4 3 c
5 6 c 4 51 c 4 118 c 5 57 c 4 -49 c 4 -113 c 5 -64 c 4 -8 c 4 -1 c 5 0 c 4 1 c 5 15 c 4 20 c 4 0 c 5 -17 c 4 -15 c 4 -4 c 5 2 c
4 4 c 5 -1 c 4 1 c 4 7 c 5 106 c 4 537 c 4 466 c 5 -95 c 4 -550 c 5 -424 c 4 -47 c 4 -4 c 5 -2 c 4 1 c 4 -17 c 5 21 c 4 -2 c 5 0 c
4 -2 c 4 -2 c 5 -1 c 4 0 c 4 0 c 5 0 c 4 -1 c 4 0 c 5 0 c 4 2 c 5 13 c 4 68 c 4 53 c 5 -8 c 4 -68 c 4 -49 c 5 -7 c 4 -2 c 5 -1 c
4 -1 c 4 0 c 5 2 c 4 0 c 4 2 c 5 -2 c 4 0 c 5 1 c 4 -2 c 4 -1 c 5 0 c 4 0 c 4 0 c 5 0 c 4 0 c 5 1 c 4 -1 c 4 1 c 5 5 c 4 3 c 4 0 c
5 0 c 4 10 c 4 11 c 5 -4 c 4 -13 c 5 -8 c 4 -2 c 4 -1 c 5 -2 c 4 -1 c 4 2 c 5 1 c 4 8 c 5 43 c 4 33 c 4 3 c 5 -42 c 4 -30 c 4 -4 c
5 -3 c 4 0 c 5 0 c 4 -5 c 4 -4 c 5 0 c 4 0 c 4 1 c 5 1 c 4 6 c 5 1 c 4 -1 c 4 1 c 5 3 c 4 -3 c 4 -6 c 5 -5 c 4 1 c 4 2 c 5 1 c
4 -1 c 5 1 c 4 -1 c 4 0 c 5 -2 c 4 0 c 4 -1 c 5 1 c 4 0 c 5 -1 c 4 -1 c 4 1 c 5 0 c 4 1 c 4 0 c 5 0 c 4 1 c 5 1 c 4 -1 c 4 0 c
5 -1 c 4 3 c 4 3 c 5 3 c 4 -4 c 4 -3 c 5 1 c 4 2 c 5 40 c 4 97 c 4 34 c 5 -37 c 4 -98 c 4 -35 c 5 -3 c 4 3 c 5 0 c 4 0 c 4 -3 c
5 -1 c 4 -2 c 4 0 c 5 0 c 4 1 c 5 1 c 4 0 c 4 -1 c 5 0 c 4 2 c 4 24 c 5 73 c 4 20 c 5 -23 c 4 -67 c 4 -24 c 5 3 c 4 4 c 4 5 c 5 67 c
4 254 c 4 144 c 5 -63 c 4 -263 c 5 -141 c 4 -10 c 4 -1 c 5 -1 c 4 4 c 4 31 c 5 33 c 4 0 c 5 -34 c 4 -30 c 4 2 c 5 5 c 4 -3 c 4 -6 c
5 -2 c 4 -1 c 5 1 c 4 -2 c 4 -1 c 5 2 c 4 -1 c 4 3 c 5 4 c 4 -1 c 5 -1 c 4 -4 c 4 13 c 5 62 c 4 65 c 4 105 c 5 31 c 4 -56 c 4 -117 c
5 -72 c 4 56 c 5 26 c 4 -15 c 4 -68 c 5 -28 c 4 -1 c 4 -1 c 5 -2 c 4 -1 c 5 0 c 4 0 c 4 0 c 5 0 c 4 -1 c 4 1 c 5 -2 c 4 2 c 5 0 c
4 1 c 4 0 c 5 1 c 4 -2 c 4 1 c 5 2 c 4 1 c 5 0 c 4 0 c 4 -3 c 5 0 c 4 1 c 4 0 c 5 0 c 4 26 c 4 94 c 5 29 c 4 -18 c 5 -92 c 4 -32 c
4 -4 c 5 0 c 4 -1 c 4 1 c 5 2 c 4 -3 c 5 0 c 4 -3 c 4 0 c 5 -1 c 4 1 c 4 -2 c 5 2 c 4 1 c 5 0 c 4 0 c 4 2 c 5 -1 c 4 -1 c 4 -2 c
5 0 c 4 1 c 5 0 c 4 0 c 4 2 c 5 1 c 4 0 c 4 31 c 5 57 c 4 6 c 4 -32 c 5 -55 c 4 -5 c 5 2 c 4 0 c 4 10 c 5 44 c 4 24 c 4 -13 c
5 -48 c 4 -22 c 5 7 c 4 36 c 4 23 c 5 6 c 4 -31 c 4 -21 c 5 -10 c 4 -12 c 5 -1 c 4 2 c 4 9 c 5 11 c 4 0 c 4 -10 c 5 -10 c 4 -2 c
4 0 c 5 1 c 4 3 c 5 1 c 4 0 c 4 -3 c 5 -1 c 4 2 c 4 1 c 5 -2 c 4 -2 c 5 1 c 4 0 c 4 0 c 5 -1 c 4 0 c 4 1 c 5 2 c 4 1 c 5 -2 c 4 1 c
4 1 c 5 8 c 4 7 c 4 -1 c 5 -6 c 4 -9 c 5 -2 c 4 0 c 4 0 c 5 -1 c 4 6 c 4 6 c 5 3 c 4 -3 c 4 -6 c 5 1 c 4 -1 c 5 8 c 4 16 c 4 113 c
5 420 c 4 250 c 4 98 c 5 -322 c 4 -247 c 5 -214 c 4 -113 c 4 -7 c 5 1 c 4 -1 c 4 -1 c 5 -2 c 4 -1 c 5 -2 c 4 0 c 4 0 c 5 3 c 4 13 c
4 11 c 5 2 c 4 -13 c 5 -12 c 4 -2 c 4 10 c 5 58 c 4 129 c 4 37 c 5 -40 c 4 -111 c 4 -51 c 5 -14 c 4 -3 c 5 0 c 4 -3 c 4 -8 c 5 2 c
4 32 c 4 16 c 5 -6 c 4 -30 c 5 -20 c 4 -2 c 4 0 c 5 2 c 4 0 c 4 0 c 5 4 c 4 3 c 5 1 c 4 -2 c 4 -5 c 5 -1 c 4 4 c 4 1 c 5 1 c 4 -5 c
5 -2 c 4 0 c 4 -1 c 5 -1 c 4 2 c 4 6 c 5 3 c 4 -1 c 4 -3 c 5 -3 c 4 -2 c 5 0 c 4 0 c 4 2 c 5 3 c 4 4 c 4 -1 c 5 -3 c 4 -4 c 5 -1 c
4 -1 c 4 4 c 5 1 c 4 0 c 4 1 c 5 0 c 4 -1 c 5 1 c 4 4 c 4 3 c 5 1 c 4 4 c 4 4 c 5 4 c 4 3 c 4 8 c 5 17 c 4 80 c 5 634 c 4 1790 c
4 1370 c 5 -429 c 4 -1803 c 4 -1318 c 5 -222 c 4 160 c 5 46 c 4 -59 c 4 -210 c 5 -69 c 4 -1 c 4 2 c 5 -5 c 4 -9 c 5 -5 c 4 -1 c
4 2 c 5 2 c 4 -2 c 4 1 c 5 1 c 4 -3 c 5 1 c 4 -3 c 4 -1 c 5 0 c 4 1 c 4 2 c 5 0 c 4 3 c 4 9 c 5 31 c 4 181 c 5 608 c 4 363 c 4 -91 c
5 -579 c 4 -435 c 4 -68 c 5 -14 c 4 -5 c 5 -4 c 4 0 c 4 -2 c 5 -1 c 4 2 c 4 8 c 5 6 c 4 1 c 5 -10 c 4 -9 c 4 -1 c 5 0 c 4 0 c 4 0 c
5 1 c 4 0 c 5 -1 c 4 1 c 4 -1 c 5 -1 c 4 0 c 4 1 c 5 -1 c 4 -1 c 4 2 c 5 0 c 4 0 c 5 0 c 4 1 c 4 3 c 5 7 c 4 18 c 4 5 c 5 -7 c
4 -15 c 5 17 c 4 24 c 4 -2 c 5 -21 c 4 -22 c 4 -6 c 5 -1 c 4 -2 c 5 1 c 4 0 c 4 -1 c 5 1 c 4 2 c 4 2 c 5 1 c 4 2 c 5 0 c 4 -2 c
4 -2 c 5 1 c 4 1 c 4 -1 c 5 -3 c 4 0 c 4 0 c 5 0 c 4 0 c 5 10 c 4 81 c 4 149 c 5 24 c 4 -60 c 4 -138 c 5 -44 c 4 -11 c 5 4 c 4 -2 c
4 -5 c 5 -8 c 4 -2 c 4 1 c 5 -1 c 4 1 c 5 0 c 4 0 c 4 -1 c 5 -1 c 4 1 c 4 0 c 5 5 c 4 21 c 5 19 c 4 -2 c 4 -19 c 5 -18 c 4 -3 c
4 -2 c 5 -1 c 4 0 c 4 0 c 5 2 c 4 1 c 5 -1 c 4 0 c 4 2 c 5 1 c 4 3 c 4 1 c 5 -2 c 4 -5 c 5 -3 c 4 0 c 4 1 c 5 -1 c 4 0 c 4 1 c 5 0 c
4 1 c 5 0 c 4 1 c 4 -2 c 5 0 c 4 0 c 4 1 c 5 1 c 4 -1 c 4 0 c 5 0 c 4 -1 c 5 1 c 4 3 c 4 -3 c 5 0 c 4 0 c 4 -1 c 5 3 c 4 16 c 5 54 c
4 33 c 4 -7 c 5 -53 c 4 -29 c 4 -3 c 5 0 c 4 -6 c 5 -5 c 4 -2 c 4 1 c 5 0 c 4 0 c 4 -1 c 5 1 c 4 1 c 5 2 c 4 4 c 4 40 c 5 158 c
4 55 c 4 -21 c 5 -157 c 4 -75 c 4 -5 c 5 1 c 4 -1 c 5 -1 c 4 -2 c 4 1 c 5 4 c 4 18 c 4 32 c 5 10 c 4 -16 c 5 -31 c 4 8 c 4 123 c
5 242 c 4 85 c 4 -92 c 5 -242 c 4 -122 c 5 -14 c 4 -2 c 4 -2 c 5 2 c 4 0 c 4 -1 c 5 0 c 4 -2 c 5 -1 c 4 -1 c 4 1 c 5 0 c 4 1 c 4 0 c
5 0 c 4 -1 c 4 2 c 5 0 c 4 0 c 5 1 c 4 -1 c 4 0 c 5 2 c 4 2 c 4 2 c 5 2 c 4 5 c 5 14 c 4 104 c 4 885 c 5 1149 c 4 102 c 4 -789 c
5 -1226 c 4 -230 c 5 -12 c 4 -3 c 4 -1 c 5 1 c 4 7 c 4 16 c
5 3 c 4 -6 c 5 -18 c 4 -8 c 4 -15 c 5 0 c 4 11 c 4 0 c 5 0 c 4 0 c 4 0 c 5 -1 c 4 1 c 5 -1 c 4 1 c 4 0 c 5 0 c 4 -1 c 4 0 c 5 2 c
4 0 c 5 -1 c 4 1 c 4 10 c 5 36 c 4 9 c 4 -9 c 5 -34 c 4 -12 c 5 -2 c 4 -1 c 4 1 c 5 2 c 4 0 c 4 0 c 5 -2 c 4 -1 c 5 1 c 4 0 c 4 1 c
5 17 c 4 44 c 4 10 c 5 -13 c 4 -43 c
0 -126 3315 418 l 54 0 3315 418 l 18 -6 c 6 -6 c 6 -12 c 0 -12 c -6 -12 c -6 -6 c -18 -6 c -54 0 c 42 -66 3357 358 l
-12 -6 3465 376 l -12 -12 c -6 -18 c 0 -12 c 6 -18 c 12 -12 c 12 -6 c 18 0 c 12 6 c 12 12 c 6 18 c 0 12 c -6 18 c -12 12 c -12 6 c
-18 0 c 24 -84 3549 376 l -24 -84 3597 376 l 24 -84 3597 376 l -24 -84 3645 376 l 108 0 3687 364 l 108 0 3687 328 l 66 0 4041 418 l
-36 -48 c 18 0 c 12 -6 c 6 -6 c 6 -18 c 0 -12 c -6 -18 c -12 -12 c -18 -6 c -18 0 c -18 6 c -6 6 c -6 12 c -12 -6 4275 376 l
-12 -12 c -6 -18 c 0 -12 c 6 -18 c 12 -12 c 12 -6 c 18 0 c 12 6 c 12 12 c 6 18 c 0 12 c -6 18 c -12 12 c -12 6 c -18 0 c
-12 0 4401 418 l -12 -6 c -6 -18 c 0 -102 c 42 0 4353 376 l 66 0 4539 418 l -36 -48 c 18 0 c 12 -6 c 6 -6 c 6 -18 c 0 -12 c -6 -18 c
-12 -12 c -18 -6 c -18 0 c -18 6 c -6 6 c -6 12 c -6 -18 4725 376 l -12 -12 c -18 -6 c -6 0 c -18 6 c -12 12 c -6 18 c 0 6 c 6 18 c
12 12 c 18 6 c 6 0 c 18 -6 c 12 -12 c 6 -24 c 0 -30 c -6 -30 c -12 -18 c -18 -6 c -12 0 c -18 6 c -6 12 c 12 6 5169 394 l 18 18 c
0 -126 c -6 -6 5282 376 l 6 -6 c 6 6 c -6 6 c -6 -6 5282 304 l 6 -6 c 6 6 c -6 6 c -48 -126 5462 418 l 48 -126 5462 418 l
60 0 5432 334 l 0 -84 5540 376 l 6 18 5540 340 l 12 12 c 12 6 c 18 0 c -12 12 5684 358 l -12 6 c -18 0 c -12 -6 c -12 -12 c -6 -18 c
0 -12 c 6 -18 c 12 -12 c 12 -6 c 18 0 c 12 6 c 12 12 c 108 0 5726 346 l -18 -6 5912 418 l -12 -18 c -6 -30 c 0 -18 c 6 -30 c
12 -18 c 18 -6 c 12 0 c 18 6 c 12 18 c 6 30 c 0 18 c -6 30 c -12 18 c -18 6 c -12 0 c 66 0 6008 418 l -36 -48 c 18 0 c 12 -6 c
6 -6 c 6 -18 c 0 -12 c -6 -18 c -12 -12 c -18 -6 c -18 0 c -18 6 c -6 6 c -6 12 c -60 0 6188 418 l -6 -54 c 6 6 c 18 6 c 18 0 c
18 -6 c 12 -12 c 6 -18 c 0 -12 c -6 -18 c -12 -12 c -18 -6 c -18 0 c -18 6 c -6 6 c -6 12 c -6 -6 6248 304 l 6 -6 c 6 6 c -6 6 c
-12 0 6338 418 l -12 -6 c -6 -18 c 0 -102 c 42 0 6290 376 l 6 -6 6368 418 l 6 6 c -6 6 c -6 -6 c 0 -84 6374 376 l 0 -102 6428 418 l
6 -18 c 12 -6 c 12 0 c 42 0 6410 376 l -6 12 6554 358 l -18 6 c -18 0 c -18 -6 c -6 -12 c 6 -12 c 12 -6 c 30 -6 c 12 -6 c 6 -12 c
0 -6 c -6 -12 c -18 -6 c -18 0 c -18 6 c -6 12 c 0 -192 6884 442 l 0 -192 6890 442 l 42 0 6884 442 l 42 0 6884 250 l 0 6 6968 388 l
6 12 c 6 6 c 12 6 c 24 0 c 12 -6 c 6 -6 c 6 -12 c 0 -12 c -6 -12 c -12 -18 c -60 -60 c 84 0 c -6 -6 7094 376 l 6 -6 c 6 6 c -6 6 c
-6 -6 7094 304 l 6 -6 c 6 6 c -6 6 c 0 -192 7274 442 l 0 -192 7280 442 l 42 0 7238 442 l 42 0 7238 250 l
0 -249 865 3080 l 0 41 822 3160 l 30 -22 c 0 11 c 4 7 c 4 4 c 11 4 c 7 0 c 12 -4 c 7 -7 c 4 -12 c 0 -11 c -4 -11 c -3 -4 c -8 -4 c
79 -38 822 3281 l 0 53 822 3228 l -4 7 837 3315 l -11 12 c 79 0 c 12 -4 848 3428 l 7 -7 c 4 -12 c 0 -3 c -4 -12 c -7 -7 c -12 -4 c
-4 0 c -11 4 c -8 7 c -3 12 c 0 3 c 3 12 c 8 7 c 15 4 c 19 0 c 19 -4 c 11 -7 c 4 -12 c 0 -7 c -4 -12 c -7 -3 c 3 -4 894 3462 l 4 4 c
-4 4 c -3 -4 c 53 -38 822 3530 l 0 57 c 79 0 822 3530 l 0 42 822 3575 l 30 -23 c 0 12 c 4 7 c 4 4 c 11 4 c 7 0 c 12 -4 c 7 -8 c
4 -11 c 0 -11 c -4 -12 c -3 -3 c -8 -4 c 0 -38 822 3689 l 34 -4 c -4 4 c -4 11 c 0 12 c 4 11 c 8 8 c 11 3 c 7 0 c 12 -3 c 7 -8 c
4 -11 c 0 -12 c -4 -11 c -3 -4 c -8 -4 c 0 -250 1240 2607 l 0 41 1196 2686 l 30 -22 c 0 11 c 4 8 c 4 3 c 11 4 c 8 0 c 11 -4 c 8 -7 c
3 -11 c 0 -12 c -3 -11 c -4 -4 c -8 -4 c 79 -38 1196 2807 l 0 53 1196 2754 l -4 0 1215 2833 l -7 4 c -4 4 c -4 7 c 0 16 c 4 7 c
4 4 c 7 4 c 8 0 c 7 -4 c 12 -8 c 37 -37 c 0 52 c -4 8 1211 2916 l -11 11 c 79 0 c 4 -3 1268 2988 l 3 3 c -3 4 c -4 -4 c
4 -11 1196 3037 l 7 -4 c 8 0 c 7 4 c 4 8 c 4 15 c 4 11 c 7 8 c 8 3 c 11 0 c 8 -3 c 4 -4 c 3 -11 c 0 -16 c -3 -11 c -4 -4 c -8 -3 c
-11 0 c -8 3 c -7 8 c -4 11 c -4 15 c -4 8 c -7 4 c -8 0 c -7 -4 c -4 -11 c 0 -16 c -4 0 1215 3098 l -7 4 c -4 3 c -4 8 c 0 15 c
4 8 c 4 3 c 7 4 c 8 0 c 7 -4 c 12 -7 c 37 -38 c 0 53 c 0 -38 1196 3215 l 34 -4 c -4 4 c -4 12 c 0 11 c 4 11 c 8 8 c 11 4 c 8 0 c
11 -4 c 8 -8 c 3 -11 c 0 -11 c -3 -12 c -4 -4 c -8 -3 c 0 -250 1801 1275 l 0 42 1758 1354 l 30 -23 c 0 11 c 4 8 c 4 4 c 11 4 c 7 0 c
12 -4 c 7 -8 c 4 -11 c 0 -11 c -4 -12 c -3 -4 c -8 -3 c 79 -38 1758 1475 l 0 53 1758 1422 l -4 0 1777 1502 l -8 3 c -3 4 c -4 8 c
0 15 c 4 7 c 3 4 c 8 4 c 7 0 c 8 -4 c 11 -7 c 38 -38 c 0 53 c 0 -38 1758 1619 l 34 -4 c -4 4 c -4 11 c 0 12 c 4 11 c 8 8 c 11 3 c
7 0 c 12 -3 c 7 -8 c 4 -11 c 0 -12 c -4 -11 c -3 -4 c -8 -4 c 3 -4 1830 1657 l 4 4 c -4 3 c -3 -3 c 0 42 1758 1694 l 30 -23 c 0 12 c
4 7 c 4 4 c 11 4 c 7 0 c 12 -4 c 7 -8 c 4 -11 c 0 -11 c -4 -12 c -3 -3 c -8 -4 c 12 -3 1784 1811 l 7 -8 c 4 -11 c 0 -4 c -4 -11 c
-7 -8 c -12 -4 c -4 0 c -11 4 c -7 8 c -4 11 c 0 4 c 4 11 c 7 8 c 15 3 c 19 0 c 19 -3 c 11 -8 c 4 -11 c 0 -8 c -4 -11 c -7 -4 c
0 41 1758 1846 l 30 -23 c 0 12 c 4 7 c 4 4 c 11 4 c 7 0 c 12 -4 c 7 -7 c 4 -12 c 0 -11 c -4 -11 c -3 -4 c -8 -4 c 0 -250 2012 1484 l
0 42 1968 1563 l 31 -23 c 0 12 c 4 7 c 3 4 c 12 4 c 7 0 c 12 -4 c 7 -8 c 4 -11 c 0 -11 c -4 -12 c -4 -3 c -7 -4 c 80 -38 1968 1684 l
0 53 1968 1631 l -3 0 1987 1711 l -8 4 c -4 3 c -4 8 c 0 15 c 4 8 c 4 3 c 8 4 c 7 0 c 8 -4 c 11 -7 c 38 -38 c 0 53 c
-8 -4 1980 1832 l -4 -11 c 0 -8 c 4 -11 c 12 -8 c 19 -4 c 18 0 c 16 4 c 7 8 c 4 11 c 0 4 c -4 11 c -7 8 c -12 3 c -4 0 c -11 -3 c
-7 -8 c -4 -11 c 0 -4 c 4 -11 c 7 -8 c 11 -4 c 4 -4 2040 1866 l 4 4 c -4 3 c -4 -3 c 80 -38 1968 1949 l 0 53 1968 1896 l
-3 0 1987 1975 l -8 4 c -4 4 c -4 7 c 0 16 c 4 7 c 4 4 c 8 4 c 7 0 c 8 -4 c 11 -8 c 38 -37 c 0 52 c 0 -37 1968 2092 l 35 -4 c -4 4 c
-4 11 c 0 11 c 4 12 c 7 7 c 12 4 c 7 0 c 12 -4 c 7 -7 c 4 -12 c 0 -11 c -4 -11 c -4 -4 c -7 -4 c 0 -249 2199 1682 l 0 41 2156 1762 l
30 -23 c 0 12 c 4 7 c 3 4 c 12 4 c 7 0 c 12 -4 c 7 -7 c 4 -12 c 0 -11 c -4 -11 c -4 -4 c -7 -4 c 79 -37 2156 1882 l 0 52 2156 1830 l
-3 0 2174 1909 l -8 4 c -4 3 c -3 8 c 0 15 c 3 8 c 4 4 c 8 3 c 7 0 c 8 -3 c 11 -8 c 38 -38 c 0 53 c 79 -38 2156 2034 l
0 53 2156 1981 l 4 -4 2227 2064 l 4 4 c -4 4 c -4 -4 c 11 -4 2182 2143 l 8 -7 c 4 -11 c 0 -4 c -4 -12 c -8 -7 c -11 -4 c -4 0 c
-11 4 c -8 7 c -3 12 c 0 4 c 3 11 c 8 7 c 15 4 c 19 0 c 19 -4 c 11 -7 c 4 -11 c 0 -8 c -4 -11 c -7 -4 c 3 -11 2156 2192 l 12 -7 c
19 -4 c 11 0 c 19 4 c 11 7 c 4 11 c 0 8 c -4 11 c -11 8 c -19 4 c -11 0 c -19 -4 c -12 -8 c -3 -11 c 0 -8 c 0 41 2156 2253 l
30 -22 c 0 11 c 4 8 c 3 3 c 12 4 c 7 0 c 12 -4 c 7 -7 c 4 -11 c 0 -12 c -4 -11 c -4 -4 c -7 -4 c 0 -249 2423 2570 l 0 41 2379 2650 l
31 -23 c 0 12 c 3 7 c 4 4 c 12 4 c 7 0 c 11 -4 c 8 -7 c 4 -12 c 0 -11 c -4 -11 c -4 -4 c -7 -4 c 80 -38 2379 2771 l 0 53 2379 2718 l
-3 0 2398 2797 l -8 4 c -4 4 c -4 7 c 0 15 c 4 8 c 4 4 c 8 3 c 7 0 c 8 -3 c 11 -8 c 38 -38 c 0 53 c 11 -4 2406 2918 l 8 -7 c 4 -12 c
0 -4 c -4 -11 c -8 -7 c -11 -4 c -4 0 c -11 4 c -8 7 c -4 11 c 0 4 c 4 12 c 8 7 c 15 4 c 19 0 c 19 -4 c 11 -7 c 4 -12 c 0 -7 c
-4 -12 c -8 -3 c 4 -4 2451 2952 l 4 4 c -4 4 c -4 -4 c 0 41 2379 2990 l 31 -22 c 0 11 c 3 8 c 4 3 c 12 4 c 7 0 c 11 -4 c 8 -7 c
4 -12 c 0 -11 c -4 -11 c -4 -4 c -7 -4 c 4 -11 2379 3080 l 12 -7 c 18 -4 c 12 0 c 19 4 c 11 7 c 4 11 c 0 8 c -4 11 c -11 8 c -19 4 c
-12 0 c -18 -4 c -12 -8 c -4 -11 c 0 -8 c 11 -3 2406 3182 l 8 -8 c 4 -11 c 0 -4 c -4 -11 c -8 -8 c -11 -4 c -4 0 c -11 4 c -8 8 c
-4 11 c 0 4 c 4 11 c 8 8 c 15 3 c 19 0 c 19 -3 c 11 -8 c 4 -11 c 0 -8 c -4 -11 c -8 -4 c 0 -250 3011 1268 l 0 42 2967 1347 l
31 -23 c 0 12 c 3 7 c 4 4 c 11 4 c 8 0 c 11 -4 c 8 -8 c 4 -11 c 0 -11 c -4 -12 c -4 -3 c -7 -4 c 80 -37 2967 1468 l 0 53 2967 1415 l
0 41 2967 1499 l 31 -22 c 0 11 c 3 7 c 4 4 c 11 4 c 8 0 c 11 -4 c 8 -7 c 4 -12 c 0 -11 c -4 -11 c -4 -4 c -7 -4 c -4 0 2986 1570 l
-7 4 c -4 4 c -4 8 c 0 15 c 4 7 c 4 4 c 7 4 c 8 0 c 8 -4 c 11 -8 c 38 -37 c 0 53 c 4 -4 3039 1650 l 4 4 c -4 4 c -4 -4 c
11 -4 2994 1729 l 8 -7 c 3 -12 c 0 -3 c -3 -12 c -8 -7 c -11 -4 c -4 0 c -11 4 c -8 7 c -4 12 c 0 3 c 4 12 c 8 7 c 15 4 c 19 0 c
19 -4 c 11 -7 c 4 -12 c 0 -7 c -4 -11 c -8 -4 c 4 -12 2967 1775 l 8 -4 c 7 0 c 8 4 c 4 8 c 3 15 c 4 11 c 8 8 c 7 4 c 12 0 c 7 -4 c
4 -4 c 4 -11 c 0 -15 c -4 -12 c -4 -4 c -7 -3 c -12 0 c -7 3 c -8 8 c -4 11 c -3 15 c -4 8 c -8 4 c -7 0 c -8 -4 c -4 -11 c 0 -15 c
0 -38 2967 1877 l 34 -4 c -3 4 c -4 11 c 0 11 c 4 12 c 7 7 c 11 4 c 8 0 c 11 -4 c 8 -7 c 4 -12 c 0 -11 c -4 -11 c -4 -4 c -7 -4 c
0 -249 3121 1330 l 0 41 3077 1410 l 31 -23 c 0 12 c 3 7 c 4 4 c 11 4 c 8 0 c 11 -4 c 8 -7 c 4 -12 c 0 -11 c -4 -11 c -4 -4 c -7 -4 c
80 -38 3077 1531 l 0 53 3077 1478 l 0 41 3077 1561 l 31 -22 c 0 11 c 3 8 c 4 3 c 11 4 c 8 0 c 11 -4 c 8 -7 c 4 -12 c 0 -11 c
-4 -11 c -4 -4 c -7 -4 c 0 42 3077 1636 l 31 -23 c 0 12 c 3 7 c 4 4 c 11 4 c 8 0 c 11 -4 c 8 -8 c 4 -11 c 0 -11 c -4 -12 c -4 -3 c
-7 -4 c 4 -4 3149 1712 l 4 4 c -4 4 c -4 -4 c -8 -3 3089 1791 l -4 -12 c 0 -7 c 4 -12 c 11 -7 c 19 -4 c 19 0 c 15 4 c 8 7 c 4 12 c
0 3 c -4 12 c -8 7 c -11 4 c -4 0 c -11 -4 c -8 -7 c -3 -12 c 0 -3 c 3 -12 c 8 -7 c 11 -4 c 80 -38 3077 1871 l 0 53 3077 1818 l
-4 0 3096 1897 l -7 4 c -4 4 c -4 7 c 0 15 c 4 8 c 4 4 c 7 3 c 8 0 c 8 -3 c 11 -8 c 38 -38 c 0 53 c 0 -249 3803 2567 l
0 41 3759 2647 l 30 -22 c 0 11 c 4 7 c 4 4 c 11 4 c 8 0 c 11 -4 c 8 -7 c 4 -12 c 0 -11 c -4 -11 c -4 -4 c -8 -4 c 80 -38 3759 2768 l
0 53 3759 2715 l 0 41 3759 2798 l 30 -22 c 0 11 c 4 8 c 4 3 c 11 4 c 8 0 c 11 -4 c 8 -7 c 4 -11 c 0 -12 c -4 -11 c -4 -4 c -8 -4 c
80 -38 3759 2919 l 0 53 3759 2866 l 4 -4 3831 2949 l 4 4 c -4 4 c -4 -4 c 4 -11 3759 2998 l 8 -4 c 7 0 c 8 4 c 3 7 c 4 16 c 4 11 c
8 7 c 7 4 c 11 0 c 8 -4 c 4 -3 c 4 -12 c 0 -15 c -4 -11 c -4 -4 c -8 -4 c -11 0 c -7 4 c -8 8 c -4 11 c -4 15 c -3 8 c -8 3 c -7 0 c
-8 -3 c -4 -12 c 0 -15 c 4 -12 3759 3074 l 8 -3 c 7 0 c 8 3 c 3 8 c 4 15 c 4 11 c 8 8 c 7 4 c 11 0 c 8 -4 c 4 -4 c 4 -11 c 0 -15 c
-4 -12 c -4 -3 c -8 -4 c -11 0 c -7 4 c -8 7 c -4 12 c -4 15 c -3 7 c -8 4 c -7 0 c -8 -4 c -4 -11 c 0 -15 c 11 -4 3786 3180 l
8 -8 c 3 -11 c 0 -4 c -3 -11 c -8 -8 c -11 -4 c -4 0 c -11 4 c -8 8 c -4 11 c 0 4 c 4 11 c 8 8 c 15 4 c 19 0 c 18 -4 c 12 -8 c
4 -11 c 0 -8 c -4 -11 c -8 -4 c 0 -249 4339 7019 l 0 42 4296 7098 l 30 -23 c 0 12 c 4 7 c 4 4 c 11 4 c 7 0 c 12 -4 c 7 -8 c 4 -11 c
0 -11 c -4 -12 c -3 -3 c -8 -4 c 79 -37 4296 7219 l 0 52 4296 7167 l 53 -38 4296 7280 l 0 57 c 79 0 4296 7280 l -4 8 4311 7329 l
-11 11 c 79 0 c 3 -4 4368 7401 l 4 4 c -4 4 c -3 -4 c -4 8 4311 7442 l -11 11 c 79 0 c 3 -12 4296 7526 l 8 -4 c 8 0 c 7 4 c 4 8 c
4 15 c 4 11 c 7 8 c 8 4 c 11 0 c 8 -4 c 3 -4 c 4 -11 c 0 -15 c -4 -12 c -3 -4 c -8 -3 c -11 0 c -8 3 c -7 8 c -4 11 c -4 15 c -4 8 c
-7 4 c -8 0 c -8 -4 c -3 -11 c 0 -15 c 0 41 4296 7590 l 30 -22 c 0 11 c 4 8 c 4 3 c 11 4 c 7 0 c 12 -4 c 7 -7 c 4 -12 c 0 -11 c
-4 -11 c -3 -4 c -8 -4 c 0 -250 4625 1950 l 0 41 4581 2029 l 30 -22 c 0 11 c 4 8 c 4 3 c 11 4 c 8 0 c 11 -4 c 7 -7 c 4 -11 c 0 -12 c
-4 -11 c -3 -4 c -8 -4 c 79 -38 4581 2150 l 0 53 4581 2097 l 53 -37 4581 2210 l 0 56 c 79 0 4581 2210 l -4 0 4600 2252 l -8 4 c
-3 3 c -4 8 c 0 15 c 4 8 c 3 3 c 8 4 c 8 0 c 7 -4 c 11 -7 c 38 -38 c 0 53 c 3 -4 4653 2331 l 4 4 c -4 4 c -3 -4 c 12 -4 4607 2411 l
7 -8 c 4 -11 c 0 -4 c -4 -11 c -7 -8 c -12 -4 c -3 0 c -12 4 c -7 8 c -4 11 c 0 4 c 4 11 c 7 8 c 15 4 c 19 0 c 19 -4 c 11 -8 c
4 -11 c 0 -8 c -4 -11 c -7 -4 c -4 0 4600 2441 l -8 4 c -3 3 c -4 8 c 0 15 c 4 8 c 3 3 c 8 4 c 8 0 c 7 -4 c 11 -7 c 38 -38 c 0 53 c
0 42 4581 2520 l 30 -23 c 0 11 c 4 8 c 4 4 c 11 4 c 8 0 c 11 -4 c 7 -8 c 4 -11 c 0 -11 c -4 -12 c -3 -4 c -8 -3 c 0 -250 5125 1830 l
0 42 5082 1909 l 30 -23 c 0 11 c 4 8 c 4 4 c 11 3 c 8 0 c 11 -3 c 7 -8 c 4 -11 c 0 -12 c -4 -11 c -3 -4 c -8 -4 c 79 -38 5082 2030 l
0 53 5082 1977 l 53 -37 5082 2090 l 0 56 c 79 0 5082 2090 l 0 -38 5082 2174 l 34 -4 c -4 4 c -4 11 c 0 11 c 4 12 c 8 7 c 11 4 c
8 0 c 11 -4 c 7 -7 c 4 -12 c 0 -11 c -4 -11 c -3 -4 c -8 -4 c 3 -3 5154 2211 l 4 3 c -4 4 c -3 -4 c 12 -4 5108 2291 l 7 -8 c 4 -11 c
0 -4 c -4 -11 c -7 -8 c -12 -3 c -3 0 c -12 3 c -7 8 c -4 11 c 0 4 c 4 11 c 7 8 c 15 4 c 19 0 c 19 -4 c 11 -8 c 4 -11 c 0 -7 c
-4 -12 c -7 -4 c 79 -38 5082 2370 l 0 53 5082 2317 l -4 8 5097 2404 l -11 11 c 79 0 c 0 -249 5387 1612 l 0 41 5343 1692 l 30 -22 c
0 11 c 4 7 c 4 4 c 11 4 c 8 0 c 11 -4 c 8 -7 c 3 -12 c 0 -11 c -3 -11 c -4 -4 c -8 -4 c 79 -38 5343 1813 l 0 53 5343 1760 l
53 -38 5343 1873 l 0 57 c 79 0 5343 1873 l 79 -38 5343 1964 l 0 53 5343 1911 l 4 -4 5415 1994 l 3 4 c -3 4 c -4 -4 c
0 -38 5343 2070 l 34 -4 c -4 4 c -4 11 c 0 11 c 4 12 c 8 7 c 11 4 c 8 0 c 11 -4 c 8 -7 c 3 -12 c 0 -11 c -3 -11 c -4 -4 c -8 -4 c
0 42 5343 2107 l 30 -23 c 0 12 c 4 7 c 4 4 c 11 4 c 8 0 c 11 -4 c 8 -8 c 3 -11 c 0 -11 c -3 -12 c -4 -3 c -8 -4 c 12 -4 5369 2225 l
7 -8 c 4 -11 c 0 -4 c -4 -11 c -7 -8 c -12 -4 c -3 0 c -12 4 c -7 8 c -4 11 c 0 4 c 4 11 c 7 8 c 15 4 c 19 0 c 19 -4 c 12 -8 c
3 -11 c 0 -8 c -3 -11 c -8 -4 c 0 -249 5645 1302 l 0 41 5601 1382 l 30 -22 c 0 11 c 4 8 c 4 3 c 11 4 c 8 0 c 11 -4 c 8 -7 c 3 -12 c
0 -11 c -3 -11 c -4 -4 c -8 -4 c 79 -38 5601 1503 l 0 53 5601 1450 l 53 -38 5601 1563 l 0 57 c 79 0 5601 1563 l 11 -4 5628 1650 l
7 -7 c 4 -12 c 0 -3 c -4 -12 c -7 -7 c -11 -4 c -4 0 c -12 4 c -7 7 c -4 12 c 0 3 c 4 12 c 7 7 c 16 4 c 18 0 c 19 -4 c 12 -7 c
3 -12 c 0 -7 c -3 -11 c -8 -4 c 4 -4 5673 1684 l 3 4 c -3 4 c -4 -4 c 4 -11 5601 1737 l 11 -8 c 19 -4 c 11 0 c 19 4 c 12 8 c 3 11 c
0 8 c -3 11 c -12 7 c -19 4 c -11 0 c -19 -4 c -11 -7 c -4 -11 c 0 -8 c 4 -11 5601 1809 l 7 -4 c 8 0 c 8 4 c 3 7 c 4 15 c 4 12 c
7 7 c 8 4 c 11 0 c 8 -4 c 4 -4 c 3 -11 c 0 -15 c -3 -11 c -4 -4 c -8 -4 c -11 0 c -8 4 c -7 7 c -4 12 c -4 15 c -3 7 c -8 4 c -8 0 c
-7 -4 c -4 -11 c 0 -15 c 53 -37 5601 1903 l 0 56 c 79 0 5601 1903 l 0 -250 5879 1371 l 0 42 5835 1450 l 30 -23 c 0 11 c 4 8 c 4 4 c
11 4 c 8 0 c 11 -4 c 8 -8 c 3 -11 c 0 -11 c -3 -12 c -4 -4 c -8 -3 c 79 -38 5835 1571 l 0 53 5835 1518 l 0 -38 5835 1639 l 34 -3 c
-4 3 c -3 12 c 0 11 c 3 11 c 8 8 c 11 4 c 8 0 c 11 -4 c 8 -8 c 3 -11 c 0 -11 c -3 -12 c -4 -3 c -8 -4 c 4 -11 5835 1692 l 11 -8 c
19 -4 c 11 0 c 19 4 c 12 8 c 3 11 c 0 8 c -3 11 c -12 8 c -19 3 c -11 0 c -19 -3 c -11 -8 c -4 -11 c 0 -8 c 4 -4 5907 1753 l 3 4 c
-3 3 c -4 -3 c 53 -38 5835 1821 l 0 56 c 79 0 5835 1821 l 11 -3 5862 1907 l 7 -8 c 4 -11 c 0 -4 c -4 -11 c -7 -8 c -11 -4 c -4 0 c
-12 4 c -7 8 c -4 11 c 0 4 c 4 11 c 7 8 c 16 3 c 18 0 c 19 -3 c 12 -8 c 3 -11 c 0 -8 c -3 -11 c -8 -4 c 53 -38 5835 1972 l 0 57 c
79 0 5835 1972 l 0 -249 5968 1616 l 0 41 5924 1696 l 30 -22 c 0 11 c 4 8 c 4 3 c 11 4 c 8 0 c 11 -4 c 8 -7 c 4 -12 c 0 -11 c
-4 -11 c -4 -4 c -8 -4 c 80 -38 5924 1817 l 0 53 5924 1764 l 0 -38 5924 1885 l 34 -4 c -4 4 c -3 11 c 0 12 c 3 11 c 8 8 c 11 3 c
8 0 c 11 -3 c 8 -8 c 4 -11 c 0 -12 c -4 -11 c -4 -4 c -8 -4 c -4 8 5939 1926 l -11 11 c 80 0 c 4 -4 5996 1998 l 4 4 c -4 4 c -4 -4 c
4 -11 5924 2051 l 11 -8 c 19 -4 c 11 0 c 19 4 c 12 8 c 4 11 c 0 8 c -4 11 c -12 7 c -19 4 c -11 0 c -19 -4 c -11 -7 c -4 -11 c
0 -8 c -4 0 5943 2108 l -7 4 c -4 3 c -4 8 c 0 15 c 4 8 c 4 3 c 7 4 c 8 0 c 7 -4 c 12 -7 c 38 -38 c 0 53 c -4 0 5943 2183 l -7 4 c
-4 4 c -4 7 c 0 16 c 4 7 c 4 4 c 7 4 c 8 0 c 7 -4 c 12 -8 c 38 -37 c 0 52 c 0 -249 6227 2219 l 0 42 6184 2298 l 30 -23 c 0 12 c
4 7 c 4 4 c 11 4 c 7 0 c 12 -4 c 7 -8 c 4 -11 c 0 -11 c -4 -12 c -3 -3 c -8 -4 c 79 -37 6184 2419 l 0 53 6184 2366 l
0 -37 6184 2487 l 34 -4 c -4 4 c -4 11 c 0 11 c 4 12 c 8 7 c 11 4 c 7 0 c 12 -4 c 7 -7 c 4 -12 c 0 -11 c -4 -11 c -3 -4 c -8 -4 c
-4 0 6203 2521 l -8 4 c -3 4 c -4 8 c 0 15 c 4 7 c 3 4 c 8 4 c 7 0 c 8 -4 c 11 -8 c 38 -37 c 0 53 c 3 -4 6256 2601 l 4 4 c -4 4 c
-3 -4 c 0 -37 6184 2676 l 34 -4 c -4 4 c -4 11 c 0 11 c 4 12 c 8 7 c 11 4 c 7 0 c 12 -4 c 7 -7 c 4 -12 c 0 -11 c -4 -11 c -3 -4 c
-8 -4 c 79 -38 6184 2760 l 0 53 6184 2707 l 4 -11 6184 2805 l 11 -8 c 19 -4 c 11 0 c 19 4 c 11 8 c 4 11 c 0 7 c -4 12 c -11 7 c
-19 4 c -11 0 c -19 -4 c -11 -7 c -4 -12 c 0 -7 c 0 -250 6569 2355 l 0 42 6525 2434 l 31 -23 c 0 11 c 3 8 c 4 4 c 12 3 c 7 0 c
11 -3 c 8 -8 c 4 -11 c 0 -12 c -4 -11 c -4 -4 c -7 -4 c 80 -38 6525 2555 l 0 53 6525 2502 l 0 -38 6525 2623 l 34 -4 c -3 4 c -4 12 c
0 11 c 4 11 c 7 8 c 12 4 c 7 0 c 11 -4 c 8 -8 c 4 -11 c 0 -11 c -4 -12 c -4 -4 c -7 -3 c 53 -38 6525 2691 l 0 57 c 80 0 6525 2691 l
4 -3 6597 2736 l 4 3 c -4 4 c -4 -4 c 0 -38 6525 2812 l 34 -4 c -3 4 c -4 12 c 0 11 c 4 11 c 7 8 c 12 4 c 7 0 c 11 -4 c 8 -8 c
4 -11 c 0 -11 c -4 -12 c -4 -4 c -7 -3 c 11 -3 6552 2891 l 8 -8 c 4 -11 c 0 -4 c -4 -11 c -8 -8 c -11 -4 c -4 0 c -11 4 c -8 8 c
-4 11 c 0 4 c 4 11 c 8 8 c 15 3 c 19 0 c 19 -3 c 11 -8 c 4 -11 c 0 -8 c -4 -11 c -8 -4 c 0 42 6525 2925 l 31 -23 c 0 12 c 3 7 c
4 4 c 12 4 c 7 0 c 11 -4 c 8 -8 c 4 -11 c 0 -11 c -4 -12 c -4 -3 c -7 -4 c 0 -249 6674 1365 l 0 41 6630 1445 l 31 -22 c 0 11 c 3 8 c
4 3 c 11 4 c 8 0 c 11 -4 c 8 -7 c 4 -12 c 0 -11 c -4 -11 c -4 -4 c -7 -4 c 80 -38 6630 1566 l 0 53 6630 1513 l 0 -38 6630 1634 l
34 -4 c -3 4 c -4 11 c 0 12 c 4 11 c 7 8 c 11 3 c 8 0 c 11 -3 c 8 -8 c 4 -11 c 0 -12 c -4 -11 c -4 -4 c -7 -4 c 0 -37 6630 1709 l
34 -4 c -3 4 c -4 11 c 0 11 c 4 12 c 7 7 c 11 4 c 8 0 c 11 -4 c 8 -7 c 4 -12 c 0 -11 c -4 -11 c -4 -4 c -7 -4 c 4 -4 6702 1747 l
4 4 c -4 4 c -4 -4 c -4 0 6649 1781 l -7 4 c -4 4 c -4 7 c 0 15 c 4 8 c 4 4 c 7 4 c 8 0 c 8 -4 c 11 -8 c 38 -38 c 0 53 c
-3 8 6645 1864 l -12 11 c 80 0 c -4 0 6649 1932 l -7 4 c -4 4 c -4 7 c 0 16 c 4 7 c 4 4 c 7 4 c 8 0 c 8 -4 c 11 -8 c 38 -37 c 0 52 c
0 -250 6858 1319 l 0 42 6814 1398 l 31 -23 c 0 11 c 3 8 c 4 4 c 12 3 c 7 0 c 12 -3 c 7 -8 c 4 -11 c 0 -12 c -4 -11 c -4 -4 c -7 -3 c
80 -38 6814 1519 l 0 53 6814 1466 l 0 -38 6814 1587 l 34 -3 c -3 3 c -4 12 c 0 11 c 4 11 c 7 8 c 12 4 c 7 0 c 12 -4 c 7 -8 c 4 -11 c
0 -11 c -4 -12 c -4 -3 c -7 -4 c -8 -3 6826 1666 l -4 -12 c 0 -7 c 4 -12 c 12 -7 c 18 -4 c 19 0 c 16 4 c 7 7 c 4 12 c 0 4 c -4 11 c
-7 7 c -12 4 c -4 0 c -11 -4 c -8 -7 c -3 -11 c 0 -4 c 3 -12 c 8 -7 c 11 -4 c 4 -3 6886 1700 l 4 3 c -4 4 c -4 -4 c -3 0 6833 1734 l
-8 4 c -4 4 c -4 8 c 0 15 c 4 7 c 4 4 c 8 4 c 7 0 c 8 -4 c 11 -7 c 38 -38 c 0 53 c 11 -3 6841 1855 l 8 -8 c 4 -11 c 0 -4 c -4 -11 c
-8 -8 c -11 -4 c -4 0 c -11 4 c -8 8 c -4 11 c 0 4 c 4 11 c 8 8 c 15 3 c 19 0 c 19 -3 c 11 -8 c 4 -11 c 0 -8 c -4 -11 c -7 -4 c
53 -38 6814 1920 l 0 57 c 80 0 6814 1920 l 0 -250 7096 1406 l 0 42 7053 1485 l 30 -23 c 0 11 c 4 8 c 3 4 c 12 3 c 7 0 c 12 -3 c
7 -8 c 4 -11 c 0 -12 c -4 -11 c -4 -4 c -7 -4 c 79 -38 7053 1606 l 0 53 7053 1553 l 0 -38 7053 1674 l 34 -4 c -4 4 c -4 12 c 0 11 c
4 11 c 7 8 c 12 4 c 7 0 c 12 -4 c 7 -8 c 4 -11 c 0 -11 c -4 -12 c -4 -4 c -7 -3 c 79 -38 7053 1757 l 0 53 7053 1704 l
4 -3 7124 1787 l 4 3 c -4 4 c -4 -4 c -8 -4 7064 1867 l -3 -11 c 0 -8 c 3 -11 c 12 -8 c 19 -4 c 19 0 c 15 4 c 7 8 c 4 11 c 0 4 c
-4 11 c -7 8 c -12 4 c -3 0 c -12 -4 c -7 -8 c -4 -11 c 0 -4 c 4 -11 c 7 -8 c 12 -4 c 11 -3 7079 1942 l 8 -8 c 4 -11 c 0 -4 c
-4 -11 c -8 -8 c -11 -4 c -4 0 c -11 4 c -8 8 c -3 11 c 0 4 c 3 11 c 8 8 c 15 3 c 19 0 c 19 -3 c 11 -8 c 4 -11 c 0 -8 c -4 -11 c
-7 -4 c 53 -38 7053 2007 l 0 57 c 79 0 7053 2007 l 0 -250 7228 1713 l 0 41 7185 1792 l 30 -22 c 0 11 c 4 8 c 3 3 c 12 4 c 7 0 c
12 -4 c 7 -7 c 4 -11 c 0 -12 c -4 -11 c -4 -4 c -7 -4 c 79 -38 7185 1913 l 0 53 7185 1860 l 0 -38 7185 1981 l 34 -4 c -4 4 c -4 11 c
0 12 c 4 11 c 7 8 c 12 3 c 7 0 c 12 -3 c 7 -8 c 4 -11 c 0 -12 c -4 -11 c -4 -4 c -7 -3 c 3 -11 7185 2030 l 8 -4 c 8 0 c 7 4 c 4 7 c
4 15 c 3 12 c 8 7 c 8 4 c 11 0 c 7 -4 c 4 -4 c 4 -11 c 0 -15 c -4 -11 c -4 -4 c -7 -4 c -11 0 c -8 4 c -8 7 c -3 12 c -4 15 c -4 7 c
-7 4 c -8 0 c -8 -4 c -3 -11 c 0 -15 c 4 -4 7256 2094 l 4 4 c -4 4 c -4 -4 c 53 -38 7185 2162 l 0 57 c 79 0 7185 2162 l
-8 -4 7196 2249 l -3 -11 c 0 -7 c 3 -12 c 12 -7 c 19 -4 c 19 0 c 15 4 c 7 7 c 4 12 c 0 3 c -4 12 c -7 7 c -12 4 c -3 0 c -12 -4 c
-7 -7 c -4 -12 c 0 -3 c 4 -12 c 7 -7 c 12 -4 c 79 -38 7185 2329 l 0 53 7185 2276 l 0 -249 8098 1468 l 0 41 8054 1548 l 30 -23 c
0 12 c 4 7 c 4 4 c 11 4 c 8 0 c 11 -4 c 8 -7 c 3 -12 c 0 -11 c -3 -11 c -4 -4 c -8 -4 c 79 -37 8054 1668 l 0 52 8054 1616 l
-7 -4 8065 1740 l -4 -11 c 0 -7 c 4 -12 c 11 -7 c 19 -4 c 19 0 c 15 4 c 8 7 c 3 12 c 0 3 c -3 12 c -8 7 c -11 4 c -4 0 c -11 -4 c
-8 -7 c -4 -12 c 0 -3 c 4 -12 c 8 -7 c 11 -4 c 0 42 8054 1774 l 30 -23 c 0 12 c 4 7 c 4 4 c 11 4 c 8 0 c 11 -4 c 8 -8 c 3 -11 c
0 -11 c -3 -12 c -4 -3 c -8 -4 c 4 -4 8126 1850 l 3 4 c -3 4 c -4 -4 c 0 -37 8054 1925 l 34 -4 c -4 4 c -4 11 c 0 11 c 4 12 c 8 7 c
11 4 c 8 0 c 11 -4 c 8 -7 c 3 -12 c 0 -11 c -3 -11 c -4 -4 c -8 -4 c 4 -11 8054 1978 l 11 -8 c 19 -3 c 11 0 c 19 3 c 12 8 c 3 11 c
0 8 c -3 11 c -12 8 c -19 4 c -11 0 c -19 -4 c -11 -8 c -4 -11 c 0 -8 c 0 -38 8054 2077 l 34 -4 c -4 4 c -4 11 c 0 12 c 4 11 c 8 7 c
11 4 c 8 0 c 11 -4 c 8 -7 c 3 -11 c 0 -12 c -3 -11 c -4 -4 c -8 -4 c 0 -249 8405 5158 l 0 41 8361 5238 l 30 -23 c 0 12 c 4 7 c 4 4 c
11 4 c 8 0 c 11 -4 c 8 -7 c 3 -12 c 0 -11 c -3 -11 c -4 -4 c -8 -4 c 79 -38 8361 5359 l 0 53 8361 5306 l -7 -3 8372 5430 l -4 -12 c
0 -7 c 4 -12 c 11 -7 c 19 -4 c 19 0 c 15 4 c 8 7 c 3 12 c 0 3 c -3 12 c -8 7 c -11 4 c -4 0 c -11 -4 c -8 -7 c -4 -12 c 0 -3 c
4 -12 c 8 -7 c 11 -4 c 0 -38 8361 5502 l 34 -3 c -4 3 c -4 12 c 0 11 c 4 11 c 8 8 c 11 4 c 8 0 c 11 -4 c 8 -8 c 3 -11 c 0 -11 c
-3 -12 c -4 -3 c -8 -4 c 4 -4 8433 5540 l 3 4 c -3 4 c -4 -4 c -4 0 8380 5574 l -7 4 c -4 4 c -4 7 c 0 15 c 4 8 c 4 4 c 7 3 c 8 0 c
7 -3 c 12 -8 c 37 -38 c 0 53 c 79 -38 8361 5699 l 0 53 8361 5646 l 4 -11 8361 5744 l 11 -8 c 19 -4 c 11 0 c 19 4 c 12 8 c 3 11 c
0 8 c -3 11 c -12 7 c -19 4 c -11 0 c -19 -4 c -11 -7 c -4 -11 c 0 -8 c 0 -249 8553 2431 l 0 41 8510 2511 l 30 -23 c 0 12 c 4 7 c
3 4 c 12 4 c 7 0 c 12 -4 c 7 -7 c 4 -12 c 0 -11 c -4 -11 c -4 -4 c -7 -4 c 79 -37 8510 2631 l 0 52 8510 2579 l -8 -4 8521 2703 l
-3 -11 c 0 -7 c 3 -12 c 12 -7 c 19 -4 c 18 0 c 16 4 c 7 7 c 4 12 c 0 3 c -4 12 c -7 7 c -12 4 c -4 0 c -11 -4 c -7 -7 c -4 -12 c
0 -3 c 4 -12 c 7 -7 c 11 -4 c -8 -4 8521 2779 l -3 -11 c 0 -8 c 3 -11 c 12 -8 c 19 -3 c 18 0 c 16 3 c 7 8 c 4 11 c 0 4 c -4 11 c
-7 8 c -12 4 c -4 0 c -11 -4 c -7 -8 c -4 -11 c 0 -4 c 4 -11 c 7 -8 c 11 -3 c 4 -4 8581 2813 l 4 4 c -4 4 c -4 -4 c -4 8 8525 2854 l
-11 11 c 79 0 c -4 8 8525 2930 l -11 11 c 79 0 c 11 -3 8536 3043 l 8 -8 c 4 -11 c 0 -4 c -4 -11 c -8 -8 c -11 -4 c -4 0 c -11 4 c
-8 8 c -3 11 c 0 4 c 3 11 c 8 8 c 15 3 c 19 0 c 19 -3 c 11 -8 c 4 -11 c 0 -8 c -4 -11 c -7 -4 c 0 -249 8866 1494 l 0 41 8823 1574 l
30 -23 c 0 12 c 4 7 c 3 4 c 12 4 c 7 0 c 12 -4 c 7 -7 c 4 -12 c 0 -11 c -4 -11 c -4 -4 c -7 -4 c 79 -38 8823 1695 l 0 53 8823 1642 l
-8 -3 8834 1766 l -3 -12 c 0 -7 c 3 -12 c 12 -7 c 19 -4 c 18 0 c 16 4 c 7 7 c 4 12 c 0 3 c -4 12 c -7 7 c -12 4 c -4 0 c -11 -4 c
-7 -7 c -4 -12 c 0 -3 c 4 -12 c 7 -7 c 11 -4 c 79 -38 8823 1846 l 0 53 8823 1793 l 4 -4 8894 1876 l 4 4 c -4 4 c -4 -4 c
11 -3 8849 1955 l 8 -8 c 4 -11 c 0 -4 c -4 -11 c -8 -8 c -11 -4 c -4 0 c -11 4 c -8 8 c -3 11 c 0 4 c 3 11 c 8 8 c 15 3 c 19 0 c
19 -3 c 11 -8 c 4 -11 c 0 -8 c -4 -11 c -7 -4 c 3 -11 8823 2004 l 12 -7 c 19 -4 c 11 0 c 19 4 c 11 7 c 4 11 c 0 8 c -4 11 c -11 8 c
-19 4 c -11 0 c -19 -4 c -12 -8 c -3 -11 c 0 -8 c -4 7 8838 2069 l -11 12 c 79 0 c 0 -250 9248 1490 l 0 42 9204 1569 l 30 -23 c
0 12 c 4 7 c 4 4 c 11 4 c 8 0 c 11 -4 c 8 -8 c 3 -11 c 0 -11 c -3 -12 c -4 -3 c -8 -4 c 79 -37 9204 1690 l 0 53 9204 1637 l
79 -38 9204 1766 l 0 53 9204 1713 l 4 -11 9204 1811 l 11 -8 c 19 -3 c 11 0 c 19 3 c 12 8 c 3 11 c 0 8 c -3 11 c -12 8 c -19 4 c
-11 0 c -19 -4 c -11 -8 c -4 -11 c 0 -8 c 4 -4 9276 1872 l 3 4 c -3 4 c -4 -4 c 4 -12 9204 1925 l 11 -7 c 19 -4 c 11 0 c 19 4 c
12 7 c 3 12 c 0 7 c -3 12 c -12 7 c -19 4 c -11 0 c -19 -4 c -11 -7 c -4 -12 c 0 -7 c 0 -38 9204 2023 l 34 -4 c -4 4 c -4 11 c
0 12 c 4 11 c 8 8 c 11 3 c 8 0 c 11 -3 c 8 -8 c 3 -11 c 0 -12 c -3 -11 c -4 -4 c -8 -3 c -7 -3 9215 2102 l -4 -12 c 0 -7 c 4 -12 c
11 -7 c 19 -4 c 19 0 c 15 4 c 8 7 c 3 12 c 0 3 c -3 12 c -8 7 c -11 4 c -4 0 c -11 -4 c -8 -7 c -4 -12 c 0 -3 c 4 -12 c 8 -7 c
11 -4 c 0 -250 9482 3498 l 0 42 9438 3577 l 30 -23 c 0 12 c 4 7 c 4 4 c 11 4 c 8 0 c 11 -4 c 8 -8 c 3 -11 c 0 -11 c -3 -12 c -4 -4 c
-8 -3 c 79 -38 9438 3698 l 0 53 9438 3645 l 79 -38 9438 3774 l 0 53 9438 3721 l -4 7 9453 3808 l -11 12 c 79 0 c 4 -4 9510 3880 l
3 4 c -3 3 c -4 -3 c 0 42 9438 3917 l 30 -23 c 0 12 c 4 7 c 4 4 c 11 4 c 8 0 c 11 -4 c 8 -8 c 3 -11 c 0 -11 c -3 -12 c -4 -3 c
-8 -4 c 79 -37 9438 4038 l 0 53 9438 3985 l -4 8 9453 4072 l -11 11 c 79 0 c
showpage PGPLOT restore
 
%%Trailer
%%DocumentFonts: 
%%Pages: 1
%%EOF
