%!PS-Adobe-3.0 EPSF-3.0
%%For: tab
%%Title: PGPLOT PostScript plot
%%Creator: PGPLOT
%%CreationDate: 20-Apr-1995 16:27
%%BoundingBox: 25 18 587 774
%%DocumentFonts: (atend)
%%LanguageLevel: 1
%%Orientation: Landscape
%%Pages: (atend)
%%EndComments
%%BeginProlog
/l {moveto rlineto currentpoint stroke moveto} bind def
/c {rlineto currentpoint stroke moveto} bind def
/d {moveto 0 0 rlineto currentpoint stroke moveto} bind def
/SLW {5 mul setlinewidth} bind def
/SCF /pop load def
/BP {newpath moveto} bind def
/LP /rlineto load def
/EP {rlineto closepath eofill} bind def
/MB {gsave translate MFAC dup scale 1 setlinewidth 2 setlinecap 0 setlinejoin newpath} bind def
/ME /grestore load def
/C {0 360 arc stroke} bind def
/FC {0 360 arc fill} bind def
%%EndProlog
 
%%Page: 1 1
%%BeginPageSetup
/PGPLOT save def
0.072 0.072 scale
8150 250 translate 90 rotate
1 setlinejoin 1 setlinecap 1 SLW 1 SCF
%%EndPageSetup
0.000 setgray 1 SLW 8939 0 780 780 l 0 6239 c -8939 0 c 0 -6239 c 0 -45 1116 780 l 0 -45 1554 780 l 0 -45 1991 780 l
0 -45 2428 780 l 0 -90 2865 780 l 0 -45 3302 780 l 0 -45 3739 780 l 0 -45 4176 780 l 0 -45 4613 780 l 0 -90 5051 780 l
0 -45 5488 780 l 0 -45 5925 780 l 0 -45 6362 780 l 0 -45 6799 780 l 0 -90 7236 780 l 0 -45 7673 780 l 0 -45 8110 780 l
0 -45 8548 780 l 0 -45 8985 780 l 0 -90 9422 780 l 0 -45 1116 7064 l 0 -45 1554 7064 l 0 -45 1991 7064 l 0 -45 2428 7064 l
0 -90 2865 7109 l 0 -45 3302 7064 l 0 -45 3739 7064 l 0 -45 4176 7064 l 0 -45 4613 7064 l 0 -90 5051 7109 l 0 -45 5488 7064 l
0 -45 5925 7064 l 0 -45 6362 7064 l 0 -45 6799 7064 l 0 -90 7236 7109 l 0 -45 7673 7064 l 0 -45 8110 7064 l 0 -45 8548 7064 l
0 -45 8985 7064 l 0 -90 9422 7109 l -60 0 2775 672 l -6 -54 c 6 6 c 18 6 c 18 0 c 18 -6 c 12 -12 c 6 -18 c 0 -12 c -6 -18 c
-12 -12 c -18 -6 c -18 0 c -18 6 c -6 6 c -6 12 c -18 -6 2859 672 l -12 -18 c -6 -30 c 0 -18 c 6 -30 c 12 -18 c 18 -6 c 12 0 c
18 6 c 12 18 c 6 30 c 0 18 c -6 30 c -12 18 c -18 6 c -12 0 c -18 -6 2979 672 l -12 -18 c -6 -30 c 0 -18 c 6 -30 c 12 -18 c 18 -6 c
12 0 c 18 6 c 12 18 c 6 30 c 0 18 c -6 30 c -12 18 c -18 6 c -12 0 c 12 6 4847 648 l 18 18 c 0 -126 c -18 -6 4985 672 l -12 -18 c
-6 -30 c 0 -18 c 6 -30 c 12 -18 c 18 -6 c 12 0 c 18 6 c 12 18 c 6 30 c 0 18 c -6 30 c -12 18 c -18 6 c -12 0 c -18 -6 5105 672 l
-12 -18 c -6 -30 c 0 -18 c 6 -30 c 12 -18 c 18 -6 c 12 0 c 18 6 c 12 18 c 6 30 c 0 18 c -6 30 c -12 18 c -18 6 c -12 0 c
-18 -6 5225 672 l -12 -18 c -6 -30 c 0 -18 c 6 -30 c 12 -18 c 18 -6 c 12 0 c 18 6 c 12 18 c 6 30 c 0 18 c -6 30 c -12 18 c -18 6 c
-12 0 c 12 6 7032 648 l 18 18 c 0 -126 c -60 0 7206 672 l -6 -54 c 6 6 c 18 6 c 18 0 c 18 -6 c 12 -12 c 6 -18 c 0 -12 c -6 -18 c
-12 -12 c -18 -6 c -18 0 c -18 6 c -6 6 c -6 12 c -18 -6 7290 672 l -12 -18 c -6 -30 c 0 -18 c 6 -30 c 12 -18 c 18 -6 c 12 0 c
18 6 c 12 18 c 6 30 c 0 18 c -6 30 c -12 18 c -18 6 c -12 0 c -18 -6 7410 672 l -12 -18 c -6 -30 c 0 -18 c 6 -30 c 12 -18 c 18 -6 c
12 0 c 18 6 c 12 18 c 6 30 c 0 18 c -6 30 c -12 18 c -18 6 c -12 0 c 0 6 9206 642 l 6 12 c 6 6 c 12 6 c 24 0 c 12 -6 c 6 -6 c
6 -12 c 0 -12 c -6 -12 c -12 -18 c -60 -60 c 84 0 c -18 -6 9356 672 l -12 -18 c -6 -30 c 0 -18 c 6 -30 c 12 -18 c 18 -6 c 12 0 c
18 6 c 12 18 c 6 30 c 0 18 c -6 30 c -12 18 c -18 6 c -12 0 c -18 -6 9476 672 l -12 -18 c -6 -30 c 0 -18 c 6 -30 c 12 -18 c 18 -6 c
12 0 c 18 6 c 12 18 c 6 30 c 0 18 c -6 30 c -12 18 c -18 6 c -12 0 c -18 -6 9596 672 l -12 -18 c -6 -30 c 0 -18 c 6 -30 c 12 -18 c
18 -6 c 12 0 c 18 6 c 12 18 c 6 30 c 0 18 c -6 30 c -12 18 c -18 6 c -12 0 c -90 0 780 780 l -45 0 780 1148 l -45 0 780 1517 l
-45 0 780 1886 l -45 0 780 2254 l -90 0 780 2623 l -45 0 780 2991 l -45 0 780 3360 l -45 0 780 3729 l -45 0 780 4097 l
-90 0 780 4466 l -45 0 780 4834 l -45 0 780 5203 l -45 0 780 5571 l -45 0 780 5940 l -90 0 780 6309 l -45 0 780 6677 l
-90 0 9809 780 l -45 0 9764 1148 l -45 0 9764 1517 l -45 0 9764 1886 l -45 0 9764 2254 l -90 0 9809 2623 l -45 0 9764 2991 l
-45 0 9764 3360 l -45 0 9764 3729 l -45 0 9764 4097 l -90 0 9809 4466 l -45 0 9764 4834 l -45 0 9764 5203 l -45 0 9764 5571 l
-45 0 9764 5940 l -90 0 9809 6309 l -45 0 9764 6677 l 6 -18 517 774 l 18 -12 c 30 -6 c 18 0 c 30 6 c 18 12 c 6 18 c 0 12 c -6 18 c
-18 12 c -30 6 c -18 0 c -30 -6 c -18 -12 c -6 -18 c 0 -12 c -6 12 541 2419 l -18 18 c 126 0 c 6 -18 517 2557 l 18 -12 c 30 -6 c
18 0 c 30 6 c 18 12 c 6 18 c 0 12 c -6 18 c -18 12 c -30 6 c -18 0 c -30 -6 c -18 -12 c -6 -18 c 0 -12 c 6 -18 517 2677 l 18 -12 c
30 -6 c 18 0 c 30 6 c 18 12 c 6 18 c 0 12 c -6 18 c -18 12 c -30 6 c -18 0 c -30 -6 c -18 -12 c -6 -18 c 0 -12 c 6 -18 517 2797 l
18 -12 c 30 -6 c 18 0 c 30 6 c 18 12 c 6 18 c 0 12 c -6 18 c -18 12 c -30 6 c -18 0 c -30 -6 c -18 -12 c -6 -18 c 0 -12 c
-6 0 547 4250 l -12 6 c -6 6 c -6 12 c 0 24 c 6 12 c 6 6 c 12 6 c 12 0 c 12 -6 c 18 -12 c 60 -60 c 0 84 c 6 -18 517 4400 l 18 -12 c
30 -6 c 18 0 c 30 6 c 18 12 c 6 18 c 0 12 c -6 18 c -18 12 c -30 6 c -18 0 c -30 -6 c -18 -12 c -6 -18 c 0 -12 c 6 -18 517 4520 l
18 -12 c 30 -6 c 18 0 c 30 6 c 18 12 c 6 18 c 0 12 c -6 18 c -18 12 c -30 6 c -18 0 c -30 -6 c -18 -12 c -6 -18 c 0 -12 c
6 -18 517 4640 l 18 -12 c 30 -6 c 18 0 c 30 6 c 18 12 c 6 18 c 0 12 c -6 18 c -18 12 c -30 6 c -18 0 c -30 -6 c -18 -12 c -6 -18 c
0 -12 c 0 66 517 6099 l 48 -36 c 0 18 c 6 12 c 6 6 c 18 6 c 12 0 c 18 -6 c 12 -12 c 6 -18 c 0 -18 c -6 -18 c -6 -6 c -12 -6 c
6 -18 517 6243 l 18 -12 c 30 -6 c 18 0 c 30 6 c 18 12 c 6 18 c 0 12 c -6 18 c -18 12 c -30 6 c -18 0 c -30 -6 c -18 -12 c -6 -18 c
0 -12 c 6 -18 517 6363 l 18 -12 c 30 -6 c 18 0 c 30 6 c 18 12 c 6 18 c 0 12 c -6 18 c -18 12 c -30 6 c -18 0 c -30 -6 c -18 -12 c
-6 -18 c 0 -12 c 6 -18 517 6483 l 18 -12 c 30 -6 c 18 0 c 30 6 c 18 12 c 6 18 c 0 12 c -6 18 c -18 12 c -30 6 c -18 0 c -30 -6 c
-18 -12 c -6 -18 c 0 -12 c
4 0 780 780 l 5 0 c 4 0 c 4 0 c 5 0 c 4 0 c 4 0 c 5 0 c 4 0 c 5 0 c 4 0 c 4 0 c 5 0 c 4 0 c 4 0 c 5 0 c 4 0 c 5 0 c 4 0 c 4 0 c
5 0 c 4 0 c 4 0 c 5 0 c 4 0 c 5 0 c 4 0 c 4 0 c 5 0 c 4 0 c 4 0 c 5 0 c 4 0 c 5 0 c 4 0 c 4 0 c 5 0 c 4 0 c 4 0 c 5 0 c 4 0 c 4 0 c
5 0 c 4 0 c 5 0 c 4 0 c 4 0 c 5 0 c 4 0 c 4 0 c 5 0 c 4 0 c 5 0 c 4 0 c 4 0 c 5 0 c 4 0 c 4 0 c 5 0 c 4 0 c 5 0 c 4 0 c 4 0 c 5 0 c
4 0 c 4 0 c 5 0 c 4 0 c 5 0 c 4 0 c 4 0 c 5 0 c 4 0 c 4 0 c 5 0 c 4 0 c 4 0 c 5 0 c 4 0 c 5 0 c 4 0 c 4 0 c 5 0 c 4 0 c 4 0 c 5 0 c
4 0 c 5 0 c 4 0 c 4 0 c 5 0 c 4 0 c 4 0 c 5 0 c 4 0 c 5 0 c 4 0 c 4 0 c 5 0 c 4 0 c 4 0 c 5 0 c 4 0 c 5 0 c 4 0 c 4 0 c 5 0 c 4 0 c
4 0 c 5 0 c 4 0 c 4 0 c 5 0 c 4 0 c 5 0 c 4 0 c 4 0 c 5 0 c 4 0 c 4 0 c 5 0 c 4 0 c 5 0 c 4 0 c 4 0 c 5 0 c 4 0 c 4 0 c 5 0 c 4 0 c
5 0 c 4 65 c 4 -22 c 5 0 c 4 7 c 4 -1 c 5 -6 c 4 4 c 5 0 c 4 -6 c 4 4 c 5 0 c 4 -3 c 4 1 c 5 6 c 4 9 c 4 10 c 5 10 c 4 5 c 5 -19 c
4 -15 c 4 0 c 5 1 c 4 3 c 4 -4 c 5 -1 c 4 -3 c 5 2 c 4 6 c 4 1 c 5 -6 c 4 2 c 4 -1 c 5 -1 c 4 0 c 5 -8 c 4 8 c 4 -3 c 5 13 c 4 3 c
4 -3 c 5 1 c 4 -11 c 4 -1 c 5 -3 c 4 5 c 5 -5 c 4 4 c 4 -2 c 5 -3 c 4 4 c 4 -3 c 5 6 c 4 9 c 5 18 c 4 11 c 4 1 c 5 -2 c 4 -11 c
4 -14 c 5 -11 c 4 -5 c 5 1 c 4 4 c 4 13 c 5 17 c 4 28 c 4 52 c 5 15 c 4 -54 c 5 -57 c 4 -10 c 4 16 c 5 18 c 4 56 c 4 3 c 5 -24 c
4 -51 c 4 -17 c 5 0 c 4 0 c 5 -5 c 4 1 c 4 6 c 5 18 c 4 54 c 4 144 c 5 107 c 4 -67 c 5 -187 c 4 -68 c 4 -6 c 5 3 c 4 21 c 4 43 c
5 165 c 4 120 c 5 -53 c 4 -192 c 4 -101 c 5 -11 c 4 2 c 4 4 c 5 11 c 4 1 c 5 -1 c 4 -12 c 4 1 c 5 -9 c 4 3 c 4 3 c 5 12 c 4 2 c
4 -3 c 5 -8 c 4 -6 c 5 -2 c 4 8 c 4 -2 c 5 -3 c 4 6 c 4 2 c 5 4 c 4 16 c 5 42 c 4 128 c 4 305 c 5 123 c 4 -201 c 4 -327 c 5 -83 c
4 -12 c 5 1 c 4 1 c 4 -2 c 5 -2 c 4 10 c 4 -6 c 5 4 c 4 -7 c 5 -1 c 4 13 c 4 17 c 5 57 c 4 140 c 4 35 c 5 -58 c 4 -59 c 4 43 c
5 -19 c 4 -88 c 5 -68 c 4 -9 c 4 2 c 5 -1 c 4 -2 c 4 -4 c 5 3 c 4 -2 c 5 5 c 4 2 c 4 8 c 5 6 c 4 -6 c 4 -9 c 5 -1 c 4 1 c 5 1 c
4 0 c 4 6 c 5 17 c 4 3 c 4 -4 c 5 -11 c 4 -6 c 5 -7 c 4 -1 c 4 -6 c 5 1 c 4 -3 c 4 14 c 5 14 c 4 69 c 4 29 c 5 -26 c 4 -50 c 5 44 c
4 88 c 4 -2 c 5 -68 c 4 -81 c 4 -10 c 5 -2 c 4 -13 c 5 0 c 4 -5 c 4 2 c 5 5 c 4 -2 c 4 -1 c 5 3 c 4 6 c 5 -5 c 4 4 c 4 -2 c 5 2 c
4 -5 c 4 2 c 5 4 c 4 9 c 4 1 c 5 5 c 4 30 c 5 12 c 4 -16 c 4 -41 c 5 -9 c 4 0 c 4 -1 c 5 2 c 4 0 c 5 3 c 4 10 c 4 0 c 5 -9 c 4 10 c
4 -3 c 5 -9 c 4 1 c 5 1 c 4 -3 c 4 3 c 5 23 c 4 68 c 4 282 c 5 173 c 4 -84 c 5 -323 c 4 -114 c 4 -17 c 5 -11 c 4 3 c 4 -1 c 5 5 c
4 -7 c 4 -5 c 5 22 c 4 37 c 5 108 c 4 35 c 4 -59 c 5 -121 c 4 -18 c 4 6 c 5 -4 c 4 -4 c 5 2 c 4 -2 c 4 0 c 5 5 c 4 -6 c 4 1 c 5 1 c
4 -2 c 5 7 c 4 -3 c 4 -1 c 5 0 c 4 4 c 4 -2 c 5 2 c 4 -5 c 5 1 c 4 -4 c 4 8 c 5 0 c 4 -3 c 4 1 c 5 3 c 4 -5 c 4 8 c 5 -4 c 4 -2 c
5 -5 c 4 3 c 4 1 c 5 1 c 4 16 c 4 12 c 5 3 c 4 -15 c 5 -11 c 4 -3 c 4 -4 c 5 1 c 4 -3 c 4 -1 c 5 1 c 4 1 c 5 -1 c 4 6 c 4 10 c
5 -2 c 4 -7 c 4 -1 c 5 -8 c 4 2 c 5 -2 c 4 2 c 4 3 c 5 -5 c 4 3 c 4 5 c 5 0 c 4 1 c 4 3 c 5 -8 c 4 6 c 5 3 c 4 46 c 4 72 c 5 12 c
4 -57 c 4 -68 c 5 3 c 4 8 c 5 -8 c 4 -6 c 4 -4 c 5 -8 c 4 3 c 4 -2 c 5 2 c 4 3 c 5 2 c 4 -4 c 4 1 c 5 4 c 4 -4 c 4 0 c 5 4 c 4 6 c
5 -2 c 4 -2 c 4 37 c 5 40 c 4 7 c 4 -47 c 5 -14 c 4 112 c 4 459 c 5 286 c 4 -137 c 5 -474 c 4 -225 c 4 -30 c 5 -11 c 4 -4 c 4 1 c
5 -5 c 4 -4 c 5 -3 c 4 10 c 4 -7 c 5 3 c 4 1 c 4 -6 c 5 3 c 4 -3 c 5 6 c 4 10 c 4 9 c 5 -9 c 4 -11 c 4 5 c 5 1 c 4 -7 c 4 -1 c
5 28 c 4 57 c 5 45 c 4 -24 c 4 -55 c 5 -34 c 4 14 c 4 56 c 5 -1 c 4 -34 c 5 -36 c 4 -15 c 4 2 c 5 -1 c 4 0 c 4 8 c 5 -5 c 4 2 c
5 3 c 4 2 c 4 -4 c 5 -1 c 4 -4 c 4 -1 c 5 56 c 4 360 c 5 301 c 4 -73 c 4 -420 c 5 -199 c 4 -9 c 4 -2 c 5 -9 c 4 -3 c 4 -2 c 5 -2 c
4 -1 c 5 -2 c 4 13 c 4 17 c 5 6 c 4 -13 c 4 -20 c 5 -2 c 4 3 c 5 3 c 4 4 c 4 2 c 5 0 c 4 -3 c 4 -10 c 5 2 c 4 -1 c 5 -2 c 4 0 c
4 15 c 5 3 c 4 3 c 4 0 c 5 -6 c 4 8 c 5 39 c 4 26 c 4 -22 c 5 -35 c 4 -15 c 4 -6 c 5 -2 c 4 3 c 4 0 c 5 -3 c 4 3 c 5 8 c 4 -8 c
4 -2 c 5 16 c 4 123 c 4 342 c 5 74 c 4 -138 c 5 -346 c 4 -69 c 4 49 c 5 152 c 4 69 c 4 -63 c 5 -167 c 4 -41 c 5 0 c 4 2 c 4 -3 c
5 5 c 4 -6 c 4 3 c 5 3 c 4 2 c 5 4 c 4 17 c 4 6 c 5 -9 c 4 -22 c 4 -8 c 5 -3 c 4 8 c 4 65 c 5 207 c 4 101 c 5 -99 c 4 -206 c 4 -49 c
5 3 c 4 -12 c 4 -14 c 5 1 c 4 2 c 5 5 c 4 -1 c 4 2 c 5 -4 c 4 -1 c 4 0 c 5 3 c 4 6 c 5 -2 c 4 0 c 4 -3 c 5 3 c 4 1 c 4 -2 c 5 14 c
4 72 c 4 468 c 5 494 c 4 -22 c 5 -456 c 4 546 c 4 3153 c 5 1467 c 4 -1344 c 4 -3302 c 5 -1026 c 4 -33 c 5 -10 c 4 -6 c 4 -1 c
5 -12 c 4 0 c 4 -5 c 5 2 c 4 4 c 5 -2 c 4 3 c 4 -4 c 5 9 c 4 17 c 4 15 c 5 -11 c 4 -12 c 5 -18 c 4 2 c 4 -3 c 5 6 c 4 22 c 4 35 c
5 5 c 4 38 c 4 287 c 5 480 c 4 83 c 5 -392 c 4 -417 c 4 -78 c 5 -56 c 4 -10 c 4 -6 c 5 -1 c 4 3 c 5 -2 c 4 0 c 4 6 c 5 1 c 4 0 c
4 6 c 5 -2 c 4 -2 c 5 -7 c 4 2 c 4 -6 c 5 2 c 4 -6 c 4 -3 c 5 4 c 4 -1 c 5 6 c 4 -2 c 4 6 c 5 -5 c 4 -8 c 4 17 c 5 -7 c 4 6 c 4 -6 c
5 -1 c 4 -2 c 5 4 c 4 6 c 4 9 c 5 -8 c 4 2 c 4 28 c 5 103 c 4 385 c 5 390 c 4 -67 c 4 -452 c 5 -359 c 4 -34 c 4 1 c 5 -7 c 4 5 c
5 -1 c 4 9 c 4 -1 c 5 -2 c 4 8 c 4 25 c 5 17 c 4 -5 c 5 -36 c 4 -17 c 4 -8 c 5 10 c 4 2 c 4 11 c 5 21 c 4 6 c 4 5 c 5 37 c 4 0 c
5 -34 c 4 -43 c 4 -10 c 5 8 c 4 -3 c 4 -8 c 5 2 c 4 13 c 5 16 c 4 0 c 4 -1 c 5 -16 c 4 -5 c 4 1 c 5 3 c 4 44 c 5 57 c 4 15 c 4 -40 c
5 -42 c 4 -28 c 4 -15 c 5 4 c 4 12 c 5 14 c 4 1 c 4 -21 c 5 -4 c 4 7 c 4 -1 c 5 30 c 4 82 c 4 462 c 5 779 c 4 18 c 5 -556 c 4 -711 c
4 -89 c 5 -7 c 4 -3 c 4 -9 c 5 -9 c 4 2 c 5 4 c 4 1 c 4 19 c 5 27 c 4 7 c 4 -24 c 5 -9 c 4 24 c 5 121 c 4 253 c 4 30 c 5 -157 c
4 -247 c 4 -35 c 5 -12 c 4 -4 c 4 5 c 5 -11 c 4 7 c 5 1 c 4 -1 c 4 -3 c 5 0 c 4 4 c 4 12 c 5 15 c 4 -5 c 5 -14 c 4 -15 c 4 1 c 5 1 c
4 -1 c 4 4 c 5 -3 c 4 3 c 5 -1 c 4 1 c 4 1 c 5 -1 c 4 0 c 4 1 c 5 -6 c 4 6 c 5 18 c 4 5 c 4 -11 c 5 -4 c 4 -7 c 4 1 c 5 -6 c 4 -4 c
4 4 c 5 -1 c 4 -1 c 5 3 c 4 12 c 4 -2 c 5 10 c 4 -8 c 4 -9 c 5 3 c 4 -2 c 5 -2 c 4 5 c 4 -7 c 5 13 c 4 12 c 4 1 c 5 -17 c 4 -12 c
5 6 c 4 -2 c 4 1 c 5 1 c 4 1 c 4 22 c 5 17 c 4 3 c 5 -19 c 4 -9 c 4 -15 c 5 11 c 4 1 c 4 4 c 5 2 c 4 -7 c 4 26 c 5 24 c 4 -14 c
5 -37 c 4 -11 c 4 -3 c 5 -4 c 4 -1 c 4 9 c 5 -3 c 4 2 c 5 -1 c 4 7 c 4 -2 c 5 -4 c 4 4 c 4 -4 c 5 2 c 4 -2 c 5 -2 c 4 0 c 4 0 c
5 -8 c 4 10 c 4 -3 c 5 9 c 4 0 c 5 1 c 4 -2 c 4 -8 c 5 -3 c 4 3 c 4 6 c 5 3 c 4 -4 c 4 0 c 5 -5 c 4 4 c 5 -5 c 4 3 c 4 -2 c 5 17 c
4 35 c 4 -6 c 5 -20 c 4 -22 c 5 2 c 4 23 c 4 99 c 5 97 c 4 -3 c 4 -128 c 5 -85 c 4 5 c 5 4 c 4 1 c 4 -10 c 5 -7 c 4 -6 c 4 2 c 5 5 c
4 4 c 5 14 c 4 4 c 4 1 c 5 -8 c 4 -5 c 4 -5 c 5 -2 c 4 -6 c 4 0 c 5 -1 c 4 12 c 5 21 c 4 10 c 4 -9 c 5 -25 c 4 -3 c 4 1 c 5 2 c
4 -7 c 5 13 c 4 6 c 4 -76 c 5 67 c 4 -3 c 4 -2 c 5 9 c 4 -2 c 5 11 c 4 4 c 4 7 c 5 54 c 4 212 c 4 106 c 5 -86 c 4 -227 c 4 -84 c
5 -4 c 4 -4 c 5 -2 c 4 -2 c 4 11 c 5 9 c 4 4 c 4 -2 c 5 -20 c 4 -2 c 5 5 c 4 0 c 4 0 c 5 -6 c 4 9 c 4 4 c 5 -6 c 4 3 c 5 0 c 4 -5 c
4 2 c 5 -7 c 4 2 c 4 2 c 5 1 c 4 8 c 5 5 c 4 -5 c 4 -4 c 5 0 c 4 -3 c 4 -10 c 5 2 c 4 5 c 4 5 c 5 1 c 4 -5 c 5 7 c 4 9 c 4 -3 c
5 -7 c 4 -10 c 4 11 c 5 6 c 4 7 c 5 13 c 4 -7 c 4 -19 c 5 -1 c 4 5 c 4 22 c 5 114 c 4 172 c 5 46 c 4 -113 c 4 -159 c 5 -68 c 4 -9 c
4 8 c 5 -6 c 4 2 c 5 -13 c 4 -4 c 4 5 c 5 31 c 4 177 c 4 331 c 5 52 c 4 -151 c 4 -63 c 5 130 c 4 -54 c 5 -279 c 4 -157 c 4 -20 c
5 -2 c 4 7 c 4 5 c 5 4 c 4 -2 c 5 -4 c 4 0 c 4 -13 c 5 5 c 4 6 c 4 1 c 5 -2 c 4 3 c 5 17 c 4 -10 c 4 -2 c 5 67 c 4 108 c 4 84 c
5 -52 c 4 -112 c 5 -79 c 4 -28 c 4 -5 c 5 5 c 4 -9 c 4 2 c 5 6 c 4 -5 c 4 5 c 5 36 c 4 91 c 5 61 c 4 -44 c 4 -98 c 5 -32 c 4 -9 c
4 9 c 5 5 c 4 0 c 5 -9 c 4 -7 c 4 -5 c 5 -3 c 4 3 c 4 -1 c 5 3 c 4 -1 c 5 -1 c 4 -4 c 4 24 c 5 129 c 4 272 c 4 65 c 5 -147 c
4 -254 c 4 -70 c 5 -10 c 4 -9 c 5 1 c 4 -4 c 4 3 c 5 -56 c 4 55 c 4 5 c 5 -2 c 4 -4 c 5 1 c 4 1 c 4 -2 c 5 -1 c 4 3 c 4 0 c 5 -6 c
4 5 c 5 4 c 4 -59 c 4 0 c 5 68 c 4 -6 c 4 25 c 5 117 c 4 117 c 5 -5 c 4 -128 c 4 -122 c 5 -8 c 4 4 c 4 -2 c 5 15 c 4 56 c 4 29 c
5 -17 c 4 -62 c 5 -23 c 4 -4 c 4 4 c 5 5 c 4 -5 c 4 2 c 5 -1 c 4 5 c 5 -8 c 4 6 c 4 -4 c 5 1 c 4 5 c 4 24 c 5 -8 c 4 -1 c 5 -15 c
4 -4 c 4 3 c 5 10 c 4 11 c 4 -5 c 5 -3 c 4 23 c 5 240 c 4 482 c 4 195 c 5 -252 c 4 -475 c 4 -184 c 5 -27 c 4 3 c 4 -8 c 5 -2 c
4 -6 c 5 -4 c 4 7 c 4 11 c 5 4 c 4 -6 c 4 1 c 5 -3 c 4 5 c 5 0 c 4 39 c 4 317 c 5 704 c 4 164 c 4 -382 c 5 -658 c 4 -174 c 5 -15 c
4 2 c 4 54 c 5 231 c 4 241 c 4 -3 c 5 -209 c 4 -176 c 5 -40 c 4 -57 c 4 -39 c 5 -14 c 4 -1 c 4 -3 c 5 -4 c 4 -2 c 4 1 c 5 -3 c 4 5 c
5 10 c 4 8 c 4 -6 c 5 -9 c 4 1 c 4 0 c 5 -2 c 4 2 c 5 -3 c 4 6 c 4 14 c 5 -12 c 4 2 c 4 -12 c 5 3 c 4 -7 c 5 9 c 4 3 c 4 49 c
5 124 c 4 46 c 4 -59 c 5 -126 c 4 -16 c 5 10 c 4 12 c 4 4 c 5 0 c 4 135 c 4 145 c 5 3 c 4 -135 c 4 -120 c 5 5 c 4 -9 c 5 -22 c
4 -29 c 4 -1 c 5 -2 c 4 1 c 4 8 c 5 24 c 4 26 c 5 14 c 4 441 c 4 2706 c 5 2758 c 4 -92 c 4 -2702 c 5 -2749 c 4 -399 c 5 -20 c 4 -4 c
4 25 c 5 159 c 4 97 c 4 -10 c 5 -195 c 4 -77 c 4 0 c 5 35 c 4 70 c 5 8 c 4 -39 c 4 -72 c 5 -20 c 4 -1 c 4 20 c 5 60 c 4 32 c 5 -17 c
4 -73 c 4 -21 c 5 -7 c 4 -4 c 4 0 c 5 0 c 4 -5 c 5 -3 c 4 6 c 4 -7 c 5 3 c 4 0 c 4 1 c 5 6 c 4 1 c 5 -1 c 4 -5 c 4 6 c 5 40 c 4 59 c
4 11 c 5 -40 c 4 -63 c 4 -6 c 5 0 c 4 2 c 5 -4 c 4 -5 c 4 6 c 5 -1 c 4 5 c 4 -2 c 5 -8 c 4 2 c 5 8 c 4 6 c 4 -7 c 5 -3 c 4 -3 c
4 -3 c 5 0 c 4 1 c 5 7 c 4 14 c 4 -14 c 5 4 c 4 -11 c 4 -58 c 5 55 c 4 -1 c 5 9 c 4 -7 c 4 -5 c 5 4 c 4 -1 c 4 7 c 5 3 c 4 10 c
4 -3 c 5 4 c 4 41 c 5 20 c 4 -1 c 4 -28 c 5 -40 c 4 1 c 4 18 c 5 64 c 4 39 c 5 -19 c 4 -2 c 4 294 c 5 446 c 4 189 c 4 -301 c
5 -457 c 4 -232 c 5 -31 c 4 12 c 4 17 c 5 174 c 4 597 c 4 377 c 5 -105 c 4 -566 c 5 -420 c 4 -71 c 4 -11 c 5 14 c 4 119 c 4 117 c
5 -5 c 4 -114 c 4 -102 c 5 -13 c 4 -17 c 5 -14 c 4 -6 c 4 -2 c 5 12 c 4 9 c 4 5 c 5 0 c 4 -2 c 5 -7 c 4 -9 c 4 -4 c 5 -4 c 4 -1 c
4 0 c 5 -3 c 4 1 c 5 1 c 4 5 c 4 9 c 5 49 c 4 64 c 4 -6 c 5 -50 c 4 -57 c 5 -15 c 4 4 c 4 2 c 5 1 c 4 12 c 4 -1 c 5 -6 c 4 2 c
4 -12 c 5 6 c 4 13 c 5 60 c 4 155 c 4 38 c 5 -67 c 4 -149 c 4 -30 c 5 61 c 4 525 c 5 533 c 4 10 c 4 -529 c 5 -526 c 4 -72 c 4 -2 c
5 13 c 4 156 c 5 174 c 4 31 c 4 -160 c 5 -158 c 4 53 c 4 445 c 5 424 c 4 -18 c 4 -426 c 5 -437 c 4 -90 c 5 -8 c 4 -3 c 4 2 c 5 -11 c
4 1 c 4 -5 c 5 -2 c 4 3 c 5 4 c 4 87 c 4 219 c 5 69 c 4 -104 c 4 -200 c 5 -56 c 4 15 c 5 74 c 4 45 c 4 -16 c 5 -89 c 4 -45 c 4 -10 c
5 1 c 4 0 c 5 0 c 4 7 c 4 -10 c 5 1 c 4 0 c 4 5 c 5 -2 c 4 -1 c 4 2 c 5 5 c 4 -8 c 5 11 c 4 28 c 4 8 c 5 13 c 4 27 c 4 20 c 5 -30 c
4 -48 c 5 -14 c 4 9 c 4 -15 c 5 -3 c 4 -2 c 4 2 c 5 -2 c 4 -4 c 5 -4 c 4 1 c 4 4 c 5 8 c 4 5 c 4 7 c 5 -11 c 4 -8 c 5 -5 c 4 3 c
4 -5 c 5 5 c 4 -1 c 4 -2 c 5 16 c 4 45 c 4 135 c 5 94 c 4 -33 c 5 -135 c 4 -101 c 4 -15 c 5 5 c 4 4 c 4 0 c 5 -2 c 4 0 c 5 9 c
4 40 c 4 16 c 5 -13 c 4 -37 c 4 -9 c 5 17 c 4 26 c 5 48 c 4 12 c 4 -15 c 5 -52 c 4 30 c 4 512 c 5 590 c 4 130 c 5 -280 c 4 -490 c
4 -194 c 5 -242 c 4 -91 c 4 -10 c 5 1 c 4 -10 c 4 4 c 5 2 c 4 0 c 5 3 c 4 11 c 4 -7 c 5 2 c 4 -16 c 4 13 c 5 1 c 4 4 c 5 -4 c 4 9 c
4 17 c 5 14 c 4 -4 c 4 5 c 5 -18 c 4 -13 c 5 -11 c 4 23 c 4 21 c 5 21 c 4 3 c 4 -18 c 5 -22 c 4 -28 c 5 -8 c 4 12 c 4 10 c 5 27 c
4 11 c 4 -17 c 5 -26 c 4 -14 c 4 -7 c 5 5 c 4 -7 c 5 -2 c 4 20 c 4 6 c 5 8 c 4 -11 c 4 -10 c 5 -9 c 4 -2 c 5 7 c 4 0 c 4 10 c 5 -5 c
4 0 c 4 -4 c 5 -10 c 4 4 c 5 -1 c 4 1 c 4 -2 c 5 -6 c 4 4 c 4 9 c 5 3 c 4 -5 c 4 1 c 5 -3 c 4 3 c 5 7 c 4 9 c 4 -9 c 5 -7 c 4 -9 c
4 1 c 5 0 c 4 3 c 5 -6 c 4 5 c 4 -1 c 5 -1 c 4 6 c 4 -7 c 5 4 c 4 3 c 5 4 c 4 -4 c 4 3 c 5 4 c 4 -1 c 4 -1 c 5 11 c 4 57 c 5 35 c
4 -16 c 4 -68 c 5 -34 c 4 1 c 4 7 c 5 -4 c 4 -4 c 4 8 c 5 7 c 4 1 c 5 5 c 4 -4 c 4 -2 c 5 -4 c 4 0 c 4 -5 c 5 1 c 4 5 c 5 2 c 4 1 c
4 -8 c 5 6 c 4 -10 c 4 5 c 5 18 c 4 23 c 5 7 c 4 -10 c 4 -33 c 5 -5 c 4 -2 c 4 -1 c 5 -6 c 4 9 c 5 -4 c 4 7 c 4 6 c 5 8 c 4 -3 c
4 -11 c 5 -5 c 4 -2 c 4 2 c 5 2 c 4 6 c 5 -6 c 4 -2 c 4 -1 c 5 0 c 4 -2 c 4 5 c 5 1 c 4 2 c 5 -4 c 4 3 c 4 -4 c 5 -2 c 4 1 c 4 0 c
5 2 c 4 -2 c 5 -5 c 4 1 c 4 5 c 5 -6 c 4 3 c 4 1 c 5 0 c 4 -1 c 5 -2 c 4 -3 c 4 2 c 5 4 c 4 -6 c 4 7 c 5 -4 c 4 4 c 4 -2 c 5 1 c
4 1 c 5 10 c 4 34 c 4 30 c 5 0 c 4 -40 c 4 -32 c 5 -5 c 4 2 c 5 2 c 4 3 c 4 12 c 5 18 c 4 -9 c 4 -22 c 5 1 c 4 1 c 5 -3 c 4 2 c
4 -4 c 5 7 c 4 19 c 4 35 c 5 19 c 4 11 c 4 -18 c 5 -20 c 4 -29 c 5 -18 c 4 4 c 4 72 c 5 60 c 4 3 c 4 -66 c 5 -69 c 4 -9 c 5 0 c
4 -6 c 4 4 c 5 0 c 4 2 c 4 12 c 5 34 c 4 83 c 5 37 c 4 -11 c 4 -86 c 5 -43 c 4 -7 c 4 -1 c 5 -14 c 4 -4 c 5 17 c 4 14 c 4 5 c 5 -9 c
4 -2 c 4 -1 c 5 -6 c 4 -18 c 4 2 c 5 -6 c 4 11 c 5 -1 c 4 -2 c 4 -6 c 5 -1 c 4 2 c 4 1 c 5 6 c 4 11 c 5 19 c 4 11 c 4 8 c 5 83 c
4 197 c 4 77 c 5 -63 c 4 -184 c 5 -81 c 4 -57 c 4 -27 c 5 -2 c 4 -4 c 4 3 c 5 -3 c 4 3 c 5 -6 c 4 2 c 4 5 c 5 -8 c 4 12 c 4 -4 c
5 2 c 4 0 c 4 -3 c 5 1 c 4 4 c 5 -3 c 4 -1 c 4 -1 c 5 13 c 4 -6 c 4 -1 c 5 4 c 4 -7 c 5 -1 c 4 -3 c 4 2 c 5 10 c 4 -7 c 4 10 c
5 -3 c 4 -4 c 5 2 c 4 -2 c 4 3 c 5 2 c 4 -12 c 4 -1 c 5 1 c 4 -2 c 5 4 c 4 -3 c 4 0 c 5 -1 c 4 3 c 4 -2 c 5 17 c 4 33 c 4 38 c
5 33 c 4 -25 c 5 -29 c 4 -53 c 4 -8 c 5 9 c 4 -8 c 4 -1 c 5 -4 c 4 5 c 5 10 c 4 19 c 4 -5 c 5 1 c 4 51 c 4 220 c 5 45 c 4 -32 c
5 -183 c 4 27 c 4 1046 c 5 1465 c 4 174 c 4 -875 c 5 -1624 c 4 -302 c 5 -18 c 4 -4 c 4 -8 c 5 1 c 4 14 c 4 39 c 5 75 c 4 7 c 4 -39 c
5 -64 c 4 -15 c 5 -5 c 4 -16 c 4 -5 c 5 -6 c 4 0 c 4 -4 c 5 5 c 4 -1 c 5 -4 c 4 1 c 4 11 c 5 -2 c 4 -2 c 4 7 c 5 14 c 4 122 c
5 529 c 4 280 c 4 -80 c 5 -526 c 4 -317 c 4 -11 c 5 -7 c 4 7 c 4 83 c 5 100 c 4 4 c 5 -88 c 4 -98 c 4 -14 c 5 0 c 4 -7 c 4 0 c 5 9 c
4 52 c 5 377 c 4 288 c 4 43 c 5 -322 c 4 -332 c 4 -65 c 5 -21 c 4 -1 c 5 57 c 4 113 c 4 20 c 5 -66 c 4 -122 c 4 -27 c 5 -8 c 4 1 c
5 7 c 4 -3 c 4 10 c 5 19 c 4 12 c 4 -4 c 5 5 c 4 -7 c 4 -14 c 5 -8 c 4 -9 c 5 19 c 4 196 c 4 621 c 5 228 c 4 -137 c 4 -600 c
5 -277 c 4 -18 c 5 -19 c 4 -9 c 4 -9 c 5 2 c 4 -3 c 4 -3 c 5 3 c 4 0 c 5 -2 c 4 -9 c 4 12 c 5 -3 c 4 -5 c 4 6 c 5 -6 c 4 8 c 5 -1 c
4 -2 c 4 -3 c 5 3 c 4 0 c 4 -1 c 5 10 c 4 7 c 4 -1 c 5 -11 c 4 -9 c 5 3 c 4 5 c 4 -2 c 5 -8 c 4 6 c 4 1 c 5 19 c 4 22 c 5 11 c
4 -2 c 4 -24 c 5 -11 c 4 8 c 4 110 c 5 341 c 4 91 c 5 -119 c 4 -289 c 4 -46 c 5 91 c 4 -8 c 4 -64 c
5 3 c 4 137 c 5 0 c 4 -16 c 4 -303 c 5 0 c 4 805 c 4 -319 c 5 -380 c 4 -45 c 4 11 c 5 125 c 4 499 c 5 228 c 4 5 c 4 -249 c 5 -181 c
4 -67 c 4 -256 c 5 -87 c 4 38 c 5 13 c 4 -12 c 4 -50 c 5 -27 c 4 -2 c 4 -1 c 5 -2 c 4 2 c 5 2 c 4 0 c 4 4 c 5 -1 c 4 5 c 4 -5 c
5 -11 c 4 7 c 5 9 c 4 13 c 4 -2 c 5 -13 c 4 -7 c 4 -4 c 5 1 c 4 -2 c
0 -126 3315 418 l 54 0 3315 418 l 18 -6 c 6 -6 c 6 -12 c 0 -12 c -6 -12 c -6 -6 c -18 -6 c -54 0 c 42 -66 3357 358 l
-12 -6 3465 376 l -12 -12 c -6 -18 c 0 -12 c 6 -18 c 12 -12 c 12 -6 c 18 0 c 12 6 c 12 12 c 6 18 c 0 12 c -6 18 c -12 12 c -12 6 c
-18 0 c 24 -84 3549 376 l -24 -84 3597 376 l 24 -84 3597 376 l -24 -84 3645 376 l 108 0 3687 364 l 108 0 3687 328 l 12 6 4047 394 l
18 18 c 0 -126 c -12 -6 4275 376 l -12 -12 c -6 -18 c 0 -12 c 6 -18 c 12 -12 c 12 -6 c 18 0 c 12 6 c 12 12 c 6 18 c 0 12 c -6 18 c
-12 12 c -12 6 c -18 0 c -12 0 4401 418 l -12 -6 c -6 -18 c 0 -102 c 42 0 4353 376 l 66 0 4539 418 l -36 -48 c 18 0 c 12 -6 c 6 -6 c
6 -18 c 0 -12 c -6 -18 c -12 -12 c -18 -6 c -18 0 c -18 6 c -6 6 c -6 12 c -6 -18 4725 376 l -12 -12 c -18 -6 c -6 0 c -18 6 c
-12 12 c -6 18 c 0 6 c 6 18 c 12 12 c 18 6 c 6 0 c 18 -6 c 12 -12 c 6 -24 c 0 -30 c -6 -30 c -12 -18 c -18 -6 c -12 0 c -18 6 c
-6 12 c 12 6 5169 394 l 18 18 c 0 -126 c -6 -6 5282 376 l 6 -6 c 6 6 c -6 6 c -6 -6 5282 304 l 6 -6 c 6 6 c -6 6 c
-48 -126 5462 418 l 48 -126 5462 418 l 60 0 5432 334 l 0 -84 5540 376 l 6 18 5540 340 l 12 12 c 12 6 c 18 0 c -12 12 5684 358 l
-12 6 c -18 0 c -12 -6 c -12 -12 c -6 -18 c 0 -12 c 6 -18 c 12 -12 c 12 -6 c 18 0 c 12 6 c 12 12 c 108 0 5726 346 l
-18 -6 5912 418 l -12 -18 c -6 -30 c 0 -18 c 6 -30 c 12 -18 c 18 -6 c 12 0 c 18 6 c 12 18 c 6 30 c 0 18 c -6 30 c -12 18 c -18 6 c
-12 0 c 66 0 6008 418 l -36 -48 c 18 0 c 12 -6 c 6 -6 c 6 -18 c 0 -12 c -6 -18 c -12 -12 c -18 -6 c -18 0 c -18 6 c -6 6 c -6 12 c
-60 0 6188 418 l -6 -54 c 6 6 c 18 6 c 18 0 c 18 -6 c 12 -12 c 6 -18 c 0 -12 c -6 -18 c -12 -12 c -18 -6 c -18 0 c -18 6 c -6 6 c
-6 12 c -6 -6 6248 304 l 6 -6 c 6 6 c -6 6 c -12 0 6338 418 l -12 -6 c -6 -18 c 0 -102 c 42 0 6290 376 l 6 -6 6368 418 l 6 6 c
-6 6 c -6 -6 c 0 -84 6374 376 l 0 -102 6428 418 l 6 -18 c 12 -6 c 12 0 c 42 0 6410 376 l -6 12 6554 358 l -18 6 c -18 0 c -18 -6 c
-6 -12 c 6 -12 c 12 -6 c 30 -6 c 12 -6 c 6 -12 c 0 -6 c -6 -12 c -18 -6 c -18 0 c -18 6 c -6 12 c 0 -192 6884 442 l
0 -192 6890 442 l 42 0 6884 442 l 42 0 6884 250 l 0 6 6968 388 l 6 12 c 6 6 c 12 6 c 24 0 c 12 -6 c 6 -6 c 6 -12 c 0 -12 c -6 -12 c
-12 -18 c -60 -60 c 84 0 c -6 -6 7094 376 l 6 -6 c 6 6 c -6 6 c -6 -6 7094 304 l 6 -6 c 6 6 c -6 6 c 0 -192 7274 442 l
0 -192 7280 442 l 42 0 7238 442 l 42 0 7238 250 l
0 -249 1907 1892 l 0 41 1863 1972 l 31 -23 c 0 12 c 3 7 c 4 4 c 11 4 c 8 0 c 11 -4 c 8 -7 c 4 -12 c 0 -11 c -4 -11 c -4 -4 c -7 -4 c
-8 -4 1875 2089 l -4 -11 c 0 -8 c 4 -11 c 11 -8 c 19 -4 c 19 0 c 15 4 c 8 8 c 4 11 c 0 4 c -4 11 c -8 8 c -11 3 c -4 0 c -11 -3 c
-8 -8 c -3 -11 c 0 -4 c 3 -11 c 8 -8 c 11 -4 c 53 -38 1863 2153 l 0 57 c 80 0 1863 2153 l 11 -4 1890 2240 l 8 -7 c 3 -12 c 0 -4 c
-3 -11 c -8 -7 c -11 -4 c -4 0 c -11 4 c -8 7 c -4 11 c 0 4 c 4 12 c 8 7 c 15 4 c 19 0 c 19 -4 c 11 -7 c 4 -12 c 0 -7 c -4 -12 c
-8 -3 c 4 -4 1935 2274 l 4 4 c -4 4 c -4 -4 c -4 0 1882 2308 l -7 4 c -4 3 c -4 8 c 0 15 c 4 8 c 4 3 c 7 4 c 8 0 c 8 -4 c 11 -7 c
38 -38 c 0 53 c 0 -38 1863 2425 l 34 -4 c -3 4 c -4 12 c 0 11 c 4 11 c 7 8 c 11 4 c 8 0 c 11 -4 c 8 -8 c 4 -11 c 0 -11 c -4 -12 c
-4 -4 c -7 -3 c 4 -11 1863 2478 l 11 -8 c 19 -4 c 12 0 c 19 4 c 11 8 c 4 11 c 0 8 c -4 11 c -11 7 c -19 4 c -12 0 c -19 -4 c
-11 -7 c -4 -11 c 0 -8 c 0 -250 2380 1819 l 0 42 2337 1898 l 30 -23 c 0 11 c 4 8 c 4 4 c 11 4 c 7 0 c 12 -4 c 7 -8 c 4 -11 c 0 -11 c
-4 -12 c -3 -4 c -8 -3 c -7 -3 2348 2015 l -4 -12 c 0 -7 c 4 -12 c 11 -7 c 19 -4 c 19 0 c 15 4 c 7 7 c 4 12 c 0 4 c -4 11 c -7 7 c
-12 4 c -3 0 c -12 -4 c -7 -7 c -4 -11 c 0 -4 c 4 -12 c 7 -7 c 12 -4 c 0 -38 2337 2087 l 34 -3 c -4 3 c -4 12 c 0 11 c 4 11 c 8 8 c
11 4 c 7 0 c 12 -4 c 7 -8 c 4 -11 c 0 -11 c -4 -12 c -3 -3 c -8 -4 c -4 0 2356 2121 l -8 4 c -3 4 c -4 7 c 0 15 c 4 8 c 3 4 c 8 4 c
7 0 c 8 -4 c 11 -8 c 38 -38 c 0 53 c 3 -4 2409 2201 l 4 4 c -4 3 c -3 -3 c -4 8 2352 2242 l -11 11 c 79 0 c -7 -4 2348 2356 l
-4 -12 c 0 -7 c 4 -11 c 11 -8 c 19 -4 c 19 0 c 15 4 c 7 8 c 4 11 c 0 4 c -4 11 c -7 8 c -12 3 c -3 0 c -12 -3 c -7 -8 c -4 -11 c
0 -4 c 4 -11 c 7 -8 c 12 -4 c 4 -11 2337 2401 l 7 -4 c 8 0 c 7 4 c 4 7 c 4 15 c 4 12 c 7 7 c 8 4 c 11 0 c 8 -4 c 3 -4 c 4 -11 c
0 -15 c -4 -11 c -3 -4 c -8 -4 c -11 0 c -8 4 c -7 7 c -4 12 c -4 15 c -4 7 c -7 4 c -8 0 c -7 -4 c -4 -11 c 0 -15 c
0 -249 2754 1407 l 0 41 2711 1487 l 30 -22 c 0 11 c 4 7 c 4 4 c 11 4 c 7 0 c 12 -4 c 7 -7 c 4 -12 c 0 -11 c -4 -11 c -3 -4 c -8 -4 c
-8 -4 2722 1604 l -3 -11 c 0 -8 c 3 -11 c 12 -8 c 19 -4 c 19 0 c 15 4 c 7 8 c 4 11 c 0 4 c -4 11 c -7 8 c -12 4 c -3 0 c -12 -4 c
-7 -8 c -4 -11 c 0 -4 c 4 -11 c 7 -8 c 12 -4 c 0 -38 2711 1676 l 34 -4 c -4 4 c -4 11 c 0 12 c 4 11 c 8 7 c 11 4 c 7 0 c 12 -4 c
7 -7 c 4 -11 c 0 -12 c -4 -11 c -3 -4 c -8 -4 c 53 -38 2711 1744 l 0 57 c 79 0 2711 1744 l 3 -4 2783 1789 l 4 4 c -4 4 c -3 -4 c
53 -38 2711 1857 l 0 57 c 79 0 2711 1857 l -8 -4 2722 1944 l -3 -11 c 0 -8 c 3 -11 c 12 -8 c 19 -3 c 19 0 c 15 3 c 7 8 c 4 11 c
0 4 c -4 11 c -7 8 c -12 4 c -3 0 c -12 -4 c -7 -8 c -4 -11 c 0 -4 c 4 -11 c 7 -8 c 12 -3 c -4 0 2730 1974 l -8 4 c -4 4 c -3 7 c
0 15 c 3 8 c 4 4 c 8 4 c 7 0 c 8 -4 c 11 -8 c 38 -38 c 0 53 c 0 -249 3120 1989 l 0 41 3076 2069 l 30 -22 c 0 11 c 4 7 c 4 4 c 11 4 c
8 0 c 11 -4 c 8 -7 c 4 -12 c 0 -11 c -4 -11 c -4 -4 c -8 -4 c -8 -4 3088 2186 l -4 -11 c 0 -8 c 4 -11 c 11 -8 c 19 -4 c 19 0 c
15 4 c 8 8 c 4 11 c 0 4 c -4 11 c -8 8 c -11 4 c -4 0 c -11 -4 c -8 -8 c -4 -11 c 0 -4 c 4 -11 c 8 -8 c 11 -4 c 0 -38 3076 2258 l
34 -4 c -4 4 c -3 11 c 0 12 c 3 11 c 8 7 c 11 4 c 8 0 c 11 -4 c 8 -7 c 4 -11 c 0 -12 c -4 -11 c -4 -4 c -8 -4 c -8 -4 3088 2337 l
-4 -11 c 0 -8 c 4 -11 c 11 -8 c 19 -3 c 19 0 c 15 3 c 8 8 c 4 11 c 0 4 c -4 11 c -8 8 c -11 4 c -4 0 c -11 -4 c -8 -8 c -4 -11 c
0 -4 c 4 -11 c 8 -8 c 11 -3 c 4 -4 3148 2371 l 4 4 c -4 4 c -4 -4 c -8 -3 3088 2450 l -4 -12 c 0 -7 c 4 -12 c 11 -7 c 19 -4 c 19 0 c
15 4 c 8 7 c 4 12 c 0 3 c -4 12 c -8 7 c -11 4 c -4 0 c -11 -4 c -8 -7 c -4 -12 c 0 -3 c 4 -12 c 8 -7 c 11 -4 c 11 -4 3103 2526 l
8 -7 c 3 -12 c 0 -3 c -3 -12 c -8 -7 c -11 -4 c -4 0 c -11 4 c -8 7 c -4 12 c 0 3 c 4 12 c 8 7 c 15 4 c 19 0 c 18 -4 c 12 -7 c
4 -12 c 0 -7 c -4 -12 c -8 -3 c 53 -38 3076 2590 l 0 57 c 80 0 3076 2590 l 0 -250 3468 1649 l 0 42 3425 1728 l 30 -23 c 0 11 c 4 8 c
3 4 c 12 3 c 7 0 c 12 -3 c 7 -8 c 4 -11 c 0 -12 c -4 -11 c -4 -4 c -7 -4 c -8 -4 3436 1845 l -3 -11 c 0 -8 c 3 -11 c 12 -7 c 19 -4 c
19 0 c 15 4 c 7 7 c 4 11 c 0 4 c -4 12 c -7 7 c -12 4 c -3 0 c -12 -4 c -7 -7 c -4 -12 c 0 -4 c 4 -11 c 7 -7 c 12 -4 c
0 -38 3425 1917 l 34 -4 c -4 4 c -4 11 c 0 12 c 4 11 c 7 8 c 12 3 c 7 0 c 12 -3 c 7 -8 c 4 -11 c 0 -12 c -4 -11 c -4 -4 c -7 -3 c
3 -11 3425 1966 l 8 -4 c 8 0 c 7 4 c 4 7 c 4 15 c 3 12 c 8 7 c 8 4 c 11 0 c 7 -4 c 4 -3 c 4 -12 c 0 -15 c -4 -11 c -4 -4 c -7 -4 c
-11 0 c -8 4 c -8 7 c -3 12 c -4 15 c -4 8 c -7 3 c -8 0 c -8 -3 c -3 -12 c 0 -15 c 4 -3 3496 2030 l 4 3 c -4 4 c -4 -4 c
3 -11 3425 2079 l 8 -4 c 8 0 c 7 4 c 4 8 c 4 15 c 3 11 c 8 8 c 8 3 c 11 0 c 7 -3 c 4 -4 c 4 -11 c 0 -16 c -4 -11 c -4 -4 c -7 -3 c
-11 0 c -8 3 c -8 8 c -3 11 c -4 15 c -4 8 c -7 4 c -8 0 c -8 -4 c -3 -11 c 0 -16 c 3 -12 3425 2159 l 12 -7 c 19 -4 c 11 0 c 19 4 c
11 7 c 4 12 c 0 7 c -4 12 c -11 7 c -19 4 c -11 0 c -19 -4 c -12 -7 c -3 -12 c 0 -7 c 11 -4 3451 2261 l 8 -7 c 4 -12 c 0 -4 c
-4 -11 c -8 -7 c -11 -4 c -4 0 c -11 4 c -8 7 c -3 11 c 0 4 c 3 12 c 8 7 c 15 4 c 19 0 c 19 -4 c 11 -7 c 4 -12 c 0 -7 c -4 -12 c
-7 -3 c 0 -249 3604 7017 l 0 41 3560 7097 l 30 -22 c 0 11 c 4 7 c 4 4 c 11 4 c 8 0 c 11 -4 c 8 -7 c 3 -12 c 0 -11 c -3 -11 c -4 -4 c
-8 -4 c -7 -4 3571 7214 l -4 -11 c 0 -8 c 4 -11 c 11 -8 c 19 -4 c 19 0 c 15 4 c 8 8 c 3 11 c 0 4 c -3 11 c -8 8 c -11 4 c -4 0 c
-11 -4 c -8 -8 c -4 -11 c 0 -4 c 4 -11 c 8 -8 c 11 -4 c 0 -38 3560 7286 l 34 -4 c -4 4 c -3 11 c 0 11 c 3 12 c 8 7 c 11 4 c 8 0 c
11 -4 c 8 -7 c 3 -12 c 0 -11 c -3 -11 c -4 -4 c -8 -4 c 11 -4 3587 7365 l 7 -7 c 4 -12 c 0 -3 c -4 -12 c -7 -7 c -11 -4 c -4 0 c
-12 4 c -7 7 c -4 12 c 0 3 c 4 12 c 7 7 c 16 4 c 18 0 c 19 -4 c 12 -7 c 3 -12 c 0 -7 c -3 -12 c -8 -3 c 4 -4 3632 7399 l 3 4 c
-3 4 c -4 -4 c -7 -3 3571 7478 l -4 -12 c 0 -7 c 4 -12 c 11 -7 c 19 -4 c 19 0 c 15 4 c 8 7 c 3 12 c 0 3 c -3 12 c -8 7 c -11 4 c
-4 0 c -11 -4 c -8 -7 c -4 -12 c 0 -3 c 4 -12 c 8 -7 c 11 -4 c -4 0 3579 7509 l -7 3 c -4 4 c -4 8 c 0 15 c 4 7 c 4 4 c 7 4 c 8 0 c
7 -4 c 12 -7 c 37 -38 c 0 53 c 11 -4 3587 7630 l 7 -8 c 4 -11 c 0 -4 c -4 -11 c -7 -8 c -11 -4 c -4 0 c -12 4 c -7 8 c -4 11 c 0 4 c
4 11 c 7 8 c 16 4 c 18 0 c 19 -4 c 12 -8 c 3 -11 c 0 -8 c -3 -11 c -8 -4 c 0 -249 3738 2237 l 0 42 3694 2316 l 30 -23 c 0 12 c 4 7 c
4 4 c 11 4 c 8 0 c 11 -4 c 8 -8 c 4 -11 c 0 -11 c -4 -12 c -4 -3 c -8 -4 c -8 -4 3706 2434 l -4 -11 c 0 -8 c 4 -11 c 11 -8 c 19 -4 c
19 0 c 15 4 c 8 8 c 4 11 c 0 4 c -4 11 c -8 8 c -11 3 c -4 0 c -11 -3 c -8 -8 c -4 -11 c 0 -4 c 4 -11 c 8 -8 c 11 -4 c
-8 -4 3706 2509 l -4 -11 c 0 -7 c 4 -12 c 11 -7 c 19 -4 c 19 0 c 15 4 c 8 7 c 4 12 c 0 3 c -4 12 c -8 7 c -11 4 c -4 0 c -11 -4 c
-8 -7 c -4 -12 c 0 -3 c 4 -12 c 8 -7 c 11 -4 c 4 -11 3694 2558 l 11 -8 c 19 -3 c 12 0 c 18 3 c 12 8 c 4 11 c 0 8 c -4 11 c -12 8 c
-18 4 c -12 0 c -19 -4 c -11 -8 c -4 -11 c 0 -8 c 4 -4 3766 2619 l 4 4 c -4 4 c -4 -4 c 53 -38 3694 2687 l 0 57 c 80 0 3694 2687 l
0 42 3694 2732 l 30 -23 c 0 11 c 4 8 c 4 4 c 11 4 c 8 0 c 11 -4 c 8 -8 c 4 -11 c 0 -11 c -4 -12 c -4 -4 c -8 -3 c 80 -38 3694 2853 l
0 53 3694 2800 l 0 -250 3933 2195 l 0 42 3890 2274 l 30 -23 c 0 11 c 4 8 c 3 4 c 12 4 c 7 0 c 12 -4 c 7 -8 c 4 -11 c 0 -11 c
-4 -12 c -4 -4 c -7 -3 c -8 -3 3901 2391 l -3 -12 c 0 -7 c 3 -12 c 12 -7 c 19 -4 c 18 0 c 16 4 c 7 7 c 4 12 c 0 4 c -4 11 c -7 7 c
-12 4 c -4 0 c -11 -4 c -7 -7 c -4 -11 c 0 -4 c 4 -12 c 7 -7 c 11 -4 c -8 -4 3901 2467 l -3 -11 c 0 -8 c 3 -11 c 12 -8 c 19 -3 c
18 0 c 16 3 c 7 8 c 4 11 c 0 4 c -4 11 c -7 8 c -12 4 c -4 0 c -11 -4 c -7 -8 c -4 -11 c 0 -4 c 4 -11 c 7 -8 c 11 -3 c
-4 7 3905 2505 l -11 12 c 79 0 c 4 -4 3961 2577 l 4 4 c -4 3 c -4 -3 c -8 -4 3901 2656 l -3 -11 c 0 -8 c 3 -11 c 12 -8 c 19 -3 c
18 0 c 16 3 c 7 8 c 4 11 c 0 4 c -4 11 c -7 8 c -12 4 c -4 0 c -11 -4 c -7 -8 c -4 -11 c 0 -4 c 4 -11 c 7 -8 c 11 -3 c
-3 0 3908 2686 l -8 4 c -4 4 c -3 7 c 0 15 c 3 8 c 4 4 c 8 4 c 7 0 c 8 -4 c 11 -8 c 38 -38 c 0 53 c -4 8 3905 2769 l -11 11 c 79 0 c
0 -249 4197 2660 l 0 42 4153 2739 l 30 -23 c 0 12 c 4 7 c 4 4 c 11 4 c 8 0 c 11 -4 c 7 -7 c 4 -12 c 0 -11 c -4 -12 c -3 -3 c -8 -4 c
-7 -4 4164 2857 l -4 -11 c 0 -8 c 4 -11 c 11 -8 c 19 -4 c 19 0 c 15 4 c 7 8 c 4 11 c 0 4 c -4 11 c -7 8 c -11 3 c -4 0 c -12 -3 c
-7 -8 c -4 -11 c 0 -4 c 4 -11 c 7 -8 c 12 -4 c -7 -4 4164 2932 l -4 -11 c 0 -7 c 4 -12 c 11 -7 c 19 -4 c 19 0 c 15 4 c 7 7 c 4 12 c
0 3 c -4 12 c -7 7 c -11 4 c -4 0 c -12 -4 c -7 -7 c -4 -12 c 0 -3 c 4 -12 c 7 -7 c 12 -4 c 0 42 4153 2966 l 30 -23 c 0 12 c 4 7 c
4 4 c 11 4 c 8 0 c 11 -4 c 7 -8 c 4 -11 c 0 -11 c -4 -12 c -3 -4 c -8 -3 c 3 -4 4225 3042 l 4 4 c -4 4 c -3 -4 c -4 0 4172 3076 l
-8 4 c -3 3 c -4 8 c 0 15 c 4 8 c 3 3 c 8 4 c 8 0 c 7 -4 c 11 -7 c 38 -38 c 0 53 c 4 -11 4153 3170 l 11 -8 c 19 -3 c 11 0 c 19 3 c
11 8 c 4 11 c 0 8 c -4 11 c -11 8 c -19 4 c -11 0 c -19 -4 c -11 -8 c -4 -11 c 0 -8 c -4 0 4172 3227 l -8 4 c -3 4 c -4 7 c 0 15 c
4 8 c 3 4 c 8 3 c 8 0 c 7 -3 c 11 -8 c 38 -38 c 0 53 c 0 -250 4829 1498 l 0 41 4786 1577 l 30 -22 c 0 11 c 4 8 c 4 3 c 11 4 c 7 0 c
12 -4 c 7 -7 c 4 -11 c 0 -12 c -4 -11 c -3 -4 c -8 -4 c -7 -4 4797 1694 l -4 -11 c 0 -8 c 4 -11 c 11 -8 c 19 -3 c 19 0 c 15 3 c
7 8 c 4 11 c 0 4 c -4 11 c -7 8 c -12 4 c -3 0 c -12 -4 c -7 -8 c -4 -11 c 0 -4 c 4 -11 c 7 -8 c 12 -3 c -7 -4 4797 1770 l -4 -11 c
0 -8 c 4 -11 c 11 -8 c 19 -4 c 19 0 c 15 4 c 7 8 c 4 11 c 0 4 c -4 11 c -7 8 c -12 3 c -3 0 c -12 -3 c -7 -8 c -4 -11 c 0 -4 c
4 -11 c 7 -8 c 12 -4 c -7 -4 4797 1845 l -4 -11 c 0 -7 c 4 -12 c 11 -7 c 19 -4 c 19 0 c 15 4 c 7 7 c 4 12 c 0 3 c -4 12 c -7 7 c
-12 4 c -3 0 c -12 -4 c -7 -7 c -4 -12 c 0 -3 c 4 -12 c 7 -7 c 12 -4 c 3 -4 4858 1879 l 4 4 c -4 4 c -3 -4 c 12 -4 4812 1959 l
7 -8 c 4 -11 c 0 -4 c -4 -11 c -7 -8 c -12 -4 c -4 0 c -11 4 c -7 8 c -4 11 c 0 4 c 4 11 c 7 8 c 15 4 c 19 0 c 19 -4 c 11 -8 c
4 -11 c 0 -8 c -4 -11 c -7 -4 c 4 -11 4786 2004 l 7 -4 c 8 0 c 7 4 c 4 7 c 4 15 c 4 12 c 7 7 c 8 4 c 11 0 c 8 -4 c 3 -4 c 4 -11 c
0 -15 c -4 -11 c -3 -4 c -8 -4 c -11 0 c -8 4 c -7 7 c -4 12 c -4 15 c -4 7 c -7 4 c -8 0 c -7 -4 c -4 -11 c 0 -15 c
-4 8 4801 2072 l -11 11 c 79 0 c 0 -249 5025 1679 l 0 41 4981 1759 l 30 -22 c 0 11 c 4 7 c 4 4 c 11 4 c 8 0 c 11 -4 c 7 -7 c 4 -12 c
0 -11 c -4 -11 c -3 -4 c -8 -4 c -7 -4 4992 1876 l -4 -11 c 0 -8 c 4 -11 c 11 -8 c 19 -4 c 19 0 c 15 4 c 7 8 c 4 11 c 0 4 c -4 11 c
-7 8 c -11 4 c -4 0 c -12 -4 c -7 -8 c -4 -11 c 0 -4 c 4 -11 c 7 -8 c 12 -4 c -7 -3 4992 1951 l -4 -12 c 0 -7 c 4 -12 c 11 -7 c
19 -4 c 19 0 c 15 4 c 7 7 c 4 12 c 0 4 c -4 11 c -7 7 c -11 4 c -4 0 c -12 -4 c -7 -7 c -4 -11 c 0 -4 c 4 -12 c 7 -7 c 12 -4 c
4 -12 4981 1997 l 7 -3 c 8 0 c 7 3 c 4 8 c 4 15 c 4 11 c 7 8 c 8 4 c 11 0 c 8 -4 c 3 -4 c 4 -11 c 0 -15 c -4 -12 c -3 -3 c -8 -4 c
-11 0 c -8 4 c -7 7 c -4 12 c -4 15 c -4 7 c -7 4 c -8 0 c -7 -4 c -4 -11 c 0 -15 c 3 -4 5053 2061 l 4 4 c -4 4 c -3 -4 c
-4 7 4996 2103 l -11 12 c 79 0 c 53 -38 4981 2205 l 0 57 c 79 0 4981 2205 l 4 -11 4981 2265 l 11 -8 c 19 -4 c 11 0 c 19 4 c 11 8 c
4 11 c 0 8 c -4 11 c -11 8 c -19 3 c -11 0 c -19 -3 c -11 -8 c -4 -11 c 0 -8 c 0 -250 5601 1763 l 0 42 5557 1842 l 30 -23 c 0 11 c
4 8 c 4 4 c 11 3 c 8 0 c 11 -3 c 8 -8 c 3 -11 c 0 -12 c -3 -11 c -4 -4 c -8 -3 c -7 -3 5568 1959 l -4 -12 c 0 -7 c 4 -12 c 11 -7 c
19 -4 c 19 0 c 15 4 c 8 7 c 3 12 c 0 3 c -3 12 c -8 7 c -11 4 c -4 0 c -11 -4 c -8 -7 c -4 -12 c 0 -3 c 4 -12 c 8 -7 c 11 -4 c
79 -38 5557 2039 l 0 53 5557 1986 l -4 7 5572 2073 l -11 12 c 79 0 c 4 -4 5629 2145 l 3 4 c -3 3 c -4 -3 c 0 -38 5557 2220 l 34 -3 c
-4 3 c -3 12 c 0 11 c 3 11 c 8 8 c 11 4 c 8 0 c 11 -4 c 8 -8 c 3 -11 c 0 -11 c -3 -12 c -4 -3 c -8 -4 c 53 -38 5557 2288 l 0 57 c
79 0 5557 2288 l 4 -12 5557 2349 l 11 -7 c 19 -4 c 11 0 c 19 4 c 12 7 c 3 12 c 0 7 c -3 11 c -12 8 c -19 4 c -11 0 c -19 -4 c
-11 -8 c -4 -11 c 0 -7 c 0 -250 5730 1538 l 0 42 5686 1617 l 30 -23 c 0 11 c 4 8 c 4 4 c 11 4 c 8 0 c 11 -4 c 8 -8 c 4 -11 c 0 -11 c
-4 -12 c -4 -4 c -7 -3 c -8 -3 5698 1734 l -4 -12 c 0 -7 c 4 -12 c 11 -7 c 19 -4 c 19 0 c 15 4 c 8 7 c 4 12 c 0 3 c -4 12 c -8 7 c
-11 4 c -4 0 c -11 -4 c -8 -7 c -4 -12 c 0 -3 c 4 -12 c 8 -7 c 11 -4 c 80 -38 5686 1814 l 0 53 5686 1761 l -4 0 5705 1840 l -7 4 c
-4 4 c -4 7 c 0 15 c 4 8 c 4 4 c 7 4 c 8 0 c 7 -4 c 12 -8 c 38 -38 c 0 53 c 4 -4 5758 1920 l 4 4 c -4 3 c -4 -3 c 0 42 5686 1957 l
30 -23 c 0 12 c 4 7 c 4 4 c 11 4 c 8 0 c 11 -4 c 8 -8 c 4 -11 c 0 -11 c -4 -12 c -4 -3 c -7 -4 c 4 -11 5686 2048 l 11 -8 c 19 -4 c
12 0 c 19 4 c 11 8 c 4 11 c 0 8 c -4 11 c -11 8 c -19 3 c -12 0 c -19 -3 c -11 -8 c -4 -11 c 0 -8 c 4 -12 5686 2124 l 11 -7 c
19 -4 c 12 0 c 19 4 c 11 7 c 4 12 c 0 7 c -4 12 c -11 7 c -19 4 c -12 0 c -19 -4 c -11 -7 c -4 -12 c 0 -7 c 0 -249 6290 7019 l
0 42 6246 7098 l 30 -23 c 0 12 c 4 7 c 4 4 c 11 4 c 8 0 c 11 -4 c 8 -8 c 4 -11 c 0 -11 c -4 -12 c -4 -3 c -8 -4 c -8 -4 6258 7216 l
-4 -11 c 0 -8 c 4 -11 c 11 -8 c 19 -4 c 19 0 c 15 4 c 8 8 c 4 11 c 0 4 c -4 11 c -8 8 c -11 3 c -4 0 c -11 -3 c -8 -8 c -4 -11 c
0 -4 c 4 -11 c 8 -8 c 11 -4 c 80 -38 6246 7295 l 0 53 6246 7242 l 0 -38 6246 7363 l 34 -4 c -4 4 c -3 12 c 0 11 c 3 11 c 8 8 c
11 4 c 8 0 c 11 -4 c 8 -8 c 4 -11 c 0 -11 c -4 -12 c -4 -4 c -8 -3 c 4 -4 6318 7401 l 4 4 c -4 4 c -4 -4 c 0 -37 6246 7476 l 34 -4 c
-4 4 c -3 11 c 0 11 c 3 12 c 8 7 c 11 4 c 8 0 c 11 -4 c 8 -7 c 4 -12 c 0 -11 c -4 -11 c -4 -4 c -8 -4 c -8 -4 6258 7556 l -4 -11 c
0 -8 c 4 -11 c 11 -8 c 19 -4 c 19 0 c 15 4 c 8 8 c 4 11 c 0 4 c -4 11 c -8 8 c -11 4 c -4 0 c -11 -4 c -8 -8 c -4 -11 c 0 -4 c
4 -11 c 8 -8 c 11 -4 c 4 -11 6246 7601 l 8 -4 c 7 0 c 8 4 c 3 7 c 4 15 c 4 12 c 8 7 c 7 4 c 11 0 c 8 -4 c 4 -3 c 4 -12 c 0 -15 c
-4 -11 c -4 -4 c -8 -4 c -11 0 c -7 4 c -8 8 c -4 11 c -4 15 c -3 8 c -8 3 c -7 0 c -8 -3 c -4 -12 c 0 -15 c 0 -250 8605 1684 l
0 42 8561 1763 l 30 -23 c 0 11 c 4 8 c 4 4 c 11 3 c 8 0 c 11 -3 c 8 -8 c 4 -11 c 0 -12 c -4 -11 c -4 -4 c -8 -4 c -8 -4 8573 1880 l
-4 -11 c 0 -8 c 4 -11 c 11 -7 c 19 -4 c 19 0 c 15 4 c 8 7 c 4 11 c 0 4 c -4 12 c -8 7 c -11 4 c -4 0 c -11 -4 c -8 -7 c -4 -12 c
0 -4 c 4 -11 c 8 -7 c 11 -4 c 4 -11 8561 1925 l 8 -4 c 7 0 c 8 4 c 3 8 c 4 15 c 4 11 c 8 8 c 7 3 c 11 0 c 8 -3 c 4 -4 c 4 -11 c
0 -16 c -4 -11 c -4 -4 c -8 -3 c -11 0 c -7 3 c -8 8 c -4 11 c -4 15 c -3 8 c -8 4 c -7 0 c -8 -4 c -4 -11 c 0 -16 c
4 -11 8561 2001 l 8 -4 c 7 0 c 8 4 c 3 7 c 4 15 c 4 12 c 8 7 c 7 4 c 11 0 c 8 -4 c 4 -3 c 4 -12 c 0 -15 c -4 -11 c -4 -4 c -8 -4 c
-11 0 c -7 4 c -8 8 c -4 11 c -4 15 c -3 8 c -8 3 c -7 0 c -8 -3 c -4 -12 c 0 -15 c 4 -3 8633 2065 l 4 3 c -4 4 c -4 -4 c
80 -37 8561 2148 l 0 52 8561 2096 l -8 -4 8573 2220 l -4 -11 c 0 -7 c 4 -12 c 11 -7 c 19 -4 c 19 0 c 15 4 c 8 7 c 4 12 c 0 3 c
-4 12 c -8 7 c -11 4 c -4 0 c -11 -4 c -8 -7 c -4 -12 c 0 -3 c 4 -12 c 8 -7 c 11 -4 c 4 -11 8561 2269 l 11 -7 c 19 -4 c 12 0 c
18 4 c 12 7 c 4 11 c 0 8 c -4 11 c -12 8 c -18 4 c -12 0 c -19 -4 c -11 -8 c -4 -11 c 0 -8 c 0 -249 8940 4113 l 0 42 8896 4192 l
30 -23 c 0 12 c 4 7 c 4 4 c 11 4 c 8 0 c 11 -4 c 8 -7 c 4 -12 c 0 -11 c -4 -12 c -4 -3 c -8 -4 c -7 -4 8907 4310 l -4 -11 c 0 -8 c
4 -11 c 11 -8 c 19 -4 c 19 0 c 15 4 c 8 8 c 4 11 c 0 4 c -4 11 c -8 8 c -11 3 c -4 0 c -11 -3 c -8 -8 c -4 -11 c 0 -4 c 4 -11 c
8 -8 c 11 -4 c 11 -4 8923 4385 l 7 -7 c 4 -11 c 0 -4 c -4 -12 c -7 -7 c -11 -4 c -4 0 c -12 4 c -7 7 c -4 12 c 0 4 c 4 11 c 7 7 c
16 4 c 18 0 c 19 -4 c 12 -7 c 4 -11 c 0 -8 c -4 -11 c -8 -4 c 4 -11 8896 4434 l 11 -8 c 19 -3 c 11 0 c 19 3 c 12 8 c 4 11 c 0 8 c
-4 11 c -12 8 c -19 4 c -11 0 c -19 -4 c -11 -8 c -4 -11 c 0 -8 c 4 -4 8968 4495 l 4 4 c -4 4 c -4 -4 c -7 -4 8907 4574 l -4 -11 c
0 -7 c 4 -12 c 11 -7 c 19 -4 c 19 0 c 15 4 c 8 7 c 4 12 c 0 3 c -4 12 c -8 7 c -11 4 c -4 0 c -11 -4 c -8 -7 c -4 -12 c 0 -3 c
4 -12 c 8 -7 c 11 -4 c -4 0 8915 4604 l -7 4 c -4 4 c -4 8 c 0 15 c 4 7 c 4 4 c 7 4 c 8 0 c 7 -4 c 12 -8 c 38 -37 c 0 53 c
53 -38 8896 4714 l 0 57 c 80 0 8896 4714 l 0 -250 9291 2338 l 0 42 9248 2417 l 30 -23 c 0 11 c 4 8 c 3 4 c 12 3 c 7 0 c 12 -3 c
7 -8 c 4 -11 c 0 -12 c -4 -11 c -4 -4 c -7 -4 c -8 -4 9259 2534 l -3 -11 c 0 -7 c 3 -12 c 12 -7 c 19 -4 c 18 0 c 16 4 c 7 7 c 4 12 c
0 3 c -4 12 c -7 7 c -12 4 c -4 0 c -11 -4 c -7 -7 c -4 -12 c 0 -3 c 4 -12 c 7 -7 c 11 -4 c 11 -4 9274 2610 l 8 -8 c 4 -11 c 0 -4 c
-4 -11 c -8 -8 c -11 -3 c -4 0 c -11 3 c -8 8 c -3 11 c 0 4 c 3 11 c 8 8 c 15 4 c 19 0 c 19 -4 c 11 -8 c 4 -11 c 0 -7 c -4 -12 c
-7 -4 c -3 0 9266 2640 l -8 4 c -4 4 c -3 7 c 0 15 c 3 8 c 4 4 c 8 3 c 7 0 c 8 -3 c 11 -8 c 38 -38 c 0 53 c 4 -3 9319 2719 l 4 3 c
-4 4 c -4 -4 c 0 -38 9248 2795 l 34 -4 c -4 4 c -4 12 c 0 11 c 4 11 c 7 8 c 12 4 c 7 0 c 12 -4 c 7 -8 c 4 -11 c 0 -11 c -4 -12 c
-4 -4 c -7 -3 c -8 -3 9259 2874 l -3 -12 c 0 -7 c 3 -12 c 12 -7 c 19 -4 c 18 0 c 16 4 c 7 7 c 4 12 c 0 3 c -4 12 c -7 7 c -12 4 c
-4 0 c -11 -4 c -7 -7 c -4 -12 c 0 -3 c 4 -12 c 7 -7 c 11 -4 c -8 -4 9259 2950 l -3 -11 c 0 -8 c 3 -11 c 12 -8 c 19 -3 c 18 0 c
16 3 c 7 8 c 4 11 c 0 4 c -4 11 c -7 8 c -12 4 c -4 0 c -11 -4 c -7 -8 c -4 -11 c 0 -4 c 4 -11 c 7 -8 c 11 -3 c
showpage PGPLOT restore
 
%%Trailer
%%DocumentFonts: 
%%Pages: 1
%%EOF
