%!PS-Adobe-3.0 EPSF-3.0
%%For: tom
%%Title: PGPLOT PostScript plot
%%Creator: PGPLOT
%%CreationDate:  9-Nov-1994 13:30
%%BoundingBox: 25 18 587 774
%%DocumentFonts: (atend)
%%LanguageLevel: 1
%%Orientation: Landscape
%%Pages: (atend)
%%EndComments
%%BeginProlog
/l {moveto rlineto currentpoint stroke moveto} bind def
/c {rlineto currentpoint stroke moveto} bind def
/d {moveto 0 0 rlineto currentpoint stroke moveto} bind def
/SLW {5 mul setlinewidth} bind def
/SCF /pop load def
/BP {newpath moveto} bind def
/LP /rlineto load def
/EP {rlineto closepath eofill} bind def
/MB {gsave translate MFAC dup scale 1 setlinewidth 2 setlinecap 0 setlinejoin newpath} bind def
/ME /grestore load def
/C {0 360 arc stroke} bind def
/FC {0 360 arc fill} bind def
%%EndProlog
 
%%Page: 1 1
%%BeginPageSetup
/PGPLOT save def
0.072 0.072 scale
8150 250 translate 90 rotate
1 setlinejoin 1 setlinecap 1 SLW 1 SCF
%%EndPageSetup
0.00 setgray 1 SLW 8939 0 780 780 l 0 6239 c -8939 0 c 0 -6239 c 0 -45 1116 780 l 0 -45 1554 780 l 0 -45 1991 780 l 0 -45 2428 780 l
0 -90 2865 780 l 0 -45 3302 780 l 0 -45 3739 780 l 0 -45 4176 780 l 0 -45 4613 780 l 0 -90 5051 780 l 0 -45 5488 780 l
0 -45 5925 780 l 0 -45 6362 780 l 0 -45 6799 780 l 0 -90 7236 780 l 0 -45 7673 780 l 0 -45 8110 780 l 0 -45 8548 780 l
0 -45 8985 780 l 0 -90 9422 780 l 0 -45 1116 7064 l 0 -45 1554 7064 l 0 -45 1991 7064 l 0 -45 2428 7064 l 0 -90 2865 7109 l
0 -45 3302 7064 l 0 -45 3739 7064 l 0 -45 4176 7064 l 0 -45 4613 7064 l 0 -90 5051 7109 l 0 -45 5488 7064 l 0 -45 5925 7064 l
0 -45 6362 7064 l 0 -45 6799 7064 l 0 -90 7236 7109 l 0 -45 7673 7064 l 0 -45 8110 7064 l 0 -45 8548 7064 l 0 -45 8985 7064 l
0 -90 9422 7109 l -60 0 2775 672 l -6 -54 c 6 6 c 18 6 c 18 0 c 18 -6 c 12 -12 c 6 -18 c 0 -12 c -6 -18 c -12 -12 c -18 -6 c -18 0 c
-18 6 c -6 6 c -6 12 c -18 -6 2859 672 l -12 -18 c -6 -30 c 0 -18 c 6 -30 c 12 -18 c 18 -6 c 12 0 c 18 6 c 12 18 c 6 30 c 0 18 c
-6 30 c -12 18 c -18 6 c -12 0 c -18 -6 2979 672 l -12 -18 c -6 -30 c 0 -18 c 6 -30 c 12 -18 c 18 -6 c 12 0 c 18 6 c 12 18 c 6 30 c
0 18 c -6 30 c -12 18 c -18 6 c -12 0 c 12 6 4847 648 l 18 18 c 0 -126 c -18 -6 4985 672 l -12 -18 c -6 -30 c 0 -18 c 6 -30 c
12 -18 c 18 -6 c 12 0 c 18 6 c 12 18 c 6 30 c 0 18 c -6 30 c -12 18 c -18 6 c -12 0 c -18 -6 5105 672 l -12 -18 c -6 -30 c 0 -18 c
6 -30 c 12 -18 c 18 -6 c 12 0 c 18 6 c 12 18 c 6 30 c 0 18 c -6 30 c -12 18 c -18 6 c -12 0 c -18 -6 5225 672 l -12 -18 c -6 -30 c
0 -18 c 6 -30 c 12 -18 c 18 -6 c 12 0 c 18 6 c 12 18 c 6 30 c 0 18 c -6 30 c -12 18 c -18 6 c -12 0 c 12 6 7032 648 l 18 18 c
0 -126 c -60 0 7206 672 l -6 -54 c 6 6 c 18 6 c 18 0 c 18 -6 c 12 -12 c 6 -18 c 0 -12 c -6 -18 c -12 -12 c -18 -6 c -18 0 c -18 6 c
-6 6 c -6 12 c -18 -6 7290 672 l -12 -18 c -6 -30 c 0 -18 c 6 -30 c 12 -18 c 18 -6 c 12 0 c 18 6 c 12 18 c 6 30 c 0 18 c -6 30 c
-12 18 c -18 6 c -12 0 c -18 -6 7410 672 l -12 -18 c -6 -30 c 0 -18 c 6 -30 c 12 -18 c 18 -6 c 12 0 c 18 6 c 12 18 c 6 30 c 0 18 c
-6 30 c -12 18 c -18 6 c -12 0 c 0 6 9206 642 l 6 12 c 6 6 c 12 6 c 24 0 c 12 -6 c 6 -6 c 6 -12 c 0 -12 c -6 -12 c -12 -18 c
-60 -60 c 84 0 c -18 -6 9356 672 l -12 -18 c -6 -30 c 0 -18 c 6 -30 c 12 -18 c 18 -6 c 12 0 c 18 6 c 12 18 c 6 30 c 0 18 c -6 30 c
-12 18 c -18 6 c -12 0 c -18 -6 9476 672 l -12 -18 c -6 -30 c 0 -18 c 6 -30 c 12 -18 c 18 -6 c 12 0 c 18 6 c 12 18 c 6 30 c 0 18 c
-6 30 c -12 18 c -18 6 c -12 0 c -18 -6 9596 672 l -12 -18 c -6 -30 c 0 -18 c 6 -30 c 12 -18 c 18 -6 c 12 0 c 18 6 c 12 18 c 6 30 c
0 18 c -6 30 c -12 18 c -18 6 c -12 0 c -90 0 780 780 l -45 0 780 1061 l -45 0 780 1343 l -45 0 780 1624 l -45 0 780 1906 l
-90 0 780 2187 l -45 0 780 2469 l -45 0 780 2750 l -45 0 780 3032 l -45 0 780 3313 l -90 0 780 3595 l -45 0 780 3876 l
-45 0 780 4158 l -45 0 780 4439 l -45 0 780 4721 l -90 0 780 5002 l -45 0 780 5284 l -45 0 780 5565 l -45 0 780 5846 l
-45 0 780 6128 l -90 0 780 6409 l -45 0 780 6691 l -45 0 780 6972 l -90 0 9809 780 l -45 0 9764 1061 l -45 0 9764 1343 l
-45 0 9764 1624 l -45 0 9764 1906 l -90 0 9809 2187 l -45 0 9764 2469 l -45 0 9764 2750 l -45 0 9764 3032 l -45 0 9764 3313 l
-90 0 9809 3595 l -45 0 9764 3876 l -45 0 9764 4158 l -45 0 9764 4439 l -45 0 9764 4721 l -90 0 9809 5002 l -45 0 9764 5284 l
-45 0 9764 5565 l -45 0 9764 5846 l -45 0 9764 6128 l -90 0 9809 6409 l -45 0 9764 6691 l -45 0 9764 6972 l 6 -18 517 774 l 18 -12 c
30 -6 c 18 0 c 30 6 c 18 12 c 6 18 c 0 12 c -6 18 c -18 12 c -30 6 c -18 0 c -30 -6 c -18 -12 c -6 -18 c 0 -12 c 0 -60 517 2037 l
54 -6 c -6 6 c -6 18 c 0 18 c 6 18 c 12 12 c 18 6 c 12 0 c 18 -6 c 12 -12 c 6 -18 c 0 -18 c -6 -18 c -6 -6 c -12 -6 c
6 -18 517 2121 l 18 -12 c 30 -6 c 18 0 c 30 6 c 18 12 c 6 18 c 0 12 c -6 18 c -18 12 c -30 6 c -18 0 c -30 -6 c -18 -12 c -6 -18 c
0 -12 c 6 -18 517 2241 l 18 -12 c 30 -6 c 18 0 c 30 6 c 18 12 c 6 18 c 0 12 c -6 18 c -18 12 c -30 6 c -18 0 c -30 -6 c -18 -12 c
-6 -18 c 0 -12 c 6 -18 517 2361 l 18 -12 c 30 -6 c 18 0 c 30 6 c 18 12 c 6 18 c 0 12 c -6 18 c -18 12 c -30 6 c -18 0 c -30 -6 c
-18 -12 c -6 -18 c 0 -12 c -6 12 541 3475 l -18 18 c 126 0 c 6 -18 517 3613 l 18 -12 c 30 -6 c 18 0 c 30 6 c 18 12 c 6 18 c 0 12 c
-6 18 c -18 12 c -30 6 c -18 0 c -30 -6 c -18 -12 c -6 -18 c 0 -12 c 63 -45 453 3737 l 0 68 c 94 0 453 3737 l -6 12 541 4666 l
-18 18 c 126 0 c 6 -6 631 4780 l 6 6 c -6 6 c -6 -6 c 0 -60 517 4900 l 54 -6 c -6 6 c -6 18 c 0 18 c 6 18 c 12 12 c 18 6 c 12 0 c
18 -6 c 12 -12 c 6 -18 c 0 -18 c -6 -18 c -6 -6 c -12 -6 c 84 84 547 4954 l 84 -84 547 5038 l -6 12 541 5098 l -18 18 c 126 0 c
6 -18 517 5236 l 18 -12 c 30 -6 c 18 0 c 30 6 c 18 12 c 6 18 c 0 12 c -6 18 c -18 12 c -30 6 c -18 0 c -30 -6 c -18 -12 c -6 -18 c
0 -12 c 63 -45 453 5360 l 0 68 c 94 0 453 5360 l -6 0 547 6151 l -12 6 c -6 6 c -6 12 c 0 24 c 6 12 c 6 6 c 12 6 c 12 0 c 12 -6 c
18 -12 c 60 -60 c 0 84 c 84 84 547 6271 l 84 -84 547 6355 l -6 12 541 6415 l -18 18 c 126 0 c 6 -18 517 6553 l 18 -12 c 30 -6 c
18 0 c 30 6 c 18 12 c 6 18 c 0 12 c -6 18 c -18 12 c -30 6 c -18 0 c -30 -6 c -18 -12 c -6 -18 c 0 -12 c 63 -45 453 6678 l 0 67 c
94 0 453 6678 l
4 0 780 798 l 5 1 c 4 -1 c 4 1 c 5 -1 c 4 1 c 4 -2 c 5 1 c 4 1 c 5 2 c 4 5 c 4 2 c 5 6 c 4 8 c 4 1 c 5 -3 c 4 -4 c 5 -5 c 4 13 c
4 29 c 5 3 c 4 -6 c 4 -20 c 5 -27 c 4 -3 c 5 1 c 4 5 c 4 4 c 5 0 c 4 -1 c 4 -6 c 5 -3 c 4 0 c 5 -2 c 4 -1 c 4 1 c 5 0 c 4 0 c 4 0 c
5 0 c 4 0 c 4 -1 c 5 0 c 4 0 c 5 1 c 4 -1 c 4 0 c 5 1 c 4 0 c 4 2 c 5 -2 c 4 1 c 5 4 c 4 3 c 4 4 c 5 4 c 4 16 c 4 15 c 5 -1 c 4 -4 c
5 -15 c 4 3 c 4 4 c 5 -4 c 4 -10 c 4 -17 c 5 -2 c 4 0 c 5 0 c 4 0 c 4 1 c 5 0 c 4 4 c 4 4 c 5 2 c 4 1 c 4 -3 c 5 -4 c 4 -1 c 5 0 c
4 2 c 4 9 c 5 3 c 4 -37 c 5 22 1151 780 l 4 -2 c 5 0 c 4 2 c 4 -1 c 5 4 c 4 2 c 4 0 c 5 2 c 4 -3 c 5 -3 c 4 0 c 4 0 c 5 -2 c 4 0 c
4 1 c 5 0 c 4 0 c 5 2 c 4 2 c 4 2 c 5 8 c 4 8 c 4 0 c 5 1 c 4 18 c 4 92 c 5 174 c 4 426 c 5 841 c 4 71 c 4 -107 c 5 -457 c 4 -579 c
4 -110 c 5 -93 c 4 -207 c 5 -70 c 4 -12 c 4 -4 c 5 -1 c 4 0 c 4 -3 c 5 -1 c 4 0 c 5 0 c 4 -1 c 4 0 c 5 1 c 4 0 c 4 0 c 5 -1 c 4 -1 c
5 1 c 4 3 c 4 4 c 5 6 c 4 -1 c 4 1 c 5 -1 c 4 9 c 4 22 c 5 3 c 4 -5 c 5 -17 c 4 -18 c 4 4 c 5 1 c 4 -2 c 4 -3 c 5 -7 c 4 0 c 5 -2 c
4 2 c 4 0 c 5 -1 c 4 0 c 4 0 c 5 0 c 4 0 c 5 0 c 4 0 c 4 1 c 5 -1 c 4 1 c 4 3 c 5 7 c 4 1 c 4 -2 c 5 -4 c 4 -6 c 5 -1 c 4 1 c 4 0 c
5 0 c 4 2 c 4 4 c 5 5 c 4 0 c 5 -2 c 4 -6 c 4 -3 c 5 0 c 4 0 c 4 1 c 5 2 c 4 1 c 5 7 c 4 8 c 4 8 c 5 3 c 4 -8 c 4 -10 c 5 -9 c 4 0 c
5 -2 c 4 0 c 4 -1 c 5 0 c 4 0 c 4 0 c 5 1 c 4 1 c 4 9 c 5 19 c 4 65 c 5 102 c 4 -4 c 4 -17 c 5 -86 c 4 -70 c 4 -1 c 5 2 c 4 -1 c
5 -6 c 4 -10 c 4 -1 c 5 0 c 4 0 c 4 0 c 5 2 c 4 0 c 5 1 c 4 0 c 4 -2 c 5 -3 c 4 0 c 4 0 c 5 -1 c 4 -1 c 5 2 c 4 0 c 4 0 c 5 0 c
4 -1 c 4 0 c 5 1 c 4 0 c 4 -1 c 5 1 c 4 -1 c 5 0 c 4 1 c 4 -1 c 5 0 c 4 0 c 4 0 c 5 0 c 4 1 c 5 -1 c 4 0 c 4 1 c 5 -1 c 4 2 c 4 0 c
5 1 c 4 3 c 5 5 c 4 5 c 4 -2 c 5 -3 c 4 -8 c 4 -1 c 5 0 c 4 2 c 5 2 c 4 3 c 4 0 c 5 -3 c 4 -1 c 4 0 c 5 3 c 4 3 c 4 1 c 5 -1 c
4 -2 c 5 13 c 4 52 c 4 198 c 5 218 c 4 15 c 4 -68 c 5 -264 c 4 -156 c 5 -12 c 4 -1 c 4 4 c 5 18 c 4 23 c 4 5 c 5 -8 c 4 -26 c
5 -16 c 4 -3 c 4 0 c 5 0 c 4 0 c 4 1 c 5 1 c 4 0 c 5 3 c 4 1 c 4 11 c 5 27 c 4 26 c 4 13 c 5 -14 c 4 -27 c 4 -19 c 5 -12 c 4 -2 c
5 -3 c 4 -2 c 4 -1 c 5 0 c 4 -2 c 4 0 c 5 1 c 4 -1 c 5 1 c 4 1 c 4 0 c 5 5 c 4 2 c 4 0 c 5 -2 c 4 -4 c 5 1 c 4 3 c 4 6 c 5 1 c 4 0 c
4 5 c 5 40 c 4 163 c 4 262 c 5 63 c 4 -39 c 5 -190 c 4 -248 c 4 -54 c 5 -7 c 4 -4 c 4 0 c 5 -2 c 4 -1 c 5 1 c 4 9 c 4 33 c 5 24 c
4 -3 c 4 -10 c 5 -40 c 4 -15 c 5 -1 c 4 -2 c 4 1 c 5 0 c 4 -1 c 4 1 c 5 -1 c 4 1 c 5 0 c 4 0 c 4 0 c 5 2 c 4 1 c 4 -2 c 5 0 c 4 -1 c
4 1 c 5 -1 c 4 5 c 5 1 c 4 -1 c 4 -1 c 5 -3 c 4 -1 c 4 0 c 5 1 c 4 -1 c 5 0 c 4 1 c 4 1 c 5 -1 c 4 0 c 4 1 c 5 0 c 4 5 c 5 23 c
4 48 c 4 9 c 5 -7 c 4 -31 c 4 -39 c 5 -5 c 4 -1 c 5 -2 c 4 0 c 4 3 c 5 1 c 4 0 c 4 -1 c 5 3 c 4 0 c 4 -2 c 5 -2 c 4 -2 c 5 -1 c
4 1 c 4 -2 c 5 0 c 4 0 c 4 0 c 5 0 c 4 -1 c 5 1 c 4 1 c 4 0 c 5 0 c 4 -2 c 4 1 c 5 0 c 4 1 c 5 0 c 4 2 c 4 0 c 5 1 c 4 -1 c 4 -2 c
5 1 c 4 0 c 5 -1 c 4 -2 c 4 0 c 5 1 c 4 1 c 4 1 c 5 0 c 4 3 c 4 8 c 5 2 c 4 0 c 5 -5 c 4 -7 c 4 -2 c 5 1 c 4 1 c 4 0 c 5 0 c 4 1 c
5 5 c 4 5 c 4 -1 c 5 -3 c 4 -5 c 4 -2 c 5 1 c 4 1 c 5 1 c 4 3 c 4 3 c 5 15 c 4 149 c 4 466 c 5 172 c 4 -11 c 4 -220 c 5 -462 c
4 -111 c 5 -3 c 4 1 c 4 -1 c 5 3 c 4 1 c 4 3 c 5 -2 c 4 -4 c 5 -2 c 4 -4 c 4 -1 c 5 0 c 4 2 c 4 0 c 5 4 c 4 31 c 5 37 c 4 3 c 4 -3 c
5 -36 c 4 -12 c 4 35 c 5 4 c 4 -6 c 5 -19 c 4 -33 c 4 -6 c 5 1 c 4 -1 c 4 0 c 5 0 c 4 -1 c 4 -1 c 5 0 c 4 1 c 5 0 c 4 1 c 4 0 c
5 -1 c 4 -1 c 4 0 c 5 0 c 4 -1 c 5 1 c 4 -2 c 4 1 c 5 0 c 4 1 c 4 1 c 5 0 c 4 -1 c 5 1 c 4 -2 c 4 1 c 5 -2 c 4 2 c 4 0 c 5 -1 c
4 0 c 5 0 c 4 2 c 4 0 c 5 -1 c 4 4 c 4 23 c 5 28 c 4 1 c 4 -3 c 5 -28 c 4 -23 c 5 -1 c 4 -1 c 4 -1 c 5 1 c 4 -1 c 4 1 c 5 0 c 4 0 c
5 0 c 4 0 c 4 1 c 5 0 c 4 1 c 4 10 c 5 33 c 4 10 c 5 0 c 4 -15 c 4 -34 c 5 -6 c 4 1 c 4 0 c 5 0 c 4 2 c 5 3 c 4 1 c 4 0 c 5 -2 c
4 -1 c 4 -2 c 5 1 c 4 -2 c 4 -1 c 5 -1 c 4 2 c 5 4 c 4 7 c 4 2 c 5 0 c 4 -6 c 4 -4 c 5 -1 c 4 0 c 5 -1 c 4 -2 c 4 -1 c 5 1 c 4 0 c
4 1 c 5 2 c 4 10 c 5 4 c 4 3 c 4 -4 c 5 -8 c 4 -5 c 4 -3 c 5 2 c 4 8 c 5 8 c 4 1 c 4 -3 c 5 -9 c 4 -6 c 4 -1 c 5 0 c 4 1 c 4 0 c
5 0 c 4 0 c 5 3 c 4 1 c 4 -1 c 5 0 c 4 -2 c 4 -1 c 5 5 c 4 5 c 5 2 c 4 15 c 4 3 c 5 -1 c 4 -3 c 4 1 c 5 5 c 4 2 c 5 -5 c 4 -18 c
4 -8 c 5 -2 c 4 -1 c 4 1 c 5 0 c 4 0 c 4 1 c 5 0 c 4 0 c 5 -1 c 4 -1 c 4 1 c 5 0 c 4 0 c 4 0 c 5 0 c 4 1 c 5 0 c 4 4 c 4 1 c 5 0 c
4 -2 c 4 -2 c 5 0 c 4 -1 c 5 2 c 4 -3 c 4 1 c 5 -1 c 4 1 c 4 1 c 5 0 c 4 -1 c 5 1 c 4 0 c 4 -1 c 5 1 c 4 1 c 4 31 c 5 125 c 4 45 c
4 -5 c 5 -47 c 4 -122 c 5 -27 c 4 0 c 4 -1 c 5 0 c 4 -2 c 4 2 c 5 12 c 4 37 c 5 21 c 4 1 c 4 -14 c 5 -35 c 4 -9 c 4 0 c 5 -5 c
4 -2 c 5 -1 c 4 3 c 4 5 c 5 9 c 4 2 c 4 -6 c 5 -5 c 4 -13 c 5 -1 c 4 -1 c 4 0 c 5 -1 c 4 1 c 4 1 c 5 1 c 4 -1 c 4 1 c 5 0 c 4 2 c
5 2 c 4 -1 c 4 -3 c 5 -1 c 4 3 c 4 5 c 5 5 c 4 0 c 5 -2 c 4 -5 c 4 -6 c 5 1 c 4 2 c 4 1 c 5 1 c 4 -2 c 5 -2 c 4 -1 c 4 -1 c 5 0 c
4 1 c 4 6 c 5 3 c 4 13 c 5 13 c 4 -1 c 4 -2 c 5 -15 c 4 -8 c 4 -2 c 5 -3 c 4 0 c 4 -2 c 5 1 c 4 0 c 5 3 c 4 40 c 4 104 c 5 19 c
4 -3 c 4 -53 c 5 -96 c 4 -12 c 5 -1 c 4 -2 c 4 0 c 5 -2 c 4 1 c 4 -1 c 5 1 c 4 1 c 5 1 c 4 2 c 4 1 c 5 1 c 4 0 c 4 -3 c 5 0 c 4 3 c
5 39 c 4 202 c 4 101 c 5 -1 c 4 -56 c 4 -220 c 5 -67 c 4 -4 c 4 0 c 5 1 c 4 -1 c 5 0 c 4 3 c 4 14 c 5 4 c 4 1 c 4 -4 c 5 -15 c
4 -4 c 5 1 c 4 1 c 4 0 c 5 -1 c 4 1 c 4 -1 c 5 3 c 4 24 c 5 158 c 4 143 c 4 59 c 5 -27 c 4 -190 c 4 -113 c 5 -44 c 4 1 c 4 -1 c
5 -3 c 4 -2 c 5 -8 c 4 -3 c 4 1 c 5 1 c 4 0 c 4 1 c 5 -1 c 4 1 c 5 -1 c 4 2 c 4 6 c 5 2 c 4 -1 c 4 -1 c 5 -4 c 4 10 c 5 10 c 4 1 c
4 -1 c 5 -9 c 4 -10 c 4 -2 c 5 14 c 4 60 c 5 31 c 4 3 c 4 -21 c 5 -66 c 4 -21 c 4 2 c 5 5 c 4 6 c 4 19 c 5 16 c 4 -5 c 5 -5 c
4 -18 c 4 -4 c 5 12 c 4 4 c 4 -2 c 5 6 c 4 71 c 5 34 c 4 -4 c 4 -19 c 5 -87 c 4 -32 c 4 -1 c 5 -1 c 4 0 c 5 0 c 4 0 c 4 0 c 5 1 c
4 0 c 4 1 c 5 1 c 4 1 c 5 1 c 4 0 c 4 -1 c 5 -3 c 4 0 c 4 -1 c 5 -1 c 4 0 c 4 -1 c 5 2 c 4 -1 c 5 0 c 4 2 c 4 1 c 5 9 c 4 14 c 4 4 c
5 0 c 4 3 c 5 -9 c 4 -1 c 4 -3 c 5 -9 c 4 -5 c 4 -2 c 5 1 c 4 2 c 5 3 c 4 -1 c 4 -1 c 5 -3 c 4 -2 c 4 -1 c 5 1 c 4 3 c 5 15 c
4 114 c 4 133 c 5 12 c 4 1 c 4 -53 c 5 -63 c 4 -5 c 4 -35 c 5 -89 c 4 -32 c 5 -1 c 4 1 c 4 0 c 5 2 c 4 0 c 4 -1 c 5 -1 c 4 1 c 5 0 c
4 3 c 4 1 c 5 2 c 4 0 c 4 35 c 5 105 c 4 55 c 5 3 c 4 -42 c 4 -104 c 5 -45 c 4 -6 c 4 -2 c 5 8 c 4 0 c 5 -2 c 4 -6 c 4 -2 c 5 16 c
4 8 c 4 0 c 5 -9 c 4 -18 c 4 -4 c 5 0 c 4 -1 c 5 1 c 4 1 c 4 0 c 5 0 c 4 23 c 4 37 c 5 9 c 4 -2 c 5 -20 c 4 -35 c 4 -37 c 5 30 c
4 -5 c 4 0 c 5 0 c 4 1 c 5 1 c 4 2 c 4 5 c 5 9 c 4 68 c 4 171 c 5 60 c 4 8 c 4 -55 c 5 -167 c 4 -38 c 5 7 c 4 -5 c 4 -12 c 5 -31 c
4 -19 c 4 0 c 5 1 c 4 1 c 5 -3 c 4 -3 c 4 -1 c 5 0 c 4 2 c 4 0 c 5 0 c 4 2 c 5 6 c 4 2 c 4 1 c 5 -2 c 4 -5 c 4 -1 c 5 -1 c 4 -2 c
5 -2 c 4 1 c 4 0 c 5 1 c 4 1 c 4 2 c 5 -2 c 4 2 c 4 2 c 5 0 c 4 1 c 5 -1 c 4 -3 c 4 0 c 5 0 c 4 -1 c 4 2 c 5 6 c 4 6 c 5 3 c 4 -2 c
4 2 c 5 -2 c 4 5 c 4 6 c 5 9 c 4 30 c 5 276 c 4 2025 c 4 2524 c 5 341 c 4 -366 c 4 -2276 c 5 -2256 c 4 -278 c 5 -12 c 4 -8 c 4 -7 c
5 -10 c 4 -8 c 4 -3 c 5 -2 c 4 -1 c 4 -1 c 5 0 c 4 -1 c 5 -2 c 4 1 c 4 -1 c 5 1 c 4 2 c 4 1 c 5 2 c 4 2 c 5 -2 c 4 -2 c 4 -2 c
5 -3 c 4 6 c 4 7 c 5 3 c 4 1 c 5 1 c 4 4 c 4 -1 c 5 -1 c 4 -5 c 4 0 c 5 -1 c 4 -1 c 5 -6 c 4 -7 c 4 -2 c 5 1 c 4 -2 c 4 1 c 5 0 c
4 -1 c 4 2 c 5 -2 c 4 1 c 5 0 c 4 4 c 4 6 c 5 1 c 4 -2 c 4 -3 c 5 -4 c 4 -1 c 5 0 c 4 13 c 4 41 c 5 15 c 4 -1 c 4 -14 c 5 -38 c
4 -10 c 5 0 c 4 -2 c 4 -2 c 5 -2 c 4 2 c 4 5 c 5 23 c 4 24 c 4 4 c 5 -1 c 4 -2 c 5 41 c 4 35 c 4 -4 c 5 -153 c 4 66 c 4 -24 c 5 1 c
4 10 c 5 79 c 4 620 c 4 944 c 5 165 c 4 -40 c 4 -634 c 5 -867 c 4 -182 c 5 -32 c 4 -106 c 5 77 5706 780 l 4 -34 c 4 -13 c 5 -1 c
4 -2 c 5 2 c 4 -3 c 4 0 c 5 -1 c 4 1 c 4 -1 c 5 -1 c 4 4 c 4 2 c 5 2 c 4 -1 c 5 -2 c 4 -1 c 4 2 c 5 7 c 4 2 c 4 1 c 5 14 c 4 56 c
5 27 c 4 7 c 4 42 c 5 42 c 4 -10 c 4 -6 c 5 -66 c 4 -96 c 5 -17 c 4 -3 c 4 -2 c 5 -1 c 4 0 c 4 2 c 5 -3 c 4 -1 c 5 -1 c 4 1 c 4 0 c
5 1 c 4 -1 c 4 -1 c 5 2 c 4 -1 c 4 3 c 5 3 c 4 1 c 5 1 c 4 -3 c 4 -3 c 5 -2 c 4 1 c 4 2 c 5 0 c 4 2 c 5 1 c 4 -1 c 4 -1 c 5 0 c
4 -4 c 4 1 c 5 7 c 4 31 c 5 19 c 4 0 c 4 -7 c 5 -31 c 4 -18 c 4 3 c 5 14 c 4 4 c 5 0 c 4 -1 c 4 14 c 5 18 c 4 1 c 4 -3 c 5 -29 c
4 -17 c 4 4 c 5 0 c 4 1 c 5 -3 c 4 -3 c 4 -2 c 5 1 c 4 -1 c 4 -2 c 5 0 c 4 1 c 5 -2 c 4 1 c 4 1 c 5 -4 c 4 0 c 4 1 c 5 12 c 4 6 c
5 3 c 4 -2 c 4 -10 c 5 -7 c 4 0 c 4 -1 c 5 -1 c 4 1 c 5 -1 c 4 3 c 4 3 c 5 2 c 4 4 c 4 -2 c 5 -2 c 4 -1 c 4 -1 c 5 -3 c 4 5 c 5 5 c
4 1 c 4 1 c 5 -4 c 4 -2 c 4 1 c 5 -1 c 4 -2 c 5 3 c 4 3 c 4 1 c 5 3 c 4 -3 c 4 -3 c 5 7 c 4 61 c 5 320 c 4 299 c 4 56 c 5 -57 c
4 -316 c 4 -319 c 5 -46 c 4 -5 c 4 -1 c 5 -2 c 4 -2 c 5 0 c 4 -2 c 4 -2 c 5 0 c 4 1 c 4 -1 c 5 0 c 4 0 c 5 0 c 4 0 c 4 1 c 5 0 c
4 2 c 4 -2 c 5 2 c 4 8 c 5 3 c 4 15 c 4 8 c 5 -2 c 4 -1 c 4 -15 c 5 -11 c 4 -7 c 5 -2 c 4 -1 c 4 2 c 5 5 c 4 31 c 4 30 c 5 5 c
4 -4 c 4 -35 c 5 -30 c 4 -3 c 5 1 c 4 0 c 4 5 c 5 5 c 4 -1 c 4 3 c 5 -5 c 4 -6 c 5 -1 c 4 0 c 4 0 c 5 1 c 4 2 c 4 3 c 5 3 c 4 3 c
5 1 c 4 -4 c 4 -3 c 5 -4 c 4 2 c 4 -30 c 5 32 c 4 4 c 5 34 c 4 109 c 4 245 c 5 309 c 4 35 c 4 -105 c 5 -232 c 4 -310 c 4 -19 c 5 9 c
4 -6 c 5 -21 c 4 -42 c 4 -11 c 5 -1 c 4 -1 c 4 -1 c 5 -2 c 4 0 c 5 5 c 4 5 c 4 -1 c 5 0 c 4 -4 c 4 -4 c 5 -1 c 4 0 c 5 -1 c 4 1 c
4 2 c 5 4 c 4 3 c 4 2 c 5 -3 c 4 -2 c 5 -2 c 4 -3 c 4 1 c 5 0 c 4 -1 c 4 0 c 5 0 c 4 -1 c 4 -1 c 5 1 c 4 2 c 5 3 c 4 3 c 4 5 c 5 7 c
4 29 c 4 294 c 5 527 c 4 146 c 5 -16 c 4 -321 c 4 -521 c 5 -145 c 4 -9 c 4 1 c 5 -2 c 4 0 c 5 -1 c 4 -1 c 4 -1 c 5 2 c 4 5 c 4 2 c
5 0 c 4 0 c 5 -6 c 4 -1 c 4 -1 c 5 0 c 4 0 c 4 0 c 5 -1 c 4 5 c 4 8 c 5 2 c 4 0 c 5 -5 c 4 -8 c 4 -2 c 5 -1 c 4 1 c 4 0 c 5 3 c
4 1 c 5 2 c 4 4 c 4 -2 c 5 0 c 4 -2 c 4 1 c 5 -1 c 4 0 c 5 -3 c 4 -2 c 4 2 c 5 2 c 4 2 c 4 4 c 5 1 c 4 0 c 4 -1 c 5 -5 c 4 0 c 5 1 c
4 2 c 4 12 c 5 16 c 4 9 c 4 4 c 5 2 c 4 -5 c 5 -1 c 4 4 c 4 2 c 5 60 c 4 415 c 4 2242 c 5 1881 c 4 1069 c 5 312 c 4 -1874 c
4 -1988 c 5 -1242 c 4 -782 c 4 -100 c 5 -12 c 4 -5 c 5 -6 c 4 -4 c 4 -2 c 5 -2 c 4 -4 c 4 0 c 5 -2 c 4 1 c 4 1 c 5 3 c 4 -1 c 5 -2 c
4 -2 c 4 -1 c 5 3 c 4 28 c 4 41 c 5 14 c 4 10 c 5 -27 c 4 -39 c 4 -20 c 5 -11 c 4 -2 c 4 3 c 5 5 c 4 1 c 5 -1 c 4 -4 c 4 -3 c 5 6 c
4 55 c 4 111 c 5 26 c 4 -12 c 5 -56 c 4 -105 c 4 -20 c 5 0 c 4 2 c 4 -3 c 5 -1 c 4 -2 c 4 -1 c 5 -1 c 4 -3 c 5 -1 c 4 -1 c 4 0 c
5 0 c 4 0 c 4 1 c 5 1 c 4 5 c 5 3 c 4 2 c 4 -1 c 5 -3 c 4 12 c 4 78 c 5 73 c 4 7 c 5 -14 c 4 -77 c 4 -68 c 5 -12 c 4 -2 c 4 0 c
5 2 c 4 4 c 5 2 c 4 0 c 4 3 c 5 1 c 4 7 c 4 72 c 5 497 c 4 459 c 4 77 c 5 -39 c 4 -469 c 5 -510 c 4 -85 c 4 -13 c 5 -6 c 4 0 c
4 -1 c 5 -1 c 4 -1 c 5 2 c 4 -2 c 4 1 c 5 -3 c 4 -1 c 4 -2 c 5 0 c 4 -1 c 5 0 c 4 2 c 4 5 c 5 4 c 4 1 c 4 0 c 5 -6 c 4 -3 c 5 -1 c
4 8 c 4 13 c 5 2 c 4 8 c 4 -4 c 5 -8 c 4 43 c 4 88 c 5 65 c 4 18 c 5 -48 c 4 -84 c 4 -65 c 5 -10 c 4 -4 c 4 -11 c 5 -12 c 4 -1 c
5 0 c 4 -1 c 4 1 c 5 0 c 4 0 c 4 0 c 5 1 c 4 -1 c 5 3 c 4 4 c 4 0 c 5 1 c 4 2 c 4 0 c 5 1 c 4 -3 c 4 -5 c 5 -3 c 4 -1 c 5 1 c 4 0 c
4 0 c 5 1 c 4 0 c 4 -1 c 5 0 c 4 0 c 5 0 c 4 0 c 4 0 c 5 1 c 4 0 c 4 0 c 5 0 c 4 0 c 5 0 c 4 -1 c 4 0 c 5 5 c 4 4 c 4 1 c 5 -1 c
4 -3 c 5 -4 c 4 -2 c 4 -1 c 5 0 c 4 1 c 4 0 c 5 2 c 4 1 c 4 -2 c 5 3 c 4 12 c 5 8 c 4 0 c 4 -1 c 5 -10 c 4 -5 c 4 16 c 5 31 c 4 10 c
5 0 c 4 -17 c 4 -32 c 5 -12 c 4 0 c 4 5 c 5 7 c 4 0 c 5 1 c 4 -6 c 4 -8 c 5 3 c 4 8 c 4 3 c 5 1 c 4 -3 c 5 -8 c 4 0 c 4 1 c 5 1 c
4 3 c 4 0 c 5 9 c 4 63 c 4 200 c 5 83 c 4 1 c 5 -46 c 4 -182 c 4 -92 c 5 -9 c 4 -3 c 4 -8 c 5 -16 c 4 -10 c 5 -2 c 4 2 c 4 0 c
5 -2 c 4 -1 c 4 0 c 5 -1 c 4 5 c 5 2 c 4 1 c 4 -1 c 5 0 c 4 -6 c 4 0 c 5 2 c 4 0 c 5 0 c 4 -1 c 4 1 c 5 2 c 4 0 c 4 5 c 5 20 c 4 5 c
4 -1 c 5 -4 c 4 -19 c 5 -8 c 4 2 c 4 1 c 5 -1 c 4 -2 c 4 -2 c 5 1 c 4 0 c 5 2 c 4 5 c 4 14 c 5 9 c 4 -1 c 4 -2 c 5 -9 c 4 4 c 5 2 c
4 26 c 4 62 c 5 26 c 4 68 c 4 5 c 5 -68 c 4 -40 c 4 -72 c 5 -29 c 4 -2 c 5 0 c 4 -1 c 4 0 c 5 0 c 4 0 c 4 -1 c 5 2 c 4 -1 c 5 0 c
4 0 c 4 1 c 5 0 c 4 -1 c 4 1 c 5 -1 c 4 2 c 5 1 c 4 -2 c 4 -1 c 5 0 c 4 0 c 4 5 c 5 9 c 4 2 c 5 -1 c 4 -4 c 4 -8 c 5 -2 c 4 -1 c
4 0 c 5 0 c 4 -1 c 4 1 c 5 -1 c 4 1 c 5 1 c 4 -1 c 4 0 c 5 2 c 4 -2 c 4 0 c 5 1 c 4 0 c 5 2 c 4 3 c 4 1 c 5 1 c 4 -1 c 4 -2 c 5 -3 c
4 0 c 5 -1 c 4 1 c 4 1 c 5 -1 c 4 0 c 4 -1 c 5 -2 c 4 0 c 5 0 c 4 0 c 4 2 c 5 0 c 4 1 c 4 -1 c 5 0 c 4 -2 c 4 1 c 5 -1 c 4 2 c
5 -1 c 4 0 c 4 1 c 5 1 c 4 -1 c 4 0 c 5 0 c 4 -1 c 5 1 c 4 2 c 4 1 c 5 0 c 4 8 c 4 43 c 5 24 c 4 2 c 5 -7 c 4 -39 c 4 -32 c 5 -3 c
4 0 c 4 -1 c 5 0 c 4 0 c 5 0 c 4 0 c 4 0 c 5 1 c 4 0 c 4 0 c 5 0 c 4 0 c 4 1 c 5 1 c 4 1 c 5 4 c 4 3 c 4 -2 c 5 -2 c 4 -4 c 4 -2 c
5 2 c 4 8 c 5 5 c 4 -1 c 4 0 c 5 -6 c 4 -4 c 4 1 c 5 5 c 4 40 c 5 72 c 4 16 c 4 -9 c 5 -32 c 4 -74 c 4 -10 c 5 12 c 4 2 c 5 -1 c
4 2 c 4 -3 c 5 -3 c 4 6 c 4 3 c 5 7 c 4 29 c 4 158 c 5 808 c 4 822 c 5 147 c 4 -94 c 4 -641 c 5 -903 c 4 -249 c 4 -51 c 5 -27 c
4 -11 c 5 -6 c 4 -6 c 4 -4 c 5 -3 c 4 -2 c 4 -2 c 5 -1 c 4 0 c 5 0 c 4 1 c 4 5 c 5 5 c 4 -1 c 4 11 c 5 3 c 4 -3 c 4 -1 c 5 -10 c
4 -10 c 5 0 c 4 0 c 4 -1 c 5 -1 c 4 0 c 4 0 c 5 0 c 4 -1 c 5 0 c 4 0 c 4 1 c 5 -2 c 4 1 c 4 -1 c 5 1 c 4 -1 c 5 1 c 4 -1 c 4 2 c
5 -2 c 4 2 c 4 0 c 5 0 c 4 0 c 5 0 c 4 1 c 4 0 c 5 -1 c 4 0 c 4 1 c 5 1 c 4 5 c 4 31 c 5 177 c 4 92 c 5 -5 c 4 -5 c 4 -152 c
5 -129 c 4 -9 c 4 -2 c 5 -3 c 4 -1 c 5 -1 c 4 -2 c 4 0 c 5 0 c 4 2 c 4 -1 c 5 -1 c 4 1 c 5 -1 c 4 -1 c 4 1 c 5 0 c 4 0 c 4 0 c 5 0 c
4 1 c 5 0 c 4 -1 c 4 1 c 5 1 c 4 -1 c 4 2 c 5 7 c 4 32 c 4 13 c 5 -5 c 4 -4 c 5 -27 c 4 -16 c 4 0 c 5 0 c 4 -1 c 4 -1 c 5 0 c 4 -1 c
5 0 c 4 2 c 4 -2 c 5 1 c 4 0 c 4 0 c 5 0 c 4 0 c 5 1 c 4 0 c 4 0 c 5 -3 c 4 1 c 4 0 c
5 1 c 4 0 c 5 -1 c 4 0 c 4 -20 c 4 21 9549 780 l 4 3 c 5 6 c 4 5 c 4 1 c 5 -3 c 4 -4 c 5 -7 c 4 -2 c 4 3 c 5 2 c 4 2 c 4 1 c 5 -1 c
4 0 c 5 1 c 4 -3 c 4 -1 c 5 0 c 4 -2 c 4 0 c 5 3 c 4 4 c 5 3 c 4 1 c 4 -1 c 5 -2 c 4 -1 c 4 9 c 5 83 c 4 483 c 5 279 c 4 22 c
4 -63 c 5 -378 c 4 -393 c 4 -38 c 5 -4 c 4 -3 c
0 -126 3042 418 l 54 0 3042 418 l 18 -6 c 6 -6 c 6 -12 c 0 -12 c -6 -12 c -6 -6 c -18 -6 c -54 0 c 42 -66 3084 358 l
-12 -6 3192 376 l -12 -12 c -6 -18 c 0 -12 c 6 -18 c 12 -12 c 12 -6 c 18 0 c 12 6 c 12 12 c 6 18 c 0 12 c -6 18 c -12 12 c -12 6 c
-18 0 c 24 -84 3276 376 l -24 -84 3324 376 l 24 -84 3324 376 l -24 -84 3372 376 l 108 0 3414 364 l 108 0 3414 328 l 0 6 3762 388 l
6 12 c 6 6 c 12 6 c 24 0 c 12 -6 c 6 -6 c 6 -12 c 0 -12 c -6 -12 c -12 -18 c -60 -60 c 84 0 c 12 6 4278 394 l 18 18 c 0 -126 c
-6 -6 4392 376 l 6 -6 c 6 6 c -6 6 c -6 -6 4392 304 l 6 -6 c 6 6 c -6 6 c -48 -126 4572 418 l 48 -126 4572 418 l 60 0 4542 334 l
0 -84 4650 376 l 6 18 4650 340 l 12 12 c 12 6 c 18 0 c -12 12 4794 358 l -12 6 c -18 0 c -12 -6 c -12 -12 c -6 -18 c 0 -12 c 6 -18 c
12 -12 c 12 -6 c 18 0 c 12 6 c 12 12 c 108 0 4836 346 l -18 -6 5022 418 l -12 -18 c -6 -30 c 0 -18 c 6 -30 c 12 -18 c 18 -6 c 12 0 c
18 6 c 12 18 c 6 30 c 0 18 c -6 30 c -12 18 c -18 6 c -12 0 c 66 0 5118 418 l -36 -48 c 18 0 c 12 -6 c 6 -6 c 6 -18 c 0 -12 c
-6 -18 c -12 -12 c -18 -6 c -18 0 c -18 6 c -6 6 c -6 12 c -59 0 5297 418 l -6 -54 c 6 6 c 18 6 c 17 0 c 18 -6 c 12 -12 c 6 -18 c
0 -12 c -6 -18 c -12 -12 c -18 -6 c -17 0 c -18 6 c -6 6 c -6 12 c -6 -6 5357 304 l 6 -6 c 6 6 c -6 6 c -12 0 5447 418 l -12 -6 c
-6 -18 c 0 -102 c 42 0 5399 376 l 6 -6 5477 418 l 6 6 c -6 6 c -6 -6 c 0 -84 5483 376 l 0 -102 5537 418 l 6 -18 c 12 -6 c 12 0 c
42 0 5519 376 l -6 12 5663 358 l -18 6 c -18 0 c -18 -6 c -6 -12 c 6 -12 c 12 -6 c 30 -6 c 12 -6 c 6 -12 c 0 -6 c -6 -12 c -18 -6 c
-18 0 c -18 6 c -6 12 c 0 -192 5993 442 l 0 -192 5999 442 l 42 0 5993 442 l 42 0 5993 250 l 0 6 6077 388 l 6 12 c 6 6 c 12 6 c
24 0 c 12 -6 c 6 -6 c 6 -12 c 0 -12 c -6 -12 c -12 -18 c -60 -60 c 84 0 c -6 -6 6203 376 l 6 -6 c 6 6 c -6 6 c -6 -6 6203 304 l
6 -6 c 6 6 c -6 6 c -48 -126 6383 418 l 48 -126 6383 418 l 60 0 6353 334 l 0 -84 6461 376 l 6 18 6461 340 l 12 12 c 12 6 c 18 0 c
-12 12 6605 358 l -12 6 c -18 0 c -12 -6 c -12 -12 c -6 -18 c 0 -12 c 6 -18 c 12 -12 c 12 -6 c 18 0 c 12 6 c 12 12 c
108 0 6647 346 l -18 -6 6833 418 l -12 -18 c -6 -30 c 0 -18 c 6 -30 c 12 -18 c 18 -6 c 12 0 c 18 6 c 12 18 c 6 30 c 0 18 c -6 30 c
-12 18 c -18 6 c -12 0 c 66 0 6929 418 l -36 -48 c 18 0 c 12 -6 c 6 -6 c 6 -18 c 0 -12 c -6 -18 c -12 -12 c -18 -6 c -18 0 c -18 6 c
-6 6 c -6 12 c -6 12 7115 400 l -18 6 c -12 0 c -18 -6 c -12 -18 c -6 -30 c 0 -30 c 6 -24 c 12 -12 c 18 -6 c 6 0 c 18 6 c 12 12 c
6 18 c 0 6 c -6 18 c -12 12 c -18 6 c -6 0 c -18 -6 c -12 -12 c -6 -18 c -6 -6 7169 304 l 6 -6 c 6 6 c -6 6 c -12 0 7259 418 l
-12 -6 c -6 -18 c 0 -102 c 42 0 7211 376 l 6 -6 7289 418 l 6 6 c -6 6 c -6 -6 c 0 -84 7295 376 l 0 -102 7349 418 l 6 -18 c 12 -6 c
12 0 c 42 0 7331 376 l -6 12 7475 358 l -18 6 c -18 0 c -18 -6 c -6 -12 c 6 -12 c 12 -6 c 30 -6 c 12 -6 c 6 -12 c 0 -6 c -6 -12 c
-18 -6 c -18 0 c -18 6 c -6 12 c 0 -192 7547 442 l 0 -192 7553 442 l 42 0 7511 442 l 42 0 7511 250 l
0 -250 1288 2884 l 0 42 1244 2963 l 30 -23 c 0 11 c 4 8 c 4 4 c 11 3 c 8 0 c 11 -3 c 8 -8 c 3 -11 c 0 -12 c -3 -11 c -4 -4 c -8 -3 c
4 -11 1244 3050 l 7 -4 c 8 0 c 8 4 c 3 7 c 4 15 c 4 12 c 7 7 c 8 4 c 11 0 c 8 -4 c 4 -3 c 3 -12 c 0 -15 c -3 -11 c -4 -4 c -8 -4 c
-11 0 c -8 4 c -7 7 c -4 12 c -4 15 c -3 8 c -8 3 c -8 0 c -7 -3 c -4 -12 c 0 -15 c 4 -11 1244 3129 l 11 -7 c 19 -4 c 11 0 c 19 4 c
12 7 c 3 11 c 0 8 c -3 11 c -12 8 c -19 4 c -11 0 c -19 -4 c -11 -8 c -4 -11 c 0 -8 c 0 41 1244 3190 l 30 -22 c 0 11 c 4 8 c 4 3 c
11 4 c 8 0 c 11 -4 c 8 -7 c 3 -11 c 0 -12 c -3 -11 c -4 -4 c -8 -4 c 4 -3 1316 3265 l 3 3 c -3 4 c -4 -4 c 4 -11 1244 3318 l 11 -8 c
19 -3 c 11 0 c 19 3 c 12 8 c 3 11 c 0 8 c -3 11 c -12 8 c -19 4 c -11 0 c -19 -4 c -11 -8 c -4 -11 c 0 -8 c 79 -38 1244 3424 l
0 53 1244 3371 l 0 -38 1244 3492 l 34 -3 c -4 3 c -3 12 c 0 11 c 3 11 c 8 8 c 11 4 c 8 0 c 11 -4 c 8 -8 c 3 -11 c 0 -11 c -3 -12 c
-4 -3 c -8 -4 c 0 -250 2029 1742 l 0 42 1986 1821 l 30 -23 c 0 11 c 4 8 c 3 4 c 12 3 c 7 0 c 12 -3 c 7 -8 c 4 -11 c 0 -12 c -4 -11 c
-4 -4 c -7 -4 c 3 -11 1986 1908 l 8 -4 c 8 0 c 7 4 c 4 7 c 4 15 c 3 12 c 8 7 c 8 4 c 11 0 c 7 -4 c 4 -4 c 4 -11 c 0 -15 c -4 -11 c
-4 -4 c -7 -4 c -11 0 c -8 4 c -8 7 c -3 12 c -4 15 c -4 7 c -7 4 c -8 0 c -8 -4 c -3 -11 c 0 -15 c 3 -11 1986 1987 l 12 -8 c
19 -3 c 11 0 c 19 3 c 11 8 c 4 11 c 0 8 c -4 11 c -11 8 c -19 4 c -11 0 c -19 -4 c -12 -8 c -3 -11 c 0 -8 c 79 -38 1986 2093 l
0 53 1986 2040 l 4 -3 2057 2123 l 4 3 c -4 4 c -4 -4 c 3 -12 1986 2173 l 8 -4 c 8 0 c 7 4 c 4 8 c 4 15 c 3 11 c 8 8 c 8 4 c 11 0 c
7 -4 c 4 -4 c 4 -11 c 0 -15 c -4 -12 c -4 -4 c -7 -3 c -11 0 c -8 3 c -8 8 c -3 11 c -4 15 c -4 8 c -7 4 c -8 0 c -8 -4 c -3 -11 c
0 -15 c 79 -38 1986 2282 l 0 53 1986 2229 l 53 -38 1986 2343 l 0 56 c 79 0 1986 2343 l 0 -249 2275 1785 l 0 41 2232 1865 l 30 -22 c
0 11 c 4 7 c 4 4 c 11 4 c 8 0 c 11 -4 c 7 -7 c 4 -12 c 0 -11 c -4 -11 c -3 -4 c -8 -4 c 4 -12 2232 1952 l 7 -4 c 8 0 c 7 4 c 4 8 c
4 15 c 4 11 c 7 8 c 8 4 c 11 0 c 8 -4 c 3 -4 c 4 -11 c 0 -15 c -4 -12 c -3 -4 c -8 -3 c -11 0 c -8 3 c -7 8 c -4 11 c -4 15 c -4 8 c
-7 4 c -8 0 c -7 -4 c -4 -11 c 0 -15 c 4 -11 2232 2031 l 11 -8 c 19 -4 c 11 0 c 19 4 c 11 8 c 4 11 c 0 8 c -4 11 c -11 7 c -19 4 c
-11 0 c -19 -4 c -11 -7 c -4 -11 c 0 -8 c 12 -4 2258 2133 l 7 -7 c 4 -12 c 0 -3 c -4 -12 c -7 -7 c -12 -4 c -3 0 c -12 4 c -7 7 c
-4 12 c 0 3 c 4 12 c 7 7 c 15 4 c 19 0 c 19 -4 c 11 -7 c 4 -12 c 0 -7 c -4 -12 c -7 -3 c 3 -4 2304 2167 l 4 4 c -4 4 c -3 -4 c
53 -38 2232 2235 l 0 57 c 79 0 2232 2235 l 0 -38 2232 2318 l 34 -3 c -4 3 c -4 12 c 0 11 c 4 11 c 8 8 c 11 4 c 8 0 c 11 -4 c 7 -8 c
4 -11 c 0 -11 c -4 -12 c -3 -3 c -8 -4 c -7 -4 2243 2398 l -4 -12 c 0 -7 c 4 -11 c 11 -8 c 19 -4 c 19 0 c 15 4 c 7 8 c 4 11 c 0 4 c
-4 11 c -7 8 c -11 3 c -4 0 c -12 -3 c -7 -8 c -4 -11 c 0 -4 c 4 -11 c 7 -8 c 12 -4 c 0 -249 2841 2052 l 0 42 2797 2131 l 30 -23 c
0 12 c 4 7 c 4 4 c 11 4 c 8 0 c 11 -4 c 8 -8 c 3 -11 c 0 -11 c -3 -12 c -4 -3 c -8 -4 c 4 -11 2797 2218 l 7 -4 c 8 0 c 7 4 c 4 8 c
4 15 c 4 11 c 7 8 c 8 3 c 11 0 c 8 -3 c 4 -4 c 3 -11 c 0 -16 c -3 -11 c -4 -4 c -8 -3 c -11 0 c -8 3 c -7 8 c -4 11 c -4 15 c -4 8 c
-7 4 c -8 0 c -7 -4 c -4 -11 c 0 -16 c -4 8 2812 2286 l -11 11 c 79 0 c 0 42 2797 2358 l 30 -23 c 0 11 c 4 8 c 4 4 c 11 4 c 8 0 c
11 -4 c 8 -8 c 3 -11 c 0 -11 c -3 -12 c -4 -4 c -8 -3 c 4 -4 2869 2434 l 3 4 c -3 4 c -4 -4 c 4 -12 2797 2487 l 11 -7 c 19 -4 c
11 0 c 19 4 c 12 7 c 3 12 c 0 7 c -3 12 c -12 7 c -19 4 c -11 0 c -19 -4 c -11 -7 c -4 -12 c 0 -7 c -7 -4 2808 2589 l -4 -11 c
0 -8 c 4 -11 c 11 -8 c 19 -4 c 19 0 c 15 4 c 8 8 c 3 11 c 0 4 c -3 11 c -8 8 c -11 4 c -4 0 c -11 -4 c -8 -8 c -4 -11 c 0 -4 c
4 -11 c 8 -8 c 11 -4 c 4 -11 2797 2634 l 7 -4 c 8 0 c 7 4 c 4 7 c 4 15 c 4 12 c 7 7 c 8 4 c 11 0 c 8 -4 c 4 -3 c 3 -12 c 0 -15 c
-3 -11 c -4 -4 c -8 -4 c -11 0 c -8 4 c -7 8 c -4 11 c -4 15 c -4 8 c -7 3 c -8 0 c -7 -3 c -4 -12 c 0 -15 c 0 -249 3728 1443 l
0 41 3685 1523 l 30 -22 c 0 11 c 4 8 c 3 3 c 12 4 c 7 0 c 12 -4 c 7 -7 c 4 -12 c 0 -11 c -4 -11 c -4 -4 c -7 -4 c 3 -12 3685 1610 l
8 -3 c 7 0 c 8 3 c 4 8 c 4 15 c 3 11 c 8 8 c 7 4 c 12 0 c 7 -4 c 4 -4 c 4 -11 c 0 -15 c -4 -12 c -4 -3 c -7 -4 c -12 0 c -7 4 c
-8 7 c -3 11 c -4 16 c -4 7 c -8 4 c -7 0 c -8 -4 c -3 -11 c 0 -15 c -4 7 3700 1678 l -11 12 c 79 0 c 3 -11 3685 1761 l 8 -4 c 7 0 c
8 4 c 4 7 c 4 15 c 3 12 c 8 7 c 7 4 c 12 0 c 7 -4 c 4 -4 c 4 -11 c 0 -15 c -4 -11 c -4 -4 c -7 -4 c -12 0 c -7 4 c -8 7 c -3 12 c
-4 15 c -4 7 c -8 4 c -7 0 c -8 -4 c -3 -11 c 0 -15 c 4 -4 3756 1825 l 4 4 c -4 4 c -4 -4 c -8 -3 3696 1904 l -3 -12 c 0 -7 c
3 -12 c 12 -7 c 19 -4 c 18 0 c 16 4 c 7 7 c 4 12 c 0 4 c -4 11 c -7 7 c -12 4 c -4 0 c -11 -4 c -7 -7 c -4 -11 c 0 -4 c 4 -12 c
7 -7 c 11 -4 c 3 -11 3685 1950 l 8 -4 c 7 0 c 8 4 c 4 7 c 4 15 c 3 12 c 8 7 c 7 4 c 12 0 c 7 -4 c 4 -4 c 4 -11 c 0 -15 c -4 -11 c
-4 -4 c -7 -4 c -12 0 c -7 4 c -8 7 c -3 12 c -4 15 c -4 7 c -8 4 c -7 0 c -8 -4 c -3 -11 c 0 -15 c -8 -4 3696 2056 l -3 -11 c
0 -8 c 3 -11 c 12 -8 c 19 -4 c 18 0 c 16 4 c 7 8 c 4 11 c 0 4 c -4 11 c -7 8 c -12 3 c -4 0 c -11 -3 c -7 -8 c -4 -11 c 0 -4 c
4 -11 c 7 -8 c 11 -4 c 0 -249 4064 1410 l 0 41 4020 1490 l 31 -23 c 0 12 c 3 7 c 4 4 c 11 4 c 8 0 c 11 -4 c 8 -7 c 4 -12 c 0 -11 c
-4 -11 c -4 -4 c -7 -4 c 4 -11 4020 1576 l 8 -4 c 7 0 c 8 4 c 4 8 c 3 15 c 4 11 c 8 8 c 7 3 c 12 0 c 7 -3 c 4 -4 c 4 -11 c 0 -16 c
-4 -11 c -4 -4 c -7 -3 c -12 0 c -7 3 c -8 8 c -4 11 c -3 15 c -4 8 c -8 4 c -7 0 c -8 -4 c -4 -11 c 0 -16 c -4 0 4039 1637 l -7 4 c
-4 3 c -4 8 c 0 15 c 4 8 c 4 3 c 7 4 c 8 0 c 8 -4 c 11 -7 c 38 -38 c 0 53 c 4 -11 4020 1731 l 11 -7 c 19 -4 c 12 0 c 19 4 c 11 7 c
4 11 c 0 8 c -4 11 c -11 8 c -19 4 c -12 0 c -19 -4 c -11 -8 c -4 -11 c 0 -8 c 4 -4 4092 1792 l 4 4 c -4 4 c -4 -4 c
80 -38 4020 1875 l 0 53 4020 1822 l 11 -4 4047 1947 l 8 -8 c 3 -11 c 0 -4 c -3 -11 c -8 -8 c -11 -3 c -4 0 c -11 3 c -8 8 c -4 11 c
0 4 c 4 11 c 8 8 c 15 4 c 19 0 c 19 -4 c 11 -8 c 4 -11 c 0 -7 c -4 -12 c -8 -4 c 0 41 4020 1981 l 31 -22 c 0 11 c 3 8 c 4 3 c 11 4 c
8 0 c 11 -4 c 8 -7 c 4 -11 c 0 -12 c -4 -11 c -4 -4 c -7 -4 c 0 -250 4166 1590 l 0 42 4122 1669 l 31 -23 c 0 11 c 3 8 c 4 4 c 11 3 c
8 0 c 11 -3 c 8 -8 c 4 -11 c 0 -12 c -4 -11 c -4 -4 c -7 -4 c 4 -11 4122 1756 l 8 -4 c 7 0 c 8 4 c 4 7 c 3 15 c 4 12 c 8 7 c 7 4 c
12 0 c 7 -4 c 4 -4 c 4 -11 c 0 -15 c -4 -11 c -4 -4 c -7 -4 c -12 0 c -7 4 c -8 7 c -4 12 c -3 15 c -4 7 c -8 4 c -7 0 c -8 -4 c
-4 -11 c 0 -15 c -4 0 4141 1816 l -7 4 c -4 4 c -4 7 c 0 16 c 4 7 c 4 4 c 7 4 c 8 0 c 8 -4 c 11 -8 c 38 -37 c 0 52 c
-3 8 4137 1899 l -12 11 c 80 0 c 4 -3 4194 1971 l 4 3 c -4 4 c -4 -4 c 53 -37 4122 2039 l 0 56 c 80 0 4122 2039 l 0 41 4122 2085 l
31 -22 c 0 11 c 3 7 c 4 4 c 11 4 c 8 0 c 11 -4 c 8 -7 c 4 -12 c 0 -11 c -4 -11 c -4 -4 c -7 -4 c -3 8 4137 2164 l -12 11 c 80 0 c
0 -250 4281 1629 l 0 42 4238 1708 l 30 -23 c 0 11 c 4 8 c 4 4 c 11 4 c 8 0 c 11 -4 c 7 -8 c 4 -11 c 0 -11 c -4 -12 c -3 -4 c -8 -3 c
4 -11 4238 1795 l 7 -4 c 8 0 c 7 4 c 4 7 c 4 16 c 4 11 c 7 7 c 8 4 c 11 0 c 8 -4 c 3 -3 c 4 -12 c 0 -15 c -4 -11 c -3 -4 c -8 -4 c
-11 0 c -8 4 c -7 8 c -4 11 c -4 15 c -4 8 c -7 3 c -8 0 c -7 -3 c -4 -12 c 0 -15 c -4 0 4257 1856 l -8 3 c -3 4 c -4 8 c 0 15 c
4 7 c 3 4 c 8 4 c 8 0 c 7 -4 c 11 -7 c 38 -38 c 0 53 c -4 0 4257 1931 l -8 4 c -3 4 c -4 7 c 0 15 c 4 8 c 3 4 c 8 4 c 8 0 c 7 -4 c
11 -8 c 38 -38 c 0 53 c 3 -4 4310 2011 l 4 4 c -4 3 c -3 -3 c -4 8 4253 2052 l -11 11 c 79 0 c 53 -38 4238 2154 l 0 57 c
79 0 4238 2154 l 4 -11 4238 2211 l 7 -4 c 8 0 c 7 4 c 4 7 c 4 15 c 4 12 c 7 7 c 8 4 c 11 0 c 8 -4 c 3 -4 c 4 -11 c 0 -15 c -4 -11 c
-3 -4 c -8 -4 c -11 0 c -8 4 c -7 7 c -4 12 c -4 15 c -4 7 c -7 4 c -8 0 c -7 -4 c -4 -11 c 0 -15 c 0 -249 4428 1351 l
0 41 4385 1431 l 30 -22 c 0 11 c 4 8 c 3 3 c 12 4 c 7 0 c 12 -4 c 7 -7 c 4 -12 c 0 -11 c -4 -11 c -4 -4 c -7 -4 c 3 -12 4385 1518 l
8 -3 c 7 0 c 8 3 c 4 8 c 4 15 c 3 11 c 8 8 c 7 4 c 12 0 c 7 -4 c 4 -4 c 4 -11 c 0 -15 c -4 -12 c -4 -3 c -7 -4 c -12 0 c -7 4 c
-8 7 c -3 11 c -4 16 c -4 7 c -8 4 c -7 0 c -8 -4 c -3 -11 c 0 -15 c -3 0 4403 1578 l -8 4 c -4 4 c -3 7 c 0 15 c 3 8 c 4 4 c 8 3 c
7 0 c 8 -3 c 11 -8 c 38 -38 c 0 53 c 0 42 4385 1657 l 30 -23 c 0 12 c 4 7 c 3 4 c 12 4 c 7 0 c 12 -4 c 7 -8 c 4 -11 c 0 -11 c
-4 -12 c -4 -3 c -7 -4 c 4 -4 4456 1733 l 4 4 c -4 4 c -4 -4 c 3 -11 4385 1786 l 12 -8 c 19 -4 c 11 0 c 19 4 c 11 8 c 4 11 c 0 8 c
-4 11 c -11 7 c -19 4 c -11 0 c -19 -4 c -12 -7 c -3 -11 c 0 -8 c -8 -4 4396 1888 l -3 -11 c 0 -8 c 3 -11 c 12 -8 c 19 -3 c 18 0 c
16 3 c 7 8 c 4 11 c 0 4 c -4 11 c -7 8 c -12 4 c -4 0 c -11 -4 c -7 -8 c -4 -11 c 0 -4 c 4 -11 c 7 -8 c 11 -3 c 3 -11 4385 1933 l
8 -4 c 7 0 c 8 4 c 4 8 c 4 15 c 3 11 c 8 8 c 7 3 c 12 0 c 7 -3 c 4 -4 c 4 -11 c 0 -16 c -4 -11 c -4 -4 c -7 -4 c -12 0 c -7 4 c
-8 8 c -3 11 c -4 15 c -4 8 c -8 4 c -7 0 c -8 -4 c -3 -11 c 0 -16 c 0 -250 5031 1567 l 0 42 4988 1646 l 30 -23 c 0 11 c 4 8 c 4 4 c
11 3 c 7 0 c 12 -3 c 7 -8 c 4 -11 c 0 -12 c -4 -11 c -3 -4 c -8 -3 c 4 -11 4988 1733 l 7 -4 c 8 0 c 7 4 c 4 7 c 4 15 c 4 12 c 7 7 c
8 4 c 11 0 c 8 -4 c 3 -3 c 4 -12 c 0 -15 c -4 -11 c -3 -4 c -8 -4 c -11 0 c -8 4 c -7 7 c -4 12 c -4 15 c -4 8 c -7 3 c -8 0 c
-7 -3 c -4 -12 c 0 -15 c -4 0 5007 1794 l -8 3 c -3 4 c -4 8 c 0 15 c 4 7 c 3 4 c 8 4 c 7 0 c 8 -4 c 11 -7 c 38 -38 c 0 53 c
-7 -3 4999 1914 l -4 -12 c 0 -7 c 4 -12 c 11 -7 c 19 -4 c 19 0 c 15 4 c 7 7 c 4 12 c 0 4 c -4 11 c -7 7 c -12 4 c -3 0 c -12 -4 c
-7 -7 c -4 -11 c 0 -4 c 4 -12 c 7 -7 c 12 -4 c 3 -3 5060 1948 l 4 3 c -4 4 c -3 -4 c 4 -12 4988 1998 l 7 -4 c 8 0 c 7 4 c 4 8 c
4 15 c 4 11 c 7 8 c 8 4 c 11 0 c 8 -4 c 3 -4 c 4 -11 c 0 -15 c -4 -12 c -3 -4 c -8 -3 c -11 0 c -8 3 c -7 8 c -4 11 c -4 16 c -4 7 c
-7 4 c -8 0 c -7 -4 c -4 -11 c 0 -15 c 4 -11 4988 2077 l 11 -8 c 19 -4 c 11 0 c 19 4 c 11 8 c 4 11 c 0 8 c -4 11 c -11 7 c -19 4 c
-11 0 c -19 -4 c -11 -7 c -4 -11 c 0 -8 c 79 -38 4988 2183 l 0 53 4988 2130 l 0 -250 5287 6476 l 0 42 5243 6555 l 30 -23 c 0 11 c
4 8 c 4 4 c 11 3 c 8 0 c 11 -3 c 8 -8 c 4 -11 c 0 -12 c -4 -11 c -4 -4 c -8 -4 c 4 -11 5243 6642 l 7 -4 c 8 0 c 8 4 c 3 7 c 4 15 c
4 12 c 7 7 c 8 4 c 11 0 c 8 -4 c 4 -4 c 4 -11 c 0 -15 c -4 -11 c -4 -4 c -8 -4 c -11 0 c -8 4 c -7 7 c -4 12 c -4 15 c -3 7 c -8 4 c
-8 0 c -7 -4 c -4 -11 c 0 -15 c -4 0 5262 6702 l -7 4 c -4 4 c -4 8 c 0 15 c 4 7 c 4 4 c 7 4 c 8 0 c 7 -4 c 12 -8 c 38 -37 c 0 53 c
4 -11 5243 6793 l 7 -4 c 8 0 c 8 4 c 3 7 c 4 15 c 4 12 c 7 7 c 8 4 c 11 0 c 8 -4 c 4 -3 c 4 -12 c 0 -15 c -4 -11 c -4 -4 c -8 -4 c
-11 0 c -8 4 c -7 8 c -4 11 c -4 15 c -3 8 c -8 3 c -8 0 c -7 -3 c -4 -12 c 0 -15 c 4 -3 5315 6857 l 4 3 c -4 4 c -4 -4 c
0 42 5243 6895 l 30 -23 c 0 11 c 4 8 c 4 4 c 11 4 c 8 0 c 11 -4 c 8 -8 c 4 -11 c 0 -11 c -4 -12 c -4 -4 c -8 -3 c 4 -11 5243 6982 l
7 -4 c 8 0 c 8 4 c 3 7 c 4 15 c 4 12 c 7 7 c 8 4 c 11 0 c 8 -4 c 4 -3 c 4 -12 c 0 -15 c -4 -11 c -4 -4 c -8 -4 c -11 0 c -8 4 c
-7 8 c -4 11 c -4 15 c -3 8 c -8 3 c -8 0 c -7 -3 c -4 -12 c 0 -15 c 0 -38 5243 7084 l 34 -3 c -4 3 c -3 12 c 0 11 c 3 11 c 8 8 c
11 4 c 8 0 c 11 -4 c 8 -8 c 4 -11 c 0 -11 c -4 -12 c -4 -3 c -8 -4 c 0 -249 5677 3077 l 0 41 5633 3157 l 30 -22 c 0 11 c 4 8 c 4 3 c
11 4 c 8 0 c 11 -4 c 8 -7 c 3 -12 c 0 -11 c -3 -11 c -4 -4 c -8 -4 c 4 -12 5633 3244 l 7 -3 c 8 0 c 7 3 c 4 8 c 4 15 c 4 11 c 7 8 c
8 4 c 11 0 c 8 -4 c 4 -4 c 3 -11 c 0 -15 c -3 -12 c -4 -3 c -8 -4 c -11 0 c -8 4 c -7 7 c -4 11 c -4 16 c -4 7 c -7 4 c -8 0 c
-7 -4 c -4 -11 c 0 -15 c 0 41 5633 3308 l 30 -22 c 0 11 c 4 8 c 4 3 c 11 4 c 8 0 c 11 -4 c 8 -7 c 3 -11 c 0 -12 c -3 -11 c -4 -4 c
-8 -4 c 4 -12 5633 3399 l 11 -7 c 19 -4 c 11 0 c 19 4 c 12 7 c 3 12 c 0 7 c -3 12 c -12 7 c -19 4 c -11 0 c -19 -4 c -11 -7 c
-4 -12 c 0 -7 c 4 -4 5705 3459 l 3 4 c -3 4 c -4 -4 c 79 -38 5633 3542 l 0 53 5633 3489 l 79 -38 5633 3618 l 0 53 5633 3565 l
53 -37 5633 3678 l 0 56 c 79 0 5633 3678 l 0 -249 6055 1296 l 0 41 6011 1376 l 30 -22 c 0 11 c 4 8 c 4 3 c 11 4 c 8 0 c 11 -4 c
8 -7 c 4 -12 c 0 -11 c -4 -11 c -4 -4 c -8 -4 c 4 -12 6011 1463 l 8 -3 c 7 0 c 8 3 c 3 8 c 4 15 c 4 11 c 8 8 c 7 4 c 11 0 c 8 -4 c
4 -4 c 4 -11 c 0 -15 c -4 -12 c -4 -3 c -8 -4 c -11 0 c -7 4 c -8 7 c -4 11 c -4 16 c -3 7 c -8 4 c -7 0 c -8 -4 c -4 -11 c 0 -15 c
0 42 6011 1527 l 30 -23 c 0 11 c 4 8 c 4 4 c 11 3 c 8 0 c 11 -3 c 8 -8 c 4 -11 c 0 -12 c -4 -11 c -4 -4 c -8 -4 c 0 41 6011 1603 l
30 -23 c 0 12 c 4 7 c 4 4 c 11 4 c 8 0 c 11 -4 c 8 -7 c 4 -12 c 0 -11 c -4 -11 c -4 -4 c -8 -4 c 4 -4 6083 1678 l 4 4 c -4 4 c
-4 -4 c 4 -11 6011 1731 l 11 -8 c 19 -4 c 12 0 c 18 4 c 12 8 c 4 11 c 0 8 c -4 11 c -12 7 c -18 4 c -12 0 c -19 -4 c -11 -7 c
-4 -11 c 0 -8 c 4 -12 6011 1803 l 8 -3 c 7 0 c 8 3 c 3 8 c 4 15 c 4 12 c 8 7 c 7 4 c 11 0 c 8 -4 c 4 -4 c 4 -11 c 0 -15 c -4 -12 c
-4 -3 c -8 -4 c -11 0 c -7 4 c -8 7 c -4 12 c -4 15 c -3 7 c -8 4 c -7 0 c -8 -4 c -4 -11 c 0 -15 c -8 -4 6023 1909 l -4 -11 c
0 -8 c 4 -11 c 11 -8 c 19 -4 c 19 0 c 15 4 c 8 8 c 4 11 c 0 4 c -4 11 c -8 8 c -11 3 c -4 0 c -11 -3 c -8 -8 c -4 -11 c 0 -4 c
4 -11 c 8 -8 c 11 -4 c 0 -249 6318 1995 l 0 41 6275 2075 l 30 -23 c 0 12 c 4 7 c 3 4 c 12 4 c 7 0 c 12 -4 c 7 -7 c 4 -12 c 0 -11 c
-4 -11 c -4 -4 c -7 -4 c 3 -11 6275 2161 l 8 -4 c 7 0 c 8 4 c 4 8 c 4 15 c 3 11 c 8 8 c 7 3 c 12 0 c 7 -3 c 4 -4 c 4 -11 c 0 -16 c
-4 -11 c -4 -4 c -7 -3 c -12 0 c -7 3 c -8 8 c -3 11 c -4 15 c -4 8 c -8 4 c -7 0 c -8 -4 c -3 -11 c 0 -16 c 0 41 6275 2226 l
30 -22 c 0 11 c 4 7 c 3 4 c 12 4 c 7 0 c 12 -4 c 7 -7 c 4 -12 c 0 -11 c -4 -11 c -4 -4 c -7 -4 c 52 -38 6275 2332 l 0 56 c
79 0 6275 2332 l 4 -4 6346 2377 l 4 4 c -4 4 c -4 -4 c -8 -4 6286 2456 l -3 -11 c 0 -7 c 3 -12 c 12 -7 c 19 -4 c 18 0 c 16 4 c 7 7 c
4 12 c 0 3 c -4 12 c -7 7 c -12 4 c -4 0 c -11 -4 c -7 -7 c -4 -12 c 0 -3 c 4 -12 c 7 -7 c 11 -4 c 79 -38 6275 2536 l
0 53 6275 2483 l 11 -3 6301 2607 l 8 -8 c 4 -11 c 0 -4 c -4 -11 c -8 -8 c -11 -4 c -4 0 c -11 4 c -8 8 c -3 11 c 0 4 c 3 11 c 8 8 c
15 3 c 19 0 c 19 -3 c 11 -8 c 4 -11 c 0 -8 c -4 -11 c -7 -4 c 0 -250 6633 1985 l 0 42 6589 2064 l 30 -23 c 0 12 c 4 7 c 4 4 c 11 4 c
8 0 c 11 -4 c 8 -8 c 3 -11 c 0 -11 c -3 -12 c -4 -3 c -8 -4 c 4 -11 6589 2151 l 7 -4 c 8 0 c 8 4 c 3 7 c 4 16 c 4 11 c 7 7 c 8 4 c
11 0 c 8 -4 c 4 -3 c 3 -12 c 0 -15 c -3 -11 c -4 -4 c -8 -4 c -11 0 c -8 4 c -7 8 c -4 11 c -4 15 c -3 8 c -8 3 c -8 0 c -7 -3 c
-4 -12 c 0 -15 c 0 42 6589 2215 l 30 -23 c 0 12 c 4 7 c 4 4 c 11 4 c 8 0 c 11 -4 c 8 -7 c 3 -12 c 0 -11 c -3 -12 c -4 -3 c -8 -4 c
-7 -4 6600 2333 l -4 -11 c 0 -8 c 4 -11 c 11 -8 c 19 -4 c 19 0 c 15 4 c 8 8 c 3 11 c 0 4 c -3 11 c -8 8 c -11 3 c -4 0 c -11 -3 c
-8 -8 c -4 -11 c 0 -4 c 4 -11 c 8 -8 c 11 -4 c 4 -4 6661 2367 l 3 4 c -3 3 c -4 -3 c 0 -38 6589 2442 l 34 -3 c -4 3 c -3 12 c 0 11 c
3 11 c 8 8 c 11 4 c 8 0 c 11 -4 c 8 -8 c 3 -11 c 0 -11 c -3 -12 c -4 -3 c -8 -4 c 4 -11 6589 2491 l 7 -4 c 8 0 c 8 4 c 3 8 c 4 15 c
4 11 c 7 8 c 8 3 c 11 0 c 8 -3 c 4 -4 c 3 -11 c 0 -16 c -3 -11 c -4 -4 c -8 -4 c -11 0 c -8 4 c -7 8 c -4 11 c -4 15 c -3 8 c -8 4 c
-8 0 c -7 -4 c -4 -11 c 0 -16 c 0 -37 6589 2593 l 34 -4 c -4 4 c -3 11 c 0 11 c 3 12 c 8 7 c 11 4 c 8 0 c 11 -4 c 8 -7 c 3 -12 c
0 -11 c -3 -11 c -4 -4 c -8 -4 c 0 -249 6848 2259 l 0 41 6805 2339 l 30 -23 c 0 12 c 4 7 c 4 4 c 11 4 c 8 0 c 11 -4 c 7 -7 c 4 -12 c
0 -11 c -4 -11 c -3 -4 c -8 -4 c 4 -11 6805 2425 l 7 -4 c 8 0 c 7 4 c 4 8 c 4 15 c 4 11 c 7 8 c 8 3 c 11 0 c 8 -3 c 3 -4 c 4 -11 c
0 -16 c -4 -11 c -3 -4 c -8 -3 c -11 0 c -8 3 c -7 8 c -4 11 c -4 15 c -4 8 c -7 4 c -8 0 c -7 -4 c -4 -11 c 0 -16 c
0 41 6805 2490 l 30 -22 c 0 11 c 4 7 c 4 4 c 11 4 c 8 0 c 11 -4 c 7 -7 c 4 -12 c 0 -11 c -4 -11 c -3 -4 c -8 -4 c 79 -38 6805 2611 l
0 53 6805 2558 l 3 -4 6877 2641 l 4 4 c -4 4 c -3 -4 c 4 -11 6805 2690 l 7 -4 c 8 0 c 7 4 c 4 7 c 4 15 c 4 12 c 7 7 c 8 4 c 11 0 c
8 -4 c 3 -4 c 4 -11 c 0 -15 c -4 -11 c -3 -4 c -8 -4 c -11 0 c -8 4 c -7 7 c -4 12 c -4 15 c -4 7 c -7 4 c -8 0 c -7 -4 c -4 -11 c
0 -15 c 79 -38 6805 2800 l 0 53 6805 2747 l 0 -38 6805 2868 l 34 -4 c -4 4 c -4 11 c 0 12 c 4 11 c 8 7 c 11 4 c 8 0 c 11 -4 c 7 -7 c
4 -11 c 0 -12 c -4 -11 c -3 -4 c -8 -4 c 0 -249 7155 7019 l 0 42 7111 7098 l 31 -23 c 0 12 c 3 7 c 4 4 c 11 4 c 8 0 c 11 -4 c 8 -8 c
4 -11 c 0 -11 c -4 -12 c -4 -3 c -7 -4 c 4 -11 7111 7185 l 8 -4 c 7 0 c 8 4 c 4 8 c 3 15 c 4 11 c 8 8 c 7 3 c 12 0 c 7 -3 c 4 -4 c
4 -11 c 0 -16 c -4 -11 c -4 -4 c -7 -3 c -12 0 c -7 3 c -8 8 c -4 11 c -3 15 c -4 8 c -8 4 c -7 0 c -8 -4 c -4 -11 c 0 -16 c
0 41 7111 7250 l 31 -22 c 0 11 c 3 7 c 4 4 c 11 4 c 8 0 c 11 -4 c 8 -7 c 4 -12 c 0 -11 c -4 -11 c -4 -4 c -7 -4 c 11 -4 7138 7367 l
8 -8 c 3 -11 c 0 -4 c -3 -11 c -8 -8 c -11 -3 c -4 0 c -11 3 c -8 8 c -4 11 c 0 4 c 4 11 c 8 8 c 15 4 c 19 0 c 19 -4 c 11 -8 c
4 -11 c 0 -7 c -4 -12 c -8 -4 c 4 -4 7183 7401 l 4 4 c -4 4 c -4 -4 c -8 -4 7123 7480 l -4 -11 c 0 -7 c 4 -12 c 11 -7 c 19 -4 c
19 0 c 15 4 c 8 7 c 4 12 c 0 3 c -4 12 c -8 7 c -11 4 c -4 0 c -11 -4 c -8 -7 c -3 -12 c 0 -3 c 3 -12 c 8 -7 c 11 -4 c
11 -4 7138 7556 l 8 -8 c 3 -11 c 0 -4 c -3 -11 c -8 -8 c -11 -3 c -4 0 c -11 3 c -8 8 c -4 11 c 0 4 c 4 11 c 8 8 c 15 4 c 19 0 c
19 -4 c 11 -8 c 4 -11 c 0 -7 c -4 -12 c -8 -4 c 0 -38 7111 7628 l 34 -4 c -3 4 c -4 11 c 0 11 c 4 12 c 7 7 c 11 4 c 8 0 c 11 -4 c
8 -7 c 4 -12 c 0 -11 c -4 -11 c -4 -4 c -7 -4 c 0 -249 7338 1446 l 0 41 7294 1526 l 31 -23 c 0 12 c 3 7 c 4 4 c 11 4 c 8 0 c 11 -4 c
8 -7 c 4 -12 c 0 -11 c -4 -11 c -4 -4 c -7 -4 c 4 -11 7294 1612 l 8 -4 c 7 0 c 8 4 c 4 8 c 3 15 c 4 11 c 8 8 c 7 4 c 12 0 c 7 -4 c
4 -4 c 4 -11 c 0 -16 c -4 -11 c -4 -4 c -7 -3 c -12 0 c -7 3 c -8 8 c -4 11 c -3 15 c -4 8 c -8 4 c -7 0 c -8 -4 c -4 -11 c 0 -16 c
53 -38 7294 1707 l 0 57 c 80 0 7294 1707 l 4 -11 7294 1767 l 11 -7 c 19 -4 c 12 0 c 19 4 c 11 7 c 4 11 c 0 8 c -4 11 c -11 8 c
-19 4 c -12 0 c -19 -4 c -11 -8 c -4 -11 c 0 -8 c 4 -4 7366 1828 l 4 4 c -4 4 c -4 -4 c 4 -11 7294 1877 l 8 -4 c 7 0 c 8 4 c 4 7 c
3 15 c 4 12 c 8 7 c 7 4 c 12 0 c 7 -4 c 4 -3 c 4 -12 c 0 -15 c -4 -11 c -4 -4 c -7 -4 c -12 0 c -7 4 c -8 8 c -4 11 c -3 15 c -4 8 c
-8 3 c -7 0 c -8 -3 c -4 -12 c 0 -15 c 4 -11 7294 1956 l 11 -7 c 19 -4 c 12 0 c 19 4 c 11 7 c 4 11 c 0 8 c -4 11 c -11 8 c -19 4 c
-12 0 c -19 -4 c -11 -8 c -4 -11 c 0 -8 c 4 -11 7294 2032 l 11 -8 c 19 -4 c 12 0 c 19 4 c 11 8 c 4 11 c 0 8 c -4 11 c -11 7 c
-19 4 c -12 0 c -19 -4 c -11 -7 c -4 -11 c 0 -8 c 0 -250 7694 1475 l 0 41 7650 1554 l 31 -22 c 0 11 c 3 8 c 4 3 c 12 4 c 7 0 c
11 -4 c 8 -7 c 4 -11 c 0 -12 c -4 -11 c -4 -4 c -7 -4 c 4 -12 7650 1641 l 8 -3 c 7 0 c 8 3 c 4 8 c 3 15 c 4 11 c 8 8 c 7 4 c 12 0 c
7 -4 c 4 -4 c 4 -11 c 0 -15 c -4 -12 c -4 -3 c -7 -4 c -12 0 c -7 4 c -8 7 c -4 12 c -3 15 c -4 7 c -8 4 c -7 0 c -8 -4 c -4 -11 c
0 -15 c 53 -37 7650 1735 l 0 56 c 80 0 7650 1735 l -3 0 7669 1777 l -8 4 c -4 3 c -4 8 c 0 15 c 4 8 c 4 3 c 8 4 c 7 0 c 8 -4 c
11 -7 c 38 -38 c 0 53 c 4 -4 7722 1856 l 4 4 c -4 4 c -4 -4 c 4 -11 7650 1905 l 8 -4 c 7 0 c 8 4 c 4 8 c 3 15 c 4 11 c 8 8 c 7 3 c
12 0 c 7 -3 c 4 -4 c 4 -11 c 0 -16 c -4 -11 c -4 -4 c -7 -4 c -12 0 c -7 4 c -8 8 c -4 11 c -3 15 c -4 8 c -8 4 c -7 0 c -8 -4 c
-4 -11 c 0 -16 c 11 -4 7677 2011 l 8 -7 c 4 -11 c 0 -4 c -4 -12 c -8 -7 c -11 -4 c -4 0 c -11 4 c -8 7 c -4 12 c 0 4 c 4 11 c 8 7 c
15 4 c 19 0 c 19 -4 c 11 -7 c 4 -11 c 0 -8 c -4 -11 c -8 -4 c 80 -38 7650 2091 l 0 53 7650 2038 l 0 -250 8118 1608 l
0 42 8074 1687 l 30 -23 c 0 12 c 4 7 c 4 4 c 11 4 c 8 0 c 11 -4 c 8 -8 c 3 -11 c 0 -11 c -3 -12 c -4 -3 c -8 -4 c 4 -11 8074 1774 l
7 -4 c 8 0 c 8 4 c 3 7 c 4 16 c 4 11 c 7 7 c 8 4 c 11 0 c 8 -4 c 4 -3 c 3 -12 c 0 -15 c -3 -11 c -4 -4 c -8 -4 c -11 0 c -8 4 c
-7 8 c -4 11 c -4 15 c -3 8 c -8 3 c -8 0 c -7 -3 c -4 -12 c 0 -15 c 53 -38 8074 1869 l 0 57 c 79 0 8074 1869 l 0 -38 8074 1952 l
34 -4 c -4 4 c -3 11 c 0 12 c 3 11 c 8 8 c 11 3 c 8 0 c 11 -3 c 8 -8 c 3 -11 c 0 -12 c -3 -11 c -4 -4 c -8 -3 c 4 -4 8146 1990 l
3 4 c -3 3 c -4 -3 c 53 -38 8074 2058 l 0 57 c 79 0 8074 2058 l 4 -11 8074 2118 l 11 -8 c 19 -4 c 11 0 c 19 4 c 12 8 c 3 11 c 0 8 c
-3 11 c -12 8 c -19 3 c -11 0 c -19 -3 c -11 -8 c -4 -11 c 0 -8 c 0 -37 8074 2216 l 34 -4 c -4 4 c -3 11 c 0 11 c 3 12 c 8 7 c
11 4 c 8 0 c 11 -4 c 8 -7 c 3 -12 c 0 -11 c -3 -11 c -4 -4 c -8 -4 c 0 -249 8366 1450 l 0 41 8323 1530 l 30 -22 c 0 11 c 4 8 c 3 3 c
12 4 c 7 0 c 12 -4 c 7 -7 c 4 -12 c 0 -11 c -4 -11 c -4 -4 c -7 -4 c 3 -12 8323 1617 l 8 -3 c 8 0 c 7 3 c 4 8 c 4 15 c 3 11 c 8 8 c
8 4 c 11 0 c 7 -4 c 4 -4 c 4 -11 c 0 -15 c -4 -12 c -4 -3 c -7 -4 c -11 0 c -8 4 c -8 7 c -3 11 c -4 16 c -4 7 c -7 4 c -8 0 c
-8 -4 c -3 -11 c 0 -15 c 53 -38 8323 1711 l 0 57 c 79 0 8323 1711 l -8 -4 8334 1798 l -3 -11 c 0 -8 c 3 -11 c 12 -7 c 19 -4 c 19 0 c
15 4 c 7 7 c 4 11 c 0 4 c -4 12 c -7 7 c -12 4 c -3 0 c -12 -4 c -7 -7 c -4 -12 c 0 -4 c 4 -11 c 7 -7 c 12 -4 c 4 -4 8394 1832 l
4 4 c -4 4 c -4 -4 c 3 -11 8323 1881 l 8 -4 c 8 0 c 7 4 c 4 7 c 4 16 c 3 11 c 8 7 c 8 4 c 11 0 c 7 -4 c 4 -3 c 4 -12 c 0 -15 c
-4 -11 c -4 -4 c -7 -4 c -11 0 c -8 4 c -8 8 c -3 11 c -4 15 c -4 8 c -7 3 c -8 0 c -8 -3 c -3 -12 c 0 -15 c 3 -11 8323 1957 l
8 -4 c 8 0 c 7 4 c 4 7 c 4 15 c 3 12 c 8 7 c 8 4 c 11 0 c 7 -4 c 4 -4 c 4 -11 c 0 -15 c -4 -11 c -4 -4 c -7 -4 c -11 0 c -8 4 c
-8 7 c -3 12 c -4 15 c -4 7 c -7 4 c -8 0 c -8 -4 c -3 -11 c 0 -15 c 3 -11 8323 2032 l 8 -4 c 8 0 c 7 4 c 4 8 c 4 15 c 3 11 c 8 8 c
8 3 c 11 0 c 7 -3 c 4 -4 c 4 -11 c 0 -16 c -4 -11 c -4 -4 c -7 -3 c -11 0 c -8 3 c -8 8 c -3 11 c -4 15 c -4 8 c -7 4 c -8 0 c
-8 -4 c -3 -11 c 0 -16 c 0 -250 9007 3241 l 0 42 8963 3320 l 31 -23 c 0 11 c 3 8 c 4 4 c 12 3 c 7 0 c 11 -3 c 8 -8 c 4 -11 c 0 -12 c
-4 -11 c -4 -4 c -7 -4 c 4 -11 8963 3407 l 8 -4 c 7 0 c 8 4 c 4 7 c 3 15 c 4 12 c 8 7 c 7 4 c 12 0 c 7 -4 c 4 -4 c 4 -11 c 0 -15 c
-4 -11 c -4 -4 c -7 -4 c -12 0 c -7 4 c -8 7 c -4 12 c -3 15 c -4 7 c -8 4 c -7 0 c -8 -4 c -4 -11 c 0 -15 c 0 -38 8963 3509 l
34 -4 c -3 4 c -4 11 c 0 12 c 4 11 c 7 8 c 12 3 c 7 0 c 11 -3 c 8 -8 c 4 -11 c 0 -12 c -4 -11 c -4 -4 c -7 -3 c 4 -11 8963 3562 l
12 -8 c 18 -4 c 12 0 c 19 4 c 11 8 c 4 11 c 0 7 c -4 12 c -11 7 c -19 4 c -12 0 c -18 -4 c -12 -7 c -4 -12 c 0 -7 c 4 -3 9035 3622 l
4 3 c -4 4 c -4 -4 c 0 -38 8963 3698 l 34 -4 c -3 4 c -4 11 c 0 12 c 4 11 c 7 8 c 12 3 c 7 0 c 11 -3 c 8 -8 c 4 -11 c 0 -12 c
-4 -11 c -4 -4 c -7 -3 c 4 -11 8963 3747 l 8 -4 c 7 0 c 8 4 c 4 7 c 3 15 c 4 12 c 8 7 c 7 4 c 12 0 c 7 -4 c 4 -4 c 4 -11 c 0 -15 c
-4 -11 c -4 -4 c -7 -4 c -12 0 c -7 4 c -8 7 c -4 12 c -3 15 c -4 7 c -8 4 c -7 0 c -8 -4 c -4 -11 c 0 -15 c -4 8 8979 3815 l
-12 11 c 80 0 c 0 -249 9277 1545 l 0 41 9233 1625 l 30 -22 c 0 11 c 4 8 c 4 3 c 11 4 c 8 0 c 11 -4 c 8 -7 c 4 -12 c 0 -11 c -4 -11 c
-4 -4 c -8 -4 c 4 -12 9233 1712 l 8 -3 c 7 0 c 8 3 c 3 8 c 4 15 c 4 11 c 8 8 c 7 4 c 11 0 c 8 -4 c 4 -4 c 4 -11 c 0 -15 c -4 -12 c
-4 -3 c -8 -4 c -11 0 c -7 4 c -8 7 c -4 12 c -4 15 c -3 7 c -8 4 c -7 0 c -8 -4 c -4 -11 c 0 -15 c 0 -38 9233 1814 l 34 -4 c -4 4 c
-3 11 c 0 12 c 3 11 c 8 8 c 11 3 c 8 0 c 11 -3 c 8 -8 c 4 -11 c 0 -12 c -4 -11 c -4 -4 c -8 -4 c -4 0 9252 1848 l -7 4 c -4 3 c
-4 8 c 0 15 c 4 8 c 4 3 c 7 4 c 8 0 c 7 -4 c 12 -7 c 38 -38 c 0 53 c 4 -4 9305 1927 l 4 4 c -4 4 c -4 -4 c -3 7 9248 1969 l -12 12 c
80 0 c 0 41 9233 2041 l 30 -23 c 0 12 c 4 7 c 4 4 c 11 4 c 8 0 c 11 -4 c 8 -7 c 4 -12 c 0 -11 c -4 -11 c -4 -4 c -8 -4 c
0 -38 9233 2154 l 34 -4 c -4 4 c -3 11 c 0 12 c 3 11 c 8 8 c 11 3 c 8 0 c 11 -3 c 8 -8 c 4 -11 c 0 -12 c -4 -11 c -4 -4 c -8 -3 c
0 -249 9692 2121 l 0 41 9649 2201 l 30 -22 c 0 11 c 4 8 c 3 3 c 12 4 c 7 0 c 12 -4 c 7 -7 c 4 -12 c 0 -11 c -4 -11 c -4 -4 c -7 -4 c
3 -12 9649 2288 l 8 -3 c 8 0 c 7 3 c 4 8 c 4 15 c 3 11 c 8 8 c 8 4 c 11 0 c 7 -4 c 4 -4 c 4 -11 c 0 -15 c -4 -12 c -4 -3 c -7 -4 c
-11 0 c -8 4 c -8 7 c -3 11 c -4 16 c -4 7 c -7 4 c -8 0 c -8 -4 c -3 -11 c 0 -15 c 0 -38 9649 2390 l 34 -4 c -4 4 c -4 11 c 0 12 c
4 11 c 7 8 c 12 3 c 7 0 c 12 -3 c 7 -8 c 4 -11 c 0 -12 c -4 -11 c -4 -4 c -7 -4 c 53 -38 9649 2458 l 0 57 c 79 0 9649 2458 l
4 -4 9720 2503 l 4 4 c -4 4 c -4 -4 c 0 -38 9649 2579 l 34 -4 c -4 4 c -4 11 c 0 12 c 4 11 c 7 8 c 12 3 c 7 0 c 12 -3 c 7 -8 c
4 -11 c 0 -12 c -4 -11 c -4 -4 c -7 -4 c -4 8 9664 2620 l -11 11 c 79 0 c -4 7 9664 2696 l -11 12 c 79 0 c
showpage PGPLOT restore
 
%%Trailer
%%DocumentFonts: 
%%Pages: 1
%%EOF
