%!PS-Adobe-3.0 EPSF-3.0
%%For: tom
%%Title: PGPLOT PostScript plot
%%Creator: PGPLOT
%%CreationDate:  9-Nov-1994 13:33
%%BoundingBox: 25 18 587 774
%%DocumentFonts: (atend)
%%LanguageLevel: 1
%%Orientation: Landscape
%%Pages: (atend)
%%EndComments
%%BeginProlog
/l {moveto rlineto currentpoint stroke moveto} bind def
/c {rlineto currentpoint stroke moveto} bind def
/d {moveto 0 0 rlineto currentpoint stroke moveto} bind def
/SLW {5 mul setlinewidth} bind def
/SCF /pop load def
/BP {newpath moveto} bind def
/LP /rlineto load def
/EP {rlineto closepath eofill} bind def
/MB {gsave translate MFAC dup scale 1 setlinewidth 2 setlinecap 0 setlinejoin newpath} bind def
/ME /grestore load def
/C {0 360 arc stroke} bind def
/FC {0 360 arc fill} bind def
%%EndProlog
 
%%Page: 1 1
%%BeginPageSetup
/PGPLOT save def
0.072 0.072 scale
8150 250 translate 90 rotate
1 setlinejoin 1 setlinecap 1 SLW 1 SCF
%%EndPageSetup
0.00 setgray 1 SLW 8939 0 780 780 l 0 6239 c -8939 0 c 0 -6239 c 0 -45 1116 780 l 0 -45 1554 780 l 0 -45 1991 780 l 0 -45 2428 780 l
0 -90 2865 780 l 0 -45 3302 780 l 0 -45 3739 780 l 0 -45 4176 780 l 0 -45 4613 780 l 0 -90 5051 780 l 0 -45 5488 780 l
0 -45 5925 780 l 0 -45 6362 780 l 0 -45 6799 780 l 0 -90 7236 780 l 0 -45 7673 780 l 0 -45 8110 780 l 0 -45 8548 780 l
0 -45 8985 780 l 0 -90 9422 780 l 0 -45 1116 7064 l 0 -45 1554 7064 l 0 -45 1991 7064 l 0 -45 2428 7064 l 0 -90 2865 7109 l
0 -45 3302 7064 l 0 -45 3739 7064 l 0 -45 4176 7064 l 0 -45 4613 7064 l 0 -90 5051 7109 l 0 -45 5488 7064 l 0 -45 5925 7064 l
0 -45 6362 7064 l 0 -45 6799 7064 l 0 -90 7236 7109 l 0 -45 7673 7064 l 0 -45 8110 7064 l 0 -45 8548 7064 l 0 -45 8985 7064 l
0 -90 9422 7109 l -60 0 2775 672 l -6 -54 c 6 6 c 18 6 c 18 0 c 18 -6 c 12 -12 c 6 -18 c 0 -12 c -6 -18 c -12 -12 c -18 -6 c -18 0 c
-18 6 c -6 6 c -6 12 c -18 -6 2859 672 l -12 -18 c -6 -30 c 0 -18 c 6 -30 c 12 -18 c 18 -6 c 12 0 c 18 6 c 12 18 c 6 30 c 0 18 c
-6 30 c -12 18 c -18 6 c -12 0 c -18 -6 2979 672 l -12 -18 c -6 -30 c 0 -18 c 6 -30 c 12 -18 c 18 -6 c 12 0 c 18 6 c 12 18 c 6 30 c
0 18 c -6 30 c -12 18 c -18 6 c -12 0 c 12 6 4847 648 l 18 18 c 0 -126 c -18 -6 4985 672 l -12 -18 c -6 -30 c 0 -18 c 6 -30 c
12 -18 c 18 -6 c 12 0 c 18 6 c 12 18 c 6 30 c 0 18 c -6 30 c -12 18 c -18 6 c -12 0 c -18 -6 5105 672 l -12 -18 c -6 -30 c 0 -18 c
6 -30 c 12 -18 c 18 -6 c 12 0 c 18 6 c 12 18 c 6 30 c 0 18 c -6 30 c -12 18 c -18 6 c -12 0 c -18 -6 5225 672 l -12 -18 c -6 -30 c
0 -18 c 6 -30 c 12 -18 c 18 -6 c 12 0 c 18 6 c 12 18 c 6 30 c 0 18 c -6 30 c -12 18 c -18 6 c -12 0 c 12 6 7032 648 l 18 18 c
0 -126 c -60 0 7206 672 l -6 -54 c 6 6 c 18 6 c 18 0 c 18 -6 c 12 -12 c 6 -18 c 0 -12 c -6 -18 c -12 -12 c -18 -6 c -18 0 c -18 6 c
-6 6 c -6 12 c -18 -6 7290 672 l -12 -18 c -6 -30 c 0 -18 c 6 -30 c 12 -18 c 18 -6 c 12 0 c 18 6 c 12 18 c 6 30 c 0 18 c -6 30 c
-12 18 c -18 6 c -12 0 c -18 -6 7410 672 l -12 -18 c -6 -30 c 0 -18 c 6 -30 c 12 -18 c 18 -6 c 12 0 c 18 6 c 12 18 c 6 30 c 0 18 c
-6 30 c -12 18 c -18 6 c -12 0 c 0 6 9206 642 l 6 12 c 6 6 c 12 6 c 24 0 c 12 -6 c 6 -6 c 6 -12 c 0 -12 c -6 -12 c -12 -18 c
-60 -60 c 84 0 c -18 -6 9356 672 l -12 -18 c -6 -30 c 0 -18 c 6 -30 c 12 -18 c 18 -6 c 12 0 c 18 6 c 12 18 c 6 30 c 0 18 c -6 30 c
-12 18 c -18 6 c -12 0 c -18 -6 9476 672 l -12 -18 c -6 -30 c 0 -18 c 6 -30 c 12 -18 c 18 -6 c 12 0 c 18 6 c 12 18 c 6 30 c 0 18 c
-6 30 c -12 18 c -18 6 c -12 0 c -18 -6 9596 672 l -12 -18 c -6 -30 c 0 -18 c 6 -30 c 12 -18 c 18 -6 c 12 0 c 18 6 c 12 18 c 6 30 c
0 18 c -6 30 c -12 18 c -18 6 c -12 0 c -90 0 780 780 l -45 0 780 1002 l -45 0 780 1225 l -45 0 780 1447 l -45 0 780 1669 l
-90 0 780 1892 l -45 0 780 2114 l -45 0 780 2336 l -45 0 780 2559 l -45 0 780 2781 l -90 0 780 3003 l -45 0 780 3226 l
-45 0 780 3448 l -45 0 780 3670 l -45 0 780 3893 l -90 0 780 4115 l -45 0 780 4337 l -45 0 780 4560 l -45 0 780 4782 l
-45 0 780 5004 l -90 0 780 5227 l -45 0 780 5449 l -45 0 780 5672 l -45 0 780 5894 l -45 0 780 6116 l -90 0 780 6339 l
-45 0 780 6561 l -45 0 780 6783 l -45 0 780 7006 l -90 0 9809 780 l -45 0 9764 1002 l -45 0 9764 1225 l -45 0 9764 1447 l
-45 0 9764 1669 l -90 0 9809 1892 l -45 0 9764 2114 l -45 0 9764 2336 l -45 0 9764 2559 l -45 0 9764 2781 l -90 0 9809 3003 l
-45 0 9764 3226 l -45 0 9764 3448 l -45 0 9764 3670 l -45 0 9764 3893 l -90 0 9809 4115 l -45 0 9764 4337 l -45 0 9764 4560 l
-45 0 9764 4782 l -45 0 9764 5004 l -90 0 9809 5227 l -45 0 9764 5449 l -45 0 9764 5672 l -45 0 9764 5894 l -45 0 9764 6116 l
-90 0 9809 6339 l -45 0 9764 6561 l -45 0 9764 6783 l -45 0 9764 7006 l 6 -18 517 774 l 18 -12 c 30 -6 c 18 0 c 30 6 c 18 12 c
6 18 c 0 12 c -6 18 c -18 12 c -30 6 c -18 0 c -30 -6 c -18 -12 c -6 -18 c 0 -12 c -6 12 541 1772 l -18 18 c 126 0 c
6 -18 517 1910 l 18 -12 c 30 -6 c 18 0 c 30 6 c 18 12 c 6 18 c 0 12 c -6 18 c -18 12 c -30 6 c -18 0 c -30 -6 c -18 -12 c -6 -18 c
0 -12 c 63 -45 453 2034 l 0 68 c 94 0 453 2034 l -6 0 547 2745 l -12 6 c -6 6 c -6 12 c 0 24 c 6 12 c 6 6 c 12 6 c 12 0 c 12 -6 c
18 -12 c 60 -60 c 0 84 c 84 84 547 2865 l 84 -84 547 2949 l -6 12 541 3009 l -18 18 c 126 0 c 6 -18 517 3147 l 18 -12 c 30 -6 c
18 0 c 30 6 c 18 12 c 6 18 c 0 12 c -6 18 c -18 12 c -30 6 c -18 0 c -30 -6 c -18 -12 c -6 -18 c 0 -12 c 63 -45 453 3272 l 0 67 c
94 0 453 3272 l 0 66 517 3863 l 48 -36 c 0 18 c 6 12 c 6 6 c 18 6 c 12 0 c 18 -6 c 12 -12 c 6 -18 c 0 -18 c -6 -18 c -6 -6 c
-12 -6 c 84 84 547 3977 l 84 -84 547 4061 l -6 12 541 4121 l -18 18 c 126 0 c 6 -18 517 4259 l 18 -12 c 30 -6 c 18 0 c 30 6 c
18 12 c 6 18 c 0 12 c -6 18 c -18 12 c -30 6 c -18 0 c -30 -6 c -18 -12 c -6 -18 c 0 -12 c 63 -45 453 4384 l 0 67 c 94 0 453 4384 l
84 -60 517 5023 l 0 90 c 126 0 517 5023 l 84 84 547 5089 l 84 -84 547 5173 l -6 12 541 5233 l -18 18 c 126 0 c 6 -18 517 5371 l
18 -12 c 30 -6 c 18 0 c 30 6 c 18 12 c 6 18 c 0 12 c -6 18 c -18 12 c -30 6 c -18 0 c -30 -6 c -18 -12 c -6 -18 c 0 -12 c
63 -45 453 5495 l 0 68 c 94 0 453 5495 l 0 -60 517 6147 l 54 -6 c -6 6 c -6 18 c 0 18 c 6 18 c 12 12 c 18 6 c 12 0 c 18 -6 c
12 -12 c 6 -18 c 0 -18 c -6 -18 c -6 -6 c -12 -6 c 84 84 547 6201 l 84 -84 547 6285 l -6 12 541 6345 l -18 18 c 126 0 c
6 -18 517 6483 l 18 -12 c 30 -6 c 18 0 c 30 6 c 18 12 c 6 18 c 0 12 c -6 18 c -18 12 c -30 6 c -18 0 c -30 -6 c -18 -12 c -6 -18 c
0 -12 c 63 -45 453 6607 l 0 68 c 94 0 453 6607 l
4 0 780 789 l 5 0 c 4 0 c 4 0 c 5 -1 c 4 1 c 4 1 c 5 2 c 4 5 c 5 6 c 4 -1 c 4 -2 c 5 -6 c 4 -3 c 4 2 c 5 0 c 4 -1 c 5 -2 c 4 -1 c
4 0 c 5 0 c 4 2 c 4 3 c 5 5 c 4 16 c 5 13 c 4 -5 c 4 -6 c 5 -19 c 4 -1 c 4 7 c 5 6 c 4 14 c 5 19 c 4 -7 c 4 -6 c 5 -22 c 4 -16 c
4 -2 c 5 -1 c 4 0 c 4 0 c 5 1 c 4 0 c 5 0 c 4 1 c 4 4 c 5 1 c 4 -1 c 4 -1 c 5 1 c 4 0 c 5 0 c 4 -2 c 4 -2 c 5 -1 c 4 0 c 4 0 c 5 0 c
4 0 c 5 0 c 4 1 c 4 2 c 5 1 c 4 0 c 4 0 c 5 -2 c 4 0 c 5 1 c 4 5 c 4 17 c 5 36 c 4 70 c 4 172 c 5 154 c 4 -5 c 4 -84 c 5 -203 c
4 -120 c 5 -18 c 4 -2 c 4 3 c 5 4 c 4 -42 c 5 31 1151 780 l 4 -5 c 5 -4 c 4 -5 c 4 -4 c 5 0 c 4 1 c 4 2 c 5 4 c 4 5 c 5 8 c 4 24 c
4 11 c 5 6 c 4 22 c 4 17 c 5 -2 c 4 -9 c 5 -37 c 4 -21 c 4 48 c 5 245 c 4 497 c 4 1226 c 5 3012 c 4 985 c 4 -637 c 5 -1887 c
4 -2931 c 5 -520 c 4 -25 c 4 -5 c 5 -5 c 4 -7 c 4 -4 c 5 -3 c 4 -4 c 5 -4 c 4 -5 c 4 -4 c 5 0 c 4 0 c 4 -1 c 5 1 c 4 4 c 5 6 c
4 13 c 4 9 c 5 -4 c 4 -10 c 4 -14 c 5 -8 c 4 -1 c 5 0 c 4 1 c 4 0 c 5 0 c 4 -1 c 4 1 c 5 0 c 4 -1 c 4 0 c 5 -1 c 4 1 c 5 0 c 4 -1 c
4 0 c 5 0 c 4 0 c 4 0 c 5 0 c 4 1 c 5 1 c 4 1 c 4 0 c 5 3 c 4 6 c 4 19 c 5 24 c 4 1 c 5 -8 c 4 -20 c 4 -19 c 5 -5 c 4 -1 c 4 -1 c
5 0 c 4 1 c 4 -1 c 5 0 c 4 -2 c 5 0 c 4 0 c 4 -1 c 5 1 c 4 0 c 4 1 c 5 0 c 4 -1 c 5 1 c 4 -1 c 4 1 c 5 3 c 4 9 c 4 8 c 5 -1 c 4 -3 c
5 -10 c 4 -3 c 4 7 c 5 16 c 4 52 c 4 29 c 5 -4 c 4 -26 c 5 -60 c 4 -14 c 4 -1 c 5 2 c 4 6 c 4 21 c 5 56 c 4 140 c 4 81 c 5 -11 c
4 -77 c 5 -151 c 4 -54 c 4 -8 c 5 -3 c 4 -1 c 4 1 c 5 9 c 4 23 c 5 89 c 4 122 c 4 12 c 5 -36 c 4 -110 c 4 -95 c 5 -3 c 4 1 c 5 -3 c
4 -4 c 4 1 c 5 3 c 4 7 c 4 0 c 5 -4 c 4 -4 c 5 -4 c 4 0 c 4 -1 c 5 -1 c 4 -2 c 4 1 c 5 2 c 4 15 c 4 71 c 5 188 c 4 677 c 5 533 c
4 -36 c 4 -328 c 5 -761 c 4 -327 c 4 -30 c 5 -2 c 4 -2 c 5 -1 c 4 -1 c 4 0 c 5 0 c 4 0 c 4 0 c 5 -1 c 4 1 c 5 0 c 4 3 c 4 2 c 5 2 c
4 4 c 4 2 c 5 -1 c 4 -3 c 5 -7 c 4 -4 c 4 -1 c 5 -1 c 4 0 c 4 0 c 5 1 c 4 0 c 4 0 c 5 0 c 4 0 c 5 -1 c 4 1 c 4 0 c 5 2 c 4 3 c 4 0 c
5 -1 c 4 -4 c 5 -1 c 4 0 c 4 0 c 5 0 c 4 0 c 4 0 c 5 -1 c 4 1 c 5 3 c 4 8 c 4 8 c 5 1 c 4 -1 c 4 -8 c 5 -5 c 4 -3 c 5 -2 c 4 -1 c
4 0 c 5 1 c 4 0 c 4 -1 c 5 1 c 4 3 c 4 10 c 5 3 c 4 0 c 5 -1 c 4 -7 c 4 -1 c 5 -1 c 4 -4 c 4 -2 c 5 1 c 4 4 c 5 5 c 4 1 c 4 -1 c
5 -5 c 4 -4 c 4 -1 c 5 0 c 4 -1 c 5 0 c 4 0 c 4 0 c 5 1 c 4 3 c 4 13 c 5 25 c 4 6 c 4 -6 c 5 -17 c 4 -21 c 5 -4 c 4 0 c 4 1 c 5 1 c
4 2 c 4 6 c 5 5 c 4 -1 c 5 -3 c 4 -6 c 4 -4 c 5 0 c 4 0 c 4 1 c 5 -1 c 4 0 c 5 2 c 4 12 c 4 55 c 5 71 c 4 3 c 4 -21 c 5 -70 c
4 -47 c 5 -6 c 4 0 c 4 0 c 5 1 c 4 0 c 4 0 c 5 0 c 4 0 c 4 -1 c 5 1 c 4 -2 c 5 0 c 4 1 c 4 1 c 5 1 c 4 1 c 4 0 c 5 -1 c 4 -1 c 5 0 c
4 0 c 4 0 c 5 1 c 4 6 c 4 25 c 5 79 c 4 34 c 5 -8 c 4 -46 c 4 -73 c 5 -18 c 4 1 c 4 3 c 5 4 c 4 1 c 5 -2 c 4 -2 c 4 -4 c 5 -1 c
4 -1 c 4 1 c 5 5 c 4 22 c 4 18 c 5 -1 c 4 -6 c 5 -26 c 4 -4 c 4 16 c 5 19 c 4 4 c 4 2 c 5 -4 c 4 5 c 5 34 c 4 54 c 4 -5 c 5 -23 c
4 -54 c 4 -50 c 5 -5 c 4 1 c 5 -1 c 4 0 c 4 -2 c 5 0 c 4 1 c 4 4 c 5 5 c 4 1 c 5 -2 c 4 -5 c 4 -3 c 5 2 c 4 2 c 4 0 c 5 -1 c 4 -3 c
4 -1 c 5 0 c 4 1 c 5 1 c 4 0 c 4 0 c 5 -1 c 4 0 c 4 -1 c 5 0 c 4 0 c 5 3 c 4 4 c 4 2 c 5 0 c 4 -4 c 4 -4 c 5 -1 c 4 0 c 5 -1 c 4 1 c
4 0 c 5 0 c 4 0 c 4 0 c 5 0 c 4 3 c 4 0 c 5 0 c 4 -1 c 5 -2 c 4 1 c 4 4 c 5 0 c 4 1 c 4 -3 c 5 -3 c 4 0 c 5 0 c 4 0 c 4 0 c 5 0 c
4 0 c 4 1 c 5 3 c 4 0 c 5 0 c 4 -1 c 4 3 c 5 5 c 4 1 c 4 -2 c 5 -6 c 4 -4 c 5 0 c 4 0 c 4 0 c 5 0 c 4 0 c 4 1 c 5 0 c 4 0 c 4 1 c
5 0 c 4 0 c 5 -1 c 4 1 c 4 2 c 5 0 c 4 0 c 4 -3 c 5 0 c 4 0 c 5 0 c 4 0 c 4 -1 c 5 0 c 4 0 c 4 0 c 5 3 c 4 0 c 5 0 c 4 -1 c 4 -1 c
5 -1 c 4 2 c 4 1 c 5 1 c 4 -1 c 5 1 c 4 9 c 4 19 c 5 8 c 4 -3 c 4 -13 c 5 -18 c 4 -5 c 4 -1 c 5 1 c 4 -1 c 5 1 c 4 5 c 4 3 c 5 0 c
4 -2 c 4 -5 c 5 -1 c 4 3 c 5 8 c 4 4 c 4 13 c 5 39 c 4 5 c 4 7 c 5 -20 c 4 -42 c 5 -10 c 4 -4 c 4 8 c 5 8 c 4 7 c 4 2 c 5 -10 c
4 -6 c 5 -6 c 4 -3 c 4 -1 c 5 -1 c 4 -1 c 4 1 c 5 1 c 4 2 c 4 22 c 5 32 c 4 2 c 5 14 c 4 5 c 4 164 c 5 113 c 4 12 c 4 -50 c 5 -206 c
4 -89 c 5 -12 c 4 3 c 4 15 c 5 7 c 4 39 c 4 47 c 5 -3 c 4 -7 c 5 -56 c 4 -50 c 4 -5 c 5 -1 c 4 0 c 4 1 c 5 -1 c 4 0 c 5 0 c 4 0 c
4 0 c 5 0 c 4 1 c 4 0 c 5 2 c 4 6 c 4 48 c 5 112 c 4 43 c 5 4 c 4 -55 c 4 -121 c 5 -28 c 4 -5 c 4 -4 c 5 -2 c 4 -1 c 5 0 c 4 0 c
4 0 c 5 0 c 4 0 c 4 0 c 5 0 c 4 1 c 5 0 c 4 0 c 4 -1 c 5 0 c 4 1 c 4 0 c 5 1 c 4 1 c 4 0 c 5 0 c 4 0 c 5 4 c 4 31 c 4 23 c 5 3 c
4 -5 c 4 -37 c 5 -14 c 4 -3 c 5 -2 c 4 0 c 4 0 c 5 0 c 4 3 c 4 20 c 5 154 c 4 116 c 5 16 c 4 -39 c 4 -169 c 5 -94 c 4 -4 c 4 1 c
5 0 c 4 2 c 5 18 c 4 130 c 4 95 c 5 8 c 4 -24 c 4 -141 c 5 -80 c 4 -1 c 4 6 c 5 24 c 4 206 c 5 729 c 4 476 c 4 241 c 5 -185 c
4 -797 c 4 -390 c 5 -261 c 4 -42 c 5 -2 c 4 6 c 4 66 c 5 64 c 4 7 c 4 -3 c 5 -62 c 4 -55 c 5 -4 c 4 -18 c 4 -14 c 5 -2 c 4 0 c
4 -1 c 5 0 c 4 -1 c 5 0 c 4 1 c 4 1 c 5 1 c 4 -1 c 4 0 c 5 -2 c 4 2 c 4 1 c 5 0 c 4 0 c 5 1 c 4 9 c 4 11 c 5 1 c 4 -2 c 4 -11 c
5 -9 c 4 4 c 5 38 c 4 44 c 4 5 c 5 -6 c 4 -47 c 4 -21 c 5 119 c 4 172 c 5 48 c 4 -23 c 4 -141 c 5 -164 c 4 -17 c 4 1 c 5 -2 c 4 -3 c
5 -5 c 4 1 c 4 2 c 5 0 c 4 0 c 4 -1 c 5 2 c 4 7 c 4 84 c 5 497 c 4 312 c 5 20 c 4 -138 c 4 -513 c 5 -177 c 4 -17 c 4 -27 c 5 -45 c
4 -9 c 5 -1 c 4 0 c 4 0 c 5 0 c 4 0 c 4 -1 c 5 0 c 4 1 c 5 -1 c 4 1 c 4 0 c 5 1 c 4 1 c 4 1 c 5 -1 c 4 0 c 5 2 c 4 1 c 4 1 c 5 4 c
4 4 c 4 11 c 5 91 c 4 730 c 4 1062 c 5 196 c 4 -110 c 5 -828 c 4 -978 c 4 -156 c 5 -11 c 4 -2 c 4 -1 c 5 -4 c 4 -3 c 5 -4 c 4 -4 c
4 -1 c 5 0 c 4 1 c 4 0 c 5 -1 c 4 0 c 5 -2 c 4 1 c 4 -2 c 5 -1 c 4 1 c 4 0 c 5 0 c 4 0 c 4 0 c 5 0 c 4 0 c 5 0 c 4 0 c 4 1 c 5 1 c
4 1 c 4 0 c 5 0 c 4 -1 c 5 2 c 4 0 c 4 1 c 5 1 c 4 0 c 4 2 c 5 -1 c 4 2 c 5 4 c 4 6 c 4 34 c 5 376 c 4 1152 c 4 385 c 5 -17 c
4 -573 c 5 -1134 c 4 -217 c 4 -14 c 5 -3 c 4 -1 c 4 -2 c 5 1 c 4 1 c 4 -1 c 5 2 c 4 13 c 5 14 c 4 1 c 4 -2 c 5 -19 c 4 -14 c 4 -1 c
5 0 c 4 1 c 5 0 c 4 4 c 4 24 c 5 17 c 4 1 c 4 -7 c 5 -26 c 4 -12 c 5 -1 c 4 -1 c 4 0 c 5 -1 c 4 1 c 4 1 c 5 1 c 4 9 c 5 86 c 4 169 c
4 43 c 5 -12 c 4 -107 c 4 -161 c 5 -28 c 4 -1 c 4 0 c 5 0 c 4 0 c 5 -1 c 4 1 c 4 -1 c 5 0 c 4 -1 c 4 0 c 5 0 c 4 0 c 5 0 c 4 0 c
4 0 c 5 0 c 4 0 c 4 1 c 5 3 c 4 5 c 5 4 c 4 0 c 4 -4 c 5 -6 c 4 -2 c 4 -1 c 5 2 c 4 4 c 5 5 c 4 3 c 4 -2 c 5 -3 c 4 -4 c 4 -1 c
5 1 c 4 3 c 4 19 c 5 74 c 4 129 c 5 62 c 4 -21 c 4 -83 c 5 -132 c 4 -44 c 4 -3 c 5 -3 c 4 -4 c 5 0 c 4 0 c 4 0 c 5 0 c 4 -1 c 4 0 c
5 0 c 4 -1 c 5 0 c 4 1 c 4 2 c 5 3 c 4 3 c 4 0 c 5 -1 c 4 7 c 5 9 c 4 1 c 4 -1 c 5 -11 c 4 -11 c 4 -1 c 5 0 c 4 1 c 4 1 c 5 -1 c
4 0 c 5 -1 c 4 -1 c 4 0 c 5 0 c 4 0 c 4 3 c 5 1 c 4 0 c 5 0 c 4 -1 c 4 -15 c 5 20 c 4 8 c 4 7 c 5 1 c 4 -4 c 5 -8 c 4 -8 c 4 -4 c
5 -1 c 4 1 c 4 0 c 5 1 c 4 1 c 4 5 c 5 8 c 4 4 c 5 -2 c 4 -7 c 4 -8 c 5 -2 c 4 0 c 4 0 c 5 0 c 4 1 c 5 2 c 4 0 c 4 1 c 5 -1 c 4 -1 c
4 -1 c 5 1 c 4 0 c 5 0 c 4 0 c 4 0 c 5 -1 c 4 2 c 4 8 c 5 7 c 4 33 c 5 26 c 4 -2 c 4 -3 c 5 -27 c 4 -22 c 4 -4 c 5 -9 c 4 -9 c 4 0 c
5 -1 c 4 0 c 5 0 c 4 1 c 4 -1 c 5 0 c 4 0 c 4 1 c 5 0 c 4 1 c 5 2 c 4 0 c 4 0 c 5 -1 c 4 0 c 4 12 c 5 57 c 4 57 c 5 9 c 4 -10 c
4 -58 c 5 -39 c 4 -6 c 4 -3 c 5 -9 c 4 -6 c 5 -1 c 4 0 c 4 0 c 5 -1 c 4 1 c 4 -1 c 5 1 c 4 2 c 4 2 c 5 1 c 4 0 c 5 9 c 4 13 c 4 4 c
5 23 c 4 153 c 4 229 c 5 76 c 4 317 c 5 1155 c 4 421 c 4 -38 c 5 -422 c 4 -1358 c 4 -523 c 5 -41 c 4 -4 c 5 -5 c 4 -5 c 4 -4 c
5 -2 c 4 -1 c 4 2 c 5 0 c 4 0 c 5 3 c 4 8 c 4 1 c 5 0 c 4 -6 c 4 -10 c 5 -3 c 4 -1 c 4 0 c 5 0 c 4 0 c 5 -1 c 4 0 c 4 1 c 5 0 c
4 0 c 4 1 c 5 1 c 4 8 c 5 2 c 4 1 c 4 -3 c 5 -7 c 4 -2 c 4 0 c 5 0 c 4 0 c 5 -1 c 4 0 c 4 -1 c 5 0 c 4 0 c 4 2 c 5 0 c 4 -1 c 4 0 c
5 -2 c 4 0 c 5 1 c 4 6 c 4 17 c 5 -36 c 4 43 c 4 -6 c 5 -12 c 4 8 c 5 6 c 4 1 c 4 -7 c 5 -12 c 4 -6 c 4 -1 c 5 -1 c 4 -1 c 5 0 c
4 -12 c 5 12 5706 780 l 4 0 c 4 0 c 5 1 c 4 1 c 5 0 c 4 0 c 4 1 c 5 5 c 4 1 c 4 1 c 5 1 c 4 -3 c 4 0 c 5 0 c 4 -4 c 5 -1 c 4 1 c
4 13 c 5 16 c 4 22 c 4 109 c 5 84 c 4 5 c 5 -23 c 4 -117 c 4 -102 c 5 -8 c 4 0 c 4 1 c 5 -1 c 4 0 c 5 1 c 4 1 c 4 0 c 5 -1 c 4 -2 c
4 -1 c 5 1 c 4 1 c 5 1 c 4 0 c 4 -1 c 5 -2 c 4 -1 c 4 0 c 5 1 c 4 4 c 4 5 c 5 2 c 4 -1 c 5 -5 c 4 -3 c 4 0 c 5 0 c 4 1 c 4 8 c
5 10 c 4 10 c 5 19 c 4 5 c 4 -6 c 5 -12 c 4 -22 c 4 -8 c 5 2 c 4 0 c 5 -1 c 4 -4 c 4 -4 c 5 -1 c 4 0 c 4 0 c 5 -1 c 4 0 c 5 1 c
4 1 c 4 4 c 5 6 c 4 3 c 4 1 c 5 -3 c 4 -3 c 4 -3 c 5 0 c 4 -2 c 5 -2 c 4 0 c 4 0 c 5 1 c 4 -2 c 4 2 c 5 -1 c 4 2 c 5 6 c 4 3 c
4 -1 c 5 -2 c 4 -6 c 4 -2 c 5 -1 c 4 1 c 5 1 c 4 2 c 4 -1 c 5 1 c 4 0 c 4 1 c 5 0 c 4 6 c 5 2 c 4 -2 c 4 0 c 5 -6 c 4 -3 c 4 1 c
5 -2 c 4 -1 c 4 2 c 5 5 c 4 3 c 5 0 c 4 -2 c 4 -4 c 5 -2 c 4 1 c 4 2 c 5 3 c 4 2 c 5 2 c 4 -1 c 4 2 c 5 13 c 4 6 c 4 21 c 5 53 c
4 4 c 5 -4 c 4 -24 c 4 -58 c 5 -19 c 4 -3 c 4 -1 c 5 -1 c 4 -1 c 4 0 c 5 0 c 4 0 c 5 1 c 4 1 c 4 0 c 5 0 c 4 0 c 4 0 c 5 2 c 4 0 c
5 -1 c 4 -2 c 4 -1 c 5 0 c 4 0 c 4 0 c 5 0 c 4 5 c 5 28 c 4 20 c 4 3 c 5 -6 c 4 -25 c 4 -14 c 5 2 c 4 1 c 5 6 c 4 54 c 4 44 c 5 1 c
4 -7 c 4 -62 c 5 -43 c 4 -5 c 4 -1 c 5 -1 c 4 0 c 5 0 c 4 0 c 4 0 c 5 0 c 4 0 c 4 -1 c 5 1 c 4 1 c 5 0 c 4 1 c 4 7 c 5 20 c 4 5 c
4 0 c 5 -7 c 4 -19 c 5 -6 c 4 0 c 4 -1 c 5 -1 c 4 -1 c 4 -11 c 5 17 c 4 1 c 5 0 c 4 -1 c 4 -3 c 5 0 c 4 0 c 4 0 c 5 0 c 4 -1 c 4 0 c
5 0 c 4 0 c 5 4 c 4 28 c 4 31 c 5 4 c 4 -2 c 4 -25 c 5 -13 c 4 24 c 5 6 c 4 -2 c 4 -15 c 5 -26 c 4 -5 c 4 -1 c 5 -3 c 4 -4 c 5 -1 c
4 0 c 4 0 c 5 0 c 4 -1 c 4 0 c 5 0 c 4 0 c 5 0 c 4 0 c 4 1 c 5 0 c 4 0 c 4 0 c 5 1 c 4 1 c 4 -1 c 5 -1 c 4 -1 c 5 0 c 4 -1 c 4 0 c
5 1 c 4 0 c 4 0 c 5 0 c 4 0 c 5 1 c 4 0 c 4 0 c 5 0 c 4 0 c 4 1 c 5 0 c 4 2 c 5 3 c 4 -1 c 4 0 c 5 -3 c 4 -2 c 4 2 c 5 10 c 4 3 c
5 0 c 4 0 c 4 -7 c 5 -3 c 4 -1 c 4 -1 c 5 -2 c 4 0 c 4 0 c 5 -1 c 4 0 c 5 -1 c 4 0 c 4 2 c 5 1 c 4 2 c 4 3 c 5 -1 c 4 -1 c 5 -2 c
4 -2 c 4 -1 c 5 1 c 4 1 c 4 7 c 5 30 c 4 13 c 5 0 c 4 -6 c 4 -29 c 5 -13 c 4 1 c 4 1 c 5 5 c 4 24 c 4 15 c 5 2 c 4 -5 c 5 -20 c
4 7 c 4 269 c 5 757 c 4 269 c 4 -10 c 5 -266 c 4 -765 c 5 -243 c 4 -13 c 4 2 c 5 0 c 4 -2 c 4 -13 c 5 -7 c 4 -4 c 5 0 c 4 1 c 4 1 c
5 -1 c 4 -1 c 4 0 c 5 -2 c 4 -1 c 5 0 c 4 -2 c 4 0 c 5 0 c 4 -1 c 4 1 c 5 0 c 4 1 c 4 1 c 5 1 c 4 1 c 5 3 c 4 4 c 4 13 c 5 89 c
4 157 c 4 80 c 5 31 c 4 359 c 5 893 c 4 299 c 4 -35 c 5 -415 c 4 -1061 c 4 -365 c 5 -40 c 4 -3 c 5 -1 c 4 0 c 4 -3 c 5 0 c 4 -2 c
4 0 c 5 -1 c 4 1 c 5 1 c 4 5 c 4 34 c 5 392 c 4 760 c 4 163 c 5 -33 c 4 -394 c 4 -745 c 5 -170 c 4 -12 c 5 -2 c 4 1 c 4 5 c 5 9 c
4 9 c 4 4 c 5 -2 c 4 -12 c 5 -10 c 4 -5 c 4 -1 c 5 1 c 4 10 c 4 9 c 5 -1 c 4 -3 c 5 -8 c 4 8 c 4 12 c 5 1 c 4 -2 c 4 -16 c 5 -15 c
4 2 c 5 7 c 4 4 c 4 1 c 5 -5 c 4 -5 c 4 -4 c 5 -2 c 4 0 c 4 -1 c 5 0 c 4 -1 c 5 1 c 4 -1 c 4 0 c 5 1 c 4 1 c 4 0 c 5 0 c 4 -1 c
5 -1 c 4 -1 c 4 0 c 5 1 c 4 -1 c 4 1 c 5 0 c 4 0 c 5 2 c 4 0 c 4 1 c 5 0 c 4 0 c 4 3 c 5 2 c 4 0 c 5 0 c 4 -2 c 4 -1 c 5 -3 c 4 -1 c
4 -2 c 5 0 c 4 0 c 4 1 c 5 2 c 4 0 c 5 1 c 4 -1 c 4 0 c 5 1 c 4 1 c 4 0 c 5 -2 c 4 -1 c 5 -1 c 4 -1 c 4 0 c 5 1 c 4 0 c 4 -1 c 5 1 c
4 0 c 5 0 c 4 0 c 4 1 c 5 0 c 4 -1 c 4 1 c 5 0 c 4 0 c 4 1 c 5 -1 c 4 0 c 5 0 c 4 -1 c 4 0 c 5 1 c 4 2 c 4 5 c 5 1 c 4 1 c 5 -1 c
4 -4 c 4 -1 c 5 5 c 4 19 c 4 182 c 5 233 c 4 34 c 5 -13 c 4 -167 c 4 -244 c 5 -45 c 4 -3 c 4 -1 c 5 -1 c 4 -1 c 5 0 c 4 -1 c 4 0 c
5 0 c 4 -1 c 4 1 c 5 3 c 4 30 c 4 61 c 5 15 c 4 0 c 5 -27 c 4 -65 c 4 -15 c 5 -1 c 4 0 c 4 0 c 5 -1 c 4 0 c 5 1 c 4 0 c 4 0 c 5 1 c
4 -1 c 4 0 c 5 0 c 4 2 c 5 6 c 4 79 c 4 140 c 5 32 c 4 1 c 4 -64 c 5 -137 c 4 -9 c 5 7 c 4 -3 c 4 -10 c 5 -33 c 4 -11 c 4 0 c 5 1 c
4 0 c 4 1 c 5 1 c 4 0 c 5 0 c 4 3 c 4 4 c 5 0 c 4 -1 c 4 -4 c 5 -5 c 4 -1 c 5 -1 c 4 0 c 4 0 c 5 1 c 4 1 c 4 5 c 5 1 c 4 0 c 5 1 c
4 -5 c 4 0 c 5 0 c 4 0 c 4 12 c 5 14 c 4 0 c 5 0 c 4 -10 c 4 -14 c 5 0 c 4 6 c 4 12 c 5 63 c 4 190 c 4 90 c 5 6 c 4 -46 c 5 -189 c
4 -111 c 4 -17 c 5 -4 c 4 -2 c 4 3 c 5 22 c 4 39 c 5 7 c 4 3 c 4 -22 c 5 -35 c 4 -13 c 4 -3 c 5 -2 c 4 -2 c 5 -1 c 4 0 c 4 1 c
5 -1 c 4 0 c 4 0 c 5 1 c 4 3 c 4 21 c 5 12 c 4 -1 c 5 -2 c 4 -18 c 4 -15 c 5 -1 c 4 0 c 4 2 c 5 6 c 4 5 c 5 1 c 4 -3 c 4 -4 c 5 -6 c
4 -1 c 4 0 c 5 0 c 4 0 c 5 0 c 4 0 c 4 0 c 5 1 c 4 3 c 4 4 c 5 0 c 4 0 c 5 -2 c 4 -3 c 4 -1 c 5 0 c 4 -1 c 4 -1 c 5 0 c 4 1 c 4 0 c
5 0 c 4 0 c 5 0 c 4 0 c 4 0 c 5 1 c 4 -1 c 4 2 c 5 11 c 4 123 c 5 144 c 4 20 c 4 -4 c 5 -94 c 4 -167 c 4 -29 c 5 -3 c 4 -1 c 5 -1 c
4 -1 c 4 0 c 5 0 c 4 0 c 4 0 c 5 -1 c 4 -1 c 5 0 c 4 0 c 4 0 c 5 0 c 4 0 c 4 0 c 5 0 c 4 0 c 4 0 c 5 -1 c 4 1 c 5 -1 c 4 0 c 4 1 c
5 -1 c 4 0 c 4 2 c 5 1 c 4 2 c 5 1 c 4 1 c 4 -1 c 5 -3 c 4 0 c 4 -1 c 5 -1 c 4 1 c 5 0 c 4 -1 c 4 0 c 5 0 c 4 0 c 4 1 c 5 0 c 4 3 c
5 1 c 4 0 c 4 1 c 5 -3 c 4 -2 c 4 -1 c 5 0 c 4 0 c 4 0 c 5 0 c 4 0 c 5 0 c 4 0 c 4 1 c 5 0 c 4 -1 c 4 1 c 5 0 c 4 -1 c 5 0 c 4 0 c
4 0 c 5 0 c 4 0 c 4 -1 c 5 1 c 4 0 c 5 1 c 4 0 c 4 1 c 5 -2 c 4 0 c 4 -1 c 5 0 c 4 0 c 5 0 c 4 0 c 4 0 c 5 0 c 4 0 c 4 1 c 5 0 c
4 0 c 4 0 c 5 0 c 4 1 c 5 -1 c 4 1 c 4 5 c 5 17 c 4 6 c 4 -1 c 5 -3 c 4 -15 c 5 -6 c 4 4 c 4 2 c 5 0 c 4 3 c 4 11 c 5 103 c 4 247 c
5 82 c 4 5 c 4 -68 c 5 -244 c 4 -126 c 4 -15 c 5 -3 c 4 -2 c 4 1 c 5 1 c 4 0 c 5 1 c 4 4 c 4 7 c 5 3 c 4 -1 c 4 -4 c 5 -11 c 4 -3 c
5 0 c 4 1 c 4 2 c 5 7 c 4 2 c 4 0 c 5 -1 c 4 6 c 5 45 c 4 24 c 4 4 c 5 -1 c 4 -49 c 4 -28 c 5 -7 c 4 -5 c 5 -1 c 4 0 c 4 -1 c 5 0 c
4 1 c 4 0 c 5 0 c 4 0 c 4 1 c 5 -1 c 4 0 c 5 0 c 4 0 c 4 -1 c 5 1 c 4 2 c 4 6 c 5 18 c 4 34 c 5 3 c 4 -4 c 4 -13 c 5 -35 c 4 -10 c
4 0 c 5 -1 c 4 -1 c 5 1 c 4 0 c 4 2 c 5 17 c 4 115 c 4 71 c 5 8 c 4 -12 c 5 -90 c 4 -101 c 4 -9 c 5 0 c 4 0 c 4 0 c 5 0 c 4 0 c
4 0 c 5 0 c 4 -1 c 5 0 c 4 4 c 4 13 c 5 2 c 4 0 c 4 -2 c 5 -12 c 4 -5 c 5 -1 c 4 2 c 4 -1 c 5 1 c 4 2 c 4 10 c 5 4 c 4 1 c 5 0 c
4 -9 c 4 -8 c 5 0 c 4 0 c 4 1 c
5 9 c 4 88 c 5 186 c 4 34 c 4 -330 c 4 87 9549 780 l 4 -67 c 5 -2 c 4 1 c 4 -2 c 5 -3 c 4 0 c 5 1 c 4 0 c 4 0 c 5 -1 c 4 0 c 4 -1 c
5 0 c 4 0 c 5 0 c 4 1 c 4 0 c 5 -1 c 4 -2 c 4 -1 c 5 0 c 4 0 c 5 0 c 4 -1 c 4 0 c 5 5 c 4 5 c 4 1 c 5 0 c 4 -2 c 5 -5 c 4 -1 c 4 0 c
5 0 c 4 -1 c 4 -1 c 5 1 c 4 0 c
0 -126 3042 418 l 54 0 3042 418 l 18 -6 c 6 -6 c 6 -12 c 0 -12 c -6 -12 c -6 -6 c -18 -6 c -54 0 c 42 -66 3084 358 l
-12 -6 3192 376 l -12 -12 c -6 -18 c 0 -12 c 6 -18 c 12 -12 c 12 -6 c 18 0 c 12 6 c 12 12 c 6 18 c 0 12 c -6 18 c -12 12 c -12 6 c
-18 0 c 24 -84 3276 376 l -24 -84 3324 376 l 24 -84 3324 376 l -24 -84 3372 376 l 108 0 3414 364 l 108 0 3414 328 l -60 0 3828 418 l
-6 -54 c 6 6 c 18 6 c 18 0 c 18 -6 c 12 -12 c 6 -18 c 0 -12 c -6 -18 c -12 -12 c -18 -6 c -18 0 c -18 6 c -6 6 c -6 12 c
12 6 4278 394 l 18 18 c 0 -126 c -6 -6 4392 376 l 6 -6 c 6 6 c -6 6 c -6 -6 4392 304 l 6 -6 c 6 6 c -6 6 c -48 -126 4572 418 l
48 -126 4572 418 l 60 0 4542 334 l 0 -84 4650 376 l 6 18 4650 340 l 12 12 c 12 6 c 18 0 c -12 12 4794 358 l -12 6 c -18 0 c -12 -6 c
-12 -12 c -6 -18 c 0 -12 c 6 -18 c 12 -12 c 12 -6 c 18 0 c 12 6 c 12 12 c 108 0 4836 346 l -18 -6 5022 418 l -12 -18 c -6 -30 c
0 -18 c 6 -30 c 12 -18 c 18 -6 c 12 0 c 18 6 c 12 18 c 6 30 c 0 18 c -6 30 c -12 18 c -18 6 c -12 0 c 66 0 5118 418 l -36 -48 c
18 0 c 12 -6 c 6 -6 c 6 -18 c 0 -12 c -6 -18 c -12 -12 c -18 -6 c -18 0 c -18 6 c -6 6 c -6 12 c -59 0 5297 418 l -6 -54 c 6 6 c
18 6 c 17 0 c 18 -6 c 12 -12 c 6 -18 c 0 -12 c -6 -18 c -12 -12 c -18 -6 c -17 0 c -18 6 c -6 6 c -6 12 c -6 -6 5357 304 l 6 -6 c
6 6 c -6 6 c -12 0 5447 418 l -12 -6 c -6 -18 c 0 -102 c 42 0 5399 376 l 6 -6 5477 418 l 6 6 c -6 6 c -6 -6 c 0 -84 5483 376 l
0 -102 5537 418 l 6 -18 c 12 -6 c 12 0 c 42 0 5519 376 l -6 12 5663 358 l -18 6 c -18 0 c -18 -6 c -6 -12 c 6 -12 c 12 -6 c 30 -6 c
12 -6 c 6 -12 c 0 -6 c -6 -12 c -18 -6 c -18 0 c -18 6 c -6 12 c 0 -192 5993 442 l 0 -192 5999 442 l 42 0 5993 442 l 42 0 5993 250 l
0 6 6077 388 l 6 12 c 6 6 c 12 6 c 24 0 c 12 -6 c 6 -6 c 6 -12 c 0 -12 c -6 -12 c -12 -18 c -60 -60 c 84 0 c -6 -6 6203 376 l 6 -6 c
6 6 c -6 6 c -6 -6 6203 304 l 6 -6 c 6 6 c -6 6 c -48 -126 6383 418 l 48 -126 6383 418 l 60 0 6353 334 l 0 -84 6461 376 l
6 18 6461 340 l 12 12 c 12 6 c 18 0 c -12 12 6605 358 l -12 6 c -18 0 c -12 -6 c -12 -12 c -6 -18 c 0 -12 c 6 -18 c 12 -12 c 12 -6 c
18 0 c 12 6 c 12 12 c 108 0 6647 346 l -18 -6 6833 418 l -12 -18 c -6 -30 c 0 -18 c 6 -30 c 12 -18 c 18 -6 c 12 0 c 18 6 c 12 18 c
6 30 c 0 18 c -6 30 c -12 18 c -18 6 c -12 0 c 66 0 6929 418 l -36 -48 c 18 0 c 12 -6 c 6 -6 c 6 -18 c 0 -12 c -6 -18 c -12 -12 c
-18 -6 c -18 0 c -18 6 c -6 6 c -6 12 c -6 12 7115 400 l -18 6 c -12 0 c -18 -6 c -12 -18 c -6 -30 c 0 -30 c 6 -24 c 12 -12 c
18 -6 c 6 0 c 18 6 c 12 12 c 6 18 c 0 6 c -6 18 c -12 12 c -18 6 c -6 0 c -18 -6 c -12 -12 c -6 -18 c -6 -6 7169 304 l 6 -6 c 6 6 c
-6 6 c -12 0 7259 418 l -12 -6 c -6 -18 c 0 -102 c 42 0 7211 376 l 6 -6 7289 418 l 6 6 c -6 6 c -6 -6 c 0 -84 7295 376 l
0 -102 7349 418 l 6 -18 c 12 -6 c 12 0 c 42 0 7331 376 l -6 12 7475 358 l -18 6 c -18 0 c -18 -6 c -6 -12 c 6 -12 c 12 -6 c 30 -6 c
12 -6 c 6 -12 c 0 -6 c -6 -12 c -18 -6 c -18 0 c -18 6 c -6 12 c 0 -192 7547 442 l 0 -192 7553 442 l 42 0 7511 442 l 42 0 7511 250 l
0 -250 1111 1684 l 0 42 1067 1763 l 30 -23 c 0 12 c 4 7 c 4 4 c 11 4 c 8 0 c 11 -4 c 8 -8 c 3 -11 c 0 -11 c -3 -12 c -4 -3 c -8 -4 c
12 -4 1093 1881 l 7 -8 c 4 -11 c 0 -4 c -4 -11 c -7 -8 c -12 -4 c -3 0 c -12 4 c -7 8 c -4 11 c 0 4 c 4 11 c 7 8 c 15 4 c 19 0 c
19 -4 c 12 -8 c 3 -11 c 0 -8 c -3 -11 c -8 -4 c -4 0 1086 1911 l -8 4 c -3 3 c -4 8 c 0 15 c 4 8 c 3 3 c 8 4 c 8 0 c 7 -4 c 12 -7 c
37 -38 c 0 53 c 4 -12 1067 2002 l 7 -4 c 8 0 c 7 4 c 4 8 c 4 15 c 4 11 c 7 8 c 8 4 c 11 0 c 8 -4 c 4 -4 c 3 -11 c 0 -15 c -3 -12 c
-4 -4 c -8 -3 c -11 0 c -8 3 c -7 8 c -4 11 c -4 15 c -4 8 c -7 4 c -8 0 c -7 -4 c -4 -11 c 0 -15 c 4 -4 1139 2066 l 3 4 c -3 4 c
-4 -4 c -7 -4 1078 2145 l -4 -11 c 0 -8 c 4 -11 c 11 -7 c 19 -4 c 19 0 c 15 4 c 8 7 c 3 11 c 0 4 c -3 12 c -8 7 c -11 4 c -4 0 c
-11 -4 c -8 -7 c -4 -12 c 0 -4 c 4 -11 c 8 -7 c 11 -4 c -4 0 1086 2175 l -8 4 c -3 4 c -4 8 c 0 15 c 4 7 c 3 4 c 8 4 c 8 0 c 7 -4 c
12 -8 c 37 -37 c 0 53 c 0 41 1067 2255 l 30 -22 c 0 11 c 4 8 c 4 3 c 11 4 c 8 0 c 11 -4 c 8 -7 c 3 -12 c 0 -11 c -3 -11 c -4 -4 c
-8 -4 c 0 -249 1266 7019 l 0 42 1222 7098 l 31 -23 c 0 12 c 3 7 c 4 4 c 11 4 c 8 0 c 11 -4 c 8 -8 c 4 -11 c 0 -11 c -4 -12 c -4 -3 c
-7 -4 c 11 -4 1249 7216 l 8 -8 c 3 -11 c 0 -4 c -3 -11 c -8 -8 c -11 -3 c -4 0 c -11 3 c -8 8 c -4 11 c 0 4 c 4 11 c 8 8 c 15 4 c
19 0 c 19 -4 c 11 -8 c 4 -11 c 0 -8 c -4 -11 c -8 -4 c -4 0 1241 7246 l -7 4 c -4 3 c -4 8 c 0 15 c 4 8 c 4 3 c 7 4 c 8 0 c 8 -4 c
11 -7 c 38 -38 c 0 53 c 11 -4 1249 7367 l 8 -8 c 3 -11 c 0 -4 c -3 -11 c -8 -8 c -11 -3 c -4 0 c -11 3 c -8 8 c -4 11 c 0 4 c 4 11 c
8 8 c 15 4 c 19 0 c 19 -4 c 11 -8 c 4 -11 c 0 -7 c -4 -12 c -8 -4 c 4 -4 1294 7401 l 4 4 c -4 4 c -4 -4 c -8 -4 1234 7480 l -4 -11 c
0 -7 c 4 -12 c 11 -7 c 19 -4 c 19 0 c 15 4 c 8 7 c 4 12 c 0 3 c -4 12 c -8 7 c -11 4 c -4 0 c -11 -4 c -8 -7 c -3 -12 c 0 -3 c
3 -12 c 8 -7 c 11 -4 c -8 -4 1234 7556 l -4 -11 c 0 -8 c 4 -11 c 11 -8 c 19 -4 c 19 0 c 15 4 c 8 8 c 4 11 c 0 4 c -4 11 c -8 8 c
-11 4 c -4 0 c -11 -4 c -8 -8 c -3 -11 c 0 -4 c 3 -11 c 8 -8 c 11 -4 c 11 -3 1249 7631 l 8 -8 c 3 -11 c 0 -4 c -3 -11 c -8 -8 c
-11 -4 c -4 0 c -11 4 c -8 8 c -4 11 c 0 4 c 4 11 c 8 8 c 15 3 c 19 0 c 19 -3 c 11 -8 c 4 -11 c 0 -8 c -4 -11 c -8 -4 c
0 -249 1501 1283 l 0 42 1457 1362 l 30 -23 c 0 12 c 4 7 c 4 4 c 11 4 c 8 0 c 11 -4 c 8 -7 c 3 -12 c 0 -11 c -3 -12 c -4 -3 c -8 -4 c
12 -4 1483 1480 l 7 -8 c 4 -11 c 0 -4 c -4 -11 c -7 -8 c -12 -3 c -3 0 c -12 3 c -7 8 c -4 11 c 0 4 c 4 11 c 7 8 c 15 4 c 19 0 c
19 -4 c 12 -8 c 3 -11 c 0 -8 c -3 -11 c -8 -4 c 0 41 1457 1514 l 30 -22 c 0 11 c 4 7 c 4 4 c 11 4 c 8 0 c 11 -4 c 8 -7 c 3 -12 c
0 -11 c -3 -11 c -4 -4 c -8 -4 c -4 8 1472 1593 l -11 11 c 79 0 c 4 -4 1529 1665 l 3 4 c -3 4 c -4 -4 c -4 0 1476 1699 l -7 4 c
-4 3 c -4 8 c 0 15 c 4 8 c 4 3 c 7 4 c 8 0 c 7 -4 c 12 -7 c 37 -38 c 0 53 c 0 -38 1457 1816 l 34 -4 c -4 4 c -4 12 c 0 11 c 4 11 c
8 8 c 11 4 c 8 0 c 11 -4 c 8 -8 c 3 -11 c 0 -11 c -3 -12 c -4 -4 c -8 -3 c 79 -38 1457 1899 l 0 53 1457 1846 l 0 -250 1750 1487 l
0 42 1706 1566 l 31 -23 c 0 12 c 3 7 c 4 4 c 11 4 c 8 0 c 11 -4 c 8 -8 c 4 -11 c 0 -11 c -4 -12 c -4 -3 c -7 -4 c 11 -3 1733 1683 l
8 -8 c 3 -11 c 0 -4 c -3 -11 c -8 -8 c -11 -4 c -4 0 c -11 4 c -8 8 c -4 11 c 0 4 c 4 11 c 8 8 c 15 3 c 19 0 c 19 -3 c 11 -8 c
4 -11 c 0 -8 c -4 -11 c -8 -4 c 0 42 1706 1717 l 31 -23 c 0 12 c 3 7 c 4 4 c 11 4 c 8 0 c 11 -4 c 8 -8 c 4 -11 c 0 -11 c -4 -12 c
-4 -3 c -7 -4 c -4 0 1725 1789 l -7 4 c -4 4 c -4 7 c 0 16 c 4 7 c 4 4 c 7 4 c 8 0 c 8 -4 c 11 -8 c 38 -37 c 0 52 c 4 -4 1778 1869 l
4 4 c -4 3 c -4 -3 c 11 -4 1733 1948 l 8 -7 c 3 -12 c 0 -3 c -3 -12 c -8 -7 c -11 -4 c -4 0 c -11 4 c -8 7 c -4 12 c 0 3 c 4 12 c
8 7 c 15 4 c 19 0 c 19 -4 c 11 -7 c 4 -12 c 0 -7 c -4 -12 c -8 -3 c -3 7 1721 1986 l -12 12 c 80 0 c -3 8 1721 2061 l -12 11 c
80 0 c 0 -250 1862 2719 l 0 42 1819 2798 l 30 -23 c 0 11 c 4 8 c 3 4 c 12 4 c 7 0 c 12 -4 c 7 -8 c 4 -11 c 0 -11 c -4 -12 c -4 -4 c
-7 -3 c 11 -3 1845 2915 l 8 -8 c 4 -11 c 0 -4 c -4 -11 c -8 -8 c -11 -4 c -4 0 c -11 4 c -8 8 c -3 11 c 0 4 c 3 11 c 8 8 c 15 3 c
19 0 c 19 -3 c 11 -8 c 4 -11 c 0 -8 c -4 -11 c -7 -4 c 0 42 1819 2949 l 30 -23 c 0 12 c 4 7 c 3 4 c 12 4 c 7 0 c 12 -4 c 7 -8 c
4 -11 c 0 -11 c -4 -12 c -4 -3 c -7 -4 c 0 42 1819 3025 l 30 -23 c 0 11 c 4 8 c 3 4 c 12 3 c 7 0 c 12 -3 c 7 -8 c 4 -11 c 0 -12 c
-4 -11 c -4 -4 c -7 -4 c 4 -4 1890 3101 l 4 4 c -4 3 c -4 -3 c -8 -4 1830 3180 l -3 -11 c 0 -8 c 3 -11 c 12 -8 c 19 -3 c 18 0 c
16 3 c 7 8 c 4 11 c 0 4 c -4 11 c -7 8 c -12 4 c -4 0 c -11 -4 c -7 -8 c -4 -11 c 0 -4 c 4 -11 c 7 -8 c 11 -3 c -8 -4 1830 3256 l
-3 -12 c 0 -7 c 3 -11 c 12 -8 c 19 -4 c 18 0 c 16 4 c 7 8 c 4 11 c 0 4 c -4 11 c -7 8 c -12 3 c -4 0 c -11 -3 c -7 -8 c -4 -11 c
0 -4 c 4 -11 c 7 -8 c 11 -4 c -4 8 1834 3293 l -11 11 c 79 0 c 0 -249 1951 1243 l 0 41 1908 1323 l 30 -22 c 0 11 c 4 7 c 4 4 c
11 4 c 8 0 c 11 -4 c 7 -7 c 4 -12 c 0 -11 c -4 -11 c -3 -4 c -8 -4 c 12 -4 1934 1440 l 7 -7 c 4 -12 c 0 -4 c -4 -11 c -7 -7 c
-12 -4 c -3 0 c -12 4 c -7 7 c -4 11 c 0 4 c 4 12 c 7 7 c 15 4 c 19 0 c 19 -4 c 11 -7 c 4 -12 c 0 -7 c -4 -12 c -7 -3 c
0 41 1908 1474 l 30 -22 c 0 11 c 4 8 c 4 3 c 11 4 c 8 0 c 11 -4 c 7 -7 c 4 -11 c 0 -12 c -4 -11 c -3 -4 c -8 -4 c 53 -38 1908 1580 l
0 57 c 79 0 1908 1580 l 3 -4 1980 1625 l 4 4 c -4 4 c -3 -4 c -4 0 1927 1659 l -8 4 c -3 4 c -4 7 c 0 15 c 4 8 c 3 4 c 8 3 c 8 0 c
7 -3 c 11 -8 c 38 -38 c 0 53 c 79 -38 1908 1784 l 0 53 1908 1731 l 53 -38 1908 1844 l 0 57 c 79 0 1908 1844 l 0 -249 2267 1274 l
0 41 2223 1354 l 30 -22 c 0 11 c 4 7 c 4 4 c 11 4 c 8 0 c 11 -4 c 8 -7 c 3 -12 c 0 -11 c -3 -11 c -4 -4 c -8 -4 c 12 -4 2249 1471 l
7 -8 c 4 -11 c 0 -4 c -4 -11 c -7 -8 c -12 -3 c -3 0 c -12 3 c -7 8 c -4 11 c 0 4 c 4 11 c 7 8 c 15 4 c 19 0 c 19 -4 c 12 -8 c
3 -11 c 0 -7 c -3 -12 c -8 -4 c 0 41 2223 1505 l 30 -22 c 0 11 c 4 8 c 4 3 c 11 4 c 8 0 c 11 -4 c 8 -7 c 3 -12 c 0 -11 c -3 -11 c
-4 -4 c -8 -4 c -7 -4 2234 1622 l -4 -11 c 0 -8 c 4 -11 c 11 -8 c 19 -3 c 19 0 c 15 3 c 8 8 c 3 11 c 0 4 c -3 11 c -8 8 c -11 4 c
-4 0 c -11 -4 c -8 -8 c -4 -11 c 0 -4 c 4 -11 c 8 -8 c 11 -3 c 4 -4 2295 1656 l 3 4 c -3 4 c -4 -4 c 0 41 2223 1694 l 30 -22 c
0 11 c 4 8 c 4 3 c 11 4 c 8 0 c 11 -4 c 8 -7 c 3 -12 c 0 -11 c -3 -11 c -4 -4 c -8 -4 c 0 -38 2223 1807 l 34 -3 c -4 3 c -4 12 c
0 11 c 4 11 c 8 8 c 11 4 c 8 0 c 11 -4 c 8 -8 c 3 -11 c 0 -11 c -3 -12 c -4 -3 c -8 -4 c 0 42 2223 1845 l 30 -23 c 0 11 c 4 8 c
4 4 c 11 3 c 8 0 c 11 -3 c 8 -8 c 3 -11 c 0 -12 c -3 -11 c -4 -4 c -8 -4 c 0 -250 2370 1371 l 0 42 2327 1450 l 30 -23 c 0 12 c 4 7 c
4 4 c 11 4 c 7 0 c 12 -4 c 7 -8 c 4 -11 c 0 -11 c -4 -12 c -3 -3 c -8 -4 c 12 -4 2353 1568 l 7 -8 c 4 -11 c 0 -4 c -4 -11 c -7 -8 c
-12 -4 c -4 0 c -11 4 c -7 8 c -4 11 c 0 4 c 4 11 c 7 8 c 15 4 c 19 0 c 19 -4 c 11 -8 c 4 -11 c 0 -8 c -4 -11 c -7 -4 c
0 41 2327 1602 l 30 -23 c 0 12 c 4 7 c 4 4 c 11 4 c 7 0 c 12 -4 c 7 -7 c 4 -12 c 0 -11 c -4 -11 c -3 -4 c -8 -4 c 79 -38 2327 1723 l
0 53 2327 1670 l 3 -4 2399 1753 l 4 4 c -4 4 c -3 -4 c 4 -12 2327 1806 l 11 -7 c 19 -4 c 11 0 c 19 4 c 11 7 c 4 12 c 0 7 c -4 12 c
-11 7 c -19 4 c -11 0 c -19 -4 c -11 -7 c -4 -12 c 0 -7 c 53 -37 2327 1896 l 0 56 c 79 0 2327 1896 l -4 7 2342 1946 l -11 11 c
79 0 c 0 -249 3133 1266 l 0 41 3089 1346 l 30 -22 c 0 11 c 4 7 c 4 4 c 11 4 c 8 0 c 11 -4 c 8 -7 c 3 -12 c 0 -11 c -3 -11 c -4 -4 c
-8 -4 c 11 -4 3116 1463 l 7 -7 c 4 -12 c 0 -4 c -4 -11 c -7 -7 c -11 -4 c -4 0 c -12 4 c -7 7 c -4 11 c 0 4 c 4 12 c 7 7 c 16 4 c
18 0 c 19 -4 c 12 -7 c 3 -12 c 0 -7 c -3 -12 c -8 -3 c 53 -38 3089 1527 l 0 57 c 79 0 3089 1527 l -4 0 3108 1569 l -7 3 c -4 4 c
-4 8 c 0 15 c 4 7 c 4 4 c 7 4 c 8 0 c 7 -4 c 12 -7 c 37 -38 c 0 53 c 4 -4 3161 1648 l 3 4 c -3 4 c -4 -4 c 4 -11 3089 1701 l 11 -8 c
19 -4 c 11 0 c 19 4 c 12 8 c 3 11 c 0 8 c -3 11 c -12 7 c -19 4 c -11 0 c -19 -4 c -11 -7 c -4 -11 c 0 -8 c 79 -38 3089 1807 l
0 53 3089 1754 l 0 42 3089 1837 l 30 -23 c 0 11 c 4 8 c 4 4 c 11 3 c 8 0 c 11 -3 c 8 -8 c 3 -11 c 0 -12 c -3 -11 c -4 -4 c -8 -4 c
0 -250 3470 1444 l 0 42 3427 1523 l 30 -23 c 0 11 c 4 8 c 3 4 c 12 3 c 7 0 c 12 -3 c 7 -8 c 4 -11 c 0 -12 c -4 -11 c -4 -4 c -7 -4 c
11 -4 3453 1640 l 8 -7 c 4 -11 c 0 -4 c -4 -12 c -8 -7 c -11 -4 c -4 0 c -11 4 c -8 7 c -3 12 c 0 4 c 3 11 c 8 7 c 15 4 c 19 0 c
19 -4 c 11 -7 c 4 -11 c 0 -8 c -4 -11 c -7 -4 c 52 -37 3427 1704 l 0 56 c 79 0 3427 1704 l 52 -38 3427 1780 l 0 57 c
79 0 3427 1780 l 4 -3 3498 1825 l 4 3 c -4 4 c -4 -4 c -3 0 3445 1859 l -8 4 c -4 4 c -3 8 c 0 15 c 3 7 c 4 4 c 8 4 c 7 0 c 8 -4 c
11 -8 c 38 -37 c 0 53 c 0 -38 3427 1977 l 34 -4 c -4 4 c -4 11 c 0 11 c 4 12 c 7 7 c 12 4 c 7 0 c 12 -4 c 7 -7 c 4 -12 c 0 -11 c
-4 -11 c -4 -4 c -7 -4 c 0 42 3427 2014 l 30 -23 c 0 12 c 4 7 c 3 4 c 12 4 c 7 0 c 12 -4 c 7 -8 c 4 -11 c 0 -11 c -4 -12 c -4 -3 c
-7 -4 c 0 -249 3752 2924 l 0 42 3708 3003 l 31 -23 c 0 12 c 3 7 c 4 4 c 12 4 c 7 0 c 11 -4 c 8 -8 c 4 -11 c 0 -11 c -4 -12 c -4 -3 c
-7 -4 c 11 -4 3735 3121 l 8 -8 c 4 -11 c 0 -4 c -4 -11 c -8 -8 c -11 -3 c -4 0 c -11 3 c -8 8 c -4 11 c 0 4 c 4 11 c 8 8 c 15 4 c
19 0 c 19 -4 c 11 -8 c 4 -11 c 0 -8 c -4 -11 c -8 -4 c 53 -38 3708 3185 l 0 57 c 80 0 3708 3185 l -8 -4 3720 3272 l -4 -11 c 0 -8 c
4 -11 c 12 -8 c 18 -4 c 19 0 c 15 4 c 8 8 c 4 11 c 0 4 c -4 11 c -8 8 c -11 4 c -4 0 c -11 -4 c -8 -8 c -3 -11 c 0 -4 c 3 -11 c
8 -8 c 11 -4 c 4 -4 3780 3306 l 4 4 c -4 4 c -4 -4 c -4 8 3724 3347 l -12 11 c 80 0 c 53 -37 3708 3449 l 0 56 c 80 0 3708 3449 l
-8 -3 3720 3536 l -4 -12 c 0 -7 c 4 -12 c 12 -7 c 18 -4 c 19 0 c 15 4 c 8 7 c 4 12 c 0 3 c -4 12 c -8 7 c -11 4 c -4 0 c -11 -4 c
-8 -7 c -3 -12 c 0 -3 c 3 -12 c 8 -7 c 11 -4 c 0 -249 3940 1368 l 0 41 3897 1448 l 30 -22 c 0 11 c 4 8 c 3 3 c 12 4 c 7 0 c 12 -4 c
7 -7 c 4 -12 c 0 -11 c -4 -11 c -4 -4 c -7 -4 c 11 -4 3923 1565 l 8 -7 c 4 -12 c 0 -4 c -4 -11 c -8 -7 c -11 -4 c -4 0 c -11 4 c
-8 7 c -3 11 c 0 4 c 3 12 c 8 7 c 15 4 c 19 0 c 19 -4 c 11 -7 c 4 -12 c 0 -7 c -4 -12 c -7 -3 c 53 -38 3897 1629 l 0 57 c
79 0 3897 1629 l 79 -38 3897 1720 l 0 53 3897 1667 l 4 -4 3968 1750 l 4 4 c -4 4 c -4 -4 c 0 41 3897 1788 l 30 -22 c 0 11 c 4 8 c
3 3 c 12 4 c 7 0 c 12 -4 c 7 -7 c 4 -11 c 0 -12 c -4 -11 c -4 -4 c -7 -4 c 0 42 3897 1863 l 30 -23 c 0 12 c 4 7 c 3 4 c 12 4 c 7 0 c
12 -4 c 7 -8 c 4 -11 c 0 -11 c -4 -12 c -4 -3 c -7 -4 c -4 7 3912 1943 l -11 12 c 79 0 c 0 -249 4048 2158 l 0 41 4005 2238 l
30 -22 c 0 11 c 4 8 c 4 3 c 11 4 c 7 0 c 12 -4 c 7 -7 c 4 -12 c 0 -11 c -4 -11 c -3 -4 c -8 -4 c 12 -4 4031 2355 l 7 -7 c 4 -12 c
0 -4 c -4 -11 c -7 -7 c -12 -4 c -4 0 c -11 4 c -7 7 c -4 11 c 0 4 c 4 12 c 7 7 c 15 4 c 19 0 c 19 -4 c 11 -7 c 4 -12 c 0 -7 c
-4 -12 c -7 -3 c 53 -38 4005 2419 l 0 57 c 79 0 4005 2419 l 4 -11 4005 2476 l 7 -4 c 8 0 c 7 4 c 4 7 c 4 15 c 4 12 c 7 7 c 8 4 c
11 0 c 8 -4 c 3 -4 c 4 -11 c 0 -15 c -4 -11 c -3 -4 c -8 -4 c -11 0 c -8 4 c -7 7 c -4 12 c -4 15 c -4 7 c -7 4 c -8 0 c -7 -4 c
-4 -11 c 0 -15 c 3 -4 4077 2540 l 4 4 c -4 4 c -3 -4 c 4 -11 4005 2593 l 11 -8 c 19 -4 c 11 0 c 19 4 c 11 8 c 4 11 c 0 8 c -4 11 c
-11 7 c -19 4 c -11 0 c -19 -4 c -11 -7 c -4 -11 c 0 -8 c 0 42 4005 2653 l 30 -23 c 0 12 c 4 7 c 4 4 c 11 4 c 7 0 c 12 -4 c 7 -8 c
4 -11 c 0 -11 c -4 -12 c -3 -3 c -8 -4 c 4 -11 4005 2744 l 11 -8 c 19 -3 c 11 0 c 19 3 c 11 8 c 4 11 c 0 8 c -4 11 c -11 8 c -19 3 c
-11 0 c -19 -3 c -11 -8 c -4 -11 c 0 -8 c 0 -250 4194 3336 l 0 41 4151 3415 l 30 -22 c 0 11 c 4 8 c 4 3 c 11 4 c 7 0 c 12 -4 c
7 -7 c 4 -11 c 0 -12 c -4 -11 c -3 -4 c -8 -4 c 12 -4 4177 3532 l 7 -7 c 4 -12 c 0 -3 c -4 -12 c -7 -7 c -12 -4 c -4 0 c -11 4 c
-7 7 c -4 12 c 0 3 c 4 12 c 7 7 c 15 4 c 19 0 c 19 -4 c 11 -7 c 4 -12 c 0 -7 c -4 -12 c -7 -3 c 53 -37 4151 3596 l 0 56 c
79 0 4151 3596 l 4 -11 4151 3653 l 7 -4 c 8 0 c 7 4 c 4 7 c 4 15 c 4 12 c 7 7 c 8 4 c 11 0 c 8 -4 c 3 -4 c 4 -11 c 0 -15 c -4 -11 c
-3 -4 c -8 -4 c -11 0 c -8 4 c -7 7 c -4 12 c -4 15 c -4 7 c -7 4 c -8 0 c -7 -4 c -4 -11 c 0 -15 c 3 -4 4223 3717 l 4 4 c -4 4 c
-3 -4 c 12 -4 4177 3797 l 7 -8 c 4 -11 c 0 -4 c -4 -11 c -7 -8 c -12 -3 c -4 0 c -11 3 c -7 8 c -4 11 c 0 4 c 4 11 c 7 8 c 15 4 c
19 0 c 19 -4 c 11 -8 c 4 -11 c 0 -8 c -4 -11 c -7 -4 c 79 -38 4151 3876 l 0 53 4151 3823 l 12 -4 4177 3948 l 7 -8 c 4 -11 c 0 -4 c
-4 -11 c -7 -8 c -12 -3 c -4 0 c -11 3 c -7 8 c -4 11 c 0 4 c 4 11 c 7 8 c 15 4 c 19 0 c 19 -4 c 11 -8 c 4 -11 c 0 -7 c -4 -12 c
-7 -4 c 0 -250 4414 3197 l 0 42 4371 3276 l 30 -23 c 0 11 c 4 8 c 3 4 c 12 4 c 7 0 c 12 -4 c 7 -8 c 4 -11 c 0 -12 c -4 -11 c -4 -4 c
-7 -3 c 11 -3 4397 3393 l 8 -8 c 4 -11 c 0 -4 c -4 -11 c -8 -8 c -11 -4 c -4 0 c -11 4 c -8 8 c -3 11 c 0 4 c 3 11 c 8 8 c 15 3 c
19 0 c 19 -3 c 11 -8 c 4 -11 c 0 -8 c -4 -11 c -7 -4 c 0 -38 4371 3465 l 34 -3 c -4 3 c -4 12 c 0 11 c 4 11 c 7 8 c 12 4 c 7 0 c
12 -4 c 7 -8 c 4 -11 c 0 -11 c -4 -12 c -4 -3 c -7 -4 c 3 -11 4371 3518 l 12 -8 c 19 -4 c 11 0 c 19 4 c 11 8 c 4 11 c 0 8 c -4 11 c
-11 8 c -19 3 c -11 0 c -19 -3 c -12 -8 c -3 -11 c 0 -8 c 4 -4 4442 3579 l 4 4 c -4 3 c -4 -3 c 0 42 4371 3616 l 30 -23 c 0 12 c
4 7 c 3 4 c 12 4 c 7 0 c 12 -4 c 7 -8 c 4 -11 c 0 -11 c -4 -12 c -4 -3 c -7 -4 c 11 -3 4397 3733 l 8 -8 c 4 -11 c 0 -4 c -4 -11 c
-8 -8 c -11 -4 c -4 0 c -11 4 c -8 8 c -3 11 c 0 4 c 3 11 c 8 8 c 15 3 c 19 0 c 19 -3 c 11 -8 c 4 -11 c 0 -8 c -4 -11 c -7 -4 c
0 -38 4371 3805 l 34 -3 c -4 3 c -4 12 c 0 11 c 4 12 c 7 7 c 12 4 c 7 0 c 12 -4 c 7 -7 c 4 -12 c 0 -11 c -4 -12 c -4 -3 c -7 -4 c
0 -249 4588 1540 l 0 41 4545 1620 l 30 -23 c 0 12 c 4 7 c 4 4 c 11 4 c 7 0 c 12 -4 c 7 -7 c 4 -12 c 0 -11 c -4 -11 c -3 -4 c -8 -4 c
12 -4 4571 1737 l 7 -8 c 4 -11 c 0 -4 c -4 -11 c -7 -8 c -12 -3 c -4 0 c -11 3 c -8 8 c -3 11 c 0 4 c 3 11 c 8 8 c 15 4 c 19 0 c
19 -4 c 11 -8 c 4 -11 c 0 -7 c -4 -12 c -7 -4 c 0 -38 4545 1809 l 34 -4 c -4 4 c -4 11 c 0 11 c 4 12 c 8 7 c 11 4 c 7 0 c 12 -4 c
7 -7 c 4 -12 c 0 -11 c -4 -11 c -3 -4 c -8 -4 c -4 8 4560 1850 l -11 11 c 79 0 c 3 -4 4617 1922 l 4 4 c -4 4 c -3 -4 c
0 -38 4545 1998 l 34 -4 c -4 4 c -4 11 c 0 11 c 4 12 c 8 7 c 11 4 c 7 0 c 12 -4 c 7 -7 c 4 -12 c 0 -11 c -4 -11 c -3 -4 c -8 -4 c
-4 8 4560 2039 l -11 11 c 79 0 c 0 -38 4545 2149 l 34 -4 c -4 4 c -4 11 c 0 12 c 4 11 c 8 7 c 11 4 c 7 0 c 12 -4 c 7 -7 c 4 -11 c
0 -12 c -4 -11 c -3 -4 c -8 -4 c 0 -250 4781 1521 l 0 42 4737 1600 l 31 -23 c 0 12 c 3 7 c 4 4 c 11 4 c 8 0 c 11 -4 c 8 -8 c 4 -11 c
0 -11 c -4 -12 c -4 -3 c -7 -4 c 11 -3 4764 1717 l 8 -8 c 3 -11 c 0 -4 c -3 -11 c -8 -8 c -11 -4 c -4 0 c -11 4 c -8 8 c -4 11 c
0 4 c 4 11 c 8 8 c 15 3 c 19 0 c 19 -3 c 11 -8 c 4 -11 c 0 -8 c -4 -11 c -8 -4 c 0 -38 4737 1789 l 34 -3 c -3 3 c -4 12 c 0 11 c
4 11 c 7 8 c 11 4 c 8 0 c 11 -4 c 8 -8 c 4 -11 c 0 -11 c -4 -12 c -4 -3 c -7 -4 c -4 0 4756 1823 l -7 4 c -4 4 c -4 7 c 0 16 c 4 7 c
4 4 c 7 4 c 8 0 c 8 -4 c 11 -8 c 38 -37 c 0 52 c 4 -4 4809 1903 l 4 4 c -4 3 c -4 -3 c 80 -38 4737 1986 l 0 53 4737 1933 l
-8 -4 4749 2058 l -4 -11 c 0 -8 c 4 -11 c 11 -8 c 19 -4 c 19 0 c 15 4 c 8 8 c 4 11 c 0 4 c -4 11 c -8 8 c -11 3 c -4 0 c -11 -3 c
-8 -8 c -3 -11 c 0 -4 c 3 -11 c 8 -8 c 11 -4 c -3 8 4752 2095 l -12 11 c 80 0 c 0 -250 5160 1306 l 0 42 5116 1385 l 30 -23 c 0 11 c
4 8 c 4 4 c 11 3 c 8 0 c 11 -3 c 8 -8 c 3 -11 c 0 -12 c -3 -11 c -4 -4 c -8 -4 c 12 -4 5142 1502 l 7 -7 c 4 -11 c 0 -4 c -4 -12 c
-7 -7 c -12 -4 c -3 0 c -12 4 c -7 7 c -4 12 c 0 4 c 4 11 c 7 7 c 15 4 c 19 0 c 19 -4 c 12 -7 c 3 -11 c 0 -8 c -3 -11 c -8 -4 c
0 -38 5116 1574 l 34 -4 c -4 4 c -4 12 c 0 11 c 4 11 c 8 8 c 11 4 c 8 0 c 11 -4 c 8 -8 c 3 -11 c 0 -11 c -3 -12 c -4 -4 c -8 -3 c
0 -38 5116 1650 l 34 -4 c -4 4 c -4 11 c 0 11 c 4 12 c 8 7 c 11 4 c 8 0 c 11 -4 c 8 -7 c 3 -12 c 0 -11 c -3 -11 c -4 -4 c -8 -4 c
4 -3 5188 1687 l 3 3 c -3 4 c -4 -4 c -4 8 5131 1729 l -11 11 c 79 0 c 79 -38 5116 1846 l 0 53 5116 1793 l 4 -11 5116 1891 l 11 -7 c
19 -4 c 11 0 c 19 4 c 12 7 c 3 11 c 0 8 c -3 11 c -12 8 c -19 4 c -11 0 c -19 -4 c -11 -8 c -4 -11 c 0 -8 c 0 -249 5274 1366 l
0 41 5230 1446 l 30 -22 c 0 11 c 4 8 c 4 3 c 11 4 c 8 0 c 11 -4 c 8 -7 c 3 -12 c 0 -11 c -3 -11 c -4 -4 c -8 -4 c 12 -4 5256 1563 l
7 -7 c 4 -12 c 0 -4 c -4 -11 c -7 -7 c -12 -4 c -3 0 c -12 4 c -7 7 c -4 11 c 0 4 c 4 12 c 7 7 c 15 4 c 19 0 c 19 -4 c 12 -7 c
3 -12 c 0 -7 c -3 -12 c -8 -3 c 0 -38 5230 1635 l 34 -4 c -4 4 c -4 11 c 0 12 c 4 11 c 8 8 c 11 3 c 8 0 c 11 -3 c 8 -8 c 3 -11 c
0 -12 c -3 -11 c -4 -4 c -8 -4 c 0 -37 5230 1710 l 34 -4 c -4 4 c -4 11 c 0 11 c 4 12 c 8 7 c 11 4 c 8 0 c 11 -4 c 8 -7 c 3 -12 c
0 -11 c -3 -11 c -4 -4 c -8 -4 c 4 -4 5302 1748 l 3 4 c -3 4 c -4 -4 c 4 -11 5230 1797 l 7 -4 c 8 0 c 7 4 c 4 7 c 4 16 c 4 11 c
7 8 c 8 3 c 11 0 c 8 -3 c 4 -4 c 3 -12 c 0 -15 c -3 -11 c -4 -4 c -8 -4 c -11 0 c -8 4 c -7 8 c -4 11 c -4 15 c -4 8 c -7 4 c -8 0 c
-7 -4 c -4 -12 c 0 -15 c 12 -4 5256 1903 l 7 -7 c 4 -12 c 0 -3 c -4 -12 c -7 -7 c -12 -4 c -3 0 c -12 4 c -7 7 c -4 12 c 0 3 c
4 12 c 7 7 c 15 4 c 19 0 c 19 -4 c 12 -7 c 3 -12 c 0 -7 c -3 -11 c -8 -4 c 4 -11 5230 1952 l 11 -8 c 19 -3 c 11 0 c 19 3 c 12 8 c
3 11 c 0 8 c -3 11 c -12 8 c -19 3 c -11 0 c -19 -3 c -11 -8 c -4 -11 c 0 -8 c 0 -249 5398 3639 l 0 41 5354 3719 l 30 -22 c 0 11 c
4 8 c 4 3 c 11 4 c 8 0 c 11 -4 c 8 -7 c 3 -11 c 0 -12 c -3 -11 c -4 -4 c -8 -4 c 11 -4 5381 3836 l 7 -7 c 4 -12 c 0 -3 c -4 -12 c
-7 -7 c -11 -4 c -4 0 c -12 4 c -7 7 c -4 12 c 0 3 c 4 12 c 7 7 c 16 4 c 18 0 c 19 -4 c 12 -7 c 3 -12 c 0 -7 c -3 -12 c -8 -3 c
0 -38 5354 3908 l 34 -4 c -4 4 c -3 11 c 0 12 c 3 11 c 8 8 c 11 3 c 8 0 c 11 -3 c 8 -8 c 3 -11 c 0 -12 c -3 -11 c -4 -4 c -8 -4 c
-7 -4 5365 3987 l -4 -11 c 0 -7 c 4 -12 c 11 -7 c 19 -4 c 19 0 c 15 4 c 8 7 c 3 12 c 0 3 c -3 12 c -8 7 c -11 4 c -4 0 c -11 -4 c
-8 -7 c -4 -12 c 0 -3 c 4 -12 c 8 -7 c 11 -4 c 4 -4 5426 4021 l 3 4 c -3 4 c -4 -4 c -7 -4 5365 4101 l -4 -12 c 0 -7 c 4 -11 c
11 -8 c 19 -4 c 19 0 c 15 4 c 8 8 c 3 11 c 0 4 c -3 11 c -8 8 c -11 3 c -4 0 c -11 -3 c -8 -8 c -4 -11 c 0 -4 c 4 -11 c 8 -8 c
11 -4 c 11 -4 5381 4176 l 7 -7 c 4 -12 c 0 -3 c -4 -12 c -7 -7 c -11 -4 c -4 0 c -12 4 c -7 7 c -4 12 c 0 3 c 4 12 c 7 7 c 16 4 c
18 0 c 19 -4 c 12 -7 c 3 -12 c 0 -7 c -3 -11 c -8 -4 c -4 8 5369 4214 l -11 11 c 79 0 c 0 -250 5810 1482 l 0 42 5767 1561 l 30 -23 c
0 12 c 4 7 c 3 4 c 12 4 c 7 0 c 12 -4 c 7 -8 c 4 -11 c 0 -11 c -4 -12 c -3 -3 c -8 -4 c 11 -3 5793 1678 l 8 -8 c 4 -11 c 0 -4 c
-4 -11 c -8 -8 c -11 -4 c -4 0 c -11 4 c -8 8 c -3 11 c 0 4 c 3 11 c 8 8 c 15 3 c 19 0 c 19 -3 c 11 -8 c 4 -11 c 0 -8 c -4 -11 c
-7 -4 c 0 -38 5767 1750 l 34 -3 c -4 3 c -4 12 c 0 11 c 4 12 c 7 7 c 12 4 c 7 0 c 12 -4 c 7 -7 c 4 -12 c 0 -11 c -4 -12 c -3 -3 c
-8 -4 c 11 -4 5793 1830 l 8 -8 c 4 -11 c 0 -4 c -4 -11 c -8 -8 c -11 -3 c -4 0 c -11 3 c -8 8 c -3 11 c 0 4 c 3 11 c 8 8 c 15 4 c
19 0 c 19 -4 c 11 -8 c 4 -11 c 0 -8 c -4 -11 c -7 -4 c 3 -4 5839 1864 l 4 4 c -4 3 c -3 -3 c 0 42 5767 1901 l 30 -23 c 0 12 c 4 7 c
3 4 c 12 4 c 7 0 c 12 -4 c 7 -8 c 4 -11 c 0 -11 c -4 -12 c -3 -3 c -8 -4 c 3 -11 5767 1992 l 12 -8 c 19 -3 c 11 0 c 19 3 c 11 8 c
4 11 c 0 8 c -4 11 c -11 8 c -19 3 c -11 0 c -19 -3 c -12 -8 c -3 -11 c 0 -8 c 3 -12 5767 2068 l 12 -7 c 19 -4 c 11 0 c 19 4 c
11 7 c 4 12 c 0 7 c -4 12 c -11 7 c -19 4 c -11 0 c -19 -4 c -12 -7 c -3 -12 c 0 -7 c 0 -250 6306 1340 l 0 42 6262 1419 l 30 -23 c
0 12 c 4 7 c 4 4 c 11 4 c 8 0 c 11 -4 c 8 -8 c 4 -11 c 0 -11 c -4 -12 c -4 -4 c -8 -3 c 11 -3 6289 1536 l 8 -8 c 3 -11 c 0 -4 c
-3 -11 c -8 -8 c -11 -4 c -4 0 c -11 4 c -8 8 c -4 11 c 0 4 c 4 11 c 8 8 c 15 3 c 19 0 c 18 -3 c 12 -8 c 4 -11 c 0 -8 c -4 -11 c
-8 -4 c -8 -4 6274 1612 l -4 -11 c 0 -8 c 4 -11 c 11 -8 c 19 -3 c 19 0 c 15 3 c 8 8 c 4 11 c 0 4 c -4 11 c -8 8 c -11 4 c -4 0 c
-11 -4 c -8 -8 c -4 -11 c 0 -4 c 4 -11 c 8 -8 c 11 -3 c -4 0 6281 1642 l -7 4 c -4 4 c -4 7 c 0 15 c 4 8 c 4 4 c 7 4 c 8 0 c 7 -4 c
12 -8 c 38 -38 c 0 53 c 4 -4 6334 1722 l 4 4 c -4 3 c -4 -3 c 53 -38 6262 1790 l 0 57 c 80 0 6262 1790 l -4 0 6281 1831 l -7 4 c
-4 4 c -4 7 c 0 15 c 4 8 c 4 4 c 7 4 c 8 0 c 7 -4 c 12 -8 c 38 -38 c 0 53 c 4 -12 6262 1926 l 11 -7 c 19 -4 c 12 0 c 18 4 c 12 7 c
4 12 c 0 7 c -4 12 c -12 7 c -18 4 c -12 0 c -19 -4 c -11 -7 c -4 -12 c 0 -7 c 0 -250 6565 1263 l 0 42 6521 1342 l 31 -23 c 0 12 c
3 7 c 4 4 c 11 4 c 8 0 c 11 -4 c 8 -8 c 4 -11 c 0 -11 c -4 -12 c -4 -3 c -7 -4 c 11 -4 6548 1460 l 8 -8 c 3 -11 c 0 -4 c -3 -11 c
-8 -8 c -11 -4 c -4 0 c -11 4 c -8 8 c -4 11 c 0 4 c 4 11 c 8 8 c 15 4 c 19 0 c 19 -4 c 11 -8 c 4 -11 c 0 -8 c -4 -11 c -8 -4 c
-8 -4 6533 1535 l -4 -11 c 0 -8 c 4 -11 c 11 -7 c 19 -4 c 19 0 c 15 4 c 8 7 c 4 11 c 0 4 c -4 12 c -8 7 c -11 4 c -4 0 c -11 -4 c
-8 -7 c -3 -12 c 0 -4 c 3 -11 c 8 -7 c 11 -4 c 53 -37 6521 1599 l 0 56 c 80 0 6521 1599 l 4 -4 6593 1645 l 4 4 c -4 4 c -4 -4 c
4 -12 6521 1698 l 11 -7 c 19 -4 c 12 0 c 19 4 c 11 7 c 4 12 c 0 7 c -4 12 c -11 7 c -19 4 c -12 0 c -19 -4 c -11 -7 c -4 -12 c
0 -7 c 0 42 6521 1758 l 31 -23 c 0 11 c 3 8 c 4 4 c 11 3 c 8 0 c 11 -3 c 8 -8 c 4 -11 c 0 -12 c -4 -11 c -4 -4 c -7 -3 c
4 -11 6521 1849 l 11 -8 c 19 -4 c 12 0 c 19 4 c 11 8 c 4 11 c 0 7 c -4 12 c -11 7 c -19 4 c -12 0 c -19 -4 c -11 -7 c -4 -12 c
0 -7 c 0 -249 7107 2558 l 0 41 7064 2638 l 30 -22 c 0 11 c 4 7 c 3 4 c 12 4 c 7 0 c 12 -4 c 7 -7 c 4 -12 c 0 -11 c -4 -11 c -4 -4 c
-7 -4 c 11 -4 7090 2755 l 8 -8 c 4 -11 c 0 -4 c -4 -11 c -8 -8 c -11 -3 c -4 0 c -11 3 c -8 8 c -3 11 c 0 4 c 3 11 c 8 8 c 15 4 c
19 0 c 19 -4 c 11 -8 c 4 -11 c 0 -7 c -4 -12 c -7 -4 c -8 -3 7075 2830 l -3 -12 c 0 -7 c 3 -12 c 12 -7 c 19 -4 c 19 0 c 15 4 c 7 7 c
4 12 c 0 4 c -4 11 c -7 7 c -12 4 c -3 0 c -12 -4 c -7 -7 c -4 -11 c 0 -4 c 4 -12 c 7 -7 c 12 -4 c 79 -38 7064 2910 l
0 53 7064 2857 l 4 -4 7135 2940 l 4 4 c -4 4 c -4 -4 c 0 41 7064 2978 l 30 -22 c 0 11 c 4 8 c 3 3 c 12 4 c 7 0 c 12 -4 c 7 -7 c
4 -12 c 0 -11 c -4 -11 c -4 -4 c -7 -4 c 11 -4 7090 3095 l 8 -7 c 4 -12 c 0 -3 c -4 -12 c -8 -7 c -11 -4 c -4 0 c -11 4 c -8 7 c
-3 12 c 0 3 c 3 12 c 8 7 c 15 4 c 19 0 c 19 -4 c 11 -7 c 4 -12 c 0 -7 c -4 -12 c -7 -3 c -4 0 7083 3125 l -8 4 c -4 4 c -3 7 c
0 15 c 3 8 c 4 4 c 8 4 c 7 0 c 8 -4 c 11 -8 c 38 -38 c 0 53 c 0 -250 7281 3165 l 0 42 7238 3244 l 30 -23 c 0 11 c 4 8 c 4 4 c 11 3 c
7 0 c 12 -3 c 7 -8 c 4 -11 c 0 -12 c -4 -11 c -3 -4 c -8 -4 c 12 -4 7264 3361 l 7 -7 c 4 -12 c 0 -3 c -4 -12 c -7 -7 c -12 -4 c
-4 0 c -11 4 c -7 7 c -4 12 c 0 3 c 4 12 c 7 7 c 15 4 c 19 0 c 19 -4 c 11 -7 c 4 -12 c 0 -7 c -4 -11 c -7 -4 c -7 -4 7249 3437 l
-4 -11 c 0 -8 c 4 -11 c 11 -8 c 19 -4 c 19 0 c 15 4 c 7 8 c 4 11 c 0 4 c -4 11 c -7 8 c -12 3 c -3 0 c -12 -3 c -7 -8 c -4 -11 c
0 -4 c 4 -11 c 7 -8 c 12 -4 c 4 -11 7238 3482 l 7 -4 c 8 0 c 7 4 c 4 7 c 4 15 c 4 12 c 7 7 c 8 4 c 11 0 c 8 -4 c 3 -3 c 4 -12 c
0 -15 c -4 -11 c -3 -4 c -8 -4 c -11 0 c -8 4 c -7 7 c -4 12 c -4 15 c -4 8 c -7 3 c -8 0 c -7 -3 c -4 -12 c 0 -15 c
3 -3 7310 3546 l 4 3 c -4 4 c -3 -4 c 53 -37 7238 3614 l 0 56 c 79 0 7238 3614 l -7 -4 7249 3701 l -4 -11 c 0 -7 c 4 -12 c 11 -7 c
19 -4 c 19 0 c 15 4 c 7 7 c 4 12 c 0 3 c -4 12 c -7 7 c -12 4 c -3 0 c -12 -4 c -7 -7 c -4 -12 c 0 -3 c 4 -12 c 7 -7 c 12 -4 c
79 -38 7238 3781 l 0 53 7238 3728 l 0 -249 7369 2594 l 0 41 7325 2674 l 30 -22 c 0 11 c 4 8 c 4 3 c 11 4 c 8 0 c 11 -4 c 8 -7 c
3 -11 c 0 -12 c -3 -11 c -4 -4 c -8 -4 c 12 -4 7351 2791 l 7 -7 c 4 -12 c 0 -3 c -4 -12 c -7 -7 c -12 -4 c -3 0 c -12 4 c -7 7 c
-4 12 c 0 3 c 4 12 c 7 7 c 15 4 c 19 0 c 19 -4 c 12 -7 c 3 -12 c 0 -7 c -3 -12 c -8 -3 c -7 -4 7336 2867 l -4 -12 c 0 -7 c 4 -11 c
11 -8 c 19 -4 c 19 0 c 15 4 c 8 8 c 3 11 c 0 4 c -3 11 c -8 8 c -11 3 c -4 0 c -11 -3 c -8 -8 c -4 -11 c 0 -4 c 4 -11 c 8 -8 c
11 -4 c 12 -4 7351 2942 l 7 -7 c 4 -11 c 0 -4 c -4 -12 c -7 -7 c -12 -4 c -3 0 c -12 4 c -7 7 c -4 12 c 0 4 c 4 11 c 7 7 c 15 4 c
19 0 c 19 -4 c 12 -7 c 3 -11 c 0 -8 c -3 -11 c -8 -4 c 4 -4 7397 2976 l 3 4 c -3 4 c -4 -4 c 4 -11 7325 3029 l 11 -8 c 19 -4 c
11 0 c 19 4 c 12 8 c 3 11 c 0 8 c -3 11 c -12 8 c -19 3 c -11 0 c -19 -3 c -11 -8 c -4 -11 c 0 -8 c 4 -12 7325 3105 l 11 -7 c
19 -4 c 11 0 c 19 4 c 12 7 c 3 12 c 0 7 c -3 12 c -12 7 c -19 4 c -11 0 c -19 -4 c -11 -7 c -4 -12 c 0 -7 c 0 42 7325 3165 l
30 -23 c 0 11 c 4 8 c 4 4 c 11 4 c 8 0 c 11 -4 c 8 -8 c 3 -11 c 0 -11 c -3 -12 c -4 -4 c -8 -3 c 0 -250 7476 1266 l 0 42 7432 1345 l
30 -23 c 0 12 c 4 7 c 4 4 c 11 4 c 8 0 c 11 -4 c 8 -8 c 3 -11 c 0 -11 c -3 -12 c -4 -3 c -8 -4 c 11 -4 7459 1463 l 7 -8 c 4 -11 c
0 -4 c -4 -11 c -7 -8 c -11 -4 c -4 0 c -12 4 c -7 8 c -4 11 c 0 4 c 4 11 c 7 8 c 16 4 c 18 0 c 19 -4 c 12 -8 c 3 -11 c 0 -8 c
-3 -11 c -8 -4 c -7 -4 7443 1538 l -4 -11 c 0 -8 c 4 -11 c 11 -7 c 19 -4 c 19 0 c 15 4 c 8 7 c 3 11 c 0 4 c -3 12 c -8 7 c -11 4 c
-4 0 c -11 -4 c -8 -7 c -4 -12 c 0 -4 c 4 -11 c 8 -7 c 11 -4 c 11 -4 7459 1614 l 7 -8 c 4 -11 c 0 -4 c -4 -11 c -7 -8 c -11 -3 c
-4 0 c -12 3 c -7 8 c -4 11 c 0 4 c 4 11 c 7 8 c 16 4 c 18 0 c 19 -4 c 12 -8 c 3 -11 c 0 -8 c -3 -11 c -8 -4 c 4 -4 7504 1648 l
3 4 c -3 4 c -4 -4 c -7 -4 7443 1727 l -4 -11 c 0 -8 c 4 -11 c 11 -7 c 19 -4 c 19 0 c 15 4 c 8 7 c 3 11 c 0 4 c -3 12 c -8 7 c
-11 4 c -4 0 c -11 -4 c -8 -7 c -4 -12 c 0 -4 c 4 -11 c 8 -7 c 11 -4 c -7 -4 7443 1803 l -4 -11 c 0 -8 c 4 -11 c 11 -8 c 19 -4 c
19 0 c 15 4 c 8 8 c 3 11 c 0 4 c -3 11 c -8 8 c -11 3 c -4 0 c -11 -3 c -8 -8 c -4 -11 c 0 -4 c 4 -11 c 8 -8 c 11 -4 c
53 -38 7432 1867 l 0 57 c 79 0 7432 1867 l 0 -250 7884 1706 l 0 42 7840 1785 l 30 -23 c 0 12 c 4 7 c 4 4 c 11 4 c 8 0 c 11 -4 c
8 -8 c 4 -11 c 0 -11 c -4 -12 c -4 -3 c -8 -4 c 11 -3 7867 1902 l 8 -8 c 3 -11 c 0 -4 c -3 -11 c -8 -8 c -11 -4 c -4 0 c -11 4 c
-8 8 c -4 11 c 0 4 c 4 11 c 8 8 c 15 3 c 19 0 c 18 -3 c 12 -8 c 4 -11 c 0 -8 c -4 -11 c -8 -4 c 80 -38 7840 1982 l 0 53 7840 1929 l
-4 0 7859 2008 l -7 4 c -4 4 c -4 7 c 0 16 c 4 7 c 4 4 c 7 4 c 8 0 c 7 -4 c 12 -8 c 38 -37 c 0 52 c 4 -4 7912 2088 l 4 4 c -4 3 c
-4 -3 c -3 8 7855 2129 l -12 11 c 80 0 c 0 -38 7840 2239 l 34 -4 c -4 4 c -3 11 c 0 12 c 3 11 c 8 8 c 11 3 c 8 0 c 11 -3 c 8 -8 c
4 -11 c 0 -12 c -4 -11 c -4 -4 c -8 -3 c 0 -37 7840 2314 l 34 -4 c -4 4 c -3 11 c 0 11 c 3 12 c 8 7 c 11 4 c 8 0 c 11 -4 c 8 -7 c
4 -12 c 0 -11 c -4 -11 c -4 -4 c -8 -4 c 0 -250 7963 1339 l 0 42 7920 1418 l 30 -23 c 0 12 c 4 7 c 4 4 c 11 4 c 8 0 c 11 -4 c 7 -8 c
4 -11 c 0 -11 c -4 -12 c -3 -4 c -8 -3 c 12 -3 7946 1535 l 7 -8 c 4 -11 c 0 -4 c -4 -11 c -7 -8 c -12 -4 c -3 0 c -12 4 c -7 8 c
-4 11 c 0 4 c 4 11 c 7 8 c 15 3 c 19 0 c 19 -3 c 11 -8 c 4 -11 c 0 -8 c -4 -11 c -7 -4 c 79 -38 7920 1615 l 0 53 7920 1562 l
-4 0 7939 1641 l -8 4 c -3 4 c -4 7 c 0 16 c 4 7 c 3 4 c 8 4 c 8 0 c 7 -4 c 11 -8 c 38 -38 c 0 53 c 3 -4 7992 1721 l 4 4 c -4 3 c
-3 -3 c -7 -4 7931 1800 l -4 -11 c 0 -8 c 4 -11 c 11 -8 c 19 -3 c 19 0 c 15 3 c 7 8 c 4 11 c 0 4 c -4 11 c -7 8 c -11 4 c -4 0 c
-12 -4 c -7 -8 c -4 -11 c 0 -4 c 4 -11 c 7 -8 c 12 -3 c 53 -38 7920 1864 l 0 57 c 79 0 7920 1864 l 4 -12 7920 1925 l 11 -7 c 19 -4 c
11 0 c 19 4 c 11 7 c 4 12 c 0 7 c -4 12 c -11 7 c -19 4 c -11 0 c -19 -4 c -11 -7 c -4 -12 c 0 -7 c 0 -249 8055 1490 l
0 41 8012 1570 l 30 -22 c 0 11 c 4 7 c 3 4 c 12 4 c 7 0 c 12 -4 c 7 -7 c 4 -12 c 0 -11 c -4 -11 c -4 -4 c -7 -4 c 11 -4 8038 1687 l
8 -7 c 4 -12 c 0 -4 c -4 -11 c -8 -7 c -11 -4 c -4 0 c -11 4 c -8 7 c -3 11 c 0 4 c 3 12 c 8 7 c 15 4 c 19 0 c 19 -4 c 11 -7 c
4 -12 c 0 -7 c -4 -12 c -7 -3 c 79 -38 8012 1766 l 0 53 8012 1713 l 0 42 8012 1796 l 30 -23 c 0 12 c 4 7 c 3 4 c 12 4 c 7 0 c
12 -4 c 7 -8 c 4 -11 c 0 -11 c -4 -12 c -4 -3 c -7 -4 c 4 -4 8083 1872 l 4 4 c -4 4 c -4 -4 c -4 7 8027 1914 l -11 12 c 79 0 c
11 -4 8038 2027 l 8 -7 c 4 -12 c 0 -3 c -4 -12 c -8 -7 c -11 -4 c -4 0 c -11 4 c -8 7 c -3 12 c 0 3 c 3 12 c 8 7 c 15 4 c 19 0 c
19 -4 c 11 -7 c 4 -12 c 0 -7 c -4 -12 c -7 -3 c -8 -4 8023 2103 l -3 -12 c 0 -7 c 3 -11 c 12 -8 c 19 -4 c 19 0 c 15 4 c 7 8 c 4 11 c
0 4 c -4 11 c -7 8 c -12 3 c -3 0 c -12 -3 c -7 -8 c -4 -11 c 0 -4 c 4 -11 c 7 -8 c 12 -4 c 0 -250 8266 1602 l 0 42 8223 1681 l
30 -23 c 0 12 c 4 7 c 4 4 c 11 4 c 7 0 c 12 -4 c 7 -8 c 4 -11 c 0 -11 c -4 -12 c -3 -3 c -8 -4 c 12 -4 8249 1799 l 7 -8 c 4 -11 c
0 -4 c -4 -11 c -7 -8 c -12 -4 c -4 0 c -11 4 c -7 8 c -4 11 c 0 4 c 4 11 c 7 8 c 15 4 c 19 0 c 19 -4 c 11 -8 c 4 -11 c 0 -8 c
-4 -11 c -7 -4 c 79 -38 8223 1878 l 0 53 8223 1825 l 53 -37 8223 1938 l 0 56 c 79 0 8223 1938 l 3 -4 8295 1984 l 4 4 c -4 4 c
-3 -4 c 53 -38 8223 2052 l 0 57 c 79 0 8223 2052 l 79 -37 8223 2142 l 0 52 8223 2090 l 79 -38 8223 2218 l 0 53 8223 2165 l
0 -249 8588 1530 l 0 41 8544 1610 l 30 -23 c 0 12 c 4 7 c 4 4 c 11 4 c 8 0 c 11 -4 c 8 -7 c 3 -12 c 0 -11 c -3 -11 c -4 -4 c -8 -4 c
11 -4 8571 1727 l 7 -8 c 4 -11 c 0 -4 c -4 -11 c -7 -8 c -11 -3 c -4 0 c -12 3 c -7 8 c -4 11 c 0 4 c 4 11 c 7 8 c 16 4 c 18 0 c
19 -4 c 12 -8 c 3 -11 c 0 -7 c -3 -12 c -8 -4 c 79 -38 8544 1806 l 0 53 8544 1753 l -7 -4 8555 1878 l -4 -11 c 0 -8 c 4 -11 c
11 -8 c 19 -3 c 19 0 c 15 3 c 8 8 c 3 11 c 0 4 c -3 11 c -8 8 c -11 4 c -4 0 c -11 -4 c -8 -8 c -4 -11 c 0 -4 c 4 -11 c 8 -8 c
11 -3 c 4 -4 8616 1912 l 3 4 c -3 4 c -4 -4 c 53 -38 8544 1980 l 0 57 c 79 0 8544 1980 l -4 8 8559 2029 l -11 11 c 79 0 c
0 -38 8544 2139 l 34 -4 c -4 4 c -3 11 c 0 12 c 3 11 c 8 7 c 11 4 c 8 0 c 11 -4 c 8 -7 c 3 -11 c 0 -12 c -3 -11 c -4 -4 c -8 -4 c
0 -249 9079 1689 l 0 42 9035 1768 l 31 -23 c 0 12 c 3 7 c 4 4 c 11 4 c 8 0 c 11 -4 c 8 -8 c 4 -11 c 0 -11 c -4 -12 c -4 -3 c -7 -4 c
11 -4 9062 1886 l 8 -8 c 3 -11 c 0 -4 c -3 -11 c -8 -8 c -11 -4 c -4 0 c -11 4 c -8 8 c -4 11 c 0 4 c 4 11 c 8 8 c 15 4 c 19 0 c
19 -4 c 11 -8 c 4 -11 c 0 -8 c -4 -11 c -8 -4 c 80 -38 9035 1965 l 0 53 9035 1912 l 11 -4 9062 2037 l 8 -8 c 3 -11 c 0 -4 c -3 -11 c
-8 -8 c -11 -3 c -4 0 c -11 3 c -8 8 c -4 11 c 0 4 c 4 11 c 8 8 c 15 4 c 19 0 c 19 -4 c 11 -8 c 4 -11 c 0 -7 c -4 -12 c -8 -4 c
4 -4 9107 2071 l 4 4 c -4 4 c -4 -4 c 0 41 9035 2109 l 31 -23 c 0 12 c 3 7 c 4 4 c 11 4 c 8 0 c 11 -4 c 8 -7 c 4 -12 c 0 -11 c
-4 -11 c -4 -4 c -7 -4 c 0 -38 9035 2222 l 34 -4 c -3 4 c -4 12 c 0 11 c 4 11 c 7 8 c 11 4 c 8 0 c 11 -4 c 8 -8 c 4 -11 c 0 -11 c
-4 -12 c -4 -4 c -7 -3 c -8 -3 9047 2301 l -4 -12 c 0 -7 c 4 -12 c 11 -7 c 19 -4 c 19 0 c 15 4 c 8 7 c 4 12 c 0 3 c -4 12 c -8 7 c
-11 4 c -4 0 c -11 -4 c -8 -7 c -3 -12 c 0 -3 c 3 -12 c 8 -7 c 11 -4 c 0 -249 9203 1319 l 0 41 9159 1399 l 30 -23 c 0 12 c 4 7 c
4 4 c 11 4 c 8 0 c 11 -4 c 8 -7 c 3 -12 c 0 -11 c -3 -11 c -4 -4 c -8 -4 c 12 -4 9185 1516 l 7 -8 c 4 -11 c 0 -4 c -4 -11 c -7 -8 c
-12 -3 c -3 0 c -12 3 c -7 8 c -4 11 c 0 4 c 4 11 c 7 8 c 15 4 c 19 0 c 19 -4 c 12 -8 c 3 -11 c 0 -8 c -3 -11 c -8 -4 c
4 -11 9159 1561 l 7 -4 c 8 0 c 7 4 c 4 7 c 4 15 c 4 12 c 7 7 c 8 4 c 11 0 c 8 -4 c 4 -4 c 3 -11 c 0 -15 c -3 -11 c -4 -4 c -8 -4 c
-11 0 c -8 4 c -7 7 c -4 12 c -4 15 c -4 7 c -7 4 c -8 0 c -7 -4 c -4 -11 c 0 -15 c 4 -11 9159 1640 l 11 -8 c 19 -3 c 11 0 c 19 3 c
12 8 c 3 11 c 0 8 c -3 11 c -12 8 c -19 4 c -11 0 c -19 -4 c -11 -8 c -4 -11 c 0 -8 c 4 -4 9231 1701 l 3 4 c -3 4 c -4 -4 c
4 -12 9159 1754 l 11 -7 c 19 -4 c 11 0 c 19 4 c 12 7 c 3 12 c 0 7 c -3 12 c -12 7 c -19 4 c -11 0 c -19 -4 c -11 -7 c -4 -12 c
0 -7 c 12 -4 9185 1856 l 7 -8 c 4 -11 c 0 -4 c -4 -11 c -7 -8 c -12 -3 c -3 0 c -12 3 c -7 8 c -4 11 c 0 4 c 4 11 c 7 8 c 15 4 c
19 0 c 19 -4 c 12 -8 c 3 -11 c 0 -7 c -3 -12 c -8 -4 c 4 -11 9159 1905 l 11 -8 c 19 -4 c 11 0 c 19 4 c 12 8 c 3 11 c 0 8 c -3 11 c
-12 7 c -19 4 c -11 0 c -19 -4 c -11 -7 c -4 -11 c 0 -8 c
showpage PGPLOT restore
 
%%Trailer
%%DocumentFonts: 
%%Pages: 1
%%EOF
