%!PS-Adobe-3.0 EPSF-3.0
%%For: tom
%%Title: PGPLOT PostScript plot
%%Creator: PGPLOT
%%CreationDate:  9-Nov-1994 13:43
%%BoundingBox: 25 18 587 774
%%DocumentFonts: (atend)
%%LanguageLevel: 1
%%Orientation: Landscape
%%Pages: (atend)
%%EndComments
%%BeginProlog
/l {moveto rlineto currentpoint stroke moveto} bind def
/c {rlineto currentpoint stroke moveto} bind def
/d {moveto 0 0 rlineto currentpoint stroke moveto} bind def
/SLW {5 mul setlinewidth} bind def
/SCF /pop load def
/BP {newpath moveto} bind def
/LP /rlineto load def
/EP {rlineto closepath eofill} bind def
/MB {gsave translate MFAC dup scale 1 setlinewidth 2 setlinecap 0 setlinejoin newpath} bind def
/ME /grestore load def
/C {0 360 arc stroke} bind def
/FC {0 360 arc fill} bind def
%%EndProlog
 
%%Page: 1 1
%%BeginPageSetup
/PGPLOT save def
0.072 0.072 scale
8150 250 translate 90 rotate
1 setlinejoin 1 setlinecap 1 SLW 1 SCF
%%EndPageSetup
0.00 setgray 1 SLW 8939 0 780 780 l 0 6239 c -8939 0 c 0 -6239 c 0 -45 1116 780 l 0 -45 1554 780 l 0 -45 1991 780 l 0 -45 2428 780 l
0 -90 2865 780 l 0 -45 3302 780 l 0 -45 3739 780 l 0 -45 4176 780 l 0 -45 4613 780 l 0 -90 5051 780 l 0 -45 5488 780 l
0 -45 5925 780 l 0 -45 6362 780 l 0 -45 6799 780 l 0 -90 7236 780 l 0 -45 7673 780 l 0 -45 8110 780 l 0 -45 8548 780 l
0 -45 8985 780 l 0 -90 9422 780 l 0 -45 1116 7064 l 0 -45 1554 7064 l 0 -45 1991 7064 l 0 -45 2428 7064 l 0 -90 2865 7109 l
0 -45 3302 7064 l 0 -45 3739 7064 l 0 -45 4176 7064 l 0 -45 4613 7064 l 0 -90 5051 7109 l 0 -45 5488 7064 l 0 -45 5925 7064 l
0 -45 6362 7064 l 0 -45 6799 7064 l 0 -90 7236 7109 l 0 -45 7673 7064 l 0 -45 8110 7064 l 0 -45 8548 7064 l 0 -45 8985 7064 l
0 -90 9422 7109 l -60 0 2775 672 l -6 -54 c 6 6 c 18 6 c 18 0 c 18 -6 c 12 -12 c 6 -18 c 0 -12 c -6 -18 c -12 -12 c -18 -6 c -18 0 c
-18 6 c -6 6 c -6 12 c -18 -6 2859 672 l -12 -18 c -6 -30 c 0 -18 c 6 -30 c 12 -18 c 18 -6 c 12 0 c 18 6 c 12 18 c 6 30 c 0 18 c
-6 30 c -12 18 c -18 6 c -12 0 c -18 -6 2979 672 l -12 -18 c -6 -30 c 0 -18 c 6 -30 c 12 -18 c 18 -6 c 12 0 c 18 6 c 12 18 c 6 30 c
0 18 c -6 30 c -12 18 c -18 6 c -12 0 c 12 6 4847 648 l 18 18 c 0 -126 c -18 -6 4985 672 l -12 -18 c -6 -30 c 0 -18 c 6 -30 c
12 -18 c 18 -6 c 12 0 c 18 6 c 12 18 c 6 30 c 0 18 c -6 30 c -12 18 c -18 6 c -12 0 c -18 -6 5105 672 l -12 -18 c -6 -30 c 0 -18 c
6 -30 c 12 -18 c 18 -6 c 12 0 c 18 6 c 12 18 c 6 30 c 0 18 c -6 30 c -12 18 c -18 6 c -12 0 c -18 -6 5225 672 l -12 -18 c -6 -30 c
0 -18 c 6 -30 c 12 -18 c 18 -6 c 12 0 c 18 6 c 12 18 c 6 30 c 0 18 c -6 30 c -12 18 c -18 6 c -12 0 c 12 6 7032 648 l 18 18 c
0 -126 c -60 0 7206 672 l -6 -54 c 6 6 c 18 6 c 18 0 c 18 -6 c 12 -12 c 6 -18 c 0 -12 c -6 -18 c -12 -12 c -18 -6 c -18 0 c -18 6 c
-6 6 c -6 12 c -18 -6 7290 672 l -12 -18 c -6 -30 c 0 -18 c 6 -30 c 12 -18 c 18 -6 c 12 0 c 18 6 c 12 18 c 6 30 c 0 18 c -6 30 c
-12 18 c -18 6 c -12 0 c -18 -6 7410 672 l -12 -18 c -6 -30 c 0 -18 c 6 -30 c 12 -18 c 18 -6 c 12 0 c 18 6 c 12 18 c 6 30 c 0 18 c
-6 30 c -12 18 c -18 6 c -12 0 c 0 6 9206 642 l 6 12 c 6 6 c 12 6 c 24 0 c 12 -6 c 6 -6 c 6 -12 c 0 -12 c -6 -12 c -12 -18 c
-60 -60 c 84 0 c -18 -6 9356 672 l -12 -18 c -6 -30 c 0 -18 c 6 -30 c 12 -18 c 18 -6 c 12 0 c 18 6 c 12 18 c 6 30 c 0 18 c -6 30 c
-12 18 c -18 6 c -12 0 c -18 -6 9476 672 l -12 -18 c -6 -30 c 0 -18 c 6 -30 c 12 -18 c 18 -6 c 12 0 c 18 6 c 12 18 c 6 30 c 0 18 c
-6 30 c -12 18 c -18 6 c -12 0 c -18 -6 9596 672 l -12 -18 c -6 -30 c 0 -18 c 6 -30 c 12 -18 c 18 -6 c 12 0 c 18 6 c 12 18 c 6 30 c
0 18 c -6 30 c -12 18 c -18 6 c -12 0 c -90 0 780 780 l -45 0 780 1714 l -90 0 780 2648 l -45 0 780 3582 l -90 0 780 4516 l
-45 0 780 5450 l -90 0 780 6385 l -90 0 9809 780 l -45 0 9764 1714 l -90 0 9809 2648 l -45 0 9764 3582 l -90 0 9809 4516 l
-45 0 9764 5450 l -90 0 9809 6385 l 6 -18 517 774 l 18 -12 c 30 -6 c 18 0 c 30 6 c 18 12 c 6 18 c 0 12 c -6 18 c -18 12 c -30 6 c
-18 0 c -30 -6 c -18 -12 c -6 -18 c 0 -12 c -6 0 547 2390 l -12 6 c -6 6 c -6 12 c 0 24 c 6 12 c 6 6 c 12 6 c 12 0 c 12 -6 c
18 -12 c 60 -60 c 0 84 c 84 84 547 2510 l 84 -84 547 2594 l -6 12 541 2654 l -18 18 c 126 0 c 6 -18 517 2792 l 18 -12 c 30 -6 c
18 0 c 30 6 c 18 12 c 6 18 c 0 12 c -6 18 c -18 12 c -30 6 c -18 0 c -30 -6 c -18 -12 c -6 -18 c 0 -12 c 63 -45 453 2917 l 0 67 c
94 0 453 2917 l 84 -60 517 4312 l 0 90 c 126 0 517 4312 l 84 84 547 4378 l 84 -84 547 4462 l -6 12 541 4522 l -18 18 c 126 0 c
6 -18 517 4660 l 18 -12 c 30 -6 c 18 0 c 30 6 c 18 12 c 6 18 c 0 12 c -6 18 c -18 12 c -30 6 c -18 0 c -30 -6 c -18 -12 c -6 -18 c
0 -12 c 63 -45 453 4785 l 0 67 c 94 0 453 4785 l -12 -6 535 6199 l -6 -18 c 0 -12 c 6 -18 c 18 -12 c 30 -6 c 30 0 c 24 6 c 12 12 c
6 18 c 0 6 c -6 18 c -12 12 c -18 6 c -6 0 c -18 -6 c -12 -12 c -6 -18 c 0 -6 c 6 -18 c 12 -12 c 18 -6 c 84 84 547 6247 l
84 -84 547 6331 l -6 12 541 6391 l -18 18 c 126 0 c 6 -18 517 6529 l 18 -12 c 30 -6 c 18 0 c 30 6 c 18 12 c 6 18 c 0 12 c -6 17 c
-18 12 c -30 6 c -18 0 c -30 -6 c -18 -12 c -6 -17 c 0 -12 c 63 -45 453 6653 l 0 67 c 94 0 453 6653 l
4 634 780 1483 l 5 24 c 4 -188 c 4 -680 c 5 -436 c 4 -35 c 4 -2 c 5 -2 c 4 -1 c 5 -2 c 4 0 c 4 2 c 5 4 c 4 1 c 4 -1 c 5 -3 c 4 -5 c
5 -1 c 4 -1 c 4 0 c 5 0 c 4 0 c 4 1 c 5 1 c 4 0 c 5 0 c 4 -1 c 4 1 c 5 2 c 4 8 c 4 17 c 5 41 c 4 46 c 5 -6 c 4 -17 c 4 -58 c 5 -29 c
4 -2 c 4 0 c 5 0 c 4 0 c 4 1 c 5 1 c 4 0 c 5 1 c 4 1 c 4 3 c 5 3 c 4 2 c 4 2 c 5 3 c 4 3 c 5 7 c 4 16 c 4 57 c 5 258 c 4 593 c
4 1706 c 5 3086 c 4 247 c 5 -307 c 4 -2462 c 4 -2682 c 5 -410 c 4 -50 c 4 -25 c 5 -20 c 4 -10 c 5 -2 c 4 -6 c 4 -1 c 5 -4 c 4 -3 c
4 0 c 5 1 c 4 -2 c 4 0 c 5 -2 c 4 0 c 5 -1 c 4 0 c 4 -2 c 5 0 c 4 -17 c 5 19 1151 780 l 4 6 c 5 17 c 4 48 c 4 25 c 5 -2 c 4 -26 c
4 -53 c 5 -12 c 4 -5 c 5 -1 c 4 -3 c 4 -1 c 5 0 c 4 0 c 4 0 c 5 0 c 4 1 c 5 3 c 4 0 c 4 1 c 5 0 c 4 3 c 4 10 c 5 8 c 4 -1 c 4 -6 c
5 -11 c 4 -5 c 5 1 c 4 6 c 4 19 c 5 65 c 4 101 c 4 8 c 5 -20 c 4 -92 c 5 -82 c 4 -4 c 4 8 c 5 9 c 4 -1 c 4 -3 c 5 -14 c 4 -4 c 5 0 c
4 -1 c 4 0 c 5 0 c 4 0 c 4 0 c 5 0 c 4 0 c 5 0 c 4 1 c 4 1 c 5 1 c 4 0 c 4 1 c 5 1 c 4 0 c 4 -2 c 5 -2 c 4 0 c 5 -1 c 4 0 c 4 -1 c
5 1 c 4 0 c 4 -1 c 5 2 c 4 -1 c 5 1 c 4 1 c 4 6 c 5 11 c 4 0 c 4 0 c 5 -7 c 4 -2 c 5 -1 c 4 -1 c 4 -5 c 5 -4 c 4 0 c 4 0 c 5 0 c
4 0 c 4 0 c 5 2 c 4 2 c 5 0 c 4 0 c 4 -1 c 5 0 c 4 3 c 4 9 c 5 31 c 4 89 c 5 37 c 4 -12 c 4 -51 c 5 -91 c 4 -16 c 4 0 c 5 -1 c 4 0 c
5 0 c 4 0 c 4 1 c 5 2 c 4 0 c 4 -1 c 5 -1 c 4 -1 c 5 -1 c 4 0 c 4 0 c 5 1 c 4 2 c 4 6 c 5 23 c 4 34 c 4 0 c 5 -7 c 4 -34 c 5 -21 c
4 -1 c 4 5 c 5 15 c 4 9 c 4 2 c 5 -9 c 4 -16 c 5 -6 c 4 -2 c 4 0 c 5 2 c 4 0 c 4 0 c 5 -1 c 4 -2 c 5 0 c 4 0 c 4 1 c 5 1 c 4 2 c
4 2 c 5 5 c 4 2 c 5 -2 c 4 0 c 4 -3 c 5 -1 c 4 -2 c 4 -1 c 5 0 c 4 0 c 4 -1 c 5 0 c 4 0 c 5 0 c 4 1 c 4 1 c 5 4 c 4 16 c 4 11 c
5 5 c 4 -7 c 5 -19 c 4 -7 c 4 -3 c 5 0 c 4 1 c 4 1 c 5 -1 c 4 -1 c 5 -1 c 4 1 c 4 1 c 5 1 c 4 1 c 4 1 c 5 2 c 4 1 c 5 5 c 4 5 c
4 16 c 5 97 c 4 392 c 4 1543 c 5 1307 c 4 5 c 4 -528 c 5 -1795 c 4 -917 c 5 -10 c 4 224 c 4 569 c 5 248 c 4 -60 c 4 -333 c 5 -568 c
4 -145 c 5 -36 c 4 -8 c 4 -3 c 5 -1 c 4 -2 c 4 -4 c 5 -4 c 4 -3 c 5 -1 c 4 -1 c 4 0 c 5 0 c 4 0 c 4 0 c 5 -1 c 4 0 c 5 1 c 4 1 c
4 1 c 5 0 c 4 -1 c 4 1 c 5 0 c 4 3 c 4 11 c 5 36 c 4 25 c 5 0 c 4 -14 c 4 -42 c 5 -17 c 4 2 c 4 13 c 5 6 c 4 -1 c 5 -7 c 4 -13 c
4 -5 c 5 0 c 4 -1 c 4 0 c 5 0 c 4 1 c 5 0 c 4 1 c 4 -1 c 5 -1 c 4 0 c 4 -1 c 5 0 c 4 1 c 4 0 c 5 1 c 4 1 c 5 -1 c 4 1 c 4 0 c 5 -1 c
4 0 c 4 0 c 5 1 c 4 0 c 5 0 c 4 -2 c 4 0 c 5 0 c 4 0 c 4 0 c 5 1 c 4 0 c 5 1 c 4 0 c 4 0 c 5 1 c 4 6 c 4 8 c 5 0 c 4 -3 c 5 -8 c
4 -6 c 4 -1 c 5 0 c 4 0 c 4 1 c 5 -1 c 4 1 c 4 1 c 5 1 c 4 -1 c 5 -1 c 4 0 c 4 1 c 5 5 c 4 3 c 4 0 c 5 -1 c 4 -6 c 5 -2 c 4 0 c
4 0 c 5 2 c 4 9 c 4 40 c 5 32 c 4 2 c 5 -15 c 4 -48 c 4 -20 c 5 -1 c 4 0 c 4 0 c 5 -1 c 4 1 c 5 6 c 4 29 c 4 49 c 5 5 c 4 -8 c
4 -44 c 5 -34 c 4 -3 c 4 0 c 5 0 c 4 -1 c 5 0 c 4 0 c 4 2 c 5 4 c 4 5 c 4 0 c 5 -1 c 4 -5 c 5 -4 c 4 1 c 4 1 c 5 1 c 4 0 c 4 4 c
5 41 c 4 150 c 5 125 c 4 -1 c 4 -58 c 5 -176 c 4 -79 c 4 -2 c 5 0 c 4 -1 c 5 -2 c 4 1 c 4 7 c 5 2 c 4 1 c 4 2 c 5 0 c 4 -1 c 4 0 c
5 -6 c 4 -5 c 5 0 c 4 5 c 4 3 c 5 2 c 4 2 c 4 -2 c 5 2 c 4 6 c 5 4 c 4 7 c 4 7 c 5 19 c 4 85 c 4 661 c 5 3184 c 4 2022 c 5 12 c
4 -69 c 4 -3566 c 5 -1844 c 4 -160 c 4 -43 c 5 -157 c 4 -129 c 4 -23 c 5 -9 c 4 -6 c 5 0 c 4 1 c 4 -2 c 5 -2 c 4 -4 c 4 0 c 5 -1 c
4 0 c 5 3 c 4 32 c 4 89 c 5 27 c 4 -3 c 4 -49 c 5 -80 c 4 -9 c 5 1 c 4 0 c 4 -5 c 5 -4 c 4 2 c 4 1 c 5 6 c 4 20 c 5 231 c 4 1520 c
4 1380 c 5 134 c 4 -399 c 4 -1800 c 5 -1008 c 4 -75 c 4 -6 c 5 -2 c 4 -1 c 5 -3 c 4 0 c 4 -3 c 5 -1 c 4 -2 c 4 -1 c 5 0 c 4 1 c
5 1 c 4 2 c 4 7 c 5 86 c 4 165 c 4 43 c 5 -10 c 4 -121 c 5 -151 c 4 -21 c 4 0 c 5 2 c 4 6 c 4 33 c 5 24 c 4 6 c 5 -8 c 4 -43 c
4 -19 c 5 -6 c 4 0 c 4 0 c 5 1 c 4 -1 c 4 -1 c 5 0 c 4 1 c 5 1 c 4 3 c 4 9 c 5 2 c 4 0 c 4 -5 c 5 -8 c 4 -2 c 5 1 c 4 2 c 4 1 c
5 2 c 4 32 c 4 127 c 5 97 c 4 12 c 5 -41 c 4 -140 c 4 -77 c 5 -9 c 4 -3 c 4 0 c 5 3 c 4 2 c 5 0 c 4 -1 c 4 -3 c 5 1 c 4 1 c 4 0 c
5 -3 c 4 -2 c 4 0 c 5 -1 c 4 0 c 5 1 c 4 0 c 4 1 c 5 0 c 4 0 c 4 0 c 5 1 c 4 1 c 5 0 c 4 -2 c 4 0 c 5 0 c 4 1 c 4 0 c 5 1 c 4 0 c
5 1 c 4 -1 c 4 1 c 5 -1 c 4 2 c 4 0 c 5 2 c 4 5 c 5 5 c 4 1 c 4 1 c 5 -2 c 4 2 c 4 5 c 5 83 c 4 527 c 4 419 c 5 31 c 4 -131 c
5 -610 c 4 -200 c 4 40 c 5 29 c 4 52 c 4 -54 c 5 -40 c 4 -34 c 5 -31 c 4 4 c 4 53 c 5 375 c 4 4535 c 4 944 c 5 20 c 4 -1 c 5 -24 c
4 -4663 c 4 -124 c 5 4805 c 4 -1 c 4 -8 c 5 -2 c 4 -14 c 4 -4119 c 5 -1519 c 4 -198 c 5 -55 c 4 -28 c 4 -16 c 5 -9 c 4 -13 c 4 -6 c
5 -3 c 4 -5 c 5 -3 c 4 -3 c 4 -2 c 5 1 c 4 -3 c 4 0 c 5 -4 c 4 -2 c 5 -1 c 4 9 c 4 72 c 5 53 c 4 6 c 4 -18 c 5 -86 c 4 -39 c 5 0 c
4 2 c 4 1 c 5 -1 c 4 -6 c 4 -4 c 5 0 c 4 -1 c 4 0 c 5 0 c 4 2 c 5 1 c 4 1 c 4 0 c 5 -1 c 4 -2 c 4 1 c 5 3 c 4 13 c 5 6 c 4 -2 c
4 -6 c 5 -14 c 4 -4 c 4 0 c 5 1 c 4 2 c 5 0 c 4 0 c 4 -1 c 5 -1 c 4 0 c 4 0 c 5 -1 c 4 -1 c 5 0 c 4 1 c 4 2 c 5 1 c 4 -1 c 4 -1 c
5 -3 c 4 0 c 4 0 c 5 1 c 4 2 c 5 8 c 4 8 c 4 0 c 5 0 c 4 -9 c 4 -5 c 5 -2 c 4 -2 c 5 0 c 4 6 c 4 21 c 5 15 c 4 2 c 4 -10 c 5 -19 c
4 -10 c 5 -2 c 4 1 c 4 3 c 5 6 c 4 37 c 4 141 c 5 77 c 4 0 c 5 -53 c 4 -149 c 4 -57 c 5 -3 c 4 0 c 4 3 c 5 3 c 4 2 c 4 5 c 5 3 c
4 5 c 5 18 c 4 213 c 4 1620 c 5 1455 c 4 199 c 4 -321 c 5 -1882 c 4 -1189 c 5 -107 c 4 -8 c 4 -2 c 5 3 c 4 31 c 4 356 c 5 630 c
4 135 c 5 -58 c 4 -489 c 4 -518 c 5 -92 c 4 -3 c 4 0 c 5 1 c 4 2 c 5 -2 c 4 1 c 4 4 c 5 6 c 4 10 c 4 16 c 5 10 c 4 27 c 4 94 c
5 1498 c 4 4336 c 5 -2 c 4 -8 c 4 10 c 5 -3314 c 4 -2353 c 4 -244 c 5 -38 c 4 -28 c 5 -11 c 4 5 c 4 15 c 5 4 c 4 1 c 4 -22 c 5 -20 c
4 -6 c 5 -3 c 4 1 c 4 1 c 5 -1 c 4 0 c 4 0 c 5 0 c 4 1 c 4 3 c 5 17 c 4 90 c 5 237 c 4 153 c 4 -5 c 5 -104 c 4 -231 c 4 -92 c 5 -5 c
4 13 c 5 -9 c 4 -10 c 4 -28 c 5 -28 c 4 -5 c 4 3 c 5 1 c 4 -1 c 5 -1 c 4 -2 c 4 6 c 5 54 c 4 313 c 4 279 c 5 18 c 4 -74 c 5 -368 c
4 -203 c 4 -25 c 5 -2 c 4 1 c 4 0 c 5 -1 c 4 -1 c 4 -2 c 5 0 c 4 -1 c 5 1 c 4 0 c 4 -1 c 5 1 c 4 1 c 4 0 c 5 0 c 4 0 c 5 2 c 4 1 c
4 -1 c 5 -1 c 4 -2 c 4 -1 c 5 1 c 4 5 c 5 4 c 4 4 c 4 8 c 5 -1 c 4 -3 c 4 -5 c 5 -9 c 4 0 c 5 11 c 4 6 c 4 0 c 5 -3 c 4 -10 c 4 -4 c
5 1 c 4 5 c 4 27 c 5 74 c 4 29 c 5 -3 c 4 -30 c 4 -78 c 5 -22 c 4 11 c 4 31 c 5 10 c 4 -5 c 5 -17 c 4 -28 c 4 -7 c 5 0 c 4 2 c
4 12 c 5 26 c 4 9 c 5 -4 c 4 -16 c 4 -26 c 5 -5 c 4 0 c 4 2 c 5 0 c 4 -1 c 5 0 c 4 -1 c 4 -1 c 5 1 c 4 0 c 4 2 c 5 5 c 4 1 c 4 0 c
5 -3 c 4 -6 c 5 0 c 4 1 c 4 18 c 5 43 c 4 69 c 4 44 c 5 -11 c 4 -39 c 5 -71 c 4 -24 c 4 -3 c 5 -2 c 4 -9 c 4 -9 c 5 -3 c 4 -2 c
5 0 c 4 0 c 4 1 c 5 8 c 4 13 c 4 2 c 5 -1 c 4 -10 c 5 -13 c 4 -2 c 4 1 c 5 0 c 4 0 c 4 -2 c 5 0 c 4 2 c 4 15 c 5 11 c 4 1 c 5 -3 c
4 -15 c 4 -10 c 5 -2 c 4 0 c 4 0 c 5 0 c 4 1 c 5 1 c 4 0 c 4 -16 c 5 14 c 4 0 c 4 -1 c 5 0 c 4 1 c 5 0 c 4 6 c 4 4 c 5 0 c 4 -1 c
4 -6 c 5 -3 c 4 0 c 4 2 c 5 2 c 4 8 c 5 6 c 4 16 c 4 63 c 5 33 c 4 3 c 4 -22 c 5 -70 c 4 -30 c 5 -6 c 4 -1 c 4 -1 c 5 -2 c 4 -1 c
4 0 c 5 1 c 4 7 c 5 23 c 4 13 c 4 3 c 5 -6 c 4 -22 c 4 -4 c 5 72 c 4 113 c 5 45 c 4 -4 c 4 -91 c 5 -115 c 4 -30 c 4 -3 c 5 -1 c
4 0 c 4 0 c 5 0 c 4 -1 c 5 1 c 4 1 c 4 0 c 5 2 c 4 0 c 4 2 c 5 5 c 4 2 c 5 -2 c 4 -3 c 4 2 c 5 12 c 4 8 c 4 1 c 5 -8 c 4 -13 c
5 -6 c 4 -2 c 4 1 c 5 6 c 4 31 c 4 29 c 5 7 c 4 -6 c 5 -36 c 4 -25 c 4 -6 c 5 -2 c 4 0 c 4 0 c 5 1 c 4 1 c 4 -1 c 5 0 c 4 -1 c 5 0 c
4 0 c 4 3 c 5 6 c 4 3 c 4 -1 c 5 -4 c 4 -5 c 5 0 c 4 8 c 4 19 c 5 7 c 4 0 c 4 -9 c 5 -20 c 4 -7 c 5 -1 c 4 -1 c 4 0 c 5 0 c 4 0 c
4 0 c 5 0 c 4 1 c 5 0 c 4 1 c 4 1 c 5 0 c 4 1 c 4 1 c 5 0 c 4 0 c 4 -2 c 5 -1 c 4 -1 c 5 0 c 4 0 c 4 0 c 5 0 c 4 0 c 4 1 c 5 3 c
4 14 c 5 27 c 4 13 c 4 -3 c 5 -16 c 4 -25 c 4 -9 c 5 -2 c 4 1 c 5 4 c 4 3 c 4 0 c 5 1 c 4 3 c 4 63 c 5 157 c 4 80 c 4 6 c 5 -72 c
4 -172 c 5 -69 c 4 -5 c 4 0 c 5 0 c 4 0 c 4 0 c 5 -1 c 4 -1 c 5 0 c 4 0 c 4 0 c 5 7 c 4 7 c 4 2 c 5 -1 c 4 -6 c 5 -5 c 4 -19 c
4 70 c 5 47 c 4 9 c 4 -11 c 5 -46 c 4 -45 c 5 -9 c 4 -1 c 4 0 c 5 0 c 4 0 c 4 0 c 5 0 c 4 0 c 4 0 c 5 0 c 4 1 c 5 1 c 4 3 c 4 3 c
5 2 c 4 0 c 4 -3 c 5 -2 c 4 1 c 5 0 c 4 0 c 4 -2 c 5 -1 c 4 0 c 4 0 c 5 1 c 4 1 c 5 -1 c 4 0 c 4 -2 c 5 -2 c 4 -1 c 4 1 c 5 1 c
4 0 c 5 1 c 4 2 c 4 5 c 5 2 c 4 0 c 4 -4 c 5 -3 c 4 -2 c 4 0 c 5 1 c 4 2 c 5 2 c 4 -1 c 4 -1 c 5 -3 c 4 -1 c 4 0 c 5 -1 c 4 -1 c
5 1 c 4 0 c 4 1 c 5 1 c 4 3 c 4 2 c 5 0 c 4 -1 c 5 -3 c 4 -2 c 4 0 c 5 0 c 4 1 c 4 12 c 5 47 c 4 34 c 5 14 c 4 -7 c 4 -45 c 5 -33 c
4 -11 c 4 -2 c 5 -4 c 4 1 c 4 24 c 5 46 c 4 22 c 5 19 c 4 13 c 4 -30 c 5 -20 c 4 -23 c 4 -35 c 5 -11 c 4 -1 c 5 -3 c 4 -3 c 4 -1 c
5 -1 c 4 4 c 4 4 c 5 2 c 4 9 c 5 41 c 4 23 c 4 5 c 5 -12 c 4 -47 c 4 -26 c 5 -4 c 4 4 c 5 11 c 4 6 c 4 0 c 5 -4 c 4 -10 c 4 -5 c
5 0 c 4 -2 c 4 -2 c 5 -1 c 4 0 c 5 0 c 4 0 c 4 0 c 5 0 c 4 0 c 4 0 c 5 0 c 4 1 c 5 1 c 4 0 c 4 1 c 5 3 c 4 1 c 4 1 c 5 4 c 4 2 c
5 -1 c 4 0 c 4 -5 c 5 -6 c 4 -1 c 4 -1 c 5 0 c 4 0 c 4 2 c 5 3 c 4 2 c 5 3 c 4 3 c 4 -2 c 5 -3 c 4 -2 c 4 -3 c 5 -1 c 4 0 c 5 2 c
4 0 c 4 4 c 5 31 c 4 134 c 4 115 c 5 97 c 4 46 c 5 -125 c 4 -97 c 4 -102 c 5 -91 c 4 -12 c 4 -2 c 5 1 c 4 5 c 5 1 c 4 0 c 4 -1 c
5 -4 c 4 -2 c 4 1 c 5 2 c 4 9 c 4 14 c 5 32 c 4 79 c 5 63 c 4 16 c 4 -21 c 5 -78 c 4 -75 c 4 -9 c 5 -2 c 4 1 c 5 -7 c 4 -12 c 4 -5 c
5 -2 c 4 0 c 4 -2 c 5 -2 c 4 -2 c 5 -1 c 4 0 c 4 0 c 5 1 c 4 3 c 4 -19 c 5 19 c 4 -1 c 5 -2 c 4 -1 c 4 1 c 5 4 c 4 39 c 4 59 c
5 21 c 4 3 c 4 -36 c 5 -59 c 4 -7 c 5 -1 c 4 -2 c 4 -3 c 5 -11 c 4 -5 c 4 -1 c 5 0 c 4 2 c 5 2 c 4 1 c 4 0 c 5 -1 c 4 0 c 4 1 c
5 8 c 4 9 c 5 3 c 4 2 c 4 -6 c 5 -4 c 4 41 c 4 119 c 5 68 c 4 5 c 5 -43 c 4 -126 c 4 -53 c 5 68 c 4 183 c 4 96 c 5 8 c 4 -67 c
4 -180 c 5 -65 c 4 28 c 5 205 c 4 2055 c 4 3659 c 5 1 c 4 21 c 4 -62 c 5 -4051 c 4 -1681 c 5 -159 c 4 -27 c 4 -12 c 5 -7 c 4 -5 c
4 3 c 5 8 c 4 6 c 5 -2 c 4 -5 c 4 -4 c 5 65 c 4 365 c 4 420 c 5 121 c 4 -68 c 5 -373 c 4 -382 c 4 -101 c 5 -24 c 4 -10 c 4 -21 c
5 -22 c 4 -4 c 4 -1 c 5 0 c 4 -1 c 5 -1 c 4 -2 c 4 -1 c 5 0 c 4 0 c 4 -1 c 5 1 c 4 7 c 5 3 c 4 1 c 4 -3 c 5 -6 c 4 -1 c 4 2 c 5 1 c
4 0 c 5 -4 c 4 -2 c 4 0 c 5 0 c 4 0 c 4 1 c 5 0 c 4 0 c 4 -2 c 5 -1 c 4 3 c 5 9 c 4 5 c 4 1 c 5 -2 c 4 -9 c 4 -4 c 5 2 c 4 5 c 5 7 c
4 3 c 4 -2 c 5 -4 c 4 -5 c 4 -4 c 5 0 c 4 6 c 5 7 c 4 2 c 4 -1 c 5 -6 c 4 -8 c 4 5 c 5 39 c 4 41 c 5 6 c 4 -4 c 4 -34 c 5 -38 c
4 -7 c 4 -1 c 5 -4 c 4 -5 c 4 -2 c 5 0 c 4 -1 c 5 1 c 4 0 c 4 1 c 5 0 c 4 0 c 4 -1 c 5 1 c 4 3 c 5 2 c 4 0 c 4 -1 c 5 -4 c 4 -1 c
4 0 c 5 0 c 4 0 c 5 1 c 4 8 c 4 3 c 5 1 c 4 -2 c 4 -8 c 5 -3 c 4 -1 c 5 0 c 4 -1 c 4 0 c 5 1 c 4 -1 c 4 0 c 5 0 c 4 1 c 4 3 c 5 0 c
4 0 c 5 -1 c 4 1 c 4 26 c 5 40 c 4 6 c 4 1 c 5 -25 c 4 -39 c 5 -8 c 4 -3 c 4 -1 c 5 0 c 4 0 c 4 2 c 5 1 c 4 2 c 5 2 c 4 11 c 4 9 c
5 -1 c 4 -3 c 4 -13 c 5 -10 c 4 -1 c 5 2 c 4 1 c 4 0 c 5 -1 c 4 0 c 4 1 c 5 3 c 4 3 c 4 0 c 5 2 c 4 2 c 5 25 c 4 62 c 4 20 c 5 -4 c
4 -27 c 4 -68 c 5 -20 c 4 -1 c 5 0 c 4 0 c 4 -1 c 5 0 c 4 0 c 4 3 c 5 4 c 4 2 c 5 0 c 4 -2 c 4 -4 c 5 -1 c 4 1 c 4 4 c 5 4 c 4 1 c
5 -2 c 4 -4 c 4 -5 c 5 -1 c 4 -1 c 4 0 c 5 0 c 4 1 c 4 0 c 5 0 c 4 0 c 5 -1 c 4 -1 c 4 1 c 5 -1 c 4 1 c 4 0 c 5 0 c 4 1 c 5 1 c
4 1 c 4 0 c 5 0 c 4 3 c 4 7 c 5 33 c 4 36 c 5 1 c 4 -7 c 4 -30 c 5 -37 c 4 -6 c 4 0 c 5 -1 c 4 0 c 4 1 c 5 3 c 4 4 c 5 1 c 4 0 c
4 -4 c 5 -3 c 4 -2 c 4 0 c 5 1 c 4 -1 c 5 1 c 4 -1 c 4 0 c 5 1 c 4 0 c 4 4 c 5 29 c 4 204 c 5 214 c 4 33 c 4 -28 c 5 -194 c 4 -224 c
4 -36 c 5 -2 c 4 -1 c 5 0 c 4 -1 c 4 0 c 5 0 c 4 0 c 4 0 c 5 1 c 4 -1 c 4 1 c 5 1 c 4 4 c 5 15 c 4 5 c 4 -1 c 5 -5 c 4 -12 c 4 -2 c
5 6 c 4 6 c 5 6 c 4 -3 c 4 -5 c 5 -6 c 4 12 c 4 93 c 5 55 c 4 3 c 5 -8 c 4 -79 c 4 -23 c 5 11 c 4 -2 c 4 -9 c 5 -45 c 4 -14 c 5 -2 c
4 0 c 4 -1 c 5 2 c 4 8 c 4 20 c 5 36 c 4 7 c 4 -5 c 5 -21 c 4 -35 c 5 -11 c 4 1 c 4 2 c 5 1 c 4 0 c 4 0 c 5 0 c 4 1 c 5 2 c 4 4 c
4 17 c 5 102 c 4 249 c 4 128 c 5 18 c 4 -34 c 5 -9 c 4 546 c 4 303 c 5 8 c 4 -219 c 4 -625 c 5 -364 c 4 -81 c 5 -23 c 4 -8 c 4 3 c
5 1 c 4 -1 c 4 -2 c 5 -9 c 4 -3 c 4 -1 c 5 -2 c 4 0 c 5 -2 c 4 0 c 4 1 c 5 9 c 4 79 c 4 103 c 5 26 c 4 61 c 5 337 c 4 158 c 4 3 c
5 -53 c 4 -376 c 4 -301 c 5 -28 c 4 34 c 5 9 c 4 -3 c 4 -10 c 5 -38 c 4 -12 c 4 0 c 5 2 c 4 0 c 4 0 c 5 -2 c 4 -3 c 5 1 c 4 0 c
4 1 c 5 1 c 4 3 c 4 1 c 5 0 c 4 -1 c 5 -1 c 4 0 c 4 -1 c 5 0 c 4 -3 c 4 0 c 5 3 c 4 10 c 5 4 c 4 1 c 4 6 c 5 7 c 4 -4 c 4 0 c 5 -8 c
4 -15 c 5 -1 c 4 5 c 4 2 c 5 1 c 4 -1 c 4 -6 c 5 -2 c 4 0 c 4 -2 c 5 0 c 4 -1 c 5 1 c 4 17 c 4 25 c 5 14 c 4 10 c 4 -19 c 5 -22 c
4 -11 c 5 2 c 4 103 c 4 85 c 5 12 c 4 -5 c 4 -89 c 5 -111 c 4 -12 c 5 -1 c 4 0 c 4 0 c 5 0 c 4 0 c 4 1 c 5 1 c 4 0 c 5 0 c 4 0 c
4 -1 c 5 0 c 4 0 c 4 1 c 5 -1 c 4 1 c 4 0 c 5 1 c 4 0 c 5 0 c 4 -1 c 4 0 c 5 0 c 4 1 c 4 0 c 5 1 c 4 0 c 5 1 c 4 1 c 4 3 c 5 2 c
4 3 c 4 6 c 5 24 c 4 276 c 5 1418 c 4 944 c 4 195 c 5 -196 c 4 -1277 c 4 -1229 c 5 -136 c 4 -15 c 5 -4 c 4 -4 c 4 16 c 5 138 c
4 123 c 4 11 c 5 -10 c 4 -115 c 4 -145 c 5 -18 c 4 0 c 5 -1 c 4 -4 c 4 6 c 5 12 c 4 -2 c 4 -1 c 5 -7 c 4 -14 c 5 -2 c 4 3 c 4 1 c
5 4 c 4 6 c 4 -2 c 5 -1 c 4 -2 c 5 8 c 4 70 c 4 37 c 5 1 c 4 -9 c 4 -68 c 5 -41 c 4 1 c 5 2 c 4 0 c 4 0 c 5 14 c 4 68 c 4 24 c 5 2 c
4 -17 c 4 -67 c 5 -30 c 4 -2 c 5 -1 c 4 -2 c 4 -2 c 5 0 c 4 -1 c 4 0 c 5 0 c 4 0 c 5 0 c 4 1 c 4 1 c 5 2 c 4 1 c 4 0 c 5 2 c 4 2 c
5 2 c 4 0 c 4 0 c 5 3 c 4 0 c 4 2 c 5 -1 c 4 -1 c 4 13 c 5 178 c 4 681 c 5 257 c 4 -10 c 4 -136 c 5 -644 c 4 -311 c 4 -29 c 5 -3 c
4 0 c 5 -2 c 4 -1 c 4 6 c 5 10 c 4 0 c 4 0 c 5 -2 c 4 3 c 5 5 c 4 -1 c 4 -3 c 5 -14 c 4 -10 c 4 0 c 5 2 c 4 25 c 5 36 c 4 4 c 4 -3 c
5 -15 c 4 -34 c 4 10 c 5 12 c 4 0 c 4 -6 c 5 -14 c 4 -15 c 5 -2 c 4 0 c 4 0 c 5 3 c 4 3 c 4 0 c 5 0 c 4 -3 c 5 -4 c 4 3 c 4 6 c
5 2 c 4 0 c 4 -3 c 5 -6 c 4 -3 c 5 0 c 4 -1 c 4 0 c 5 0 c 4 0 c 4 0 c 5 1 c 4 -1 c 5 0 c 4 1 c 4 0 c 5 0 c 4 0 c 4 0 c 5 -1 c 4 0 c
4 0 c 5 2 c 4 7 c 5 2 c 4 -1 c 4 1 c 5 -5 c 4 -1 c 4 6 c 5 1 c 4 0 c 5 -2 c 4 -4 c 4 0 c 5 1 c 4 0 c 4 -1 c 5 -2 c 4 2 c 5 1 c 4 2 c
4 5 c 5 -2 c 4 1 c 4 6 c
5 0 c 4 1 c 5 -1 c 4 -6 c 4 -23 c 4 12 9549 780 l 4 0 c 5 1 c 4 3 c 4 1 c 5 0 c 4 0 c 5 -1 c 4 26 c 4 111 c 5 35 c 4 3 c 4 -8 c
5 -35 c 4 -8 c 5 0 c 4 -6 c 4 -44 c 5 -66 c 4 -8 c 4 3 c 5 8 c 4 12 c 5 0 c 4 -2 c 4 -9 c 5 -12 c 4 -4 c 4 -1 c 5 0 c 4 0 c 5 0 c
4 1 c 4 4 c 5 1 c 4 1 c 4 1 c 5 15 c 4 39 c
0 -126 3030 418 l 54 0 3030 418 l 18 -6 c 6 -6 c 6 -12 c 0 -12 c -6 -12 c -6 -6 c -18 -6 c -54 0 c 42 -66 3072 358 l
-12 -6 3180 376 l -12 -12 c -6 -18 c 0 -12 c 6 -18 c 12 -12 c 12 -6 c 18 0 c 12 6 c 12 12 c 6 18 c 0 12 c -6 18 c -12 12 c -12 6 c
-18 0 c 24 -84 3264 376 l -24 -84 3312 376 l 24 -84 3312 376 l -24 -84 3360 376 l 108 0 3402 364 l 108 0 3402 328 l 12 6 3666 394 l
18 18 c 0 -126 c 0 6 3774 388 l 6 12 c 6 6 c 12 6 c 24 0 c 12 -6 c 6 -6 c 6 -12 c 0 -12 c -6 -12 c -12 -18 c -60 -60 c 84 0 c
12 6 4290 394 l 18 18 c 0 -126 c -6 -6 4404 376 l 6 -6 c 6 6 c -6 6 c -6 -6 4404 304 l 6 -6 c 6 6 c -6 6 c -48 -126 4584 418 l
48 -126 4584 418 l 60 0 4554 334 l 0 -84 4662 376 l 6 18 4662 340 l 12 12 c 12 6 c 18 0 c -12 12 4806 358 l -12 6 c -18 0 c -12 -6 c
-12 -12 c -6 -18 c 0 -12 c 6 -18 c 12 -12 c 12 -6 c 18 0 c 12 6 c 12 12 c 108 0 4848 346 l -18 -6 5034 418 l -12 -18 c -6 -30 c
0 -18 c 6 -30 c 12 -18 c 18 -6 c 12 0 c 18 6 c 12 18 c 6 30 c 0 18 c -6 30 c -12 18 c -18 6 c -12 0 c 66 0 5130 418 l -36 -48 c
18 0 c 12 -6 c 6 -6 c 6 -18 c 0 -12 c -6 -18 c -12 -12 c -18 -6 c -18 0 c -18 6 c -6 6 c -6 12 c -59 0 5309 418 l -6 -54 c 6 6 c
17 6 c 18 0 c 18 -6 c 12 -12 c 6 -18 c 0 -12 c -6 -18 c -12 -12 c -18 -6 c -18 0 c -17 6 c -6 6 c -6 12 c -6 -6 5369 304 l 6 -6 c
6 6 c -6 6 c -12 0 5459 418 l -12 -6 c -6 -18 c 0 -102 c 42 0 5411 376 l 6 -6 5489 418 l 6 6 c -6 6 c -6 -6 c 0 -84 5495 376 l
0 -102 5549 418 l 6 -18 c 12 -6 c 12 0 c 42 0 5531 376 l -6 12 5675 358 l -18 6 c -18 0 c -18 -6 c -6 -12 c 6 -12 c 12 -6 c 30 -6 c
12 -6 c 6 -12 c 0 -6 c -6 -12 c -18 -6 c -18 0 c -18 6 c -6 12 c 0 -192 6005 442 l 0 -192 6011 442 l 42 0 6005 442 l 42 0 6005 250 l
0 6 6089 388 l 6 12 c 6 6 c 12 6 c 24 0 c 12 -6 c 6 -6 c 6 -12 c 0 -12 c -6 -12 c -12 -18 c -60 -60 c 84 0 c -6 -6 6215 376 l 6 -6 c
6 6 c -6 6 c -6 -6 6215 304 l 6 -6 c 6 6 c -6 6 c -48 -126 6395 418 l 48 -126 6395 418 l 60 0 6365 334 l 0 -84 6473 376 l
6 18 6473 340 l 12 12 c 12 6 c 18 0 c -12 12 6617 358 l -12 6 c -18 0 c -12 -6 c -12 -12 c -6 -18 c 0 -12 c 6 -18 c 12 -12 c 12 -6 c
18 0 c 12 6 c 12 12 c 108 0 6659 346 l -18 -6 6845 418 l -12 -18 c -6 -30 c 0 -18 c 6 -30 c 12 -18 c 18 -6 c 12 0 c 18 6 c 12 18 c
6 30 c 0 18 c -6 30 c -12 18 c -18 6 c -12 0 c 66 0 6941 418 l -36 -48 c 18 0 c 12 -6 c 6 -6 c 6 -18 c 0 -12 c -6 -18 c -12 -12 c
-18 -6 c -18 0 c -18 6 c -6 6 c -6 12 c -6 12 7127 400 l -18 6 c -12 0 c -18 -6 c -12 -18 c -6 -30 c 0 -30 c 6 -24 c 12 -12 c
18 -6 c 6 0 c 18 6 c 12 12 c 6 18 c 0 6 c -6 18 c -12 12 c -18 6 c -6 0 c -18 -6 c -12 -12 c -6 -18 c -6 -6 7181 304 l 6 -6 c 6 6 c
-6 6 c -12 0 7271 418 l -12 -6 c -6 -18 c 0 -102 c 42 0 7223 376 l 6 -6 7301 418 l 6 6 c -6 6 c -6 -6 c 0 -84 7307 376 l
0 -102 7361 418 l 6 -18 c 12 -6 c 12 0 c 42 0 7343 376 l -6 12 7487 358 l -18 6 c -18 0 c -18 -6 c -6 -12 c 6 -12 c 12 -6 c 30 -6 c
12 -6 c 6 -12 c 0 -6 c -6 -12 c -18 -6 c -18 0 c -18 6 c -6 12 c 0 -192 7559 442 l 0 -192 7565 442 l 42 0 7523 442 l 42 0 7523 250 l
0 -249 927 1343 l 53 -38 883 1453 l 0 57 c 80 0 883 1453 l -4 0 902 1494 l -7 4 c -4 4 c -4 8 c 0 15 c 4 7 c 4 4 c 7 4 c 8 0 c
8 -4 c 11 -7 c 38 -38 c 0 53 c 0 -38 883 1612 l 34 -4 c -3 4 c -4 11 c 0 12 c 4 11 c 7 7 c 11 4 c 8 0 c 11 -4 c 8 -7 c 4 -11 c
0 -12 c -4 -11 c -4 -4 c -7 -4 c 4 -12 883 1661 l 8 -3 c 7 0 c 8 3 c 4 8 c 3 15 c 4 11 c 8 8 c 7 4 c 12 0 c 7 -4 c 4 -4 c 4 -11 c
0 -15 c -4 -12 c -4 -3 c -7 -4 c -12 0 c -7 4 c -8 7 c -4 12 c -3 15 c -4 7 c -8 4 c -7 0 c -8 -4 c -4 -11 c 0 -15 c 4 -4 955 1725 l
4 4 c -4 4 c -4 -4 c 0 -38 883 1801 l 34 -4 c -3 4 c -4 11 c 0 12 c 4 11 c 7 7 c 11 4 c 8 0 c 11 -4 c 8 -7 c 4 -11 c 0 -12 c
-4 -11 c -4 -4 c -7 -4 c -4 0 902 1835 l -7 3 c -4 4 c -4 8 c 0 15 c 4 7 c 4 4 c 7 4 c 8 0 c 8 -4 c 11 -7 c 38 -38 c 0 53 c
4 -11 883 1929 l 11 -8 c 19 -4 c 12 0 c 19 4 c 11 8 c 4 11 c 0 8 c -4 11 c -11 8 c -19 3 c -12 0 c -19 -3 c -11 -8 c -4 -11 c 0 -8 c
0 -249 1042 7019 l 53 -38 999 7129 l 0 57 c 79 0 999 7129 l -4 0 1018 7170 l -8 4 c -4 4 c -3 7 c 0 16 c 3 7 c 4 4 c 8 4 c 7 0 c
8 -4 c 11 -8 c 38 -37 c 0 52 c 0 -37 999 7287 l 34 -4 c -4 4 c -4 11 c 0 11 c 4 12 c 7 7 c 12 4 c 7 0 c 12 -4 c 7 -7 c 4 -12 c
0 -11 c -4 -11 c -3 -4 c -8 -4 c 11 -4 1025 7367 l 8 -8 c 4 -11 c 0 -4 c -4 -11 c -8 -8 c -11 -3 c -4 0 c -11 3 c -8 8 c -3 11 c
0 4 c 3 11 c 8 8 c 15 4 c 19 0 c 19 -4 c 11 -8 c 4 -11 c 0 -7 c -4 -12 c -7 -4 c 3 -4 1071 7401 l 4 4 c -4 4 c -3 -4 c
0 41 999 7439 l 30 -22 c 0 11 c 4 7 c 3 4 c 12 4 c 7 0 c 12 -4 c 7 -7 c 4 -12 c 0 -11 c -4 -11 c -3 -4 c -8 -4 c -8 -4 1010 7556 l
-3 -11 c 0 -8 c 3 -11 c 12 -8 c 19 -4 c 19 0 c 15 4 c 7 8 c 4 11 c 0 4 c -4 11 c -7 8 c -12 4 c -3 0 c -12 -4 c -7 -8 c -4 -11 c
0 -4 c 4 -11 c 7 -8 c 12 -4 c -4 0 1018 7586 l -8 4 c -4 4 c -3 7 c 0 15 c 3 8 c 4 4 c 8 3 c 7 0 c 8 -3 c 11 -8 c 38 -38 c 0 53 c
0 -249 1175 1332 l 53 -38 1131 1442 l 0 57 c 80 0 1131 1442 l -3 0 1150 1483 l -8 4 c -4 4 c -4 7 c 0 15 c 4 8 c 4 4 c 8 4 c 7 0 c
8 -4 c 11 -8 c 38 -38 c 0 53 c -8 -4 1143 1604 l -4 -11 c 0 -7 c 4 -12 c 12 -7 c 18 -4 c 19 0 c 15 4 c 8 7 c 4 12 c 0 3 c -4 12 c
-8 7 c -11 4 c -4 0 c -11 -4 c -8 -7 c -3 -12 c 0 -3 c 3 -12 c 8 -7 c 11 -4 c 4 -11 1131 1653 l 12 -8 c 18 -3 c 12 0 c 19 3 c 11 8 c
4 11 c 0 8 c -4 11 c -11 8 c -19 4 c -12 0 c -18 -4 c -12 -8 c -4 -11 c 0 -8 c 4 -4 1203 1714 l 4 4 c -4 4 c -4 -4 c
0 41 1131 1752 l 31 -23 c 0 12 c 3 7 c 4 4 c 12 4 c 7 0 c 11 -4 c 8 -7 c 4 -12 c 0 -11 c -4 -11 c -4 -4 c -7 -4 c 0 42 1131 1827 l
31 -23 c 0 11 c 3 8 c 4 4 c 12 4 c 7 0 c 11 -4 c 8 -8 c 4 -11 c 0 -11 c -4 -12 c -4 -4 c -7 -3 c 0 41 1131 1903 l 31 -22 c 0 11 c
3 8 c 4 3 c 12 4 c 7 0 c 11 -4 c 8 -7 c 4 -12 c 0 -11 c -4 -11 c -4 -4 c -7 -4 c 0 -250 1590 1399 l 53 -38 1546 1509 l 0 57 c
80 0 1546 1509 l -4 0 1565 1550 l -7 4 c -4 4 c -4 7 c 0 15 c 4 8 c 4 4 c 7 4 c 8 0 c 8 -4 c 11 -8 c 38 -38 c 0 53 c
-8 -4 1558 1671 l -4 -11 c 0 -8 c 4 -11 c 11 -7 c 19 -4 c 19 0 c 15 4 c 8 7 c 4 11 c 0 4 c -4 12 c -8 7 c -11 4 c -4 0 c -11 -4 c
-8 -7 c -3 -12 c 0 -4 c 3 -11 c 8 -7 c 11 -4 c 0 42 1546 1705 l 31 -23 c 0 11 c 3 8 c 4 4 c 11 4 c 8 0 c 11 -4 c 8 -8 c 4 -11 c
0 -11 c -4 -12 c -4 -4 c -7 -3 c 4 -4 1618 1781 l 4 4 c -4 4 c -4 -4 c 0 41 1546 1819 l 31 -23 c 0 12 c 3 7 c 4 4 c 11 4 c 8 0 c
11 -4 c 8 -7 c 4 -12 c 0 -11 c -4 -11 c -4 -4 c -7 -4 c 0 -38 1546 1932 l 34 -4 c -3 4 c -4 12 c 0 11 c 4 11 c 7 8 c 11 4 c 8 0 c
11 -4 c 8 -8 c 4 -11 c 0 -11 c -4 -12 c -4 -4 c -7 -3 c -8 -3 1558 2011 l -4 -12 c 0 -7 c 4 -12 c 11 -7 c 19 -4 c 19 0 c 15 4 c
8 7 c 4 12 c 0 3 c -4 12 c -8 7 c -11 4 c -4 0 c -11 -4 c -8 -7 c -3 -12 c 0 -3 c 3 -12 c 8 -7 c 11 -4 c 0 -249 1727 1260 l
53 -38 1683 1370 l 0 57 c 79 0 1683 1370 l -4 0 1702 1411 l -7 4 c -4 4 c -4 8 c 0 15 c 4 7 c 4 4 c 7 4 c 8 0 c 7 -4 c 12 -7 c
37 -38 c 0 53 c -7 -3 1694 1532 l -4 -12 c 0 -7 c 4 -12 c 11 -7 c 19 -4 c 19 0 c 15 4 c 8 7 c 3 12 c 0 4 c -3 11 c -8 7 c -11 4 c
-4 0 c -11 -4 c -8 -7 c -4 -11 c 0 -4 c 4 -12 c 8 -7 c 11 -4 c 53 -38 1683 1597 l 0 57 c 79 0 1683 1597 l 4 -4 1755 1642 l 3 4 c
-3 4 c -4 -4 c 0 41 1683 1680 l 30 -22 c 0 11 c 4 8 c 4 3 c 11 4 c 8 0 c 11 -4 c 8 -7 c 3 -11 c 0 -12 c -3 -11 c -4 -4 c -8 -4 c
53 -38 1683 1786 l 0 57 c 79 0 1683 1786 l 4 -11 1683 1846 l 11 -8 c 19 -4 c 11 0 c 19 4 c 12 8 c 3 11 c 0 8 c -3 11 c -12 8 c
-19 3 c -11 0 c -19 -3 c -11 -8 c -4 -11 c 0 -8 c 0 -250 2164 1308 l 53 -38 2120 1418 l 0 56 c 80 0 2120 1418 l -4 0 2139 1459 l
-7 4 c -4 4 c -4 7 c 0 15 c 4 8 c 4 4 c 7 4 c 8 0 c 8 -4 c 11 -8 c 38 -38 c 0 53 c -8 -4 2132 1580 l -4 -11 c 0 -8 c 4 -11 c 11 -7 c
19 -4 c 19 0 c 15 4 c 8 7 c 4 11 c 0 4 c -4 12 c -8 7 c -11 4 c -4 0 c -11 -4 c -8 -7 c -3 -12 c 0 -4 c 3 -11 c 8 -7 c 11 -4 c
80 -37 2120 1659 l 0 52 2120 1607 l 4 -4 2192 1690 l 4 4 c -4 3 c -4 -3 c 0 -37 2120 1765 l 34 -4 c -3 4 c -4 11 c 0 11 c 4 12 c
7 7 c 11 4 c 8 0 c 11 -4 c 8 -7 c 4 -12 c 0 -11 c -4 -11 c -4 -4 c -7 -4 c -3 7 2135 1807 l -12 12 c 80 0 c 11 -4 2147 1920 l 8 -7 c
3 -11 c 0 -4 c -3 -12 c -8 -7 c -11 -4 c -4 0 c -11 4 c -8 7 c -4 12 c 0 4 c 4 11 c 8 7 c 15 4 c 19 0 c 19 -4 c 11 -7 c 4 -11 c
0 -8 c -4 -11 c -8 -4 c 0 -249 2379 1245 l 53 -38 2335 1355 l 0 57 c 79 0 2335 1355 l -4 0 2354 1397 l -7 3 c -4 4 c -4 8 c 0 15 c
4 7 c 4 4 c 7 4 c 8 0 c 7 -4 c 12 -7 c 37 -38 c 0 53 c -7 -4 2346 1518 l -4 -12 c 0 -7 c 4 -11 c 11 -8 c 19 -4 c 19 0 c 15 4 c 8 8 c
3 11 c 0 4 c -3 11 c -8 8 c -11 3 c -4 0 c -11 -3 c -8 -8 c -4 -11 c 0 -4 c 4 -11 c 8 -8 c 11 -4 c 11 -4 2362 1593 l 7 -7 c 4 -11 c
0 -4 c -4 -12 c -7 -7 c -11 -4 c -4 0 c -12 4 c -7 7 c -4 12 c 0 4 c 4 11 c 7 7 c 16 4 c 18 0 c 19 -4 c 12 -7 c 3 -11 c 0 -8 c
-3 -11 c -8 -4 c 4 -4 2407 1627 l 3 4 c -3 4 c -4 -4 c 4 -11 2335 1680 l 11 -8 c 19 -4 c 11 0 c 19 4 c 12 8 c 3 11 c 0 8 c -3 11 c
-12 8 c -19 3 c -11 0 c -19 -3 c -11 -8 c -4 -11 c 0 -8 c -7 -4 2346 1782 l -4 -11 c 0 -8 c 4 -11 c 11 -7 c 19 -4 c 19 0 c 15 4 c
8 7 c 3 11 c 0 4 c -3 12 c -8 7 c -11 4 c -4 0 c -11 -4 c -8 -7 c -4 -12 c 0 -4 c 4 -11 c 8 -7 c 11 -4 c 53 -37 2335 1846 l 0 56 c
79 0 2335 1846 l 0 -250 2501 1314 l 53 -38 2457 1423 l 0 57 c 80 0 2457 1423 l -4 0 2476 1465 l -7 3 c -4 4 c -4 8 c 0 15 c 4 7 c
4 4 c 7 4 c 8 0 c 7 -4 c 12 -7 c 38 -38 c 0 53 c -8 -4 2469 1586 l -4 -11 c 0 -8 c 4 -11 c 11 -8 c 19 -4 c 19 0 c 15 4 c 8 8 c
4 11 c 0 4 c -4 11 c -8 8 c -11 3 c -4 0 c -11 -3 c -8 -8 c -4 -11 c 0 -4 c 4 -11 c 8 -8 c 11 -4 c 11 -4 2484 1661 l 8 -7 c 3 -11 c
0 -4 c -3 -12 c -8 -7 c -11 -4 c -4 0 c -11 4 c -8 7 c -4 12 c 0 4 c 4 11 c 8 7 c 15 4 c 19 0 c 18 -4 c 12 -7 c 4 -11 c 0 -8 c
-4 -11 c -8 -4 c 4 -4 2529 1695 l 4 4 c -4 4 c -4 -4 c 11 -4 2484 1775 l 8 -8 c 3 -11 c 0 -4 c -3 -11 c -8 -8 c -11 -4 c -4 0 c
-11 4 c -8 8 c -4 11 c 0 4 c 4 11 c 8 8 c 15 4 c 19 0 c 18 -4 c 12 -8 c 4 -11 c 0 -8 c -4 -11 c -8 -4 c 53 -38 2457 1839 l 0 57 c
80 0 2457 1839 l 0 42 2457 1884 l 30 -23 c 0 11 c 4 8 c 4 4 c 11 4 c 8 0 c 11 -4 c 8 -8 c 4 -11 c 0 -11 c -4 -12 c -4 -4 c -8 -3 c
0 -249 2812 7019 l 53 -38 2768 7129 l 0 57 c 80 0 2768 7129 l -4 0 2787 7170 l -7 4 c -4 4 c -4 7 c 0 16 c 4 7 c 4 4 c 7 4 c 8 0 c
7 -4 c 12 -8 c 38 -37 c 0 52 c 80 -38 2768 7295 l 0 53 2768 7242 l -4 0 2787 7321 l -7 4 c -4 4 c -4 8 c 0 15 c 4 7 c 4 4 c 7 4 c
8 0 c 7 -4 c 12 -8 c 38 -37 c 0 53 c 4 -4 2840 7401 l 4 4 c -4 4 c -4 -4 c -3 8 2783 7442 l -12 11 c 80 0 c -8 -4 2780 7556 l
-4 -11 c 0 -8 c 4 -11 c 11 -8 c 19 -4 c 19 0 c 15 4 c 8 8 c 4 11 c 0 4 c -4 11 c -8 8 c -11 4 c -4 0 c -11 -4 c -8 -8 c -4 -11 c
0 -4 c 4 -11 c 8 -8 c 11 -4 c 11 -3 2795 7631 l 8 -8 c 3 -11 c 0 -4 c -3 -11 c -8 -8 c -11 -4 c -4 0 c -11 4 c -8 8 c -4 11 c 0 4 c
4 11 c 8 8 c 15 3 c 19 0 c 18 -3 c 12 -8 c 4 -11 c 0 -8 c -4 -11 c -8 -4 c 0 -250 2910 1391 l 53 -38 2867 1500 l 0 57 c
79 0 2867 1500 l -3 0 2885 1542 l -8 4 c -4 3 c -3 8 c 0 15 c 3 8 c 4 3 c 8 4 c 7 0 c 8 -4 c 11 -7 c 38 -38 c 0 53 c
79 -38 2867 1667 l 0 53 2867 1614 l -3 0 2885 1693 l -8 4 c -4 4 c -3 7 c 0 15 c 3 8 c 4 4 c 8 3 c 7 0 c 8 -3 c 11 -8 c 38 -38 c
0 53 c 4 -3 2938 1772 l 4 3 c -4 4 c -4 -4 c 3 -12 2867 1822 l 8 -4 c 7 0 c 8 4 c 4 8 c 4 15 c 3 11 c 8 8 c 8 4 c 11 0 c 7 -4 c
4 -4 c 4 -11 c 0 -15 c -4 -12 c -4 -4 c -7 -3 c -11 0 c -8 3 c -8 8 c -3 11 c -4 15 c -4 8 c -8 4 c -7 0 c -8 -4 c -3 -11 c 0 -15 c
79 -38 2867 1931 l 0 53 2867 1878 l 53 -38 2867 1992 l 0 56 c 79 0 2867 1992 l 0 -250 2978 4536 l 53 -38 2934 4645 l 0 57 c
80 0 2934 4645 l -4 0 2953 4687 l -7 4 c -4 3 c -4 8 c 0 15 c 4 8 c 4 3 c 7 4 c 8 0 c 8 -4 c 11 -7 c 38 -38 c 0 53 c
80 -38 2934 4812 l 0 53 2934 4759 l 0 41 2934 4842 l 31 -22 c 0 11 c 3 8 c 4 3 c 11 4 c 8 0 c 11 -4 c 8 -7 c 4 -12 c 0 -11 c
-4 -11 c -4 -4 c -7 -4 c 4 -3 3006 4917 l 4 3 c -4 4 c -4 -4 c 0 42 2934 4955 l 31 -23 c 0 11 c 3 8 c 4 4 c 11 3 c 8 0 c 11 -3 c
8 -8 c 4 -11 c 0 -12 c -4 -11 c -4 -4 c -7 -3 c 0 -38 2934 5069 l 34 -4 c -3 4 c -4 11 c 0 11 c 4 12 c 7 7 c 11 4 c 8 0 c 11 -4 c
8 -7 c 4 -12 c 0 -11 c -4 -11 c -4 -4 c -7 -4 c 80 -38 2934 5152 l 0 53 2934 5099 l 0 -249 3231 1506 l 52 -38 3188 1616 l 0 57 c
79 0 3188 1616 l -3 0 3206 1657 l -8 4 c -4 4 c -3 7 c 0 16 c 3 7 c 4 4 c 8 4 c 7 0 c 8 -4 c 11 -8 c 38 -38 c 0 53 c
79 -38 3188 1782 l 0 53 3188 1729 l 0 -38 3188 1850 l 34 -4 c -4 4 c -4 12 c 0 11 c 4 11 c 7 8 c 12 4 c 7 0 c 12 -4 c 7 -8 c 4 -11 c
0 -11 c -4 -12 c -4 -4 c -7 -3 c 4 -4 3259 1888 l 4 4 c -4 4 c -4 -4 c -4 8 3203 1929 l -11 11 c 79 0 c -8 -4 3199 2043 l -3 -11 c
0 -8 c 3 -11 c 12 -8 c 19 -4 c 18 0 c 16 4 c 7 8 c 4 11 c 0 4 c -4 11 c -7 8 c -12 4 c -4 0 c -11 -4 c -7 -8 c -4 -11 c 0 -4 c
4 -11 c 7 -8 c 11 -4 c 3 -11 3188 2092 l 12 -8 c 19 -4 c 11 0 c 19 4 c 11 8 c 4 11 c 0 7 c -4 12 c -11 7 c -19 4 c -11 0 c -19 -4 c
-12 -7 c -3 -12 c 0 -7 c 0 -249 3564 7019 l 53 -38 3521 7129 l 0 57 c 79 0 3521 7129 l -4 0 3540 7170 l -8 4 c -3 4 c -4 7 c 0 16 c
4 7 c 3 4 c 8 4 c 7 0 c 8 -4 c 11 -8 c 38 -37 c 0 52 c 79 -38 3521 7295 l 0 53 3521 7242 l 79 -38 3521 7371 l 0 53 3521 7318 l
3 -4 3593 7401 l 4 4 c -4 4 c -3 -4 c 0 -37 3521 7476 l 34 -4 c -4 4 c -4 11 c 0 11 c 4 12 c 8 7 c 11 4 c 7 0 c 12 -4 c 7 -7 c
4 -12 c 0 -11 c -4 -11 c -3 -4 c -8 -4 c -4 0 3540 7510 l -8 4 c -3 4 c -4 8 c 0 15 c 4 7 c 3 4 c 8 4 c 7 0 c 8 -4 c 11 -8 c
38 -37 c 0 53 c 4 -11 3521 7601 l 7 -4 c 8 0 c 7 4 c 4 7 c 4 15 c 4 12 c 7 7 c 8 4 c 11 0 c 8 -4 c 3 -3 c 4 -12 c 0 -15 c -4 -11 c
-3 -4 c -8 -4 c -11 0 c -8 4 c -7 8 c -4 11 c -4 15 c -4 8 c -7 3 c -8 0 c -7 -3 c -4 -12 c 0 -15 c 0 -250 3677 1390 l
53 -38 3633 1499 l 0 57 c 80 0 3633 1499 l -3 0 3652 1541 l -8 4 c -4 3 c -4 8 c 0 15 c 4 8 c 4 3 c 8 4 c 7 0 c 8 -4 c 11 -7 c
38 -38 c 0 53 c 80 -38 3633 1666 l 0 53 3633 1613 l 4 -11 3633 1707 l 8 -4 c 7 0 c 8 4 c 4 7 c 3 15 c 4 12 c 8 7 c 7 4 c 12 0 c
7 -4 c 4 -3 c 4 -12 c 0 -15 c -4 -11 c -4 -4 c -7 -4 c -12 0 c -7 4 c -8 8 c -4 11 c -3 15 c -4 8 c -8 3 c -7 0 c -8 -3 c -4 -12 c
0 -15 c 4 -3 3705 1771 l 4 3 c -4 4 c -4 -4 c 0 42 3633 1809 l 31 -23 c 0 11 c 3 8 c 4 4 c 12 4 c 7 0 c 11 -4 c 8 -8 c 4 -11 c
0 -11 c -4 -12 c -4 -4 c -7 -3 c -3 0 3652 1881 l -8 4 c -4 4 c -4 7 c 0 15 c 4 8 c 4 4 c 8 3 c 7 0 c 8 -3 c 11 -8 c 38 -38 c 0 53 c
0 42 3633 1960 l 31 -23 c 0 12 c 3 7 c 4 4 c 12 4 c 7 0 c 11 -4 c 8 -8 c 4 -11 c 0 -11 c -4 -12 c -4 -3 c -7 -4 c 0 -250 3995 1503 l
53 -37 3952 1612 l 0 56 c 79 0 3952 1612 l -4 0 3971 1654 l -8 4 c -4 4 c -3 7 c 0 15 c 3 8 c 4 4 c 8 3 c 7 0 c 8 -3 c 11 -8 c
38 -38 c 0 53 c 3 -12 3952 1745 l 8 -3 c 8 0 c 7 3 c 4 8 c 4 15 c 3 11 c 8 8 c 8 4 c 11 0 c 8 -4 c 3 -4 c 4 -11 c 0 -15 c -4 -12 c
-3 -3 c -8 -4 c -11 0 c -8 4 c -8 7 c -3 11 c -4 16 c -4 7 c -7 4 c -8 0 c -8 -4 c -3 -11 c 0 -15 c 3 -11 3952 1824 l 12 -8 c
19 -4 c 11 0 c 19 4 c 11 8 c 4 11 c 0 8 c -4 11 c -11 7 c -19 4 c -11 0 c -19 -4 c -12 -7 c -3 -11 c 0 -8 c 3 -3 4024 1884 l 4 3 c
-4 4 c -3 -4 c 0 -38 3952 1960 l 34 -3 c -4 3 c -4 12 c 0 11 c 4 11 c 7 8 c 12 4 c 7 0 c 12 -4 c 7 -8 c 4 -11 c 0 -11 c -4 -12 c
-3 -3 c -8 -4 c -8 -3 3963 2039 l -3 -12 c 0 -7 c 3 -12 c 12 -7 c 19 -4 c 19 0 c 15 4 c 7 7 c 4 12 c 0 4 c -4 11 c -7 7 c -12 4 c
-3 0 c -12 -4 c -7 -7 c -4 -11 c 0 -4 c 4 -12 c 7 -7 c 12 -4 c 3 -12 3952 2085 l 8 -3 c 8 0 c 7 3 c 4 8 c 4 15 c 3 11 c 8 8 c 8 4 c
11 0 c 8 -4 c 3 -4 c 4 -11 c 0 -15 c -4 -12 c -3 -3 c -8 -4 c -11 0 c -8 4 c -8 7 c -3 12 c -4 15 c -4 7 c -7 4 c -8 0 c -8 -4 c
-3 -11 c 0 -15 c 0 -249 4205 7019 l 53 -38 4161 7129 l 0 57 c 80 0 4161 7129 l -3 0 4180 7170 l -8 4 c -4 4 c -4 7 c 0 16 c 4 7 c
4 4 c 8 4 c 7 0 c 8 -4 c 11 -8 c 38 -37 c 0 52 c 4 -11 4161 7261 l 8 -4 c 7 0 c 8 4 c 4 7 c 3 15 c 4 12 c 8 7 c 7 4 c 12 0 c 7 -4 c
4 -4 c 4 -11 c 0 -15 c -4 -11 c -4 -4 c -7 -4 c -12 0 c -7 4 c -8 7 c -4 12 c -3 15 c -4 7 c -8 4 c -7 0 c -8 -4 c -4 -11 c 0 -15 c
-3 0 4180 7321 l -8 4 c -4 4 c -4 8 c 0 15 c 4 7 c 4 4 c 8 4 c 7 0 c 8 -4 c 11 -8 c 38 -37 c 0 53 c 4 -4 4233 7401 l 4 4 c -4 4 c
-4 -4 c 4 -12 4161 7454 l 12 -7 c 18 -4 c 12 0 c 19 4 c 11 7 c 4 12 c 0 7 c -4 12 c -11 7 c -19 4 c -12 0 c -18 -4 c -12 -7 c
-4 -12 c 0 -7 c 53 -37 4161 7544 l 0 56 c 80 0 4161 7544 l -4 7 4177 7594 l -12 11 c 80 0 c 0 -249 4803 1408 l 53 -38 4760 1518 l
0 57 c 79 0 4760 1518 l -4 0 4779 1559 l -8 4 c -4 4 c -3 8 c 0 15 c 3 7 c 4 4 c 8 4 c 7 0 c 8 -4 c 11 -8 c 38 -37 c 0 53 c
3 -11 4760 1650 l 8 -4 c 8 0 c 7 4 c 4 7 c 4 15 c 3 12 c 8 7 c 8 4 c 11 0 c 7 -4 c 4 -3 c 4 -12 c 0 -15 c -4 -11 c -4 -4 c -7 -4 c
-11 0 c -8 4 c -8 8 c -3 11 c -4 15 c -4 8 c -7 3 c -8 0 c -8 -3 c -3 -12 c 0 -15 c -8 -4 4771 1756 l -3 -11 c 0 -8 c 3 -11 c
12 -8 c 19 -3 c 19 0 c 15 3 c 7 8 c 4 11 c 0 4 c -4 11 c -7 8 c -12 4 c -3 0 c -12 -4 c -7 -8 c -4 -11 c 0 -4 c 4 -11 c 7 -8 c
12 -3 c 4 -4 4831 1790 l 4 4 c -4 4 c -4 -4 c -4 0 4779 1824 l -8 4 c -4 4 c -3 7 c 0 15 c 3 8 c 4 4 c 8 3 c 7 0 c 8 -3 c 11 -8 c
38 -38 c 0 53 c -4 0 4779 1900 l -8 3 c -4 4 c -3 8 c 0 15 c 3 7 c 4 4 c 8 4 c 7 0 c 8 -4 c 11 -7 c 38 -38 c 0 53 c
11 -4 4786 2021 l 8 -8 c 4 -11 c 0 -4 c -4 -11 c -8 -8 c -11 -4 c -4 0 c -11 4 c -8 8 c -3 11 c 0 4 c 3 11 c 8 8 c 15 4 c 19 0 c
19 -4 c 11 -8 c 4 -11 c 0 -8 c -4 -11 c -7 -4 c 0 -250 5157 1476 l 53 -38 5113 1586 l 0 57 c 79 0 5113 1586 l -4 0 5132 1627 l
-7 4 c -4 4 c -4 7 c 0 15 c 4 8 c 4 4 c 7 4 c 8 0 c 7 -4 c 12 -8 c 37 -38 c 0 53 c 4 -11 5113 1718 l 7 -4 c 8 0 c 8 4 c 3 7 c 4 15 c
4 12 c 7 7 c 8 4 c 11 0 c 8 -4 c 4 -4 c 3 -11 c 0 -15 c -3 -11 c -4 -4 c -8 -4 c -11 0 c -8 4 c -7 7 c -4 12 c -4 15 c -3 7 c -8 4 c
-8 0 c -7 -4 c -4 -11 c 0 -15 c 4 -11 5113 1793 l 7 -4 c 8 0 c 8 4 c 3 8 c 4 15 c 4 11 c 7 8 c 8 3 c 11 0 c 8 -3 c 4 -4 c 3 -11 c
0 -16 c -3 -11 c -4 -4 c -8 -3 c -11 0 c -8 3 c -7 8 c -4 11 c -4 15 c -3 8 c -8 4 c -8 0 c -7 -4 c -4 -11 c 0 -16 c
4 -4 5185 1858 l 3 4 c -3 4 c -4 -4 c -7 -4 5124 1937 l -4 -11 c 0 -8 c 4 -11 c 11 -7 c 19 -4 c 19 0 c 15 4 c 8 7 c 3 11 c 0 4 c
-3 12 c -8 7 c -11 4 c -4 0 c -11 -4 c -8 -7 c -4 -12 c 0 -4 c 4 -11 c 8 -7 c 11 -4 c -7 -4 5124 2013 l -4 -11 c 0 -8 c 4 -11 c
11 -8 c 19 -4 c 19 0 c 15 4 c 8 8 c 3 11 c 0 4 c -3 11 c -8 8 c -11 3 c -4 0 c -11 -3 c -8 -8 c -4 -11 c 0 -4 c 4 -11 c 8 -8 c
11 -4 c 11 -3 5140 2088 l 7 -8 c 4 -11 c 0 -4 c -4 -12 c -7 -7 c -11 -4 c -4 0 c -12 4 c -7 7 c -4 12 c 0 4 c 4 11 c 7 8 c 16 3 c
18 0 c 19 -3 c 12 -8 c 3 -11 c 0 -8 c -3 -11 c -8 -4 c 0 -250 5612 1552 l 53 -37 5569 1661 l 0 56 c 79 0 5569 1661 l
-4 0 5588 1703 l -8 4 c -3 4 c -4 7 c 0 15 c 4 8 c 3 4 c 8 3 c 8 0 c 7 -3 c 11 -8 c 38 -38 c 0 53 c 12 -4 5595 1824 l 7 -7 c 4 -12 c
0 -3 c -4 -12 c -7 -7 c -12 -4 c -3 0 c -12 4 c -7 7 c -4 12 c 0 3 c 4 12 c 7 7 c 15 4 c 19 0 c 19 -4 c 11 -7 c 4 -12 c 0 -7 c
-4 -12 c -7 -3 c -4 7 5584 1862 l -11 12 c 79 0 c 3 -4 5641 1934 l 4 4 c -4 3 c -3 -3 c 4 -12 5569 1983 l 7 -3 c 8 0 c 7 3 c 4 8 c
4 15 c 4 11 c 7 8 c 8 4 c 11 0 c 8 -4 c 3 -4 c 4 -11 c 0 -15 c -4 -12 c -3 -3 c -8 -4 c -11 0 c -8 4 c -7 7 c -4 12 c -4 15 c -4 7 c
-7 4 c -8 0 c -7 -4 c -4 -11 c 0 -15 c -4 7 5584 2051 l -11 12 c 79 0 c 4 -12 5569 2138 l 11 -7 c 19 -4 c 11 0 c 19 4 c 11 7 c
4 12 c 0 7 c -4 12 c -11 7 c -19 4 c -11 0 c -19 -4 c -11 -7 c -4 -12 c 0 -7 c 0 -250 6164 1323 l 53 -38 6120 1433 l 0 56 c
80 0 6120 1433 l -4 0 6139 1474 l -7 4 c -4 4 c -4 7 c 0 15 c 4 8 c 4 4 c 7 4 c 8 0 c 8 -4 c 11 -8 c 38 -38 c 0 53 c
11 -4 6147 1595 l 8 -7 c 3 -12 c 0 -3 c -3 -12 c -8 -7 c -11 -4 c -4 0 c -11 4 c -8 7 c -4 12 c 0 3 c 4 12 c 8 7 c 15 4 c 19 0 c
19 -4 c 11 -7 c 4 -12 c 0 -7 c -4 -11 c -8 -4 c 0 -38 6120 1667 l 34 -4 c -3 4 c -4 11 c 0 12 c 4 11 c 7 8 c 11 3 c 8 0 c 11 -3 c
8 -8 c 4 -11 c 0 -12 c -4 -11 c -4 -4 c -7 -3 c 4 -4 6192 1705 l 4 4 c -4 3 c -4 -3 c 0 -37 6120 1780 l 34 -4 c -3 4 c -4 11 c
0 11 c 4 12 c 7 7 c 11 4 c 8 0 c 11 -4 c 8 -7 c 4 -12 c 0 -11 c -4 -11 c -4 -4 c -7 -4 c 4 -11 6120 1829 l 8 -4 c 7 0 c 8 4 c 4 8 c
3 15 c 4 11 c 8 8 c 7 3 c 12 0 c 7 -3 c 4 -4 c 4 -11 c 0 -16 c -4 -11 c -4 -4 c -7 -3 c -12 0 c -7 3 c -8 8 c -4 11 c -3 15 c -4 8 c
-8 4 c -7 0 c -8 -4 c -4 -11 c 0 -16 c 0 -37 6120 1931 l 34 -4 c -3 4 c -4 11 c 0 11 c 4 12 c 7 7 c 11 4 c 8 0 c 11 -4 c 8 -7 c
4 -12 c 0 -11 c -4 -11 c -4 -4 c -7 -4 c 0 -249 6422 1662 l 53 -38 6378 1772 l 0 57 c 80 0 6378 1772 l -4 0 6397 1813 l -7 4 c
-4 4 c -4 7 c 0 16 c 4 7 c 4 4 c 7 4 c 8 0 c 7 -4 c 12 -8 c 38 -37 c 0 53 c 11 -3 6405 1934 l 8 -8 c 3 -11 c 0 -4 c -3 -11 c -8 -8 c
-11 -4 c -4 0 c -11 4 c -8 8 c -4 11 c 0 4 c 4 11 c 8 8 c 15 3 c 19 0 c 18 -3 c 12 -8 c 4 -11 c 0 -8 c -4 -11 c -8 -4 c
80 -38 6378 2014 l 0 53 6378 1961 l 4 -4 6450 2044 l 4 4 c -4 4 c -4 -4 c 0 41 6378 2082 l 30 -22 c 0 11 c 4 8 c 4 3 c 11 4 c 8 0 c
11 -4 c 8 -7 c 4 -12 c 0 -11 c -4 -11 c -4 -4 c -8 -4 c 4 -11 6378 2172 l 11 -7 c 19 -4 c 12 0 c 18 4 c 12 7 c 4 11 c 0 8 c -4 11 c
-12 8 c -18 4 c -12 0 c -19 -4 c -11 -8 c -4 -11 c 0 -8 c 80 -38 6378 2278 l 0 53 6378 2225 l 0 -249 6913 2246 l 53 -38 6870 2356 l
0 57 c 79 0 6870 2356 l 0 42 6870 2401 l 30 -23 c 0 12 c 4 7 c 3 4 c 12 4 c 7 0 c 12 -4 c 7 -8 c 4 -11 c 0 -11 c -4 -12 c -4 -3 c
-7 -4 c 3 -11 6870 2492 l 12 -8 c 19 -4 c 11 0 c 19 4 c 11 8 c 4 11 c 0 8 c -4 11 c -11 7 c -19 4 c -11 0 c -19 -4 c -12 -7 c
-3 -11 c 0 -8 c 3 -12 6870 2568 l 12 -7 c 19 -4 c 11 0 c 19 4 c 11 7 c 4 12 c 0 7 c -4 11 c -11 8 c -19 4 c -11 0 c -19 -4 c
-12 -8 c -3 -11 c 0 -7 c 4 -4 6941 2628 l 4 4 c -4 4 c -4 -4 c -8 -3 6881 2707 l -3 -12 c 0 -7 c 3 -12 c 12 -7 c 19 -4 c 19 0 c
15 4 c 7 7 c 4 12 c 0 4 c -4 11 c -7 7 c -12 4 c -3 0 c -12 -4 c -7 -7 c -4 -11 c 0 -4 c 4 -12 c 7 -7 c 12 -4 c 0 -38 6870 2779 l
34 -3 c -4 3 c -4 12 c 0 11 c 4 11 c 7 8 c 12 4 c 7 0 c 12 -4 c 7 -8 c 4 -11 c 0 -11 c -4 -12 c -4 -3 c -7 -4 c 3 -11 6870 2832 l
12 -8 c 19 -4 c 11 0 c 19 4 c 11 8 c 4 11 c 0 8 c -4 11 c -11 8 c -19 3 c -11 0 c -19 -3 c -12 -8 c -3 -11 c 0 -8 c
0 -249 7193 1328 l 53 -38 7149 1438 l 0 57 c 80 0 7149 1438 l 0 42 7149 1483 l 31 -23 c 0 11 c 3 8 c 4 4 c 11 3 c 8 0 c 11 -3 c
8 -8 c 4 -11 c 0 -12 c -4 -11 c -4 -4 c -7 -3 c 4 -12 7149 1574 l 11 -7 c 19 -4 c 12 0 c 19 4 c 11 7 c 4 12 c 0 7 c -4 12 c -11 7 c
-19 4 c -12 0 c -19 -4 c -11 -7 c -4 -12 c 0 -7 c -4 0 7168 1631 l -7 3 c -4 4 c -4 8 c 0 15 c 4 7 c 4 4 c 7 4 c 8 0 c 8 -4 c
11 -7 c 38 -38 c 0 53 c 4 -4 7221 1710 l 4 4 c -4 4 c -4 -4 c 0 -37 7149 1785 l 34 -4 c -3 4 c -4 11 c 0 11 c 4 12 c 7 7 c 11 4 c
8 0 c 11 -4 c 8 -7 c 4 -12 c 0 -11 c -4 -11 c -4 -4 c -7 -4 c -4 0 7168 1819 l -7 4 c -4 4 c -4 8 c 0 15 c 4 7 c 4 4 c 7 4 c 8 0 c
8 -4 c 11 -8 c 38 -37 c 0 53 c -8 -3 7161 1940 l -4 -12 c 0 -7 c 4 -12 c 11 -7 c 19 -4 c 19 0 c 15 4 c 8 7 c 4 12 c 0 4 c -4 11 c
-8 7 c -11 4 c -4 0 c -11 -4 c -8 -7 c -3 -11 c 0 -4 c 3 -12 c 8 -7 c 11 -4 c 0 -249 7412 1307 l 52 -38 7369 1417 l 0 57 c
79 0 7369 1417 l 0 42 7369 1462 l 30 -23 c 0 11 c 4 8 c 3 4 c 12 4 c 7 0 c 12 -4 c 7 -8 c 4 -11 c 0 -11 c -4 -12 c -4 -4 c -7 -3 c
3 -11 7369 1553 l 12 -8 c 19 -4 c 11 0 c 19 4 c 11 8 c 4 11 c 0 8 c -4 11 c -11 7 c -19 4 c -11 0 c -19 -4 c -12 -7 c -3 -11 c
0 -8 c 0 42 7369 1613 l 30 -23 c 0 12 c 4 7 c 3 4 c 12 4 c 7 0 c 12 -4 c 7 -8 c 4 -11 c 0 -11 c -4 -12 c -4 -3 c -7 -4 c
4 -4 7440 1689 l 4 4 c -4 4 c -4 -4 c 11 -3 7395 1768 l 8 -8 c 4 -11 c 0 -4 c -4 -11 c -8 -8 c -11 -4 c -4 0 c -11 4 c -8 8 c
-3 11 c 0 4 c 3 11 c 8 8 c 15 3 c 19 0 c 19 -3 c 11 -8 c 4 -11 c 0 -8 c -4 -11 c -7 -4 c 3 -12 7369 1814 l 8 -3 c 7 0 c 8 3 c 4 8 c
4 15 c 3 11 c 8 8 c 7 4 c 12 0 c 7 -4 c 4 -4 c 4 -11 c 0 -15 c -4 -12 c -4 -3 c -7 -4 c -12 0 c -7 4 c -8 7 c -3 12 c -4 15 c -4 7 c
-8 4 c -7 0 c -8 -4 c -3 -11 c 0 -15 c 11 -4 7395 1920 l 8 -8 c 4 -11 c 0 -4 c -4 -11 c -8 -8 c -11 -4 c -4 0 c -11 4 c -8 8 c
-3 11 c 0 4 c 3 11 c 8 8 c 15 4 c 19 0 c 19 -4 c 11 -8 c 4 -11 c 0 -8 c -4 -11 c -7 -4 c 0 -249 7557 1350 l 53 -38 7513 1460 l
0 57 c 80 0 7513 1460 l 0 42 7513 1505 l 31 -23 c 0 12 c 3 7 c 4 4 c 11 4 c 8 0 c 11 -4 c 8 -8 c 4 -11 c 0 -11 c -4 -12 c -4 -3 c
-7 -4 c 4 -11 7513 1596 l 11 -8 c 19 -4 c 12 0 c 19 4 c 11 8 c 4 11 c 0 8 c -4 11 c -11 8 c -19 3 c -12 0 c -19 -3 c -11 -8 c
-4 -11 c 0 -8 c 53 -38 7513 1687 l 0 57 c 80 0 7513 1687 l 4 -4 7585 1732 l 4 4 c -4 4 c -4 -4 c 11 -4 7540 1812 l 8 -8 c 3 -11 c
0 -4 c -3 -11 c -8 -8 c -11 -4 c -4 0 c -11 4 c -8 8 c -4 11 c 0 4 c 4 11 c 8 8 c 15 4 c 19 0 c 19 -4 c 11 -8 c 4 -11 c 0 -8 c
-4 -11 c -8 -4 c 0 -37 7513 1883 l 34 -4 c -3 4 c -4 11 c 0 11 c 4 12 c 7 7 c 11 4 c 8 0 c 11 -4 c 8 -7 c 4 -12 c 0 -11 c -4 -11 c
-4 -4 c -7 -4 c 80 -37 7513 1966 l 0 52 7513 1914 l 0 -250 7892 1716 l 53 -37 7848 1825 l 0 56 c 80 0 7848 1825 l 0 41 7848 1871 l
31 -22 c 0 11 c 3 8 c 4 3 c 12 4 c 7 0 c 12 -4 c 7 -7 c 4 -11 c 0 -12 c -4 -11 c -4 -4 c -7 -4 c 4 -12 7848 1962 l 12 -7 c 18 -4 c
12 0 c 19 4 c 11 7 c 4 12 c 0 7 c -4 11 c -11 8 c -19 4 c -12 0 c -18 -4 c -12 -8 c -4 -11 c 0 -7 c 80 -37 7848 2067 l
0 53 7848 2014 l 4 -4 7920 2098 l 4 4 c -4 3 c -4 -3 c -4 8 7864 2139 l -12 11 c 80 0 c 80 -37 7848 2256 l 0 53 7848 2203 l
-8 -4 7860 2328 l -4 -11 c 0 -8 c 4 -11 c 12 -7 c 18 -4 c 19 0 c 16 4 c 7 7 c 4 11 c 0 4 c -4 12 c -7 7 c -12 4 c -4 0 c -11 -4 c
-8 -7 c -3 -12 c 0 -4 c 3 -11 c 8 -7 c 11 -4 c 0 -250 8036 1403 l 53 -38 7992 1512 l 0 57 c 80 0 7992 1512 l 0 41 7992 1558 l
31 -23 c 0 12 c 3 7 c 4 4 c 12 4 c 7 0 c 11 -4 c 8 -7 c 4 -12 c 0 -11 c -4 -11 c -4 -4 c -7 -4 c 4 -11 7992 1648 l 11 -8 c 19 -3 c
12 0 c 19 3 c 11 8 c 4 11 c 0 8 c -4 11 c -11 8 c -19 3 c -12 0 c -19 -3 c -11 -8 c -4 -11 c 0 -8 c 4 -11 7992 1720 l 8 -4 c 7 0 c
8 4 c 4 7 c 3 15 c 4 12 c 8 7 c 7 4 c 12 0 c 7 -4 c 4 -4 c 4 -11 c 0 -15 c -4 -11 c -4 -4 c -7 -4 c -12 0 c -7 4 c -8 7 c -4 12 c
-3 15 c -4 7 c -8 4 c -7 0 c -8 -4 c -4 -11 c 0 -15 c 4 -3 8064 1784 l 4 3 c -4 4 c -4 -4 c -3 7 8007 1826 l -12 12 c 80 0 c
-4 0 8011 1894 l -7 4 c -4 3 c -4 8 c 0 15 c 4 8 c 4 3 c 7 4 c 8 0 c 8 -4 c 11 -7 c 38 -38 c 0 53 c -4 0 8011 1969 l -7 4 c -4 4 c
-4 8 c 0 15 c 4 7 c 4 4 c 7 4 c 8 0 c 8 -4 c 11 -7 c 38 -38 c 0 53 c 0 -250 8205 2571 l 53 -38 8161 2680 l 0 57 c 79 0 8161 2680 l
0 41 8161 2726 l 30 -22 c 0 11 c 4 7 c 4 4 c 11 4 c 8 0 c 11 -4 c 8 -7 c 3 -12 c 0 -11 c -3 -11 c -4 -4 c -8 -4 c 4 -11 8161 2816 l
11 -8 c 19 -3 c 11 0 c 19 3 c 12 8 c 3 11 c 0 8 c -3 11 c -12 8 c -19 4 c -11 0 c -19 -4 c -11 -8 c -4 -11 c 0 -8 c
11 -3 8188 2918 l 7 -8 c 4 -11 c 0 -4 c -4 -11 c -7 -8 c -11 -4 c -4 0 c -12 4 c -7 8 c -4 11 c 0 4 c 4 11 c 7 8 c 16 3 c 18 0 c
19 -3 c 12 -8 c 3 -11 c 0 -8 c -3 -11 c -8 -4 c 4 -3 8233 2952 l 3 3 c -3 4 c -4 -4 c -4 0 8180 2986 l -7 4 c -4 4 c -4 8 c 0 15 c
4 7 c 4 4 c 7 4 c 8 0 c 7 -4 c 12 -8 c 37 -37 c 0 53 c 0 41 8161 3066 l 30 -22 c 0 11 c 4 8 c 4 3 c 11 4 c 8 0 c 11 -4 c 8 -7 c
3 -12 c 0 -11 c -3 -11 c -4 -4 c -8 -4 c 11 -4 8188 3183 l 7 -7 c 4 -12 c 0 -4 c -4 -11 c -7 -7 c -11 -4 c -4 0 c -12 4 c -7 7 c
-4 11 c 0 4 c 4 12 c 7 7 c 16 4 c 18 0 c 19 -4 c 12 -7 c 3 -12 c 0 -7 c -3 -12 c -8 -3 c 0 -250 8779 4107 l 53 -37 8735 4216 l
0 56 c 80 0 8735 4216 l 0 41 8735 4262 l 31 -22 c 0 11 c 3 8 c 4 3 c 11 4 c 8 0 c 11 -4 c 8 -7 c 4 -12 c 0 -11 c -4 -11 c -4 -4 c
-7 -4 c -3 8 8750 4341 l -12 11 c 80 0 c -4 0 8754 4409 l -7 4 c -4 4 c -4 7 c 0 15 c 4 8 c 4 4 c 7 4 c 8 0 c 8 -4 c 11 -8 c
38 -38 c 0 53 c 4 -4 8807 4489 l 4 4 c -4 3 c -4 -3 c 11 -4 8762 4568 l 8 -7 c 3 -12 c 0 -4 c -3 -11 c -8 -7 c -11 -4 c -4 0 c
-11 4 c -8 7 c -4 11 c 0 4 c 4 12 c 8 7 c 15 4 c 19 0 c 19 -4 c 11 -7 c 4 -12 c 0 -7 c -4 -12 c -8 -3 c 11 -3 8762 4643 l 8 -8 c
3 -11 c 0 -4 c -3 -11 c -8 -8 c -11 -4 c -4 0 c -11 4 c -8 8 c -4 11 c 0 4 c 4 11 c 8 8 c 15 3 c 19 0 c 19 -3 c 11 -8 c 4 -11 c
0 -8 c -4 -11 c -8 -4 c 4 -11 8735 4689 l 8 -4 c 7 0 c 8 4 c 4 7 c 3 15 c 4 12 c 8 7 c 7 4 c 12 0 c 7 -4 c 4 -4 c 4 -11 c 0 -15 c
-4 -11 c -4 -4 c -7 -4 c -12 0 c -7 4 c -8 7 c -4 12 c -3 15 c -4 7 c -8 4 c -7 0 c -8 -4 c -4 -11 c 0 -15 c 0 -249 8983 1350 l
53 -38 8939 1460 l 0 57 c 80 0 8939 1460 l 0 42 8939 1505 l 31 -23 c 0 12 c 3 7 c 4 4 c 11 4 c 8 0 c 11 -4 c 8 -8 c 4 -11 c 0 -11 c
-4 -12 c -4 -3 c -7 -4 c -3 7 8954 1585 l -12 12 c 80 0 c 53 -38 8939 1687 l 0 57 c 80 0 8939 1687 l 4 -4 9011 1732 l 4 4 c -4 4 c
-4 -4 c 0 42 8939 1770 l 31 -23 c 0 11 c 3 8 c 4 4 c 11 3 c 8 0 c 11 -3 c 8 -8 c 4 -11 c 0 -12 c -4 -11 c -4 -4 c -7 -4 c
-3 8 8954 1849 l -12 11 c 80 0 c 11 -4 8966 1963 l 8 -8 c 3 -11 c 0 -4 c -3 -11 c -8 -8 c -11 -3 c -4 0 c -11 3 c -8 8 c -4 11 c
0 4 c 4 11 c 8 8 c 15 4 c 19 0 c 19 -4 c 11 -8 c 4 -11 c 0 -7 c -4 -12 c -8 -4 c 0 -249 9127 2372 l 53 -38 9084 2482 l 0 57 c
79 0 9084 2482 l 0 42 9084 2527 l 30 -23 c 0 11 c 4 8 c 3 4 c 12 3 c 7 0 c 12 -3 c 7 -8 c 4 -11 c 0 -12 c -4 -11 c -4 -4 c -7 -3 c
-4 8 9099 2606 l -11 11 c 79 0 c 0 -38 9084 2716 l 34 -3 c -4 3 c -4 12 c 0 11 c 4 11 c 7 8 c 12 4 c 7 0 c 12 -4 c 7 -8 c 4 -11 c
0 -11 c -4 -12 c -4 -3 c -7 -4 c 4 -4 9155 2754 l 4 4 c -4 4 c -4 -4 c -4 0 9103 2788 l -8 4 c -4 3 c -3 8 c 0 15 c 3 8 c 4 3 c
8 4 c 7 0 c 8 -4 c 11 -7 c 38 -38 c 0 53 c 0 -38 9084 2905 l 34 -4 c -4 4 c -4 12 c 0 11 c 4 11 c 7 8 c 12 4 c 7 0 c 12 -4 c 7 -8 c
4 -11 c 0 -11 c -4 -12 c -4 -4 c -7 -3 c 53 -38 9084 2973 l 0 57 c 79 0 9084 2973 l
showpage PGPLOT restore
 
%%Trailer
%%DocumentFonts: 
%%Pages: 1
%%EOF
