%!PS-Adobe-3.0 EPSF-3.0
%%For: tom
%%Title: PGPLOT PostScript plot
%%Creator: PGPLOT
%%CreationDate:  9-Nov-1994 13:37
%%BoundingBox: 25 18 587 774
%%DocumentFonts: (atend)
%%LanguageLevel: 1
%%Orientation: Landscape
%%Pages: (atend)
%%EndComments
%%BeginProlog
/l {moveto rlineto currentpoint stroke moveto} bind def
/c {rlineto currentpoint stroke moveto} bind def
/d {moveto 0 0 rlineto currentpoint stroke moveto} bind def
/SLW {5 mul setlinewidth} bind def
/SCF /pop load def
/BP {newpath moveto} bind def
/LP /rlineto load def
/EP {rlineto closepath eofill} bind def
/MB {gsave translate MFAC dup scale 1 setlinewidth 2 setlinecap 0 setlinejoin newpath} bind def
/ME /grestore load def
/C {0 360 arc stroke} bind def
/FC {0 360 arc fill} bind def
%%EndProlog
 
%%Page: 1 1
%%BeginPageSetup
/PGPLOT save def
0.072 0.072 scale
8150 250 translate 90 rotate
1 setlinejoin 1 setlinecap 1 SLW 1 SCF
%%EndPageSetup
0.00 setgray 1 SLW 8939 0 780 780 l 0 6239 c -8939 0 c 0 -6239 c 0 -45 1116 780 l 0 -45 1554 780 l 0 -45 1991 780 l 0 -45 2428 780 l
0 -90 2865 780 l 0 -45 3302 780 l 0 -45 3739 780 l 0 -45 4176 780 l 0 -45 4613 780 l 0 -90 5051 780 l 0 -45 5488 780 l
0 -45 5925 780 l 0 -45 6362 780 l 0 -45 6799 780 l 0 -90 7236 780 l 0 -45 7673 780 l 0 -45 8110 780 l 0 -45 8548 780 l
0 -45 8985 780 l 0 -90 9422 780 l 0 -45 1116 7064 l 0 -45 1554 7064 l 0 -45 1991 7064 l 0 -45 2428 7064 l 0 -90 2865 7109 l
0 -45 3302 7064 l 0 -45 3739 7064 l 0 -45 4176 7064 l 0 -45 4613 7064 l 0 -90 5051 7109 l 0 -45 5488 7064 l 0 -45 5925 7064 l
0 -45 6362 7064 l 0 -45 6799 7064 l 0 -90 7236 7109 l 0 -45 7673 7064 l 0 -45 8110 7064 l 0 -45 8548 7064 l 0 -45 8985 7064 l
0 -90 9422 7109 l -60 0 2775 672 l -6 -54 c 6 6 c 18 6 c 18 0 c 18 -6 c 12 -12 c 6 -18 c 0 -12 c -6 -18 c -12 -12 c -18 -6 c -18 0 c
-18 6 c -6 6 c -6 12 c -18 -6 2859 672 l -12 -18 c -6 -30 c 0 -18 c 6 -30 c 12 -18 c 18 -6 c 12 0 c 18 6 c 12 18 c 6 30 c 0 18 c
-6 30 c -12 18 c -18 6 c -12 0 c -18 -6 2979 672 l -12 -18 c -6 -30 c 0 -18 c 6 -30 c 12 -18 c 18 -6 c 12 0 c 18 6 c 12 18 c 6 30 c
0 18 c -6 30 c -12 18 c -18 6 c -12 0 c 12 6 4847 648 l 18 18 c 0 -126 c -18 -6 4985 672 l -12 -18 c -6 -30 c 0 -18 c 6 -30 c
12 -18 c 18 -6 c 12 0 c 18 6 c 12 18 c 6 30 c 0 18 c -6 30 c -12 18 c -18 6 c -12 0 c -18 -6 5105 672 l -12 -18 c -6 -30 c 0 -18 c
6 -30 c 12 -18 c 18 -6 c 12 0 c 18 6 c 12 18 c 6 30 c 0 18 c -6 30 c -12 18 c -18 6 c -12 0 c -18 -6 5225 672 l -12 -18 c -6 -30 c
0 -18 c 6 -30 c 12 -18 c 18 -6 c 12 0 c 18 6 c 12 18 c 6 30 c 0 18 c -6 30 c -12 18 c -18 6 c -12 0 c 12 6 7032 648 l 18 18 c
0 -126 c -60 0 7206 672 l -6 -54 c 6 6 c 18 6 c 18 0 c 18 -6 c 12 -12 c 6 -18 c 0 -12 c -6 -18 c -12 -12 c -18 -6 c -18 0 c -18 6 c
-6 6 c -6 12 c -18 -6 7290 672 l -12 -18 c -6 -30 c 0 -18 c 6 -30 c 12 -18 c 18 -6 c 12 0 c 18 6 c 12 18 c 6 30 c 0 18 c -6 30 c
-12 18 c -18 6 c -12 0 c -18 -6 7410 672 l -12 -18 c -6 -30 c 0 -18 c 6 -30 c 12 -18 c 18 -6 c 12 0 c 18 6 c 12 18 c 6 30 c 0 18 c
-6 30 c -12 18 c -18 6 c -12 0 c 0 6 9206 642 l 6 12 c 6 6 c 12 6 c 24 0 c 12 -6 c 6 -6 c 6 -12 c 0 -12 c -6 -12 c -12 -18 c
-60 -60 c 84 0 c -18 -6 9356 672 l -12 -18 c -6 -30 c 0 -18 c 6 -30 c 12 -18 c 18 -6 c 12 0 c 18 6 c 12 18 c 6 30 c 0 18 c -6 30 c
-12 18 c -18 6 c -12 0 c -18 -6 9476 672 l -12 -18 c -6 -30 c 0 -18 c 6 -30 c 12 -18 c 18 -6 c 12 0 c 18 6 c 12 18 c 6 30 c 0 18 c
-6 30 c -12 18 c -18 6 c -12 0 c -18 -6 9596 672 l -12 -18 c -6 -30 c 0 -18 c 6 -30 c 12 -18 c 18 -6 c 12 0 c 18 6 c 12 18 c 6 30 c
0 18 c -6 30 c -12 18 c -18 6 c -12 0 c -90 0 780 780 l -45 0 780 1717 l -90 0 780 2654 l -45 0 780 3591 l -90 0 780 4528 l
-45 0 780 5465 l -90 0 780 6402 l -90 0 9809 780 l -45 0 9764 1717 l -90 0 9809 2654 l -45 0 9764 3591 l -90 0 9809 4528 l
-45 0 9764 5465 l -90 0 9809 6402 l 6 -18 517 774 l 18 -12 c 30 -6 c 18 0 c 30 6 c 18 12 c 6 18 c 0 12 c -6 18 c -18 12 c -30 6 c
-18 0 c -30 -6 c -18 -12 c -6 -18 c 0 -12 c -6 0 547 2396 l -12 6 c -6 6 c -6 12 c 0 24 c 6 12 c 6 6 c 12 6 c 12 0 c 12 -6 c
18 -12 c 60 -60 c 0 84 c 84 84 547 2516 l 84 -84 547 2600 l -6 12 541 2660 l -18 18 c 126 0 c 6 -18 517 2798 l 18 -12 c 30 -6 c
18 0 c 30 6 c 18 12 c 6 18 c 0 12 c -6 18 c -18 12 c -30 6 c -18 0 c -30 -6 c -18 -12 c -6 -18 c 0 -12 c 63 -45 453 2923 l 0 67 c
94 0 453 2923 l 84 -60 517 4324 l 0 90 c 126 0 517 4324 l 84 84 547 4390 l 84 -84 547 4474 l -6 12 541 4534 l -18 18 c 126 0 c
6 -18 517 4672 l 18 -12 c 30 -6 c 18 0 c 30 6 c 18 12 c 6 18 c 0 12 c -6 18 c -18 12 c -30 6 c -18 0 c -30 -6 c -18 -12 c -6 -18 c
0 -12 c 63 -45 453 4797 l 0 67 c 94 0 453 4797 l -12 -6 535 6216 l -6 -18 c 0 -12 c 6 -18 c 18 -12 c 30 -6 c 30 0 c 24 6 c 12 12 c
6 18 c 0 6 c -6 18 c -12 12 c -18 6 c -6 0 c -18 -6 c -12 -12 c -6 -18 c 0 -6 c 6 -18 c 12 -12 c 18 -6 c 84 84 547 6264 l
84 -84 547 6348 l -6 12 541 6408 l -18 18 c 126 0 c 6 -18 517 6546 l 18 -12 c 30 -6 c 18 0 c 30 6 c 18 12 c 6 18 c 0 12 c -6 18 c
-18 12 c -30 6 c -18 0 c -30 -6 c -18 -12 c -6 -18 c 0 -12 c 63 -45 453 6671 l 0 67 c 94 0 453 6671 l
4 0 780 789 l 5 0 c 4 0 c 4 1 c 5 3 c 4 6 c 4 4 c 5 0 c 4 -2 c 5 -6 c 4 -2 c 4 -1 c 5 -2 c 4 0 c 4 0 c 5 1 c 4 0 c 5 0 c 4 0 c
4 -1 c 5 1 c 4 4 c 4 0 c 5 -1 c 4 -2 c 5 -2 c 4 -1 c 4 1 c 5 0 c 4 0 c 4 0 c 5 0 c 4 3 c 5 1 c 4 3 c 4 -1 c 5 -3 c 4 -1 c 4 -2 c
5 2 c 4 0 c 4 0 c 5 0 c 4 1 c 5 0 c 4 2 c 4 5 c 5 1 c 4 -1 c 4 -1 c 5 -5 c 4 -2 c 5 -1 c 4 0 c 4 0 c 5 0 c 4 0 c 4 0 c 5 1 c 4 5 c
5 12 c 4 8 c 4 -2 c 5 -7 c 4 -14 c 4 -4 c 5 0 c 4 1 c 5 1 c 4 1 c 4 -1 c 5 0 c 4 -1 c 4 1 c 5 0 c 4 0 c 4 0 c 5 1 c 4 4 c 5 8 c
4 21 c 4 36 c 5 11 c 4 -93 c 5 20 1151 780 l 4 -6 c 5 0 c 4 2 c 4 2 c 5 2 c 4 -1 c 4 0 c 5 -1 c 4 1 c 5 1 c 4 2 c 4 1 c 5 0 c 4 3 c
4 2 c 5 4 c 4 4 c 5 5 c 4 4 c 4 5 c 5 3 c 4 6 c 4 18 c 5 12 c 4 38 c 4 202 c 5 960 c 4 1917 c 5 2851 c 4 -5 c 4 -28 c 5 25 c 4 -3 c
4 -4987 c 5 -873 c 4 -59 c 5 -25 c 4 -12 c 4 -14 c 5 -9 c 4 -14 c 4 -7 c 5 -5 c 4 -3 c 5 -6 c 4 0 c 4 -1 c 5 -2 c 4 0 c 4 -2 c 5 4 c
4 7 c 5 18 c 4 23 c 4 -1 c 5 -9 c 4 -26 c 4 -21 c 5 -4 c 4 0 c 4 2 c 5 3 c 4 3 c 5 -3 c 4 -1 c 4 -5 c 5 -1 c 4 0 c 4 2 c 5 9 c 4 8 c
5 0 c 4 -3 c 4 -10 c 5 -4 c 4 0 c 4 0 c 5 -1 c 4 -2 c 5 0 c 4 0 c 4 -1 c 5 -1 c 4 -1 c 4 0 c 5 0 c 4 0 c 4 1 c 5 0 c 4 0 c 5 -1 c
4 0 c 4 1 c 5 0 c 4 1 c 4 1 c 5 2 c 4 1 c 5 0 c 4 -2 c 4 -3 c 5 -1 c 4 0 c 4 -1 c 5 -1 c 4 1 c 5 1 c 4 2 c 4 4 c 5 0 c 4 -1 c 4 -2 c
5 -3 c 4 -1 c 5 1 c 4 1 c 4 4 c 5 1 c 4 0 c 4 -2 c 5 -3 c 4 0 c 4 2 c 5 2 c 4 4 c 5 22 c 4 73 c 4 199 c 5 295 c 4 5 c 4 -104 c
5 -257 c 4 -215 c 5 -23 c 4 -2 c 4 -1 c 5 -1 c 4 0 c 4 0 c 5 -1 c 4 0 c 5 -1 c 4 1 c 4 0 c 5 0 c 4 1 c 4 0 c 5 -1 c 4 -1 c 5 1 c
4 0 c 4 0 c 5 0 c 4 0 c 4 1 c 5 0 c 4 0 c 4 1 c 5 2 c 4 9 c 5 11 c 4 0 c 4 -3 c 5 -11 c 4 -10 c 4 -1 c 5 0 c 4 1 c 5 3 c 4 10 c
4 7 c 5 -1 c 4 -3 c 4 -11 c 5 -4 c 4 0 c 5 1 c 4 2 c 4 1 c 5 0 c 4 -3 c 4 -1 c 5 -1 c 4 0 c 5 0 c 4 -1 c 4 0 c 5 -1 c 4 0 c 4 1 c
5 0 c 4 0 c 4 0 c 5 0 c 4 1 c 5 0 c 4 0 c 4 1 c 5 -1 c 4 -1 c 4 0 c 5 0 c 4 0 c 5 0 c 4 0 c 4 1 c 5 4 c 4 16 c 4 9 c 5 0 c 4 -6 c
5 -17 c 4 -5 c 4 0 c 5 0 c 4 0 c 4 6 c 5 19 c 4 87 c 5 74 c 4 6 c 4 -31 c 5 -107 c 4 -52 c 4 -2 c 5 2 c 4 0 c 4 0 c 5 -1 c 4 -2 c
5 -1 c 4 0 c 4 1 c 5 0 c 4 -1 c 4 0 c 5 0 c 4 0 c 5 0 c 4 0 c 4 0 c 5 1 c 4 0 c 4 0 c 5 3 c 4 14 c 5 51 c 4 134 c 4 62 c 5 -6 c
4 -77 c 4 -138 c 5 -39 c 4 -2 c 4 -1 c 5 1 c 4 4 c 5 8 c 4 2 c 4 -1 c 5 -5 c 4 -5 c 4 6 c 5 38 c 4 112 c 5 57 c 4 -10 c 4 -52 c
5 -121 c 4 -33 c 4 -1 c 5 -1 c 4 1 c 5 0 c 4 0 c 4 0 c 5 -1 c 4 -1 c 4 1 c 5 -1 c 4 0 c 5 0 c 4 1 c 4 2 c 5 3 c 4 1 c 4 1 c 5 0 c
4 -4 c 4 -1 c 5 4 c 4 22 c 5 96 c 4 171 c 4 37 c 5 -33 c 4 -134 c 4 -147 c 5 -16 c 4 -1 c 5 0 c 4 0 c 4 4 c 5 15 c 4 39 c 4 14 c
5 -2 c 4 -19 c 5 -34 c 4 -6 c 4 -3 c 5 1 c 4 -1 c 4 2 c 5 13 c 4 11 c 5 -1 c 4 -4 c 4 -21 c 5 -10 c 4 0 c 4 0 c 5 0 c 4 0 c 4 0 c
5 -1 c 4 0 c 5 0 c 4 0 c 4 0 c 5 0 c 4 1 c 4 -1 c 5 1 c 4 0 c 5 1 c 4 2 c 4 3 c 5 4 c 4 2 c 4 0 c 5 -4 c 4 -4 c 5 -2 c 4 0 c 4 2 c
5 1 c 4 0 c 4 0 c 5 2 c 4 8 c 5 3 c 4 0 c 4 -4 c 5 -8 c 4 -2 c 4 -2 c 5 0 c 4 0 c 4 3 c 5 2 c 4 7 c 5 0 c 4 -2 c 4 -4 c 5 -6 c
4 -1 c 4 0 c 5 0 c 4 1 c 5 7 c 4 22 c 4 9 c 5 -1 c 4 -10 c 4 -23 c 5 -2 c 4 21 c 5 41 c 4 9 c 4 -5 c 5 -27 c 4 -19 c 4 8 c 5 1 c
4 -5 c 4 -16 c 5 10 c 4 68 c 5 31 c 4 2 c 4 -31 c 5 -73 c 4 -16 c 4 -1 c 5 0 c 4 0 c 5 2 c 4 0 c 4 0 c 5 -1 c 4 1 c 4 3 c 5 23 c
4 62 c 5 20 c 4 -2 c 4 -36 c 5 -50 c 4 -5 c 4 1 c 5 -1 c 4 -7 c 5 -3 c 4 0 c 4 -1 c 5 -1 c 4 1 c 4 2 c 5 5 c 4 10 c 4 59 c 5 543 c
4 949 c 5 170 c 4 -89 c 4 -833 c 5 -729 c 4 -75 c 4 -4 c 5 3 c 4 9 c 5 5 c 4 -3 c 4 -9 c 5 -12 c 4 -2 c 4 0 c 5 1 c 4 7 c 5 12 c
4 19 c 4 4 c 5 -11 c 4 -14 c 4 -16 c 5 -4 c 4 -2 c 5 0 c 4 0 c 4 0 c 5 -1 c 4 0 c 4 -1 c 5 1 c 4 1 c 4 1 c 5 0 c 4 -2 c 5 -1 c 4 0 c
4 -1 c 5 1 c 4 2 c 4 1 c 5 0 c 4 0 c 5 -1 c 4 -1 c 4 2 c 5 5 c 4 3 c 4 1 c 5 0 c 4 -6 c 5 -3 c 4 3 c 4 46 c 5 92 c 4 30 c 4 -6 c
5 -49 c 4 -9 c 5 44 c 4 10 c 4 -18 c 5 -96 c 4 -45 c 4 -4 c 5 -1 c 4 0 c 4 0 c 5 1 c 4 5 c 5 10 c 4 6 c 4 1 c 5 -3 c 4 -6 c 4 -2 c
5 -1 c 4 -2 c 5 -3 c 4 -2 c 4 -1 c 5 0 c 4 -1 c 4 0 c 5 0 c 4 -1 c 5 0 c 4 0 c 4 1 c 5 3 c 4 0 c 4 0 c 5 0 c 4 -2 c 5 0 c 4 0 c
4 2 c 5 5 c 4 36 c 4 151 c 5 263 c 4 135 c 4 -41 c 5 -110 c 4 -193 c 5 -74 c 4 -32 c 4 -100 c 5 -36 c 4 -3 c 4 1 c 5 0 c 4 0 c 5 4 c
4 69 c 4 193 c 5 62 c 4 -1 c 4 -96 c 5 -192 c 4 -38 c 5 -1 c 4 0 c 4 1 c 5 3 c 4 1 c 4 -2 c 5 -3 c 4 -3 c 4 -1 c 5 0 c 4 0 c 5 0 c
4 4 c 4 2 c 5 0 c 4 3 c 4 31 c 5 116 c 4 59 c 5 -2 c 4 -43 c 4 -130 c 5 -35 c 4 -2 c 4 -1 c 5 0 c 4 3 c 5 0 c 4 0 c 4 0 c 5 -1 c
4 2 c 4 5 c 5 4 c 4 18 c 5 123 c 4 162 c 4 33 c 5 -13 c 4 -156 c 4 -139 c 5 -30 c 4 -6 c 4 -1 c 5 7 c 4 19 c 5 6 c 4 4 c 4 -5 c
5 -12 c 4 -2 c 4 2 c 5 3 c 4 8 c 5 79 c 4 986 c 4 2145 c 5 581 c 4 -76 c 4 -1478 c 5 -1979 c 4 -254 c 5 -16 c 4 -4 c 4 -3 c 5 -1 c
4 5 c 4 6 c 5 3 c 4 1 c 5 -1 c 4 13 c 4 131 c 5 1425 c 4 1969 c 4 315 c 5 -245 c 4 -1778 c 4 -1678 c 5 -150 c 4 -11 c 5 -1 c 4 -3 c
4 -4 c 5 -4 c 4 -3 c 4 -1 c 5 -1 c 4 0 c 5 2 c 4 1 c 4 0 c 5 -1 c 4 -1 c 4 -1 c 5 -1 c 4 1 c 5 13 c 4 17 c 4 3 c 5 -6 c 4 -16 c
4 -13 c 5 2 c 4 3 c 5 1 c 4 -1 c 4 3 c 5 19 c 4 7 c 4 1 c 5 -10 c 4 -19 c 4 -4 c 5 -1 c 4 -2 c 5 -1 c 4 -1 c 4 0 c 5 0 c 4 0 c
4 -1 c 5 0 c 4 1 c 5 4 c 4 3 c 4 0 c 5 -1 c 4 -3 c 4 -1 c 5 11 c 4 43 c 5 14 c 4 2 c 4 -11 c 5 -40 c 4 -9 c 4 -4 c 5 -2 c 4 4 c
5 1 c 4 0 c 4 -4 c 5 -6 c 4 -1 c 4 0 c 5 1 c 4 1 c 4 0 c 5 2 c 4 20 c 5 42 c 4 16 c 4 -2 c 5 -25 c 4 -39 c 4 -8 c 5 2 c 4 2 c 5 3 c
4 -3 c 4 -2 c 5 -7 c 4 -2 c 4 1 c 5 0 c 4 1 c 5 2 c 4 0 c 4 1 c 5 -2 c 4 0 c 4 19 c 5 39 c 4 6 c 4 -3 c 5 -26 c 4 -35 c 5 -4 c 4 0 c
4 1 c 5 0 c 4 3 c 4 2 c 5 0 c 4 -1 c 5 -1 c 4 16 c 4 28 c 5 3 c 4 0 c 4 -19 c 5 -23 c 4 -3 c 5 -1 c 4 -2 c 4 0 c 5 0 c 4 0 c 4 0 c
5 1 c 4 0 c 5 -1 c 4 -1 c 4 1 c 5 24 c 4 72 c 4 27 c 5 -3 c 4 -36 c 4 -72 c 5 -11 c 4 -2 c 5 0 c 4 -1 c 4 0 c 5 0 c 4 -1 c 4 0 c
5 1 c 4 0 c 5 0 c 4 1 c 4 1 c 5 9 c 4 5 c 4 6 c 5 0 c 4 -9 c 5 -3 c 4 -6 c 4 0 c 5 8 c 4 83 c 4 296 c 5 146 c 4 2 c 5 -111 c
4 -298 c 4 -103 c 5 -10 c 4 -4 c 4 -7 c 5 -4 c 4 -1 c 4 0 c 5 1 c 4 1 c 5 0 c 4 0 c 4 -2 c 5 -2 c 4 0 c 4 -1 c 5 1 c 4 5 c 5 3 c
4 0 c 4 -1 c 5 -5 c 4 -2 c 4 1 c 5 1 c 4 1 c 5 0 c 4 -1 c 4 0 c 5 2 c 4 4 c 4 2 c 5 1 c 4 0 c 5 -4 c 4 -1 c 4 0 c 5 -1 c 4 0 c
4 -1 c 5 0 c 4 -1 c 4 0 c 5 0 c 4 1 c 5 1 c 4 2 c 4 0 c 5 3 c 4 2 c 4 4 c 5 4 c 4 15 c 5 64 c 4 412 c 4 1142 c 5 527 c 4 51 c
4 -495 c 5 -1164 c 4 -418 c 5 -78 c 4 49 c 4 411 c 5 306 c 4 4 c 4 -100 c 5 -473 c 4 -236 c 5 -21 c 4 1 c 4 38 c 5 282 c 4 350 c
4 56 c 5 -43 c 4 -357 c 4 -296 c 5 -38 c 4 -3 c 5 -1 c 4 -1 c 4 0 c 5 0 c 4 1 c 4 0 c 5 0 c 4 1 c 5 -1 c 4 0 c 4 -18 c 5 17 c 4 0 c
4 1 c 5 0 c 4 -1 c 5 0 c 4 1 c 4 1 c 5 1 c 4 1 c 4 3 c 5 1 c 4 3 c 4 4 c 5 7 c 4 31 c 5 276 c 4 1329 c 4 1008 c 5 149 c 4 -326 c
4 -1428 c 5 -914 c 4 -105 c 5 -16 c 4 -12 c 4 -3 c 5 -2 c 4 -2 c 4 -2 c 5 -2 c 4 -1 c 5 -1 c 4 1 c 4 2 c 5 11 c 4 6 c 4 0 c 5 -4 c
4 -14 c 5 -5 c 4 0 c 4 0 c 5 4 c 4 3 c 4 10 c 5 13 c 4 0 c 4 -5 c 5 -11 c 4 -12 c 5 -3 c 4 -1 c 4 0 c 5 1 c 4 0 c 4 0 c 5 2 c 4 5 c
5 46 c 4 97 c 4 42 c 5 20 c 4 -49 c 4 -89 c 5 -43 c 4 -8 c 5 4 c 4 2 c 4 -2 c 5 0 c 4 74 c 4 108 c 5 30 c 4 -14 c 5 -85 c 4 -117 c
4 -21 c 5 -1 c 4 -1 c 4 0 c 5 3 c 4 6 c 4 1 c 5 -1 c 4 -4 c 5 -5 c 4 -1 c 4 2 c 5 1 c 4 0 c 4 -1 c 5 -1 c 4 -1 c 5 -1 c 4 1 c 4 0 c
5 -1 c 4 0 c 4 0 c 5 0 c 4 1 c 5 4 c 4 1 c 4 0 c 5 -1 c 4 -4 c 4 -1 c 5 0 c 4 0 c 5 1 c 4 2 c 4 -1 c 5 0 c 4 -1 c 4 -1 c 5 1 c 4 1 c
4 1 c 5 4 c 4 3 c 5 0 c 4 -1 c 4 -3 c 5 4 c 4 17 c 4 7 c 5 -1 c 4 -7 c 5 -16 c 4 -7 c 4 -1 c 5 -1 c 4 -1 c 4 0 c 5 0 c 4 0 c 5 0 c
4 0 c 4 0 c 5 0 c 4 0 c 4 0 c 5 2 c 4 15 c 4 16 c 5 1 c 4 -1 c 5 -16 c 4 -14 c 4 -1 c 5 -14 c 4 23 c 4 37 c 5 38 c 4 3 c 5 -4 c
4 -34 c 4 15 c 5 80 c 4 23 c 4 7 c 5 -43 c 4 -84 c 5 -21 c 4 -40 c 5 13 5706 780 l 4 -1 c 4 1 c 5 0 c 4 1 c 5 1 c 4 0 c 4 -1 c
5 -1 c 4 0 c 4 0 c 5 0 c 4 0 c 4 1 c 5 -1 c 4 0 c 5 0 c 4 -1 c 4 0 c 5 0 c 4 0 c 4 0 c 5 1 c 4 -1 c 5 1 c 4 0 c 4 -1 c 5 0 c 4 0 c
4 2 c 5 12 c 4 22 c 5 5 c 4 0 c 4 -14 c 5 -21 c 4 -5 c 4 1 c 5 1 c 4 0 c 5 3 c 4 9 c 4 6 c 5 8 c 4 25 c 4 113 c 5 74 c 4 8 c 4 -31 c
5 -132 c 4 -78 c 5 -6 c 4 -1 c 4 -1 c 5 0 c 4 0 c 4 1 c 5 -1 c 4 0 c 5 1 c 4 -1 c 4 1 c 5 1 c 4 2 c 4 0 c 5 0 c 4 -1 c 5 -2 c 4 1 c
4 -1 c 5 0 c 4 1 c 4 1 c 5 0 c 4 -1 c 5 -1 c 4 1 c 4 4 c 5 35 c 4 66 c 4 14 c 5 -3 c 4 -37 c 4 -63 c 5 -10 c 4 19 c 5 154 c 4 229 c
4 65 c 5 -5 c 4 -163 c 4 -220 c 5 -52 c 4 -15 c 5 -11 c 4 -2 c 4 1 c 5 0 c 4 0 c 4 1 c 5 8 c 4 10 c 5 0 c 4 0 c 4 -11 c 5 -12 c
4 -2 c 4 0 c 5 0 c 4 -1 c 5 0 c 4 1 c 4 1 c 5 1 c 4 -1 c 4 1 c 5 0 c 4 -1 c 4 -1 c 5 -1 c 4 0 c 5 0 c 4 0 c 4 1 c 5 -1 c 4 0 c 4 0 c
5 3 c 4 3 c 5 1 c 4 0 c 4 -3 c 5 -2 c 4 1 c 4 2 c 5 2 c 4 1 c 5 -1 c 4 -1 c 4 -1 c 5 1 c 4 1 c 4 1 c 5 2 c 4 3 c 4 2 c 5 6 c 4 9 c
5 25 c 4 69 c 4 329 c 5 1226 c 4 1008 c 4 230 c 5 -321 c 4 -1222 c 5 -1024 c 4 -223 c 4 -65 c 5 -30 c 4 -9 c 4 -8 c 5 -2 c 4 -3 c
5 -2 c 4 0 c 4 -2 c 5 0 c 4 0 c 4 1 c 5 2 c 4 7 c 5 61 c 4 182 c 4 91 c 5 5 c 4 -63 c 4 -196 c 5 -80 c 4 -3 c 4 -2 c 5 -1 c 4 -6 c
5 -2 c 4 0 c 4 0 c 5 0 c 4 0 c 4 0 c 5 -1 c 4 0 c 5 -1 c 4 0 c 4 0 c 5 0 c 4 0 c 4 4 c 5 3 c 4 2 c 5 1 c 4 8 c 4 21 c 5 5 c 4 1 c
4 -58 c 5 27 c 4 -6 c 5 2 c 4 36 c 4 76 c 5 27 c 4 -5 c 4 -42 c 5 -77 c 4 -22 c 4 -3 c 5 0 c 4 3 c 5 2 c 4 1 c 4 -1 c 5 -4 c 4 -1 c
4 0 c 5 0 c 4 0 c 5 1 c 4 1 c 4 0 c 5 -1 c 4 1 c 4 0 c 5 0 c 4 1 c 5 11 c 4 21 c 4 11 c 5 0 c 4 -12 c 4 -20 c 5 -11 c 4 -3 c 5 0 c
4 0 c 4 2 c 5 0 c 4 1 c 4 -1 c 5 -1 c 4 0 c 4 0 c 5 0 c 4 -1 c 5 0 c 4 0 c 4 0 c 5 0 c 4 0 c 4 1 c 5 2 c 4 -1 c 5 2 c 4 6 c 4 3 c
5 0 c 4 -2 c 4 -8 c 5 -4 c 4 0 c 5 -1 c 4 1 c 4 -1 c 5 1 c 4 0 c 4 0 c 5 0 c 4 3 c 5 2 c 4 1 c 4 0 c 5 -2 c 4 -1 c 4 0 c 5 -1 c
4 0 c 4 3 c 5 1 c 4 2 c 5 -1 c 4 -3 c 4 -1 c 5 -2 c 4 -1 c 4 0 c 5 0 c 4 0 c 5 0 c 4 0 c 4 1 c 5 3 c 4 1 c 4 0 c 5 -1 c 4 -1 c
5 -1 c 4 0 c 4 0 c 5 -1 c 4 0 c 4 8 c 5 21 c 4 8 c 4 0 c 5 -8 c 4 -22 c 5 -5 c 4 0 c 4 -1 c 5 -1 c 4 0 c 4 -1 c 5 4 c 4 5 c 5 2 c
4 0 c 4 -1 c 5 3 c 4 0 c 4 -1 c 5 -2 c 4 -6 c 5 -1 c 4 7 c 4 4 c 5 -1 c 4 -2 c 4 -7 c 5 -3 c 4 0 c 5 1 c 4 1 c 4 -1 c 5 -1 c 4 0 c
4 -1 c 5 0 c 4 2 c 4 4 c 5 1 c 4 0 c 5 -2 c 4 -4 c 4 -1 c 5 0 c 4 0 c 4 -1 c 5 1 c 4 0 c 5 0 c 4 1 c 4 0 c 5 0 c 4 0 c 4 -1 c 5 1 c
4 0 c 5 0 c 4 1 c 4 2 c 5 1 c 4 0 c 4 0 c 5 -2 c 4 -1 c 5 0 c 4 0 c 4 1 c 5 2 c 4 10 c 4 120 c 5 195 c 4 61 c 4 -7 c 5 -115 c
4 -214 c 5 -49 c 4 -2 c 4 -2 c 5 0 c 4 2 c 4 0 c 5 0 c 4 -1 c 5 -2 c 4 1 c 4 0 c 5 0 c 4 -1 c 4 4 c 5 4 c 4 10 c 5 5 c 4 15 c 4 38 c
5 7 c 4 -11 c 4 -13 c 5 -40 c 4 -18 c 5 2 c 4 1 c 4 0 c 5 0 c 4 -3 c 4 -2 c 5 1 c 4 0 c 4 0 c 5 -1 c 4 0 c 5 -1 c 4 0 c 4 0 c 5 0 c
4 0 c 4 0 c 5 0 c 4 0 c 5 0 c 4 0 c 4 0 c 5 0 c 4 1 c 4 0 c 5 1 c 4 -1 c 5 0 c 4 -2 c 4 0 c 5 2 c 4 5 c 4 1 c 5 1 c 4 0 c 5 -2 c
4 -2 c 4 0 c 5 -1 c 4 -2 c 4 0 c 5 -1 c 4 0 c 4 -1 c 5 0 c 4 0 c 5 0 c 4 0 c 4 0 c 5 0 c 4 0 c 4 1 c 5 0 c 4 0 c 5 0 c 4 0 c 4 1 c
5 3 c 4 3 c 4 0 c 5 0 c 4 -4 c 5 -1 c 4 1 c 4 0 c 5 0 c 4 0 c 4 -1 c 5 0 c 4 1 c 4 -1 c 5 -1 c 4 -1 c 5 0 c 4 1 c 4 1 c 5 0 c 4 0 c
4 -2 c 5 0 c 4 0 c 5 0 c 4 2 c 4 0 c 5 0 c 4 -1 c 4 -1 c 5 -1 c 4 1 c 5 0 c 4 0 c 4 1 c 5 0 c 4 0 c 4 2 c 5 8 c 4 4 c 5 1 c 4 -2 c
4 -7 c 5 -5 c 4 -1 c 4 0 c 5 -1 c 4 0 c 4 1 c 5 0 c 4 -1 c 5 0 c 4 1 c 4 1 c 5 0 c 4 0 c 4 -1 c 5 -1 c 4 1 c 5 0 c 4 0 c 4 0 c 5 1 c
4 3 c 4 18 c 5 117 c 4 196 c 5 46 c 4 -18 c 4 -91 c 5 -214 c 4 -53 c 4 2 c 5 5 c 4 2 c 5 2 c 4 15 c 4 4 c 5 -2 c 4 -2 c 4 -17 c
5 -13 c 4 -1 c 4 0 c 5 0 c 4 0 c 5 -1 c 4 0 c 4 0 c 5 0 c 4 0 c 4 1 c 5 1 c 4 0 c 5 0 c 4 -1 c 4 0 c 5 2 c 4 5 c 4 28 c 5 65 c
4 13 c 5 -1 c 4 -25 c 4 -67 c 5 -17 c 4 -2 c 4 -1 c 5 0 c 4 0 c 5 4 c 4 2 c 4 0 c 5 -1 c 4 -2 c 4 -2 c 5 1 c 4 4 c 4 1 c 5 0 c 4 0 c
5 -3 c 4 -2 c 4 2 c 5 1 c 4 1 c 4 0 c 5 -1 c 4 1 c 5 4 c 4 0 c 4 -2 c 5 -2 c 4 -3 c 4 2 c 5 1 c 4 1 c 5 0 c 4 -2 c 4 0 c 5 1 c
4 -1 c 4 -2 c 5 -2 c 4 -1 c 4 5 c 5 2 c 4 6 c 5 6 c 4 6 c 4 34 c 5 10 c 4 -8 c 4 -10 c 5 -35 c 4 -16 c 5 -1 c 4 2 c 4 3 c 5 0 c
4 1 c 4 2 c 5 2 c 4 0 c 5 -1 c 4 -3 c 4 -5 c 5 1 c 4 4 c 4 1 c 5 0 c 4 -2 c 5 -4 c 4 -2 c 4 1 c 5 0 c 4 0 c 4 1 c 5 1 c 4 0 c 4 0 c
5 -1 c 4 -2 c 5 1 c 4 -1 c 4 0 c 5 0 c 4 0 c 4 0 c 5 0 c 4 0 c 5 1 c 4 5 c 4 2 c 5 0 c 4 -1 c 4 -4 c 5 0 c 4 1 c 5 -1 c 4 0 c 4 0 c
5 -1 c 4 0 c 4 -1 c 5 -1 c 4 0 c 5 0 c 4 1 c 4 -1 c 5 1 c 4 1 c 4 0 c 5 2 c 4 13 c 4 109 c 5 106 c 4 15 c 5 -5 c 4 -96 c 4 -121 c
5 -8 c 4 0 c 4 0 c 5 -5 c 4 -9 c 5 -3 c 4 1 c 4 0 c 5 1 c 4 1 c 4 12 c 5 8 c 4 0 c 5 0 c 4 -11 c 4 -7 c 5 6 c 4 0 c 4 0 c 5 -1 c
4 -6 c 5 -2 c 4 0 c 4 0 c 5 -1 c 4 0 c 4 0 c 5 0 c 4 0 c 4 0 c 5 0 c 4 0 c 5 2 c 4 1 c 4 1 c 5 0 c 4 -1 c 4 -2 c 5 0 c 4 -1 c 5 1 c
4 2 c 4 0 c 5 1 c 4 0 c 4 0 c 5 0 c 4 1 c 5 0 c 4 0 c 4 0 c 5 1 c 4 2 c 4 2 c 5 0 c 4 5 c 5 8 c 4 12 c 4 59 c 5 650 c 4 1644 c
4 352 c 5 4 c 4 -449 c 4 -1644 c 5 -572 c 4 -39 c 5 -7 c 4 -7 c 4 64 c 5 81 c 4 13 c 4 -3 c 5 -54 c 4 -104 c 5 -17 c 4 -1 c 4 2 c
5 1 c 4 2 c 4 28 c 5 65 c 4 9 c 5 -1 c 4 -23 c 4 -66 c 5 -19 c 4 0 c 4 0 c 5 1 c 4 0 c 4 5 c 5 2 c 4 0 c 5 0 c 4 -3 c 4 -3 c 5 5 c
4 56 c 4 102 c 5 17 c 4 -1 c 5 -35 c 4 -113 c 4 -26 c 5 -4 c 4 -3 c 4 -2 c 5 0 c 4 0 c 5 0 c 4 0 c 4 0 c 5 0 c 4 6 c 4 22 c 5 9 c
4 3 c 5 11 c 4 20 c 4 14 c 5 -2 c 4 -6 c 4 -38 c 5 -32 c 4 -5 c 4 -2 c 5 -1 c 4 0 c 5 0 c 4 2 c 4 0 c 5 1 c 4 0 c 4 -1 c 5 0 c 4 0 c
5 0 c 4 1 c 4 1 c 5 2 c 4 -1 c 4 0 c 5 -1 c 4 -1 c 5 0 c 4 -1 c 4 2 c 5 4 c 4 1 c 4 1 c 5 1 c 4 -2 c 5 0 c 4 9 c 4 56 c 5 68 c
4 13 c 4 -2 c 5 -38 c 4 -70 c 4 -5 c 5 28 c 4 85 c 5 509 c 4 2078 c 4 1521 c 5 217 c 4 -279 c 4 -1754 c 5 -1873 c 4 -396 c 5 -82 c
4 -36 c 4 -14 c 5 -9 c 4 -5 c 4 6 c 5 58 c 4 313 c 5 500 c 4 99 c 4 -28 c 5 -266 c 4 -501 c 4 -165 c
5 -26 c 4 -5 c 5 7 c 4 21 c 4 -54 c 4 47 9549 780 l 4 -22 c 5 -10 c 4 -1 c 4 -1 c 5 0 c 4 1 c 5 11 c 4 11 c 4 2 c 5 -1 c 4 -7 c
4 -13 c 5 -2 c 4 -1 c 5 -3 c 4 -1 c 4 1 c 5 0 c 4 0 c 4 0 c 5 0 c 4 0 c 5 0 c 4 -1 c 4 1 c 5 1 c 4 0 c 4 0 c 5 -1 c 4 0 c 5 2 c
4 1 c 4 0 c 5 -2 c 4 -1 c 4 -1 c 5 5 c 4 13 c
0 -126 3042 418 l 54 0 3042 418 l 18 -6 c 6 -6 c 6 -12 c 0 -12 c -6 -12 c -6 -6 c -18 -6 c -54 0 c 42 -66 3084 358 l
-12 -6 3192 376 l -12 -12 c -6 -18 c 0 -12 c 6 -18 c 12 -12 c 12 -6 c 18 0 c 12 6 c 12 12 c 6 18 c 0 12 c -6 18 c -12 12 c -12 6 c
-18 0 c 24 -84 3276 376 l -24 -84 3324 376 l 24 -84 3324 376 l -24 -84 3372 376 l 108 0 3414 364 l 108 0 3414 328 l
-60 -126 3840 418 l 84 0 3756 418 l 12 6 4278 394 l 18 18 c 0 -126 c -6 -6 4392 376 l 6 -6 c 6 6 c -6 6 c -6 -6 4392 304 l 6 -6 c
6 6 c -6 6 c -48 -126 4572 418 l 48 -126 4572 418 l 60 0 4542 334 l 0 -84 4650 376 l 6 18 4650 340 l 12 12 c 12 6 c 18 0 c
-12 12 4794 358 l -12 6 c -18 0 c -12 -6 c -12 -12 c -6 -18 c 0 -12 c 6 -18 c 12 -12 c 12 -6 c 18 0 c 12 6 c 12 12 c
108 0 4836 346 l -18 -6 5022 418 l -12 -18 c -6 -30 c 0 -18 c 6 -30 c 12 -18 c 18 -6 c 12 0 c 18 6 c 12 18 c 6 30 c 0 18 c -6 30 c
-12 18 c -18 6 c -12 0 c 66 0 5118 418 l -36 -48 c 18 0 c 12 -6 c 6 -6 c 6 -18 c 0 -12 c -6 -18 c -12 -12 c -18 -6 c -18 0 c -18 6 c
-6 6 c -6 12 c -59 0 5297 418 l -6 -54 c 6 6 c 18 6 c 17 0 c 18 -6 c 12 -12 c 6 -18 c 0 -12 c -6 -18 c -12 -12 c -18 -6 c -17 0 c
-18 6 c -6 6 c -6 12 c -6 -6 5357 304 l 6 -6 c 6 6 c -6 6 c -12 0 5447 418 l -12 -6 c -6 -18 c 0 -102 c 42 0 5399 376 l
6 -6 5477 418 l 6 6 c -6 6 c -6 -6 c 0 -84 5483 376 l 0 -102 5537 418 l 6 -18 c 12 -6 c 12 0 c 42 0 5519 376 l -6 12 5663 358 l
-18 6 c -18 0 c -18 -6 c -6 -12 c 6 -12 c 12 -6 c 30 -6 c 12 -6 c 6 -12 c 0 -6 c -6 -12 c -18 -6 c -18 0 c -18 6 c -6 12 c
0 -192 5993 442 l 0 -192 5999 442 l 42 0 5993 442 l 42 0 5993 250 l 0 6 6077 388 l 6 12 c 6 6 c 12 6 c 24 0 c 12 -6 c 6 -6 c 6 -12 c
0 -12 c -6 -12 c -12 -18 c -60 -60 c 84 0 c -6 -6 6203 376 l 6 -6 c 6 6 c -6 6 c -6 -6 6203 304 l 6 -6 c 6 6 c -6 6 c
-48 -126 6383 418 l 48 -126 6383 418 l 60 0 6353 334 l 0 -84 6461 376 l 6 18 6461 340 l 12 12 c 12 6 c 18 0 c -12 12 6605 358 l
-12 6 c -18 0 c -12 -6 c -12 -12 c -6 -18 c 0 -12 c 6 -18 c 12 -12 c 12 -6 c 18 0 c 12 6 c 12 12 c 108 0 6647 346 l
-18 -6 6833 418 l -12 -18 c -6 -30 c 0 -18 c 6 -30 c 12 -18 c 18 -6 c 12 0 c 18 6 c 12 18 c 6 30 c 0 18 c -6 30 c -12 18 c -18 6 c
-12 0 c 66 0 6929 418 l -36 -48 c 18 0 c 12 -6 c 6 -6 c 6 -18 c 0 -12 c -6 -18 c -12 -12 c -18 -6 c -18 0 c -18 6 c -6 6 c -6 12 c
-6 12 7115 400 l -18 6 c -12 0 c -18 -6 c -12 -18 c -6 -30 c 0 -30 c 6 -24 c 12 -12 c 18 -6 c 6 0 c 18 6 c 12 12 c 6 18 c 0 6 c
-6 18 c -12 12 c -18 6 c -6 0 c -18 -6 c -12 -12 c -6 -18 c -6 -6 7169 304 l 6 -6 c 6 6 c -6 6 c -12 0 7259 418 l -12 -6 c -6 -18 c
0 -102 c 42 0 7211 376 l 6 -6 7289 418 l 6 6 c -6 6 c -6 -6 c 0 -84 7295 376 l 0 -102 7349 418 l 6 -18 c 12 -6 c 12 0 c
42 0 7331 376 l -6 12 7475 358 l -18 6 c -18 0 c -18 -6 c -6 -12 c 6 -12 c 12 -6 c 30 -6 c 12 -6 c 6 -12 c 0 -6 c -6 -12 c -18 -6 c
-18 0 c -18 6 c -6 12 c 0 -192 7547 442 l 0 -192 7553 442 l 42 0 7511 442 l 42 0 7511 250 l
0 -250 1139 1310 l 53 -37 1096 1419 l 0 56 c 79 0 1096 1419 l 4 -11 1096 1480 l 11 -8 c 19 -4 c 11 0 c 19 4 c 11 8 c 4 11 c 0 8 c
-4 11 c -11 7 c -19 4 c -11 0 c -19 -4 c -11 -7 c -4 -11 c 0 -8 c -4 8 1111 1544 l -11 11 c 79 0 c 4 -11 1096 1627 l 7 -4 c 8 0 c
7 4 c 4 8 c 4 15 c 4 11 c 7 8 c 8 3 c 11 0 c 8 -3 c 3 -4 c 4 -12 c 0 -15 c -4 -11 c -3 -4 c -8 -4 c -11 0 c -8 4 c -7 8 c -4 11 c
-4 15 c -4 8 c -7 4 c -8 0 c -7 -4 c -4 -12 c 0 -15 c 3 -4 1168 1692 l 4 4 c -4 3 c -3 -3 c 4 -12 1096 1745 l 11 -7 c 19 -4 c 11 0 c
19 4 c 11 7 c 4 12 c 0 7 c -4 11 c -11 8 c -19 4 c -11 0 c -19 -4 c -11 -8 c -4 -11 c 0 -7 c 12 -4 1122 1847 l 7 -8 c 4 -11 c 0 -4 c
-4 -11 c -7 -8 c -12 -4 c -4 0 c -11 4 c -7 8 c -4 11 c 0 4 c 4 11 c 7 8 c 15 4 c 19 0 c 19 -4 c 11 -8 c 4 -11 c 0 -8 c -4 -11 c
-7 -4 c 12 -4 1122 1922 l 7 -7 c 4 -12 c 0 -3 c -4 -12 c -7 -7 c -12 -4 c -4 0 c -11 4 c -7 7 c -4 12 c 0 3 c 4 12 c 7 7 c 15 4 c
19 0 c 19 -4 c 11 -7 c 4 -12 c 0 -7 c -4 -11 c -7 -4 c 0 -249 1291 7019 l 53 -38 1247 7129 l 0 57 c 79 0 1247 7129 l
4 -11 1247 7189 l 11 -8 c 19 -3 c 11 0 c 19 3 c 12 8 c 3 11 c 0 8 c -3 11 c -12 8 c -19 3 c -11 0 c -19 -3 c -11 -8 c -4 -11 c
0 -8 c -4 8 1262 7253 l -11 11 c 79 0 c 12 -4 1273 7367 l 7 -8 c 4 -11 c 0 -4 c -4 -11 c -7 -8 c -12 -3 c -3 0 c -12 3 c -7 8 c
-4 11 c 0 4 c 4 11 c 7 8 c 15 4 c 19 0 c 19 -4 c 12 -8 c 3 -11 c 0 -7 c -3 -12 c -8 -4 c 4 -4 1319 7401 l 3 4 c -3 4 c -4 -4 c
-4 8 1262 7442 l -11 11 c 79 0 c -4 0 1266 7510 l -7 4 c -4 4 c -4 8 c 0 15 c 4 7 c 4 4 c 7 4 c 8 0 c 7 -4 c 12 -8 c 37 -37 c 0 53 c
12 -3 1273 7631 l 7 -8 c 4 -11 c 0 -4 c -4 -11 c -7 -8 c -12 -4 c -3 0 c -12 4 c -7 8 c -4 11 c 0 4 c 4 11 c 7 8 c 15 3 c 19 0 c
19 -3 c 12 -8 c 3 -11 c 0 -8 c -3 -11 c -8 -4 c 0 -250 1469 1252 l 53 -37 1426 1361 l 0 56 c 79 0 1426 1361 l 4 -11 1426 1422 l
11 -8 c 19 -4 c 11 0 c 19 4 c 11 8 c 4 11 c 0 8 c -4 11 c -11 7 c -19 4 c -11 0 c -19 -4 c -11 -7 c -4 -11 c 0 -8 c -4 0 1445 1479 l
-8 3 c -3 4 c -4 8 c 0 15 c 4 7 c 3 4 c 8 4 c 8 0 c 7 -4 c 11 -7 c 38 -38 c 0 53 c 4 -11 1426 1573 l 11 -8 c 19 -4 c 11 0 c 19 4 c
11 8 c 4 11 c 0 8 c -4 11 c -11 8 c -19 3 c -11 0 c -19 -3 c -11 -8 c -4 -11 c 0 -8 c 3 -4 1498 1634 l 4 4 c -4 3 c -3 -3 c
0 42 1426 1671 l 30 -23 c 0 12 c 4 7 c 4 4 c 11 4 c 8 0 c 11 -4 c 7 -8 c 4 -11 c 0 -11 c -4 -12 c -3 -3 c -8 -4 c 0 -38 1426 1785 l
34 -4 c -4 4 c -4 11 c 0 12 c 4 11 c 8 8 c 11 3 c 8 0 c 11 -3 c 7 -8 c 4 -11 c 0 -12 c -4 -11 c -3 -4 c -8 -4 c 53 -38 1426 1853 l
0 57 c 79 0 1426 1853 l 0 -249 1723 1831 l 53 -38 1680 1941 l 0 57 c 79 0 1680 1941 l 3 -11 1680 2001 l 12 -7 c 19 -4 c 11 0 c
19 4 c 11 7 c 4 11 c 0 8 c -4 11 c -11 8 c -19 4 c -11 0 c -19 -4 c -12 -8 c -3 -11 c 0 -8 c -4 0 1699 2058 l -8 4 c -4 4 c -3 7 c
0 15 c 3 8 c 4 4 c 8 4 c 7 0 c 8 -4 c 11 -8 c 38 -38 c 0 53 c -4 0 1699 2134 l -8 4 c -4 3 c -3 8 c 0 15 c 3 8 c 4 3 c 8 4 c 7 0 c
8 -4 c 11 -7 c 38 -38 c 0 53 c 4 -4 1751 2213 l 4 4 c -4 4 c -4 -4 c 3 -11 1680 2266 l 12 -8 c 19 -4 c 11 0 c 19 4 c 11 8 c 4 11 c
0 8 c -4 11 c -11 7 c -19 4 c -11 0 c -19 -4 c -12 -7 c -3 -11 c 0 -8 c -8 -4 1691 2368 l -3 -11 c 0 -8 c 3 -11 c 12 -7 c 19 -4 c
19 0 c 15 4 c 7 7 c 4 11 c 0 4 c -4 12 c -7 7 c -12 4 c -3 0 c -12 -4 c -7 -7 c -4 -12 c 0 -4 c 4 -11 c 7 -7 c 12 -4 c
79 -37 1680 2447 l 0 52 1680 2395 l 0 -249 1906 1247 l 52 -38 1863 1357 l 0 57 c 79 0 1863 1357 l 3 -11 1863 1417 l 12 -8 c 19 -3 c
11 0 c 19 3 c 11 8 c 4 11 c 0 8 c -4 11 c -11 8 c -19 4 c -11 0 c -19 -4 c -12 -8 c -3 -11 c 0 -8 c -3 0 1881 1474 l -8 4 c -4 4 c
-3 7 c 0 15 c 3 8 c 4 4 c 8 3 c 7 0 c 8 -3 c 11 -8 c 38 -38 c 0 53 c 0 42 1863 1553 l 30 -23 c 0 12 c 4 7 c 3 4 c 12 4 c 7 0 c
12 -4 c 7 -8 c 4 -11 c 0 -11 c -4 -12 c -4 -3 c -7 -4 c 4 -4 1934 1629 l 4 4 c -4 4 c -4 -4 c 0 41 1863 1667 l 30 -22 c 0 11 c 4 8 c
3 3 c 12 4 c 7 0 c 12 -4 c 7 -7 c 4 -12 c 0 -11 c -4 -11 c -4 -4 c -7 -4 c 0 42 1863 1742 l 30 -23 c 0 12 c 4 7 c 3 4 c 12 4 c 7 0 c
12 -4 c 7 -8 c 4 -11 c 0 -11 c -4 -12 c -4 -3 c -7 -4 c 3 -11 1863 1829 l 8 -4 c 7 0 c 8 4 c 4 8 c 4 15 c 3 11 c 8 8 c 7 3 c 12 0 c
7 -3 c 4 -4 c 4 -12 c 0 -15 c -4 -11 c -4 -4 c -7 -4 c -12 0 c -7 4 c -8 8 c -3 11 c -4 15 c -4 8 c -8 4 c -7 0 c -8 -4 c -3 -12 c
0 -15 c 0 -250 2121 1421 l 53 -38 2077 1530 l 0 57 c 79 0 2077 1530 l 4 -12 2077 1591 l 11 -7 c 19 -4 c 11 0 c 19 4 c 12 7 c 3 12 c
0 7 c -3 12 c -12 7 c -19 4 c -11 0 c -19 -4 c -11 -7 c -4 -12 c 0 -7 c -4 0 2096 1647 l -7 4 c -4 4 c -4 7 c 0 16 c 4 7 c 4 4 c
7 4 c 8 0 c 7 -4 c 12 -8 c 37 -37 c 0 52 c 53 -38 2077 1757 l 0 57 c 79 0 2077 1757 l 4 -4 2149 1802 l 3 4 c -3 4 c -4 -4 c
4 -11 2077 1851 l 7 -4 c 8 0 c 8 4 c 3 8 c 4 15 c 4 11 c 7 8 c 8 3 c 11 0 c 8 -3 c 4 -4 c 3 -11 c 0 -16 c -3 -11 c -4 -4 c -8 -4 c
-11 0 c -8 4 c -7 8 c -4 11 c -4 15 c -3 8 c -8 4 c -8 0 c -7 -4 c -4 -11 c 0 -16 c 4 -12 2077 1931 l 11 -7 c 19 -4 c 11 0 c 19 4 c
12 7 c 3 12 c 0 7 c -3 12 c -12 7 c -19 4 c -11 0 c -19 -4 c -11 -7 c -4 -12 c 0 -7 c -4 0 2096 1987 l -7 4 c -4 4 c -4 8 c 0 15 c
4 7 c 4 4 c 7 4 c 8 0 c 7 -4 c 12 -8 c 37 -37 c 0 53 c 0 -249 2246 1491 l 53 -38 2202 1601 l 0 57 c 80 0 2202 1601 l
4 -12 2202 1662 l 12 -7 c 18 -4 c 12 0 c 19 4 c 11 7 c 4 12 c 0 7 c -4 11 c -11 8 c -19 4 c -12 0 c -18 -4 c -12 -8 c -4 -11 c
0 -7 c -3 0 2221 1718 l -8 4 c -4 4 c -4 7 c 0 15 c 4 8 c 4 4 c 8 4 c 7 0 c 8 -4 c 11 -8 c 38 -38 c 0 53 c 0 -37 2202 1835 l 34 -4 c
-3 4 c -4 11 c 0 11 c 4 12 c 7 7 c 12 4 c 7 0 c 11 -4 c 8 -7 c 4 -12 c 0 -11 c -4 -11 c -4 -4 c -7 -4 c 4 -4 2274 1873 l 4 4 c
-4 4 c -4 -4 c -8 -4 2214 1953 l -4 -12 c 0 -7 c 4 -11 c 12 -8 c 18 -4 c 19 0 c 15 4 c 8 8 c 4 11 c 0 4 c -4 11 c -8 8 c -11 3 c
-4 0 c -11 -3 c -8 -8 c -3 -11 c 0 -4 c 3 -11 c 8 -8 c 11 -4 c 0 -37 2202 2024 l 34 -4 c -3 4 c -4 11 c 0 11 c 4 12 c 7 7 c 12 4 c
7 0 c 11 -4 c 8 -7 c 4 -12 c 0 -11 c -4 -11 c -4 -4 c -7 -4 c -8 -4 2214 2104 l -4 -11 c 0 -8 c 4 -11 c 12 -8 c 18 -4 c 19 0 c
15 4 c 8 8 c 4 11 c 0 4 c -4 11 c -8 8 c -11 4 c -4 0 c -11 -4 c -8 -8 c -3 -11 c 0 -4 c 3 -11 c 8 -8 c 11 -4 c 0 -250 2446 1560 l
53 -37 2402 1669 l 0 56 c 79 0 2402 1669 l 4 -11 2402 1730 l 11 -8 c 19 -4 c 11 0 c 19 4 c 12 8 c 3 11 c 0 8 c -3 11 c -12 7 c
-19 4 c -11 0 c -19 -4 c -11 -7 c -4 -11 c 0 -8 c -4 0 2421 1787 l -7 3 c -4 4 c -4 8 c 0 15 c 4 7 c 4 4 c 7 4 c 8 0 c 7 -4 c
12 -7 c 37 -38 c 0 53 c 79 -37 2402 1911 l 0 53 2402 1858 l 4 -4 2474 1942 l 3 4 c -3 3 c -4 -3 c 4 -12 2402 1995 l 11 -7 c 19 -4 c
11 0 c 19 4 c 12 7 c 3 12 c 0 7 c -3 11 c -12 8 c -19 4 c -11 0 c -19 -4 c -11 -8 c -4 -11 c 0 -7 c 4 -11 2402 2070 l 11 -8 c
19 -4 c 11 0 c 19 4 c 12 8 c 3 11 c 0 8 c -3 11 c -12 8 c -19 3 c -11 0 c -19 -3 c -11 -8 c -4 -11 c 0 -8 c 11 -4 2429 2172 l 7 -7 c
4 -12 c 0 -3 c -4 -12 c -7 -7 c -11 -4 c -4 0 c -12 4 c -7 7 c -4 12 c 0 3 c 4 12 c 7 7 c 16 4 c 18 0 c 19 -4 c 12 -7 c 3 -12 c
0 -7 c -3 -11 c -8 -4 c 0 -249 2863 1349 l 53 -38 2819 1459 l 0 57 c 80 0 2819 1459 l 4 -11 2819 1519 l 11 -7 c 19 -4 c 12 0 c
18 4 c 12 7 c 4 11 c 0 8 c -4 11 c -12 8 c -18 4 c -12 0 c -19 -4 c -11 -8 c -4 -11 c 0 -8 c -4 0 2838 1576 l -7 4 c -4 4 c -4 7 c
0 15 c 4 8 c 4 4 c 7 3 c 8 0 c 7 -3 c 12 -8 c 38 -38 c 0 53 c 11 -4 2846 1697 l 8 -7 c 3 -12 c 0 -3 c -3 -12 c -8 -7 c -11 -4 c
-4 0 c -11 4 c -8 7 c -4 12 c 0 3 c 4 12 c 8 7 c 15 4 c 19 0 c 18 -4 c 12 -7 c 4 -12 c 0 -7 c -4 -12 c -8 -3 c 4 -4 2891 1731 l
4 4 c -4 4 c -4 -4 c 4 -11 2819 1780 l 8 -4 c 7 0 c 8 4 c 3 7 c 4 16 c 4 11 c 8 7 c 7 4 c 11 0 c 8 -4 c 4 -3 c 4 -12 c 0 -15 c
-4 -11 c -4 -4 c -8 -4 c -11 0 c -7 4 c -8 8 c -4 11 c -4 15 c -3 8 c -8 3 c -7 0 c -8 -3 c -4 -12 c 0 -15 c -4 0 2838 1841 l -7 3 c
-4 4 c -4 8 c 0 15 c 4 7 c 4 4 c 7 4 c 8 0 c 7 -4 c 12 -7 c 38 -38 c 0 53 c -8 -4 2831 1962 l -4 -12 c 0 -7 c 4 -11 c 11 -8 c
19 -4 c 19 0 c 15 4 c 8 8 c 4 11 c 0 4 c -4 11 c -8 8 c -11 3 c -4 0 c -11 -3 c -8 -8 c -4 -11 c 0 -4 c 4 -11 c 8 -8 c 11 -4 c
0 -249 2932 1338 l 53 -38 2888 1448 l 0 57 c 80 0 2888 1448 l 4 -11 2888 1508 l 12 -7 c 19 -4 c 11 0 c 19 4 c 11 7 c 4 11 c 0 8 c
-4 11 c -11 8 c -19 4 c -11 0 c -19 -4 c -12 -8 c -4 -11 c 0 -8 c 0 42 2888 1569 l 31 -23 c 0 11 c 4 8 c 3 4 c 12 3 c 7 0 c 12 -3 c
7 -8 c 4 -11 c 0 -12 c -4 -11 c -4 -4 c -7 -4 c 4 -12 2888 1660 l 12 -7 c 19 -4 c 11 0 c 19 4 c 11 7 c 4 12 c 0 7 c -4 12 c -11 7 c
-19 4 c -11 0 c -19 -4 c -12 -7 c -4 -12 c 0 -7 c 4 -4 2960 1720 l 4 4 c -4 4 c -4 -4 c -3 0 2907 1754 l -8 4 c -4 4 c -4 7 c 0 15 c
4 8 c 4 4 c 8 4 c 7 0 c 8 -4 c 11 -8 c 38 -38 c 0 53 c 11 -4 2915 1875 l 8 -7 c 4 -12 c 0 -3 c -4 -12 c -8 -7 c -11 -4 c -4 0 c
-11 4 c -8 7 c -4 12 c 0 3 c 4 12 c 8 7 c 15 4 c 19 0 c 19 -4 c 11 -7 c 4 -12 c 0 -7 c -4 -11 c -7 -4 c 0 42 2888 1909 l 31 -23 c
0 11 c 4 8 c 3 4 c 12 3 c 7 0 c 12 -3 c 7 -8 c 4 -11 c 0 -12 c -4 -11 c -4 -4 c -7 -3 c 0 -250 3014 2973 l 53 -38 2970 3082 l 0 57 c
80 0 2970 3082 l 4 -12 2970 3143 l 12 -7 c 18 -4 c 12 0 c 19 4 c 11 7 c 4 12 c 0 7 c -4 12 c -11 7 c -19 4 c -12 0 c -18 -4 c
-12 -7 c -4 -12 c 0 -7 c 0 42 2970 3203 l 31 -23 c 0 11 c 3 8 c 4 4 c 12 4 c 7 0 c 11 -4 c 8 -8 c 4 -11 c 0 -11 c -4 -12 c -4 -4 c
-7 -3 c 4 -11 2970 3294 l 12 -8 c 18 -4 c 12 0 c 19 4 c 11 8 c 4 11 c 0 7 c -4 12 c -11 7 c -19 4 c -12 0 c -18 -4 c -12 -7 c
-4 -12 c 0 -7 c 4 -3 3042 3354 l 4 3 c -4 4 c -4 -4 c 4 -11 2970 3403 l 8 -4 c 7 0 c 8 4 c 4 8 c 3 15 c 4 11 c 8 8 c 7 4 c 12 0 c
7 -4 c 4 -4 c 4 -11 c 0 -16 c -4 -11 c -4 -4 c -7 -3 c -12 0 c -7 3 c -8 8 c -4 11 c -3 15 c -4 8 c -8 4 c -7 0 c -8 -4 c -4 -11 c
0 -16 c 53 -38 2970 3498 l 0 57 c 80 0 2970 3498 l -3 0 2989 3540 l -8 3 c -4 4 c -4 8 c 0 15 c 4 7 c 4 4 c 8 4 c 7 0 c 8 -4 c
11 -7 c 38 -38 c 0 53 c 0 -250 3793 5058 l 53 -38 3749 5168 l 0 56 c 80 0 3749 5168 l 4 -11 3749 5228 l 11 -8 c 19 -4 c 12 0 c
18 4 c 12 8 c 4 11 c 0 8 c -4 11 c -12 7 c -18 4 c -12 0 c -19 -4 c -11 -7 c -4 -11 c 0 -8 c 0 42 3749 5288 l 30 -23 c 0 12 c 4 7 c
4 4 c 11 4 c 8 0 c 11 -4 c 8 -7 c 4 -12 c 0 -11 c -4 -12 c -4 -3 c -8 -4 c -8 -4 3761 5406 l -4 -11 c 0 -8 c 4 -11 c 11 -8 c 19 -4 c
19 0 c 15 4 c 8 8 c 4 11 c 0 4 c -4 11 c -8 8 c -11 3 c -4 0 c -11 -3 c -8 -8 c -4 -11 c 0 -4 c 4 -11 c 8 -8 c 11 -4 c
4 -4 3821 5440 l 4 4 c -4 3 c -4 -3 c 4 -12 3749 5493 l 11 -7 c 19 -4 c 12 0 c 18 4 c 12 7 c 4 12 c 0 7 c -4 11 c -12 8 c -18 4 c
-12 0 c -19 -4 c -11 -8 c -4 -11 c 0 -7 c 53 -38 3749 5583 l 0 57 c 80 0 3749 5583 l 4 -11 3749 5640 l 8 -4 c 7 0 c 8 4 c 3 7 c
4 15 c 4 12 c 8 7 c 7 4 c 11 0 c 8 -4 c 4 -4 c 4 -11 c 0 -15 c -4 -11 c -4 -4 c -8 -4 c -11 0 c -7 4 c -8 7 c -4 12 c -4 15 c -3 7 c
-8 4 c -7 0 c -8 -4 c -4 -11 c 0 -15 c 0 -249 4572 1770 l 53 -38 4529 1880 l 0 57 c 79 0 4529 1880 l 3 -11 4529 1940 l 12 -8 c
19 -3 c 11 0 c 19 3 c 11 8 c 4 11 c 0 8 c -4 11 c -11 8 c -19 4 c -11 0 c -19 -4 c -12 -8 c -3 -11 c 0 -8 c 53 -38 4529 2031 l
0 57 c 79 0 4529 2031 l -4 8 4544 2080 l -11 11 c 79 0 c 4 -4 4600 2152 l 4 4 c -4 4 c -4 -4 c -4 0 4548 2186 l -8 4 c -4 4 c -3 7 c
0 15 c 3 8 c 4 4 c 8 3 c 7 0 c 8 -3 c 11 -8 c 38 -38 c 0 53 c 3 -11 4529 2280 l 12 -7 c 19 -4 c 11 0 c 19 4 c 11 7 c 4 11 c 0 8 c
-4 11 c -11 8 c -19 4 c -11 0 c -19 -4 c -12 -8 c -3 -11 c 0 -8 c 53 -38 4529 2371 l 0 57 c 79 0 4529 2371 l 0 -250 4830 3461 l
53 -37 4786 3570 l 0 56 c 80 0 4786 3570 l 4 -11 4786 3631 l 12 -8 c 18 -4 c 12 0 c 19 4 c 11 8 c 4 11 c 0 7 c -4 12 c -11 7 c
-19 4 c -12 0 c -18 -4 c -12 -7 c -4 -12 c 0 -7 c 53 -38 4786 3722 l 0 56 c 80 0 4786 3722 l -3 0 4805 3763 l -8 4 c -4 4 c -4 7 c
0 15 c 4 8 c 4 4 c 8 4 c 7 0 c 8 -4 c 11 -8 c 38 -38 c 0 53 c 4 -4 4858 3843 l 4 4 c -4 3 c -4 -3 c 4 -12 4786 3892 l 8 -3 c 7 0 c
8 3 c 4 8 c 3 15 c 4 11 c 8 8 c 7 4 c 12 0 c 7 -4 c 4 -4 c 4 -11 c 0 -15 c -4 -12 c -4 -3 c -7 -4 c -12 0 c -7 4 c -8 7 c -4 11 c
-3 16 c -4 7 c -8 4 c -7 0 c -8 -4 c -4 -11 c 0 -15 c 11 -3 4813 3997 l 8 -8 c 4 -11 c 0 -4 c -4 -11 c -8 -8 c -11 -4 c -4 0 c
-11 4 c -8 8 c -4 11 c 0 4 c 4 11 c 8 8 c 15 3 c 19 0 c 19 -3 c 11 -8 c 4 -11 c 0 -8 c -4 -11 c -8 -4 c 53 -38 4786 4062 l 0 57 c
80 0 4786 4062 l 0 -250 4906 1973 l 53 -38 4863 2082 l 0 57 c 79 0 4863 2082 l 4 -12 4863 2143 l 11 -7 c 19 -4 c 11 0 c 19 4 c
11 7 c 4 12 c 0 7 c -4 12 c -11 7 c -19 4 c -11 0 c -19 -4 c -11 -7 c -4 -12 c 0 -7 c 53 -37 4863 2233 l 0 56 c 79 0 4863 2233 l
0 41 4863 2279 l 30 -22 c 0 11 c 4 8 c 4 3 c 11 4 c 7 0 c 12 -4 c 7 -7 c 4 -12 c 0 -11 c -4 -11 c -3 -4 c -8 -4 c 3 -3 4935 2354 l
4 3 c -4 4 c -3 -4 c 0 42 4863 2392 l 30 -23 c 0 11 c 4 8 c 4 4 c 11 4 c 7 0 c 12 -4 c 7 -8 c 4 -11 c 0 -11 c -4 -12 c -3 -4 c
-8 -3 c 12 -3 4889 2509 l 7 -8 c 4 -11 c 0 -4 c -4 -11 c -7 -8 c -12 -4 c -4 0 c -11 4 c -7 8 c -4 11 c 0 4 c 4 11 c 7 8 c 15 3 c
19 0 c 19 -3 c 11 -8 c 4 -11 c 0 -8 c -4 -11 c -7 -4 c 0 -38 4863 2581 l 34 -3 c -4 3 c -4 12 c 0 11 c 4 11 c 8 8 c 11 4 c 7 0 c
12 -4 c 7 -8 c 4 -11 c 0 -11 c -4 -12 c -3 -3 c -8 -4 c 0 -250 5063 4049 l 53 -38 5019 4158 l 0 57 c 80 0 5019 4158 l
4 -12 5019 4219 l 11 -7 c 19 -4 c 12 0 c 19 4 c 11 7 c 4 12 c 0 7 c -4 12 c -11 7 c -19 4 c -12 0 c -19 -4 c -11 -7 c -4 -12 c
0 -7 c 53 -37 5019 4309 l 0 56 c 80 0 5019 4309 l 53 -38 5019 4385 l 0 57 c 80 0 5019 4385 l 4 -3 5091 4430 l 4 3 c -4 4 c -4 -4 c
53 -37 5019 4498 l 0 56 c 80 0 5019 4498 l -3 7 5034 4548 l -12 11 c 80 0 c 4 -12 5019 4631 l 8 -3 c 7 0 c 8 3 c 4 8 c 3 15 c 4 11 c
8 8 c 7 4 c 12 0 c 7 -4 c 4 -4 c 4 -11 c 0 -15 c -4 -12 c -4 -3 c -7 -4 c -12 0 c -7 4 c -8 7 c -4 11 c -3 16 c -4 7 c -8 4 c -7 0 c
-8 -4 c -4 -11 c 0 -15 c 0 -250 5915 1478 l 53 -37 5871 1587 l 0 56 c 80 0 5871 1587 l 4 -12 5871 1648 l 11 -7 c 19 -4 c 12 0 c
18 4 c 12 7 c 4 12 c 0 7 c -4 12 c -12 7 c -18 4 c -12 0 c -19 -4 c -11 -7 c -4 -12 c 0 -7 c 53 -37 5871 1738 l 0 56 c
80 0 5871 1738 l 11 -3 5898 1825 l 8 -8 c 3 -11 c 0 -4 c -3 -11 c -8 -8 c -11 -4 c -4 0 c -11 4 c -8 8 c -4 11 c 0 4 c 4 11 c 8 8 c
15 3 c 19 0 c 18 -3 c 12 -8 c 4 -11 c 0 -8 c -4 -11 c -8 -4 c 4 -3 5943 1859 l 4 3 c -4 4 c -4 -4 c 11 -4 5898 1939 l 8 -8 c 3 -11 c
0 -4 c -3 -11 c -8 -8 c -11 -3 c -4 0 c -11 3 c -8 8 c -4 11 c 0 4 c 4 11 c 8 8 c 15 4 c 19 0 c 18 -4 c 12 -8 c 4 -11 c 0 -7 c
-4 -12 c -8 -4 c 53 -38 5871 2003 l 0 57 c 80 0 5871 2003 l 0 -38 5871 2086 l 34 -3 c -4 3 c -3 12 c 0 11 c 3 11 c 8 8 c 11 4 c
8 0 c 11 -4 c 8 -8 c 4 -11 c 0 -11 c -4 -12 c -4 -3 c -8 -4 c 0 -250 6062 1350 l 53 -38 6018 1460 l 0 56 c 79 0 6018 1460 l
4 -11 6018 1520 l 11 -8 c 19 -4 c 11 0 c 19 4 c 12 8 c 3 11 c 0 8 c -3 11 c -12 7 c -19 4 c -11 0 c -19 -4 c -11 -7 c -4 -11 c
0 -8 c 0 -38 6018 1618 l 34 -3 c -4 3 c -4 12 c 0 11 c 4 11 c 8 8 c 11 4 c 8 0 c 11 -4 c 8 -8 c 3 -11 c 0 -11 c -3 -12 c -4 -3 c
-8 -4 c 4 -11 6018 1671 l 11 -8 c 19 -3 c 11 0 c 19 3 c 12 8 c 3 11 c 0 8 c -3 11 c -12 8 c -19 3 c -11 0 c -19 -3 c -11 -8 c
-4 -11 c 0 -8 c 4 -4 6090 1732 l 3 4 c -3 3 c -4 -3 c 4 -12 6018 1781 l 7 -3 c 8 0 c 7 3 c 4 8 c 4 15 c 4 11 c 7 8 c 8 4 c 11 0 c
8 -4 c 4 -4 c 3 -11 c 0 -15 c -3 -12 c -4 -3 c -8 -4 c -11 0 c -8 4 c -7 7 c -4 12 c -4 15 c -4 7 c -7 4 c -8 0 c -7 -4 c -4 -11 c
0 -15 c 4 -11 6018 1856 l 7 -4 c 8 0 c 7 4 c 4 8 c 4 15 c 4 11 c 7 8 c 8 3 c 11 0 c 8 -3 c 4 -4 c 3 -11 c 0 -16 c -3 -11 c -4 -4 c
-8 -4 c -11 0 c -8 4 c -7 8 c -4 11 c -4 15 c -4 8 c -7 4 c -8 0 c -7 -4 c -4 -11 c 0 -16 c 79 -38 6018 1966 l 0 53 6018 1913 l
0 -249 6379 4146 l 53 -38 6335 4256 l 0 57 c 80 0 6335 4256 l 4 -12 6335 4317 l 12 -7 c 18 -4 c 12 0 c 19 4 c 11 7 c 4 12 c 0 7 c
-4 11 c -11 8 c -19 4 c -12 0 c -18 -4 c -12 -8 c -4 -11 c 0 -7 c 0 -38 6335 4415 l 34 -4 c -3 4 c -4 11 c 0 12 c 4 11 c 7 8 c
12 3 c 7 0 c 11 -3 c 8 -8 c 4 -11 c 0 -12 c -4 -11 c -4 -4 c -7 -4 c -3 0 6354 4449 l -8 4 c -4 3 c -4 8 c 0 15 c 4 8 c 4 3 c 8 4 c
7 0 c 8 -4 c 11 -7 c 38 -38 c 0 53 c 4 -4 6407 4528 l 4 4 c -4 4 c -4 -4 c 11 -4 6362 4608 l 8 -8 c 4 -11 c 0 -4 c -4 -11 c -8 -8 c
-11 -4 c -4 0 c -11 4 c -8 8 c -4 11 c 0 4 c 4 11 c 8 8 c 15 4 c 19 0 c 19 -4 c 11 -8 c 4 -11 c 0 -8 c -4 -11 c -8 -4 c
-3 0 6354 4638 l -8 4 c -4 3 c -4 8 c 0 15 c 4 8 c 4 3 c 8 4 c 7 0 c 8 -4 c 11 -7 c 38 -38 c 0 53 c -4 8 6351 4721 l -12 11 c 80 0 c
0 -250 6474 1585 l 53 -38 6430 1695 l 0 56 c 80 0 6430 1695 l 4 -11 6430 1755 l 11 -8 c 19 -4 c 12 0 c 18 4 c 12 8 c 4 11 c 0 8 c
-4 11 c -12 7 c -18 4 c -12 0 c -19 -4 c -11 -7 c -4 -11 c 0 -8 c 0 -38 6430 1853 l 34 -3 c -4 3 c -3 12 c 0 11 c 3 11 c 8 8 c
11 4 c 8 0 c 11 -4 c 8 -8 c 4 -11 c 0 -11 c -4 -12 c -4 -3 c -8 -4 c 0 42 6430 1891 l 30 -23 c 0 11 c 4 8 c 4 4 c 11 3 c 8 0 c
11 -3 c 8 -8 c 4 -11 c 0 -12 c -4 -11 c -4 -4 c -8 -4 c 4 -4 6502 1967 l 4 4 c -4 3 c -4 -3 c 0 -38 6430 2042 l 34 -3 c -4 3 c
-3 12 c 0 11 c 3 11 c 8 8 c 11 4 c 8 0 c 11 -4 c 8 -8 c 4 -11 c 0 -11 c -4 -12 c -4 -3 c -8 -4 c -4 0 6449 2076 l -7 4 c -4 4 c
-4 7 c 0 15 c 4 8 c 4 4 c 7 4 c 8 0 c 7 -4 c 12 -8 c 38 -38 c 0 53 c 4 -11 6430 2167 l 8 -4 c 7 0 c 8 4 c 3 7 c 4 15 c 4 12 c 8 7 c
7 4 c 11 0 c 8 -4 c 4 -4 c 4 -11 c 0 -15 c -4 -11 c -4 -4 c -8 -4 c -11 0 c -7 4 c -8 7 c -4 12 c -4 15 c -3 7 c -8 4 c -7 0 c
-8 -4 c -4 -11 c 0 -15 c 0 -249 7377 1620 l 53 -38 7334 1730 l 0 57 c 79 0 7334 1730 l 4 -11 7334 1790 l 11 -8 c 19 -3 c 11 0 c
19 3 c 11 8 c 4 11 c 0 8 c -4 11 c -11 8 c -19 4 c -11 0 c -19 -4 c -11 -8 c -4 -11 c 0 -8 c 0 -38 7334 1889 l 34 -4 c -4 4 c
-4 11 c 0 11 c 4 12 c 8 7 c 11 4 c 8 0 c 11 -4 c 7 -7 c 4 -12 c 0 -11 c -4 -11 c -3 -4 c -8 -4 c 12 -4 7360 1968 l 7 -7 c 4 -12 c
0 -4 c -4 -11 c -7 -7 c -12 -4 c -3 0 c -12 4 c -7 7 c -4 11 c 0 4 c 4 12 c 7 7 c 15 4 c 19 0 c 19 -4 c 11 -7 c 4 -12 c 0 -7 c
-4 -12 c -7 -3 c 3 -4 7406 2002 l 4 4 c -4 4 c -3 -4 c -4 0 7353 2036 l -8 4 c -3 3 c -4 8 c 0 15 c 4 8 c 3 4 c 8 3 c 8 0 c 7 -3 c
11 -8 c 38 -38 c 0 53 c 0 -38 7334 2153 l 34 -3 c -4 3 c -4 12 c 0 11 c 4 11 c 8 8 c 11 4 c 8 0 c 11 -4 c 7 -8 c 4 -11 c 0 -11 c
-4 -12 c -3 -3 c -8 -4 c 0 41 7334 2191 l 30 -22 c 0 11 c 4 8 c 4 3 c 11 4 c 8 0 c 11 -4 c 7 -7 c 4 -11 c 0 -12 c -4 -11 c -3 -4 c
-8 -4 c 0 -250 8042 1610 l 53 -38 7998 1720 l 0 57 c 80 0 7998 1720 l 4 -11 7998 1780 l 11 -8 c 19 -4 c 12 0 c 18 4 c 12 8 c 4 11 c
0 8 c -4 11 c -12 8 c -18 3 c -12 0 c -19 -3 c -11 -8 c -4 -11 c 0 -8 c -8 -4 8010 1882 l -4 -11 c 0 -8 c 4 -11 c 11 -7 c 19 -4 c
19 0 c 15 4 c 8 7 c 4 11 c 0 4 c -4 12 c -8 7 c -11 4 c -4 0 c -11 -4 c -8 -7 c -4 -12 c 0 -4 c 4 -11 c 8 -7 c 11 -4 c
0 42 7998 1916 l 30 -23 c 0 11 c 4 8 c 4 4 c 11 4 c 8 0 c 11 -4 c 8 -8 c 4 -11 c 0 -11 c -4 -12 c -4 -4 c -8 -3 c 4 -4 8070 1992 l
4 4 c -4 4 c -4 -4 c 53 -38 7998 2060 l 0 57 c 80 0 7998 2060 l 4 -11 7998 2120 l 11 -8 c 19 -3 c 12 0 c 18 3 c 12 8 c 4 11 c 0 8 c
-4 11 c -12 8 c -18 4 c -12 0 c -19 -4 c -11 -8 c -4 -11 c 0 -8 c 80 -38 7998 2226 l 0 53 7998 2173 l 0 -250 8191 1342 l
53 -38 8147 1452 l 0 56 c 80 0 8147 1452 l 4 -11 8147 1512 l 11 -8 c 19 -4 c 12 0 c 18 4 c 12 8 c 4 11 c 0 8 c -4 11 c -12 7 c
-18 4 c -12 0 c -19 -4 c -11 -7 c -4 -11 c 0 -8 c -7 -4 8158 1614 l -4 -11 c 0 -8 c 4 -11 c 11 -8 c 19 -3 c 19 0 c 15 3 c 8 8 c
4 11 c 0 4 c -4 11 c -8 8 c -11 4 c -4 0 c -11 -4 c -8 -8 c -4 -11 c 0 -4 c 4 -11 c 8 -8 c 11 -3 c 53 -37 8147 1678 l 0 56 c
80 0 8147 1678 l 4 -4 8219 1724 l 4 4 c -4 3 c -4 -3 c 0 42 8147 1761 l 30 -23 c 0 12 c 4 7 c 4 4 c 11 4 c 8 0 c 11 -4 c 8 -8 c
4 -11 c 0 -11 c -4 -12 c -4 -3 c -8 -4 c 0 42 8147 1837 l 30 -23 c 0 11 c 4 8 c 4 4 c 11 3 c 8 0 c 11 -3 c 8 -8 c 4 -11 c 0 -12 c
-4 -11 c -4 -4 c -8 -4 c -4 8 8162 1916 l -11 11 c 80 0 c 0 -249 8697 1473 l 53 -38 8653 1583 l 0 57 c 79 0 8653 1583 l
4 -11 8653 1643 l 11 -8 c 19 -3 c 11 0 c 19 3 c 12 8 c 3 11 c 0 8 c -3 11 c -12 8 c -19 4 c -11 0 c -19 -4 c -11 -8 c -4 -11 c
0 -8 c -7 -3 8664 1745 l -4 -12 c 0 -7 c 4 -12 c 11 -7 c 19 -4 c 19 0 c 15 4 c 8 7 c 3 12 c 0 4 c -3 11 c -8 7 c -11 4 c -4 0 c
-11 -4 c -8 -7 c -4 -11 c 0 -4 c 4 -12 c 8 -7 c 11 -4 c 79 -38 8653 1825 l 0 53 8653 1772 l 4 -4 8725 1855 l 3 4 c -3 4 c -4 -4 c
53 -38 8653 1923 l 0 57 c 79 0 8653 1923 l 0 -38 8653 2006 l 34 -3 c -4 3 c -4 12 c 0 11 c 4 11 c 8 8 c 11 4 c 8 0 c 11 -4 c 8 -8 c
3 -11 c 0 -11 c -3 -12 c -4 -3 c -8 -4 c -4 7 8668 2048 l -11 12 c 79 0 c 0 -250 8982 3972 l 53 -37 8939 4081 l 0 56 c
79 0 8939 4081 l 4 -11 8939 4142 l 11 -8 c 19 -4 c 11 0 c 19 4 c 11 8 c 4 11 c 0 7 c -4 12 c -11 7 c -19 4 c -11 0 c -19 -4 c
-11 -7 c -4 -12 c 0 -7 c -7 -4 8950 4244 l -4 -11 c 0 -8 c 4 -11 c 11 -8 c 19 -3 c 19 0 c 15 3 c 7 8 c 4 11 c 0 4 c -4 11 c -7 8 c
-12 4 c -3 0 c -12 -4 c -7 -8 c -4 -11 c 0 -4 c 4 -11 c 7 -8 c 12 -3 c 12 -4 8965 4320 l 7 -8 c 4 -11 c 0 -4 c -4 -11 c -7 -8 c
-12 -4 c -4 0 c -11 4 c -7 8 c -4 11 c 0 4 c 4 11 c 7 8 c 15 4 c 19 0 c 19 -4 c 11 -8 c 4 -11 c 0 -8 c -4 -11 c -7 -4 c
3 -4 9011 4354 l 4 4 c -4 3 c -3 -3 c -4 0 8958 4388 l -8 3 c -3 4 c -4 8 c 0 15 c 4 7 c 3 4 c 8 4 c 7 0 c 8 -4 c 11 -7 c 38 -38 c
0 53 c 4 -11 8939 4478 l 7 -4 c 8 0 c 7 4 c 4 7 c 4 16 c 4 11 c 7 8 c 8 3 c 11 0 c 8 -3 c 3 -4 c 4 -12 c 0 -15 c -4 -11 c -3 -4 c
-8 -4 c -11 0 c -8 4 c -7 8 c -4 11 c -4 15 c -4 8 c -7 4 c -8 0 c -7 -4 c -4 -12 c 0 -15 c 0 41 8939 4543 l 30 -23 c 0 12 c 4 7 c
4 4 c 11 4 c 7 0 c 12 -4 c 7 -7 c 4 -12 c 0 -11 c -4 -11 c -3 -4 c -8 -4 c 0 -250 9152 1413 l 53 -37 9109 1522 l 0 56 c
79 0 9109 1522 l 4 -11 9109 1583 l 11 -8 c 19 -4 c 11 0 c 19 4 c 11 8 c 4 11 c 0 7 c -4 12 c -11 7 c -19 4 c -11 0 c -19 -4 c
-11 -7 c -4 -12 c 0 -7 c 79 -38 9109 1689 l 0 53 9109 1636 l 4 -11 9109 1734 l 11 -8 c 19 -4 c 11 0 c 19 4 c 11 8 c 4 11 c 0 8 c
-4 11 c -11 7 c -19 4 c -11 0 c -19 -4 c -11 -7 c -4 -11 c 0 -8 c 3 -4 9181 1795 l 4 4 c -4 3 c -3 -3 c -4 0 9128 1829 l -8 3 c
-3 4 c -4 8 c 0 15 c 4 7 c 3 4 c 8 4 c 7 0 c 8 -4 c 11 -7 c 38 -38 c 0 53 c 0 41 9109 1908 l 30 -22 c 0 11 c 4 8 c 4 3 c 11 4 c
8 0 c 11 -4 c 7 -7 c 4 -11 c 0 -12 c -4 -11 c -3 -4 c -8 -4 c 4 -12 9109 1995 l 7 -3 c 8 0 c 7 3 c 4 8 c 4 15 c 4 11 c 7 8 c 8 4 c
11 0 c 8 -4 c 3 -4 c 4 -11 c 0 -15 c -4 -12 c -3 -3 c -8 -4 c -11 0 c -8 4 c -7 7 c -4 12 c -4 15 c -4 7 c -7 4 c -8 0 c -7 -4 c
-4 -11 c 0 -15 c 0 -250 9443 5706 l 53 -38 9400 5815 l 0 57 c 79 0 9400 5815 l 4 -12 9400 5876 l 11 -7 c 19 -4 c 11 0 c 19 4 c
11 7 c 4 12 c 0 7 c -4 12 c -11 7 c -19 4 c -11 0 c -19 -4 c -11 -7 c -4 -12 c 0 -7 c 79 -38 9400 5982 l 0 53 9400 5929 l
-4 7 9415 6016 l -11 11 c 79 0 c 3 -3 9472 6087 l 4 3 c -4 4 c -3 -4 c 12 -4 9426 6167 l 7 -8 c 4 -11 c 0 -4 c -4 -11 c -7 -8 c
-12 -3 c -3 0 c -12 3 c -7 8 c -4 11 c 0 4 c 4 11 c 7 8 c 15 4 c 19 0 c 19 -4 c 11 -8 c 4 -11 c 0 -7 c -4 -12 c -7 -4 c
12 -3 9426 6242 l 7 -8 c 4 -11 c 0 -4 c -4 -11 c -7 -8 c -12 -4 c -3 0 c -12 4 c -7 8 c -4 11 c 0 4 c 4 11 c 7 8 c 15 3 c 19 0 c
19 -3 c 11 -8 c 4 -11 c 0 -8 c -4 -11 c -7 -4 c 79 -38 9400 6322 l 0 53 9400 6269 l
showpage PGPLOT restore
 
%%Trailer
%%DocumentFonts: 
%%Pages: 1
%%EOF
