%!PS-Adobe-3.0 EPSF-3.0
%%For: tom
%%Title: PGPLOT PostScript plot
%%Creator: PGPLOT
%%CreationDate:  9-Nov-1994 13:42
%%BoundingBox: 25 18 587 774
%%DocumentFonts: (atend)
%%LanguageLevel: 1
%%Orientation: Landscape
%%Pages: (atend)
%%EndComments
%%BeginProlog
/l {moveto rlineto currentpoint stroke moveto} bind def
/c {rlineto currentpoint stroke moveto} bind def
/d {moveto 0 0 rlineto currentpoint stroke moveto} bind def
/SLW {5 mul setlinewidth} bind def
/SCF /pop load def
/BP {newpath moveto} bind def
/LP /rlineto load def
/EP {rlineto closepath eofill} bind def
/MB {gsave translate MFAC dup scale 1 setlinewidth 2 setlinecap 0 setlinejoin newpath} bind def
/ME /grestore load def
/C {0 360 arc stroke} bind def
/FC {0 360 arc fill} bind def
%%EndProlog
 
%%Page: 1 1
%%BeginPageSetup
/PGPLOT save def
0.072 0.072 scale
8150 250 translate 90 rotate
1 setlinejoin 1 setlinecap 1 SLW 1 SCF
%%EndPageSetup
0.00 setgray 1 SLW 8939 0 780 780 l 0 6239 c -8939 0 c 0 -6239 c 0 -45 1116 780 l 0 -45 1554 780 l 0 -45 1991 780 l 0 -45 2428 780 l
0 -90 2865 780 l 0 -45 3302 780 l 0 -45 3739 780 l 0 -45 4176 780 l 0 -45 4613 780 l 0 -90 5051 780 l 0 -45 5488 780 l
0 -45 5925 780 l 0 -45 6362 780 l 0 -45 6799 780 l 0 -90 7236 780 l 0 -45 7673 780 l 0 -45 8110 780 l 0 -45 8548 780 l
0 -45 8985 780 l 0 -90 9422 780 l 0 -45 1116 7064 l 0 -45 1554 7064 l 0 -45 1991 7064 l 0 -45 2428 7064 l 0 -90 2865 7109 l
0 -45 3302 7064 l 0 -45 3739 7064 l 0 -45 4176 7064 l 0 -45 4613 7064 l 0 -90 5051 7109 l 0 -45 5488 7064 l 0 -45 5925 7064 l
0 -45 6362 7064 l 0 -45 6799 7064 l 0 -90 7236 7109 l 0 -45 7673 7064 l 0 -45 8110 7064 l 0 -45 8548 7064 l 0 -45 8985 7064 l
0 -90 9422 7109 l -60 0 2775 672 l -6 -54 c 6 6 c 18 6 c 18 0 c 18 -6 c 12 -12 c 6 -18 c 0 -12 c -6 -18 c -12 -12 c -18 -6 c -18 0 c
-18 6 c -6 6 c -6 12 c -18 -6 2859 672 l -12 -18 c -6 -30 c 0 -18 c 6 -30 c 12 -18 c 18 -6 c 12 0 c 18 6 c 12 18 c 6 30 c 0 18 c
-6 30 c -12 18 c -18 6 c -12 0 c -18 -6 2979 672 l -12 -18 c -6 -30 c 0 -18 c 6 -30 c 12 -18 c 18 -6 c 12 0 c 18 6 c 12 18 c 6 30 c
0 18 c -6 30 c -12 18 c -18 6 c -12 0 c 12 6 4847 648 l 18 18 c 0 -126 c -18 -6 4985 672 l -12 -18 c -6 -30 c 0 -18 c 6 -30 c
12 -18 c 18 -6 c 12 0 c 18 6 c 12 18 c 6 30 c 0 18 c -6 30 c -12 18 c -18 6 c -12 0 c -18 -6 5105 672 l -12 -18 c -6 -30 c 0 -18 c
6 -30 c 12 -18 c 18 -6 c 12 0 c 18 6 c 12 18 c 6 30 c 0 18 c -6 30 c -12 18 c -18 6 c -12 0 c -18 -6 5225 672 l -12 -18 c -6 -30 c
0 -18 c 6 -30 c 12 -18 c 18 -6 c 12 0 c 18 6 c 12 18 c 6 30 c 0 18 c -6 30 c -12 18 c -18 6 c -12 0 c 12 6 7032 648 l 18 18 c
0 -126 c -60 0 7206 672 l -6 -54 c 6 6 c 18 6 c 18 0 c 18 -6 c 12 -12 c 6 -18 c 0 -12 c -6 -18 c -12 -12 c -18 -6 c -18 0 c -18 6 c
-6 6 c -6 12 c -18 -6 7290 672 l -12 -18 c -6 -30 c 0 -18 c 6 -30 c 12 -18 c 18 -6 c 12 0 c 18 6 c 12 18 c 6 30 c 0 18 c -6 30 c
-12 18 c -18 6 c -12 0 c -18 -6 7410 672 l -12 -18 c -6 -30 c 0 -18 c 6 -30 c 12 -18 c 18 -6 c 12 0 c 18 6 c 12 18 c 6 30 c 0 18 c
-6 30 c -12 18 c -18 6 c -12 0 c 0 6 9206 642 l 6 12 c 6 6 c 12 6 c 24 0 c 12 -6 c 6 -6 c 6 -12 c 0 -12 c -6 -12 c -12 -18 c
-60 -60 c 84 0 c -18 -6 9356 672 l -12 -18 c -6 -30 c 0 -18 c 6 -30 c 12 -18 c 18 -6 c 12 0 c 18 6 c 12 18 c 6 30 c 0 18 c -6 30 c
-12 18 c -18 6 c -12 0 c -18 -6 9476 672 l -12 -18 c -6 -30 c 0 -18 c 6 -30 c 12 -18 c 18 -6 c 12 0 c 18 6 c 12 18 c 6 30 c 0 18 c
-6 30 c -12 18 c -18 6 c -12 0 c -18 -6 9596 672 l -12 -18 c -6 -30 c 0 -18 c 6 -30 c 12 -18 c 18 -6 c 12 0 c 18 6 c 12 18 c 6 30 c
0 18 c -6 30 c -12 18 c -18 6 c -12 0 c -90 0 780 780 l -45 0 780 1717 l -90 0 780 2653 l -45 0 780 3590 l -90 0 780 4526 l
-45 0 780 5463 l -90 0 780 6400 l -90 0 9809 780 l -45 0 9764 1717 l -90 0 9809 2653 l -45 0 9764 3590 l -90 0 9809 4526 l
-45 0 9764 5463 l -90 0 9809 6400 l 6 -18 517 774 l 18 -12 c 30 -6 c 18 0 c 30 6 c 18 12 c 6 18 c 0 12 c -6 18 c -18 12 c -30 6 c
-18 0 c -30 -6 c -18 -12 c -6 -18 c 0 -12 c -6 0 547 2395 l -12 6 c -6 6 c -6 12 c 0 24 c 6 12 c 6 6 c 12 6 c 12 0 c 12 -6 c
18 -12 c 60 -60 c 0 84 c 84 84 547 2515 l 84 -84 547 2599 l -6 12 541 2659 l -18 18 c 126 0 c 6 -18 517 2797 l 18 -12 c 30 -6 c
18 0 c 30 6 c 18 12 c 6 18 c 0 12 c -6 18 c -18 12 c -30 6 c -18 0 c -30 -6 c -18 -12 c -6 -18 c 0 -12 c 63 -45 453 2922 l 0 67 c
94 0 453 2922 l 84 -60 517 4322 l 0 90 c 126 0 517 4322 l 84 84 547 4388 l 84 -84 547 4472 l -6 12 541 4532 l -18 18 c 126 0 c
6 -18 517 4670 l 18 -12 c 30 -6 c 18 0 c 30 6 c 18 12 c 6 18 c 0 12 c -6 18 c -18 12 c -30 6 c -18 0 c -30 -6 c -18 -12 c -6 -18 c
0 -12 c 63 -45 453 4795 l 0 67 c 94 0 453 4795 l -12 -6 535 6214 l -6 -18 c 0 -12 c 6 -18 c 18 -12 c 30 -6 c 30 0 c 24 6 c 12 12 c
6 18 c 0 6 c -6 18 c -12 12 c -18 6 c -6 0 c -18 -6 c -12 -12 c -6 -18 c 0 -6 c 6 -18 c 12 -12 c 18 -6 c 84 84 547 6262 l
84 -84 547 6346 l -6 12 541 6406 l -18 18 c 126 0 c 6 -18 517 6544 l 18 -12 c 30 -6 c 18 0 c 30 6 c 18 12 c 6 18 c 0 12 c -6 18 c
-18 12 c -30 6 c -18 0 c -30 -6 c -18 -12 c -6 -18 c 0 -12 c 63 -45 453 6668 l 0 67 c 94 0 453 6668 l
4 -1 780 791 l 5 0 c 4 0 c 4 -1 c 5 1 c 4 -1 c 4 1 c 5 0 c 4 0 c 5 0 c 4 1 c 4 2 c 5 0 c 4 -1 c 4 -1 c 5 -1 c 4 0 c 5 0 c 4 0 c
4 -1 c 5 1 c 4 0 c 4 0 c 5 2 c 4 4 c 5 4 c 4 0 c 4 -2 c 5 -5 c 4 -4 c 4 0 c 5 1 c 4 -1 c 5 1 c 4 1 c 4 0 c 5 0 c 4 0 c 4 0 c 5 1 c
4 1 c 4 1 c 5 0 c 4 0 c 5 -2 c 4 0 c 4 1 c 5 1 c 4 2 c 4 11 c 5 15 c 4 0 c 5 -4 c 4 -13 c 4 -9 c 5 0 c 4 1 c 4 3 c 5 5 c 4 6 c
5 15 c 4 38 c 4 144 c 5 333 c 4 927 c 4 1878 c 5 363 c 4 -426 c 5 -1432 c 4 -1638 c 4 -186 c 5 -16 c 4 -4 c 4 -2 c 5 2 c 4 3 c
4 -2 c 5 -2 c 4 -7 c 5 -3 c 4 -1 c 4 -1 c 5 1 c 4 -15 c 5 13 1151 780 l 4 -1 c 5 0 c 4 0 c 4 0 c 5 -1 c 4 0 c 4 1 c 5 0 c 4 0 c
5 0 c 4 2 c 4 4 c 5 8 c 4 23 c 4 8 c 5 -1 c 4 -10 c 5 -17 c 4 -4 c 4 -2 c 5 -5 c 4 -6 c 4 0 c 5 1 c 4 0 c 4 0 c 5 1 c 4 2 c 5 5 c
4 6 c 4 1 c 5 -2 c 4 -7 c 4 -2 c 5 0 c 4 4 c 5 17 c 4 39 c 4 117 c 5 78 c 4 23 c 4 86 c 5 228 c 4 1162 c 5 718 c 4 -102 c 4 -541 c
5 -1404 c 4 -389 c 4 -27 c 5 -4 c 4 -2 c 5 -3 c 4 0 c 4 -1 c 5 0 c 4 0 c 4 -2 c 5 -1 c 4 0 c 4 2 c 5 5 c 4 14 c 5 5 c 4 -2 c 4 -7 c
5 -17 c 4 -2 c 4 -1 c 5 1 c 4 0 c 5 0 c 4 0 c 4 3 c 5 6 c 4 1 c 4 -2 c 5 -3 c 4 -4 c 5 -1 c 4 -1 c 4 0 c 5 0 c 4 0 c 4 0 c 5 0 c
4 0 c 4 1 c 5 1 c 4 1 c 5 0 c 4 -1 c 4 -1 c 5 0 c 4 0 c 4 0 c 5 0 c 4 0 c 5 1 c 4 0 c 4 1 c 5 0 c 4 -2 c 4 0 c 5 0 c 4 2 c 5 1 c
4 1 c 4 2 c 5 9 c 4 31 c 4 121 c 5 118 c 4 6 c 5 -53 c 4 -151 c 4 -78 c 5 -5 c 4 -2 c 4 4 c 5 4 c 4 10 c 4 8 c 5 -5 c 4 -7 c 5 -11 c
4 -5 c 4 0 c 5 0 c 4 0 c 4 -1 c 5 0 c 4 0 c 5 0 c 4 1 c 4 1 c 5 0 c 4 -1 c 4 -1 c 5 1 c 4 1 c 5 5 c 4 2 c 4 0 c 5 -2 c 4 -3 c 4 -1 c
5 0 c 4 -1 c 5 -1 c 4 0 c 4 0 c 5 1 c 4 1 c 4 1 c 5 0 c 4 -1 c 4 1 c 5 5 c 4 3 c 5 0 c 4 2 c 4 -3 c 5 -2 c 4 -1 c 4 1 c 5 13 c
4 58 c 5 79 c 4 14 c 4 -14 c 5 -81 c 4 -64 c 4 -9 c 5 -3 c 4 -1 c 5 -1 c 4 0 c 4 0 c 5 1 c 4 1 c 4 0 c 5 -1 c 4 0 c 5 -1 c 4 0 c
4 1 c 5 -1 c 4 1 c 4 0 c 5 1 c 4 1 c 4 2 c 5 9 c 4 5 c 5 -1 c 4 -4 c 4 -11 c 5 -2 c 4 1 c 4 3 c 5 2 c 4 1 c 5 -2 c 4 -3 c 4 0 c
5 9 c 4 17 c 4 12 c 5 -4 c 4 -6 c 5 -12 c 4 -2 c 4 0 c 5 -4 c 4 -5 c 4 4 c 5 28 c 4 10 c 5 -1 c 4 -15 c 4 -27 c 5 -6 c 4 0 c 4 0 c
5 0 c 4 0 c 4 0 c 5 -1 c 4 0 c 5 0 c 4 0 c 4 0 c 5 2 c 4 2 c 4 2 c 5 0 c 4 -1 c 5 -2 c 4 0 c 4 1 c 5 1 c 4 6 c 4 24 c 5 97 c 4 84 c
5 8 c 4 -35 c 4 -119 c 5 -46 c 4 43 c 4 100 c 5 47 c 4 -9 c 4 -57 c 5 -102 c 4 -34 c 5 -7 c 4 -2 c 4 -1 c 5 -1 c 4 1 c 4 1 c 5 1 c
4 0 c 5 0 c 4 -2 c 4 0 c 5 1 c 4 0 c 4 -1 c 5 -1 c 4 0 c 5 2 c 4 9 c 4 38 c 5 30 c 4 3 c 4 -14 c 5 -41 c 4 -20 c 5 -4 c 4 -1 c 4 1 c
5 2 c 4 8 c 4 45 c 5 78 c 4 16 c 4 15 c 5 48 c 4 109 c 5 35 c 4 -41 c 4 -146 c 5 -138 c 4 -25 c 4 -3 c 5 -2 c 4 -1 c 5 -1 c 4 2 c
4 2 c 5 0 c 4 -1 c 4 -4 c 5 -1 c 4 1 c 5 -1 c 4 0 c 4 1 c 5 3 c 4 4 c 4 5 c 5 7 c 4 -1 c 5 -1 c 4 -7 c 4 -8 c 5 0 c 4 5 c 4 2 c
5 1 c 4 0 c 4 -3 c 5 0 c 4 -1 c 5 -5 c 4 -2 c 4 0 c 5 0 c 4 0 c 4 1 c 5 0 c 4 5 c 5 35 c 4 78 c 4 32 c 5 1 c 4 -40 c 4 -83 c 5 -22 c
4 -5 c 5 -1 c 4 0 c 4 0 c 5 1 c 4 1 c 4 0 c 5 -1 c 4 0 c 5 -1 c 4 -1 c 4 1 c 5 0 c 4 2 c 4 2 c 5 17 c 4 13 c 4 1 c 5 -6 c 4 -19 c
5 -9 c 4 0 c 4 1 c 5 1 c 4 -1 c 4 0 c 5 -1 c 4 -2 c 5 2 c 4 7 c 4 2 c 5 0 c 4 -3 c 4 -6 c 5 0 c 4 0 c 5 -1 c 4 1 c 4 -1 c 5 -1 c
4 0 c 4 -1 c 5 0 c 4 0 c 4 1 c 5 1 c 4 4 c 5 4 c 4 0 c 4 0 c 5 -6 c 4 -3 c 4 0 c 5 0 c 4 1 c 5 0 c 4 -1 c 4 1 c 5 -1 c 4 2 c 4 0 c
5 1 c 4 3 c 5 2 c 4 -2 c 4 -1 c 5 -3 c 4 -1 c 4 0 c 5 1 c 4 4 c 5 9 c 4 6 c 4 0 c 5 -3 c 4 5 c 4 92 c 5 265 c 4 142 c 4 3 c 5 -140 c
4 -270 c 5 -88 c 4 -10 c 4 -6 c 5 -7 c 4 -1 c 4 -1 c 5 0 c 4 -1 c 5 0 c 4 -1 c 4 0 c 5 0 c 4 1 c 4 1 c 5 2 c 4 0 c 5 -1 c 4 -1 c
4 -1 c 5 3 c 4 19 c 4 58 c 5 23 c 4 1 c 5 -29 c 4 -43 c 4 25 c 5 18 c 4 -1 c 4 -21 c 5 -40 c 4 -10 c 4 -1 c 5 -1 c 4 -1 c 5 1 c
4 0 c 4 2 c 5 0 c 4 1 c 4 0 c 5 -1 c 4 -1 c 5 1 c 4 4 c 4 6 c 5 89 c 4 386 c 4 221 c 5 -9 c 4 -141 c 5 -417 c 4 -131 c 4 -7 c 5 -1 c
4 0 c 4 1 c 5 0 c 4 5 c 5 41 c 4 34 c 4 3 c 5 -11 c 4 -51 c 4 -21 c 5 -3 c 4 0 c 4 1 c 5 0 c 4 1 c 5 -1 c 4 0 c 4 0 c 5 1 c 4 1 c
4 0 c 5 0 c 4 -3 c 5 0 c 4 -1 c 4 0 c 5 1 c 4 0 c 4 1 c 5 0 c 4 -1 c 5 1 c 4 5 c 4 5 c 5 2 c 4 -1 c 4 -7 c 5 -5 c 4 0 c 5 -1 c 4 0 c
4 1 c 5 2 c 4 7 c 4 3 c 5 -1 c 4 -2 c 4 -7 c 5 -1 c 4 0 c 5 -1 c 4 3 c 4 1 c 5 1 c 4 -1 c 4 -1 c 5 1 c 4 1 c 5 5 c 4 30 c 4 20 c
5 5 c 4 -5 c 4 -35 c 5 -13 c 4 0 c 5 2 c 4 3 c 4 15 c 5 71 c 4 69 c 4 42 c 5 373 c 4 2089 c 4 1442 c 5 152 c 4 -611 c 5 -2382 c
4 -1137 c 4 -94 c 5 11 c 4 185 c 4 397 c 5 127 c 4 -14 c 5 -279 c 4 -354 c 4 -94 c 5 -10 c 4 -4 c 4 -2 c 5 0 c 4 1 c 5 4 c 4 46 c
4 110 c 5 36 c 4 0 c 4 -59 c 5 -117 c 4 -21 c 5 -2 c 4 -1 c 4 7 c 5 18 c 4 9 c 4 -1 c 5 -11 c 4 -18 c 4 -4 c 5 -1 c 4 0 c 5 1 c
4 1 c 4 3 c 5 2 c 4 5 c 4 11 c 5 35 c 4 244 c 5 947 c 4 589 c 4 56 c 5 -345 c 4 -1015 c 4 -411 c 5 -78 c 4 -21 c 5 -1 c 4 14 c
4 -1 c 5 0 c 4 -13 c 4 -15 c 5 -4 c 4 -1 c 5 1 c 4 29 c 4 99 c 5 39 c 4 14 c 4 -35 c 5 -85 c 4 -33 c 4 -16 c 5 -2 c 4 0 c 5 14 c
4 11 c 4 -4 c 5 -4 c 4 -2 c 4 137 c 5 246 c 4 63 c 5 -10 c 4 -212 c 4 -220 c 5 -30 c 4 -2 c 4 1 c 5 5 c 4 79 c 5 148 c 4 43 c
4 -12 c 5 -96 c 4 -144 c 4 -23 c 5 -1 c 4 1 c 5 2 c 4 7 c 4 8 c 5 11 c 4 34 c 4 142 c 5 148 c 4 25 c 4 -34 c 5 -175 c 4 -122 c
5 -33 c 4 -9 c 4 -4 c 5 -3 c 4 0 c 4 -1 c 5 2 c 4 3 c 5 3 c 4 0 c 4 -2 c 5 1 c 4 43 c 4 85 c 5 23 c 4 2 c 5 -58 c 4 -84 c 4 -15 c
5 -3 c 4 1 c 4 0 c 5 0 c 4 1 c 5 1 c 4 15 c 4 39 c 5 12 c 4 -2 c 4 -20 c 5 -38 c 4 -6 c 4 0 c 5 1 c 4 0 c 5 0 c 4 2 c 4 1 c 5 2 c
4 -1 c 4 -2 c 5 -4 c 4 -3 c 5 1 c 4 4 c 4 3 c 5 -1 c 4 -1 c 4 -4 c 5 -2 c 4 0 c 5 1 c 4 2 c 4 2 c 5 5 c 4 2 c 4 1 c 5 5 c 4 4 c
4 2 c 5 -5 c 4 -9 c 5 -7 c 4 -2 c 4 3 c 5 2 c 4 1 c 4 -1 c 5 -5 c 4 -2 c 5 0 c 4 0 c 4 1 c 5 2 c 4 2 c 4 1 c 5 -1 c 4 -3 c 5 -2 c
4 0 c 4 0 c 5 2 c 4 6 c 4 4 c 5 0 c 4 -3 c 5 -4 c 4 -2 c 4 0 c 5 0 c 4 -1 c 4 1 c 5 1 c 4 0 c 4 -1 c 5 -1 c 4 0 c 5 0 c 4 -1 c
4 -1 c 5 1 c 4 1 c 4 1 c 5 -1 c 4 -1 c 5 1 c 4 7 c 4 48 c 5 42 c 4 6 c 4 -15 c 5 -53 c 4 -33 c 5 -3 c 4 0 c 4 1 c 5 2 c 4 0 c 4 -2 c
5 -1 c 4 -1 c 5 1 c 4 0 c 4 1 c 5 -1 c 4 0 c 4 -2 c 5 2 c 4 3 c 4 1 c 5 0 c 4 -1 c 5 -4 c 4 -1 c 4 0 c 5 0 c 4 0 c 4 0 c 5 1 c 4 4 c
5 8 c 4 24 c 4 12 c 5 -4 c 4 -8 c 4 -26 c 5 -8 c 4 -2 c 5 0 c 4 0 c 4 0 c 5 0 c 4 0 c 4 0 c 5 1 c 4 3 c 5 8 c 4 4 c 4 -1 c 5 -4 c
4 -8 c 4 0 c 5 2 c 4 34 c 4 62 c 5 14 c 4 5 c 5 -31 c 4 -45 c 4 -6 c 5 -3 c 4 -13 c 4 -2 c 5 3 c 4 2 c 5 3 c 4 -1 c 4 11 c 5 110 c
4 1028 c 4 1571 c 5 539 c 4 -88 c 5 -1309 c 4 -1564 c 4 -281 c 5 -20 c 4 -5 c 4 -2 c 5 -4 c 4 -3 c 5 -3 c 4 -2 c 4 1 c 5 0 c 4 -2 c
4 -1 c 5 0 c 4 2 c 4 6 c 5 3 c 4 1 c 5 -4 c 4 -7 c 4 -3 c 5 -1 c 4 0 c 4 1 c 5 0 c 4 1 c 5 7 c 4 7 c 4 -30 c 5 30 c 4 -7 c 4 -6 c
5 -1 c 4 0 c 5 0 c 4 -1 c 4 0 c 5 0 c 4 0 c 4 1 c 5 -1 c 4 2 c 4 0 c 5 1 c 4 2 c 5 2 c 4 1 c 4 2 c 5 -1 c 4 4 c 4 12 c 5 28 c 4 45 c
5 310 c 4 1207 c 4 991 c 5 230 c 4 -386 c 4 -1324 c 5 -915 c 4 -160 c 5 -30 c 4 -6 c 4 -1 c 5 -2 c 4 -1 c 4 -2 c 5 -3 c 4 -1 c
5 -1 c 4 1 c 4 1 c 5 0 c 4 -1 c 4 -1 c 5 -1 c 4 -1 c 4 -1 c 5 -1 c 4 0 c 5 0 c 4 0 c 4 0 c 5 0 c 4 1 c 4 1 c 5 0 c 4 0 c 5 -2 c
4 -1 c 4 0 c 5 -1 c 4 1 c 4 3 c 5 2 c 4 1 c 5 1 c 4 -1 c 4 -1 c 5 -1 c 4 0 c 4 1 c 5 0 c 4 -1 c 5 -1 c 4 -2 c 4 -1 c 5 0 c 4 2 c
4 1 c 5 1 c 4 -1 c 4 2 c 5 9 c 4 9 c 5 2 c 4 -1 c 4 -13 c 5 -6 c 4 -3 c 4 0 c 5 0 c 4 1 c 5 0 c 4 0 c 4 0 c 5 -3 c 4 -1 c 4 0 c
5 0 c 4 0 c 5 0 c 4 0 c 4 1 c 5 2 c 4 3 c 4 5 c 5 6 c 4 -1 c 5 -3 c 4 -4 c 4 -3 c 5 -1 c 4 -1 c 4 -1 c 5 1 c 4 1 c 4 0 c 5 -1 c
4 -1 c 5 -2 c 4 0 c 4 -1 c 5 -1 c 4 0 c 4 0 c 5 0 c 4 1 c 5 0 c 4 0 c 4 0 c 5 1 c 4 1 c 4 1 c 5 1 c 4 1 c 5 13 c 4 102 c 4 135 c
5 44 c 4 -16 c 4 -113 c 5 -131 c 4 -26 c 4 0 c 5 -2 c 4 -2 c 5 -3 c 4 -2 c 4 -1 c 5 -16 c 4 15 c 4 1 c 5 7 c 4 51 c 5 54 c 4 12 c
4 -5 c 5 -55 c 4 -50 c 4 -12 c 5 -3 c 4 1 c 5 0 c 4 -16 c 4 15 c 5 -1 c 4 0 c 4 2 c 5 0 c 4 0 c 5 -1 c 4 -1 c 4 0 c 5 1 c 4 3 c
4 1 c 5 1 c 4 -1 c 4 -2 c 5 0 c 4 3 c 5 0 c 4 1 c 4 1 c 5 0 c 4 1 c 4 -1 c 5 -5 c 4 -2 c 5 -1 c 4 -1 c 4 2 c 5 1 c 4 1 c 4 2 c
5 10 c 4 11 c 5 3 c 4 -2 c 4 -12 c 5 -12 c 4 -2 c 4 0 c 5 0 c 4 0 c 5 0 c 4 1 c 4 13 c 5 82 c 4 70 c 4 11 c 5 -12 c 4 -83 c 4 -72 c
5 -10 c 4 -1 c 5 0 c 4 1 c 4 7 c 5 8 c 4 2 c 4 -1 c 5 -7 c 4 -8 c 5 -1 c 4 2 c 4 14 c 5 24 c 4 8 c 4 -1 c 5 -15 c 4 -24 c 5 -5 c
4 0 c 4 -2 c 5 -1 c 4 0 c 4 -1 c 5 0 c 4 1 c 5 3 c 4 2 c 4 1 c 5 -1 c 4 0 c 4 1 c 5 -1 c 4 2 c 4 26 c 5 128 c 4 90 c 5 13 c 4 -25 c
4 -129 c 5 -95 c 4 -9 c 4 -4 c 5 -1 c 4 -1 c 5 -1 c 4 2 c 4 2 c 5 1 c 4 0 c 4 -2 c 5 -3 c 4 -2 c 5 1 c 4 0 c 4 1 c 5 0 c 4 1 c
4 -2 c 5 1 c 4 -1 c 5 0 c 4 0 c 4 1 c 5 1 c 4 3 c 4 3 c 5 0 c 4 0 c 4 -3 c 5 -4 c 4 0 c 5 1 c 4 0 c 4 0 c 5 0 c 4 0 c 4 0 c 5 -1 c
4 -1 c 5 1 c 4 1 c 4 1 c 5 -1 c 4 1 c 4 1 c 5 4 c 4 32 c 5 36 c 4 9 c 4 -2 c 5 -23 c 4 -31 c 4 -7 c 5 -6 c 4 -10 c 4 -3 c 5 0 c
4 -1 c 5 -1 c 4 3 c 4 1 c 5 2 c 4 -1 c 4 -3 c 5 0 c 4 0 c 5 0 c 4 -1 c 4 -1 c 5 -1 c 4 0 c 4 0 c 5 0 c 4 0 c 5 1 c 4 3 c 4 4 c 5 6 c
4 2 c 4 -1 c 5 -4 c 4 -4 c 5 -3 c 4 -2 c 4 -1 c 5 0 c 4 0 c 4 0 c 5 5 c 4 2 c 4 2 c 5 0 c 4 0 c 5 2 c 4 2 c 4 -2 c 5 -3 c 4 -5 c
4 -3 c 5 0 c 4 1 c 5 0 c 4 -1 c 4 0 c 5 1 c 4 0 c 4 1 c 5 1 c 4 1 c 5 4 c 4 1 c 4 3 c 5 1 c 4 -3 c 4 -24 c 5 23 c 4 -1 c 5 4 c
4 30 c 4 280 c 5 403 c 4 114 c 4 -32 c 5 -307 c 4 -383 c 4 -103 c 5 -3 c 4 0 c 5 9 c 4 12 c 4 3 c 5 13 c 4 144 c 4 478 c 5 200 c
4 24 c 5 -170 c 4 -487 c 4 -202 c 5 -23 c 4 -2 c 4 -1 c 5 0 c 4 1 c 5 -1 c 4 2 c 4 33 c 5 68 c 4 18 c 4 0 c 5 -32 c 4 -53 c 5 -9 c
4 -1 c 4 -4 c 5 -17 c 4 -10 c 4 -2 c 5 2 c 4 4 c 4 2 c 5 0 c 4 -2 c 5 -3 c 4 -1 c 4 2 c 5 0 c 4 -1 c 4 -1 c 5 -2 c 4 0 c 5 0 c 4 0 c
4 1 c 5 1 c 4 0 c 4 0 c 5 -1 c 4 -1 c 5 0 c 4 1 c 4 1 c 5 0 c 4 4 c 4 11 c 5 6 c 4 1 c 5 -1 c 4 -11 c 4 -3 c 5 42 c 4 162 c 4 110 c
5 10 c 4 -46 c 4 -171 c 5 -101 c 4 -9 c 5 -1 c 4 -1 c 4 3 c 5 6 c 4 5 c 4 0 c 5 0 c 4 -2 c 5 0 c 4 3 c 4 6 c 5 5 c 4 11 c 4 44 c
5 619 c 4 2302 c 5 2231 c 4 620 c 4 -653 c 5 -2302 c 4 -2131 c 4 -649 c 5 -71 c 4 -22 c 4 -6 c 5 -3 c 4 -3 c 5 -1 c 4 -1 c 4 4 c
5 25 c 4 66 c 4 23 c 5 1 c 4 -18 c 5 -69 c 4 -25 c 4 -6 c 5 -5 c 4 -1 c 4 2 c 5 5 c 4 6 c 5 17 c 4 202 c 4 694 c 5 362 c 4 38 c
4 -180 c 5 -663 c 4 -369 c 5 -57 c 4 -23 c 4 -26 c 5 -6 c 4 -1 c 4 0 c 5 -2 c 4 -2 c 4 2 c 5 0 c 4 -2 c 5 1 c 4 -2 c 4 -2 c 5 0 c
4 -2 c 4 -2 c 5 0 c 4 0 c 5 0 c 4 0 c 4 0 c 5 -1 c 4 1 c 4 1 c 5 -1 c 4 0 c 5 2 c 4 0 c 4 0 c 5 -2 c 4 -1 c 4 1 c 5 0 c 4 0 c 5 1 c
4 1 c 4 2 c 5 2 c 4 4 c 4 0 c 5 -2 c 4 -2 c 4 -5 c 5 -2 c 4 0 c 5 0 c 4 1 c 4 -1 c 5 -1 c 4 0 c 4 0 c 5 2 c 4 -1 c 5 0 c 4 0 c
4 -1 c 5 0 c 4 1 c 4 0 c 5 0 c 4 0 c 5 0 c 4 -1 c 4 1 c 5 4 c 4 7 c 4 1 c 5 1 c 4 -4 c 5 -3 c 4 -1 c 4 1 c 5 0 c 4 1 c 4 37 c 5 82 c
4 29 c 4 2 c 5 -37 c 4 -90 c 5 -27 c 4 -3 c 4 1 c 5 0 c 4 2 c 4 14 c 5 76 c 4 46 c 5 5 c 4 -15 c 4 -72 c 5 -41 c 4 1 c 4 0 c 5 -3 c
4 -6 c 5 -8 c 4 0 c 4 -1 c 5 0 c 4 0 c 4 0 c 5 2 c 4 5 c 5 5 c 4 7 c 4 49 c 5 70 c 4 12 c 4 -6 c 5 -46 c 4 -80 c 4 -16 c 5 0 c 4 0 c
5 -1 c 4 0 c 4 0 c 5 -1 c 4 0 c 4 -1 c 5 1 c 4 1 c 5 0 c 4 0 c 4 0 c 5 -1 c 4 -1 c 4 2 c 5 2 c 4 3 c 5 2 c 4 1 c 4 23 c 5 84 c
4 35 c 4 2 c 5 -24 c 4 -83 c 4 -40 c 5 -2 c 4 -1 c 5 3 c 4 0 c 4 1 c 5 2 c 4 12 c 4 26 c 5 9 c 4 4 c 5 -12 c 4 -23 c 4 3 c 5 38 c
4 45 c 4 5 c 5 -15 c 4 -37 c 5 -51 c 4 -9 c 4 0 c 5 0 c 4 5 c 4 56 c 5 214 c 4 101 c 5 12 c 4 -40 c 4 -197 c 5 71 c 4 264 c 4 56 c
5 -8 c 4 -180 c 4 -284 c 5 -67 c 4 -3 c 5 -1 c 4 3 c 4 2 c 5 0 c 4 -1 c 4 -4 c 5 -1 c 4 2 c 5 1 c 4 2 c 4 3 c 5 0 c 4 0 c 4 -2 c
5 -3 c 4 1 c 5 -2 c 4 0 c 4 0 c 5 1 c 4 0 c 4 -1 c 5 0 c 4 0 c 5 2 c 4 2 c 4 -1 c 5 1 c 4 2 c 4 1 c 5 2 c 4 2 c 4 1 c 5 8 c 4 24 c
5 249 c 4 1527 c 4 1003 c 5 139 c 4 -194 c 4 -1433 c 5 -1199 c 4 -108 c 5 -7 c 4 -5 c 4 -3 c 5 -3 c 4 -4 c 4 -1 c 5 1 c 4 8 c 5 7 c
4 1 c 4 -2 c 5 -7 c 4 -9 c 4 -3 c 5 -1 c 4 0 c 5 0 c 4 0 c 4 0 c 5 1 c 4 1 c 4 0 c 5 1 c 4 -2 c 4 0 c 5 -1 c 4 1 c 5 11 c 4 25 c
4 110 c 5 82 c 4 6 c 4 -24 c 5 -93 c 4 -100 c 5 -10 c 4 -2 c 4 -1 c 5 0 c 4 1 c 4 1 c 5 0 c 4 0 c 5 3 c 4 0 c 4 5 c 5 7 c 4 4 c
4 4 c 5 4 c 4 2 c 4 3 c 5 10 c 4 11 c 5 14 c 4 21 c 4 53 c 5 205 c 4 2030 c 4 3653 c 5 -6 c 4 9 c 5 -3 c 4 -1688 c 4 -3624 c
5 -504 c 4 -51 c 4 -46 c 5 -50 c 4 -18 c 5 -7 c 4 -8 c 4 -7 c 5 -4 c 4 -5 c 4 -4 c 5 -2 c 4 2 c 5 0 c 4 -1 c 4 -4 c 5 -2 c 4 0 c
4 -1 c 5 -1 c 4 -3 c 4 -1 c 5 1 c 4 1 c 5 0 c 4 -1 c 4 -1 c 5 14 c 4 78 c 4 73 c 5 18 c 4 -7 c 5 -62 c 4 -91 c 4 -15 c 5 -6 c 4 -4 c
4 -4 c 5 -2 c 4 -1 c 5 1 c 4 0 c 4 0 c 5 1 c 4 0 c 4 4 c 5 1 c 4 0 c 5 1 c 4 -2 c 4 5 c 5 18 c 4 18 c 4 0 c 5 -6 c 4 -15 c 4 -18 c
5 -2 c 4 -1 c 5 1 c 4 4 c 4 78 c 5 211 c 4 62 c 4 -10 c 5 -58 c 4 -201 c 5 -86 c 4 -2 c 4 15 c 5 16 c 4 3 c 4 -3 c 5 -14 c 4 -17 c
5 -5 c 4 0 c 4 -1 c 5 0 c 4 0 c 4 0 c 5 0 c 4 0 c 5 0 c 4 0 c 4 0 c 5 2 c 4 1 c 4 1 c 5 -1 c 4 3 c 4 1 c 5 1 c 4 0 c 5 -2 c 4 -4 c
4 -1 c 5 -1 c 4 0 c 4 0 c 5 -1 c 4 0 c 5 1 c 4 -1 c 4 1 c 5 0 c 4 -1 c 4 0 c 5 1 c 4 14 c 5 16 c 4 2 c 4 -2 c 5 -8 c 4 -9 c 4 0 c
5 1 c 4 -2 c 5 -8 c 4 -6 c 4 0 c 5 0 c 4 0 c 4 0 c 5 0 c 4 0 c 4 1 c 5 2 c 4 -1 c 5 0 c 4 0 c 4 1 c 5 1 c 4 1 c 4 2 c 5 36 c 4 144 c
5 57 c 4 5 c 4 -23 c 5 -131 c 4 -86 c 4 -5 c 5 -1 c 4 -2 c 5 0 c 4 0 c 4 0 c 5 1 c 4 0 c 4 3 c 5 0 c 4 -1 c 4 0 c 5 -2 c 4 -2 c
5 0 c 4 1 c 4 -1 c 5 0 c 4 1 c 4 2 c 5 20 c 4 58 c 5 12 c 4 2 c 4 -14 c 5 -57 c 4 -23 c 4 0 c 5 3 c 4 18 c 5 17 c 4 7 c 4 1 c
5 -16 c 4 -19 c 4 -8 c 5 -3 c 4 0 c 5 1 c 4 1 c 4 0 c 5 -1 c 4 -1 c 4 -2 c 5 0 c 4 0 c 4 0 c 5 1 c 4 2 c 5 3 c 4 2 c 4 6 c 5 2 c
4 -1 c 4 1 c 5 -3 c 4 -4 c 5 -1 c 4 -2 c 4 -2 c 5 1 c 4 1 c 4 -2 c 5 -1 c 4 0 c 5 0 c 4 1 c 4 1 c 5 0 c 4 1 c 4 14 c 5 22 c 4 6 c
5 4 c 4 -11 c 4 -25 c 5 -6 c 4 -4 c 4 -1 c 5 1 c 4 1 c 4 0 c 5 0 c 4 0 c 5 -1 c 4 0 c 4 0 c 5 3 c 4 0 c 4 1 c 5 2 c 4 1 c 5 3 c
4 4 c 4 3 c 5 7 c 4 13 c 4 51 c 5 408 c 4 2086 c 5 1563 c 4 135 c 4 -278 c 5 -1706 c 4 -1940 c 4 -264 c
5 16 c 4 247 c 5 750 c 4 264 c 4 -1386 c 4 533 9549 780 l 4 -389 c 5 -73 c 4 -25 c 4 -7 c 5 -4 c 4 -2 c 5 -2 c 4 -2 c 4 -5 c 5 -3 c
4 -4 c 4 -1 c 5 -1 c 4 0 c 5 0 c 4 0 c 4 0 c 5 0 c 4 -1 c 4 0 c 5 1 c 4 1 c 5 1 c 4 0 c 4 0 c 5 -1 c 4 1 c 4 0 c 5 1 c 4 5 c 5 25 c
4 47 c 4 10 c 5 -5 c 4 -14 c 4 -51 c 5 -17 c 4 0 c
0 -126 3030 418 l 54 0 3030 418 l 18 -6 c 6 -6 c 6 -12 c 0 -12 c -6 -12 c -6 -6 c -18 -6 c -54 0 c 42 -66 3072 358 l
-12 -6 3180 376 l -12 -12 c -6 -18 c 0 -12 c 6 -18 c 12 -12 c 12 -6 c 18 0 c 12 6 c 12 12 c 6 18 c 0 12 c -6 18 c -12 12 c -12 6 c
-18 0 c 24 -84 3264 376 l -24 -84 3312 376 l 24 -84 3312 376 l -24 -84 3360 376 l 108 0 3402 364 l 108 0 3402 328 l 12 6 3666 394 l
18 18 c 0 -126 c 12 6 3786 394 l 18 18 c 0 -126 c 12 6 4290 394 l 18 18 c 0 -126 c -6 -6 4404 376 l 6 -6 c 6 6 c -6 6 c
-6 -6 4404 304 l 6 -6 c 6 6 c -6 6 c -48 -126 4584 418 l 48 -126 4584 418 l 60 0 4554 334 l 0 -84 4662 376 l 6 18 4662 340 l 12 12 c
12 6 c 18 0 c -12 12 4806 358 l -12 6 c -18 0 c -12 -6 c -12 -12 c -6 -18 c 0 -12 c 6 -18 c 12 -12 c 12 -6 c 18 0 c 12 6 c 12 12 c
108 0 4848 346 l -18 -6 5034 418 l -12 -18 c -6 -30 c 0 -18 c 6 -30 c 12 -18 c 18 -6 c 12 0 c 18 6 c 12 18 c 6 30 c 0 18 c -6 30 c
-12 18 c -18 6 c -12 0 c 66 0 5130 418 l -36 -48 c 18 0 c 12 -6 c 6 -6 c 6 -18 c 0 -12 c -6 -18 c -12 -12 c -18 -6 c -18 0 c -18 6 c
-6 6 c -6 12 c -59 0 5309 418 l -6 -54 c 6 6 c 17 6 c 18 0 c 18 -6 c 12 -12 c 6 -18 c 0 -12 c -6 -18 c -12 -12 c -18 -6 c -18 0 c
-17 6 c -6 6 c -6 12 c -6 -6 5369 304 l 6 -6 c 6 6 c -6 6 c -12 0 5459 418 l -12 -6 c -6 -18 c 0 -102 c 42 0 5411 376 l
6 -6 5489 418 l 6 6 c -6 6 c -6 -6 c 0 -84 5495 376 l 0 -102 5549 418 l 6 -18 c 12 -6 c 12 0 c 42 0 5531 376 l -6 12 5675 358 l
-18 6 c -18 0 c -18 -6 c -6 -12 c 6 -12 c 12 -6 c 30 -6 c 12 -6 c 6 -12 c 0 -6 c -6 -12 c -18 -6 c -18 0 c -18 6 c -6 12 c
0 -192 6005 442 l 0 -192 6011 442 l 42 0 6005 442 l 42 0 6005 250 l 0 6 6089 388 l 6 12 c 6 6 c 12 6 c 24 0 c 12 -6 c 6 -6 c 6 -12 c
0 -12 c -6 -12 c -12 -18 c -60 -60 c 84 0 c -6 -6 6215 376 l 6 -6 c 6 6 c -6 6 c -6 -6 6215 304 l 6 -6 c 6 6 c -6 6 c
-48 -126 6395 418 l 48 -126 6395 418 l 60 0 6365 334 l 0 -84 6473 376 l 6 18 6473 340 l 12 12 c 12 6 c 18 0 c -12 12 6617 358 l
-12 6 c -18 0 c -12 -6 c -12 -12 c -6 -18 c 0 -12 c 6 -18 c 12 -12 c 12 -6 c 18 0 c 12 6 c 12 12 c 108 0 6659 346 l
-18 -6 6845 418 l -12 -18 c -6 -30 c 0 -18 c 6 -30 c 12 -18 c 18 -6 c 12 0 c 18 6 c 12 18 c 6 30 c 0 18 c -6 30 c -12 18 c -18 6 c
-12 0 c 66 0 6941 418 l -36 -48 c 18 0 c 12 -6 c 6 -6 c 6 -18 c 0 -12 c -6 -18 c -12 -12 c -18 -6 c -18 0 c -18 6 c -6 6 c -6 12 c
-6 12 7127 400 l -18 6 c -12 0 c -18 -6 c -12 -18 c -6 -30 c 0 -30 c 6 -24 c 12 -12 c 18 -6 c 6 0 c 18 6 c 12 12 c 6 18 c 0 6 c
-6 18 c -12 12 c -18 6 c -6 0 c -18 -6 c -12 -12 c -6 -18 c -6 -6 7181 304 l 6 -6 c 6 6 c -6 6 c -12 0 7271 418 l -12 -6 c -6 -18 c
0 -102 c 42 0 7223 376 l 6 -6 7301 418 l 6 6 c -6 6 c -6 -6 c 0 -84 7307 376 l 0 -102 7361 418 l 6 -18 c 12 -6 c 12 0 c
42 0 7343 376 l -6 12 7487 358 l -18 6 c -18 0 c -18 -6 c -6 -12 c 6 -12 c 12 -6 c 30 -6 c 12 -6 c 6 -12 c 0 -6 c -6 -12 c -18 -6 c
-18 0 c -18 6 c -6 12 c 0 -192 7559 442 l 0 -192 7565 442 l 42 0 7523 442 l 42 0 7523 250 l
0 -250 1073 4946 l 53 -37 1029 5055 l 0 56 c 80 0 1029 5055 l -4 0 1048 5097 l -7 4 c -4 4 c -4 7 c 0 15 c 4 8 c 4 4 c 7 3 c 8 0 c
8 -3 c 11 -8 c 38 -38 c 0 53 c 4 -12 1029 5192 l 11 -7 c 19 -4 c 12 0 c 19 4 c 11 7 c 4 12 c 0 7 c -4 11 c -11 8 c -19 4 c -12 0 c
-19 -4 c -11 -8 c -4 -11 c 0 -7 c 4 -11 1029 5263 l 8 -4 c 7 0 c 8 4 c 4 8 c 3 15 c 4 11 c 8 8 c 7 3 c 12 0 c 7 -3 c 4 -4 c 4 -12 c
0 -15 c -4 -11 c -4 -4 c -7 -4 c -12 0 c -7 4 c -8 8 c -4 11 c -3 15 c -4 8 c -8 4 c -7 0 c -8 -4 c -4 -12 c 0 -15 c
4 -4 1101 5328 l 4 4 c -4 3 c -4 -3 c 4 -12 1029 5377 l 8 -3 c 7 0 c 8 3 c 4 8 c 3 15 c 4 11 c 8 8 c 7 4 c 12 0 c 7 -4 c 4 -4 c
4 -11 c 0 -15 c -4 -12 c -4 -3 c -7 -4 c -12 0 c -7 4 c -8 7 c -4 12 c -3 15 c -4 7 c -8 4 c -7 0 c -8 -4 c -4 -11 c 0 -15 c
11 -4 1056 5483 l 8 -8 c 3 -11 c 0 -4 c -3 -11 c -8 -8 c -11 -4 c -4 0 c -11 4 c -8 8 c -4 11 c 0 4 c 4 11 c 8 8 c 15 4 c 19 0 c
19 -4 c 11 -8 c 4 -11 c 0 -8 c -4 -11 c -8 -4 c -3 8 1044 5520 l -12 11 c 80 0 c 0 -249 1355 3705 l 53 -38 1311 3815 l 0 57 c
79 0 1311 3815 l -4 0 1330 3856 l -8 4 c -3 4 c -4 8 c 0 15 c 4 7 c 3 4 c 8 4 c 8 0 c 7 -4 c 12 -8 c 37 -37 c 0 53 c
-4 7 1326 3940 l -11 12 c 79 0 c 4 -12 1311 4027 l 11 -7 c 19 -4 c 11 0 c 19 4 c 12 7 c 3 12 c 0 7 c -3 11 c -12 8 c -19 4 c -11 0 c
-19 -4 c -11 -8 c -4 -11 c 0 -7 c 4 -4 1383 4087 l 3 4 c -3 4 c -4 -4 c 12 -3 1337 4166 l 7 -8 c 4 -11 c 0 -4 c -4 -11 c -7 -8 c
-12 -4 c -3 0 c -12 4 c -7 8 c -4 11 c 0 4 c 4 11 c 7 8 c 15 3 c 19 0 c 19 -3 c 12 -8 c 3 -11 c 0 -8 c -3 -11 c -8 -4 c
-4 0 1330 4197 l -8 3 c -3 4 c -4 8 c 0 15 c 4 7 c 3 4 c 8 4 c 8 0 c 7 -4 c 12 -7 c 37 -38 c 0 53 c 0 42 1311 4276 l 30 -23 c 0 11 c
4 8 c 4 4 c 11 3 c 8 0 c 11 -3 c 8 -8 c 3 -11 c 0 -12 c -3 -11 c -4 -4 c -8 -4 c 0 -250 1653 1519 l 53 -38 1609 1628 l 0 57 c
80 0 1609 1628 l -4 0 1628 1670 l -7 4 c -4 3 c -4 8 c 0 15 c 4 8 c 4 3 c 7 4 c 8 0 c 8 -4 c 11 -7 c 38 -38 c 0 53 c
-3 7 1624 1753 l -12 12 c 80 0 c 0 41 1609 1825 l 31 -22 c 0 11 c 3 8 c 4 3 c 11 4 c 8 0 c 11 -4 c 8 -7 c 4 -12 c 0 -11 c -4 -11 c
-4 -4 c -7 -4 c 4 -3 1681 1900 l 4 3 c -4 4 c -4 -4 c 4 -11 1609 1953 l 11 -8 c 19 -3 c 12 0 c 19 3 c 11 8 c 4 11 c 0 8 c -4 11 c
-11 8 c -19 3 c -12 0 c -19 -3 c -11 -8 c -4 -11 c 0 -8 c -8 -3 1621 2055 l -4 -12 c 0 -7 c 4 -12 c 11 -7 c 19 -4 c 19 0 c 15 4 c
8 7 c 4 12 c 0 3 c -4 12 c -8 7 c -11 4 c -4 0 c -11 -4 c -8 -7 c -3 -12 c 0 -3 c 3 -12 c 8 -7 c 11 -4 c 80 -38 1609 2135 l
0 53 1609 2082 l 0 -250 1899 1400 l 53 -37 1855 1509 l 0 56 c 80 0 1855 1509 l -4 0 1874 1551 l -7 4 c -4 4 c -4 7 c 0 15 c 4 8 c
4 4 c 7 3 c 8 0 c 7 -3 c 12 -8 c 38 -38 c 0 53 c -3 8 1870 1634 l -12 11 c 80 0 c 53 -38 1855 1736 l 0 57 c 80 0 1855 1736 l
4 -4 1927 1782 l 4 4 c -4 3 c -4 -3 c 4 -12 1855 1831 l 8 -3 c 7 0 c 8 3 c 3 8 c 4 15 c 4 11 c 8 8 c 7 4 c 12 0 c 7 -4 c 4 -4 c
4 -11 c 0 -15 c -4 -12 c -4 -3 c -7 -4 c -12 0 c -7 4 c -8 7 c -4 11 c -4 16 c -3 7 c -8 4 c -7 0 c -8 -4 c -4 -11 c 0 -15 c
-4 0 1874 1891 l -7 4 c -4 4 c -4 7 c 0 15 c 4 8 c 4 4 c 7 3 c 8 0 c 7 -3 c 12 -8 c 38 -38 c 0 53 c 4 -12 1855 1982 l 8 -3 c 7 0 c
8 3 c 3 8 c 4 15 c 4 11 c 8 8 c 7 4 c 12 0 c 7 -4 c 4 -4 c 4 -11 c 0 -15 c -4 -12 c -4 -3 c -7 -4 c -12 0 c -7 4 c -8 7 c -4 12 c
-4 15 c -3 7 c -8 4 c -7 0 c -8 -4 c -4 -11 c 0 -15 c 0 -250 2435 1587 l 53 -38 2392 1697 l 0 56 c 79 0 2392 1697 l -4 0 2411 1738 l
-8 4 c -3 4 c -4 7 c 0 15 c 4 8 c 3 4 c 8 3 c 8 0 c 7 -3 c 11 -8 c 38 -38 c 0 53 c -4 8 2407 1821 l -11 11 c 79 0 c
4 -11 2392 1904 l 7 -4 c 8 0 c 7 4 c 4 8 c 4 15 c 4 11 c 7 8 c 8 3 c 11 0 c 8 -3 c 3 -4 c 4 -11 c 0 -16 c -4 -11 c -3 -4 c -8 -3 c
-11 0 c -8 3 c -7 8 c -4 11 c -4 15 c -4 8 c -7 4 c -8 0 c -7 -4 c -4 -11 c 0 -16 c 3 -4 2464 1969 l 4 4 c -4 3 c -3 -3 c
-7 -4 2403 2048 l -4 -11 c 0 -8 c 4 -11 c 11 -8 c 19 -3 c 19 0 c 15 3 c 7 8 c 4 11 c 0 4 c -4 11 c -7 8 c -11 4 c -4 0 c -12 -4 c
-7 -8 c -4 -11 c 0 -4 c 4 -11 c 7 -8 c 12 -3 c -7 -4 2403 2124 l -4 -11 c 0 -8 c 4 -11 c 11 -8 c 19 -4 c 19 0 c 15 4 c 7 8 c 4 11 c
0 4 c -4 11 c -7 8 c -11 3 c -4 0 c -12 -3 c -7 -8 c -4 -11 c 0 -4 c 4 -11 c 7 -8 c 12 -4 c 0 -37 2392 2195 l 34 -4 c -4 4 c -4 11 c
0 11 c 4 12 c 8 7 c 11 4 c 8 0 c 11 -4 c 7 -7 c 4 -12 c 0 -11 c -4 -11 c -3 -4 c -8 -4 c 0 -250 2635 1380 l 53 -37 2592 1489 l
0 56 c 79 0 2592 1489 l -4 0 2611 1531 l -8 4 c -4 4 c -3 7 c 0 15 c 3 8 c 4 4 c 8 3 c 7 0 c 8 -3 c 11 -8 c 38 -38 c 0 53 c
-4 0 2611 1607 l -8 3 c -4 4 c -3 8 c 0 15 c 3 7 c 4 4 c 8 4 c 7 0 c 8 -4 c 11 -7 c 38 -38 c 0 53 c 3 -11 2592 1701 l 12 -8 c
19 -4 c 11 0 c 19 4 c 11 8 c 4 11 c 0 8 c -4 11 c -11 8 c -19 3 c -11 0 c -19 -3 c -12 -8 c -3 -11 c 0 -8 c 4 -4 2663 1762 l 4 4 c
-4 3 c -4 -3 c 3 -12 2592 1815 l 12 -7 c 19 -4 c 11 0 c 19 4 c 11 7 c 4 12 c 0 7 c -4 11 c -11 8 c -19 4 c -11 0 c -19 -4 c -12 -8 c
-3 -11 c 0 -7 c -8 -4 2603 1917 l -3 -12 c 0 -7 c 3 -11 c 12 -8 c 19 -4 c 19 0 c 15 4 c 7 8 c 4 11 c 0 4 c -4 11 c -7 8 c -12 3 c
-3 0 c -12 -3 c -7 -8 c -4 -11 c 0 -4 c 4 -11 c 7 -8 c 12 -4 c 0 -37 2592 1988 l 34 -4 c -4 4 c -4 11 c 0 11 c 4 12 c 7 7 c 12 4 c
7 0 c 12 -4 c 7 -7 c 4 -12 c 0 -11 c -4 -11 c -4 -4 c -7 -4 c 0 -250 2998 1753 l 53 -38 2955 1863 l 0 57 c 79 0 2955 1863 l
-4 0 2974 1904 l -8 4 c -3 4 c -4 7 c 0 15 c 4 8 c 3 4 c 8 4 c 7 0 c 8 -4 c 11 -8 c 38 -38 c 0 53 c -4 0 2974 1980 l -8 4 c -3 3 c
-4 8 c 0 15 c 4 8 c 3 3 c 8 4 c 7 0 c 8 -4 c 11 -7 c 38 -38 c 0 53 c -4 0 2974 2055 l -8 4 c -3 4 c -4 8 c 0 15 c 4 7 c 3 4 c 8 4 c
7 0 c 8 -4 c 11 -8 c 38 -37 c 0 53 c 3 -4 3027 2135 l 4 4 c -4 4 c -3 -4 c -7 -4 2966 2214 l -4 -11 c 0 -8 c 4 -11 c 11 -7 c 19 -4 c
19 0 c 15 4 c 7 7 c 4 11 c 0 4 c -4 12 c -7 7 c -12 4 c -3 0 c -12 -4 c -7 -7 c -4 -12 c 0 -4 c 4 -11 c 7 -7 c 12 -4 c
0 42 2955 2248 l 30 -23 c 0 11 c 4 8 c 4 4 c 11 4 c 7 0 c 12 -4 c 7 -8 c 4 -11 c 0 -11 c -4 -12 c -3 -4 c -8 -3 c 79 -38 2955 2369 l
0 53 2955 2316 l 0 -250 3581 5500 l 53 -37 3537 5609 l 0 56 c 79 0 3537 5609 l -4 0 3556 5651 l -7 4 c -4 4 c -4 7 c 0 15 c 4 8 c
4 4 c 7 3 c 8 0 c 7 -3 c 12 -8 c 37 -38 c 0 53 c -4 0 3556 5727 l -7 3 c -4 4 c -4 8 c 0 15 c 4 7 c 4 4 c 7 4 c 8 0 c 7 -4 c 12 -7 c
37 -38 c 0 53 c -7 -4 3548 5848 l -4 -12 c 0 -7 c 4 -11 c 11 -8 c 19 -4 c 19 0 c 15 4 c 8 8 c 3 11 c 0 4 c -3 11 c -8 8 c -11 3 c
-4 0 c -11 -3 c -8 -8 c -4 -11 c 0 -4 c 4 -11 c 8 -8 c 11 -4 c 4 -4 3609 5882 l 3 4 c -3 3 c -4 -3 c 79 -38 3537 5965 l
0 53 3537 5912 l -4 0 3556 5991 l -7 4 c -4 4 c -4 7 c 0 15 c 4 8 c 4 4 c 7 4 c 8 0 c 7 -4 c 12 -8 c 37 -38 c 0 53 c
79 -38 3537 6116 l 0 53 3537 6063 l 0 -250 3786 3129 l 53 -37 3742 3238 l 0 56 c 80 0 3742 3238 l -4 0 3761 3280 l -7 4 c -4 3 c
-4 8 c 0 15 c 4 8 c 4 4 c 7 3 c 8 0 c 7 -3 c 12 -8 c 38 -38 c 0 53 c -4 0 3761 3356 l -7 3 c -4 4 c -4 8 c 0 15 c 4 7 c 4 4 c 7 4 c
8 0 c 7 -4 c 12 -7 c 38 -38 c 0 53 c 4 -11 3742 3446 l 8 -4 c 7 0 c 8 4 c 3 7 c 4 16 c 4 11 c 8 7 c 7 4 c 12 0 c 7 -4 c 4 -3 c
4 -12 c 0 -15 c -4 -11 c -4 -4 c -7 -4 c -12 0 c -7 4 c -8 8 c -4 11 c -4 15 c -3 8 c -8 3 c -7 0 c -8 -3 c -4 -12 c 0 -15 c
4 -3 3814 3510 l 4 3 c -4 4 c -4 -4 c -3 8 3757 3552 l -12 11 c 80 0 c 0 -38 3742 3662 l 34 -4 c -4 4 c -3 11 c 0 12 c 3 11 c 8 7 c
11 4 c 8 0 c 11 -4 c 8 -7 c 4 -11 c 0 -12 c -4 -11 c -4 -4 c -7 -4 c 4 -12 3742 3711 l 8 -3 c 7 0 c 8 3 c 3 8 c 4 15 c 4 11 c 8 8 c
7 4 c 12 0 c 7 -4 c 4 -4 c 4 -11 c 0 -15 c -4 -12 c -4 -3 c -7 -4 c -12 0 c -7 4 c -8 7 c -4 12 c -4 15 c -3 7 c -8 4 c -7 0 c
-8 -4 c -4 -11 c 0 -15 c 0 -249 3928 1710 l 53 -38 3884 1820 l 0 57 c 80 0 3884 1820 l -4 0 3903 1861 l -7 4 c -4 4 c -4 7 c 0 16 c
4 7 c 4 4 c 7 4 c 8 0 c 8 -4 c 11 -8 c 38 -37 c 0 52 c -4 0 3903 1937 l -7 4 c -4 3 c -4 8 c 0 15 c 4 8 c 4 3 c 7 4 c 8 0 c 8 -4 c
11 -7 c 38 -38 c 0 53 c 11 -4 3911 2058 l 8 -7 c 3 -12 c 0 -4 c -3 -11 c -8 -8 c -11 -3 c -4 0 c -11 3 c -8 8 c -4 11 c 0 4 c 4 12 c
8 7 c 15 4 c 19 0 c 19 -4 c 11 -7 c 4 -12 c 0 -7 c -4 -12 c -8 -4 c 4 -4 3956 2092 l 4 4 c -4 4 c -4 -4 c -3 8 3899 2133 l -12 11 c
80 0 c 53 -37 3884 2235 l 0 56 c 80 0 3884 2235 l 4 -11 3884 2292 l 8 -4 c 7 0 c 8 4 c 4 7 c 3 16 c 4 11 c 8 7 c 7 4 c 12 0 c 7 -4 c
4 -3 c 4 -12 c 0 -15 c -4 -11 c -4 -4 c -7 -4 c -12 0 c -7 4 c -8 8 c -4 11 c -3 15 c -4 8 c -8 3 c -7 0 c -8 -3 c -4 -12 c 0 -15 c
0 -250 4112 1393 l 53 -38 4068 1502 l 0 57 c 80 0 4068 1502 l -3 0 4087 1544 l -8 4 c -4 3 c -4 8 c 0 15 c 4 8 c 4 3 c 8 4 c 7 0 c
8 -4 c 11 -7 c 38 -38 c 0 53 c 0 42 4068 1623 l 31 -23 c 0 11 c 3 8 c 4 4 c 12 4 c 7 0 c 11 -4 c 8 -8 c 4 -11 c 0 -11 c -4 -12 c
-4 -4 c -7 -3 c 4 -11 4068 1714 l 12 -8 c 18 -4 c 12 0 c 19 4 c 11 8 c 4 11 c 0 7 c -4 12 c -11 7 c -19 4 c -12 0 c -18 -4 c
-12 -7 c -4 -12 c 0 -7 c 4 -3 4140 1774 l 4 3 c -4 4 c -4 -4 c 53 -37 4068 1842 l 0 56 c 80 0 4068 1842 l -3 0 4087 1884 l -8 4 c
-4 4 c -4 7 c 0 15 c 4 8 c 4 4 c 8 3 c 7 0 c 8 -3 c 11 -8 c 38 -38 c 0 53 c 80 -38 4068 2009 l 0 53 4068 1956 l 0 -249 4842 4516 l
53 -38 4798 4626 l 0 57 c 79 0 4798 4626 l -4 0 4817 4668 l -7 3 c -4 4 c -4 8 c 0 15 c 4 7 c 4 4 c 7 4 c 8 0 c 7 -4 c 12 -7 c
37 -38 c 0 53 c 0 42 4798 4747 l 30 -23 c 0 11 c 4 8 c 4 4 c 11 3 c 8 0 c 11 -3 c 8 -8 c 3 -11 c 0 -12 c -3 -11 c -4 -4 c -8 -4 c
0 -37 4798 4860 l 34 -4 c -4 4 c -3 11 c 0 11 c 3 12 c 8 7 c 11 4 c 8 0 c 11 -4 c 8 -7 c 3 -12 c 0 -11 c -3 -11 c -4 -4 c -8 -4 c
4 -4 4870 4898 l 3 4 c -3 4 c -4 -4 c 53 -38 4798 4966 l 0 57 c 79 0 4798 4966 l -7 -4 4809 5053 l -4 -11 c 0 -8 c 4 -11 c 11 -7 c
19 -4 c 19 0 c 15 4 c 8 7 c 3 11 c 0 4 c -3 12 c -8 7 c -11 4 c -4 0 c -11 -4 c -8 -7 c -4 -12 c 0 -4 c 4 -11 c 8 -7 c 11 -4 c
53 -37 4798 5117 l 0 56 c 79 0 4798 5117 l 0 -250 5098 4068 l 53 -37 5054 4177 l 0 56 c 80 0 5054 4177 l -3 0 5073 4219 l -8 4 c
-4 3 c -4 8 c 0 15 c 4 8 c 4 4 c 8 3 c 7 0 c 8 -3 c 11 -8 c 38 -38 c 0 53 c 0 42 5054 4298 l 31 -23 c 0 12 c 3 7 c 4 4 c 12 4 c
7 0 c 11 -4 c 8 -8 c 4 -11 c 0 -11 c -4 -12 c -4 -3 c -7 -4 c 80 -38 5054 4419 l 0 53 5054 4366 l 4 -3 5126 4449 l 4 3 c -4 4 c
-4 -4 c -3 0 5073 4483 l -8 4 c -4 4 c -4 8 c 0 15 c 4 7 c 4 4 c 8 4 c 7 0 c 8 -4 c 11 -7 c 38 -38 c 0 53 c -3 0 5073 4559 l -8 4 c
-4 4 c -4 7 c 0 15 c 4 8 c 4 4 c 8 3 c 7 0 c 8 -3 c 11 -8 c 38 -38 c 0 53 c 4 -12 5054 4654 l 12 -7 c 18 -4 c 12 0 c 19 4 c 11 7 c
4 12 c 0 7 c -4 11 c -11 8 c -19 4 c -12 0 c -18 -4 c -12 -8 c -4 -11 c 0 -7 c 0 -250 5667 1357 l 53 -38 5624 1466 l 0 57 c
79 0 5624 1466 l -4 0 5643 1508 l -8 3 c -4 4 c -3 8 c 0 15 c 3 8 c 4 3 c 8 4 c 7 0 c 8 -4 c 11 -7 c 38 -38 c 0 53 c
53 -37 5624 1617 l 0 56 c 79 0 5624 1617 l -4 8 5639 1666 l -11 11 c 79 0 c 4 -4 5695 1738 l 4 4 c -4 4 c -4 -4 c 3 -11 5624 1791 l
12 -8 c 19 -4 c 11 0 c 19 4 c 11 8 c 4 11 c 0 8 c -4 11 c -11 8 c -19 3 c -11 0 c -19 -3 c -12 -8 c -3 -11 c 0 -8 c
11 -4 5650 1893 l 8 -7 c 4 -11 c 0 -4 c -4 -12 c -8 -7 c -11 -4 c -4 0 c -11 4 c -8 7 c -3 12 c 0 4 c 3 11 c 8 7 c 15 4 c 19 0 c
19 -4 c 11 -7 c 4 -11 c 0 -8 c -4 -11 c -7 -4 c 0 -38 5624 1965 l 34 -4 c -4 4 c -4 12 c 0 11 c 4 11 c 7 8 c 12 4 c 7 0 c 12 -4 c
7 -8 c 4 -11 c 0 -11 c -4 -12 c -4 -4 c -7 -3 c 0 -249 5987 1280 l 53 -38 5944 1390 l 0 57 c 79 0 5944 1390 l -4 0 5963 1431 l
-8 4 c -3 4 c -4 7 c 0 16 c 4 7 c 3 4 c 8 4 c 7 0 c 8 -4 c 11 -8 c 38 -37 c 0 52 c 53 -38 5944 1541 l 0 57 c 79 0 5944 1541 l
0 42 5944 1586 l 30 -23 c 0 12 c 4 7 c 4 4 c 11 4 c 8 0 c 11 -4 c 7 -8 c 4 -11 c 0 -11 c -4 -12 c -3 -3 c -8 -4 c 3 -4 6016 1662 l
4 4 c -4 4 c -3 -4 c -4 0 5963 1696 l -8 4 c -3 3 c -4 8 c 0 15 c 4 8 c 3 3 c 8 4 c 7 0 c 8 -4 c 11 -7 c 38 -38 c 0 53 c
-7 -4 5955 1817 l -4 -11 c 0 -8 c 4 -11 c 11 -8 c 19 -4 c 19 0 c 15 4 c 7 8 c 4 11 c 0 4 c -4 11 c -7 8 c -11 4 c -4 0 c -12 -4 c
-7 -8 c -4 -11 c 0 -4 c 4 -11 c 7 -8 c 12 -4 c -4 7 5959 1855 l -11 12 c 79 0 c 0 -250 6753 1361 l 53 -38 6709 1471 l 0 56 c
80 0 6709 1471 l -4 0 6728 1512 l -7 4 c -4 4 c -4 7 c 0 15 c 4 8 c 4 4 c 7 4 c 8 0 c 8 -4 c 11 -8 c 38 -38 c 0 53 c
53 -38 6709 1622 l 0 57 c 80 0 6709 1622 l 4 -11 6709 1678 l 8 -4 c 7 0 c 8 4 c 4 8 c 3 15 c 4 11 c 8 8 c 7 3 c 12 0 c 7 -3 c 4 -4 c
4 -11 c 0 -16 c -4 -11 c -4 -4 c -7 -3 c -12 0 c -7 3 c -8 8 c -4 11 c -3 15 c -4 8 c -8 4 c -7 0 c -8 -4 c -4 -11 c 0 -16 c
4 -4 6781 1743 l 4 4 c -4 3 c -4 -3 c 0 42 6709 1780 l 31 -23 c 0 12 c 3 7 c 4 4 c 11 4 c 8 0 c 11 -4 c 8 -7 c 4 -12 c 0 -11 c
-4 -12 c -4 -3 c -7 -4 c 11 -4 6736 1898 l 8 -8 c 3 -11 c 0 -4 c -3 -11 c -8 -8 c -11 -3 c -4 0 c -11 3 c -8 8 c -4 11 c 0 4 c
4 11 c 8 8 c 15 4 c 19 0 c 19 -4 c 11 -8 c 4 -11 c 0 -8 c -4 -11 c -8 -4 c -3 8 6724 1935 l -12 11 c 80 0 c 0 -249 7044 7019 l
53 -38 7000 7129 l 0 57 c 80 0 7000 7129 l -4 0 7019 7170 l -7 4 c -4 4 c -4 7 c 0 16 c 4 7 c 4 4 c 7 4 c 8 0 c 7 -4 c 12 -8 c
38 -37 c 0 52 c 0 -37 7000 7287 l 34 -4 c -4 4 c -3 11 c 0 11 c 3 12 c 8 7 c 11 4 c 8 0 c 11 -4 c 8 -7 c 4 -12 c 0 -11 c -4 -11 c
-4 -4 c -8 -4 c 4 -11 7000 7340 l 11 -8 c 19 -3 c 12 0 c 18 3 c 12 8 c 4 11 c 0 8 c -4 11 c -12 8 c -18 4 c -12 0 c -19 -4 c
-11 -8 c -4 -11 c 0 -8 c 4 -4 7072 7401 l 4 4 c -4 4 c -4 -4 c 0 41 7000 7439 l 30 -22 c 0 11 c 4 7 c 4 4 c 11 4 c 8 0 c 11 -4 c
8 -7 c 4 -12 c 0 -11 c -4 -11 c -4 -4 c -8 -4 c -3 8 7015 7518 l -12 11 c 80 0 c 0 -38 7000 7628 l 34 -4 c -4 4 c -3 11 c 0 11 c
3 12 c 8 7 c 11 4 c 8 0 c 11 -4 c 8 -7 c 4 -12 c 0 -11 c -4 -11 c -4 -4 c -8 -4 c 0 -250 7531 1389 l 53 -38 7487 1498 l 0 57 c
80 0 7487 1498 l -3 0 7506 1540 l -8 4 c -4 3 c -4 8 c 0 15 c 4 8 c 4 3 c 8 4 c 7 0 c 8 -4 c 11 -7 c 38 -38 c 0 53 c
0 -38 7487 1657 l 34 -4 c -3 4 c -4 12 c 0 11 c 4 11 c 7 8 c 12 4 c 7 0 c 11 -4 c 8 -8 c 4 -11 c 0 -11 c -4 -12 c -4 -4 c -7 -3 c
0 41 7487 1695 l 31 -22 c 0 11 c 3 8 c 4 3 c 12 4 c 7 0 c 11 -4 c 8 -7 c 4 -12 c 0 -11 c -4 -11 c -4 -4 c -7 -4 c 4 -3 7559 1770 l
4 3 c -4 4 c -4 -4 c 0 -38 7487 1846 l 34 -4 c -3 4 c -4 12 c 0 11 c 4 11 c 7 8 c 12 4 c 7 0 c 11 -4 c 8 -8 c 4 -11 c 0 -11 c
-4 -12 c -4 -4 c -7 -3 c 0 41 7487 1884 l 31 -22 c 0 11 c 3 8 c 4 3 c 12 4 c 7 0 c 11 -4 c 8 -7 c 4 -12 c 0 -11 c -4 -11 c -4 -4 c
-7 -4 c 4 -12 7487 1971 l 8 -3 c 7 0 c 8 3 c 4 8 c 3 15 c 4 11 c 8 8 c 7 4 c 12 0 c 7 -4 c 4 -4 c 4 -11 c 0 -15 c -4 -12 c -4 -3 c
-7 -4 c -12 0 c -7 4 c -8 7 c -4 11 c -3 16 c -4 7 c -8 4 c -7 0 c -8 -4 c -4 -11 c 0 -15 c 0 -250 7790 1384 l 53 -37 7746 1493 l
0 56 c 79 0 7746 1493 l -4 0 7765 1535 l -7 4 c -4 3 c -4 8 c 0 15 c 4 8 c 4 4 c 7 3 c 8 0 c 7 -3 c 12 -8 c 37 -38 c 0 53 c
0 -38 7746 1652 l 34 -3 c -4 3 c -4 12 c 0 11 c 4 11 c 8 8 c 11 4 c 8 0 c 11 -4 c 8 -8 c 3 -11 c 0 -11 c -3 -12 c -4 -3 c -8 -4 c
0 -38 7746 1728 l 34 -4 c -4 4 c -4 11 c 0 12 c 4 11 c 8 7 c 11 4 c 8 0 c 11 -4 c 8 -7 c 3 -11 c 0 -12 c -3 -11 c -4 -4 c -8 -4 c
4 -3 7818 1765 l 3 3 c -3 4 c -4 -4 c -4 0 7765 1799 l -7 4 c -4 4 c -4 8 c 0 15 c 4 7 c 4 4 c 7 4 c 8 0 c 7 -4 c 12 -7 c 37 -38 c
0 53 c 0 41 7746 1879 l 30 -22 c 0 11 c 4 8 c 4 3 c 11 4 c 8 0 c 11 -4 c 8 -7 c 3 -11 c 0 -12 c -3 -11 c -4 -4 c -8 -4 c
79 -38 7746 2000 l 0 53 7746 1947 l 0 -250 7945 1777 l 53 -38 7901 1886 l 0 57 c 80 0 7901 1886 l -3 0 7920 1928 l -8 4 c -4 3 c
-4 8 c 0 15 c 4 8 c 4 3 c 8 4 c 7 0 c 8 -4 c 11 -7 c 38 -38 c 0 53 c 0 -38 7901 2045 l 34 -4 c -3 4 c -4 11 c 0 12 c 4 11 c 7 8 c
12 3 c 7 0 c 11 -3 c 8 -8 c 4 -11 c 0 -12 c -4 -11 c -4 -4 c -7 -3 c -8 -3 7913 2124 l -4 -12 c 0 -7 c 4 -12 c 12 -7 c 18 -4 c
19 0 c 15 4 c 8 7 c 4 12 c 0 3 c -4 12 c -8 7 c -11 4 c -4 0 c -11 -4 c -8 -7 c -3 -12 c 0 -3 c 3 -12 c 8 -7 c 11 -4 c
4 -3 7973 2158 l 4 3 c -4 4 c -4 -4 c -3 0 7920 2192 l -8 4 c -4 4 c -4 7 c 0 16 c 4 7 c 4 4 c 8 4 c 7 0 c 8 -4 c 11 -8 c 38 -37 c
0 52 c 0 -37 7901 2309 l 34 -4 c -3 4 c -4 11 c 0 11 c 4 12 c 7 7 c 12 4 c 7 0 c 11 -4 c 8 -7 c 4 -12 c 0 -11 c -4 -11 c -4 -4 c
-7 -4 c 53 -38 7901 2378 l 0 56 c 80 0 7901 2378 l 0 -250 8136 4197 l 52 -38 8093 4307 l 0 57 c 79 0 8093 4307 l -3 0 8111 4348 l
-8 4 c -4 4 c -3 7 c 0 15 c 3 8 c 4 4 c 8 4 c 7 0 c 8 -4 c 11 -8 c 38 -38 c 0 53 c 0 -37 8093 4465 l 34 -4 c -4 4 c -4 11 c 0 11 c
4 12 c 7 7 c 12 4 c 7 0 c 12 -4 c 7 -7 c 4 -12 c 0 -11 c -4 -11 c -4 -4 c -7 -4 c 79 -38 8093 4549 l 0 53 8093 4496 l
4 -4 8164 4579 l 4 4 c -4 4 c -4 -4 c 52 -38 8093 4647 l 0 57 c 79 0 8093 4647 l 11 -4 8119 4734 l 8 -8 c 4 -11 c 0 -4 c -4 -11 c
-8 -8 c -11 -3 c -4 0 c -11 3 c -8 8 c -3 11 c 0 4 c 3 11 c 8 8 c 15 4 c 19 0 c 19 -4 c 11 -8 c 4 -11 c 0 -7 c -4 -12 c -7 -4 c
-8 -3 8104 4809 l -3 -12 c 0 -7 c 3 -12 c 12 -7 c 19 -4 c 18 0 c 16 4 c 7 7 c 4 12 c 0 3 c -4 12 c -7 7 c -12 4 c -4 0 c -11 -4 c
-7 -7 c -4 -12 c 0 -3 c 4 -12 c 7 -7 c 11 -4 c 0 -249 8293 1470 l 53 -38 8250 1580 l 0 57 c 79 0 8250 1580 l -4 0 8269 1621 l -8 4 c
-3 4 c -4 7 c 0 16 c 4 7 c 3 4 c 8 4 c 8 0 c 7 -4 c 11 -8 c 38 -37 c 0 52 c 0 -37 8250 1738 l 34 -4 c -4 4 c -4 11 c 0 11 c 4 12 c
8 7 c 11 4 c 8 0 c 11 -4 c 7 -7 c 4 -12 c 0 -11 c -4 -11 c -3 -4 c -8 -4 c 4 -12 8250 1788 l 7 -3 c 8 0 c 7 3 c 4 8 c 4 15 c 4 11 c
7 8 c 8 4 c 11 0 c 8 -4 c 3 -4 c 4 -11 c 0 -15 c -4 -12 c -3 -3 c -8 -4 c -11 0 c -8 4 c -7 7 c -4 11 c -4 16 c -4 7 c -7 4 c -8 0 c
-7 -4 c -4 -11 c 0 -15 c 3 -4 8322 1852 l 4 4 c -4 4 c -3 -4 c 0 -37 8250 1927 l 34 -4 c -4 4 c -4 11 c 0 11 c 4 12 c 8 7 c 11 4 c
8 0 c 11 -4 c 7 -7 c 4 -12 c 0 -11 c -4 -11 c -3 -4 c -8 -4 c -4 0 8269 1961 l -8 4 c -3 4 c -4 8 c 0 15 c 4 7 c 3 4 c 8 4 c 8 0 c
7 -4 c 11 -7 c 38 -38 c 0 53 c 4 -11 8250 2056 l 11 -8 c 19 -4 c 11 0 c 19 4 c 11 8 c 4 11 c 0 8 c -4 11 c -11 7 c -19 4 c -11 0 c
-19 -4 c -11 -7 c -4 -11 c 0 -8 c 0 -249 8424 7019 l 53 -38 8380 7129 l 0 57 c 80 0 8380 7129 l -4 0 8399 7170 l -7 4 c -4 4 c
-4 7 c 0 16 c 4 7 c 4 4 c 7 4 c 8 0 c 8 -4 c 11 -8 c 38 -37 c 0 52 c 0 -37 8380 7287 l 34 -4 c -3 4 c -4 11 c 0 11 c 4 12 c 7 7 c
11 4 c 8 0 c 11 -4 c 8 -7 c 4 -12 c 0 -11 c -4 -11 c -4 -4 c -7 -4 c 11 -4 8407 7367 l 8 -8 c 3 -11 c 0 -4 c -3 -11 c -8 -8 c
-11 -3 c -4 0 c -11 3 c -8 8 c -4 11 c 0 4 c 4 11 c 8 8 c 15 4 c 19 0 c 19 -4 c 11 -8 c 4 -11 c 0 -7 c -4 -12 c -8 -4 c
4 -4 8452 7401 l 4 4 c -4 4 c -4 -4 c 0 41 8380 7439 l 31 -22 c 0 11 c 3 7 c 4 4 c 11 4 c 8 0 c 11 -4 c 8 -7 c 4 -12 c 0 -11 c
-4 -11 c -4 -4 c -7 -4 c -8 -4 8392 7556 l -4 -11 c 0 -8 c 4 -11 c 11 -8 c 19 -4 c 19 0 c 15 4 c 8 8 c 4 11 c 0 4 c -4 11 c -8 8 c
-11 4 c -4 0 c -11 -4 c -8 -8 c -3 -11 c 0 -4 c 3 -11 c 8 -8 c 11 -4 c -4 0 8399 7586 l -7 4 c -4 4 c -4 7 c 0 15 c 4 8 c 4 4 c
7 3 c 8 0 c 8 -3 c 11 -8 c 38 -38 c 0 53 c 0 -249 8574 1424 l 53 -38 8531 1534 l 0 57 c 79 0 8531 1534 l -4 0 8550 1576 l -8 3 c
-3 4 c -4 8 c 0 15 c 4 7 c 3 4 c 8 4 c 7 0 c 8 -4 c 11 -7 c 38 -38 c 0 53 c -7 -4 8542 1697 l -4 -12 c 0 -7 c 4 -12 c 11 -7 c
19 -4 c 19 0 c 15 4 c 7 7 c 4 12 c 0 4 c -4 11 c -7 8 c -12 3 c -3 0 c -12 -3 c -7 -8 c -4 -11 c 0 -4 c 4 -12 c 7 -7 c 12 -4 c
4 -12 8531 1746 l 11 -7 c 19 -4 c 11 0 c 19 4 c 11 7 c 4 12 c 0 7 c -4 12 c -11 7 c -19 4 c -11 0 c -19 -4 c -11 -7 c -4 -12 c
0 -7 c 3 -4 8603 1806 l 4 4 c -4 4 c -3 -4 c 0 41 8531 1844 l 30 -22 c 0 11 c 4 8 c 4 3 c 11 4 c 7 0 c 12 -4 c 7 -7 c 4 -11 c
0 -12 c -4 -11 c -3 -4 c -8 -4 c 0 42 8531 1919 l 30 -23 c 0 12 c 4 7 c 4 4 c 11 4 c 7 0 c 12 -4 c 7 -7 c 4 -12 c 0 -11 c -4 -12 c
-3 -3 c -8 -4 c 0 42 8531 1995 l 30 -23 c 0 11 c 4 8 c 4 4 c 11 3 c 7 0 c 12 -3 c 7 -8 c 4 -11 c 0 -12 c -4 -11 c -3 -4 c -8 -3 c
0 -249 9045 1477 l 53 -38 9001 1587 l 0 57 c 79 0 9001 1587 l -4 0 9020 1629 l -7 3 c -4 4 c -4 8 c 0 15 c 4 7 c 4 4 c 7 4 c 8 0 c
7 -4 c 12 -7 c 37 -38 c 0 53 c -7 -4 9012 1750 l -4 -12 c 0 -7 c 4 -11 c 11 -8 c 19 -4 c 19 0 c 15 4 c 8 8 c 3 11 c 0 4 c -3 11 c
-8 8 c -11 3 c -4 0 c -11 -3 c -8 -8 c -4 -11 c 0 -4 c 4 -11 c 8 -8 c 11 -4 c 0 41 9001 1784 l 30 -23 c 0 12 c 4 7 c 4 4 c 11 4 c
8 0 c 11 -4 c 8 -7 c 3 -12 c 0 -11 c -3 -11 c -4 -4 c -8 -4 c 4 -4 9073 1859 l 3 4 c -3 4 c -4 -4 c 0 42 9001 1897 l 30 -23 c 0 11 c
4 8 c 4 4 c 11 3 c 8 0 c 11 -3 c 8 -8 c 3 -11 c 0 -12 c -3 -11 c -4 -4 c -8 -4 c 0 -37 9001 2010 l 34 -4 c -4 4 c -4 11 c 0 11 c
4 12 c 8 7 c 11 4 c 8 0 c 11 -4 c 8 -7 c 3 -12 c 0 -11 c -3 -11 c -4 -4 c -8 -4 c -7 -4 9012 2090 l -4 -11 c 0 -8 c 4 -11 c 11 -8 c
19 -4 c 19 0 c 15 4 c 8 8 c 3 11 c 0 4 c -3 11 c -8 8 c -11 3 c -4 0 c -11 -3 c -8 -8 c -4 -11 c 0 -4 c 4 -11 c 8 -8 c 11 -4 c
0 -250 9200 1276 l 52 -38 9157 1385 l 0 57 c 79 0 9157 1385 l -3 0 9175 1427 l -8 4 c -4 3 c -3 8 c 0 15 c 3 8 c 4 3 c 8 4 c 7 0 c
8 -4 c 11 -7 c 38 -38 c 0 53 c -8 -4 9168 1548 l -3 -11 c 0 -8 c 3 -11 c 12 -8 c 19 -4 c 18 0 c 16 4 c 7 8 c 4 11 c 0 4 c -4 11 c
-7 8 c -12 3 c -4 0 c -11 -3 c -7 -8 c -4 -11 c 0 -4 c 4 -11 c 7 -8 c 11 -4 c 52 -38 9157 1612 l 0 57 c 79 0 9157 1612 l
4 -3 9228 1657 l 4 3 c -4 4 c -4 -4 c 0 42 9157 1695 l 30 -23 c 0 11 c 4 8 c 3 4 c 12 3 c 7 0 c 12 -3 c 7 -8 c 4 -11 c 0 -12 c
-4 -11 c -4 -4 c -7 -3 c 52 -38 9157 1801 l 0 57 c 79 0 9157 1801 l 3 -11 9157 1861 l 12 -7 c 19 -4 c 11 0 c 19 4 c 11 7 c 4 11 c
0 8 c -4 11 c -11 8 c -19 4 c -11 0 c -19 -4 c -12 -8 c -3 -11 c 0 -8 c 0 -249 9699 1321 l 53 -38 9655 1431 l 0 57 c
80 0 9655 1431 l -4 0 9674 1472 l -7 4 c -4 4 c -4 8 c 0 15 c 4 7 c 4 4 c 7 4 c 8 0 c 7 -4 c 12 -8 c 38 -37 c 0 53 c
-7 -3 9666 1593 l -4 -12 c 0 -7 c 4 -12 c 11 -7 c 19 -4 c 19 0 c 15 4 c 8 7 c 4 12 c 0 4 c -4 11 c -8 7 c -11 4 c -4 0 c -11 -4 c
-8 -7 c -4 -11 c 0 -4 c 4 -12 c 8 -7 c 11 -4 c 80 -38 9655 1673 l 0 53 9655 1620 l 4 -4 9727 1703 l 4 4 c -4 4 c -4 -4 c
0 -38 9655 1779 l 34 -4 c -4 4 c -3 11 c 0 12 c 3 11 c 8 7 c 11 4 c 8 0 c 11 -4 c 8 -7 c 4 -11 c 0 -12 c -4 -11 c -4 -4 c -8 -4 c
-4 8 9670 1820 l -11 11 c 80 0 c 11 -4 9682 1934 l 8 -8 c 3 -11 c 0 -4 c -3 -11 c -8 -8 c -11 -4 c -4 0 c -12 4 c -7 8 c -4 11 c
0 4 c 4 11 c 7 8 c 16 4 c 19 0 c 18 -4 c 12 -8 c 4 -11 c 0 -8 c -4 -11 c -8 -4 c
showpage PGPLOT restore
 
%%Trailer
%%DocumentFonts: 
%%Pages: 1
%%EOF
