%!PS-Adobe-3.0 EPSF-3.0
%%For: tom
%%Title: PGPLOT PostScript plot
%%Creator: PGPLOT
%%CreationDate:  9-Nov-1994 13:44
%%BoundingBox: 25 18 587 774
%%DocumentFonts: (atend)
%%LanguageLevel: 1
%%Orientation: Landscape
%%Pages: (atend)
%%EndComments
%%BeginProlog
/l {moveto rlineto currentpoint stroke moveto} bind def
/c {rlineto currentpoint stroke moveto} bind def
/d {moveto 0 0 rlineto currentpoint stroke moveto} bind def
/SLW {5 mul setlinewidth} bind def
/SCF /pop load def
/BP {newpath moveto} bind def
/LP /rlineto load def
/EP {rlineto closepath eofill} bind def
/MB {gsave translate MFAC dup scale 1 setlinewidth 2 setlinecap 0 setlinejoin newpath} bind def
/ME /grestore load def
/C {0 360 arc stroke} bind def
/FC {0 360 arc fill} bind def
%%EndProlog
 
%%Page: 1 1
%%BeginPageSetup
/PGPLOT save def
0.072 0.072 scale
8150 250 translate 90 rotate
1 setlinejoin 1 setlinecap 1 SLW 1 SCF
%%EndPageSetup
0.00 setgray 1 SLW 8939 0 780 780 l 0 6239 c -8939 0 c 0 -6239 c 0 -45 1116 780 l 0 -45 1554 780 l 0 -45 1991 780 l 0 -45 2428 780 l
0 -90 2865 780 l 0 -45 3302 780 l 0 -45 3739 780 l 0 -45 4176 780 l 0 -45 4613 780 l 0 -90 5051 780 l 0 -45 5488 780 l
0 -45 5925 780 l 0 -45 6362 780 l 0 -45 6799 780 l 0 -90 7236 780 l 0 -45 7673 780 l 0 -45 8110 780 l 0 -45 8548 780 l
0 -45 8985 780 l 0 -90 9422 780 l 0 -45 1116 7064 l 0 -45 1554 7064 l 0 -45 1991 7064 l 0 -45 2428 7064 l 0 -90 2865 7109 l
0 -45 3302 7064 l 0 -45 3739 7064 l 0 -45 4176 7064 l 0 -45 4613 7064 l 0 -90 5051 7109 l 0 -45 5488 7064 l 0 -45 5925 7064 l
0 -45 6362 7064 l 0 -45 6799 7064 l 0 -90 7236 7109 l 0 -45 7673 7064 l 0 -45 8110 7064 l 0 -45 8548 7064 l 0 -45 8985 7064 l
0 -90 9422 7109 l -60 0 2775 672 l -6 -54 c 6 6 c 18 6 c 18 0 c 18 -6 c 12 -12 c 6 -18 c 0 -12 c -6 -18 c -12 -12 c -18 -6 c -18 0 c
-18 6 c -6 6 c -6 12 c -18 -6 2859 672 l -12 -18 c -6 -30 c 0 -18 c 6 -30 c 12 -18 c 18 -6 c 12 0 c 18 6 c 12 18 c 6 30 c 0 18 c
-6 30 c -12 18 c -18 6 c -12 0 c -18 -6 2979 672 l -12 -18 c -6 -30 c 0 -18 c 6 -30 c 12 -18 c 18 -6 c 12 0 c 18 6 c 12 18 c 6 30 c
0 18 c -6 30 c -12 18 c -18 6 c -12 0 c 12 6 4847 648 l 18 18 c 0 -126 c -18 -6 4985 672 l -12 -18 c -6 -30 c 0 -18 c 6 -30 c
12 -18 c 18 -6 c 12 0 c 18 6 c 12 18 c 6 30 c 0 18 c -6 30 c -12 18 c -18 6 c -12 0 c -18 -6 5105 672 l -12 -18 c -6 -30 c 0 -18 c
6 -30 c 12 -18 c 18 -6 c 12 0 c 18 6 c 12 18 c 6 30 c 0 18 c -6 30 c -12 18 c -18 6 c -12 0 c -18 -6 5225 672 l -12 -18 c -6 -30 c
0 -18 c 6 -30 c 12 -18 c 18 -6 c 12 0 c 18 6 c 12 18 c 6 30 c 0 18 c -6 30 c -12 18 c -18 6 c -12 0 c 12 6 7032 648 l 18 18 c
0 -126 c -60 0 7206 672 l -6 -54 c 6 6 c 18 6 c 18 0 c 18 -6 c 12 -12 c 6 -18 c 0 -12 c -6 -18 c -12 -12 c -18 -6 c -18 0 c -18 6 c
-6 6 c -6 12 c -18 -6 7290 672 l -12 -18 c -6 -30 c 0 -18 c 6 -30 c 12 -18 c 18 -6 c 12 0 c 18 6 c 12 18 c 6 30 c 0 18 c -6 30 c
-12 18 c -18 6 c -12 0 c -18 -6 7410 672 l -12 -18 c -6 -30 c 0 -18 c 6 -30 c 12 -18 c 18 -6 c 12 0 c 18 6 c 12 18 c 6 30 c 0 18 c
-6 30 c -12 18 c -18 6 c -12 0 c 0 6 9206 642 l 6 12 c 6 6 c 12 6 c 24 0 c 12 -6 c 6 -6 c 6 -12 c 0 -12 c -6 -12 c -12 -18 c
-60 -60 c 84 0 c -18 -6 9356 672 l -12 -18 c -6 -30 c 0 -18 c 6 -30 c 12 -18 c 18 -6 c 12 0 c 18 6 c 12 18 c 6 30 c 0 18 c -6 30 c
-12 18 c -18 6 c -12 0 c -18 -6 9476 672 l -12 -18 c -6 -30 c 0 -18 c 6 -30 c 12 -18 c 18 -6 c 12 0 c 18 6 c 12 18 c 6 30 c 0 18 c
-6 30 c -12 18 c -18 6 c -12 0 c -18 -6 9596 672 l -12 -18 c -6 -30 c 0 -18 c 6 -30 c 12 -18 c 18 -6 c 12 0 c 18 6 c 12 18 c 6 30 c
0 18 c -6 30 c -12 18 c -18 6 c -12 0 c -90 0 780 780 l -45 0 780 1717 l -90 0 780 2654 l -45 0 780 3590 l -90 0 780 4527 l
-45 0 780 5464 l -90 0 780 6401 l -90 0 9809 780 l -45 0 9764 1717 l -90 0 9809 2654 l -45 0 9764 3590 l -90 0 9809 4527 l
-45 0 9764 5464 l -90 0 9809 6401 l 6 -18 517 774 l 18 -12 c 30 -6 c 18 0 c 30 6 c 18 12 c 6 18 c 0 12 c -6 18 c -18 12 c -30 6 c
-18 0 c -30 -6 c -18 -12 c -6 -18 c 0 -12 c -6 0 547 2396 l -12 6 c -6 6 c -6 12 c 0 24 c 6 12 c 6 6 c 12 6 c 12 0 c 12 -6 c
18 -12 c 60 -60 c 0 84 c 84 84 547 2516 l 84 -84 547 2600 l -6 12 541 2660 l -18 18 c 126 0 c 6 -18 517 2798 l 18 -12 c 30 -6 c
18 0 c 30 6 c 18 12 c 6 18 c 0 12 c -6 18 c -18 12 c -30 6 c -18 0 c -30 -6 c -18 -12 c -6 -18 c 0 -12 c 63 -45 453 2922 l 0 68 c
94 0 453 2922 l 84 -60 517 4323 l 0 90 c 126 0 517 4323 l 84 84 547 4389 l 84 -84 547 4473 l -6 12 541 4533 l -18 18 c 126 0 c
6 -18 517 4671 l 18 -12 c 30 -6 c 18 0 c 30 6 c 18 12 c 6 18 c 0 12 c -6 18 c -18 12 c -30 6 c -18 0 c -30 -6 c -18 -12 c -6 -18 c
0 -12 c 63 -45 453 4796 l 0 67 c 94 0 453 4796 l -12 -6 535 6215 l -6 -18 c 0 -12 c 6 -18 c 18 -12 c 30 -6 c 30 0 c 24 6 c 12 12 c
6 18 c 0 6 c -6 18 c -12 12 c -18 6 c -6 0 c -18 -6 c -12 -12 c -6 -18 c 0 -6 c 6 -18 c 12 -12 c 18 -6 c 84 84 547 6263 l
84 -84 547 6347 l -6 12 541 6407 l -18 18 c 126 0 c 6 -18 517 6545 l 18 -12 c 30 -6 c 18 0 c 30 6 c 18 12 c 6 18 c 0 12 c -6 18 c
-18 12 c -30 6 c -18 0 c -30 -6 c -18 -12 c -6 -18 c 0 -12 c 63 -45 453 6669 l 0 68 c 94 0 453 6669 l
4 -7 780 799 l 5 -1 c 4 0 c 4 1 c 5 0 c 4 1 c 4 1 c 5 0 c 4 -2 c 5 -1 c 4 -2 c 4 0 c 5 0 c 4 1 c 4 0 c 5 0 c 4 1 c 5 0 c 4 -1 c
4 1 c 5 -1 c 4 1 c 4 0 c 5 -1 c 4 1 c 5 1 c 4 1 c 4 0 c 5 0 c 4 -1 c 4 -1 c 5 0 c 4 0 c 5 2 c 4 6 c 4 15 c 5 45 c 4 26 c 4 -6 c
5 -21 c 4 -50 c 4 -16 c 5 1 c 4 3 c 5 4 c 4 0 c 4 -2 c 5 -4 c 4 -2 c 4 1 c 5 0 c 4 -1 c 5 -2 c 4 -1 c 4 1 c 5 0 c 4 1 c 4 2 c 5 1 c
4 0 c 5 -2 c 4 -1 c 4 -1 c 5 -1 c 4 1 c 4 0 c 5 1 c 4 1 c 5 -1 c 4 -1 c 4 0 c 5 0 c 4 1 c 4 1 c 5 1 c 4 -1 c 4 0 c 5 -2 c 4 0 c
5 0 c 4 0 c 4 0 c 5 0 c 4 -10 c 4 9 1152 780 l 4 1 c 5 0 c 4 1 c 4 1 c 5 0 c 4 0 c 4 0 c 5 -1 c 4 0 c 5 -1 c 4 1 c 4 0 c 5 4 c
4 16 c 4 42 c 5 138 c 4 114 c 5 -12 c 4 -61 c 4 -169 c 5 -67 c 4 -2 c 4 1 c 5 0 c 4 -1 c 4 -2 c 5 -2 c 4 1 c 5 1 c 4 0 c 4 0 c
5 -1 c 4 0 c 4 -1 c 5 1 c 4 -1 c 5 1 c 4 -1 c 4 1 c 5 0 c 4 -1 c 4 1 c 5 0 c 4 1 c 5 2 c 4 8 c 4 24 c 5 75 c 4 26 c 4 -6 c 5 -40 c
4 -76 c 5 -12 c 4 0 c 4 1 c 5 3 c 4 9 c 4 18 c 5 4 c 4 0 c 4 -4 c 5 7 c 4 3 c 5 -2 c 4 -19 c 4 -17 c 5 -1 c 4 1 c 4 2 c 5 4 c 4 12 c
5 46 c 4 128 c 4 393 c 5 449 c 4 48 c 4 -173 c 5 -494 c 4 -321 c 5 -68 c 4 -16 c 4 -6 c 5 -3 c 4 -2 c 4 0 c 5 -1 c 4 -1 c 4 0 c
5 0 c 4 2 c 5 1 c 4 -1 c 4 0 c 5 0 c 4 -1 c 4 -1 c 5 -1 c 4 -1 c 5 0 c 4 0 c 4 0 c 5 1 c 4 0 c 4 0 c 5 0 c 4 1 c 5 1 c 4 0 c 4 0 c
5 0 c 4 2 c 4 1 c 5 2 c 4 -2 c 5 -1 c 4 -2 c 4 1 c 5 11 c 4 38 c 4 94 c 5 41 c 4 -13 c 4 -51 c 5 -95 c 4 4 c 5 25 c 4 5 c 4 -5 c
5 -25 c 4 -16 c 4 -5 c 5 -5 c 4 -3 c 5 1 c 4 17 c 4 63 c 5 217 c 4 141 c 4 -19 c 5 -87 c 4 -253 c 5 -76 c 4 -3 c 4 0 c 5 0 c 4 0 c
4 0 c 5 0 c 4 1 c 5 1 c 4 1 c 4 3 c 5 3 c 4 1 c 4 0 c 5 1 c 4 0 c 4 2 c 5 5 c 4 13 c 5 39 c 4 175 c 4 649 c 5 1843 c 4 1361 c
4 -46 c 5 -918 c 4 -2025 c 5 -882 c 4 -139 c 4 -47 c 5 -15 c 4 -6 c 4 -3 c 5 -1 c 4 5 c 5 3 c 4 5 c 4 15 c 5 76 c 4 292 c 4 698 c
5 327 c 4 -108 c 5 -425 c 4 -661 c 4 -172 c 5 -41 c 4 -15 c 4 -6 c 5 -5 c 4 -1 c 4 -1 c 5 -1 c 4 1 c 5 3 c 4 -1 c 4 -2 c 5 -2 c
4 -3 c 4 0 c 5 0 c 4 0 c 5 2 c 4 6 c 4 11 c 5 -1 c 4 -2 c 4 -8 c 5 -7 c 4 -1 c 5 0 c 4 0 c 4 0 c 5 1 c 4 4 c 4 15 c 5 26 c 4 9 c
5 -6 c 4 -20 c 4 -22 c 5 -2 c 4 -2 c 4 -1 c 5 -1 c 4 -1 c 4 1 c 5 -1 c 4 0 c 5 0 c 4 0 c 4 1 c 5 5 c 4 10 c 4 2 c 5 0 c 4 -4 c
5 -6 c 4 0 c 4 -3 c 5 -2 c 4 -2 c 4 -1 c 5 0 c 4 0 c 5 0 c 4 1 c 4 2 c 5 3 c 4 1 c 4 -1 c 5 -3 c 4 -2 c 4 0 c 5 1 c 4 1 c 5 1 c
4 4 c 4 20 c 5 98 c 4 105 c 4 19 c 5 -7 c 4 -79 c 5 -20 c 4 236 c 4 1135 c 5 789 c 4 72 c 4 -425 c 5 -1380 c 4 -512 c 5 -42 c 4 -3 c
4 -3 c 5 0 c 4 -1 c 4 -1 c 5 -1 c 4 0 c 5 1 c 4 0 c 4 2 c 5 4 c 4 18 c 4 109 c 5 622 c 4 1345 c 4 334 c 5 -34 c 4 -848 c 5 -1193 c
4 -193 c 4 -107 c 5 -2 c 4 36 c 4 4 c 5 -15 c 4 -51 c 5 -28 c 4 -7 c 4 -2 c 5 1 c 4 0 c 4 -1 c 5 1 c 4 0 c 5 0 c 4 0 c 4 0 c 5 1 c
4 7 c 4 12 c 5 4 c 4 0 c 5 -8 c 4 -7 c 4 0 c 5 3 c 4 12 c 4 25 c 5 63 c 4 301 c 4 872 c 5 455 c 4 20 c 5 -447 c 4 -926 c 4 -289 c
5 -61 c 4 -18 c 4 -8 c 5 -1 c 4 2 c 5 -1 c 4 1 c 4 -2 c 5 -3 c 4 0 c 4 -2 c 5 1 c 4 11 c 5 4 c 4 -2 c 4 -6 c 5 -12 c 4 -2 c 4 0 c
5 -1 c 4 0 c 5 -1 c 4 1 c 4 1 c 5 1 c 4 0 c 4 -1 c 5 -1 c 4 -1 c 4 0 c 5 0 c 4 0 c 5 0 c 4 0 c 4 2 c 5 5 c 4 13 c 4 14 c 5 -2 c
4 -4 c 5 -18 c 4 -8 c 4 0 c 5 9 c 4 13 c 4 3 c 5 -1 c 4 -8 c 5 -10 c 4 -3 c 4 -2 c 5 -2 c 4 0 c 4 0 c 5 1 c 4 5 c 4 3 c 5 1 c 4 4 c
5 5 c 4 1 c 4 11 c 5 113 c 4 680 c 4 557 c 5 41 c 4 -197 c 5 -840 c 4 -343 c 4 -30 c 5 -3 c 4 -4 c 4 -1 c 5 -2 c 4 -1 c 5 0 c 4 -1 c
4 0 c 5 0 c 4 -1 c 4 0 c 5 1 c 4 2 c 5 6 c 4 9 c 4 3 c 5 -3 c 4 -6 c 4 -7 c 5 0 c 4 1 c 4 0 c 5 0 c 4 1 c 5 2 c 4 24 c 4 44 c 5 9 c
4 -4 c 4 -32 c 5 -36 c 4 -6 c 5 2 c 4 3 c 4 6 c 5 7 c 4 13 c 4 34 c 5 113 c 4 811 c 5 1819 c 4 773 c 4 -44 c 5 -1049 c 4 -1785 c
4 -489 c 5 16 c 4 138 c 5 24 c 4 -28 c 4 -166 c 5 -142 c 4 -38 c 4 -11 c 5 -6 c 4 -2 c 4 -1 c 5 -1 c 4 3 c 5 20 c 4 16 c 4 1 c
5 -5 c 4 -26 c 4 -11 c 5 1 c 4 -1 c 5 1 c 4 1 c 4 0 c 5 0 c 4 0 c 4 2 c 5 2 c 4 1 c 5 -1 c 4 -4 c 4 -1 c 5 3 c 4 2 c 4 -1 c 5 0 c
4 -2 c 5 1 c 4 0 c 4 1 c 5 2 c 4 3 c 4 3 c 5 1 c 4 4 c 4 25 c 5 128 c 4 206 c 5 952 c 4 694 c 4 -51 c 5 -266 c 4 -1138 c 4 -496 c
5 -42 c 4 6 c 5 3 c 4 8 c 4 9 c 5 12 c 4 40 c 4 303 c 5 3855 c 4 1773 c 5 -10 c 4 10 c 4 -18 c 5 -4840 c 4 -1052 c 4 -56 c 5 -18 c
4 -11 c 5 -6 c 4 -6 c 4 -3 c 5 1 c 4 3 c 4 -3 c 5 -6 c 4 -8 c 4 -4 c 5 -1 c 4 -2 c 5 -3 c 4 -1 c 4 0 c 5 -2 c 4 0 c 4 -1 c 5 1 c
4 -1 c 5 0 c 4 0 c 4 0 c 5 6 c 4 27 c 4 37 c 5 22 c 4 -6 c 5 -30 c 4 -35 c 4 -16 c 5 -3 c 4 -2 c 4 0 c 5 0 c 4 1 c 4 0 c 5 0 c 4 1 c
5 0 c 4 1 c 4 -1 c 5 -2 c 4 0 c 4 8 c 5 17 c 4 5 c 5 1 c 4 -9 c 4 -13 c 5 5 c 4 36 c 4 39 c 5 5 c 4 -11 c 5 -41 c 4 -25 c 4 -6 c
5 -3 c 4 -7 c 4 1 c 5 1 c 4 2 c 5 1 c 4 3 c 4 -1 c 5 -1 c 4 -4 c 4 -3 c 5 0 c 4 1 c 4 -1 c 5 -2 c 4 0 c 5 0 c 4 2 c 4 1 c 5 1 c
4 4 c 4 18 c 5 45 c 4 14 c 5 -6 c 4 -26 c 4 -40 c 5 -8 c 4 2 c 4 2 c 5 3 c 4 8 c 5 25 c 4 112 c 4 601 c 5 778 c 4 186 c 4 -115 c
5 -740 c 4 -644 c 5 -149 c 4 -43 c 4 -13 c 5 -6 c 4 -4 c 4 -4 c 5 -2 c 4 0 c 4 -1 c 5 -1 c 4 1 c 5 -1 c 4 0 c 4 2 c 5 0 c 4 1 c
4 6 c 5 8 c 4 2 c 5 -1 c 4 -9 c 4 -9 c 5 -2 c 4 1 c 4 -1 c 5 0 c 4 0 c 5 0 c 4 2 c 4 1 c 5 0 c 4 0 c 4 -1 c 5 3 c 4 0 c 5 1 c 4 -2 c
4 -2 c 5 0 c 4 -1 c 4 2 c 5 -1 c 4 0 c 4 0 c 5 -1 c 4 0 c 5 0 c 4 -1 c 4 0 c 5 1 c 4 0 c 4 0 c 5 1 c 4 1 c 5 8 c 4 25 c 4 18 c
5 10 c 4 -3 c 4 -6 c 5 2 c 4 -8 c 5 -9 c 4 -9 c 4 -8 c 5 -2 c 4 -4 c 4 -9 c 5 -3 c 4 1 c 5 0 c 4 2 c 4 1 c 5 0 c 4 -1 c 4 -3 c
5 -3 c 4 0 c 4 9 c 5 66 c 4 74 c 5 19 c 4 26 c 4 -7 c 5 -34 c 4 -11 c 4 -49 c 5 -76 c 4 -16 c 5 -1 c 4 0 c 4 8 c 5 5 c 4 1 c 4 -2 c
5 -6 c 4 -1 c 5 -1 c 4 -1 c 4 -1 c 5 4 c 4 9 c 4 1 c 5 -2 c 4 -6 c 4 -8 c 5 -2 c 4 2 c 5 0 c 4 1 c 4 -1 c 5 0 c 4 -1 c 4 -1 c 5 0 c
4 0 c 5 0 c 4 0 c 4 3 c 5 9 c 4 5 c 4 1 c 5 -4 c 4 -8 c 5 -5 c 4 0 c 4 -1 c 5 1 c 4 1 c 4 0 c 5 0 c 4 0 c 5 -1 c 4 1 c 4 0 c 5 0 c
4 1 c 4 0 c 5 1 c 4 -1 c 4 0 c 5 2 c 4 1 c 5 0 c 4 0 c 4 -2 c 5 -2 c 4 -1 c 4 1 c 5 1 c 4 1 c 5 0 c 4 1 c 4 1 c 5 1 c 4 1 c 4 0 c
5 -1 c 4 1 c 5 2 c 4 0 c 4 -2 c 5 -1 c 4 1 c 4 2 c 5 1 c 4 2 c 5 1 c 4 1 c 4 0 c 5 2 c 4 3 c 4 1 c 5 1 c 4 1 c 4 4 c 5 4 c 4 3 c
5 5 c 4 13 c 4 11 c 5 13 c 4 22 c 4 15 c 5 48 c 4 198 c 5 2359 c 4 3315 c 4 -1 c 5 10 c 4 -1 c 4 -2 c 5 -4733 c 4 -1112 c 5 -63 c
4 -27 c 4 -4 c 5 -9 c 4 -9 c 4 -14 c 5 -19 c 4 -3 c 5 -4 c 4 -3 c 4 -8 c 5 -9 c 4 -2 c 4 -2 c 5 -1 c 4 -2 c 4 -1 c 5 -1 c 4 -2 c
5 2 c 4 -1 c 4 0 c 5 0 c 4 -2 c 4 -1 c 5 -2 c 4 -1 c 5 0 c 4 1 c 4 1 c 5 0 c 4 -1 c 4 -2 c 5 -1 c 4 0 c 5 2 c 4 3 c 4 3 c 5 3 c
4 0 c 4 -1 c 5 -3 c 4 -2 c 5 -2 c 4 -1 c 4 -1 c 5 -1 c 4 0 c 4 0 c 5 0 c 4 0 c 4 4 c 5 53 c 4 170 c 5 102 c 4 28 c 4 -49 c 5 -176 c
4 -81 c 4 -25 c 5 -21 c 4 -6 c 5 -1 c 4 1 c 4 -18 c 5 18 c 4 0 c 4 -1 c 5 -1 c 4 1 c 5 0 c 4 0 c 4 -1 c 5 1 c 4 0 c 4 -1 c 5 1 c
4 10 c 4 53 c 5 44 c 4 14 c 5 -17 c 4 -55 c 4 -40 c 5 -9 c 4 -1 c 4 0 c 5 -1 c 4 1 c 5 -1 c 4 1 c 4 1 c 5 0 c 4 1 c 4 0 c 5 0 c
4 -1 c 5 -1 c 4 0 c 4 1 c 5 4 c 4 2 c 4 0 c 5 2 c 4 2 c 5 3 c 4 5 c 4 -1 c 5 -3 c 4 -2 c 4 -3 c 5 -1 c 4 2 c 4 8 c 5 74 c 4 194 c
5 94 c 4 -2 c 4 -98 c 5 -189 c 4 -86 c 4 -5 c 5 -1 c 4 1 c 5 0 c 4 -1 c 4 0 c 5 1 c 4 1 c 4 1 c 5 -1 c 4 -1 c 5 -1 c 4 -1 c 4 0 c
5 2 c 4 4 c 4 2 c 5 0 c 4 -2 c 5 -4 c 4 -1 c 4 0 c 5 0 c 4 -1 c 4 0 c 5 1 c 4 0 c 4 0 c 5 -1 c 4 0 c 5 -1 c 4 0 c 4 0 c 5 1 c 4 6 c
4 4 c 5 0 c 4 0 c 5 -4 c 4 -3 c 4 0 c 5 0 c 4 1 c 4 6 c 5 68 c 4 267 c 5 198 c 4 21 c 4 -77 c 5 -291 c 4 -165 c 4 -26 c 5 0 c 4 3 c
5 0 c 4 -1 c 4 -2 c 5 -4 c 4 0 c 4 1 c 5 1 c 4 1 c 4 3 c 5 3 c 4 1 c 5 1 c 4 -3 c 4 -3 c 5 -2 c 4 -2 c 4 -1 c 5 1 c 4 0 c 5 0 c
4 -1 c 4 0 c 5 -1 c 4 0 c 4 0 c 5 0 c 4 1 c 5 0 c 4 0 c 4 1 c 5 0 c 4 1 c 4 2 c 5 10 c 4 26 c 4 18 c 5 36 c 4 311 c 5 653 c 4 231 c
4 -28 c 5 -382 c 4 -632 c 4 -211 c 5 -25 c 4 -4 c 5 -4 c 4 0 c 4 1 c 5 2 c 4 0 c 4 -1 c 5 -2 c 4 -2 c 5 -1 c 4 -16 c 4 16 c 5 0 c
4 0 c 4 -1 c 5 0 c 4 1 c 5 0 c 4 0 c 4 -1 c 5 0 c 4 0 c 4 2 c 5 2 c 4 4 c 4 2 c 5 -1 c 4 -3 c 5 -1 c 4 2 c 4 12 c 5 44 c 4 25 c
4 5 c 5 -12 c 4 -46 c 5 -28 c 4 -5 c 4 1 c 5 1 c 4 9 c 4 19 c 5 16 c 4 2 c 5 -6 c 4 -21 c 4 -15 c 5 -4 c 4 -1 c 4 0 c 5 1 c 4 0 c
5 0 c 4 1 c 4 1 c 5 1 c 4 2 c 4 2 c 5 7 c 4 48 c 4 78 c 5 48 c 4 67 c 5 353 c 4 807 c 4 408 c 5 45 c 4 -444 c 4 -876 c 5 -395 c
4 -90 c 5 -29 c 4 8 c 4 96 c 5 94 c 4 18 c 4 -28 c 5 -106 c 4 -91 c 5 -18 c 4 0 c 4 1 c 5 1 c 4 -1 c 4 2 c 5 3 c 4 3 c 5 5 c 4 10 c
4 18 c 5 44 c 4 140 c 4 925 c 5 2078 c 4 1337 c 4 151 c 5 -959 c 4 -2106 c 5 -1241 c 4 -251 c 4 -63 c 5 -33 c 4 -15 c 4 -17 c
5 -16 c 4 -10 c 5 -5 c 4 -1 c 4 -1 c 5 1 c 4 3 c 4 38 c 5 236 c 4 268 c 5 90 c 4 -6 c 4 -258 c 5 -246 c 4 -59 c 4 -18 c 5 -11 c
4 -8 c 5 -15 c 4 -9 c 4 -1 c 5 4 c 4 13 c 4 4 c 5 0 c 4 -9 c 4 -17 c 5 -6 c 4 1 c 5 12 c 4 45 c 4 37 c 5 7 c 4 -14 c 4 -47 c 5 -33 c
4 -7 c 5 1 c 4 3 c 4 1 c 5 0 c 4 -2 c 4 6 c 5 6 c 4 3 c 5 0 c 4 3 c 4 3 c 5 2 c 4 0 c 4 1 c 5 47 c 4 454 c 4 700 c 5 260 c 4 -1 c
5 -544 c 4 -713 c 4 -203 c 5 -16 c 4 -2 c 4 -2 c 5 -3 c 4 -4 c 5 -2 c 4 -1 c 4 0 c 5 -1 c 4 1 c 4 1 c 5 1 c 4 1 c 5 -1 c 4 -1 c
4 -1 c 5 0 c 4 0 c 4 1 c 5 1 c 4 2 c 5 -1 c 4 -1 c 4 -2 c 5 -2 c 4 -1 c 4 1 c 5 4 c 4 4 c 4 4 c 5 0 c 4 -2 c 5 1 c 4 7 c 4 4 c 5 1 c
4 -5 c 4 -10 c 5 -4 c 4 -2 c 5 -2 c 4 0 c 4 1 c 5 0 c 4 0 c 4 2 c 5 4 c 4 1 c 5 2 c 4 0 c 4 -4 c 5 -1 c 4 -2 c 4 -18 c 5 28 c 4 4 c
5 5 c 4 7 c 4 38 c 5 73 c 4 41 c 4 -2 c 5 -43 c 4 -78 c 4 -39 c 5 -12 c 4 -3 c 5 -2 c 4 -1 c 4 -1 c 5 1 c 4 0 c 4 0 c 5 0 c 4 -1 c
5 1 c 4 2 c 4 1 c 5 -1 c 4 0 c 4 -1 c 5 -1 c 4 0 c 5 0 c 4 0 c 4 1 c 5 4 c 4 2 c 4 0 c 5 -1 c 4 -3 c 5 -2 c 4 0 c 4 -1 c 5 -1 c
4 1 c 4 0 c 5 0 c 4 -1 c 4 0 c 5 0 c 4 0 c 5 0 c 4 0 c 4 0 c 5 1 c 4 3 c 4 1 c 5 2 c 4 9 c 5 26 c 4 38 c 4 15 c 5 -7 c 4 -27 c
4 -39 c 5 -14 c 4 -1 c 5 1 c 4 0 c 4 -1 c 5 0 c 4 0 c 4 -1 c 5 0 c 4 1 c 5 4 c 4 2 c 4 1 c 5 -5 c 4 -5 c 4 -3 c 5 -1 c 4 -1 c 4 0 c
5 0 c 4 0 c 5 2 c 4 1 c 4 2 c 5 4 c 4 5 c 4 3 c 5 0 c 4 -3 c 5 -5 c 4 -4 c 4 0 c 5 1 c 4 -1 c 4 -2 c 5 -1 c 4 -2 c 5 0 c 4 0 c 4 1 c
5 1 c 4 4 c 4 5 c 5 2 c 4 0 c 4 -2 c 5 -6 c 4 -3 c 5 -1 c 4 0 c 4 0 c 5 0 c 4 0 c 4 0 c 5 1 c 4 2 c 5 4 c 4 0 c 4 1 c 5 -1 c 4 8 c
4 69 c 5 71 c 4 15 c 5 -4 c 4 -68 c 4 -74 c 5 -11 c 4 0 c 4 1 c 5 2 c 4 1 c 5 7 c 4 46 c 4 599 c 5 1713 c 4 816 c 4 118 c 5 -549 c
4 -1774 c 4 -844 c 5 -76 c 4 -20 c 5 -24 c 4 -14 c 4 -4 c 5 -1 c 4 -2 c 4 -2 c 5 -1 c 4 -2 c 5 -1 c 4 0 c 4 -1 c 5 0 c 4 1 c 4 -1 c
5 0 c 4 0 c 5 -1 c 4 0 c 4 0 c 5 0 c 4 1 c 4 1 c 5 0 c 4 1 c 5 2 c 4 23 c 4 59 c 5 23 c 4 0 c 4 -20 c 5 -64 c 4 -24 c 4 -3 c 5 0 c
4 0 c 5 0 c 4 -1 c 4 0 c 5 1 c 4 0 c 4 -1 c 5 1 c 4 5 c 5 14 c 4 8 c 4 20 c 5 23 c 4 -9 c 4 -6 c 5 -19 c 4 -29 c 5 -6 c 4 -1 c 4 1 c
5 0 c 4 -1 c 4 0 c 5 0 c 4 1 c 5 1 c 4 0 c 4 -1 c 5 -1 c 4 0 c 4 0 c 5 1 c 4 1 c 4 3 c 5 3 c 4 0 c 5 0 c 4 -3 c 4 -1 c 5 -2 c 4 0 c
4 -2 c 5 -1 c 4 0 c 5 0 c 4 1 c 4 1 c 5 3 c 4 7 c 4 6 c 5 8 c 4 1 c 5 -5 c 4 -7 c 4 -8 c 5 -4 c 4 0 c 4 0 c 5 -1 c 4 -1 c 5 0 c
4 0 c 4 1 c 5 0 c 4 1 c 4 0 c 5 1 c 4 0 c 4 -1 c 5 1 c 4 -1 c 5 0 c 4 1 c 4 1 c 5 0 c 4 1 c 4 2 c 5 1 c 4 3 c 5 34 c 4 162 c 4 138 c
5 44 c 4 -18 c 4 -154 c 5 -117 c 4 208 c 5 1468 c 4 1095 c 4 193 c 5 -211 c 4 -1299 c 4 -755 c 5 390 c 4 66 c 4 -63 c 5 -492 c
4 -566 c 5 -113 c 4 -7 c 4 -3 c 5 -1 c 4 -1 c 4 -3 c 5 0 c 4 -1 c 5 -1 c 4 2 c 4 15 c 5 25 c 4 5 c 4 0 c 5 -14 c 4 -28 c 5 -5 c
4 0 c 4 3 c 5 15 c 4 13 c 4 1 c 5 -3 c 4 -14 c 5 -17 c 4 -2 c 4 0 c 5 0 c 4 0 c 4 1 c 5 0 c 4 0 c 4 0 c 5 -1 c 4 0 c 5 -1 c 4 1 c
4 1 c 5 1 c 4 2 c 4 2 c 5 -1 c 4 -1 c 5 -2 c 4 -1 c 4 3 c 5 4 c 4 40 c 4 238 c 5 183 c 4 20 c 5 -23 c 4 -229 c 4 -176 c 5 -21 c
4 -1 c 4 -5 c 5 -17 c 4 1 c 5 1 c 4 -1 c 4 -2 c 5 -8 c 4 -1 c 4 4 c 5 0 c 4 0 c 4 -1 c 5 -5 c 4 -2 c 5 3 c 4 4 c 4 0 c 5 -1 c 4 -4 c
4 -3 c 5 1 c 4 -1 c 5 0 c 4 -1 c 4 -1 c 5 -1 c 4 1 c 4 1 c 5 1 c 4 2 c 5 2 c 4 1 c 4 1 c 5 2 c 4 -2 c 4 -1 c 5 -3 c 4 -3 c 5 0 c
4 -2 c 4 0 c 5 0 c 4 -1 c 4 1 c 5 0 c 4 1 c 4 1 c 5 1 c 4 1 c 5 1 c 4 14 c 4 148 c 5 265 c 4 57 c 4 -4 c 5 -136 c 4 -266 c 5 -77 c
4 -4 c 4 -1 c 5 0 c 4 1 c 4 1 c 5 -1 c 4 1 c 5 0 c 4 2 c 4 1 c 5 1 c 4 -1 c 4 -2 c 5 10 c 4 86 c 4 70 c 5 7 c 4 -1 c 5 -78 c 4 -87 c
4 -9 c 5 -1 c 4 -1 c 4 0 c 5 0 c 4 0 c 5 0 c 4 1 c 4 1 c 5 0 c 4 0 c 4 -1 c 5 -1 c 4 1 c 5 0 c 4 0 c 4 -1 c 5 1 c 4 1 c 4 0 c 5 0 c
4 -2 c 5 -1 c 4 0 c 4 0 c 5 1 c 4 1 c 4 -1 c 5 0 c 4 0 c 4 -1 c 5 0 c 4 1 c 5 1 c 4 2 c 4 0 c 5 -1 c 4 -1 c 4 -2 c 5 1 c 4 1 c 5 0 c
4 0 c 4 0 c 5 -1 c 4 -1 c 4 0 c 5 1 c 4 5 c 5 4 c 4 2 c 4 0 c 5 -4 c 4 -3 c 4 -1 c 5 1 c 4 18 c 5 14 c 4 1 c 4 0 c 5 -16 c 4 -18 c
4 -3 c 5 -1 c 4 -1 c 4 1 c 5 1 c 4 3 c 5 12 c 4 9 c 4 1 c 5 -2 c 4 -13 c 4 -9 c 5 -1 c 4 -1 c 5 0 c 4 0 c 4 0 c 5 2 c 4 0 c 4 -1 c
5 1 c 4 -1 c 5 -1 c 4 1 c 4 0 c 5 0 c 4 0 c 4 0 c 5 -1 c 4 -1 c 5 1 c 4 0 c 4 8 c 5 6 c 4 0 c 4 0 c 5 -7 c 4 -7 c 4 -1 c 5 1 c 4 1 c
5 0 c 4 0 c 4 2 c 5 5 c 4 2 c 4 0 c 5 -1 c 4 -1 c 5 12 c 4 7 c 4 0 c 5 -2 c 4 -13 c 4 -9 c 5 -1 c 4 -1 c 5 -1 c 4 1 c 4 1 c 5 0 c
4 1 c 4 1 c 5 0 c 4 2 c 5 7 c 4 9 c 4 19 c 5 11 c 4 4 c 4 8 c 5 66 c 4 108 c 4 27 c 5 -3 c 4 -68 c 5 -129 c 4 -49 c 4 -8 c 5 -3 c
4 0 c 4 1 c 5 0 c 4 -1 c 5 -1 c 4 -1 c 4 -1 c 5 0 c 4 -1 c 4 0 c 5 -1 c 4 2 c 5 9 c 4 88 c 4 140 c 5 35 c 4 -6 c 4 -70 c 5 -147 c
4 -44 c 4 -3 c 5 0 c 4 0 c 5 6 c 4 4 c 4 0 c 5 -2 c 4 -5 c 4 -6 c 5 3 c 4 35 c 5 84 c 4 17 c 4 1 c 5 -26 c 4 -88 c 4 -24 c 5 -3 c
4 0 c 5 0 c 4 0 c 4 2 c 5 1 c 4 -1 c 4 0 c 5 -2 c 4 -1 c 5 0 c 4 1 c 4 0 c 5 2 c 4 0 c 4 1 c 5 1 c 4 2 c 4 34 c 5 187 c 4 103 c
5 12 c 4 -27 c 4 -151 c 5 -136 c 4 -13 c 4 -3 c 5 -9 c 4 -3 c 5 0 c 4 0 c 4 -1 c 5 0 c 4 0 c 4 0 c 5 2 c 4 5 c 5 0 c 4 0 c 4 -2 c
5 -4 c 4 -1 c 4 0 c 5 0 c 4 1 c 5 2 c 4 2 c 4 1 c 5 1 c 4 -1 c 4 6 c 5 60 c 4 98 c 4 19 c 5 -4 c 4 -39 c 5 -113 c 4 -21 c 4 23 c
5 29 c 4 21 c 4 48 c 5 3 c 4 -22 c 5 -26 c 4 -44 c 4 -36 c 5 -4 c 4 0 c 4 0 c 5 1 c 4 0 c 5 0 c 4 0 c 4 -3 c 5 -1 c 4 0 c 4 0 c
5 0 c 4 1 c 5 1 c 4 1 c 4 -15 c 4 16 9549 780 l 4 0 c 5 -1 c 4 0 c 4 0 c 5 2 c 4 17 c 5 21 c 4 1 c 4 0 c 5 -12 c 4 -26 c 4 -4 c
5 0 c 4 1 c 5 2 c 4 6 c 4 2 c 5 0 c 4 1 c 4 -1 c 5 -3 c 4 0 c 5 -2 c 4 -2 c 4 -1 c 5 3 c 4 18 c 4 25 c 5 8 c 4 -1 c 5 -15 c 4 -24 c
4 -9 c 5 1 c 4 1 c 4 1 c 5 2 c 4 9 c
0 -126 3030 418 l 54 0 3030 418 l 18 -6 c 6 -6 c 6 -12 c 0 -12 c -6 -12 c -6 -6 c -18 -6 c -54 0 c 42 -66 3072 358 l
-12 -6 3180 376 l -12 -12 c -6 -18 c 0 -12 c 6 -18 c 12 -12 c 12 -6 c 18 0 c 12 6 c 12 12 c 6 18 c 0 12 c -6 18 c -12 12 c -12 6 c
-18 0 c 24 -84 3264 376 l -24 -84 3312 376 l 24 -84 3312 376 l -24 -84 3360 376 l 108 0 3402 364 l 108 0 3402 328 l 12 6 3666 394 l
18 18 c 0 -126 c -60 -84 3828 418 l 90 0 c 0 -126 3828 418 l 12 6 4290 394 l 18 18 c 0 -126 c -6 -6 4404 376 l 6 -6 c 6 6 c -6 6 c
-6 -6 4404 304 l 6 -6 c 6 6 c -6 6 c -48 -126 4584 418 l 48 -126 4584 418 l 60 0 4554 334 l 0 -84 4662 376 l 6 18 4662 340 l 12 12 c
12 6 c 18 0 c -12 12 4806 358 l -12 6 c -18 0 c -12 -6 c -12 -12 c -6 -18 c 0 -12 c 6 -18 c 12 -12 c 12 -6 c 18 0 c 12 6 c 12 12 c
108 0 4848 346 l -18 -6 5034 418 l -12 -18 c -6 -30 c 0 -18 c 6 -30 c 12 -18 c 18 -6 c 12 0 c 18 6 c 12 18 c 6 30 c 0 18 c -6 30 c
-12 18 c -18 6 c -12 0 c 66 0 5130 418 l -36 -48 c 18 0 c 12 -6 c 6 -6 c 6 -18 c 0 -12 c -6 -18 c -12 -12 c -18 -6 c -18 0 c -18 6 c
-6 6 c -6 12 c -59 0 5309 418 l -6 -54 c 6 6 c 17 6 c 18 0 c 18 -6 c 12 -12 c 6 -18 c 0 -12 c -6 -18 c -12 -12 c -18 -6 c -18 0 c
-17 6 c -6 6 c -6 12 c -6 -6 5369 304 l 6 -6 c 6 6 c -6 6 c -12 0 5459 418 l -12 -6 c -6 -18 c 0 -102 c 42 0 5411 376 l
6 -6 5489 418 l 6 6 c -6 6 c -6 -6 c 0 -84 5495 376 l 0 -102 5549 418 l 6 -18 c 12 -6 c 12 0 c 42 0 5531 376 l -6 12 5675 358 l
-18 6 c -18 0 c -18 -6 c -6 -12 c 6 -12 c 12 -6 c 30 -6 c 12 -6 c 6 -12 c 0 -6 c -6 -12 c -18 -6 c -18 0 c -18 6 c -6 12 c
0 -192 6005 442 l 0 -192 6011 442 l 42 0 6005 442 l 42 0 6005 250 l 0 6 6089 388 l 6 12 c 6 6 c 12 6 c 24 0 c 12 -6 c 6 -6 c 6 -12 c
0 -12 c -6 -12 c -12 -18 c -60 -60 c 84 0 c -6 -6 6215 376 l 6 -6 c 6 6 c -6 6 c -6 -6 6215 304 l 6 -6 c 6 6 c -6 6 c
-48 -126 6395 418 l 48 -126 6395 418 l 60 0 6365 334 l 0 -84 6473 376 l 6 18 6473 340 l 12 12 c 12 6 c 18 0 c -12 12 6617 358 l
-12 6 c -18 0 c -12 -6 c -12 -12 c -6 -18 c 0 -12 c 6 -18 c 12 -12 c 12 -6 c 18 0 c 12 6 c 12 12 c 108 0 6659 346 l
-18 -6 6845 418 l -12 -18 c -6 -30 c 0 -18 c 6 -30 c 12 -18 c 18 -6 c 12 0 c 18 6 c 12 18 c 6 30 c 0 18 c -6 30 c -12 18 c -18 6 c
-12 0 c 66 0 6941 418 l -36 -48 c 18 0 c 12 -6 c 6 -6 c 6 -18 c 0 -12 c -6 -18 c -12 -12 c -18 -6 c -18 0 c -18 6 c -6 6 c -6 12 c
-6 12 7127 400 l -18 6 c -12 0 c -18 -6 c -12 -18 c -6 -30 c 0 -30 c 6 -24 c 12 -12 c 18 -6 c 6 0 c 18 6 c 12 12 c 6 18 c 0 6 c
-6 18 c -12 12 c -18 6 c -6 0 c -18 -6 c -12 -12 c -6 -18 c -6 -6 7181 304 l 6 -6 c 6 6 c -6 6 c -12 0 7271 418 l -12 -6 c -6 -18 c
0 -102 c 42 0 7223 376 l 6 -6 7301 418 l 6 6 c -6 6 c -6 -6 c 0 -84 7307 376 l 0 -102 7361 418 l 6 -18 c 12 -6 c 12 0 c
42 0 7343 376 l -6 12 7487 358 l -18 6 c -18 0 c -18 -6 c -6 -12 c 6 -12 c 12 -6 c 30 -6 c 12 -6 c 6 -12 c 0 -6 c -6 -12 c -18 -6 c
-18 0 c -18 6 c -6 12 c 0 -192 7559 442 l 0 -192 7565 442 l 42 0 7523 442 l 42 0 7523 250 l
0 -249 1233 1542 l 53 -38 1189 1652 l 0 57 c 79 0 1189 1652 l 0 42 1189 1697 l 30 -23 c 0 11 c 4 8 c 4 4 c 11 4 c 8 0 c 11 -4 c
8 -8 c 3 -11 c 0 -11 c -3 -12 c -4 -4 c -8 -3 c -7 -3 1200 1814 l -4 -12 c 0 -7 c 4 -12 c 11 -7 c 19 -4 c 19 0 c 15 4 c 8 7 c 3 12 c
0 3 c -3 12 c -8 7 c -11 4 c -4 0 c -11 -4 c -8 -7 c -4 -12 c 0 -3 c 4 -12 c 8 -7 c 11 -4 c 0 -38 1189 1886 l 34 -3 c -4 3 c -3 12 c
0 11 c 3 11 c 8 8 c 11 4 c 8 0 c 11 -4 c 8 -8 c 3 -11 c 0 -11 c -3 -12 c -4 -3 c -8 -4 c 4 -4 1261 1924 l 3 4 c -3 4 c -4 -4 c
11 -3 1216 2003 l 7 -8 c 4 -11 c 0 -4 c -4 -11 c -7 -8 c -11 -4 c -4 0 c -12 4 c -7 8 c -4 11 c 0 4 c 4 11 c 7 8 c 16 3 c 18 0 c
19 -3 c 12 -8 c 3 -11 c 0 -8 c -3 -11 c -8 -4 c 0 42 1189 2037 l 30 -23 c 0 12 c 4 7 c 4 4 c 11 4 c 8 0 c 11 -4 c 8 -8 c 3 -11 c
0 -11 c -3 -12 c -4 -3 c -8 -4 c 4 -11 1189 2128 l 11 -8 c 19 -4 c 11 0 c 19 4 c 12 8 c 3 11 c 0 8 c -3 11 c -12 7 c -19 4 c -11 0 c
-19 -4 c -11 -7 c -4 -11 c 0 -8 c 0 -249 1487 2314 l 53 -38 1444 2424 l 0 57 c 79 0 1444 2424 l 0 42 1444 2469 l 30 -23 c 0 12 c
4 7 c 3 4 c 12 4 c 7 0 c 12 -4 c 7 -8 c 4 -11 c 0 -11 c -4 -12 c -4 -3 c -7 -4 c -8 -3 1455 2586 l -3 -12 c 0 -7 c 3 -12 c 12 -7 c
19 -4 c 19 0 c 15 4 c 7 7 c 4 12 c 0 4 c -4 11 c -7 7 c -12 4 c -3 0 c -12 -4 c -7 -7 c -4 -11 c 0 -4 c 4 -12 c 7 -7 c 12 -4 c
79 -38 1444 2666 l 0 53 1444 2613 l 4 -4 1515 2696 l 4 4 c -4 4 c -4 -4 c 3 -11 1444 2745 l 8 -4 c 8 0 c 7 4 c 4 7 c 4 16 c 3 11 c
8 7 c 8 4 c 11 0 c 7 -4 c 4 -3 c 4 -12 c 0 -15 c -4 -11 c -4 -4 c -7 -4 c -11 0 c -8 4 c -8 8 c -3 11 c -4 15 c -4 8 c -7 3 c -8 0 c
-8 -3 c -3 -12 c 0 -15 c 0 42 1444 2809 l 30 -23 c 0 12 c 4 7 c 3 4 c 12 4 c 7 0 c 12 -4 c 7 -8 c 4 -11 c 0 -11 c -4 -12 c -4 -3 c
-7 -4 c -4 0 1463 2881 l -8 4 c -4 4 c -3 7 c 0 16 c 3 7 c 4 4 c 8 4 c 7 0 c 8 -4 c 11 -8 c 38 -37 c 0 52 c 0 -250 1761 1671 l
53 -38 1718 1780 l 0 57 c 79 0 1718 1780 l 0 42 1718 1825 l 30 -23 c 0 12 c 4 7 c 4 4 c 11 4 c 8 0 c 11 -4 c 7 -7 c 4 -12 c 0 -11 c
-4 -12 c -3 -3 c -8 -4 c -7 -4 1729 1943 l -4 -11 c 0 -8 c 4 -11 c 11 -8 c 19 -4 c 19 0 c 15 4 c 7 8 c 4 11 c 0 4 c -4 11 c -7 8 c
-11 3 c -4 0 c -12 -3 c -7 -8 c -4 -11 c 0 -4 c 4 -11 c 7 -8 c 12 -4 c 12 -4 1744 2018 l 7 -7 c 4 -11 c 0 -4 c -4 -12 c -7 -7 c
-12 -4 c -4 0 c -11 4 c -7 7 c -4 12 c 0 4 c 4 11 c 7 7 c 15 4 c 19 0 c 19 -4 c 11 -7 c 4 -11 c 0 -8 c -4 -11 c -7 -4 c
3 -4 1790 2052 l 4 4 c -4 4 c -3 -4 c 4 -11 1718 2101 l 7 -4 c 8 0 c 7 4 c 4 8 c 4 15 c 4 11 c 7 8 c 8 3 c 11 0 c 8 -3 c 3 -4 c
4 -11 c 0 -16 c -4 -11 c -3 -4 c -8 -4 c -11 0 c -8 4 c -7 8 c -4 11 c -4 15 c -4 8 c -7 4 c -8 0 c -7 -4 c -4 -11 c 0 -16 c
79 -38 1718 2211 l 0 53 1718 2158 l -7 -4 1729 2283 l -4 -11 c 0 -8 c 4 -11 c 11 -8 c 19 -4 c 19 0 c 15 4 c 7 8 c 4 11 c 0 4 c
-4 11 c -7 8 c -11 4 c -4 0 c -12 -4 c -7 -8 c -4 -11 c 0 -4 c 4 -11 c 7 -8 c 12 -4 c 0 -250 1880 5331 l 53 -38 1836 5441 l 0 56 c
79 0 1836 5441 l 0 41 1836 5486 l 30 -22 c 0 11 c 4 8 c 4 3 c 11 4 c 8 0 c 11 -4 c 8 -7 c 3 -11 c 0 -12 c -3 -11 c -4 -4 c -8 -4 c
79 -38 1836 5607 l 0 53 1836 5554 l 4 -11 1836 5652 l 11 -8 c 19 -4 c 11 0 c 19 4 c 12 8 c 3 11 c 0 8 c -3 11 c -12 8 c -19 3 c
-11 0 c -19 -3 c -11 -8 c -4 -11 c 0 -8 c 4 -4 1908 5713 l 3 4 c -3 3 c -4 -3 c 79 -38 1836 5796 l 0 53 1836 5743 l
0 -38 1836 5864 l 34 -4 c -4 4 c -4 11 c 0 12 c 4 11 c 8 8 c 11 3 c 8 0 c 11 -3 c 8 -8 c 3 -11 c 0 -12 c -3 -11 c -4 -4 c -8 -4 c
0 41 1836 5902 l 30 -23 c 0 12 c 4 7 c 4 4 c 11 4 c 8 0 c 11 -4 c 8 -7 c 3 -12 c 0 -11 c -3 -11 c -4 -4 c -8 -4 c 0 -250 1957 2670 l
52 -38 1914 2779 l 0 57 c 79 0 1914 2779 l 0 41 1914 2825 l 30 -23 c 0 12 c 4 7 c 3 4 c 12 4 c 7 0 c 12 -4 c 7 -7 c 4 -12 c 0 -11 c
-4 -11 c -4 -4 c -7 -4 c 79 -38 1914 2946 l 0 53 1914 2893 l -4 7 1929 2980 l -11 11 c 79 0 c 4 -3 1985 3051 l 4 3 c -4 4 c -4 -4 c
0 42 1914 3089 l 30 -23 c 0 11 c 4 8 c 3 4 c 12 4 c 7 0 c 12 -4 c 7 -8 c 4 -11 c 0 -12 c -4 -11 c -4 -4 c -7 -3 c -3 0 1932 3161 l
-8 4 c -4 4 c -3 7 c 0 15 c 3 8 c 4 4 c 8 3 c 7 0 c 8 -3 c 11 -8 c 38 -38 c 0 53 c 11 -4 1940 3282 l 8 -7 c 4 -12 c 0 -4 c -4 -11 c
-8 -7 c -11 -4 c -4 0 c -11 4 c -8 7 c -3 11 c 0 4 c 3 12 c 8 7 c 15 4 c 19 0 c 19 -4 c 11 -7 c 4 -12 c 0 -7 c -4 -12 c -7 -3 c
0 -250 2335 3606 l 53 -38 2291 3715 l 0 57 c 79 0 2291 3715 l 0 41 2291 3761 l 30 -23 c 0 12 c 4 7 c 4 4 c 11 4 c 8 0 c 11 -4 c
8 -7 c 3 -12 c 0 -11 c -3 -11 c -4 -4 c -8 -4 c 79 -37 2291 3881 l 0 52 2291 3829 l 53 -38 2291 3942 l 0 57 c 79 0 2291 3942 l
4 -3 2363 3987 l 3 3 c -3 4 c -4 -4 c -4 7 2306 4029 l -11 12 c 79 0 c -4 0 2310 4097 l -7 4 c -4 3 c -4 8 c 0 15 c 4 8 c 4 3 c
7 4 c 8 0 c 7 -4 c 12 -7 c 37 -38 c 0 53 c 53 -37 2291 4206 l 0 56 c 79 0 2291 4206 l 0 -250 2425 3673 l 53 -38 2381 3783 l 0 56 c
79 0 2381 3783 l 0 42 2381 3828 l 30 -23 c 0 11 c 4 8 c 4 4 c 11 3 c 8 0 c 11 -3 c 8 -8 c 3 -11 c 0 -12 c -3 -11 c -4 -4 c -8 -4 c
79 -38 2381 3949 l 0 53 2381 3896 l 53 -37 2381 4009 l 0 56 c 79 0 2381 4009 l 4 -4 2453 4055 l 3 4 c -3 3 c -4 -3 c
79 -38 2381 4138 l 0 53 2381 4085 l 4 -11 2381 4179 l 7 -4 c 8 0 c 8 4 c 3 8 c 4 15 c 4 11 c 7 8 c 8 3 c 11 0 c 8 -3 c 4 -4 c
3 -11 c 0 -16 c -3 -11 c -4 -4 c -8 -3 c -11 0 c -8 3 c -7 8 c -4 11 c -4 15 c -3 8 c -8 4 c -8 0 c -7 -4 c -4 -11 c 0 -16 c
0 -37 2381 4281 l 34 -4 c -4 4 c -3 11 c 0 11 c 3 12 c 8 7 c 11 4 c 8 0 c 11 -4 c 8 -7 c 3 -12 c 0 -11 c -3 -11 c -4 -4 c -8 -4 c
0 -249 2583 2994 l 53 -38 2539 3104 l 0 57 c 80 0 2539 3104 l 0 42 2539 3149 l 31 -23 c 0 11 c 3 8 c 4 4 c 12 3 c 7 0 c 12 -3 c
7 -8 c 4 -11 c 0 -12 c -4 -11 c -4 -4 c -7 -3 c 80 -38 2539 3270 l 0 53 2539 3217 l 0 -38 2539 3338 l 34 -4 c -3 4 c -4 12 c 0 11 c
4 11 c 7 8 c 12 4 c 7 0 c 12 -4 c 7 -8 c 4 -11 c 0 -11 c -4 -12 c -4 -4 c -7 -3 c 4 -4 2611 3376 l 4 4 c -4 4 c -4 -4 c
11 -4 2566 3455 l 8 -7 c 4 -11 c 0 -4 c -4 -12 c -8 -7 c -11 -4 c -4 0 c -11 4 c -8 7 c -4 12 c 0 4 c 4 11 c 8 7 c 15 4 c 19 0 c
19 -4 c 11 -7 c 4 -11 c 0 -8 c -4 -11 c -7 -4 c 0 -38 2539 3527 l 34 -4 c -3 4 c -4 12 c 0 11 c 4 11 c 7 8 c 12 4 c 7 0 c 12 -4 c
7 -8 c 4 -11 c 0 -11 c -4 -12 c -4 -4 c -7 -3 c 53 -38 2539 3595 l 0 57 c 80 0 2539 3595 l 0 -250 2886 2654 l 53 -37 2842 2763 l
0 56 c 80 0 2842 2763 l 0 41 2842 2809 l 30 -22 c 0 11 c 4 8 c 4 3 c 11 4 c 8 0 c 11 -4 c 8 -7 c 4 -12 c 0 -11 c -4 -11 c -4 -4 c
-8 -4 c 80 -38 2842 2930 l 0 53 2842 2877 l 4 -11 2842 2971 l 8 -4 c 7 0 c 8 4 c 3 7 c 4 16 c 4 11 c 8 8 c 7 3 c 11 0 c 8 -3 c
4 -4 c 4 -12 c 0 -15 c -4 -11 c -4 -4 c -8 -4 c -11 0 c -7 4 c -8 8 c -4 11 c -4 15 c -3 8 c -8 4 c -7 0 c -8 -4 c -4 -12 c 0 -15 c
4 -4 2914 3036 l 4 4 c -4 3 c -4 -3 c -3 8 2857 3077 l -12 11 c 80 0 c 80 -38 2842 3194 l 0 53 2842 3141 l 80 -38 2842 3270 l
0 53 2842 3217 l 0 -250 3090 4820 l 53 -37 3046 4929 l 0 56 c 79 0 3046 4929 l 0 41 3046 4975 l 30 -22 c 0 11 c 4 7 c 4 4 c 11 4 c
8 0 c 11 -4 c 8 -7 c 3 -12 c 0 -11 c -3 -11 c -4 -4 c -8 -4 c 79 -38 3046 5096 l 0 53 3046 5043 l 11 -3 3073 5167 l 7 -8 c 4 -11 c
0 -4 c -4 -11 c -7 -8 c -11 -4 c -4 0 c -12 4 c -7 8 c -4 11 c 0 4 c 4 11 c 7 8 c 16 3 c 18 0 c 19 -3 c 12 -8 c 3 -11 c 0 -8 c
-3 -11 c -8 -4 c 4 -3 3118 5201 l 3 3 c -3 4 c -4 -4 c -7 -4 3057 5281 l -4 -11 c 0 -8 c 4 -11 c 11 -8 c 19 -4 c 19 0 c 15 4 c 8 8 c
3 11 c 0 4 c -3 11 c -8 8 c -11 4 c -4 0 c -11 -4 c -8 -8 c -4 -11 c 0 -4 c 4 -11 c 8 -8 c 11 -4 c -7 -3 3057 5356 l -4 -12 c 0 -7 c
4 -12 c 11 -7 c 19 -4 c 19 0 c 15 4 c 8 7 c 3 12 c 0 4 c -3 11 c -8 7 c -11 4 c -4 0 c -11 -4 c -8 -7 c -4 -11 c 0 -4 c 4 -12 c
8 -7 c 11 -4 c 79 -38 3046 5436 l 0 53 3046 5383 l 0 -249 3391 7019 l 53 -38 3347 7129 l 0 57 c 79 0 3347 7129 l 0 42 3347 7174 l
30 -23 c 0 11 c 4 8 c 4 4 c 11 3 c 8 0 c 11 -3 c 8 -8 c 3 -11 c 0 -12 c -3 -11 c -4 -4 c -8 -3 c 4 -11 3347 7261 l 7 -4 c 8 0 c
7 4 c 4 7 c 4 15 c 4 12 c 7 7 c 8 4 c 11 0 c 8 -4 c 4 -4 c 3 -11 c 0 -15 c -3 -11 c -4 -4 c -8 -4 c -11 0 c -8 4 c -7 7 c -4 12 c
-4 15 c -4 7 c -7 4 c -8 0 c -7 -4 c -4 -11 c 0 -15 c -4 8 3362 7329 l -11 11 c 79 0 c 4 -4 3419 7401 l 3 4 c -3 4 c -4 -4 c
4 -11 3347 7450 l 7 -4 c 8 0 c 7 4 c 4 7 c 4 15 c 4 12 c 7 7 c 8 4 c 11 0 c 8 -4 c 4 -4 c 3 -11 c 0 -15 c -3 -11 c -4 -4 c -8 -4 c
-11 0 c -8 4 c -7 7 c -4 12 c -4 15 c -4 7 c -7 4 c -8 0 c -7 -4 c -4 -11 c 0 -15 c -7 -4 3358 7556 l -4 -11 c 0 -8 c 4 -11 c
11 -8 c 19 -4 c 19 0 c 15 4 c 8 8 c 3 11 c 0 4 c -3 11 c -8 8 c -11 4 c -4 0 c -11 -4 c -8 -8 c -4 -11 c 0 -4 c 4 -11 c 8 -8 c
11 -4 c 4 -11 3347 7605 l 11 -8 c 19 -4 c 11 0 c 19 4 c 12 8 c 3 11 c 0 7 c -3 12 c -12 7 c -19 4 c -11 0 c -19 -4 c -11 -7 c
-4 -12 c 0 -7 c 0 -250 3831 2956 l 53 -38 3788 3065 l 0 57 c 79 0 3788 3065 l 0 41 3788 3111 l 30 -23 c 0 12 c 4 7 c 4 4 c 11 4 c
7 0 c 12 -4 c 7 -7 c 4 -12 c 0 -11 c -4 -11 c -3 -4 c -8 -4 c 4 -12 3788 3198 l 7 -4 c 8 0 c 7 4 c 4 8 c 4 15 c 4 11 c 7 8 c 8 4 c
11 0 c 8 -4 c 3 -4 c 4 -11 c 0 -15 c -4 -12 c -3 -4 c -8 -3 c -11 0 c -8 3 c -7 8 c -4 11 c -4 15 c -4 8 c -7 4 c -8 0 c -7 -4 c
-4 -11 c 0 -15 c 0 -38 3788 3300 l 34 -4 c -4 4 c -4 11 c 0 11 c 4 12 c 8 7 c 11 4 c 7 0 c 12 -4 c 7 -7 c 4 -12 c 0 -11 c -4 -11 c
-3 -4 c -8 -4 c 3 -3 3860 3337 l 4 3 c -4 4 c -3 -4 c 4 -11 3788 3390 l 11 -8 c 19 -3 c 11 0 c 19 3 c 11 8 c 4 11 c 0 8 c -4 11 c
-11 8 c -19 4 c -11 0 c -19 -4 c -11 -8 c -4 -11 c 0 -8 c 0 -38 3788 3489 l 34 -4 c -4 4 c -4 11 c 0 11 c 4 12 c 8 7 c 11 4 c 7 0 c
12 -4 c 7 -7 c 4 -12 c 0 -11 c -4 -11 c -3 -4 c -8 -4 c 79 -38 3788 3572 l 0 53 3788 3519 l 0 -249 4674 7019 l 53 -38 4631 7129 l
0 57 c 79 0 4631 7129 l 0 42 4631 7174 l 30 -23 c 0 11 c 4 8 c 3 4 c 12 3 c 7 0 c 12 -3 c 7 -8 c 4 -11 c 0 -12 c -4 -11 c -4 -4 c
-7 -3 c 11 -4 4657 7291 l 8 -7 c 4 -11 c 0 -4 c -4 -12 c -8 -7 c -11 -4 c -4 0 c -11 4 c -8 7 c -3 12 c 0 4 c 3 11 c 8 7 c 15 4 c
19 0 c 19 -4 c 11 -7 c 4 -11 c 0 -8 c -4 -11 c -7 -4 c -4 8 4646 7329 l -11 11 c 79 0 c 4 -4 4702 7401 l 4 4 c -4 4 c -4 -4 c
-4 8 4646 7442 l -11 11 c 79 0 c -4 8 4646 7518 l -11 11 c 79 0 c 3 -11 4631 7605 l 12 -8 c 19 -4 c 11 0 c 19 4 c 11 8 c 4 11 c
0 7 c -4 12 c -11 7 c -19 4 c -11 0 c -19 -4 c -12 -7 c -3 -12 c 0 -7 c 0 -250 4936 1593 l 53 -37 4892 1702 l 0 56 c
80 0 4892 1702 l 0 41 4892 1748 l 31 -22 c 0 11 c 3 8 c 4 3 c 12 4 c 7 0 c 11 -4 c 8 -7 c 4 -12 c 0 -11 c -4 -11 c -4 -4 c -7 -4 c
11 -4 4919 1865 l 8 -7 c 4 -12 c 0 -4 c -4 -11 c -8 -7 c -11 -4 c -4 0 c -11 4 c -8 7 c -4 11 c 0 4 c 4 12 c 8 7 c 15 4 c 19 0 c
19 -4 c 11 -7 c 4 -12 c 0 -7 c -4 -12 c -8 -3 c -3 0 4911 1895 l -8 4 c -4 4 c -4 7 c 0 15 c 4 8 c 4 4 c 8 4 c 7 0 c 8 -4 c 11 -8 c
38 -38 c 0 53 c 4 -4 4964 1975 l 4 4 c -4 3 c -4 -3 c 11 -4 4919 2054 l 8 -7 c 4 -12 c 0 -4 c -4 -11 c -8 -7 c -11 -4 c -4 0 c
-11 4 c -8 7 c -4 11 c 0 4 c 4 12 c 8 7 c 15 4 c 19 0 c 19 -4 c 11 -7 c 4 -12 c 0 -7 c -4 -12 c -8 -3 c 80 -38 4892 2133 l
0 53 4892 2080 l 53 -38 4892 2194 l 0 57 c 80 0 4892 2194 l 0 -250 5046 1355 l 53 -38 5002 1465 l 0 56 c 80 0 5002 1465 l
0 41 5002 1510 l 30 -22 c 0 11 c 4 8 c 4 3 c 11 4 c 8 0 c 11 -4 c 8 -7 c 4 -11 c 0 -12 c -4 -11 c -4 -4 c -8 -4 c 11 -4 5029 1627 l
8 -7 c 3 -12 c 0 -3 c -3 -12 c -8 -7 c -11 -4 c -4 0 c -11 4 c -8 7 c -4 12 c 0 3 c 4 12 c 8 7 c 15 4 c 19 0 c 18 -4 c 12 -7 c
4 -12 c 0 -7 c -4 -12 c -8 -3 c 0 42 5002 1661 l 30 -23 c 0 11 c 4 8 c 4 4 c 11 3 c 8 0 c 11 -3 c 8 -8 c 4 -11 c 0 -12 c -4 -11 c
-4 -4 c -8 -3 c 4 -4 5074 1737 l 4 4 c -4 3 c -4 -3 c 80 -38 5002 1820 l 0 53 5002 1767 l 0 -38 5002 1888 l 34 -4 c -4 4 c -3 11 c
0 12 c 3 11 c 8 8 c 11 3 c 8 0 c 11 -3 c 8 -8 c 4 -11 c 0 -12 c -4 -11 c -4 -4 c -8 -4 c 11 -4 5029 1967 l 8 -7 c 3 -11 c 0 -4 c
-3 -12 c -8 -7 c -11 -4 c -4 0 c -11 4 c -8 7 c -4 12 c 0 4 c 4 11 c 8 7 c 15 4 c 19 0 c 18 -4 c 12 -7 c 4 -11 c 0 -8 c -4 -11 c
-8 -4 c 0 -249 5430 1796 l 53 -38 5386 1906 l 0 57 c 80 0 5386 1906 l 0 42 5386 1951 l 31 -23 c 0 11 c 3 8 c 4 4 c 11 4 c 8 0 c
11 -4 c 8 -8 c 4 -11 c 0 -11 c -4 -12 c -4 -4 c -7 -3 c 11 -3 5413 2068 l 8 -8 c 3 -11 c 0 -4 c -3 -11 c -8 -8 c -11 -4 c -4 0 c
-11 4 c -8 8 c -4 11 c 0 4 c 4 11 c 8 8 c 15 3 c 19 0 c 19 -3 c 11 -8 c 4 -11 c 0 -8 c -4 -11 c -8 -4 c -8 -4 5398 2144 l -4 -11 c
0 -8 c 4 -11 c 11 -8 c 19 -3 c 19 0 c 15 3 c 8 8 c 4 11 c 0 4 c -4 11 c -8 8 c -11 4 c -4 0 c -11 -4 c -8 -8 c -3 -11 c 0 -4 c
3 -11 c 8 -8 c 11 -3 c 4 -4 5458 2178 l 4 4 c -4 4 c -4 -4 c 53 -38 5386 2246 l 0 57 c 80 0 5386 2246 l 80 -38 5386 2337 l
0 53 5386 2284 l 4 -11 5386 2378 l 8 -4 c 7 0 c 8 4 c 4 7 c 3 16 c 4 11 c 8 7 c 7 4 c 12 0 c 7 -4 c 4 -3 c 4 -12 c 0 -15 c -4 -11 c
-4 -4 c -7 -4 c -12 0 c -7 4 c -8 8 c -4 11 c -3 15 c -4 8 c -8 3 c -7 0 c -8 -3 c -4 -12 c 0 -15 c 0 -249 5633 2522 l
53 -38 5590 2632 l 0 57 c 79 0 5590 2632 l 0 42 5590 2677 l 30 -23 c 0 11 c 4 8 c 4 4 c 11 4 c 8 0 c 11 -4 c 7 -8 c 4 -11 c 0 -12 c
-4 -11 c -3 -4 c -8 -3 c 12 -3 5616 2794 l 7 -8 c 4 -11 c 0 -4 c -4 -11 c -7 -8 c -12 -4 c -3 0 c -12 4 c -7 8 c -4 11 c 0 4 c
4 11 c 7 8 c 15 3 c 19 0 c 19 -3 c 11 -8 c 4 -11 c 0 -8 c -4 -11 c -7 -4 c 79 -38 5590 2874 l 0 53 5590 2821 l 3 -4 5662 2904 l
4 4 c -4 4 c -3 -4 c 12 -3 5616 2983 l 7 -8 c 4 -11 c 0 -4 c -4 -11 c -7 -8 c -12 -4 c -3 0 c -12 4 c -7 8 c -4 11 c 0 4 c 4 11 c
7 8 c 15 3 c 19 0 c 19 -3 c 11 -8 c 4 -11 c 0 -8 c -4 -11 c -7 -4 c -4 8 5605 3021 l -11 11 c 79 0 c 0 -38 5590 3131 l 34 -4 c
-4 4 c -4 11 c 0 12 c 4 11 c 8 7 c 11 4 c 8 0 c 11 -4 c 7 -7 c 4 -11 c 0 -12 c -4 -11 c -3 -4 c -8 -4 c 0 -250 5945 3104 l
53 -38 5901 3214 l 0 56 c 79 0 5901 3214 l 53 -38 5901 3289 l 0 57 c 79 0 5901 3289 l 4 -12 5901 3350 l 11 -7 c 19 -4 c 11 0 c
19 4 c 12 7 c 3 12 c 0 7 c -3 12 c -12 7 c -19 4 c -11 0 c -19 -4 c -11 -7 c -4 -12 c 0 -7 c 4 -11 5901 3425 l 11 -8 c 19 -3 c
11 0 c 19 3 c 12 8 c 3 11 c 0 8 c -3 11 c -12 8 c -19 3 c -11 0 c -19 -3 c -11 -8 c -4 -11 c 0 -8 c 4 -4 5973 3486 l 3 4 c -3 3 c
-4 -3 c 4 -12 5901 3539 l 11 -7 c 19 -4 c 11 0 c 19 4 c 12 7 c 3 12 c 0 7 c -3 11 c -12 8 c -19 4 c -11 0 c -19 -4 c -11 -8 c
-4 -11 c 0 -7 c 12 -4 5927 3641 l 7 -8 c 4 -11 c 0 -4 c -4 -11 c -7 -8 c -12 -3 c -3 0 c -12 3 c -7 8 c -4 11 c 0 4 c 4 11 c 7 8 c
15 4 c 19 0 c 19 -4 c 12 -8 c 3 -11 c 0 -8 c -3 -11 c -8 -4 c 79 -38 5901 3720 l 0 53 5901 3667 l 0 -250 6072 5960 l
53 -38 6028 6070 l 0 56 c 80 0 6028 6070 l 53 -38 6028 6145 l 0 57 c 80 0 6028 6145 l 4 -12 6028 6206 l 11 -7 c 19 -4 c 12 0 c
19 4 c 11 7 c 4 12 c 0 7 c -4 11 c -11 8 c -19 4 c -12 0 c -19 -4 c -11 -8 c -4 -11 c 0 -7 c 4 -11 6028 6281 l 11 -8 c 19 -4 c
12 0 c 19 4 c 11 8 c 4 11 c 0 8 c -4 11 c -11 8 c -19 3 c -12 0 c -19 -3 c -11 -8 c -4 -11 c 0 -8 c 4 -4 6100 6342 l 4 4 c -4 3 c
-4 -3 c 11 -4 6055 6421 l 8 -7 c 3 -12 c 0 -3 c -3 -12 c -8 -7 c -11 -4 c -4 0 c -11 4 c -8 7 c -4 12 c 0 3 c 4 12 c 8 7 c 15 4 c
19 0 c 19 -4 c 11 -7 c 4 -12 c 0 -7 c -4 -12 c -8 -3 c 4 -11 6028 6466 l 8 -4 c 7 0 c 8 4 c 4 8 c 3 15 c 4 11 c 8 8 c 7 3 c 12 0 c
7 -3 c 4 -4 c 4 -12 c 0 -15 c -4 -11 c -4 -4 c -7 -4 c -12 0 c -7 4 c -8 8 c -4 11 c -3 15 c -4 8 c -8 4 c -7 0 c -8 -4 c -4 -12 c
0 -15 c -8 -4 6040 6572 l -4 -11 c 0 -7 c 4 -12 c 11 -7 c 19 -4 c 19 0 c 15 4 c 8 7 c 4 12 c 0 3 c -4 12 c -8 7 c -11 4 c -4 0 c
-11 -4 c -8 -7 c -3 -12 c 0 -3 c 3 -12 c 8 -7 c 11 -4 c 0 -249 6157 1878 l 53 -38 6114 1988 l 0 57 c 79 0 6114 1988 l
53 -37 6114 2063 l 0 56 c 79 0 6114 2063 l 4 -11 6114 2124 l 11 -8 c 19 -4 c 11 0 c 19 4 c 11 8 c 4 11 c 0 7 c -4 12 c -11 7 c
-19 4 c -11 0 c -19 -4 c -11 -7 c -4 -12 c 0 -7 c -4 8 6129 2188 l -11 11 c 79 0 c 3 -4 6186 2260 l 4 4 c -4 4 c -3 -4 c
0 -38 6114 2336 l 34 -4 c -4 4 c -4 11 c 0 11 c 4 12 c 8 7 c 11 4 c 7 0 c 12 -4 c 7 -7 c 4 -12 c 0 -11 c -4 -11 c -3 -4 c -8 -4 c
4 -12 6114 2385 l 7 -3 c 8 0 c 7 3 c 4 8 c 4 15 c 4 11 c 7 8 c 8 4 c 11 0 c 8 -4 c 3 -4 c 4 -11 c 0 -15 c -4 -12 c -3 -3 c -8 -4 c
-11 0 c -8 4 c -7 7 c -4 11 c -4 16 c -4 7 c -7 4 c -8 0 c -7 -4 c -4 -11 c 0 -15 c -4 7 6129 2453 l -11 12 c 79 0 c
0 -250 6350 2725 l 52 -37 6307 2834 l 0 56 c 79 0 6307 2834 l 52 -38 6307 2910 l 0 57 c 79 0 6307 2910 l 3 -11 6307 2970 l 12 -8 c
19 -3 c 11 0 c 19 3 c 11 8 c 4 11 c 0 8 c -4 11 c -11 8 c -19 4 c -11 0 c -19 -4 c -12 -8 c -3 -11 c 0 -8 c -3 0 6325 3027 l -8 4 c
-4 4 c -3 7 c 0 15 c 3 8 c 4 4 c 8 3 c 7 0 c 8 -3 c 11 -8 c 38 -38 c 0 53 c 4 -3 6378 3106 l 4 3 c -4 4 c -4 -4 c 11 -4 6333 3186 l
8 -8 c 4 -11 c 0 -4 c -4 -11 c -8 -8 c -11 -3 c -4 0 c -11 3 c -8 8 c -3 11 c 0 4 c 3 11 c 8 8 c 15 4 c 19 0 c 19 -4 c 11 -8 c
4 -11 c 0 -7 c -4 -12 c -7 -4 c -3 0 6325 3216 l -8 4 c -4 4 c -3 7 c 0 15 c 3 8 c 4 4 c 8 3 c 7 0 c 8 -3 c 11 -8 c 38 -38 c 0 53 c
79 -38 6307 3341 l 0 53 6307 3288 l 0 -250 7213 4548 l 53 -37 7169 4657 l 0 56 c 80 0 7169 4657 l 53 -38 7169 4733 l 0 57 c
80 0 7169 4733 l 4 -11 7169 4793 l 11 -7 c 19 -4 c 12 0 c 18 4 c 12 7 c 4 11 c 0 8 c -4 11 c -12 8 c -18 4 c -12 0 c -19 -4 c
-11 -8 c -4 -11 c 0 -8 c 4 -11 7169 4865 l 7 -4 c 8 0 c 8 4 c 3 7 c 4 16 c 4 11 c 8 7 c 7 4 c 11 0 c 8 -4 c 4 -3 c 4 -12 c 0 -15 c
-4 -11 c -4 -4 c -8 -4 c -11 0 c -7 4 c -8 8 c -4 11 c -4 15 c -3 8 c -8 3 c -8 0 c -7 -3 c -4 -12 c 0 -15 c 4 -4 7241 4930 l 4 4 c
-4 3 c -4 -3 c 4 -12 7169 4979 l 7 -3 c 8 0 c 8 3 c 3 8 c 4 15 c 4 11 c 8 8 c 7 4 c 11 0 c 8 -4 c 4 -4 c 4 -11 c 0 -15 c -4 -12 c
-4 -3 c -8 -4 c -11 0 c -7 4 c -8 7 c -4 11 c -4 16 c -3 7 c -8 4 c -8 0 c -7 -4 c -4 -11 c 0 -15 c 4 -11 7169 5054 l 7 -4 c 8 0 c
8 4 c 3 7 c 4 16 c 4 11 c 8 7 c 7 4 c 11 0 c 8 -4 c 4 -3 c 4 -12 c 0 -15 c -4 -11 c -4 -4 c -8 -4 c -11 0 c -7 4 c -8 8 c -4 11 c
-4 15 c -3 8 c -8 3 c -8 0 c -7 -3 c -4 -12 c 0 -15 c 0 42 7169 5118 l 30 -23 c 0 12 c 4 7 c 4 4 c 11 4 c 8 0 c 11 -4 c 8 -7 c
4 -12 c 0 -11 c -4 -12 c -4 -3 c -8 -4 c 0 -250 8036 1720 l 53 -37 7992 1829 l 0 56 c 80 0 7992 1829 l 53 -38 7992 1905 l 0 57 c
80 0 7992 1905 l -3 8 8007 1954 l -12 11 c 80 0 c 53 -38 7992 2056 l 0 57 c 80 0 7992 2056 l 4 -4 8064 2102 l 4 4 c -4 3 c -4 -3 c
53 -38 7992 2170 l 0 56 c 80 0 7992 2170 l 4 -11 7992 2226 l 8 -4 c 7 0 c 8 4 c 4 7 c 3 16 c 4 11 c 8 8 c 7 3 c 12 0 c 7 -3 c 4 -4 c
4 -12 c 0 -15 c -4 -11 c -4 -4 c -7 -4 c -12 0 c -7 4 c -8 8 c -4 11 c -3 15 c -4 8 c -8 4 c -7 0 c -8 -4 c -4 -12 c 0 -15 c
-8 -4 8004 2332 l -4 -11 c 0 -8 c 4 -11 c 11 -7 c 19 -4 c 19 0 c 15 4 c 8 7 c 4 11 c 0 4 c -4 12 c -8 7 c -11 4 c -4 0 c -11 -4 c
-8 -7 c -3 -12 c 0 -4 c 3 -11 c 8 -7 c 11 -4 c 0 -249 8295 1718 l 53 -38 8252 1828 l 0 57 c 79 0 8252 1828 l 53 -38 8252 1904 l
0 56 c 79 0 8252 1904 l -4 7 8267 1953 l -11 12 c 79 0 c -7 -4 8263 2066 l -4 -11 c 0 -8 c 4 -11 c 11 -7 c 19 -4 c 19 0 c 15 4 c
7 7 c 4 11 c 0 4 c -4 12 c -7 7 c -11 4 c -4 0 c -12 -4 c -7 -7 c -4 -12 c 0 -4 c 4 -11 c 7 -7 c 12 -4 c 3 -4 8324 2100 l 4 4 c
-4 4 c -3 -4 c -4 0 8271 2134 l -8 4 c -3 4 c -4 7 c 0 15 c 4 8 c 3 4 c 8 3 c 8 0 c 7 -3 c 11 -8 c 38 -38 c 0 53 c 0 42 8252 2213 l
30 -23 c 0 12 c 4 7 c 4 4 c 11 4 c 8 0 c 11 -4 c 7 -8 c 4 -11 c 0 -11 c -4 -12 c -3 -3 c -8 -4 c 79 -37 8252 2334 l 0 52 8252 2282 l
0 -249 8386 1406 l 53 -38 8342 1516 l 0 57 c 80 0 8342 1516 l 53 -38 8342 1592 l 0 57 c 80 0 8342 1592 l -3 7 8357 1641 l -12 12 c
80 0 c -8 -4 8354 1754 l -4 -11 c 0 -7 c 4 -12 c 11 -7 c 19 -4 c 19 0 c 15 4 c 8 7 c 4 12 c 0 3 c -4 12 c -8 7 c -11 4 c -4 0 c
-11 -4 c -8 -7 c -3 -12 c 0 -3 c 3 -12 c 8 -7 c 11 -4 c 4 -4 8414 1788 l 4 4 c -4 4 c -4 -4 c 4 -11 8342 1837 l 8 -4 c 7 0 c 8 4 c
4 8 c 3 15 c 4 11 c 8 8 c 7 3 c 12 0 c 7 -3 c 4 -4 c 4 -12 c 0 -15 c -4 -11 c -4 -4 c -7 -4 c -12 0 c -7 4 c -8 8 c -4 11 c -3 15 c
-4 8 c -8 4 c -7 0 c -8 -4 c -4 -12 c 0 -15 c 53 -38 8342 1932 l 0 57 c 80 0 8342 1932 l 0 -38 8342 2015 l 34 -4 c -3 4 c -4 12 c
0 11 c 4 11 c 7 8 c 11 4 c 8 0 c 11 -4 c 8 -8 c 4 -11 c 0 -11 c -4 -12 c -4 -4 c -7 -3 c 0 -249 9166 1369 l 53 -38 9122 1479 l
0 57 c 80 0 9122 1479 l 53 -38 9122 1555 l 0 56 c 80 0 9122 1555 l -4 0 9141 1596 l -7 4 c -4 4 c -4 7 c 0 15 c 4 8 c 4 4 c 7 3 c
8 0 c 7 -3 c 12 -8 c 38 -38 c 0 53 c -4 0 9141 1672 l -7 4 c -4 3 c -4 8 c 0 15 c 4 8 c 4 3 c 7 4 c 8 0 c 7 -4 c 12 -7 c 38 -38 c
0 53 c 4 -4 9194 1751 l 4 4 c -4 4 c -4 -4 c 4 -11 9122 1804 l 11 -8 c 19 -4 c 12 0 c 18 4 c 12 8 c 4 11 c 0 8 c -4 11 c -12 7 c
-18 4 c -12 0 c -19 -4 c -11 -7 c -4 -11 c 0 -8 c 53 -38 9122 1895 l 0 57 c 80 0 9122 1895 l 4 -11 9122 1951 l 8 -4 c 7 0 c 8 4 c
3 8 c 4 15 c 4 11 c 8 8 c 7 3 c 11 0 c 8 -3 c 4 -4 c 4 -11 c 0 -16 c -4 -11 c -4 -4 c -8 -3 c -11 0 c -7 3 c -8 8 c -4 11 c -4 15 c
-3 8 c -8 4 c -7 0 c -8 -4 c -4 -11 c 0 -16 c 0 -250 9419 1417 l 53 -38 9375 1526 l 0 57 c 80 0 9375 1526 l 53 -38 9375 1602 l
0 57 c 80 0 9375 1602 l -4 0 9394 1643 l -7 4 c -4 4 c -4 7 c 0 16 c 4 7 c 4 4 c 7 4 c 8 0 c 8 -4 c 11 -8 c 38 -37 c 0 52 c
0 41 9375 1723 l 31 -22 c 0 11 c 3 7 c 4 4 c 11 4 c 8 0 c 11 -4 c 8 -7 c 4 -12 c 0 -11 c -4 -11 c -4 -4 c -7 -4 c 4 -3 9447 1798 l
4 3 c -4 4 c -4 -4 c 80 -37 9375 1881 l 0 52 9375 1829 l -4 0 9394 1908 l -7 4 c -4 3 c -4 8 c 0 15 c 4 8 c 4 3 c 7 4 c 8 0 c 8 -4 c
11 -7 c 38 -38 c 0 53 c 4 -11 9375 2002 l 11 -8 c 19 -3 c 12 0 c 19 3 c 11 8 c 4 11 c 0 8 c -4 11 c -11 8 c -19 4 c -12 0 c -19 -4 c
-11 -8 c -4 -11 c 0 -8 c 0 -250 9589 1273 l 53 -38 9545 1383 l 0 56 c 79 0 9545 1383 l 53 -38 9545 1458 l 0 57 c 79 0 9545 1458 l
-4 0 9564 1500 l -7 4 c -4 3 c -4 8 c 0 15 c 4 8 c 4 3 c 7 4 c 8 0 c 7 -4 c 12 -7 c 37 -38 c 0 53 c 53 -37 9545 1609 l 0 56 c
79 0 9545 1609 l 4 -4 9617 1655 l 3 4 c -3 3 c -4 -3 c 4 -12 9545 1704 l 7 -3 c 8 0 c 8 3 c 3 8 c 4 15 c 4 11 c 7 8 c 8 4 c 11 0 c
8 -4 c 4 -4 c 3 -11 c 0 -15 c -3 -12 c -4 -3 c -8 -4 c -11 0 c -8 4 c -7 7 c -4 12 c -4 15 c -3 7 c -8 4 c -8 0 c -7 -4 c -4 -11 c
0 -15 c 0 42 9545 1768 l 30 -23 c 0 11 c 4 8 c 4 4 c 11 3 c 8 0 c 11 -3 c 8 -8 c 3 -11 c 0 -12 c -3 -11 c -4 -4 c -8 -3 c
79 -38 9545 1889 l 0 53 9545 1836 l
showpage PGPLOT restore
 
%%Trailer
%%DocumentFonts: 
%%Pages: 1
%%EOF
