%!PS-Adobe-3.0 EPSF-3.0
%%For: tom
%%Title: PGPLOT PostScript plot
%%Creator: PGPLOT
%%CreationDate:  9-Nov-1994 13:48
%%BoundingBox: 25 18 587 774
%%DocumentFonts: (atend)
%%LanguageLevel: 1
%%Orientation: Landscape
%%Pages: (atend)
%%EndComments
%%BeginProlog
/l {moveto rlineto currentpoint stroke moveto} bind def
/c {rlineto currentpoint stroke moveto} bind def
/d {moveto 0 0 rlineto currentpoint stroke moveto} bind def
/SLW {5 mul setlinewidth} bind def
/SCF /pop load def
/BP {newpath moveto} bind def
/LP /rlineto load def
/EP {rlineto closepath eofill} bind def
/MB {gsave translate MFAC dup scale 1 setlinewidth 2 setlinecap 0 setlinejoin newpath} bind def
/ME /grestore load def
/C {0 360 arc stroke} bind def
/FC {0 360 arc fill} bind def
%%EndProlog
 
%%Page: 1 1
%%BeginPageSetup
/PGPLOT save def
0.072 0.072 scale
8150 250 translate 90 rotate
1 setlinejoin 1 setlinecap 1 SLW 1 SCF
%%EndPageSetup
0.00 setgray 1 SLW 8939 0 780 780 l 0 6239 c -8939 0 c 0 -6239 c 0 -45 1116 780 l 0 -45 1554 780 l 0 -45 1991 780 l 0 -45 2428 780 l
0 -90 2865 780 l 0 -45 3302 780 l 0 -45 3739 780 l 0 -45 4176 780 l 0 -45 4613 780 l 0 -90 5051 780 l 0 -45 5488 780 l
0 -45 5925 780 l 0 -45 6362 780 l 0 -45 6799 780 l 0 -90 7236 780 l 0 -45 7673 780 l 0 -45 8110 780 l 0 -45 8548 780 l
0 -45 8985 780 l 0 -90 9422 780 l 0 -45 1116 7064 l 0 -45 1554 7064 l 0 -45 1991 7064 l 0 -45 2428 7064 l 0 -90 2865 7109 l
0 -45 3302 7064 l 0 -45 3739 7064 l 0 -45 4176 7064 l 0 -45 4613 7064 l 0 -90 5051 7109 l 0 -45 5488 7064 l 0 -45 5925 7064 l
0 -45 6362 7064 l 0 -45 6799 7064 l 0 -90 7236 7109 l 0 -45 7673 7064 l 0 -45 8110 7064 l 0 -45 8548 7064 l 0 -45 8985 7064 l
0 -90 9422 7109 l -60 0 2775 672 l -6 -54 c 6 6 c 18 6 c 18 0 c 18 -6 c 12 -12 c 6 -18 c 0 -12 c -6 -18 c -12 -12 c -18 -6 c -18 0 c
-18 6 c -6 6 c -6 12 c -18 -6 2859 672 l -12 -18 c -6 -30 c 0 -18 c 6 -30 c 12 -18 c 18 -6 c 12 0 c 18 6 c 12 18 c 6 30 c 0 18 c
-6 30 c -12 18 c -18 6 c -12 0 c -18 -6 2979 672 l -12 -18 c -6 -30 c 0 -18 c 6 -30 c 12 -18 c 18 -6 c 12 0 c 18 6 c 12 18 c 6 30 c
0 18 c -6 30 c -12 18 c -18 6 c -12 0 c 12 6 4847 648 l 18 18 c 0 -126 c -18 -6 4985 672 l -12 -18 c -6 -30 c 0 -18 c 6 -30 c
12 -18 c 18 -6 c 12 0 c 18 6 c 12 18 c 6 30 c 0 18 c -6 30 c -12 18 c -18 6 c -12 0 c -18 -6 5105 672 l -12 -18 c -6 -30 c 0 -18 c
6 -30 c 12 -18 c 18 -6 c 12 0 c 18 6 c 12 18 c 6 30 c 0 18 c -6 30 c -12 18 c -18 6 c -12 0 c -18 -6 5225 672 l -12 -18 c -6 -30 c
0 -18 c 6 -30 c 12 -18 c 18 -6 c 12 0 c 18 6 c 12 18 c 6 30 c 0 18 c -6 30 c -12 18 c -18 6 c -12 0 c 12 6 7032 648 l 18 18 c
0 -126 c -60 0 7206 672 l -6 -54 c 6 6 c 18 6 c 18 0 c 18 -6 c 12 -12 c 6 -18 c 0 -12 c -6 -18 c -12 -12 c -18 -6 c -18 0 c -18 6 c
-6 6 c -6 12 c -18 -6 7290 672 l -12 -18 c -6 -30 c 0 -18 c 6 -30 c 12 -18 c 18 -6 c 12 0 c 18 6 c 12 18 c 6 30 c 0 18 c -6 30 c
-12 18 c -18 6 c -12 0 c -18 -6 7410 672 l -12 -18 c -6 -30 c 0 -18 c 6 -30 c 12 -18 c 18 -6 c 12 0 c 18 6 c 12 18 c 6 30 c 0 18 c
-6 30 c -12 18 c -18 6 c -12 0 c 0 6 9206 642 l 6 12 c 6 6 c 12 6 c 24 0 c 12 -6 c 6 -6 c 6 -12 c 0 -12 c -6 -12 c -12 -18 c
-60 -60 c 84 0 c -18 -6 9356 672 l -12 -18 c -6 -30 c 0 -18 c 6 -30 c 12 -18 c 18 -6 c 12 0 c 18 6 c 12 18 c 6 30 c 0 18 c -6 30 c
-12 18 c -18 6 c -12 0 c -18 -6 9476 672 l -12 -18 c -6 -30 c 0 -18 c 6 -30 c 12 -18 c 18 -6 c 12 0 c 18 6 c 12 18 c 6 30 c 0 18 c
-6 30 c -12 18 c -18 6 c -12 0 c -18 -6 9596 672 l -12 -18 c -6 -30 c 0 -18 c 6 -30 c 12 -18 c 18 -6 c 12 0 c 18 6 c 12 18 c 6 30 c
0 18 c -6 30 c -12 18 c -18 6 c -12 0 c -90 0 780 780 l -45 0 780 1715 l -90 0 780 2649 l -45 0 780 3584 l -90 0 780 4519 l
-45 0 780 5454 l -90 0 780 6388 l -90 0 9809 780 l -45 0 9764 1715 l -90 0 9809 2649 l -45 0 9764 3584 l -90 0 9809 4519 l
-45 0 9764 5454 l -90 0 9809 6388 l 6 -18 517 774 l 18 -12 c 30 -6 c 18 0 c 30 6 c 18 12 c 6 18 c 0 12 c -6 18 c -18 12 c -30 6 c
-18 0 c -30 -6 c -18 -12 c -6 -18 c 0 -12 c -6 0 547 2391 l -12 6 c -6 6 c -6 12 c 0 24 c 6 12 c 6 6 c 12 6 c 12 0 c 12 -6 c
18 -12 c 60 -60 c 0 84 c 84 84 547 2511 l 84 -84 547 2595 l -6 12 541 2655 l -18 18 c 126 0 c 6 -18 517 2793 l 18 -12 c 30 -6 c
18 0 c 30 6 c 18 12 c 6 18 c 0 12 c -6 18 c -18 12 c -30 6 c -18 0 c -30 -6 c -18 -12 c -6 -18 c 0 -12 c 63 -45 453 2918 l 0 67 c
94 0 453 2918 l 84 -60 517 4315 l 0 90 c 126 0 517 4315 l 84 84 547 4381 l 84 -84 547 4465 l -6 12 541 4525 l -18 18 c 126 0 c
6 -18 517 4663 l 18 -12 c 30 -6 c 18 0 c 30 6 c 18 12 c 6 18 c 0 12 c -6 18 c -18 12 c -30 6 c -18 0 c -30 -6 c -18 -12 c -6 -18 c
0 -12 c 63 -45 453 4787 l 0 68 c 94 0 453 4787 l -12 -6 535 6202 l -6 -18 c 0 -12 c 6 -18 c 18 -12 c 30 -6 c 30 0 c 24 6 c 12 12 c
6 18 c 0 6 c -6 18 c -12 12 c -18 6 c -6 0 c -18 -6 c -12 -12 c -6 -18 c 0 -6 c 6 -18 c 12 -12 c 18 -6 c 84 84 547 6250 l
84 -84 547 6334 l -6 12 541 6394 l -18 18 c 126 0 c 6 -18 517 6532 l 18 -12 c 30 -6 c 18 0 c 30 6 c 18 12 c 6 18 c 0 12 c -6 18 c
-18 12 c -30 6 c -18 0 c -30 -6 c -18 -12 c -6 -18 c 0 -12 c 63 -45 453 6657 l 0 67 c 94 0 453 6657 l
4 1 780 802 l 5 2 c 4 3 c 4 0 c 5 -4 c 4 -8 c 4 -5 c 5 0 c 4 -1 c 5 0 c 4 0 c 4 2 c 5 2 c 4 5 c 4 8 c 5 0 c 4 -2 c 5 -8 c 4 -6 c
4 -1 c 5 1 c 4 1 c 4 9 c 5 23 c 4 89 c 5 127 c 4 56 c 4 87 c 5 -71 c 4 -86 c 4 -79 c 5 -127 c 4 -26 c 5 -2 c 4 1 c 4 3 c 5 11 c
4 37 c 4 21 c 5 -4 c 4 -20 c 4 -38 c 5 -11 c 4 0 c 5 0 c 4 -1 c 4 0 c 5 0 c 4 0 c 4 -1 c 5 0 c 4 -1 c 5 1 c 4 0 c 4 0 c 5 1 c 4 -1 c
4 1 c 5 -1 c 4 0 c 5 0 c 4 0 c 4 0 c 5 1 c 4 3 c 4 4 c 5 3 c 4 -1 c 5 -3 c 4 -4 c 4 -2 c 5 1 c 4 1 c 4 1 c 5 1 c 4 1 c 4 -2 c 5 -1 c
4 -2 c 5 -1 c 4 -1 c 4 1 c 5 0 c 4 -10 c 5 10 1151 780 l 4 0 c 5 1 c 4 3 c 4 6 c 5 1 c 4 0 c 4 -5 c 5 -3 c 4 3 c 5 2 c 4 0 c 4 -2 c
5 -4 c 4 -1 c 4 0 c 5 3 c 4 12 c 5 12 c 4 2 c 4 -4 c 5 -13 c 4 -5 c 4 12 c 5 35 c 4 123 c 4 85 c 5 -6 c 4 -57 c 5 -147 c 4 -49 c
4 -3 c 5 0 c 4 0 c 4 0 c 5 0 c 4 1 c 5 0 c 4 0 c 4 1 c 5 3 c 4 9 c 4 10 c 5 2 c 4 -4 c 5 -12 c 4 -6 c 4 -4 c 5 -1 c 4 0 c 4 0 c
5 0 c 4 0 c 5 0 c 4 0 c 4 1 c 5 1 c 4 0 c 4 3 c 5 1 c 4 0 c 4 -1 c 5 -3 c 4 -2 c 5 0 c 4 2 c 4 1 c 5 0 c 4 0 c 4 -2 c 5 -1 c 4 0 c
5 0 c 4 -1 c 4 1 c 5 0 c 4 0 c 4 2 c 5 2 c 4 2 c 5 7 c 4 12 c 4 0 c 5 -2 c 4 -12 c 4 -9 c 5 -2 c 4 0 c 4 0 c 5 0 c 4 0 c 5 0 c 4 1 c
4 0 c 5 1 c 4 0 c 4 1 c 5 0 c 4 1 c 5 1 c 4 2 c 4 0 c 5 -1 c 4 -3 c 4 -2 c 5 -1 c 4 1 c 5 0 c 4 0 c 4 -1 c 5 0 c 4 1 c 4 4 c 5 6 c
4 15 c 5 61 c 4 67 c 4 3 c 5 -18 c 4 -86 c 4 -47 c 5 -4 c 4 -1 c 4 -1 c 5 1 c 4 0 c 5 0 c 4 0 c 4 0 c 5 0 c 4 0 c 4 1 c 5 3 c 4 14 c
5 17 c 4 1 c 4 -3 c 5 -18 c 4 -7 c 4 15 c 5 5 c 4 -2 c 5 -9 c 4 -14 c 4 -2 c 5 1 c 4 6 c 4 3 c 5 0 c 4 -3 c 5 -6 c 4 0 c 4 6 c
5 29 c 4 105 c 4 64 c 5 -1 c 4 -47 c 4 -113 c 5 -34 c 4 3 c 5 -1 c 4 -2 c 4 -6 c 5 -3 c 4 0 c 4 3 c 5 22 c 4 50 c 5 14 c 4 -5 c
4 -34 c 5 -45 c 4 -6 c 4 0 c 5 1 c 4 4 c 5 15 c 4 5 c 4 -1 c 5 -7 c 4 -15 c 4 -3 c 5 1 c 4 0 c 5 0 c 4 1 c 4 0 c 5 1 c 4 4 c 4 28 c
5 105 c 4 56 c 4 0 c 5 -37 c 4 -121 c 5 -31 c 4 -1 c 4 9 c 5 39 c 4 109 c 4 68 c 5 -2 c 4 -57 c 5 -115 c 4 -47 c 4 -5 c 5 0 c 4 6 c
4 5 c 5 2 c 4 -2 c 5 -2 c 4 29 c 4 149 c 5 127 c 4 16 c 4 -56 c 5 -186 c 4 -84 c 5 -4 c 4 -1 c 4 0 c 5 1 c 4 2 c 4 4 c 5 7 c 4 2 c
4 -1 c 5 0 c 4 -1 c 5 6 c 4 1 c 4 -4 c 5 -6 c 4 -5 c 4 0 c 5 0 c 4 1 c 5 3 c 4 4 c 4 2 c 5 0 c 4 -2 c 4 0 c 5 1 c 4 3 c 5 3 c 4 6 c
4 8 c 5 24 c 4 189 c 4 1305 c 5 3645 c 4 828 c 4 4 c 5 -1753 c 4 -3488 c 5 -694 c 4 -36 c 4 22 c 5 199 c 4 1468 c 4 3476 c 5 732 c
4 -172 c 5 -2306 c 4 -2943 c 4 -457 c 5 -40 c 4 -10 c 4 -7 c 5 -3 c 4 0 c 5 1 c 4 0 c 4 -4 c 5 -4 c 4 -3 c 4 -1 c 5 0 c 4 2 c 5 0 c
4 0 c 4 -1 c 5 2 c 4 0 c 4 1 c 5 1 c 4 9 c 4 85 c 5 352 c 4 264 c 5 88 c 4 -132 c 4 -389 c 5 -177 c 4 -96 c 4 -10 c 5 -1 c 4 0 c
5 -2 c 4 -1 c 4 0 c 5 -1 c 4 0 c 4 2 c 5 3 c 4 1 c 5 1 c 4 -1 c 4 -2 c 5 -2 c 4 -2 c 4 -1 c 5 1 c 4 1 c 5 0 c 4 0 c 4 2 c 5 3 c
4 2 c 4 0 c 5 -1 c 4 3 c 4 10 c 5 2 c 4 1 c 5 -9 c 4 -8 c 4 -2 c 5 1 c 4 0 c 4 4 c 5 8 c 4 31 c 5 121 c 4 51 c 4 1 c 5 -18 c 4 -47 c
4 -18 c 5 -6 c 4 -36 c 5 -44 c 4 9 c 4 15 c 5 23 c 4 54 c 4 193 c 5 1047 c 4 4289 c 5 332 c 4 4 c 4 -6 c 5 -1726 c 4 -3268 c
4 -683 c 5 -160 c 4 -70 c 4 -35 c 5 -19 c 4 -14 c 5 -8 c 4 -4 c 4 -1 c 5 -2 c 4 0 c 4 -2 c 5 -2 c 4 4 c 5 3 c 4 0 c 4 1 c 5 -6 c
4 -5 c 4 -4 c 5 -2 c 4 1 c 5 5 c 4 11 c 4 3 c 5 -4 c 4 -10 c 4 -11 c 5 -3 c 4 1 c 4 13 c 5 31 c 4 28 c 5 11 c 4 -15 c 4 -31 c
5 -30 c 4 -8 c 4 -1 c 5 0 c 4 0 c 5 -1 c 4 1 c 4 1 c 5 4 c 4 2 c 4 -1 c 5 -1 c 4 -4 c 5 -1 c 4 1 c 4 1 c 5 1 c 4 0 c 4 0 c 5 6 c
4 9 c 5 8 c 4 47 c 4 260 c 5 384 c 4 79 c 4 -69 c 5 -364 c 4 -317 c 4 -39 c 5 -2 c 4 -3 c 5 -2 c 4 0 c 4 0 c 5 0 c 4 0 c 4 1 c 5 4 c
4 3 c 5 0 c 4 -1 c 4 -2 c 5 3 c 4 62 c 4 388 c 5 354 c 4 34 c 5 -105 c 4 -486 c 4 -225 c 5 -5 c 4 21 c 4 2 c 5 -5 c 4 -23 c 5 -17 c
4 -2 c 4 -1 c 5 -1 c 4 0 c 4 -1 c 5 1 c 4 0 c 4 0 c 5 0 c 4 2 c 5 9 c 4 33 c 4 23 c 5 3 c 4 -10 c 4 -33 c 5 14 c 4 178 c 5 176 c
4 27 c 4 -44 c 5 -227 c 4 -138 c 4 -10 c 5 1 c 4 2 c 5 2 c 4 3 c 4 -2 c 5 -3 c 4 -3 c 4 -1 c 5 4 c 4 1 c 5 0 c 4 -2 c 4 -3 c 5 -1 c
4 0 c 4 1 c 5 1 c 4 0 c 4 -1 c 5 2 c 4 0 c 5 2 c 4 1 c 4 3 c 5 6 c 4 25 c 4 167 c 5 935 c 4 985 c 5 206 c 4 -218 c 4 -1155 c
5 -774 c 4 -142 c 4 -25 c 5 -8 c 4 -3 c 5 -2 c 4 -1 c 4 -1 c 5 -1 c 4 -1 c 4 -1 c 5 0 c 4 2 c 5 12 c 4 12 c 4 2 c 5 1 c 4 -15 c
4 -5 c 5 5 c 4 4 c 4 -1 c 5 -6 c 4 -1 c 5 6 c 4 0 c 4 -1 c 5 -9 c 4 -8 c 4 -1 c 5 0 c 4 -1 c 5 0 c 4 0 c 4 1 c 5 0 c 4 0 c 4 0 c
5 0 c 4 1 c 5 0 c 4 -1 c 4 0 c 5 -1 c 4 0 c 4 0 c 5 1 c 4 -1 c 4 1 c 5 0 c 4 1 c 5 0 c 4 1 c 4 15 c 5 15 c 4 3 c 4 -1 c 5 -16 c
4 -10 c 5 0 c 4 0 c 4 -2 c 5 -1 c 4 -1 c 4 -2 c 5 0 c 4 0 c 5 -1 c 4 0 c 4 1 c 5 7 c 4 8 c 4 1 c 5 3 c 4 18 c 5 22 c 4 4 c 4 -6 c
5 -35 c 4 -20 c 4 -2 c 5 0 c 4 0 c 4 1 c 5 1 c 4 1 c 5 0 c 4 0 c 4 2 c 5 4 c 4 2 c 4 2 c 5 -3 c 4 -2 c 5 1 c 4 3 c 4 1 c 5 1 c
4 -2 c 4 1 c 5 2 c 4 3 c 5 11 c 4 15 c 4 31 c 5 63 c 4 245 c 4 1744 c 5 3326 c 4 583 c 5 -31 c 4 -1300 c 4 -3193 c 5 -1113 c
4 -202 c 4 -87 c 5 -45 c 4 -21 c 4 -12 c 5 -7 c 4 -5 c 5 -4 c 4 8 c 4 8 c 5 1 c 4 -4 c 4 -10 c 5 -7 c 4 -1 c 5 -2 c 4 -4 c 4 -2 c
5 -1 c 4 -1 c 4 0 c 5 0 c 4 0 c 5 0 c 4 1 c 4 0 c 5 0 c 4 -1 c 4 -1 c 5 -1 c 4 1 c 5 0 c 4 1 c 4 0 c 5 1 c 4 -1 c 4 -1 c 5 0 c
4 -1 c 4 0 c 5 1 c 4 4 c 5 4 c 4 4 c 4 10 c 5 38 c 4 23 c 4 -3 c 5 -11 c 4 -49 c 5 -18 c 4 -1 c 4 9 c 5 18 c 4 7 c 4 0 c 5 -11 c
4 -17 c 5 -5 c 4 -1 c 4 -1 c 5 -1 c 4 -1 c 4 1 c 5 0 c 4 0 c 5 1 c 4 0 c 4 0 c 5 1 c 4 1 c 4 0 c 5 -1 c 4 -2 c 4 0 c 5 0 c 4 0 c
5 0 c 4 -1 c 4 2 c 5 3 c 4 1 c 4 1 c 5 -1 c 4 0 c 5 1 c 4 0 c 4 1 c 5 4 c 4 2 c 4 0 c 5 -4 c 4 -5 c 5 1 c 4 1 c 4 2 c 5 -1 c 4 -1 c
4 0 c 5 2 c 4 2 c 4 1 c 5 1 c 4 18 c 5 194 c 4 265 c 4 78 c 5 -19 c 4 -239 c 4 -236 c 5 -26 c 4 19 c 5 2 c 4 -12 c 4 -34 c 5 -14 c
4 -1 c 4 3 c 5 0 c 4 2 c 5 1 c 4 0 c 4 4 c 5 4 c 4 9 c 4 9 c 5 12 c 4 34 c 5 204 c 4 2377 c 4 3363 c 5 0 c 4 10 c 4 -71 c 5 -4406 c
4 -1413 c 4 -90 c 5 -13 c 4 -9 c 5 -5 c 4 -1 c 4 61 c 5 222 c 4 201 c 4 61 c 5 -85 c 4 -259 c 5 -176 c 4 -33 c 4 7 c 5 4 c 4 4 c
4 46 c 5 71 c 4 44 c 5 63 c 4 -28 c 4 -71 c 5 -46 c 4 -76 c 4 -30 c 5 -4 c 4 -1 c 5 -2 c 4 -1 c 4 0 c 5 -1 c 4 0 c 4 0 c 5 0 c 4 1 c
4 0 c 5 1 c 4 0 c 5 1 c 4 7 c 4 80 c 5 123 c 4 55 c 4 -1 c 5 -35 c 4 71 c 5 72 c 4 14 c 4 -83 c 5 -191 c 4 -100 c 4 -12 c 5 -1 c
4 5 c 5 18 c 4 10 c 4 1 c 5 -9 c 4 -19 c 4 -7 c 5 -2 c 4 1 c 5 0 c 4 1 c 4 3 c 5 1 c 4 0 c 4 -1 c 5 -2 c 4 -1 c 4 6 c 5 6 c 4 6 c
5 5 c 4 0 c 4 -5 c 5 -5 c 4 -7 c 4 -5 c 5 0 c 4 -1 c 5 2 c 4 0 c 4 2 c 5 2 c 4 14 c 4 158 c 5 762 c 4 622 c 5 139 c 4 -211 c
4 -853 c 5 -512 c 4 -114 c 4 -5 c 5 0 c 4 0 c 5 -1 c 4 -2 c 4 -1 c 5 0 c 4 0 c 4 -1 c 5 -1 c 4 -1 c 4 0 c 5 1 c 4 -1 c 5 0 c 4 0 c
4 1 c 5 2 c 4 2 c 4 0 c 5 -2 c 4 -2 c 5 1 c 4 1 c 4 -20 c 5 18 c 4 0 c 4 1 c 5 1 c 4 0 c 5 -1 c 4 -2 c 4 -1 c 5 1 c 4 1 c 4 1 c
5 -1 c 4 -1 c 4 0 c 5 0 c 4 7 c 5 20 c 4 76 c 4 60 c 5 18 c 4 -21 c 4 -85 c 5 -61 c 4 -15 c 5 1 c 4 1 c 4 1 c 5 1 c 4 -2 c 4 -1 c
5 -1 c 4 -1 c 5 -1 c 4 1 c 4 0 c 5 0 c 4 -1 c 4 0 c 5 0 c 4 0 c 5 1 c 4 1 c 4 1 c 5 1 c 4 -1 c 4 -1 c 5 0 c 4 0 c 4 2 c 5 2 c 4 1 c
5 -1 c 4 -4 c 4 -1 c 5 0 c 4 0 c 4 0 c 5 0 c 4 1 c 5 2 c 4 6 c 4 19 c 5 29 c 4 17 c 4 -1 c 5 -17 c 4 -23 c 5 -14 c 4 -10 c 4 -6 c
5 -2 c 4 0 c 4 -1 c 5 0 c 4 -1 c 5 0 c 4 0 c 4 0 c 5 0 c 4 2 c 4 2 c 5 1 c 4 0 c 4 0 c 5 3 c 4 8 c 5 9 c 4 1 c 4 -5 c 5 -10 c 4 -8 c
4 -2 c 5 -1 c 4 0 c 5 0 c 4 0 c 4 0 c 5 1 c 4 1 c 4 -1 c 5 1 c 4 0 c 5 1 c 4 3 c 4 0 c 5 1 c 4 0 c 4 -1 c 5 1 c 4 8 c 5 5 c 4 1 c
4 -1 c 5 1 c 4 70 c 4 124 c 5 62 c 4 -6 c 4 -91 c 5 -121 c 4 -51 c 5 -5 c 4 0 c 4 -1 c 5 1 c 4 -1 c 4 1 c 5 1 c 4 1 c 5 1 c 4 5 c
4 21 c 5 194 c 4 526 c 4 331 c 5 59 c 4 -220 c 5 -563 c 4 -293 c 4 -54 c 5 -3 c 4 0 c 4 0 c 5 1 c 4 -3 c 4 -2 c 5 -1 c 4 0 c 5 0 c
4 1 c 4 21 c 5 58 c 4 32 c 4 13 c 5 -9 c 4 1 c 5 177 c 4 152 c 4 46 c 5 -68 c 4 -223 c 4 -158 c 5 -40 c 4 -3 c 5 -1 c 4 -17 c 4 20 c
5 0 c 4 -1 c 4 -2 c 5 -2 c 4 0 c 5 1 c 4 1 c 4 0 c 5 -1 c 4 -1 c 4 -1 c 5 0 c 4 0 c 4 2 c 5 2 c 4 2 c 5 0 c 4 -1 c 4 -2 c 5 -1 c
4 -1 c 4 0 c 5 0 c 4 1 c 5 0 c 4 1 c 4 0 c 5 1 c 4 1 c 4 3 c 5 17 c 4 13 c 5 5 c 4 -4 c 4 -17 c 5 -12 c 4 -3 c 4 0 c 5 -1 c 4 0 c
5 1 c 4 0 c 4 1 c 5 -1 c 4 -1 c 4 5 c 5 15 c 4 11 c 4 2 c 5 -4 c 4 -10 c 5 -6 c 4 -1 c 4 2 c 5 5 c 4 4 c 4 3 c 5 9 c 4 5 c 5 14 c
4 38 c 4 211 c 5 2324 c 4 3402 c 4 -12 c 5 14 c 4 -10 c 5 -2461 c 4 -2958 c 4 -498 c 5 -34 c 4 -12 c 4 -12 c 5 -7 c 4 -5 c 5 2 c
4 10 c 4 23 c 5 55 c 4 72 c 4 28 c 5 -18 c 4 -68 c 4 -84 c 5 -40 c 4 -8 c 5 -3 c 4 1 c 4 -1 c 5 -1 c 4 1 c 4 -1 c 5 -2 c 4 0 c
5 -1 c 4 0 c 4 -1 c 5 -1 c 4 0 c 4 1 c 5 1 c 4 0 c 5 0 c 4 -2 c 4 1 c 5 5 c 4 5 c 4 2 c 5 -1 c 4 -5 c 5 -5 c 4 -1 c 4 1 c 5 0 c
4 1 c 4 0 c 5 0 c 4 4 c 4 4 c 5 1 c 4 -1 c 5 -6 c 4 -5 c 4 0 c 5 1 c 4 0 c 4 1 c 5 -1 c 4 -1 c 5 -1 c 4 0 c 4 -1 c 5 0 c 4 0 c
4 -1 c 5 0 c 4 1 c 5 -1 c 4 1 c 4 1 c 5 0 c 4 1 c 4 0 c 5 -1 c 4 -1 c 4 -1 c 5 0 c 4 0 c 5 0 c 4 0 c 4 1 c 5 0 c 4 1 c 4 4 c 5 3 c
4 1 c 5 -1 c 4 -2 c 4 -3 c 5 -1 c 4 0 c 4 -1 c 5 0 c 4 0 c 5 0 c 4 0 c 4 -1 c 5 0 c 4 0 c 4 -1 c 5 1 c 4 1 c 5 1 c 4 0 c 4 0 c
5 -1 c 4 0 c 4 0 c 5 2 c 4 -1 c 4 0 c 5 -1 c 4 0 c 5 0 c 4 -1 c 4 0 c 5 0 c 4 3 c 4 7 c 5 6 c 4 13 c 5 19 c 4 8 c 4 10 c 5 -4 c
4 -19 c 4 -12 c 5 -16 c 4 -11 c 5 -1 c 4 1 c 4 1 c 5 -1 c 4 -1 c 4 -18 c 5 16 c 4 5 c 5 6 c 4 21 c 4 56 c 5 35 c 4 8 c 4 -20 c
5 -55 c 4 -38 c 4 -9 c 5 0 c 4 -1 c 5 -1 c 4 -4 c 4 -2 c 5 -1 c 4 0 c 4 0 c 5 0 c 4 0 c 5 -1 c 4 1 c 4 0 c 5 1 c 4 1 c 4 2 c 5 6 c
4 22 c 5 27 c 4 78 c 4 81 c 5 105 c 4 129 c 4 -19 c 5 -85 c 4 -124 c 5 -111 c 4 -34 c 4 -6 c 5 -15 c 4 -37 c 4 -18 c 5 -2 c 4 -1 c
4 0 c 5 0 c 4 0 c 5 1 c 4 1 c 4 -1 c 5 2 c 4 1 c 4 0 c 5 -1 c 4 -2 c 5 -2 c 4 0 c 4 0 c 5 0 c 4 1 c 4 0 c 5 0 c 4 1 c 5 3 c 4 4 c
4 3 c 5 0 c 4 -4 c 4 -3 c 5 -2 c 4 -1 c 5 1 c 4 0 c 4 0 c 5 3 c 4 28 c 4 43 c 5 14 c 4 3 c 4 -10 c 5 -42 c 4 -11 c 5 -8 c 4 -16 c
4 -6 c 5 -1 c 4 0 c 4 0 c 5 1 c 4 1 c 5 6 c 4 3 c 4 0 c 5 -2 c 4 -5 c 4 -3 c 5 -1 c 4 0 c 5 0 c 4 0 c 4 0 c 5 1 c 4 3 c 4 1 c 5 0 c
4 -1 c 4 -3 c 5 -1 c 4 2 c 5 2 c 4 1 c 4 0 c 5 -2 c 4 -2 c 4 0 c 5 2 c 4 3 c 5 15 c 4 17 c 4 6 c 5 0 c 4 9 c 4 193 c 5 303 c 4 103 c
5 -14 c 4 -220 c 4 -307 c 5 -99 c 4 -5 c 4 4 c 5 2 c 4 0 c 5 0 c 4 -6 c 4 -2 c 5 -2 c 4 0 c 4 1 c 5 -1 c 4 1 c 4 0 c 5 -1 c 4 -1 c
5 2 c 4 12 c 4 26 c 5 10 c 4 -1 c 4 -13 c 5 -25 c 4 -10 c 5 1 c 4 0 c 4 0 c 5 1 c 4 2 c 4 6 c 5 8 c 4 4 c 5 1 c 4 -6 c 4 -7 c 5 -3 c
4 0 c 4 38 c 5 201 c 4 187 c 5 44 c 4 -49 c 4 -203 c 5 -177 c 4 -40 c 4 -2 c 5 -1 c 4 -2 c 4 -1 c 5 -1 c 4 0 c 5 0 c 4 0 c 4 1 c
5 1 c 4 2 c 4 -1 c 5 0 c 4 -1 c 5 -1 c 4 -1 c 4 -1 c 5 0 c 4 0 c 4 1 c 5 0 c 4 0 c 5 1 c 4 1 c 4 0 c 5 2 c 4 0 c 4 1 c 5 0 c 4 1 c
5 7 c 4 6 c 4 4 c 5 3 c 4 -2 c 4 -6 c 5 0 c 4 -1 c 4 0 c 5 0 c 4 0 c 5 0 c 4 1 c 4 0 c 5 2 c 4 3 c 4 2 c 5 3 c 4 31 c 5 226 c
4 394 c 4 168 c 5 -6 c 4 -202 c 4 -409 c 5 -146 c 4 0 c 5 25 c 4 30 c 4 36 c 5 47 c 4 57 c 4 126 c 5 292 c 4 3559 c 5 1772 c 4 -6 c
4 16 c 5 -9 c 4 -13 c 4 14 c 5 2 c 4 -4754 c 4 -719 c 5 -213 c 4 -107 c 5 -58 c 4 -37 c 4 -29 c 5 -22 c 4 -17 c 4 -9 c 5 -13 c
4 -9 c 5 -4 c 4 -4 c 4 -4 c 5 5 c 4 79 c 4 123 c 5 52 c 4 12 c 5 -70 c 4 -137 c 4 -57 c 5 -18 c 4 -7 c 4 -2 c 5 0 c 4 0 c 4 0 c
5 -2 c 4 2 c 5 -1 c 4 1 c 4 -1 c 5 0 c 4 -1 c 4 -1 c 5 -1 c 4 0 c 5 6 c 4 4 c 4 1 c 5 -1 c 4 -4 c 4 -3 c 5 3 c 4 15 c 5 229 c
4 854 c 4 481 c 5 45 c 4 -218 c 4 -848 c 5 -494 c 4 -65 c 5 -5 c 4 -3 c 4 0 c 5 5 c 4 41 c 4 34 c 5 6 c 4 -4 c 4 -42 c 5 -39 c
4 -7 c 5 0 c 4 0 c 4 -1 c 5 0 c 4 0 c 4 0 c 5 1 c 4 0 c 5 0 c 4 3 c 4 5 c 5 1 c 4 0 c 4 -3 c 5 -6 c 4 -1 c 5 -1 c 4 0 c 4 0 c 5 -1 c
4 1 c 4 1 c 5 3 c 4 1 c 5 1 c 4 0 c 4 8 c 5 117 c 4 208 c 4 67 c 5 -11 c 4 -79 c 4 -204 c 5 -70 c 4 -7 c 5 -15 c 4 -13 c 4 -3 c
5 -1 c 4 -1 c 4 0 c 5 0 c 4 0 c 5 0 c 4 1 c 4 2 c 5 26 c 4 80 c 4 65 c 5 31 c 4 -2 c 5 -64 c 4 -65 c 4 -26 c 5 -18 c 4 -11 c 4 -4 c
5 -4 c 4 -3 c 5 -2 c 4 -1 c 4 -1 c 5 0 c 4 -2 c 4 -1 c 5 -2 c 4 -1 c 4 1 c 5 2 c 4 3 c 5 0 c 4 1 c 4 -3 c 5 0 c 4 2 c 4 2 c 5 0 c
4 0 c 5 -4 c 4 -5 c 4 0 c 5 -2 c 4 0 c 4 0 c 5 1 c 4 1 c 5 1 c 4 0 c 4 0 c 5 -1 c 4 -1 c 4 -1 c 5 -1 c 4 0 c 4 1 c 5 0 c 4 0 c 5 1 c
4 1 c 4 2 c 5 2 c 4 7 c 4 4 c 5 4 c 4 -2 c 5 -6 c 4 -2 c 4 3 c 5 5 c 4 20 c 4 20 c 5 2 c 4 25 c 5 10 c 4 -9 c 4 -3 c 5 -33 c 4 -27 c
4 -16 c 5 -6 c 4 -1 c 5 0 c 4 -1 c 4 -1 c 5 1 c 4 1 c 4 -1 c 5 0 c 4 0 c 4 -1 c 5 0 c 4 2 c 5 2 c 4 2 c 4 0 c 5 -2 c 4 -1 c 4 0 c
5 0 c 4 2 c 5 0 c 4 -1 c 4 -1 c 5 -2 c 4 -1 c 4 0 c 5 1 c 4 6 c 5 9 c 4 4 c 4 0 c 5 -2 c 4 -10 c 4 -1 c 5 -2 c 4 -2 c 5 -2 c 4 -1 c
4 -1 c 5 0 c 4 0 c 4 2 c 5 -1 c 4 1 c 4 0 c 5 -1 c 4 0 c 5 1 c 4 1 c 4 0 c 5 3 c 4 -1 c 4 0 c 5 0 c 4 -3 c 5 -2 c 4 2 c 4 4 c 5 3 c
4 0 c 4 0 c 5 -3 c 4 -3 c 5 1 c 4 0 c 4 1 c 5 19 c 4 61 c 4 17 c 5 3 c 4 -5 c 5 2 c 4 18 c 4 2 c 5 -9 c 4 -55 c 4 -51 c 5 -5 c 4 1 c
4 0 c 5 0 c 4 0 c 5 0 c 4 -1 c 4 -1 c 5 1 c 4 -1 c 4 0 c 5 0 c 4 1 c 5 1 c 4 1 c 4 0 c 5 1 c 4 2 c 4 3 c 5 3 c 4 0 c 5 -1 c 4 1 c
4 6 c 5 18 c 4 175 c 4 1247 c 5 1224 c 4 204 c 5 -110 c 4 -1019 c 4 -1486 c 5 -231 c 4 -22 c 4 3 c 5 6 c 4 0 c 4 -2 c 5 -5 c 4 -12 c
5 -3 c 4 -1 c 4 -1 c 5 1 c 4 0 c 4 2 c 5 1 c 4 -1 c 5 0 c 4 -4 c 4 -1 c 5 1 c 4 5 c 4 6 c 5 0 c 4 -1 c 5 -3 c 4 -6 c 4 0 c 5 15 c
4 79 c 4 51 c 5 9 c 4 -7 c 4 -65 c 5 -67 c 4 -13 c 5 1 c 4 3 c 4 -1 c 5 -1 c 4 -2 c 4 -4 c 5 0 c 4 7 c 5 58 c 4 81 c 4 12 c 5 -2 c
4 -37 c 4 -94 c 5 -18 c 4 -1 c 5 -2 c 4 1 c 4 1 c 5 -1 c 4 -2 c 4 -3 c 5 -2 c 4 0 c 5 2 c 4 4 c 4 4 c 5 2 c 4 -2 c 4 -4 c 5 -4 c
4 0 c 4 -1 c 5 1 c 4 -1 c 5 -1 c 4 1 c 4 -1 c 5 1 c 4 8 c 4 36 c 5 23 c 4 0 c 5 -7 c 4 -33 c 4 -25 c 5 -2 c 4 0 c 4 0 c 5 1 c 4 -1 c
5 1 c 4 9 c 4 57 c 5 44 c 4 5 c 4 -5 c 5 -47 c 4 -54 c 5 -2 c 4 5 c 4 1 c 5 0 c 4 -4 c 4 -5 c 5 -1 c 4 0 c 4 2 c 5 6 c 4 6 c 5 0 c
4 -2 c 4 -5 c 5 -7 c 4 0 c 4 1 c 5 0 c 4 0 c 5 1 c 4 3 c 4 2 c 5 1 c 4 3 c 4 3 c 5 3 c 4 8 c 5 26 c 4 158 c 4 1544 c 5 3098 c
4 823 c 4 -6 c
5 -1144 c 4 -3259 c 5 -1166 c 4 -63 c 4 -53 c
0 -126 3030 418 l 54 0 3030 418 l 18 -6 c 6 -6 c 6 -12 c 0 -12 c -6 -12 c -6 -6 c -18 -6 c -54 0 c 42 -66 3072 358 l
-12 -6 3180 376 l -12 -12 c -6 -18 c 0 -12 c 6 -18 c 12 -12 c 12 -6 c 18 0 c 12 6 c 12 12 c 6 18 c 0 12 c -6 18 c -12 12 c -12 6 c
-18 0 c 24 -84 3264 376 l -24 -84 3312 376 l 24 -84 3312 376 l -24 -84 3360 376 l 108 0 3402 364 l 108 0 3402 328 l 0 6 3654 388 l
6 12 c 6 6 c 12 6 c 24 0 c 12 -6 c 6 -6 c 6 -12 c 0 -12 c -6 -12 c -12 -18 c -60 -60 c 84 0 c -18 -6 3804 418 l -12 -18 c -6 -30 c
0 -18 c 6 -30 c 12 -18 c 18 -6 c 12 0 c 18 6 c 12 18 c 6 30 c 0 18 c -6 30 c -12 18 c -18 6 c -12 0 c 12 6 4290 394 l 18 18 c
0 -126 c -6 -6 4404 376 l 6 -6 c 6 6 c -6 6 c -6 -6 4404 304 l 6 -6 c 6 6 c -6 6 c -48 -126 4584 418 l 48 -126 4584 418 l
60 0 4554 334 l 0 -84 4662 376 l 6 18 4662 340 l 12 12 c 12 6 c 18 0 c -12 12 4806 358 l -12 6 c -18 0 c -12 -6 c -12 -12 c -6 -18 c
0 -12 c 6 -18 c 12 -12 c 12 -6 c 18 0 c 12 6 c 12 12 c 108 0 4848 346 l -18 -6 5034 418 l -12 -18 c -6 -30 c 0 -18 c 6 -30 c
12 -18 c 18 -6 c 12 0 c 18 6 c 12 18 c 6 30 c 0 18 c -6 30 c -12 18 c -18 6 c -12 0 c 66 0 5130 418 l -36 -48 c 18 0 c 12 -6 c
6 -6 c 6 -18 c 0 -12 c -6 -18 c -12 -12 c -18 -6 c -18 0 c -18 6 c -6 6 c -6 12 c -59 0 5309 418 l -6 -54 c 6 6 c 17 6 c 18 0 c
18 -6 c 12 -12 c 6 -18 c 0 -12 c -6 -18 c -12 -12 c -18 -6 c -18 0 c -17 6 c -6 6 c -6 12 c -6 -6 5369 304 l 6 -6 c 6 6 c -6 6 c
-12 0 5459 418 l -12 -6 c -6 -18 c 0 -102 c 42 0 5411 376 l 6 -6 5489 418 l 6 6 c -6 6 c -6 -6 c 0 -84 5495 376 l 0 -102 5549 418 l
6 -18 c 12 -6 c 12 0 c 42 0 5531 376 l -6 12 5675 358 l -18 6 c -18 0 c -18 -6 c -6 -12 c 6 -12 c 12 -6 c 30 -6 c 12 -6 c 6 -12 c
0 -6 c -6 -12 c -18 -6 c -18 0 c -18 6 c -6 12 c 0 -192 6005 442 l 0 -192 6011 442 l 42 0 6005 442 l 42 0 6005 250 l 0 6 6089 388 l
6 12 c 6 6 c 12 6 c 24 0 c 12 -6 c 6 -6 c 6 -12 c 0 -12 c -6 -12 c -12 -18 c -60 -60 c 84 0 c -6 -6 6215 376 l 6 -6 c 6 6 c -6 6 c
-6 -6 6215 304 l 6 -6 c 6 6 c -6 6 c -48 -126 6395 418 l 48 -126 6395 418 l 60 0 6365 334 l 0 -84 6473 376 l 6 18 6473 340 l 12 12 c
12 6 c 18 0 c -12 12 6617 358 l -12 6 c -18 0 c -12 -6 c -12 -12 c -6 -18 c 0 -12 c 6 -18 c 12 -12 c 12 -6 c 18 0 c 12 6 c 12 12 c
108 0 6659 346 l -18 -6 6845 418 l -12 -18 c -6 -30 c 0 -18 c 6 -30 c 12 -18 c 18 -6 c 12 0 c 18 6 c 12 18 c 6 30 c 0 18 c -6 30 c
-12 18 c -18 6 c -12 0 c 66 0 6941 418 l -36 -48 c 18 0 c 12 -6 c 6 -6 c 6 -18 c 0 -12 c -6 -18 c -12 -12 c -18 -6 c -18 0 c -18 6 c
-6 6 c -6 12 c -6 12 7127 400 l -18 6 c -12 0 c -18 -6 c -12 -18 c -6 -30 c 0 -30 c 6 -24 c 12 -12 c 18 -6 c 6 0 c 18 6 c 12 12 c
6 18 c 0 6 c -6 18 c -12 12 c -18 6 c -6 0 c -18 -6 c -12 -12 c -6 -18 c -6 -6 7181 304 l 6 -6 c 6 6 c -6 6 c -12 0 7271 418 l
-12 -6 c -6 -18 c 0 -102 c 42 0 7223 376 l 6 -6 7301 418 l 6 6 c -6 6 c -6 -6 c 0 -84 7307 376 l 0 -102 7361 418 l 6 -18 c 12 -6 c
12 0 c 42 0 7343 376 l -6 12 7487 358 l -18 6 c -18 0 c -18 -6 c -6 -12 c 6 -12 c 12 -6 c 30 -6 c 12 -6 c 6 -12 c 0 -6 c -6 -12 c
-18 -6 c -18 0 c -18 6 c -6 12 c 0 -192 7559 442 l 0 -192 7565 442 l 42 0 7523 442 l 42 0 7523 250 l
0 -249 903 1619 l 53 -38 859 1729 l 0 57 c 79 0 859 1729 l 79 -38 859 1820 l 0 53 859 1767 l -4 7 874 1854 l -11 12 c 79 0 c
-4 0 878 1922 l -8 3 c -3 4 c -4 8 c 0 15 c 4 7 c 3 4 c 8 4 c 8 0 c 7 -4 c 11 -7 c 38 -38 c 0 53 c 3 -4 931 2001 l 4 4 c -4 4 c
-3 -4 c 53 -38 859 2069 l 0 57 c 79 0 859 2069 l 4 -12 859 2126 l 7 -3 c 8 0 c 7 3 c 4 8 c 4 15 c 4 11 c 7 8 c 8 4 c 11 0 c 8 -4 c
3 -4 c 4 -11 c 0 -15 c -4 -12 c -3 -3 c -8 -4 c -11 0 c -8 4 c -7 7 c -4 12 c -4 15 c -4 7 c -7 4 c -8 0 c -7 -4 c -4 -11 c 0 -15 c
-4 7 874 2194 l -11 12 c 79 0 c 0 -249 952 1301 l 53 -38 909 1411 l 0 57 c 79 0 909 1411 l 79 -38 909 1502 l 0 53 909 1449 l
-4 7 924 1536 l -11 12 c 79 0 c -4 0 928 1604 l -8 3 c -4 4 c -3 8 c 0 15 c 3 7 c 4 4 c 8 4 c 7 0 c 8 -4 c 11 -7 c 38 -38 c 0 53 c
4 -4 980 1683 l 4 4 c -4 4 c -4 -4 c 3 -11 909 1732 l 8 -4 c 8 0 c 7 4 c 4 7 c 4 16 c 3 11 c 8 7 c 8 4 c 11 0 c 7 -4 c 4 -3 c
4 -12 c 0 -15 c -4 -11 c -4 -4 c -7 -4 c -11 0 c -8 4 c -8 8 c -3 11 c -4 15 c -4 8 c -7 3 c -8 0 c -8 -3 c -3 -12 c 0 -15 c
53 -38 909 1827 l 0 57 c 79 0 909 1827 l -4 7 924 1876 l -11 12 c 79 0 c 0 -249 1896 1319 l 53 -38 1852 1429 l 0 57 c
79 0 1852 1429 l 79 -37 1852 1519 l 0 52 1852 1467 l -4 0 1871 1546 l -8 4 c -3 3 c -4 8 c 0 15 c 4 8 c 3 3 c 8 4 c 8 0 c 7 -4 c
11 -7 c 38 -38 c 0 53 c 4 -11 1852 1640 l 11 -7 c 19 -4 c 11 0 c 19 4 c 11 7 c 4 11 c 0 8 c -4 11 c -11 8 c -19 4 c -11 0 c -19 -4 c
-11 -8 c -4 -11 c 0 -8 c 3 -4 1924 1701 l 4 4 c -4 4 c -3 -4 c 53 -38 1852 1769 l 0 57 c 79 0 1852 1769 l 0 -38 1852 1852 l 34 -4 c
-4 4 c -4 12 c 0 11 c 4 11 c 8 8 c 11 4 c 8 0 c 11 -4 c 7 -8 c 4 -11 c 0 -11 c -4 -12 c -3 -4 c -8 -3 c 12 -3 1878 1931 l 7 -8 c
4 -11 c 0 -4 c -4 -11 c -7 -8 c -12 -4 c -3 0 c -12 4 c -7 8 c -4 11 c 0 4 c 4 11 c 7 8 c 15 3 c 19 0 c 19 -3 c 11 -8 c 4 -11 c
0 -8 c -4 -11 c -7 -4 c 0 -250 1998 1424 l 53 -38 1954 1533 l 0 57 c 79 0 1954 1533 l 79 -38 1954 1624 l 0 53 1954 1571 l
-4 0 1973 1650 l -7 4 c -4 4 c -4 7 c 0 16 c 4 7 c 4 4 c 7 4 c 8 0 c 7 -4 c 12 -8 c 37 -37 c 0 52 c -4 8 1969 1733 l -11 11 c 79 0 c
4 -4 2026 1805 l 3 4 c -3 4 c -4 -4 c -4 0 1973 1839 l -7 4 c -4 4 c -4 7 c 0 16 c 4 7 c 4 4 c 7 4 c 8 0 c 7 -4 c 12 -8 c 37 -38 c
0 53 c 79 -38 1954 1964 l 0 53 1954 1911 l -7 -4 1965 2036 l -4 -11 c 0 -8 c 4 -11 c 11 -8 c 19 -4 c 19 0 c 15 4 c 8 8 c 3 11 c
0 4 c -3 11 c -8 8 c -11 4 c -4 0 c -11 -4 c -8 -8 c -4 -11 c 0 -4 c 4 -11 c 8 -8 c 11 -4 c 0 -249 2099 1563 l 53 -38 2055 1673 l
0 57 c 80 0 2055 1673 l 80 -37 2055 1763 l 0 52 2055 1711 l -4 0 2074 1790 l -7 4 c -4 3 c -4 8 c 0 15 c 4 8 c 4 3 c 7 4 c 8 0 c
8 -4 c 11 -7 c 38 -38 c 0 53 c -4 0 2074 1865 l -7 4 c -4 4 c -4 8 c 0 15 c 4 7 c 4 4 c 7 4 c 8 0 c 8 -4 c 11 -7 c 38 -38 c 0 53 c
4 -4 2127 1945 l 4 4 c -4 4 c -4 -4 c 4 -12 2055 1998 l 11 -7 c 19 -4 c 12 0 c 19 4 c 11 7 c 4 12 c 0 7 c -4 12 c -11 7 c -19 4 c
-12 0 c -19 -4 c -11 -7 c -4 -12 c 0 -7 c 4 -12 2055 2070 l 8 -4 c 7 0 c 8 4 c 4 8 c 3 15 c 4 11 c 8 8 c 7 4 c 12 0 c 7 -4 c 4 -4 c
4 -11 c 0 -15 c -4 -12 c -4 -4 c -7 -3 c -12 0 c -7 3 c -8 8 c -4 11 c -3 15 c -4 8 c -8 4 c -7 0 c -8 -4 c -4 -11 c 0 -15 c
11 -3 2082 2175 l 8 -8 c 3 -11 c 0 -4 c -3 -11 c -8 -8 c -11 -4 c -4 0 c -11 4 c -8 8 c -4 11 c 0 4 c 4 11 c 8 8 c 15 3 c 19 0 c
19 -3 c 11 -8 c 4 -11 c 0 -8 c -4 -11 c -8 -4 c 0 -249 2268 7019 l 53 -38 2224 7129 l 0 57 c 79 0 2224 7129 l 79 -37 2224 7219 l
0 52 2224 7167 l -4 0 2243 7246 l -7 4 c -4 3 c -4 8 c 0 15 c 4 8 c 4 3 c 7 4 c 8 0 c 7 -4 c 12 -7 c 37 -38 c 0 53 c
0 42 2224 7325 l 30 -23 c 0 11 c 4 8 c 4 4 c 11 4 c 8 0 c 11 -4 c 8 -8 c 3 -11 c 0 -11 c -3 -12 c -4 -4 c -8 -3 c 4 -4 2296 7401 l
3 4 c -3 4 c -4 -4 c 53 -38 2224 7469 l 0 57 c 79 0 2224 7469 l 0 42 2224 7514 l 30 -23 c 0 11 c 4 8 c 4 4 c 11 4 c 8 0 c 11 -4 c
8 -8 c 3 -11 c 0 -11 c -3 -12 c -4 -4 c -8 -3 c 4 -11 2224 7601 l 7 -4 c 8 0 c 8 4 c 3 7 c 4 15 c 4 12 c 7 7 c 8 4 c 11 0 c 8 -4 c
4 -3 c 3 -12 c 0 -15 c -3 -11 c -4 -4 c -8 -4 c -11 0 c -8 4 c -7 8 c -4 11 c -4 15 c -3 8 c -8 3 c -8 0 c -7 -3 c -4 -12 c 0 -15 c
0 -250 2436 2042 l 53 -38 2392 2151 l 0 57 c 80 0 2392 2151 l 80 -38 2392 2242 l 0 53 2392 2189 l -4 0 2411 2268 l -7 4 c -4 4 c
-4 8 c 0 15 c 4 7 c 4 4 c 7 4 c 8 0 c 8 -4 c 11 -8 c 38 -37 c 0 53 c 53 -38 2392 2378 l 0 57 c 80 0 2392 2378 l 4 -3 2464 2423 l
4 3 c -4 4 c -4 -4 c 80 -38 2392 2507 l 0 53 2392 2454 l 80 -38 2392 2582 l 0 53 2392 2529 l -4 0 2411 2609 l -7 3 c -4 4 c -4 8 c
0 15 c 4 7 c 4 4 c 7 4 c 8 0 c 8 -4 c 11 -7 c 38 -38 c 0 53 c 0 -249 2698 7019 l 53 -38 2654 7129 l 0 57 c 80 0 2654 7129 l
80 -37 2654 7219 l 0 52 2654 7167 l -3 0 2673 7246 l -8 4 c -4 3 c -4 8 c 0 15 c 4 8 c 4 3 c 8 4 c 7 0 c 8 -4 c 11 -7 c 38 -38 c
0 53 c -8 -4 2666 7367 l -4 -11 c 0 -8 c 4 -11 c 12 -8 c 18 -4 c 19 0 c 15 4 c 8 8 c 4 11 c 0 4 c -4 11 c -8 8 c -11 4 c -4 0 c
-11 -4 c -8 -8 c -3 -11 c 0 -4 c 3 -11 c 8 -8 c 11 -4 c 4 -4 2726 7401 l 4 4 c -4 4 c -4 -4 c 4 -11 2654 7450 l 8 -4 c 7 0 c 8 4 c
4 7 c 3 15 c 4 12 c 8 7 c 7 4 c 12 0 c 7 -4 c 4 -4 c 4 -11 c 0 -15 c -4 -11 c -4 -4 c -7 -4 c -12 0 c -7 4 c -8 7 c -4 12 c -3 15 c
-4 7 c -8 4 c -7 0 c -8 -4 c -4 -11 c 0 -15 c -8 -4 2666 7556 l -4 -11 c 0 -8 c 4 -11 c 12 -8 c 18 -4 c 19 0 c 15 4 c 8 8 c 4 11 c
0 4 c -4 11 c -8 8 c -11 4 c -4 0 c -11 -4 c -8 -8 c -3 -11 c 0 -4 c 3 -11 c 8 -8 c 11 -4 c 4 -11 2654 7601 l 8 -4 c 7 0 c 8 4 c
4 7 c 3 15 c 4 12 c 8 7 c 7 4 c 12 0 c 7 -4 c 4 -3 c 4 -12 c 0 -15 c -4 -11 c -4 -4 c -7 -4 c -12 0 c -7 4 c -8 8 c -4 11 c -3 15 c
-4 8 c -8 3 c -7 0 c -8 -3 c -4 -12 c 0 -15 c 0 -250 2983 2029 l 52 -38 2940 2138 l 0 57 c 79 0 2940 2138 l 79 -38 2940 2229 l
0 53 2940 2176 l -3 0 2958 2255 l -8 4 c -4 4 c -3 8 c 0 15 c 3 7 c 4 4 c 8 4 c 7 0 c 8 -4 c 11 -8 c 38 -37 c 0 53 c
11 -3 2966 2376 l 8 -8 c 4 -11 c 0 -4 c -4 -11 c -8 -8 c -11 -4 c -4 0 c -11 4 c -8 8 c -3 11 c 0 4 c 3 11 c 8 8 c 15 3 c 19 0 c
19 -3 c 11 -8 c 4 -11 c 0 -8 c -4 -11 c -7 -4 c 4 -3 3011 2410 l 4 3 c -4 4 c -4 -4 c -4 7 2955 2452 l -11 12 c 79 0 c
-3 0 2958 2520 l -8 4 c -4 4 c -3 7 c 0 15 c 3 8 c 4 4 c 8 3 c 7 0 c 8 -3 c 11 -8 c 38 -38 c 0 53 c 3 -12 2940 2611 l 8 -3 c 7 0 c
8 3 c 4 8 c 4 15 c 3 11 c 8 8 c 7 4 c 12 0 c 7 -4 c 4 -4 c 4 -11 c 0 -15 c -4 -12 c -4 -3 c -7 -4 c -12 0 c -7 4 c -8 7 c -3 11 c
-4 16 c -4 7 c -8 4 c -7 0 c -8 -4 c -3 -11 c 0 -15 c 0 -249 3354 3566 l 53 -38 3311 3676 l 0 57 c 79 0 3311 3676 l
79 -37 3311 3766 l 0 53 3311 3713 l 0 41 3311 3797 l 30 -22 c 0 11 c 4 7 c 4 4 c 11 4 c 7 0 c 12 -4 c 7 -7 c 4 -12 c 0 -11 c
-4 -11 c -3 -4 c -8 -4 c -4 0 3330 3868 l -8 4 c -3 4 c -4 8 c 0 15 c 4 7 c 3 4 c 8 4 c 7 0 c 8 -4 c 11 -8 c 38 -37 c 0 53 c
3 -4 3383 3948 l 4 4 c -4 4 c -3 -4 c 4 -12 3311 4001 l 11 -7 c 19 -4 c 11 0 c 19 4 c 11 7 c 4 12 c 0 7 c -4 12 c -11 7 c -19 4 c
-11 0 c -19 -4 c -11 -7 c -4 -12 c 0 -7 c 0 -38 3311 4099 l 34 -4 c -4 4 c -4 12 c 0 11 c 4 11 c 8 8 c 11 4 c 7 0 c 12 -4 c 7 -8 c
4 -11 c 0 -11 c -4 -12 c -3 -4 c -8 -3 c 0 41 3311 4137 l 30 -22 c 0 11 c 4 8 c 4 3 c 11 4 c 7 0 c 12 -4 c 7 -7 c 4 -12 c 0 -11 c
-4 -11 c -3 -4 c -8 -4 c 0 -249 3846 7019 l 53 -38 3802 7129 l 0 57 c 80 0 3802 7129 l 80 -37 3802 7219 l 0 52 3802 7167 l
0 41 3802 7250 l 30 -22 c 0 11 c 4 7 c 4 4 c 11 4 c 8 0 c 11 -4 c 8 -7 c 4 -12 c 0 -11 c -4 -11 c -4 -4 c -8 -4 c 0 -38 3802 7363 l
34 -4 c -4 4 c -3 12 c 0 11 c 3 11 c 8 8 c 11 4 c 8 0 c 11 -4 c 8 -8 c 4 -11 c 0 -11 c -4 -12 c -4 -4 c -8 -3 c 4 -4 3874 7401 l
4 4 c -4 4 c -4 -4 c 11 -4 3829 7480 l 7 -7 c 4 -11 c 0 -4 c -4 -12 c -7 -7 c -11 -4 c -4 0 c -12 4 c -7 7 c -4 12 c 0 4 c 4 11 c
7 7 c 16 4 c 18 0 c 19 -4 c 12 -7 c 4 -11 c 0 -8 c -4 -11 c -8 -4 c 4 -11 3802 7529 l 11 -8 c 19 -3 c 11 0 c 19 3 c 12 8 c 4 11 c
0 8 c -4 11 c -12 8 c -19 4 c -11 0 c -19 -4 c -11 -8 c -4 -11 c 0 -8 c -7 -3 3813 7631 l -4 -12 c 0 -7 c 4 -12 c 11 -7 c 19 -4 c
19 0 c 15 4 c 8 7 c 4 12 c 0 3 c -4 12 c -8 7 c -11 4 c -4 0 c -11 -4 c -8 -7 c -4 -12 c 0 -3 c 4 -12 c 8 -7 c 11 -4 c
0 -249 4330 1798 l 53 -38 4286 1908 l 0 57 c 80 0 4286 1908 l 80 -38 4286 1999 l 0 53 4286 1946 l 0 41 4286 2029 l 31 -22 c 0 11 c
3 8 c 4 3 c 12 4 c 7 0 c 11 -4 c 8 -7 c 4 -12 c 0 -11 c -4 -11 c -4 -4 c -7 -4 c 11 -4 4313 2146 l 8 -7 c 4 -12 c 0 -3 c -4 -12 c
-8 -7 c -11 -4 c -4 0 c -11 4 c -8 7 c -4 12 c 0 3 c 4 12 c 8 7 c 15 4 c 19 0 c 19 -4 c 11 -7 c 4 -12 c 0 -7 c -4 -12 c -8 -3 c
4 -4 4358 2180 l 4 4 c -4 4 c -4 -4 c -8 -3 4298 2259 l -4 -12 c 0 -7 c 4 -12 c 12 -7 c 18 -4 c 19 0 c 15 4 c 8 7 c 4 12 c 0 3 c
-4 12 c -8 7 c -11 4 c -4 0 c -11 -4 c -8 -7 c -3 -12 c 0 -3 c 3 -12 c 8 -7 c 11 -4 c 80 -38 4286 2339 l 0 53 4286 2286 l
-8 -4 4298 2411 l -4 -12 c 0 -7 c 4 -11 c 12 -8 c 18 -4 c 19 0 c 15 4 c 8 8 c 4 11 c 0 4 c -4 11 c -8 8 c -11 3 c -4 0 c -11 -3 c
-8 -8 c -3 -11 c 0 -4 c 3 -11 c 8 -8 c 11 -4 c 0 -249 4440 7019 l 53 -38 4397 7129 l 0 57 c 79 0 4397 7129 l 79 -37 4397 7219 l
0 52 4397 7167 l 53 -38 4397 7280 l 0 57 c 79 0 4397 7280 l 4 -11 4397 7340 l 11 -8 c 19 -3 c 11 0 c 19 3 c 11 8 c 4 11 c 0 8 c
-4 11 c -11 8 c -19 4 c -11 0 c -19 -4 c -11 -8 c -4 -11 c 0 -8 c 3 -4 4469 7401 l 4 4 c -4 4 c -3 -4 c 0 -37 4397 7476 l 34 -4 c
-4 4 c -4 11 c 0 11 c 4 12 c 8 7 c 11 4 c 8 0 c 11 -4 c 7 -7 c 4 -12 c 0 -11 c -4 -11 c -3 -4 c -8 -4 c -4 0 4416 7510 l -8 4 c
-3 4 c -4 8 c 0 15 c 4 7 c 3 4 c 8 4 c 8 0 c 7 -4 c 11 -8 c 38 -37 c 0 53 c 12 -3 4423 7631 l 7 -8 c 4 -11 c 0 -4 c -4 -11 c -7 -8 c
-12 -4 c -3 0 c -12 4 c -7 8 c -4 11 c 0 4 c 4 11 c 7 8 c 15 3 c 19 0 c 19 -3 c 11 -8 c 4 -11 c 0 -8 c -4 -11 c -7 -4 c
0 -249 4495 1808 l 53 -38 4451 1918 l 0 57 c 80 0 4451 1918 l 80 -37 4451 2008 l 0 52 4451 1956 l 53 -38 4451 2069 l 0 57 c
80 0 4451 2069 l 4 -11 4451 2129 l 11 -8 c 19 -3 c 12 0 c 19 3 c 11 8 c 4 11 c 0 8 c -4 11 c -11 8 c -19 4 c -12 0 c -19 -4 c
-11 -8 c -4 -11 c 0 -8 c 4 -4 4523 2190 l 4 4 c -4 4 c -4 -4 c 11 -4 4478 2269 l 8 -7 c 3 -11 c 0 -4 c -3 -12 c -8 -7 c -11 -4 c
-4 0 c -11 4 c -8 7 c -4 12 c 0 4 c 4 11 c 8 7 c 15 4 c 19 0 c 19 -4 c 11 -7 c 4 -11 c 0 -8 c -4 -11 c -8 -4 c 0 -38 4451 2341 l
34 -4 c -3 4 c -4 12 c 0 11 c 4 11 c 7 8 c 11 4 c 8 0 c 11 -4 c 8 -8 c 4 -11 c 0 -11 c -4 -12 c -4 -4 c -7 -3 c 4 -11 4451 2390 l
8 -4 c 7 0 c 8 4 c 4 7 c 3 16 c 4 11 c 8 7 c 7 4 c 12 0 c 7 -4 c 4 -3 c 4 -12 c 0 -15 c -4 -11 c -4 -4 c -7 -4 c -12 0 c -7 4 c
-8 8 c -4 11 c -3 15 c -4 8 c -8 3 c -7 0 c -8 -3 c -4 -12 c 0 -15 c 0 -250 4544 1494 l 53 -38 4501 1604 l 0 57 c 79 0 4501 1604 l
79 -37 4501 1694 l 0 53 4501 1641 l 53 -38 4501 1755 l 0 57 c 79 0 4501 1755 l -4 8 4516 1804 l -11 11 c 79 0 c 4 -4 4572 1876 l
4 4 c -4 4 c -4 -4 c 0 41 4501 1914 l 30 -23 c 0 12 c 4 7 c 3 4 c 12 4 c 7 0 c 12 -4 c 7 -7 c 4 -12 c 0 -11 c -4 -11 c -4 -4 c
-7 -4 c 3 -11 4501 2004 l 12 -8 c 19 -3 c 11 0 c 19 3 c 11 8 c 4 11 c 0 8 c -4 11 c -11 8 c -19 4 c -11 0 c -19 -4 c -12 -8 c
-3 -11 c 0 -8 c 53 -38 4501 2095 l 0 57 c 79 0 4501 2095 l 0 -249 4849 2936 l 53 -38 4805 3046 l 0 57 c 80 0 4805 3046 l
80 -37 4805 3136 l 0 52 4805 3084 l 53 -38 4805 3197 l 0 57 c 80 0 4805 3197 l 0 42 4805 3242 l 31 -23 c 0 12 c 3 7 c 4 4 c 11 4 c
8 0 c 11 -4 c 8 -8 c 4 -11 c 0 -11 c -4 -12 c -4 -3 c -7 -4 c 4 -4 4877 3318 l 4 4 c -4 4 c -4 -4 c -8 -4 4817 3397 l -4 -11 c
0 -7 c 4 -12 c 11 -7 c 19 -4 c 19 0 c 15 4 c 8 7 c 4 12 c 0 3 c -4 12 c -8 7 c -11 4 c -4 0 c -11 -4 c -8 -7 c -3 -12 c 0 -3 c
3 -12 c 8 -7 c 11 -4 c 4 -12 4805 3443 l 8 -3 c 7 0 c 8 3 c 4 8 c 3 15 c 4 11 c 8 8 c 7 4 c 12 0 c 7 -4 c 4 -4 c 4 -11 c 0 -15 c
-4 -12 c -4 -3 c -7 -4 c -12 0 c -7 4 c -8 7 c -4 11 c -3 16 c -4 7 c -8 4 c -7 0 c -8 -4 c -4 -11 c 0 -15 c 4 -11 4805 3522 l
11 -8 c 19 -4 c 12 0 c 19 4 c 11 8 c 4 11 c 0 8 c -4 11 c -11 7 c -19 4 c -12 0 c -19 -4 c -11 -7 c -4 -11 c 0 -8 c
0 -249 5569 2373 l 53 -38 5526 2483 l 0 57 c 79 0 5526 2483 l 79 -38 5526 2574 l 0 53 5526 2521 l 53 -38 5526 2634 l 0 57 c
79 0 5526 2634 l 12 -4 5552 2721 l 7 -7 c 4 -12 c 0 -4 c -4 -11 c -7 -7 c -12 -4 c -4 0 c -11 4 c -7 7 c -4 11 c 0 4 c 4 12 c 7 7 c
15 4 c 19 0 c 19 -4 c 11 -7 c 4 -12 c 0 -7 c -4 -12 c -7 -3 c 3 -4 5598 2755 l 4 4 c -4 4 c -3 -4 c -4 0 5545 2789 l -8 4 c -3 4 c
-4 7 c 0 15 c 4 8 c 3 4 c 8 3 c 7 0 c 8 -3 c 11 -8 c 38 -38 c 0 53 c 4 -11 5526 2883 l 11 -7 c 19 -4 c 11 0 c 19 4 c 11 7 c 4 11 c
0 8 c -4 11 c -11 8 c -19 4 c -11 0 c -19 -4 c -11 -8 c -4 -11 c 0 -8 c 4 -11 5526 2959 l 11 -8 c 19 -4 c 11 0 c 19 4 c 11 8 c
4 11 c 0 8 c -4 11 c -11 8 c -19 3 c -11 0 c -19 -3 c -11 -8 c -4 -11 c 0 -8 c 0 -249 5670 1727 l 53 -38 5627 1837 l 0 57 c
79 0 5627 1837 l 79 -37 5627 1927 l 0 52 5627 1875 l 53 -38 5627 1988 l 0 57 c 79 0 5627 1988 l 12 -4 5653 2075 l 7 -8 c 4 -11 c
0 -4 c -4 -11 c -7 -8 c -12 -3 c -3 0 c -12 3 c -7 8 c -4 11 c 0 4 c 4 11 c 7 8 c 15 4 c 19 0 c 19 -4 c 11 -8 c 4 -11 c 0 -7 c
-4 -12 c -7 -4 c 3 -4 5699 2109 l 4 4 c -4 4 c -3 -4 c 12 -4 5653 2188 l 7 -7 c 4 -11 c 0 -4 c -4 -12 c -7 -7 c -12 -4 c -3 0 c
-12 4 c -7 7 c -4 12 c 0 4 c 4 11 c 7 7 c 15 4 c 19 0 c 19 -4 c 11 -7 c 4 -11 c 0 -8 c -4 -11 c -7 -4 c 79 -38 5627 2268 l
0 53 5627 2215 l -4 7 5642 2302 l -11 11 c 79 0 c 0 -249 5993 7019 l 53 -38 5949 7129 l 0 57 c 80 0 5949 7129 l 80 -37 5949 7219 l
0 52 5949 7167 l 0 -37 5949 7287 l 34 -4 c -3 4 c -4 11 c 0 11 c 4 12 c 7 7 c 12 4 c 7 0 c 11 -4 c 8 -7 c 4 -12 c 0 -11 c -4 -11 c
-4 -4 c -7 -4 c -3 0 5968 7321 l -8 4 c -4 4 c -4 8 c 0 15 c 4 7 c 4 4 c 8 4 c 7 0 c 8 -4 c 11 -8 c 38 -37 c 0 53 c 4 -4 6021 7401 l
4 4 c -4 4 c -4 -4 c 53 -38 5949 7469 l 0 57 c 80 0 5949 7469 l -4 8 5965 7518 l -12 11 c 80 0 c 53 -38 5949 7620 l 0 57 c
80 0 5949 7620 l 0 -249 6753 1684 l 53 -38 6709 1794 l 0 57 c 80 0 6709 1794 l 80 -38 6709 1885 l 0 53 6709 1832 l 0 -38 6709 1953 l
34 -4 c -3 4 c -4 11 c 0 12 c 4 11 c 7 8 c 12 3 c 7 0 c 11 -3 c 8 -8 c 4 -11 c 0 -12 c -4 -11 c -4 -4 c -7 -4 c 4 -11 6709 2002 l
8 -4 c 7 0 c 8 4 c 4 7 c 3 15 c 4 12 c 8 7 c 7 4 c 12 0 c 7 -4 c 4 -4 c 4 -11 c 0 -15 c -4 -11 c -4 -4 c -7 -4 c -12 0 c -7 4 c
-8 7 c -4 12 c -3 15 c -4 7 c -8 4 c -7 0 c -8 -4 c -4 -11 c 0 -15 c 4 -4 6781 2066 l 4 4 c -4 4 c -4 -4 c -4 7 6725 2108 l -12 12 c
80 0 c -3 0 6728 2176 l -8 4 c -4 3 c -4 8 c 0 15 c 4 8 c 4 3 c 8 4 c 7 0 c 8 -4 c 11 -7 c 38 -38 c 0 53 c 4 -11 6709 2270 l 12 -8 c
18 -3 c 12 0 c 19 3 c 11 8 c 4 11 c 0 8 c -4 11 c -11 8 c -19 4 c -12 0 c -18 -4 c -12 -8 c -4 -11 c 0 -8 c 0 -250 7154 1884 l
53 -38 7111 1993 l 0 57 c 79 0 7111 1993 l 79 -38 7111 2084 l 0 53 7111 2031 l -8 -4 7122 2156 l -3 -11 c 0 -8 c 3 -11 c 12 -8 c
19 -4 c 19 0 c 15 4 c 7 8 c 4 11 c 0 4 c -4 11 c -7 8 c -12 3 c -3 0 c -12 -3 c -7 -8 c -4 -11 c 0 -4 c 4 -11 c 7 -8 c 12 -4 c
-4 7 7126 2194 l -11 11 c 79 0 c 3 -3 7183 2265 l 4 3 c -4 4 c -3 -4 c -4 7 7126 2307 l -11 12 c 79 0 c -4 8 7126 2382 l -11 11 c
79 0 c 3 -11 7111 2469 l 12 -7 c 19 -4 c 11 0 c 19 4 c 11 7 c 4 11 c 0 8 c -4 11 c -11 8 c -19 4 c -11 0 c -19 -4 c -12 -8 c
-3 -11 c 0 -8 c 0 -249 7345 1712 l 53 -38 7302 1822 l 0 57 c 79 0 7302 1822 l 79 -37 7302 1912 l 0 52 7302 1860 l -7 -3 7313 1984 l
-4 -12 c 0 -7 c 4 -12 c 11 -7 c 19 -4 c 19 0 c 15 4 c 7 7 c 4 12 c 0 3 c -4 12 c -7 7 c -12 4 c -3 0 c -12 -4 c -7 -7 c -4 -12 c
0 -3 c 4 -12 c 7 -7 c 12 -4 c -4 0 7321 2015 l -8 3 c -3 4 c -4 8 c 0 15 c 4 7 c 3 4 c 8 4 c 7 0 c 8 -4 c 11 -7 c 38 -38 c 0 53 c
3 -4 7374 2094 l 4 4 c -4 4 c -3 -4 c 0 -37 7302 2169 l 34 -4 c -4 4 c -4 11 c 0 11 c 4 12 c 8 7 c 11 4 c 7 0 c 12 -4 c 7 -7 c
4 -12 c 0 -11 c -4 -11 c -3 -4 c -8 -4 c -4 0 7321 2204 l -8 3 c -3 4 c -4 8 c 0 15 c 4 7 c 3 4 c 8 4 c 7 0 c 8 -4 c 11 -7 c
38 -38 c 0 53 c 53 -38 7302 2313 l 0 57 c 79 0 7302 2313 l 0 -249 7592 2082 l 53 -38 7549 2192 l 0 57 c 79 0 7549 2192 l
79 -38 7549 2283 l 0 53 7549 2230 l -8 -4 7560 2355 l -3 -12 c 0 -7 c 3 -11 c 12 -8 c 19 -4 c 19 0 c 15 4 c 7 8 c 4 11 c 0 4 c
-4 11 c -7 8 c -12 3 c -3 0 c -12 -3 c -7 -8 c -4 -11 c 0 -4 c 4 -11 c 7 -8 c 12 -4 c 53 -38 7549 2419 l 0 57 c 79 0 7549 2419 l
4 -4 7620 2464 l 4 4 c -4 4 c -4 -4 c 0 42 7549 2502 l 30 -23 c 0 11 c 4 8 c 3 4 c 12 3 c 7 0 c 12 -3 c 7 -8 c 4 -11 c 0 -12 c
-4 -11 c -4 -4 c -7 -4 c 53 -38 7549 2608 l 0 57 c 79 0 7549 2608 l -8 -4 7560 2695 l -3 -11 c 0 -8 c 3 -11 c 12 -8 c 19 -4 c 19 0 c
15 4 c 7 8 c 4 11 c 0 4 c -4 11 c -7 8 c -12 3 c -3 0 c -12 -3 c -7 -8 c -4 -11 c 0 -4 c 4 -11 c 7 -8 c 12 -4 c 0 -249 7664 7019 l
53 -38 7620 7129 l 0 57 c 79 0 7620 7129 l 79 -37 7620 7219 l 0 52 7620 7167 l -7 -4 7631 7291 l -4 -11 c 0 -7 c 4 -12 c 11 -7 c
19 -4 c 19 0 c 15 4 c 8 7 c 3 12 c 0 3 c -3 12 c -8 7 c -11 4 c -4 0 c -11 -4 c -8 -7 c -4 -12 c 0 -3 c 4 -12 c 8 -7 c 11 -4 c
53 -37 7620 7355 l 0 56 c 79 0 7620 7355 l 4 -4 7692 7401 l 3 4 c -3 4 c -4 -4 c 4 -11 7620 7450 l 7 -4 c 8 0 c 7 4 c 4 7 c 4 15 c
4 12 c 7 7 c 8 4 c 11 0 c 8 -4 c 4 -4 c 3 -11 c 0 -15 c -3 -11 c -4 -4 c -8 -4 c -11 0 c -8 4 c -7 7 c -4 12 c -4 15 c -4 7 c -7 4 c
-8 0 c -7 -4 c -4 -11 c 0 -15 c -7 -4 7631 7556 l -4 -11 c 0 -8 c 4 -11 c 11 -8 c 19 -4 c 19 0 c 15 4 c 8 8 c 3 11 c 0 4 c -3 11 c
-8 8 c -11 4 c -4 0 c -11 -4 c -8 -8 c -4 -11 c 0 -4 c 4 -11 c 8 -8 c 11 -4 c 0 -38 7620 7628 l 34 -4 c -4 4 c -4 11 c 0 11 c 4 12 c
8 7 c 11 4 c 8 0 c 11 -4 c 8 -7 c 3 -12 c 0 -11 c -3 -11 c -4 -4 c -8 -4 c 0 -250 7763 1540 l 53 -38 7719 1649 l 0 57 c
80 0 7719 1649 l 80 -38 7719 1740 l 0 53 7719 1687 l -8 -4 7731 1812 l -4 -11 c 0 -8 c 4 -11 c 11 -8 c 19 -4 c 19 0 c 15 4 c 8 8 c
4 11 c 0 4 c -4 11 c -8 8 c -11 3 c -4 0 c -11 -3 c -8 -8 c -4 -11 c 0 -4 c 4 -11 c 8 -8 c 11 -4 c 0 -37 7719 1883 l 34 -4 c -4 4 c
-3 11 c 0 11 c 3 12 c 8 7 c 11 4 c 8 0 c 11 -4 c 8 -7 c 4 -12 c 0 -11 c -4 -11 c -4 -4 c -8 -4 c 4 -4 7791 1921 l 4 4 c -4 4 c
-4 -4 c 0 -38 7719 1997 l 34 -4 c -4 4 c -3 11 c 0 12 c 3 11 c 8 8 c 11 3 c 8 0 c 11 -3 c 8 -8 c 4 -11 c 0 -12 c -4 -11 c -4 -4 c
-8 -3 c 11 -4 7746 2076 l 8 -7 c 3 -11 c 0 -4 c -3 -12 c -8 -7 c -11 -4 c -4 0 c -11 4 c -8 7 c -4 12 c 0 4 c 4 11 c 8 7 c 15 4 c
19 0 c 18 -4 c 12 -7 c 4 -11 c 0 -8 c -4 -11 c -8 -4 c 0 -38 7719 2148 l 34 -4 c -4 4 c -3 12 c 0 11 c 3 11 c 8 8 c 11 4 c 8 0 c
11 -4 c 8 -8 c 4 -11 c 0 -11 c -4 -12 c -4 -4 c -8 -3 c 0 -250 7899 2875 l 53 -38 7856 2984 l 0 57 c 79 0 7856 2984 l
79 -38 7856 3075 l 0 53 7856 3022 l -7 -4 7867 3147 l -4 -11 c 0 -8 c 4 -11 c 11 -8 c 19 -4 c 19 0 c 15 4 c 7 8 c 4 11 c 0 4 c
-4 11 c -7 8 c -12 3 c -3 0 c -12 -3 c -7 -8 c -4 -11 c 0 -4 c 4 -11 c 7 -8 c 12 -4 c -7 -4 7867 3222 l -4 -11 c 0 -7 c 4 -12 c
11 -7 c 19 -4 c 19 0 c 15 4 c 7 7 c 4 12 c 0 3 c -4 12 c -7 7 c -12 4 c -3 0 c -12 -4 c -7 -7 c -4 -12 c 0 -3 c 4 -12 c 7 -7 c
12 -4 c 3 -4 7928 3256 l 4 4 c -4 4 c -3 -4 c -7 -4 7867 3336 l -4 -11 c 0 -8 c 4 -11 c 11 -8 c 19 -4 c 19 0 c 15 4 c 7 8 c 4 11 c
0 4 c -4 11 c -7 8 c -12 3 c -3 0 c -12 -3 c -7 -8 c -4 -11 c 0 -4 c 4 -11 c 7 -8 c 12 -4 c 4 -12 7856 3385 l 11 -7 c 19 -4 c 11 0 c
19 4 c 11 7 c 4 12 c 0 7 c -4 12 c -11 7 c -19 4 c -11 0 c -19 -4 c -11 -7 c -4 -12 c 0 -7 c -4 8 7871 3449 l -11 11 c 79 0 c
0 -250 8099 1640 l 53 -38 8056 1750 l 0 57 c 79 0 8056 1750 l 79 -37 8056 1840 l 0 53 8056 1787 l -8 -4 8067 1912 l -3 -11 c 0 -8 c
3 -11 c 12 -7 c 19 -4 c 19 0 c 15 4 c 7 7 c 4 11 c 0 4 c -4 12 c -7 7 c -12 4 c -3 0 c -12 -4 c -7 -7 c -4 -12 c 0 -4 c 4 -11 c
7 -7 c 12 -4 c 3 -12 8056 1958 l 8 -4 c 8 0 c 7 4 c 4 8 c 4 15 c 3 11 c 8 8 c 8 4 c 11 0 c 7 -4 c 4 -4 c 4 -11 c 0 -15 c -4 -12 c
-4 -4 c -7 -3 c -11 0 c -8 3 c -8 8 c -3 11 c -4 15 c -4 8 c -7 4 c -8 0 c -8 -4 c -3 -11 c 0 -15 c 4 -4 8127 2022 l 4 4 c -4 4 c
-4 -4 c 3 -12 8056 2075 l 12 -7 c 19 -4 c 11 0 c 19 4 c 11 7 c 4 12 c 0 7 c -4 12 c -11 7 c -19 4 c -11 0 c -19 -4 c -12 -7 c
-3 -12 c 0 -7 c 0 -38 8056 2173 l 34 -4 c -4 4 c -4 11 c 0 12 c 4 11 c 7 8 c 12 3 c 7 0 c 12 -3 c 7 -8 c 4 -11 c 0 -12 c -4 -11 c
-4 -4 c -7 -3 c 3 -11 8056 2222 l 8 -4 c 8 0 c 7 4 c 4 7 c 4 15 c 3 12 c 8 7 c 8 4 c 11 0 c 7 -4 c 4 -3 c 4 -12 c 0 -15 c -4 -11 c
-4 -4 c -7 -4 c -11 0 c -8 4 c -8 8 c -3 11 c -4 15 c -4 8 c -7 3 c -8 0 c -8 -3 c -3 -12 c 0 -15 c 0 -250 8809 1351 l
53 -38 8765 1461 l 0 56 c 80 0 8765 1461 l 80 -38 8765 1551 l 0 53 8765 1498 l 80 -38 8765 1627 l 0 53 8765 1574 l 0 42 8765 1657 l
31 -23 c 0 11 c 4 8 c 3 4 c 12 3 c 7 0 c 12 -3 c 7 -8 c 4 -11 c 0 -12 c -4 -11 c -4 -4 c -7 -4 c 4 -4 8837 1733 l 4 4 c -4 3 c
-4 -3 c -3 0 8784 1767 l -8 3 c -4 4 c -4 8 c 0 15 c 4 7 c 4 4 c 8 4 c 7 0 c 8 -4 c 11 -7 c 38 -38 c 0 53 c 53 -38 8765 1876 l
0 57 c 80 0 8765 1876 l -4 8 8781 1925 l -12 11 c 80 0 c 0 -250 9103 1387 l 53 -38 9059 1496 l 0 57 c 79 0 9059 1496 l
79 -38 9059 1587 l 0 53 9059 1534 l 79 -38 9059 1663 l 0 53 9059 1610 l 0 -38 9059 1731 l 34 -4 c -4 4 c -4 11 c 0 11 c 4 12 c 8 7 c
11 4 c 8 0 c 11 -4 c 8 -7 c 3 -12 c 0 -11 c -3 -11 c -4 -4 c -8 -4 c 4 -3 9131 1768 l 3 3 c -3 4 c -4 -4 c 0 42 9059 1806 l 30 -23 c
0 11 c 4 8 c 4 4 c 11 3 c 8 0 c 11 -3 c 8 -8 c 3 -11 c 0 -12 c -3 -11 c -4 -4 c -8 -3 c -4 7 9074 1886 l -11 11 c 79 0 c
0 42 9059 1957 l 30 -23 c 0 12 c 4 7 c 4 4 c 11 4 c 8 0 c 11 -4 c 8 -8 c 3 -11 c 0 -11 c -3 -12 c -4 -3 c -8 -4 c 0 -249 9170 1389 l
53 -38 9126 1499 l 0 57 c 79 0 9126 1499 l 79 -37 9126 1589 l 0 52 9126 1537 l 79 -38 9126 1665 l 0 53 9126 1612 l 0 -38 9126 1733 l
34 -4 c -4 4 c -4 12 c 0 11 c 4 11 c 8 8 c 11 4 c 8 0 c 11 -4 c 8 -8 c 3 -11 c 0 -11 c -3 -12 c -4 -4 c -8 -3 c 4 -4 9198 1771 l
3 4 c -3 4 c -4 -4 c 79 -38 9126 1854 l 0 53 9126 1801 l 12 -4 9152 1926 l 7 -8 c 4 -11 c 0 -4 c -4 -11 c -7 -8 c -12 -3 c -3 0 c
-12 3 c -7 8 c -4 11 c 0 4 c 4 11 c 7 8 c 15 4 c 19 0 c 19 -4 c 12 -8 c 3 -11 c 0 -7 c -3 -12 c -8 -4 c 53 -38 9126 1990 l 0 57 c
79 0 9126 1990 l 0 -249 9365 1345 l 53 -38 9321 1455 l 0 57 c 80 0 9321 1455 l 80 -38 9321 1546 l 0 53 9321 1493 l
80 -37 9321 1621 l 0 53 9321 1568 l 80 -38 9321 1697 l 0 53 9321 1644 l 4 -4 9393 1727 l 4 4 c -4 4 c -4 -4 c -3 7 9336 1769 l
-12 12 c 80 0 c 11 -4 9348 1882 l 8 -7 c 3 -12 c 0 -3 c -3 -12 c -8 -7 c -11 -4 c -4 0 c -11 4 c -8 7 c -4 12 c 0 3 c 4 12 c 8 7 c
15 4 c 19 0 c 19 -4 c 11 -7 c 4 -12 c 0 -7 c -4 -11 c -8 -4 c -3 7 9336 1920 l -12 12 c 80 0 c 0 -250 9520 6908 l 53 -38 9476 7018 l
0 56 c 80 0 9476 7018 l 80 -37 9476 7108 l 0 53 9476 7055 l 80 -38 9476 7184 l 0 53 9476 7131 l 4 -11 9476 7225 l 8 -4 c 7 0 c 8 4 c
4 8 c 3 15 c 4 11 c 8 8 c 7 3 c 12 0 c 7 -3 c 4 -4 c 4 -11 c 0 -16 c -4 -11 c -4 -4 c -7 -3 c -12 0 c -7 3 c -8 8 c -4 11 c -3 15 c
-4 8 c -8 4 c -7 0 c -8 -4 c -4 -11 c 0 -16 c 4 -4 9548 7290 l 4 4 c -4 3 c -4 -3 c -4 0 9495 7324 l -7 4 c -4 3 c -4 8 c 0 15 c
4 8 c 4 3 c 7 4 c 8 0 c 8 -4 c 11 -7 c 38 -38 c 0 53 c 11 -4 9503 7445 l 8 -8 c 3 -11 c 0 -4 c -3 -11 c -8 -8 c -11 -3 c -4 0 c
-11 3 c -8 8 c -4 11 c 0 4 c 4 11 c 8 8 c 15 4 c 19 0 c 19 -4 c 11 -8 c 4 -11 c 0 -8 c -4 -11 c -8 -4 c 53 -38 9476 7509 l 0 57 c
80 0 9476 7509 l
showpage PGPLOT restore
 
%%Trailer
%%DocumentFonts: 
%%Pages: 1
%%EOF
