%!PS-Adobe-3.0 EPSF-3.0
%%For: tom
%%Title: PGPLOT PostScript plot
%%Creator: PGPLOT
%%CreationDate:  9-Nov-1994 13:38
%%BoundingBox: 25 18 587 774
%%DocumentFonts: (atend)
%%LanguageLevel: 1
%%Orientation: Landscape
%%Pages: (atend)
%%EndComments
%%BeginProlog
/l {moveto rlineto currentpoint stroke moveto} bind def
/c {rlineto currentpoint stroke moveto} bind def
/d {moveto 0 0 rlineto currentpoint stroke moveto} bind def
/SLW {5 mul setlinewidth} bind def
/SCF /pop load def
/BP {newpath moveto} bind def
/LP /rlineto load def
/EP {rlineto closepath eofill} bind def
/MB {gsave translate MFAC dup scale 1 setlinewidth 2 setlinecap 0 setlinejoin newpath} bind def
/ME /grestore load def
/C {0 360 arc stroke} bind def
/FC {0 360 arc fill} bind def
%%EndProlog
 
%%Page: 1 1
%%BeginPageSetup
/PGPLOT save def
0.072 0.072 scale
8150 250 translate 90 rotate
1 setlinejoin 1 setlinecap 1 SLW 1 SCF
%%EndPageSetup
0.00 setgray 1 SLW 8939 0 780 780 l 0 6239 c -8939 0 c 0 -6239 c 0 -45 1116 780 l 0 -45 1554 780 l 0 -45 1991 780 l 0 -45 2428 780 l
0 -90 2865 780 l 0 -45 3302 780 l 0 -45 3739 780 l 0 -45 4176 780 l 0 -45 4613 780 l 0 -90 5051 780 l 0 -45 5488 780 l
0 -45 5925 780 l 0 -45 6362 780 l 0 -45 6799 780 l 0 -90 7236 780 l 0 -45 7673 780 l 0 -45 8110 780 l 0 -45 8548 780 l
0 -45 8985 780 l 0 -90 9422 780 l 0 -45 1116 7064 l 0 -45 1554 7064 l 0 -45 1991 7064 l 0 -45 2428 7064 l 0 -90 2865 7109 l
0 -45 3302 7064 l 0 -45 3739 7064 l 0 -45 4176 7064 l 0 -45 4613 7064 l 0 -90 5051 7109 l 0 -45 5488 7064 l 0 -45 5925 7064 l
0 -45 6362 7064 l 0 -45 6799 7064 l 0 -90 7236 7109 l 0 -45 7673 7064 l 0 -45 8110 7064 l 0 -45 8548 7064 l 0 -45 8985 7064 l
0 -90 9422 7109 l -60 0 2775 672 l -6 -54 c 6 6 c 18 6 c 18 0 c 18 -6 c 12 -12 c 6 -18 c 0 -12 c -6 -18 c -12 -12 c -18 -6 c -18 0 c
-18 6 c -6 6 c -6 12 c -18 -6 2859 672 l -12 -18 c -6 -30 c 0 -18 c 6 -30 c 12 -18 c 18 -6 c 12 0 c 18 6 c 12 18 c 6 30 c 0 18 c
-6 30 c -12 18 c -18 6 c -12 0 c -18 -6 2979 672 l -12 -18 c -6 -30 c 0 -18 c 6 -30 c 12 -18 c 18 -6 c 12 0 c 18 6 c 12 18 c 6 30 c
0 18 c -6 30 c -12 18 c -18 6 c -12 0 c 12 6 4847 648 l 18 18 c 0 -126 c -18 -6 4985 672 l -12 -18 c -6 -30 c 0 -18 c 6 -30 c
12 -18 c 18 -6 c 12 0 c 18 6 c 12 18 c 6 30 c 0 18 c -6 30 c -12 18 c -18 6 c -12 0 c -18 -6 5105 672 l -12 -18 c -6 -30 c 0 -18 c
6 -30 c 12 -18 c 18 -6 c 12 0 c 18 6 c 12 18 c 6 30 c 0 18 c -6 30 c -12 18 c -18 6 c -12 0 c -18 -6 5225 672 l -12 -18 c -6 -30 c
0 -18 c 6 -30 c 12 -18 c 18 -6 c 12 0 c 18 6 c 12 18 c 6 30 c 0 18 c -6 30 c -12 18 c -18 6 c -12 0 c 12 6 7032 648 l 18 18 c
0 -126 c -60 0 7206 672 l -6 -54 c 6 6 c 18 6 c 18 0 c 18 -6 c 12 -12 c 6 -18 c 0 -12 c -6 -18 c -12 -12 c -18 -6 c -18 0 c -18 6 c
-6 6 c -6 12 c -18 -6 7290 672 l -12 -18 c -6 -30 c 0 -18 c 6 -30 c 12 -18 c 18 -6 c 12 0 c 18 6 c 12 18 c 6 30 c 0 18 c -6 30 c
-12 18 c -18 6 c -12 0 c -18 -6 7410 672 l -12 -18 c -6 -30 c 0 -18 c 6 -30 c 12 -18 c 18 -6 c 12 0 c 18 6 c 12 18 c 6 30 c 0 18 c
-6 30 c -12 18 c -18 6 c -12 0 c 0 6 9206 642 l 6 12 c 6 6 c 12 6 c 24 0 c 12 -6 c 6 -6 c 6 -12 c 0 -12 c -6 -12 c -12 -18 c
-60 -60 c 84 0 c -18 -6 9356 672 l -12 -18 c -6 -30 c 0 -18 c 6 -30 c 12 -18 c 18 -6 c 12 0 c 18 6 c 12 18 c 6 30 c 0 18 c -6 30 c
-12 18 c -18 6 c -12 0 c -18 -6 9476 672 l -12 -18 c -6 -30 c 0 -18 c 6 -30 c 12 -18 c 18 -6 c 12 0 c 18 6 c 12 18 c 6 30 c 0 18 c
-6 30 c -12 18 c -18 6 c -12 0 c -18 -6 9596 672 l -12 -18 c -6 -30 c 0 -18 c 6 -30 c 12 -18 c 18 -6 c 12 0 c 18 6 c 12 18 c 6 30 c
0 18 c -6 30 c -12 18 c -18 6 c -12 0 c -90 0 780 780 l -45 0 780 1715 l -90 0 780 2651 l -45 0 780 3586 l -90 0 780 4522 l
-45 0 780 5457 l -90 0 780 6392 l -90 0 9809 780 l -45 0 9764 1715 l -90 0 9809 2651 l -45 0 9764 3586 l -90 0 9809 4522 l
-45 0 9764 5457 l -90 0 9809 6392 l 6 -18 517 774 l 18 -12 c 30 -6 c 18 0 c 30 6 c 18 12 c 6 18 c 0 12 c -6 18 c -18 12 c -30 6 c
-18 0 c -30 -6 c -18 -12 c -6 -18 c 0 -12 c -6 0 547 2393 l -12 6 c -6 6 c -6 12 c 0 24 c 6 12 c 6 6 c 12 6 c 12 0 c 12 -6 c
18 -12 c 60 -60 c 0 84 c 84 84 547 2513 l 84 -84 547 2597 l -6 12 541 2657 l -18 18 c 126 0 c 6 -18 517 2795 l 18 -12 c 30 -6 c
18 0 c 30 6 c 18 12 c 6 18 c 0 12 c -6 18 c -18 12 c -30 6 c -18 0 c -30 -6 c -18 -12 c -6 -18 c 0 -12 c 63 -45 453 2919 l 0 68 c
94 0 453 2919 l 84 -60 517 4318 l 0 90 c 126 0 517 4318 l 84 84 547 4384 l 84 -84 547 4468 l -6 12 541 4528 l -18 18 c 126 0 c
6 -18 517 4665 l 18 -12 c 30 -6 c 18 0 c 30 6 c 18 12 c 6 18 c 0 12 c -6 18 c -18 12 c -30 6 c -18 0 c -30 -6 c -18 -12 c -6 -18 c
0 -12 c 63 -45 453 4790 l 0 67 c 94 0 453 4790 l -12 -6 535 6206 l -6 -18 c 0 -12 c 6 -18 c 18 -12 c 30 -6 c 30 0 c 24 6 c 12 12 c
6 18 c 0 6 c -6 18 c -12 12 c -18 6 c -6 0 c -18 -6 c -12 -12 c -6 -18 c 0 -6 c 6 -18 c 12 -12 c 18 -6 c 84 84 547 6254 l
84 -84 547 6338 l -6 12 541 6398 l -18 18 c 126 0 c 6 -18 517 6536 l 18 -12 c 30 -6 c 18 0 c 30 6 c 18 12 c 6 18 c 0 12 c -6 18 c
-18 12 c -30 6 c -18 0 c -30 -6 c -18 -12 c -6 -18 c 0 -12 c 63 -45 453 6661 l 0 67 c 94 0 453 6661 l
4 0 780 789 l 5 0 c 4 1 c 4 0 c 5 -1 c 4 0 c 4 -1 c 5 1 c 4 0 c 5 0 c 4 0 c 4 0 c 5 -1 c 4 1 c 4 -1 c 5 1 c 4 0 c 5 0 c 4 0 c 4 0 c
5 -1 c 4 0 c 4 1 c 5 -1 c 4 1 c 5 0 c 4 1 c 4 3 c 5 3 c 4 0 c 4 -1 c 5 -3 c 4 -3 c 5 0 c 4 0 c 4 -1 c 5 1 c 4 0 c 4 -1 c 5 1 c 4 0 c
4 0 c 5 0 c 4 0 c 5 0 c 4 0 c 4 0 c 5 0 c 4 2 c 4 7 c 5 16 c 4 36 c 5 88 c 4 37 c 4 -12 c 5 -53 c 4 -99 c 4 -18 c 5 1 c 4 4 c 5 1 c
4 5 c 4 3 c 5 -2 c 4 -2 c 4 -9 c 5 -4 c 4 0 c 5 -1 c 4 0 c 4 0 c 5 -1 c 4 0 c 4 0 c 5 1 c 4 0 c 4 0 c 5 0 c 4 0 c 5 2 c 4 4 c 4 8 c
5 23 c 4 -46 c 5 53 1151 780 l 4 -28 c 5 -15 c 4 -1 c 4 0 c 5 0 c 4 1 c 4 2 c 5 0 c 4 0 c 5 -2 c 4 0 c 4 0 c 5 0 c 4 0 c 4 1 c
5 -1 c 4 0 c 5 1 c 4 1 c 4 0 c 5 1 c 4 0 c 4 1 c 5 2 c 4 -1 c 4 -1 c 5 -2 c 4 1 c 5 2 c 4 1 c 4 1 c 5 -1 c 4 -1 c 4 -2 c 5 -1 c
4 -1 c 5 1 c 4 2 c 4 3 c 5 6 c 4 6 c 4 16 c 5 1 c 4 -4 c 5 -11 c 4 -18 c 4 -4 c 5 1 c 4 2 c 4 1 c 5 0 c 4 1 c 5 1 c 4 -1 c 4 -1 c
5 -3 c 4 0 c 4 2 c 5 1 c 4 -1 c 4 -1 c 5 -2 c 4 0 c 5 0 c 4 0 c 4 1 c 5 0 c 4 0 c 4 0 c 5 -1 c 4 0 c 5 -1 c 4 1 c 4 -1 c 5 0 c 4 0 c
4 1 c 5 0 c 4 2 c 5 2 c 4 0 c 4 -1 c 5 -1 c 4 -1 c 4 0 c 5 0 c 4 1 c 4 0 c 5 0 c 4 0 c 5 -1 c 4 -1 c 4 0 c 5 0 c 4 0 c 4 1 c 5 2 c
4 11 c 5 26 c 4 83 c 4 32 c 5 -7 c 4 -43 c 4 -83 c 5 -12 c 4 1 c 5 -2 c 4 -4 c 4 -5 c 5 0 c 4 1 c 4 0 c 5 3 c 4 7 c 5 5 c 4 -1 c
4 -4 c 5 -7 c 4 3 c 4 1 c 5 -1 c 4 -2 c 4 -3 c 5 -1 c 4 0 c 5 0 c 4 -1 c 4 1 c 5 0 c 4 0 c 4 0 c 5 0 c 4 1 c 5 1 c 4 0 c 4 0 c
5 -1 c 4 0 c 4 -1 c 5 1 c 4 0 c 5 1 c 4 0 c 4 0 c 5 0 c 4 0 c 4 0 c 5 1 c 4 0 c 5 1 c 4 0 c 4 1 c 5 3 c 4 6 c 4 29 c 5 117 c 4 398 c
4 1075 c 5 374 c 4 -125 c 5 -618 c 4 -1051 c 4 -174 c 5 -12 c 4 3 c 4 40 c 5 62 c 4 1 c 5 -20 c 4 -63 c 4 -43 c 5 -3 c 4 1 c 4 2 c
5 9 c 4 31 c 5 38 c 4 -2 c 4 -12 c 5 -44 c 4 -24 c 4 -2 c 5 1 c 4 1 c 5 1 c 4 4 c 4 0 c 5 0 c 4 -1 c 4 2 c 5 17 c 4 68 c 4 46 c
5 4 c 4 -28 c 5 -78 c 4 -30 c 4 -3 c 5 -3 c 4 -2 c 4 0 c 5 1 c 4 -1 c 5 0 c 4 3 c 4 9 c 5 16 c 4 7 c 4 7 c 5 17 c 4 12 c 5 -1 c
4 -11 c 4 -35 c 5 -20 c 4 -3 c 4 0 c 5 0 c 4 0 c 5 1 c 4 1 c 4 0 c 5 0 c 4 -1 c 4 0 c 5 1 c 4 0 c 4 1 c 5 0 c 4 0 c 5 0 c 4 -1 c
4 -1 c 5 1 c 4 2 c 4 2 c 5 2 c 4 0 c 5 0 c 4 1 c 4 13 c 5 51 c 4 51 c 4 5 c 5 -12 c 4 -58 c 5 -21 c 4 40 c 4 195 c 5 813 c 4 1938 c
4 987 c 5 -155 c 4 -1100 c 4 -1957 c 5 -622 c 4 -92 c 5 -36 c 4 -13 c 4 -7 c 5 10 c 4 68 c 4 279 c 5 428 c 4 98 c 5 -93 c 4 -378 c
4 -346 c 5 -72 c 4 -8 c 4 7 c 5 17 c 4 3 c 5 -3 c 4 -16 c 4 -17 c 5 -3 c 4 -1 c 4 0 c 5 4 c 4 11 c 5 8 c 4 -2 c 4 -1 c 5 -15 c
4 -3 c 4 -2 c 5 -1 c 4 -1 c 4 0 c 5 1 c 4 -1 c 5 1 c 4 -1 c 4 0 c 5 0 c 4 1 c 4 1 c 5 -1 c 4 0 c 5 0 c 4 2 c 4 0 c 5 0 c 4 -2 c
4 0 c 5 5 c 4 11 c 5 4 c 4 -1 c 4 -5 c 5 1 c 4 24 c 4 4 c 5 -1 c 4 -19 c 5 -18 c 4 -2 c 4 -1 c 5 -2 c 4 -1 c 4 0 c 5 0 c 4 -1 c
4 1 c 5 2 c 4 0 c 5 0 c 4 -1 c 4 -2 c 5 0 c 4 1 c 4 0 c 5 0 c 4 1 c 5 -1 c 4 1 c 4 5 c 5 15 c 4 5 c 4 -1 c 5 -8 c 4 -15 c 5 -3 c
4 1 c 4 1 c 5 1 c 4 1 c 4 0 c 5 -1 c 4 -1 c 5 0 c 4 3 c 4 2 c 5 0 c 4 -2 c 4 -3 c 5 0 c 4 0 c 4 1 c 5 0 c 4 -1 c 5 0 c 4 1 c 4 1 c
5 11 c 4 79 c 4 197 c 5 62 c 4 -14 c 5 -119 c 4 -179 c 4 -26 c 5 20 c 4 52 c 4 9 c 5 -6 c 4 -33 c 5 -47 c 4 -4 c 4 7 c 5 5 c 4 2 c
4 -4 c 5 -10 c 4 -4 c 4 -1 c 5 0 c 4 1 c 5 -1 c 4 0 c 4 0 c 5 1 c 4 2 c 4 0 c 5 -1 c 4 -1 c 5 -1 c 4 1 c 4 1 c 5 1 c 4 1 c 4 4 c
5 27 c 4 136 c 5 199 c 4 53 c 4 -39 c 5 -169 c 4 -166 c 4 -37 c 5 -4 c 4 -2 c 5 3 c 4 35 c 4 138 c 5 93 c 4 3 c 4 -51 c 5 -148 c
4 -71 c 4 -4 c 5 -3 c 4 0 c 5 1 c 4 0 c 4 0 c 5 -1 c 4 0 c 4 -1 c 5 -1 c 4 0 c 5 0 c 4 0 c 4 0 c 5 1 c 4 3 c 4 2 c 5 2 c 4 0 c
5 -3 c 4 -2 c 4 -3 c 5 0 c 4 0 c 4 0 c 5 1 c 4 1 c 5 1 c 4 0 c 4 -1 c 5 0 c 4 -1 c 4 0 c 5 0 c 4 -1 c 4 0 c 5 0 c 4 0 c 5 1 c 4 2 c
4 7 c 5 2 c 4 0 c 4 -3 c 5 -4 c 4 0 c 5 2 c 4 1 c 4 0 c 5 -2 c 4 -3 c 4 -2 c 5 0 c 4 1 c 5 0 c 4 -1 c 4 1 c 5 0 c 4 2 c 4 10 c 5 6 c
4 0 c 5 -3 c 4 -11 c 4 -5 c 5 0 c 4 0 c 4 4 c 5 17 c 4 6 c 4 2 c 5 -5 c 4 -14 c 5 4 c 4 3 c 4 -2 c 5 -5 c 4 -4 c 4 2 c 5 3 c 4 5 c
5 17 c 4 149 c 4 334 c 5 162 c 4 -6 c 4 -208 c 5 -328 c 4 -99 c 5 -17 c 4 -7 c 4 -7 c 5 -3 c 4 2 c 4 4 c 5 4 c 4 0 c 5 -2 c 4 -5 c
4 -2 c 5 -2 c 4 0 c 4 0 c 5 0 c 4 2 c 4 2 c 5 4 c 4 25 c 5 22 c 4 39 c 4 28 c 5 -23 c 4 -16 c 4 -46 c 5 -22 c 4 3 c 5 7 c 4 34 c
4 195 c 5 403 c 4 235 c 4 308 c 5 -91 c 4 -342 c 5 -247 c 4 -344 c 4 -133 c 5 -24 c 4 -5 c 4 -3 c 5 0 c 4 3 c 4 0 c 5 -3 c 4 -5 c
5 -4 c 4 -1 c 4 0 c 5 0 c 4 3 c 4 2 c 5 0 c 4 3 c 5 42 c 4 69 c 4 16 c 5 -7 c 4 -64 c 4 -58 c 5 -5 c 4 0 c 5 6 c 4 4 c 4 2 c 5 0 c
4 -8 c 4 -2 c 5 -3 c 4 0 c 5 4 c 4 9 c 4 2 c 5 0 c 4 -5 c 4 -6 c 5 -1 c 4 1 c 4 3 c 5 11 c 4 4 c 5 1 c 4 -6 c 4 -11 c 5 28 c 4 75 c
4 22 c 5 1 c 4 2 c 5 116 c 4 121 c 4 23 c 5 -51 c 4 -207 c 4 -107 c 5 -19 c 4 -6 c 5 -3 c 4 -1 c 4 -1 c 5 -1 c 4 0 c 4 2 c 5 0 c
4 1 c 5 2 c 4 1 c 4 0 c 5 0 c 4 -2 c 4 -1 c 5 -1 c 4 0 c 4 1 c 5 0 c 4 0 c 5 -1 c 4 0 c 4 0 c 5 0 c 4 0 c 4 1 c 5 1 c 4 8 c 5 8 c
4 47 c 4 188 c 5 93 c 4 2 c 4 -77 c 5 -206 c 4 -61 c 5 -2 c 4 0 c 4 1 c 5 2 c 4 -1 c 4 -1 c 5 -1 c 4 0 c 5 0 c 4 0 c 4 -2 c 5 -1 c
4 0 c 4 1 c 5 1 c 4 3 c 4 1 c 5 -1 c 4 -1 c 5 -2 c 4 1 c 4 0 c 5 4 c 4 -1 c 4 1 c 5 -2 c 4 -3 c 5 -1 c 4 0 c 4 3 c 5 1 c 4 1 c 4 1 c
5 6 c 4 3 c 5 1 c 4 0 c 4 -9 c 5 -2 c 4 3 c 4 11 c 5 6 c 4 -1 c 5 -1 c 4 -6 c 4 11 c 5 43 c 4 518 c 4 1192 c 5 260 c 4 -23 c
4 -732 c 5 -1093 c 4 -167 c 5 -7 c 4 22 c 4 9 c 5 1 c 4 -11 c 4 -24 c 5 10 c 4 86 c 5 46 c 4 1 c 4 -23 c 5 -94 c 4 -35 c 4 -2 c
5 0 c 4 0 c 5 0 c 4 0 c 4 1 c 5 5 c 4 19 c 4 12 c 5 0 c 4 -5 c 4 -19 c 5 -9 c 4 -2 c 5 2 c 4 2 c 4 2 c 5 0 c 4 1 c 4 1 c 5 3 c 4 7 c
5 2 c 4 4 c 4 4 c 5 8 c 4 14 c 4 32 c 5 48 c 4 77 c 5 790 c 4 5018 c 4 21 c 5 -4 c 4 -18 c 4 -983 c 5 -4457 c 4 -463 c 5 -38 c
4 -15 c 4 -11 c 5 -16 c 4 -9 c 4 -5 c 5 -2 c 4 0 c 4 1 c 5 -3 c 4 -2 c 5 -3 c 4 -4 c 4 -2 c 5 0 c 4 3 c 4 6 c 5 0 c 4 2 c 5 26 c
4 44 c 4 5 c 5 -6 c 4 -38 c 4 -42 c 5 -5 c 4 0 c 5 -1 c 4 -1 c 4 0 c 5 -1 c 4 0 c 4 0 c 5 3 c 4 2 c 5 0 c 4 0 c 4 -4 c 5 -1 c 4 -1 c
4 0 c 5 0 c 4 1 c 4 0 c 5 0 c 4 -1 c 5 0 c 4 0 c 4 0 c 5 1 c 4 0 c 4 2 c 5 2 c 4 0 c 5 -1 c 4 -2 c 4 -3 c 5 0 c 4 0 c 4 0 c 5 0 c
4 1 c 5 0 c 4 0 c 4 1 c 5 5 c 4 10 c 4 5 c 5 16 c 4 75 c 5 43 c 4 2 c 4 -19 c 5 -92 c 4 -37 c 4 4 c 5 5 c 4 1 c 4 -5 c 5 -7 c 4 -2 c
5 0 c 4 18 c 4 127 c 5 119 c 4 33 c 4 -31 c 5 -145 c 4 -114 c 5 -9 c 4 -1 c 4 -1 c 5 -1 c 4 0 c 4 0 c 5 -1 c 4 -1 c 5 0 c 4 1 c
4 1 c 5 2 c 4 1 c 4 0 c 5 -2 c 4 -1 c 5 -1 c 4 0 c 4 -1 c 5 0 c 4 1 c 4 0 c 5 -1 c 4 0 c 4 1 c 5 0 c 4 1 c 5 1 c 4 0 c 4 -1 c 5 0 c
4 0 c 4 0 c 5 -1 c 4 0 c 5 2 c 4 3 c 4 -18 c 5 26 c 4 -2 c 4 -5 c 5 -5 c 4 0 c 5 0 c 4 0 c 4 -1 c 5 0 c 4 0 c 4 -1 c 5 0 c 4 1 c
4 1 c 5 0 c 4 0 c 5 0 c 4 0 c 4 0 c 5 -1 c 4 1 c 4 1 c 5 3 c 4 0 c 5 0 c 4 -2 c 4 -3 c 5 -1 c 4 1 c 4 0 c 5 0 c 4 3 c 5 30 c 4 50 c
4 14 c 5 -3 c 4 -33 c 4 -46 c 5 -4 c 4 23 c 5 16 c 4 3 c 4 -6 c 5 -27 c 4 -12 c 4 -1 c 5 8 c 4 8 c 4 0 c 5 -3 c 4 -8 c 5 -5 c 4 -1 c
4 1 c 5 0 c 4 4 c 4 1 c 5 0 c 4 -3 c 5 -3 c 4 2 c 4 0 c 5 0 c 4 -3 c 4 -5 c 5 0 c 4 1 c 5 2 c 4 2 c 4 0 c 5 0 c 4 -3 c 4 0 c 5 0 c
4 0 c 5 0 c 4 1 c 4 0 c 5 0 c 4 -1 c 4 0 c 5 0 c 4 0 c 4 -1 c 5 1 c 4 1 c 5 1 c 4 -1 c 4 -1 c 5 -1 c 4 1 c 4 2 c 5 2 c 4 0 c 5 -1 c
4 -1 c 4 -2 c 5 -1 c 4 2 c 4 2 c 5 0 c 4 4 c 5 9 c 4 66 c 4 152 c 5 69 c 4 -8 c 4 -74 c 5 -165 c 4 -48 c 5 0 c 4 1 c 4 5 c 5 43 c
4 63 c 4 12 c 5 0 c 4 -56 c 4 -64 c 5 -9 c 4 0 c 5 0 c 4 0 c 4 -1 c 5 1 c 4 1 c 4 1 c 5 0 c 4 1 c 5 1 c 4 1 c 4 2 c 5 1 c 4 -1 c
4 1 c 5 2 c 4 0 c 5 0 c 4 2 c 4 4 c 5 6 c 4 7 c 4 8 c 5 13 c 4 12 c 4 4 c 5 13 c 4 15 c 5 37 c 4 175 c 4 1942 c 5 -2266 c 4 6027 c
4 23 c 5 -8 c 4 -546 c 5 -4804 c 4 -531 c 4 -39 c 5 -21 c 4 -19 c 4 -14 c 5 -11 c 4 -6 c 5 -7 c 4 -44 c 5 36 5706 780 l 4 1 c 4 3 c
5 -5 c 4 -4 c 5 -3 c 4 1 c 4 -1 c 5 -1 c 4 -2 c 4 0 c 5 0 c 4 2 c 4 -1 c 5 -2 c 4 -2 c 5 -4 c 4 0 c 4 0 c 5 0 c 4 0 c 4 0 c 5 0 c
4 0 c 5 0 c 4 0 c 4 0 c 5 1 c 4 0 c 4 5 c 5 44 c 4 75 c 5 17 c 4 0 c 4 -49 c 5 -78 c 4 -14 c 4 0 c 5 -1 c 4 1 c 5 2 c 4 0 c 4 -1 c
5 -1 c 4 -2 c 4 -1 c 5 2 c 4 1 c 4 0 c 5 -1 c 4 0 c 5 0 c 4 -1 c 4 1 c 5 -2 c 4 0 c 4 2 c 5 12 c 4 8 c 5 1 c 4 -2 c 4 -8 c 5 -7 c
4 0 c 4 0 c 5 2 c 4 14 c 5 65 c 4 133 c 4 78 c 5 51 c 4 -38 c 4 -125 c 5 -65 c 4 -15 c 5 37 c 4 18 c 4 -6 c 5 -45 c 4 -85 c 4 -17 c
5 1 c 4 0 c 4 -1 c 5 -2 c 4 -1 c 5 4 c 4 21 c 4 86 c 5 448 c 4 456 c 4 59 c 5 -67 c 4 -532 c 5 -410 c 4 -63 c 4 -3 c 5 -1 c 4 -1 c
4 -1 c 5 -1 c 4 2 c 5 3 c 4 1 c 4 2 c 5 -2 c 4 -2 c 4 -1 c 5 -1 c 4 -1 c 5 -1 c 4 -1 c 4 2 c 5 2 c 4 2 c 4 0 c 5 -1 c 4 -2 c 4 -1 c
5 1 c 4 8 c 5 7 c 4 3 c 4 21 c 5 65 c 4 31 c 4 2 c 5 -27 c 4 -71 c 5 -26 c 4 64 c 4 297 c 5 202 c 4 6 c 4 -63 c 5 -309 c 4 -185 c
5 -23 c 4 -3 c 4 -1 c 5 0 c 4 2 c 4 0 c 5 0 c 4 0 c 4 -1 c 5 -1 c 4 1 c 5 5 c 4 26 c 4 40 c 5 12 c 4 1 c 4 -8 c 5 -31 c 4 -11 c
5 -6 c 4 -15 c 4 -6 c 5 0 c 4 0 c 4 -2 c 5 -4 c 4 1 c 5 1 c 4 0 c 4 0 c 5 -1 c 4 2 c 4 6 c 5 1 c 4 0 c 5 -3 c 4 -2 c 4 -1 c 5 2 c
4 5 c 4 2 c 5 8 c 4 39 c 4 476 c 5 1654 c 4 805 c 5 90 c 4 -482 c 4 -1738 c 5 -775 c 4 -66 c 4 -8 c 5 -3 c 4 -4 c 5 -2 c 4 0 c
4 -1 c 5 -1 c 4 0 c 4 1 c 5 25 c 4 84 c 5 54 c 4 14 c 4 -17 c 5 -64 c 4 -58 c 4 -62 c 5 36 c 4 -14 c 5 -3 c 4 0 c 4 -1 c 5 -1 c
4 -2 c 4 0 c 5 2 c 4 1 c 4 4 c 5 9 c 4 3 c 5 -2 c 4 -3 c 4 -10 c 5 -4 c 4 0 c 4 2 c 5 2 c 4 2 c 5 0 c 4 -2 c 4 -3 c 5 -2 c 4 0 c
4 1 c 5 0 c 4 1 c 5 -1 c 4 -1 c 4 0 c 5 0 c 4 0 c 4 0 c 5 0 c 4 -1 c 5 1 c 4 0 c 4 1 c 5 1 c 4 -1 c 4 1 c 5 1 c 4 1 c 4 3 c 5 3 c
4 -1 c 5 0 c 4 -4 c 4 -3 c 5 2 c 4 2 c 4 0 c 5 0 c 4 -1 c 5 28 c 4 85 c 4 30 c 5 1 c 4 -29 c 4 -86 c 5 -29 c 4 -1 c 5 8 c 4 3 c
4 0 c 5 -2 c 4 -8 c 4 -4 c 5 0 c 4 0 c 5 0 c 4 0 c 4 3 c 5 2 c 4 1 c 4 1 c 5 0 c 4 4 c 4 16 c 5 3 c 4 0 c 5 -7 c 4 -15 c 4 -4 c
5 2 c 4 4 c 4 3 c 5 0 c 4 -1 c 5 -2 c 4 0 c 4 6 c 5 18 c 4 28 c 4 13 c 5 8 c 4 12 c 5 116 c 4 629 c 4 626 c 5 622 c 4 1557 c 4 544 c
5 -345 c 4 -640 c 4 -1651 c 5 -1220 c 4 -225 c 5 -47 c 4 -20 c 4 -8 c 5 -7 c 4 -4 c 4 -6 c 5 -1 c 4 2 c 5 7 c 4 102 c 4 332 c
5 140 c 4 4 c 4 -107 c 5 -332 c 4 -143 c 5 -13 c 4 -1 c 4 -1 c 5 0 c 4 0 c 4 0 c 5 3 c 4 -2 c 5 0 c 4 1 c 4 13 c 5 12 c 4 1 c 4 2 c
5 -13 c 4 -11 c 4 -3 c 5 0 c 4 1 c 5 3 c 4 1 c 4 -2 c 5 -5 c 4 -1 c 4 0 c 5 2 c 4 11 c 5 131 c 4 501 c 4 349 c 5 57 c 4 -132 c
4 -503 c 5 -320 c 4 -56 c 5 -2 c 4 -4 c 4 -16 c 5 -13 c 4 -1 c 4 0 c 5 -1 c 4 -1 c 5 -1 c 4 -3 c 4 0 c 5 1 c 4 8 c 4 77 c 5 228 c
4 103 c 4 -4 c 5 -65 c 4 -228 c 5 -105 c 4 -3 c 4 13 c 5 11 c 4 4 c 4 -1 c 5 -8 c 4 -15 c 5 -7 c 4 -5 c 4 -4 c 5 -1 c 4 1 c 4 -1 c
5 -1 c 4 0 c 5 1 c 4 1 c 4 1 c 5 1 c 4 -1 c 4 -1 c 5 -2 c 4 -1 c 5 1 c 4 0 c 4 1 c 5 1 c 4 2 c 4 1 c 5 0 c 4 1 c 4 6 c 5 6 c 4 0 c
5 26 c 4 66 c 4 21 c 5 1 c 4 -28 c 4 -79 c 5 -24 c 4 -3 c 5 2 c 4 11 c 4 11 c 5 9 c 4 41 c 4 36 c 5 -2 c 4 -6 c 5 -39 c 4 -54 c
4 -8 c 5 0 c 4 2 c 4 0 c 5 2 c 4 0 c 5 1 c 4 0 c 4 1 c 5 18 c 4 38 c 4 18 c 5 56 c 4 17 c 4 -28 c 5 -19 c 4 -62 c 5 -37 c 4 -3 c
4 1 c 5 2 c 4 2 c 4 2 c 5 2 c 4 3 c 5 6 c 4 2 c 4 6 c 5 7 c 4 7 c 4 41 c 5 395 c 4 3022 c 5 2498 c 4 28 c 4 -19 c 5 -2305 c
4 -3100 c 4 -524 c 5 -33 c 4 -12 c 4 -6 c 5 -6 c 4 -5 c 5 -4 c 4 -3 c 4 -2 c 5 -2 c 4 -1 c 4 -2 c 5 -1 c 4 1 c 5 -1 c 4 -1 c 4 0 c
5 0 c 4 0 c 4 0 c 5 0 c 4 0 c 5 0 c 4 0 c 4 0 c 5 1 c 4 19 c 4 98 c 5 55 c 4 4 c 5 -9 c 4 -101 c 4 -63 c 5 -4 c 4 -1 c 4 0 c 5 -1 c
4 0 c 4 0 c 5 0 c 4 0 c 5 2 c 4 1 c 4 0 c 5 -1 c 4 -1 c 4 -2 c 5 -1 c 4 0 c 5 0 c 4 0 c 4 1 c 5 0 c 4 1 c 4 10 c 5 12 c 4 0 c 5 0 c
4 -7 c 4 -10 c 5 -1 c 4 -2 c 4 -2 c 5 -1 c 4 0 c 5 1 c 4 0 c 4 0 c 5 0 c 4 7 c 4 46 c 5 50 c 4 11 c 4 7 c 5 54 c 4 227 c 5 77 c
4 -9 c 4 -86 c 5 -268 c 4 -101 c 4 36 c 5 97 c 4 93 c 5 55 c 4 -27 c 4 -95 c 5 -89 c 4 -67 c 4 -6 c 5 -2 c 4 -5 c 5 -1 c 4 8 c 4 3 c
5 0 c 4 -3 c 4 -8 c 5 -4 c 4 -1 c 5 0 c 4 0 c 4 -1 c 5 1 c 4 4 c 4 6 c 5 5 c 4 0 c 4 -2 c 5 -7 c 4 -2 c 5 0 c 4 0 c 4 0 c 5 0 c
4 -1 c 4 0 c 5 0 c 4 0 c 5 0 c 4 0 c 4 -1 c 5 1 c 4 -2 c 4 0 c 5 0 c 4 0 c 5 -1 c 4 1 c 4 4 c 5 0 c 4 0 c 4 0 c 5 -2 c 4 -1 c 4 3 c
5 17 c 4 10 c 5 5 c 4 0 c 4 -14 c 5 -13 c 4 -2 c 4 -2 c 5 2 c 4 1 c 5 1 c 4 4 c 4 4 c 5 10 c 4 41 c 4 215 c 5 1542 c 4 1194 c
5 246 c 4 -87 c 4 -1330 c 5 -1537 c 4 -184 c 4 -84 c 5 -23 c 4 -6 c 5 -4 c 4 -1 c 4 -2 c 5 0 c 4 -1 c 4 -1 c 5 -1 c 4 -3 c 4 0 c
5 1 c 4 1 c 5 -1 c 4 1 c 4 -1 c 5 0 c 4 0 c 4 -2 c 5 -1 c 4 1 c 5 7 c 4 17 c 4 4 c 5 -1 c 4 -6 c 4 -17 c 5 -6 c 4 0 c 5 0 c 4 0 c
4 1 c 5 0 c 4 1 c 4 2 c 5 -1 c 4 1 c 5 0 c 4 -2 c 4 -1 c 5 0 c 4 -1 c 4 0 c 5 0 c 4 1 c 4 0 c 5 0 c 4 0 c 5 -1 c 4 0 c 4 0 c 5 -1 c
4 0 c 4 -1 c 5 0 c 4 2 c 5 6 c 4 3 c 4 0 c 5 0 c 4 -6 c 4 -4 c 5 -1 c 4 0 c 5 0 c 4 0 c 4 0 c 5 1 c 4 -1 c 4 1 c 5 0 c 4 0 c 5 0 c
4 0 c 4 0 c 5 -1 c 4 1 c 4 0 c 5 1 c 4 1 c 4 7 c 5 2 c 4 1 c 5 -2 c 4 -7 c 4 -3 c 5 0 c 4 0 c 4 1 c 5 -1 c 4 0 c 5 0 c 4 0 c 4 0 c
5 2 c 4 2 c 4 2 c 5 1 c 4 3 c 5 12 c 4 5 c 4 6 c 5 76 c 4 244 c 4 95 c 5 11 c 4 -51 c 5 -264 c 4 -131 c 4 -8 c 5 1 c 4 0 c 4 0 c
5 -1 c 4 -1 c 4 1 c 5 1 c 4 1 c 5 0 c 4 1 c 4 0 c 5 2 c 4 1 c 4 5 c 5 8 c 4 12 c 5 15 c 4 3 c 4 -6 c 5 -5 c 4 -13 c 4 -5 c 5 2 c
4 5 c 5 6 c 4 13 c 4 55 c 5 433 c 4 3225 c 4 2262 c 5 -22 c 4 30 c 4 -2293 c 5 -3207 c 4 -459 c 5 -33 c 4 -11 c 4 -3 c 5 -7 c 4 -2 c
4 -3 c 5 -4 c 4 -2 c 5 -2 c 4 0 c 4 -1 c 5 -2 c 4 0 c 4 0 c 5 -1 c 4 0 c 5 0 c 4 0 c 4 0 c 5 0 c 4 -1 c 4 -1 c 5 -1 c 4 0 c 5 0 c
4 -1 c 4 0 c 5 1 c 4 -1 c 4 1 c 5 2 c 4 1 c 4 1 c 5 -1 c 4 -1 c 5 3 c 4 3 c 4 0 c 5 -1 c 4 -4 c 4 -5 c 5 0 c 4 0 c 5 0 c 4 0 c 4 1 c
5 -1 c 4 0 c 4 0 c 5 0 c 4 0 c 5 0 c 4 1 c 4 2 c 5 0 c 4 0 c 4 0 c 5 0 c 4 0 c 5 10 c 4 11 c 4 1 c 5 1 c 4 8 c 4 3 c 5 0 c 4 -1 c
4 -13 c 5 -19 c 4 -4 c 5 0 c 4 1 c 4 0 c 5 0 c 4 -1 c 4 -1 c 5 0 c 4 0 c 5 0 c 4 1 c 4 -1 c 5 0 c 4 -1 c 4 1 c 5 0 c 4 1 c 5 0 c
4 0 c 4 -1 c 5 -1 c 4 0 c 4 1 c
5 0 c 4 4 c 5 2 c 4 1 c 4 -17 c 4 14 9549 780 l 4 0 c 5 -1 c 4 -2 c 4 -1 c 5 1 c 4 0 c 5 0 c 4 0 c 4 -1 c 5 0 c 4 -1 c 4 0 c 5 0 c
4 0 c 5 0 c 4 0 c 4 0 c 5 2 c 4 2 c 4 1 c 5 0 c 4 -2 c 5 -1 c 4 0 c 4 -1 c 5 0 c 4 0 c 4 0 c 5 0 c 4 -1 c 5 2 c 4 1 c 4 3 c 5 2 c
4 -2 c 4 -2 c 5 -1 c 4 -2 c
0 -126 3042 418 l 54 0 3042 418 l 18 -6 c 6 -6 c 6 -12 c 0 -12 c -6 -12 c -6 -6 c -18 -6 c -54 0 c 42 -66 3084 358 l
-12 -6 3192 376 l -12 -12 c -6 -18 c 0 -12 c 6 -18 c 12 -12 c 12 -6 c 18 0 c 12 6 c 12 12 c 6 18 c 0 12 c -6 18 c -12 12 c -12 6 c
-18 0 c 24 -84 3276 376 l -24 -84 3324 376 l 24 -84 3324 376 l -24 -84 3372 376 l 108 0 3414 364 l 108 0 3414 328 l
-18 -6 3786 418 l -6 -12 c 0 -12 c 6 -12 c 12 -6 c 24 -6 c 18 -6 c 12 -12 c 6 -12 c 0 -18 c -6 -12 c -6 -6 c -18 -6 c -24 0 c
-18 6 c -6 6 c -6 12 c 0 18 c 6 12 c 12 12 c 18 6 c 24 6 c 12 6 c 6 12 c 0 12 c -6 12 c -18 6 c -24 0 c 12 6 4278 394 l 18 18 c
0 -126 c -6 -6 4392 376 l 6 -6 c 6 6 c -6 6 c -6 -6 4392 304 l 6 -6 c 6 6 c -6 6 c -48 -126 4572 418 l 48 -126 4572 418 l
60 0 4542 334 l 0 -84 4650 376 l 6 18 4650 340 l 12 12 c 12 6 c 18 0 c -12 12 4794 358 l -12 6 c -18 0 c -12 -6 c -12 -12 c -6 -18 c
0 -12 c 6 -18 c 12 -12 c 12 -6 c 18 0 c 12 6 c 12 12 c 108 0 4836 346 l -18 -6 5022 418 l -12 -18 c -6 -30 c 0 -18 c 6 -30 c
12 -18 c 18 -6 c 12 0 c 18 6 c 12 18 c 6 30 c 0 18 c -6 30 c -12 18 c -18 6 c -12 0 c 66 0 5118 418 l -36 -48 c 18 0 c 12 -6 c
6 -6 c 6 -18 c 0 -12 c -6 -18 c -12 -12 c -18 -6 c -18 0 c -18 6 c -6 6 c -6 12 c -59 0 5297 418 l -6 -54 c 6 6 c 18 6 c 17 0 c
18 -6 c 12 -12 c 6 -18 c 0 -12 c -6 -18 c -12 -12 c -18 -6 c -17 0 c -18 6 c -6 6 c -6 12 c -6 -6 5357 304 l 6 -6 c 6 6 c -6 6 c
-12 0 5447 418 l -12 -6 c -6 -18 c 0 -102 c 42 0 5399 376 l 6 -6 5477 418 l 6 6 c -6 6 c -6 -6 c 0 -84 5483 376 l 0 -102 5537 418 l
6 -18 c 12 -6 c 12 0 c 42 0 5519 376 l -6 12 5663 358 l -18 6 c -18 0 c -18 -6 c -6 -12 c 6 -12 c 12 -6 c 30 -6 c 12 -6 c 6 -12 c
0 -6 c -6 -12 c -18 -6 c -18 0 c -18 6 c -6 12 c 0 -192 5993 442 l 0 -192 5999 442 l 42 0 5993 442 l 42 0 5993 250 l 0 6 6077 388 l
6 12 c 6 6 c 12 6 c 24 0 c 12 -6 c 6 -6 c 6 -12 c 0 -12 c -6 -12 c -12 -18 c -60 -60 c 84 0 c -6 -6 6203 376 l 6 -6 c 6 6 c -6 6 c
-6 -6 6203 304 l 6 -6 c 6 6 c -6 6 c -48 -126 6383 418 l 48 -126 6383 418 l 60 0 6353 334 l 0 -84 6461 376 l 6 18 6461 340 l 12 12 c
12 6 c 18 0 c -12 12 6605 358 l -12 6 c -18 0 c -12 -6 c -12 -12 c -6 -18 c 0 -12 c 6 -18 c 12 -12 c 12 -6 c 18 0 c 12 6 c 12 12 c
108 0 6647 346 l -18 -6 6833 418 l -12 -18 c -6 -30 c 0 -18 c 6 -30 c 12 -18 c 18 -6 c 12 0 c 18 6 c 12 18 c 6 30 c 0 18 c -6 30 c
-12 18 c -18 6 c -12 0 c 66 0 6929 418 l -36 -48 c 18 0 c 12 -6 c 6 -6 c 6 -18 c 0 -12 c -6 -18 c -12 -12 c -18 -6 c -18 0 c -18 6 c
-6 6 c -6 12 c -6 12 7115 400 l -18 6 c -12 0 c -18 -6 c -12 -18 c -6 -30 c 0 -30 c 6 -24 c 12 -12 c 18 -6 c 6 0 c 18 6 c 12 12 c
6 18 c 0 6 c -6 18 c -12 12 c -18 6 c -6 0 c -18 -6 c -12 -12 c -6 -18 c -6 -6 7169 304 l 6 -6 c 6 6 c -6 6 c -12 0 7259 418 l
-12 -6 c -6 -18 c 0 -102 c 42 0 7211 376 l 6 -6 7289 418 l 6 6 c -6 6 c -6 -6 c 0 -84 7295 376 l 0 -102 7349 418 l 6 -18 c 12 -6 c
12 0 c 42 0 7331 376 l -6 12 7475 358 l -18 6 c -18 0 c -18 -6 c -6 -12 c 6 -12 c 12 -6 c 30 -6 c 12 -6 c 6 -12 c 0 -6 c -6 -12 c
-18 -6 c -18 0 c -18 6 c -6 12 c 0 -192 7547 442 l 0 -192 7553 442 l 42 0 7511 442 l 42 0 7511 250 l
0 -250 1017 1412 l 52 -37 974 1521 l 0 56 c 79 0 974 1521 l 3 -11 974 1582 l 12 -8 c 19 -4 c 11 0 c 19 4 c 11 8 c 4 11 c 0 7 c
-4 12 c -11 7 c -19 4 c -11 0 c -19 -4 c -12 -7 c -3 -12 c 0 -7 c -8 -4 985 1684 l -3 -11 c 0 -8 c 3 -11 c 12 -8 c 19 -3 c 18 0 c
16 3 c 7 8 c 4 11 c 0 4 c -4 11 c -7 8 c -12 4 c -4 0 c -11 -4 c -7 -8 c -4 -11 c 0 -4 c 4 -11 c 7 -8 c 11 -3 c 0 42 974 1718 l
30 -23 c 0 11 c 4 8 c 3 4 c 12 3 c 7 0 c 12 -3 c 7 -8 c 4 -11 c 0 -12 c -4 -11 c -4 -4 c -7 -4 c 4 -4 1045 1794 l 4 4 c -4 3 c
-4 -3 c 52 -38 974 1862 l 0 57 c 79 0 974 1862 l 3 -11 974 1922 l 12 -8 c 19 -4 c 11 0 c 19 4 c 11 8 c 4 11 c 0 8 c -4 11 c -11 8 c
-19 3 c -11 0 c -19 -3 c -12 -8 c -3 -11 c 0 -8 c 79 -38 974 2028 l 0 53 974 1975 l 0 -249 1599 1381 l 53 -38 1555 1491 l 0 57 c
80 0 1555 1491 l 4 -11 1555 1551 l 11 -8 c 19 -3 c 12 0 c 19 3 c 11 8 c 4 11 c 0 8 c -4 11 c -11 8 c -19 4 c -12 0 c -19 -4 c
-11 -8 c -4 -11 c 0 -8 c -8 -3 1567 1653 l -4 -12 c 0 -7 c 4 -12 c 11 -7 c 19 -4 c 19 0 c 15 4 c 8 7 c 4 12 c 0 3 c -4 12 c -8 7 c
-11 4 c -4 0 c -11 -4 c -8 -7 c -3 -12 c 0 -3 c 3 -12 c 8 -7 c 11 -4 c 80 -38 1555 1733 l 0 53 1555 1680 l 4 -4 1627 1763 l 4 4 c
-4 4 c -4 -4 c 53 -38 1555 1831 l 0 57 c 80 0 1555 1831 l 0 -38 1555 1914 l 34 -3 c -3 3 c -4 12 c 0 11 c 4 11 c 7 8 c 11 4 c 8 0 c
11 -4 c 8 -8 c 4 -11 c 0 -11 c -4 -12 c -4 -3 c -7 -4 c -3 7 1570 1956 l -12 12 c 80 0 c 0 -250 1852 3234 l 53 -38 1808 3343 l
0 57 c 80 0 1808 3343 l 4 -12 1808 3404 l 12 -7 c 19 -4 c 11 0 c 19 4 c 11 7 c 4 12 c 0 7 c -4 12 c -11 7 c -19 4 c -11 0 c -19 -4 c
-12 -7 c -4 -12 c 0 -7 c -8 -4 1820 3506 l -4 -11 c 0 -8 c 4 -11 c 12 -8 c 19 -4 c 18 0 c 16 4 c 7 8 c 4 11 c 0 4 c -4 11 c -7 8 c
-12 4 c -4 0 c -11 -4 c -7 -8 c -4 -11 c 0 -4 c 4 -11 c 7 -8 c 11 -4 c 11 -3 1835 3581 l 8 -8 c 4 -11 c 0 -4 c -4 -11 c -8 -8 c
-11 -4 c -4 0 c -11 4 c -8 8 c -4 11 c 0 4 c 4 11 c 8 8 c 15 3 c 19 0 c 19 -3 c 11 -8 c 4 -11 c 0 -8 c -4 -11 c -7 -4 c
4 -3 1880 3615 l 4 3 c -4 4 c -4 -4 c -3 0 1827 3649 l -8 4 c -4 4 c -4 7 c 0 16 c 4 7 c 4 4 c 8 4 c 7 0 c 8 -4 c 11 -8 c 38 -37 c
0 52 c 4 -11 1808 3740 l 8 -4 c 7 0 c 8 4 c 4 7 c 4 15 c 3 12 c 8 7 c 7 4 c 12 0 c 7 -4 c 4 -3 c 4 -12 c 0 -15 c -4 -11 c -4 -4 c
-7 -4 c -12 0 c -7 4 c -8 8 c -3 11 c -4 15 c -4 8 c -8 3 c -7 0 c -8 -3 c -4 -12 c 0 -15 c 0 42 1808 3804 l 31 -23 c 0 12 c 4 7 c
3 4 c 12 4 c 7 0 c 12 -4 c 7 -8 c 4 -11 c 0 -11 c -4 -12 c -4 -3 c -7 -4 c 0 -250 2002 1371 l 53 -38 1959 1480 l 0 57 c
79 0 1959 1480 l 3 -12 1959 1541 l 12 -7 c 19 -4 c 11 0 c 19 4 c 11 7 c 4 12 c 0 7 c -4 12 c -11 7 c -19 4 c -11 0 c -19 -4 c
-12 -7 c -3 -12 c 0 -7 c 79 -37 1959 1646 l 0 52 1959 1594 l 3 -12 1959 1692 l 12 -7 c 19 -4 c 11 0 c 19 4 c 11 7 c 4 12 c 0 7 c
-4 12 c -11 7 c -19 4 c -11 0 c -19 -4 c -12 -7 c -3 -12 c 0 -7 c 3 -4 2031 1752 l 4 4 c -4 4 c -3 -4 c -4 0 1978 1786 l -8 4 c
-4 4 c -3 7 c 0 16 c 3 7 c 4 4 c 8 4 c 7 0 c 8 -4 c 11 -8 c 38 -37 c 0 52 c 0 41 1959 1866 l 30 -22 c 0 11 c 4 7 c 4 4 c 11 4 c
7 0 c 12 -4 c 7 -7 c 4 -12 c 0 -11 c -4 -11 c -3 -4 c -8 -4 c 3 -12 1959 1953 l 8 -4 c 8 0 c 7 4 c 4 8 c 4 15 c 4 11 c 7 8 c 8 4 c
11 0 c 8 -4 c 3 -4 c 4 -11 c 0 -15 c -4 -12 c -3 -4 c -8 -3 c -11 0 c -8 3 c -7 8 c -4 11 c -4 15 c -4 8 c -7 4 c -8 0 c -8 -4 c
-3 -11 c 0 -15 c 0 -250 2259 5239 l 52 -38 2216 5348 l 0 57 c 79 0 2216 5348 l 3 -12 2216 5409 l 12 -7 c 19 -4 c 11 0 c 19 4 c
11 7 c 4 12 c 0 7 c -4 12 c -11 7 c -19 4 c -11 0 c -19 -4 c -12 -7 c -3 -12 c 0 -7 c 79 -37 2216 5514 l 0 52 2216 5462 l
-4 8 2231 5548 l -11 11 c 79 0 c 4 -4 2287 5620 l 4 4 c -4 4 c -4 -4 c 11 -4 2242 5700 l 8 -8 c 4 -11 c 0 -4 c -4 -11 c -8 -8 c
-11 -3 c -4 0 c -11 3 c -8 8 c -3 11 c 0 4 c 3 11 c 8 8 c 15 4 c 19 0 c 19 -4 c 11 -8 c 4 -11 c 0 -8 c -4 -11 c -7 -4 c
11 -4 2242 5775 l 8 -7 c 4 -11 c 0 -4 c -4 -12 c -8 -7 c -11 -4 c -4 0 c -11 4 c -8 7 c -3 12 c 0 4 c 3 11 c 8 7 c 15 4 c 19 0 c
19 -4 c 11 -7 c 4 -11 c 0 -8 c -4 -11 c -7 -4 c 79 -38 2216 5855 l 0 53 2216 5802 l 0 -250 2529 1272 l 53 -37 2485 1381 l 0 56 c
79 0 2485 1381 l 4 -11 2485 1442 l 11 -8 c 19 -4 c 11 0 c 19 4 c 12 8 c 3 11 c 0 8 c -3 11 c -12 7 c -19 4 c -11 0 c -19 -4 c
-11 -7 c -4 -11 c 0 -8 c 79 -38 2485 1548 l 0 53 2485 1495 l 0 42 2485 1578 l 30 -23 c 0 11 c 4 8 c 4 4 c 11 3 c 8 0 c 11 -3 c
8 -8 c 3 -11 c 0 -12 c -3 -11 c -4 -4 c -8 -4 c 4 -4 2557 1654 l 3 4 c -3 3 c -4 -3 c 4 -12 2485 1703 l 7 -3 c 8 0 c 8 3 c 3 8 c
4 15 c 4 11 c 7 8 c 8 4 c 11 0 c 8 -4 c 4 -4 c 3 -11 c 0 -15 c -3 -12 c -4 -3 c -8 -4 c -11 0 c -8 4 c -7 7 c -4 12 c -4 15 c -3 7 c
-8 4 c -8 0 c -7 -4 c -4 -11 c 0 -15 c 0 -38 2485 1805 l 34 -4 c -4 4 c -3 11 c 0 12 c 3 11 c 8 8 c 11 3 c 8 0 c 11 -3 c 8 -8 c
3 -11 c 0 -12 c -3 -11 c -4 -4 c -8 -4 c -7 -4 2496 1884 l -4 -11 c 0 -8 c 4 -11 c 11 -7 c 19 -4 c 19 0 c 15 4 c 8 7 c 3 11 c 0 4 c
-3 12 c -8 7 c -11 4 c -4 0 c -11 -4 c -8 -7 c -4 -12 c 0 -4 c 4 -11 c 8 -7 c 11 -4 c 0 -249 2770 1579 l 52 -38 2727 1689 l 0 57 c
79 0 2727 1689 l 3 -11 2727 1749 l 12 -7 c 19 -4 c 11 0 c 19 4 c 11 7 c 4 11 c 0 8 c -4 11 c -11 8 c -19 4 c -11 0 c -19 -4 c
-12 -8 c -3 -11 c 0 -8 c 79 -38 2727 1855 l 0 53 2727 1802 l 0 -38 2727 1923 l 34 -3 c -4 3 c -4 12 c 0 11 c 4 12 c 7 7 c 12 4 c
7 0 c 12 -4 c 7 -7 c 4 -12 c 0 -11 c -4 -12 c -4 -3 c -7 -4 c 4 -4 2798 1961 l 4 4 c -4 4 c -4 -4 c 0 -38 2727 2037 l 34 -4 c -4 4 c
-4 11 c 0 12 c 4 11 c 7 7 c 12 4 c 7 0 c 12 -4 c 7 -7 c 4 -11 c 0 -12 c -4 -11 c -4 -4 c -7 -4 c 3 -12 2727 2090 l 12 -7 c 19 -4 c
11 0 c 19 4 c 11 7 c 4 12 c 0 7 c -4 11 c -11 8 c -19 4 c -11 0 c -19 -4 c -12 -8 c -3 -11 c 0 -7 c 0 42 2727 2150 l 30 -23 c 0 11 c
4 8 c 3 4 c 12 3 c 7 0 c 12 -3 c 7 -8 c 4 -11 c 0 -12 c -4 -11 c -4 -4 c -7 -4 c 0 -250 2935 1651 l 53 -38 2892 1761 l 0 57 c
79 0 2892 1761 l 3 -11 2892 1821 l 12 -8 c 19 -4 c 11 0 c 19 4 c 11 8 c 4 11 c 0 8 c -4 11 c -11 8 c -19 3 c -11 0 c -19 -3 c
-12 -8 c -3 -11 c 0 -8 c 79 -38 2892 1927 l 0 53 2892 1874 l -8 -4 2903 1999 l -3 -11 c 0 -8 c 3 -11 c 12 -8 c 19 -4 c 19 0 c 15 4 c
7 8 c 4 11 c 0 4 c -4 11 c -7 8 c -12 4 c -3 0 c -12 -4 c -7 -8 c -4 -11 c 0 -4 c 4 -11 c 7 -8 c 12 -4 c 3 -4 2964 2033 l 4 4 c
-4 4 c -3 -4 c -8 -4 2903 2112 l -3 -11 c 0 -8 c 3 -11 c 12 -7 c 19 -4 c 19 0 c 15 4 c 7 7 c 4 11 c 0 4 c -4 12 c -7 7 c -12 4 c
-3 0 c -12 -4 c -7 -7 c -4 -12 c 0 -4 c 4 -11 c 7 -7 c 12 -4 c -4 0 2911 2142 l -8 4 c -4 4 c -3 7 c 0 16 c 3 7 c 4 4 c 8 4 c 7 0 c
8 -4 c 11 -8 c 38 -37 c 0 53 c 3 -11 2892 2233 l 8 -4 c 8 0 c 7 4 c 4 7 c 4 15 c 4 12 c 7 7 c 8 4 c 11 0 c 8 -4 c 3 -3 c 4 -12 c
0 -15 c -4 -11 c -3 -4 c -8 -4 c -11 0 c -8 4 c -7 8 c -4 11 c -4 15 c -4 8 c -7 3 c -8 0 c -8 -3 c -3 -12 c 0 -15 c
0 -250 3370 1906 l 53 -38 3326 2016 l 0 56 c 79 0 3326 2016 l 4 -11 3326 2076 l 11 -8 c 19 -4 c 11 0 c 19 4 c 11 8 c 4 11 c 0 8 c
-4 11 c -11 8 c -19 3 c -11 0 c -19 -3 c -11 -8 c -4 -11 c 0 -8 c 79 -38 3326 2182 l 0 53 3326 2129 l 12 -4 3352 2254 l 7 -8 c
4 -11 c 0 -4 c -4 -11 c -7 -8 c -12 -3 c -3 0 c -12 3 c -7 8 c -4 11 c 0 4 c 4 11 c 7 8 c 15 4 c 19 0 c 19 -4 c 11 -8 c 4 -11 c
0 -8 c -4 -11 c -7 -4 c 3 -4 3398 2288 l 4 4 c -4 3 c -3 -3 c 0 -37 3326 2363 l 34 -4 c -4 4 c -4 11 c 0 11 c 4 12 c 8 7 c 11 4 c
8 0 c 11 -4 c 7 -7 c 4 -12 c 0 -11 c -4 -11 c -3 -4 c -8 -4 c 79 -37 3326 2446 l 0 52 3326 2394 l 53 -38 3326 2507 l 0 57 c
79 0 3326 2507 l 0 -250 3531 2430 l 53 -38 3487 2540 l 0 56 c 79 0 3487 2540 l 4 -11 3487 2600 l 11 -8 c 19 -4 c 11 0 c 19 4 c
12 8 c 3 11 c 0 8 c -3 11 c -12 7 c -19 4 c -11 0 c -19 -4 c -11 -7 c -4 -11 c 0 -8 c 4 -12 3487 2672 l 7 -3 c 8 0 c 8 3 c 3 8 c
4 15 c 4 12 c 7 7 c 8 4 c 11 0 c 8 -4 c 4 -4 c 3 -11 c 0 -15 c -3 -12 c -4 -3 c -8 -4 c -11 0 c -8 4 c -7 7 c -4 12 c -4 15 c -3 7 c
-8 4 c -8 0 c -7 -4 c -4 -11 c 0 -15 c 4 -11 3487 2751 l 11 -8 c 19 -3 c 11 0 c 19 3 c 12 8 c 3 11 c 0 8 c -3 11 c -12 8 c -19 3 c
-11 0 c -19 -3 c -11 -8 c -4 -11 c 0 -8 c 4 -4 3559 2812 l 3 4 c -3 3 c -4 -3 c 79 -38 3487 2895 l 0 53 3487 2842 l
4 -11 3487 2940 l 11 -8 c 19 -4 c 11 0 c 19 4 c 12 8 c 3 11 c 0 8 c -3 11 c -12 8 c -19 3 c -11 0 c -19 -3 c -11 -8 c -4 -11 c
0 -8 c -7 -4 3498 3042 l -4 -11 c 0 -7 c 4 -12 c 11 -7 c 19 -4 c 19 0 c 15 4 c 8 7 c 3 12 c 0 3 c -3 12 c -8 7 c -11 4 c -4 0 c
-11 -4 c -8 -7 c -4 -12 c 0 -3 c 4 -12 c 8 -7 c 11 -4 c 0 -250 3635 1366 l 53 -38 3591 1476 l 0 56 c 80 0 3591 1476 l
4 -11 3591 1536 l 11 -8 c 19 -4 c 11 0 c 19 4 c 12 8 c 4 11 c 0 8 c -4 11 c -12 7 c -19 4 c -11 0 c -19 -4 c -11 -7 c -4 -11 c
0 -8 c 4 -12 3591 1608 l 7 -3 c 8 0 c 8 3 c 3 8 c 4 15 c 4 11 c 7 8 c 8 4 c 11 0 c 8 -4 c 4 -4 c 4 -11 c 0 -15 c -4 -12 c -4 -3 c
-8 -4 c -11 0 c -8 4 c -7 7 c -4 12 c -4 15 c -3 7 c -8 4 c -8 0 c -7 -4 c -4 -11 c 0 -15 c -4 7 3606 1676 l -11 12 c 80 0 c
4 -4 3663 1748 l 4 4 c -4 3 c -4 -3 c 0 42 3591 1785 l 30 -23 c 0 12 c 4 7 c 4 4 c 11 4 c 8 0 c 11 -4 c 8 -8 c 4 -11 c 0 -11 c
-4 -12 c -4 -3 c -8 -4 c -7 -4 3602 1903 l -4 -12 c 0 -7 c 4 -11 c 11 -8 c 19 -4 c 19 0 c 15 4 c 8 8 c 4 11 c 0 4 c -4 11 c -8 8 c
-11 3 c -4 0 c -11 -3 c -8 -8 c -4 -11 c 0 -4 c 4 -11 c 8 -8 c 11 -4 c 4 -11 3591 1948 l 7 -4 c 8 0 c 8 4 c 3 7 c 4 15 c 4 12 c
7 7 c 8 4 c 11 0 c 8 -4 c 4 -4 c 4 -11 c 0 -15 c -4 -11 c -4 -4 c -8 -4 c -11 0 c -8 4 c -7 7 c -4 12 c -4 15 c -3 7 c -8 4 c -8 0 c
-7 -4 c -4 -11 c 0 -15 c 0 -250 3786 1625 l 53 -38 3742 1734 l 0 57 c 80 0 3742 1734 l 4 -12 3742 1795 l 11 -7 c 19 -4 c 12 0 c
19 4 c 11 7 c 4 12 c 0 7 c -4 12 c -11 7 c -19 4 c -12 0 c -19 -4 c -11 -7 c -4 -12 c 0 -7 c 4 -12 3742 1867 l 8 -4 c 7 0 c 8 4 c
4 8 c 3 15 c 4 11 c 8 8 c 7 4 c 12 0 c 7 -4 c 4 -4 c 4 -11 c 0 -15 c -4 -12 c -4 -4 c -7 -3 c -12 0 c -7 3 c -8 8 c -4 11 c -3 15 c
-4 8 c -8 4 c -7 0 c -8 -4 c -4 -11 c 0 -15 c -4 0 3761 1927 l -7 4 c -4 4 c -4 7 c 0 15 c 4 8 c 4 4 c 7 3 c 8 0 c 8 -3 c 11 -8 c
38 -38 c 0 53 c 4 -3 3814 2006 l 4 3 c -4 4 c -4 -4 c 0 42 3742 2044 l 31 -23 c 0 11 c 3 8 c 4 4 c 11 4 c 8 0 c 11 -4 c 8 -8 c
4 -11 c 0 -11 c -4 -12 c -4 -4 c -7 -3 c 4 -11 3742 2131 l 8 -4 c 7 0 c 8 4 c 4 7 c 3 15 c 4 12 c 8 7 c 7 4 c 12 0 c 7 -4 c 4 -3 c
4 -12 c 0 -15 c -4 -11 c -4 -4 c -7 -4 c -12 0 c -7 4 c -8 8 c -4 11 c -3 15 c -4 8 c -8 3 c -7 0 c -8 -3 c -4 -12 c 0 -15 c
80 -38 3742 2241 l 0 53 3742 2188 l 0 -250 3947 1579 l 53 -38 3903 1688 l 0 57 c 80 0 3903 1688 l 4 -12 3903 1749 l 12 -7 c 18 -4 c
12 0 c 19 4 c 11 7 c 4 12 c 0 7 c -4 12 c -11 7 c -19 4 c -12 0 c -18 -4 c -12 -7 c -4 -12 c 0 -7 c 4 -12 3903 1821 l 8 -4 c 7 0 c
8 4 c 4 8 c 3 15 c 4 11 c 8 8 c 7 4 c 12 0 c 7 -4 c 4 -4 c 4 -11 c 0 -15 c -4 -12 c -4 -4 c -7 -3 c -12 0 c -7 3 c -8 8 c -4 11 c
-3 15 c -4 8 c -8 4 c -7 0 c -8 -4 c -4 -11 c 0 -15 c 0 41 3903 1885 l 31 -22 c 0 11 c 3 8 c 4 3 c 12 4 c 7 0 c 11 -4 c 8 -7 c
4 -12 c 0 -11 c -4 -11 c -4 -4 c -7 -4 c 4 -3 3975 1960 l 4 3 c -4 4 c -4 -4 c 53 -37 3903 2028 l 0 56 c 80 0 3903 2028 l
-8 -3 3915 2115 l -4 -12 c 0 -7 c 4 -12 c 12 -7 c 18 -4 c 19 0 c 15 4 c 8 7 c 4 12 c 0 3 c -4 12 c -8 7 c -11 4 c -4 0 c -11 -4 c
-8 -7 c -3 -12 c 0 -3 c 3 -12 c 8 -7 c 11 -4 c 11 -4 3930 2191 l 8 -7 c 4 -12 c 0 -3 c -4 -12 c -8 -7 c -11 -4 c -4 0 c -11 4 c
-8 7 c -4 12 c 0 3 c 4 12 c 8 7 c 15 4 c 19 0 c 19 -4 c 11 -7 c 4 -12 c 0 -7 c -4 -12 c -8 -3 c 0 -249 4182 3272 l
53 -38 4138 3382 l 0 57 c 80 0 4138 3382 l 4 -11 4138 3442 l 11 -8 c 19 -3 c 12 0 c 19 3 c 11 8 c 4 11 c 0 8 c -4 11 c -11 8 c
-19 3 c -12 0 c -19 -3 c -11 -8 c -4 -11 c 0 -8 c 4 -11 4138 3514 l 8 -4 c 7 0 c 8 4 c 4 7 c 3 15 c 4 12 c 8 7 c 7 4 c 12 0 c 7 -4 c
4 -4 c 4 -11 c 0 -15 c -4 -11 c -4 -4 c -7 -4 c -12 0 c -7 4 c -8 7 c -4 12 c -3 15 c -4 7 c -8 4 c -7 0 c -8 -4 c -4 -11 c 0 -15 c
0 -38 4138 3616 l 34 -4 c -3 4 c -4 12 c 0 11 c 4 11 c 7 8 c 11 4 c 8 0 c 11 -4 c 8 -8 c 4 -11 c 0 -11 c -4 -12 c -4 -4 c -7 -3 c
4 -4 4210 3654 l 4 4 c -4 4 c -4 -4 c 4 -12 4138 3707 l 11 -7 c 19 -4 c 12 0 c 19 4 c 11 7 c 4 12 c 0 7 c -4 12 c -11 7 c -19 4 c
-12 0 c -19 -4 c -11 -7 c -4 -12 c 0 -7 c 53 -37 4138 3797 l 0 56 c 80 0 4138 3797 l -4 0 4157 3839 l -7 4 c -4 4 c -4 7 c 0 15 c
4 8 c 4 4 c 7 3 c 8 0 c 8 -3 c 11 -8 c 38 -38 c 0 53 c 0 -249 4240 1389 l 53 -38 4197 1499 l 0 57 c 79 0 4197 1499 l
4 -11 4197 1559 l 11 -7 c 19 -4 c 11 0 c 19 4 c 11 7 c 4 11 c 0 8 c -4 11 c -11 8 c -19 4 c -11 0 c -19 -4 c -11 -8 c -4 -11 c
0 -8 c 4 -11 4197 1631 l 7 -4 c 8 0 c 7 4 c 4 7 c 4 16 c 4 11 c 7 7 c 8 4 c 11 0 c 8 -4 c 3 -3 c 4 -12 c 0 -15 c -4 -11 c -3 -4 c
-8 -4 c -11 0 c -8 4 c -7 8 c -4 11 c -4 15 c -4 8 c -7 3 c -8 0 c -7 -3 c -4 -12 c 0 -15 c 0 -38 4197 1733 l 34 -3 c -4 3 c -4 12 c
0 11 c 4 11 c 8 8 c 11 4 c 7 0 c 12 -4 c 7 -8 c 4 -11 c 0 -11 c -4 -12 c -3 -3 c -8 -4 c 3 -4 4269 1771 l 4 4 c -4 4 c -3 -4 c
53 -38 4197 1839 l 0 57 c 79 0 4197 1839 l 0 42 4197 1884 l 30 -23 c 0 12 c 4 7 c 4 4 c 11 4 c 7 0 c 12 -4 c 7 -8 c 4 -11 c 0 -11 c
-4 -12 c -3 -3 c -8 -4 c 53 -38 4197 1990 l 0 57 c 79 0 4197 1990 l 0 -249 4403 7019 l 53 -38 4359 7129 l 0 57 c 80 0 4359 7129 l
4 -11 4359 7189 l 12 -8 c 18 -3 c 12 0 c 19 3 c 11 8 c 4 11 c 0 8 c -4 11 c -11 8 c -19 3 c -12 0 c -18 -3 c -12 -8 c -4 -11 c
0 -8 c 4 -11 4359 7261 l 8 -4 c 7 0 c 8 4 c 4 7 c 3 15 c 4 12 c 8 7 c 7 4 c 12 0 c 7 -4 c 4 -4 c 4 -11 c 0 -15 c -4 -11 c -4 -4 c
-7 -4 c -12 0 c -7 4 c -8 7 c -4 12 c -3 15 c -4 7 c -8 4 c -7 0 c -8 -4 c -4 -11 c 0 -15 c -8 -4 4371 7367 l -4 -11 c 0 -8 c
4 -11 c 12 -8 c 18 -4 c 19 0 c 15 4 c 8 8 c 4 11 c 0 4 c -4 11 c -8 8 c -11 4 c -4 0 c -11 -4 c -8 -8 c -3 -11 c 0 -4 c 3 -11 c
8 -8 c 11 -4 c 4 -4 4431 7401 l 4 4 c -4 4 c -4 -4 c 0 -37 4359 7476 l 34 -4 c -3 4 c -4 11 c 0 11 c 4 12 c 7 7 c 12 4 c 7 0 c
11 -4 c 8 -7 c 4 -12 c 0 -11 c -4 -11 c -4 -4 c -7 -4 c -3 0 4378 7510 l -8 4 c -4 4 c -4 8 c 0 15 c 4 7 c 4 4 c 8 4 c 7 0 c 8 -4 c
11 -8 c 38 -37 c 0 53 c -4 7 4375 7594 l -12 11 c 80 0 c 0 -250 4517 1326 l 53 -38 4474 1435 l 0 57 c 79 0 4474 1435 l
3 -12 4474 1496 l 12 -7 c 19 -4 c 11 0 c 19 4 c 11 7 c 4 12 c 0 7 c -4 12 c -11 7 c -19 4 c -11 0 c -19 -4 c -12 -7 c -3 -12 c
0 -7 c 3 -11 4474 1567 l 8 -4 c 8 0 c 7 4 c 4 8 c 4 15 c 3 11 c 8 8 c 8 3 c 11 0 c 8 -3 c 3 -4 c 4 -11 c 0 -16 c -4 -11 c -3 -4 c
-8 -3 c -11 0 c -8 3 c -8 8 c -3 11 c -4 15 c -4 8 c -7 4 c -8 0 c -8 -4 c -3 -11 c 0 -16 c 79 -38 4474 1677 l 0 53 4474 1624 l
3 -4 4546 1707 l 4 4 c -4 4 c -3 -4 c -4 0 4493 1741 l -8 4 c -4 4 c -3 7 c 0 16 c 3 7 c 4 4 c 8 4 c 7 0 c 8 -4 c 11 -8 c 38 -38 c
0 53 c 3 -11 4474 1832 l 8 -4 c 8 0 c 7 4 c 4 7 c 4 15 c 3 12 c 8 7 c 8 4 c 11 0 c 8 -4 c 3 -4 c 4 -11 c 0 -15 c -4 -11 c -3 -4 c
-8 -4 c -11 0 c -8 4 c -8 7 c -3 12 c -4 15 c -4 7 c -7 4 c -8 0 c -8 -4 c -3 -11 c 0 -15 c 0 -38 4474 1934 l 34 -4 c -4 4 c -4 12 c
0 11 c 4 11 c 7 8 c 12 4 c 7 0 c 12 -4 c 7 -8 c 4 -11 c 0 -11 c -4 -12 c -3 -4 c -8 -3 c 0 -250 4734 1388 l 53 -38 4691 1498 l
0 56 c 79 0 4691 1498 l 4 -11 4691 1558 l 11 -8 c 19 -4 c 11 0 c 19 4 c 11 8 c 4 11 c 0 8 c -4 11 c -11 7 c -19 4 c -11 0 c -19 -4 c
-11 -7 c -4 -11 c 0 -8 c 4 -12 4691 1630 l 7 -3 c 8 0 c 7 3 c 4 8 c 4 15 c 4 12 c 7 7 c 8 4 c 11 0 c 8 -4 c 3 -4 c 4 -11 c 0 -15 c
-4 -12 c -3 -3 c -8 -4 c -11 0 c -8 4 c -7 7 c -4 12 c -4 15 c -4 7 c -7 4 c -8 0 c -7 -4 c -4 -11 c 0 -15 c 4 -11 4691 1705 l
7 -4 c 8 0 c 7 4 c 4 8 c 4 15 c 4 11 c 7 8 c 8 3 c 11 0 c 8 -3 c 3 -4 c 4 -11 c 0 -16 c -4 -11 c -3 -4 c -8 -3 c -11 0 c -8 3 c
-7 8 c -4 11 c -4 15 c -4 8 c -7 4 c -8 0 c -7 -4 c -4 -11 c 0 -16 c 3 -4 4763 1770 l 4 4 c -4 3 c -3 -3 c 79 -38 4691 1853 l
0 53 4691 1800 l -4 0 4710 1879 l -8 4 c -3 4 c -4 7 c 0 16 c 4 7 c 3 4 c 8 4 c 7 0 c 8 -4 c 11 -8 c 38 -37 c 0 52 c
-7 -4 4702 2000 l -4 -11 c 0 -7 c 4 -12 c 11 -7 c 19 -4 c 19 0 c 15 4 c 7 7 c 4 12 c 0 3 c -4 12 c -7 7 c -12 4 c -3 0 c -12 -4 c
-7 -7 c -4 -12 c 0 -3 c 4 -12 c 7 -7 c 12 -4 c 0 -250 4797 1533 l 53 -37 4753 1642 l 0 56 c 80 0 4753 1642 l 4 -11 4753 1703 l
11 -8 c 19 -4 c 12 0 c 19 4 c 11 8 c 4 11 c 0 7 c -4 12 c -11 7 c -19 4 c -12 0 c -19 -4 c -11 -7 c -4 -12 c 0 -7 c
4 -12 4753 1775 l 8 -3 c 7 0 c 8 3 c 3 8 c 4 15 c 4 11 c 8 8 c 7 4 c 12 0 c 7 -4 c 4 -4 c 4 -11 c 0 -15 c -4 -12 c -4 -3 c -7 -4 c
-12 0 c -7 4 c -8 7 c -4 11 c -4 16 c -3 7 c -8 4 c -7 0 c -8 -4 c -4 -11 c 0 -15 c 11 -3 4780 1880 l 8 -8 c 3 -11 c 0 -4 c -3 -11 c
-8 -8 c -11 -4 c -4 0 c -11 4 c -8 8 c -4 11 c 0 4 c 4 11 c 8 8 c 15 3 c 19 0 c 19 -3 c 11 -8 c 4 -11 c 0 -8 c -4 -11 c -8 -4 c
4 -4 4825 1915 l 4 4 c -4 3 c -4 -3 c -3 8 4768 1956 l -12 11 c 80 0 c 0 41 4753 2028 l 30 -22 c 0 11 c 4 8 c 4 3 c 11 4 c 8 0 c
11 -4 c 8 -7 c 4 -11 c 0 -12 c -4 -11 c -4 -4 c -7 -4 c 4 -12 4753 2115 l 8 -3 c 7 0 c 8 3 c 3 8 c 4 15 c 4 12 c 8 7 c 7 4 c 12 0 c
7 -4 c 4 -4 c 4 -11 c 0 -15 c -4 -12 c -4 -3 c -7 -4 c -12 0 c -7 4 c -8 7 c -4 12 c -4 15 c -3 7 c -8 4 c -7 0 c -8 -4 c -4 -11 c
0 -15 c 0 -249 5484 1363 l 53 -38 5440 1473 l 0 57 c 80 0 5440 1473 l 4 -12 5440 1534 l 11 -7 c 19 -4 c 12 0 c 19 4 c 11 7 c 4 12 c
0 7 c -4 11 c -11 8 c -19 4 c -12 0 c -19 -4 c -11 -8 c -4 -11 c 0 -7 c 11 -4 5467 1636 l 8 -8 c 3 -11 c 0 -4 c -3 -11 c -8 -8 c
-11 -4 c -4 0 c -11 4 c -8 8 c -4 11 c 0 4 c 4 11 c 8 8 c 15 4 c 19 0 c 19 -4 c 11 -8 c 4 -11 c 0 -8 c -4 -11 c -8 -4 c
0 41 5440 1670 l 31 -22 c 0 11 c 3 7 c 4 4 c 11 4 c 8 0 c 11 -4 c 8 -7 c 4 -12 c 0 -11 c -4 -11 c -4 -4 c -7 -4 c 4 -4 5512 1745 l
4 4 c -4 4 c -4 -4 c -8 -4 5452 1825 l -4 -12 c 0 -7 c 4 -11 c 11 -8 c 19 -4 c 19 0 c 15 4 c 8 8 c 4 11 c 0 4 c -4 11 c -8 8 c
-11 3 c -4 0 c -11 -3 c -8 -8 c -3 -11 c 0 -4 c 3 -11 c 8 -8 c 11 -4 c 80 -38 5440 1904 l 0 53 5440 1851 l -3 8 5455 1938 l -12 11 c
80 0 c 0 -249 5651 7019 l 53 -38 5607 7129 l 0 57 c 80 0 5607 7129 l 4 -11 5607 7189 l 11 -8 c 19 -3 c 12 0 c 19 3 c 11 8 c 4 11 c
0 8 c -4 11 c -11 8 c -19 3 c -12 0 c -19 -3 c -11 -8 c -4 -11 c 0 -8 c 11 -4 5634 7291 l 8 -7 c 3 -11 c 0 -4 c -3 -12 c -8 -7 c
-11 -4 c -4 0 c -11 4 c -8 7 c -4 12 c 0 4 c 4 11 c 8 7 c 15 4 c 19 0 c 19 -4 c 11 -7 c 4 -11 c 0 -8 c -4 -11 c -8 -4 c
53 -37 5607 7355 l 0 56 c 80 0 5607 7355 l 4 -4 5679 7401 l 4 4 c -4 4 c -4 -4 c 80 -38 5607 7484 l 0 53 5607 7431 l
53 -37 5607 7544 l 0 56 c 80 0 5607 7544 l 80 -38 5607 7635 l 0 53 5607 7582 l 0 -249 5852 1377 l 53 -38 5808 1487 l 0 57 c
79 0 5808 1487 l 4 -11 5808 1547 l 11 -8 c 19 -3 c 11 0 c 19 3 c 12 8 c 3 11 c 0 8 c -3 11 c -12 8 c -19 4 c -11 0 c -19 -4 c
-11 -8 c -4 -11 c 0 -8 c 11 -3 5835 1649 l 7 -8 c 4 -11 c 0 -4 c -4 -11 c -7 -8 c -11 -4 c -4 0 c -12 4 c -7 8 c -4 11 c 0 4 c
4 11 c 7 8 c 16 3 c 18 0 c 19 -3 c 12 -8 c 3 -11 c 0 -8 c -3 -11 c -8 -4 c -7 -4 5819 1725 l -4 -11 c 0 -8 c 4 -11 c 11 -8 c 19 -3 c
19 0 c 15 3 c 8 8 c 3 11 c 0 4 c -3 11 c -8 8 c -11 4 c -4 0 c -11 -4 c -8 -8 c -4 -11 c 0 -4 c 4 -11 c 8 -8 c 11 -3 c
4 -4 5880 1759 l 3 4 c -3 4 c -4 -4 c 4 -11 5808 1812 l 11 -8 c 19 -4 c 11 0 c 19 4 c 12 8 c 3 11 c 0 7 c -3 12 c -12 7 c -19 4 c
-11 0 c -19 -4 c -11 -7 c -4 -12 c 0 -7 c 79 -38 5808 1918 l 0 53 5808 1865 l -7 -4 5819 1990 l -4 -12 c 0 -7 c 4 -12 c 11 -7 c
19 -4 c 19 0 c 15 4 c 8 7 c 3 12 c 0 4 c -3 11 c -8 8 c -11 3 c -4 0 c -11 -3 c -8 -8 c -4 -11 c 0 -4 c 4 -12 c 8 -7 c 11 -4 c
0 -249 6108 2312 l 53 -38 6065 2422 l 0 57 c 79 0 6065 2422 l 3 -11 6065 2482 l 12 -8 c 19 -3 c 11 0 c 19 3 c 11 8 c 4 11 c 0 8 c
-4 11 c -11 8 c -19 3 c -11 0 c -19 -3 c -12 -8 c -3 -11 c 0 -8 c 11 -4 6091 2584 l 8 -7 c 4 -11 c 0 -4 c -4 -12 c -8 -7 c -11 -4 c
-4 0 c -11 4 c -8 7 c -3 12 c 0 4 c 3 11 c 8 7 c 15 4 c 19 0 c 19 -4 c 11 -7 c 4 -11 c 0 -8 c -4 -11 c -7 -4 c 79 -38 6065 2664 l
0 53 6065 2611 l 4 -4 6136 2694 l 4 4 c -4 4 c -4 -4 c 79 -38 6065 2777 l 0 53 6065 2724 l 53 -37 6065 2837 l 0 56 c
79 0 6065 2837 l 3 -11 6065 2894 l 8 -4 c 7 0 c 8 4 c 4 7 c 4 16 c 3 11 c 8 7 c 8 4 c 11 0 c 7 -4 c 4 -3 c 4 -12 c 0 -15 c -4 -11 c
-4 -4 c -7 -4 c -11 0 c -8 4 c -8 8 c -3 11 c -4 15 c -4 8 c -8 3 c -7 0 c -8 -3 c -3 -12 c 0 -15 c 0 -250 6509 4320 l
53 -38 6465 4429 l 0 57 c 80 0 6465 4429 l -4 8 6481 4478 l -12 11 c 80 0 c 4 -11 6465 4565 l 12 -8 c 18 -3 c 12 0 c 19 3 c 11 8 c
4 11 c 0 8 c -4 11 c -11 8 c -19 4 c -12 0 c -18 -4 c -12 -8 c -4 -11 c 0 -8 c 4 -11 6465 4641 l 12 -8 c 18 -4 c 12 0 c 19 4 c
11 8 c 4 11 c 0 7 c -4 12 c -11 7 c -19 4 c -12 0 c -18 -4 c -12 -7 c -4 -12 c 0 -7 c 4 -3 6537 4701 l 4 3 c -4 4 c -4 -4 c
0 42 6465 4739 l 31 -23 c 0 11 c 3 8 c 4 4 c 12 4 c 7 0 c 11 -4 c 8 -8 c 4 -11 c 0 -11 c -4 -12 c -4 -4 c -7 -3 c 53 -38 6465 4845 l
0 57 c 80 0 6465 4845 l -4 8 6481 4894 l -12 11 c 80 0 c 0 -249 6863 1379 l 53 -38 6819 1489 l 0 57 c 79 0 6819 1489 l
-4 8 6834 1538 l -11 11 c 79 0 c 4 -11 6819 1625 l 11 -8 c 19 -4 c 11 0 c 19 4 c 12 8 c 3 11 c 0 8 c -3 11 c -12 7 c -19 4 c -11 0 c
-19 -4 c -11 -7 c -4 -11 c 0 -8 c -4 0 6838 1682 l -8 3 c -3 4 c -4 8 c 0 15 c 4 7 c 3 4 c 8 4 c 8 0 c 7 -4 c 11 -7 c 38 -38 c
0 53 c 4 -4 6891 1761 l 3 4 c -3 4 c -4 -4 c -7 -3 6830 1840 l -4 -12 c 0 -7 c 4 -12 c 11 -7 c 19 -4 c 19 0 c 15 4 c 8 7 c 3 12 c
0 4 c -3 11 c -8 7 c -11 4 c -4 0 c -12 -4 c -7 -7 c -4 -11 c 0 -4 c 4 -12 c 7 -7 c 12 -4 c -4 8 6834 1878 l -11 11 c 79 0 c
4 -11 6819 1961 l 7 -4 c 8 0 c 7 4 c 4 8 c 4 15 c 4 11 c 7 8 c 8 3 c 11 0 c 8 -3 c 4 -4 c 3 -12 c 0 -15 c -3 -11 c -4 -4 c -8 -4 c
-11 0 c -8 4 c -7 8 c -4 11 c -4 15 c -4 8 c -7 4 c -8 0 c -7 -4 c -4 -12 c 0 -15 c 0 -249 7062 5421 l 52 -38 7019 5531 l 0 57 c
79 0 7019 5531 l -4 8 7034 5580 l -11 11 c 79 0 c 3 -11 7019 5667 l 12 -8 c 19 -4 c 11 0 c 19 4 c 11 8 c 4 11 c 0 7 c -4 12 c
-11 7 c -19 4 c -11 0 c -19 -4 c -12 -7 c -3 -12 c 0 -7 c 0 42 7019 5727 l 30 -23 c 0 12 c 4 7 c 3 4 c 12 4 c 7 0 c 12 -4 c 7 -8 c
4 -11 c 0 -11 c -4 -12 c -4 -3 c -7 -4 c 4 -4 7090 5803 l 4 4 c -4 4 c -4 -4 c 11 -3 7045 5882 l 8 -8 c 4 -11 c 0 -4 c -4 -11 c
-8 -8 c -11 -4 c -4 0 c -11 4 c -8 8 c -3 11 c 0 4 c 3 11 c 8 8 c 15 3 c 19 0 c 19 -3 c 11 -8 c 4 -11 c 0 -8 c -4 -11 c -7 -4 c
-4 8 7034 5920 l -11 11 c 79 0 c -3 0 7037 5988 l -8 4 c -4 4 c -3 7 c 0 15 c 3 8 c 4 4 c 8 3 c 7 0 c 8 -3 c 11 -8 c 38 -38 c 0 53 c
0 -250 7682 1385 l 52 -38 7639 1495 l 0 56 c 79 0 7639 1495 l -4 7 7654 1544 l -11 12 c 79 0 c 3 -12 7639 1631 l 12 -7 c 19 -4 c
11 0 c 19 4 c 11 7 c 4 12 c 0 7 c -4 11 c -11 8 c -19 4 c -11 0 c -19 -4 c -12 -8 c -3 -11 c 0 -7 c 79 -37 7639 1736 l
0 52 7639 1684 l 4 -4 7710 1767 l 4 4 c -4 3 c -4 -3 c 3 -12 7639 1816 l 8 -3 c 7 0 c 8 3 c 4 8 c 4 15 c 3 11 c 8 8 c 7 4 c 12 0 c
7 -4 c 4 -4 c 4 -11 c 0 -15 c -4 -12 c -4 -3 c -7 -4 c -12 0 c -7 4 c -8 7 c -3 12 c -4 15 c -4 7 c -8 4 c -7 0 c -8 -4 c -3 -11 c
0 -15 c -8 -4 7650 1922 l -3 -11 c 0 -8 c 3 -11 c 12 -8 c 19 -4 c 18 0 c 16 4 c 7 8 c 4 11 c 0 4 c -4 11 c -7 8 c -12 3 c -4 0 c
-11 -3 c -7 -8 c -4 -11 c 0 -4 c 4 -11 c 7 -8 c 11 -4 c -4 8 7654 1959 l -11 11 c 79 0 c 0 -249 7774 7019 l 53 -38 7730 7129 l
0 57 c 80 0 7730 7129 l -4 7 7746 7178 l -12 12 c 80 0 c 4 -12 7730 7265 l 12 -7 c 18 -4 c 12 0 c 19 4 c 11 7 c 4 12 c 0 7 c -4 12 c
-11 7 c -19 4 c -12 0 c -18 -4 c -12 -7 c -4 -12 c 0 -7 c 4 -12 7730 7337 l 8 -4 c 7 0 c 8 4 c 4 8 c 3 15 c 4 11 c 8 8 c 7 4 c
12 0 c 7 -4 c 4 -4 c 4 -11 c 0 -15 c -4 -12 c -4 -4 c -7 -3 c -12 0 c -7 3 c -8 8 c -4 11 c -3 15 c -4 8 c -8 4 c -7 0 c -8 -4 c
-4 -11 c 0 -15 c 4 -4 7802 7401 l 4 4 c -4 4 c -4 -4 c 53 -38 7730 7469 l 0 57 c 80 0 7730 7469 l -3 0 7749 7510 l -8 4 c -4 4 c
-4 8 c 0 15 c 4 7 c 4 4 c 8 4 c 7 0 c 8 -4 c 11 -8 c 38 -37 c 0 53 c 4 -11 7730 7605 l 12 -8 c 18 -4 c 12 0 c 19 4 c 11 8 c 4 11 c
0 7 c -4 12 c -11 7 c -19 4 c -12 0 c -18 -4 c -12 -7 c -4 -12 c 0 -7 c 0 -249 7917 1410 l 53 -38 7874 1520 l 0 57 c
79 0 7874 1520 l -4 8 7889 1569 l -11 11 c 79 0 c 3 -11 7874 1656 l 12 -8 c 19 -4 c 11 0 c 19 4 c 11 8 c 4 11 c 0 7 c -4 12 c
-11 7 c -19 4 c -11 0 c -19 -4 c -12 -7 c -3 -12 c 0 -7 c 11 -4 7900 1758 l 8 -7 c 4 -12 c 0 -3 c -4 -12 c -8 -7 c -11 -4 c -4 0 c
-11 4 c -8 7 c -3 12 c 0 3 c 3 12 c 8 7 c 15 4 c 19 0 c 19 -4 c 11 -7 c 4 -12 c 0 -7 c -4 -12 c -7 -3 c 4 -4 7945 1792 l 4 4 c
-4 4 c -4 -4 c 0 41 7874 1830 l 30 -22 c 0 11 c 4 8 c 3 3 c 12 4 c 7 0 c 12 -4 c 7 -7 c 4 -12 c 0 -11 c -4 -11 c -4 -4 c -7 -4 c
-4 0 7893 1902 l -8 3 c -4 4 c -3 8 c 0 15 c 3 7 c 4 4 c 8 4 c 7 0 c 8 -4 c 11 -7 c 38 -38 c 0 53 c 0 42 7874 1981 l 30 -23 c 0 11 c
4 8 c 3 4 c 12 3 c 7 0 c 12 -3 c 7 -8 c 4 -11 c 0 -12 c -4 -11 c -4 -4 c -7 -4 c 0 -250 8159 1528 l 53 -37 8116 1637 l 0 56 c
79 0 8116 1637 l -4 7 8131 1687 l -11 11 c 79 0 c -4 8 8131 1762 l -11 11 c 79 0 c 3 -11 8116 1849 l 12 -8 c 19 -4 c 11 0 c 19 4 c
11 8 c 4 11 c 0 8 c -4 11 c -11 8 c -19 3 c -11 0 c -19 -3 c -12 -8 c -3 -11 c 0 -8 c 4 -4 8187 1910 l 4 4 c -4 3 c -4 -3 c
3 -12 8116 1959 l 8 -3 c 8 0 c 7 3 c 4 8 c 4 15 c 3 11 c 8 8 c 8 4 c 11 0 c 7 -4 c 4 -4 c 4 -11 c 0 -15 c -4 -12 c -4 -3 c -7 -4 c
-11 0 c -8 4 c -8 7 c -3 11 c -4 16 c -4 7 c -7 4 c -8 0 c -8 -4 c -3 -11 c 0 -15 c -4 0 8135 2019 l -8 4 c -4 4 c -3 7 c 0 15 c
3 8 c 4 4 c 8 4 c 7 0 c 8 -4 c 11 -8 c 38 -38 c 0 53 c -8 -4 8127 2140 l -3 -11 c 0 -8 c 3 -11 c 12 -7 c 19 -4 c 19 0 c 15 4 c 7 7 c
4 11 c 0 4 c -4 12 c -7 7 c -12 4 c -3 0 c -12 -4 c -7 -7 c -4 -12 c 0 -4 c 4 -11 c 7 -7 c 12 -4 c 0 -250 8465 4497 l
53 -38 8421 4606 l 0 57 c 79 0 8421 4606 l -4 8 8436 4655 l -11 11 c 79 0 c -4 7 8436 4731 l -11 12 c 79 0 c -4 0 8440 4799 l -7 4 c
-4 3 c -4 8 c 0 15 c 4 8 c 4 3 c 7 4 c 8 0 c 7 -4 c 12 -7 c 37 -38 c 0 53 c 4 -4 8493 4878 l 3 4 c -3 4 c -4 -4 c 79 -37 8421 4961 l
0 53 8421 4908 l 0 -37 8421 5029 l 34 -4 c -4 4 c -3 11 c 0 11 c 3 12 c 8 7 c 11 4 c 8 0 c 11 -4 c 8 -7 c 3 -12 c 0 -11 c -3 -11 c
-4 -4 c -8 -4 c 0 -38 8421 5105 l 34 -4 c -4 4 c -3 12 c 0 11 c 3 11 c 8 8 c 11 4 c 8 0 c 11 -4 c 8 -8 c 3 -11 c 0 -11 c -3 -12 c
-4 -4 c -8 -3 c 0 -249 8948 1688 l 53 -38 8904 1798 l 0 57 c 80 0 8904 1798 l -4 7 8920 1847 l -12 12 c 80 0 c -4 7 8920 1923 l
-12 11 c 80 0 c 0 -38 8904 2032 l 35 -3 c -4 3 c -4 12 c 0 11 c 4 11 c 7 8 c 12 4 c 7 0 c 12 -4 c 7 -8 c 4 -11 c 0 -11 c -4 -12 c
-4 -3 c -7 -4 c 4 -4 8976 2070 l 4 4 c -4 4 c -4 -4 c 80 -38 8904 2153 l 0 53 8904 2100 l 0 -38 8904 2221 l 35 -3 c -4 3 c -4 12 c
0 11 c 4 11 c 7 8 c 12 4 c 7 0 c 12 -4 c 7 -8 c 4 -11 c 0 -11 c -4 -12 c -4 -3 c -7 -4 c 11 -3 8931 2300 l 8 -8 c 4 -11 c 0 -4 c
-4 -11 c -8 -8 c -11 -4 c -4 0 c -11 4 c -8 8 c -4 11 c 0 4 c 4 11 c 8 8 c 15 3 c 19 0 c 19 -3 c 11 -8 c 4 -11 c 0 -8 c -4 -11 c
-7 -4 c 0 -249 9103 7019 l 53 -38 9059 7129 l 0 57 c 80 0 9059 7129 l -4 7 9074 7178 l -11 12 c 80 0 c -4 8 9074 7253 l -11 11 c
80 0 c -7 -4 9070 7367 l -4 -11 c 0 -8 c 4 -11 c 11 -8 c 19 -4 c 19 0 c 15 4 c 8 8 c 4 11 c 0 4 c -4 11 c -8 8 c -11 4 c -4 0 c
-11 -4 c -8 -8 c -4 -11 c 0 -4 c 4 -11 c 8 -8 c 11 -4 c 4 -4 9131 7401 l 4 4 c -4 4 c -4 -4 c 80 -38 9059 7484 l 0 53 9059 7431 l
-4 8 9074 7518 l -11 11 c 80 0 c 53 -38 9059 7620 l 0 57 c 80 0 9059 7620 l
showpage PGPLOT restore
 
%%Trailer
%%DocumentFonts: 
%%Pages: 1
%%EOF
