%!PS-Adobe-3.0 EPSF-3.0
%%For: tom
%%Title: PGPLOT PostScript plot
%%Creator: PGPLOT
%%CreationDate:  9-Nov-1994 13:41
%%BoundingBox: 25 18 587 774
%%DocumentFonts: (atend)
%%LanguageLevel: 1
%%Orientation: Landscape
%%Pages: (atend)
%%EndComments
%%BeginProlog
/l {moveto rlineto currentpoint stroke moveto} bind def
/c {rlineto currentpoint stroke moveto} bind def
/d {moveto 0 0 rlineto currentpoint stroke moveto} bind def
/SLW {5 mul setlinewidth} bind def
/SCF /pop load def
/BP {newpath moveto} bind def
/LP /rlineto load def
/EP {rlineto closepath eofill} bind def
/MB {gsave translate MFAC dup scale 1 setlinewidth 2 setlinecap 0 setlinejoin newpath} bind def
/ME /grestore load def
/C {0 360 arc stroke} bind def
/FC {0 360 arc fill} bind def
%%EndProlog
 
%%Page: 1 1
%%BeginPageSetup
/PGPLOT save def
0.072 0.072 scale
8150 250 translate 90 rotate
1 setlinejoin 1 setlinecap 1 SLW 1 SCF
%%EndPageSetup
0.00 setgray 1 SLW 8939 0 780 780 l 0 6239 c -8939 0 c 0 -6239 c 0 -45 1116 780 l 0 -45 1554 780 l 0 -45 1991 780 l 0 -45 2428 780 l
0 -90 2865 780 l 0 -45 3302 780 l 0 -45 3739 780 l 0 -45 4176 780 l 0 -45 4613 780 l 0 -90 5051 780 l 0 -45 5488 780 l
0 -45 5925 780 l 0 -45 6362 780 l 0 -45 6799 780 l 0 -90 7236 780 l 0 -45 7673 780 l 0 -45 8110 780 l 0 -45 8548 780 l
0 -45 8985 780 l 0 -90 9422 780 l 0 -45 1116 7064 l 0 -45 1554 7064 l 0 -45 1991 7064 l 0 -45 2428 7064 l 0 -90 2865 7109 l
0 -45 3302 7064 l 0 -45 3739 7064 l 0 -45 4176 7064 l 0 -45 4613 7064 l 0 -90 5051 7109 l 0 -45 5488 7064 l 0 -45 5925 7064 l
0 -45 6362 7064 l 0 -45 6799 7064 l 0 -90 7236 7109 l 0 -45 7673 7064 l 0 -45 8110 7064 l 0 -45 8548 7064 l 0 -45 8985 7064 l
0 -90 9422 7109 l -60 0 2775 672 l -6 -54 c 6 6 c 18 6 c 18 0 c 18 -6 c 12 -12 c 6 -18 c 0 -12 c -6 -18 c -12 -12 c -18 -6 c -18 0 c
-18 6 c -6 6 c -6 12 c -18 -6 2859 672 l -12 -18 c -6 -30 c 0 -18 c 6 -30 c 12 -18 c 18 -6 c 12 0 c 18 6 c 12 18 c 6 30 c 0 18 c
-6 30 c -12 18 c -18 6 c -12 0 c -18 -6 2979 672 l -12 -18 c -6 -30 c 0 -18 c 6 -30 c 12 -18 c 18 -6 c 12 0 c 18 6 c 12 18 c 6 30 c
0 18 c -6 30 c -12 18 c -18 6 c -12 0 c 12 6 4847 648 l 18 18 c 0 -126 c -18 -6 4985 672 l -12 -18 c -6 -30 c 0 -18 c 6 -30 c
12 -18 c 18 -6 c 12 0 c 18 6 c 12 18 c 6 30 c 0 18 c -6 30 c -12 18 c -18 6 c -12 0 c -18 -6 5105 672 l -12 -18 c -6 -30 c 0 -18 c
6 -30 c 12 -18 c 18 -6 c 12 0 c 18 6 c 12 18 c 6 30 c 0 18 c -6 30 c -12 18 c -18 6 c -12 0 c -18 -6 5225 672 l -12 -18 c -6 -30 c
0 -18 c 6 -30 c 12 -18 c 18 -6 c 12 0 c 18 6 c 12 18 c 6 30 c 0 18 c -6 30 c -12 18 c -18 6 c -12 0 c 12 6 7032 648 l 18 18 c
0 -126 c -60 0 7206 672 l -6 -54 c 6 6 c 18 6 c 18 0 c 18 -6 c 12 -12 c 6 -18 c 0 -12 c -6 -18 c -12 -12 c -18 -6 c -18 0 c -18 6 c
-6 6 c -6 12 c -18 -6 7290 672 l -12 -18 c -6 -30 c 0 -18 c 6 -30 c 12 -18 c 18 -6 c 12 0 c 18 6 c 12 18 c 6 30 c 0 18 c -6 30 c
-12 18 c -18 6 c -12 0 c -18 -6 7410 672 l -12 -18 c -6 -30 c 0 -18 c 6 -30 c 12 -18 c 18 -6 c 12 0 c 18 6 c 12 18 c 6 30 c 0 18 c
-6 30 c -12 18 c -18 6 c -12 0 c 0 6 9206 642 l 6 12 c 6 6 c 12 6 c 24 0 c 12 -6 c 6 -6 c 6 -12 c 0 -12 c -6 -12 c -12 -18 c
-60 -60 c 84 0 c -18 -6 9356 672 l -12 -18 c -6 -30 c 0 -18 c 6 -30 c 12 -18 c 18 -6 c 12 0 c 18 6 c 12 18 c 6 30 c 0 18 c -6 30 c
-12 18 c -18 6 c -12 0 c -18 -6 9476 672 l -12 -18 c -6 -30 c 0 -18 c 6 -30 c 12 -18 c 18 -6 c 12 0 c 18 6 c 12 18 c 6 30 c 0 18 c
-6 30 c -12 18 c -18 6 c -12 0 c -18 -6 9596 672 l -12 -18 c -6 -30 c 0 -18 c 6 -30 c 12 -18 c 18 -6 c 12 0 c 18 6 c 12 18 c 6 30 c
0 18 c -6 30 c -12 18 c -18 6 c -12 0 c -90 0 780 780 l -45 0 780 1715 l -90 0 780 2649 l -45 0 780 3584 l -90 0 780 4519 l
-45 0 780 5454 l -90 0 780 6388 l -90 0 9809 780 l -45 0 9764 1715 l -90 0 9809 2649 l -45 0 9764 3584 l -90 0 9809 4519 l
-45 0 9764 5454 l -90 0 9809 6388 l 6 -18 517 774 l 18 -12 c 30 -6 c 18 0 c 30 6 c 18 12 c 6 18 c 0 12 c -6 18 c -18 12 c -30 6 c
-18 0 c -30 -6 c -18 -12 c -6 -18 c 0 -12 c -6 0 547 2391 l -12 6 c -6 6 c -6 12 c 0 24 c 6 12 c 6 6 c 12 6 c 12 0 c 12 -6 c
18 -12 c 60 -60 c 0 84 c 84 84 547 2511 l 84 -84 547 2595 l -6 12 541 2655 l -18 18 c 126 0 c 6 -18 517 2793 l 18 -12 c 30 -6 c
18 0 c 30 6 c 18 12 c 6 18 c 0 12 c -6 18 c -18 12 c -30 6 c -18 0 c -30 -6 c -18 -12 c -6 -18 c 0 -12 c 63 -45 453 2918 l 0 67 c
94 0 453 2918 l 84 -60 517 4315 l 0 90 c 126 0 517 4315 l 84 84 547 4381 l 84 -84 547 4465 l -6 12 541 4525 l -18 18 c 126 0 c
6 -18 517 4663 l 18 -12 c 30 -6 c 18 0 c 30 6 c 18 12 c 6 18 c 0 12 c -6 18 c -18 12 c -30 6 c -18 0 c -30 -6 c -18 -12 c -6 -18 c
0 -12 c 63 -45 453 4787 l 0 68 c 94 0 453 4787 l -12 -6 535 6202 l -6 -18 c 0 -12 c 6 -18 c 18 -12 c 30 -6 c 30 0 c 24 6 c 12 12 c
6 18 c 0 6 c -6 18 c -12 12 c -18 6 c -6 0 c -18 -6 c -12 -12 c -6 -18 c 0 -6 c 6 -18 c 12 -12 c 18 -6 c 84 84 547 6250 l
84 -84 547 6334 l -6 12 541 6394 l -18 18 c 126 0 c 6 -18 517 6532 l 18 -12 c 30 -6 c 18 0 c 30 6 c 18 12 c 6 18 c 0 12 c -6 18 c
-18 12 c -30 6 c -18 0 c -30 -6 c -18 -12 c -6 -18 c 0 -12 c 63 -45 453 6657 l 0 67 c 94 0 453 6657 l
4 3 780 817 l 5 0 c 4 -2 c 4 -5 c 5 -7 c 4 -11 c 4 -2 c 5 0 c 4 0 c 5 -1 c 4 0 c 4 0 c 5 1 c 4 1 c 4 1 c 5 0 c 4 0 c 5 -1 c 4 1 c
4 0 c 5 0 c 4 2 c 4 0 c 5 1 c 4 1 c 5 1 c 4 0 c 4 1 c 5 2 c 4 5 c 4 3 c 5 3 c 4 7 c 5 8 c 4 16 c 4 55 c 5 280 c 4 759 c 4 1565 c
5 3266 c 4 10 c 4 -12 c 5 15 c 4 -3438 c 5 -2288 c 4 -168 c 4 -31 c 5 -13 c 4 -11 c 4 -8 c 5 -7 c 4 -5 c 5 -3 c 4 -3 c 4 -2 c 5 -2 c
4 1 c 4 4 c 5 1 c 4 -1 c 5 -3 c 4 -5 c 4 -3 c 5 -1 c 4 0 c 4 0 c 5 1 c 4 0 c 5 -1 c 4 0 c 4 0 c 5 4 c 4 10 c 4 32 c 5 43 c 4 -2 c
4 -10 c 5 -43 c 4 -29 c 5 -3 c 4 -3 c 4 -3 c 5 -1 c 4 -12 c 5 11 1151 780 l 4 1 c 5 0 c 4 0 c 4 -1 c 5 0 c 4 0 c 4 0 c 5 0 c 4 1 c
5 1 c 4 1 c 4 0 c 5 -1 c 4 -1 c 4 -1 c 5 0 c 4 1 c 5 0 c 4 0 c 4 -1 c 5 0 c 4 1 c 4 2 c 5 1 c 4 -1 c 4 -2 c 5 -1 c 4 -1 c 5 1 c
4 0 c 4 1 c 5 0 c 4 0 c 4 0 c 5 1 c 4 1 c 5 0 c 4 -1 c 4 -2 c 5 0 c 4 0 c 4 -1 c 5 0 c 4 0 c 5 0 c 4 1 c 4 0 c 5 0 c 4 2 c 4 7 c
5 8 c 4 -1 c 5 -1 c 4 -3 c 4 12 c 5 11 c 4 0 c 4 -7 c 5 -19 c 4 -3 c 4 0 c 5 -1 c 4 -1 c 5 -3 c 4 0 c 4 0 c 5 -1 c 4 0 c 4 -1 c
5 0 c 4 0 c 5 1 c 4 1 c 4 0 c 5 0 c 4 0 c 4 2 c 5 10 c 4 18 c 5 43 c 4 16 c 4 -14 c 5 -21 c 4 -30 c 4 31 c 5 47 c 4 2 c 4 -11 c
5 -50 c 4 -31 c 5 -3 c 4 -4 c 4 -5 c 5 -1 c 4 0 c 4 0 c 5 -1 c 4 0 c 5 1 c 4 2 c 4 6 c 5 11 c 4 2 c 4 -3 c 5 -8 c 4 -10 c 5 0 c
4 0 c 4 0 c 5 0 c 4 1 c 4 0 c 5 2 c 4 7 c 5 27 c 4 98 c 4 163 c 5 36 c 4 -22 c 4 -114 c 5 -128 c 4 -24 c 4 -22 c 5 -15 c 4 1 c
5 10 c 4 9 c 4 1 c 5 -2 c 4 -8 c 4 20 c 5 110 c 4 373 c 5 844 c 4 258 c 4 -14 c 5 -521 c 4 -740 c 4 -164 c 5 -121 c 4 -53 c 5 -1 c
4 0 c 4 -1 c 5 1 c 4 0 c 4 -1 c 5 -2 c 4 -3 c 5 -2 c 4 -2 c 4 0 c 5 0 c 4 1 c 4 1 c 5 0 c 4 0 c 4 1 c 5 4 c 4 6 c 5 3 c 4 8 c 4 13 c
5 -2 c 4 -3 c 4 -12 c 5 -17 c 4 -2 c 5 -2 c 4 -1 c 4 1 c 5 1 c 4 0 c 4 0 c 5 0 c 4 0 c 5 1 c 4 1 c 4 1 c 5 0 c 4 0 c 4 2 c 5 15 c
4 64 c 5 209 c 4 122 c 4 -1 c 5 -98 c 4 -237 c 4 -75 c 5 -3 c 4 -1 c 4 0 c 5 0 c 4 0 c 5 0 c 4 0 c 4 -1 c 5 -1 c 4 1 c 4 1 c 5 0 c
4 0 c 5 -1 c 4 0 c 4 0 c 5 0 c 4 2 c 4 2 c 5 0 c 4 0 c 5 -2 c 4 -3 c 4 0 c 5 0 c 4 -1 c 4 1 c 5 0 c 4 -1 c 5 1 c 4 0 c 4 0 c 5 0 c
4 0 c 4 0 c 5 0 c 4 0 c 4 0 c 5 1 c 4 1 c 5 1 c 4 2 c 4 2 c 5 4 c 4 3 c 4 -2 c 5 -2 c 4 -5 c 5 0 c 4 -1 c 4 0 c 5 -2 c 4 -1 c 4 0 c
5 -1 c 4 0 c 5 0 c 4 0 c 4 1 c 5 0 c 4 0 c 4 3 c 5 13 c 4 8 c 4 0 c 5 -4 c 4 -14 c 5 -5 c 4 4 c 4 3 c 5 0 c 4 -2 c 4 -4 c 5 -2 c
4 -1 c 5 0 c 4 0 c 4 0 c 5 1 c 4 2 c 4 2 c 5 4 c 4 3 c 5 1 c 4 0 c 4 4 c 5 48 c 4 207 c 4 174 c 5 -3 c 4 -69 c 5 -249 c 4 -116 c
4 -5 c 5 0 c 4 1 c 4 1 c 5 3 c 4 9 c 4 8 c 5 0 c 4 -5 c 5 -7 c 4 -4 c 4 -1 c 5 -2 c 4 -2 c 4 0 c 5 0 c 4 -1 c 5 -3 c 4 0 c 4 0 c
5 -1 c 4 0 c 4 0 c 5 0 c 4 0 c 5 1 c 4 2 c 4 0 c 5 0 c 4 0 c 4 2 c 5 1 c 4 2 c 5 4 c 4 2 c 4 -1 c 5 -2 c 4 -4 c 4 -2 c 5 -2 c 4 -1 c
4 -1 c 5 0 c 4 1 c 5 0 c 4 1 c 4 1 c 5 -1 c 4 1 c 4 0 c 5 0 c 4 1 c 5 8 c 4 52 c 4 177 c 5 155 c 4 351 c 4 167 c 5 -162 c 4 -177 c
5 -414 c 4 -146 c 4 -8 c 5 5 c 4 35 c 4 42 c 5 8 c 4 -14 c 5 -49 c 4 -30 c 4 -3 c 5 0 c 4 0 c 4 -1 c 5 0 c 4 0 c 4 0 c 5 0 c 4 0 c
5 1 c 4 0 c 4 3 c 5 24 c 4 38 c 4 5 c 5 -4 c 4 -33 c 5 -30 c 4 -3 c 4 -1 c 5 0 c 4 0 c 4 0 c 5 0 c 4 0 c 5 0 c 4 0 c 4 0 c 5 1 c
4 -1 c 4 -1 c 5 1 c 4 -1 c 4 2 c 5 2 c 4 3 c 5 2 c 4 4 c 4 2 c 5 -2 c 4 -3 c 4 -5 c 5 -3 c 4 -1 c 5 0 c 4 -1 c 4 1 c 5 1 c 4 0 c
4 0 c 5 -1 c 4 0 c 5 0 c 4 0 c 4 2 c 5 5 c 4 1 c 4 -1 c 5 -2 c 4 -5 c 5 -1 c 4 0 c 4 0 c 5 0 c 4 1 c 4 1 c 5 2 c 4 1 c 4 1 c 5 0 c
4 -1 c 5 0 c 4 -1 c 4 -1 c 5 -1 c 4 -1 c 4 -1 c 5 1 c 4 0 c 5 0 c 4 1 c 4 7 c 5 18 c 4 11 c 4 33 c 5 16 c 4 -15 c 5 -15 c 4 -35 c
4 -13 c 5 1 c 4 3 c 4 0 c 5 0 c 4 -3 c 5 -5 c 4 -2 c 4 0 c 5 2 c 4 2 c 4 0 c 5 0 c 4 -2 c 4 -2 c 5 0 c 4 -1 c 5 1 c 4 2 c 4 0 c
5 0 c 4 -2 c 4 -2 c 5 0 c 4 1 c 5 14 c 4 13 c 4 2 c 5 -5 c 4 -15 c 4 -7 c 5 0 c 4 1 c 5 -1 c 4 -2 c 4 0 c 5 0 c 4 2 c 4 1 c 5 0 c
4 -1 c 5 -1 c 4 -2 c 4 0 c 5 0 c 4 0 c 4 0 c 5 0 c 4 0 c 4 0 c 5 0 c 4 0 c 5 0 c 4 1 c 4 3 c 5 3 c 4 0 c 4 0 c 5 -2 c 4 -1 c 5 2 c
4 2 c 4 2 c 5 0 c 4 -2 c 4 -2 c 5 0 c 4 0 c 5 -2 c 4 -1 c 4 -1 c 5 -2 c 4 1 c 4 0 c 5 0 c 4 0 c 5 0 c 4 1 c 4 0 c 5 1 c 4 0 c 4 0 c
5 -1 c 4 2 c 4 2 c 5 0 c 4 0 c 5 3 c 4 17 c 4 7 c 5 1 c 4 -8 c 4 -16 c 5 -3 c 4 -2 c 5 0 c 4 -1 c 4 1 c 5 1 c 4 1 c 4 0 c 5 -1 c
4 -2 c 5 -2 c 4 -1 c 4 0 c 5 1 c 4 1 c 4 1 c 5 -1 c 4 0 c 4 -1 c 5 0 c 4 0 c 5 1 c 4 6 c 4 6 c 5 1 c 4 0 c 4 -3 c 5 -1 c 4 0 c
5 -1 c 4 -4 c 4 -3 c 5 0 c 4 0 c 4 0 c 5 1 c 4 -1 c 5 0 c 4 0 c 4 0 c 5 1 c 4 4 c 4 4 c 5 1 c 4 0 c 5 -2 c 4 -1 c 4 3 c 5 3 c 4 6 c
4 24 c 5 347 c 4 1489 c 4 713 c 5 34 c 4 -526 c 5 -1581 c 4 -470 c 4 -31 c 5 -2 c 4 0 c 4 8 c 5 32 c 4 21 c 5 1 c 4 -10 c 4 -42 c
5 -18 c 4 -3 c 4 -1 c 5 1 c 4 -1 c 5 -1 c 4 0 c 4 -1 c 5 0 c 4 2 c 4 11 c 5 63 c 4 42 c 5 5 c 4 -18 c 4 -74 c 5 -27 c 4 -2 c 4 1 c
5 0 c 4 1 c 4 1 c 5 10 c 4 85 c 5 114 c 4 81 c 4 173 c 5 53 c 4 -77 c 4 -78 c 5 -205 c 4 -120 c 5 -21 c 4 1 c 4 2 c 5 7 c 4 41 c
4 107 c 5 99 c 4 783 c 5 3214 c 4 1615 c 4 41 c 5 -1226 c 4 -3444 c 4 -1139 c 5 -53 c 4 57 c 5 376 c 4 258 c 4 9 c 5 -113 c 4 -437 c
4 -189 c 5 -19 c 4 -1 c 4 1 c 5 0 c 4 3 c 5 2 c 4 4 c 4 6 c 5 -2 c 4 -6 c 4 -8 c 5 -5 c 4 4 c 5 2 c 4 5 c 4 1 c 5 -1 c 4 -3 c 4 -5 c
5 1 c 4 7 c 5 3 c 4 0 c 4 -8 c 5 -7 c 4 -1 c 4 1 c 5 1 c 4 0 c 5 -2 c 4 1 c 4 9 c 5 13 c 4 5 c 4 22 c 5 15 c 4 -11 c 4 -7 c 5 -27 c
4 -16 c 5 0 c 4 4 c 4 0 c 5 -2 c 4 -4 c 4 -3 c 5 0 c 4 1 c 5 1 c 4 1 c 4 1 c 5 2 c 4 3 c 4 5 c 5 5 c 4 6 c 5 20 c 4 194 c 4 1338 c
5 1373 c 4 292 c 4 -303 c 5 -1546 c 4 -1209 c 4 -144 c 5 -8 c 4 4 c 5 43 c 4 56 c 4 4 c 5 -13 c 4 -54 c 4 -62 c 5 -7 c 4 0 c 5 -1 c
4 -1 c 4 0 c 5 -2 c 4 0 c 4 0 c 5 0 c 4 -1 c 5 1 c 4 0 c 4 1 c 5 2 c 4 1 c 4 0 c 5 -2 c 4 -2 c 5 0 c 4 1 c 4 8 c 5 23 c 4 30 c 4 8 c
5 -10 c 4 -29 c 4 -25 c 5 -6 c 4 -2 c 5 0 c 4 0 c 4 2 c 5 0 c 4 0 c 4 -1 c 5 -1 c 4 0 c 5 2 c 4 0 c 4 1 c 5 5 c 4 43 c 4 98 c 5 31 c
4 1 c 5 -57 c 4 -93 c 4 -27 c 5 -1 c 4 -1 c 4 0 c 5 -2 c 4 -1 c 5 0 c 4 3 c 4 5 c 5 0 c 4 1 c 4 -2 c 5 -2 c 4 12 c 4 41 c 5 20 c
4 -2 c 5 -18 c 4 -40 c 4 -2 c 5 3 c 4 0 c 4 -6 c 5 -10 c 4 -4 c 5 0 c 4 0 c 4 1 c 5 0 c 4 7 c 4 10 c 5 3 c 4 4 c 5 29 c 4 22 c 4 0 c
5 -11 c 4 -36 c 4 -21 c 5 2 c 4 6 c 5 1 c 4 -1 c 4 -3 c 5 9 c 4 12 c 4 3 c 5 0 c 4 -3 c 4 -4 c 5 -1 c 4 -8 c 5 -14 c 4 1 c 4 2 c
5 0 c 4 -1 c 4 -4 c 5 4 c 4 11 c 5 3 c 4 0 c 4 -7 c 5 -12 c 4 -3 c 4 -1 c 5 0 c 4 1 c 5 0 c 4 4 c 4 22 c 5 13 c 4 2 c 4 -8 c 5 -21 c
4 -9 c 5 1 c 4 2 c 4 0 c 5 -2 c 4 -2 c 4 -1 c 5 1 c 4 0 c 4 0 c 5 -1 c 4 -1 c 5 1 c 4 0 c 4 0 c 5 0 c 4 0 c 4 -1 c 5 -1 c 4 1 c
5 0 c 4 0 c 4 -14 c 5 13 c 4 1 c 4 1 c 5 0 c 4 0 c 5 -1 c 4 -2 c 4 0 c 5 0 c 4 0 c 4 0 c 5 0 c 4 1 c 4 0 c 5 1 c 4 1 c 5 3 c 4 12 c
4 9 c 5 0 c 4 -3 c 4 -13 c 5 -8 c 4 -1 c 5 0 c 4 0 c 4 0 c 5 0 c 4 0 c 4 0 c 5 1 c 4 2 c 5 1 c 4 0 c 4 0 c 5 -1 c 4 -1 c 4 -1 c
5 0 c 4 0 c 5 1 c 4 1 c 4 -1 c 5 0 c 4 -2 c 4 0 c 5 -1 c 4 1 c 4 0 c 5 3 c 4 10 c 5 6 c 4 2 c 4 -4 c 5 -11 c 4 -3 c 4 -1 c 5 -2 c
4 -1 c 5 0 c 4 0 c 4 0 c 5 0 c 4 0 c 4 0 c 5 3 c 4 9 c 5 5 c 4 3 c 4 1 c 5 -4 c 4 -2 c 4 -3 c 5 -4 c 4 -4 c 5 -2 c 4 0 c 4 -1 c
5 0 c 4 0 c 4 0 c 5 -1 c 4 0 c 4 2 c 5 0 c 4 1 c 5 1 c 4 0 c 4 0 c 5 1 c 4 -2 c 4 0 c 5 0 c 4 0 c 5 0 c 4 1 c 4 2 c 5 0 c 4 1 c
4 7 c 5 10 c 4 19 c 5 64 c 4 57 c 4 11 c 5 -9 c 4 -69 c 4 -66 c 5 -11 c 4 -4 c 5 1 c 4 -1 c 4 -4 c 5 -4 c 4 -3 c 4 -2 c 5 1 c 4 -1 c
4 1 c 5 0 c 4 1 c 5 0 c 4 1 c 4 0 c 5 1 c 4 0 c 4 2 c 5 2 c 4 1 c 5 2 c 4 4 c 4 5 c 5 3 c 4 12 c 4 14 c 5 28 c 4 47 c 5 240 c
4 1602 c 4 2295 c 5 671 c 4 -241 c 4 -1827 c 5 -2193 c 4 -558 c 4 -48 c 5 -4 c 4 29 c 5 285 c 4 1477 c 4 1392 c 5 -3260 c 4 3328 c
4 -1571 c 5 -1421 c 4 -246 c 5 -26 c 4 -12 c 4 -10 c 5 -5 c 4 -5 c 4 -4 c 5 -2 c 4 -1 c 5 -25 c 5 138 5837 780 l 4 -25 c 5 -71 c
4 -23 c 4 -3 c 5 -1 c 4 0 c 4 0 c 5 1 c 4 0 c 5 -1 c 4 1 c 4 0 c 5 1 c 4 0 c 4 0 c 5 1 c 4 0 c 4 2 c 5 24 c 4 141 c 5 132 c 4 29 c
4 -24 c 5 -152 c 4 -131 c 4 -20 c 5 0 c 4 1 c 5 0 c 4 0 c 4 -2 c 5 -2 c 4 0 c 4 1 c 5 1 c 4 0 c 5 3 c 4 5 c 4 1 c 5 -2 c 4 -1 c
4 -4 c 5 -1 c 4 -1 c 5 -1 c 4 -1 c 4 -1 c 5 0 c 4 0 c 4 0 c 5 0 c 4 1 c 4 -1 c 5 1 c 4 0 c 5 5 c 4 15 c 4 8 c 5 0 c 4 -7 c 4 -15 c
5 -8 c 4 -1 c 5 1 c 4 0 c 4 0 c 5 0 c 4 1 c 4 0 c 5 3 c 4 0 c 5 0 c 4 0 c 4 -1 c 5 0 c 4 1 c 4 4 c 5 7 c 4 2 c 5 0 c 4 -4 c 4 -8 c
5 -1 c 4 3 c 4 22 c 5 130 c 4 118 c 4 29 c 5 -33 c 4 -137 c 5 -118 c 4 -12 c 4 -1 c 5 0 c 4 1 c 4 -1 c 5 0 c 4 -1 c 5 -2 c 4 0 c
4 1 c 5 2 c 4 1 c 4 -1 c 5 -2 c 4 0 c 5 19 c 4 43 c 4 15 c 5 -2 c 4 -23 c 4 -40 c 5 -12 c 4 -1 c 4 2 c 5 18 c 4 88 c 5 62 c 4 9 c
4 -11 c 5 -51 c 4 -33 c 4 -6 c 5 -4 c 4 -38 c 5 -29 c 4 -4 c 4 -2 c 5 0 c 4 0 c 4 -1 c 5 0 c 4 -1 c 5 0 c 4 0 c 4 0 c 5 -1 c 4 0 c
4 0 c 5 1 c 4 0 c 5 1 c 4 0 c 4 -1 c 5 0 c 4 0 c 4 0 c 5 1 c 4 0 c 4 0 c 5 0 c 4 1 c 5 2 c 4 5 c 4 0 c 5 -1 c 4 -3 c 4 -3 c 5 0 c
4 0 c 5 1 c 4 3 c 4 0 c 5 0 c 4 -2 c 4 -1 c 5 -1 c 4 1 c 5 1 c 4 1 c 4 1 c 5 1 c 4 -1 c 4 -21 c 5 21 c 4 1 c 5 0 c 4 0 c 4 4 c 5 3 c
4 2 c 4 0 c 5 0 c 4 -3 c 4 2 c 5 0 c 4 0 c 5 1 c 4 3 c 4 16 c 5 9 c 4 7 c 4 2 c 5 -12 c 4 1 c 5 12 c 4 13 c 4 15 c 5 19 c 4 31 c
4 131 c 5 1293 c 4 4437 c 5 -5 c 4 29 c 4 -23 c 5 4 c 4 -4472 c 4 -1309 c 5 -84 c 4 -36 c 5 -16 c 4 -17 c 4 -9 c 5 -6 c 4 -7 c
4 -4 c 5 -5 c 4 -4 c 4 -4 c 5 -1 c 4 3 c 5 3 c 4 5 c 4 16 c 5 4 c 4 15 c 4 25 c 5 -8 c 4 -4 c 5 -25 c 4 -32 c 4 -8 c 5 -2 c 4 -6 c
4 -1 c 5 -1 c 4 0 c 5 -1 c 4 2 c 4 1 c 5 4 c 4 1 c 4 -1 c 5 1 c 4 -3 c 5 -2 c 4 2 c 4 7 c 5 4 c 4 0 c 4 -1 c 5 -8 c 4 -3 c 4 1 c
5 5 c 4 15 c 5 40 c 4 27 c 4 6 c 5 -13 c 4 -40 c 4 -25 c 5 -6 c 4 -1 c 5 -2 c 4 1 c 4 1 c 5 0 c 4 0 c 4 3 c 5 3 c 4 5 c 5 8 c 4 6 c
4 5 c 5 9 c 4 13 c 4 13 c 5 21 c 4 28 c 4 29 c 5 142 c 4 1227 c 5 4510 c 4 -4 c 4 -18 c 5 18 c 4 -24 c 4 -2834 c 5 -2726 c 4 -249 c
5 -52 c 4 -24 c 4 -27 c 5 -17 c 4 -3 c 4 -8 c 5 -5 c 4 -8 c 5 -15 c 4 -11 c 4 -6 c 5 0 c 4 -1 c 4 -1 c 5 1 c 4 3 c 5 0 c 4 0 c
4 -5 c 5 -5 c 4 -4 c 4 0 c 5 6 c 4 29 c 4 28 c 5 16 c 4 1 c 5 -29 c 4 -27 c 4 -14 c 5 -3 c 4 2 c 4 33 c 5 318 c 4 450 c 5 89 c
4 -28 c 4 -219 c 5 -234 c 4 12 c 4 2 c 5 -83 c 4 -208 c 5 -112 c 4 -24 c 4 -6 c 5 -3 c 4 0 c 4 8 c 5 3 c 4 -1 c 5 -2 c 4 -9 c 4 -7 c
5 -1 c 4 0 c 4 -1 c 5 0 c 4 -1 c 4 0 c 5 -1 c 4 1 c 5 0 c 4 2 c 4 0 c 5 0 c 4 -1 c 4 -1 c 5 -1 c 4 0 c 5 0 c 4 -1 c 4 1 c 5 0 c
4 0 c 4 1 c 5 5 c 4 5 c 5 2 c 4 -1 c 4 -2 c 5 -1 c 4 6 c 4 3 c 5 2 c 4 -2 c 5 -4 c 4 9 c 4 52 c 5 64 c 4 22 c 4 -2 c 5 -49 c 4 -64 c
4 2 c 5 17 c 4 0 c 5 -4 c 4 -32 c 4 -26 c 5 -3 c 4 0 c 4 0 c 5 0 c 4 4 c 5 20 c 4 12 c 4 1 c 5 -3 c 4 -18 c 4 3 c 5 34 c 4 6 c
5 -1 c 4 -16 c 4 -33 c 5 -9 c 4 -1 c 4 1 c 5 -1 c 4 -1 c 5 0 c 4 -1 c 4 0 c 5 0 c 4 1 c 4 1 c 5 1 c 4 6 c 4 4 c 5 0 c 4 -2 c 5 -6 c
4 -4 c 4 -1 c 5 0 c 4 0 c 4 1 c 5 0 c 4 0 c 5 2 c 4 0 c 4 2 c 5 1 c 4 -1 c 4 1 c 5 -2 c 4 -1 c 5 1 c 4 6 c 4 2 c 5 1 c 4 -2 c 4 -6 c
5 -4 c 4 0 c 4 -1 c 5 0 c 4 2 c 5 2 c 4 -1 c 4 0 c 5 -1 c 4 -1 c 4 3 c 5 3 c 4 1 c 5 -1 c 4 -3 c 4 -3 c 5 -1 c 4 0 c 4 3 c 5 5 c
4 1 c 5 -1 c 4 -2 c 4 -5 c 5 -1 c 4 0 c 4 0 c 5 2 c 4 3 c 5 1 c 4 0 c 4 -2 c 5 -3 c 4 -1 c 4 0 c 5 0 c 4 0 c 4 0 c 5 0 c 4 1 c 5 0 c
4 0 c 4 0 c 5 -1 c 4 0 c 4 0 c 5 0 c 4 0 c 5 4 c 4 19 c 4 16 c 5 5 c 4 -1 c 4 -17 c 5 -19 c 4 -5 c 5 -1 c 4 -1 c 4 1 c 5 0 c 4 0 c
4 0 c 5 -1 c 4 1 c 5 -1 c 4 1 c 4 0 c 5 1 c 4 4 c 4 2 c 5 -1 c 4 -2 c 4 -4 c 5 0 c 4 0 c 5 1 c 4 0 c 4 -1 c 5 0 c 4 1 c 4 1 c 5 2 c
4 0 c 5 10 c 4 7 c 4 0 c 5 -1 c 4 -9 c 4 -10 c 5 -1 c 4 0 c 5 1 c 4 1 c 4 0 c 5 1 c 4 0 c 4 -1 c 5 0 c 4 -1 c 5 0 c 4 0 c 4 2 c
5 2 c 4 0 c 4 0 c 5 0 c 4 -2 c 4 0 c 5 0 c 4 1 c 5 1 c 4 16 c 4 35 c 5 9 c 4 1 c 4 -13 c 5 -35 c 4 -8 c 5 1 c 4 1 c 4 3 c 5 7 c
4 4 c 4 13 c 5 35 c 4 13 c 5 27 c 4 116 c 4 1354 c 5 4031 c 4 411 c 4 -1 c 5 -90 c 4 -3925 c 4 -1827 c 5 -123 c 4 -21 c 5 -7 c
4 -5 c 4 -1 c 5 9 c 4 -1 c 4 -1 c 5 -4 c 4 -12 c 5 -5 c 4 -5 c 4 -1 c 5 2 c 4 0 c 4 -1 c 5 0 c 4 -1 c 5 -2 c 4 -1 c 4 0 c 5 0 c
4 -1 c 4 0 c 5 0 c 4 0 c 5 0 c 4 0 c 4 0 c 5 1 c 4 1 c 4 4 c 5 26 c 4 44 c 4 9 c 5 -4 c 4 -16 c 5 -33 c 4 -8 c 4 0 c 5 -5 c 4 -15 c
4 -4 c 5 1 c 4 1 c 5 0 c 4 0 c 4 0 c 5 1 c 4 4 c 4 13 c 5 6 c 4 1 c 5 -2 c 4 -11 c 4 -6 c 5 1 c 4 0 c 4 3 c 5 6 c 4 52 c 5 233 c
4 131 c 4 15 c 5 -16 c 4 -145 c 4 852 c 5 2373 c 4 734 c 4 34 c 5 -808 c 4 -2532 c 5 -860 c 4 -52 c 4 -7 c 5 -5 c 4 -4 c 4 -3 c
5 -2 c 4 -1 c 5 0 c 4 -2 c 4 0 c 5 -2 c 4 -2 c 4 -1 c 5 1 c 4 5 c 5 26 c 4 14 c 4 -1 c 5 -5 c 4 -26 c 4 -15 c 5 -1 c 4 -1 c 5 1 c
4 -1 c 4 0 c 5 0 c 4 1 c 4 7 c 5 7 c 4 1 c 4 -1 c 5 -5 c 4 -8 c 5 -1 c 4 -1 c 4 -1 c 5 0 c 4 0 c 4 0 c 5 0 c 4 0 c 5 0 c 4 0 c 4 0 c
5 0 c 4 1 c 4 1 c 5 -1 c 4 0 c 5 0 c 4 0 c 4 -1 c 5 1 c 4 -1 c 4 0 c 5 2 c 4 1 c 5 2 c 4 0 c 4 -2 c 5 -1 c 4 -1 c 4 0 c 5 2 c 4 2 c
4 3 c 5 0 c 4 -1 c 5 3 c 4 50 c 4 241 c 5 118 c 4 19 c 4 -26 c 5 -226 c 4 -162 c 5 -16 c 4 -4 c 4 -1 c 5 5 c 4 5 c 4 15 c 5 11 c
4 -3 c 5 -6 c 4 -12 c 4 -16 c 5 -2 c 4 0 c 4 1 c 5 0 c 4 0 c 4 -1 c 5 -1 c 4 0 c 5 0 c 4 0 c 4 1 c 5 1 c 4 -1 c 4 0 c 5 -1 c 4 0 c
5 3 c 4 8 c 4 1 c 5 1 c 4 -1 c 4 -6 c 5 -2 c 4 0 c 5 0 c 4 -1 c 4 -2 c 5 0 c 4 0 c 4 1 c 5 1 c 4 1 c 5 1 c 4 -1 c 4 -1 c 5 1 c 4 6 c
4 5 c 5 1 c 4 1 c 4 2 c 5 -7 c 4 0 c 5 -2 c 4 -3 c 4 3 c 5 34 c 4 131 c 4 50 c 5 1 c 4 -16 c 5 -118 c 4 -76 c 4 -8 c 5 -5 c 4 -2 c
4 -1 c 5 0 c 4 0 c 5 0 c 4 1 c 4 1 c 5 0 c 4 0 c 4 -1 c 5 -1 c 4 0 c 5 0 c 4 1 c 4 -1 c 5 0 c 4 1 c 4 -1 c 5 0 c 4 1 c 4 2 c 5 13 c
4 6 c 5 -1 c 4 -1 c 4 -12 c 5 -8 c 4 0 c 4 1 c 5 5 c 4 2 c 5 0 c 4 0 c 4 -3 c 5 -4 c 4 3 c 4 11 c 5 21 c 4 14 c 5 -4 c 4 -8 c
4 -13 c 5 -8 c 4 2 c 4 -1 c
5 -4 c 4 -9 c 5 1 c 4 29 c 4 -46 c 4 67 9549 780 l 4 -26 c 5 -26 c 4 -4 c 4 0 c 5 1 c 4 0 c 5 -1 c 4 -1 c 4 0 c 5 0 c 4 -1 c 4 0 c
5 1 c 4 0 c 5 1 c 4 1 c 4 3 c 5 2 c 4 0 c 4 -1 c 5 -2 c 4 -1 c 5 1 c 4 1 c 4 1 c 5 2 c 4 17 c 4 106 c 5 108 c 4 21 c 5 -16 c 4 -82 c
4 -131 c 5 -13 c 4 41 c 4 111 c 5 52 c 4 6 c
0 -126 3030 418 l 54 0 3030 418 l 18 -6 c 6 -6 c 6 -12 c 0 -12 c -6 -12 c -6 -6 c -18 -6 c -54 0 c 42 -66 3072 358 l
-12 -6 3180 376 l -12 -12 c -6 -18 c 0 -12 c 6 -18 c 12 -12 c 12 -6 c 18 0 c 12 6 c 12 12 c 6 18 c 0 12 c -6 18 c -12 12 c -12 6 c
-18 0 c 24 -84 3264 376 l -24 -84 3312 376 l 24 -84 3312 376 l -24 -84 3360 376 l 108 0 3402 364 l 108 0 3402 328 l 12 6 3666 394 l
18 18 c 0 -126 c -18 -6 3804 418 l -12 -18 c -6 -30 c 0 -18 c 6 -30 c 12 -18 c 18 -6 c 12 0 c 18 6 c 12 18 c 6 30 c 0 18 c -6 30 c
-12 18 c -18 6 c -12 0 c 12 6 4290 394 l 18 18 c 0 -126 c -6 -6 4404 376 l 6 -6 c 6 6 c -6 6 c -6 -6 4404 304 l 6 -6 c 6 6 c -6 6 c
-48 -126 4584 418 l 48 -126 4584 418 l 60 0 4554 334 l 0 -84 4662 376 l 6 18 4662 340 l 12 12 c 12 6 c 18 0 c -12 12 4806 358 l
-12 6 c -18 0 c -12 -6 c -12 -12 c -6 -18 c 0 -12 c 6 -18 c 12 -12 c 12 -6 c 18 0 c 12 6 c 12 12 c 108 0 4848 346 l
-18 -6 5034 418 l -12 -18 c -6 -30 c 0 -18 c 6 -30 c 12 -18 c 18 -6 c 12 0 c 18 6 c 12 18 c 6 30 c 0 18 c -6 30 c -12 18 c -18 6 c
-12 0 c 66 0 5130 418 l -36 -48 c 18 0 c 12 -6 c 6 -6 c 6 -18 c 0 -12 c -6 -18 c -12 -12 c -18 -6 c -18 0 c -18 6 c -6 6 c -6 12 c
-59 0 5309 418 l -6 -54 c 6 6 c 17 6 c 18 0 c 18 -6 c 12 -12 c 6 -18 c 0 -12 c -6 -18 c -12 -12 c -18 -6 c -18 0 c -17 6 c -6 6 c
-6 12 c -6 -6 5369 304 l 6 -6 c 6 6 c -6 6 c -12 0 5459 418 l -12 -6 c -6 -18 c 0 -102 c 42 0 5411 376 l 6 -6 5489 418 l 6 6 c
-6 6 c -6 -6 c 0 -84 5495 376 l 0 -102 5549 418 l 6 -18 c 12 -6 c 12 0 c 42 0 5531 376 l -6 12 5675 358 l -18 6 c -18 0 c -18 -6 c
-6 -12 c 6 -12 c 12 -6 c 30 -6 c 12 -6 c 6 -12 c 0 -6 c -6 -12 c -18 -6 c -18 0 c -18 6 c -6 12 c 0 -192 6005 442 l
0 -192 6011 442 l 42 0 6005 442 l 42 0 6005 250 l 0 6 6089 388 l 6 12 c 6 6 c 12 6 c 24 0 c 12 -6 c 6 -6 c 6 -12 c 0 -12 c -6 -12 c
-12 -18 c -60 -60 c 84 0 c -6 -6 6215 376 l 6 -6 c 6 6 c -6 6 c -6 -6 6215 304 l 6 -6 c 6 6 c -6 6 c -48 -126 6395 418 l
48 -126 6395 418 l 60 0 6365 334 l 0 -84 6473 376 l 6 18 6473 340 l 12 12 c 12 6 c 18 0 c -12 12 6617 358 l -12 6 c -18 0 c -12 -6 c
-12 -12 c -6 -18 c 0 -12 c 6 -18 c 12 -12 c 12 -6 c 18 0 c 12 6 c 12 12 c 108 0 6659 346 l -18 -6 6845 418 l -12 -18 c -6 -30 c
0 -18 c 6 -30 c 12 -18 c 18 -6 c 12 0 c 18 6 c 12 18 c 6 30 c 0 18 c -6 30 c -12 18 c -18 6 c -12 0 c 66 0 6941 418 l -36 -48 c
18 0 c 12 -6 c 6 -6 c 6 -18 c 0 -12 c -6 -18 c -12 -12 c -18 -6 c -18 0 c -18 6 c -6 6 c -6 12 c -6 12 7127 400 l -18 6 c -12 0 c
-18 -6 c -12 -18 c -6 -30 c 0 -30 c 6 -24 c 12 -12 c 18 -6 c 6 0 c 18 6 c 12 12 c 6 18 c 0 6 c -6 18 c -12 12 c -18 6 c -6 0 c
-18 -6 c -12 -12 c -6 -18 c -6 -6 7181 304 l 6 -6 c 6 6 c -6 6 c -12 0 7271 418 l -12 -6 c -6 -18 c 0 -102 c 42 0 7223 376 l
6 -6 7301 418 l 6 6 c -6 6 c -6 -6 c 0 -84 7307 376 l 0 -102 7361 418 l 6 -18 c 12 -6 c 12 0 c 42 0 7343 376 l -6 12 7487 358 l
-18 6 c -18 0 c -18 -6 c -6 -12 c 6 -12 c 12 -6 c 30 -6 c 12 -6 c 6 -12 c 0 -6 c -6 -12 c -18 -6 c -18 0 c -18 6 c -6 12 c
0 -192 7559 442 l 0 -192 7565 442 l 42 0 7523 442 l 42 0 7523 250 l
0 -249 961 7019 l 52 -38 918 7129 l 0 57 c 79 0 918 7129 l -4 7 933 7178 l -11 12 c 79 0 c 0 -37 918 7287 l 34 -4 c -4 4 c -4 11 c
0 11 c 4 12 c 7 7 c 12 4 c 7 0 c 12 -4 c 7 -7 c 4 -12 c 0 -11 c -4 -11 c -4 -4 c -7 -4 c 3 -12 918 7337 l 8 -4 c 7 0 c 8 4 c 4 8 c
4 15 c 3 11 c 8 8 c 7 4 c 12 0 c 7 -4 c 4 -4 c 4 -11 c 0 -15 c -4 -12 c -4 -4 c -7 -3 c -12 0 c -7 3 c -8 8 c -3 11 c -4 15 c -4 8 c
-8 4 c -7 0 c -8 -4 c -3 -11 c 0 -15 c 4 -4 989 7401 l 4 4 c -4 4 c -4 -4 c 0 -37 918 7476 l 34 -4 c -4 4 c -4 11 c 0 11 c 4 12 c
7 7 c 12 4 c 7 0 c 12 -4 c 7 -7 c 4 -12 c 0 -11 c -4 -11 c -4 -4 c -7 -4 c 11 -4 944 7556 l 8 -8 c 4 -11 c 0 -4 c -4 -11 c -8 -8 c
-11 -3 c -4 0 c -11 3 c -8 8 c -3 11 c 0 4 c 3 11 c 8 8 c 15 4 c 19 0 c 19 -4 c 11 -8 c 4 -11 c 0 -7 c -4 -12 c -7 -4 c
-4 7 933 7594 l -11 11 c 79 0 c 0 -249 1111 1322 l 53 -38 1068 1432 l 0 57 c 79 0 1068 1432 l -4 8 1083 1481 l -11 11 c 79 0 c
0 -38 1068 1591 l 34 -4 c -4 4 c -4 11 c 0 12 c 4 11 c 8 8 c 11 3 c 7 0 c 12 -3 c 7 -8 c 4 -11 c 0 -12 c -4 -11 c -3 -4 c -8 -4 c
12 -4 1094 1670 l 7 -7 c 4 -12 c 0 -3 c -4 -12 c -7 -7 c -12 -4 c -4 0 c -11 4 c -7 7 c -4 12 c 0 3 c 4 12 c 7 7 c 15 4 c 19 0 c
19 -4 c 11 -7 c 4 -12 c 0 -7 c -4 -11 c -7 -4 c 3 -4 1140 1704 l 4 4 c -4 4 c -3 -4 c -7 -3 1079 1783 l -4 -12 c 0 -7 c 4 -12 c
11 -7 c 19 -4 c 19 0 c 15 4 c 7 7 c 4 12 c 0 4 c -4 11 c -7 7 c -12 4 c -3 0 c -12 -4 c -7 -7 c -4 -11 c 0 -4 c 4 -12 c 7 -7 c
12 -4 c -7 -4 1079 1859 l -4 -11 c 0 -8 c 4 -11 c 11 -7 c 19 -4 c 19 0 c 15 4 c 7 7 c 4 11 c 0 4 c -4 12 c -7 7 c -12 4 c -3 0 c
-12 -4 c -7 -7 c -4 -12 c 0 -4 c 4 -11 c 7 -7 c 12 -4 c 4 -11 1068 1908 l 11 -8 c 19 -3 c 11 0 c 19 3 c 11 8 c 4 11 c 0 8 c -4 11 c
-11 8 c -19 3 c -11 0 c -19 -3 c -11 -8 c -4 -11 c 0 -8 c 0 -250 1402 1263 l 53 -38 1358 1373 l 0 57 c 80 0 1358 1373 l
-4 7 1374 1422 l -12 12 c 80 0 c -8 -4 1370 1535 l -4 -11 c 0 -8 c 4 -11 c 12 -7 c 19 -4 c 18 0 c 16 4 c 7 7 c 4 11 c 0 4 c -4 12 c
-7 7 c -12 4 c -4 0 c -11 -4 c -7 -7 c -4 -12 c 0 -4 c 4 -11 c 7 -7 c 11 -4 c -4 7 1374 1573 l -12 12 c 80 0 c 4 -4 1430 1645 l
4 4 c -4 4 c -4 -4 c 80 -38 1358 1728 l 0 53 1358 1675 l 0 42 1358 1758 l 31 -23 c 0 11 c 4 8 c 3 4 c 12 3 c 7 0 c 12 -3 c 7 -8 c
4 -11 c 0 -12 c -4 -11 c -4 -4 c -7 -3 c 11 -3 1385 1875 l 8 -8 c 4 -11 c 0 -4 c -4 -12 c -8 -7 c -11 -4 c -4 0 c -11 4 c -8 7 c
-4 12 c 0 4 c 4 11 c 8 8 c 15 3 c 19 0 c 19 -3 c 11 -8 c 4 -11 c 0 -8 c -4 -11 c -7 -4 c 0 -249 1747 2852 l 53 -38 1704 2962 l
0 57 c 79 0 1704 2962 l -4 8 1719 3011 l -11 11 c 79 0 c -7 -4 1715 3125 l -4 -12 c 0 -7 c 4 -11 c 11 -8 c 19 -4 c 19 0 c 15 4 c
7 8 c 4 11 c 0 4 c -4 11 c -7 8 c -12 3 c -3 0 c -12 -3 c -7 -8 c -4 -11 c 0 -4 c 4 -11 c 7 -8 c 12 -4 c 53 -38 1704 3189 l 0 57 c
79 0 1704 3189 l 3 -4 1776 3234 l 4 4 c -4 4 c -3 -4 c -4 0 1723 3268 l -8 4 c -3 4 c -4 7 c 0 15 c 4 8 c 3 4 c 8 4 c 7 0 c 8 -4 c
11 -8 c 38 -38 c 0 53 c 0 -37 1704 3385 l 34 -4 c -4 4 c -4 11 c 0 11 c 4 12 c 8 7 c 11 4 c 7 0 c 12 -4 c 7 -7 c 4 -12 c 0 -11 c
-4 -11 c -3 -4 c -8 -4 c 0 -38 1704 3461 l 34 -4 c -4 4 c -4 11 c 0 12 c 4 11 c 8 8 c 11 3 c 7 0 c 12 -3 c 7 -8 c 4 -11 c 0 -12 c
-4 -11 c -3 -4 c -8 -3 c 0 -250 1971 1644 l 53 -37 1928 1753 l 0 56 c 79 0 1928 1753 l -4 8 1943 1802 l -11 11 c 79 0 c
-8 -4 1939 1916 l -3 -11 c 0 -8 c 3 -11 c 12 -8 c 19 -4 c 19 0 c 15 4 c 7 8 c 4 11 c 0 4 c -4 11 c -7 8 c -12 4 c -3 0 c -12 -4 c
-7 -8 c -4 -11 c 0 -4 c 4 -11 c 7 -8 c 12 -4 c 0 -38 1928 1988 l 34 -4 c -4 4 c -4 11 c 0 12 c 4 11 c 7 7 c 12 4 c 7 0 c 12 -4 c
7 -7 c 4 -11 c 0 -12 c -4 -11 c -4 -4 c -7 -4 c 4 -3 1999 2025 l 4 3 c -4 4 c -4 -4 c 79 -38 1928 2109 l 0 53 1928 2056 l
-8 -3 1939 2180 l -3 -12 c 0 -7 c 3 -12 c 12 -7 c 19 -4 c 19 0 c 15 4 c 7 7 c 4 12 c 0 4 c -4 11 c -7 7 c -12 4 c -3 0 c -12 -4 c
-7 -7 c -4 -11 c 0 -4 c 4 -12 c 7 -7 c 12 -4 c -8 -4 1939 2256 l -3 -11 c 0 -8 c 3 -11 c 12 -8 c 19 -3 c 19 0 c 15 3 c 7 8 c 4 11 c
0 4 c -4 11 c -7 8 c -12 4 c -3 0 c -12 -4 c -7 -8 c -4 -11 c 0 -4 c 4 -11 c 7 -8 c 12 -3 c 0 -250 2378 1673 l 53 -38 2335 1782 l
0 57 c 79 0 2335 1782 l -4 8 2350 1831 l -11 11 c 79 0 c -7 -4 2346 1945 l -4 -11 c 0 -8 c 4 -11 c 11 -8 c 19 -4 c 19 0 c 15 4 c
7 8 c 4 11 c 0 4 c -4 11 c -7 8 c -11 3 c -4 0 c -12 -3 c -7 -8 c -4 -11 c 0 -4 c 4 -11 c 7 -8 c 12 -4 c 4 -11 2335 1990 l 7 -4 c
8 0 c 7 4 c 4 7 c 4 15 c 4 12 c 7 7 c 8 4 c 11 0 c 8 -4 c 3 -3 c 4 -12 c 0 -15 c -4 -11 c -3 -4 c -8 -4 c -11 0 c -8 4 c -7 7 c
-4 12 c -4 15 c -4 8 c -7 3 c -8 0 c -7 -3 c -4 -12 c 0 -15 c 3 -3 2407 2054 l 4 3 c -4 4 c -3 -4 c -7 -4 2346 2134 l -4 -11 c
0 -8 c 4 -11 c 11 -8 c 19 -4 c 19 0 c 15 4 c 7 8 c 4 11 c 0 4 c -4 11 c -7 8 c -11 3 c -4 0 c -12 -3 c -7 -8 c -4 -11 c 0 -4 c
4 -11 c 7 -8 c 12 -4 c 0 41 2335 2168 l 30 -22 c 0 11 c 4 7 c 4 4 c 11 4 c 8 0 c 11 -4 c 7 -7 c 4 -12 c 0 -11 c -4 -11 c -3 -4 c
-8 -4 c 53 -38 2335 2274 l 0 56 c 79 0 2335 2274 l 0 -250 2647 2142 l 53 -37 2603 2251 l 0 56 c 80 0 2603 2251 l -3 7 2618 2301 l
-12 11 c 80 0 c 80 -38 2603 2418 l 0 53 2603 2365 l 4 -11 2603 2463 l 11 -8 c 19 -4 c 12 0 c 19 4 c 11 8 c 4 11 c 0 8 c -4 11 c
-11 8 c -19 3 c -12 0 c -19 -3 c -11 -8 c -4 -11 c 0 -8 c 4 -4 2675 2524 l 4 4 c -4 3 c -4 -3 c 0 -38 2603 2599 l 34 -3 c -4 3 c
-3 12 c 0 11 c 3 11 c 8 8 c 11 4 c 8 0 c 11 -4 c 8 -8 c 4 -11 c 0 -11 c -4 -12 c -4 -3 c -7 -4 c 0 42 2603 2637 l 30 -23 c 0 11 c
4 8 c 4 4 c 11 3 c 8 0 c 11 -3 c 8 -8 c 4 -11 c 0 -12 c -4 -11 c -4 -4 c -7 -4 c 0 41 2603 2713 l 30 -23 c 0 12 c 4 7 c 4 4 c 11 4 c
8 0 c 11 -4 c 8 -7 c 4 -12 c 0 -11 c -4 -11 c -4 -4 c -7 -4 c 0 -250 2765 1299 l 53 -38 2721 1408 l 0 57 c 79 0 2721 1408 l
-4 8 2736 1457 l -11 11 c 79 0 c 79 -38 2721 1575 l 0 53 2721 1522 l -4 7 2736 1609 l -11 11 c 79 0 c 4 -3 2793 1680 l 3 3 c -3 4 c
-4 -4 c 0 42 2721 1718 l 30 -23 c 0 11 c 4 8 c 4 4 c 11 4 c 8 0 c 11 -4 c 8 -8 c 3 -11 c 0 -11 c -3 -12 c -4 -4 c -8 -3 c
53 -38 2721 1824 l 0 57 c 79 0 2721 1824 l -4 8 2736 1873 l -11 11 c 79 0 c 0 -250 3733 3858 l 53 -38 3689 3968 l 0 56 c
80 0 3689 3968 l -4 7 3705 4017 l -12 12 c 80 0 c 80 -38 3689 4134 l 0 53 3689 4081 l 4 -11 3689 4175 l 8 -4 c 7 0 c 8 4 c 4 8 c
3 15 c 4 11 c 8 8 c 7 3 c 12 0 c 7 -3 c 4 -4 c 4 -11 c 0 -16 c -4 -11 c -4 -4 c -7 -3 c -12 0 c -7 3 c -8 8 c -4 11 c -3 15 c -4 8 c
-8 4 c -7 0 c -8 -4 c -4 -11 c 0 -16 c 4 -4 3761 4240 l 4 4 c -4 3 c -4 -3 c 4 -12 3689 4293 l 12 -7 c 18 -4 c 12 0 c 19 4 c 11 7 c
4 12 c 0 7 c -4 11 c -11 8 c -19 4 c -12 0 c -18 -4 c -12 -8 c -4 -11 c 0 -7 c -8 -4 3701 4395 l -4 -11 c 0 -8 c 4 -11 c 12 -8 c
18 -4 c 19 0 c 15 4 c 8 8 c 4 11 c 0 4 c -4 11 c -8 8 c -11 3 c -4 0 c -11 -3 c -8 -8 c -3 -11 c 0 -4 c 3 -11 c 8 -8 c 11 -4 c
4 -12 3689 4444 l 12 -7 c 18 -4 c 12 0 c 19 4 c 11 7 c 4 12 c 0 7 c -4 12 c -11 7 c -19 4 c -12 0 c -18 -4 c -12 -7 c -4 -12 c
0 -7 c 0 -250 3847 1357 l 53 -38 3804 1466 l 0 57 c 79 0 3804 1466 l -4 8 3819 1515 l -11 11 c 79 0 c 79 -38 3804 1633 l
0 53 3804 1580 l 4 -11 3804 1674 l 7 -4 c 8 0 c 7 4 c 4 7 c 4 15 c 4 12 c 7 7 c 8 4 c 11 0 c 8 -4 c 3 -3 c 4 -12 c 0 -15 c -4 -11 c
-3 -4 c -8 -4 c -11 0 c -8 4 c -7 8 c -4 11 c -4 15 c -4 8 c -7 3 c -8 0 c -7 -3 c -4 -12 c 0 -15 c 3 -3 3876 1738 l 4 3 c -4 4 c
-3 -4 c 4 -12 3804 1788 l 7 -4 c 8 0 c 7 4 c 4 8 c 4 15 c 4 11 c 7 8 c 8 4 c 11 0 c 8 -4 c 3 -4 c 4 -11 c 0 -15 c -4 -12 c -3 -4 c
-8 -3 c -11 0 c -8 3 c -7 8 c -4 11 c -4 15 c -4 8 c -7 4 c -8 0 c -7 -4 c -4 -11 c 0 -15 c 53 -38 3804 1882 l 0 57 c
79 0 3804 1882 l 4 -12 3804 1939 l 7 -3 c 8 0 c 7 3 c 4 8 c 4 15 c 4 11 c 7 8 c 8 4 c 11 0 c 8 -4 c 3 -4 c 4 -11 c 0 -15 c -4 -12 c
-3 -3 c -8 -4 c -11 0 c -8 4 c -7 7 c -4 11 c -4 16 c -4 7 c -7 4 c -8 0 c -7 -4 c -4 -11 c 0 -15 c 0 -249 4290 4476 l
53 -38 4246 4586 l 0 57 c 80 0 4246 4586 l -3 8 4261 4635 l -12 11 c 80 0 c 4 -11 4246 4718 l 8 -4 c 7 0 c 8 4 c 3 7 c 4 16 c 4 11 c
8 7 c 7 4 c 11 0 c 8 -4 c 4 -3 c 4 -12 c 0 -15 c -4 -11 c -4 -4 c -8 -4 c -11 0 c -7 4 c -8 8 c -4 11 c -4 15 c -3 8 c -8 3 c -7 0 c
-8 -3 c -4 -12 c 0 -15 c -3 8 4261 4786 l -12 11 c 80 0 c 4 -4 4318 4858 l 4 4 c -4 4 c -4 -4 c 4 -11 4246 4907 l 8 -4 c 7 0 c 8 4 c
3 7 c 4 16 c 4 11 c 8 7 c 7 4 c 11 0 c 8 -4 c 4 -3 c 4 -12 c 0 -15 c -4 -11 c -4 -4 c -8 -4 c -11 0 c -7 4 c -8 8 c -4 11 c -4 15 c
-3 8 c -8 3 c -7 0 c -8 -3 c -4 -12 c 0 -15 c 4 -12 4246 4983 l 8 -3 c 7 0 c 8 3 c 3 8 c 4 15 c 4 11 c 8 8 c 7 4 c 11 0 c 8 -4 c
4 -4 c 4 -11 c 0 -15 c -4 -12 c -4 -3 c -8 -4 c -11 0 c -7 4 c -8 7 c -4 12 c -4 15 c -3 7 c -8 4 c -7 0 c -8 -4 c -4 -11 c 0 -15 c
53 -38 4246 5077 l 0 57 c 80 0 4246 5077 l 0 -249 4447 1304 l 52 -38 4404 1414 l 0 57 c 79 0 4404 1414 l -4 7 4419 1463 l -11 12 c
79 0 c 3 -11 4404 1546 l 8 -4 c 7 0 c 8 4 c 4 7 c 4 15 c 3 12 c 8 7 c 7 4 c 12 0 c 7 -4 c 4 -4 c 4 -11 c 0 -15 c -4 -11 c -4 -4 c
-7 -4 c -12 0 c -7 4 c -8 7 c -3 12 c -4 15 c -4 7 c -8 4 c -7 0 c -8 -4 c -3 -11 c 0 -15 c -3 0 4422 1606 l -8 4 c -4 4 c -3 8 c
0 15 c 3 7 c 4 4 c 8 4 c 7 0 c 8 -4 c 11 -8 c 38 -37 c 0 53 c 4 -4 4475 1686 l 4 4 c -4 4 c -4 -4 c 11 -4 4430 1765 l 8 -7 c 4 -11 c
0 -4 c -4 -12 c -8 -7 c -11 -4 c -4 0 c -11 4 c -8 7 c -3 12 c 0 4 c 3 11 c 8 7 c 15 4 c 19 0 c 19 -4 c 11 -7 c 4 -11 c 0 -8 c
-4 -11 c -7 -4 c 0 42 4404 1799 l 30 -23 c 0 11 c 4 8 c 3 4 c 12 4 c 7 0 c 12 -4 c 7 -8 c 4 -11 c 0 -11 c -4 -12 c -4 -4 c -7 -3 c
52 -38 4404 1905 l 0 57 c 79 0 4404 1905 l 0 -249 4620 1308 l 53 -38 4576 1418 l 0 57 c 80 0 4576 1418 l -4 8 4592 1467 l -12 11 c
80 0 c 4 -11 4576 1550 l 8 -4 c 7 0 c 8 4 c 4 8 c 3 15 c 4 11 c 8 8 c 7 3 c 12 0 c 7 -3 c 4 -4 c 4 -12 c 0 -15 c -4 -11 c -4 -4 c
-7 -4 c -12 0 c -7 4 c -8 8 c -4 11 c -3 15 c -4 8 c -8 4 c -7 0 c -8 -4 c -4 -12 c 0 -15 c 53 -38 4576 1645 l 0 57 c
80 0 4576 1645 l 4 -4 4648 1690 l 4 4 c -4 4 c -4 -4 c -4 7 4592 1732 l -12 12 c 80 0 c 0 41 4576 1804 l 31 -23 c 0 12 c 3 7 c 4 4 c
12 4 c 7 0 c 11 -4 c 8 -7 c 4 -12 c 0 -11 c -4 -11 c -4 -4 c -7 -4 c 4 -11 4576 1890 l 8 -4 c 7 0 c 8 4 c 4 8 c 3 15 c 4 11 c 8 8 c
7 4 c 12 0 c 7 -4 c 4 -4 c 4 -11 c 0 -16 c -4 -11 c -4 -4 c -7 -3 c -12 0 c -7 3 c -8 8 c -4 11 c -3 15 c -4 8 c -8 4 c -7 0 c
-8 -4 c -4 -11 c 0 -16 c 0 -250 5844 1355 l 52 -37 5801 1464 l 0 56 c 79 0 5801 1464 l -4 7 5816 1514 l -11 11 c 79 0 c
11 -4 5827 1627 l 8 -7 c 4 -12 c 0 -4 c -4 -11 c -8 -7 c -11 -4 c -4 0 c -11 4 c -8 7 c -3 11 c 0 4 c 3 12 c 8 7 c 15 4 c 19 0 c
19 -4 c 11 -7 c 4 -12 c 0 -7 c -4 -12 c -7 -3 c -3 0 5819 1657 l -8 4 c -4 4 c -3 7 c 0 15 c 3 8 c 4 4 c 8 4 c 7 0 c 8 -4 c 11 -8 c
38 -38 c 0 53 c 4 -4 5872 1737 l 4 4 c -4 3 c -4 -3 c 0 42 5801 1774 l 30 -23 c 0 12 c 4 7 c 3 4 c 12 4 c 7 0 c 12 -4 c 7 -8 c
4 -11 c 0 -11 c -4 -12 c -4 -3 c -7 -4 c -8 -4 5812 1892 l -3 -12 c 0 -7 c 3 -12 c 12 -7 c 19 -4 c 18 0 c 16 4 c 7 7 c 4 12 c 0 4 c
-4 11 c -7 8 c -12 3 c -4 0 c -11 -3 c -7 -8 c -4 -11 c 0 -4 c 4 -12 c 7 -7 c 11 -4 c -3 0 5819 1922 l -8 4 c -4 3 c -3 8 c 0 15 c
3 8 c 4 3 c 8 4 c 7 0 c 8 -4 c 11 -7 c 38 -38 c 0 53 c 0 -250 5938 1563 l 53 -37 5894 1672 l 0 56 c 80 0 5894 1672 l
-3 7 5909 1722 l -12 12 c 80 0 c 11 -4 5921 1835 l 8 -7 c 3 -12 c 0 -3 c -3 -12 c -8 -7 c -11 -4 c -4 0 c -11 4 c -8 7 c -4 12 c
0 3 c 4 12 c 8 7 c 15 4 c 19 0 c 19 -4 c 11 -7 c 4 -12 c 0 -7 c -4 -12 c -8 -3 c 0 42 5894 1869 l 31 -23 c 0 11 c 3 8 c 4 4 c 11 3 c
8 0 c 11 -3 c 8 -8 c 4 -11 c 0 -12 c -4 -11 c -4 -4 c -7 -4 c 4 -4 5966 1945 l 4 4 c -4 3 c -4 -3 c 4 -12 5894 1998 l 11 -7 c
19 -4 c 12 0 c 19 4 c 11 7 c 4 12 c 0 7 c -4 11 c -11 8 c -19 4 c -12 0 c -19 -4 c -11 -8 c -4 -11 c 0 -7 c -3 7 5909 2062 l
-12 12 c 80 0 c -8 -4 5906 2175 l -4 -11 c 0 -8 c 4 -11 c 11 -7 c 19 -4 c 19 0 c 15 4 c 8 7 c 4 11 c 0 4 c -4 12 c -8 7 c -11 4 c
-4 0 c -11 -4 c -8 -7 c -3 -12 c 0 -4 c 3 -11 c 8 -7 c 11 -4 c 0 -249 6226 1536 l 53 -38 6183 1646 l 0 57 c 79 0 6183 1646 l
-4 8 6198 1695 l -11 11 c 79 0 c 11 -3 6209 1808 l 8 -8 c 4 -11 c 0 -4 c -4 -11 c -8 -8 c -11 -4 c -4 0 c -11 4 c -8 8 c -3 11 c
0 4 c 3 11 c 8 8 c 15 3 c 19 0 c 19 -3 c 11 -8 c 4 -11 c 0 -8 c -4 -11 c -7 -4 c 53 -38 6183 1873 l 0 57 c 79 0 6183 1873 l
4 -4 6254 1918 l 4 4 c -4 4 c -4 -4 c 11 -3 6209 1997 l 8 -8 c 4 -11 c 0 -4 c -4 -11 c -8 -8 c -11 -4 c -4 0 c -11 4 c -8 8 c
-3 11 c 0 4 c 3 11 c 8 8 c 15 3 c 19 0 c 19 -3 c 11 -8 c 4 -11 c 0 -8 c -4 -11 c -7 -4 c 0 42 6183 2031 l 30 -23 c 0 12 c 4 7 c
3 4 c 12 4 c 7 0 c 12 -4 c 7 -8 c 4 -11 c 0 -11 c -4 -12 c -4 -3 c -7 -4 c -4 0 6202 2103 l -8 4 c -4 4 c -3 7 c 0 15 c 3 8 c 4 4 c
8 4 c 7 0 c 8 -4 c 11 -8 c 38 -38 c 0 53 c 0 -249 6738 7019 l 53 -38 6694 7129 l 0 57 c 80 0 6694 7129 l -3 7 6709 7178 l -12 12 c
80 0 c 11 -4 6721 7291 l 8 -7 c 3 -11 c 0 -4 c -3 -12 c -8 -7 c -11 -4 c -4 0 c -11 4 c -8 7 c -4 12 c 0 4 c 4 11 c 8 7 c 15 4 c
19 0 c 19 -4 c 11 -7 c 4 -11 c 0 -8 c -4 -11 c -8 -4 c 4 -12 6694 7337 l 8 -4 c 7 0 c 8 4 c 4 8 c 3 15 c 4 11 c 8 8 c 7 4 c 12 0 c
7 -4 c 4 -4 c 4 -11 c 0 -15 c -4 -12 c -4 -4 c -7 -3 c -12 0 c -7 3 c -8 8 c -4 11 c -3 15 c -4 8 c -8 4 c -7 0 c -8 -4 c -4 -11 c
0 -15 c 4 -4 6766 7401 l 4 4 c -4 4 c -4 -4 c 0 41 6694 7439 l 31 -22 c 0 11 c 3 7 c 4 4 c 11 4 c 8 0 c 11 -4 c 8 -7 c 4 -12 c
0 -11 c -4 -11 c -4 -4 c -7 -4 c -3 8 6709 7518 l -12 11 c 80 0 c 80 -38 6694 7635 l 0 53 6694 7582 l 0 -249 7097 7019 l
53 -38 7053 7129 l 0 57 c 80 0 7053 7129 l -4 0 7072 7170 l -7 4 c -4 4 c -4 7 c 0 16 c 4 7 c 4 4 c 7 4 c 8 0 c 7 -4 c 12 -8 c
38 -37 c 0 52 c 4 -12 7053 7265 l 11 -7 c 19 -4 c 12 0 c 19 4 c 11 7 c 4 12 c 0 7 c -4 12 c -11 7 c -19 4 c -12 0 c -19 -4 c
-11 -7 c -4 -12 c 0 -7 c 4 -11 7053 7340 l 11 -8 c 19 -3 c 12 0 c 19 3 c 11 8 c 4 11 c 0 8 c -4 11 c -11 8 c -19 4 c -12 0 c
-19 -4 c -11 -8 c -4 -11 c 0 -8 c 4 -4 7125 7401 l 4 4 c -4 4 c -4 -4 c -8 -4 7065 7480 l -4 -11 c 0 -7 c 4 -12 c 11 -7 c 19 -4 c
19 0 c 15 4 c 8 7 c 4 12 c 0 3 c -4 12 c -8 7 c -11 4 c -4 0 c -11 -4 c -8 -7 c -4 -12 c 0 -3 c 4 -12 c 8 -7 c 11 -4 c
80 -38 7053 7560 l 0 53 7053 7507 l 0 -38 7053 7628 l 34 -4 c -4 4 c -3 11 c 0 11 c 3 12 c 8 7 c 11 4 c 8 0 c 11 -4 c 8 -7 c 4 -12 c
0 -11 c -4 -11 c -4 -4 c -7 -4 c 0 -249 8366 7019 l 53 -38 8323 7129 l 0 57 c 79 0 8323 7129 l -4 0 8342 7170 l -8 4 c -3 4 c -4 7 c
0 16 c 4 7 c 3 4 c 8 4 c 8 0 c 7 -4 c 11 -8 c 38 -37 c 0 52 c 4 -12 8323 7265 l 11 -7 c 19 -4 c 11 0 c 19 4 c 11 7 c 4 12 c 0 7 c
-4 12 c -11 7 c -19 4 c -11 0 c -19 -4 c -11 -7 c -4 -12 c 0 -7 c 4 -12 8323 7337 l 7 -4 c 8 0 c 7 4 c 4 8 c 4 15 c 4 11 c 7 8 c
8 4 c 11 0 c 8 -4 c 3 -4 c 4 -11 c 0 -15 c -4 -12 c -3 -4 c -8 -3 c -11 0 c -8 3 c -7 8 c -4 11 c -4 15 c -4 8 c -7 4 c -8 0 c
-7 -4 c -4 -11 c 0 -15 c 3 -4 8395 7401 l 4 4 c -4 4 c -3 -4 c 4 -11 8323 7450 l 7 -4 c 8 0 c 7 4 c 4 7 c 4 15 c 4 12 c 7 7 c 8 4 c
11 0 c 8 -4 c 3 -4 c 4 -11 c 0 -15 c -4 -11 c -3 -4 c -8 -4 c -11 0 c -8 4 c -7 7 c -4 12 c -4 15 c -4 7 c -7 4 c -8 0 c -7 -4 c
-4 -11 c 0 -15 c 12 -4 8349 7556 l 7 -8 c 4 -11 c 0 -4 c -4 -11 c -7 -8 c -12 -3 c -3 0 c -12 3 c -7 8 c -4 11 c 0 4 c 4 11 c 7 8 c
15 4 c 19 0 c 19 -4 c 11 -8 c 4 -11 c 0 -7 c -4 -12 c -7 -4 c -4 7 8338 7594 l -11 11 c 79 0 c 0 -250 8685 5514 l 52 -38 8642 5624 l
0 57 c 79 0 8642 5624 l -3 0 8660 5665 l -8 4 c -4 4 c -3 7 c 0 15 c 3 8 c 4 4 c 8 4 c 7 0 c 8 -4 c 11 -8 c 38 -38 c 0 53 c
-4 8 8657 5748 l -11 11 c 79 0 c 3 -11 8642 5835 l 12 -8 c 19 -3 c 11 0 c 19 3 c 11 8 c 4 11 c 0 8 c -4 11 c -11 8 c -19 3 c -11 0 c
-19 -3 c -12 -8 c -3 -11 c 0 -8 c 4 -4 8713 5896 l 4 4 c -4 4 c -4 -4 c 11 -4 8668 5975 l 8 -7 c 4 -12 c 0 -3 c -4 -12 c -8 -7 c
-11 -4 c -4 0 c -11 4 c -8 7 c -3 12 c 0 3 c 3 12 c 8 7 c 15 4 c 19 0 c 19 -4 c 11 -7 c 4 -12 c 0 -7 c -4 -11 c -7 -4 c
-3 0 8660 6005 l -8 4 c -4 4 c -3 7 c 0 16 c 3 7 c 4 4 c 8 4 c 7 0 c 8 -4 c 11 -8 c 38 -37 c 0 52 c 0 41 8642 6085 l 30 -22 c 0 11 c
4 8 c 3 3 c 12 4 c 7 0 c 12 -4 c 7 -7 c 4 -12 c 0 -11 c -4 -11 c -4 -4 c -7 -4 c 0 -249 9023 1666 l 53 -38 8980 1776 l 0 57 c
79 0 8980 1776 l -4 0 8999 1817 l -8 4 c -4 4 c -3 8 c 0 15 c 3 7 c 4 4 c 8 4 c 7 0 c 8 -4 c 11 -8 c 38 -37 c 0 53 c
-4 7 8995 1901 l -11 12 c 79 0 c 0 42 8980 1972 l 30 -23 c 0 12 c 4 7 c 3 4 c 12 4 c 7 0 c 12 -4 c 7 -8 c 4 -11 c 0 -11 c -4 -12 c
-4 -3 c -7 -4 c 4 -4 9051 2048 l 4 4 c -4 4 c -4 -4 c 3 -11 8980 2101 l 12 -8 c 19 -4 c 11 0 c 19 4 c 11 8 c 4 11 c 0 8 c -4 11 c
-11 7 c -19 4 c -11 0 c -19 -4 c -12 -7 c -3 -11 c 0 -8 c -8 -4 8991 2203 l -3 -11 c 0 -8 c 3 -11 c 12 -8 c 19 -3 c 19 0 c 15 3 c
7 8 c 4 11 c 0 4 c -4 11 c -7 8 c -12 4 c -3 0 c -12 -4 c -7 -8 c -4 -11 c 0 -4 c 4 -11 c 7 -8 c 12 -3 c 79 -37 8980 2282 l
0 53 8980 2229 l 0 -250 9303 1454 l 53 -37 9259 1563 l 0 56 c 79 0 9259 1563 l -4 0 9278 1605 l -8 4 c -3 4 c -4 7 c 0 15 c 4 8 c
3 4 c 8 3 c 8 0 c 7 -3 c 11 -8 c 38 -38 c 0 53 c -4 8 9274 1688 l -11 11 c 79 0 c 53 -38 9259 1790 l 0 57 c 79 0 9259 1790 l
4 -4 9331 1836 l 3 4 c -3 3 c -4 -3 c 4 -12 9259 1885 l 7 -3 c 8 0 c 7 3 c 4 8 c 4 15 c 4 11 c 7 8 c 8 4 c 11 0 c 8 -4 c 4 -4 c
3 -11 c 0 -15 c -3 -12 c -4 -3 c -8 -4 c -11 0 c -8 4 c -7 7 c -4 11 c -4 16 c -4 7 c -7 4 c -8 0 c -7 -4 c -4 -11 c 0 -15 c
-4 0 9278 1945 l -8 4 c -3 4 c -4 7 c 0 15 c 4 8 c 3 4 c 8 3 c 8 0 c 7 -3 c 11 -8 c 38 -38 c 0 53 c 4 -11 9259 2036 l 7 -4 c 8 0 c
7 4 c 4 7 c 4 15 c 4 12 c 7 7 c 8 4 c 11 0 c 8 -4 c 4 -4 c 3 -11 c 0 -15 c -3 -11 c -4 -4 c -8 -4 c -11 0 c -8 4 c -7 7 c -4 12 c
-4 15 c -4 7 c -7 4 c -8 0 c -7 -4 c -4 -11 c 0 -15 c
showpage PGPLOT restore
 
%%Trailer
%%DocumentFonts: 
%%Pages: 1
%%EOF
