%!PS-Adobe-3.0 EPSF-3.0
%%For: tom
%%Title: PGPLOT PostScript plot
%%Creator: PGPLOT
%%CreationDate:  9-Nov-1994 13:49
%%BoundingBox: 25 18 587 774
%%DocumentFonts: (atend)
%%LanguageLevel: 1
%%Orientation: Landscape
%%Pages: (atend)
%%EndComments
%%BeginProlog
/l {moveto rlineto currentpoint stroke moveto} bind def
/c {rlineto currentpoint stroke moveto} bind def
/d {moveto 0 0 rlineto currentpoint stroke moveto} bind def
/SLW {5 mul setlinewidth} bind def
/SCF /pop load def
/BP {newpath moveto} bind def
/LP /rlineto load def
/EP {rlineto closepath eofill} bind def
/MB {gsave translate MFAC dup scale 1 setlinewidth 2 setlinecap 0 setlinejoin newpath} bind def
/ME /grestore load def
/C {0 360 arc stroke} bind def
/FC {0 360 arc fill} bind def
%%EndProlog
 
%%Page: 1 1
%%BeginPageSetup
/PGPLOT save def
0.072 0.072 scale
8150 250 translate 90 rotate
1 setlinejoin 1 setlinecap 1 SLW 1 SCF
%%EndPageSetup
0.00 setgray 1 SLW 8939 0 780 780 l 0 6239 c -8939 0 c 0 -6239 c 0 -45 1116 780 l 0 -45 1554 780 l 0 -45 1991 780 l 0 -45 2428 780 l
0 -90 2865 780 l 0 -45 3302 780 l 0 -45 3739 780 l 0 -45 4176 780 l 0 -45 4613 780 l 0 -90 5051 780 l 0 -45 5488 780 l
0 -45 5925 780 l 0 -45 6362 780 l 0 -45 6799 780 l 0 -90 7236 780 l 0 -45 7673 780 l 0 -45 8110 780 l 0 -45 8548 780 l
0 -45 8985 780 l 0 -90 9422 780 l 0 -45 1116 7064 l 0 -45 1554 7064 l 0 -45 1991 7064 l 0 -45 2428 7064 l 0 -90 2865 7109 l
0 -45 3302 7064 l 0 -45 3739 7064 l 0 -45 4176 7064 l 0 -45 4613 7064 l 0 -90 5051 7109 l 0 -45 5488 7064 l 0 -45 5925 7064 l
0 -45 6362 7064 l 0 -45 6799 7064 l 0 -90 7236 7109 l 0 -45 7673 7064 l 0 -45 8110 7064 l 0 -45 8548 7064 l 0 -45 8985 7064 l
0 -90 9422 7109 l -60 0 2775 672 l -6 -54 c 6 6 c 18 6 c 18 0 c 18 -6 c 12 -12 c 6 -18 c 0 -12 c -6 -18 c -12 -12 c -18 -6 c -18 0 c
-18 6 c -6 6 c -6 12 c -18 -6 2859 672 l -12 -18 c -6 -30 c 0 -18 c 6 -30 c 12 -18 c 18 -6 c 12 0 c 18 6 c 12 18 c 6 30 c 0 18 c
-6 30 c -12 18 c -18 6 c -12 0 c -18 -6 2979 672 l -12 -18 c -6 -30 c 0 -18 c 6 -30 c 12 -18 c 18 -6 c 12 0 c 18 6 c 12 18 c 6 30 c
0 18 c -6 30 c -12 18 c -18 6 c -12 0 c 12 6 4847 648 l 18 18 c 0 -126 c -18 -6 4985 672 l -12 -18 c -6 -30 c 0 -18 c 6 -30 c
12 -18 c 18 -6 c 12 0 c 18 6 c 12 18 c 6 30 c 0 18 c -6 30 c -12 18 c -18 6 c -12 0 c -18 -6 5105 672 l -12 -18 c -6 -30 c 0 -18 c
6 -30 c 12 -18 c 18 -6 c 12 0 c 18 6 c 12 18 c 6 30 c 0 18 c -6 30 c -12 18 c -18 6 c -12 0 c -18 -6 5225 672 l -12 -18 c -6 -30 c
0 -18 c 6 -30 c 12 -18 c 18 -6 c 12 0 c 18 6 c 12 18 c 6 30 c 0 18 c -6 30 c -12 18 c -18 6 c -12 0 c 12 6 7032 648 l 18 18 c
0 -126 c -60 0 7206 672 l -6 -54 c 6 6 c 18 6 c 18 0 c 18 -6 c 12 -12 c 6 -18 c 0 -12 c -6 -18 c -12 -12 c -18 -6 c -18 0 c -18 6 c
-6 6 c -6 12 c -18 -6 7290 672 l -12 -18 c -6 -30 c 0 -18 c 6 -30 c 12 -18 c 18 -6 c 12 0 c 18 6 c 12 18 c 6 30 c 0 18 c -6 30 c
-12 18 c -18 6 c -12 0 c -18 -6 7410 672 l -12 -18 c -6 -30 c 0 -18 c 6 -30 c 12 -18 c 18 -6 c 12 0 c 18 6 c 12 18 c 6 30 c 0 18 c
-6 30 c -12 18 c -18 6 c -12 0 c 0 6 9206 642 l 6 12 c 6 6 c 12 6 c 24 0 c 12 -6 c 6 -6 c 6 -12 c 0 -12 c -6 -12 c -12 -18 c
-60 -60 c 84 0 c -18 -6 9356 672 l -12 -18 c -6 -30 c 0 -18 c 6 -30 c 12 -18 c 18 -6 c 12 0 c 18 6 c 12 18 c 6 30 c 0 18 c -6 30 c
-12 18 c -18 6 c -12 0 c -18 -6 9476 672 l -12 -18 c -6 -30 c 0 -18 c 6 -30 c 12 -18 c 18 -6 c 12 0 c 18 6 c 12 18 c 6 30 c 0 18 c
-6 30 c -12 18 c -18 6 c -12 0 c -18 -6 9596 672 l -12 -18 c -6 -30 c 0 -18 c 6 -30 c 12 -18 c 18 -6 c 12 0 c 18 6 c 12 18 c 6 30 c
0 18 c -6 30 c -12 18 c -18 6 c -12 0 c -90 0 780 780 l -45 0 780 1715 l -90 0 780 2651 l -45 0 780 3587 l -90 0 780 4522 l
-45 0 780 5458 l -90 0 780 6393 l -90 0 9809 780 l -45 0 9764 1715 l -90 0 9809 2651 l -45 0 9764 3587 l -90 0 9809 4522 l
-45 0 9764 5458 l -90 0 9809 6393 l 6 -18 517 774 l 18 -12 c 30 -6 c 18 0 c 30 6 c 18 12 c 6 18 c 0 12 c -6 18 c -18 12 c -30 6 c
-18 0 c -30 -6 c -18 -12 c -6 -18 c 0 -12 c -6 0 547 2393 l -12 6 c -6 6 c -6 12 c 0 24 c 6 12 c 6 6 c 12 6 c 12 0 c 12 -6 c
18 -12 c 60 -60 c 0 84 c 84 84 547 2513 l 84 -84 547 2597 l -6 12 541 2657 l -18 18 c 126 0 c 6 -18 517 2795 l 18 -12 c 30 -6 c
18 0 c 30 6 c 18 12 c 6 18 c 0 12 c -6 18 c -18 12 c -30 6 c -18 0 c -30 -6 c -18 -12 c -6 -18 c 0 -12 c 63 -45 453 2920 l 0 67 c
94 0 453 2920 l 84 -60 517 4318 l 0 90 c 126 0 517 4318 l 84 84 547 4384 l 84 -84 547 4468 l -6 12 541 4528 l -18 18 c 126 0 c
6 -18 517 4666 l 18 -12 c 30 -6 c 18 0 c 30 6 c 18 12 c 6 18 c 0 12 c -6 18 c -18 12 c -30 6 c -18 0 c -30 -6 c -18 -12 c -6 -18 c
0 -12 c 63 -45 453 4791 l 0 67 c 94 0 453 4791 l -12 -6 535 6207 l -6 -18 c 0 -12 c 6 -18 c 18 -12 c 30 -6 c 30 0 c 24 6 c 12 12 c
6 18 c 0 6 c -6 18 c -12 12 c -18 6 c -6 0 c -18 -6 c -12 -12 c -6 -18 c 0 -6 c 6 -18 c 12 -12 c 18 -6 c 84 84 547 6255 l
84 -84 547 6339 l -6 12 541 6399 l -18 18 c 126 0 c 6 -18 517 6537 l 18 -12 c 30 -6 c 18 0 c 30 6 c 18 12 c 6 18 c 0 12 c -6 18 c
-18 12 c -30 6 c -18 0 c -30 -6 c -18 -12 c -6 -18 c 0 -12 c 63 -45 453 6662 l 0 67 c 94 0 453 6662 l
4 -1 780 797 l 5 -1 c 4 5 c 4 19 c 5 46 c 4 13 c 4 -4 c 5 -32 c 4 -41 c 5 -7 c 4 0 c 4 1 c 5 -1 c 4 -1 c 4 -1 c 5 4 c 4 13 c 5 47 c
4 26 c 4 -3 c 5 -22 c 4 -52 c 4 -13 c 5 -1 c 4 0 c 5 1 c 4 -1 c 4 1 c 5 1 c 4 0 c 4 -1 c 5 2 c 4 1 c 5 0 c 4 0 c 4 -3 c 5 -2 c 4 0 c
4 0 c 5 0 c 4 0 c 4 0 c 5 1 c 4 4 c 5 12 c 4 22 c 4 1 c 5 -5 c 4 -20 c 4 -13 c 5 -1 c 4 -1 c 5 1 c 4 1 c 4 3 c 5 14 c 4 38 c 4 15 c
5 -4 c 4 -23 c 5 -35 c 4 -3 c 4 2 c 5 1 c 4 -2 c 4 -3 c 5 -2 c 4 1 c 5 2 c 4 4 c 4 2 c 5 0 c 4 -3 c 4 -5 c 5 -1 c 4 1 c 4 1 c 5 0 c
4 1 c 5 2 c 4 2 c 4 1 c 5 4 c 4 -25 c 5 398 1151 780 l 4 1128 c 5 1860 c 4 343 c 4 -347 c 5 -1715 c 4 -1483 c 4 -139 c 5 -14 c
4 -1 c 5 -3 c 4 0 c 4 -2 c 5 -3 c 4 -3 c 4 -3 c 5 1 c 4 6 c 5 17 c 4 9 c 4 -2 c 5 -9 c 4 -19 c 4 -5 c 5 -1 c 4 -1 c 4 -1 c 5 0 c
4 0 c 5 0 c 4 1 c 4 0 c 5 0 c 4 -1 c 4 0 c 5 2 c 4 8 c 5 34 c 4 71 c 4 18 c 5 -2 c 4 -20 c 4 -7 c 5 -3 c 4 -11 c 5 -47 c 4 -36 c
4 -1 c 5 2 c 4 -1 c 4 -2 c 5 -3 c 4 -1 c 5 0 c 4 0 c 4 0 c 5 0 c 4 0 c 4 0 c 5 1 c 4 10 c 4 22 c 5 12 c 4 -3 c 5 -14 c 4 -22 c
4 -7 c 5 1 c 4 6 c 4 13 c 5 25 c 4 14 c 5 -8 c 4 -15 c 4 -26 c 5 -9 c 4 -1 c 4 0 c 5 0 c 4 -1 c 5 1 c 4 0 c 4 1 c 5 -1 c 4 1 c 4 7 c
5 5 c 4 -1 c 4 -2 c 5 -7 c 4 -2 c 5 4 c 4 11 c 4 6 c 5 4 c 4 -3 c 4 -10 c 5 -4 c 4 -1 c 5 -1 c 4 -1 c 4 -1 c 5 -2 c 4 -1 c 4 -1 c
5 -1 c 4 -1 c 5 0 c 4 0 c 4 0 c 5 1 c 4 1 c 4 1 c 5 0 c 4 1 c 5 -1 c 4 1 c 4 0 c 5 0 c 4 -1 c 4 0 c 5 0 c 4 0 c 4 2 c 5 13 c 4 66 c
5 311 c 4 403 c 4 22 c 5 -104 c 4 -434 c 4 -250 c 5 -22 c 4 -1 c 5 -1 c 4 -3 c 4 -2 c 5 0 c 4 1 c 4 0 c 5 -1 c 4 -1 c 5 -1 c 4 0 c
4 1 c 5 0 c 4 0 c 4 1 c 5 3 c 4 4 c 5 21 c 4 76 c 4 36 c 5 2 c 4 -36 c 4 -78 c 5 -9 c 4 71 c 4 71 c 5 16 c 4 -14 c 5 -85 c 4 -37 c
4 2 c 5 -2 c 4 -7 c 4 -23 c 5 -8 c 4 7 c 5 4 c 4 0 c 4 -4 c 5 -8 c 4 -2 c 4 0 c 5 -1 c 4 1 c 5 4 c 4 2 c 4 -1 c 5 -2 c 4 -4 c 4 -1 c
5 0 c 4 1 c 5 0 c 4 2 c 4 12 c 5 14 c 4 1 c 4 -5 c 5 -16 c 4 -7 c 4 2 c 5 1 c 4 2 c 5 12 c 4 27 c 4 7 c 5 -5 c 4 -20 c 4 -24 c
5 -4 c 4 0 c 5 0 c 4 0 c 4 1 c 5 1 c 4 2 c 4 2 c 5 3 c 4 3 c 5 -1 c 4 -2 c 4 -4 c 5 -4 c 4 0 c 4 0 c 5 0 c 4 1 c 5 5 c 4 16 c 4 25 c
5 7 c 4 -4 c 4 -20 c 5 -20 c 4 -6 c 4 -2 c 5 -1 c 4 1 c 5 12 c 4 71 c 4 80 c 5 14 c 4 -17 c 4 -90 c 5 -61 c 4 8 c 5 5 c 4 0 c 4 -6 c
5 -12 c 4 -3 c 4 0 c 5 0 c 4 0 c 5 0 c 4 11 c 4 73 c 5 185 c 4 74 c 4 -15 c 5 -109 c 4 -183 c 4 -30 c 5 22 c 4 19 c 5 0 c 4 -9 c
4 -29 c 5 -11 c 4 -1 c 4 1 c 5 5 c 4 8 c 5 2 c 4 0 c 4 -2 c 5 6 c 4 4 c 4 -3 c 5 -7 c 4 -12 c 5 -2 c 4 -1 c 4 0 c 5 0 c 4 0 c 4 1 c
5 -1 c 4 0 c 5 1 c 4 0 c 4 2 c 5 1 c 4 0 c 4 -1 c 5 -1 c 4 -1 c 4 1 c 5 0 c 4 1 c 5 5 c 4 2 c 4 2 c 5 -1 c 4 -6 c 4 -2 c 5 -1 c
4 1 c 5 1 c 4 0 c 4 0 c 5 -1 c 4 0 c 4 1 c 5 0 c 4 2 c 5 1 c 4 5 c 4 24 c 5 184 c 4 883 c 4 596 c 5 32 c 4 -293 c 5 -1055 c 4 -338 c
4 -27 c 5 -1 c 4 -3 c 4 -3 c 5 -5 c 4 -2 c 4 0 c 5 -1 c 4 3 c 5 6 c 4 2 c 4 -1 c 5 -3 c 4 -5 c 4 1 c 5 1 c 4 1 c 5 -3 c 4 -2 c
4 -1 c 5 0 c 4 1 c 4 5 c 5 47 c 4 155 c 5 80 c 4 3 c 4 -82 c 5 -161 c 4 -44 c 4 -3 c 5 0 c 4 0 c 5 0 c 4 0 c 4 0 c 5 -1 c 4 -1 c
4 0 c 5 1 c 4 0 c 4 -1 c 5 0 c 4 0 c 5 0 c 4 1 c 4 0 c 5 1 c 4 1 c 4 0 c 5 2 c 4 2 c 5 0 c 4 0 c 4 2 c 5 6 c 4 1 c 4 -1 c 5 -6 c
4 -7 c 5 0 c 4 1 c 4 0 c 5 0 c 4 0 c 4 1 c 5 1 c 4 2 c 4 0 c 5 5 c 4 32 c 5 69 c 4 19 c 4 -7 c 5 -46 c 4 -66 c 4 -11 c 5 -1 c 4 0 c
5 0 c 4 -1 c 4 1 c 5 0 c 4 1 c 4 2 c 5 8 c 4 10 c 5 2 c 4 -3 c 4 -10 c 5 -6 c 4 -2 c 4 -1 c 5 0 c 4 1 c 5 1 c 4 0 c 4 -1 c 5 -2 c
4 0 c 4 -1 c 5 1 c 4 2 c 4 23 c 5 74 c 4 27 c 5 3 c 4 -35 c 4 -78 c 5 -14 c 4 -1 c 4 -1 c 5 0 c 4 0 c 5 0 c 4 3 c 4 11 c 5 11 c
4 2 c 4 -4 c 5 -14 c 4 -6 c 5 3 c 4 11 c 4 2 c 5 0 c 4 -7 c 4 -10 c 5 -1 c 4 0 c 5 0 c 4 2 c 4 0 c 5 -1 c 4 -1 c 4 -2 c 5 -1 c 4 0 c
4 1 c 5 1 c 4 1 c 5 -1 c 4 0 c 4 -1 c 5 0 c 4 0 c 4 0 c 5 0 c 4 -1 c 5 1 c 4 0 c 4 1 c 5 2 c 4 0 c 4 0 c 5 -2 c 4 -1 c 5 -1 c 4 0 c
4 1 c 5 -1 c 4 0 c 4 1 c 5 1 c 4 0 c 5 0 c 4 0 c 4 0 c 5 1 c 4 0 c 4 0 c 5 7 c 4 6 c 4 2 c 5 -1 c 4 -9 c 5 -6 c 4 -1 c 4 2 c 5 17 c
4 110 c 4 82 c 5 20 c 4 -22 c 5 -125 c 4 -72 c 4 -6 c 5 -3 c 4 -2 c 4 2 c 5 7 c 4 2 c 5 1 c 4 -4 c 4 -6 c 5 -1 c 4 1 c 4 1 c 5 1 c
4 0 c 5 -1 c 4 0 c 4 0 c 5 0 c 4 -1 c 4 -1 c 5 2 c 4 4 c 4 1 c 5 0 c 4 -2 c 5 -3 c 4 -1 c 4 0 c 5 0 c 4 -1 c 4 -1 c 5 0 c 4 0 c
5 0 c 4 0 c 4 0 c 5 0 c 4 0 c 4 2 c 5 8 c 4 13 c 5 5 c 4 5 c 4 -7 c 5 -12 c 4 -5 c 4 -7 c 5 -2 c 4 0 c 4 -1 c 5 1 c 4 1 c 5 2 c
4 7 c 4 7 c 5 2 c 4 3 c 4 -3 c 5 -4 c 4 -2 c 5 -5 c 4 -5 c 4 -1 c 5 -1 c 4 0 c 4 1 c 5 0 c 4 1 c 5 0 c 4 -1 c 4 0 c 5 0 c 4 2 c
4 1 c 5 0 c 4 2 c 5 4 c 4 3 c 4 0 c 5 -4 c 4 -5 c 4 -2 c 5 -1 c 4 0 c 4 0 c 5 -1 c 4 0 c 5 1 c 4 0 c 4 1 c 5 0 c 4 -1 c 4 -1 c 5 1 c
4 0 c 5 0 c 4 0 c 4 -1 c 5 0 c 4 0 c 4 1 c 5 0 c 4 1 c 5 0 c 4 11 c 4 33 c 5 13 c 4 1 c 4 -16 c 5 -32 c 4 -9 c 5 0 c 4 0 c 4 3 c
5 6 c 4 14 c 4 178 c 5 506 c 4 214 c 4 -4 c 5 -276 c 4 -492 c 5 -139 c 4 -10 c 4 -1 c 5 -1 c 4 1 c 4 0 c 5 -1 c 4 0 c 5 0 c 4 0 c
4 0 c 5 -1 c 4 0 c 4 0 c 5 0 c 4 0 c 5 0 c 4 1 c 4 1 c 5 0 c 4 2 c 4 3 c 5 0 c 4 0 c 5 -5 c 4 -3 c 4 1 c 5 0 c 4 1 c 4 3 c 5 1 c
4 0 c 4 -2 c 5 -3 c 4 -1 c 5 1 c 4 0 c 4 0 c 5 -1 c 4 -1 c 4 1 c 5 0 c 4 1 c 5 0 c 4 -1 c 4 1 c 5 1 c 4 0 c 4 0 c 5 0 c 4 0 c 5 1 c
4 -1 c 4 -1 c 5 0 c 4 1 c 4 0 c 5 0 c 4 -1 c 5 1 c 4 1 c 4 1 c 5 1 c 4 0 c 4 -2 c 5 1 c 4 2 c 4 10 c 5 7 c 4 0 c 5 -3 c 4 -12 c
4 -4 c 5 2 c 4 2 c 4 -1 c 5 -2 c 4 -3 c 5 -2 c 4 0 c 4 0 c 5 1 c 4 1 c 4 0 c 5 0 c 4 0 c 5 0 c 4 0 c 4 0 c 5 2 c 4 26 c 4 75 c
5 38 c 4 -1 c 4 -32 c 5 -79 c 4 -25 c 5 -3 c 4 0 c 4 0 c 5 0 c 4 0 c 4 1 c 5 9 c 4 93 c 5 133 c 4 48 c 4 -15 c 5 -116 c 4 -120 c
4 -26 c 5 -1 c 4 1 c 5 1 c 4 -2 c 4 -2 c 5 0 c 4 -1 c 4 0 c 5 -1 c 4 0 c 5 0 c 4 0 c 4 0 c 5 0 c 4 1 c 4 -1 c 5 0 c 4 -1 c 4 0 c
5 0 c 4 0 c 5 0 c 4 1 c 4 0 c 5 0 c 4 1 c 4 -1 c 5 0 c 4 0 c 5 1 c 4 1 c 4 6 c 5 5 c 4 2 c 4 -2 c 5 -5 c 4 -3 c 5 0 c 4 1 c 4 4 c
5 14 c 4 10 c 4 5 c 5 -3 c 4 -10 c 5 2 c 4 5 c 4 9 c 5 17 c 4 27 c 4 51 c 5 132 c 4 549 c 4 3355 c 5 1862 c 4 4 c 5 -8 c 4 -5 c
4 -2453 c 5 -2605 c 4 -601 c 4 -162 c 5 -83 c 4 -38 c 5 -19 c 4 -12 c 4 -7 c 5 -8 c 4 -9 c 4 -6 c 5 -6 c 4 -7 c 5 -2 c 4 1 c 4 1 c
5 -2 c 4 -1 c 4 -2 c 5 0 c 4 0 c 5 -1 c 4 0 c 4 -1 c 5 0 c 4 6 c 4 13 c 5 7 c 4 18 c 4 16 c 5 -8 c 4 -7 c 5 -22 c 4 -16 c 4 -4 c
5 -1 c 4 1 c 4 -1 c 5 0 c 4 0 c 5 0 c 4 0 c 4 -1 c 5 0 c 4 1 c 4 -1 c 5 1 c 4 1 c 5 3 c 4 2 c 4 5 c 5 10 c 4 6 c 4 9 c 5 18 c
4 142 c 5 1434 c 4 2074 c 4 996 c 5 -70 c 4 -1719 c 4 -2125 c 5 -715 c 4 -53 c 4 -6 c 5 -5 c 4 -1 c 5 5 c 4 14 c 4 5 c 5 -3 c 4 -9 c
4 -15 c 5 -7 c 4 0 c 5 1 c 4 1 c 4 -21 c 5 20 c 4 -1 c 4 -1 c 5 0 c 4 0 c 5 0 c 4 0 c 4 0 c 5 0 c 4 -1 c 4 0 c 5 1 c 4 0 c 4 0 c
5 1 c 4 0 c 5 1 c 4 1 c 4 1 c 5 4 c 4 15 c 4 177 c 5 720 c 4 504 c 5 107 c 4 -224 c 4 -793 c 5 -425 c 4 -81 c 4 -4 c 5 -2 c 4 0 c
5 2 c 4 4 c 4 2 c 5 0 c 4 -3 c 4 -6 c 5 -2 c 4 0 c 5 -1 c 4 0 c 4 1 c 5 3 c 4 6 c 4 3 c 5 1 c 4 -4 c 4 -3 c 5 0 c 4 1 c 5 0 c 4 -2 c
4 -4 c 5 -2 c 4 -1 c 4 1 c 5 0 c 4 -1 c 5 1 c 4 0 c 4 0 c 5 0 c 4 1 c 4 1 c 5 1 c 4 1 c 5 -1 c 4 -2 c 4 -2 c 5 0 c 4 -1 c 4 0 c
5 2 c 4 3 c 5 2 c 4 0 c 4 0 c 5 -2 c 4 -1 c 4 0 c 5 -1 c 4 -1 c 4 0 c 5 -1 c 4 1 c 5 1 c 4 2 c 4 16 c 5 24 c 4 12 c 4 -1 c 5 -16 c
4 6 c 5 15 c 4 6 c 4 -9 c 5 -32 c 4 -20 c 4 -5 c 5 0 c 4 1 c 5 7 c 4 63 c 4 86 c 5 40 c 4 6 c 4 -68 c 5 -91 c 4 -29 c 5 -7 c 4 -2 c
4 0 c 5 -1 c 4 -2 c 4 -1 c 5 -2 c 4 -1 c 4 1 c 5 1 c 4 3 c 5 14 c 4 64 c 4 52 c 5 17 c 4 -17 c 4 -67 c 5 -52 c 4 -12 c 5 -1 c 4 -1 c
4 -1 c 5 -1 c 4 1 c 4 0 c 5 1 c 4 0 c 5 0 c 4 2 c 4 1 c 5 3 c 4 4 c 4 23 c 5 148 c 4 172 c 4 62 c 5 -12 c 4 -140 c 5 60 c 4 321 c
4 179 c 5 -18 c 4 -253 c 4 -382 c 5 -148 c 4 -16 c 5 1 c 4 3 c 4 2 c 5 -2 c 4 -4 c 4 -5 c 5 -2 c 4 -1 c 5 0 c 4 -14 c 4 14 c 5 0 c
4 0 c 4 1 c 5 0 c 4 2 c 5 3 c 4 1 c 4 0 c 5 -2 c 4 -3 c 4 -2 c 5 1 c 4 7 c 4 5 c 5 2 c 4 -1 c 5 -3 c 4 -2 c 4 -1 c 5 -1 c 4 -3 c
4 -3 c 5 -1 c 4 -1 c 5 1 c 4 5 c 4 8 c 5 8 c 4 6 c 4 1 c 5 -5 c 4 -4 c 5 -7 c 4 -6 c 4 -3 c 5 -2 c 4 -1 c 4 0 c 5 0 c 4 0 c 5 0 c
4 2 c 4 1 c 5 0 c 4 0 c 4 -1 c 5 -1 c 4 0 c 4 3 c 5 2 c 4 0 c 5 0 c 4 -3 c 4 1 c 5 0 c 4 0 c 4 -1 c 5 -2 c 4 -2 c 5 1 c 4 0 c 4 0 c
5 0 c 4 0 c 4 0 c 5 0 c 4 1 c 5 -1 c 4 3 c 4 21 c 5 63 c 4 34 c 4 9 c 5 -21 c 4 -39 c 5 7 c 4 11 c 4 -1 c 5 -26 c 4 -42 c 4 -16 c
5 -2 c 4 0 c 4 3 c 5 6 c 4 4 c 5 0 c 4 -2 c 4 -3 c 5 -1 c 4 1 c 4 0 c 5 -1 c 4 0 c 5 -2 c 4 -1 c 4 -2 c 5 0 c 4 23 c 4 71 c 5 44 c
4 6 c 5 -25 c 4 -79 c 4 -36 c 5 -6 c 4 0 c 4 1 c 5 1 c 4 1 c 5 0 c 4 0 c 4 0 c 5 4 c 4 1 c 4 0 c 5 0 c 4 -5 c 4 -1 c 5 0 c 4 0 c
5 3 c 4 32 c 4 197 c 5 216 c 4 79 c 4 -33 c 5 -213 c 4 -208 c 5 -68 c 4 3 c 4 6 c 5 2 c 4 1 c 4 4 c 5 9 c 4 4 c 5 0 c 4 -7 c 4 44 c
5 98 c 4 53 c 4 8 c 5 -59 c 4 -114 c 4 -52 c 5 -5 c 4 0 c 5 1 c 4 7 c 4 9 c 5 17 c 4 11 c 4 -5 c 5 -10 c 4 -17 c 5 -12 c 4 -3 c
4 -1 c 5 0 c 4 1 c 4 2 c 5 3 c 4 1 c 5 -1 c 4 -1 c 4 -3 c 5 -1 c 4 0 c 4 2 c 5 2 c 4 1 c 5 0 c 4 -1 c 4 -2 c 5 -1 c 4 3 c 4 25 c
5 70 c 4 43 c 4 8 c 5 -25 c 4 -72 c 5 -39 c 4 -4 c 4 6 c 5 4 c 4 6 c 4 9 c 5 45 c 4 397 c 5 745 c 4 369 c 4 -1 c 5 -463 c 4 -741 c
4 -318 c 5 -54 c 4 -3 c 5 -1 c 4 0 c 4 24 c 5 138 c 4 143 c 4 -330 c 5 356 c 4 -121 c 5 -123 c 4 -32 c 4 -14 c 5 -5 c 4 238 c
4 578 c 5 289 c 4 25 c 4 -266 c 5 -588 c 4 -265 c 5 -42 c 4 5 c 4 29 c 5 24 c 4 6 c 4 -1 c 5 41 c 4 103 c 5 57 c 4 -7 c 4 -75 c
5 -128 c 4 -56 c 4 -5 c 5 -2 c 4 -1 c 5 -1 c 4 1 c 4 0 c 5 0 c 4 0 c 4 0 c 5 1 c 4 1 c 5 2 c 4 1 c 4 1 c 5 2 c 4 3 c 4 5 c 5 27 c
4 371 c 4 1462 c 5 942 c 4 279 c 5 -326 c 4 -1479 c 4 -1072 c 5 -187 c 4 -10 c 4 17 c 5 194 c 4 636 c 5 445 c 4 49 c 4 -220 c
5 -660 c 4 -373 c 4 -73 c 5 -7 c 4 -13 c 5 -10 c 4 1 c 4 16 c 5 204 c 4 511 c 4 269 c 5 72 c 4 -174 c 5 -520 c 4 -245 c 4 -75 c
5 -49 c 4 -13 c 4 0 c 5 14 c 4 153 c 4 276 c 5 149 c 4 19 c 5 -158 c 4 -282 c 4 -129 c 5 -28 c 4 -8 c 4 -7 c 5 -1 c 4 1 c 5 -1 c
4 2 c 4 0 c 5 0 c 4 -1 c 4 -1 c 5 -3 c 4 7 c 5 75 c 4 96 c 4 37 c 5 -1 c 4 -75 c 4 -103 c 5 -33 c 4 -5 c 4 0 c 5 0 c 4 0 c 5 3 c
4 7 c 4 18 c 5 8 c 4 0 c 4 -8 c 5 -16 c 4 -10 c 5 -1 c 4 1 c 4 0 c 5 0 c 4 1 c 4 -2 c 5 -2 c 4 -1 c 5 0 c 4 3 c 4 1 c 5 1 c 4 0 c
4 -3 c 5 -1 c 4 0 c 5 0 c 4 0 c 4 -1 c 5 0 c 4 3 c 4 6 c 5 6 c 4 8 c 4 1 c 5 -5 c 4 -4 c 5 -8 c 4 -3 c 4 0 c 5 -1 c 4 0 c 4 1 c
5 13 c 4 31 c 5 14 c 4 1 c 4 -12 c 5 -29 c 4 -12 c 4 0 c 5 11 c 4 43 c 5 217 c 4 674 c 4 394 c 5 9 c 4 -207 c 4 -707 c 5 -375 c
4 -59 c 5 -3 c 4 -1 c 4 -1 c 5 0 c 4 0 c 4 -1 c 5 -1 c 4 0 c 4 2 c 5 -1 c 4 0 c 5 -3 c 4 -2 c 4 -1 c 5 1 c 4 -1 c 4 0 c 5 0 c 4 1 c
5 2 c 4 2 c 4 1 c 5 0 c 4 -2 c 4 -2 c 5 -1 c 4 -1 c 5 0 c 4 0 c 4 1 c 5 0 c 4 0 c 4 1 c 5 -1 c 4 0 c 5 0 c 4 0 c 4 0 c 5 0 c 4 0 c
4 0 c 5 0 c 4 0 c 4 1 c 5 0 c 4 1 c 5 10 c 4 31 c 4 19 c 5 -1 c 4 -9 c 4 -32 c 5 -15 c 4 5 c 5 4 c 4 1 c 4 -3 c 5 -7 c 4 -4 c 4 -1 c
5 0 c 4 8 c 5 25 c 4 9 c 4 3 c 5 -8 c 4 -24 c 4 -12 c 5 1 c 4 8 c 5 12 c 4 3 c 4 0 c 5 -9 c 4 -11 c 4 -2 c 5 2 c 4 2 c 4 2 c 5 0 c
4 -3 c 5 -1 c 4 -2 c 4 -1 c 5 -1 c 4 0 c 4 2 c 5 34 c 4 88 c 5 38 c 4 8 c 4 -20 c 5 -83 c 4 -43 c 4 -6 c 5 -5 c 4 1 c 5 0 c 4 -3 c
4 -6 c 5 -5 c 4 -1 c 4 0 c 5 0 c 4 0 c 4 1 c 5 1 c 4 1 c 5 1 c 4 0 c 4 -1 c 5 -1 c 4 0 c 4 1 c 5 -1 c 4 0 c 5 1 c 4 1 c 4 2 c 5 1 c
4 1 c 4 1 c 5 0 c 4 3 c 5 0 c 4 7 c 4 14 c 5 99 c 4 1122 c 4 1816 c 5 646 c 4 -15 c 5 -989 c 4 -1999 c 4 -637 c 5 -45 c 4 -1 c
4 -1 c 5 1 c 4 14 c 4 8 c 5 -1 c 4 58 c 5 373 c 4 371 c 4 65 c 5 -38 c 4 -391 c 4 -396 c 5 -79 c 4 -6 c 5 -1 c 4 -1 c 4 -1 c 5 0 c
4 0 c 4 0 c 5 -2 c 4 1 c 5 0 c 4 1 c 4 2 c 5 1 c 4 0 c 4 -1 c 5 -2 c 4 1 c 5 2 c 4 7 c 4 13 c 5 6 c 4 2 c 4 0 c 5 -12 c 4 -3 c 4 5 c
5 2 c 4 12 c 5 30 c 4 241 c 4 2463 c 5 3256 c 4 -10 c 4 15 c 5 -397 c 4 -4245 c 5 -1272 c 4 -75 c 4 -13 c 5 -5 c 4 16 c 4 18 c
5 37 c 4 27 c 5 -13 c 4 -22 c 4 -43 c 5 -35 c 4 -5 c 4 0 c 5 1 c 4 -1 c 5 -2 c 4 0 c 4 -2 c 5 -1 c 4 2 c 4 6 c 5 11 c 4 1 c 4 0 c
5 -3 c 4 6 c 5 16 c 4 7 c 4 -2 c 5 -16 c 4 -19 c 4 3 c 5 12 c 4 8 c 5 14 c 4 0 c 4 -13 c 5 -4 c 4 -17 c 4 -9 c 5 0 c 4 4 c 5 1 c
4 -2 c 4 -3 c 5 -6 c 4 -1 c 4 1 c 5 0 c 4 1 c 4 0 c 5 0 c 4 0 c 5 1 c 4 3 c 4 3 c 5 5 c 4 4 c 4 -2 c 5 -5 c 4 -5 c 5 -6 c 4 -1 c
4 0 c 5 1 c 4 1 c 4 1 c 5 0 c 4 -2 c 5 -1 c 4 0 c 4 0 c 5 0 c 4 0 c 4 0 c 5 0 c 4 -1 c 5 1 c 4 0 c 4 -1 c 5 1 c 4 0 c 4 0 c 5 -1 c
4 0 c 4 0 c 5 1 c 4 0 c 5 -1 c 4 1 c 4 2 c 5 3 c 4 8 c 4 10 c 5 6 c 4 3 c 5 -3 c 4 -7 c 4 18 c 5 49 c 4 10 c 4 -6 c 5 -15 c 4 -52 c
5 -16 c 4 -2 c 4 -3 c 5 -2 c 4 -1 c 4 1 c 5 -1 c 4 0 c 5 1 c 4 2 c 4 16 c 5 38 c 4 23 c 4 1 c 5 -11 c 4 -40 c 4 -23 c 5 -6 c 4 -1 c
5 -1 c 4 -1 c 4 0 c 5 -1 c 4 0 c 4 0 c 5 0 c 4 0 c 5 2 c 4 4 c 4 1 c 5 1 c 4 -1 c 4 -3 c 5 8 c 4 6 c 5 1 c 4 -2 c 4 -9 c 5 -6 c
4 -1 c 4 0 c 5 7 c 4 27 c 5 20 c 4 0 c 4 -5 c 5 -28 c 4 -19 c 4 -2 c 5 1 c 4 5 c 4 2 c 5 0 c 4 0 c 5 -3 c 4 -1 c 4 -1 c 5 -1 c
4 -2 c 4 0 c 5 0 c 4 4 c 5 28 c 4 54 c 4 7 c 5 -2 c 4 -24 c 4 -51 c 5 -13 c 4 2 c 5 2 c 4 1 c 4 1 c 5 -1 c 4 -1 c 4 -1 c 5 -1 c
4 -2 c 5 -1 c 4 -1 c 4 -1 c 5 0 c 4 1 c 4 1 c 5 0 c 4 3 c 4 8 c 5 5 c 4 0 c 5 -1 c 4 -9 c 4 -7 c 5 -1 c 4 0 c 4 1 c 5 5 c 4 1 c
5 0 c 4 0 c 4 -1 c 5 -2 c 4 1 c 4 0 c 5 1 c 4 5 c 5 13 c 4 56 c 4 38 c 5 0 c 4 -12 c 4 -50 c 5 -48 c 4 -5 c 4 -1 c 5 1 c 4 0 c 5 0 c
4 1 c 4 1 c 5 1 c 4 1 c 4 -1 c 5 1 c 4 0 c 5 2 c 4 1 c 4 5 c 5 14 c 4 136 c 4 938 c 5 935 c 4 117 c 5 -100 c 4 -784 c 4 -1085 c
5 -154 c 4 -9 c 4 1 c 5 11 c 4 52 c 5 605 c 4 2124 c 4 916 c 5 99 c 4 -434 c 4 -1972 c 5 -1257 c 4 -101 c 4 -33 c 5 -14 c 4 -4 c
5 -2 c 4 4 c 4 3 c 5 0 c 4 0 c 4 2 c 5 -1 c 4 3 c 5 3 c 4 -7 c 4 -7 c 5 -6 c 4 -5 c 4 0 c 5 0 c 4 0 c 5 -1 c 4 -1 c 4 0 c 5 0 c
4 5 c 4 5 c 5 1 c 4 1 c 5 -3 c 4 -7 c 4 -1 c 5 -1 c 4 0 c 4 2 c 5 0 c 4 7 c 4 13 c 5 3 c 4 0 c 5 -4 c 4 -15 c 4 -7 c 5 -1 c 4 0 c
4 0 c 5 -1 c 4 0 c 5 1 c 4 2 c 4 4 c 5 0 c 4 0 c 4 -2 c 5 -3 c 4 -1 c 5 1 c 4 0 c 4 0 c 5 0 c 4 0 c 4 -1 c
5 0 c 4 1 c 5 5 c 4 5 c 4 -23 c
0 -126 3030 418 l 54 0 3030 418 l 18 -6 c 6 -6 c 6 -12 c 0 -12 c -6 -12 c -6 -6 c -18 -6 c -54 0 c 42 -66 3072 358 l
-12 -6 3180 376 l -12 -12 c -6 -18 c 0 -12 c 6 -18 c 12 -12 c 12 -6 c 18 0 c 12 6 c 12 12 c 6 18 c 0 12 c -6 18 c -12 12 c -12 6 c
-18 0 c 24 -84 3264 376 l -24 -84 3312 376 l 24 -84 3312 376 l -24 -84 3360 376 l 108 0 3402 364 l 108 0 3402 328 l 0 6 3654 388 l
6 12 c 6 6 c 12 6 c 24 0 c 12 -6 c 6 -6 c 6 -12 c 0 -12 c -6 -12 c -12 -18 c -60 -60 c 84 0 c 12 6 3786 394 l 18 18 c 0 -126 c
12 6 4290 394 l 18 18 c 0 -126 c -6 -6 4404 376 l 6 -6 c 6 6 c -6 6 c -6 -6 4404 304 l 6 -6 c 6 6 c -6 6 c -48 -126 4584 418 l
48 -126 4584 418 l 60 0 4554 334 l 0 -84 4662 376 l 6 18 4662 340 l 12 12 c 12 6 c 18 0 c -12 12 4806 358 l -12 6 c -18 0 c -12 -6 c
-12 -12 c -6 -18 c 0 -12 c 6 -18 c 12 -12 c 12 -6 c 18 0 c 12 6 c 12 12 c 108 0 4848 346 l -18 -6 5034 418 l -12 -18 c -6 -30 c
0 -18 c 6 -30 c 12 -18 c 18 -6 c 12 0 c 18 6 c 12 18 c 6 30 c 0 18 c -6 30 c -12 18 c -18 6 c -12 0 c 66 0 5130 418 l -36 -48 c
18 0 c 12 -6 c 6 -6 c 6 -18 c 0 -12 c -6 -18 c -12 -12 c -18 -6 c -18 0 c -18 6 c -6 6 c -6 12 c -59 0 5309 418 l -6 -54 c 6 6 c
17 6 c 18 0 c 18 -6 c 12 -12 c 6 -18 c 0 -12 c -6 -18 c -12 -12 c -18 -6 c -18 0 c -17 6 c -6 6 c -6 12 c -6 -6 5369 304 l 6 -6 c
6 6 c -6 6 c -12 0 5459 418 l -12 -6 c -6 -18 c 0 -102 c 42 0 5411 376 l 6 -6 5489 418 l 6 6 c -6 6 c -6 -6 c 0 -84 5495 376 l
0 -102 5549 418 l 6 -18 c 12 -6 c 12 0 c 42 0 5531 376 l -6 12 5675 358 l -18 6 c -18 0 c -18 -6 c -6 -12 c 6 -12 c 12 -6 c 30 -6 c
12 -6 c 6 -12 c 0 -6 c -6 -12 c -18 -6 c -18 0 c -18 6 c -6 12 c 0 -192 6005 442 l 0 -192 6011 442 l 42 0 6005 442 l 42 0 6005 250 l
0 6 6089 388 l 6 12 c 6 6 c 12 6 c 24 0 c 12 -6 c 6 -6 c 6 -12 c 0 -12 c -6 -12 c -12 -18 c -60 -60 c 84 0 c -6 -6 6215 376 l 6 -6 c
6 6 c -6 6 c -6 -6 6215 304 l 6 -6 c 6 6 c -6 6 c -48 -126 6395 418 l 48 -126 6395 418 l 60 0 6365 334 l 0 -84 6473 376 l
6 18 6473 340 l 12 12 c 12 6 c 18 0 c -12 12 6617 358 l -12 6 c -18 0 c -12 -6 c -12 -12 c -6 -18 c 0 -12 c 6 -18 c 12 -12 c 12 -6 c
18 0 c 12 6 c 12 12 c 108 0 6659 346 l -18 -6 6845 418 l -12 -18 c -6 -30 c 0 -18 c 6 -30 c 12 -18 c 18 -6 c 12 0 c 18 6 c 12 18 c
6 30 c 0 18 c -6 30 c -12 18 c -18 6 c -12 0 c 66 0 6941 418 l -36 -48 c 18 0 c 12 -6 c 6 -6 c 6 -18 c 0 -12 c -6 -18 c -12 -12 c
-18 -6 c -18 0 c -18 6 c -6 6 c -6 12 c -6 12 7127 400 l -18 6 c -12 0 c -18 -6 c -12 -18 c -6 -30 c 0 -30 c 6 -24 c 12 -12 c
18 -6 c 6 0 c 18 6 c 12 12 c 6 18 c 0 6 c -6 18 c -12 12 c -18 6 c -6 0 c -18 -6 c -12 -12 c -6 -18 c -6 -6 7181 304 l 6 -6 c 6 6 c
-6 6 c -12 0 7271 418 l -12 -6 c -6 -18 c 0 -102 c 42 0 7223 376 l 6 -6 7301 418 l 6 6 c -6 6 c -6 -6 c 0 -84 7307 376 l
0 -102 7361 418 l 6 -18 c 12 -6 c 12 0 c 42 0 7343 376 l -6 12 7487 358 l -18 6 c -18 0 c -18 -6 c -6 -12 c 6 -12 c 12 -6 c 30 -6 c
12 -6 c 6 -12 c 0 -6 c -6 -12 c -18 -6 c -18 0 c -18 6 c -6 12 c 0 -192 7559 442 l 0 -192 7565 442 l 42 0 7523 442 l 42 0 7523 250 l
0 -250 807 1315 l 53 -38 763 1425 l 0 56 c 80 0 763 1425 l 80 -38 763 1515 l 0 53 763 1462 l 80 -38 763 1591 l 0 53 763 1538 l
0 -38 763 1659 l 35 -4 c -4 4 c -4 11 c 0 12 c 4 11 c 7 8 c 12 3 c 7 0 c 12 -3 c 7 -8 c 4 -11 c 0 -12 c -4 -11 c -4 -4 c -7 -3 c
4 -4 835 1697 l 4 4 c -4 3 c -4 -3 c 0 42 763 1734 l 31 -23 c 0 12 c 4 7 c 3 4 c 12 4 c 7 0 c 12 -4 c 7 -7 c 4 -12 c 0 -11 c
-4 -12 c -4 -3 c -7 -4 c -4 7 779 1814 l -12 12 c 80 0 c 0 41 763 1886 l 31 -22 c 0 11 c 4 7 c 3 4 c 12 4 c 7 0 c 12 -4 c 7 -7 c
4 -12 c 0 -11 c -4 -11 c -4 -4 c -7 -4 c 0 -250 865 1319 l 53 -37 821 1428 l 0 56 c 80 0 821 1428 l 80 -38 821 1519 l
0 53 821 1466 l 80 -38 821 1595 l 0 53 821 1542 l 0 -38 821 1663 l 34 -4 c -3 4 c -4 11 c 0 12 c 4 11 c 7 7 c 12 4 c 7 0 c 11 -4 c
8 -7 c 4 -11 c 0 -12 c -4 -11 c -4 -4 c -7 -4 c 4 -3 893 1700 l 4 3 c -4 4 c -4 -4 c 80 -38 821 1784 l 0 53 821 1731 l
11 -3 848 1855 l 8 -8 c 4 -11 c 0 -4 c -4 -11 c -8 -8 c -11 -4 c -4 0 c -11 4 c -8 8 c -4 11 c 0 4 c 4 11 c 8 8 c 15 3 c 19 0 c
19 -3 c 11 -8 c 4 -11 c 0 -8 c -4 -11 c -8 -4 c 53 -38 821 1920 l 0 57 c 80 0 821 1920 l 0 -249 1035 1298 l 53 -38 991 1408 l 0 57 c
80 0 991 1408 l 80 -38 991 1499 l 0 53 991 1446 l 80 -38 991 1574 l 0 53 991 1521 l 80 -38 991 1650 l 0 53 991 1597 l
4 -4 1063 1680 l 4 4 c -4 4 c -4 -4 c -3 7 1006 1722 l -12 12 c 80 0 c 11 -4 1018 1835 l 8 -7 c 3 -12 c 0 -3 c -3 -12 c -8 -7 c
-11 -4 c -4 0 c -11 4 c -8 7 c -4 12 c 0 3 c 4 12 c 8 7 c 15 4 c 19 0 c 18 -4 c 12 -7 c 4 -12 c 0 -7 c -4 -12 c -8 -3 c
-3 7 1006 1873 l -12 12 c 80 0 c 0 -249 1169 4945 l 53 -38 1125 5055 l 0 57 c 80 0 1125 5055 l 80 -38 1125 5146 l 0 53 1125 5093 l
80 -38 1125 5221 l 0 53 1125 5168 l 4 -11 1125 5263 l 8 -4 c 7 0 c 8 4 c 4 7 c 3 15 c 4 12 c 8 7 c 7 4 c 12 0 c 7 -4 c 4 -4 c
4 -11 c 0 -15 c -4 -11 c -4 -4 c -7 -4 c -12 0 c -7 4 c -8 7 c -4 12 c -3 15 c -4 7 c -8 4 c -7 0 c -8 -4 c -4 -11 c 0 -15 c
4 -4 1197 5327 l 4 4 c -4 4 c -4 -4 c -4 0 1144 5361 l -7 4 c -4 4 c -4 7 c 0 15 c 4 8 c 4 4 c 7 3 c 8 0 c 8 -3 c 11 -8 c 38 -38 c
0 53 c 11 -4 1152 5482 l 8 -7 c 4 -12 c 0 -3 c -4 -12 c -8 -7 c -11 -4 c -4 0 c -11 4 c -8 7 c -4 12 c 0 3 c 4 12 c 8 7 c 15 4 c
19 0 c 19 -4 c 11 -7 c 4 -12 c 0 -7 c -4 -12 c -8 -3 c 53 -37 1125 5546 l 0 56 c 80 0 1125 5546 l 0 -250 1467 1287 l
53 -38 1424 1396 l 0 57 c 79 0 1424 1396 l 79 -38 1424 1487 l 0 53 1424 1434 l 3 -12 1424 1529 l 8 -4 c 8 0 c 7 4 c 4 8 c 4 15 c
3 11 c 8 8 c 8 4 c 11 0 c 7 -4 c 4 -4 c 4 -11 c 0 -15 c -4 -12 c -4 -4 c -7 -3 c -11 0 c -8 3 c -8 8 c -3 11 c -4 15 c -4 8 c -7 4 c
-8 0 c -8 -4 c -3 -11 c 0 -15 c 3 -11 1424 1608 l 12 -8 c 19 -4 c 11 0 c 19 4 c 11 8 c 4 11 c 0 7 c -4 12 c -11 7 c -19 4 c -11 0 c
-19 -4 c -12 -7 c -3 -12 c 0 -7 c 4 -3 1495 1668 l 4 3 c -4 4 c -4 -4 c 79 -38 1424 1752 l 0 53 1424 1699 l 0 -38 1424 1820 l
34 -4 c -4 4 c -4 11 c 0 11 c 4 12 c 7 7 c 12 4 c 7 0 c 12 -4 c 7 -7 c 4 -12 c 0 -11 c -4 -11 c -4 -4 c -7 -4 c -4 8 1439 1861 l
-11 11 c 79 0 c 0 -249 1715 2046 l 53 -38 1671 2156 l 0 57 c 79 0 1671 2156 l 79 -38 1671 2247 l 0 53 1671 2194 l 4 -11 1671 2288 l
7 -4 c 8 0 c 8 4 c 3 7 c 4 16 c 4 11 c 7 8 c 8 3 c 11 0 c 8 -3 c 4 -4 c 3 -12 c 0 -15 c -3 -11 c -4 -4 c -8 -4 c -11 0 c -8 4 c
-7 8 c -4 11 c -4 15 c -3 8 c -8 4 c -8 0 c -7 -4 c -4 -12 c 0 -15 c -4 0 1690 2349 l -7 4 c -4 3 c -4 8 c 0 15 c 4 8 c 4 3 c 7 4 c
8 0 c 7 -4 c 12 -7 c 37 -38 c 0 53 c 4 -4 1743 2428 l 3 4 c -3 4 c -4 -4 c 79 -38 1671 2511 l 0 53 1671 2458 l -7 -4 1682 2583 l
-4 -11 c 0 -8 c 4 -11 c 11 -7 c 19 -4 c 19 0 c 15 4 c 8 7 c 3 11 c 0 4 c -3 12 c -8 7 c -11 4 c -4 0 c -11 -4 c -8 -7 c -4 -12 c
0 -4 c 4 -11 c 8 -7 c 11 -4 c -4 7 1686 2621 l -11 12 c 79 0 c 0 -250 2178 1408 l 53 -38 2135 1518 l 0 57 c 79 0 2135 1518 l
79 -37 2135 1608 l 0 53 2135 1555 l 4 -11 2135 1650 l 7 -4 c 8 0 c 7 4 c 4 7 c 4 15 c 4 12 c 7 7 c 8 4 c 11 0 c 8 -4 c 3 -4 c
4 -11 c 0 -15 c -4 -11 c -3 -4 c -8 -4 c -11 0 c -8 4 c -7 7 c -4 12 c -4 15 c -4 7 c -7 4 c -8 0 c -7 -4 c -4 -11 c 0 -15 c
-7 -4 2146 1756 l -4 -11 c 0 -8 c 4 -11 c 11 -8 c 19 -4 c 19 0 c 15 4 c 7 8 c 4 11 c 0 4 c -4 11 c -7 8 c -11 4 c -4 0 c -12 -4 c
-7 -8 c -4 -11 c 0 -4 c 4 -11 c 7 -8 c 12 -4 c 3 -4 2207 1790 l 4 4 c -4 4 c -3 -4 c 0 -37 2135 1865 l 34 -4 c -4 4 c -4 11 c 0 11 c
4 12 c 8 7 c 11 4 c 8 0 c 11 -4 c 7 -7 c 4 -12 c 0 -11 c -4 -11 c -3 -4 c -8 -4 c 0 42 2135 1903 l 30 -23 c 0 11 c 4 8 c 4 4 c
11 4 c 8 0 c 11 -4 c 7 -8 c 4 -11 c 0 -12 c -4 -11 c -3 -4 c -8 -3 c -4 7 2150 1983 l -11 11 c 79 0 c 0 -249 2255 1575 l
53 -38 2211 1685 l 0 57 c 79 0 2211 1685 l 79 -37 2211 1775 l 0 52 2211 1723 l 4 -11 2211 1817 l 7 -4 c 8 0 c 7 4 c 4 7 c 4 15 c
4 12 c 7 7 c 8 4 c 11 0 c 8 -4 c 3 -3 c 4 -12 c 0 -15 c -4 -11 c -3 -4 c -8 -4 c -11 0 c -8 4 c -7 7 c -4 12 c -4 15 c -4 8 c -7 3 c
-8 0 c -7 -3 c -4 -12 c 0 -15 c 79 -38 2211 1927 l 0 53 2211 1874 l 3 -4 2283 1957 l 4 4 c -4 4 c -3 -4 c -4 8 2226 1998 l -11 11 c
79 0 c 53 -38 2211 2101 l 0 56 c 79 0 2211 2101 l 4 -11 2211 2157 l 7 -4 c 8 0 c 7 4 c 4 7 c 4 16 c 4 11 c 7 7 c 8 4 c 11 0 c 8 -4 c
3 -3 c 4 -12 c 0 -15 c -4 -11 c -3 -4 c -8 -4 c -11 0 c -8 4 c -7 8 c -4 11 c -4 15 c -4 8 c -7 3 c -8 0 c -7 -3 c -4 -12 c 0 -15 c
0 -250 2531 2959 l 53 -38 2488 3068 l 0 57 c 79 0 2488 3068 l 79 -38 2488 3159 l 0 53 2488 3106 l 3 -11 2488 3200 l 8 -4 c 8 0 c
7 4 c 4 8 c 4 15 c 4 11 c 7 8 c 8 3 c 11 0 c 8 -3 c 3 -4 c 4 -11 c 0 -16 c -4 -11 c -3 -4 c -8 -3 c -11 0 c -8 3 c -7 8 c -4 11 c
-4 15 c -4 8 c -7 4 c -8 0 c -8 -4 c -3 -11 c 0 -16 c 12 -4 2514 3306 l 7 -7 c 4 -11 c 0 -4 c -4 -12 c -7 -7 c -12 -4 c -4 0 c
-11 4 c -8 7 c -3 12 c 0 4 c 3 11 c 8 7 c 15 4 c 19 0 c 19 -4 c 11 -7 c 4 -11 c 0 -8 c -4 -11 c -7 -4 c 3 -4 2560 3340 l 4 4 c
-4 4 c -3 -4 c 0 42 2488 3378 l 30 -23 c 0 11 c 4 8 c 4 4 c 11 3 c 7 0 c 12 -3 c 7 -8 c 4 -11 c 0 -12 c -4 -11 c -3 -4 c -8 -4 c
3 -11 2488 3465 l 8 -4 c 8 0 c 7 4 c 4 7 c 4 15 c 4 12 c 7 7 c 8 4 c 11 0 c 8 -4 c 3 -4 c 4 -11 c 0 -15 c -4 -11 c -3 -4 c -8 -4 c
-11 0 c -8 4 c -7 7 c -4 12 c -4 15 c -4 7 c -7 4 c -8 0 c -8 -4 c -3 -11 c 0 -15 c 79 -38 2488 3575 l 0 53 2488 3522 l
0 -249 3011 1358 l 53 -38 2968 1468 l 0 57 c 79 0 2968 1468 l 79 -38 2968 1559 l 0 53 2968 1506 l 11 -3 2994 1630 l 8 -8 c 4 -11 c
0 -4 c -4 -11 c -8 -8 c -11 -4 c -4 0 c -11 4 c -8 8 c -3 11 c 0 4 c 3 11 c 8 8 c 15 3 c 19 0 c 19 -3 c 11 -8 c 4 -11 c 0 -8 c
-4 -11 c -7 -4 c 0 42 2968 1664 l 30 -23 c 0 12 c 4 7 c 3 4 c 12 4 c 7 0 c 12 -4 c 7 -8 c 4 -11 c 0 -11 c -4 -12 c -4 -3 c -7 -4 c
4 -4 3039 1740 l 4 4 c -4 4 c -4 -4 c -4 0 2987 1774 l -8 4 c -4 4 c -3 7 c 0 15 c 3 8 c 4 4 c 8 3 c 7 0 c 8 -3 c 11 -8 c 38 -38 c
0 53 c 53 -38 2968 1884 l 0 57 c 79 0 2968 1884 l 0 -38 2968 1967 l 34 -4 c -4 4 c -4 11 c 0 12 c 4 11 c 7 8 c 12 3 c 7 0 c 12 -3 c
7 -8 c 4 -11 c 0 -12 c -4 -11 c -4 -4 c -7 -4 c 0 -250 3345 1460 l 53 -37 3302 1569 l 0 56 c 79 0 3302 1569 l 79 -38 3302 1660 l
0 53 3302 1607 l 11 -4 3328 1732 l 8 -7 c 4 -12 c 0 -4 c -4 -11 c -8 -7 c -11 -4 c -4 0 c -11 4 c -8 7 c -3 11 c 0 4 c 3 12 c 8 7 c
15 4 c 19 0 c 19 -4 c 11 -7 c 4 -12 c 0 -7 c -4 -12 c -7 -3 c 0 -38 3302 1804 l 34 -4 c -4 4 c -4 11 c 0 12 c 4 11 c 7 8 c 12 3 c
7 0 c 12 -3 c 7 -8 c 4 -11 c 0 -12 c -4 -11 c -4 -4 c -7 -4 c 4 -4 3373 1842 l 4 4 c -4 3 c -4 -3 c 11 -4 3328 1921 l 8 -7 c 4 -12 c
0 -4 c -4 -11 c -8 -7 c -11 -4 c -4 0 c -11 4 c -8 7 c -3 11 c 0 4 c 3 12 c 8 7 c 15 4 c 19 0 c 19 -4 c 11 -7 c 4 -12 c 0 -7 c
-4 -12 c -7 -3 c -4 7 3317 1959 l -11 12 c 79 0 c 0 41 3302 2031 l 30 -23 c 0 12 c 4 7 c 3 4 c 12 4 c 7 0 c 12 -4 c 7 -7 c 4 -12 c
0 -11 c -4 -11 c -4 -4 c -7 -4 c 0 -250 3881 2155 l 53 -37 3837 2264 l 0 56 c 80 0 3837 2264 l 4 -11 3837 2321 l 8 -4 c 7 0 c 8 4 c
4 7 c 3 16 c 4 11 c 8 7 c 7 4 c 12 0 c 7 -4 c 4 -3 c 4 -12 c 0 -15 c -4 -11 c -4 -4 c -7 -4 c -12 0 c -7 4 c -8 8 c -4 11 c -3 15 c
-4 8 c -8 3 c -7 0 c -8 -3 c -4 -12 c 0 -15 c 4 -12 3837 2401 l 12 -7 c 18 -4 c 12 0 c 19 4 c 11 7 c 4 12 c 0 7 c -4 11 c -11 8 c
-19 4 c -12 0 c -18 -4 c -12 -8 c -4 -11 c 0 -7 c 4 -11 3837 2476 l 12 -8 c 18 -4 c 12 0 c 19 4 c 11 8 c 4 11 c 0 8 c -4 11 c
-11 8 c -19 3 c -12 0 c -18 -3 c -12 -8 c -4 -11 c 0 -8 c 4 -4 3909 2537 l 4 4 c -4 3 c -4 -3 c -4 8 3853 2578 l -12 11 c 80 0 c
80 -37 3837 2695 l 0 53 3837 2642 l -3 0 3856 2722 l -8 4 c -4 3 c -4 8 c 0 15 c 4 8 c 4 3 c 8 4 c 7 0 c 8 -4 c 11 -7 c 38 -38 c
0 53 c 0 -249 4624 7019 l 52 -38 4581 7129 l 0 57 c 79 0 4581 7129 l 3 -11 4581 7185 l 8 -4 c 7 0 c 8 4 c 4 8 c 4 15 c 3 11 c 8 8 c
7 3 c 12 0 c 7 -3 c 4 -4 c 4 -11 c 0 -16 c -4 -11 c -4 -4 c -7 -3 c -12 0 c -7 3 c -8 8 c -3 11 c -4 15 c -4 8 c -8 4 c -7 0 c
-8 -4 c -3 -11 c 0 -16 c 3 -12 4581 7265 l 12 -7 c 19 -4 c 11 0 c 19 4 c 11 7 c 4 12 c 0 7 c -4 12 c -11 7 c -19 4 c -11 0 c
-19 -4 c -12 -7 c -3 -12 c 0 -7 c -8 -4 4592 7367 l -3 -11 c 0 -8 c 3 -11 c 12 -8 c 19 -4 c 18 0 c 16 4 c 7 8 c 4 11 c 0 4 c -4 11 c
-7 8 c -12 4 c -4 0 c -11 -4 c -7 -8 c -4 -11 c 0 -4 c 4 -11 c 7 -8 c 11 -4 c 4 -4 4652 7401 l 4 4 c -4 4 c -4 -4 c
3 -12 4581 7454 l 12 -7 c 19 -4 c 11 0 c 19 4 c 11 7 c 4 12 c 0 7 c -4 12 c -11 7 c -19 4 c -11 0 c -19 -4 c -12 -7 c -3 -12 c
0 -7 c -3 0 4599 7510 l -8 4 c -4 4 c -3 8 c 0 15 c 3 7 c 4 4 c 8 4 c 7 0 c 8 -4 c 11 -8 c 38 -37 c 0 53 c 3 -11 4581 7605 l 12 -8 c
19 -4 c 11 0 c 19 4 c 11 8 c 4 11 c 0 7 c -4 12 c -11 7 c -19 4 c -11 0 c -19 -4 c -12 -7 c -3 -12 c 0 -7 c 0 -250 4895 5940 l
53 -38 4851 6050 l 0 56 c 79 0 4851 6050 l 4 -11 4851 6106 l 7 -4 c 8 0 c 7 4 c 4 7 c 4 16 c 4 11 c 7 8 c 8 3 c 11 0 c 8 -3 c 4 -4 c
3 -12 c 0 -15 c -3 -11 c -4 -4 c -8 -4 c -11 0 c -8 4 c -7 8 c -4 11 c -4 15 c -4 8 c -7 4 c -8 0 c -7 -4 c -4 -12 c 0 -15 c
4 -12 4851 6186 l 11 -7 c 19 -4 c 11 0 c 19 4 c 12 7 c 3 12 c 0 7 c -3 12 c -12 7 c -19 4 c -11 0 c -19 -4 c -11 -7 c -4 -12 c
0 -7 c 4 -11 4851 6257 l 7 -4 c 8 0 c 7 4 c 4 8 c 4 15 c 4 11 c 7 8 c 8 3 c 11 0 c 8 -3 c 4 -4 c 3 -11 c 0 -16 c -3 -11 c -4 -4 c
-8 -3 c -11 0 c -8 3 c -7 8 c -4 11 c -4 15 c -4 8 c -7 4 c -8 0 c -7 -4 c -4 -11 c 0 -16 c 4 -4 4923 6322 l 3 4 c -3 3 c -4 -3 c
-4 8 4866 6363 l -11 11 c 79 0 c 0 42 4851 6435 l 30 -23 c 0 11 c 4 8 c 4 4 c 11 3 c 8 0 c 11 -3 c 8 -8 c 3 -11 c 0 -12 c -3 -11 c
-4 -4 c -8 -3 c 53 -38 4851 6541 l 0 57 c 79 0 4851 6541 l 0 -249 5085 2766 l 53 -38 5041 2876 l 0 57 c 79 0 5041 2876 l
4 -11 5041 2932 l 7 -4 c 8 0 c 7 4 c 4 8 c 4 15 c 4 11 c 7 8 c 8 3 c 11 0 c 8 -3 c 4 -4 c 3 -11 c 0 -16 c -3 -11 c -4 -4 c -8 -3 c
-11 0 c -8 3 c -7 8 c -4 11 c -4 15 c -4 8 c -7 4 c -8 0 c -7 -4 c -4 -11 c 0 -16 c 4 -12 5041 3012 l 11 -7 c 19 -4 c 11 0 c 19 4 c
12 7 c 3 12 c 0 7 c -3 12 c -12 7 c -19 4 c -11 0 c -19 -4 c -11 -7 c -4 -12 c 0 -7 c 12 -4 5067 3114 l 7 -7 c 4 -12 c 0 -4 c
-4 -11 c -7 -7 c -12 -4 c -3 0 c -12 4 c -7 7 c -4 11 c 0 4 c 4 12 c 7 7 c 15 4 c 19 0 c 19 -4 c 12 -7 c 3 -12 c 0 -7 c -3 -12 c
-8 -3 c 4 -4 5113 3148 l 3 4 c -3 4 c -4 -4 c -7 -4 5052 3227 l -4 -11 c 0 -7 c 4 -12 c 11 -7 c 19 -4 c 19 0 c 15 4 c 8 7 c 3 12 c
0 3 c -3 12 c -8 7 c -11 4 c -4 0 c -11 -4 c -8 -7 c -4 -12 c 0 -3 c 4 -12 c 8 -7 c 11 -4 c -4 8 5056 3265 l -11 11 c 79 0 c
53 -38 5041 3367 l 0 57 c 79 0 5041 3367 l 0 -249 5441 1435 l 53 -38 5398 1545 l 0 57 c 79 0 5398 1545 l 3 -12 5398 1602 l 8 -4 c
8 0 c 7 4 c 4 8 c 4 15 c 3 11 c 8 8 c 8 4 c 11 0 c 7 -4 c 4 -4 c 4 -11 c 0 -15 c -4 -12 c -4 -4 c -7 -3 c -11 0 c -8 3 c -8 8 c
-3 11 c -4 15 c -4 8 c -7 4 c -8 0 c -8 -4 c -3 -11 c 0 -15 c -4 7 5413 1670 l -11 11 c 79 0 c -4 0 5417 1738 l -8 3 c -4 4 c -3 8 c
0 15 c 3 7 c 4 4 c 8 4 c 7 0 c 8 -4 c 11 -7 c 38 -38 c 0 53 c 4 -4 5469 1817 l 4 4 c -4 4 c -4 -4 c 0 41 5398 1855 l 30 -22 c 0 11 c
4 8 c 3 3 c 12 4 c 7 0 c 12 -4 c 7 -7 c 4 -12 c 0 -11 c -4 -11 c -4 -4 c -7 -4 c 79 -38 5398 1976 l 0 53 5398 1923 l
-8 -3 5409 2047 l -3 -12 c 0 -7 c 3 -12 c 12 -7 c 19 -4 c 19 0 c 15 4 c 7 7 c 4 12 c 0 4 c -4 11 c -7 7 c -12 4 c -3 0 c -12 -4 c
-7 -7 c -4 -11 c 0 -4 c 4 -12 c 7 -7 c 12 -4 c 0 -249 5522 1382 l 53 -38 5479 1492 l 0 57 c 79 0 5479 1492 l 4 -12 5479 1549 l
7 -4 c 8 0 c 7 4 c 4 8 c 4 15 c 4 11 c 7 8 c 8 4 c 11 0 c 8 -4 c 3 -4 c 4 -11 c 0 -15 c -4 -12 c -3 -4 c -8 -3 c -11 0 c -8 3 c
-7 8 c -4 11 c -4 15 c -4 8 c -7 4 c -8 0 c -7 -4 c -4 -11 c 0 -15 c -4 7 5494 1617 l -11 11 c 79 0 c 0 42 5479 1688 l 30 -23 c
0 12 c 4 7 c 4 4 c 11 4 c 7 0 c 12 -4 c 7 -8 c 4 -11 c 0 -11 c -4 -12 c -3 -3 c -8 -4 c 3 -4 5551 1764 l 4 4 c -4 4 c -3 -4 c
4 -11 5479 1817 l 11 -8 c 19 -4 c 11 0 c 19 4 c 11 8 c 4 11 c 0 7 c -4 12 c -11 7 c -19 4 c -11 0 c -19 -4 c -11 -7 c -4 -12 c
0 -7 c 4 -11 5479 1892 l 11 -7 c 19 -4 c 11 0 c 19 4 c 11 7 c 4 11 c 0 8 c -4 11 c -11 8 c -19 4 c -11 0 c -19 -4 c -11 -8 c
-4 -11 c 0 -8 c 79 -37 5479 1998 l 0 53 5479 1945 l 0 -250 6258 1761 l 53 -38 6214 1871 l 0 57 c 79 0 6214 1871 l 4 -11 6214 1927 l
7 -4 c 8 0 c 7 4 c 4 8 c 4 15 c 4 11 c 7 8 c 8 3 c 11 0 c 8 -3 c 4 -4 c 3 -12 c 0 -15 c -3 -11 c -4 -4 c -8 -4 c -11 0 c -8 4 c
-7 8 c -4 11 c -4 15 c -4 8 c -7 4 c -8 0 c -7 -4 c -4 -12 c 0 -15 c -4 8 6229 1995 l -11 11 c 79 0 c 4 -12 6214 2079 l 7 -4 c 8 0 c
7 4 c 4 8 c 4 15 c 4 11 c 7 8 c 8 4 c 11 0 c 8 -4 c 4 -4 c 3 -11 c 0 -15 c -3 -12 c -4 -4 c -8 -3 c -11 0 c -8 3 c -7 8 c -4 11 c
-4 15 c -4 8 c -7 4 c -8 0 c -7 -4 c -4 -11 c 0 -15 c 4 -4 6286 2143 l 3 4 c -3 4 c -4 -4 c -7 -4 6225 2222 l -4 -11 c 0 -8 c
4 -11 c 11 -7 c 19 -4 c 19 0 c 15 4 c 8 7 c 3 11 c 0 4 c -3 12 c -8 7 c -11 4 c -4 0 c -11 -4 c -8 -7 c -4 -12 c 0 -4 c 4 -11 c
8 -7 c 11 -4 c 53 -37 6214 2286 l 0 56 c 79 0 6214 2286 l 4 -11 6214 2343 l 7 -4 c 8 0 c 7 4 c 4 7 c 4 15 c 4 12 c 7 7 c 8 4 c
11 0 c 8 -4 c 4 -3 c 3 -12 c 0 -15 c -3 -11 c -4 -4 c -8 -4 c -11 0 c -8 4 c -7 8 c -4 11 c -4 15 c -4 8 c -7 3 c -8 0 c -7 -3 c
-4 -12 c 0 -15 c 0 -250 6329 1464 l 53 -37 6285 1573 l 0 56 c 80 0 6285 1573 l 4 -11 6285 1630 l 8 -4 c 7 0 c 8 4 c 4 7 c 3 15 c
4 12 c 8 7 c 7 4 c 12 0 c 7 -4 c 4 -3 c 4 -12 c 0 -15 c -4 -11 c -4 -4 c -7 -4 c -12 0 c -7 4 c -8 8 c -4 11 c -3 15 c -4 8 c -8 3 c
-7 0 c -8 -3 c -4 -12 c 0 -15 c -4 8 6301 1698 l -12 11 c 80 0 c 11 -4 6312 1812 l 8 -8 c 4 -11 c 0 -4 c -4 -11 c -8 -8 c -11 -4 c
-4 0 c -11 4 c -8 8 c -4 11 c 0 4 c 4 11 c 8 8 c 15 4 c 19 0 c 19 -4 c 11 -8 c 4 -11 c 0 -8 c -4 -11 c -8 -4 c 4 -4 6357 1846 l
4 4 c -4 3 c -4 -3 c -4 8 6301 1887 l -12 11 c 80 0 c 11 -4 6312 2001 l 8 -8 c 4 -11 c 0 -4 c -4 -11 c -8 -8 c -11 -4 c -4 0 c
-11 4 c -8 8 c -4 11 c 0 4 c 4 11 c 8 8 c 15 4 c 19 0 c 19 -4 c 11 -8 c 4 -11 c 0 -8 c -4 -11 c -8 -4 c 0 41 6285 2035 l 31 -23 c
0 12 c 3 7 c 4 4 c 12 4 c 7 0 c 11 -4 c 8 -7 c 4 -12 c 0 -11 c -4 -11 c -4 -4 c -7 -4 c 0 -249 6552 2822 l 53 -38 6508 2932 l 0 57 c
80 0 6508 2932 l 4 -12 6508 2989 l 8 -3 c 7 0 c 8 3 c 3 8 c 4 15 c 4 11 c 8 8 c 7 4 c 11 0 c 8 -4 c 4 -4 c 4 -11 c 0 -15 c -4 -12 c
-4 -3 c -8 -4 c -11 0 c -7 4 c -8 7 c -4 11 c -4 16 c -3 7 c -8 4 c -7 0 c -8 -4 c -4 -11 c 0 -15 c -4 0 6527 3049 l -7 4 c -4 4 c
-4 7 c 0 15 c 4 8 c 4 4 c 7 3 c 8 0 c 7 -3 c 12 -8 c 38 -38 c 0 53 c 4 -12 6508 3144 l 11 -7 c 19 -4 c 12 0 c 18 4 c 12 7 c 4 12 c
0 7 c -4 12 c -12 7 c -18 4 c -12 0 c -19 -4 c -11 -7 c -4 -12 c 0 -7 c 4 -4 6580 3204 l 4 4 c -4 4 c -4 -4 c 4 -11 6508 3253 l
8 -4 c 7 0 c 8 4 c 3 7 c 4 16 c 4 11 c 8 7 c 7 4 c 11 0 c 8 -4 c 4 -3 c 4 -12 c 0 -15 c -4 -11 c -4 -4 c -8 -4 c -11 0 c -7 4 c
-8 8 c -4 11 c -4 15 c -3 8 c -8 3 c -7 0 c -8 -3 c -4 -12 c 0 -15 c 4 -12 6508 3329 l 8 -3 c 7 0 c 8 3 c 3 8 c 4 15 c 4 11 c 8 8 c
7 4 c 11 0 c 8 -4 c 4 -4 c 4 -11 c 0 -15 c -4 -12 c -4 -3 c -8 -4 c -11 0 c -7 4 c -8 7 c -4 12 c -4 15 c -3 7 c -8 4 c -7 0 c
-8 -4 c -4 -11 c 0 -15 c 0 -38 6508 3431 l 34 -4 c -4 4 c -3 11 c 0 12 c 3 11 c 8 8 c 11 3 c 8 0 c 11 -3 c 8 -8 c 4 -11 c 0 -12 c
-4 -11 c -4 -4 c -8 -3 c 0 -250 6644 2408 l 52 -37 6601 2517 l 0 56 c 79 0 6601 2517 l 3 -11 6601 2574 l 8 -4 c 7 0 c 8 4 c 4 7 c
4 15 c 3 12 c 8 7 c 7 4 c 12 0 c 7 -4 c 4 -3 c 4 -12 c 0 -15 c -4 -11 c -4 -4 c -7 -4 c -12 0 c -7 4 c -8 8 c -3 11 c -4 15 c -4 8 c
-8 3 c -7 0 c -8 -3 c -3 -12 c 0 -15 c -3 0 6619 2635 l -8 3 c -4 4 c -3 8 c 0 15 c 3 7 c 4 4 c 8 4 c 7 0 c 8 -4 c 11 -7 c 38 -38 c
0 53 c -4 7 6616 2718 l -11 12 c 79 0 c 4 -3 6672 2789 l 4 3 c -4 4 c -4 -4 c 0 -38 6601 2865 l 34 -3 c -4 3 c -4 12 c 0 11 c 4 11 c
7 8 c 12 4 c 7 0 c 12 -4 c 7 -8 c 4 -11 c 0 -11 c -4 -12 c -4 -3 c -7 -4 c 3 -11 6601 2914 l 8 -4 c 7 0 c 8 4 c 4 7 c 4 16 c 3 11 c
8 7 c 7 4 c 12 0 c 7 -4 c 4 -3 c 4 -12 c 0 -15 c -4 -11 c -4 -4 c -7 -4 c -12 0 c -7 4 c -8 8 c -3 11 c -4 15 c -4 8 c -8 3 c -7 0 c
-8 -3 c -3 -12 c 0 -15 c 3 -12 6601 2990 l 8 -3 c 7 0 c 8 3 c 4 8 c 4 15 c 3 11 c 8 8 c 7 4 c 12 0 c 7 -4 c 4 -4 c 4 -11 c 0 -15 c
-4 -12 c -4 -3 c -7 -4 c -12 0 c -7 4 c -8 7 c -3 12 c -4 15 c -4 7 c -8 4 c -7 0 c -8 -4 c -3 -11 c 0 -15 c 0 -250 6812 4334 l
53 -38 6768 4443 l 0 57 c 79 0 6768 4443 l 4 -12 6768 4500 l 7 -3 c 8 0 c 7 3 c 4 8 c 4 15 c 4 11 c 7 8 c 8 4 c 11 0 c 8 -4 c 4 -4 c
3 -11 c 0 -15 c -3 -12 c -4 -3 c -8 -4 c -11 0 c -8 4 c -7 7 c -4 12 c -4 15 c -4 7 c -7 4 c -8 0 c -7 -4 c -4 -11 c 0 -15 c
-4 0 6787 4560 l -7 4 c -4 4 c -4 7 c 0 16 c 4 7 c 4 4 c 7 4 c 8 0 c 7 -4 c 12 -8 c 37 -38 c 0 53 c -4 0 6787 4636 l -7 4 c -4 3 c
-4 8 c 0 15 c 4 8 c 4 3 c 7 4 c 8 0 c 7 -4 c 12 -7 c 37 -38 c 0 53 c 4 -4 6840 4715 l 3 4 c -3 4 c -4 -4 c 4 -11 6768 4764 l 7 -4 c
8 0 c 7 4 c 4 8 c 4 15 c 4 11 c 7 8 c 8 3 c 11 0 c 8 -3 c 4 -4 c 3 -12 c 0 -15 c -3 -11 c -4 -4 c -8 -4 c -11 0 c -8 4 c -7 8 c
-4 11 c -4 15 c -4 8 c -7 4 c -8 0 c -7 -4 c -4 -12 c 0 -15 c 0 -37 6768 4866 l 34 -4 c -4 4 c -4 11 c 0 11 c 4 12 c 8 7 c 11 4 c
8 0 c 11 -4 c 8 -7 c 3 -12 c 0 -11 c -3 -11 c -4 -4 c -8 -4 c 0 -38 6768 4942 l 34 -4 c -4 4 c -4 12 c 0 11 c 4 11 c 8 8 c 11 4 c
8 0 c 11 -4 c 8 -8 c 3 -11 c 0 -11 c -3 -12 c -4 -4 c -8 -3 c 0 -249 6912 2317 l 53 -38 6868 2427 l 0 57 c 79 0 6868 2427 l
4 -12 6868 2484 l 7 -3 c 8 0 c 7 3 c 4 8 c 4 15 c 4 11 c 7 8 c 8 4 c 11 0 c 8 -4 c 3 -4 c 4 -11 c 0 -15 c -4 -12 c -3 -3 c -8 -4 c
-11 0 c -8 4 c -7 7 c -4 12 c -4 15 c -4 7 c -7 4 c -8 0 c -7 -4 c -4 -11 c 0 -15 c -4 0 6887 2544 l -8 4 c -3 4 c -4 7 c 0 15 c
4 8 c 3 4 c 8 4 c 8 0 c 7 -4 c 11 -8 c 38 -38 c 0 53 c 0 41 6868 2624 l 30 -22 c 0 11 c 4 7 c 4 4 c 11 4 c 8 0 c 11 -4 c 7 -7 c
4 -12 c 0 -11 c -4 -11 c -3 -4 c -8 -4 c 3 -4 6940 2699 l 4 4 c -4 4 c -3 -4 c -7 -4 6879 2779 l -4 -12 c 0 -7 c 4 -11 c 11 -8 c
19 -4 c 19 0 c 15 4 c 7 8 c 4 11 c 0 4 c -4 11 c -7 8 c -11 3 c -4 0 c -12 -3 c -7 -8 c -4 -11 c 0 -4 c 4 -11 c 7 -8 c 12 -4 c
4 -12 6868 2828 l 11 -7 c 19 -4 c 11 0 c 19 4 c 11 7 c 4 12 c 0 7 c -4 12 c -11 7 c -19 4 c -11 0 c -19 -4 c -11 -7 c -4 -12 c
0 -7 c -7 -4 6879 2930 l -4 -11 c 0 -8 c 4 -11 c 11 -8 c 19 -4 c 19 0 c 15 4 c 7 8 c 4 11 c 0 4 c -4 11 c -7 8 c -11 4 c -4 0 c
-12 -4 c -7 -8 c -4 -11 c 0 -4 c 4 -11 c 7 -8 c 12 -4 c 0 -249 6963 1853 l 52 -38 6920 1963 l 0 57 c 79 0 6920 1963 l
3 -11 6920 2019 l 8 -4 c 7 0 c 8 4 c 4 8 c 4 15 c 3 11 c 8 8 c 7 3 c 12 0 c 7 -3 c 4 -4 c 4 -11 c 0 -16 c -4 -11 c -4 -4 c -7 -3 c
-12 0 c -7 3 c -8 8 c -3 11 c -4 15 c -4 8 c -8 4 c -7 0 c -8 -4 c -3 -11 c 0 -16 c -3 0 6938 2080 l -8 4 c -4 4 c -3 7 c 0 15 c
3 8 c 4 4 c 8 3 c 7 0 c 8 -3 c 11 -8 c 38 -38 c 0 53 c 0 42 6920 2159 l 30 -23 c 0 12 c 4 7 c 3 4 c 12 4 c 7 0 c 12 -4 c 7 -8 c
4 -11 c 0 -11 c -4 -12 c -4 -3 c -7 -4 c 4 -4 6991 2235 l 4 4 c -4 4 c -4 -4 c 11 -4 6946 2314 l 8 -7 c 4 -11 c 0 -4 c -4 -12 c
-8 -7 c -11 -4 c -4 0 c -11 4 c -8 7 c -3 12 c 0 4 c 3 11 c 8 7 c 15 4 c 19 0 c 19 -4 c 11 -7 c 4 -11 c 0 -8 c -4 -11 c -7 -4 c
11 -4 6946 2390 l 8 -7 c 4 -12 c 0 -4 c -4 -11 c -8 -7 c -11 -4 c -4 0 c -11 4 c -8 7 c -3 11 c 0 4 c 3 12 c 8 7 c 15 4 c 19 0 c
19 -4 c 11 -7 c 4 -12 c 0 -7 c -4 -12 c -7 -3 c 79 -38 6920 2469 l 0 53 6920 2416 l 0 -250 7322 2591 l 52 -38 7279 2701 l 0 56 c
79 0 7279 2701 l 3 -11 7279 2757 l 8 -4 c 7 0 c 8 4 c 4 7 c 4 16 c 3 11 c 8 8 c 7 3 c 12 0 c 7 -3 c 4 -4 c 4 -12 c 0 -15 c -4 -11 c
-4 -4 c -7 -4 c -12 0 c -7 4 c -8 8 c -3 11 c -4 15 c -4 8 c -8 4 c -7 0 c -8 -4 c -3 -12 c 0 -15 c -3 0 7297 2818 l -8 4 c -4 3 c
-3 8 c 0 15 c 3 8 c 4 3 c 8 4 c 7 0 c 8 -4 c 11 -7 c 38 -38 c 0 53 c -8 -4 7290 2939 l -3 -11 c 0 -8 c 3 -11 c 12 -8 c 19 -4 c
18 0 c 16 4 c 7 8 c 4 11 c 0 4 c -4 11 c -7 8 c -12 3 c -4 0 c -11 -3 c -7 -8 c -4 -11 c 0 -4 c 4 -11 c 7 -8 c 11 -4 c
4 -4 7350 2973 l 4 4 c -4 3 c -4 -3 c 79 -38 7279 3056 l 0 53 7279 3003 l 3 -11 7279 3101 l 12 -8 c 19 -3 c 11 0 c 19 3 c 11 8 c
4 11 c 0 8 c -4 11 c -11 8 c -19 3 c -11 0 c -19 -3 c -12 -8 c -3 -11 c 0 -8 c 3 -12 7279 3177 l 12 -7 c 19 -4 c 11 0 c 19 4 c
11 7 c 4 12 c 0 7 c -4 12 c -11 7 c -19 4 c -11 0 c -19 -4 c -12 -7 c -3 -12 c 0 -7 c 0 -250 7738 1403 l 53 -38 7694 1512 l 0 57 c
79 0 7694 1512 l 4 -11 7694 1569 l 7 -4 c 8 0 c 8 4 c 3 7 c 4 15 c 4 12 c 7 7 c 8 4 c 11 0 c 8 -4 c 4 -4 c 3 -11 c 0 -15 c -3 -11 c
-4 -4 c -8 -4 c -11 0 c -8 4 c -7 7 c -4 12 c -4 15 c -3 7 c -8 4 c -8 0 c -7 -4 c -4 -11 c 0 -15 c -4 0 7713 1629 l -7 4 c -4 4 c
-4 8 c 0 15 c 4 7 c 4 4 c 7 4 c 8 0 c 7 -4 c 12 -8 c 37 -37 c 0 53 c 11 -3 7721 1750 l 7 -8 c 4 -11 c 0 -4 c -4 -11 c -7 -8 c
-11 -4 c -4 0 c -12 4 c -7 8 c -4 11 c 0 4 c 4 11 c 7 8 c 16 3 c 18 0 c 19 -3 c 12 -8 c 3 -11 c 0 -8 c -3 -11 c -8 -4 c
4 -3 7766 1784 l 3 3 c -3 4 c -4 -4 c 79 -38 7694 1868 l 0 53 7694 1815 l 11 -3 7721 1939 l 7 -8 c 4 -11 c 0 -4 c -4 -11 c -7 -8 c
-11 -4 c -4 0 c -12 4 c -7 8 c -4 11 c 0 4 c 4 11 c 7 8 c 16 3 c 18 0 c 19 -3 c 12 -8 c 3 -11 c 0 -8 c -3 -11 c -8 -4 c
79 -38 7694 2019 l 0 53 7694 1966 l 0 -250 7915 4948 l 53 -38 7872 5057 l 0 57 c 79 0 7872 5057 l 4 -11 7872 5114 l 7 -4 c 8 0 c
7 4 c 4 7 c 4 15 c 4 12 c 7 7 c 8 4 c 11 0 c 8 -4 c 3 -4 c 4 -11 c 0 -15 c -4 -11 c -3 -4 c -8 -4 c -11 0 c -8 4 c -7 7 c -4 12 c
-4 15 c -4 7 c -7 4 c -8 0 c -7 -4 c -4 -11 c 0 -15 c 0 42 7872 5178 l 30 -23 c 0 11 c 4 8 c 4 4 c 11 3 c 7 0 c 12 -3 c 7 -8 c
4 -11 c 0 -12 c -4 -11 c -3 -4 c -8 -3 c -4 8 7887 5257 l -11 11 c 79 0 c 3 -4 7944 5329 l 4 4 c -4 4 c -3 -4 c -4 7 7887 5371 l
-11 12 c 79 0 c -4 0 7891 5439 l -8 4 c -3 3 c -4 8 c 0 15 c 4 8 c 3 3 c 8 4 c 7 0 c 8 -4 c 11 -7 c 38 -38 c 0 53 c -4 8 7887 5522 l
-11 11 c 79 0 c 0 -250 7979 2150 l 53 -38 7936 2260 l 0 56 c 79 0 7936 2260 l 4 -11 7936 2316 l 7 -4 c 8 0 c 7 4 c 4 7 c 4 16 c
4 11 c 7 7 c 8 4 c 11 0 c 8 -4 c 3 -3 c 4 -12 c 0 -15 c -4 -11 c -3 -4 c -8 -4 c -11 0 c -8 4 c -7 8 c -4 11 c -4 15 c -4 8 c -7 3 c
-8 0 c -7 -3 c -4 -12 c 0 -15 c 0 41 7936 2381 l 30 -23 c 0 12 c 4 7 c 4 4 c 11 4 c 8 0 c 11 -4 c 7 -7 c 4 -12 c 0 -11 c -4 -11 c
-3 -4 c -8 -4 c -4 7 7951 2460 l -11 12 c 79 0 c 3 -4 8008 2532 l 4 4 c -4 3 c -3 -3 c 0 -38 7936 2607 l 34 -3 c -4 3 c -4 12 c
0 11 c 4 12 c 8 7 c 11 4 c 8 0 c 11 -4 c 7 -7 c 4 -12 c 0 -11 c -4 -12 c -3 -3 c -8 -4 c 12 -4 7962 2687 l 7 -8 c 4 -11 c 0 -4 c
-4 -11 c -7 -8 c -12 -3 c -4 0 c -11 3 c -7 8 c -4 11 c 0 4 c 4 11 c 7 8 c 15 4 c 19 0 c 19 -4 c 11 -8 c 4 -11 c 0 -8 c -4 -11 c
-7 -4 c 79 -38 7936 2766 l 0 53 7936 2713 l 0 -249 8143 7019 l 53 -38 8099 7129 l 0 57 c 79 0 8099 7129 l 4 -11 8099 7185 l 7 -4 c
8 0 c 7 4 c 4 8 c 4 15 c 4 11 c 7 8 c 8 3 c 11 0 c 8 -3 c 4 -4 c 3 -11 c 0 -16 c -3 -11 c -4 -4 c -8 -3 c -11 0 c -8 3 c -7 8 c
-4 11 c -4 15 c -4 8 c -7 4 c -8 0 c -7 -4 c -4 -11 c 0 -16 c 0 41 8099 7250 l 30 -22 c 0 11 c 4 7 c 4 4 c 11 4 c 8 0 c 11 -4 c
8 -7 c 3 -12 c 0 -11 c -3 -11 c -4 -4 c -8 -4 c -4 0 8118 7321 l -7 4 c -4 4 c -4 8 c 0 15 c 4 7 c 4 4 c 7 4 c 8 0 c 7 -4 c 12 -8 c
37 -37 c 0 53 c 4 -4 8171 7401 l 3 4 c -3 4 c -4 -4 c 4 -11 8099 7450 l 7 -4 c 8 0 c 7 4 c 4 7 c 4 15 c 4 12 c 7 7 c 8 4 c 11 0 c
8 -4 c 4 -4 c 3 -11 c 0 -15 c -3 -11 c -4 -4 c -8 -4 c -11 0 c -8 4 c -7 7 c -4 12 c -4 15 c -4 7 c -7 4 c -8 0 c -7 -4 c -4 -11 c
0 -15 c 4 -11 8099 7529 l 11 -8 c 19 -3 c 11 0 c 19 3 c 12 8 c 3 11 c 0 8 c -3 11 c -12 8 c -19 4 c -11 0 c -19 -4 c -11 -8 c
-4 -11 c 0 -8 c -4 0 8118 7586 l -7 4 c -4 4 c -4 7 c 0 15 c 4 8 c 4 4 c 7 3 c 8 0 c 7 -3 c 12 -8 c 37 -38 c 0 53 c
0 -249 9241 5060 l 53 -38 9198 5170 l 0 57 c 79 0 9198 5170 l 3 -12 9198 5227 l 8 -3 c 8 0 c 7 3 c 4 8 c 4 15 c 3 11 c 8 8 c 8 4 c
11 0 c 7 -4 c 4 -4 c 4 -11 c 0 -15 c -4 -12 c -4 -3 c -7 -4 c -11 0 c -8 4 c -8 7 c -3 11 c -4 16 c -4 7 c -7 4 c -8 0 c -8 -4 c
-3 -11 c 0 -15 c 53 -38 9198 5321 l 0 57 c 79 0 9198 5321 l 3 -12 9198 5382 l 12 -7 c 19 -4 c 11 0 c 19 4 c 11 7 c 4 12 c 0 7 c
-4 11 c -11 8 c -19 4 c -11 0 c -19 -4 c -12 -8 c -3 -11 c 0 -7 c 4 -4 9269 5442 l 4 4 c -4 4 c -4 -4 c 3 -11 9198 5491 l 8 -4 c
8 0 c 7 4 c 4 7 c 4 16 c 3 11 c 8 7 c 8 4 c 11 0 c 7 -4 c 4 -3 c 4 -12 c 0 -15 c -4 -11 c -4 -4 c -7 -4 c -11 0 c -8 4 c -8 8 c
-3 11 c -4 15 c -4 8 c -7 3 c -8 0 c -8 -3 c -3 -12 c 0 -15 c 53 -38 9198 5586 l 0 57 c 79 0 9198 5586 l 11 -4 9224 5673 l 8 -8 c
4 -11 c 0 -4 c -4 -11 c -8 -8 c -11 -4 c -4 0 c -11 4 c -8 8 c -3 11 c 0 4 c 3 11 c 8 8 c 15 4 c 19 0 c 19 -4 c 11 -8 c 4 -11 c
0 -8 c -4 -11 c -7 -4 c
showpage PGPLOT restore
 
%%Trailer
%%DocumentFonts: 
%%Pages: 1
%%EOF
