%!PS-Adobe-3.0 EPSF-3.0
%%For: tom
%%Title: PGPLOT PostScript plot
%%Creator: PGPLOT
%%CreationDate:  9-Nov-1994 13:34
%%BoundingBox: 25 18 587 774
%%DocumentFonts: (atend)
%%LanguageLevel: 1
%%Orientation: Landscape
%%Pages: (atend)
%%EndComments
%%BeginProlog
/l {moveto rlineto currentpoint stroke moveto} bind def
/c {rlineto currentpoint stroke moveto} bind def
/d {moveto 0 0 rlineto currentpoint stroke moveto} bind def
/SLW {5 mul setlinewidth} bind def
/SCF /pop load def
/BP {newpath moveto} bind def
/LP /rlineto load def
/EP {rlineto closepath eofill} bind def
/MB {gsave translate MFAC dup scale 1 setlinewidth 2 setlinecap 0 setlinejoin newpath} bind def
/ME /grestore load def
/C {0 360 arc stroke} bind def
/FC {0 360 arc fill} bind def
%%EndProlog
 
%%Page: 1 1
%%BeginPageSetup
/PGPLOT save def
0.072 0.072 scale
8150 250 translate 90 rotate
1 setlinejoin 1 setlinecap 1 SLW 1 SCF
%%EndPageSetup
0.00 setgray 1 SLW 8939 0 780 780 l 0 6239 c -8939 0 c 0 -6239 c 0 -45 1116 780 l 0 -45 1554 780 l 0 -45 1991 780 l 0 -45 2428 780 l
0 -90 2865 780 l 0 -45 3302 780 l 0 -45 3739 780 l 0 -45 4176 780 l 0 -45 4613 780 l 0 -90 5051 780 l 0 -45 5488 780 l
0 -45 5925 780 l 0 -45 6362 780 l 0 -45 6799 780 l 0 -90 7236 780 l 0 -45 7673 780 l 0 -45 8110 780 l 0 -45 8548 780 l
0 -45 8985 780 l 0 -90 9422 780 l 0 -45 1116 7064 l 0 -45 1554 7064 l 0 -45 1991 7064 l 0 -45 2428 7064 l 0 -90 2865 7109 l
0 -45 3302 7064 l 0 -45 3739 7064 l 0 -45 4176 7064 l 0 -45 4613 7064 l 0 -90 5051 7109 l 0 -45 5488 7064 l 0 -45 5925 7064 l
0 -45 6362 7064 l 0 -45 6799 7064 l 0 -90 7236 7109 l 0 -45 7673 7064 l 0 -45 8110 7064 l 0 -45 8548 7064 l 0 -45 8985 7064 l
0 -90 9422 7109 l -60 0 2775 672 l -6 -54 c 6 6 c 18 6 c 18 0 c 18 -6 c 12 -12 c 6 -18 c 0 -12 c -6 -18 c -12 -12 c -18 -6 c -18 0 c
-18 6 c -6 6 c -6 12 c -18 -6 2859 672 l -12 -18 c -6 -30 c 0 -18 c 6 -30 c 12 -18 c 18 -6 c 12 0 c 18 6 c 12 18 c 6 30 c 0 18 c
-6 30 c -12 18 c -18 6 c -12 0 c -18 -6 2979 672 l -12 -18 c -6 -30 c 0 -18 c 6 -30 c 12 -18 c 18 -6 c 12 0 c 18 6 c 12 18 c 6 30 c
0 18 c -6 30 c -12 18 c -18 6 c -12 0 c 12 6 4847 648 l 18 18 c 0 -126 c -18 -6 4985 672 l -12 -18 c -6 -30 c 0 -18 c 6 -30 c
12 -18 c 18 -6 c 12 0 c 18 6 c 12 18 c 6 30 c 0 18 c -6 30 c -12 18 c -18 6 c -12 0 c -18 -6 5105 672 l -12 -18 c -6 -30 c 0 -18 c
6 -30 c 12 -18 c 18 -6 c 12 0 c 18 6 c 12 18 c 6 30 c 0 18 c -6 30 c -12 18 c -18 6 c -12 0 c -18 -6 5225 672 l -12 -18 c -6 -30 c
0 -18 c 6 -30 c 12 -18 c 18 -6 c 12 0 c 18 6 c 12 18 c 6 30 c 0 18 c -6 30 c -12 18 c -18 6 c -12 0 c 12 6 7032 648 l 18 18 c
0 -126 c -60 0 7206 672 l -6 -54 c 6 6 c 18 6 c 18 0 c 18 -6 c 12 -12 c 6 -18 c 0 -12 c -6 -18 c -12 -12 c -18 -6 c -18 0 c -18 6 c
-6 6 c -6 12 c -18 -6 7290 672 l -12 -18 c -6 -30 c 0 -18 c 6 -30 c 12 -18 c 18 -6 c 12 0 c 18 6 c 12 18 c 6 30 c 0 18 c -6 30 c
-12 18 c -18 6 c -12 0 c -18 -6 7410 672 l -12 -18 c -6 -30 c 0 -18 c 6 -30 c 12 -18 c 18 -6 c 12 0 c 18 6 c 12 18 c 6 30 c 0 18 c
-6 30 c -12 18 c -18 6 c -12 0 c 0 6 9206 642 l 6 12 c 6 6 c 12 6 c 24 0 c 12 -6 c 6 -6 c 6 -12 c 0 -12 c -6 -12 c -12 -18 c
-60 -60 c 84 0 c -18 -6 9356 672 l -12 -18 c -6 -30 c 0 -18 c 6 -30 c 12 -18 c 18 -6 c 12 0 c 18 6 c 12 18 c 6 30 c 0 18 c -6 30 c
-12 18 c -18 6 c -12 0 c -18 -6 9476 672 l -12 -18 c -6 -30 c 0 -18 c 6 -30 c 12 -18 c 18 -6 c 12 0 c 18 6 c 12 18 c 6 30 c 0 18 c
-6 30 c -12 18 c -18 6 c -12 0 c -18 -6 9596 672 l -12 -18 c -6 -30 c 0 -18 c 6 -30 c 12 -18 c 18 -6 c 12 0 c 18 6 c 12 18 c 6 30 c
0 18 c -6 30 c -12 18 c -18 6 c -12 0 c -90 0 780 780 l -45 0 780 1717 l -90 0 780 2655 l -45 0 780 3593 l -90 0 780 4530 l
-45 0 780 5468 l -90 0 780 6405 l -90 0 9809 780 l -45 0 9764 1717 l -90 0 9809 2655 l -45 0 9764 3593 l -90 0 9809 4530 l
-45 0 9764 5468 l -90 0 9809 6405 l 6 -18 517 774 l 18 -12 c 30 -6 c 18 0 c 30 6 c 18 12 c 6 18 c 0 12 c -6 18 c -18 12 c -30 6 c
-18 0 c -30 -6 c -18 -12 c -6 -18 c 0 -12 c -6 0 547 2397 l -12 6 c -6 6 c -6 12 c 0 24 c 6 12 c 6 6 c 12 6 c 12 0 c 12 -6 c
18 -12 c 60 -60 c 0 84 c 84 84 547 2517 l 84 -84 547 2601 l -6 12 541 2661 l -18 18 c 126 0 c 6 -18 517 2799 l 18 -12 c 30 -6 c
18 0 c 30 6 c 18 12 c 6 18 c 0 12 c -6 18 c -18 12 c -30 6 c -18 0 c -30 -6 c -18 -12 c -6 -18 c 0 -12 c 63 -45 453 2923 l 0 68 c
94 0 453 2923 l 84 -60 517 4326 l 0 90 c 126 0 517 4326 l 84 84 547 4392 l 84 -84 547 4476 l -6 12 541 4536 l -18 18 c 126 0 c
6 -18 517 4674 l 18 -12 c 30 -6 c 18 0 c 30 6 c 18 12 c 6 18 c 0 12 c -6 18 c -18 12 c -30 6 c -18 0 c -30 -6 c -18 -12 c -6 -18 c
0 -12 c 63 -45 453 4799 l 0 67 c 94 0 453 4799 l -12 -6 535 6219 l -6 -18 c 0 -12 c 6 -18 c 18 -12 c 30 -6 c 30 0 c 24 6 c 12 12 c
6 18 c 0 6 c -6 18 c -12 12 c -18 6 c -6 0 c -18 -6 c -12 -12 c -6 -18 c 0 -6 c 6 -18 c 12 -12 c 18 -6 c 84 84 547 6267 l
84 -84 547 6351 l -6 12 541 6411 l -18 18 c 126 0 c 6 -18 517 6549 l 18 -12 c 30 -6 c 18 0 c 30 6 c 18 12 c 6 18 c 0 12 c -6 18 c
-18 12 c -30 6 c -18 0 c -30 -6 c -18 -12 c -6 -18 c 0 -12 c 63 -45 453 6674 l 0 67 c 94 0 453 6674 l
4 1 780 788 l 5 0 c 4 0 c 4 0 c 5 1 c 4 1 c 4 0 c 5 0 c 4 -1 c 5 0 c 4 -1 c 4 -1 c 5 -1 c 4 0 c 4 1 c 5 0 c 4 1 c 5 0 c 4 0 c 4 0 c
5 0 c 4 0 c 4 0 c 5 -1 c 4 0 c 5 -1 c 4 1 c 4 -1 c 5 0 c 4 1 c 4 0 c 5 0 c 4 0 c 5 0 c 4 0 c 4 0 c 5 0 c 4 0 c 4 0 c 5 0 c 4 0 c
4 0 c 5 0 c 4 0 c 5 1 c 4 1 c 4 1 c 5 1 c 4 -1 c 4 1 c 5 5 c 4 15 c 5 28 c 4 86 c 4 52 c 5 -4 c 4 -39 c 4 -106 c 5 -36 c 4 -3 c
5 -1 c 4 0 c 4 -1 c 5 0 c 4 0 c 4 0 c 5 1 c 4 3 c 5 5 c 4 15 c 4 22 c 5 -1 c 4 -7 c 4 -20 c 5 -16 c 4 -1 c 4 0 c 5 0 c 4 0 c 5 0 c
4 0 c 4 0 c 5 0 c 4 -9 c 5 13 1151 780 l 4 8 c 5 16 c 4 52 c 4 34 c 5 -4 c 4 -23 c 4 -55 c 5 -9 c 4 1 c 5 -3 c 4 -9 c 4 -11 c 5 -1 c
4 1 c 4 0 c 5 0 c 4 1 c 5 0 c 4 1 c 4 2 c 5 0 c 4 -1 c 4 -1 c 5 -1 c 4 -1 c 4 0 c 5 1 c 4 0 c 5 0 c 4 3 c 4 1 c 5 -1 c 4 -1 c 4 -3 c
5 0 c 4 1 c 5 3 c 4 8 c 4 1 c 5 -1 c 4 -5 c 4 -5 c 5 4 c 4 13 c 5 26 c 4 70 c 4 59 c 5 0 c 4 -38 c 4 -87 c 5 -42 c 4 -6 c 5 1 c
4 3 c 4 8 c 5 18 c 4 3 c 4 -3 c 5 -11 c 4 -16 c 4 -3 c 5 -2 c 4 -1 c 5 0 c 4 0 c 4 0 c 5 0 c 4 0 c 4 2 c 5 1 c 4 8 c 5 7 c 4 1 c
4 -4 c 5 -10 c 4 -5 c 4 0 c 5 2 c 4 2 c 5 3 c 4 0 c 4 -1 c 5 -3 c 4 -2 c 4 -1 c 5 1 c 4 1 c 4 0 c 5 0 c 4 0 c 5 0 c 4 1 c 4 1 c
5 0 c 4 0 c 4 -2 c 5 0 c 4 -1 c 5 0 c 4 0 c 4 0 c 5 0 c 4 0 c 4 0 c 5 0 c 4 1 c 5 -1 c 4 1 c 4 5 c 5 13 c 4 45 c 4 83 c 5 17 c
4 -15 c 5 -68 c 4 -70 c 4 -8 c 5 -2 c 4 0 c 4 -1 c 5 0 c 4 0 c 4 0 c 5 0 c 4 0 c 5 -1 c 4 1 c 4 -1 c 5 0 c 4 0 c 4 0 c 5 0 c 4 0 c
5 1 c 4 -1 c 4 0 c 5 0 c 4 0 c 4 0 c 5 0 c 4 1 c 5 1 c 4 1 c 4 0 c 5 0 c 4 -2 c 4 0 c 5 0 c 4 0 c 5 -1 c 4 0 c 4 0 c 5 0 c 4 0 c
4 1 c 5 1 c 4 1 c 4 1 c 5 0 c 4 -1 c 5 -1 c 4 -1 c 4 0 c 5 0 c 4 0 c 4 0 c 5 0 c 4 0 c 5 0 c 4 0 c 4 0 c 5 0 c 4 0 c 4 0 c 5 0 c
4 0 c 5 0 c 4 0 c 4 0 c 5 0 c 4 0 c 4 0 c 5 1 c 4 -1 c 5 0 c 4 -1 c 4 0 c 5 0 c 4 0 c 4 0 c 5 0 c 4 0 c 4 1 c 5 -1 c 4 1 c 5 0 c
4 0 c 4 0 c 5 1 c 4 4 c 4 11 c 5 2 c 4 0 c 5 -7 c 4 -8 c 4 1 c 5 2 c 4 1 c 4 10 c 5 36 c 4 123 c 5 124 c 4 19 c 4 -54 c 5 -152 c
4 -99 c 4 -10 c 5 -2 c 4 0 c 5 1 c 4 0 c 4 1 c 5 3 c 4 5 c 4 0 c 5 -1 c 4 -4 c 4 -6 c 5 0 c 4 1 c 5 2 c 4 4 c 4 1 c 5 1 c 4 3 c
4 22 c 5 23 c 4 3 c 5 -4 c 4 -33 c 4 -16 c 5 -5 c 4 -3 c 4 -1 c 5 1 c 4 0 c 5 0 c 4 0 c 4 1 c 5 0 c 4 0 c 4 -1 c 5 0 c 4 0 c 4 0 c
5 1 c 4 4 c 5 9 c 4 24 c 4 8 c 5 -2 c 4 -13 c 4 -24 c 5 -6 c 4 -1 c 5 0 c 4 0 c 4 0 c 5 7 c 4 29 c 4 90 c 5 36 c 4 -9 c 5 -40 c
4 -91 c 4 -20 c 5 -1 c 4 0 c 4 0 c 5 1 c 4 -1 c 5 1 c 4 -1 c 4 0 c 5 4 c 4 9 c 4 0 c 5 0 c 4 -7 c 4 -6 c 5 -1 c 4 0 c 5 0 c 4 2 c
4 4 c 5 8 c 4 1 c 4 -1 c 5 -7 c 4 -6 c 5 0 c 4 1 c 4 9 c 5 46 c 4 145 c 4 69 c 5 -10 c 4 -71 c 5 -150 c 4 -32 c 4 -1 c 5 -1 c 4 -2 c
4 0 c 5 1 c 4 1 c 5 -1 c 4 -2 c 4 0 c 5 -1 c 4 0 c 4 1 c 5 0 c 4 0 c 4 -1 c 5 -2 c 4 0 c 5 0 c 4 0 c 4 0 c 5 1 c 4 5 c 4 2 c 5 1 c
4 -2 c 5 -4 c 4 -1 c 4 0 c 5 0 c 4 -1 c 4 0 c 5 0 c 4 0 c 5 0 c 4 0 c 4 -1 c 5 0 c 4 -1 c 4 0 c 5 0 c 4 1 c 5 0 c 4 1 c 4 1 c 5 0 c
4 0 c 4 -1 c 5 -1 c 4 0 c 4 0 c 5 0 c 4 0 c 5 0 c 4 0 c 4 1 c 5 0 c 4 1 c 4 1 c 5 -1 c 4 0 c 5 -2 c 4 0 c 4 3 c 5 3 c 4 0 c 4 -1 c
5 -4 c 4 -1 c 5 0 c 4 1 c 4 1 c 5 6 c 4 20 c 4 5 c 5 -1 c 4 -11 c 4 -18 c 5 -3 c 4 1 c 5 1 c 4 2 c 4 1 c 5 0 c 4 -1 c 4 -3 c 5 -1 c
4 0 c 5 0 c 4 3 c 4 13 c 5 6 c 4 0 c 4 -5 c 5 -13 c 4 -3 c 5 0 c 4 1 c 4 -1 c 5 -1 c 4 0 c 4 1 c 5 1 c 4 1 c 5 1 c 4 -1 c 4 0 c
5 0 c 4 5 c 4 6 c 5 1 c 4 -1 c 4 -7 c 5 -4 c 4 -2 c 5 -1 c 4 0 c 4 -1 c 5 0 c 4 0 c 4 1 c 5 0 c 4 0 c 5 0 c 4 -1 c 4 0 c 5 0 c 4 0 c
4 0 c 5 1 c 4 1 c 5 3 c 4 4 c 4 0 c 5 0 c 4 -4 c 4 -2 c 5 1 c 4 -1 c 5 0 c 4 -2 c 4 0 c 5 0 c 4 1 c 4 1 c 5 0 c 4 -1 c 4 -1 c 5 0 c
4 1 c 5 4 c 4 6 c 4 2 c 5 -1 c 4 -5 c 4 -5 c 5 -2 c 4 -1 c 5 0 c 4 0 c 4 1 c 5 0 c 4 0 c 4 0 c 5 0 c 4 3 c 5 4 c 4 0 c 4 0 c 5 1 c
4 21 c 4 37 c 5 14 c 4 -1 c 5 -35 c 4 -31 c 4 -12 c 5 -1 c 4 0 c 4 1 c 5 4 c 4 2 c 4 1 c 5 1 c 4 -5 c 5 0 c 4 -1 c 4 11 c 5 18 c
4 4 c 4 3 c 5 -16 c 4 -15 c 5 0 c 4 0 c 4 0 c 5 2 c 4 35 c 4 117 c 5 120 c 4 31 c 5 -44 c 4 -129 c 4 -99 c 5 -4 c 4 0 c 4 -6 c
5 -17 c 4 -10 c 5 -1 c 4 0 c 4 1 c 5 1 c 4 1 c 4 1 c 5 0 c 4 1 c 4 12 c 5 140 c 4 209 c 5 33 c 4 -23 c 4 -189 c 5 -167 c 4 -17 c
4 0 c 5 23 c 4 117 c 5 57 c 4 1 c 4 -35 c 5 -126 c 4 -38 c 4 -1 c 5 -1 c 4 -1 c 5 0 c 4 -1 c 4 0 c 5 0 c 4 0 c 4 0 c 5 0 c 4 0 c
4 1 c 5 0 c 4 1 c 5 1 c 4 0 c 4 0 c 5 -1 c 4 -1 c 4 1 c 5 0 c 4 1 c 5 -1 c 4 -1 c 4 0 c 5 0 c 4 0 c 4 2 c 5 1 c 4 -1 c 5 0 c 4 -2 c
4 0 c 5 3 c 4 10 c 4 14 c 5 5 c 4 2 c 5 -11 c 4 -10 c 4 -5 c 5 -4 c 4 -2 c 4 0 c 5 0 c 4 3 c 4 1 c 5 1 c 4 -1 c 5 -1 c 4 15 c
4 126 c 5 92 c 4 16 c 4 -34 c 5 -148 c 4 -68 c 5 -2 c 4 2 c 4 8 c 5 12 c 4 2 c 4 8 c 5 -3 c 4 -6 c 5 12 c 4 -3 c 4 -6 c 5 -3 c
4 -17 c 4 -6 c 5 2 c 4 2 c 5 0 c 4 -1 c 4 -2 c 5 2 c 4 3 c 4 -1 c 5 0 c 4 -4 c 4 3 c 5 0 c 4 1 c 5 -1 c 4 -4 c 4 0 c 5 0 c 4 -1 c
4 4 c 5 8 c 4 5 c 5 1 c 4 1 c 4 30 c 5 36 c 4 6 c 4 -5 c 5 -42 c 4 -28 c 5 -2 c 4 -4 c 4 -8 c 5 1 c 4 3 c 4 30 c 5 51 c 4 14 c
5 -6 c 4 -39 c 4 -45 c 5 -7 c 4 6 c 4 62 c 5 52 c 4 4 c 4 -11 c 5 -76 c 4 -38 c 5 -2 c 4 2 c 4 1 c 5 0 c 4 -1 c 4 -2 c 5 -2 c 4 0 c
5 0 c 4 0 c 4 0 c 5 0 c 4 1 c 4 1 c 5 0 c 4 0 c 5 -1 c 4 0 c 4 0 c 5 1 c 4 0 c 4 -1 c 5 0 c 4 -1 c 5 1 c 4 0 c 4 0 c 5 0 c 4 1 c
4 10 c 5 58 c 4 35 c 4 3 c 5 -15 c 4 -62 c 5 -25 c 4 0 c 4 1 c 5 3 c 4 -1 c 4 -3 c 5 -1 c 4 -3 c 5 1 c 4 7 c 4 30 c 5 15 c 4 1 c
4 -11 c 5 -30 c 4 -8 c 5 0 c 4 0 c 4 -3 c 5 0 c 4 1 c 4 0 c 5 1 c 4 1 c 4 0 c 5 -1 c 4 2 c 5 1 c 4 4 c 4 8 c 5 11 c 4 8 c 4 14 c
5 2 c 4 -2 c 5 4 c 4 9 c 4 97 c 5 1212 c 4 4530 c 4 138 c 5 2 c 4 -43 c 5 -4484 c 4 -1392 c 4 -50 c 5 46 c 4 280 c 4 399 c 5 76 c
4 -74 c 5 -358 c 4 -323 c 4 -80 c 5 -18 c 4 -7 c 4 2 c 5 0 c 4 -2 c 4 -3 c 5 -3 c 4 -4 c 5 0 c 4 -1 c 4 0 c 5 0 c 4 -1 c 4 1 c 5 0 c
4 0 c 5 -2 c 4 -2 c 4 1 c 5 0 c 4 -1 c 4 0 c 5 1 c 4 1 c 5 0 c 4 -1 c 4 -1 c 5 0 c 4 -1 c 4 0 c 5 0 c 4 0 c 5 0 c 4 1 c 4 0 c 5 2 c
4 1 c 4 27 c 5 125 c 4 67 c 4 9 c 5 -41 c 4 -126 c 5 -49 c 4 0 c 4 0 c 5 -4 c 4 -6 c 4 -1 c 5 -1 c 4 -1 c 5 -1 c 4 -1 c 4 0 c 5 1 c
4 -1 c 4 0 c 5 -1 c 4 0 c 5 8 c 4 9 c 4 2 c 5 -2 c 4 -9 c 4 -9 c 5 0 c 4 1 c 5 1 c 4 3 c 4 4 c 5 0 c 4 3 c 4 5 c 5 -3 c 4 -2 c 4 0 c
5 -5 c 4 0 c 5 0 c 4 -4 c 4 -1 c 5 -1 c 4 -1 c 4 3 c 5 1 c 4 1 c 5 2 c 4 19 c 4 44 c 5 8 c 4 -3 c 4 -25 c 5 -42 c 4 -7 c 5 0 c 4 1 c
4 1 c 5 1 c 4 0 c 4 1 c 5 7 c 4 91 c 5 201 c 4 54 c 4 3 c 5 -106 c 4 -165 c 4 -36 c 5 4 c 4 -7 c 4 -23 c 5 -6 c 4 -9 c 5 -11 c
4 -2 c 4 -1 c 5 1 c 4 0 c 4 0 c 5 1 c 4 3 c 5 6 c 4 2 c 4 -24 c 5 22 c 4 -5 c 4 -2 c 5 -1 c 4 -1 c 5 1 c 4 6 c 4 4 c 5 16 c 4 18 c
4 -3 c 5 2 c 4 -19 c 4 -17 c 5 -3 c 4 2 c 5 23 c 4 18 c 4 3 c 5 -4 c 4 -27 c 4 -13 c 5 -4 c 4 -2 c 5 -1 c 4 1 c 4 4 c 5 7 c 4 3 c
4 1 c 5 -5 c 4 -8 c 5 -4 c 4 -1 c 4 0 c 5 -1 c 4 1 c 4 0 c 5 0 c 4 0 c 5 0 c 4 0 c 4 0 c 5 0 c 4 0 c 4 1 c 5 0 c 4 0 c 4 2 c 5 4 c
4 3 c 5 4 c 4 3 c 4 -3 c 5 -1 c 4 -4 c 4 -5 c 5 0 c 4 -2 c 5 -2 c 4 1 c 4 0 c 5 6 c 4 28 c 4 30 c 5 4 c 4 -7 c 5 -34 c 4 -22 c 4 5 c
5 6 c 4 0 c 4 -3 c 5 -9 c 4 -4 c 5 0 c 4 -1 c 4 0 c 5 1 c 4 1 c 4 4 c 5 2 c 4 -1 c 4 -2 c 5 -3 c 4 -1 c 5 0 c 4 0 c 4 1 c 5 4 c
4 36 c 4 134 c 5 73 c 4 6 c 5 -39 c 4 -140 c 4 -58 c 5 -3 c 4 -5 c 4 -3 c 5 -4 c 4 -1 c 5 0 c 4 0 c 4 1 c 5 1 c 4 2 c 4 1 c 5 0 c
4 -2 c 5 -2 c 4 0 c 4 0 c 5 3 c 4 25 c 4 106 c 5 65 c 4 8 c 4 -32 c 5 -101 c 4 5 c 5 146 c 4 60 c 4 -3 c 5 -75 c 4 -162 c 4 -43 c
5 -2 c 4 1 c 5 1 c 4 0 c 4 -1 c 5 -1 c 4 -2 c 4 0 c 5 -1 c 4 1 c 5 3 c 4 2 c 4 1 c 5 0 c 4 -2 c 4 -4 c 5 0 c 4 1 c 4 1 c 5 0 c 4 0 c
5 -1 c 4 -1 c 4 0 c 5 -12 c 4 13 c 4 -1 c 5 0 c 4 1 c 5 -1 c 4 1 c 4 1 c 5 0 c 4 1 c 4 1 c 5 2 c 4 26 c 5 118 c 4 -162 c
5 209 5706 780 l 4 -119 c 4 -62 c 5 45 c 4 310 c 5 349 c 4 65 c 4 -59 c 5 -349 c 4 -307 c 4 -51 c 5 -8 c 4 -5 c 4 8 c 5 18 c 4 9 c
5 -2 c 4 -7 c 4 -20 c 5 -7 c 4 -2 c 4 -1 c 5 -1 c 4 -1 c 5 1 c 4 0 c 4 -1 c 5 1 c 4 0 c 4 -1 c 5 0 c 4 -1 c 5 1 c 4 -1 c 4 0 c 5 1 c
4 0 c 4 0 c 5 1 c 4 0 c 5 -1 c 4 0 c 4 0 c 5 0 c 4 0 c 4 0 c 5 0 c 4 0 c 4 0 c 5 0 c 4 1 c 5 0 c 4 -1 c 4 0 c 5 0 c 4 0 c 4 0 c
5 0 c 4 0 c 5 0 c 4 0 c 4 0 c 5 0 c 4 0 c 4 2 c 5 0 c 4 2 c 5 16 c 4 120 c 4 135 c 5 26 c 4 -13 c 4 -133 c 5 -131 c 4 -17 c 5 -1 c
4 2 c 4 10 c 5 40 c 4 21 c 4 -1 c 5 -10 c 4 -39 c 4 -9 c 5 57 c 4 71 c 5 93 c 4 18 c 4 -56 c 5 -77 c 4 -96 c 4 -27 c 5 -1 c 4 -1 c
5 0 c 4 0 c 4 1 c 5 -1 c 4 0 c 4 6 c 5 11 c 4 6 c 5 0 c 4 -7 c 4 -11 c 5 -4 c 4 -1 c 4 1 c 5 1 c 4 0 c 5 1 c 4 0 c 4 2 c 5 6 c
4 51 c 4 129 c 5 47 c 4 -5 c 4 -58 c 5 -129 c 4 -43 c 5 -1 c 4 1 c 4 0 c 5 1 c 4 -2 c 4 0 c 5 2 c 4 2 c 5 1 c 4 0 c 4 -2 c 5 -2 c
4 0 c 4 3 c 5 6 c 4 11 c 5 107 c 4 298 c 4 155 c 5 43 c 4 -107 c 4 -306 c 5 -142 c 4 -61 c 4 -8 c 5 0 c 4 -1 c 5 -1 c 4 0 c 4 1 c
5 0 c 4 1 c 4 -2 c 5 0 c 4 2 c 5 1 c 4 0 c 4 1 c 5 -1 c 4 -1 c 4 -1 c 5 0 c 4 0 c 5 -1 c 4 0 c 4 2 c 5 2 c 4 3 c 4 1 c 5 -2 c 4 2 c
5 -1 c 4 -1 c 4 0 c 5 -2 c 4 -1 c 4 0 c 5 1 c 4 7 c 4 91 c 5 318 c 4 184 c 5 15 c 4 -102 c 4 -339 c 5 -153 c 4 -17 c 4 -2 c 5 -2 c
4 -1 c 5 -1 c 4 -1 c 4 0 c 5 0 c 4 -1 c 4 -1 c 5 0 c 4 1 c 5 0 c 4 1 c 4 3 c 5 1 c 4 0 c 4 -18 c 5 15 c 4 -2 c 5 1 c 4 2 c 4 14 c
5 57 c 4 86 c 4 122 c 5 26 c 4 -55 c 4 -82 c 5 -133 c 4 -34 c 5 -2 c 4 0 c 4 -1 c 5 0 c 4 -2 c 4 1 c 5 0 c 4 2 c 5 6 c 4 5 c 4 2 c
5 2 c 4 -1 c 4 -1 c 5 -2 c 4 -5 c 5 -5 c 4 3 c 4 22 c 5 11 c 4 6 c 4 10 c 5 -6 c 4 -8 c 5 -8 c 4 -14 c 4 -16 c 5 -3 c 4 0 c 4 -1 c
5 1 c 4 0 c 4 0 c 5 0 c 4 0 c 5 0 c 4 -1 c 4 0 c 5 1 c 4 1 c 4 0 c 5 0 c 4 -1 c 5 1 c 4 3 c 4 1 c 5 0 c 4 10 c 4 13 c 5 1 c 4 -1 c
5 -8 c 4 -15 c 4 -2 c 5 -1 c 4 0 c 4 -2 c 5 -1 c 4 0 c 5 -1 c 4 3 c 4 5 c 5 1 c 4 0 c 4 0 c 5 -5 c 4 -1 c 4 0 c 5 0 c 4 2 c 5 0 c
4 5 c 4 20 c 5 17 c 4 0 c 4 -3 c 5 -22 c 4 -14 c 5 2 c 4 1 c 4 -1 c 5 -2 c 4 -2 c 4 0 c 5 2 c 4 14 c 5 70 c 4 48 c 4 0 c 5 -3 c
4 -68 c 4 37 c 5 139 c 4 85 c 4 4 c 5 -81 c 4 -146 c 5 -82 c 4 -20 c 4 -2 c 5 1 c 4 0 c 4 0 c 5 2 c 4 3 c 5 1 c 4 -1 c 4 -1 c 5 2 c
4 2 c 4 2 c 5 -1 c 4 -5 c 5 -2 c 4 1 c 4 1 c 5 2 c 4 8 c 4 87 c 5 579 c 4 516 c 5 40 c 4 -84 c 4 -590 c 5 -487 c 4 -63 c 4 -4 c
5 -2 c 4 -1 c 4 -1 c 5 -2 c 4 -2 c 5 0 c 4 0 c 4 0 c 5 0 c 4 0 c 4 -1 c 5 1 c 4 1 c 5 1 c 4 0 c 4 -1 c 5 -1 c 4 -1 c 4 -1 c 5 2 c
4 7 c 5 7 c 4 4 c 4 4 c 5 -7 c 4 -7 c 4 -4 c 5 -4 c 4 -2 c 5 0 c 4 0 c 4 0 c 5 1 c 4 0 c 4 1 c 5 1 c 4 3 c 4 5 c 5 4 c 4 4 c 5 10 c
4 62 c 4 288 c 5 299 c 4 39 c 4 -39 c 5 -294 c 4 -270 c 5 -75 c 4 -20 c 4 -6 c 5 -4 c 4 4 c 4 0 c 5 -1 c 4 -4 c 5 -5 c 4 -2 c 4 -1 c
5 0 c 4 1 c 4 0 c 5 1 c 4 1 c 5 2 c 4 13 c 4 123 c 5 177 c 4 29 c 4 1 c 5 -120 c 4 -186 c 4 -34 c 5 23 c 4 90 c 5 42 c 4 -2 c
4 -14 c 5 -97 c 4 -46 c 4 -4 c 5 1 c 4 0 c 5 0 c 4 1 c 4 1 c 5 -1 c 4 -1 c 4 0 c 5 -1 c 4 1 c 5 1 c 4 1 c 4 -1 c 5 -2 c 4 -1 c 4 0 c
5 0 c 4 -1 c 5 0 c 4 0 c 4 0 c 5 0 c 4 0 c 4 0 c 5 1 c 4 1 c 4 1 c 5 0 c 4 -1 c 5 -1 c 4 0 c 4 0 c 5 0 c 4 3 c 4 17 c 5 9 c 4 1 c
5 3 c 4 -15 c 4 -9 c 5 -1 c 4 -4 c 4 -1 c 5 -2 c 4 1 c 5 3 c 4 0 c 4 0 c 5 0 c 4 -3 c 4 0 c 5 3 c 4 6 c 4 1 c 5 -1 c 4 -3 c 5 -7 c
4 0 c 4 2 c 5 1 c 4 0 c 4 -1 c 5 -2 c 4 0 c 5 4 c 4 5 c 4 5 c 5 2 c 4 -4 c 4 -4 c 5 -4 c 4 -3 c 5 3 c 4 2 c 4 0 c 5 -1 c 4 0 c 4 0 c
5 1 c 4 4 c 5 11 c 4 0 c 4 2 c 5 2 c 4 -13 c 4 -4 c 5 -3 c 4 -2 c 4 0 c 5 0 c 4 1 c 5 -2 c 4 -1 c 4 0 c 5 0 c 4 14 c 4 32 c 5 6 c
4 0 c 5 -11 c 4 -32 c 4 -9 c 5 0 c 4 1 c 4 3 c 5 1 c 4 0 c 5 -1 c 4 -2 c 4 1 c 5 0 c 4 0 c 4 0 c 5 0 c 4 1 c 5 -1 c 4 2 c 4 3 c
5 34 c 4 77 c 4 36 c 5 2 c 4 -26 c 4 -77 c 5 -44 c 4 -3 c 5 1 c 4 1 c 4 5 c 5 4 c 4 1 c 4 0 c 5 -3 c 4 0 c 5 1 c 4 2 c 4 2 c 5 3 c
4 1 c 4 3 c 5 3 c 4 5 c 5 4 c 4 10 c 4 6 c 5 10 c 4 8 c 4 2 c 5 9 c 4 23 c 5 14 c 4 26 c 4 43 c 5 27 c 4 93 c 4 2847 c 5 2880 c
4 -12 c 4 9 c 5 -8 c 4 2 c 5 14 c 4 -10 c 4 -5625 c 5 -186 c 4 -42 c 4 -20 c 5 -23 c 4 -17 c 5 -25 c 4 -18 c 4 -12 c 5 -10 c 4 -7 c
4 -6 c 5 0 c 4 -3 c 5 -6 c 4 2 c 4 -2 c 5 -4 c 4 2 c 4 7 c 5 20 c 4 47 c 4 20 c 5 -8 c 4 -25 c 5 -49 c 4 -27 c 4 -3 c 5 -1 c 4 1 c
4 6 c 5 6 c 4 0 c 5 -2 c 4 -6 c 4 -7 c 5 -2 c 4 -1 c 4 0 c 5 8 c 4 22 c 5 4 c 4 1 c 4 -5 c 5 -23 c 4 -2 c 4 1 c 5 0 c 4 -1 c 5 -4 c
4 -1 c 4 0 c 5 -1 c 4 -1 c 4 -2 c 5 0 c 4 -1 c 4 0 c 5 -1 c 4 0 c 5 0 c 4 0 c 4 0 c 5 0 c 4 0 c 4 2 c 5 1 c 4 0 c 5 0 c 4 2 c 4 5 c
5 1 c 4 0 c 4 -2 c 5 -6 c 4 -2 c 5 -1 c 4 1 c 4 -1 c 5 -1 c 4 1 c 4 0 c 5 2 c 4 5 c 5 2 c 4 0 c 4 -1 c 5 -6 c 4 -3 c 4 -1 c 5 0 c
4 2 c 4 5 c 5 4 c 4 1 c 5 -1 c 4 -4 c 4 -4 c 5 0 c 4 3 c 4 2 c 5 2 c 4 1 c 5 13 c 4 110 c 4 401 c 5 361 c 4 35 c 4 -91 c 5 -387 c
4 -385 c 5 -57 c 4 -4 c 4 -3 c 5 -1 c 4 0 c 4 0 c 5 -1 c 4 -1 c 5 0 c 4 -1 c 4 1 c 5 -1 c 4 1 c 4 0 c 5 0 c 4 -1 c 4 0 c 5 -1 c
4 1 c 5 0 c 4 0 c 4 0 c 5 0 c 4 -1 c 4 2 c 5 0 c 4 0 c 5 0 c 4 -1 c 4 5 c 5 12 c 4 16 c 4 2 c 5 -4 c 4 -11 c 5 -17 c 4 -4 c 4 0 c
5 0 c 4 0 c 4 2 c 5 14 c 4 11 c 5 0 c 4 -1 c 4 -11 c 5 -12 c 4 -2 c 4 1 c 5 2 c 4 2 c 4 2 c 5 -1 c 4 -2 c 5 -2 c 4 -2 c 4 0 c 5 0 c
4 0 c 4 -1 c 5 -1 c 4 0 c 5 -1 c 4 0 c 4 1 c 5 0 c 4 0 c 4 0 c 5 0 c 4 1 c 5 1 c 4 0 c 4 0 c 5 0 c 4 -1 c 4 0 c 5 -1 c 4 0 c 4 0 c
5 0 c 4 0 c 5 0 c 4 0 c 4 4 c 5 22 c 4 14 c 4 0 c 5 -1 c 4 -20 c 5 -16 c 4 -1 c 4 0 c 5 1 c 4 0 c 4 0 c 5 5 c 4 49 c 5 143 c 4 40 c
4 1 c 5 -31 c 4 -143 c 4 -63 c 5 -2 c 4 1 c 5 2 c 4 -1 c 4 0 c 5 -2 c 4 -2 c 4 -1 c 5 1 c 4 0 c 4 0 c 5 0 c 4 0 c 5 0 c 4 0 c 4 -1 c
5 0 c 4 0 c 4 1 c 5 0 c 4 0 c 5 0 c 4 0 c 4 1 c 5 7 c 4 30 c 4 138 c 5 125 c 4 13 c 5 -30 c 4 -106 c 4 -154 c 5 -20 c 4 -2 c 4 -1 c
5 1 c 4 1 c 5 7 c 4 8 c 4 1 c 5 -1 c 4 -6 c 4 -8 c 5 1 c 4 11 c 4 77 c 5 130 c 4 15 c 5 0 c 4 -60 c 4 -135 c 5 -39 c 4 -3 c 4 0 c
5 -1 c 4 1 c 5 0 c 4 1 c 4 0 c 5 -2 c 4 -1 c 4 1 c 5 -1 c 4 0 c 5 1 c 4 -1 c 4 1 c 5 1 c 4 3 c 4 3 c
5 1 c 4 0 c 5 -2 c 4 -3 c 4 -14 c 4 23 9549 780 l 4 43 c 5 193 c 4 92 c 4 2 c 5 -29 c 4 -165 c 5 -136 c 4 -10 c 4 -1 c 5 -1 c 4 1 c
4 0 c 5 4 c 4 15 c 5 42 c 4 11 c 4 0 c 5 -6 c 4 -41 c 4 -13 c 5 -1 c 4 -4 c 5 1 c 4 -1 c 4 -1 c 5 7 c 4 17 c 4 2 c 5 0 c 4 -8 c
5 -20 c 4 -7 c 4 0 c 5 0 c 4 0 c 4 0 c 5 0 c 4 0 c
0 -126 3042 418 l 54 0 3042 418 l 18 -6 c 6 -6 c 6 -12 c 0 -12 c -6 -12 c -6 -6 c -18 -6 c -54 0 c 42 -66 3084 358 l
-12 -6 3192 376 l -12 -12 c -6 -18 c 0 -12 c 6 -18 c 12 -12 c 12 -6 c 18 0 c 12 6 c 12 12 c 6 18 c 0 12 c -6 18 c -12 12 c -12 6 c
-18 0 c 24 -84 3276 376 l -24 -84 3324 376 l 24 -84 3324 376 l -24 -84 3372 376 l 108 0 3414 364 l 108 0 3414 328 l -6 12 3834 400 l
-18 6 c -12 0 c -18 -6 c -12 -18 c -6 -30 c 0 -30 c 6 -24 c 12 -12 c 18 -6 c 6 0 c 18 6 c 12 12 c 6 18 c 0 6 c -6 18 c -12 12 c
-18 6 c -6 0 c -18 -6 c -12 -12 c -6 -18 c 12 6 4278 394 l 18 18 c 0 -126 c -6 -6 4392 376 l 6 -6 c 6 6 c -6 6 c -6 -6 4392 304 l
6 -6 c 6 6 c -6 6 c -48 -126 4572 418 l 48 -126 4572 418 l 60 0 4542 334 l 0 -84 4650 376 l 6 18 4650 340 l 12 12 c 12 6 c 18 0 c
-12 12 4794 358 l -12 6 c -18 0 c -12 -6 c -12 -12 c -6 -18 c 0 -12 c 6 -18 c 12 -12 c 12 -6 c 18 0 c 12 6 c 12 12 c
108 0 4836 346 l -18 -6 5022 418 l -12 -18 c -6 -30 c 0 -18 c 6 -30 c 12 -18 c 18 -6 c 12 0 c 18 6 c 12 18 c 6 30 c 0 18 c -6 30 c
-12 18 c -18 6 c -12 0 c 66 0 5118 418 l -36 -48 c 18 0 c 12 -6 c 6 -6 c 6 -18 c 0 -12 c -6 -18 c -12 -12 c -18 -6 c -18 0 c -18 6 c
-6 6 c -6 12 c -59 0 5297 418 l -6 -54 c 6 6 c 18 6 c 17 0 c 18 -6 c 12 -12 c 6 -18 c 0 -12 c -6 -18 c -12 -12 c -18 -6 c -17 0 c
-18 6 c -6 6 c -6 12 c -6 -6 5357 304 l 6 -6 c 6 6 c -6 6 c -12 0 5447 418 l -12 -6 c -6 -18 c 0 -102 c 42 0 5399 376 l
6 -6 5477 418 l 6 6 c -6 6 c -6 -6 c 0 -84 5483 376 l 0 -102 5537 418 l 6 -18 c 12 -6 c 12 0 c 42 0 5519 376 l -6 12 5663 358 l
-18 6 c -18 0 c -18 -6 c -6 -12 c 6 -12 c 12 -6 c 30 -6 c 12 -6 c 6 -12 c 0 -6 c -6 -12 c -18 -6 c -18 0 c -18 6 c -6 12 c
0 -192 5993 442 l 0 -192 5999 442 l 42 0 5993 442 l 42 0 5993 250 l 0 6 6077 388 l 6 12 c 6 6 c 12 6 c 24 0 c 12 -6 c 6 -6 c 6 -12 c
0 -12 c -6 -12 c -12 -18 c -60 -60 c 84 0 c -6 -6 6203 376 l 6 -6 c 6 6 c -6 6 c -6 -6 6203 304 l 6 -6 c 6 6 c -6 6 c
-48 -126 6383 418 l 48 -126 6383 418 l 60 0 6353 334 l 0 -84 6461 376 l 6 18 6461 340 l 12 12 c 12 6 c 18 0 c -12 12 6605 358 l
-12 6 c -18 0 c -12 -6 c -12 -12 c -6 -18 c 0 -12 c 6 -18 c 12 -12 c 12 -6 c 18 0 c 12 6 c 12 12 c 108 0 6647 346 l
-18 -6 6833 418 l -12 -18 c -6 -30 c 0 -18 c 6 -30 c 12 -18 c 18 -6 c 12 0 c 18 6 c 12 18 c 6 30 c 0 18 c -6 30 c -12 18 c -18 6 c
-12 0 c 66 0 6929 418 l -36 -48 c 18 0 c 12 -6 c 6 -6 c 6 -18 c 0 -12 c -6 -18 c -12 -12 c -18 -6 c -18 0 c -18 6 c -6 6 c -6 12 c
-6 12 7115 400 l -18 6 c -12 0 c -18 -6 c -12 -18 c -6 -30 c 0 -30 c 6 -24 c 12 -12 c 18 -6 c 6 0 c 18 6 c 12 12 c 6 18 c 0 6 c
-6 18 c -12 12 c -18 6 c -6 0 c -18 -6 c -12 -12 c -6 -18 c -6 -6 7169 304 l 6 -6 c 6 6 c -6 6 c -12 0 7259 418 l -12 -6 c -6 -18 c
0 -102 c 42 0 7211 376 l 6 -6 7289 418 l 6 6 c -6 6 c -6 -6 c 0 -84 7295 376 l 0 -102 7349 418 l 6 -18 c 12 -6 c 12 0 c
42 0 7331 376 l -6 12 7475 358 l -18 6 c -18 0 c -18 -6 c -6 -12 c 6 -12 c 12 -6 c 30 -6 c 12 -6 c 6 -12 c 0 -6 c -6 -12 c -18 -6 c
-18 0 c -18 6 c -6 12 c 0 -192 7547 442 l 0 -192 7553 442 l 42 0 7511 442 l 42 0 7511 250 l
0 -249 1022 1414 l 0 41 979 1494 l 30 -22 c 0 11 c 4 8 c 4 3 c 11 4 c 8 0 c 11 -4 c 7 -7 c 4 -12 c 0 -11 c -4 -11 c -3 -4 c -8 -4 c
12 -4 1005 1611 l 7 -7 c 4 -12 c 0 -4 c -4 -11 c -7 -7 c -12 -4 c -3 0 c -12 4 c -7 7 c -4 11 c 0 4 c 4 12 c 7 7 c 15 4 c 19 0 c
19 -4 c 11 -7 c 4 -12 c 0 -7 c -4 -12 c -7 -3 c 79 -37 979 1690 l 0 53 979 1637 l -4 0 998 1717 l -8 4 c -3 3 c -4 8 c 0 15 c 4 8 c
3 3 c 8 4 c 8 0 c 7 -4 c 11 -7 c 38 -38 c 0 53 c 3 -4 1051 1796 l 4 4 c -4 4 c -3 -4 c -4 7 994 1838 l -11 12 c 79 0 c
0 -37 979 1947 l 34 -4 c -4 4 c -4 11 c 0 11 c 4 12 c 8 7 c 11 4 c 8 0 c 11 -4 c 7 -7 c 4 -12 c 0 -11 c -4 -11 c -3 -4 c -8 -4 c
0 -38 979 2023 l 34 -4 c -4 4 c -4 11 c 0 12 c 4 11 c 8 8 c 11 3 c 8 0 c 11 -3 c 7 -8 c 4 -11 c 0 -12 c -4 -11 c -3 -4 c -8 -3 c
0 -249 1094 1270 l 0 41 1050 1350 l 30 -22 c 0 11 c 4 7 c 4 4 c 11 4 c 8 0 c 11 -4 c 8 -7 c 4 -12 c 0 -11 c -4 -11 c -4 -4 c -8 -4 c
11 -4 1077 1467 l 7 -8 c 4 -11 c 0 -4 c -4 -11 c -7 -8 c -11 -3 c -4 0 c -12 3 c -7 8 c -4 11 c 0 4 c 4 11 c 7 8 c 16 4 c 18 0 c
19 -4 c 12 -8 c 4 -11 c 0 -7 c -4 -12 c -8 -4 c 80 -38 1050 1546 l 0 53 1050 1493 l -4 0 1069 1573 l -7 3 c -4 4 c -4 8 c 0 15 c
4 7 c 4 4 c 7 4 c 8 0 c 7 -4 c 12 -7 c 38 -38 c 0 53 c 4 -4 1122 1652 l 4 4 c -4 4 c -4 -4 c -7 -3 1061 1731 l -4 -12 c 0 -7 c
4 -12 c 11 -7 c 19 -4 c 19 0 c 15 4 c 8 7 c 4 12 c 0 3 c -4 12 c -8 7 c -11 4 c -4 0 c -11 -4 c -8 -7 c -4 -12 c 0 -3 c 4 -12 c
8 -7 c 11 -4 c 53 -38 1050 1796 l 0 57 c 80 0 1050 1796 l 4 -11 1050 1856 l 11 -8 c 19 -4 c 11 0 c 19 4 c 12 8 c 4 11 c 0 8 c
-4 11 c -12 8 c -19 3 c -11 0 c -19 -3 c -11 -8 c -4 -11 c 0 -8 c 0 -249 1176 1340 l 0 41 1132 1420 l 31 -23 c 0 12 c 3 7 c 4 4 c
12 4 c 7 0 c 11 -4 c 8 -7 c 4 -12 c 0 -11 c -4 -11 c -4 -4 c -7 -4 c 11 -4 1159 1537 l 8 -8 c 4 -11 c 0 -4 c -4 -11 c -8 -8 c
-11 -3 c -4 0 c -11 3 c -8 8 c -4 11 c 0 4 c 4 11 c 8 8 c 15 4 c 19 0 c 19 -4 c 11 -8 c 4 -11 c 0 -8 c -4 -11 c -8 -4 c
80 -38 1132 1616 l 0 53 1132 1563 l 0 42 1132 1646 l 31 -23 c 0 12 c 3 7 c 4 4 c 12 4 c 7 0 c 11 -4 c 8 -8 c 4 -11 c 0 -11 c
-4 -12 c -4 -4 c -7 -3 c 4 -4 1204 1722 l 4 4 c -4 4 c -4 -4 c -3 8 1147 1763 l -12 11 c 80 0 c 11 -4 1159 1877 l 8 -8 c 4 -11 c
0 -4 c -4 -11 c -8 -8 c -11 -3 c -4 0 c -11 3 c -8 8 c -4 11 c 0 4 c 4 11 c 8 8 c 15 4 c 19 0 c 19 -4 c 11 -8 c 4 -11 c 0 -7 c
-4 -12 c -8 -4 c -8 -3 1144 1952 l -4 -12 c 0 -7 c 4 -12 c 11 -7 c 19 -4 c 19 0 c 15 4 c 8 7 c 4 12 c 0 4 c -4 11 c -8 7 c -11 4 c
-4 0 c -11 -4 c -8 -7 c -3 -11 c 0 -4 c 3 -12 c 8 -7 c 11 -4 c 0 -250 1364 1401 l 0 42 1320 1480 l 31 -23 c 0 12 c 3 7 c 4 4 c
11 4 c 8 0 c 11 -4 c 8 -8 c 4 -11 c 0 -11 c -4 -12 c -4 -3 c -7 -4 c 11 -3 1347 1597 l 8 -8 c 3 -11 c 0 -4 c -3 -11 c -8 -8 c
-11 -4 c -4 0 c -11 4 c -8 8 c -4 11 c 0 4 c 4 11 c 8 8 c 15 3 c 19 0 c 19 -3 c 11 -8 c 4 -11 c 0 -8 c -4 -11 c -8 -4 c
80 -38 1320 1677 l 0 53 1320 1624 l 53 -38 1320 1737 l 0 57 c 80 0 1320 1737 l 4 -4 1392 1783 l 4 4 c -4 3 c -4 -3 c
53 -38 1320 1851 l 0 57 c 80 0 1320 1851 l 80 -37 1320 1941 l 0 53 1320 1888 l 80 -38 1320 2017 l 0 53 1320 1964 l
0 -250 1650 1390 l 0 42 1606 1469 l 31 -23 c 0 12 c 3 7 c 4 4 c 12 4 c 7 0 c 11 -4 c 8 -8 c 4 -11 c 0 -11 c -4 -12 c -4 -4 c -7 -3 c
11 -3 1633 1586 l 8 -8 c 4 -11 c 0 -4 c -4 -11 c -8 -8 c -11 -4 c -4 0 c -11 4 c -8 8 c -4 11 c 0 4 c 4 11 c 8 8 c 15 3 c 19 0 c
19 -3 c 11 -8 c 4 -11 c 0 -8 c -4 -11 c -8 -4 c 80 -38 1606 1666 l 0 53 1606 1613 l -8 -4 1618 1738 l -4 -11 c 0 -8 c 4 -11 c
12 -8 c 18 -4 c 19 0 c 15 4 c 8 8 c 4 11 c 0 4 c -4 11 c -8 8 c -11 3 c -4 0 c -11 -3 c -8 -8 c -3 -11 c 0 -4 c 3 -11 c 8 -8 c
11 -4 c 4 -4 1678 1772 l 4 4 c -4 3 c -4 -3 c 53 -38 1606 1840 l 0 57 c 80 0 1606 1840 l -4 7 1622 1889 l -12 12 c 80 0 c
0 -37 1606 1998 l 34 -4 c -3 4 c -4 11 c 0 11 c 4 12 c 7 7 c 12 4 c 7 0 c 11 -4 c 8 -7 c 4 -12 c 0 -11 c -4 -11 c -4 -4 c -7 -4 c
0 -249 2086 1545 l 0 41 2042 1625 l 31 -23 c 0 12 c 3 7 c 4 4 c 12 4 c 7 0 c 11 -4 c 8 -7 c 4 -12 c 0 -11 c -4 -11 c -4 -4 c -7 -4 c
11 -4 2069 1742 l 8 -8 c 4 -11 c 0 -4 c -4 -11 c -8 -8 c -11 -3 c -4 0 c -11 3 c -8 8 c -4 11 c 0 4 c 4 11 c 8 8 c 15 4 c 19 0 c
19 -4 c 11 -8 c 4 -11 c 0 -8 c -4 -11 c -8 -4 c 80 -38 2042 1821 l 0 53 2042 1768 l 11 -4 2069 1893 l 8 -7 c 4 -12 c 0 -4 c -4 -11 c
-8 -7 c -11 -4 c -4 0 c -11 4 c -8 7 c -4 11 c 0 4 c 4 12 c 8 7 c 15 4 c 19 0 c 19 -4 c 11 -7 c 4 -12 c 0 -7 c -4 -12 c -8 -3 c
4 -4 2114 1927 l 4 4 c -4 4 c -4 -4 c 0 41 2042 1965 l 31 -22 c 0 11 c 3 7 c 4 4 c 12 4 c 7 0 c 11 -4 c 8 -7 c 4 -12 c 0 -11 c
-4 -11 c -4 -4 c -7 -4 c 0 -38 2042 2078 l 34 -4 c -3 4 c -4 12 c 0 11 c 4 11 c 7 8 c 12 4 c 7 0 c 11 -4 c 8 -8 c 4 -11 c 0 -11 c
-4 -12 c -4 -4 c -7 -3 c -8 -3 2054 2157 l -4 -12 c 0 -7 c 4 -12 c 12 -7 c 18 -4 c 19 0 c 15 4 c 8 7 c 4 12 c 0 4 c -4 11 c -8 7 c
-11 4 c -4 0 c -11 -4 c -8 -7 c -3 -11 c 0 -4 c 3 -12 c 8 -7 c 11 -4 c 0 -250 2196 1287 l 0 42 2152 1366 l 30 -23 c 0 11 c 4 8 c
4 4 c 11 4 c 8 0 c 11 -4 c 8 -8 c 3 -11 c 0 -11 c -3 -12 c -4 -4 c -8 -3 c 12 -3 2178 1483 l 7 -8 c 4 -11 c 0 -4 c -4 -11 c -7 -8 c
-12 -4 c -3 0 c -12 4 c -7 8 c -4 11 c 0 4 c 4 11 c 7 8 c 15 3 c 19 0 c 19 -3 c 12 -8 c 3 -11 c 0 -8 c -3 -11 c -8 -4 c
4 -12 2152 1529 l 7 -3 c 8 0 c 7 3 c 4 8 c 4 15 c 4 11 c 7 8 c 8 4 c 11 0 c 8 -4 c 4 -4 c 3 -11 c 0 -15 c -3 -12 c -4 -3 c -8 -4 c
-11 0 c -8 4 c -7 7 c -4 12 c -4 15 c -4 7 c -7 4 c -8 0 c -7 -4 c -4 -11 c 0 -15 c 4 -11 2152 1608 l 11 -8 c 19 -4 c 11 0 c 19 4 c
12 8 c 3 11 c 0 8 c -3 11 c -12 8 c -19 3 c -11 0 c -19 -3 c -11 -8 c -4 -11 c 0 -8 c 4 -4 2224 1669 l 3 4 c -3 3 c -4 -3 c
4 -12 2152 1722 l 11 -7 c 19 -4 c 11 0 c 19 4 c 12 7 c 3 12 c 0 7 c -3 11 c -12 8 c -19 4 c -11 0 c -19 -4 c -11 -8 c -4 -11 c
0 -7 c 12 -4 2178 1824 l 7 -8 c 4 -11 c 0 -4 c -4 -11 c -7 -8 c -12 -4 c -3 0 c -12 4 c -7 8 c -4 11 c 0 4 c 4 11 c 7 8 c 15 4 c
19 0 c 19 -4 c 12 -8 c 3 -11 c 0 -8 c -3 -11 c -8 -4 c 4 -12 2152 1873 l 11 -7 c 19 -4 c 11 0 c 19 4 c 12 7 c 3 12 c 0 7 c -3 12 c
-12 7 c -19 4 c -11 0 c -19 -4 c -11 -7 c -4 -12 c 0 -7 c 0 -250 2911 1248 l 0 42 2868 1327 l 30 -23 c 0 11 c 4 8 c 3 4 c 12 4 c
7 0 c 12 -4 c 7 -8 c 4 -11 c 0 -11 c -4 -12 c -4 -4 c -7 -3 c 11 -3 2894 1444 l 8 -8 c 4 -11 c 0 -4 c -4 -11 c -8 -8 c -11 -4 c
-4 0 c -11 4 c -8 8 c -3 11 c 0 4 c 3 11 c 8 8 c 15 3 c 19 0 c 19 -3 c 11 -8 c 4 -11 c 0 -8 c -4 -11 c -7 -4 c 3 -12 2868 1490 l
8 -3 c 7 0 c 8 3 c 4 8 c 4 15 c 3 11 c 8 8 c 7 4 c 12 0 c 7 -4 c 4 -4 c 4 -11 c 0 -15 c -4 -12 c -4 -3 c -7 -4 c -12 0 c -7 4 c
-8 7 c -3 11 c -4 16 c -4 7 c -8 4 c -7 0 c -8 -4 c -3 -11 c 0 -15 c 52 -38 2868 1584 l 0 57 c 79 0 2868 1584 l 4 -4 2939 1630 l
4 4 c -4 3 c -4 -3 c 3 -12 2868 1679 l 8 -3 c 7 0 c 8 3 c 4 8 c 4 15 c 3 11 c 8 8 c 7 4 c 12 0 c 7 -4 c 4 -4 c 4 -11 c 0 -15 c
-4 -12 c -4 -3 c -7 -4 c -12 0 c -7 4 c -8 7 c -3 11 c -4 16 c -4 7 c -8 4 c -7 0 c -8 -4 c -3 -11 c 0 -15 c 3 -11 2868 1754 l
8 -4 c 7 0 c 8 4 c 4 7 c 4 16 c 3 11 c 8 8 c 7 3 c 12 0 c 7 -3 c 4 -4 c 4 -12 c 0 -15 c -4 -11 c -4 -4 c -7 -4 c -12 0 c -7 4 c
-8 8 c -3 11 c -4 15 c -4 8 c -8 4 c -7 0 c -8 -4 c -3 -12 c 0 -15 c 3 -12 2868 1834 l 12 -7 c 19 -4 c 11 0 c 19 4 c 11 7 c 4 12 c
0 7 c -4 12 c -11 7 c -19 4 c -11 0 c -19 -4 c -12 -7 c -3 -12 c 0 -7 c 0 -250 3264 1306 l 0 42 3220 1385 l 30 -23 c 0 11 c 4 8 c
4 4 c 11 3 c 8 0 c 11 -3 c 8 -8 c 3 -11 c 0 -12 c -3 -11 c -4 -4 c -8 -3 c 11 -4 3247 1502 l 7 -7 c 4 -11 c 0 -4 c -4 -12 c -7 -7 c
-11 -4 c -4 0 c -12 4 c -7 7 c -4 12 c 0 4 c 4 11 c 7 7 c 16 4 c 18 0 c 19 -4 c 12 -7 c 3 -11 c 0 -8 c -3 -11 c -8 -4 c
4 -12 3220 1548 l 7 -3 c 8 0 c 8 3 c 3 8 c 4 15 c 4 11 c 7 8 c 8 4 c 11 0 c 8 -4 c 4 -4 c 3 -11 c 0 -15 c -3 -12 c -4 -3 c -8 -4 c
-11 0 c -8 4 c -7 7 c -4 11 c -4 16 c -3 7 c -8 4 c -8 0 c -7 -4 c -4 -11 c 0 -15 c 79 -38 3220 1657 l 0 53 3220 1604 l
4 -3 3292 1687 l 3 3 c -3 4 c -4 -4 c -4 0 3239 1721 l -7 4 c -4 4 c -4 8 c 0 15 c 4 7 c 4 4 c 7 4 c 8 0 c 7 -4 c 12 -8 c 37 -37 c
0 53 c 4 -11 3220 1816 l 11 -8 c 19 -4 c 11 0 c 19 4 c 12 8 c 3 11 c 0 8 c -3 11 c -12 7 c -19 4 c -11 0 c -19 -4 c -11 -7 c
-4 -11 c 0 -8 c -7 -4 3231 1918 l -4 -11 c 0 -8 c 4 -11 c 11 -8 c 19 -3 c 19 0 c 15 3 c 8 8 c 3 11 c 0 4 c -3 11 c -8 8 c -11 4 c
-4 0 c -11 -4 c -8 -8 c -4 -11 c 0 -4 c 4 -11 c 8 -8 c 11 -3 c 0 -250 3760 1482 l 0 42 3717 1561 l 30 -23 c 0 11 c 4 8 c 3 4 c
12 3 c 7 0 c 12 -3 c 7 -8 c 4 -11 c 0 -12 c -4 -11 c -4 -4 c -7 -4 c 11 -4 3743 1678 l 8 -7 c 4 -12 c 0 -3 c -4 -12 c -8 -7 c
-11 -4 c -4 0 c -11 4 c -8 7 c -3 12 c 0 3 c 3 12 c 8 7 c 15 4 c 19 0 c 19 -4 c 11 -7 c 4 -12 c 0 -7 c -4 -11 c -7 -4 c
11 -4 3743 1754 l 8 -8 c 4 -11 c 0 -4 c -4 -11 c -8 -8 c -11 -3 c -4 0 c -11 3 c -8 8 c -3 11 c 0 4 c 3 11 c 8 8 c 15 4 c 19 0 c
19 -4 c 11 -8 c 4 -11 c 0 -8 c -4 -11 c -7 -4 c 3 -11 3717 1803 l 12 -8 c 19 -4 c 11 0 c 19 4 c 11 8 c 4 11 c 0 7 c -4 12 c -11 7 c
-19 4 c -11 0 c -19 -4 c -12 -7 c -3 -12 c 0 -7 c 4 -3 3788 1863 l 4 3 c -4 4 c -4 -4 c 52 -37 3717 1931 l 0 56 c 79 0 3717 1931 l
11 -4 3743 2018 l 8 -7 c 4 -11 c 0 -4 c -4 -12 c -8 -7 c -11 -4 c -4 0 c -11 4 c -8 7 c -3 12 c 0 4 c 3 11 c 8 7 c 15 4 c 19 0 c
19 -4 c 11 -7 c 4 -11 c 0 -8 c -4 -11 c -7 -4 c -3 0 3735 2049 l -8 3 c -4 4 c -3 8 c 0 15 c 3 7 c 4 4 c 8 4 c 7 0 c 8 -4 c 11 -7 c
38 -38 c 0 53 c 0 -250 3949 1320 l 0 42 3905 1399 l 31 -23 c 0 11 c 3 8 c 4 4 c 11 3 c 8 0 c 11 -3 c 8 -8 c 4 -11 c 0 -12 c -4 -11 c
-4 -4 c -7 -4 c 11 -4 3932 1516 l 8 -7 c 3 -11 c 0 -4 c -3 -12 c -8 -7 c -11 -4 c -4 0 c -11 4 c -8 7 c -4 12 c 0 4 c 4 11 c 8 7 c
15 4 c 19 0 c 19 -4 c 11 -7 c 4 -11 c 0 -8 c -4 -11 c -8 -4 c 11 -4 3932 1592 l 8 -8 c 3 -11 c 0 -4 c -3 -11 c -8 -8 c -11 -3 c
-4 0 c -11 3 c -8 8 c -4 11 c 0 4 c 4 11 c 8 8 c 15 4 c 19 0 c 19 -4 c 11 -8 c 4 -11 c 0 -7 c -4 -12 c -8 -4 c -3 7 3920 1630 l
-12 11 c 80 0 c 4 -3 3977 1701 l 4 3 c -4 4 c -4 -4 c 80 -38 3905 1785 l 0 53 3905 1732 l 0 41 3905 1815 l 31 -22 c 0 11 c 3 8 c
4 3 c 11 4 c 8 0 c 11 -4 c 8 -7 c 4 -12 c 0 -11 c -4 -11 c -4 -4 c -7 -4 c -3 8 3920 1894 l -12 11 c 80 0 c 0 -250 4188 1336 l
0 42 4145 1415 l 30 -23 c 0 11 c 4 8 c 3 4 c 12 3 c 7 0 c 12 -3 c 7 -8 c 4 -11 c 0 -12 c -4 -11 c -4 -4 c -7 -4 c 11 -4 4171 1532 l
8 -7 c 4 -12 c 0 -3 c -4 -12 c -8 -7 c -11 -4 c -4 0 c -11 4 c -8 7 c -3 12 c 0 3 c 3 12 c 8 7 c 15 4 c 19 0 c 19 -4 c 11 -7 c
4 -12 c 0 -7 c -4 -11 c -7 -4 c 11 -4 4171 1608 l 8 -8 c 4 -11 c 0 -4 c -4 -11 c -8 -8 c -11 -3 c -4 0 c -11 3 c -8 8 c -3 11 c
0 4 c 3 11 c 8 8 c 15 4 c 19 0 c 19 -4 c 11 -8 c 4 -11 c 0 -8 c -4 -11 c -7 -4 c 0 41 4145 1642 l 30 -22 c 0 11 c 4 8 c 3 3 c 12 4 c
7 0 c 12 -4 c 7 -7 c 4 -12 c 0 -11 c -4 -11 c -4 -4 c -7 -4 c 4 -3 4216 1717 l 4 3 c -4 4 c -4 -4 c -4 0 4164 1751 l -8 4 c -4 4 c
-3 7 c 0 16 c 3 7 c 4 4 c 8 4 c 7 0 c 8 -4 c 11 -8 c 38 -37 c 0 52 c 11 -4 4171 1872 l 8 -7 c 4 -11 c 0 -4 c -4 -12 c -8 -7 c
-11 -4 c -4 0 c -11 4 c -8 7 c -3 12 c 0 4 c 3 11 c 8 7 c 15 4 c 19 0 c 19 -4 c 11 -7 c 4 -11 c 0 -8 c -4 -11 c -7 -4 c
11 -4 4171 1948 l 8 -7 c 4 -12 c 0 -4 c -4 -11 c -8 -8 c -11 -3 c -4 0 c -11 3 c -8 8 c -3 11 c 0 4 c 3 12 c 8 7 c 15 4 c 19 0 c
19 -4 c 11 -7 c 4 -12 c 0 -7 c -4 -12 c -7 -4 c 0 -249 4380 7019 l 0 42 4336 7098 l 30 -23 c 0 12 c 4 7 c 4 4 c 11 4 c 8 0 c 11 -4 c
8 -8 c 3 -11 c 0 -11 c -3 -12 c -4 -3 c -8 -4 c 11 -4 4363 7216 l 7 -8 c 4 -11 c 0 -4 c -4 -11 c -7 -8 c -11 -3 c -4 0 c -12 3 c
-7 8 c -4 11 c 0 4 c 4 11 c 7 8 c 16 4 c 18 0 c 19 -4 c 12 -8 c 3 -11 c 0 -8 c -3 -11 c -8 -4 c 11 -4 4363 7291 l 7 -7 c 4 -11 c
0 -4 c -4 -12 c -7 -7 c -11 -4 c -4 0 c -12 4 c -7 7 c -4 12 c 0 4 c 4 11 c 7 7 c 16 4 c 18 0 c 19 -4 c 12 -7 c 3 -11 c 0 -8 c
-3 -11 c -8 -4 c 53 -37 4336 7355 l 0 56 c 79 0 4336 7355 l 4 -4 4408 7401 l 3 4 c -3 4 c -4 -4 c 0 -37 4336 7476 l 34 -4 c -4 4 c
-3 11 c 0 11 c 3 12 c 8 7 c 11 4 c 8 0 c 11 -4 c 8 -7 c 3 -12 c 0 -11 c -3 -11 c -4 -4 c -8 -4 c 53 -37 4336 7544 l 0 56 c
79 0 4336 7544 l 11 -3 4363 7631 l 7 -8 c 4 -11 c 0 -4 c -4 -11 c -7 -8 c -11 -4 c -4 0 c -12 4 c -7 8 c -4 11 c 0 4 c 4 11 c 7 8 c
16 3 c 18 0 c 19 -3 c 12 -8 c 3 -11 c 0 -8 c -3 -11 c -8 -4 c 0 -249 4612 1461 l 0 41 4568 1541 l 31 -22 c 0 11 c 3 7 c 4 4 c 12 4 c
7 0 c 11 -4 c 8 -7 c 4 -12 c 0 -11 c -4 -11 c -4 -4 c -7 -4 c 11 -4 4595 1658 l 8 -7 c 4 -12 c 0 -4 c -4 -11 c -8 -7 c -11 -4 c
-4 0 c -11 4 c -8 7 c -4 11 c 0 4 c 4 12 c 8 7 c 15 4 c 19 0 c 19 -4 c 11 -7 c 4 -12 c 0 -7 c -4 -12 c -8 -3 c 11 -3 4595 1733 l
8 -8 c 4 -11 c 0 -4 c -4 -11 c -8 -8 c -11 -4 c -4 0 c -11 4 c -8 8 c -4 11 c 0 4 c 4 11 c 8 8 c 15 3 c 19 0 c 19 -3 c 11 -8 c
4 -11 c 0 -8 c -4 -11 c -8 -4 c -8 -4 4580 1809 l -4 -11 c 0 -8 c 4 -11 c 12 -8 c 18 -3 c 19 0 c 15 3 c 8 8 c 4 11 c 0 4 c -4 11 c
-8 8 c -11 4 c -4 0 c -11 -4 c -8 -8 c -3 -11 c 0 -4 c 3 -11 c 8 -8 c 11 -3 c 4 -4 4640 1843 l 4 4 c -4 4 c -4 -4 c
4 -11 4568 1896 l 12 -8 c 18 -4 c 12 0 c 19 4 c 11 8 c 4 11 c 0 8 c -4 11 c -11 7 c -19 4 c -12 0 c -18 -4 c -12 -7 c -4 -11 c
0 -8 c -8 -4 4580 1998 l -4 -11 c 0 -8 c 4 -11 c 12 -8 c 18 -3 c 19 0 c 15 3 c 8 8 c 4 11 c 0 4 c -4 11 c -8 8 c -11 4 c -4 0 c
-11 -4 c -8 -8 c -3 -11 c 0 -4 c 3 -11 c 8 -8 c 11 -3 c -3 0 4587 2028 l -8 4 c -4 4 c -4 7 c 0 15 c 4 8 c 4 4 c 8 4 c 7 0 c 8 -4 c
11 -8 c 38 -38 c 0 53 c 0 -250 5386 1483 l 53 -38 5342 1592 l 0 57 c 80 0 5342 1592 l 4 -12 5342 1653 l 11 -7 c 19 -4 c 11 0 c
19 4 c 12 7 c 4 12 c 0 7 c -4 12 c -12 7 c -19 4 c -11 0 c -19 -4 c -11 -7 c -4 -12 c 0 -7 c 4 -11 5342 1728 l 11 -8 c 19 -3 c
11 0 c 19 3 c 12 8 c 4 11 c 0 8 c -4 11 c -12 8 c -19 4 c -11 0 c -19 -4 c -11 -8 c -4 -11 c 0 -8 c -4 7 5357 1793 l -11 11 c 80 0 c
4 -3 5414 1864 l 4 3 c -4 4 c -4 -4 c 4 -11 5342 1917 l 11 -8 c 19 -3 c 11 0 c 19 3 c 12 8 c 4 11 c 0 8 c -4 11 c -12 8 c -19 3 c
-11 0 c -19 -3 c -11 -8 c -4 -11 c 0 -8 c 0 -38 5342 2016 l 34 -4 c -4 4 c -3 11 c 0 11 c 3 12 c 8 7 c 11 4 c 8 0 c 11 -4 c 8 -7 c
4 -12 c 0 -11 c -4 -11 c -4 -4 c -8 -4 c 4 -12 5342 2065 l 7 -3 c 8 0 c 8 3 c 3 8 c 4 15 c 4 11 c 7 8 c 8 4 c 11 0 c 8 -4 c 4 -4 c
4 -11 c 0 -15 c -4 -12 c -4 -3 c -8 -4 c -11 0 c -8 4 c -7 7 c -4 11 c -4 16 c -3 7 c -8 4 c -8 0 c -7 -4 c -4 -11 c 0 -15 c
0 -249 5515 1515 l 53 -38 5472 1625 l 0 57 c 79 0 5472 1625 l 4 -12 5472 1686 l 11 -7 c 19 -4 c 11 0 c 19 4 c 11 7 c 4 12 c 0 7 c
-4 11 c -11 8 c -19 4 c -11 0 c -19 -4 c -11 -8 c -4 -11 c 0 -7 c 4 -11 5472 1761 l 11 -8 c 19 -4 c 11 0 c 19 4 c 11 8 c 4 11 c
0 8 c -4 11 c -11 8 c -19 3 c -11 0 c -19 -3 c -11 -8 c -4 -11 c 0 -8 c -4 8 5487 1825 l -11 11 c 79 0 c 3 -4 5544 1897 l 4 4 c
-4 4 c -3 -4 c 4 -11 5472 1946 l 7 -4 c 8 0 c 7 4 c 4 8 c 4 15 c 4 11 c 7 8 c 8 3 c 11 0 c 8 -3 c 3 -4 c 4 -12 c 0 -15 c -4 -11 c
-3 -4 c -8 -4 c -11 0 c -8 4 c -7 8 c -4 11 c -4 15 c -4 8 c -7 4 c -8 0 c -7 -4 c -4 -12 c 0 -15 c 12 -4 5498 2052 l 7 -7 c 4 -12 c
0 -3 c -4 -12 c -7 -7 c -12 -4 c -3 0 c -12 4 c -7 7 c -4 12 c 0 3 c 4 12 c 7 7 c 15 4 c 19 0 c 19 -4 c 11 -7 c 4 -12 c 0 -7 c
-4 -11 c -7 -4 c 53 -37 5472 2116 l 0 56 c 79 0 5472 2116 l 0 -250 6017 1530 l 53 -38 5973 1639 l 0 57 c 80 0 5973 1639 l
4 -12 5973 1700 l 11 -7 c 19 -4 c 12 0 c 19 4 c 11 7 c 4 12 c 0 7 c -4 12 c -11 7 c -19 4 c -12 0 c -19 -4 c -11 -7 c -4 -12 c
0 -7 c 4 -11 5973 1775 l 11 -8 c 19 -3 c 12 0 c 19 3 c 11 8 c 4 11 c 0 8 c -4 11 c -11 8 c -19 4 c -12 0 c -19 -4 c -11 -8 c
-4 -11 c 0 -8 c 0 -38 5973 1874 l 34 -4 c -3 4 c -4 11 c 0 11 c 4 12 c 7 7 c 11 4 c 8 0 c 11 -4 c 8 -7 c 4 -12 c 0 -11 c -4 -11 c
-4 -4 c -7 -4 c 4 -3 6045 1911 l 4 3 c -4 4 c -4 -4 c 4 -11 5973 1964 l 11 -8 c 19 -3 c 12 0 c 19 3 c 11 8 c 4 11 c 0 8 c -4 11 c
-11 8 c -19 4 c -12 0 c -19 -4 c -11 -8 c -4 -11 c 0 -8 c 11 -3 6000 2066 l 8 -8 c 3 -11 c 0 -4 c -3 -11 c -8 -8 c -11 -4 c -4 0 c
-11 4 c -8 8 c -4 11 c 0 4 c 4 11 c 8 8 c 15 3 c 19 0 c 19 -3 c 11 -8 c 4 -11 c 0 -8 c -4 -11 c -8 -4 c 0 42 5973 2100 l 31 -23 c
0 12 c 3 7 c 4 4 c 11 4 c 8 0 c 11 -4 c 8 -8 c 4 -11 c 0 -11 c -4 -12 c -4 -3 c -7 -4 c 0 -250 6321 1856 l 53 -37 6278 1965 l 0 56 c
79 0 6278 1965 l 3 -11 6278 2026 l 12 -8 c 19 -4 c 11 0 c 19 4 c 11 8 c 4 11 c 0 7 c -4 12 c -11 7 c -19 4 c -11 0 c -19 -4 c
-12 -7 c -3 -12 c 0 -7 c 3 -11 6278 2101 l 12 -7 c 19 -4 c 11 0 c 19 4 c 11 7 c 4 11 c 0 8 c -4 11 c -11 8 c -19 4 c -11 0 c
-19 -4 c -12 -8 c -3 -11 c 0 -8 c 79 -38 6278 2207 l 0 53 6278 2154 l 3 -3 6350 2237 l 4 3 c -4 4 c -3 -4 c 3 -11 6278 2290 l
12 -7 c 19 -4 c 11 0 c 19 4 c 11 7 c 4 11 c 0 8 c -4 11 c -11 8 c -19 4 c -11 0 c -19 -4 c -12 -8 c -3 -11 c 0 -8 c -4 7 6293 2355 l
-11 12 c 79 0 c 11 -4 6304 2468 l 8 -7 c 4 -12 c 0 -3 c -4 -12 c -8 -7 c -11 -4 c -4 0 c -11 4 c -8 7 c -3 12 c 0 3 c 3 12 c 8 7 c
15 4 c 19 0 c 19 -4 c 11 -7 c 4 -12 c 0 -7 c -4 -12 c -7 -3 c 0 -250 6509 1849 l 52 -38 6466 1958 l 0 57 c 79 0 6466 1958 l
3 -12 6466 2019 l 12 -7 c 19 -4 c 11 0 c 19 4 c 11 7 c 4 12 c 0 7 c -4 12 c -11 7 c -19 4 c -11 0 c -19 -4 c -12 -7 c -3 -12 c
0 -7 c 3 -11 6466 2094 l 12 -8 c 19 -3 c 11 0 c 19 3 c 11 8 c 4 11 c 0 8 c -4 11 c -11 8 c -19 4 c -11 0 c -19 -4 c -12 -8 c
-3 -11 c 0 -8 c 3 -11 6466 2166 l 8 -4 c 7 0 c 8 4 c 4 7 c 4 15 c 3 12 c 8 7 c 7 4 c 12 0 c 7 -4 c 4 -3 c 4 -12 c 0 -15 c -4 -11 c
-4 -4 c -7 -4 c -12 0 c -7 4 c -8 8 c -3 11 c -4 15 c -4 8 c -8 3 c -7 0 c -8 -3 c -3 -12 c 0 -15 c 4 -3 6537 2230 l 4 3 c -4 4 c
-4 -4 c -3 0 6484 2264 l -8 4 c -4 4 c -3 8 c 0 15 c 3 7 c 4 4 c 8 4 c 7 0 c 8 -4 c 11 -8 c 38 -37 c 0 53 c -4 7 6481 2348 l
-11 11 c 79 0 c 3 -11 6466 2434 l 12 -7 c 19 -4 c 11 0 c 19 4 c 11 7 c 4 11 c 0 8 c -4 11 c -11 8 c -19 4 c -11 0 c -19 -4 c
-12 -8 c -3 -11 c 0 -8 c 0 -250 6641 1538 l 53 -38 6598 1648 l 0 57 c 79 0 6598 1648 l 4 -11 6598 1708 l 11 -8 c 19 -4 c 11 0 c
19 4 c 11 8 c 4 11 c 0 8 c -4 11 c -11 8 c -19 3 c -11 0 c -19 -3 c -11 -8 c -4 -11 c 0 -8 c 4 -12 6598 1784 l 11 -7 c 19 -4 c
11 0 c 19 4 c 11 7 c 4 12 c 0 7 c -4 12 c -11 7 c -19 4 c -11 0 c -19 -4 c -11 -7 c -4 -12 c 0 -7 c 12 -4 6624 1886 l 7 -8 c 4 -11 c
0 -4 c -4 -11 c -7 -8 c -12 -3 c -3 0 c -12 3 c -7 8 c -4 11 c 0 4 c 4 11 c 7 8 c 15 4 c 19 0 c 19 -4 c 11 -8 c 4 -11 c 0 -8 c
-4 -11 c -7 -4 c 3 -4 6670 1920 l 4 4 c -4 4 c -3 -4 c 4 -12 6598 1973 l 11 -7 c 19 -4 c 11 0 c 19 4 c 11 7 c 4 12 c 0 7 c -4 12 c
-11 7 c -19 4 c -11 0 c -19 -4 c -11 -7 c -4 -12 c 0 -7 c -4 7 6613 2037 l -11 12 c 79 0 c -4 8 6613 2112 l -11 11 c 79 0 c
0 -250 7192 2468 l 52 -38 7149 2577 l 0 57 c 79 0 7149 2577 l 3 -12 7149 2638 l 12 -7 c 19 -4 c 11 0 c 19 4 c 11 7 c 4 12 c 0 7 c
-4 12 c -11 7 c -19 4 c -11 0 c -19 -4 c -12 -7 c -3 -12 c 0 -7 c -4 7 7164 2702 l -11 12 c 79 0 c -3 0 7167 2770 l -8 4 c -4 3 c
-3 8 c 0 15 c 3 8 c 4 3 c 8 4 c 7 0 c 8 -4 c 11 -7 c 38 -38 c 0 53 c 4 -4 7220 2849 l 4 4 c -4 4 c -4 -4 c 52 -38 7149 2917 l 0 57 c
79 0 7149 2917 l 11 -4 7175 3004 l 8 -7 c 4 -11 c 0 -4 c -4 -12 c -8 -7 c -11 -4 c -4 0 c -11 4 c -8 7 c -3 12 c 0 4 c 3 11 c 8 7 c
15 4 c 19 0 c 19 -4 c 11 -7 c 4 -11 c 0 -8 c -4 -11 c -7 -4 c 0 -38 7149 3076 l 34 -4 c -4 4 c -4 12 c 0 11 c 4 11 c 7 8 c 12 4 c
7 0 c 12 -4 c 7 -8 c 4 -11 c 0 -11 c -4 -12 c -4 -4 c -7 -3 c 0 -250 7411 1947 l 52 -37 7368 2056 l 0 56 c 79 0 7368 2056 l
3 -12 7368 2117 l 12 -7 c 19 -4 c 11 0 c 19 4 c 11 7 c 4 12 c 0 7 c -4 12 c -11 7 c -19 4 c -11 0 c -19 -4 c -12 -7 c -3 -12 c
0 -7 c -4 8 7383 2181 l -11 11 c 79 0 c 0 41 7368 2253 l 30 -22 c 0 11 c 4 8 c 3 3 c 12 4 c 7 0 c 12 -4 c 7 -7 c 4 -11 c 0 -12 c
-4 -11 c -4 -4 c -7 -4 c 4 -3 7439 2328 l 4 3 c -4 4 c -4 -4 c 3 -12 7368 2378 l 8 -4 c 7 0 c 8 4 c 4 8 c 4 15 c 3 11 c 8 8 c 7 4 c
12 0 c 7 -4 c 4 -4 c 4 -11 c 0 -15 c -4 -12 c -4 -4 c -7 -3 c -12 0 c -7 3 c -8 8 c -3 11 c -4 15 c -4 8 c -8 4 c -7 0 c -8 -4 c
-3 -11 c 0 -15 c 0 -38 7368 2480 l 34 -4 c -4 4 c -4 11 c 0 12 c 4 11 c 7 7 c 12 4 c 7 0 c 12 -4 c 7 -7 c 4 -11 c 0 -12 c -4 -11 c
-4 -4 c -7 -4 c 79 -38 7368 2563 l 0 53 7368 2510 l 0 -250 7549 1393 l 53 -37 7506 1502 l 0 56 c 79 0 7506 1502 l 4 -11 7506 1563 l
11 -8 c 19 -4 c 11 0 c 19 4 c 11 8 c 4 11 c 0 8 c -4 11 c -11 7 c -19 4 c -11 0 c -19 -4 c -11 -7 c -4 -11 c 0 -8 c -4 8 7521 1627 l
-11 11 c 79 0 c 53 -38 7506 1729 l 0 57 c 79 0 7506 1729 l 3 -4 7578 1775 l 4 4 c -4 3 c -3 -3 c 79 -38 7506 1858 l 0 53 7506 1805 l
-4 7 7521 1892 l -11 12 c 79 0 c -7 -4 7517 2005 l -4 -11 c 0 -8 c 4 -11 c 11 -7 c 19 -4 c 19 0 c 15 4 c 7 7 c 4 11 c 0 4 c -4 12 c
-7 7 c -11 4 c -4 0 c -12 -4 c -7 -7 c -4 -12 c 0 -4 c 4 -11 c 7 -7 c 12 -4 c 0 -249 8100 1387 l 53 -38 8056 1497 l 0 57 c
80 0 8056 1497 l 4 -12 8056 1558 l 11 -7 c 19 -4 c 12 0 c 19 4 c 11 7 c 4 12 c 0 7 c -4 11 c -11 8 c -19 4 c -12 0 c -19 -4 c
-11 -8 c -4 -11 c 0 -7 c -3 7 8071 1622 l -12 12 c 80 0 c 4 -11 8056 1705 l 8 -4 c 7 0 c 8 4 c 4 7 c 3 15 c 4 12 c 8 7 c 7 4 c
12 0 c 7 -4 c 4 -4 c 4 -11 c 0 -15 c -4 -11 c -4 -4 c -7 -4 c -12 0 c -7 4 c -8 7 c -4 12 c -3 15 c -4 7 c -8 4 c -7 0 c -8 -4 c
-4 -11 c 0 -15 c 4 -4 8128 1769 l 4 4 c -4 4 c -4 -4 c 4 -11 8056 1822 l 11 -8 c 19 -4 c 12 0 c 19 4 c 11 8 c 4 11 c 0 8 c -4 11 c
-11 8 c -19 3 c -12 0 c -19 -3 c -11 -8 c -4 -11 c 0 -8 c 11 -4 8083 1924 l 8 -7 c 3 -12 c 0 -3 c -3 -12 c -8 -7 c -11 -4 c -4 0 c
-11 4 c -8 7 c -4 12 c 0 3 c 4 12 c 8 7 c 15 4 c 19 0 c 19 -4 c 11 -7 c 4 -12 c 0 -7 c -4 -11 c -8 -4 c 11 -4 8083 2000 l 8 -8 c
3 -11 c 0 -4 c -3 -11 c -8 -8 c -11 -3 c -4 0 c -11 3 c -8 8 c -4 11 c 0 4 c 4 11 c 8 8 c 15 4 c 19 0 c 19 -4 c 11 -8 c 4 -11 c
0 -7 c -4 -12 c -8 -4 c 0 -249 8267 7019 l 53 -38 8224 7129 l 0 57 c 79 0 8224 7129 l 3 -11 8224 7189 l 12 -8 c 19 -3 c 11 0 c
19 3 c 11 8 c 4 11 c 0 8 c -4 11 c -11 8 c -19 3 c -11 0 c -19 -3 c -12 -8 c -3 -11 c 0 -8 c -4 8 8239 7253 l -11 11 c 79 0 c
11 -4 8250 7367 l 8 -8 c 4 -11 c 0 -4 c -4 -11 c -8 -8 c -11 -3 c -4 0 c -11 3 c -8 8 c -3 11 c 0 4 c 3 11 c 8 8 c 15 4 c 19 0 c
19 -4 c 11 -8 c 4 -11 c 0 -7 c -4 -12 c -7 -4 c 4 -4 8295 7401 l 4 4 c -4 4 c -4 -4 c -4 8 8239 7442 l -11 11 c 79 0 c
-4 0 8243 7510 l -8 4 c -4 4 c -3 8 c 0 15 c 3 7 c 4 4 c 8 4 c 7 0 c 8 -4 c 11 -8 c 38 -37 c 0 53 c 11 -3 8250 7631 l 8 -8 c 4 -11 c
0 -4 c -4 -11 c -8 -8 c -11 -4 c -4 0 c -11 4 c -8 8 c -3 11 c 0 4 c 3 11 c 8 8 c 15 3 c 19 0 c 19 -3 c 11 -8 c 4 -11 c 0 -8 c
-4 -11 c -7 -4 c 0 -250 8467 1273 l 53 -38 8423 1383 l 0 56 c 79 0 8423 1383 l 4 -11 8423 1443 l 11 -8 c 19 -4 c 11 0 c 19 4 c
12 8 c 3 11 c 0 8 c -3 11 c -12 8 c -19 3 c -11 0 c -19 -3 c -11 -8 c -4 -11 c 0 -8 c -4 0 8442 1500 l -7 4 c -4 3 c -4 8 c 0 15 c
4 8 c 4 3 c 7 4 c 8 0 c 7 -4 c 12 -7 c 37 -38 c 0 53 c 4 -11 8423 1594 l 11 -8 c 19 -3 c 11 0 c 19 3 c 12 8 c 3 11 c 0 8 c -3 11 c
-12 8 c -19 3 c -11 0 c -19 -3 c -11 -8 c -4 -11 c 0 -8 c 4 -4 8495 1655 l 3 4 c -3 3 c -4 -3 c 0 42 8423 1692 l 30 -23 c 0 12 c
4 7 c 4 4 c 11 4 c 8 0 c 11 -4 c 8 -7 c 3 -12 c 0 -11 c -3 -12 c -4 -3 c -8 -4 c 0 -38 8423 1806 l 34 -4 c -4 4 c -3 11 c 0 12 c
3 11 c 8 8 c 11 3 c 8 0 c 11 -3 c 8 -8 c 3 -11 c 0 -12 c -3 -11 c -4 -4 c -8 -3 c 53 -38 8423 1874 l 0 57 c 79 0 8423 1874 l
0 -250 8753 2161 l 53 -38 8709 2270 l 0 57 c 79 0 8709 2270 l 4 -12 8709 2331 l 11 -7 c 19 -4 c 11 0 c 19 4 c 12 7 c 3 12 c 0 7 c
-3 12 c -12 7 c -19 4 c -11 0 c -19 -4 c -11 -7 c -4 -12 c 0 -7 c -4 0 8728 2387 l -7 4 c -4 4 c -4 7 c 0 16 c 4 7 c 4 4 c 7 4 c
8 0 c 7 -4 c 12 -8 c 37 -37 c 0 53 c -4 0 8728 2463 l -7 4 c -4 4 c -4 7 c 0 15 c 4 8 c 4 4 c 7 3 c 8 0 c 7 -3 c 12 -8 c 37 -38 c
0 53 c 4 -3 8781 2542 l 3 3 c -3 4 c -4 -4 c 4 -11 8709 2595 l 11 -8 c 19 -3 c 11 0 c 19 3 c 12 8 c 3 11 c 0 8 c -3 11 c -12 8 c
-19 3 c -11 0 c -19 -3 c -11 -8 c -4 -11 c 0 -8 c -7 -3 8720 2697 l -4 -12 c 0 -7 c 4 -12 c 11 -7 c 19 -4 c 19 0 c 15 4 c 8 7 c
3 12 c 0 3 c -3 12 c -8 7 c -11 4 c -4 0 c -11 -4 c -8 -7 c -4 -12 c 0 -3 c 4 -12 c 8 -7 c 11 -4 c 79 -38 8709 2777 l
0 53 8709 2724 l 0 -249 8958 1256 l 53 -38 8915 1366 l 0 57 c 79 0 8915 1366 l 4 -11 8915 1426 l 11 -8 c 19 -3 c 11 0 c 19 3 c
11 8 c 4 11 c 0 8 c -4 11 c -11 8 c -19 3 c -11 0 c -19 -3 c -11 -8 c -4 -11 c 0 -8 c -4 0 8934 1483 l -8 4 c -3 3 c -4 8 c 0 15 c
4 8 c 3 3 c 8 4 c 7 0 c 8 -4 c 11 -7 c 38 -38 c 0 53 c 0 42 8915 1562 l 30 -23 c 0 11 c 4 8 c 4 4 c 11 4 c 7 0 c 12 -4 c 7 -8 c
4 -11 c 0 -11 c -4 -12 c -3 -4 c -8 -3 c 3 -4 8987 1638 l 4 4 c -4 4 c -3 -4 c 0 41 8915 1676 l 30 -22 c 0 11 c 4 7 c 4 4 c 11 4 c
7 0 c 12 -4 c 7 -7 c 4 -12 c 0 -11 c -4 -11 c -3 -4 c -8 -4 c 0 42 8915 1751 l 30 -23 c 0 11 c 4 8 c 4 4 c 11 4 c 7 0 c 12 -4 c
7 -8 c 4 -11 c 0 -11 c -4 -12 c -3 -4 c -8 -3 c 4 -11 8915 1838 l 7 -4 c 8 0 c 7 4 c 4 7 c 4 15 c 4 12 c 7 7 c 8 4 c 11 0 c 8 -4 c
3 -3 c 4 -12 c 0 -15 c -4 -11 c -3 -4 c -8 -4 c -11 0 c -8 4 c -7 8 c -4 11 c -4 15 c -4 8 c -7 3 c -8 0 c -7 -3 c -4 -12 c 0 -15 c
0 -250 9201 1469 l 53 -38 9158 1579 l 0 56 c 79 0 9158 1579 l 3 -11 9158 1639 l 12 -8 c 19 -4 c 11 0 c 19 4 c 11 8 c 4 11 c 0 8 c
-4 11 c -11 7 c -19 4 c -11 0 c -19 -4 c -12 -7 c -3 -11 c 0 -8 c -4 0 9177 1696 l -8 4 c -4 3 c -3 8 c 0 15 c 3 8 c 4 3 c 8 4 c
7 0 c 8 -4 c 11 -7 c 38 -38 c 0 53 c 53 -37 9158 1805 l 0 56 c 79 0 9158 1805 l 3 -4 9230 1851 l 4 4 c -4 3 c -3 -3 c
3 -12 9158 1900 l 8 -3 c 8 0 c 7 3 c 4 8 c 4 15 c 3 12 c 8 7 c 8 4 c 11 0 c 8 -4 c 3 -4 c 4 -11 c 0 -15 c -4 -12 c -3 -3 c -8 -4 c
-11 0 c -8 4 c -8 7 c -3 12 c -4 15 c -4 7 c -7 4 c -8 0 c -8 -4 c -3 -11 c 0 -15 c 3 -11 9158 1979 l 12 -8 c 19 -3 c 11 0 c 19 3 c
11 8 c 4 11 c 0 8 c -4 11 c -11 8 c -19 3 c -11 0 c -19 -3 c -12 -8 c -3 -11 c 0 -8 c -4 0 9177 2036 l -8 4 c -4 3 c -3 8 c 0 15 c
3 8 c 4 3 c 8 4 c 7 0 c 8 -4 c 11 -7 c 38 -38 c 0 53 c 0 -250 9343 1542 l 53 -37 9299 1651 l 0 56 c 80 0 9299 1651 l
4 -11 9299 1712 l 12 -8 c 18 -4 c 12 0 c 19 4 c 11 8 c 4 11 c 0 7 c -4 12 c -11 7 c -19 4 c -12 0 c -18 -4 c -12 -7 c -4 -12 c
0 -7 c -3 0 9318 1769 l -8 3 c -4 4 c -4 8 c 0 15 c 4 7 c 4 4 c 8 4 c 7 0 c 8 -4 c 11 -7 c 38 -38 c 0 53 c 0 -38 9299 1886 l 34 -4 c
-3 4 c -4 11 c 0 12 c 4 11 c 7 7 c 12 4 c 7 0 c 11 -4 c 8 -7 c 4 -11 c 0 -12 c -4 -11 c -4 -4 c -7 -4 c 4 -4 9371 1924 l 4 4 c
-4 3 c -4 -3 c -8 -4 9311 2003 l -4 -11 c 0 -8 c 4 -11 c 12 -8 c 18 -3 c 19 0 c 15 3 c 8 8 c 4 11 c 0 4 c -4 11 c -8 8 c -11 4 c
-4 0 c -11 -4 c -8 -8 c -3 -11 c 0 -4 c 3 -11 c 8 -8 c 11 -3 c 0 -38 9299 2075 l 34 -4 c -3 4 c -4 11 c 0 12 c 4 11 c 7 7 c 12 4 c
7 0 c 11 -4 c 8 -7 c 4 -11 c 0 -12 c -4 -11 c -4 -4 c -7 -4 c -8 -4 9311 2154 l -4 -11 c 0 -8 c 4 -11 c 12 -8 c 18 -3 c 19 0 c
15 3 c 8 8 c 4 11 c 0 4 c -4 11 c -8 8 c -11 4 c -4 0 c -11 -4 c -8 -8 c -3 -11 c 0 -4 c 3 -11 c 8 -8 c 11 -3 c 0 -249 9569 1570 l
53 -38 9526 1680 l 0 57 c 79 0 9526 1680 l 4 -11 9526 1740 l 11 -8 c 19 -3 c 11 0 c 19 3 c 11 8 c 4 11 c 0 8 c -4 11 c -11 8 c
-19 3 c -11 0 c -19 -3 c -11 -8 c -4 -11 c 0 -8 c -4 0 9545 1797 l -8 4 c -3 3 c -4 8 c 0 15 c 4 8 c 3 3 c 8 4 c 7 0 c 8 -4 c
11 -7 c 38 -38 c 0 53 c 79 -38 9526 1922 l 0 53 9526 1869 l 3 -4 9598 1952 l 4 4 c -4 4 c -3 -4 c 4 -12 9526 2005 l 11 -7 c 19 -4 c
11 0 c 19 4 c 11 7 c 4 12 c 0 7 c -4 12 c -11 7 c -19 4 c -11 0 c -19 -4 c -11 -7 c -4 -12 c 0 -7 c 4 -11 9526 2080 l 11 -8 c
19 -3 c 11 0 c 19 3 c 11 8 c 4 11 c 0 8 c -4 11 c -11 8 c -19 4 c -11 0 c -19 -4 c -11 -8 c -4 -11 c 0 -8 c 12 -3 9552 2182 l 7 -8 c
4 -11 c 0 -4 c -4 -11 c -7 -8 c -12 -4 c -4 0 c -11 4 c -7 8 c -4 11 c 0 4 c 4 11 c 7 8 c 15 3 c 19 0 c 19 -3 c 11 -8 c 4 -11 c
0 -8 c -4 -11 c -7 -4 c
showpage PGPLOT restore
 
%%Trailer
%%DocumentFonts: 
%%Pages: 1
%%EOF
