%!PS-Adobe-3.0 EPSF-3.0
%%For: tom
%%Title: PGPLOT PostScript plot
%%Creator: PGPLOT
%%CreationDate:  9-Nov-1994 13:47
%%BoundingBox: 25 18 587 774
%%DocumentFonts: (atend)
%%LanguageLevel: 1
%%Orientation: Landscape
%%Pages: (atend)
%%EndComments
%%BeginProlog
/l {moveto rlineto currentpoint stroke moveto} bind def
/c {rlineto currentpoint stroke moveto} bind def
/d {moveto 0 0 rlineto currentpoint stroke moveto} bind def
/SLW {5 mul setlinewidth} bind def
/SCF /pop load def
/BP {newpath moveto} bind def
/LP /rlineto load def
/EP {rlineto closepath eofill} bind def
/MB {gsave translate MFAC dup scale 1 setlinewidth 2 setlinecap 0 setlinejoin newpath} bind def
/ME /grestore load def
/C {0 360 arc stroke} bind def
/FC {0 360 arc fill} bind def
%%EndProlog
 
%%Page: 1 1
%%BeginPageSetup
/PGPLOT save def
0.072 0.072 scale
8150 250 translate 90 rotate
1 setlinejoin 1 setlinecap 1 SLW 1 SCF
%%EndPageSetup
0.00 setgray 1 SLW 8939 0 780 780 l 0 6239 c -8939 0 c 0 -6239 c 0 -45 1116 780 l 0 -45 1554 780 l 0 -45 1991 780 l 0 -45 2428 780 l
0 -90 2865 780 l 0 -45 3302 780 l 0 -45 3739 780 l 0 -45 4176 780 l 0 -45 4613 780 l 0 -90 5051 780 l 0 -45 5488 780 l
0 -45 5925 780 l 0 -45 6362 780 l 0 -45 6799 780 l 0 -90 7236 780 l 0 -45 7673 780 l 0 -45 8110 780 l 0 -45 8548 780 l
0 -45 8985 780 l 0 -90 9422 780 l 0 -45 1116 7064 l 0 -45 1554 7064 l 0 -45 1991 7064 l 0 -45 2428 7064 l 0 -90 2865 7109 l
0 -45 3302 7064 l 0 -45 3739 7064 l 0 -45 4176 7064 l 0 -45 4613 7064 l 0 -90 5051 7109 l 0 -45 5488 7064 l 0 -45 5925 7064 l
0 -45 6362 7064 l 0 -45 6799 7064 l 0 -90 7236 7109 l 0 -45 7673 7064 l 0 -45 8110 7064 l 0 -45 8548 7064 l 0 -45 8985 7064 l
0 -90 9422 7109 l -60 0 2775 672 l -6 -54 c 6 6 c 18 6 c 18 0 c 18 -6 c 12 -12 c 6 -18 c 0 -12 c -6 -18 c -12 -12 c -18 -6 c -18 0 c
-18 6 c -6 6 c -6 12 c -18 -6 2859 672 l -12 -18 c -6 -30 c 0 -18 c 6 -30 c 12 -18 c 18 -6 c 12 0 c 18 6 c 12 18 c 6 30 c 0 18 c
-6 30 c -12 18 c -18 6 c -12 0 c -18 -6 2979 672 l -12 -18 c -6 -30 c 0 -18 c 6 -30 c 12 -18 c 18 -6 c 12 0 c 18 6 c 12 18 c 6 30 c
0 18 c -6 30 c -12 18 c -18 6 c -12 0 c 12 6 4847 648 l 18 18 c 0 -126 c -18 -6 4985 672 l -12 -18 c -6 -30 c 0 -18 c 6 -30 c
12 -18 c 18 -6 c 12 0 c 18 6 c 12 18 c 6 30 c 0 18 c -6 30 c -12 18 c -18 6 c -12 0 c -18 -6 5105 672 l -12 -18 c -6 -30 c 0 -18 c
6 -30 c 12 -18 c 18 -6 c 12 0 c 18 6 c 12 18 c 6 30 c 0 18 c -6 30 c -12 18 c -18 6 c -12 0 c -18 -6 5225 672 l -12 -18 c -6 -30 c
0 -18 c 6 -30 c 12 -18 c 18 -6 c 12 0 c 18 6 c 12 18 c 6 30 c 0 18 c -6 30 c -12 18 c -18 6 c -12 0 c 12 6 7032 648 l 18 18 c
0 -126 c -60 0 7206 672 l -6 -54 c 6 6 c 18 6 c 18 0 c 18 -6 c 12 -12 c 6 -18 c 0 -12 c -6 -18 c -12 -12 c -18 -6 c -18 0 c -18 6 c
-6 6 c -6 12 c -18 -6 7290 672 l -12 -18 c -6 -30 c 0 -18 c 6 -30 c 12 -18 c 18 -6 c 12 0 c 18 6 c 12 18 c 6 30 c 0 18 c -6 30 c
-12 18 c -18 6 c -12 0 c -18 -6 7410 672 l -12 -18 c -6 -30 c 0 -18 c 6 -30 c 12 -18 c 18 -6 c 12 0 c 18 6 c 12 18 c 6 30 c 0 18 c
-6 30 c -12 18 c -18 6 c -12 0 c 0 6 9206 642 l 6 12 c 6 6 c 12 6 c 24 0 c 12 -6 c 6 -6 c 6 -12 c 0 -12 c -6 -12 c -12 -18 c
-60 -60 c 84 0 c -18 -6 9356 672 l -12 -18 c -6 -30 c 0 -18 c 6 -30 c 12 -18 c 18 -6 c 12 0 c 18 6 c 12 18 c 6 30 c 0 18 c -6 30 c
-12 18 c -18 6 c -12 0 c -18 -6 9476 672 l -12 -18 c -6 -30 c 0 -18 c 6 -30 c 12 -18 c 18 -6 c 12 0 c 18 6 c 12 18 c 6 30 c 0 18 c
-6 30 c -12 18 c -18 6 c -12 0 c -18 -6 9596 672 l -12 -18 c -6 -30 c 0 -18 c 6 -30 c 12 -18 c 18 -6 c 12 0 c 18 6 c 12 18 c 6 30 c
0 18 c -6 30 c -12 18 c -18 6 c -12 0 c -90 0 780 780 l -45 0 780 1714 l -90 0 780 2649 l -45 0 780 3584 l -90 0 780 4518 l
-45 0 780 5453 l -90 0 780 6387 l -90 0 9809 780 l -45 0 9764 1714 l -90 0 9809 2649 l -45 0 9764 3584 l -90 0 9809 4518 l
-45 0 9764 5453 l -90 0 9809 6387 l 6 -18 517 774 l 18 -12 c 30 -6 c 18 0 c 30 6 c 18 12 c 6 18 c 0 12 c -6 18 c -18 12 c -30 6 c
-18 0 c -30 -6 c -18 -12 c -6 -18 c 0 -12 c -6 0 547 2391 l -12 6 c -6 6 c -6 12 c 0 24 c 6 12 c 6 6 c 12 6 c 12 0 c 12 -6 c
18 -12 c 60 -60 c 0 84 c 84 84 547 2511 l 84 -84 547 2595 l -6 12 541 2655 l -18 18 c 126 0 c 6 -18 517 2793 l 18 -12 c 30 -6 c
18 0 c 30 6 c 18 12 c 6 18 c 0 12 c -6 18 c -18 12 c -30 6 c -18 0 c -30 -6 c -18 -12 c -6 -18 c 0 -12 c 63 -45 453 2918 l 0 67 c
94 0 453 2918 l 84 -60 517 4314 l 0 90 c 126 0 517 4314 l 84 84 547 4380 l 84 -84 547 4464 l -6 12 541 4524 l -18 18 c 126 0 c
6 -18 517 4662 l 18 -12 c 30 -6 c 18 0 c 30 6 c 18 12 c 6 18 c 0 12 c -6 18 c -18 12 c -30 6 c -18 0 c -30 -6 c -18 -12 c -6 -18 c
0 -12 c 63 -45 453 4787 l 0 67 c 94 0 453 4787 l -12 -6 535 6201 l -6 -18 c 0 -12 c 6 -18 c 18 -12 c 30 -6 c 30 0 c 24 6 c 12 12 c
6 18 c 0 6 c -6 18 c -12 12 c -18 6 c -6 0 c -18 -6 c -12 -12 c -6 -18 c 0 -6 c 6 -18 c 12 -12 c 18 -6 c 84 84 547 6249 l
84 -84 547 6333 l -6 12 541 6393 l -18 18 c 126 0 c 6 -18 517 6531 l 18 -12 c 30 -6 c 18 0 c 30 6 c 18 12 c 6 18 c 0 12 c -6 18 c
-18 12 c -30 6 c -18 0 c -30 -6 c -18 -12 c -6 -18 c 0 -12 c 63 -45 453 6656 l 0 67 c 94 0 453 6656 l
4 1 780 790 l 5 0 c 4 -1 c 4 -1 c 5 0 c 4 1 c 4 -1 c 5 0 c 4 0 c 5 0 c 4 1 c 4 1 c 5 6 c 4 6 c 4 0 c 5 -2 c 4 -6 c 5 0 c 4 11 c
4 36 c 5 70 c 4 11 c 4 -11 c 5 -54 c 4 -59 c 5 -7 c 4 -1 c 4 -1 c 5 0 c 4 1 c 4 1 c 5 3 c 4 2 c 5 1 c 4 6 c 4 17 c 5 61 c 4 71 c
4 31 c 5 81 c 4 16 c 4 -44 c 5 -44 c 4 -125 c 5 -61 c 4 3 c 4 0 c 5 -6 c 4 -5 c 4 -4 c 5 1 c 4 2 c 5 4 c 4 6 c 4 12 c 5 68 c 4 182 c
4 727 c 5 812 c 4 -1 c 5 -314 c 4 -966 c 4 -480 c 5 -44 c 4 -2 c 4 -1 c 5 2 c 4 17 c 5 67 c 4 210 c 4 522 c 5 127 c 4 -86 c 4 -362 c
5 -431 c 4 -67 c 4 -4 c 5 -1 c 4 -1 c 5 -1 c 4 1 c 4 1 c 5 6 c 4 -21 c 5 20 1151 780 l 4 -6 c 5 -2 c 4 0 c 4 0 c 5 0 c 4 1 c 4 2 c
5 2 c 4 3 c 5 1 c 4 -2 c 4 -2 c 5 -5 c 4 -1 c 4 0 c 5 3 c 4 3 c 5 0 c 4 0 c 4 -2 c 5 0 c 4 0 c 4 2 c 5 0 c 4 -1 c 4 -3 c 5 -2 c
4 -1 c 5 0 c 4 1 c 4 0 c 5 0 c 4 1 c 4 0 c 5 0 c 4 -1 c 5 0 c 4 0 c 4 1 c 5 0 c 4 0 c 4 2 c 5 2 c 4 1 c 5 1 c 4 -3 c 4 -3 c 5 -1 c
4 -1 c 4 1 c 5 0 c 4 0 c 5 0 c 4 0 c 4 0 c 5 0 c 4 1 c 4 0 c 5 0 c 4 0 c 4 0 c 5 -1 c 4 -1 c 5 0 c 4 0 c 4 1 c 5 -1 c 4 0 c 4 0 c
5 1 c 4 4 c 5 9 c 4 4 c 4 -1 c 5 -3 c 4 -5 c 4 17 c 5 12 c 4 -1 c 5 -8 c 4 -21 c 4 -7 c 5 -1 c 4 0 c 4 0 c 5 0 c 4 1 c 4 0 c 5 0 c
4 0 c 5 1 c 4 3 c 4 2 c 5 -1 c 4 -1 c 4 -3 c 5 -1 c 4 0 c 5 0 c 4 0 c 4 0 c 5 0 c 4 0 c 4 1 c 5 3 c 4 1 c 5 0 c 4 -1 c 4 -3 c 5 -1 c
4 0 c 4 0 c 5 0 c 4 2 c 5 6 c 4 11 c 4 3 c 5 -2 c 4 -8 c 4 -6 c 5 4 c 4 3 c 4 0 c 5 -4 c 4 -5 c 5 -2 c 4 1 c 4 0 c 5 0 c 4 0 c 4 1 c
5 0 c 4 1 c 5 0 c 4 0 c 4 1 c 5 1 c 4 2 c 4 2 c 5 1 c 4 1 c 5 1 c 4 1 c 4 3 c 5 3 c 4 3 c 4 9 c 5 9 c 4 13 c 5 28 c 4 56 c 4 232 c
5 958 c 4 3658 c 4 1033 c 5 9 c 4 -6 c 4 -1153 c 5 -3754 c 4 -784 c 5 -164 c 4 -68 c 4 -33 c 5 -18 c 4 -12 c 4 -9 c 5 -2 c 4 2 c
5 11 c 4 7 c 4 7 c 5 5 c 4 -7 c 4 -7 c 5 -14 c 4 -17 c 5 -4 c 4 0 c 4 0 c 5 0 c 4 0 c 4 -2 c 5 -1 c 4 0 c 5 1 c 4 1 c 4 0 c 5 -1 c
4 -2 c 4 -1 c 5 0 c 4 -1 c 4 0 c 5 0 c 4 1 c 5 -1 c 4 1 c 4 -1 c 5 0 c 4 0 c 4 3 c 5 15 c 4 34 c 5 7 c 4 -3 c 4 -28 c 5 -26 c 4 -3 c
4 1 c 5 1 c 4 1 c 5 -1 c 4 -1 c 4 -1 c 5 -1 c 4 1 c 4 2 c 5 1 c 4 -1 c 5 -1 c 4 -1 c 4 1 c 5 3 c 4 0 c 4 1 c 5 1 c 4 4 c 4 1 c
5 -1 c 4 -5 c 5 -5 c 4 0 c 4 0 c 5 0 c 4 -1 c 4 0 c 5 0 c 4 0 c 5 0 c 4 0 c 4 -1 c 5 0 c 4 0 c 4 0 c 5 0 c 4 1 c 5 0 c 4 1 c 4 1 c
5 0 c 4 -1 c 4 -2 c 5 0 c 4 1 c 4 1 c 5 6 c 4 7 c 5 0 c 4 -2 c 4 -6 c 5 -4 c 4 1 c 4 1 c 5 0 c 4 -2 c 5 -1 c 4 0 c 4 -1 c 5 0 c
4 0 c 4 -1 c 5 1 c 4 1 c 5 0 c 4 -1 c 4 0 c 5 1 c 4 5 c 4 2 c 5 0 c 4 -2 c 5 -4 c 4 0 c 4 2 c 5 0 c 4 -1 c 4 -1 c 5 -1 c 4 1 c
4 16 c 5 18 c 4 1 c 5 -3 c 4 -20 c 4 -13 c 5 -1 c 4 1 c 4 -1 c 5 0 c 4 0 c 5 0 c 4 1 c 4 1 c 5 1 c 4 2 c 4 15 c 5 107 c 4 456 c
5 273 c 4 12 c 4 -180 c 5 -517 c 4 -152 c 4 -9 c 5 -2 c 4 -2 c 5 -2 c 4 -1 c 4 0 c 5 0 c 4 1 c 4 2 c 5 0 c 4 -1 c 4 -2 c 5 -2 c
4 3 c 5 1 c 4 0 c 4 -2 c 5 -2 c 4 2 c 4 2 c 5 0 c 4 0 c 5 -3 c 4 0 c 4 -1 c 5 0 c 4 1 c 4 2 c 5 1 c 4 0 c 5 -1 c 4 -2 c 4 0 c 5 1 c
4 1 c 4 0 c 5 0 c 4 -1 c 5 0 c 4 1 c 4 2 c 5 4 c 4 1 c 4 -1 c 5 -2 c 4 9 c 4 24 c 5 4 c 4 -2 c 5 -18 c 4 -20 c 4 -2 c 5 -1 c 4 0 c
4 0 c 5 0 c 4 -1 c 5 0 c 4 1 c 4 2 c 5 2 c 4 0 c 4 -1 c 5 -1 c 4 -1 c 5 1 c 4 4 c 4 9 c 5 11 c 4 -1 c 4 -4 c 5 -9 c 4 -6 c 4 4 c
5 30 c 4 307 c 5 971 c 4 359 c 4 -8 c 5 -498 c 4 -956 c 4 -189 c 5 -16 c 4 1 c 5 2 c 4 -1 c 4 -2 c 5 -4 c 4 -2 c 4 5 c 5 68 c
4 178 c 5 68 c 4 -4 c 4 -104 c 5 -173 c 4 -37 c 4 3 c 5 49 c 4 230 c 5 144 c 4 22 c 4 -87 c 5 -262 c 4 -73 c 4 57 c 5 18 c 4 -1 c
4 -34 c 5 -59 c 4 -11 c 5 -1 c 4 0 c 4 0 c 5 0 c 4 0 c 4 1 c 5 1 c 4 1 c 5 0 c 4 -1 c 4 0 c 5 -2 c 4 0 c 4 0 c 5 -1 c 4 -1 c 5 1 c
4 0 c 4 1 c 5 0 c 4 2 c 4 3 c 5 3 c 4 0 c 5 -1 c 4 -3 c 4 1 c 5 40 c 4 294 c 4 332 c 5 62 c 4 -62 c 4 -391 c 5 -247 c 4 -26 c 5 -1 c
4 -1 c 4 -3 c 5 -2 c 4 0 c 4 0 c 5 -1 c 4 0 c 5 0 c 4 0 c 4 0 c 5 0 c 4 0 c 4 0 c 5 0 c 4 1 c 5 1 c 4 1 c 4 -1 c 5 -1 c 4 -1 c 4 0 c
5 0 c 4 0 c 5 0 c 4 1 c 4 2 c 5 2 c 4 8 c 4 4 c 5 -1 c 4 -2 c 4 -9 c 5 -4 c 4 0 c 5 0 c 4 1 c 4 7 c 5 7 c 4 1 c 4 0 c 5 -7 c 4 -6 c
5 0 c 4 2 c 4 17 c 5 217 c 4 495 c 4 166 c 5 -24 c 4 -335 c 5 -444 c 4 -88 c 4 -4 c 5 -1 c 4 -1 c 4 -1 c 5 -1 c 4 -1 c 5 -1 c 4 0 c
4 1 c 5 0 c 4 1 c 4 0 c 5 0 c 4 -1 c 4 0 c 5 -1 c 4 0 c 5 1 c 4 2 c 4 4 c 5 3 c 4 4 c 4 15 c 5 6 c 4 -2 c 5 -8 c 4 -18 c 4 -6 c
5 -1 c 4 0 c 4 3 c 5 0 c 4 1 c 5 0 c 4 0 c 4 -1 c 5 -1 c 4 -1 c 4 -1 c 5 1 c 4 0 c 4 -1 c 5 1 c 4 -1 c 5 0 c 4 1 c 4 1 c 5 0 c 4 0 c
4 0 c 5 1 c 4 2 c 5 0 c 4 0 c 4 -2 c 5 -1 c 4 0 c 4 0 c 5 0 c 4 -1 c 5 0 c 4 -1 c 4 1 c 5 1 c 4 2 c 4 3 c 5 17 c 4 14 c 5 0 c 4 -3 c
4 -20 c 5 -11 c 4 0 c 4 1 c 5 1 c 4 -1 c 4 -1 c 5 -2 c 4 0 c 5 1 c 4 1 c 4 4 c 5 2 c 4 5 c 4 29 c 5 22 c 4 3 c 5 -8 c 4 -34 c
4 -20 c 5 -3 c 4 1 c 4 1 c 5 1 c 4 2 c 5 2 c 4 2 c 4 3 c 5 3 c 4 7 c 4 27 c 5 219 c 4 2064 c 5 2579 c 4 685 c 4 -315 c 5 -2661 c
4 -2228 c 4 -345 c 5 -22 c 4 -6 c 4 -5 c 5 -1 c 4 -2 c 5 -2 c 4 -3 c 4 -1 c 5 -1 c 4 0 c 4 0 c 5 -1 c 4 -1 c 5 -2 c 4 -1 c 4 0 c
5 0 c 4 -1 c 4 0 c 5 0 c 4 0 c 5 0 c 4 0 c 4 0 c 5 0 c 4 1 c 4 2 c 5 2 c 4 2 c 5 0 c 4 -1 c 4 -2 c 5 -2 c 4 0 c 4 1 c 5 0 c 4 2 c
4 1 c 5 -1 c 4 1 c 5 0 c 4 4 c 4 12 c 5 8 c 4 42 c 4 43 c 5 -3 c 4 -9 c 5 -52 c 4 -45 c 4 -6 c 5 0 c 4 1 c 4 1 c 5 1 c 4 1 c 5 -2 c
4 -1 c 4 1 c 5 5 c 4 6 c 4 14 c 5 9 c 4 16 c 5 193 c 4 368 c 4 147 c 5 26 c 4 -271 c 4 -359 c 5 -94 c 4 -37 c 4 7 c 5 11 c 4 3 c
5 -9 c 4 -23 c 4 -9 c 5 9 c 4 7 c 4 -1 c 5 -3 c 4 -10 c 5 -4 c 4 2 c 4 2 c 5 0 c 4 -3 c 4 -2 c 5 -2 c 4 3 c 5 12 c 4 30 c 4 17 c
5 -1 c 4 -16 c 4 -30 c 5 -13 c 4 -3 c 4 -1 c 5 0 c 4 1 c 5 0 c 4 0 c 4 1 c 5 1 c 4 0 c 4 -1 c 5 -1 c 4 -1 c 5 0 c 4 0 c 4 1 c 5 1 c
4 0 c 4 1 c 5 0 c 4 -1 c 5 0 c 4 0 c 4 0 c 5 0 c 4 1 c 4 1 c 5 2 c 4 0 c 5 1 c 4 1 c 4 3 c 5 17 c 4 34 c 4 11 c 5 -2 c 4 -22 c
4 -29 c 5 -9 c 4 -1 c 5 -4 c 4 -4 c 4 0 c 5 2 c 4 9 c 4 9 c 5 2 c 4 -3 c 5 -9 c 4 -9 c 4 -2 c 5 0 c 4 0 c 4 0 c 5 0 c 4 2 c 5 4 c
4 8 c 4 4 c 5 -1 c 4 -5 c 4 -8 c 5 -4 c 4 -1 c 5 0 c 4 1 c 4 2 c 5 2 c 4 -1 c 4 1 c 5 -2 c 4 -1 c 4 0 c 5 1 c 4 0 c 5 0 c 4 0 c
4 -1 c 5 0 c 4 0 c 4 -1 c 5 0 c 4 1 c 5 1 c 4 1 c 4 1 c 5 0 c 4 0 c 4 0 c 5 1 c 4 0 c 5 1 c 4 29 c 4 68 c 5 34 c 4 -2 c 4 -29 c
5 -58 c 4 -8 c 5 4 c 4 -2 c 4 -17 c 5 -11 c 4 16 c 4 170 c 5 691 c 4 511 c 4 72 c 5 -223 c 4 -769 c 5 -397 c 4 -74 c 4 -4 c 5 -2 c
4 -1 c 4 0 c 5 -1 c 4 -1 c 5 -1 c 4 3 c 4 10 c 5 15 c 4 13 c 4 5 c 5 -9 c 4 -13 c 5 -14 c 4 -7 c 4 -3 c 5 1 c 4 5 c 4 9 c 5 5 c
4 0 c 5 -6 c 4 -9 c 4 -4 c 5 -1 c 4 -1 c 4 0 c 5 -1 c 4 0 c 4 1 c 5 0 c 4 -1 c 5 0 c 4 0 c 4 1 c 5 3 c 4 3 c 4 3 c 5 0 c 4 4 c
5 25 c 4 63 c 4 -115 c 5 172 c 4 -27 c 4 -68 c 5 -46 c 4 -11 c 5 -2 c 4 -2 c 4 0 c 5 0 c 4 -1 c 4 0 c 5 2 c 4 7 c 4 3 c 5 1 c 4 -3 c
5 -8 c 4 -4 c 4 0 c 5 1 c 4 -1 c 4 1 c 5 0 c 4 0 c 5 1 c 4 7 c 4 7 c 5 2 c 4 0 c 4 4 c 5 98 c 4 170 c 5 88 c 4 4 c 4 -115 c 5 -179 c
4 -71 c 4 -3 c 5 -3 c 4 -3 c 5 -2 c 4 -2 c 4 0 c 5 -2 c 4 -2 c 4 1 c 5 0 c 4 1 c 4 1 c 5 0 c 4 1 c 5 0 c 4 1 c 4 5 c 5 17 c 4 11 c
4 1 c 5 -7 c 4 -18 c 5 -10 c 4 -2 c 4 4 c 5 6 c 4 3 c 4 -1 c 5 -5 c 4 -6 c 5 -2 c 4 0 c 4 2 c 5 3 c 4 2 c 4 1 c 5 -3 c 4 -2 c 5 -1 c
4 0 c 4 1 c 5 1 c 4 -1 c 4 0 c 5 -1 c 4 0 c 4 1 c 5 0 c 4 0 c 5 -1 c 4 -1 c 4 -2 c 5 1 c 4 1 c 4 0 c 5 1 c 4 1 c 5 2 c 4 6 c 4 8 c
5 3 c 4 -3 c 4 -5 c 5 -9 c 4 -3 c 5 0 c 4 0 c 4 1 c 5 14 c 4 34 c 4 20 c 5 5 c 4 -11 c 5 -14 c 4 4 c 4 4 c 5 -6 c 4 -14 c 4 19 c
5 337 c 4 946 c 4 570 c 5 96 c 4 -395 c 5 -1026 c 4 -487 c 4 -85 c 5 -5 c 4 -2 c 4 0 c 5 6 c 4 43 c 5 49 c 4 16 c 4 -4 c 5 -53 c
4 -47 c 4 -14 c 5 -1 c 4 -1 c 5 0 c 4 0 c 4 1 c 5 1 c 4 1 c 4 0 c 5 -2 c 4 0 c 4 -1 c 5 -1 c 4 0 c 5 1 c 4 0 c 4 -1 c 5 -1 c 4 1 c
4 -1 c 5 1 c 4 2 c 5 0 c 4 1 c 4 0 c 5 1 c 4 0 c 4 -1 c 5 -1 c 4 -1 c 5 -2 c 4 -13 c 4 13 c 5 0 c 4 0 c 4 0 c 5 1 c 4 1 c 5 4 c
4 3 c 4 1 c 5 -1 c 4 -4 c 4 -3 c 5 1 c 4 4 c 4 25 c 5 31 c 4 9 c 5 -4 c 4 -30 c 4 -27 c 5 -6 c 4 1 c 4 0 c 5 1 c 4 -1 c 5 -1 c 4 0 c
4 -1 c 5 -1 c 4 0 c 4 2 c 5 3 c 4 2 c 5 1 c 4 1 c 4 -1 c 5 2 c 4 2 c 4 4 c 5 10 c 4 72 c 5 647 c 4 1259 c 4 621 c 5 247 c 4 -512 c
4 -1157 c 5 -600 c 4 -325 c 4 -205 c 5 -52 c 4 1 c 5 -1 c 4 -1 c 4 -4 c 5 -4 c 4 -1 c 4 -2 c 5 -2 c 4 -4 c 5 -1 c 4 0 c 4 1 c 5 0 c
4 0 c 4 -1 c 5 -1 c 4 -1 c 5 0 c 4 0 c 4 0 c 5 0 c 4 0 c 4 0 c 5 0 c 4 0 c 5 5 c 4 27 c 4 33 c 5 14 c 4 -4 c 4 -35 c 5 -28 c 4 -7 c
4 5 c 5 66 c 4 298 c 5 287 c 4 119 c 4 -33 c 5 -338 c 4 -261 c 4 -102 c 5 -35 c 4 -1 c 5 8 c 4 4 c 4 2 c 5 6 c 4 73 c 4 86 c 5 34 c
4 -8 c 5 -88 c 4 -94 c 4 -29 c 5 -1 c 4 4 c 4 32 c 5 43 c 4 16 c 5 -3 c 4 -18 c 4 32 c 5 48 c 4 24 c 4 39 c 5 196 c 4 240 c 4 67 c
5 -60 c 4 -283 c 5 -279 c 4 -91 c 4 -5 c 5 8 c 4 6 c 4 1 c 5 -3 c 4 -10 c 5 -7 c 4 0 c 4 0 c 5 1 c 4 0 c 4 -1 c 5 0 c 4 -1 c 5 0 c
4 0 c 4 3 c 5 0 c 4 1 c 4 -1 c 5 0 c 4 0 c 4 -1 c 5 0 c 4 -1 c 5 -1 c 4 1 c 4 0 c 5 2 c 4 1 c 4 -1 c 5 0 c 4 -1 c 5 -1 c 4 -1 c
4 1 c 5 2 c 4 5 c 4 3 c 5 4 c 4 3 c 5 -2 c 4 -4 c 4 -3 c 5 -4 c 4 -2 c 4 1 c 5 2 c 4 3 c 5 2 c 4 0 c 4 -1 c 5 -2 c 4 -1 c 4 1 c
5 1 c 4 1 c 4 2 c 5 2 c 4 0 c 5 4 c 4 6 c 4 4 c 5 7 c 4 4 c 4 7 c 5 25 c 4 75 c 5 1006 c 4 4808 c 4 71 c 5 6 c 4 -16 c 4 -712 c
5 -4149 c 4 -1031 c 5 -57 c 4 -17 c 4 -6 c 5 -10 c 4 -7 c 4 -47 c 5 48 c 4 -2 c 5 -4 c 4 -6 c 4 -2 c 5 -2 c 4 -2 c 4 0 c 5 8 c
4 13 c 4 22 c 5 45 c 4 355 c 5 1034 c 4 559 c 4 147 c 5 310 c 4 156 c 4 -152 c 5 -125 c 4 -778 c 5 -1197 c 4 -350 c 4 -39 c 5 -4 c
4 -4 c 4 -1 c 5 0 c 4 8 c 5 50 c 4 56 c 4 19 c 5 -9 c 4 -49 c 4 -65 c 5 -16 c 4 1 c 5 1 c 4 -1 c 4 0 c 5 -1 c 4 3 c 4 2 c 5 0 c
4 -3 c 4 -4 c 5 -4 c 4 0 c 5 0 c 4 -1 c 4 0 c 5 0 c 4 0 c 4 0 c 5 1 c 4 -1 c 5 1 c 4 -1 c 4 0 c 5 1 c 4 1 c 4 1 c 5 0 c 4 -1 c
5 -1 c 4 -1 c 4 4 c 5 16 c 4 13 c 4 4 c 5 -4 c 4 -12 c 5 -7 c 4 -2 c 4 0 c 5 -4 c 4 -5 c 4 -2 c 5 -1 c 4 -1 c 4 0 c 5 0 c 4 0 c
5 1 c 4 4 c 4 3 c 5 0 c 4 0 c 4 -5 c 5 -3 c 4 2 c 5 5 c 4 2 c 4 0 c 5 -2 c 4 -3 c 4 1 c 5 1 c 4 0 c 5 -1 c 4 -2 c 4 -3 c 5 -1 c
4 0 c 4 -1 c 5 0 c 4 1 c 4 0 c 5 1 c 4 0 c 5 0 c 4 1 c 4 -1 c 5 0 c 4 1 c 4 19 c 5 42 c 4 32 c 5 12 c 4 -11 c 4 -42 c 5 -31 c
4 -13 c 4 -6 c 5 -2 c 4 -2 c 5 0 c 4 0 c 4 0 c 5 1 c 4 1 c 4 4 c 5 24 c 4 46 c 5 18 c 4 1 c 4 -25 c 5 -46 c 4 -20 c 4 -1 c 5 -1 c
4 -1 c 4 5 c 5 14 c 4 7 c 5 1 c 4 -4 c 4 -14 c 5 -7 c 4 -1 c 4 0 c 5 1 c 4 1 c 5 1 c 4 2 c 4 3 c 5 0 c 4 2 c 4 -1 c 5 0 c 4 12 c
5 26 c 4 16 c 4 0 c 5 -11 c 4 -32 c 4 -17 c 5 -3 c 4 0 c 5 0 c 4 0 c 4 1 c 5 0 c 4 1 c 4 11 c 5 117 c 4 235 c 4 106 c 5 -8 c
4 -101 c 5 -244 c 4 -103 c 4 -9 c 5 -3 c 4 -1 c 4 -2 c 5 -1 c 4 0 c 5 1 c 4 5 c 4 6 c 5 1 c 4 -1 c 4 -4 c 5 -1 c 4 24 c 5 43 c
4 13 c 4 -4 c 5 -24 c 4 -45 c 4 -8 c 5 5 c 4 2 c 5 1 c 4 -2 c 4 -3 c 5 -1 c 4 0 c 4 -3 c 5 -2 c 4 0 c 4 -1 c 5 0 c 4 0 c 5 2 c 4 2 c
4 3 c 5 2 c 4 -1 c 4 -1 c 5 -3 c 4 -3 c 5 -2 c 4 0 c 4 1 c 5 0 c 4 1 c 4 2 c 5 5 c 4 6 c 5 2 c 4 3 c 4 -3 c 5 -4 c 4 -1 c 4 -3 c
5 1 c 4 1 c 5 2 c 4 3 c 4 10 c 5 29 c 4 267 c 4 1070 c 5 894 c 4 231 c 4 -205 c 5 -1026 c 4 -972 c 5 -236 c 4 -48 c 4 -3 c 5 2 c
4 6 c 4 0 c 5 -5 c 4 -10 c 5 -7 c 4 3 c 4 2 c 5 0 c 4 0 c 4 -6 c 5 -4 c 4 2 c 5 -3 c 4 -2 c 4 0 c 5 -2 c 4 1 c 4 6 c 5 16 c 4 13 c
4 5 c 5 3 c 4 9 c 5 52 c 4 54 c 4 9 c 5 -8 c 4 -60 c 4 -62 c 5 -21 c 4 -2 c 5 -1 c 4 0 c 4 0 c 5 1 c 4 3 c 4 4 c 5 7 c 4 6 c 5 10 c
4 18 c 4 72 c 5 1007 c 4 4851 c 4 45 c 5 -5 c 4 -8 c 5 -1620 c 4 -3742 c 4 -577 c 5 -38 c 4 -13 c 4 -6 c 5 -4 c 4 -2 c 4 -2 c 5 -4 c
4 -4 c 5 5 c 4 11 c 4 1 c 5 -1 c 4 -7 c 4 -8 c 5 31 c 4 30 c 5 4 c 4 -1 c 4 -36 c 5 -33 c 4 -4 c 4 -2 c 5 3 c 4 2 c 5 2 c 4 2 c
4 -1 c 5 -3 c 4 -1 c 4 -2 c 5 -2 c 4 0 c 5 -2 c 4 1 c 4 30 c 5 60 c 4 10 c 4 0 c 5 -23 c 4 -59 c 4 -17 c 5 2 c 4 -1 c 5 10 c 4 93 c
4 230 c 5 90 c 4 20 c 4 83 c 5 897 c 4 1070 c 5 217 c 4 -94 c 4 -1035 c 5 -1336 c 4 -211 c 4 -16 c 5 -6 c 4 -3 c 5 -3 c 4 -2 c
4 -1 c 5 2 c 4 9 c 4 122 c 5 432 c 4 220 c 5 6 c 4 -110 c 4 -418 c 5 -235 c 4 -30 c 4 -3 c 5 -1 c 4 -1 c 4 8 c 5 5 c 4 1 c 5 0 c
4 -4 c 4 -4 c 5 -2 c 4 0 c 4 -4 c 5 -3 c 4 -1 c 5 -1 c 4 0 c 4 0 c 5 1 c 4 7 c 4 7 c 5 3 c 4 0 c 5 -7 c 4 -8 c 4 -2 c 5 -1 c 4 0 c
4 0 c 5 1 c 4 0 c 4 -1 c 5 0 c 4 0 c 5 0 c 4 0 c 4 3 c 5 4 c 4 2 c 4 0 c 5 -3 c 4 -5 c 5 1 c 4 4 c 4 1 c 5 0 c 4 0 c 4 -5 c 5 -1 c
4 0 c 5 0 c 4 2 c 4 28 c 5 107 c 4 53 c 4 1 c 5 -19 c 4 -101 c 5 -36 c 4 153 c 4 114 c 5 15 c 4 -15 c 4 -144 c 5 -131 c 4 -15 c
4 -1 c 5 -2 c 4 -5 c 5 -4 c 4 -1 c 4 0 c 5 1 c 4 1 c 4 0 c 5 0 c 4 -1 c 5 -1 c 4 0 c 4 0 c 5 1 c 4 1 c 4 -1 c 5 2 c 4 6 c 5 3 c
4 1 c 4 -2 c 5 -6 c 4 -4 c 4 0 c 5 0 c 4 0 c 5 0 c 4 2 c 4 -1 c 5 1 c 4 7 c 4 8 c 5 1 c 4 1 c 4 0 c 5 -7 c 4 -4 c 5 -2 c 4 -4 c
4 -3 c 5 1 c 4 0 c 4 1 c 5 0 c 4 -1 c 5 -1 c 4 -1 c 4 -2 c 5 1 c 4 0 c 4 1 c 5 1 c 4 0 c 5 1 c 4 -1 c 4 0 c 5 -1 c 4 -1 c 4 0 c
5 0 c 4 -1 c 5 1 c 4 0 c 4 -1 c 5 1 c 4 0 c 4 0 c 5 1 c 4 1 c 4 1 c 5 1 c 4 0 c 5 4 c 4 24 c 4 26 c 5 6 c 4 -3 c 4 -19 c 5 -26 c
4 -2 c 5 0 c 4 -1 c 4 -3 c 5 -4 c 4 1 c 4 1 c 5 -1 c 4 -1 c 5 -4 c 4 -1 c 4 0 c 5 1 c 4 6 c 4 11 c 5 1 c 4 1 c 5 -1 c 4 4 c 4 9 c
5 1 c 4 -2 c 4 -12 c 5 -12 c 4 -4 c 4 -2 c 5 -1 c 4 0 c 5 0 c 4 1 c 4 3 c 5 1 c 4 11 c 4 14 c 5 1 c 4 -2 c 5 -6 c 4 -19 c 4 -3 c
5 0 c 4 0 c 4 1 c 5 1 c 4 5 c 5 52 c 4 227 c 4 132 c 5 77 c 4 199 c 4 -105 c 5 -148 c 4 -63 c 4 -232 c 5 -133 c 4 -9 c 5 -1 c 4 0 c
4 -1 c 5 4 c 4 41 c 4 69 c 5 12 c 4 -4 c 5 -32 c 4 -74 c 4 -15 c 5 -1 c 4 0 c 4 -1 c 5 -1 c 4 1 c 5 0 c 4 -1 c 4 -1 c 5 0 c 4 0 c
4 -1 c 5 0 c 4 0 c 5 0 c 4 1 c 4 0 c 5 0 c 4 0 c 4 -1 c 5 -1 c 4 0 c 4 0 c 5 0 c 4 1 c 5 2 c 4 5 c 4 7 c 5 3 c 4 0 c 4 -3 c 5 -8 c
4 -4 c 5 0 c 4 1 c 4 1 c 5 2 c 4 1 c 4 1 c 5 -1 c 4 -3 c 5 -2 c 4 0 c 4 -2 c 5 0 c 4 0 c 4 0 c 5 1 c 4 -1 c 5 1 c 4 -1 c 4 0 c
5 -1 c 4 4 c 4 11 c 5 5 c 4 0 c 4 -2 c 5 -8 c 4 -5 c 5 4 c 4 5 c 4 0 c 5 -2 c 4 -4 c 4 -6 c 5 -1 c 4 1 c 5 1 c 4 12 c 4 23 c 5 8 c
4 0 c 4 -7 c 5 -23 c 4 -6 c 5 2 c 4 9 c 4 102 c 5 216 c 4 51 c 4 -2 c
5 -68 c 4 -228 c 5 -86 c 4 -3 c 4 -14 c 4 12 9549 780 l 4 0 c 5 1 c 4 0 c 4 0 c 5 1 c 4 1 c 5 0 c 4 3 c 4 11 c 5 13 c 4 4 c 4 0 c
5 -10 c 4 -14 c 5 -6 c 4 -4 c 4 0 c 5 -1 c 4 1 c 4 -1 c 5 0 c 4 0 c 5 0 c 4 1 c 4 1 c 5 0 c 4 0 c 4 1 c 5 3 c 4 2 c 5 0 c 4 -2 c
4 -3 c 5 -3 c 4 0 c 4 1 c 5 2 c 4 2 c
0 -126 3030 418 l 54 0 3030 418 l 18 -6 c 6 -6 c 6 -12 c 0 -12 c -6 -12 c -6 -6 c -18 -6 c -54 0 c 42 -66 3072 358 l
-12 -6 3180 376 l -12 -12 c -6 -18 c 0 -12 c 6 -18 c 12 -12 c 12 -6 c 18 0 c 12 6 c 12 12 c 6 18 c 0 12 c -6 18 c -12 12 c -12 6 c
-18 0 c 24 -84 3264 376 l -24 -84 3312 376 l 24 -84 3312 376 l -24 -84 3360 376 l 108 0 3402 364 l 108 0 3402 328 l 12 6 3666 394 l
18 18 c 0 -126 c -6 -18 3846 376 l -12 -12 c -18 -6 c -6 0 c -18 6 c -12 12 c -6 18 c 0 6 c 6 18 c 12 12 c 18 6 c 6 0 c 18 -6 c
12 -12 c 6 -24 c 0 -30 c -6 -30 c -12 -18 c -18 -6 c -12 0 c -18 6 c -6 12 c 12 6 4290 394 l 18 18 c 0 -126 c -6 -6 4404 376 l
6 -6 c 6 6 c -6 6 c -6 -6 4404 304 l 6 -6 c 6 6 c -6 6 c -48 -126 4584 418 l 48 -126 4584 418 l 60 0 4554 334 l 0 -84 4662 376 l
6 18 4662 340 l 12 12 c 12 6 c 18 0 c -12 12 4806 358 l -12 6 c -18 0 c -12 -6 c -12 -12 c -6 -18 c 0 -12 c 6 -18 c 12 -12 c 12 -6 c
18 0 c 12 6 c 12 12 c 108 0 4848 346 l -18 -6 5034 418 l -12 -18 c -6 -30 c 0 -18 c 6 -30 c 12 -18 c 18 -6 c 12 0 c 18 6 c 12 18 c
6 30 c 0 18 c -6 30 c -12 18 c -18 6 c -12 0 c 66 0 5130 418 l -36 -48 c 18 0 c 12 -6 c 6 -6 c 6 -18 c 0 -12 c -6 -18 c -12 -12 c
-18 -6 c -18 0 c -18 6 c -6 6 c -6 12 c -59 0 5309 418 l -6 -54 c 6 6 c 17 6 c 18 0 c 18 -6 c 12 -12 c 6 -18 c 0 -12 c -6 -18 c
-12 -12 c -18 -6 c -18 0 c -17 6 c -6 6 c -6 12 c -6 -6 5369 304 l 6 -6 c 6 6 c -6 6 c -12 0 5459 418 l -12 -6 c -6 -18 c 0 -102 c
42 0 5411 376 l 6 -6 5489 418 l 6 6 c -6 6 c -6 -6 c 0 -84 5495 376 l 0 -102 5549 418 l 6 -18 c 12 -6 c 12 0 c 42 0 5531 376 l
-6 12 5675 358 l -18 6 c -18 0 c -18 -6 c -6 -12 c 6 -12 c 12 -6 c 30 -6 c 12 -6 c 6 -12 c 0 -6 c -6 -12 c -18 -6 c -18 0 c -18 6 c
-6 12 c 0 -192 6005 442 l 0 -192 6011 442 l 42 0 6005 442 l 42 0 6005 250 l 0 6 6089 388 l 6 12 c 6 6 c 12 6 c 24 0 c 12 -6 c 6 -6 c
6 -12 c 0 -12 c -6 -12 c -12 -18 c -60 -60 c 84 0 c -6 -6 6215 376 l 6 -6 c 6 6 c -6 6 c -6 -6 6215 304 l 6 -6 c 6 6 c -6 6 c
-48 -126 6395 418 l 48 -126 6395 418 l 60 0 6365 334 l 0 -84 6473 376 l 6 18 6473 340 l 12 12 c 12 6 c 18 0 c -12 12 6617 358 l
-12 6 c -18 0 c -12 -6 c -12 -12 c -6 -18 c 0 -12 c 6 -18 c 12 -12 c 12 -6 c 18 0 c 12 6 c 12 12 c 108 0 6659 346 l
-18 -6 6845 418 l -12 -18 c -6 -30 c 0 -18 c 6 -30 c 12 -18 c 18 -6 c 12 0 c 18 6 c 12 18 c 6 30 c 0 18 c -6 30 c -12 18 c -18 6 c
-12 0 c 66 0 6941 418 l -36 -48 c 18 0 c 12 -6 c 6 -6 c 6 -18 c 0 -12 c -6 -18 c -12 -12 c -18 -6 c -18 0 c -18 6 c -6 6 c -6 12 c
-6 12 7127 400 l -18 6 c -12 0 c -18 -6 c -12 -18 c -6 -30 c 0 -30 c 6 -24 c 12 -12 c 18 -6 c 6 0 c 18 6 c 12 12 c 6 18 c 0 6 c
-6 18 c -12 12 c -18 6 c -6 0 c -18 -6 c -12 -12 c -6 -18 c -6 -6 7181 304 l 6 -6 c 6 6 c -6 6 c -12 0 7271 418 l -12 -6 c -6 -18 c
0 -102 c 42 0 7223 376 l 6 -6 7301 418 l 6 6 c -6 6 c -6 -6 c 0 -84 7307 376 l 0 -102 7361 418 l 6 -18 c 12 -6 c 12 0 c
42 0 7343 376 l -6 12 7487 358 l -18 6 c -18 0 c -18 -6 c -6 -12 c 6 -12 c 12 -6 c 30 -6 c 12 -6 c 6 -12 c 0 -6 c -6 -12 c -18 -6 c
-18 0 c -18 6 c -6 12 c 0 -192 7559 442 l 0 -192 7565 442 l 42 0 7523 442 l 42 0 7523 250 l
0 -249 876 1360 l 53 -38 833 1470 l 0 57 c 79 0 833 1470 l -8 -4 844 1557 l -3 -11 c 0 -8 c 3 -11 c 12 -8 c 19 -4 c 19 0 c 15 4 c
7 8 c 4 11 c 0 4 c -4 11 c -7 8 c -12 4 c -3 0 c -12 -4 c -7 -8 c -4 -11 c 0 -4 c 4 -11 c 7 -8 c 12 -4 c 0 -38 833 1629 l 34 -4 c
-4 4 c -4 11 c 0 11 c 4 12 c 8 7 c 11 4 c 7 0 c 12 -4 c 7 -7 c 4 -12 c 0 -11 c -4 -11 c -3 -4 c -8 -4 c 3 -11 833 1681 l 12 -7 c
19 -4 c 11 0 c 19 4 c 11 7 c 4 11 c 0 8 c -4 11 c -11 8 c -19 4 c -11 0 c -19 -4 c -12 -8 c -3 -11 c 0 -8 c 3 -4 905 1742 l 4 4 c
-4 4 c -3 -4 c -4 0 852 1776 l -8 4 c -4 4 c -3 7 c 0 15 c 3 8 c 4 4 c 8 3 c 7 0 c 8 -3 c 11 -8 c 38 -38 c 0 53 c 0 42 833 1855 l
30 -23 c 0 12 c 4 7 c 4 4 c 11 4 c 7 0 c 12 -4 c 7 -8 c 4 -11 c 0 -11 c -4 -12 c -3 -3 c -8 -4 c 53 -38 833 1961 l 0 57 c
79 0 833 1961 l 0 -250 1041 3046 l 53 -38 997 3156 l 0 56 c 80 0 997 3156 l -8 -3 1009 3242 l -4 -12 c 0 -7 c 4 -12 c 12 -7 c
18 -4 c 19 0 c 15 4 c 8 7 c 4 12 c 0 4 c -4 11 c -8 7 c -11 4 c -4 0 c -11 -4 c -8 -7 c -3 -11 c 0 -4 c 3 -12 c 8 -7 c 11 -4 c
0 -38 997 3314 l 34 -3 c -3 3 c -4 12 c 0 11 c 4 11 c 7 8 c 12 4 c 7 0 c 11 -4 c 8 -8 c 4 -11 c 0 -11 c -4 -12 c -4 -3 c -7 -4 c
-4 7 1013 3356 l -12 12 c 80 0 c 4 -4 1069 3428 l 4 4 c -4 3 c -4 -3 c 0 -38 997 3503 l 34 -3 c -3 3 c -4 12 c 0 11 c 4 11 c 7 8 c
12 4 c 7 0 c 11 -4 c 8 -8 c 4 -11 c 0 -11 c -4 -12 c -4 -3 c -7 -4 c 0 -38 997 3579 l 34 -4 c -3 4 c -4 11 c 0 12 c 4 11 c 7 8 c
12 3 c 7 0 c 11 -3 c 8 -8 c 4 -11 c 0 -12 c -4 -11 c -4 -4 c -7 -4 c 0 -37 997 3654 l 34 -4 c -3 4 c -4 11 c 0 11 c 4 12 c 7 7 c
12 4 c 7 0 c 11 -4 c 8 -7 c 4 -12 c 0 -11 c -4 -11 c -4 -4 c -7 -4 c 0 -249 1498 1264 l 53 -38 1455 1374 l 0 57 c 79 0 1455 1374 l
-7 -4 1466 1461 l -4 -11 c 0 -8 c 4 -11 c 11 -8 c 19 -4 c 19 0 c 15 4 c 7 8 c 4 11 c 0 4 c -4 11 c -7 8 c -11 4 c -4 0 c -12 -4 c
-7 -8 c -4 -11 c 0 -4 c 4 -11 c 7 -8 c 12 -4 c 0 -38 1455 1533 l 34 -4 c -4 4 c -4 11 c 0 12 c 4 11 c 8 7 c 11 4 c 8 0 c 11 -4 c
7 -7 c 4 -11 c 0 -12 c -4 -11 c -3 -4 c -8 -4 c 0 -38 1455 1608 l 34 -3 c -4 3 c -4 12 c 0 11 c 4 11 c 8 8 c 11 4 c 8 0 c 11 -4 c
7 -8 c 4 -11 c 0 -11 c -4 -12 c -3 -3 c -8 -4 c 3 -4 1527 1646 l 4 4 c -4 4 c -3 -4 c -4 0 1474 1680 l -8 4 c -3 4 c -4 7 c 0 15 c
4 8 c 3 4 c 8 3 c 8 0 c 7 -3 c 11 -8 c 38 -38 c 0 53 c -4 8 1470 1763 l -11 11 c 79 0 c 0 42 1455 1835 l 30 -23 c 0 11 c 4 8 c 4 4 c
11 3 c 8 0 c 11 -3 c 7 -8 c 4 -11 c 0 -12 c -4 -11 c -3 -4 c -8 -4 c 0 -249 1838 7019 l 53 -38 1794 7129 l 0 57 c 79 0 1794 7129 l
-7 -4 1805 7216 l -4 -11 c 0 -8 c 4 -11 c 11 -8 c 19 -4 c 19 0 c 15 4 c 8 8 c 3 11 c 0 4 c -3 11 c -8 8 c -11 3 c -4 0 c -11 -3 c
-8 -8 c -4 -11 c 0 -4 c 4 -11 c 8 -8 c 11 -4 c 0 -37 1794 7287 l 34 -4 c -4 4 c -4 11 c 0 11 c 4 12 c 8 7 c 11 4 c 8 0 c 11 -4 c
8 -7 c 3 -12 c 0 -11 c -3 -11 c -4 -4 c -8 -4 c 79 -38 1794 7371 l 0 53 1794 7318 l 4 -4 1866 7401 l 3 4 c -3 4 c -4 -4 c
12 -4 1820 7480 l 7 -7 c 4 -11 c 0 -4 c -4 -12 c -7 -7 c -12 -4 c -3 0 c -12 4 c -7 7 c -4 12 c 0 4 c 4 11 c 7 7 c 15 4 c 19 0 c
19 -4 c 12 -7 c 3 -11 c 0 -8 c -3 -11 c -8 -4 c 4 -11 1794 7529 l 11 -8 c 19 -3 c 11 0 c 19 3 c 12 8 c 3 11 c 0 8 c -3 11 c -12 8 c
-19 4 c -11 0 c -19 -4 c -11 -8 c -4 -11 c 0 -8 c -4 7 1809 7594 l -11 11 c 79 0 c 0 -250 2048 1290 l 53 -38 2004 1400 l 0 57 c
80 0 2004 1400 l -8 -4 2016 1487 l -4 -12 c 0 -7 c 4 -11 c 12 -8 c 19 -4 c 18 0 c 16 4 c 7 8 c 4 11 c 0 4 c -4 11 c -7 8 c -12 3 c
-4 0 c -11 -3 c -7 -8 c -4 -11 c 0 -4 c 4 -11 c 7 -8 c 11 -4 c 0 -37 2004 1558 l 35 -4 c -4 4 c -4 11 c 0 11 c 4 12 c 7 7 c 12 4 c
7 0 c 12 -4 c 7 -7 c 4 -12 c 0 -11 c -4 -11 c -4 -4 c -7 -4 c 11 -4 2031 1638 l 8 -8 c 4 -11 c 0 -4 c -4 -11 c -8 -8 c -11 -3 c
-4 0 c -11 3 c -8 8 c -4 11 c 0 4 c 4 11 c 8 8 c 15 4 c 19 0 c 19 -4 c 11 -8 c 4 -11 c 0 -7 c -4 -12 c -7 -4 c 4 -4 2076 1672 l
4 4 c -4 4 c -4 -4 c 0 -37 2004 1747 l 35 -4 c -4 4 c -4 11 c 0 11 c 4 12 c 7 7 c 12 4 c 7 0 c 12 -4 c 7 -7 c 4 -12 c 0 -11 c
-4 -11 c -4 -4 c -7 -4 c 80 -38 2004 1831 l 0 53 2004 1778 l 4 -11 2004 1876 l 12 -8 c 19 -4 c 11 0 c 19 4 c 11 8 c 4 11 c 0 7 c
-4 12 c -11 7 c -19 4 c -11 0 c -19 -4 c -12 -7 c -4 -12 c 0 -7 c 0 -250 2151 1241 l 53 -38 2108 1351 l 0 57 c 79 0 2108 1351 l
-8 -4 2119 1438 l -3 -12 c 0 -7 c 3 -11 c 12 -8 c 19 -4 c 19 0 c 15 4 c 7 8 c 4 11 c 0 4 c -4 11 c -7 8 c -12 3 c -3 0 c -12 -3 c
-7 -8 c -4 -11 c 0 -4 c 4 -11 c 7 -8 c 12 -4 c -8 -4 2119 1513 l -3 -11 c 0 -7 c 3 -12 c 12 -7 c 19 -4 c 19 0 c 15 4 c 7 7 c 4 12 c
0 3 c -4 12 c -7 7 c -12 4 c -3 0 c -12 -4 c -7 -7 c -4 -12 c 0 -3 c 4 -12 c 7 -7 c 12 -4 c 3 -11 2108 1562 l 12 -8 c 19 -3 c 11 0 c
19 3 c 11 8 c 4 11 c 0 8 c -4 11 c -11 8 c -19 4 c -11 0 c -19 -4 c -12 -8 c -3 -11 c 0 -8 c 3 -4 2180 1623 l 4 4 c -4 4 c -3 -4 c
0 41 2108 1661 l 30 -23 c 0 12 c 4 7 c 4 4 c 11 4 c 7 0 c 12 -4 c 7 -7 c 4 -12 c 0 -11 c -4 -11 c -3 -4 c -8 -4 c 12 -4 2134 1778 l
7 -8 c 4 -11 c 0 -4 c -4 -11 c -7 -8 c -12 -3 c -4 0 c -11 3 c -8 8 c -3 11 c 0 4 c 3 11 c 8 8 c 15 4 c 19 0 c 19 -4 c 11 -8 c
4 -11 c 0 -7 c -4 -12 c -7 -4 c 53 -38 2108 1842 l 0 57 c 79 0 2108 1842 l 0 -250 2509 2097 l 52 -38 2466 2207 l 0 56 c
79 0 2466 2207 l -8 -4 2477 2294 l -3 -12 c 0 -7 c 3 -12 c 12 -7 c 19 -4 c 18 0 c 16 4 c 7 7 c 4 12 c 0 4 c -4 11 c -7 8 c -12 3 c
-4 0 c -11 -3 c -7 -8 c -4 -11 c 0 -4 c 4 -12 c 7 -7 c 11 -4 c -8 -4 2477 2369 l -3 -11 c 0 -8 c 3 -11 c 12 -7 c 19 -4 c 18 0 c
16 4 c 7 7 c 4 11 c 0 4 c -4 12 c -7 7 c -12 4 c -4 0 c -11 -4 c -7 -7 c -4 -12 c 0 -4 c 4 -11 c 7 -7 c 11 -4 c 0 42 2466 2403 l
30 -23 c 0 11 c 4 8 c 3 4 c 12 3 c 7 0 c 12 -3 c 7 -8 c 4 -11 c 0 -12 c -4 -11 c -4 -4 c -7 -3 c 4 -4 2537 2479 l 4 4 c -4 3 c
-4 -3 c -3 0 2484 2513 l -8 4 c -4 3 c -3 8 c 0 15 c 3 8 c 4 3 c 8 4 c 7 0 c 8 -4 c 11 -7 c 38 -38 c 0 53 c 3 -11 2466 2607 l
12 -8 c 19 -3 c 11 0 c 19 3 c 11 8 c 4 11 c 0 8 c -4 11 c -11 8 c -19 3 c -11 0 c -19 -3 c -12 -8 c -3 -11 c 0 -8 c 0 41 2466 2668 l
30 -22 c 0 11 c 4 7 c 3 4 c 12 4 c 7 0 c 12 -4 c 7 -7 c 4 -12 c 0 -11 c -4 -11 c -4 -4 c -7 -4 c 0 -250 2734 1274 l
53 -37 2691 1383 l 0 56 c 79 0 2691 1383 l -7 -3 2702 1470 l -4 -12 c 0 -7 c 4 -12 c 11 -7 c 19 -4 c 19 0 c 15 4 c 7 7 c 4 12 c
0 3 c -4 12 c -7 7 c -12 4 c -3 0 c -12 -4 c -7 -7 c -4 -12 c 0 -3 c 4 -12 c 7 -7 c 12 -4 c -7 -4 2702 1546 l -4 -11 c 0 -8 c
4 -11 c 11 -8 c 19 -3 c 19 0 c 15 3 c 7 8 c 4 11 c 0 4 c -4 11 c -7 8 c -12 4 c -3 0 c -12 -4 c -7 -8 c -4 -11 c 0 -4 c 4 -11 c
7 -8 c 12 -3 c 53 -38 2691 1610 l 0 57 c 79 0 2691 1610 l 3 -4 2763 1656 l 4 4 c -4 3 c -3 -3 c 12 -4 2717 1735 l 7 -7 c 4 -12 c
0 -4 c -4 -11 c -7 -7 c -12 -4 c -4 0 c -11 4 c -7 7 c -4 11 c 0 4 c 4 12 c 7 7 c 15 4 c 19 0 c 19 -4 c 11 -7 c 4 -12 c 0 -7 c
-4 -12 c -7 -3 c 79 -37 2691 1814 l 0 53 2691 1761 l 4 -12 2691 1860 l 11 -7 c 19 -4 c 11 0 c 19 4 c 11 7 c 4 12 c 0 7 c -4 12 c
-11 7 c -19 4 c -11 0 c -19 -4 c -11 -7 c -4 -12 c 0 -7 c 0 -249 2867 2907 l 53 -38 2823 3017 l 0 57 c 80 0 2823 3017 l
-8 -4 2835 3104 l -4 -11 c 0 -8 c 4 -11 c 11 -8 c 19 -4 c 19 0 c 15 4 c 8 8 c 4 11 c 0 4 c -4 11 c -8 8 c -11 4 c -4 0 c -11 -4 c
-8 -8 c -4 -11 c 0 -4 c 4 -11 c 8 -8 c 11 -4 c -8 -3 2835 3179 l -4 -12 c 0 -7 c 4 -12 c 11 -7 c 19 -4 c 19 0 c 15 4 c 8 7 c 4 12 c
0 4 c -4 11 c -8 7 c -11 4 c -4 0 c -11 -4 c -8 -7 c -4 -11 c 0 -4 c 4 -12 c 8 -7 c 11 -4 c -8 -4 2835 3255 l -4 -11 c 0 -8 c
4 -11 c 11 -8 c 19 -3 c 19 0 c 15 3 c 8 8 c 4 11 c 0 4 c -4 11 c -8 8 c -11 4 c -4 0 c -11 -4 c -8 -8 c -4 -11 c 0 -4 c 4 -11 c
8 -8 c 11 -3 c 4 -4 2895 3289 l 4 4 c -4 4 c -4 -4 c 4 -11 2823 3342 l 11 -8 c 19 -4 c 12 0 c 18 4 c 12 8 c 4 11 c 0 7 c -4 12 c
-12 7 c -18 4 c -12 0 c -19 -4 c -11 -7 c -4 -12 c 0 -7 c 4 -12 2823 3418 l 11 -7 c 19 -4 c 12 0 c 18 4 c 12 7 c 4 12 c 0 7 c
-4 11 c -12 8 c -18 4 c -12 0 c -19 -4 c -11 -8 c -4 -11 c 0 -7 c 0 -38 2823 3516 l 34 -4 c -4 4 c -3 11 c 0 12 c 3 11 c 8 8 c
11 3 c 8 0 c 11 -3 c 8 -8 c 4 -11 c 0 -12 c -4 -11 c -4 -4 c -8 -4 c 0 -249 2968 1683 l 53 -38 2925 1793 l 0 57 c 79 0 2925 1793 l
-7 -4 2936 1880 l -4 -11 c 0 -8 c 4 -11 c 11 -8 c 19 -4 c 19 0 c 15 4 c 7 8 c 4 11 c 0 4 c -4 11 c -7 8 c -11 4 c -4 0 c -12 -4 c
-7 -8 c -4 -11 c 0 -4 c 4 -11 c 7 -8 c 12 -4 c -7 -3 2936 1955 l -4 -12 c 0 -7 c 4 -12 c 11 -7 c 19 -4 c 19 0 c 15 4 c 7 7 c 4 12 c
0 4 c -4 11 c -7 7 c -11 4 c -4 0 c -12 -4 c -7 -7 c -4 -11 c 0 -4 c 4 -12 c 7 -7 c 12 -4 c -7 -4 2936 2031 l -4 -11 c 0 -8 c
4 -11 c 11 -8 c 19 -3 c 19 0 c 15 3 c 7 8 c 4 11 c 0 4 c -4 11 c -7 8 c -11 4 c -4 0 c -12 -4 c -7 -8 c -4 -11 c 0 -4 c 4 -11 c
7 -8 c 12 -3 c 3 -4 2997 2065 l 4 4 c -4 4 c -3 -4 c 79 -38 2925 2148 l 0 53 2925 2095 l 12 -4 2951 2220 l 7 -7 c 4 -12 c 0 -3 c
-4 -12 c -7 -7 c -12 -4 c -3 0 c -12 4 c -7 7 c -4 12 c 0 3 c 4 12 c 7 7 c 15 4 c 19 0 c 19 -4 c 11 -7 c 4 -12 c 0 -7 c -4 -12 c
-7 -3 c 4 -11 2925 2265 l 7 -4 c 8 0 c 7 4 c 4 8 c 4 15 c 4 11 c 7 8 c 8 3 c 11 0 c 8 -3 c 3 -4 c 4 -12 c 0 -15 c -4 -11 c -3 -4 c
-8 -4 c -11 0 c -8 4 c -7 8 c -4 11 c -4 15 c -4 8 c -7 4 c -8 0 c -7 -4 c -4 -12 c 0 -15 c 0 -249 3145 1964 l 53 -38 3101 2074 l
0 57 c 79 0 3101 2074 l -7 -4 3112 2161 l -4 -11 c 0 -8 c 4 -11 c 11 -8 c 19 -4 c 19 0 c 15 4 c 8 8 c 3 11 c 0 4 c -3 11 c -8 8 c
-11 3 c -4 0 c -11 -3 c -8 -8 c -4 -11 c 0 -4 c 4 -11 c 8 -8 c 11 -4 c -7 -4 3112 2236 l -4 -11 c 0 -7 c 4 -12 c 11 -7 c 19 -4 c
19 0 c 15 4 c 8 7 c 3 12 c 0 3 c -3 12 c -8 7 c -11 4 c -4 0 c -11 -4 c -8 -7 c -4 -12 c 0 -3 c 4 -12 c 8 -7 c 11 -4 c
4 -12 3101 2282 l 7 -4 c 8 0 c 7 4 c 4 8 c 4 15 c 4 11 c 7 8 c 8 4 c 11 0 c 8 -4 c 4 -4 c 3 -11 c 0 -15 c -3 -12 c -4 -4 c -8 -3 c
-11 0 c -8 3 c -7 8 c -4 11 c -4 16 c -4 7 c -7 4 c -8 0 c -7 -4 c -4 -11 c 0 -15 c 4 -4 3173 2346 l 3 4 c -3 4 c -4 -4 c
-4 8 3116 2387 l -11 11 c 79 0 c 79 -38 3101 2505 l 0 53 3101 2452 l -4 0 3120 2531 l -8 4 c -3 4 c -4 7 c 0 15 c 4 8 c 3 4 c 8 3 c
8 0 c 7 -3 c 12 -8 c 37 -38 c 0 53 c 0 -250 3378 2131 l 53 -37 3334 2240 l 0 56 c 79 0 3334 2240 l -7 -3 3345 2327 l -4 -12 c 0 -7 c
4 -12 c 11 -7 c 19 -4 c 19 0 c 15 4 c 8 7 c 3 12 c 0 3 c -3 12 c -8 7 c -11 4 c -4 0 c -11 -4 c -8 -7 c -4 -12 c 0 -3 c 4 -12 c
8 -7 c 11 -4 c -7 -4 3345 2403 l -4 -11 c 0 -8 c 4 -11 c 11 -8 c 19 -3 c 19 0 c 15 3 c 8 8 c 3 11 c 0 4 c -3 11 c -8 8 c -11 4 c
-4 0 c -11 -4 c -8 -8 c -4 -11 c 0 -4 c 4 -11 c 8 -8 c 11 -3 c 11 -4 3361 2479 l 7 -8 c 4 -11 c 0 -4 c -4 -11 c -7 -8 c -11 -4 c
-4 0 c -12 4 c -7 8 c -4 11 c 0 4 c 4 11 c 7 8 c 16 4 c 18 0 c 19 -4 c 12 -8 c 3 -11 c 0 -8 c -3 -11 c -8 -4 c 4 -4 3406 2513 l
3 4 c -3 3 c -4 -3 c 11 -4 3361 2592 l 7 -7 c 4 -12 c 0 -4 c -4 -11 c -7 -7 c -11 -4 c -4 0 c -12 4 c -7 7 c -4 11 c 0 4 c 4 12 c
7 7 c 16 4 c 18 0 c 19 -4 c 12 -7 c 3 -12 c 0 -7 c -3 -12 c -8 -3 c 4 -11 3334 2637 l 7 -4 c 8 0 c 8 4 c 3 7 c 4 16 c 4 11 c 7 8 c
8 3 c 11 0 c 8 -3 c 4 -4 c 3 -12 c 0 -15 c -3 -11 c -4 -4 c -8 -4 c -11 0 c -8 4 c -7 8 c -4 11 c -4 15 c -3 8 c -8 4 c -8 0 c
-7 -4 c -4 -12 c 0 -15 c 53 -38 3334 2732 l 0 57 c 79 0 3334 2732 l 0 -250 3853 6830 l 53 -37 3810 6939 l 0 56 c 79 0 3810 6939 l
-8 -3 3821 7026 l -3 -12 c 0 -7 c 3 -12 c 12 -7 c 19 -4 c 19 0 c 15 4 c 7 7 c 4 12 c 0 3 c -4 12 c -7 7 c -12 4 c -3 0 c -12 -4 c
-7 -7 c -4 -12 c 0 -3 c 4 -12 c 7 -7 c 12 -4 c 79 -38 3810 7106 l 0 53 3810 7053 l 0 42 3810 7136 l 30 -23 c 0 11 c 4 8 c 3 4 c
12 3 c 7 0 c 12 -3 c 7 -8 c 4 -11 c 0 -12 c -4 -11 c -4 -4 c -7 -4 c 4 -4 3881 7212 l 4 4 c -4 3 c -4 -3 c -8 -4 3821 7291 l
-3 -11 c 0 -8 c 3 -11 c 12 -8 c 19 -3 c 19 0 c 15 3 c 7 8 c 4 11 c 0 4 c -4 11 c -7 8 c -12 4 c -3 0 c -12 -4 c -7 -8 c -4 -11 c
0 -4 c 4 -11 c 7 -8 c 12 -3 c -8 -4 3821 7367 l -3 -12 c 0 -7 c 3 -11 c 12 -8 c 19 -4 c 19 0 c 15 4 c 7 8 c 4 11 c 0 4 c -4 11 c
-7 8 c -12 3 c -3 0 c -12 -3 c -7 -8 c -4 -11 c 0 -4 c 4 -11 c 7 -8 c 12 -4 c -4 8 3825 7404 l -11 11 c 79 0 c 0 -250 4075 1347 l
53 -38 4031 1456 l 0 57 c 80 0 4031 1456 l -8 -4 4043 1543 l -4 -11 c 0 -8 c 4 -11 c 11 -7 c 19 -4 c 19 0 c 15 4 c 8 7 c 4 11 c
0 4 c -4 12 c -8 7 c -11 4 c -4 0 c -11 -4 c -8 -7 c -4 -12 c 0 -4 c 4 -11 c 8 -7 c 11 -4 c 80 -38 4031 1623 l 0 53 4031 1570 l
0 -38 4031 1691 l 34 -4 c -4 4 c -3 11 c 0 11 c 3 12 c 8 7 c 11 4 c 8 0 c 11 -4 c 8 -7 c 4 -12 c 0 -11 c -4 -11 c -4 -4 c -8 -4 c
4 -3 4103 1728 l 4 3 c -4 4 c -4 -4 c 0 42 4031 1766 l 30 -23 c 0 11 c 4 8 c 4 4 c 11 3 c 8 0 c 11 -3 c 8 -8 c 4 -11 c 0 -12 c
-4 -11 c -4 -4 c -8 -3 c 80 -38 4031 1887 l 0 53 4031 1834 l -8 -4 4043 1959 l -4 -11 c 0 -8 c 4 -11 c 11 -8 c 19 -3 c 19 0 c 15 3 c
8 8 c 4 11 c 0 4 c -4 11 c -8 8 c -11 4 c -4 0 c -11 -4 c -8 -8 c -4 -11 c 0 -4 c 4 -11 c 8 -8 c 11 -3 c 0 -250 4165 2018 l
53 -37 4121 2127 l 0 56 c 80 0 4121 2127 l -8 -3 4133 2214 l -4 -12 c 0 -7 c 4 -12 c 11 -7 c 19 -4 c 19 0 c 15 4 c 8 7 c 4 12 c
0 3 c -4 12 c -8 7 c -11 4 c -4 0 c -11 -4 c -8 -7 c -3 -12 c 0 -3 c 3 -12 c 8 -7 c 11 -4 c 80 -38 4121 2294 l 0 53 4121 2241 l
-8 -4 4133 2366 l -4 -12 c 0 -7 c 4 -11 c 11 -8 c 19 -4 c 19 0 c 15 4 c 8 8 c 4 11 c 0 4 c -4 11 c -8 8 c -11 3 c -4 0 c -11 -3 c
-8 -8 c -3 -11 c 0 -4 c 3 -11 c 8 -8 c 11 -4 c 4 -4 4193 2400 l 4 4 c -4 3 c -4 -3 c 4 -11 4121 2452 l 11 -7 c 19 -4 c 12 0 c 19 4 c
11 7 c 4 11 c 0 8 c -4 11 c -11 8 c -19 4 c -12 0 c -19 -4 c -11 -8 c -4 -11 c 0 -8 c 0 -38 4121 2551 l 34 -4 c -3 4 c -4 11 c
0 12 c 4 11 c 7 7 c 11 4 c 8 0 c 11 -4 c 8 -7 c 4 -11 c 0 -12 c -4 -11 c -4 -4 c -7 -4 c -8 -4 4133 2630 l -4 -11 c 0 -8 c 4 -11 c
11 -7 c 19 -4 c 19 0 c 15 4 c 8 7 c 4 11 c 0 4 c -4 12 c -8 7 c -11 4 c -4 0 c -11 -4 c -8 -7 c -3 -12 c 0 -4 c 3 -11 c 8 -7 c
11 -4 c 0 -250 4283 1294 l 53 -37 4240 1403 l 0 56 c 79 0 4240 1403 l -7 -4 4251 1490 l -4 -11 c 0 -7 c 4 -12 c 11 -7 c 19 -4 c
19 0 c 15 4 c 7 7 c 4 12 c 0 3 c -4 12 c -7 7 c -12 4 c -3 0 c -12 -4 c -7 -7 c -4 -12 c 0 -3 c 4 -12 c 7 -7 c 12 -4 c
79 -38 4240 1570 l 0 53 4240 1517 l -7 -3 4251 1641 l -4 -12 c 0 -7 c 4 -12 c 11 -7 c 19 -4 c 19 0 c 15 4 c 7 7 c 4 12 c 0 4 c
-4 11 c -7 7 c -12 4 c -3 0 c -12 -4 c -7 -7 c -4 -11 c 0 -4 c 4 -12 c 7 -7 c 12 -4 c 3 -3 4312 1675 l 4 3 c -4 4 c -3 -4 c
12 -4 4266 1755 l 7 -8 c 4 -11 c 0 -4 c -4 -11 c -7 -8 c -12 -3 c -4 0 c -11 3 c -7 8 c -4 11 c 0 4 c 4 11 c 7 8 c 15 4 c 19 0 c
19 -4 c 11 -8 c 4 -11 c 0 -7 c -4 -12 c -7 -4 c 79 -38 4240 1834 l 0 53 4240 1781 l -4 0 4259 1861 l -8 3 c -3 4 c -4 8 c 0 15 c
4 7 c 3 4 c 8 4 c 7 0 c 8 -4 c 11 -7 c 38 -38 c 0 53 c 0 -250 4765 2705 l 53 -38 4722 2815 l 0 57 c 79 0 4722 2815 l
-7 -4 4733 2902 l -4 -12 c 0 -7 c 4 -11 c 11 -8 c 19 -4 c 19 0 c 15 4 c 7 8 c 4 11 c 0 4 c -4 11 c -7 8 c -11 3 c -4 0 c -12 -3 c
-7 -8 c -4 -11 c 0 -4 c 4 -11 c 7 -8 c 12 -4 c 4 -11 4722 2947 l 7 -4 c 8 0 c 7 4 c 4 7 c 4 15 c 4 12 c 7 7 c 8 4 c 11 0 c 8 -4 c
3 -4 c 4 -11 c 0 -15 c -4 -11 c -3 -4 c -8 -4 c -11 0 c -8 4 c -7 7 c -4 12 c -4 15 c -4 7 c -7 4 c -8 0 c -7 -4 c -4 -11 c 0 -15 c
4 -11 4722 3026 l 11 -8 c 19 -3 c 11 0 c 19 3 c 11 8 c 4 11 c 0 8 c -4 11 c -11 8 c -19 4 c -11 0 c -19 -4 c -11 -8 c -4 -11 c
0 -8 c 3 -4 4794 3087 l 4 4 c -4 4 c -3 -4 c -7 -4 4733 3166 l -4 -11 c 0 -8 c 4 -11 c 11 -7 c 19 -4 c 19 0 c 15 4 c 7 7 c 4 11 c
0 4 c -4 12 c -7 7 c -11 4 c -4 0 c -12 -4 c -7 -7 c -4 -12 c 0 -4 c 4 -11 c 7 -7 c 12 -4 c 53 -37 4722 3230 l 0 56 c
79 0 4722 3230 l -7 -3 4733 3317 l -4 -12 c 0 -7 c 4 -12 c 11 -7 c 19 -4 c 19 0 c 15 4 c 7 7 c 4 12 c 0 3 c -4 12 c -7 7 c -11 4 c
-4 0 c -12 -4 c -7 -7 c -4 -12 c 0 -3 c 4 -12 c 7 -7 c 12 -4 c 0 -249 4981 1388 l 53 -38 4937 1498 l 0 57 c 80 0 4937 1498 l
-7 -4 4948 1585 l -4 -11 c 0 -8 c 4 -11 c 11 -8 c 19 -4 c 19 0 c 15 4 c 8 8 c 4 11 c 0 4 c -4 11 c -8 8 c -11 4 c -4 0 c -11 -4 c
-8 -8 c -4 -11 c 0 -4 c 4 -11 c 8 -8 c 11 -4 c 4 -11 4937 1630 l 7 -4 c 8 0 c 8 4 c 3 7 c 4 15 c 4 12 c 8 7 c 7 4 c 11 0 c 8 -4 c
4 -3 c 4 -12 c 0 -15 c -4 -11 c -4 -4 c -8 -4 c -11 0 c -7 4 c -8 8 c -4 11 c -4 15 c -3 8 c -8 3 c -8 0 c -7 -3 c -4 -12 c 0 -15 c
-4 0 4956 1691 l -7 3 c -4 4 c -4 8 c 0 15 c 4 7 c 4 4 c 7 4 c 8 0 c 7 -4 c 12 -7 c 38 -38 c 0 53 c 4 -4 5009 1770 l 4 4 c -4 4 c
-4 -4 c -4 0 4956 1804 l -7 4 c -4 4 c -4 7 c 0 15 c 4 8 c 4 4 c 7 3 c 8 0 c 7 -3 c 12 -8 c 38 -38 c 0 53 c 0 42 4937 1883 l
30 -23 c 0 12 c 4 7 c 4 4 c 11 4 c 8 0 c 11 -4 c 8 -8 c 4 -11 c 0 -11 c -4 -12 c -4 -3 c -8 -4 c -4 0 4956 1955 l -7 4 c -4 4 c
-4 7 c 0 15 c 4 8 c 4 4 c 7 4 c 8 0 c 7 -4 c 12 -8 c 38 -38 c 0 53 c 0 -249 5122 1611 l 53 -38 5079 1721 l 0 57 c 79 0 5079 1721 l
-7 -4 5090 1808 l -4 -11 c 0 -8 c 4 -11 c 11 -8 c 19 -4 c 19 0 c 15 4 c 7 8 c 4 11 c 0 4 c -4 11 c -7 8 c -12 4 c -3 0 c -12 -4 c
-7 -8 c -4 -11 c 0 -4 c 4 -11 c 7 -8 c 12 -4 c 4 -11 5079 1853 l 7 -4 c 8 0 c 7 4 c 4 7 c 4 15 c 4 12 c 7 7 c 8 4 c 11 0 c 8 -4 c
3 -3 c 4 -12 c 0 -15 c -4 -11 c -3 -4 c -8 -4 c -11 0 c -8 4 c -7 8 c -4 11 c -4 15 c -4 8 c -7 3 c -8 0 c -7 -3 c -4 -12 c 0 -15 c
0 42 5079 1917 l 30 -23 c 0 12 c 4 7 c 4 4 c 11 4 c 7 0 c 12 -4 c 7 -8 c 4 -11 c 0 -11 c -4 -12 c -3 -3 c -8 -4 c 3 -4 5151 1993 l
4 4 c -4 4 c -3 -4 c 0 41 5079 2031 l 30 -22 c 0 11 c 4 8 c 4 3 c 11 4 c 7 0 c 12 -4 c 7 -7 c 4 -12 c 0 -11 c -4 -11 c -3 -4 c
-8 -4 c 0 -38 5079 2144 l 34 -3 c -4 3 c -4 12 c 0 11 c 4 11 c 8 8 c 11 4 c 7 0 c 12 -4 c 7 -8 c 4 -11 c 0 -11 c -4 -12 c -3 -3 c
-8 -4 c -4 0 5098 2178 l -8 4 c -3 4 c -4 7 c 0 15 c 4 8 c 3 4 c 8 4 c 7 0 c 8 -4 c 11 -8 c 38 -38 c 0 53 c 0 -249 5499 3237 l
53 -38 5456 3347 l 0 57 c 79 0 5456 3347 l -8 -4 5467 3434 l -3 -11 c 0 -8 c 3 -11 c 12 -8 c 19 -4 c 19 0 c 15 4 c 7 8 c 4 11 c
0 4 c -4 11 c -7 8 c -12 4 c -3 0 c -12 -4 c -7 -8 c -4 -11 c 0 -4 c 4 -11 c 7 -8 c 12 -4 c 3 -11 5456 3479 l 8 -4 c 8 0 c 7 4 c
4 7 c 4 15 c 3 12 c 8 7 c 8 4 c 11 0 c 8 -4 c 3 -3 c 4 -12 c 0 -15 c -4 -11 c -3 -4 c -8 -4 c -11 0 c -8 4 c -8 8 c -3 11 c -4 15 c
-4 8 c -7 3 c -8 0 c -8 -3 c -3 -12 c 0 -15 c -8 -4 5467 3585 l -3 -11 c 0 -8 c 3 -11 c 12 -8 c 19 -3 c 19 0 c 15 3 c 7 8 c 4 11 c
0 4 c -4 11 c -7 8 c -12 4 c -3 0 c -12 -4 c -7 -8 c -4 -11 c 0 -4 c 4 -11 c 7 -8 c 12 -3 c 3 -4 5528 3619 l 4 4 c -4 4 c -3 -4 c
-4 7 5471 3661 l -11 11 c 79 0 c 11 -4 5482 3774 l 8 -7 c 4 -12 c 0 -4 c -4 -11 c -8 -7 c -11 -4 c -4 0 c -11 4 c -8 7 c -3 11 c
0 4 c 3 12 c 8 7 c 15 4 c 19 0 c 19 -4 c 11 -7 c 4 -12 c 0 -7 c -4 -12 c -7 -3 c 0 -38 5456 3846 l 34 -4 c -4 4 c -4 11 c 0 12 c
4 11 c 7 8 c 12 3 c 7 0 c 12 -3 c 7 -8 c 4 -11 c 0 -12 c -4 -11 c -3 -4 c -8 -4 c 0 -250 5897 4105 l 53 -38 5854 4214 l 0 57 c
79 0 5854 4214 l -7 -4 5865 4301 l -4 -11 c 0 -8 c 4 -11 c 11 -8 c 19 -3 c 19 0 c 15 3 c 7 8 c 4 11 c 0 4 c -4 12 c -7 7 c -11 4 c
-4 0 c -12 -4 c -7 -7 c -4 -12 c 0 -4 c 4 -11 c 7 -8 c 12 -3 c 4 -11 5854 4346 l 7 -4 c 8 0 c 7 4 c 4 8 c 4 15 c 4 11 c 7 8 c 8 3 c
11 0 c 8 -3 c 3 -4 c 4 -11 c 0 -16 c -4 -11 c -3 -4 c -8 -3 c -11 0 c -8 3 c -7 8 c -4 11 c -4 15 c -4 8 c -7 4 c -8 0 c -7 -4 c
-4 -11 c 0 -16 c 12 -4 5880 4452 l 7 -7 c 4 -11 c 0 -4 c -4 -12 c -7 -7 c -12 -4 c -3 0 c -12 4 c -7 7 c -4 12 c 0 4 c 4 11 c 7 7 c
15 4 c 19 0 c 19 -4 c 11 -7 c 4 -11 c 0 -8 c -4 -11 c -7 -4 c 3 -4 5926 4486 l 4 4 c -4 4 c -3 -4 c -4 0 5873 4520 l -8 4 c -3 4 c
-4 7 c 0 16 c 4 7 c 3 4 c 8 4 c 8 0 c 7 -4 c 11 -8 c 38 -37 c 0 52 c 4 -12 5854 4615 l 11 -7 c 19 -4 c 11 0 c 19 4 c 11 7 c 4 12 c
0 7 c -4 12 c -11 7 c -19 4 c -11 0 c -19 -4 c -11 -7 c -4 -12 c 0 -7 c 4 -11 5854 4690 l 11 -8 c 19 -3 c 11 0 c 19 3 c 11 8 c
4 11 c 0 8 c -4 11 c -11 8 c -19 4 c -11 0 c -19 -4 c -11 -8 c -4 -11 c 0 -8 c 0 -249 6091 2012 l 53 -38 6048 2122 l 0 57 c
79 0 6048 2122 l -7 -4 6059 2209 l -4 -11 c 0 -8 c 4 -11 c 11 -8 c 19 -3 c 19 0 c 15 3 c 7 8 c 4 11 c 0 4 c -4 11 c -7 8 c -11 4 c
-4 0 c -12 -4 c -7 -8 c -4 -11 c 0 -4 c 4 -11 c 7 -8 c 12 -3 c 12 -4 6074 2285 l 7 -8 c 4 -11 c 0 -4 c -4 -11 c -7 -8 c -12 -4 c
-3 0 c -12 4 c -7 8 c -4 11 c 0 4 c 4 11 c 7 8 c 15 4 c 19 0 c 19 -4 c 11 -8 c 4 -11 c 0 -8 c -4 -11 c -7 -4 c 4 -12 6048 2334 l
11 -7 c 19 -4 c 11 0 c 19 4 c 11 7 c 4 12 c 0 7 c -4 12 c -11 7 c -19 4 c -11 0 c -19 -4 c -11 -7 c -4 -12 c 0 -7 c 3 -4 6120 2394 l
4 4 c -4 4 c -3 -4 c -7 -4 6059 2474 l -4 -12 c 0 -7 c 4 -11 c 11 -8 c 19 -4 c 19 0 c 15 4 c 7 8 c 4 11 c 0 4 c -4 11 c -7 8 c
-11 3 c -4 0 c -12 -3 c -7 -8 c -4 -11 c 0 -4 c 4 -11 c 7 -8 c 12 -4 c -4 0 6067 2504 l -8 4 c -3 3 c -4 8 c 0 15 c 4 8 c 3 3 c
8 4 c 8 0 c 7 -4 c 11 -7 c 38 -38 c 0 53 c -4 0 6067 2579 l -8 4 c -3 4 c -4 8 c 0 15 c 4 7 c 3 4 c 8 4 c 8 0 c 7 -4 c 11 -8 c
38 -37 c 0 53 c 0 -249 6226 1955 l 53 -38 6182 2065 l 0 57 c 80 0 6182 2065 l -8 -4 6194 2152 l -4 -11 c 0 -8 c 4 -11 c 12 -8 c
18 -4 c 19 0 c 15 4 c 8 8 c 4 11 c 0 4 c -4 11 c -8 8 c -11 4 c -4 0 c -11 -4 c -8 -8 c -3 -11 c 0 -4 c 3 -11 c 8 -8 c 11 -4 c
11 -3 6209 2227 l 8 -8 c 4 -11 c 0 -4 c -4 -11 c -8 -8 c -11 -4 c -4 0 c -11 4 c -8 8 c -4 11 c 0 4 c 4 11 c 8 8 c 15 3 c 19 0 c
19 -3 c 11 -8 c 4 -11 c 0 -8 c -4 -11 c -8 -4 c -4 8 6198 2265 l -12 11 c 80 0 c 4 -4 6254 2337 l 4 4 c -4 4 c -4 -4 c
-8 -3 6194 2416 l -4 -12 c 0 -7 c 4 -12 c 12 -7 c 18 -4 c 19 0 c 15 4 c 8 7 c 4 12 c 0 3 c -4 12 c -8 7 c -11 4 c -4 0 c -11 -4 c
-8 -7 c -3 -12 c 0 -3 c 3 -12 c 8 -7 c 11 -4 c 0 42 6182 2450 l 31 -23 c 0 12 c 3 7 c 4 4 c 12 4 c 7 0 c 11 -4 c 8 -8 c 4 -11 c
0 -11 c -4 -12 c -4 -3 c -7 -4 c 0 -38 6182 2564 l 34 -4 c -3 4 c -4 11 c 0 12 c 4 11 c 7 8 c 12 3 c 7 0 c 11 -3 c 8 -8 c 4 -11 c
0 -12 c -4 -11 c -4 -4 c -7 -4 c 0 -249 6558 7019 l 53 -38 6515 7129 l 0 57 c 79 0 6515 7129 l -8 -4 6526 7216 l -3 -11 c 0 -8 c
3 -11 c 12 -8 c 19 -4 c 19 0 c 15 4 c 7 8 c 4 11 c 0 4 c -4 11 c -7 8 c -12 3 c -3 0 c -12 -3 c -7 -8 c -4 -11 c 0 -4 c 4 -11 c
7 -8 c 12 -4 c 12 -4 6541 7291 l 7 -7 c 4 -11 c 0 -4 c -4 -12 c -7 -7 c -12 -4 c -4 0 c -11 4 c -8 7 c -3 12 c 0 4 c 3 11 c 8 7 c
15 4 c 19 0 c 19 -4 c 11 -7 c 4 -11 c 0 -8 c -4 -11 c -7 -4 c 53 -37 6515 7355 l 0 56 c 79 0 6515 7355 l 3 -4 6587 7401 l 4 4 c
-4 4 c -3 -4 c 3 -12 6515 7454 l 12 -7 c 19 -4 c 11 0 c 19 4 c 11 7 c 4 12 c 0 7 c -4 12 c -11 7 c -19 4 c -11 0 c -19 -4 c -12 -7 c
-3 -12 c 0 -7 c 12 -4 6541 7556 l 7 -8 c 4 -11 c 0 -4 c -4 -11 c -7 -8 c -12 -3 c -4 0 c -11 3 c -8 8 c -3 11 c 0 4 c 3 11 c 8 8 c
15 4 c 19 0 c 19 -4 c 11 -8 c 4 -11 c 0 -7 c -4 -12 c -7 -4 c -4 7 6530 7594 l -11 11 c 79 0 c 0 -249 6680 3896 l 53 -38 6636 4006 l
0 57 c 80 0 6636 4006 l -8 -4 6648 4093 l -4 -11 c 0 -8 c 4 -11 c 11 -8 c 19 -4 c 19 0 c 15 4 c 8 8 c 4 11 c 0 4 c -4 11 c -8 8 c
-11 4 c -4 0 c -11 -4 c -8 -8 c -4 -11 c 0 -4 c 4 -11 c 8 -8 c 11 -4 c 11 -3 6663 4168 l 8 -8 c 3 -11 c 0 -4 c -3 -11 c -8 -8 c
-11 -4 c -4 0 c -11 4 c -8 8 c -4 11 c 0 4 c 4 11 c 8 8 c 15 3 c 19 0 c 18 -3 c 12 -8 c 4 -11 c 0 -8 c -4 -11 c -8 -4 c
0 -38 6636 4240 l 34 -3 c -4 3 c -3 12 c 0 11 c 3 11 c 8 8 c 11 4 c 8 0 c 11 -4 c 8 -8 c 4 -11 c 0 -11 c -4 -12 c -4 -3 c -8 -4 c
4 -4 6708 4278 l 4 4 c -4 4 c -4 -4 c 4 -11 6636 4331 l 11 -8 c 19 -4 c 12 0 c 18 4 c 12 8 c 4 11 c 0 7 c -4 12 c -12 7 c -18 4 c
-12 0 c -19 -4 c -11 -7 c -4 -12 c 0 -7 c 0 42 6636 4391 l 30 -23 c 0 12 c 4 7 c 4 4 c 11 4 c 8 0 c 11 -4 c 8 -8 c 4 -11 c 0 -11 c
-4 -12 c -4 -3 c -8 -4 c 4 -11 6636 4478 l 8 -4 c 7 0 c 8 4 c 3 8 c 4 15 c 4 11 c 8 8 c 7 3 c 11 0 c 8 -3 c 4 -4 c 4 -12 c 0 -15 c
-4 -11 c -4 -4 c -8 -4 c -11 0 c -7 4 c -8 8 c -4 11 c -4 15 c -3 8 c -8 4 c -7 0 c -8 -4 c -4 -12 c 0 -15 c 0 -250 6743 1379 l
53 -38 6699 1488 l 0 57 c 80 0 6699 1488 l -8 -4 6711 1575 l -4 -11 c 0 -8 c 4 -11 c 11 -7 c 19 -4 c 19 0 c 15 4 c 8 7 c 4 11 c
0 4 c -4 12 c -8 7 c -11 4 c -4 0 c -11 -4 c -8 -7 c -4 -12 c 0 -4 c 4 -11 c 8 -7 c 11 -4 c 11 -4 6726 1651 l 8 -8 c 3 -11 c 0 -4 c
-3 -11 c -8 -8 c -11 -3 c -4 0 c -11 3 c -8 8 c -4 11 c 0 4 c 4 11 c 8 8 c 15 4 c 19 0 c 18 -4 c 12 -8 c 4 -11 c 0 -8 c -4 -11 c
-8 -4 c 0 -37 6699 1722 l 34 -4 c -4 4 c -3 11 c 0 11 c 3 12 c 8 7 c 11 4 c 8 0 c 11 -4 c 8 -7 c 4 -12 c 0 -11 c -4 -11 c -4 -4 c
-8 -4 c 4 -3 6771 1760 l 4 3 c -4 4 c -4 -4 c 53 -37 6699 1828 l 0 56 c 80 0 6699 1828 l -8 -4 6711 1915 l -4 -11 c 0 -7 c 4 -12 c
11 -7 c 19 -4 c 19 0 c 15 4 c 8 7 c 4 12 c 0 3 c -4 12 c -8 7 c -11 4 c -4 0 c -11 -4 c -8 -7 c -4 -12 c 0 -3 c 4 -12 c 8 -7 c
11 -4 c 4 -11 6699 1964 l 11 -8 c 19 -3 c 12 0 c 18 3 c 12 8 c 4 11 c 0 8 c -4 11 c -12 8 c -18 4 c -12 0 c -19 -4 c -11 -8 c
-4 -11 c 0 -8 c 0 -249 7122 1338 l 53 -38 7079 1448 l 0 57 c 79 0 7079 1448 l -7 -4 7090 1535 l -4 -11 c 0 -8 c 4 -11 c 11 -8 c
19 -4 c 19 0 c 15 4 c 7 8 c 4 11 c 0 4 c -4 11 c -7 8 c -11 3 c -4 0 c -12 -3 c -7 -8 c -4 -11 c 0 -4 c 4 -11 c 7 -8 c 12 -4 c
12 -4 7105 1610 l 7 -7 c 4 -11 c 0 -4 c -4 -12 c -7 -7 c -12 -4 c -4 0 c -11 4 c -7 7 c -4 12 c 0 4 c 4 11 c 7 7 c 15 4 c 19 0 c
19 -4 c 11 -7 c 4 -11 c 0 -8 c -4 -11 c -7 -4 c 4 -12 7079 1656 l 7 -3 c 8 0 c 7 3 c 4 8 c 4 15 c 4 11 c 7 8 c 8 4 c 11 0 c 8 -4 c
3 -4 c 4 -11 c 0 -15 c -4 -12 c -3 -3 c -8 -4 c -11 0 c -8 4 c -7 7 c -4 11 c -4 16 c -4 7 c -7 4 c -8 0 c -7 -4 c -4 -11 c 0 -15 c
3 -4 7151 1720 l 4 4 c -4 4 c -3 -4 c -4 0 7098 1754 l -8 4 c -3 3 c -4 8 c 0 15 c 4 8 c 3 3 c 8 4 c 7 0 c 8 -4 c 11 -7 c 38 -38 c
0 53 c -4 0 7098 1829 l -8 4 c -3 4 c -4 8 c 0 15 c 4 7 c 3 4 c 8 4 c 7 0 c 8 -4 c 11 -7 c 38 -38 c 0 53 c 0 -38 7079 1947 l 34 -4 c
-4 4 c -4 11 c 0 12 c 4 11 c 8 7 c 11 4 c 8 0 c 11 -4 c 7 -7 c 4 -11 c 0 -12 c -4 -11 c -3 -4 c -8 -4 c 0 -249 7469 1318 l
52 -38 7426 1428 l 0 57 c 79 0 7426 1428 l 79 -38 7426 1519 l 0 53 7426 1466 l 3 -11 7426 1564 l 12 -8 c 19 -4 c 11 0 c 19 4 c
11 8 c 4 11 c 0 8 c -4 11 c -11 7 c -19 4 c -11 0 c -19 -4 c -12 -7 c -3 -11 c 0 -8 c 3 -12 7426 1640 l 12 -7 c 19 -4 c 11 0 c
19 4 c 11 7 c 4 12 c 0 7 c -4 12 c -11 7 c -19 4 c -11 0 c -19 -4 c -12 -7 c -3 -12 c 0 -7 c 4 -4 7497 1700 l 4 4 c -4 4 c -4 -4 c
79 -38 7426 1783 l 0 53 7426 1730 l 79 -38 7426 1859 l 0 53 7426 1806 l -4 7 7441 1893 l -11 12 c 79 0 c 0 -249 7682 3750 l
53 -38 7638 3860 l 0 57 c 80 0 7638 3860 l 80 -37 7638 3950 l 0 52 7638 3898 l 4 -12 7638 3996 l 12 -7 c 18 -4 c 12 0 c 19 4 c
11 7 c 4 12 c 0 7 c -4 12 c -11 7 c -19 4 c -12 0 c -18 -4 c -12 -7 c -4 -12 c 0 -7 c -3 0 7657 4052 l -8 4 c -4 4 c -4 8 c 0 15 c
4 7 c 4 4 c 8 4 c 7 0 c 8 -4 c 11 -8 c 38 -37 c 0 53 c 4 -4 7710 4132 l 4 4 c -4 4 c -4 -4 c 0 41 7638 4170 l 31 -22 c 0 11 c 3 7 c
4 4 c 12 4 c 7 0 c 11 -4 c 8 -7 c 4 -12 c 0 -11 c -4 -11 c -4 -4 c -7 -4 c -4 8 7654 4249 l -12 11 c 80 0 c -8 -3 7650 4362 l
-4 -12 c 0 -7 c 4 -12 c 12 -7 c 18 -4 c 19 0 c 15 4 c 8 7 c 4 12 c 0 3 c -4 12 c -8 7 c -11 4 c -4 0 c -11 -4 c -8 -7 c -3 -12 c
0 -3 c 3 -12 c 8 -7 c 11 -4 c 0 -249 7913 7019 l 53 -38 7869 7129 l 0 57 c 80 0 7869 7129 l 80 -37 7869 7219 l 0 52 7869 7167 l
4 -12 7869 7265 l 11 -7 c 19 -4 c 12 0 c 18 4 c 12 7 c 4 12 c 0 7 c -4 12 c -12 7 c -18 4 c -12 0 c -19 -4 c -11 -7 c -4 -12 c
0 -7 c 0 42 7869 7325 l 30 -23 c 0 11 c 4 8 c 4 4 c 11 4 c 8 0 c 11 -4 c 8 -8 c 4 -11 c 0 -11 c -4 -12 c -4 -4 c -8 -3 c
4 -4 7941 7401 l 4 4 c -4 4 c -4 -4 c 11 -4 7896 7480 l 8 -7 c 3 -11 c 0 -4 c -3 -12 c -8 -7 c -11 -4 c -4 0 c -11 4 c -8 7 c
-4 12 c 0 4 c 4 11 c 8 7 c 15 4 c 19 0 c 18 -4 c 12 -7 c 4 -11 c 0 -8 c -4 -11 c -8 -4 c 11 -4 7896 7556 l 8 -8 c 3 -11 c 0 -4 c
-3 -11 c -8 -8 c -11 -3 c -4 0 c -11 3 c -8 8 c -4 11 c 0 4 c 4 11 c 8 8 c 15 4 c 19 0 c 18 -4 c 12 -8 c 4 -11 c 0 -7 c -4 -12 c
-8 -4 c 4 -11 7869 7605 l 11 -8 c 19 -4 c 12 0 c 18 4 c 12 8 c 4 11 c 0 7 c -4 12 c -12 7 c -18 4 c -12 0 c -19 -4 c -11 -7 c
-4 -12 c 0 -7 c 0 -250 8159 3950 l 53 -38 8115 4060 l 0 56 c 79 0 8115 4060 l 79 -38 8115 4150 l 0 53 8115 4097 l 4 -12 8115 4196 l
11 -7 c 19 -4 c 11 0 c 19 4 c 12 7 c 3 12 c 0 7 c -3 11 c -12 8 c -19 4 c -11 0 c -19 -4 c -11 -8 c -4 -11 c 0 -7 c
0 -38 8115 4294 l 34 -4 c -4 4 c -3 11 c 0 12 c 3 11 c 8 8 c 11 3 c 8 0 c 11 -3 c 8 -8 c 3 -11 c 0 -12 c -3 -11 c -4 -4 c -8 -4 c
4 -4 8187 4332 l 3 4 c -3 3 c -4 -3 c 79 -38 8115 4415 l 0 53 8115 4362 l -7 -4 8126 4487 l -4 -12 c 0 -7 c 4 -11 c 11 -8 c 19 -4 c
19 0 c 15 4 c 8 8 c 3 11 c 0 4 c -3 11 c -8 8 c -11 3 c -4 0 c -11 -3 c -8 -8 c -4 -11 c 0 -4 c 4 -11 c 8 -8 c 11 -4 c
-4 8 8130 4524 l -11 11 c 79 0 c 0 -249 8512 1548 l 53 -38 8469 1658 l 0 57 c 79 0 8469 1658 l 79 -38 8469 1749 l 0 53 8469 1696 l
4 -11 8469 1794 l 11 -8 c 19 -4 c 11 0 c 19 4 c 11 8 c 4 11 c 0 7 c -4 12 c -11 7 c -19 4 c -11 0 c -19 -4 c -11 -7 c -4 -12 c
0 -7 c 4 -12 8469 1866 l 7 -3 c 8 0 c 7 3 c 4 8 c 4 15 c 4 11 c 7 8 c 8 4 c 11 0 c 8 -4 c 3 -4 c 4 -11 c 0 -15 c -4 -12 c -3 -3 c
-8 -4 c -11 0 c -8 4 c -7 7 c -4 12 c -4 15 c -4 7 c -7 4 c -8 0 c -7 -4 c -4 -11 c 0 -15 c 3 -4 8541 1930 l 4 4 c -4 4 c -3 -4 c
-4 0 8488 1964 l -8 4 c -3 4 c -4 7 c 0 15 c 4 8 c 3 4 c 8 3 c 7 0 c 8 -3 c 11 -8 c 38 -38 c 0 53 c 12 -4 8495 2085 l 7 -7 c 4 -12 c
0 -4 c -4 -11 c -7 -7 c -12 -4 c -4 0 c -11 4 c -7 7 c -4 11 c 0 4 c 4 12 c 7 7 c 15 4 c 19 0 c 19 -4 c 11 -7 c 4 -12 c 0 -7 c
-4 -12 c -7 -3 c 53 -38 8469 2149 l 0 57 c 79 0 8469 2149 l 0 -249 9095 1925 l 53 -38 9051 2035 l 0 57 c 80 0 9051 2035 l
80 -37 9051 2125 l 0 52 9051 2073 l -3 8 9066 2159 l -12 11 c 80 0 c -4 0 9070 2227 l -7 4 c -4 4 c -4 8 c 0 15 c 4 7 c 4 4 c 7 4 c
8 0 c 7 -4 c 12 -8 c 38 -37 c 0 53 c 4 -4 9123 2307 l 4 4 c -4 4 c -4 -4 c 53 -38 9051 2375 l 0 57 c 80 0 9051 2375 l
4 -12 9051 2432 l 8 -4 c 7 0 c 8 4 c 3 8 c 4 15 c 4 11 c 8 8 c 7 4 c 12 0 c 7 -4 c 4 -4 c 4 -11 c 0 -15 c -4 -12 c -4 -4 c -7 -3 c
-12 0 c -7 3 c -8 8 c -4 11 c -4 15 c -3 8 c -8 4 c -7 0 c -8 -4 c -4 -11 c 0 -15 c -3 7 9066 2500 l -12 11 c 80 0 c
0 -249 9152 1358 l 53 -38 9108 1468 l 0 57 c 80 0 9108 1468 l 80 -38 9108 1559 l 0 53 9108 1506 l -4 7 9124 1593 l -12 12 c 80 0 c
-3 0 9127 1661 l -8 3 c -4 4 c -4 8 c 0 15 c 4 7 c 4 4 c 8 4 c 7 0 c 8 -4 c 11 -7 c 38 -38 c 0 53 c 4 -4 9180 1740 l 4 4 c -4 4 c
-4 -4 c 4 -11 9108 1789 l 8 -4 c 7 0 c 8 4 c 4 7 c 3 16 c 4 11 c 8 7 c 7 4 c 12 0 c 7 -4 c 4 -3 c 4 -12 c 0 -15 c -4 -11 c -4 -4 c
-7 -4 c -12 0 c -7 4 c -8 8 c -4 11 c -3 15 c -4 8 c -8 3 c -7 0 c -8 -3 c -4 -12 c 0 -15 c 53 -38 9108 1884 l 0 57 c
80 0 9108 1884 l -4 7 9124 1933 l -12 12 c 80 0 c
showpage PGPLOT restore
 
%%Trailer
%%DocumentFonts: 
%%Pages: 1
%%EOF
