%!PS-Adobe-3.0 EPSF-3.0
%%For: tom
%%Title: PGPLOT PostScript plot
%%Creator: PGPLOT
%%CreationDate:  9-Nov-1994 13:40
%%BoundingBox: 25 18 587 774
%%DocumentFonts: (atend)
%%LanguageLevel: 1
%%Orientation: Landscape
%%Pages: (atend)
%%EndComments
%%BeginProlog
/l {moveto rlineto currentpoint stroke moveto} bind def
/c {rlineto currentpoint stroke moveto} bind def
/d {moveto 0 0 rlineto currentpoint stroke moveto} bind def
/SLW {5 mul setlinewidth} bind def
/SCF /pop load def
/BP {newpath moveto} bind def
/LP /rlineto load def
/EP {rlineto closepath eofill} bind def
/MB {gsave translate MFAC dup scale 1 setlinewidth 2 setlinecap 0 setlinejoin newpath} bind def
/ME /grestore load def
/C {0 360 arc stroke} bind def
/FC {0 360 arc fill} bind def
%%EndProlog
 
%%Page: 1 1
%%BeginPageSetup
/PGPLOT save def
0.072 0.072 scale
8150 250 translate 90 rotate
1 setlinejoin 1 setlinecap 1 SLW 1 SCF
%%EndPageSetup
0.00 setgray 1 SLW 8939 0 780 780 l 0 6239 c -8939 0 c 0 -6239 c 0 -45 1116 780 l 0 -45 1554 780 l 0 -45 1991 780 l 0 -45 2428 780 l
0 -90 2865 780 l 0 -45 3302 780 l 0 -45 3739 780 l 0 -45 4176 780 l 0 -45 4613 780 l 0 -90 5051 780 l 0 -45 5488 780 l
0 -45 5925 780 l 0 -45 6362 780 l 0 -45 6799 780 l 0 -90 7236 780 l 0 -45 7673 780 l 0 -45 8110 780 l 0 -45 8548 780 l
0 -45 8985 780 l 0 -90 9422 780 l 0 -45 1116 7064 l 0 -45 1554 7064 l 0 -45 1991 7064 l 0 -45 2428 7064 l 0 -90 2865 7109 l
0 -45 3302 7064 l 0 -45 3739 7064 l 0 -45 4176 7064 l 0 -45 4613 7064 l 0 -90 5051 7109 l 0 -45 5488 7064 l 0 -45 5925 7064 l
0 -45 6362 7064 l 0 -45 6799 7064 l 0 -90 7236 7109 l 0 -45 7673 7064 l 0 -45 8110 7064 l 0 -45 8548 7064 l 0 -45 8985 7064 l
0 -90 9422 7109 l -60 0 2775 672 l -6 -54 c 6 6 c 18 6 c 18 0 c 18 -6 c 12 -12 c 6 -18 c 0 -12 c -6 -18 c -12 -12 c -18 -6 c -18 0 c
-18 6 c -6 6 c -6 12 c -18 -6 2859 672 l -12 -18 c -6 -30 c 0 -18 c 6 -30 c 12 -18 c 18 -6 c 12 0 c 18 6 c 12 18 c 6 30 c 0 18 c
-6 30 c -12 18 c -18 6 c -12 0 c -18 -6 2979 672 l -12 -18 c -6 -30 c 0 -18 c 6 -30 c 12 -18 c 18 -6 c 12 0 c 18 6 c 12 18 c 6 30 c
0 18 c -6 30 c -12 18 c -18 6 c -12 0 c 12 6 4847 648 l 18 18 c 0 -126 c -18 -6 4985 672 l -12 -18 c -6 -30 c 0 -18 c 6 -30 c
12 -18 c 18 -6 c 12 0 c 18 6 c 12 18 c 6 30 c 0 18 c -6 30 c -12 18 c -18 6 c -12 0 c -18 -6 5105 672 l -12 -18 c -6 -30 c 0 -18 c
6 -30 c 12 -18 c 18 -6 c 12 0 c 18 6 c 12 18 c 6 30 c 0 18 c -6 30 c -12 18 c -18 6 c -12 0 c -18 -6 5225 672 l -12 -18 c -6 -30 c
0 -18 c 6 -30 c 12 -18 c 18 -6 c 12 0 c 18 6 c 12 18 c 6 30 c 0 18 c -6 30 c -12 18 c -18 6 c -12 0 c 12 6 7032 648 l 18 18 c
0 -126 c -60 0 7206 672 l -6 -54 c 6 6 c 18 6 c 18 0 c 18 -6 c 12 -12 c 6 -18 c 0 -12 c -6 -18 c -12 -12 c -18 -6 c -18 0 c -18 6 c
-6 6 c -6 12 c -18 -6 7290 672 l -12 -18 c -6 -30 c 0 -18 c 6 -30 c 12 -18 c 18 -6 c 12 0 c 18 6 c 12 18 c 6 30 c 0 18 c -6 30 c
-12 18 c -18 6 c -12 0 c -18 -6 7410 672 l -12 -18 c -6 -30 c 0 -18 c 6 -30 c 12 -18 c 18 -6 c 12 0 c 18 6 c 12 18 c 6 30 c 0 18 c
-6 30 c -12 18 c -18 6 c -12 0 c 0 6 9206 642 l 6 12 c 6 6 c 12 6 c 24 0 c 12 -6 c 6 -6 c 6 -12 c 0 -12 c -6 -12 c -12 -18 c
-60 -60 c 84 0 c -18 -6 9356 672 l -12 -18 c -6 -30 c 0 -18 c 6 -30 c 12 -18 c 18 -6 c 12 0 c 18 6 c 12 18 c 6 30 c 0 18 c -6 30 c
-12 18 c -18 6 c -12 0 c -18 -6 9476 672 l -12 -18 c -6 -30 c 0 -18 c 6 -30 c 12 -18 c 18 -6 c 12 0 c 18 6 c 12 18 c 6 30 c 0 18 c
-6 30 c -12 18 c -18 6 c -12 0 c -18 -6 9596 672 l -12 -18 c -6 -30 c 0 -18 c 6 -30 c 12 -18 c 18 -6 c 12 0 c 18 6 c 12 18 c 6 30 c
0 18 c -6 30 c -12 18 c -18 6 c -12 0 c -90 0 780 780 l -45 0 780 1715 l -90 0 780 2650 l -45 0 780 3585 l -90 0 780 4521 l
-45 0 780 5456 l -90 0 780 6391 l -90 0 9809 780 l -45 0 9764 1715 l -90 0 9809 2650 l -45 0 9764 3585 l -90 0 9809 4521 l
-45 0 9764 5456 l -90 0 9809 6391 l 6 -18 517 774 l 18 -12 c 30 -6 c 18 0 c 30 6 c 18 12 c 6 18 c 0 12 c -6 18 c -18 12 c -30 6 c
-18 0 c -30 -6 c -18 -12 c -6 -18 c 0 -12 c -6 0 547 2392 l -12 6 c -6 6 c -6 12 c 0 24 c 6 12 c 6 6 c 12 6 c 12 0 c 12 -6 c
18 -12 c 60 -60 c 0 84 c 84 84 547 2512 l 84 -84 547 2596 l -6 12 541 2656 l -18 18 c 126 0 c 6 -18 517 2794 l 18 -12 c 30 -6 c
18 0 c 30 6 c 18 12 c 6 18 c 0 12 c -6 18 c -18 12 c -30 6 c -18 0 c -30 -6 c -18 -12 c -6 -18 c 0 -12 c 63 -45 453 2919 l 0 67 c
94 0 453 2919 l 84 -60 517 4317 l 0 90 c 126 0 517 4317 l 84 84 547 4383 l 84 -84 547 4467 l -6 12 541 4527 l -18 18 c 126 0 c
6 -18 517 4665 l 18 -12 c 30 -6 c 18 0 c 30 6 c 18 12 c 6 18 c 0 12 c -6 18 c -18 12 c -30 6 c -18 0 c -30 -6 c -18 -12 c -6 -18 c
0 -12 c 63 -45 453 4789 l 0 68 c 94 0 453 4789 l -12 -6 535 6205 l -6 -18 c 0 -12 c 6 -18 c 18 -12 c 30 -6 c 30 0 c 24 6 c 12 12 c
6 18 c 0 6 c -6 18 c -12 12 c -18 6 c -6 0 c -18 -6 c -12 -12 c -6 -18 c 0 -6 c 6 -18 c 12 -12 c 18 -6 c 84 84 547 6253 l
84 -84 547 6337 l -6 12 541 6397 l -18 18 c 126 0 c 6 -18 517 6535 l 18 -12 c 30 -6 c 18 0 c 30 6 c 18 12 c 6 18 c 0 12 c -6 18 c
-18 12 c -30 6 c -18 0 c -30 -6 c -18 -12 c -6 -18 c 0 -12 c 63 -45 453 6659 l 0 68 c 94 0 453 6659 l
4 0 780 791 l 5 0 c 4 -1 c 4 0 c 5 1 c 4 0 c 4 2 c 5 6 c 4 10 c 5 33 c 4 34 c 4 -6 c 5 -14 c 4 -44 c 4 -20 c 5 -1 c 4 -1 c 5 1 c
4 -1 c 4 0 c 5 0 c 4 1 c 4 0 c 5 1 c 4 -1 c 5 0 c 4 -1 c 4 -1 c 5 0 c 4 0 c 4 1 c 5 0 c 4 2 c 5 3 c 4 6 c 4 1 c 5 -1 c 4 -4 c 4 -4 c
5 0 c 4 -1 c 4 0 c 5 -1 c 4 -1 c 5 1 c 4 2 c 4 5 c 5 13 c 4 29 c 4 20 c 5 19 c 4 36 c 5 97 c 4 21 c 4 -25 c 5 -84 c 4 -105 c 4 5 c
5 51 c 4 46 c 5 17 c 4 -24 c 4 -55 c 5 -47 c 4 -16 c 4 -1 c 5 -1 c 4 -1 c 5 4 c 4 0 c 4 0 c 5 -2 c 4 -4 c 4 -1 c 5 0 c 4 0 c 4 0 c
5 1 c 4 3 c 5 3 c 4 1 c 4 -1 c 5 -3 c 4 -14 c 5 13 1151 780 l 4 0 c 5 0 c 4 -1 c 4 0 c 5 0 c 4 0 c 4 0 c 5 0 c 4 -1 c 5 0 c 4 -1 c
4 1 c 5 0 c 4 1 c 4 1 c 5 0 c 4 0 c 5 0 c 4 0 c 4 2 c 5 8 c 4 6 c 4 1 c 5 -2 c 4 -9 c 4 -4 c 5 -1 c 4 0 c 5 2 c 4 1 c 4 4 c 5 19 c
4 87 c 4 185 c 5 592 c 4 828 c 5 86 c 4 -209 c 4 -893 c 5 -577 c 4 -83 c 4 -31 c 5 -6 c 4 -2 c 5 -1 c 4 0 c 4 -1 c 5 -1 c 4 0 c
4 -2 c 5 0 c 4 1 c 5 -1 c 4 1 c 4 0 c 5 -1 c 4 0 c 4 0 c 5 0 c 4 1 c 4 5 c 5 9 c 4 0 c 5 -2 c 4 -7 c 4 -8 c 5 0 c 4 0 c 4 0 c 5 0 c
4 1 c 5 1 c 4 0 c 4 1 c 5 0 c 4 -2 c 4 0 c 5 0 c 4 -1 c 5 1 c 4 0 c 4 -1 c 5 1 c 4 -1 c 4 0 c 5 1 c 4 0 c 4 0 c 5 1 c 4 0 c 5 2 c
4 1 c 4 2 c 5 -1 c 4 -2 c 4 -3 c 5 -2 c 4 0 c 5 0 c 4 1 c 4 0 c 5 0 c 4 0 c 4 0 c 5 0 c 4 0 c 5 0 c 4 0 c 4 0 c 5 1 c 4 0 c 4 1 c
5 3 c 4 3 c 5 0 c 4 -2 c 4 -5 c 5 -1 c 4 0 c 4 0 c 5 0 c 4 0 c 4 0 c 5 0 c 4 2 c 5 1 c 4 1 c 4 2 c 5 3 c 4 8 c 4 13 c 5 30 c 4 112 c
5 129 c 4 7 c 4 -44 c 5 -155 c 4 -100 c 4 -5 c 5 0 c 4 0 c 5 -1 c 4 0 c 4 0 c 5 1 c 4 0 c 4 1 c 5 0 c 4 2 c 5 1 c 4 4 c 4 6 c 5 8 c
4 13 c 4 -2 c 5 -5 c 4 -7 c 4 -7 c 5 0 c 4 5 c 5 12 c 4 95 c 4 353 c 5 1397 c 4 2658 c 4 509 c 5 -586 c 4 -2015 c 5 -2156 c 4 -241 c
4 -23 c 5 -5 c 4 -4 c 4 -4 c 5 -2 c 4 -2 c 5 -2 c 4 -1 c 4 -1 c 5 1 c 4 -2 c 4 0 c 5 0 c 4 -1 c 5 1 c 4 0 c 4 0 c 5 0 c 4 -1 c
4 -1 c 5 0 c 4 0 c 4 0 c 5 -1 c 4 0 c 5 1 c 4 2 c 4 1 c 5 -1 c 4 1 c 4 0 c 5 3 c 4 0 c 5 -1 c 4 -3 c 4 -3 c 5 -1 c 4 0 c 4 1 c 5 0 c
4 0 c 5 -1 c 4 0 c 4 1 c 5 0 c 4 0 c 4 1 c 5 1 c 4 0 c 5 0 c 4 1 c 4 3 c 5 11 c 4 4 c 4 2 c 5 5 c 4 4 c 4 -1 c 5 -4 c 4 -16 c
5 -10 c 4 -1 c 4 0 c 5 0 c 4 0 c 4 -1 c 5 -1 c 4 1 c 5 0 c 4 0 c 4 0 c 5 0 c 4 0 c 4 0 c 5 0 c 4 1 c 5 -1 c 4 0 c 4 0 c 5 0 c 4 1 c
4 1 c 5 3 c 4 2 c 4 1 c 5 -2 c 4 -2 c 5 -1 c 4 -1 c 4 -1 c 5 0 c 4 0 c 4 0 c 5 0 c 4 0 c 5 -1 c 4 -1 c 4 0 c 5 0 c 4 0 c 4 0 c 5 1 c
4 2 c 5 1 c 4 1 c 4 -1 c 5 -1 c 4 -1 c 4 0 c 5 -1 c 4 0 c 5 0 c 4 0 c 4 1 c 5 3 c 4 2 c 4 1 c 5 -2 c 4 -2 c 4 -2 c 5 0 c 4 1 c
5 -1 c 4 0 c 4 0 c 5 0 c 4 -1 c 4 0 c 5 0 c 4 0 c 5 0 c 4 0 c 4 0 c 5 -1 c 4 0 c 4 0 c 5 0 c 4 0 c 5 0 c 4 0 c 4 0 c 5 0 c 4 0 c
4 0 c 5 1 c 4 1 c 5 0 c 4 1 c 4 -2 c 5 0 c 4 -1 c 4 1 c 5 1 c 4 0 c 4 0 c 5 0 c 4 0 c 5 0 c 4 1 c 4 0 c 5 0 c 4 0 c 4 2 c 5 7 c
4 2 c 5 0 c 4 -6 c 4 -6 c 5 0 c 4 0 c 4 1 c 5 -1 c 4 0 c 5 0 c 4 0 c 4 0 c 5 -1 c 4 -1 c 4 1 c 5 0 c 4 0 c 5 0 c 4 1 c 4 0 c 5 0 c
4 -1 c 4 1 c 5 0 c 4 1 c 4 13 c 5 37 c 4 14 c 5 -3 c 4 -21 c 4 -34 c 5 -7 c 4 0 c 4 0 c 5 2 c 4 10 c 5 16 c 4 1 c 4 -4 c 5 -14 c
4 -10 c 4 -2 c 5 0 c 4 0 c 5 1 c 4 1 c 4 2 c 5 0 c 4 1 c 4 -1 c 5 0 c 4 0 c 4 1 c 5 17 c 4 99 c 5 78 c 4 25 c 4 -7 c 5 -112 c
4 -58 c 4 -15 c 5 -5 c 4 0 c 5 -2 c 4 -10 c 4 -13 c 5 -1 c 4 0 c 4 4 c 5 3 c 4 3 c 5 13 c 4 6 c 4 -1 c 5 -4 c 4 -17 c 4 -6 c 5 0 c
4 -1 c 5 0 c 4 0 c 4 0 c 5 1 c 4 0 c 4 1 c 5 0 c 4 1 c 4 9 c 5 3 c 4 0 c 5 -3 c 4 -4 c 4 15 c 5 5 c 4 0 c 4 -7 c 5 -13 c 4 -4 c
5 -1 c 4 -1 c 4 -1 c 5 -1 c 4 0 c 4 -1 c 5 0 c 4 0 c 5 1 c 4 0 c 4 0 c 5 0 c 4 1 c 4 0 c 5 -1 c 4 -1 c 5 0 c 4 0 c 4 2 c 5 2 c
4 -1 c 4 0 c 5 -2 c 4 -1 c 4 2 c 5 0 c 4 0 c 5 0 c 4 2 c 4 10 c 5 3 c 4 0 c 4 -4 c 5 -8 c 4 -2 c 5 0 c 4 -1 c 4 0 c 5 0 c 4 2 c
4 3 c 5 1 c 4 -2 c 5 -1 c 4 -4 c 4 -1 c 5 0 c 4 1 c 4 2 c 5 1 c 4 2 c 5 0 c 4 -1 c 4 -1 c 5 -1 c 4 -1 c 4 -1 c 5 0 c 4 0 c 4 1 c
5 1 c 4 2 c 5 1 c 4 -1 c 4 1 c 5 -2 c 4 0 c 4 0 c 5 -1 c 4 -1 c 5 0 c 4 0 c 4 1 c 5 0 c 4 0 c 4 -1 c 5 0 c 4 0 c 5 1 c 4 5 c 4 5 c
5 -1 c 4 1 c 4 6 c 5 13 c 4 65 c 5 76 c 4 4 c 4 -15 c 5 -85 c 4 -67 c 4 -4 c 5 0 c 4 2 c 4 0 c 5 -2 c 4 0 c 5 -3 c 4 -1 c 4 0 c
5 2 c 4 1 c 4 0 c 5 0 c 4 -1 c 5 -1 c 4 8 c 4 24 c 5 8 c 4 -1 c 4 -10 c 5 -22 c 4 -5 c 5 -1 c 4 -1 c 4 2 c 5 3 c 4 -1 c 4 0 c 5 -3 c
4 -1 c 4 1 c 5 0 c 4 0 c 5 2 c 4 4 c 4 43 c 5 74 c 4 17 c 4 -8 c 5 -50 c 4 -67 c 5 -11 c 4 -3 c 4 -1 c 5 0 c 4 -1 c 4 1 c 5 0 c
4 1 c 5 1 c 4 1 c 4 1 c 5 -2 c 4 -1 c 4 -2 c 5 -1 c 4 0 c 5 1 c 4 0 c 4 1 c 5 -1 c 4 0 c 4 2 c 5 5 c 4 7 c 4 24 c 5 4 c 4 -5 c
5 -10 c 4 -20 c 4 12 c 5 27 c 4 5 c 4 -3 c 5 -20 c 4 -22 c 5 -2 c 4 0 c 4 4 c 5 4 c 4 -2 c 4 -1 c 5 -4 c 4 -4 c 5 0 c 4 0 c 4 0 c
5 1 c 4 2 c 4 0 c 5 -1 c 4 0 c 5 8 c 4 7 c 4 0 c 5 -3 c 4 -10 c 4 -3 c 5 1 c 4 4 c 4 1 c 5 0 c 4 -3 c 5 1 c 4 6 c 4 4 c 5 -1 c
4 -3 c 4 -6 c 5 -1 c 4 0 c 5 0 c 4 1 c 4 5 c 5 75 c 4 290 c 4 147 c 5 8 c 4 -124 c 5 -304 c 4 -91 c 4 -2 c 5 6 c 4 2 c 4 1 c 5 -3 c
4 -2 c 5 4 c 4 28 c 4 187 c 5 189 c 4 18 c 4 -28 c 5 -209 c 4 -113 c 4 -6 c 5 8 c 4 78 c 5 616 c 4 3372 c 4 1874 c 5 11 c 4 -17 c
4 -3026 c 5 -2499 c 4 -388 c 5 -55 c 4 -17 c 4 -5 c 5 -6 c 4 -5 c 4 -3 c 5 -4 c 4 -3 c 5 -2 c 4 -3 c 4 -1 c 5 3 c 4 4 c 4 3 c 5 0 c
4 -2 c 5 -4 c 4 -1 c 4 0 c 5 -1 c 4 -1 c 4 -1 c 5 2 c 4 17 c 4 28 c 5 8 c 4 9 c 5 136 c 4 744 c 4 458 c 5 34 c 4 -254 c 4 -852 c
5 -302 c 4 -26 c 5 -2 c 4 -1 c 4 0 c 5 -1 c 4 -1 c 4 -2 c 5 -1 c 4 0 c 5 0 c 4 0 c 4 1 c 5 2 c 4 2 c 4 -1 c 5 0 c 4 -1 c 4 -1 c
5 -1 c 4 -1 c 5 0 c 4 -1 c 4 1 c 5 1 c 4 0 c 4 1 c 5 -1 c 4 0 c 5 0 c 4 1 c 4 0 c 5 0 c 4 1 c 4 2 c 5 19 c 4 51 c 5 21 c 4 34 c
4 247 c 5 467 c 4 494 c 4 157 c 5 -309 c 4 -477 c 5 -496 c 4 -187 c 4 -15 c 5 11 c 4 12 c 4 -1 c 5 -2 c 4 -17 c 4 -10 c 5 -2 c
4 -1 c 5 0 c 4 4 c 4 19 c 5 14 c 4 -2 c 4 -5 c 5 -23 c 4 -9 c 5 -2 c 4 0 c 4 0 c 5 0 c 4 0 c 4 0 c 5 1 c 4 1 c 5 1 c 4 0 c 4 -1 c
5 -2 c 4 0 c 4 0 c 5 0 c 4 -1 c 5 0 c 4 1 c 4 2 c 5 1 c 4 -1 c 4 0 c 5 3 c 4 31 c 4 45 c 5 9 c 4 -3 c 5 -38 c 4 -39 c 4 -6 c 5 -3 c
4 0 c 4 1 c 5 1 c 4 3 c 5 0 c 4 0 c 4 -2 c 5 -2 c 4 -1 c 4 0 c 5 0 c 4 0 c 5 -1 c 4 3 c 4 3 c 5 3 c 4 1 c 4 -2 c 5 -3 c 4 7 c 5 31 c
4 15 c 4 8 c 5 58 c 4 140 c 4 104 c 5 25 c 4 -95 c 4 -161 c 5 -105 c 4 -29 c 5 -2 c 4 0 c 4 1 c 5 0 c 4 -2 c 4 0 c 5 0 c 4 -1 c
5 0 c 4 0 c 4 0 c 5 0 c 4 0 c 4 2 c 5 2 c 4 1 c 5 0 c 4 0 c 4 -1 c 5 1 c 4 1 c 4 -1 c 5 -1 c 4 -1 c 5 -1 c 4 0 c 4 0 c 5 -1 c 4 -1 c
4 0 c 5 0 c 4 0 c 4 1 c 5 1 c 4 1 c 5 1 c 4 0 c 4 0 c 5 0 c 4 0 c 4 0 c 5 0 c 4 -2 c 5 1 c 4 2 c 4 -17 c 5 18 c 4 2 c 4 20 c 5 60 c
4 23 c 5 -1 c 4 -26 c 4 -65 c 5 -16 c 4 -2 c 4 0 c 5 1 c 4 1 c 4 1 c 5 0 c 4 0 c 5 0 c 4 -2 c 4 0 c 5 -1 c 4 -1 c 4 1 c 5 0 c 4 1 c
5 1 c 4 -1 c 4 1 c 5 5 c 4 10 c 4 10 c 5 36 c 4 34 c 5 6 c 4 -11 c 4 -40 c 5 -37 c 4 -10 c 4 8 c 5 18 c 4 6 c 5 0 c 4 -10 c 4 -15 c
5 -4 c 4 -3 c 4 -3 c 5 0 c 4 0 c 4 0 c 5 0 c 4 -1 c 5 1 c 4 3 c 4 2 c 5 1 c 4 -2 c 4 -4 c 5 -1 c 4 -2 c 5 1 c 4 0 c 4 1 c 5 1 c
4 1 c 4 1 c 5 -1 c 4 -1 c 5 2 c 4 3 c 4 1 c 5 0 c 4 0 c 4 -3 c 5 3 c 4 2 c 5 5 c 4 17 c 4 164 c 5 685 c 4 417 c 4 38 c 5 -220 c
4 -677 c 4 -155 c 5 126 c 4 19 c 5 -45 c 4 -207 c 4 -149 c 5 -19 c 4 -1 c 4 -2 c 5 -2 c 4 -2 c 5 0 c 4 0 c 4 -1 c 5 0 c 4 0 c 4 1 c
5 0 c 4 0 c 5 -1 c 4 -1 c 4 1 c 5 3 c 4 0 c 4 1 c 5 -1 c 4 -2 c 5 -1 c 4 -1 c 4 1 c 5 2 c 4 2 c 4 1 c 5 0 c 4 -2 c 4 -1 c 5 -1 c
4 0 c 5 0 c 4 1 c 4 -1 c 5 2 c 4 13 c 4 55 c 5 38 c 4 8 c 5 -10 c 4 -46 c 4 -38 c 5 -4 c 4 -9 c 4 -5 c 5 0 c 4 2 c 5 2 c 4 -1 c
4 0 c 5 1 c 4 -3 c 4 0 c 5 -1 c 4 0 c 4 -1 c 5 0 c 4 1 c 5 1 c 4 7 c 4 26 c 5 -53 c 4 78 c 4 -2 c 5 14 c 4 181 c 5 182 c 4 20 c
4 -41 c 5 -211 c 4 -135 c 4 40 c 5 669 c 4 2673 c 5 1804 c 4 -5272 c 5 1783 5706 780 l 4 -1579 c 4 -146 c 5 -13 c 4 -3 c 5 21 c
4 27 c 4 9 c 5 -2 c 4 -31 c 4 -33 c 5 -8 c 4 -3 c 4 0 c 5 0 c 4 -1 c 5 -1 c 4 0 c 4 1 c 5 3 c 4 4 c 4 1 c 5 1 c 4 -1 c 5 -4 c 4 -3 c
4 -1 c 5 11 c 4 39 c 4 87 c 5 37 c 4 -3 c 5 -42 c 4 -92 c 4 -34 c 5 -6 c 4 0 c 4 2 c 5 4 c 4 -1 c 5 -2 c 4 -3 c 4 -2 c 5 1 c 4 -1 c
4 1 c 5 -1 c 4 0 c 4 2 c 5 11 c 4 16 c 5 3 c 4 3 c 4 -5 c 5 -13 c 4 -4 c 4 -3 c 5 -4 c 4 -1 c 5 1 c 4 -1 c 4 2 c 5 0 c 4 0 c 4 -2 c
5 -4 c 4 -2 c 5 1 c 4 -1 c 4 -1 c 5 -1 c 4 0 c 4 0 c 5 0 c 4 -1 c 5 0 c 4 1 c 4 1 c 5 1 c 4 0 c 4 0 c 5 -2 c 4 0 c 4 1 c 5 1 c 4 1 c
5 5 c 4 6 c 4 6 c 5 -1 c 4 -3 c 4 -8 c 5 -6 c 4 -2 c 5 0 c 4 0 c 4 1 c 5 0 c 4 -1 c 4 2 c 5 1 c 4 1 c 5 0 c 4 0 c 4 0 c 5 8 c 4 5 c
4 2 c 5 -2 c 4 -7 c 5 -5 c 4 0 c 4 -1 c 5 2 c 4 3 c 4 -1 c 5 -2 c 4 -3 c 4 -3 c 5 -1 c 4 1 c 5 1 c 4 1 c 4 1 c 5 0 c 4 -1 c 4 0 c
5 -2 c 4 0 c 5 0 c 4 1 c 4 4 c 5 5 c 4 8 c 4 11 c 5 -1 c 4 -4 c 5 -9 c 4 -11 c 4 -3 c 5 -1 c 4 0 c 4 0 c 5 0 c 4 2 c 4 2 c 5 3 c
4 2 c 5 -1 c 4 -1 c 4 -4 c 5 -3 c 4 0 c 4 1 c 5 2 c 4 0 c 5 0 c 4 -1 c 4 1 c 5 5 c 4 1 c 4 0 c 5 -2 c 4 -3 c 5 9 c 4 9 c 4 3 c
5 -1 c 4 -11 c 4 -10 c 5 -2 c 4 -1 c 5 0 c 4 0 c 4 0 c 5 1 c 4 1 c 4 1 c 5 1 c 4 0 c 4 1 c 5 7 c 4 8 c 5 2 c 4 3 c 4 13 c 5 234 c
4 637 c 4 232 c 5 -7 c 4 -261 c 5 -624 c 4 -180 c 4 29 c 5 12 c 4 -5 c 4 -31 c 5 -51 c 4 -12 c 5 -4 c 4 0 c 4 1 c 5 1 c 4 9 c
4 -31 c 5 107 c 4 27 c 5 11 c 4 -19 c 4 -30 c 5 -14 c 4 -16 c 4 -16 c 5 -14 c 4 -17 c 4 -5 c 5 0 c 4 1 c 5 1 c 4 1 c 4 0 c 5 0 c
4 -1 c 4 0 c 5 -1 c 4 0 c 5 0 c 4 0 c 4 0 c 5 0 c 4 1 c 4 1 c 5 1 c 4 2 c 5 0 c 4 0 c 4 -1 c 5 0 c 4 -1 c 4 2 c 5 8 c 4 9 c 5 1 c
4 0 c 4 -7 c 5 -8 c 4 -1 c 4 2 c 5 12 c 4 115 c 4 686 c 5 563 c 4 80 c 5 -94 c 4 -613 c 4 -488 c 5 -74 c 4 -44 c 4 -109 c 5 -35 c
4 -3 c 5 -2 c 4 0 c 4 3 c 5 6 c 4 2 c 4 -1 c 5 -1 c 4 2 c 5 -1 c 4 0 c 4 -3 c 5 -4 c 4 -2 c 4 3 c 5 0 c 4 -1 c 5 -1 c 4 -2 c 4 -2 c
5 0 c 4 -1 c 4 0 c 5 0 c 4 0 c 4 0 c 5 -1 c 4 -1 c 5 0 c 4 1 c 4 1 c 5 7 c 4 5 c 4 0 c 5 -2 c 4 -7 c 5 -4 c 4 -1 c 4 0 c 5 1 c 4 1 c
4 11 c 5 26 c 4 8 c 5 0 c 4 -9 c 4 -28 c 5 -8 c 4 0 c 4 0 c 5 0 c 4 0 c 4 0 c 5 1 c 4 -1 c 5 1 c 4 0 c 4 0 c 5 -1 c 4 -1 c 4 0 c
5 2 c 4 3 c 5 2 c 4 0 c 4 -1 c 5 -1 c 4 2 c 4 3 c 5 4 c 4 -1 c 5 -3 c 4 -4 c 4 -5 c 5 -2 c 4 0 c 4 0 c 5 0 c 4 0 c 5 1 c 4 -1 c
4 0 c 5 0 c 4 0 c 4 0 c 5 0 c 4 -1 c 4 0 c 5 0 c 4 0 c 5 1 c 4 0 c 4 0 c 5 2 c 4 4 c 4 1 c 5 1 c 4 -2 c 5 -4 c 4 1 c 4 -1 c 5 1 c
4 1 c 4 1 c 5 0 c 4 1 c 5 -1 c 4 -3 c 4 -1 c 5 -1 c 4 -1 c 4 1 c 5 0 c 4 0 c 5 0 c 4 0 c 4 0 c 5 4 c 4 2 c 4 2 c 5 0 c 4 -2 c 4 0 c
5 2 c 4 1 c 5 1 c 4 -2 c 4 -3 c 5 -1 c 4 -2 c 4 -1 c 5 -1 c 4 0 c 5 2 c 4 2 c 4 0 c 5 0 c 4 -2 c 4 -1 c 5 -1 c 4 0 c 5 0 c 4 -1 c
4 1 c 5 0 c 4 1 c 4 2 c 5 1 c 4 0 c 5 -1 c 4 -1 c 4 0 c 5 0 c 4 0 c 4 -1 c 5 -1 c 4 1 c 4 11 c 5 33 c 4 17 c 5 0 c 4 -10 c 4 -34 c
5 -10 c 4 2 c 4 1 c 5 0 c 4 -4 c 5 -3 c 4 -1 c 4 -1 c 5 -1 c 4 0 c 4 0 c 5 1 c 4 0 c 5 0 c 4 -1 c 4 -1 c 5 0 c 4 0 c 4 0 c 5 0 c
4 0 c 5 1 c 4 1 c 4 0 c 5 0 c 4 -1 c 4 0 c 5 0 c 4 3 c 4 3 c 5 0 c 4 1 c 5 -3 c 4 -3 c 4 0 c 5 0 c 4 1 c 4 3 c 5 1 c 4 3 c 5 2 c
4 3 c 4 21 c 5 140 c 4 263 c 4 92 c 5 -14 c 4 -143 c 5 -202 c 4 100 c 4 121 c 5 13 c 4 -41 c 4 -189 c 5 -143 c 4 -20 c 4 -1 c 5 12 c
4 133 c 5 656 c 4 409 c 4 16 c 5 -123 c 4 -633 c 4 -417 c 5 -53 c 4 -2 c 5 -2 c 4 -1 c 4 -1 c 5 -1 c 4 1 c 4 -1 c 5 0 c 4 -1 c 5 1 c
4 2 c 4 2 c 5 0 c 4 -2 c 4 -3 c 5 -2 c 4 0 c 5 -1 c 4 1 c 4 2 c 5 17 c 4 25 c 4 7 c 5 5 c 4 3 c 4 1 c 5 -3 c 4 -6 c 5 -16 c 4 -26 c
4 -5 c 5 0 c 4 1 c 4 -2 c 5 -1 c 4 0 c 5 1 c 4 1 c 4 3 c 5 2 c 4 0 c 4 0 c 5 -1 c 4 -1 c 5 1 c 4 1 c 4 0 c 5 2 c 4 1 c 4 2 c 5 1 c
4 2 c 5 2 c 4 1 c 4 2 c 5 5 c 4 7 c 4 4 c 5 6 c 4 8 c 4 11 c 5 14 c 4 20 c 5 28 c 4 36 c 4 157 c 5 810 c 4 4905 c 4 -3 c 5 3 c 4 9 c
5 -21 c 4 -1477 c 4 -3967 c 5 -371 c 4 -63 c 4 -24 c 5 -20 c 4 -17 c 5 -14 c 4 -13 c 4 -7 c 5 -7 c 4 -4 c 4 -7 c 5 -4 c 4 0 c 5 3 c
4 7 c 4 2 c 5 0 c 4 -5 c 4 -13 c 5 -6 c 4 -1 c 4 -1 c 5 0 c 4 2 c 5 0 c 4 0 c 4 0 c 5 -3 c 4 -1 c 4 -2 c 5 1 c 4 13 c 5 88 c 4 61 c
4 10 c 5 -12 c 4 -70 c 4 -74 c 5 -8 c 4 -2 c 5 -7 c 4 -5 c 4 0 c 5 0 c 4 0 c 4 -1 c 5 0 c 4 0 c 4 1 c 5 -1 c 4 1 c 5 -2 c 4 -1 c
4 0 c 5 0 c 4 2 c 4 0 c 5 3 c 4 1 c 5 -1 c 4 -1 c 4 -3 c 5 -1 c 4 -1 c 4 2 c 5 1 c 4 1 c 5 0 c 4 -1 c 4 -3 c 5 1 c 4 4 c 4 3 c 5 0 c
4 -2 c 5 -4 c 4 -2 c 4 0 c 5 0 c 4 0 c 4 0 c 5 1 c 4 0 c 4 0 c 5 1 c 4 3 c 5 0 c 4 1 c 4 -1 c 5 -4 c 4 0 c 4 -1 c 5 0 c 4 -1 c 5 0 c
4 0 c 4 -1 c 5 1 c 4 0 c 4 0 c 5 0 c 4 2 c 5 16 c 4 11 c 4 0 c 5 0 c 4 -14 c 4 9 c 5 35 c 4 4 c 5 0 c 4 -18 c 4 -34 c 5 -1 c 4 0 c
4 1 c 5 0 c 4 -6 c 4 -2 c 5 0 c 4 -1 c 5 0 c 4 -1 c 4 -1 c 5 0 c 4 0 c 4 0 c 5 1 c 4 1 c 5 0 c 4 0 c 4 -1 c 5 0 c 4 6 c 4 13 c
5 43 c 4 69 c 5 9 c 4 -12 c 4 -34 c 5 -74 c 4 18 c 4 99 c 5 22 c 4 1 c 5 -17 c 4 -94 c 4 -33 c 5 -2 c 4 -5 c 4 -8 c 5 -1 c 4 1 c
4 -1 c 5 0 c 4 -2 c 5 0 c 4 0 c 4 1 c 5 3 c 4 17 c 4 12 c 5 -1 c 4 -1 c 5 -16 c 4 -12 c 4 -2 c 5 0 c 4 0 c 4 1 c 5 1 c 4 0 c 5 0 c
4 1 c 4 1 c 5 3 c 4 47 c 4 261 c 5 159 c 4 13 c 5 0 c 4 -194 c 4 -192 c 5 -24 c 4 -22 c 4 -39 c 5 -5 c 4 3 c 4 17 c 5 13 c 4 4 c
5 -2 c 4 -16 c 4 -10 c 5 10 c 4 75 c 4 664 c 5 1228 c 4 238 c 5 95 c 4 -352 c 4 -1269 c 5 -385 c 4 -120 c 4 -158 c 5 -29 c 4 -1 c
5 0 c 4 -2 c 4 1 c 5 2 c 4 -2 c 4 0 c 5 -2 c 4 -5 c 4 -3 c 5 -3 c 4 0 c 5 0 c 4 0 c 4 0 c 5 1 c 4 1 c 4 0 c 5 -1 c 4 4 c 5 10 c
4 2 c 4 2 c 5 15 c 4 12 c 4 -1 c 5 -1 c 4 -14 c 5 -27 c 4 -5 c 4 -1 c 5 -1 c 4 0 c 4 1 c 5 2 c 4 0 c 5 0 c 4 0 c 4 -2 c 5 1 c 4 1 c
4 2 c 5 0 c 4 0 c 4 0 c 5 0 c 4 2 c 5 8 c 4 100 c 4 310 c 5 118 c 4 0 c 4 -64 c 5 -311 c 4 -153 c 5 -11 c 4 -1 c 4 -2 c 5 0 c 4 1 c
4 0 c 5 0 c 4 0 c 5 -1 c 4 -1 c 4 -1 c 5 2 c 4 0 c 4 1 c 5 0 c 4 0 c 5 -1 c 4 0 c 4 0 c 5 0 c 4 1 c 4 4 c 5 1 c 4 -1 c 4 -2 c 5 -3 c
4 -2 c 5 0 c 4 1 c 4 -1 c 5 0 c 4 0 c 4 0 c 5 0 c 4 -1 c 5 1 c 4 0 c 4 1 c 5 -1 c 4 0 c 4 0 c 5 0 c 4 0 c 5 0 c 4 1 c 4 1 c 5 1 c
4 2 c 4 0 c
5 4 c 4 5 c 5 1 c 4 -2 c 4 -23 c 4 15 9549 780 l 4 0 c 5 -1 c 4 -1 c 4 -2 c 5 0 c 4 0 c 5 -1 c 4 0 c 4 0 c 5 0 c 4 0 c 4 0 c 5 0 c
4 0 c 5 2 c 4 13 c 4 13 c 5 1 c 4 -2 c 4 -9 c 5 -15 c 4 -2 c 5 5 c 4 4 c 4 0 c 5 -1 c 4 -4 c 4 -4 c 5 0 c 4 0 c 5 -1 c 4 0 c 4 0 c
5 0 c 4 1 c 4 3 c 5 1 c 4 4 c
0 -126 3042 418 l 54 0 3042 418 l 18 -6 c 6 -6 c 6 -12 c 0 -12 c -6 -12 c -6 -6 c -18 -6 c -54 0 c 42 -66 3084 358 l
-12 -6 3192 376 l -12 -12 c -6 -18 c 0 -12 c 6 -18 c 12 -12 c 12 -6 c 18 0 c 12 6 c 12 12 c 6 18 c 0 12 c -6 18 c -12 12 c -12 6 c
-18 0 c 24 -84 3276 376 l -24 -84 3324 376 l 24 -84 3324 376 l -24 -84 3372 376 l 108 0 3414 364 l 108 0 3414 328 l
-6 -18 3834 376 l -12 -12 c -18 -6 c -6 0 c -18 6 c -12 12 c -6 18 c 0 6 c 6 18 c 12 12 c 18 6 c 6 0 c 18 -6 c 12 -12 c 6 -24 c
0 -30 c -6 -30 c -12 -18 c -18 -6 c -12 0 c -18 6 c -6 12 c 12 6 4278 394 l 18 18 c 0 -126 c -6 -6 4392 376 l 6 -6 c 6 6 c -6 6 c
-6 -6 4392 304 l 6 -6 c 6 6 c -6 6 c -48 -126 4572 418 l 48 -126 4572 418 l 60 0 4542 334 l 0 -84 4650 376 l 6 18 4650 340 l 12 12 c
12 6 c 18 0 c -12 12 4794 358 l -12 6 c -18 0 c -12 -6 c -12 -12 c -6 -18 c 0 -12 c 6 -18 c 12 -12 c 12 -6 c 18 0 c 12 6 c 12 12 c
108 0 4836 346 l -18 -6 5022 418 l -12 -18 c -6 -30 c 0 -18 c 6 -30 c 12 -18 c 18 -6 c 12 0 c 18 6 c 12 18 c 6 30 c 0 18 c -6 30 c
-12 18 c -18 6 c -12 0 c 66 0 5118 418 l -36 -48 c 18 0 c 12 -6 c 6 -6 c 6 -18 c 0 -12 c -6 -18 c -12 -12 c -18 -6 c -18 0 c -18 6 c
-6 6 c -6 12 c -59 0 5297 418 l -6 -54 c 6 6 c 18 6 c 17 0 c 18 -6 c 12 -12 c 6 -18 c 0 -12 c -6 -18 c -12 -12 c -18 -6 c -17 0 c
-18 6 c -6 6 c -6 12 c -6 -6 5357 304 l 6 -6 c 6 6 c -6 6 c -12 0 5447 418 l -12 -6 c -6 -18 c 0 -102 c 42 0 5399 376 l
6 -6 5477 418 l 6 6 c -6 6 c -6 -6 c 0 -84 5483 376 l 0 -102 5537 418 l 6 -18 c 12 -6 c 12 0 c 42 0 5519 376 l -6 12 5663 358 l
-18 6 c -18 0 c -18 -6 c -6 -12 c 6 -12 c 12 -6 c 30 -6 c 12 -6 c 6 -12 c 0 -6 c -6 -12 c -18 -6 c -18 0 c -18 6 c -6 12 c
0 -192 5993 442 l 0 -192 5999 442 l 42 0 5993 442 l 42 0 5993 250 l 0 6 6077 388 l 6 12 c 6 6 c 12 6 c 24 0 c 12 -6 c 6 -6 c 6 -12 c
0 -12 c -6 -12 c -12 -18 c -60 -60 c 84 0 c -6 -6 6203 376 l 6 -6 c 6 6 c -6 6 c -6 -6 6203 304 l 6 -6 c 6 6 c -6 6 c
-48 -126 6383 418 l 48 -126 6383 418 l 60 0 6353 334 l 0 -84 6461 376 l 6 18 6461 340 l 12 12 c 12 6 c 18 0 c -12 12 6605 358 l
-12 6 c -18 0 c -12 -6 c -12 -12 c -6 -18 c 0 -12 c 6 -18 c 12 -12 c 12 -6 c 18 0 c 12 6 c 12 12 c 108 0 6647 346 l
-18 -6 6833 418 l -12 -18 c -6 -30 c 0 -18 c 6 -30 c 12 -18 c 18 -6 c 12 0 c 18 6 c 12 18 c 6 30 c 0 18 c -6 30 c -12 18 c -18 6 c
-12 0 c 66 0 6929 418 l -36 -48 c 18 0 c 12 -6 c 6 -6 c 6 -18 c 0 -12 c -6 -18 c -12 -12 c -18 -6 c -18 0 c -18 6 c -6 6 c -6 12 c
-6 12 7115 400 l -18 6 c -12 0 c -18 -6 c -12 -18 c -6 -30 c 0 -30 c 6 -24 c 12 -12 c 18 -6 c 6 0 c 18 6 c 12 12 c 6 18 c 0 6 c
-6 18 c -12 12 c -18 6 c -6 0 c -18 -6 c -12 -12 c -6 -18 c -6 -6 7169 304 l 6 -6 c 6 6 c -6 6 c -12 0 7259 418 l -12 -6 c -6 -18 c
0 -102 c 42 0 7211 376 l 6 -6 7289 418 l 6 6 c -6 6 c -6 -6 c 0 -84 7295 376 l 0 -102 7349 418 l 6 -18 c 12 -6 c 12 0 c
42 0 7331 376 l -6 12 7475 358 l -18 6 c -18 0 c -18 -6 c -6 -12 c 6 -12 c 12 -6 c 30 -6 c 12 -6 c 6 -12 c 0 -6 c -6 -12 c -18 -6 c
-18 0 c -18 6 c -6 12 c 0 -192 7547 442 l 0 -192 7553 442 l 42 0 7511 442 l 42 0 7511 250 l
0 -249 831 1312 l 53 -38 787 1422 l 0 57 c 79 0 787 1422 l -4 8 802 1471 l -11 11 c 79 0 c 4 -11 787 1558 l 11 -8 c 19 -4 c 11 0 c
19 4 c 12 8 c 3 11 c 0 8 c -3 11 c -12 7 c -19 4 c -11 0 c -19 -4 c -11 -7 c -4 -11 c 0 -8 c 12 -4 813 1660 l 7 -7 c 4 -12 c 0 -3 c
-4 -12 c -7 -7 c -12 -4 c -3 0 c -12 4 c -7 7 c -4 12 c 0 3 c 4 12 c 7 7 c 15 4 c 19 0 c 19 -4 c 12 -7 c 3 -12 c 0 -7 c -3 -12 c
-8 -3 c 4 -4 859 1694 l 3 4 c -3 4 c -4 -4 c 0 41 787 1732 l 30 -22 c 0 11 c 4 8 c 4 3 c 11 4 c 8 0 c 11 -4 c 8 -7 c 3 -11 c 0 -12 c
-3 -11 c -4 -4 c -8 -4 c -4 0 806 1804 l -7 3 c -4 4 c -4 8 c 0 15 c 4 7 c 4 4 c 7 4 c 8 0 c 7 -4 c 12 -7 c 37 -38 c 0 53 c
0 42 787 1883 l 30 -23 c 0 11 c 4 8 c 4 4 c 11 3 c 8 0 c 11 -3 c 8 -8 c 3 -11 c 0 -12 c -3 -11 c -4 -4 c -8 -4 c 0 -249 1046 1374 l
53 -38 1002 1484 l 0 57 c 80 0 1002 1484 l -3 8 1017 1533 l -12 11 c 80 0 c -3 7 1017 1609 l -12 12 c 80 0 c 4 -12 1002 1696 l
11 -7 c 19 -4 c 12 0 c 19 4 c 11 7 c 4 12 c 0 7 c -4 12 c -11 7 c -19 4 c -12 0 c -19 -4 c -11 -7 c -4 -12 c 0 -7 c 4 -4 1074 1756 l
4 4 c -4 4 c -4 -4 c 4 -11 1002 1805 l 8 -4 c 7 0 c 8 4 c 4 8 c 3 15 c 4 11 c 8 8 c 7 3 c 12 0 c 7 -3 c 4 -4 c 4 -12 c 0 -15 c
-4 -11 c -4 -4 c -7 -4 c -12 0 c -7 4 c -8 8 c -4 11 c -3 15 c -4 8 c -8 4 c -7 0 c -8 -4 c -4 -12 c 0 -15 c -4 0 1021 1866 l -7 4 c
-4 3 c -4 8 c 0 15 c 4 8 c 4 3 c 7 4 c 8 0 c 8 -4 c 11 -7 c 38 -38 c 0 53 c -8 -4 1014 1987 l -4 -11 c 0 -8 c 4 -11 c 11 -8 c
19 -4 c 19 0 c 15 4 c 8 8 c 4 11 c 0 4 c -4 11 c -8 8 c -11 3 c -4 0 c -11 -3 c -8 -8 c -3 -11 c 0 -4 c 3 -11 c 8 -8 c 11 -4 c
0 -250 1317 3035 l 53 -38 1273 3144 l 0 57 c 80 0 1273 3144 l -4 8 1289 3193 l -12 11 c 80 0 c -4 8 1289 3269 l -12 11 c 80 0 c
-3 0 1292 3337 l -8 4 c -4 4 c -4 7 c 0 15 c 4 8 c 4 4 c 8 3 c 7 0 c 8 -3 c 11 -8 c 38 -38 c 0 53 c 4 -3 1345 3416 l 4 3 c -4 4 c
-4 -4 c 80 -38 1273 3500 l 0 53 1273 3447 l 0 -38 1273 3568 l 34 -4 c -3 4 c -4 11 c 0 11 c 4 12 c 7 7 c 12 4 c 7 0 c 11 -4 c 8 -7 c
4 -12 c 0 -11 c -4 -11 c -4 -4 c -7 -4 c 0 -38 1273 3643 l 34 -3 c -3 3 c -4 12 c 0 11 c 4 11 c 7 8 c 12 4 c 7 0 c 11 -4 c 8 -8 c
4 -11 c 0 -11 c -4 -12 c -4 -3 c -7 -4 c 0 -250 1745 1535 l 53 -38 1701 1644 l 0 57 c 80 0 1701 1644 l -3 8 1716 1693 l -12 11 c
80 0 c -3 7 1716 1769 l -12 12 c 80 0 c 0 -38 1701 1879 l 34 -4 c -3 4 c -4 11 c 0 11 c 4 12 c 7 7 c 11 4 c 8 0 c 11 -4 c 8 -7 c
4 -12 c 0 -11 c -4 -11 c -4 -4 c -7 -4 c 4 -3 1773 1916 l 4 3 c -4 4 c -4 -4 c 80 -37 1701 1999 l 0 52 1701 1947 l 0 -38 1701 2068 l
34 -4 c -3 4 c -4 11 c 0 11 c 4 12 c 7 7 c 11 4 c 8 0 c 11 -4 c 8 -7 c 4 -12 c 0 -11 c -4 -11 c -4 -4 c -7 -4 c 11 -4 1728 2147 l
8 -7 c 3 -12 c 0 -4 c -3 -11 c -8 -7 c -11 -4 c -4 0 c -11 4 c -8 7 c -4 11 c 0 4 c 4 12 c 8 7 c 15 4 c 19 0 c 19 -4 c 11 -7 c
4 -12 c 0 -7 c -4 -12 c -8 -3 c 0 -250 1882 6274 l 53 -38 1838 6383 l 0 57 c 79 0 1838 6383 l -4 8 1853 6432 l -11 11 c 79 0 c
-4 7 1853 6508 l -11 12 c 79 0 c -7 -3 1849 6621 l -4 -12 c 0 -7 c 4 -12 c 11 -7 c 19 -4 c 19 0 c 15 4 c 8 7 c 3 12 c 0 3 c -3 12 c
-8 7 c -11 4 c -4 0 c -11 -4 c -8 -7 c -4 -12 c 0 -3 c 4 -12 c 8 -7 c 11 -4 c 4 -3 1910 6655 l 3 3 c -3 4 c -4 -4 c
79 -37 1838 6738 l 0 52 1838 6686 l -4 8 1853 6772 l -11 11 c 79 0 c 53 -38 1838 6875 l 0 56 c 79 0 1838 6875 l 0 -250 3428 1404 l
53 -37 3385 1513 l 0 56 c 79 0 3385 1513 l -4 7 3400 1563 l -11 11 c 79 0 c -4 0 3404 1631 l -8 3 c -4 4 c -3 8 c 0 15 c 3 7 c 4 4 c
8 4 c 7 0 c 8 -4 c 11 -7 c 38 -38 c 0 53 c 79 -37 3385 1755 l 0 53 3385 1702 l 3 -4 3457 1786 l 4 4 c -4 3 c -3 -3 c
53 -38 3385 1854 l 0 57 c 79 0 3385 1854 l -4 7 3400 1903 l -11 12 c 79 0 c -4 0 3404 1971 l -8 4 c -4 3 c -3 8 c 0 15 c 3 8 c 4 3 c
8 4 c 7 0 c 8 -4 c 11 -7 c 38 -38 c 0 53 c 0 -250 3736 1272 l 53 -38 3692 1382 l 0 56 c 79 0 3692 1382 l -4 7 3707 1431 l -11 12 c
79 0 c -4 0 3711 1499 l -7 4 c -4 3 c -4 8 c 0 15 c 4 8 c 4 3 c 7 4 c 8 0 c 7 -4 c 12 -7 c 37 -38 c 0 53 c 12 -4 3718 1620 l 7 -8 c
4 -11 c 0 -4 c -4 -11 c -7 -8 c -12 -3 c -3 0 c -12 3 c -7 8 c -4 11 c 0 4 c 4 11 c 7 8 c 15 4 c 19 0 c 19 -4 c 12 -8 c 3 -11 c
0 -8 c -3 -11 c -8 -4 c 4 -4 3764 1654 l 3 4 c -3 3 c -4 -3 c 0 -37 3692 1729 l 34 -4 c -4 4 c -4 11 c 0 11 c 4 12 c 8 7 c 11 4 c
8 0 c 11 -4 c 8 -7 c 3 -12 c 0 -11 c -3 -11 c -4 -4 c -8 -4 c -4 7 3707 1771 l -11 12 c 79 0 c -4 0 3711 1839 l -7 4 c -4 3 c -4 8 c
0 15 c 4 8 c 4 3 c 7 4 c 8 0 c 7 -4 c 12 -7 c 37 -38 c 0 53 c 0 -249 3956 1760 l 53 -38 3912 1870 l 0 57 c 80 0 3912 1870 l
-3 8 3927 1919 l -12 11 c 80 0 c 0 41 3912 1991 l 30 -22 c 0 11 c 4 8 c 4 3 c 11 4 c 8 0 c 11 -4 c 8 -7 c 4 -11 c 0 -12 c -4 -11 c
-4 -4 c -8 -4 c -3 8 3927 2070 l -12 11 c 80 0 c 4 -4 3984 2142 l 4 4 c -4 4 c -4 -4 c 4 -11 3912 2195 l 11 -8 c 19 -4 c 12 0 c
18 4 c 12 8 c 4 11 c 0 8 c -4 11 c -12 7 c -18 4 c -12 0 c -19 -4 c -11 -7 c -4 -11 c 0 -8 c 4 -12 3912 2271 l 11 -7 c 19 -4 c
12 0 c 18 4 c 12 7 c 4 12 c 0 7 c -4 11 c -12 8 c -18 4 c -12 0 c -19 -4 c -11 -8 c -4 -11 c 0 -7 c -4 0 3931 2327 l -7 4 c -4 4 c
-4 7 c 0 15 c 4 8 c 4 4 c 7 4 c 8 0 c 7 -4 c 12 -8 c 38 -38 c 0 53 c 0 -249 4062 7019 l 52 -38 4019 7129 l 0 57 c 79 0 4019 7129 l
-4 7 4034 7178 l -11 12 c 79 0 c 0 41 4019 7250 l 30 -22 c 0 11 c 4 7 c 3 4 c 12 4 c 7 0 c 12 -4 c 7 -7 c 4 -12 c 0 -11 c -4 -11 c
-4 -4 c -7 -4 c -4 8 4034 7329 l -11 11 c 79 0 c 4 -4 4090 7401 l 4 4 c -4 4 c -4 -4 c 79 -38 4019 7484 l 0 53 4019 7431 l
-3 0 4037 7510 l -8 4 c -4 4 c -3 8 c 0 15 c 3 7 c 4 4 c 8 4 c 7 0 c 8 -4 c 11 -8 c 38 -37 c 0 53 c 52 -38 4019 7620 l 0 57 c
79 0 4019 7620 l 0 -249 4214 2674 l 52 -38 4171 2784 l 0 57 c 79 0 4171 2784 l -4 8 4186 2833 l -11 11 c 79 0 c 0 42 4171 2905 l
30 -23 c 0 11 c 4 8 c 3 4 c 12 3 c 7 0 c 12 -3 c 7 -8 c 4 -11 c 0 -12 c -4 -11 c -4 -4 c -7 -4 c -3 0 4189 2977 l -8 4 c -4 3 c
-3 8 c 0 15 c 3 8 c 4 3 c 8 4 c 7 0 c 8 -4 c 11 -7 c 38 -38 c 0 53 c 4 -4 4242 3056 l 4 4 c -4 4 c -4 -4 c 79 -38 4171 3139 l
0 53 4171 3086 l 0 -37 4171 3207 l 34 -4 c -4 4 c -4 11 c 0 11 c 4 12 c 7 7 c 12 4 c 7 0 c 12 -4 c 7 -7 c 4 -12 c 0 -11 c -4 -11 c
-4 -4 c -7 -4 c 0 42 4171 3245 l 30 -23 c 0 11 c 4 8 c 3 4 c 12 3 c 7 0 c 12 -3 c 7 -8 c 4 -11 c 0 -12 c -4 -11 c -4 -4 c -7 -3 c
0 -249 4412 2727 l 53 -38 4368 2837 l 0 57 c 79 0 4368 2837 l -4 8 4383 2886 l -11 11 c 79 0 c 0 42 4368 2958 l 30 -23 c 0 11 c
4 8 c 4 4 c 11 3 c 8 0 c 11 -3 c 8 -8 c 3 -11 c 0 -12 c -3 -11 c -4 -4 c -8 -4 c 53 -38 4368 3064 l 0 57 c 79 0 4368 3064 l
4 -4 4440 3109 l 3 4 c -3 4 c -4 -4 c 4 -11 4368 3162 l 11 -8 c 19 -4 c 11 0 c 19 4 c 12 8 c 3 11 c 0 8 c -3 11 c -12 7 c -19 4 c
-11 0 c -19 -4 c -11 -7 c -4 -11 c 0 -8 c -7 -4 4379 3264 l -4 -11 c 0 -8 c 4 -11 c 11 -7 c 19 -4 c 19 0 c 15 4 c 8 7 c 3 11 c 0 4 c
-3 12 c -8 7 c -11 4 c -4 0 c -11 -4 c -8 -7 c -4 -12 c 0 -4 c 4 -11 c 8 -7 c 11 -4 c 4 -11 4368 3309 l 7 -4 c 8 0 c 8 4 c 3 8 c
4 15 c 4 11 c 7 8 c 8 3 c 11 0 c 8 -3 c 4 -4 c 3 -11 c 0 -16 c -3 -11 c -4 -4 c -8 -3 c -11 0 c -8 3 c -7 8 c -4 11 c -4 15 c -3 8 c
-8 4 c -8 0 c -7 -4 c -4 -11 c 0 -16 c 0 -250 4618 1320 l 53 -38 4575 1429 l 0 57 c 79 0 4575 1429 l -4 8 4590 1478 l -11 11 c
79 0 c 0 42 4575 1550 l 30 -23 c 0 11 c 4 8 c 4 4 c 11 4 c 8 0 c 11 -4 c 7 -8 c 4 -11 c 0 -11 c -4 -12 c -3 -4 c -8 -3 c
0 -38 4575 1664 l 34 -4 c -4 4 c -4 11 c 0 11 c 4 12 c 8 7 c 11 4 c 8 0 c 11 -4 c 7 -7 c 4 -12 c 0 -11 c -4 -11 c -3 -4 c -8 -4 c
3 -3 4647 1701 l 4 3 c -4 4 c -3 -4 c 53 -37 4575 1769 l 0 56 c 79 0 4575 1769 l 4 -11 4575 1826 l 7 -4 c 8 0 c 7 4 c 4 7 c 4 15 c
4 12 c 7 7 c 8 4 c 11 0 c 8 -4 c 3 -3 c 4 -12 c 0 -15 c -4 -11 c -3 -4 c -8 -4 c -11 0 c -8 4 c -7 8 c -4 11 c -4 15 c -4 8 c -7 3 c
-8 0 c -7 -3 c -4 -12 c 0 -15 c 4 -11 4575 1905 l 11 -7 c 19 -4 c 11 0 c 19 4 c 11 7 c 4 11 c 0 8 c -4 11 c -11 8 c -19 4 c -11 0 c
-19 -4 c -11 -8 c -4 -11 c 0 -8 c 0 -249 5000 1340 l 53 -38 4956 1450 l 0 57 c 80 0 4956 1450 l -3 8 4971 1499 l -12 11 c 80 0 c
0 41 4956 1571 l 31 -22 c 0 11 c 3 8 c 4 3 c 12 4 c 7 0 c 11 -4 c 8 -7 c 4 -12 c 0 -11 c -4 -11 c -4 -4 c -7 -4 c 4 -12 4956 1658 l
8 -3 c 7 0 c 8 3 c 4 8 c 3 15 c 4 11 c 8 8 c 7 4 c 12 0 c 7 -4 c 4 -4 c 4 -11 c 0 -15 c -4 -12 c -4 -3 c -7 -4 c -12 0 c -7 4 c
-8 7 c -4 11 c -3 16 c -4 7 c -8 4 c -7 0 c -8 -4 c -4 -11 c 0 -15 c 4 -4 5028 1722 l 4 4 c -4 4 c -4 -4 c 4 -11 4956 1775 l 11 -8 c
19 -4 c 12 0 c 19 4 c 11 8 c 4 11 c 0 7 c -4 12 c -11 7 c -19 4 c -12 0 c -19 -4 c -11 -7 c -4 -12 c 0 -7 c 53 -38 4956 1866 l
0 56 c 80 0 4956 1866 l -3 7 4971 1915 l -12 12 c 80 0 c 0 -249 5697 6489 l 52 -38 5654 6599 l 0 57 c 79 0 5654 6599 l
-4 7 5669 6648 l -11 12 c 79 0 c 52 -38 5654 6750 l 0 57 c 79 0 5654 6750 l -3 0 5672 6791 l -8 4 c -4 4 c -3 8 c 0 15 c 3 7 c 4 4 c
8 4 c 7 0 c 8 -4 c 11 -8 c 38 -37 c 0 53 c 4 -4 5725 6871 l 4 4 c -4 4 c -4 -4 c 79 -38 5654 6954 l 0 53 5654 6901 l
3 -11 5654 6999 l 12 -8 c 19 -3 c 11 0 c 19 3 c 11 8 c 4 11 c 0 8 c -4 11 c -11 8 c -19 4 c -11 0 c -19 -4 c -12 -8 c -3 -11 c
0 -8 c -4 7 5669 7064 l -11 11 c 79 0 c 0 -250 5844 1412 l 53 -38 5800 1521 l 0 57 c 79 0 5800 1521 l -4 8 5815 1570 l -11 11 c
79 0 c 53 -37 5800 1672 l 0 56 c 79 0 5800 1672 l 0 41 5800 1718 l 30 -22 c 0 11 c 4 8 c 4 3 c 11 4 c 8 0 c 11 -4 c 8 -7 c 3 -12 c
0 -11 c -3 -11 c -4 -4 c -8 -4 c 4 -3 5872 1793 l 3 3 c -3 4 c -4 -4 c -7 -4 5811 1873 l -4 -11 c 0 -8 c 4 -11 c 11 -8 c 19 -4 c
19 0 c 15 4 c 8 8 c 3 11 c 0 4 c -3 11 c -8 8 c -11 4 c -4 0 c -11 -4 c -8 -8 c -4 -11 c 0 -4 c 4 -11 c 8 -8 c 11 -4 c
53 -38 5800 1937 l 0 57 c 79 0 5800 1937 l 11 -4 5827 2024 l 7 -7 c 4 -12 c 0 -4 c -4 -11 c -7 -7 c -11 -4 c -4 0 c -12 4 c -7 7 c
-4 11 c 0 4 c 4 12 c 7 7 c 16 4 c 18 0 c 19 -4 c 12 -7 c 3 -12 c 0 -7 c -3 -12 c -8 -3 c 0 -250 6535 2371 l 53 -38 6491 2481 l
0 56 c 79 0 6491 2481 l -4 7 6506 2530 l -11 12 c 79 0 c 53 -38 6491 2632 l 0 57 c 79 0 6491 2632 l 4 -11 6491 2688 l 7 -4 c 8 0 c
7 4 c 4 8 c 4 15 c 4 11 c 7 8 c 8 3 c 11 0 c 8 -3 c 3 -4 c 4 -11 c 0 -16 c -4 -11 c -3 -4 c -8 -3 c -11 0 c -8 3 c -7 8 c -4 11 c
-4 15 c -4 8 c -7 4 c -8 0 c -7 -4 c -4 -11 c 0 -16 c 3 -4 6563 2753 l 4 4 c -4 3 c -3 -3 c -4 8 6506 2794 l -11 11 c 79 0 c
4 -11 6491 2877 l 7 -4 c 8 0 c 7 4 c 4 8 c 4 15 c 4 11 c 7 8 c 8 3 c 11 0 c 8 -3 c 3 -4 c 4 -12 c 0 -15 c -4 -11 c -3 -4 c -8 -4 c
-11 0 c -8 4 c -7 8 c -4 11 c -4 15 c -4 8 c -7 4 c -8 0 c -7 -4 c -4 -12 c 0 -15 c -4 0 6510 2938 l -8 4 c -3 3 c -4 8 c 0 15 c
4 8 c 3 3 c 8 4 c 8 0 c 7 -4 c 11 -7 c 38 -38 c 0 53 c 0 -249 6616 1361 l 53 -38 6573 1471 l 0 57 c 79 0 6573 1471 l
-4 8 6588 1520 l -11 11 c 79 0 c 53 -38 6573 1622 l 0 57 c 79 0 6573 1622 l 3 -11 6573 1679 l 8 -4 c 8 0 c 7 4 c 4 7 c 4 15 c 3 12 c
8 7 c 8 4 c 11 0 c 7 -4 c 4 -4 c 4 -11 c 0 -15 c -4 -11 c -4 -4 c -7 -4 c -11 0 c -8 4 c -8 7 c -3 12 c -4 15 c -4 7 c -7 4 c -8 0 c
-8 -4 c -3 -11 c 0 -15 c 4 -4 6644 1743 l 4 4 c -4 4 c -4 -4 c 79 -37 6573 1826 l 0 53 6573 1773 l -4 0 6592 1853 l -8 4 c -4 3 c
-3 8 c 0 15 c 3 8 c 4 3 c 8 4 c 7 0 c 8 -4 c 11 -7 c 38 -38 c 0 53 c 79 -38 6573 1978 l 0 53 6573 1925 l 0 -249 7545 1292 l
53 -38 7501 1402 l 0 57 c 80 0 7501 1402 l -3 7 7516 1451 l -12 12 c 80 0 c 0 -37 7501 1560 l 34 -4 c -3 4 c -4 11 c 0 11 c 4 12 c
7 7 c 11 4 c 8 0 c 11 -4 c 8 -7 c 4 -12 c 0 -11 c -4 -11 c -4 -4 c -7 -4 c 53 -37 7501 1628 l 0 56 c 80 0 7501 1628 l
4 -4 7573 1674 l 4 4 c -4 4 c -4 -4 c 80 -38 7501 1757 l 0 53 7501 1704 l -4 0 7520 1783 l -7 4 c -4 4 c -4 8 c 0 15 c 4 7 c 4 4 c
7 4 c 8 0 c 8 -4 c 11 -8 c 38 -37 c 0 53 c -3 7 7516 1867 l -12 11 c 80 0 c 0 -250 7825 2468 l 53 -38 7782 2577 l 0 57 c
79 0 7782 2577 l -4 8 7797 2626 l -11 11 c 79 0 c 0 -38 7782 2736 l 34 -4 c -4 4 c -4 12 c 0 11 c 4 11 c 8 8 c 11 4 c 7 0 c 12 -4 c
7 -8 c 4 -11 c 0 -11 c -4 -12 c -3 -4 c -8 -3 c -7 -3 7793 2815 l -4 -12 c 0 -7 c 4 -12 c 11 -7 c 19 -4 c 19 0 c 15 4 c 7 7 c 4 12 c
0 3 c -4 12 c -7 7 c -12 4 c -3 0 c -12 -4 c -7 -7 c -4 -12 c 0 -3 c 4 -12 c 7 -7 c 12 -4 c 3 -3 7854 2849 l 4 3 c -4 4 c -3 -4 c
0 -38 7782 2925 l 34 -4 c -4 4 c -4 12 c 0 11 c 4 11 c 8 8 c 11 4 c 7 0 c 12 -4 c 7 -8 c 4 -11 c 0 -11 c -4 -12 c -3 -4 c -8 -3 c
-4 7 7797 2967 l -11 11 c 79 0 c 79 -38 7782 3084 l 0 53 7782 3031 l 0 -249 8151 7019 l 53 -38 8107 7129 l 0 57 c 80 0 8107 7129 l
-4 7 8123 7178 l -12 12 c 80 0 c 0 -37 8107 7287 l 34 -4 c -3 4 c -4 11 c 0 11 c 4 12 c 7 7 c 12 4 c 7 0 c 11 -4 c 8 -7 c 4 -12 c
0 -11 c -4 -11 c -4 -4 c -7 -4 c 4 -12 8107 7337 l 8 -4 c 7 0 c 8 4 c 4 8 c 3 15 c 4 11 c 8 8 c 7 4 c 12 0 c 7 -4 c 4 -4 c 4 -11 c
0 -15 c -4 -12 c -4 -4 c -7 -3 c -12 0 c -7 3 c -8 8 c -4 11 c -3 15 c -4 8 c -8 4 c -7 0 c -8 -4 c -4 -11 c 0 -15 c
4 -4 8179 7401 l 4 4 c -4 4 c -4 -4 c 0 -37 8107 7476 l 34 -4 c -3 4 c -4 11 c 0 11 c 4 12 c 7 7 c 12 4 c 7 0 c 11 -4 c 8 -7 c
4 -12 c 0 -11 c -4 -11 c -4 -4 c -7 -4 c 11 -4 8134 7556 l 8 -8 c 4 -11 c 0 -4 c -4 -11 c -8 -8 c -11 -3 c -4 0 c -11 3 c -8 8 c
-4 11 c 0 4 c 4 11 c 8 8 c 15 4 c 19 0 c 19 -4 c 11 -8 c 4 -11 c 0 -7 c -4 -12 c -8 -4 c -4 7 8123 7594 l -12 11 c 80 0 c
0 -249 8320 1413 l 53 -38 8276 1523 l 0 57 c 80 0 8276 1523 l -4 7 8292 1572 l -12 12 c 80 0 c 0 -37 8276 1681 l 35 -4 c -4 4 c
-4 11 c 0 11 c 4 12 c 7 7 c 12 4 c 7 0 c 12 -4 c 7 -7 c 4 -12 c 0 -11 c -4 -11 c -4 -4 c -7 -4 c 11 -4 8303 1761 l 8 -8 c 4 -11 c
0 -4 c -4 -11 c -8 -8 c -11 -3 c -4 0 c -11 3 c -8 8 c -4 11 c 0 4 c 4 11 c 8 8 c 15 4 c 19 0 c 19 -4 c 11 -8 c 4 -11 c 0 -7 c
-4 -12 c -7 -4 c 4 -4 8348 1795 l 4 4 c -4 4 c -4 -4 c -8 -4 8288 1874 l -4 -11 c 0 -7 c 4 -12 c 12 -7 c 19 -4 c 18 0 c 16 4 c 7 7 c
4 12 c 0 3 c -4 12 c -7 7 c -12 4 c -4 0 c -11 -4 c -7 -7 c -4 -12 c 0 -3 c 4 -12 c 7 -7 c 11 -4 c -8 -4 8288 1950 l -4 -11 c 0 -8 c
4 -11 c 12 -8 c 19 -4 c 18 0 c 16 4 c 7 8 c 4 11 c 0 4 c -4 11 c -7 8 c -12 4 c -4 0 c -11 -4 c -7 -8 c -4 -11 c 0 -4 c 4 -11 c
7 -8 c 11 -4 c 4 -11 8276 1999 l 12 -8 c 19 -4 c 11 0 c 19 4 c 11 8 c 4 11 c 0 7 c -4 12 c -11 7 c -19 4 c -11 0 c -19 -4 c -12 -7 c
-4 -12 c 0 -7 c 0 -249 8649 1293 l 52 -38 8606 1403 l 0 57 c 79 0 8606 1403 l -4 7 8621 1452 l -11 12 c 79 0 c -8 -4 8617 1565 l
-3 -11 c 0 -7 c 3 -12 c 12 -7 c 19 -4 c 18 0 c 16 4 c 7 7 c 4 12 c 0 3 c -4 12 c -7 7 c -12 4 c -4 0 c -11 -4 c -7 -7 c -4 -12 c
0 -3 c 4 -12 c 7 -7 c 11 -4 c -4 8 8621 1603 l -11 11 c 79 0 c 4 -4 8677 1675 l 4 4 c -4 4 c -4 -4 c 79 -38 8606 1758 l
0 53 8606 1705 l 0 42 8606 1788 l 30 -23 c 0 11 c 4 8 c 3 4 c 12 4 c 7 0 c 12 -4 c 7 -8 c 4 -11 c 0 -11 c -4 -12 c -4 -4 c -7 -3 c
11 -3 8632 1905 l 8 -8 c 4 -11 c 0 -4 c -4 -11 c -8 -8 c -11 -4 c -4 0 c -11 4 c -8 8 c -3 11 c 0 4 c 3 11 c 8 8 c 15 3 c 19 0 c
19 -3 c 11 -8 c 4 -11 c 0 -8 c -4 -11 c -7 -4 c 0 -249 9039 3560 l 53 -38 8996 3670 l 0 57 c 79 0 8996 3670 l -4 7 9011 3719 l
-11 12 c 79 0 c -7 -3 9007 3832 l -4 -12 c 0 -7 c 4 -12 c 11 -7 c 19 -4 c 19 0 c 15 4 c 7 7 c 4 12 c 0 3 c -4 12 c -7 7 c -11 4 c
-4 0 c -12 -4 c -7 -7 c -4 -12 c 0 -3 c 4 -12 c 7 -7 c 12 -4 c 53 -38 8996 3897 l 0 56 c 79 0 8996 3897 l 3 -4 9068 3942 l 4 4 c
-4 4 c -3 -4 c -4 0 9015 3976 l -8 4 c -3 3 c -4 8 c 0 15 c 4 8 c 3 3 c 8 4 c 8 0 c 7 -4 c 11 -7 c 38 -38 c 0 53 c 0 -38 8996 4093 l
34 -4 c -4 4 c -4 12 c 0 11 c 4 11 c 8 8 c 11 4 c 8 0 c 11 -4 c 7 -8 c 4 -11 c 0 -11 c -4 -12 c -3 -4 c -8 -3 c 0 -38 8996 4169 l
34 -4 c -4 4 c -4 11 c 0 12 c 4 11 c 8 7 c 11 4 c 8 0 c 11 -4 c 7 -7 c 4 -11 c 0 -12 c -4 -11 c -3 -4 c -8 -4 c 0 -249 9293 1771 l
53 -38 9250 1881 l 0 57 c 79 0 9250 1881 l -4 7 9265 1930 l -11 12 c 79 0 c -7 -4 9261 2043 l -4 -11 c 0 -7 c 4 -12 c 11 -7 c
19 -4 c 19 0 c 15 4 c 7 7 c 4 12 c 0 3 c -4 12 c -7 7 c -12 4 c -3 0 c -12 -4 c -7 -7 c -4 -12 c 0 -3 c 4 -12 c 7 -7 c 12 -4 c
0 -38 9250 2115 l 34 -3 c -4 3 c -4 12 c 0 11 c 4 11 c 8 8 c 11 4 c 7 0 c 12 -4 c 7 -8 c 4 -11 c 0 -11 c -4 -12 c -3 -3 c -8 -4 c
3 -4 9322 2153 l 4 4 c -4 4 c -3 -4 c 79 -38 9250 2236 l 0 53 9250 2183 l -7 -4 9261 2308 l -4 -11 c 0 -8 c 4 -11 c 11 -8 c 19 -4 c
19 0 c 15 4 c 7 8 c 4 11 c 0 4 c -4 11 c -7 8 c -12 4 c -3 0 c -12 -4 c -7 -8 c -4 -11 c 0 -4 c 4 -11 c 7 -8 c 12 -4 c
-7 -3 9261 2383 l -4 -12 c 0 -7 c 4 -12 c 11 -7 c 19 -4 c 19 0 c 15 4 c 7 7 c 4 12 c 0 4 c -4 11 c -7 7 c -12 4 c -3 0 c -12 -4 c
-7 -7 c -4 -11 c 0 -4 c 4 -12 c 7 -7 c 12 -4 c
showpage PGPLOT restore
 
%%Trailer
%%DocumentFonts: 
%%Pages: 1
%%EOF
