%!PS-Adobe-3.0 EPSF-3.0
%%For: tom
%%Title: PGPLOT PostScript plot
%%Creator: PGPLOT
%%CreationDate:  9-Nov-1994 13:45
%%BoundingBox: 25 18 587 774
%%DocumentFonts: (atend)
%%LanguageLevel: 1
%%Orientation: Landscape
%%Pages: (atend)
%%EndComments
%%BeginProlog
/l {moveto rlineto currentpoint stroke moveto} bind def
/c {rlineto currentpoint stroke moveto} bind def
/d {moveto 0 0 rlineto currentpoint stroke moveto} bind def
/SLW {5 mul setlinewidth} bind def
/SCF /pop load def
/BP {newpath moveto} bind def
/LP /rlineto load def
/EP {rlineto closepath eofill} bind def
/MB {gsave translate MFAC dup scale 1 setlinewidth 2 setlinecap 0 setlinejoin newpath} bind def
/ME /grestore load def
/C {0 360 arc stroke} bind def
/FC {0 360 arc fill} bind def
%%EndProlog
 
%%Page: 1 1
%%BeginPageSetup
/PGPLOT save def
0.072 0.072 scale
8150 250 translate 90 rotate
1 setlinejoin 1 setlinecap 1 SLW 1 SCF
%%EndPageSetup
0.00 setgray 1 SLW 8939 0 780 780 l 0 6239 c -8939 0 c 0 -6239 c 0 -45 1116 780 l 0 -45 1554 780 l 0 -45 1991 780 l 0 -45 2428 780 l
0 -90 2865 780 l 0 -45 3302 780 l 0 -45 3739 780 l 0 -45 4176 780 l 0 -45 4613 780 l 0 -90 5051 780 l 0 -45 5488 780 l
0 -45 5925 780 l 0 -45 6362 780 l 0 -45 6799 780 l 0 -90 7236 780 l 0 -45 7673 780 l 0 -45 8110 780 l 0 -45 8548 780 l
0 -45 8985 780 l 0 -90 9422 780 l 0 -45 1116 7064 l 0 -45 1554 7064 l 0 -45 1991 7064 l 0 -45 2428 7064 l 0 -90 2865 7109 l
0 -45 3302 7064 l 0 -45 3739 7064 l 0 -45 4176 7064 l 0 -45 4613 7064 l 0 -90 5051 7109 l 0 -45 5488 7064 l 0 -45 5925 7064 l
0 -45 6362 7064 l 0 -45 6799 7064 l 0 -90 7236 7109 l 0 -45 7673 7064 l 0 -45 8110 7064 l 0 -45 8548 7064 l 0 -45 8985 7064 l
0 -90 9422 7109 l -60 0 2775 672 l -6 -54 c 6 6 c 18 6 c 18 0 c 18 -6 c 12 -12 c 6 -18 c 0 -12 c -6 -18 c -12 -12 c -18 -6 c -18 0 c
-18 6 c -6 6 c -6 12 c -18 -6 2859 672 l -12 -18 c -6 -30 c 0 -18 c 6 -30 c 12 -18 c 18 -6 c 12 0 c 18 6 c 12 18 c 6 30 c 0 18 c
-6 30 c -12 18 c -18 6 c -12 0 c -18 -6 2979 672 l -12 -18 c -6 -30 c 0 -18 c 6 -30 c 12 -18 c 18 -6 c 12 0 c 18 6 c 12 18 c 6 30 c
0 18 c -6 30 c -12 18 c -18 6 c -12 0 c 12 6 4847 648 l 18 18 c 0 -126 c -18 -6 4985 672 l -12 -18 c -6 -30 c 0 -18 c 6 -30 c
12 -18 c 18 -6 c 12 0 c 18 6 c 12 18 c 6 30 c 0 18 c -6 30 c -12 18 c -18 6 c -12 0 c -18 -6 5105 672 l -12 -18 c -6 -30 c 0 -18 c
6 -30 c 12 -18 c 18 -6 c 12 0 c 18 6 c 12 18 c 6 30 c 0 18 c -6 30 c -12 18 c -18 6 c -12 0 c -18 -6 5225 672 l -12 -18 c -6 -30 c
0 -18 c 6 -30 c 12 -18 c 18 -6 c 12 0 c 18 6 c 12 18 c 6 30 c 0 18 c -6 30 c -12 18 c -18 6 c -12 0 c 12 6 7032 648 l 18 18 c
0 -126 c -60 0 7206 672 l -6 -54 c 6 6 c 18 6 c 18 0 c 18 -6 c 12 -12 c 6 -18 c 0 -12 c -6 -18 c -12 -12 c -18 -6 c -18 0 c -18 6 c
-6 6 c -6 12 c -18 -6 7290 672 l -12 -18 c -6 -30 c 0 -18 c 6 -30 c 12 -18 c 18 -6 c 12 0 c 18 6 c 12 18 c 6 30 c 0 18 c -6 30 c
-12 18 c -18 6 c -12 0 c -18 -6 7410 672 l -12 -18 c -6 -30 c 0 -18 c 6 -30 c 12 -18 c 18 -6 c 12 0 c 18 6 c 12 18 c 6 30 c 0 18 c
-6 30 c -12 18 c -18 6 c -12 0 c 0 6 9206 642 l 6 12 c 6 6 c 12 6 c 24 0 c 12 -6 c 6 -6 c 6 -12 c 0 -12 c -6 -12 c -12 -18 c
-60 -60 c 84 0 c -18 -6 9356 672 l -12 -18 c -6 -30 c 0 -18 c 6 -30 c 12 -18 c 18 -6 c 12 0 c 18 6 c 12 18 c 6 30 c 0 18 c -6 30 c
-12 18 c -18 6 c -12 0 c -18 -6 9476 672 l -12 -18 c -6 -30 c 0 -18 c 6 -30 c 12 -18 c 18 -6 c 12 0 c 18 6 c 12 18 c 6 30 c 0 18 c
-6 30 c -12 18 c -18 6 c -12 0 c -18 -6 9596 672 l -12 -18 c -6 -30 c 0 -18 c 6 -30 c 12 -18 c 18 -6 c 12 0 c 18 6 c 12 18 c 6 30 c
0 18 c -6 30 c -12 18 c -18 6 c -12 0 c -90 0 780 780 l -45 0 780 1726 l -90 0 780 2672 l -45 0 780 3618 l -90 0 780 4564 l
-45 0 780 5510 l -90 0 780 6456 l -90 0 9809 780 l -45 0 9764 1726 l -90 0 9809 2672 l -45 0 9764 3618 l -90 0 9809 4564 l
-45 0 9764 5510 l -90 0 9809 6456 l 6 -18 517 774 l 18 -12 c 30 -6 c 18 0 c 30 6 c 18 12 c 6 18 c 0 12 c -6 18 c -18 12 c -30 6 c
-18 0 c -30 -6 c -18 -12 c -6 -18 c 0 -12 c -6 0 547 2414 l -12 6 c -6 6 c -6 12 c 0 24 c 6 12 c 6 6 c 12 6 c 12 0 c 12 -6 c
18 -12 c 60 -60 c 0 84 c 84 84 547 2534 l 84 -84 547 2618 l -6 12 541 2678 l -18 18 c 126 0 c 6 -18 517 2816 l 18 -12 c 30 -6 c
18 0 c 30 6 c 18 12 c 6 18 c 0 12 c -6 18 c -18 12 c -30 6 c -18 0 c -30 -6 c -18 -12 c -6 -18 c 0 -12 c 63 -45 453 2940 l 0 68 c
94 0 453 2940 l 84 -60 517 4360 l 0 90 c 126 0 517 4360 l 84 84 547 4426 l 84 -84 547 4510 l -6 12 541 4570 l -18 18 c 126 0 c
6 -18 517 4708 l 18 -12 c 30 -6 c 18 0 c 30 6 c 18 12 c 6 18 c 0 12 c -6 18 c -18 12 c -30 6 c -18 0 c -30 -6 c -18 -12 c -6 -18 c
0 -12 c 63 -45 453 4832 l 0 68 c 94 0 453 4832 l -12 -6 535 6270 l -6 -18 c 0 -12 c 6 -18 c 18 -12 c 30 -6 c 30 0 c 24 6 c 12 12 c
6 18 c 0 6 c -6 18 c -12 12 c -18 6 c -6 0 c -18 -6 c -12 -12 c -6 -18 c 0 -6 c 6 -18 c 12 -12 c 18 -6 c 84 84 547 6318 l
84 -84 547 6402 l -6 12 541 6462 l -18 18 c 126 0 c 6 -18 517 6600 l 18 -12 c 30 -6 c 18 0 c 30 6 c 18 12 c 6 18 c 0 12 c -6 18 c
-18 12 c -30 6 c -18 0 c -30 -6 c -18 -12 c -6 -18 c 0 -12 c 63 -45 453 6724 l 0 68 c 94 0 453 6724 l
4 0 780 790 l 5 0 c 4 0 c 4 0 c 5 1 c 4 -1 c 4 0 c 5 0 c 4 0 c 5 0 c 4 0 c 4 0 c 5 1 c 4 0 c 4 -1 c 5 0 c 4 0 c 5 -1 c 4 0 c 4 1 c
5 0 c 4 0 c 4 0 c 5 -1 c 4 1 c 5 0 c 4 1 c 4 0 c 5 0 c 4 -1 c 4 0 c 5 0 c 4 0 c 5 0 c 4 0 c 4 0 c 5 -1 c 4 1 c 4 1 c 5 3 c 4 2 c
4 0 c 5 -1 c 4 -2 c 5 0 c 4 2 c 4 9 c 5 6 c 4 -2 c 4 -3 c 5 -12 c 4 -3 c 5 -1 c 4 1 c 4 0 c 5 2 c 4 4 c 4 7 c 5 0 c 4 -1 c 5 -7 c
4 -4 c 4 -1 c 5 -1 c 4 0 c 4 1 c 5 0 c 4 1 c 5 -1 c 4 0 c 4 0 c 5 0 c 4 1 c 4 -1 c 5 0 c 4 0 c 4 0 c 5 0 c 4 1 c 5 2 c 4 5 c 4 0 c
5 -1 c 4 -17 c 5 10 1151 780 l 4 0 c 5 0 c 4 1 c 4 1 c 5 3 c 4 1 c 4 0 c 5 1 c 4 4 c 5 6 c 4 -2 c 4 -2 c 5 -9 c 4 -3 c 4 0 c 5 -1 c
4 0 c 5 1 c 4 0 c 4 1 c 5 1 c 4 2 c 4 4 c 5 6 c 4 13 c 4 9 c 5 7 c 4 26 c 5 69 c 4 25 c 4 -2 c 5 -48 c 4 -83 c 4 -22 c 5 -5 c 4 0 c
5 0 c 4 -1 c 4 0 c 5 -1 c 4 -1 c 4 0 c 5 0 c 4 0 c 5 1 c 4 7 c 4 21 c 5 78 c 4 66 c 4 -4 c 5 -31 c 4 -94 c 5 -40 c 4 -2 c 4 0 c
5 2 c 4 4 c 4 0 c 5 -1 c 4 -2 c 4 -1 c 5 10 c 4 43 c 5 33 c 4 -1 c 4 -17 c 5 -53 c 4 -18 c 4 -2 c 5 0 c 4 0 c 5 1 c 4 1 c 4 0 c
5 -1 c 4 0 c 4 -1 c 5 0 c 4 1 c 5 1 c 4 0 c 4 1 c 5 6 c 4 19 c 4 82 c 5 110 c 4 10 c 4 -24 c 5 -105 c 4 -84 c 5 -5 c 4 -4 c 4 -5 c
5 -2 c 4 0 c 4 -1 c 5 0 c 4 1 c 5 1 c 4 4 c 4 1 c 5 -1 c 4 -1 c 4 -4 c 5 -1 c 4 0 c 5 0 c 4 3 c 4 1 c 5 0 c 4 1 c 4 6 c 5 29 c
4 76 c 5 25 c 4 -12 c 4 -46 c 5 -65 c 4 2 c 4 23 c 5 26 c 4 27 c 4 4 c 5 -21 c 4 -21 c 5 -40 c 4 -14 c 4 -1 c 5 1 c 4 0 c 4 0 c
5 0 c 4 -1 c 5 -1 c 4 -1 c 4 0 c 5 0 c 4 1 c 4 2 c 5 1 c 4 0 c 5 0 c 4 0 c 4 -1 c 5 -1 c 4 3 c 4 7 c 5 19 c 4 5 c 5 -2 c 4 -13 c
4 -16 c 5 -2 c 4 0 c 4 2 c 5 4 c 4 2 c 4 0 c 5 0 c 4 -1 c 5 -1 c 4 -1 c 4 -3 c 5 0 c 4 7 c 4 20 c 5 15 c 4 1 c 5 -7 c 4 -21 c
4 -10 c 5 1 c 4 0 c 4 1 c 5 7 c 4 21 c 5 19 c 4 12 c 4 16 c 5 36 c 4 229 c 4 946 c 5 3021 c 4 1727 c 5 0 c 4 -684 c 4 -3337 c
5 -1589 c 4 -245 c 4 -80 c 5 -42 c 4 -21 c 4 -20 c 5 -8 c 4 -6 c 5 -2 c 4 -2 c 4 -2 c 5 0 c 4 -1 c 4 0 c 5 0 c 4 -1 c 5 -1 c 4 0 c
4 -2 c 5 0 c 4 0 c 4 -1 c 5 1 c 4 0 c 5 0 c 4 0 c 4 0 c 5 1 c 4 3 c 4 8 c 5 3 c 4 -2 c 5 -5 c 4 -4 c 4 2 c 5 8 c 4 2 c 4 -1 c 5 -5 c
4 -9 c 4 -2 c 5 1 c 4 4 c 5 1 c 4 4 c 4 18 c 5 31 c 4 6 c 4 -7 c 5 -25 c 4 -21 c 5 -2 c 4 -1 c 4 -6 c 5 -4 c 4 0 c 4 -1 c 5 1 c
4 0 c 5 0 c 4 0 c 4 -1 c 5 0 c 4 0 c 4 1 c 5 1 c 4 0 c 4 0 c 5 -1 c 4 0 c 5 0 c 4 1 c 4 3 c 5 10 c 4 6 c 4 3 c 5 6 c 4 -7 c 5 3 c
4 13 c 4 -2 c 5 -1 c 4 -9 c 4 -11 c 5 0 c 4 -1 c 5 -4 c 4 -8 c 4 -2 c 5 0 c 4 0 c 4 1 c 5 1 c 4 5 c 5 28 c 4 47 c 4 5 c 5 -6 c
4 -40 c 4 -35 c 5 -2 c 4 -1 c 4 -1 c 5 3 c 4 6 c 5 14 c 4 11 c 4 2 c 5 -10 c 4 -14 c 4 -8 c 5 1 c 4 7 c 5 2 c 4 1 c 4 -2 c 5 -3 c
4 6 c 4 5 c 5 12 c 4 25 c 5 99 c 4 511 c 4 1647 c 5 1152 c 4 70 c 4 -725 c 5 -1812 c 4 -781 c 5 -119 c 4 -50 c 4 -21 c 5 -10 c
4 -4 c 4 -4 c 5 -3 c 4 -1 c 4 -2 c 5 -1 c 4 0 c 5 2 c 4 1 c 4 0 c 5 1 c 4 4 c 4 10 c 5 45 c 4 219 c 5 549 c 4 256 c 4 -23 c 5 -336 c
4 -525 c 4 -146 c 5 -36 c 4 -12 c 5 -5 c 4 -2 c 4 -1 c 5 -1 c 4 -1 c 4 2 c 5 0 c 4 -1 c 5 -1 c 4 -3 c 4 0 c 5 2 c 4 2 c 4 0 c 5 -1 c
4 -2 c 4 -1 c 5 0 c 4 0 c 5 0 c 4 0 c 4 0 c 5 -1 c 4 0 c 4 1 c 5 0 c 4 0 c 5 1 c 4 0 c 4 10 c 5 73 c 4 95 c 4 23 c 5 -14 c 4 -94 c
5 -78 c 4 4 c 4 3 c 5 -3 c 4 -8 c 4 -9 c 5 -1 c 4 0 c 4 0 c 5 1 c 4 2 c 5 1 c 4 3 c 4 2 c 5 3 c 4 13 c 4 121 c 5 858 c 4 1015 c
5 127 c 4 -184 c 4 -1138 c 5 -734 c 4 -74 c 4 -7 c 5 -2 c 4 -1 c 5 -1 c 4 -1 c 4 -2 c 5 1 c 4 3 c 4 0 c 5 14 c 4 28 c 5 6 c 4 -1 c
4 -19 c 5 -20 c 4 3 c 4 6 c 5 9 c 4 23 c 4 100 c 5 416 c 4 490 c 5 103 c 4 -129 c 4 -514 c 5 -368 c 4 -100 c 4 -10 c 5 2 c 4 -3 c
5 -5 c 4 -17 c 4 -11 c 5 -3 c 4 -3 c 4 3 c 5 9 c 4 0 c 5 -1 c 4 -6 c 4 -8 c 5 -1 c 4 0 c 4 1 c 5 1 c 4 -1 c 5 0 c 4 0 c 4 -1 c 5 1 c
4 12 c 4 48 c 5 25 c 4 -5 c 4 -8 c 5 -4 c 4 5 c 5 0 c 4 -19 c 4 -41 c 5 -13 c 4 -1 c 4 0 c 5 -1 c 4 0 c 5 1 c 4 3 c 4 0 c 5 1 c
4 5 c 4 24 c 5 18 c 4 3 c 5 -14 c 4 -26 c 4 -12 c 5 1 c 4 11 c 4 10 c 5 0 c 4 -2 c 5 -14 c 4 -8 c 4 -1 c 5 0 c 4 0 c 4 1 c 5 1 c
4 31 c 4 90 c 5 26 c 4 -2 c 5 -38 c 4 -83 c 4 -14 c 5 27 c 4 159 c 4 115 c 5 5 c 4 -47 c 5 -187 c 4 -75 c 4 -4 c 5 4 c 4 56 c 4 63 c
5 13 c 4 -8 c 5 -72 c 4 -50 c 4 -7 c 5 -3 c 4 -1 c 4 0 c 5 -1 c 4 0 c 5 1 c 4 1 c 4 9 c 5 6 c 4 1 c 4 -2 c 5 -7 c 4 -3 c 4 -1 c
5 -2 c 4 -1 c 5 -1 c 4 -1 c 4 1 c 5 0 c 4 0 c 4 6 c 5 2 c 4 0 c 5 -1 c 4 -5 c 4 -3 c 5 0 c 4 1 c 4 6 c 5 11 c 4 5 c 5 -1 c 4 -6 c
4 -10 c 5 -1 c 4 1 c 4 1 c 5 0 c 4 -1 c 4 -1 c 5 11 c 4 23 c 5 13 c 4 -1 c 4 -14 c 5 -22 c 4 -9 c 4 -2 c 5 0 c 4 -1 c 5 -1 c 4 0 c
4 0 c 5 1 c 4 1 c 4 3 c 5 1 c 4 1 c 5 -1 c 4 0 c 4 38 c 5 78 c 4 22 c 4 7 c 5 -52 c 4 -78 c 5 -13 c 4 -3 c 4 0 c 5 1 c 4 2 c 4 28 c
5 249 c 4 359 c 4 68 c 5 -25 c 4 -349 c 5 -280 c 4 -48 c 4 -2 c 5 4 c 4 17 c 4 145 c 5 502 c 4 321 c 5 20 c 4 -217 c 4 -529 c
5 -219 c 4 -35 c 4 -8 c 5 -2 c 4 -2 c 5 0 c 4 3 c 4 30 c 5 106 c 4 64 c 4 11 c 5 -39 c 4 -113 c 5 -54 c 4 -1 c 4 34 c 5 60 c 4 16 c
4 2 c 5 -40 c 4 -8 c 4 36 c 5 41 c 4 101 c 5 7 c 4 -40 c 4 -57 c 5 -108 c 4 1 c 4 447 c 5 1206 c 4 357 c 5 -22 c 4 -658 c 4 -1105 c
5 -247 c 4 -16 c 4 14 c 5 201 c 4 748 c 5 357 c 4 6 c 4 -354 c 5 -740 c 4 -220 c 4 -21 c 5 -2 c 4 -3 c 5 1 c 4 1 c 4 0 c 5 0 c
4 -2 c 4 -2 c 5 -2 c 4 0 c 4 1 c 5 0 c 4 1 c 5 2 c 4 1 c 4 11 c 5 68 c 4 46 c 4 10 c 5 -14 c 4 -80 c 5 -40 c 4 -6 c 4 -1 c 5 0 c
4 4 c 4 4 c 5 -1 c 4 0 c 5 -5 c 4 -2 c 4 -1 c 5 1 c 4 0 c 4 0 c 5 1 c 4 -1 c 5 0 c 4 -1 c 4 1 c 5 1 c 4 2 c 4 1 c 5 0 c 4 -2 c
4 -1 c 5 1 c 4 0 c 5 0 c 4 -2 c 4 0 c 5 1 c 4 1 c 4 2 c 5 1 c 4 0 c 5 1 c 4 1 c 4 0 c 5 0 c 4 2 c 4 11 c 5 127 c 4 207 c 5 60 c
4 -12 c 4 -161 c 5 -195 c 4 -40 c 4 1 c 5 2 c 4 1 c 4 -1 c 5 -5 c 4 -1 c 5 1 c 4 2 c 4 -1 c 5 0 c 4 1 c 4 41 c 5 95 c 4 35 c 5 7 c
4 -50 c 4 -97 c 5 -25 c 4 -3 c 4 -5 c 5 1 c 4 1 c 5 0 c 4 -1 c 4 -3 c 5 0 c 4 1 c 4 0 c 5 0 c 4 -1 c 5 -1 c 4 -1 c 4 -1 c 5 0 c
4 0 c 4 0 c 5 0 c 4 0 c 4 0 c 5 1 c 4 -1 c 5 0 c 4 0 c 4 0 c 5 2 c 4 1 c 4 2 c 5 3 c 4 0 c 5 10 c 4 9 c 4 2 c 5 2 c 4 14 c 4 22 c
5 36 c 4 10 c 5 -24 c 4 -36 c 4 -38 c 5 -12 c 4 -1 c 4 5 c 5 28 c 4 45 c 5 21 c 4 -4 c 4 -33 c 5 -44 c 4 -12 c 4 0 c 5 1 c 4 -2 c
4 -3 c 5 -1 c 4 1 c 5 1 c 4 2 c 4 2 c 5 6 c 4 18 c 4 74 c 5 345 c 4 354 c 5 74 c 4 -79 c 4 -428 c 5 -299 c 4 -62 c 4 -5 c 5 -3 c
4 -1 c 5 0 c 4 0 c 4 -1 c 5 -1 c 4 0 c 4 1 c 5 4 c 4 8 c 5 11 c 4 6 c 4 -4 c 5 -1 c 4 6 c 4 5 c 5 3 c 4 -7 c 4 -20 c 5 -6 c 4 0 c
5 4 c 4 0 c 4 0 c 5 1 c 4 -5 c 4 -2 c 5 -3 c 4 -1 c 5 -1 c 4 -1 c 4 1 c 5 1 c 4 2 c 4 11 c 5 14 c 4 2 c 5 -2 c 4 -12 c 4 -12 c
5 -1 c 4 1 c 4 0 c 5 1 c 4 -1 c 5 -1 c 4 0 c 4 0 c 5 1 c 4 1 c 4 2 c 5 7 c 4 52 c 4 408 c 5 714 c 4 220 c 5 -44 c 4 -518 c 4 -643 c
5 -178 c 4 -14 c 4 -2 c 5 0 c 4 3 c 5 0 c 4 0 c 4 -26 c 5 21 c 4 -2 c 4 0 c 5 0 c 4 1 c 5 12 c 4 68 c 4 80 c 5 52 c 4 153 c 4 149 c
5 -20 c 4 -45 c 4 -200 c 5 -185 c 4 -52 c 5 6 c 4 12 c 4 59 c 5 429 c 4 945 c 4 525 c 5 17 c 4 -541 c 5 -971 c 4 -395 c 4 -74 c
5 -12 c 4 -5 c 4 -1 c 5 0 c 4 2 c 5 1 c 4 -1 c 4 -2 c 5 -4 c 4 0 c 4 0 c 5 2 c 4 11 c 5 34 c 4 30 c 4 7 c 5 -12 c 4 -37 c 4 -29 c
5 -8 c 4 -1 c 4 0 c 5 1 c 4 -1 c 5 -1 c 4 -1 c 4 0 c 5 0 c 4 0 c 4 -2 c 5 0 c 4 -1 c 5 1 c 4 -1 c 4 1 c 5 0 c 4 1 c 4 1 c 5 1 c
4 -1 c 5 -2 c 4 -1 c 4 -1 c 5 1 c 4 -1 c 4 1 c 5 0 c 4 1 c 5 0 c 4 0 c 4 -1 c 5 1 c 4 4 c 4 20 c 5 64 c 4 45 c 4 8 c 5 -22 c 4 -70 c
5 -41 c 4 -7 c 4 3 c 5 13 c 4 11 c 4 1 c 5 -5 c 4 -16 c 5 -8 c 4 -1 c 4 2 c 5 2 c 4 5 c 4 12 c 5 6 c 4 -2 c 5 -5 c 4 -13 c 4 -6 c
5 -2 c 4 0 c 4 0 c 5 0 c 4 0 c 5 2 c 4 3 c 4 3 c 5 1 c 4 0 c 4 -3 c 5 -3 c 4 -1 c 4 -1 c 5 -1 c 4 0 c 5 0 c 4 0 c 4 1 c 5 0 c 4 1 c
4 1 c 5 0 c 4 0 c 5 0 c 4 0 c 4 1 c 5 2 c 4 5 c 4 5 c 5 6 c 4 37 c 5 301 c 4 486 c 4 197 c 5 -16 c 4 -376 c 4 -481 c 5 -148 c
4 -13 c 4 1 c 5 0 c 4 0 c 5 -1 c 4 -3 c 4 -2 c 5 0 c 4 0 c 4 -2 c 5 0 c 4 0 c 5 -1 c 4 1 c 4 3 c 5 1 c 4 2 c 4 -1 c 5 -2 c 4 -2 c
5 -1 c 4 -15 c 4 14 c 5 1 c 4 0 c 4 1 c 5 -1 c 4 0 c 5 1 c 4 1 c 4 0 c 5 0 c 4 -2 c 4 -1 c 5 -1 c 4 2 c 4 1 c 5 0 c 4 -1 c 5 -1 c
4 -1 c 4 1 c 5 0 c 4 2 c 4 8 c 5 7 c 4 2 c 5 -2 c 4 -8 c 4 -5 c 5 0 c 4 1 c 4 1 c 5 0 c 4 0 c 5 17 c 4 91 c 4 69 c 5 21 c 4 -17 c
4 -93 c 5 -77 c 4 -9 c 5 9 c 4 60 c 4 84 c 5 35 c 4 -12 c 4 -58 c 5 -92 c 4 -25 c 4 -1 c 5 9 c 4 16 c 5 10 c 4 2 c 4 -12 c 5 -14 c
4 -11 c 4 -2 c 5 4 c 4 3 c 5 3 c 4 -1 c 4 -3 c 5 -3 c 4 0 c 4 4 c 5 3 c 4 -1 c 5 -1 c 4 0 c 4 -2 c 5 -1 c 4 2 c 4 13 c 5 8 c 4 0 c
5 -5 c 4 -7 c 4 28 c 5 29 c 4 3 c 4 -11 c 5 -35 c 4 -25 c 4 -6 c 5 -1 c 4 -3 c 5 -1 c 4 1 c 4 0 c 5 2 c 4 2 c 4 2 c 5 -1 c 4 -2 c
5 -2 c 4 -2 c 4 2 c 5 4 c 4 3 c 4 2 c 5 1 c 4 -2 c 5 2 c 4 20 c 4 86 c 5 54 c 4 10 c 4 -23 c 5 -85 c 4 -59 c 5 -9 c 4 -2 c 4 -2 c
5 -1 c 4 2 c 4 2 c 5 7 c 4 5 c 4 5 c 5 1 c 4 -2 c 5 9 c 4 8 c 4 -1 c 5 -3 c 4 -16 c 4 -12 c 5 -1 c 4 5 c 5 2 c 4 2 c 4 1 c 5 -3 c
4 -3 c 4 0 c 5 -1 c 4 1 c 5 0 c 4 -1 c 4 -2 c 5 0 c 4 1 c 4 1 c 5 3 c 4 18 c 4 202 c 5 770 c 4 523 c 5 98 c 4 -215 c 4 -839 c
5 -467 c 4 -84 c 4 -4 c 5 0 c 4 2 c 5 1 c 4 -2 c 4 -2 c 5 -3 c 4 -4 c 4 0 c 5 0 c 4 -1 c 5 1 c 4 2 c 4 2 c 5 0 c 4 2 c 4 21 c 5 74 c
4 40 c 5 11 c 4 -21 c 4 -61 c 5 -16 c 4 7 c 4 15 c 5 8 c 4 9 c 4 -4 c 5 -16 c 4 -35 c 5 -29 c 4 -11 c 4 -1 c 5 -1 c 4 0 c 4 0 c
5 0 c 4 0 c 5 0 c 4 1 c 4 2 c 5 2 c 4 3 c 4 5 c 5 4 c 4 -1 c 5 -2 c 4 -7 c 4 -6 c 5 -1 c 4 1 c 4 -16 c 5 20 c 4 -1 c 5 -2 c 4 -1 c
4 -2 c 5 2 c 4 2 c 4 0 c 5 2 c 4 -1 c 4 -2 c 5 -1 c 4 1 c 5 1 c 4 0 c 4 0 c 5 -2 c 4 0 c 4 1 c 5 4 c 4 1 c 5 2 c 4 3 c 4 19 c 5 93 c
4 99 c 4 29 c 5 -21 c 4 -90 c 5 -100 c 4 -26 c 4 8 c 5 12 c 4 3 c 4 -2 c 5 -14 c 4 -14 c 5 -4 c 4 1 c 4 2 c 5 26 c 4 70 c 4 88 c
5 160 c 4 62 c 4 -45 c 5 116 c 4 217 c 5 76 c 4 2 c 4 -218 c 5 -394 c 4 -138 c 4 -14 c 5 4 c 4 69 c 5 282 c 4 204 c 4 32 c 5 -60 c
4 -284 c 4 -162 c 5 0 c 4 42 c 5 69 c 4 94 c 4 15 c 5 -50 c 4 -84 c 4 -114 c 5 -57 c 4 -11 c 5 -2 c 4 -1 c 4 -1 c 5 0 c 4 -1 c 4 0 c
5 0 c 4 2 c 4 0 c 5 0 c 4 0 c 5 -1 c 4 0 c 4 0 c 5 0 c 4 0 c 4 1 c 5 -1 c 4 1 c 5 0 c 4 -1 c 4 0 c 5 3 c 4 6 c 4 2 c 5 1 c 4 -3 c
5 -5 c 4 -3 c 4 -2 c 5 -1 c 4 0 c 4 0 c 5 1 c 4 1 c 4 3 c 5 3 c 4 1 c 5 13 c 4 19 c 4 4 c 5 -2 c 4 -15 c 4 -19 c 5 -6 c 4 1 c 5 5 c
4 2 c 4 2 c 5 0 c 4 -2 c 4 -2 c 5 0 c 4 15 c 5 114 c 4 111 c 4 26 c 5 -14 c 4 -119 c 4 -107 c 5 3 c 4 11 c 5 -1 c 4 -11 c 4 -23 c
5 -11 c 4 0 c 4 0 c 5 1 c 4 5 c 4 8 c 5 4 c 4 -1 c 5 -3 c 4 -10 c 4 -4 c 5 0 c 4 0 c 4 0 c 5 0 c 4 -1 c 5 -1 c 4 0 c 4 0 c 5 0 c
4 2 c 4 1 c 5 1 c 4 3 c 5 5 c 4 1 c 4 1 c 5 -3 c 4 3 c 4 4 c 5 2 c 4 0 c 5 -3 c 4 -4 c 4 -2 c 5 -1 c 4 -4 c 4 -2 c 5 1 c 4 1 c 4 2 c
5 3 c 4 8 c 5 68 c 4 658 c 4 1086 c 5 282 c 4 -32 c 4 -627 c 5 -1108 c 4 -294 c 5 -27 c 4 -8 c 4 -6 c 5 -2 c 4 -1 c 4 1 c 5 -1 c
4 -2 c 5 -1 c 4 -1 c 4 1 c 5 2 c 4 1 c 4 1 c 5 5 c 4 10 c 5 5 c 4 -1 c 4 -8 c 5 -12 c 4 -7 c 4 -1 c 5 -1 c 4 0 c 4 1 c 5 -1 c 4 0 c
5 0 c 4 0 c 4 0 c 5 1 c 4 0 c 4 -1 c 5 0 c 4 2 c 5 4 c 4 16 c 4 12 c 5 5 c 4 -1 c 4 -17 c 5 -12 c 4 -6 c 5 -3 c 4 0 c 4 0 c 5 0 c
4 -1 c 4 0 c 5 0 c 4 0 c 5 0 c 4 1 c 4 -1 c 5 1 c 4 -1 c 4 0 c 5 0 c 4 0 c 4 0 c 5 1 c 4 -1 c 5 2 c 4 1 c 4 -2 c 5 1 c 4 0 c 4 2 c
5 1 c 4 -1 c 5 -1 c 4 -2 c 4 1 c 5 2 c 4 2 c 4 1 c 5 0 c 4 -3 c 5 -2 c 4 -1 c 4 0 c 5 0 c 4 0 c 4 -1 c 5 0 c 4 0 c 4 0 c 5 0 c 4 0 c
5 0 c 4 0 c 4 2 c 5 13 c 4 17 c 4 4 c 5 0 c 4 -12 c 5 -19 c 4 -4 c 4 -1 c 5 -1 c 4 0 c 4 0 c 5 2 c 4 1 c 5 0 c 4 1 c 4 1 c 5 0 c
4 0 c 4 -2 c 5 -1 c 4 -1 c 5 0 c 4 0 c 4 -1 c 5 1 c 4 0 c 4 1 c 5 1 c 4 1 c 4 8 c 5 9 c 4 1 c 5 0 c 4 -7 c 4 -9 c 5 -1 c 4 1 c 4 0 c
5 2 c 4 5 c 5 86 c 4 154 c 4 59 c 5 0 c 4 -78 c 4 -171 c 5 -56 c 4 0 c 5 17 c 4 15 c 4 3 c 5 -2 c 4 -15 c 4 -17 c 5 -3 c 4 -1 c
5 4 c 4 8 c 4 2 c 5 0 c 4 -1 c 4 -6 c 5 1 c 4 -1 c 4 -1 c 5 1 c 4 1 c 5 0 c 4 -2 c 4 -5 c 5 -3 c 4 -1 c 4 0 c 5 0 c 4 1 c 5 -1 c
4 0 c 4 -1 c 5 0 c 4 0 c 4 0 c 5 1 c 4 0 c 5 0 c 4 0 c 4 1 c 5 0 c 4 1 c 4 1 c 5 21 c 4 51 c 5 13 c 4 -2 c 4 -19 c 5 -50 c 4 -16 c
4 -1 c 5 1 c 4 1 c 4 0 c 5 0 c 4 -1 c 5 -1 c 4 0 c 4 0 c 5 0 c 4 1 c 4 0 c 5 0 c 4 1 c 5 1 c 4 1 c 4 -1 c 5 0 c 4 -1 c 4 8 c 5 17 c
4 7 c 5 0 c 4 4 c 4 -9 c 5 -2 c 4 75 c 4 200 c 5 55 c 4 -3 c 4 -50 c 5 -205 c 4 -88 c 5 -3 c 4 3 c 4 5 c 5 28 c 4 81 c 4 29 c 5 0 c
4 -30 c 5 -79 c 4 -39 c 4 -4 c 5 -1 c 4 1 c 4 0 c 5 1 c 4 2 c 5 3 c 4 0 c 4 0 c 5 -2 c 4 -4 c 4 0 c 5 3 c 4 18 c 5 10 c 4 3 c 4 -3 c
5 -15 c 4 -14 c 4 -2 c 5 -2 c 4 0 c 4 -1 c 5 0 c 4 0 c 5 0 c 4 0 c 4 1 c 5 0 c 4 0 c 4 0 c 5 0 c 4 0 c 5 0 c 4 1 c 4 0 c 5 0 c 4 4 c
4 4 c 5 1 c 4 1 c 5 6 c 4 3 c 4 0 c 5 -1 c 4 -6 c 4 -8 c 5 -1 c 4 -1 c 5 0 c 4 1 c 4 1 c 5 2 c 4 7 c 4 78 c 5 112 c 4 22 c 4 -8 c
5 -61 c 4 -121 c 5 -28 c 4 -2 c 4 0 c 5 0 c 4 1 c 4 2 c 5 4 c 4 2 c 5 2 c 4 1 c 4 -3 c 5 -1 c 4 6 c 4 4 c 5 9 c 4 26 c 5 116 c
4 944 c 4 2006 c 5 783 c 4 58 c 4 -721 c 5 -2035 c 4 -982 c 5 -136 c 4 -45 c 4 -19 c 5 -7 c 4 -4 c 4 -3 c 5 0 c 4 0 c 4 24 c 5 210 c
4 257 c 5 50 c 4 -21 c 4 -175 c 5 -271 c 4 -61 c 4 -6 c 5 -7 c 4 -4 c 5 -2 c 4 -2 c 4 -2 c 5 -1 c 4 -1 c 4 -1 c 5 1 c 4 0 c 5 2 c
4 8 c 4 3 c 5 0 c 4 -2 c 4 -7 c 5 -4 c 4 -1 c 5 0 c 4 -1 c 4 0 c 5 1 c 4 5 c 4 6 c 5 2 c 4 -1 c 4 -4 c 5 -7 c 4 -2 c 5 0 c 4 -1 c
4 1 c 5 -1 c 4 0 c 4 1 c 5 2 c 4 4 c 5 1 c 4 0 c 4 -1 c 5 -4 c 4 -1 c 4 -1 c 5 1 c 4 1 c 5 0 c 4 0 c 4 -1 c 5 4 c 4 8 c 4 3 c 5 1 c
4 -2 c 4 -8 c 5 -2 c 4 5 c 5 1 c 4 -1 c 4 -2 c 5 -4 c 4 2 c 4 1 c 5 -1 c 4 -1 c 5 -3 c 4 -3 c 4 0 c 5 1 c 4 1 c 4 5 c 5 3 c 4 -1 c
5 -1 c 4 -5 c 4 -3 c 5 0 c 4 1 c 4 0 c 5 0 c 4 0 c 5 -1 c 4 1 c 4 0 c 5 -1 c 4 0 c 4 1 c 5 -1 c 4 0 c 4 0 c 5 0 c 4 0 c 5 1 c 4 0 c
4 1 c 5 1 c 4 3 c 4 -1 c 5 1 c 4 -1 c 5 -2 c 4 7 c 4 18 c 5 5 c 4 0 c 4 -4 c 5 -18 c 4 3 c 5 78 c 4 78 c 4 15 c 5 -8 c 4 -57 c
4 -103 c 5 -13 c 4 2 c 5 0 c 4 -1 c 4 1 c 5 -2 c 4 0 c 4 0 c 5 -1 c 4 1 c 4 2 c 5 0 c 4 1 c 5 11 c 4 24 c 4 3 c 5 0 c 4 -10 c
4 -26 c 5 -6 c 4 0 c 5 0 c 4 -1 c 4 0 c 5 -1 c 4 0 c 4 -1 c 5 0 c 4 1 c 5 7 c 4 35 c 4 20 c 5 -1 c 4 -5 c 4 -29 c
5 -19 c 4 1 c 5 0 c 4 0 c 4 -21 c 4 12 9549 780 l 4 -1 c 5 0 c 4 0 c 4 1 c 5 0 c 4 0 c 5 1 c 4 2 c 4 4 c 5 2 c 4 6 c 4 0 c 5 -4 c
4 -3 c 5 -6 c 4 -2 c 4 0 c 5 0 c 4 2 c 4 5 c 5 4 c 4 0 c 5 1 c 4 -2 c 4 -4 c 5 1 c 4 7 c 4 46 c 5 383 c 4 684 c 5 118 c 4 -15 c
4 -275 c 5 -719 c 4 -204 c 4 -17 c 5 -4 c 4 -2 c
0 -126 3030 418 l 54 0 3030 418 l 18 -6 c 6 -6 c 6 -12 c 0 -12 c -6 -12 c -6 -6 c -18 -6 c -54 0 c 42 -66 3072 358 l
-12 -6 3180 376 l -12 -12 c -6 -18 c 0 -12 c 6 -18 c 12 -12 c 12 -6 c 18 0 c 12 6 c 12 12 c 6 18 c 0 12 c -6 18 c -12 12 c -12 6 c
-18 0 c 24 -84 3264 376 l -24 -84 3312 376 l 24 -84 3312 376 l -24 -84 3360 376 l 108 0 3402 364 l 108 0 3402 328 l 12 6 3666 394 l
18 18 c 0 -126 c -60 0 3840 418 l -6 -54 c 6 6 c 18 6 c 18 0 c 18 -6 c 12 -12 c 6 -18 c 0 -12 c -6 -18 c -12 -12 c -18 -6 c -18 0 c
-18 6 c -6 6 c -6 12 c 12 6 4290 394 l 18 18 c 0 -126 c -6 -6 4404 376 l 6 -6 c 6 6 c -6 6 c -6 -6 4404 304 l 6 -6 c 6 6 c -6 6 c
-48 -126 4584 418 l 48 -126 4584 418 l 60 0 4554 334 l 0 -84 4662 376 l 6 18 4662 340 l 12 12 c 12 6 c 18 0 c -12 12 4806 358 l
-12 6 c -18 0 c -12 -6 c -12 -12 c -6 -18 c 0 -12 c 6 -18 c 12 -12 c 12 -6 c 18 0 c 12 6 c 12 12 c 108 0 4848 346 l
-18 -6 5034 418 l -12 -18 c -6 -30 c 0 -18 c 6 -30 c 12 -18 c 18 -6 c 12 0 c 18 6 c 12 18 c 6 30 c 0 18 c -6 30 c -12 18 c -18 6 c
-12 0 c 66 0 5130 418 l -36 -48 c 18 0 c 12 -6 c 6 -6 c 6 -18 c 0 -12 c -6 -18 c -12 -12 c -18 -6 c -18 0 c -18 6 c -6 6 c -6 12 c
-59 0 5309 418 l -6 -54 c 6 6 c 17 6 c 18 0 c 18 -6 c 12 -12 c 6 -18 c 0 -12 c -6 -18 c -12 -12 c -18 -6 c -18 0 c -17 6 c -6 6 c
-6 12 c -6 -6 5369 304 l 6 -6 c 6 6 c -6 6 c -12 0 5459 418 l -12 -6 c -6 -18 c 0 -102 c 42 0 5411 376 l 6 -6 5489 418 l 6 6 c
-6 6 c -6 -6 c 0 -84 5495 376 l 0 -102 5549 418 l 6 -18 c 12 -6 c 12 0 c 42 0 5531 376 l -6 12 5675 358 l -18 6 c -18 0 c -18 -6 c
-6 -12 c 6 -12 c 12 -6 c 30 -6 c 12 -6 c 6 -12 c 0 -6 c -6 -12 c -18 -6 c -18 0 c -18 6 c -6 12 c 0 -192 6005 442 l
0 -192 6011 442 l 42 0 6005 442 l 42 0 6005 250 l 0 6 6089 388 l 6 12 c 6 6 c 12 6 c 24 0 c 12 -6 c 6 -6 c 6 -12 c 0 -12 c -6 -12 c
-12 -18 c -60 -60 c 84 0 c -6 -6 6215 376 l 6 -6 c 6 6 c -6 6 c -6 -6 6215 304 l 6 -6 c 6 6 c -6 6 c -48 -126 6395 418 l
48 -126 6395 418 l 60 0 6365 334 l 0 -84 6473 376 l 6 18 6473 340 l 12 12 c 12 6 c 18 0 c -12 12 6617 358 l -12 6 c -18 0 c -12 -6 c
-12 -12 c -6 -18 c 0 -12 c 6 -18 c 12 -12 c 12 -6 c 18 0 c 12 6 c 12 12 c 108 0 6659 346 l -18 -6 6845 418 l -12 -18 c -6 -30 c
0 -18 c 6 -30 c 12 -18 c 18 -6 c 12 0 c 18 6 c 12 18 c 6 30 c 0 18 c -6 30 c -12 18 c -18 6 c -12 0 c 66 0 6941 418 l -36 -48 c
18 0 c 12 -6 c 6 -6 c 6 -18 c 0 -12 c -6 -18 c -12 -12 c -18 -6 c -18 0 c -18 6 c -6 6 c -6 12 c -6 12 7127 400 l -18 6 c -12 0 c
-18 -6 c -12 -18 c -6 -30 c 0 -30 c 6 -24 c 12 -12 c 18 -6 c 6 0 c 18 6 c 12 12 c 6 18 c 0 6 c -6 18 c -12 12 c -18 6 c -6 0 c
-18 -6 c -12 -12 c -6 -18 c -6 -6 7181 304 l 6 -6 c 6 6 c -6 6 c -12 0 7271 418 l -12 -6 c -6 -18 c 0 -102 c 42 0 7223 376 l
6 -6 7301 418 l 6 6 c -6 6 c -6 -6 c 0 -84 7307 376 l 0 -102 7361 418 l 6 -18 c 12 -6 c 12 0 c 42 0 7343 376 l -6 12 7487 358 l
-18 6 c -18 0 c -18 -6 c -6 -12 c 6 -12 c 12 -6 c 30 -6 c 12 -6 c 6 -12 c 0 -6 c -6 -12 c -18 -6 c -18 0 c -18 6 c -6 12 c
0 -192 7559 442 l 0 -192 7565 442 l 42 0 7523 442 l 42 0 7523 250 l
0 -249 1438 1318 l 53 -38 1395 1428 l 0 57 c 79 0 1395 1428 l 53 -37 1395 1503 l 0 56 c 79 0 1395 1503 l -4 0 1414 1545 l -8 4 c
-4 4 c -3 7 c 0 15 c 3 8 c 4 4 c 8 3 c 7 0 c 8 -3 c 11 -8 c 38 -38 c 0 53 c -4 0 1414 1621 l -8 3 c -4 4 c -3 8 c 0 15 c 3 7 c 4 4 c
8 4 c 7 0 c 8 -4 c 11 -7 c 38 -38 c 0 53 c 3 -4 1467 1700 l 4 4 c -4 4 c -3 -4 c 3 -11 1395 1753 l 12 -8 c 19 -4 c 11 0 c 19 4 c
11 8 c 4 11 c 0 7 c -4 12 c -11 7 c -19 4 c -11 0 c -19 -4 c -12 -7 c -3 -12 c 0 -7 c 53 -38 1395 1844 l 0 56 c 79 0 1395 1844 l
3 -11 1395 1900 l 8 -4 c 8 0 c 7 4 c 4 7 c 4 16 c 4 11 c 7 7 c 8 4 c 11 0 c 8 -4 c 3 -3 c 4 -12 c 0 -15 c -4 -11 c -3 -4 c -8 -4 c
-11 0 c -8 4 c -7 8 c -4 11 c -4 15 c -4 8 c -7 3 c -8 0 c -8 -3 c -3 -12 c 0 -15 c 0 -249 1660 1367 l 53 -38 1616 1477 l 0 57 c
79 0 1616 1477 l 53 -38 1616 1553 l 0 57 c 79 0 1616 1553 l -4 0 1635 1594 l -7 4 c -4 4 c -4 7 c 0 15 c 4 8 c 4 4 c 7 4 c 8 0 c
7 -4 c 12 -8 c 37 -38 c 0 53 c 0 41 1616 1674 l 30 -22 c 0 11 c 4 7 c 4 4 c 11 4 c 8 0 c 11 -4 c 8 -7 c 3 -12 c 0 -11 c -3 -11 c
-4 -4 c -8 -4 c 4 -4 1688 1749 l 3 4 c -3 4 c -4 -4 c 79 -37 1616 1832 l 0 53 1616 1779 l -4 0 1635 1859 l -7 4 c -4 3 c -4 8 c
0 15 c 4 8 c 4 3 c 7 4 c 8 0 c 7 -4 c 12 -7 c 37 -38 c 0 53 c 4 -11 1616 1953 l 11 -8 c 19 -3 c 11 0 c 19 3 c 12 8 c 3 11 c 0 8 c
-3 11 c -12 8 c -19 4 c -11 0 c -19 -4 c -11 -8 c -4 -11 c 0 -8 c 0 -249 1808 1263 l 53 -38 1764 1373 l 0 57 c 80 0 1764 1373 l
53 -37 1764 1448 l 0 56 c 80 0 1764 1448 l -3 0 1783 1490 l -8 4 c -4 4 c -4 7 c 0 15 c 4 8 c 4 4 c 8 3 c 7 0 c 8 -3 c 11 -8 c
38 -38 c 0 53 c 53 -38 1764 1600 l 0 57 c 80 0 1764 1600 l 4 -4 1836 1645 l 4 4 c -4 4 c -4 -4 c 4 -11 1764 1694 l 8 -4 c 7 0 c
8 4 c 4 7 c 3 15 c 4 12 c 8 7 c 7 4 c 12 0 c 7 -4 c 4 -3 c 4 -12 c 0 -15 c -4 -11 c -4 -4 c -7 -4 c -12 0 c -7 4 c -8 8 c -4 11 c
-3 15 c -4 8 c -8 3 c -7 0 c -8 -3 c -4 -12 c 0 -15 c 0 42 1764 1758 l 31 -23 c 0 12 c 3 7 c 4 4 c 12 4 c 7 0 c 11 -4 c 8 -8 c
4 -11 c 0 -11 c -4 -12 c -4 -3 c -7 -4 c 80 -37 1764 1879 l 0 53 1764 1826 l 0 -249 1963 7019 l 53 -38 1919 7129 l 0 57 c
80 0 1919 7129 l 53 -37 1919 7204 l 0 56 c 80 0 1919 7204 l -3 0 1938 7246 l -8 4 c -4 3 c -4 8 c 0 15 c 4 8 c 4 3 c 8 4 c 7 0 c
8 -4 c 11 -7 c 38 -38 c 0 53 c -8 -4 1931 7367 l -4 -11 c 0 -8 c 4 -11 c 12 -8 c 18 -4 c 19 0 c 15 4 c 8 8 c 4 11 c 0 4 c -4 11 c
-8 8 c -11 4 c -4 0 c -11 -4 c -8 -8 c -3 -11 c 0 -4 c 3 -11 c 8 -8 c 11 -4 c 4 -4 1991 7401 l 4 4 c -4 4 c -4 -4 c
4 -12 1919 7454 l 12 -7 c 18 -4 c 12 0 c 19 4 c 11 7 c 4 12 c 0 7 c -4 12 c -11 7 c -19 4 c -12 0 c -18 -4 c -12 -7 c -4 -12 c
0 -7 c 4 -11 1919 7529 l 12 -8 c 18 -3 c 12 0 c 19 3 c 11 8 c 4 11 c 0 8 c -4 11 c -11 8 c -19 4 c -12 0 c -18 -4 c -12 -8 c
-4 -11 c 0 -8 c -4 7 1935 7594 l -12 11 c 80 0 c 0 -250 2522 4768 l 53 -37 2479 4877 l 0 56 c 79 0 2479 4877 l 53 -38 2479 4953 l
0 57 c 79 0 2479 4953 l 0 42 2479 4998 l 30 -23 c 0 12 c 4 7 c 4 4 c 11 4 c 8 0 c 11 -4 c 7 -8 c 4 -11 c 0 -11 c -4 -12 c -3 -3 c
-8 -4 c 4 -11 2479 5089 l 11 -8 c 19 -4 c 11 0 c 19 4 c 11 8 c 4 11 c 0 8 c -4 11 c -11 8 c -19 3 c -11 0 c -19 -3 c -11 -8 c
-4 -11 c 0 -8 c 3 -4 2551 5150 l 4 4 c -4 3 c -3 -3 c -4 8 2494 5191 l -11 11 c 79 0 c 4 -11 2479 5274 l 7 -4 c 8 0 c 7 4 c 4 7 c
4 16 c 4 11 c 7 7 c 8 4 c 11 0 c 8 -4 c 3 -3 c 4 -12 c 0 -15 c -4 -11 c -3 -4 c -8 -4 c -11 0 c -8 4 c -7 8 c -4 11 c -4 15 c -4 8 c
-7 3 c -8 0 c -7 -3 c -4 -12 c 0 -15 c 12 -4 2505 5380 l 7 -7 c 4 -12 c 0 -3 c -4 -12 c -7 -7 c -12 -4 c -3 0 c -12 4 c -7 7 c
-4 12 c 0 3 c 4 12 c 7 7 c 15 4 c 19 0 c 19 -4 c 11 -7 c 4 -12 c 0 -7 c -4 -12 c -7 -3 c 0 -249 2631 2321 l 53 -38 2587 2431 l
0 57 c 79 0 2587 2431 l 53 -38 2587 2507 l 0 56 c 79 0 2587 2507 l 0 41 2587 2552 l 30 -22 c 0 11 c 4 8 c 4 3 c 11 4 c 8 0 c 11 -4 c
8 -7 c 3 -11 c 0 -12 c -3 -11 c -4 -4 c -8 -4 c 4 -12 2587 2643 l 11 -7 c 19 -4 c 11 0 c 19 4 c 12 7 c 3 12 c 0 7 c -3 11 c -12 8 c
-19 4 c -11 0 c -19 -4 c -11 -8 c -4 -11 c 0 -7 c 4 -4 2659 2703 l 3 4 c -3 4 c -4 -4 c 11 -3 2614 2782 l 7 -8 c 4 -11 c 0 -4 c
-4 -11 c -7 -8 c -11 -4 c -4 0 c -12 4 c -7 8 c -4 11 c 0 4 c 4 11 c 7 8 c 16 3 c 18 0 c 19 -3 c 12 -8 c 3 -11 c 0 -8 c -3 -11 c
-8 -4 c 11 -4 2614 2858 l 7 -7 c 4 -12 c 0 -3 c -4 -12 c -7 -7 c -11 -4 c -4 0 c -12 4 c -7 7 c -4 12 c 0 3 c 4 12 c 7 7 c 16 4 c
18 0 c 19 -4 c 12 -7 c 3 -12 c 0 -7 c -3 -12 c -8 -3 c -7 -4 2598 2934 l -4 -12 c 0 -7 c 4 -11 c 11 -8 c 19 -4 c 19 0 c 15 4 c 8 8 c
3 11 c 0 4 c -3 11 c -8 8 c -11 3 c -4 0 c -11 -3 c -8 -8 c -4 -11 c 0 -4 c 4 -11 c 8 -8 c 11 -4 c 0 -250 2800 1433 l
53 -37 2756 1542 l 0 56 c 79 0 2756 1542 l 53 -38 2756 1618 l 0 57 c 79 0 2756 1618 l 0 42 2756 1663 l 30 -23 c 0 12 c 4 7 c 4 4 c
11 4 c 8 0 c 11 -4 c 8 -8 c 3 -11 c 0 -11 c -3 -12 c -4 -3 c -8 -4 c -4 0 2775 1735 l -7 4 c -4 4 c -4 7 c 0 15 c 4 8 c 4 4 c 7 3 c
8 0 c 7 -3 c 12 -8 c 37 -38 c 0 53 c 4 -3 2828 1814 l 3 3 c -3 4 c -4 -4 c -4 0 2775 1848 l -7 4 c -4 4 c -4 8 c 0 15 c 4 7 c 4 4 c
7 4 c 8 0 c 7 -4 c 12 -7 c 37 -38 c 0 53 c 0 -38 2756 1966 l 34 -4 c -4 4 c -3 11 c 0 12 c 3 11 c 8 7 c 11 4 c 8 0 c 11 -4 c 8 -7 c
3 -11 c 0 -12 c -3 -11 c -4 -4 c -8 -4 c -4 0 2775 2000 l -7 3 c -4 4 c -4 8 c 0 15 c 4 7 c 4 4 c 7 4 c 8 0 c 7 -4 c 12 -7 c
37 -38 c 0 53 c 0 -249 2895 3379 l 53 -38 2852 3489 l 0 57 c 79 0 2852 3489 l 53 -37 2852 3564 l 0 56 c 79 0 2852 3564 l
0 41 2852 3610 l 30 -22 c 0 11 c 4 7 c 3 4 c 12 4 c 7 0 c 12 -4 c 7 -7 c 4 -12 c 0 -11 c -4 -11 c -4 -4 c -7 -4 c -4 0 2871 3682 l
-8 3 c -4 4 c -3 8 c 0 15 c 3 7 c 4 4 c 8 4 c 7 0 c 8 -4 c 11 -7 c 38 -38 c 0 53 c 4 -4 2923 3761 l 4 4 c -4 4 c -4 -4 c
11 -4 2878 3840 l 8 -7 c 4 -11 c 0 -4 c -4 -12 c -8 -7 c -11 -4 c -4 0 c -11 4 c -8 7 c -3 12 c 0 4 c 3 11 c 8 7 c 15 4 c 19 0 c
19 -4 c 11 -7 c 4 -11 c 0 -8 c -4 -11 c -7 -4 c -8 -4 2863 3916 l -3 -11 c 0 -8 c 3 -11 c 12 -8 c 19 -4 c 19 0 c 15 4 c 7 8 c 4 11 c
0 4 c -4 11 c -7 8 c -12 4 c -3 0 c -12 -4 c -7 -8 c -4 -11 c 0 -4 c 4 -11 c 7 -8 c 12 -4 c 0 41 2852 3950 l 30 -22 c 0 11 c 4 8 c
3 3 c 12 4 c 7 0 c 12 -4 c 7 -7 c 4 -11 c 0 -12 c -4 -11 c -4 -4 c -7 -4 c 0 -250 3013 2397 l 53 -37 2970 2506 l 0 56 c
79 0 2970 2506 l 53 -38 2970 2582 l 0 57 c 79 0 2970 2582 l 0 42 2970 2627 l 30 -23 c 0 12 c 4 7 c 4 4 c 11 4 c 8 0 c 11 -4 c 7 -8 c
4 -11 c 0 -11 c -4 -12 c -3 -3 c -8 -4 c 0 42 2970 2703 l 30 -23 c 0 11 c 4 8 c 4 4 c 11 3 c 8 0 c 11 -3 c 7 -8 c 4 -11 c 0 -12 c
-4 -11 c -3 -4 c -8 -4 c 3 -4 3042 2779 l 4 4 c -4 3 c -3 -3 c 4 -12 2970 2828 l 7 -3 c 8 0 c 7 3 c 4 8 c 4 15 c 4 11 c 7 8 c 8 4 c
11 0 c 8 -4 c 3 -4 c 4 -11 c 0 -15 c -4 -12 c -3 -3 c -8 -4 c -11 0 c -8 4 c -7 7 c -4 11 c -4 16 c -4 7 c -7 4 c -8 0 c -7 -4 c
-4 -11 c 0 -15 c 0 42 2970 2892 l 30 -23 c 0 11 c 4 8 c 4 4 c 11 3 c 8 0 c 11 -3 c 7 -8 c 4 -11 c 0 -12 c -4 -11 c -3 -4 c -8 -4 c
4 -11 2970 2979 l 7 -4 c 8 0 c 7 4 c 4 7 c 4 15 c 4 12 c 7 7 c 8 4 c 11 0 c 8 -4 c 3 -4 c 4 -11 c 0 -15 c -4 -11 c -3 -4 c -8 -4 c
-11 0 c -8 4 c -7 7 c -4 12 c -4 15 c -4 7 c -7 4 c -8 0 c -7 -4 c -4 -11 c 0 -15 c 0 -250 3156 1318 l 53 -38 3112 1428 l 0 57 c
80 0 3112 1428 l 53 -38 3112 1503 l 0 57 c 80 0 3112 1503 l 0 41 3112 1549 l 31 -22 c 0 11 c 4 7 c 3 4 c 12 4 c 7 0 c 12 -4 c 7 -7 c
4 -12 c 0 -11 c -4 -11 c -4 -4 c -7 -4 c 53 -37 3112 1654 l 0 56 c 80 0 3112 1654 l 4 -4 3184 1700 l 4 4 c -4 4 c -4 -4 c
11 -4 3139 1779 l 8 -7 c 4 -12 c 0 -3 c -4 -12 c -8 -7 c -11 -4 c -4 0 c -11 4 c -8 7 c -4 12 c 0 3 c 4 12 c 8 7 c 15 4 c 19 0 c
19 -4 c 11 -7 c 4 -12 c 0 -7 c -4 -11 c -7 -4 c 0 -38 3112 1851 l 35 -4 c -4 4 c -4 12 c 0 11 c 4 11 c 7 8 c 12 4 c 7 0 c 12 -4 c
7 -8 c 4 -11 c 0 -11 c -4 -12 c -4 -4 c -7 -3 c -8 -3 3124 1930 l -4 -12 c 0 -7 c 4 -12 c 12 -7 c 19 -4 c 18 0 c 16 4 c 7 7 c 4 12 c
0 3 c -4 12 c -7 7 c -12 4 c -4 0 c -11 -4 c -7 -7 c -4 -12 c 0 -3 c 4 -12 c 7 -7 c 11 -4 c 0 -249 4071 1372 l 53 -38 4027 1482 l
0 57 c 79 0 4027 1482 l 53 -38 4027 1558 l 0 57 c 79 0 4027 1558 l 53 -38 4027 1633 l 0 57 c 79 0 4027 1633 l -4 8 4042 1682 l
-11 11 c 79 0 c 4 -4 4099 1754 l 3 4 c -3 4 c -4 -4 c -7 -4 4038 1834 l -4 -12 c 0 -7 c 4 -11 c 11 -8 c 19 -4 c 19 0 c 15 4 c 8 8 c
3 11 c 0 4 c -3 11 c -8 8 c -11 3 c -4 0 c -11 -3 c -8 -8 c -4 -11 c 0 -4 c 4 -11 c 8 -8 c 11 -4 c 4 -12 4027 1883 l 11 -7 c 19 -4 c
11 0 c 19 4 c 12 7 c 3 12 c 0 7 c -3 12 c -12 7 c -19 4 c -11 0 c -19 -4 c -11 -7 c -4 -12 c 0 -7 c 4 -12 4027 1955 l 7 -4 c 8 0 c
7 4 c 4 8 c 4 15 c 4 11 c 7 8 c 8 4 c 11 0 c 8 -4 c 4 -4 c 3 -11 c 0 -15 c -3 -12 c -4 -4 c -8 -3 c -11 0 c -8 3 c -7 8 c -4 11 c
-4 15 c -4 8 c -7 4 c -8 0 c -7 -4 c -4 -11 c 0 -15 c 0 -250 4353 1416 l 53 -38 4310 1526 l 0 56 c 79 0 4310 1526 l
53 -38 4310 1601 l 0 57 c 79 0 4310 1601 l 53 -38 4310 1677 l 0 57 c 79 0 4310 1677 l 0 42 4310 1722 l 30 -23 c 0 11 c 4 8 c 3 4 c
12 3 c 7 0 c 12 -3 c 7 -8 c 4 -11 c 0 -12 c -4 -11 c -4 -4 c -7 -3 c 4 -4 4381 1798 l 4 4 c -4 3 c -4 -3 c -8 -4 4321 1877 l
-3 -11 c 0 -8 c 3 -11 c 12 -8 c 19 -3 c 19 0 c 15 3 c 7 8 c 4 11 c 0 4 c -4 12 c -7 7 c -12 4 c -3 0 c -12 -4 c -7 -7 c -4 -12 c
0 -4 c 4 -11 c 7 -8 c 12 -3 c -8 -4 4321 1953 l -3 -11 c 0 -8 c 3 -11 c 12 -8 c 19 -4 c 19 0 c 15 4 c 7 8 c 4 11 c 0 4 c -4 11 c
-7 8 c -12 3 c -3 0 c -12 -3 c -7 -8 c -4 -11 c 0 -4 c 4 -11 c 7 -8 c 12 -4 c -8 -4 4321 2028 l -3 -11 c 0 -7 c 3 -12 c 12 -7 c
19 -4 c 19 0 c 15 4 c 7 7 c 4 12 c 0 3 c -4 12 c -7 7 c -12 4 c -3 0 c -12 -4 c -7 -7 c -4 -12 c 0 -3 c 4 -12 c 7 -7 c 12 -4 c
0 -249 4661 2110 l 53 -38 4618 2220 l 0 57 c 79 0 4618 2220 l 53 -38 4618 2296 l 0 57 c 79 0 4618 2296 l 53 -38 4618 2371 l 0 57 c
79 0 4618 2371 l 0 -37 4618 2454 l 34 -4 c -4 4 c -4 11 c 0 11 c 4 12 c 7 7 c 12 4 c 7 0 c 12 -4 c 7 -7 c 4 -12 c 0 -11 c -4 -11 c
-4 -4 c -7 -4 c 4 -4 4689 2492 l 4 4 c -4 4 c -4 -4 c 11 -4 4644 2572 l 8 -8 c 4 -11 c 0 -4 c -4 -11 c -8 -8 c -11 -4 c -4 0 c
-11 4 c -8 8 c -3 11 c 0 4 c 3 11 c 8 8 c 15 4 c 19 0 c 19 -4 c 11 -8 c 4 -11 c 0 -8 c -4 -11 c -7 -4 c 3 -12 4618 2621 l 12 -7 c
19 -4 c 11 0 c 19 4 c 11 7 c 4 12 c 0 7 c -4 12 c -11 7 c -19 4 c -11 0 c -19 -4 c -12 -7 c -3 -12 c 0 -7 c -4 8 4633 2685 l
-11 11 c 79 0 c 0 -250 4929 2639 l 53 -38 4886 2748 l 0 57 c 79 0 4886 2748 l 53 -38 4886 2824 l 0 57 c 79 0 4886 2824 l
53 -37 4886 2899 l 0 56 c 79 0 4886 2899 l 79 -38 4886 2990 l 0 53 4886 2937 l 4 -3 4957 3020 l 4 3 c -4 4 c -4 -4 c
3 -12 4886 3070 l 8 -4 c 8 0 c 7 4 c 4 8 c 4 15 c 3 11 c 8 8 c 8 4 c 11 0 c 7 -4 c 4 -4 c 4 -11 c 0 -15 c -4 -12 c -4 -4 c -7 -3 c
-11 0 c -8 3 c -8 8 c -3 11 c -4 15 c -4 8 c -7 4 c -8 0 c -8 -4 c -3 -11 c 0 -15 c 0 41 4886 3134 l 30 -22 c 0 11 c 4 8 c 3 3 c
12 4 c 7 0 c 12 -4 c 7 -7 c 4 -12 c 0 -11 c -4 -11 c -4 -4 c -7 -4 c 0 -38 4886 3247 l 34 -3 c -4 3 c -4 12 c 0 11 c 4 11 c 7 8 c
12 4 c 7 0 c 12 -4 c 7 -8 c 4 -11 c 0 -11 c -4 -12 c -4 -3 c -7 -4 c 0 -249 5075 3241 l 53 -38 5031 3351 l 0 57 c 79 0 5031 3351 l
53 -38 5031 3427 l 0 57 c 79 0 5031 3427 l 53 -38 5031 3502 l 0 57 c 79 0 5031 3502 l 4 -11 5031 3559 l 7 -4 c 8 0 c 7 4 c 4 7 c
4 15 c 4 12 c 7 7 c 8 4 c 11 0 c 8 -4 c 4 -4 c 3 -11 c 0 -15 c -3 -11 c -4 -4 c -8 -4 c -11 0 c -8 4 c -7 7 c -4 12 c -4 15 c -4 7 c
-7 4 c -8 0 c -7 -4 c -4 -11 c 0 -15 c 4 -4 5103 3623 l 3 4 c -3 4 c -4 -4 c 4 -11 5031 3672 l 7 -4 c 8 0 c 7 4 c 4 8 c 4 15 c
4 11 c 7 8 c 8 3 c 11 0 c 8 -3 c 4 -4 c 3 -12 c 0 -15 c -3 -11 c -4 -4 c -8 -4 c -11 0 c -8 4 c -7 8 c -4 11 c -4 15 c -4 8 c -7 4 c
-8 0 c -7 -4 c -4 -12 c 0 -15 c 79 -38 5031 3782 l 0 53 5031 3729 l 12 -4 5057 3854 l 7 -8 c 4 -11 c 0 -4 c -4 -11 c -7 -8 c
-12 -3 c -3 0 c -12 3 c -7 8 c -4 11 c 0 4 c 4 11 c 7 8 c 15 4 c 19 0 c 19 -4 c 12 -8 c 3 -11 c 0 -8 c -3 -11 c -8 -4 c
0 -249 5342 1372 l 53 -38 5299 1482 l 0 57 c 79 0 5299 1482 l 53 -38 5299 1558 l 0 56 c 79 0 5299 1558 l 0 -38 5299 1641 l 34 -4 c
-4 4 c -4 11 c 0 12 c 4 11 c 8 8 c 11 3 c 7 0 c 12 -3 c 7 -8 c 4 -11 c 0 -12 c -4 -11 c -3 -4 c -8 -4 c 4 -12 5299 1694 l 11 -7 c
19 -4 c 11 0 c 19 4 c 11 7 c 4 12 c 0 7 c -4 12 c -11 7 c -19 4 c -11 0 c -19 -4 c -11 -7 c -4 -12 c 0 -7 c 3 -4 5371 1754 l 4 4 c
-4 4 c -3 -4 c 4 -11 5299 1803 l 7 -4 c 8 0 c 7 4 c 4 7 c 4 16 c 4 11 c 7 8 c 8 3 c 11 0 c 8 -3 c 3 -4 c 4 -12 c 0 -15 c -4 -11 c
-3 -4 c -8 -4 c -11 0 c -8 4 c -7 8 c -4 11 c -4 15 c -4 8 c -7 4 c -8 0 c -7 -4 c -4 -12 c 0 -15 c 4 -12 5299 1883 l 11 -7 c
19 -4 c 11 0 c 19 4 c 11 7 c 4 12 c 0 7 c -4 12 c -11 7 c -19 4 c -11 0 c -19 -4 c -11 -7 c -4 -12 c 0 -7 c 53 -37 5299 1973 l
0 56 c 79 0 5299 1973 l 0 -249 5590 2272 l 53 -38 5546 2382 l 0 57 c 79 0 5546 2382 l 53 -38 5546 2458 l 0 56 c 79 0 5546 2458 l
0 -38 5546 2541 l 34 -4 c -4 4 c -4 11 c 0 12 c 4 11 c 8 8 c 11 3 c 8 0 c 11 -3 c 8 -8 c 3 -11 c 0 -12 c -3 -11 c -4 -4 c -8 -4 c
-4 0 5565 2575 l -8 4 c -3 3 c -4 8 c 0 15 c 4 8 c 3 3 c 8 4 c 8 0 c 7 -4 c 12 -7 c 37 -38 c 0 53 c 4 -4 5618 2654 l 3 4 c -3 4 c
-4 -4 c 0 -38 5546 2730 l 34 -4 c -4 4 c -4 11 c 0 12 c 4 11 c 8 7 c 11 4 c 8 0 c 11 -4 c 8 -7 c 3 -11 c 0 -12 c -3 -11 c -4 -4 c
-8 -4 c -7 -4 5557 2809 l -4 -11 c 0 -8 c 4 -11 c 11 -8 c 19 -3 c 19 0 c 15 3 c 8 8 c 3 11 c 0 4 c -3 12 c -8 7 c -11 4 c -4 0 c
-11 -4 c -8 -7 c -4 -12 c 0 -4 c 4 -11 c 8 -8 c 11 -3 c 0 -38 5546 2881 l 34 -4 c -4 4 c -4 11 c 0 12 c 4 11 c 8 8 c 11 3 c 8 0 c
11 -3 c 8 -8 c 3 -11 c 0 -12 c -3 -11 c -4 -4 c -8 -3 c 0 -250 5900 1427 l 53 -37 5856 1536 l 0 56 c 80 0 5856 1536 l
53 -38 5856 1612 l 0 57 c 80 0 5856 1612 l 0 -38 5856 1695 l 34 -3 c -4 3 c -3 12 c 0 11 c 3 11 c 8 8 c 11 4 c 8 0 c 11 -4 c 8 -8 c
4 -11 c 0 -11 c -4 -12 c -4 -3 c -8 -4 c 53 -38 5856 1763 l 0 57 c 80 0 5856 1763 l 4 -4 5928 1809 l 4 4 c -4 3 c -4 -3 c
80 -38 5856 1892 l 0 53 5856 1839 l 80 -37 5856 1967 l 0 53 5856 1914 l 53 -38 5856 2028 l 0 57 c 80 0 5856 2028 l
0 -250 6357 2853 l 53 -37 6313 2962 l 0 56 c 79 0 6313 2962 l 53 -38 6313 3038 l 0 57 c 79 0 6313 3038 l 0 -38 6313 3121 l 34 -3 c
-4 3 c -4 12 c 0 11 c 4 11 c 8 8 c 11 4 c 8 0 c 11 -4 c 8 -8 c 3 -11 c 0 -11 c -3 -12 c -4 -3 c -8 -4 c 4 -11 6313 3170 l 7 -4 c
8 0 c 7 4 c 4 7 c 4 16 c 4 11 c 7 7 c 8 4 c 11 0 c 8 -4 c 4 -3 c 3 -12 c 0 -15 c -3 -11 c -4 -4 c -8 -4 c -11 0 c -8 4 c -7 8 c
-4 11 c -4 15 c -4 8 c -7 3 c -8 0 c -7 -3 c -4 -12 c 0 -15 c 4 -3 6385 3234 l 3 3 c -3 4 c -4 -4 c 4 -11 6313 3287 l 11 -8 c
19 -3 c 11 0 c 19 3 c 12 8 c 3 11 c 0 8 c -3 11 c -12 8 c -19 4 c -11 0 c -19 -4 c -11 -8 c -4 -11 c 0 -8 c 4 -11 6313 3363 l
11 -8 c 19 -4 c 11 0 c 19 4 c 12 8 c 3 11 c 0 8 c -3 11 c -12 7 c -19 4 c -11 0 c -19 -4 c -11 -7 c -4 -11 c 0 -8 c -4 0 6332 3420 l
-7 3 c -4 4 c -4 8 c 0 15 c 4 7 c 4 4 c 7 4 c 8 0 c 7 -4 c 12 -7 c 37 -38 c 0 53 c 0 -250 7408 3344 l 53 -38 7364 3454 l 0 56 c
80 0 7364 3454 l 53 -38 7364 3529 l 0 57 c 80 0 7364 3529 l -8 -4 7376 3616 l -4 -11 c 0 -8 c 4 -11 c 12 -8 c 18 -3 c 19 0 c 15 3 c
8 8 c 4 11 c 0 4 c -4 11 c -8 8 c -11 4 c -4 0 c -11 -4 c -8 -8 c -3 -11 c 0 -4 c 3 -11 c 8 -8 c 11 -3 c 0 -38 7364 3688 l 34 -4 c
-3 4 c -4 11 c 0 12 c 4 11 c 7 8 c 12 3 c 7 0 c 11 -3 c 8 -8 c 4 -11 c 0 -12 c -4 -11 c -4 -4 c -7 -4 c 4 -4 7436 3726 l 4 4 c
-4 3 c -4 -3 c 0 42 7364 3763 l 31 -23 c 0 12 c 3 7 c 4 4 c 12 4 c 7 0 c 11 -4 c 8 -8 c 4 -11 c 0 -11 c -4 -12 c -4 -3 c -7 -4 c
53 -38 7364 3869 l 0 57 c 80 0 7364 3869 l -4 8 7380 3918 l -12 11 c 80 0 c 0 -250 8016 1540 l 52 -37 7973 1649 l 0 56 c
79 0 7973 1649 l 52 -38 7973 1725 l 0 57 c 79 0 7973 1725 l -8 -4 7984 1812 l -3 -11 c 0 -8 c 3 -11 c 12 -8 c 19 -3 c 18 0 c 16 3 c
7 8 c 4 11 c 0 4 c -4 11 c -7 8 c -12 4 c -4 0 c -11 -4 c -7 -8 c -4 -11 c 0 -4 c 4 -11 c 7 -8 c 11 -3 c 11 -4 7999 1888 l 8 -8 c
4 -11 c 0 -4 c -4 -11 c -8 -8 c -11 -4 c -4 0 c -11 4 c -8 8 c -3 11 c 0 4 c 3 11 c 8 8 c 15 4 c 19 0 c 19 -4 c 11 -8 c 4 -11 c
0 -8 c -4 -11 c -7 -4 c 4 -4 8044 1922 l 4 4 c -4 3 c -4 -3 c 0 -38 7973 1997 l 34 -3 c -4 3 c -4 12 c 0 11 c 4 11 c 7 8 c 12 4 c
7 0 c 12 -4 c 7 -8 c 4 -11 c 0 -11 c -4 -12 c -4 -3 c -7 -4 c -3 0 7991 2031 l -8 4 c -4 4 c -3 7 c 0 15 c 3 8 c 4 4 c 8 4 c 7 0 c
8 -4 c 11 -8 c 38 -38 c 0 53 c 0 -37 7973 2148 l 34 -4 c -4 4 c -4 11 c 0 11 c 4 12 c 7 7 c 12 4 c 7 0 c 12 -4 c 7 -7 c 4 -12 c
0 -11 c -4 -11 c -4 -4 c -7 -4 c 0 -250 8230 1317 l 53 -38 8187 1426 l 0 57 c 79 0 8187 1426 l 53 -38 8187 1502 l 0 57 c
79 0 8187 1502 l 79 -38 8187 1593 l 0 53 8187 1540 l 3 -11 8187 1638 l 12 -8 c 19 -4 c 11 0 c 19 4 c 11 8 c 4 11 c 0 7 c -4 12 c
-11 7 c -19 4 c -11 0 c -19 -4 c -12 -7 c -3 -12 c 0 -7 c 4 -3 8258 1698 l 4 3 c -4 4 c -4 -4 c 11 -4 8213 1778 l 8 -8 c 4 -11 c
0 -4 c -4 -11 c -8 -8 c -11 -3 c -4 0 c -11 3 c -8 8 c -3 11 c 0 4 c 3 11 c 8 8 c 15 4 c 19 0 c 19 -4 c 11 -8 c 4 -11 c 0 -8 c
-4 -11 c -7 -4 c 11 -3 8213 1853 l 8 -8 c 4 -11 c 0 -4 c -4 -12 c -8 -7 c -11 -4 c -4 0 c -11 4 c -8 7 c -3 12 c 0 4 c 3 11 c 8 8 c
15 3 c 19 0 c 19 -3 c 11 -8 c 4 -11 c 0 -8 c -4 -11 c -7 -4 c -4 8 8202 1891 l -11 11 c 79 0 c 0 -250 8786 5195 l 53 -38 8742 5304 l
0 57 c 80 0 8742 5304 l 53 -38 8742 5380 l 0 57 c 80 0 8742 5380 l 80 -38 8742 5471 l 0 53 8742 5418 l 53 -38 8742 5531 l 0 57 c
80 0 8742 5531 l 4 -3 8814 5576 l 4 3 c -4 4 c -4 -4 c 80 -38 8742 5660 l 0 53 8742 5607 l 0 -38 8742 5728 l 34 -4 c -3 4 c -4 11 c
0 11 c 4 12 c 7 7 c 12 4 c 7 0 c 11 -4 c 8 -7 c 4 -12 c 0 -11 c -4 -11 c -4 -4 c -7 -4 c 11 -4 8769 5807 l 8 -7 c 4 -12 c 0 -4 c
-4 -11 c -8 -7 c -11 -4 c -4 0 c -11 4 c -8 7 c -4 11 c 0 4 c 4 12 c 8 7 c 15 4 c 19 0 c 19 -4 c 11 -7 c 4 -12 c 0 -7 c -4 -12 c
-8 -3 c 0 -249 8854 1784 l 53 -38 8811 1894 l 0 57 c 79 0 8811 1894 l 53 -37 8811 1969 l 0 56 c 79 0 8811 1969 l 79 -38 8811 2060 l
0 53 8811 2007 l 0 -38 8811 2128 l 34 -3 c -4 3 c -4 12 c 0 11 c 4 11 c 8 8 c 11 4 c 7 0 c 12 -4 c 7 -8 c 4 -11 c 0 -11 c -4 -12 c
-3 -3 c -8 -4 c 3 -4 8883 2166 l 4 4 c -4 4 c -3 -4 c -4 0 8830 2200 l -8 4 c -3 4 c -4 7 c 0 15 c 4 8 c 3 4 c 8 3 c 7 0 c 8 -3 c
11 -8 c 38 -38 c 0 53 c -4 0 8830 2276 l -8 3 c -3 4 c -4 8 c 0 15 c 4 7 c 3 4 c 8 4 c 7 0 c 8 -4 c 11 -7 c 38 -38 c 0 53 c
-4 7 8826 2359 l -11 12 c 79 0 c 0 -249 9513 1291 l 53 -38 9469 1401 l 0 57 c 80 0 9469 1401 l 53 -37 9469 1476 l 0 56 c
80 0 9469 1476 l 80 -38 9469 1567 l 0 53 9469 1514 l 11 -4 9496 1639 l 8 -7 c 3 -12 c 0 -4 c -3 -11 c -8 -7 c -11 -4 c -4 0 c
-11 4 c -8 7 c -4 11 c 0 4 c 4 12 c 8 7 c 15 4 c 19 0 c 19 -4 c 11 -7 c 4 -12 c 0 -7 c -4 -12 c -8 -3 c 4 -4 9541 1673 l 4 4 c
-4 4 c -4 -4 c -8 -3 9481 1752 l -4 -12 c 0 -7 c 4 -12 c 11 -7 c 19 -4 c 19 0 c 15 4 c 8 7 c 4 12 c 0 3 c -4 12 c -8 7 c -11 4 c
-4 0 c -11 -4 c -8 -7 c -4 -12 c 0 -3 c 4 -12 c 8 -7 c 11 -4 c 0 42 9469 1786 l 30 -23 c 0 12 c 4 7 c 4 4 c 11 4 c 8 0 c 11 -4 c
8 -8 c 4 -11 c 0 -11 c -4 -12 c -4 -3 c -7 -4 c 4 -11 9469 1873 l 8 -4 c 7 0 c 8 4 c 3 7 c 4 16 c 4 11 c 8 8 c 7 3 c 12 0 c 7 -3 c
4 -4 c 4 -12 c 0 -15 c -4 -11 c -4 -4 c -7 -4 c -12 0 c -7 4 c -8 8 c -4 11 c -4 15 c -3 8 c -8 4 c -7 0 c -8 -4 c -4 -12 c 0 -15 c
showpage PGPLOT restore
 
%%Trailer
%%DocumentFonts: 
%%Pages: 1
%%EOF
