%!PS-Adobe-3.0 EPSF-3.0
%%For: tom
%%Title: PGPLOT PostScript plot
%%Creator: PGPLOT
%%CreationDate:  9-Nov-1994 13:46
%%BoundingBox: 25 18 587 774
%%DocumentFonts: (atend)
%%LanguageLevel: 1
%%Orientation: Landscape
%%Pages: (atend)
%%EndComments
%%BeginProlog
/l {moveto rlineto currentpoint stroke moveto} bind def
/c {rlineto currentpoint stroke moveto} bind def
/d {moveto 0 0 rlineto currentpoint stroke moveto} bind def
/SLW {5 mul setlinewidth} bind def
/SCF /pop load def
/BP {newpath moveto} bind def
/LP /rlineto load def
/EP {rlineto closepath eofill} bind def
/MB {gsave translate MFAC dup scale 1 setlinewidth 2 setlinecap 0 setlinejoin newpath} bind def
/ME /grestore load def
/C {0 360 arc stroke} bind def
/FC {0 360 arc fill} bind def
%%EndProlog
 
%%Page: 1 1
%%BeginPageSetup
/PGPLOT save def
0.072 0.072 scale
8150 250 translate 90 rotate
1 setlinejoin 1 setlinecap 1 SLW 1 SCF
%%EndPageSetup
0.00 setgray 1 SLW 8939 0 780 780 l 0 6239 c -8939 0 c 0 -6239 c 0 -45 1116 780 l 0 -45 1554 780 l 0 -45 1991 780 l 0 -45 2428 780 l
0 -90 2865 780 l 0 -45 3302 780 l 0 -45 3739 780 l 0 -45 4176 780 l 0 -45 4613 780 l 0 -90 5051 780 l 0 -45 5488 780 l
0 -45 5925 780 l 0 -45 6362 780 l 0 -45 6799 780 l 0 -90 7236 780 l 0 -45 7673 780 l 0 -45 8110 780 l 0 -45 8548 780 l
0 -45 8985 780 l 0 -90 9422 780 l 0 -45 1116 7064 l 0 -45 1554 7064 l 0 -45 1991 7064 l 0 -45 2428 7064 l 0 -90 2865 7109 l
0 -45 3302 7064 l 0 -45 3739 7064 l 0 -45 4176 7064 l 0 -45 4613 7064 l 0 -90 5051 7109 l 0 -45 5488 7064 l 0 -45 5925 7064 l
0 -45 6362 7064 l 0 -45 6799 7064 l 0 -90 7236 7109 l 0 -45 7673 7064 l 0 -45 8110 7064 l 0 -45 8548 7064 l 0 -45 8985 7064 l
0 -90 9422 7109 l -60 0 2775 672 l -6 -54 c 6 6 c 18 6 c 18 0 c 18 -6 c 12 -12 c 6 -18 c 0 -12 c -6 -18 c -12 -12 c -18 -6 c -18 0 c
-18 6 c -6 6 c -6 12 c -18 -6 2859 672 l -12 -18 c -6 -30 c 0 -18 c 6 -30 c 12 -18 c 18 -6 c 12 0 c 18 6 c 12 18 c 6 30 c 0 18 c
-6 30 c -12 18 c -18 6 c -12 0 c -18 -6 2979 672 l -12 -18 c -6 -30 c 0 -18 c 6 -30 c 12 -18 c 18 -6 c 12 0 c 18 6 c 12 18 c 6 30 c
0 18 c -6 30 c -12 18 c -18 6 c -12 0 c 12 6 4847 648 l 18 18 c 0 -126 c -18 -6 4985 672 l -12 -18 c -6 -30 c 0 -18 c 6 -30 c
12 -18 c 18 -6 c 12 0 c 18 6 c 12 18 c 6 30 c 0 18 c -6 30 c -12 18 c -18 6 c -12 0 c -18 -6 5105 672 l -12 -18 c -6 -30 c 0 -18 c
6 -30 c 12 -18 c 18 -6 c 12 0 c 18 6 c 12 18 c 6 30 c 0 18 c -6 30 c -12 18 c -18 6 c -12 0 c -18 -6 5225 672 l -12 -18 c -6 -30 c
0 -18 c 6 -30 c 12 -18 c 18 -6 c 12 0 c 18 6 c 12 18 c 6 30 c 0 18 c -6 30 c -12 18 c -18 6 c -12 0 c 12 6 7032 648 l 18 18 c
0 -126 c -60 0 7206 672 l -6 -54 c 6 6 c 18 6 c 18 0 c 18 -6 c 12 -12 c 6 -18 c 0 -12 c -6 -18 c -12 -12 c -18 -6 c -18 0 c -18 6 c
-6 6 c -6 12 c -18 -6 7290 672 l -12 -18 c -6 -30 c 0 -18 c 6 -30 c 12 -18 c 18 -6 c 12 0 c 18 6 c 12 18 c 6 30 c 0 18 c -6 30 c
-12 18 c -18 6 c -12 0 c -18 -6 7410 672 l -12 -18 c -6 -30 c 0 -18 c 6 -30 c 12 -18 c 18 -6 c 12 0 c 18 6 c 12 18 c 6 30 c 0 18 c
-6 30 c -12 18 c -18 6 c -12 0 c 0 6 9206 642 l 6 12 c 6 6 c 12 6 c 24 0 c 12 -6 c 6 -6 c 6 -12 c 0 -12 c -6 -12 c -12 -18 c
-60 -60 c 84 0 c -18 -6 9356 672 l -12 -18 c -6 -30 c 0 -18 c 6 -30 c 12 -18 c 18 -6 c 12 0 c 18 6 c 12 18 c 6 30 c 0 18 c -6 30 c
-12 18 c -18 6 c -12 0 c -18 -6 9476 672 l -12 -18 c -6 -30 c 0 -18 c 6 -30 c 12 -18 c 18 -6 c 12 0 c 18 6 c 12 18 c 6 30 c 0 18 c
-6 30 c -12 18 c -18 6 c -12 0 c -18 -6 9596 672 l -12 -18 c -6 -30 c 0 -18 c 6 -30 c 12 -18 c 18 -6 c 12 0 c 18 6 c 12 18 c 6 30 c
0 18 c -6 30 c -12 18 c -18 6 c -12 0 c -90 0 780 780 l -45 0 780 1715 l -90 0 780 2650 l -45 0 780 3585 l -90 0 780 4520 l
-45 0 780 5455 l -90 0 780 6390 l -90 0 9809 780 l -45 0 9764 1715 l -90 0 9809 2650 l -45 0 9764 3585 l -90 0 9809 4520 l
-45 0 9764 5455 l -90 0 9809 6390 l 6 -18 517 774 l 18 -12 c 30 -6 c 18 0 c 30 6 c 18 12 c 6 18 c 0 12 c -6 18 c -18 12 c -30 6 c
-18 0 c -30 -6 c -18 -12 c -6 -18 c 0 -12 c -6 0 547 2392 l -12 6 c -6 6 c -6 12 c 0 24 c 6 12 c 6 6 c 12 6 c 12 0 c 12 -6 c
18 -12 c 60 -60 c 0 84 c 84 84 547 2512 l 84 -84 547 2596 l -6 12 541 2656 l -18 18 c 126 0 c 6 -18 517 2794 l 18 -12 c 30 -6 c
18 0 c 30 6 c 18 12 c 6 18 c 0 12 c -6 18 c -18 12 c -30 6 c -18 0 c -30 -6 c -18 -12 c -6 -18 c 0 -12 c 63 -45 453 2918 l 0 68 c
94 0 453 2918 l 84 -60 517 4316 l 0 90 c 126 0 517 4316 l 84 84 547 4382 l 84 -84 547 4466 l -6 12 541 4526 l -18 18 c 126 0 c
6 -18 517 4664 l 18 -12 c 30 -6 c 18 0 c 30 6 c 18 12 c 6 18 c 0 12 c -6 18 c -18 12 c -30 6 c -18 0 c -30 -6 c -18 -12 c -6 -18 c
0 -12 c 63 -45 453 4788 l 0 68 c 94 0 453 4788 l -12 -6 535 6204 l -6 -18 c 0 -12 c 6 -18 c 18 -12 c 30 -6 c 30 0 c 24 6 c 12 12 c
6 18 c 0 6 c -6 18 c -12 12 c -18 6 c -6 0 c -18 -6 c -12 -12 c -6 -18 c 0 -6 c 6 -18 c 12 -12 c 18 -6 c 84 84 547 6252 l
84 -84 547 6336 l -6 12 541 6396 l -18 18 c 126 0 c 6 -18 517 6534 l 18 -12 c 30 -6 c 18 0 c 30 6 c 18 12 c 6 18 c 0 12 c -6 18 c
-18 12 c -30 6 c -18 0 c -30 -6 c -18 -12 c -6 -18 c 0 -12 c 63 -44 453 6658 l 0 67 c 94 0 453 6658 l
4 17 780 863 l 5 -6 c 4 -22 c 4 -38 c 5 20 c 4 84 c 4 173 c 5 54 c 4 -32 c 5 -122 c 4 -153 c 4 -33 c 5 -7 c 4 -6 c 4 -1 c 5 -1 c
4 0 c 5 0 c 4 0 c 4 0 c 5 1 c 4 1 c 4 2 c 5 4 c 4 8 c 5 14 c 4 0 c 4 -6 c 5 -13 c 4 -11 c 4 0 c 5 0 c 4 0 c 5 0 c 4 1 c 4 0 c 5 2 c
4 6 c 4 8 c 5 22 c 4 48 c 4 11 c 5 -13 c 4 -35 c 5 -43 c 4 -5 c 4 -1 c 5 1 c 4 0 c 4 0 c 5 0 c 4 0 c 5 -1 c 4 7 c 4 21 c 5 68 c
4 142 c 4 35 c 5 -30 c 4 -95 c 5 -116 c 4 10 c 4 4 c 5 -2 c 4 -19 c 4 -21 c 5 -2 c 4 1 c 5 -1 c 4 -1 c 4 -2 c 5 0 c 4 0 c 4 0 c
5 0 c 4 1 c 4 0 c 5 3 c 4 6 c 5 24 c 4 49 c 4 9 c 5 -7 c 4 -95 c 5 137 1151 780 l 4 264 c 5 347 c 4 0 c 4 -111 c 5 -378 c 4 -223 c
4 -21 c 5 -2 c 4 -1 c 5 1 c 4 1 c 4 0 c 5 1 c 4 0 c 4 -1 c 5 -1 c 4 -1 c 5 -1 c 4 0 c 4 0 c 5 1 c 4 2 c 4 12 c 5 40 c 4 137 c
4 171 c 5 3 c 4 -50 c 5 -198 c 4 -110 c 4 -7 c 5 0 c 4 1 c 4 2 c 5 0 c 4 0 c 5 -3 c 4 -2 c 4 0 c 5 0 c 4 -1 c 4 1 c 5 0 c 4 1 c
5 0 c 4 0 c 4 0 c 5 0 c 4 -1 c 4 0 c 5 0 c 4 1 c 5 0 c 4 0 c 4 1 c 5 5 c 4 20 c 4 73 c 5 166 c 4 54 c 4 -27 c 5 -114 c 4 -149 c
5 -16 c 4 24 c 4 49 c 5 21 c 4 -3 c 4 -36 c 5 -44 c 4 -16 c 5 -3 c 4 0 c 4 0 c 5 -1 c 4 -2 c 4 -1 c 5 0 c 4 4 c 5 15 c 4 11 c 4 -2 c
5 -6 c 4 -18 c 4 -5 c 5 -1 c 4 1 c 4 1 c 5 1 c 4 0 c 5 0 c 4 0 c 4 3 c 5 2 c 4 -1 c 4 -1 c 5 -3 c 4 -1 c 5 0 c 4 -1 c 4 -1 c 5 0 c
4 2 c 4 1 c 5 1 c 4 0 c 5 0 c 4 -1 c 4 0 c 5 1 c 4 10 c 4 44 c 5 58 c 4 18 c 5 17 c 4 -45 c 4 -36 c 5 -27 c 4 -29 c 4 -11 c 5 -2 c
4 0 c 4 0 c 5 0 c 4 1 c 5 1 c 4 4 c 4 13 c 5 37 c 4 32 c 4 5 c 5 -17 c 4 -41 c 5 -26 c 4 -5 c 4 -2 c 5 -2 c 4 0 c 4 -1 c 5 0 c 4 0 c
5 0 c 4 0 c 4 0 c 5 1 c 4 0 c 4 0 c 5 0 c 4 0 c 5 0 c 4 -1 c 4 0 c 5 0 c 4 1 c 4 0 c 5 0 c 4 0 c 4 0 c 5 1 c 4 0 c 5 4 c 4 2 c 4 0 c
5 1 c 4 2 c 4 0 c 5 -1 c 4 -4 c 5 -5 c 4 -1 c 4 0 c 5 0 c 4 1 c 4 -1 c 5 0 c 4 2 c 5 2 c 4 1 c 4 0 c 5 -2 c 4 0 c 4 0 c 5 0 c 4 -1 c
5 -1 c 4 -1 c 4 1 c 5 0 c 4 -1 c 4 1 c 5 1 c 4 0 c 4 0 c 5 -1 c 4 0 c 5 -1 c 4 0 c 4 1 c 5 1 c 4 2 c 4 1 c 5 3 c 4 -1 c 5 -1 c
4 -2 c 4 -1 c 5 2 c 4 3 c 4 4 c 5 10 c 4 45 c 5 33 c 4 -2 c 4 -17 c 5 -53 c 4 -21 c 4 1 c 5 -1 c 4 -2 c 5 -3 c 4 -1 c 4 1 c 5 0 c
4 1 c 4 1 c 5 2 c 4 19 c 4 116 c 5 292 c 4 103 c 5 -24 c 4 -184 c 4 -270 c 5 -37 c 4 41 c 4 14 c 5 -2 c 4 -21 c 5 -40 c 4 -8 c 4 0 c
5 -1 c 4 0 c 4 2 c 5 2 c 4 2 c 5 6 c 4 2 c 4 0 c 5 -3 c 4 -10 c 4 -3 c 5 0 c 4 -1 c 4 1 c 5 0 c 4 0 c 5 0 c 4 1 c 4 4 c 5 2 c 4 1 c
4 -1 c 5 -5 c 4 -1 c 5 -1 c 4 1 c 4 0 c 5 0 c 4 -1 c 4 2 c 5 3 c 4 1 c 5 -1 c 4 -3 c 4 -2 c 5 0 c 4 1 c 4 0 c 5 0 c 4 1 c 5 0 c
4 1 c 4 -1 c 5 -2 c 4 -1 c 4 0 c 5 1 c 4 0 c 4 0 c 5 0 c 4 0 c 5 2 c 4 14 c 4 29 c 5 5 c 4 -1 c 4 -18 c 5 -22 c 4 -1 c 5 8 c 4 2 c
4 0 c 5 -7 c 4 -8 c 4 -1 c 5 0 c 4 1 c 5 1 c 4 0 c 4 0 c 5 1 c 4 6 c 4 26 c 5 30 c 4 4 c 5 -9 c 4 -33 c 4 -19 c 5 -2 c 4 0 c 4 0 c
5 0 c 4 1 c 4 1 c 5 3 c 4 2 c 5 1 c 4 2 c 4 0 c 5 5 c 4 43 c 4 298 c 5 694 c 4 147 c 5 -66 c 4 -460 c 4 -557 c 5 -73 c 4 0 c 4 5 c
5 7 c 4 14 c 5 39 c 4 148 c 4 153 c 5 173 c 4 626 c 4 3743 c 5 1063 c 4 10 c 5 -9 c 4 11 c 4 -2915 c 5 -2299 c 4 -481 c 4 -141 c
5 -66 c 4 -28 c 4 -21 c 5 -16 c 4 -17 c 5 -10 c 4 -2 c 4 -6 c 5 -3 c 4 -5 c 4 -2 c 5 -1 c 4 0 c 5 1 c 4 6 c 4 25 c 5 22 c 4 125 c
4 259 c 5 49 c 4 -23 c 5 -201 c 4 -233 c 4 -36 c 5 2 c 4 3 c 4 0 c 5 -1 c 4 -5 c 4 -5 c 5 -1 c 4 1 c 5 3 c 4 1 c 4 -1 c 5 -2 c
4 -3 c 4 -1 c 5 0 c 4 1 c 5 10 c 4 16 c 4 6 c 5 -1 c 4 -13 c 4 -5 c 5 3 c 4 -1 c 5 -3 c 4 -9 c 4 -3 c 5 -1 c 4 5 c 4 7 c 5 9 c 4 5 c
5 -4 c 4 26 c 4 74 c 5 21 c 4 -3 c 4 -50 c 5 -80 c 4 -10 c 4 -1 c 5 0 c 4 0 c 5 0 c 4 -1 c 4 1 c 5 1 c 4 2 c 4 24 c 5 85 c 4 57 c
5 6 c 4 -35 c 4 -93 c 5 -41 c 4 -4 c 4 -2 c 5 0 c 4 0 c 5 0 c 4 1 c 4 0 c 5 -1 c 4 -1 c 4 -1 c 5 1 c 4 10 c 5 8 c 4 2 c 4 -2 c
5 -10 c 4 -6 c 4 -3 c 5 0 c 4 -1 c 4 1 c 5 1 c 4 1 c 5 2 c 4 -1 c 4 -1 c 5 -2 c 4 -1 c 4 0 c 5 1 c 4 0 c 5 3 c 4 1 c 4 0 c 5 -1 c
4 -2 c 4 -1 c 5 0 c 4 2 c 5 2 c 4 0 c 4 -1 c 5 -3 c 4 -1 c 4 0 c 5 1 c 4 0 c 5 0 c 4 0 c 4 1 c 5 7 c 4 7 c 4 2 c 5 -2 c 4 -9 c
4 -6 c 5 3 c 4 8 c 5 2 c 4 0 c 4 -5 c 5 -7 c 4 0 c 4 2 c 5 0 c 4 -1 c 5 0 c 4 -1 c 4 1 c 5 0 c 4 -1 c 4 -1 c 5 0 c 4 5 c 5 6 c 4 8 c
4 1 c 5 -3 c 4 -6 c 4 -7 c 5 -2 c 4 -1 c 5 1 c 4 0 c 4 0 c 5 -1 c 4 0 c 4 0 c 5 -1 c 4 0 c 4 0 c 5 1 c 4 2 c 5 -1 c 4 0 c 4 -1 c
5 -1 c 4 0 c 4 2 c 5 0 c 4 1 c 5 -1 c 4 -1 c 4 -1 c 5 1 c 4 3 c 4 19 c 5 23 c 4 10 c 5 2 c 4 -24 c 4 -15 c 5 -9 c 4 -5 c 4 1 c
5 -1 c 4 1 c 4 1 c 5 -1 c 4 -1 c 5 -2 c 4 -2 c 4 0 c 5 1 c 4 0 c 4 3 c 5 25 c 4 109 c 5 52 c 4 19 c 4 -26 c 5 -113 c 4 -43 c 4 -16 c
5 -5 c 4 0 c 5 1 c 4 -2 c 4 -2 c 5 -2 c 4 -1 c 4 -1 c 5 0 c 4 0 c 5 -1 c 4 1 c 4 0 c 5 0 c 4 1 c 4 2 c 5 1 c 4 1 c 4 0 c 5 15 c
4 27 c 5 6 c 4 5 c 4 -17 c 5 -17 c 4 -4 c 4 -5 c 5 -5 c 4 -5 c 5 0 c 4 0 c 4 -1 c 5 -1 c 4 -1 c 4 0 c 5 -2 c 4 0 c 5 0 c 4 1 c 4 1 c
5 2 c 4 0 c 4 0 c 5 2 c 4 24 c 5 20 c 4 7 c 4 -10 c 5 -28 c 4 -16 c 4 -1 c 5 7 c 4 16 c 4 5 c 5 -1 c 4 -12 c 5 -14 c 4 -3 c 4 2 c
5 4 c 4 6 c 4 5 c 5 6 c 4 -3 c 5 -5 c 4 -5 c 4 -2 c 5 2 c 4 0 c 4 2 c 5 -2 c 4 -2 c 5 -1 c 4 -1 c 4 1 c 5 0 c 4 -1 c 4 -3 c 5 -3 c
4 1 c 5 0 c 4 4 c 4 6 c 5 3 c 4 2 c 4 -3 c 5 -3 c 4 -1 c 4 -1 c 5 0 c 4 -1 c 5 -2 c 4 -1 c 4 -2 c 5 0 c 4 0 c 4 0 c 5 1 c 4 1 c
5 2 c 4 10 c 4 96 c 5 170 c 4 102 c 4 396 c 5 445 c 4 -33 c 5 -61 c 4 -518 c 4 -463 c 5 -91 c 4 -31 c 4 -19 c 5 -4 c 4 0 c 5 0 c
4 1 c 4 2 c 5 0 c 4 -1 c 4 -1 c 5 5 c 4 23 c 4 15 c 5 0 c 4 -8 c 5 -27 c 4 -11 c 4 0 c 5 1 c 4 0 c 4 -1 c 5 -1 c 4 -1 c 5 2 c 4 9 c
4 4 c 5 0 c 4 -4 c 4 -9 c 5 -3 c 4 -1 c 5 1 c 4 0 c 4 0 c 5 0 c 4 0 c 4 0 c 5 0 c 4 -1 c 4 1 c 5 -1 c 4 1 c 5 -1 c 4 0 c 4 0 c 5 0 c
4 1 c 4 1 c 5 1 c 4 2 c 5 1 c 4 -1 c 4 -2 c 5 -1 c 4 0 c 4 0 c 5 0 c 4 0 c 5 1 c 4 0 c 4 2 c 5 14 c 4 15 c 4 5 c 5 -3 c 4 -16 c
5 -14 c 4 -3 c 4 -1 c 5 1 c 4 13 c 4 62 c 5 40 c 4 9 c 4 -20 c 5 -67 c 4 -33 c 5 -3 c 4 2 c 4 0 c 5 0 c 4 -2 c 4 -1 c 5 -1 c 4 0 c
5 0 c 4 0 c 4 0 c 5 0 c 4 0 c 4 -1 c 5 0 c 4 3 c 5 8 c 4 5 c 4 0 c 5 -3 c 4 -8 c 4 -4 c 5 0 c 4 4 c 5 13 c 4 5 c 4 1 c 5 -5 c
4 -14 c 4 -4 c 5 1 c 4 -1 c 4 -1 c 5 0 c 4 1 c 5 1 c 4 1 c 4 2 c 5 0 c 4 -1 c 4 0 c 5 -1 c 4 -2 c 5 -1 c 4 1 c 4 1 c 5 5 c 4 3 c
4 1 c 5 0 c 4 -1 c 5 -2 c 4 0 c 4 -1 c 5 -4 c 4 -1 c 4 6 c 5 34 c 4 34 c 5 5 c 4 -10 c 4 -40 c 5 -27 c 4 -4 c 4 0 c 5 1 c 4 2 c
4 2 c 5 2 c 4 2 c 5 -1 c 4 -1 c 4 -3 c 5 -2 c 4 0 c 4 3 c 5 24 c 4 26 c 5 4 c 4 -3 c 4 -27 c 5 -19 c 4 2 c 4 20 c 5 14 c 4 13 c
5 116 c 4 202 c 4 99 c 5 12 c 4 -146 c 4 -182 c 5 -49 c 4 -7 c 5 -15 c 4 -48 c 4 -28 c 5 -3 c 4 2 c 4 1 c 5 -2 c 4 -3 c 4 -4 c
5 -2 c 4 1 c 5 1 c 4 0 c 4 -1 c 5 1 c 4 13 c 4 14 c 5 5 c 4 -2 c 5 -16 c 4 -9 c 4 -22 c 5 22 c 4 -1 c 4 -4 c 5 -2 c 4 5 c 5 10 c
4 10 c 4 4 c 5 -4 c 4 -6 c 4 0 c 5 1 c 4 -2 c 4 -5 c 5 -6 c 4 -5 c 5 -2 c 4 -1 c 4 0 c 5 -1 c 4 0 c 4 1 c 5 0 c 4 0 c 5 1 c 4 1 c
4 1 c 5 3 c 4 25 c 4 44 c 5 63 c 4 134 c 5 49 c 4 -36 c 4 -72 c 5 -131 c 4 -67 c 4 -7 c 5 -1 c 4 2 c 5 17 c 4 63 c 4 184 c 5 199 c
4 113 c 4 88 c 5 -123 c 4 -139 c 4 -114 c 5 -152 c 4 -95 c 5 -28 c 4 -9 c 4 -4 c 5 -2 c 4 -1 c 4 -1 c 5 10 c 4 76 c 5 86 c 4 29 c
4 -7 c 5 -80 c 4 -82 c 4 2 c 5 127 c 4 166 c 5 88 c 4 -25 c 4 -143 c 5 -164 c 4 -66 c 4 -9 c 5 -2 c 4 -3 c 5 -2 c 4 -2 c 4 3 c
5 43 c 4 110 c 4 64 c 5 13 c 4 -60 c 4 -110 c 5 -59 c 4 -7 c 5 0 c 4 0 c 4 0 c 5 3 c 4 3 c 4 5 c 5 2 c 4 -1 c 5 -5 c 4 -5 c 4 -2 c
5 -1 c 4 1 c 4 0 c 5 1 c 4 -1 c 5 -1 c 4 0 c 4 0 c 5 0 c 4 1 c 4 1 c 5 6 c 4 10 c 5 6 c 4 2 c 4 -6 c 5 -10 c 4 -8 c 4 -2 c 5 -1 c
4 0 c 4 1 c 5 -1 c 4 1 c 5 0 c 4 2 c 4 3 c 5 4 c 4 1 c 4 -2 c 5 -3 c 4 -2 c 5 -1 c 4 0 c 4 1 c 5 0 c 4 4 c 4 30 c 5 227 c 4 317 c
5 126 c 4 -25 c 4 -270 c 5 -297 c 4 -101 c 4 -9 c 5 -2 c 4 3 c 4 6 c 5 14 c 4 9 c 5 -1 c 4 -5 c 4 -16 c 5 -7 c 4 7 c 4 82 c 5 247 c
4 164 c 5 33 c 4 -97 c 4 -263 c 5 -145 c 4 -27 c 4 -3 c 5 -1 c 4 0 c 5 -1 c 4 -16 c 4 14 c 5 0 c 4 -1 c 4 1 c 5 0 c 4 1 c 5 0 c
4 1 c 4 1 c 5 0 c 4 -1 c 4 -1 c 5 -1 c 4 1 c 4 1 c 5 15 c 4 74 c 5 64 c 4 18 c 4 -10 c 5 -76 c 4 -67 c 4 -14 c 5 -2 c 4 -3 c 5 0 c
4 0 c 4 3 c 5 13 c 4 11 c 4 4 c 5 -2 c 4 -12 c 5 -8 c 4 -1 c 4 -1 c 5 -4 c 4 -3 c 4 -1 c 5 0 c 4 2 c 5 3 c 4 1 c 4 16 c 5 60 c
4 41 c 4 9 c 5 0 c 4 -30 c 4 -22 c 5 -10 c 4 -15 c 5 -38 c 4 -14 c 4 0 c 5 2 c 4 0 c 4 -1 c 5 -2 c 4 -2 c 5 2 c 4 5 c 4 5 c 5 3 c
4 2 c 4 1 c 5 18 c 4 16 c 5 7 c 4 -6 c 4 -23 c 5 -19 c 4 -6 c 4 -1 c 5 -1 c 4 0 c 5 -2 c 4 4 c 4 5 c 5 2 c 4 0 c 4 -4 c 5 -5 c
4 -4 c 4 0 c 5 0 c 4 0 c 5 0 c 4 1 c 4 0 c 5 1 c 4 1 c 4 1 c 5 2 c 4 5 c 5 3 c 4 1 c 4 -1 c 5 -5 c 4 -3 c 4 -3 c 5 0 c 4 2 c 5 6 c
4 62 c 4 316 c 5 317 c 4 98 c 4 -51 c 5 -361 c 4 -295 c 5 -84 c 4 8 c 4 50 c 5 35 c 4 7 c 4 -14 c 5 -53 c 4 -34 c 4 -8 c 5 -1 c
4 -1 c 5 2 c 4 5 c 4 3 c 5 0 c 4 -3 c 4 -5 c 5 -3 c 4 -1 c 5 1 c 4 1 c 4 1 c 5 0 c 4 1 c 4 1 c 5 9 c 4 11 c 5 3 c 4 -1 c 4 -9 c
5 -12 c 4 -3 c 4 -1 c 5 -2 c 4 0 c 4 0 c 5 1 c 4 0 c 5 0 c 4 1 c 4 0 c 5 -2 c 4 1 c 4 -1 c 5 1 c 4 0 c 5 0 c 4 3 c 4 1 c 5 1 c 4 0 c
4 -2 c 5 -2 c 4 0 c 5 6 c 4 15 c 4 11 c 5 6 c 4 -5 c 4 -15 c 5 -11 c 4 -5 c 5 -1 c 4 -1 c 4 0 c 5 1 c 4 0 c 4 1 c 5 0 c 4 -1 c 4 0 c
5 -1 c 4 0 c 5 0 c 4 1 c 4 0 c 5 2 c 4 3 c 4 3 c 5 17 c 4 185 c 5 433 c 4 223 c 4 15 c 5 -205 c 4 -440 c 4 -195 c 5 -32 c 4 -5 c
5 -2 c 4 4 c 4 15 c 5 12 c 4 0 c 4 -49 c 5 29 c 4 -11 c 5 -3 c 4 -1 c 4 2 c 5 7 c 4 4 c 4 1 c 5 -2 c 4 -8 c 4 -4 c 5 -1 c 4 0 c
5 0 c 4 0 c 4 0 c 5 0 c 4 1 c 4 0 c 5 1 c 4 0 c 5 0 c 4 -1 c 4 1 c 5 0 c 4 -1 c 4 0 c 5 1 c 4 0 c 5 0 c 4 0 c 4 1 c 5 3 c 4 15 c
4 135 c 5 195 c 4 60 c 5 -8 c 4 -144 c 4 -182 c 5 -24 c 4 65 c 4 27 c 5 -7 c 4 -42 c 4 -66 c 5 -26 c 4 -2 c 5 -1 c 4 0 c 4 0 c 5 0 c
4 3 c 4 4 c 5 2 c 4 -1 c 5 -3 c 4 -4 c 4 -2 c 5 0 c 4 1 c 4 -1 c 5 0 c 4 1 c 5 1 c 4 0 c 4 0 c 5 1 c 4 2 c 4 3 c 5 1 c 4 -1 c 5 -3 c
4 -1 c 4 4 c 5 2 c 4 3 c 4 0 c 5 -4 c 4 -3 c 4 -3 c 5 -3 c 4 4 c 5 4 c 4 3 c 4 0 c 5 -2 c 4 -4 c 4 -2 c 5 0 c 4 -1 c 5 0 c 4 0 c
4 0 c 5 0 c 4 1 c 4 0 c 5 0 c 4 0 c 5 -2 c 4 -1 c 4 0 c 5 1 c 4 -1 c 4 0 c 5 1 c 4 0 c 4 1 c 5 1 c 4 6 c 5 10 c 4 2 c 4 1 c 5 -6 c
4 -7 c 4 6 c 5 22 c 4 65 c 5 57 c 4 27 c 4 33 c 5 -33 c 4 -56 c 4 -36 c 5 -58 c 4 -29 c 5 -4 c 4 0 c 4 0 c 5 0 c 4 0 c 4 1 c 5 1 c
4 -1 c 5 1 c 4 -1 c 4 0 c 5 2 c 4 -1 c 4 1 c 5 2 c 4 5 c 4 3 c 5 0 c 4 1 c 5 -3 c 4 -1 c 4 -1 c 5 1 c 4 4 c 4 3 c 5 2 c 4 1 c 5 -3 c
4 5 c 4 8 c 5 9 c 4 8 c 4 9 c 5 2 c 4 7 c 5 20 c 4 32 c 4 63 c 5 193 c 4 1062 c 4 4497 c 5 98 c 4 1 c 5 3 c 4 -6 c 4 -3596 c
5 -1791 c 4 -355 c 4 -114 c 5 -55 c 4 -35 c 4 -13 c 5 -15 c 4 -11 c 5 -4 c 4 64 c 4 137 c 5 64 c 4 1 c 4 -65 c 5 -156 c 4 -66 c
5 -3 c 4 -1 c 4 -1 c 5 -1 c 4 -2 c 4 -1 c 5 -2 c 4 -2 c 5 -1 c 4 1 c 4 1 c 5 2 c 4 2 c 4 3 c 5 -2 c 4 -1 c 5 -4 c 4 -4 c 4 -1 c
5 0 c 4 -1 c 4 1 c 5 -1 c 4 3 c 4 5 c 5 3 c 4 -1 c 5 -1 c 4 -7 c 4 -2 c 5 -1 c 4 0 c 4 1 c 5 -1 c 4 1 c 5 0 c 4 10 c 4 56 c 5 53 c
4 42 c 4 9 c 5 -48 c 4 -53 c 5 -45 c 4 -15 c 4 6 c 5 8 c 4 7 c 4 8 c 5 1 c 4 49 c 5 58 c 4 4 c 4 -8 c 5 -55 c 4 -71 c 4 -15 c 5 -2 c
4 -1 c 4 0 c 5 0 c 4 1 c 5 -1 c 4 0 c 4 -1 c 5 0 c 4 1 c 4 1 c 5 -1 c 4 0 c 5 -1 c 4 0 c 4 -1 c 5 0 c 4 0 c 4 0 c 5 1 c 4 1 c 5 9 c
4 3 c 4 3 c 5 0 c 4 -6 c 4 -5 c 5 -1 c 4 0 c 4 -1 c 5 -1 c 4 3 c 5 7 c 4 5 c 4 1 c 5 -1 c 4 -8 c 4 -8 c 5 -1 c 4 0 c 5 -1 c 4 1 c
4 1 c 5 0 c 4 0 c 4 -1 c 5 -1 c 4 0 c 5 0 c 4 1 c 4 0 c 5 0 c 4 0 c 4 0 c 5 -1 c 4 0 c 5 1 c 4 2 c 4 1 c 5 2 c 4 17 c 4 39 c 5 11 c
4 0 c 4 -20 c 5 -39 c 4 -12 c 5 1 c 4 2 c 4 1 c 5 0 c 4 -2 c 4 -3 c 5 0 c 4 1 c 5 0 c 4 0 c 4 1 c 5 0 c 4 4 c 4 11 c 5 5 c 4 4 c
5 44 c 4 123 c 4 59 c 5 1 c 4 -28 c 4 -143 c 5 -73 c 4 -6 c 5 -1 c 4 0 c 4 8 c 5 7 c 4 0 c 4 -1 c 5 -7 c 4 -5 c 4 -1 c 5 2 c 4 1 c
5 7 c 4 13 c 4 8 c 5 0 c 4 -5 c 4 -15 c 5 -8 c 4 -2 c 5 1 c 4 1 c 4 0 c 5 -2 c 4 -2 c 4 -2 c 5 -1 c 4 0 c 5 0 c 4 0 c 4 1 c 5 0 c
4 0 c 4 0 c 5 -1 c 4 0 c 5 -1 c 4 1 c 4 0 c 5 0 c 4 1 c 4 0 c 5 2 c 4 5 c 4 1 c 5 -1 c 4 -1 c 5 -4 c 4 1 c 4 10 c 5 5 c 4 0 c 4 -1 c
5 -9 c 4 -6 c 5 3 c 4 16 c 4 11 c 5 1 c 4 -2 c 4 -15 c 5 -13 c 4 -1 c 5 2 c 4 1 c 4 1 c 5 4 c 4 17 c 4 27 c 5 5 c 4 -7 c 4 -14 c
5 -29 c 4 -7 c 5 -1 c 4 -1 c 4 0 c 5 -1 c 4 1 c 4 -1 c 5 0 c 4 1 c 5 1 c 4 0 c 4 1 c 5 0 c 4 6 c 4 23 c 5 11 c 4 0 c 5 -5 c 4 -23 c
4 -10 c 5 -3 c 4 1 c 4 0 c 5 0 c 4 0 c 5 -2 c 4 0 c 4 0 c 5 0 c 4 0 c 4 1 c 5 14 c 4 48 c 4 18 c 5 -1 c 4 -9 c 5 -39 c 4 -11 c 4 1 c
5 -1 c 4 -8 c 4 -7 c 5 -2 c 4 0 c 5 0 c 4 0 c 4 8 c 5 62 c 4 57 c 4 6 c 5 -7 c 4 -40 c 5 -43 c 4 127 c 4 463 c 5 186 c 4 -5 c
4 -98 c 5 -477 c 4 -215 c 5 -19 c 4 -3 c 4 -2 c 5 0 c 4 1 c 4 -1 c 5 1 c 4 2 c 4 1 c 5 0 c 4 0 c 5 -1 c 4 -1 c 4 0 c 5 2 c 4 5 c
4 62 c 5 166 c 4 61 c 5 0 c 4 -18 c 4 -27 c 5 224 c 4 83 c 4 -14 c 5 -119 c 4 -288 c 5 -111 c 4 -9 c 4 1 c 5 3 c 4 -2 c 4 4 c 5 11 c
4 42 c 5 117 c 4 63 c 4 8 c 5 -3 c 4 -41 c 4 129 c 5 845 c 4 4616 c 4 228 c 5 0 c 4 -17 c 5 13 c 4 -3349 c 4 -1976 c 5 -409 c
4 -135 c 4 -64 c 5 -36 c 4 -17 c 5 -12 c 4 -9 c 4 -8 c 5 -5 c 4 0 c 4 -4 c 5 -1 c 4 -2 c 5 -2 c 4 -2 c 4 1 c 5 -1 c 4 -1 c 4 -1 c
5 -1 c 4 0 c 5 0 c 4 0 c 4 0 c 5 -1 c 4 0 c 4 -1 c 5 0 c 4 -1 c 4 0 c 5 0 c 4 0 c 5 -1 c 4 0 c 4 0 c 5 -1 c 4 0 c 4 0 c 5 0 c 4 1 c
5 0 c 4 2 c 4 4 c 5 1 c 4 1 c 4 -1 c 5 -4 c 4 -3 c 5 -1 c 4 0 c 4 0 c 5 1 c 4 0 c 4 -1 c 5 -1 c 4 0 c 4 -1 c 5 0 c 4 0 c 5 0 c 4 1 c
4 1 c 5 0 c 4 0 c 4 0 c 5 0 c 4 5 c 5 16 c 4 11 c 4 -1 c 5 -3 c 4 -15 c 4 -8 c 5 -1 c 4 2 c 5 -1 c 4 -1 c 4 -3 c 5 0 c 4 1 c 4 2 c
5 1 c 4 2 c 5 4 c 4 43 c 4 286 c 5 251 c 4 32 c 4 -29 c 5 -248 c 4 -291 c 4 -42 c 5 -3 c 4 -5 c 5 1 c 4 13 c 4 5 c 5 0 c 4 -3 c
4 -14 c 5 -8 c 4 -1 c 5 0 c 4 1 c 4 1 c 5 7 c 4 16 c 4 4 c 5 -1 c 4 -3 c 5 -15 c 4 1 c 4 6 c 5 5 c 4 12 c 4 12 c 5 -4 c 4 11 c
5 30 c 4 -7 c 4 -6 c 5 -12 c 4 -37 c 4 -20 c 5 -1 c 4 0 c 4 0 c 5 0 c 4 1 c 5 6 c 4 4 c 4 2 c 5 1 c 4 -4 c 4 -5 c 5 -2 c 4 -1 c
5 -2 c 4 -1 c 4 0 c 5 0 c 4 0 c 4 0 c 5 0 c 4 0 c 5 0 c 4 1 c 4 0 c 5 3 c 4 0 c 4 0 c
5 -2 c 4 -1 c 5 0 c 4 0 c 4 -12 c 4 13 9549 780 l 4 1 c 5 -1 c 4 -1 c 4 1 c 5 1 c 4 0 c 5 1 c 4 0 c 4 0 c 5 0 c 4 1 c 4 2 c 5 1 c
4 2 c 5 1 c 4 3 c 4 4 c 5 20 c 4 171 c 4 1214 c 5 1129 c 4 138 c 5 -75 c 4 -919 c 4 -1472 c 5 -188 c 4 -18 c 4 -5 c 5 -2 c 4 0 c
5 -2 c 4 0 c 4 -1 c 5 -1 c 4 1 c 4 0 c 5 1 c 4 1 c
0 -126 3030 418 l 54 0 3030 418 l 18 -6 c 6 -6 c 6 -12 c 0 -12 c -6 -12 c -6 -6 c -18 -6 c -54 0 c 42 -66 3072 358 l
-12 -6 3180 376 l -12 -12 c -6 -18 c 0 -12 c 6 -18 c 12 -12 c 12 -6 c 18 0 c 12 6 c 12 12 c 6 18 c 0 12 c -6 18 c -12 12 c -12 6 c
-18 0 c 24 -84 3264 376 l -24 -84 3312 376 l 24 -84 3312 376 l -24 -84 3360 376 l 108 0 3402 364 l 108 0 3402 328 l 12 6 3666 394 l
18 18 c 0 -126 c -60 -126 3852 418 l 84 0 3768 418 l 12 6 4290 394 l 18 18 c 0 -126 c -6 -6 4404 376 l 6 -6 c 6 6 c -6 6 c
-6 -6 4404 304 l 6 -6 c 6 6 c -6 6 c -48 -126 4584 418 l 48 -126 4584 418 l 60 0 4554 334 l 0 -84 4662 376 l 6 18 4662 340 l 12 12 c
12 6 c 18 0 c -12 12 4806 358 l -12 6 c -18 0 c -12 -6 c -12 -12 c -6 -18 c 0 -12 c 6 -18 c 12 -12 c 12 -6 c 18 0 c 12 6 c 12 12 c
108 0 4848 346 l -18 -6 5034 418 l -12 -18 c -6 -30 c 0 -18 c 6 -30 c 12 -18 c 18 -6 c 12 0 c 18 6 c 12 18 c 6 30 c 0 18 c -6 30 c
-12 18 c -18 6 c -12 0 c 66 0 5130 418 l -36 -48 c 18 0 c 12 -6 c 6 -6 c 6 -18 c 0 -12 c -6 -18 c -12 -12 c -18 -6 c -18 0 c -18 6 c
-6 6 c -6 12 c -59 0 5309 418 l -6 -54 c 6 6 c 17 6 c 18 0 c 18 -6 c 12 -12 c 6 -18 c 0 -12 c -6 -18 c -12 -12 c -18 -6 c -18 0 c
-17 6 c -6 6 c -6 12 c -6 -6 5369 304 l 6 -6 c 6 6 c -6 6 c -12 0 5459 418 l -12 -6 c -6 -18 c 0 -102 c 42 0 5411 376 l
6 -6 5489 418 l 6 6 c -6 6 c -6 -6 c 0 -84 5495 376 l 0 -102 5549 418 l 6 -18 c 12 -6 c 12 0 c 42 0 5531 376 l -6 12 5675 358 l
-18 6 c -18 0 c -18 -6 c -6 -12 c 6 -12 c 12 -6 c 30 -6 c 12 -6 c 6 -12 c 0 -6 c -6 -12 c -18 -6 c -18 0 c -18 6 c -6 12 c
0 -192 6005 442 l 0 -192 6011 442 l 42 0 6005 442 l 42 0 6005 250 l 0 6 6089 388 l 6 12 c 6 6 c 12 6 c 24 0 c 12 -6 c 6 -6 c 6 -12 c
0 -12 c -6 -12 c -12 -18 c -60 -60 c 84 0 c -6 -6 6215 376 l 6 -6 c 6 6 c -6 6 c -6 -6 6215 304 l 6 -6 c 6 6 c -6 6 c
-48 -126 6395 418 l 48 -126 6395 418 l 60 0 6365 334 l 0 -84 6473 376 l 6 18 6473 340 l 12 12 c 12 6 c 18 0 c -12 12 6617 358 l
-12 6 c -18 0 c -12 -6 c -12 -12 c -6 -18 c 0 -12 c 6 -18 c 12 -12 c 12 -6 c 18 0 c 12 6 c 12 12 c 108 0 6659 346 l
-18 -6 6845 418 l -12 -18 c -6 -30 c 0 -18 c 6 -30 c 12 -18 c 18 -6 c 12 0 c 18 6 c 12 18 c 6 30 c 0 18 c -6 30 c -12 18 c -18 6 c
-12 0 c 66 0 6941 418 l -36 -48 c 18 0 c 12 -6 c 6 -6 c 6 -18 c 0 -12 c -6 -18 c -12 -12 c -18 -6 c -18 0 c -18 6 c -6 6 c -6 12 c
-6 12 7127 400 l -18 6 c -12 0 c -18 -6 c -12 -18 c -6 -30 c 0 -30 c 6 -24 c 12 -12 c 18 -6 c 6 0 c 18 6 c 12 12 c 6 18 c 0 6 c
-6 18 c -12 12 c -18 6 c -6 0 c -18 -6 c -12 -12 c -6 -18 c -6 -6 7181 304 l 6 -6 c 6 6 c -6 6 c -12 0 7271 418 l -12 -6 c -6 -18 c
0 -102 c 42 0 7223 376 l 6 -6 7301 418 l 6 6 c -6 6 c -6 -6 c 0 -84 7307 376 l 0 -102 7361 418 l 6 -18 c 12 -6 c 12 0 c
42 0 7343 376 l -6 12 7487 358 l -18 6 c -18 0 c -18 -6 c -6 -12 c 6 -12 c 12 -6 c 30 -6 c 12 -6 c 6 -12 c 0 -6 c -6 -12 c -18 -6 c
-18 0 c -18 6 c -6 12 c 0 -192 7559 442 l 0 -192 7565 442 l 42 0 7523 442 l 42 0 7523 250 l
0 -250 1034 1501 l 53 -38 990 1611 l 0 57 c 80 0 990 1611 l 0 -38 990 1694 l 34 -4 c -3 4 c -4 11 c 0 12 c 4 11 c 7 8 c 12 3 c 7 0 c
11 -3 c 8 -8 c 4 -11 c 0 -12 c -4 -11 c -4 -4 c -7 -4 c 0 41 990 1732 l 31 -23 c 0 12 c 3 7 c 4 4 c 12 4 c 7 0 c 11 -4 c 8 -7 c
4 -12 c 0 -11 c -4 -11 c -4 -4 c -7 -4 c -3 0 1009 1803 l -8 4 c -4 4 c -4 7 c 0 16 c 4 7 c 4 4 c 8 4 c 7 0 c 8 -4 c 11 -8 c
38 -37 c 0 52 c 4 -4 1062 1883 l 4 4 c -4 4 c -4 -4 c -3 0 1009 1917 l -8 4 c -4 3 c -4 8 c 0 15 c 4 8 c 4 3 c 8 4 c 7 0 c 8 -4 c
11 -7 c 38 -38 c 0 53 c 0 -38 990 2034 l 34 -4 c -3 4 c -4 11 c 0 12 c 4 11 c 7 8 c 12 3 c 7 0 c 11 -3 c 8 -8 c 4 -11 c 0 -12 c
-4 -11 c -4 -4 c -7 -3 c 4 -11 990 2083 l 8 -4 c 7 0 c 8 4 c 4 7 c 3 15 c 4 12 c 8 7 c 7 4 c 12 0 c 7 -4 c 4 -4 c 4 -11 c 0 -15 c
-4 -11 c -4 -4 c -7 -4 c -12 0 c -7 4 c -8 7 c -4 12 c -3 15 c -4 7 c -8 4 c -7 0 c -8 -4 c -4 -11 c 0 -15 c 0 -250 1273 1594 l
53 -37 1229 1703 l 0 56 c 80 0 1229 1703 l 0 -38 1229 1787 l 34 -4 c -3 4 c -4 11 c 0 11 c 4 12 c 7 7 c 11 4 c 8 0 c 11 -4 c 8 -7 c
4 -12 c 0 -11 c -4 -11 c -4 -4 c -7 -4 c 0 42 1229 1824 l 31 -23 c 0 12 c 3 7 c 4 4 c 11 4 c 8 0 c 11 -4 c 8 -8 c 4 -11 c 0 -11 c
-4 -12 c -4 -3 c -7 -4 c 53 -38 1229 1930 l 0 57 c 80 0 1229 1930 l 4 -4 1301 1976 l 4 4 c -4 3 c -4 -3 c -3 8 1244 2017 l -12 11 c
80 0 c -4 0 1248 2085 l -7 4 c -4 4 c -4 7 c 0 15 c 4 8 c 4 4 c 7 4 c 8 0 c 8 -4 c 11 -8 c 38 -38 c 0 53 c 4 -12 1229 2180 l 11 -7 c
19 -4 c 12 0 c 19 4 c 11 7 c 4 12 c 0 7 c -4 12 c -11 7 c -19 4 c -12 0 c -19 -4 c -11 -7 c -4 -12 c 0 -7 c 0 -250 1419 1547 l
53 -38 1375 1656 l 0 57 c 80 0 1375 1656 l 0 -37 1375 1739 l 34 -4 c -3 4 c -4 11 c 0 11 c 4 12 c 7 7 c 11 4 c 8 0 c 11 -4 c 8 -7 c
4 -12 c 0 -11 c -4 -11 c -4 -4 c -7 -4 c 0 42 1375 1777 l 31 -23 c 0 11 c 3 8 c 4 4 c 11 3 c 8 0 c 11 -3 c 8 -8 c 4 -11 c 0 -12 c
-4 -11 c -4 -4 c -7 -3 c 0 -38 1375 1891 l 34 -4 c -3 4 c -4 11 c 0 11 c 4 12 c 7 7 c 11 4 c 8 0 c 11 -4 c 8 -7 c 4 -12 c 0 -11 c
-4 -11 c -4 -4 c -7 -4 c 4 -3 1447 1928 l 4 3 c -4 4 c -4 -4 c -4 0 1394 1962 l -7 4 c -4 4 c -4 7 c 0 16 c 4 7 c 4 4 c 7 4 c 8 0 c
8 -4 c 11 -8 c 38 -37 c 0 52 c 0 -37 1375 2079 l 34 -4 c -3 4 c -4 11 c 0 11 c 4 12 c 7 7 c 11 4 c 8 0 c 11 -4 c 8 -7 c 4 -12 c
0 -11 c -4 -11 c -4 -4 c -7 -4 c 0 -38 1375 2155 l 34 -3 c -3 3 c -4 12 c 0 11 c 4 11 c 7 8 c 11 4 c 8 0 c 11 -4 c 8 -8 c 4 -11 c
0 -11 c -4 -12 c -4 -3 c -7 -4 c 0 -250 2163 1763 l 53 -37 2119 1872 l 0 56 c 79 0 2119 1872 l 0 -38 2119 1956 l 34 -4 c -4 4 c
-4 11 c 0 11 c 4 12 c 8 7 c 11 4 c 8 0 c 11 -4 c 7 -7 c 4 -12 c 0 -11 c -4 -11 c -3 -4 c -8 -4 c 53 -38 2119 2024 l 0 57 c
79 0 2119 2024 l 4 -11 2119 2084 l 11 -8 c 19 -4 c 11 0 c 19 4 c 11 8 c 4 11 c 0 8 c -4 11 c -11 8 c -19 3 c -11 0 c -19 -3 c
-11 -8 c -4 -11 c 0 -8 c 3 -4 2191 2145 l 4 4 c -4 3 c -3 -3 c 12 -4 2145 2224 l 7 -7 c 4 -12 c 0 -4 c -4 -11 c -7 -7 c -12 -4 c
-3 0 c -12 4 c -7 7 c -4 11 c 0 4 c 4 12 c 7 7 c 15 4 c 19 0 c 19 -4 c 11 -7 c 4 -12 c 0 -7 c -4 -12 c -7 -3 c 12 -4 2145 2300 l
7 -8 c 4 -11 c 0 -4 c -4 -11 c -7 -8 c -12 -4 c -3 0 c -12 4 c -7 8 c -4 11 c 0 4 c 4 11 c 7 8 c 15 4 c 19 0 c 19 -4 c 11 -8 c
4 -11 c 0 -8 c -4 -11 c -7 -4 c 12 -4 2145 2375 l 7 -7 c 4 -12 c 0 -3 c -4 -12 c -7 -7 c -12 -4 c -3 0 c -12 4 c -7 7 c -4 12 c
0 3 c 4 12 c 7 7 c 15 4 c 19 0 c 19 -4 c 11 -7 c 4 -12 c 0 -7 c -4 -11 c -7 -4 c 0 -249 2691 7019 l 53 -38 2648 7129 l 0 57 c
79 0 2648 7129 l 0 -38 2648 7212 l 34 -4 c -4 4 c -4 11 c 0 12 c 4 11 c 8 8 c 11 3 c 7 0 c 12 -3 c 7 -8 c 4 -11 c 0 -12 c -4 -11 c
-3 -4 c -8 -3 c 53 -38 2648 7280 l 0 57 c 79 0 2648 7280 l 0 -38 2648 7363 l 34 -4 c -4 4 c -4 12 c 0 11 c 4 11 c 8 8 c 11 4 c 7 0 c
12 -4 c 7 -8 c 4 -11 c 0 -11 c -4 -12 c -3 -4 c -8 -3 c 3 -4 2720 7401 l 4 4 c -4 4 c -3 -4 c 3 -12 2648 7454 l 12 -7 c 19 -4 c
11 0 c 19 4 c 11 7 c 4 12 c 0 7 c -4 12 c -11 7 c -19 4 c -11 0 c -19 -4 c -12 -7 c -3 -12 c 0 -7 c 0 -38 2648 7552 l 34 -4 c -4 4 c
-4 12 c 0 11 c 4 11 c 8 8 c 11 4 c 7 0 c 12 -4 c 7 -8 c 4 -11 c 0 -11 c -4 -12 c -3 -4 c -8 -3 c -4 0 2667 7586 l -8 4 c -4 4 c
-3 7 c 0 15 c 3 8 c 4 4 c 8 3 c 7 0 c 8 -3 c 11 -8 c 38 -38 c 0 53 c 0 -249 2804 1734 l 53 -38 2761 1844 l 0 57 c 79 0 2761 1844 l
0 -38 2761 1927 l 34 -3 c -4 3 c -4 12 c 0 11 c 4 11 c 7 8 c 12 4 c 7 0 c 12 -4 c 7 -8 c 4 -11 c 0 -11 c -4 -12 c -3 -3 c -8 -4 c
53 -38 2761 1995 l 0 57 c 79 0 2761 1995 l 0 -38 2761 2078 l 34 -3 c -4 3 c -4 12 c 0 11 c 4 11 c 7 8 c 12 4 c 7 0 c 12 -4 c 7 -8 c
4 -11 c 0 -11 c -4 -12 c -3 -3 c -8 -4 c 3 -4 2833 2116 l 4 4 c -4 4 c -3 -4 c 11 -3 2787 2195 l 8 -8 c 4 -11 c 0 -4 c -4 -11 c
-8 -8 c -11 -4 c -4 0 c -11 4 c -8 8 c -3 11 c 0 4 c 3 11 c 8 8 c 15 3 c 19 0 c 19 -3 c 11 -8 c 4 -11 c 0 -8 c -4 -11 c -7 -4 c
-4 8 2776 2233 l -11 11 c 79 0 c -8 -4 2772 2347 l -3 -12 c 0 -7 c 3 -11 c 12 -8 c 19 -4 c 19 0 c 15 4 c 7 8 c 4 11 c 0 4 c -4 11 c
-7 8 c -12 3 c -3 0 c -12 -3 c -7 -8 c -4 -11 c 0 -4 c 4 -11 c 7 -8 c 12 -4 c 0 -249 2980 1375 l 53 -38 2936 1485 l 0 57 c
79 0 2936 1485 l 0 -38 2936 1568 l 34 -3 c -4 3 c -4 12 c 0 11 c 4 11 c 8 8 c 11 4 c 8 0 c 11 -4 c 8 -8 c 3 -11 c 0 -11 c -3 -12 c
-4 -3 c -8 -4 c 53 -38 2936 1636 l 0 57 c 79 0 2936 1636 l 79 -38 2936 1727 l 0 53 2936 1674 l 4 -4 3008 1757 l 3 4 c -3 4 c -4 -4 c
-4 0 2955 1791 l -7 4 c -4 4 c -4 7 c 0 15 c 4 8 c 4 4 c 7 4 c 8 0 c 7 -4 c 12 -8 c 37 -38 c 0 53 c 0 -37 2936 1908 l 34 -4 c -4 4 c
-4 11 c 0 11 c 4 12 c 8 7 c 11 4 c 8 0 c 11 -4 c 8 -7 c 3 -12 c 0 -11 c -3 -11 c -4 -4 c -8 -4 c 4 -11 2936 1961 l 11 -8 c 19 -3 c
11 0 c 19 3 c 12 8 c 3 11 c 0 8 c -3 11 c -12 8 c -19 3 c -11 0 c -19 -3 c -11 -8 c -4 -11 c 0 -8 c 0 -250 3540 1288 l
53 -38 3496 1397 l 0 57 c 79 0 3496 1397 l 0 -38 3496 1480 l 34 -3 c -4 3 c -4 12 c 0 11 c 4 12 c 8 7 c 11 4 c 8 0 c 11 -4 c 8 -7 c
3 -12 c 0 -11 c -3 -12 c -4 -3 c -8 -4 c 0 -38 3496 1556 l 34 -4 c -4 4 c -4 11 c 0 12 c 4 11 c 8 8 c 11 3 c 8 0 c 11 -3 c 8 -8 c
3 -11 c 0 -12 c -3 -11 c -4 -4 c -8 -3 c -4 8 3511 1597 l -11 11 c 79 0 c 4 -4 3568 1669 l 3 4 c -3 4 c -4 -4 c 53 -38 3496 1737 l
0 57 c 79 0 3496 1737 l 79 -38 3496 1828 l 0 53 3496 1775 l 53 -37 3496 1888 l 0 56 c 79 0 3496 1888 l 0 -250 3629 1440 l
53 -38 3585 1549 l 0 57 c 80 0 3585 1549 l 0 -37 3585 1632 l 34 -4 c -3 4 c -4 11 c 0 11 c 4 12 c 7 7 c 11 4 c 8 0 c 11 -4 c 8 -7 c
4 -12 c 0 -11 c -4 -11 c -4 -4 c -7 -4 c 0 -38 3585 1708 l 34 -4 c -3 4 c -4 11 c 0 12 c 4 11 c 7 8 c 11 3 c 8 0 c 11 -3 c 8 -8 c
4 -11 c 0 -12 c -4 -11 c -4 -4 c -7 -3 c -4 0 3604 1742 l -7 4 c -4 3 c -4 8 c 0 15 c 4 8 c 4 4 c 7 3 c 8 0 c 8 -3 c 11 -8 c
38 -38 c 0 53 c 4 -3 3657 1821 l 4 3 c -4 4 c -4 -4 c -3 7 3600 1863 l -12 12 c 80 0 c 0 -37 3585 1972 l 34 -4 c -3 4 c -4 11 c
0 11 c 4 12 c 7 7 c 11 4 c 8 0 c 11 -4 c 8 -7 c 4 -12 c 0 -11 c -4 -11 c -4 -4 c -7 -4 c 53 -38 3585 2041 l 0 56 c 80 0 3585 2041 l
0 -249 4114 2455 l 53 -38 4071 2565 l 0 57 c 79 0 4071 2565 l 0 -38 4071 2648 l 34 -4 c -4 4 c -4 11 c 0 12 c 4 11 c 7 8 c 12 3 c
7 0 c 12 -3 c 7 -8 c 4 -11 c 0 -12 c -4 -11 c -4 -4 c -7 -4 c 0 -37 4071 2723 l 34 -4 c -4 4 c -4 11 c 0 11 c 4 12 c 7 7 c 12 4 c
7 0 c 12 -4 c 7 -7 c 4 -12 c 0 -11 c -4 -11 c -4 -4 c -7 -4 c 0 -38 4071 2799 l 34 -4 c -4 4 c -4 12 c 0 11 c 4 11 c 7 8 c 12 4 c
7 0 c 12 -4 c 7 -8 c 4 -11 c 0 -11 c -4 -12 c -4 -4 c -7 -3 c 4 -4 4142 2837 l 4 4 c -4 4 c -4 -4 c 3 -11 4071 2886 l 8 -4 c 8 0 c
7 4 c 4 7 c 4 15 c 3 12 c 8 7 c 8 4 c 11 0 c 7 -4 c 4 -4 c 4 -11 c 0 -15 c -4 -11 c -4 -4 c -7 -4 c -11 0 c -8 4 c -8 7 c -3 12 c
-4 15 c -4 7 c -7 4 c -8 0 c -8 -4 c -3 -11 c 0 -15 c -4 8 4086 2954 l -11 11 c 79 0 c 0 41 4071 3026 l 30 -22 c 0 11 c 4 8 c 3 3 c
12 4 c 7 0 c 12 -4 c 7 -7 c 4 -12 c 0 -11 c -4 -11 c -4 -4 c -7 -4 c 0 -249 4455 1355 l 53 -38 4411 1465 l 0 57 c 80 0 4411 1465 l
0 -38 4411 1548 l 34 -3 c -3 3 c -4 12 c 0 11 c 4 11 c 7 8 c 12 4 c 7 0 c 11 -4 c 8 -8 c 4 -11 c 0 -11 c -4 -12 c -4 -3 c -7 -4 c
0 -38 4411 1624 l 34 -4 c -3 4 c -4 11 c 0 12 c 4 11 c 7 8 c 12 3 c 7 0 c 11 -3 c 8 -8 c 4 -11 c 0 -12 c -4 -11 c -4 -4 c -7 -4 c
4 -11 4411 1673 l 8 -4 c 7 0 c 8 4 c 4 7 c 3 15 c 4 12 c 8 7 c 7 4 c 12 0 c 7 -4 c 4 -4 c 4 -11 c 0 -15 c -4 -11 c -4 -4 c -7 -4 c
-12 0 c -7 4 c -8 7 c -4 12 c -3 15 c -4 7 c -8 4 c -7 0 c -8 -4 c -4 -11 c 0 -15 c 4 -4 4483 1737 l 4 4 c -4 4 c -4 -4 c
0 41 4411 1775 l 31 -22 c 0 11 c 3 8 c 4 3 c 12 4 c 7 0 c 11 -4 c 8 -7 c 4 -11 c 0 -12 c -4 -11 c -4 -4 c -7 -4 c 53 -38 4411 1881 l
0 57 c 80 0 4411 1881 l -8 -4 4423 1968 l -4 -11 c 0 -8 c 4 -11 c 12 -8 c 18 -4 c 19 0 c 15 4 c 8 8 c 4 11 c 0 4 c -4 11 c -8 8 c
-11 3 c -4 0 c -11 -3 c -8 -8 c -3 -11 c 0 -4 c 3 -11 c 8 -8 c 11 -4 c 0 -250 4860 1718 l 52 -38 4817 1828 l 0 57 c 79 0 4817 1828 l
0 -38 4817 1911 l 34 -4 c -4 4 c -4 11 c 0 12 c 4 11 c 7 8 c 12 3 c 7 0 c 12 -3 c 7 -8 c 4 -11 c 0 -12 c -4 -11 c -4 -4 c -7 -4 c
-8 -4 4828 1990 l -3 -11 c 0 -8 c 3 -11 c 12 -7 c 19 -4 c 18 0 c 16 4 c 7 7 c 4 11 c 0 4 c -4 12 c -7 7 c -12 4 c -4 0 c -11 -4 c
-7 -7 c -4 -12 c 0 -4 c 4 -11 c 7 -7 c 11 -4 c -4 8 4832 2028 l -11 11 c 79 0 c 4 -4 4888 2100 l 4 4 c -4 4 c -4 -4 c
0 41 4817 2138 l 30 -23 c 0 12 c 4 7 c 3 4 c 12 4 c 7 0 c 12 -4 c 7 -7 c 4 -12 c 0 -11 c -4 -11 c -4 -4 c -7 -4 c 52 -37 4817 2243 l
0 56 c 79 0 4817 2243 l 3 -11 4817 2300 l 8 -4 c 7 0 c 8 4 c 4 7 c 4 15 c 3 12 c 8 7 c 7 4 c 12 0 c 7 -4 c 4 -3 c 4 -12 c 0 -15 c
-4 -11 c -4 -4 c -7 -4 c -12 0 c -7 4 c -8 8 c -3 11 c -4 15 c -4 8 c -8 3 c -7 0 c -8 -3 c -3 -12 c 0 -15 c 0 -249 5177 1903 l
53 -38 5133 2013 l 0 57 c 80 0 5133 2013 l 0 -38 5133 2096 l 34 -3 c -3 3 c -4 12 c 0 11 c 4 11 c 7 8 c 12 4 c 7 0 c 12 -4 c 7 -8 c
4 -11 c 0 -11 c -4 -12 c -4 -3 c -7 -4 c -8 -3 5145 2175 l -4 -12 c 0 -7 c 4 -12 c 12 -7 c 18 -4 c 19 0 c 16 4 c 7 7 c 4 12 c 0 4 c
-4 11 c -7 7 c -12 4 c -4 0 c -11 -4 c -8 -7 c -3 -11 c 0 -4 c 3 -12 c 8 -7 c 11 -4 c 0 42 5133 2209 l 31 -23 c 0 12 c 3 7 c 4 4 c
12 4 c 7 0 c 12 -4 c 7 -8 c 4 -11 c 0 -11 c -4 -12 c -4 -3 c -7 -4 c 4 -4 5205 2285 l 4 4 c -4 4 c -4 -4 c -8 -3 5145 2364 l
-4 -12 c 0 -7 c 4 -12 c 12 -7 c 18 -4 c 19 0 c 16 4 c 7 7 c 4 12 c 0 4 c -4 11 c -7 7 c -12 4 c -4 0 c -11 -4 c -8 -7 c -3 -11 c
0 -4 c 3 -12 c 8 -7 c 11 -4 c -8 -4 5145 2440 l -4 -11 c 0 -8 c 4 -11 c 12 -8 c 18 -3 c 19 0 c 16 3 c 7 8 c 4 11 c 0 4 c -4 11 c
-7 8 c -12 4 c -4 0 c -11 -4 c -8 -8 c -3 -11 c 0 -4 c 3 -11 c 8 -8 c 11 -3 c -4 7 5149 2478 l -12 12 c 80 0 c 0 -250 5275 1651 l
53 -38 5231 1760 l 0 57 c 79 0 5231 1760 l 0 -37 5231 1843 l 34 -4 c -4 4 c -4 11 c 0 11 c 4 12 c 8 7 c 11 4 c 8 0 c 11 -4 c 8 -7 c
3 -12 c 0 -11 c -3 -11 c -4 -4 c -8 -4 c -7 -4 5242 1923 l -4 -11 c 0 -8 c 4 -11 c 11 -8 c 19 -4 c 19 0 c 15 4 c 8 8 c 3 11 c 0 4 c
-3 11 c -8 8 c -11 3 c -4 0 c -11 -3 c -8 -8 c -4 -11 c 0 -4 c 4 -11 c 8 -8 c 11 -4 c 53 -38 5231 1987 l 0 57 c 79 0 5231 1987 l
4 -3 5303 2032 l 3 3 c -3 4 c -4 -4 c 53 -37 5231 2100 l 0 56 c 79 0 5231 2100 l 4 -12 5231 2161 l 11 -7 c 19 -4 c 11 0 c 19 4 c
12 7 c 3 12 c 0 7 c -3 12 c -12 7 c -19 4 c -11 0 c -19 -4 c -11 -7 c -4 -12 c 0 -7 c 0 -38 5231 2259 l 34 -4 c -4 4 c -4 12 c
0 11 c 4 11 c 8 8 c 11 4 c 8 0 c 11 -4 c 8 -8 c 3 -11 c 0 -11 c -3 -12 c -4 -4 c -8 -3 c 0 -249 5333 1467 l 53 -38 5289 1577 l
0 57 c 80 0 5289 1577 l 0 -38 5289 1660 l 34 -3 c -3 3 c -4 12 c 0 11 c 4 11 c 7 8 c 11 4 c 8 0 c 11 -4 c 8 -8 c 4 -11 c 0 -11 c
-4 -12 c -4 -3 c -7 -4 c -8 -3 5301 1739 l -4 -12 c 0 -7 c 4 -12 c 11 -7 c 19 -4 c 19 0 c 15 4 c 8 7 c 4 12 c 0 4 c -4 11 c -8 7 c
-11 4 c -4 0 c -11 -4 c -8 -7 c -3 -11 c 0 -4 c 3 -12 c 8 -7 c 11 -4 c 53 -38 5289 1804 l 0 57 c 80 0 5289 1804 l 4 -4 5361 1849 l
4 4 c -4 4 c -4 -4 c 4 -11 5289 1898 l 8 -4 c 7 0 c 8 4 c 4 7 c 3 16 c 4 11 c 8 7 c 7 4 c 12 0 c 7 -4 c 4 -3 c 4 -12 c 0 -15 c
-4 -11 c -4 -4 c -7 -4 c -12 0 c -7 4 c -8 8 c -4 11 c -3 15 c -4 8 c -8 3 c -7 0 c -8 -3 c -4 -12 c 0 -15 c 0 42 5289 1962 l
31 -23 c 0 12 c 3 7 c 4 4 c 11 4 c 8 0 c 11 -4 c 8 -8 c 4 -11 c 0 -11 c -4 -12 c -4 -3 c -7 -4 c 0 -38 5289 2076 l 34 -4 c -3 4 c
-4 11 c 0 12 c 4 11 c 7 8 c 11 3 c 8 0 c 11 -3 c 8 -8 c 4 -11 c 0 -12 c -4 -11 c -4 -4 c -7 -4 c 0 -249 5661 1769 l
53 -38 5618 1879 l 0 57 c 79 0 5618 1879 l 0 -38 5618 1962 l 34 -3 c -4 3 c -4 12 c 0 11 c 4 11 c 8 8 c 11 4 c 7 0 c 12 -4 c 7 -8 c
4 -11 c 0 -11 c -4 -12 c -3 -3 c -8 -4 c -7 -4 5629 2042 l -4 -12 c 0 -7 c 4 -11 c 11 -8 c 19 -4 c 19 0 c 15 4 c 7 8 c 4 11 c 0 4 c
-4 11 c -7 8 c -12 3 c -3 0 c -12 -3 c -7 -8 c -4 -11 c 0 -4 c 4 -11 c 7 -8 c 12 -4 c 79 -38 5618 2121 l 0 53 5618 2068 l
3 -4 5690 2151 l 4 4 c -4 4 c -3 -4 c -4 0 5637 2185 l -8 4 c -3 4 c -4 7 c 0 15 c 4 8 c 3 4 c 8 3 c 7 0 c 8 -3 c 11 -8 c 38 -38 c
0 53 c 53 -38 5618 2295 l 0 57 c 79 0 5618 2295 l 4 -11 5618 2355 l 11 -8 c 19 -3 c 11 0 c 19 3 c 11 8 c 4 11 c 0 8 c -4 11 c
-11 8 c -19 3 c -11 0 c -19 -3 c -11 -8 c -4 -11 c 0 -8 c 0 -250 5785 1404 l 53 -37 5741 1513 l 0 56 c 80 0 5741 1513 l
0 -38 5741 1597 l 34 -4 c -3 4 c -4 11 c 0 12 c 4 11 c 7 7 c 12 4 c 7 0 c 11 -4 c 8 -7 c 4 -11 c 0 -12 c -4 -11 c -4 -4 c -7 -4 c
-8 -4 5753 1676 l -4 -11 c 0 -8 c 4 -11 c 12 -8 c 18 -3 c 19 0 c 15 3 c 8 8 c 4 11 c 0 4 c -4 11 c -8 8 c -11 4 c -4 0 c -11 -4 c
-8 -8 c -3 -11 c 0 -4 c 3 -11 c 8 -8 c 11 -3 c 4 -11 5741 1721 l 8 -4 c 7 0 c 8 4 c 4 8 c 3 15 c 4 11 c 8 8 c 7 3 c 12 0 c 7 -3 c
4 -4 c 4 -12 c 0 -15 c -4 -11 c -4 -4 c -7 -4 c -12 0 c -7 4 c -8 8 c -4 11 c -3 15 c -4 8 c -8 4 c -7 0 c -8 -4 c -4 -12 c 0 -15 c
4 -4 5813 1786 l 4 4 c -4 3 c -4 -3 c -4 8 5757 1827 l -12 11 c 80 0 c 53 -38 5741 1929 l 0 57 c 80 0 5741 1929 l 0 41 5741 1975 l
31 -23 c 0 12 c 3 7 c 4 4 c 12 4 c 7 0 c 11 -4 c 8 -7 c 4 -12 c 0 -11 c -4 -11 c -4 -4 c -7 -4 c 0 -250 6174 2034 l
52 -37 6131 2143 l 0 56 c 79 0 6131 2143 l 0 -38 6131 2227 l 34 -4 c -4 4 c -4 11 c 0 11 c 4 12 c 7 7 c 12 4 c 7 0 c 12 -4 c 7 -7 c
4 -12 c 0 -11 c -4 -11 c -4 -4 c -7 -4 c 79 -38 6131 2310 l 0 53 6131 2257 l 3 -11 6131 2355 l 12 -8 c 19 -4 c 11 0 c 19 4 c 11 8 c
4 11 c 0 8 c -4 11 c -11 7 c -19 4 c -11 0 c -19 -4 c -12 -7 c -3 -11 c 0 -8 c 4 -3 6202 2415 l 4 3 c -4 4 c -4 -4 c
11 -4 6157 2495 l 8 -7 c 4 -12 c 0 -4 c -4 -11 c -8 -7 c -11 -4 c -4 0 c -11 4 c -8 7 c -3 11 c 0 4 c 3 12 c 8 7 c 15 4 c 19 0 c
19 -4 c 11 -7 c 4 -12 c 0 -7 c -4 -12 c -7 -3 c 79 -38 6131 2574 l 0 53 6131 2521 l -3 0 6149 2601 l -8 3 c -4 4 c -3 8 c 0 15 c
3 7 c 4 4 c 8 4 c 7 0 c 8 -4 c 11 -7 c 38 -38 c 0 53 c 0 -249 7341 7019 l 53 -38 7298 7129 l 0 57 c 79 0 7298 7129 l
0 -38 7298 7212 l 34 -4 c -4 4 c -4 11 c 0 12 c 4 11 c 8 8 c 11 3 c 8 0 c 11 -3 c 7 -8 c 4 -11 c 0 -12 c -4 -11 c -3 -4 c -8 -3 c
79 -38 7298 7295 l 0 53 7298 7242 l 12 -4 7324 7367 l 7 -8 c 4 -11 c 0 -4 c -4 -11 c -7 -8 c -12 -3 c -3 0 c -12 3 c -7 8 c -4 11 c
0 4 c 4 11 c 7 8 c 15 4 c 19 0 c 19 -4 c 11 -8 c 4 -11 c 0 -7 c -4 -12 c -7 -4 c 3 -4 7370 7401 l 4 4 c -4 4 c -3 -4 c
0 41 7298 7439 l 30 -22 c 0 11 c 4 7 c 4 4 c 11 4 c 8 0 c 11 -4 c 7 -7 c 4 -12 c 0 -11 c -4 -11 c -3 -4 c -8 -4 c 0 -38 7298 7552 l
34 -4 c -4 4 c -4 12 c 0 11 c 4 11 c 8 8 c 11 4 c 8 0 c 11 -4 c 7 -8 c 4 -11 c 0 -11 c -4 -12 c -3 -4 c -8 -3 c 4 -11 7298 7605 l
11 -8 c 19 -4 c 11 0 c 19 4 c 11 8 c 4 11 c 0 7 c -4 12 c -11 7 c -19 4 c -11 0 c -19 -4 c -11 -7 c -4 -12 c 0 -7 c
0 -250 7602 1403 l 53 -38 7558 1513 l 0 57 c 79 0 7558 1513 l 0 -38 7558 1596 l 34 -4 c -4 4 c -4 11 c 0 12 c 4 11 c 8 8 c 11 3 c
8 0 c 11 -3 c 7 -8 c 4 -11 c 0 -12 c -4 -11 c -3 -4 c -8 -4 c 4 -11 7558 1645 l 7 -4 c 8 0 c 7 4 c 4 7 c 4 15 c 4 12 c 7 7 c 8 4 c
11 0 c 8 -4 c 3 -4 c 4 -11 c 0 -15 c -4 -11 c -3 -4 c -8 -4 c -11 0 c -8 4 c -7 7 c -4 12 c -4 15 c -4 7 c -7 4 c -8 0 c -7 -4 c
-4 -11 c 0 -15 c -4 7 7573 1713 l -11 12 c 79 0 c 3 -4 7630 1785 l 4 4 c -4 4 c -3 -4 c -4 8 7573 1826 l -11 11 c 79 0 c
79 -37 7558 1943 l 0 52 7558 1891 l 0 41 7558 1974 l 30 -22 c 0 11 c 4 8 c 4 3 c 11 4 c 8 0 c 11 -4 c 7 -7 c 4 -12 c 0 -11 c
-4 -11 c -3 -4 c -8 -4 c 0 -250 8633 2053 l 53 -37 8590 2162 l 0 56 c 79 0 8590 2162 l 0 -38 8590 2246 l 34 -4 c -4 4 c -4 11 c
0 12 c 4 11 c 7 7 c 12 4 c 7 0 c 12 -4 c 7 -7 c 4 -11 c 0 -12 c -4 -11 c -4 -4 c -7 -4 c 3 -12 8590 2295 l 8 -3 c 8 0 c 7 3 c 4 8 c
4 15 c 3 11 c 8 8 c 8 4 c 11 0 c 7 -4 c 4 -4 c 4 -11 c 0 -15 c -4 -12 c -4 -3 c -7 -4 c -11 0 c -8 4 c -8 7 c -3 12 c -4 15 c -4 7 c
-7 4 c -8 0 c -8 -4 c -3 -11 c 0 -15 c 3 -11 8590 2370 l 8 -4 c 8 0 c 7 4 c 4 8 c 4 15 c 3 11 c 8 8 c 8 3 c 11 0 c 7 -3 c 4 -4 c
4 -12 c 0 -15 c -4 -11 c -4 -4 c -7 -4 c -11 0 c -8 4 c -8 8 c -3 11 c -4 15 c -4 8 c -7 4 c -8 0 c -8 -4 c -3 -12 c 0 -15 c
4 -4 8661 2435 l 4 4 c -4 3 c -4 -3 c 53 -38 8590 2503 l 0 57 c 79 0 8590 2503 l -4 0 8609 2544 l -8 4 c -4 4 c -3 7 c 0 15 c 3 8 c
4 4 c 8 4 c 7 0 c 8 -4 c 11 -8 c 38 -38 c 0 53 c -8 -4 8601 2665 l -3 -11 c 0 -8 c 3 -11 c 12 -7 c 19 -4 c 19 0 c 15 4 c 7 7 c
4 11 c 0 4 c -4 12 c -7 7 c -12 4 c -3 0 c -12 -4 c -7 -7 c -4 -12 c 0 -4 c 4 -11 c 7 -7 c 12 -4 c 0 -249 8845 7019 l
53 -38 8802 7129 l 0 57 c 79 0 8802 7129 l 0 -38 8802 7212 l 34 -4 c -4 4 c -4 11 c 0 12 c 4 11 c 8 8 c 11 3 c 7 0 c 12 -3 c 7 -8 c
4 -11 c 0 -12 c -4 -11 c -3 -4 c -8 -3 c 4 -11 8802 7261 l 7 -4 c 8 0 c 7 4 c 4 7 c 4 15 c 4 12 c 7 7 c 8 4 c 11 0 c 8 -4 c 3 -4 c
4 -11 c 0 -15 c -4 -11 c -3 -4 c -8 -4 c -11 0 c -8 4 c -7 7 c -4 12 c -4 15 c -4 7 c -7 4 c -8 0 c -7 -4 c -4 -11 c 0 -15 c
12 -4 8828 7367 l 7 -8 c 4 -11 c 0 -4 c -4 -11 c -7 -8 c -12 -3 c -4 0 c -11 3 c -7 8 c -4 11 c 0 4 c 4 11 c 7 8 c 15 4 c 19 0 c
19 -4 c 11 -8 c 4 -11 c 0 -7 c -4 -12 c -7 -4 c 3 -4 8874 7401 l 4 4 c -4 4 c -3 -4 c 4 -11 8802 7450 l 7 -4 c 8 0 c 7 4 c 4 7 c
4 15 c 4 12 c 7 7 c 8 4 c 11 0 c 8 -4 c 3 -4 c 4 -11 c 0 -15 c -4 -11 c -3 -4 c -8 -4 c -11 0 c -8 4 c -7 7 c -4 12 c -4 15 c -4 7 c
-7 4 c -8 0 c -7 -4 c -4 -11 c 0 -15 c 12 -4 8828 7556 l 7 -8 c 4 -11 c 0 -4 c -4 -11 c -7 -8 c -12 -3 c -4 0 c -11 3 c -7 8 c
-4 11 c 0 4 c 4 11 c 7 8 c 15 4 c 19 0 c 19 -4 c 11 -8 c 4 -11 c 0 -7 c -4 -12 c -7 -4 c 4 -11 8802 7601 l 7 -4 c 8 0 c 7 4 c 4 7 c
4 15 c 4 12 c 7 7 c 8 4 c 11 0 c 8 -4 c 3 -3 c 4 -12 c 0 -15 c -4 -11 c -3 -4 c -8 -4 c -11 0 c -8 4 c -7 8 c -4 11 c -4 15 c -4 8 c
-7 3 c -8 0 c -7 -3 c -4 -12 c 0 -15 c 0 -250 9247 1854 l 53 -37 9203 1963 l 0 56 c 80 0 9203 1963 l 0 -38 9203 2047 l 34 -4 c
-3 4 c -4 11 c 0 11 c 4 12 c 7 7 c 12 4 c 7 0 c 11 -4 c 8 -7 c 4 -12 c 0 -11 c -4 -11 c -4 -4 c -7 -4 c 11 -4 9230 2126 l 8 -7 c
4 -12 c 0 -4 c -4 -11 c -8 -7 c -11 -4 c -4 0 c -11 4 c -8 7 c -4 11 c 0 4 c 4 12 c 8 7 c 15 4 c 19 0 c 19 -4 c 11 -7 c 4 -12 c
0 -7 c -4 -12 c -8 -3 c -3 0 9222 2156 l -8 4 c -4 4 c -4 7 c 0 15 c 4 8 c 4 4 c 8 4 c 7 0 c 8 -4 c 11 -8 c 38 -38 c 0 53 c
4 -4 9275 2236 l 4 4 c -4 3 c -4 -3 c -8 -4 9215 2315 l -4 -11 c 0 -8 c 4 -11 c 12 -8 c 18 -3 c 19 0 c 15 3 c 8 8 c 4 11 c 0 4 c
-4 11 c -8 8 c -11 4 c -4 0 c -11 -4 c -8 -8 c -3 -11 c 0 -4 c 3 -11 c 8 -8 c 11 -3 c -8 -4 9215 2391 l -4 -12 c 0 -7 c 4 -12 c
12 -7 c 18 -4 c 19 0 c 15 4 c 8 7 c 4 12 c 0 4 c -4 11 c -8 8 c -11 3 c -4 0 c -11 -3 c -8 -8 c -3 -11 c 0 -4 c 3 -12 c 8 -7 c
11 -4 c -8 -4 9215 2466 l -4 -11 c 0 -8 c 4 -11 c 12 -7 c 18 -4 c 19 0 c 15 4 c 8 7 c 4 11 c 0 4 c -4 12 c -8 7 c -11 4 c -4 0 c
-11 -4 c -8 -7 c -3 -12 c 0 -4 c 3 -11 c 8 -7 c 11 -4 c 0 -249 9386 1311 l 53 -38 9342 1421 l 0 57 c 80 0 9342 1421 l
0 -38 9342 1504 l 34 -4 c -3 4 c -4 12 c 0 11 c 4 11 c 7 8 c 12 4 c 7 0 c 11 -4 c 8 -8 c 4 -11 c 0 -11 c -4 -12 c -4 -4 c -7 -3 c
11 -3 9369 1583 l 8 -8 c 4 -11 c 0 -4 c -4 -11 c -8 -8 c -11 -4 c -4 0 c -11 4 c -8 8 c -4 11 c 0 4 c 4 11 c 8 8 c 15 3 c 19 0 c
19 -3 c 11 -8 c 4 -11 c 0 -8 c -4 -11 c -8 -4 c 0 42 9342 1617 l 31 -23 c 0 12 c 3 7 c 4 4 c 12 4 c 7 0 c 11 -4 c 8 -8 c 4 -11 c
0 -11 c -4 -12 c -4 -3 c -7 -4 c 4 -4 9414 1693 l 4 4 c -4 4 c -4 -4 c -8 -3 9354 1772 l -4 -12 c 0 -7 c 4 -12 c 12 -7 c 18 -4 c
19 0 c 15 4 c 8 7 c 4 12 c 0 3 c -4 12 c -8 7 c -11 4 c -4 0 c -11 -4 c -8 -7 c -3 -12 c 0 -3 c 3 -12 c 8 -7 c 11 -4 c
53 -38 9342 1837 l 0 57 c 80 0 9342 1837 l 53 -38 9342 1912 l 0 57 c 80 0 9342 1912 l 0 -250 9650 3918 l 53 -38 9606 4028 l 0 56 c
79 0 9606 4028 l 0 -38 9606 4111 l 34 -4 c -4 4 c -4 11 c 0 12 c 4 11 c 8 8 c 11 3 c 8 0 c 11 -3 c 7 -8 c 4 -11 c 0 -12 c -4 -11 c
-3 -4 c -8 -4 c 12 -4 9632 4190 l 7 -7 c 4 -12 c 0 -3 c -4 -12 c -7 -7 c -12 -4 c -3 0 c -12 4 c -7 7 c -4 12 c 0 3 c 4 12 c 7 7 c
15 4 c 19 0 c 19 -4 c 11 -7 c 4 -12 c 0 -7 c -4 -11 c -7 -4 c 0 -38 9606 4262 l 34 -4 c -4 4 c -4 11 c 0 12 c 4 11 c 8 8 c 11 3 c
8 0 c 11 -3 c 7 -8 c 4 -11 c 0 -12 c -4 -11 c -3 -4 c -8 -3 c 3 -4 9678 4300 l 4 4 c -4 3 c -3 -3 c 53 -38 9606 4368 l 0 57 c
79 0 9606 4368 l -4 0 9625 4409 l -8 4 c -3 4 c -4 7 c 0 16 c 4 7 c 3 4 c 8 4 c 8 0 c 7 -4 c 11 -8 c 38 -37 c 0 52 c
-4 8 9621 4492 l -11 11 c 79 0 c
showpage PGPLOT restore
 
%%Trailer
%%DocumentFonts: 
%%Pages: 1
%%EOF
