%!PS-Adobe-3.0 EPSF-3.0
%%For: tom
%%Title: PGPLOT PostScript plot
%%Creator: PGPLOT
%%CreationDate:  9-Nov-1994 13:46
%%BoundingBox: 25 18 587 774
%%DocumentFonts: (atend)
%%LanguageLevel: 1
%%Orientation: Landscape
%%Pages: (atend)
%%EndComments
%%BeginProlog
/l {moveto rlineto currentpoint stroke moveto} bind def
/c {rlineto currentpoint stroke moveto} bind def
/d {moveto 0 0 rlineto currentpoint stroke moveto} bind def
/SLW {5 mul setlinewidth} bind def
/SCF /pop load def
/BP {newpath moveto} bind def
/LP /rlineto load def
/EP {rlineto closepath eofill} bind def
/MB {gsave translate MFAC dup scale 1 setlinewidth 2 setlinecap 0 setlinejoin newpath} bind def
/ME /grestore load def
/C {0 360 arc stroke} bind def
/FC {0 360 arc fill} bind def
%%EndProlog
 
%%Page: 1 1
%%BeginPageSetup
/PGPLOT save def
0.072 0.072 scale
8150 250 translate 90 rotate
1 setlinejoin 1 setlinecap 1 SLW 1 SCF
%%EndPageSetup
0.00 setgray 1 SLW 8939 0 780 780 l 0 6239 c -8939 0 c 0 -6239 c 0 -45 1116 780 l 0 -45 1554 780 l 0 -45 1991 780 l 0 -45 2428 780 l
0 -90 2865 780 l 0 -45 3302 780 l 0 -45 3739 780 l 0 -45 4176 780 l 0 -45 4613 780 l 0 -90 5051 780 l 0 -45 5488 780 l
0 -45 5925 780 l 0 -45 6362 780 l 0 -45 6799 780 l 0 -90 7236 780 l 0 -45 7673 780 l 0 -45 8110 780 l 0 -45 8548 780 l
0 -45 8985 780 l 0 -90 9422 780 l 0 -45 1116 7064 l 0 -45 1554 7064 l 0 -45 1991 7064 l 0 -45 2428 7064 l 0 -90 2865 7109 l
0 -45 3302 7064 l 0 -45 3739 7064 l 0 -45 4176 7064 l 0 -45 4613 7064 l 0 -90 5051 7109 l 0 -45 5488 7064 l 0 -45 5925 7064 l
0 -45 6362 7064 l 0 -45 6799 7064 l 0 -90 7236 7109 l 0 -45 7673 7064 l 0 -45 8110 7064 l 0 -45 8548 7064 l 0 -45 8985 7064 l
0 -90 9422 7109 l -60 0 2775 672 l -6 -54 c 6 6 c 18 6 c 18 0 c 18 -6 c 12 -12 c 6 -18 c 0 -12 c -6 -18 c -12 -12 c -18 -6 c -18 0 c
-18 6 c -6 6 c -6 12 c -18 -6 2859 672 l -12 -18 c -6 -30 c 0 -18 c 6 -30 c 12 -18 c 18 -6 c 12 0 c 18 6 c 12 18 c 6 30 c 0 18 c
-6 30 c -12 18 c -18 6 c -12 0 c -18 -6 2979 672 l -12 -18 c -6 -30 c 0 -18 c 6 -30 c 12 -18 c 18 -6 c 12 0 c 18 6 c 12 18 c 6 30 c
0 18 c -6 30 c -12 18 c -18 6 c -12 0 c 12 6 4847 648 l 18 18 c 0 -126 c -18 -6 4985 672 l -12 -18 c -6 -30 c 0 -18 c 6 -30 c
12 -18 c 18 -6 c 12 0 c 18 6 c 12 18 c 6 30 c 0 18 c -6 30 c -12 18 c -18 6 c -12 0 c -18 -6 5105 672 l -12 -18 c -6 -30 c 0 -18 c
6 -30 c 12 -18 c 18 -6 c 12 0 c 18 6 c 12 18 c 6 30 c 0 18 c -6 30 c -12 18 c -18 6 c -12 0 c -18 -6 5225 672 l -12 -18 c -6 -30 c
0 -18 c 6 -30 c 12 -18 c 18 -6 c 12 0 c 18 6 c 12 18 c 6 30 c 0 18 c -6 30 c -12 18 c -18 6 c -12 0 c 12 6 7032 648 l 18 18 c
0 -126 c -60 0 7206 672 l -6 -54 c 6 6 c 18 6 c 18 0 c 18 -6 c 12 -12 c 6 -18 c 0 -12 c -6 -18 c -12 -12 c -18 -6 c -18 0 c -18 6 c
-6 6 c -6 12 c -18 -6 7290 672 l -12 -18 c -6 -30 c 0 -18 c 6 -30 c 12 -18 c 18 -6 c 12 0 c 18 6 c 12 18 c 6 30 c 0 18 c -6 30 c
-12 18 c -18 6 c -12 0 c -18 -6 7410 672 l -12 -18 c -6 -30 c 0 -18 c 6 -30 c 12 -18 c 18 -6 c 12 0 c 18 6 c 12 18 c 6 30 c 0 18 c
-6 30 c -12 18 c -18 6 c -12 0 c 0 6 9206 642 l 6 12 c 6 6 c 12 6 c 24 0 c 12 -6 c 6 -6 c 6 -12 c 0 -12 c -6 -12 c -12 -18 c
-60 -60 c 84 0 c -18 -6 9356 672 l -12 -18 c -6 -30 c 0 -18 c 6 -30 c 12 -18 c 18 -6 c 12 0 c 18 6 c 12 18 c 6 30 c 0 18 c -6 30 c
-12 18 c -18 6 c -12 0 c -18 -6 9476 672 l -12 -18 c -6 -30 c 0 -18 c 6 -30 c 12 -18 c 18 -6 c 12 0 c 18 6 c 12 18 c 6 30 c 0 18 c
-6 30 c -12 18 c -18 6 c -12 0 c -18 -6 9596 672 l -12 -18 c -6 -30 c 0 -18 c 6 -30 c 12 -18 c 18 -6 c 12 0 c 18 6 c 12 18 c 6 30 c
0 18 c -6 30 c -12 18 c -18 6 c -12 0 c -90 0 780 780 l -45 0 780 1716 l -90 0 780 2652 l -45 0 780 3588 l -90 0 780 4523 l
-45 0 780 5459 l -90 0 780 6395 l -90 0 9809 780 l -45 0 9764 1716 l -90 0 9809 2652 l -45 0 9764 3588 l -90 0 9809 4523 l
-45 0 9764 5459 l -90 0 9809 6395 l 6 -18 517 774 l 18 -12 c 30 -6 c 18 0 c 30 6 c 18 12 c 6 18 c 0 12 c -6 18 c -18 12 c -30 6 c
-18 0 c -30 -6 c -18 -12 c -6 -18 c 0 -12 c -6 0 547 2394 l -12 6 c -6 6 c -6 12 c 0 24 c 6 12 c 6 6 c 12 6 c 12 0 c 12 -6 c
18 -12 c 60 -60 c 0 84 c 84 84 547 2514 l 84 -84 547 2598 l -6 12 541 2658 l -18 18 c 126 0 c 6 -18 517 2796 l 18 -12 c 30 -6 c
18 0 c 30 6 c 18 12 c 6 18 c 0 12 c -6 18 c -18 12 c -30 6 c -18 0 c -30 -6 c -18 -12 c -6 -18 c 0 -12 c 63 -45 453 2920 l 0 68 c
94 0 453 2920 l 84 -60 517 4320 l 0 90 c 126 0 517 4320 l 84 83 547 4386 l 84 -83 547 4469 l -6 12 541 4529 l -18 18 c 126 0 c
6 -18 517 4667 l 18 -12 c 30 -6 c 18 0 c 30 6 c 18 12 c 6 18 c 0 12 c -6 18 c -18 12 c -30 6 c -18 0 c -30 -6 c -18 -12 c -6 -18 c
0 -12 c 63 -45 453 4792 l 0 67 c 94 0 453 4792 l -12 -6 535 6209 l -6 -18 c 0 -12 c 6 -18 c 18 -12 c 30 -6 c 30 0 c 24 6 c 12 12 c
6 18 c 0 6 c -6 18 c -12 12 c -18 6 c -6 0 c -18 -6 c -12 -12 c -6 -18 c 0 -6 c 6 -18 c 12 -12 c 18 -6 c 84 84 547 6257 l
84 -84 547 6341 l -6 12 541 6401 l -18 18 c 126 0 c 6 -18 517 6539 l 18 -12 c 30 -6 c 18 0 c 30 6 c 18 12 c 6 18 c 0 12 c -6 18 c
-18 12 c -30 6 c -18 0 c -30 -6 c -18 -12 c -6 -18 c 0 -12 c 63 -45 453 6664 l 0 67 c 94 0 453 6664 l
4 -2 780 792 l 5 -1 c 4 0 c 4 0 c 5 0 c 4 -1 c 4 1 c 5 0 c 4 0 c 5 0 c 4 0 c 4 0 c 5 0 c 4 1 c 4 0 c 5 1 c 4 2 c 5 2 c 4 1 c 4 2 c
5 3 c 4 0 c 4 -3 c 5 -3 c 4 -4 c 5 0 c 4 0 c 4 0 c 5 2 c 4 7 c 4 17 c 5 56 c 4 32 c 5 -3 c 4 -25 c 4 -66 c 5 -17 c 4 -1 c 4 0 c
5 0 c 4 1 c 4 2 c 5 1 c 4 1 c 5 1 c 4 -1 c 4 2 c 5 4 c 4 20 c 4 90 c 5 216 c 4 755 c 5 944 c 4 146 c 4 -317 c 5 -963 c 4 -740 c
4 -117 c 5 -26 c 4 -9 c 5 -4 c 4 0 c 4 2 c 5 13 c 4 37 c 4 127 c 5 108 c 4 5 c 5 -60 c 4 -155 c 4 -68 c 5 -7 c 4 -4 c 4 -2 c 5 -2 c
4 -1 c 4 -1 c 5 0 c 4 0 c 5 0 c 4 1 c 4 3 c 5 4 c 4 -19 c 5 14 1151 780 l 4 -3 c 5 0 c 4 -1 c 4 0 c 5 1 c 4 3 c 4 3 c 5 1 c 4 -1 c
5 -4 c 4 -3 c 4 -1 c 5 0 c 4 1 c 4 -1 c 5 1 c 4 1 c 5 1 c 4 2 c 4 0 c 5 -1 c 4 -2 c 4 -1 c 5 0 c 4 1 c 4 0 c 5 0 c 4 1 c 5 3 c 4 4 c
4 1 c 5 -1 c 4 -3 c 4 -3 c 5 4 c 4 0 c 5 -1 c 4 -2 c 4 -1 c 5 2 c 4 -1 c 4 -1 c 5 -2 c 4 -1 c 5 -1 c 4 2 c 4 3 c 5 1 c 4 0 c 4 -1 c
5 -3 c 4 -2 c 5 1 c 4 0 c 4 0 c 5 0 c 4 0 c 4 -1 c 5 1 c 4 0 c 4 0 c 5 0 c 4 -1 c 5 1 c 4 0 c 4 0 c 5 0 c 4 1 c 4 1 c 5 2 c 4 -1 c
5 0 c 4 0 c 4 3 c 5 11 c 4 5 c 4 0 c 5 -4 c 4 -4 c 5 26 c 4 71 c 4 14 c 5 -7 c 4 -50 c 4 -59 c 5 -5 c 4 0 c 4 -1 c 5 1 c 4 0 c 5 0 c
4 1 c 4 -1 c 5 1 c 4 0 c 4 2 c 5 8 c 4 15 c 5 3 c 4 -5 c 4 -13 c 5 -12 c 4 -1 c 4 0 c 5 -1 c 4 0 c 5 -1 c 4 0 c 4 0 c 5 3 c 4 8 c
4 26 c 5 11 c 4 -4 c 5 -13 c 4 -21 c 4 -3 c 5 0 c 4 -1 c 4 -3 c 5 -2 c 4 -1 c 4 0 c 5 0 c 4 1 c 5 0 c 4 1 c 4 1 c 5 3 c 4 2 c 4 4 c
5 0 c 4 -3 c 5 -4 c 4 -3 c 4 0 c 5 0 c 4 1 c 4 4 c 5 3 c 4 0 c 5 -1 c 4 -2 c 4 2 c 5 28 c 4 115 c 4 446 c 5 390 c 4 -12 c 5 -174 c
4 -548 c 4 -222 c 5 -19 c 4 -4 c 4 -1 c 5 -1 c 4 1 c 4 6 c 5 4 c 4 2 c 5 2 c 4 1 c 4 1 c 5 -1 c 4 -2 c 4 -5 c 5 -1 c 4 -2 c 5 0 c
4 5 c 4 14 c 5 34 c 4 29 c 4 38 c 5 174 c 4 770 c 5 2285 c 4 1554 c 4 -64 c 5 -1132 c 4 -2475 c 4 -987 c 5 -149 c 4 -55 c 5 -15 c
4 14 c 4 100 c 5 288 c 4 88 c 4 -20 c 5 -181 c 4 -264 c 4 -52 c 5 -3 c 4 -1 c 5 -1 c 4 -2 c 4 0 c 5 -1 c 4 0 c 4 0 c 5 -1 c 4 0 c
5 0 c 4 1 c 4 1 c 5 1 c 4 1 c 4 4 c 5 0 c 4 0 c 5 -3 c 4 -3 c 4 -2 c 5 0 c 4 0 c 4 1 c 5 3 c 4 2 c 5 0 c 4 2 c 4 21 c 5 108 c 4 87 c
4 3 c 5 -33 c 4 -128 c 4 -60 c 5 -3 c 4 -1 c 5 -2 c 4 3 c 4 1 c 5 0 c 4 -1 c 4 -3 c 5 2 c 4 2 c 5 0 c 4 0 c 4 -2 c 5 -1 c 4 0 c
4 6 c 5 5 c 4 6 c 5 4 c 4 -7 c 4 -3 c 5 -6 c 4 10 c 4 27 c 5 8 c 4 -6 c 4 -19 c 5 -24 c 4 -1 c 5 2 c 4 0 c 4 1 c 5 -2 c 4 0 c 4 4 c
5 1 c 4 -1 c 5 -3 c 4 -3 c 4 -1 c 5 -1 c 4 0 c 4 0 c 5 1 c 4 0 c 5 0 c 4 0 c 4 0 c 5 -1 c 4 1 c 4 -1 c 5 0 c 4 0 c 5 0 c 4 1 c 4 1 c
5 0 c 4 0 c 4 -1 c 5 -1 c 4 2 c 4 2 c 5 1 c 4 0 c 5 1 c 4 13 c 4 28 c 5 21 c 4 58 c 4 22 c 5 -19 c 4 -23 c 5 -74 c 4 -24 c 4 -2 c
5 -2 c 4 -1 c 4 -1 c 5 0 c 4 0 c 5 -1 c 4 0 c 4 1 c 5 0 c 4 0 c 4 0 c 5 0 c 4 1 c 5 1 c 4 1 c 4 1 c 5 -1 c 4 5 c 4 34 c 5 44 c 4 2 c
4 -5 c 5 -44 c 4 -29 c 5 3 c 4 50 c 4 315 c 5 522 c 4 106 c 4 -76 c 5 -471 c 4 -399 c 5 -47 c 4 -2 c 4 -2 c 5 -2 c 4 -1 c 4 0 c
5 1 c 4 2 c 5 3 c 4 4 c 4 9 c 5 85 c 4 668 c 4 1535 c 5 358 c 4 -113 c 5 -1012 c 4 -1350 c 4 -165 c 5 -15 c 4 -4 c 4 -4 c 5 -1 c
4 0 c 4 -1 c 5 0 c 4 0 c 5 -1 c 4 -1 c 4 -1 c 5 0 c 4 0 c 4 0 c 5 0 c 4 0 c 5 2 c 4 5 c 4 17 c 5 22 c 4 1 c 4 -3 c 5 -21 c 4 -15 c
5 0 c 4 4 c 4 4 c 5 19 c 4 130 c 4 948 c 5 1767 c 4 436 c 4 -162 c 5 -1306 c 4 -1603 c 5 -214 c 4 -18 c 4 -3 c 5 -2 c 4 -2 c 4 -1 c
5 -1 c 4 -2 c 5 0 c 4 -2 c 4 -1 c 5 0 c 4 0 c 4 -1 c 5 0 c 4 0 c 5 2 c 4 1 c 4 1 c 5 3 c 4 20 c 4 23 c 5 1 c 4 -3 c 5 13 c 4 61 c
4 17 c 5 -10 c 4 -53 c 4 -66 c 5 -10 c 4 -1 c 4 1 c 5 1 c 4 1 c 5 0 c 4 0 c 4 -2 c 5 -1 c 4 0 c 4 8 c 5 26 c 4 11 c 5 0 c 4 -12 c
4 -18 c 5 4 c 4 0 c 4 -2 c 5 -7 c 4 -8 c 5 -2 c 4 0 c 4 0 c 5 1 c 4 8 c 4 9 c 5 1 c 4 -1 c 5 -9 c 4 -6 c 4 1 c 5 3 c 4 12 c 4 93 c
5 209 c 4 109 c 4 7 c 5 -126 c 4 -215 c 5 -74 c 4 -12 c 4 -5 c 5 -2 c 4 0 c 4 0 c 5 1 c 4 7 c 5 3 c 4 0 c 4 -3 c 5 -7 c 4 -4 c 4 0 c
5 0 c 4 0 c 5 1 c 4 6 c 4 3 c 5 2 c 4 -2 c 4 -5 c 5 7 c 4 5 c 5 0 c 4 -2 c 4 -9 c 5 -5 c 4 3 c 4 22 c 5 13 c 4 1 c 4 8 c 5 56 c
4 43 c 5 7 c 4 -19 c 4 -92 c 5 -29 c 4 3 c 4 0 c 5 -3 c 4 -5 c 5 -1 c 4 2 c 4 0 c 5 2 c 4 3 c 4 2 c 5 -1 c 4 -4 c 5 -5 c 4 1 c 4 0 c
5 2 c 4 2 c 4 1 c 5 1 c 4 2 c 5 6 c 4 10 c 4 14 c 5 10 c 4 11 c 4 21 c 5 123 c 4 2026 c 4 3779 c 5 3 c 4 8 c 5 -10 c 4 -4188 c
4 -1676 c 5 -74 c 4 24 c 4 16 c 5 0 c 4 -20 c 5 -48 c 4 -24 c 4 -5 c 5 -6 c 4 0 c 4 -3 c 5 0 c 4 -2 c 5 -1 c 4 -1 c 4 -1 c 5 5 c
4 5 c 4 1 c 5 -1 c 4 -6 c 4 -6 c 5 0 c 4 3 c 5 1 c 4 -1 c 4 -3 c 5 -3 c 4 1 c 4 0 c 5 1 c 4 0 c 5 0 c 4 -1 c 4 0 c 5 12 c 4 20 c
4 5 c 5 -1 c 4 -17 c 5 -18 c 4 -2 c 4 1 c 5 16 c 4 52 c 4 22 c 5 2 c 4 -28 c 5 -51 c 4 -14 c 4 2 c 5 3 c 4 15 c 4 17 c 5 3 c 4 -6 c
4 -19 c 5 -14 c 4 -1 c 5 5 c 4 29 c 4 17 c 5 6 c 4 -8 c 4 -31 c 5 -13 c 4 -1 c 5 -3 c 4 -1 c 4 0 c 5 0 c 4 0 c 4 -2 c 5 0 c 4 2 c
5 2 c 4 1 c 4 0 c 5 -2 c 4 -3 c 4 -1 c 5 1 c 4 1 c 5 -1 c 4 6 c 4 38 c 5 51 c 4 13 c 4 -10 c 5 -46 c 4 -40 c 4 -8 c 5 -1 c 4 -1 c
5 -1 c 4 4 c 4 3 c 5 2 c 4 -1 c 4 -2 c 5 -2 c 4 0 c 5 1 c 4 -1 c 4 -1 c 5 -1 c 4 0 c 4 -2 c 5 -1 c 4 0 c 5 0 c 4 2 c 4 -1 c 5 1 c
4 0 c 4 -2 c 5 0 c 4 0 c 5 0 c 4 0 c 4 0 c 5 1 c 4 0 c 4 1 c 5 0 c 4 0 c 4 1 c 5 2 c 4 0 c 5 -1 c 4 -1 c 4 1 c 5 4 c 4 3 c 4 12 c
5 28 c 4 13 c 5 -3 c 4 -17 c 4 -29 c 5 -9 c 4 5 c 4 5 c 5 3 c 4 -1 c 5 -9 c 4 -5 c 4 -2 c 5 0 c 4 1 c 4 1 c 5 5 c 4 8 c 5 27 c
4 107 c 4 114 c 5 43 c 4 -25 c 4 -114 c 5 -105 c 4 -38 c 4 -7 c 5 -3 c 4 -3 c 5 -2 c 4 12 c 4 171 c 5 493 c 4 262 c 4 17 c 5 -253 c
4 -506 c 5 -174 c 4 -20 c 4 -3 c 5 -2 c 4 -3 c 4 2 c 5 1 c 4 3 c 5 26 c 4 36 c 4 17 c 5 2 c 4 -33 c 4 -36 c 5 -16 c 4 -6 c 4 0 c
5 0 c 4 4 c 5 5 c 4 3 c 4 1 c 5 -3 c 4 -5 c 4 0 c 5 3 c 4 58 c 5 300 c 4 253 c 4 42 c 5 -76 c 4 -353 c 4 -196 c 5 -30 c 4 -2 c
5 -1 c 4 -3 c 4 0 c 5 -1 c 4 0 c 4 0 c 5 1 c 4 -1 c 5 0 c 4 1 c 4 4 c 5 4 c 4 1 c 4 -2 c 5 -3 c 4 -1 c 4 2 c 5 1 c 4 -1 c 5 -1 c
4 -2 c 4 -1 c 5 -1 c 4 -1 c 4 0 c 5 -1 c 4 3 c 5 3 c 4 3 c 4 1 c 5 0 c 4 -4 c 4 -1 c 5 -1 c 4 -1 c 5 -1 c 4 0 c 4 -1 c 5 -1 c 4 0 c
4 1 c 5 1 c 4 1 c 5 -1 c 4 0 c 4 -2 c 5 0 c 4 0 c 4 0 c 5 0 c 4 0 c 4 0 c 5 1 c 4 1 c 5 0 c 4 -1 c 4 -1 c 5 0 c 4 0 c 4 -1 c 5 1 c
4 0 c 5 0 c 4 0 c 4 1 c 5 -1 c 4 1 c 4 1 c 5 1 c 4 0 c 5 0 c 4 -1 c 4 -1 c 5 1 c 4 1 c 4 0 c 5 -1 c 4 1 c 5 1 c 4 2 c 4 3 c 5 6 c
4 18 c 4 94 c 5 221 c 4 167 c 4 30 c 5 -84 c 4 -242 c 5 -140 c 4 -42 c 4 -12 c 5 -4 c 4 -7 c 4 -3 c 5 -3 c 4 -2 c 5 -2 c 4 3 c 4 2 c
5 0 c 4 -1 c 4 -4 c 5 -2 c 4 -1 c 5 0 c 4 -1 c 4 1 c 5 0 c 4 1 c 4 1 c 5 0 c 4 -1 c 5 -1 c 4 -1 c 4 0 c 5 -1 c 4 1 c 4 0 c 5 0 c
4 0 c 4 -1 c 5 0 c 4 1 c 5 0 c 4 1 c 4 2 c 5 1 c 4 1 c 4 0 c 5 -2 c 4 -1 c 5 0 c 4 -1 c 4 -14 c 5 14 c 4 0 c 4 6 c 5 7 c 4 1 c 5 0 c
4 -7 c 4 -7 c 5 -2 c 4 1 c 4 0 c 5 0 c 4 0 c 4 1 c 5 0 c 4 1 c 5 0 c 4 0 c 4 2 c 5 10 c 4 98 c 4 214 c 5 103 c 4 7 c 5 -114 c
4 -224 c 4 -88 c 5 -7 c 4 0 c 4 -1 c 5 1 c 4 2 c 5 1 c 4 1 c 4 1 c 5 -2 c 4 -2 c 4 -3 c 5 -1 c 4 0 c 5 0 c 4 0 c 4 0 c 5 0 c 4 0 c
4 0 c 5 0 c 4 0 c 4 1 c 5 0 c 4 0 c 5 1 c 4 0 c 4 0 c 5 1 c 4 1 c 4 1 c 5 1 c 4 1 c 5 12 c 4 78 c 4 74 c 5 39 c 4 15 c 4 -74 c
5 -73 c 4 -34 c 5 -26 c 4 -10 c 4 -3 c 5 0 c 4 -1 c 4 -1 c 5 -1 c 4 -1 c 5 0 c 4 0 c 4 2 c 5 1 c 4 2 c 4 2 c 5 -1 c 4 -1 c 4 -3 c
5 -2 c 4 -1 c 5 0 c 4 0 c 4 0 c 5 2 c 4 9 c 4 7 c 5 3 c 4 1 c 5 -7 c 4 -6 c 4 -3 c 5 -3 c 4 -2 c 4 0 c 5 2 c 4 2 c 5 5 c 4 13 c
4 12 c 5 2 c 4 -5 c 4 -12 c 5 -11 c 4 12 c 5 24 c 4 12 c 4 10 c 5 74 c 4 146 c 4 70 c 5 -8 c 4 -113 c 4 -157 c 5 -68 c 4 -5 c 5 -1 c
4 -1 c 4 -1 c 5 3 c 4 18 c 4 17 c 5 6 c 4 5 c 5 -7 c 4 -6 c 4 -4 c 5 -10 c 4 -13 c 4 -5 c 5 1 c 4 3 c 5 0 c 4 -1 c 4 -4 c 5 -2 c
4 -1 c 4 -1 c 5 1 c 4 0 c 4 0 c 5 0 c 4 -1 c 5 -1 c 4 0 c 4 0 c 5 1 c 4 1 c 4 0 c 5 0 c 4 1 c 5 2 c 4 5 c 4 19 c 5 20 c 4 8 c 4 -7 c
5 -18 c 4 -18 c 5 -7 c 4 -21 c 4 21 c 5 1 c 4 2 c 4 1 c 5 9 c 4 16 c 5 5 c 4 3 c 4 -12 c 5 -15 c 4 -6 c 4 -1 c 5 0 c 4 1 c 4 4 c
5 4 c 4 4 c 5 7 c 4 2 c 4 6 c 5 14 c 4 87 c 4 682 c 5 1101 c 4 406 c 5 -9 c 4 -723 c 4 -949 c 5 653 c 4 3600 c 4 1132 c 5 11 c
4 -17 c 5 -2238 c 4 -2856 c 4 -764 c 5 -60 c 4 -19 c 4 -15 c 5 -16 c 4 -17 c 5 -11 c 4 -7 c 4 -2 c 5 -2 c 4 -3 c 4 -1 c 5 0 c 4 -1 c
4 0 c 5 -3 c 4 -2 c 5 -2 c 4 -1 c 4 -1 c 5 0 c 4 0 c 4 -1 c 5 0 c 4 1 c 5 0 c 4 0 c 4 0 c 5 0 c 4 3 c 4 1 c 5 0 c 4 -1 c 5 -3 c
4 -2 c 4 0 c 5 0 c 4 -1 c 4 0 c 5 0 c 4 0 c 5 0 c 4 0 c 4 0 c 5 1 c 4 2 c 4 0 c 5 1 c 4 7 c 4 62 c 5 187 c 4 113 c 5 17 c 4 -69 c
4 -197 c 5 -103 c 4 -17 c 4 -3 c 5 -1 c 4 0 c 5 -1 c 4 0 c 4 0 c 5 0 c 4 0 c 4 1 c 5 1 c 4 0 c 5 1 c 4 -1 c 4 -1 c 5 1 c 4 12 c
4 108 c 5 148 c 4 77 c 5 -5 c 4 -112 c 4 -165 c 5 -59 c 4 -4 c 4 2 c 5 0 c 4 0 c 4 -1 c 5 0 c 4 2 c 5 28 c 4 135 c 4 123 c 5 26 c
4 -28 c 4 -148 c 5 -112 c 4 -21 c 5 -2 c 4 -1 c 4 -2 c 5 -2 c 4 0 c 4 5 c 5 3 c 4 1 c 5 -1 c 4 -4 c 4 -4 c 5 0 c 4 -1 c 4 0 c 5 1 c
4 0 c 4 -1 c 5 1 c 4 0 c 5 0 c 4 0 c 4 3 c 5 2 c 4 0 c 4 -1 c 5 -1 c 4 1 c 5 1 c 4 1 c 4 -1 c 5 -3 c 4 0 c 4 1 c 5 1 c 4 2 c 5 1 c
4 4 c 4 14 c 5 136 c 4 907 c 4 904 c 5 281 c 4 -89 c 5 -1000 c 4 -929 c 4 -203 c 5 -21 c 4 -3 c 4 1 c 5 0 c 4 0 c 4 -1 c 5 -3 c
4 -3 c 5 -1 c 4 4 c 4 8 c 5 4 c 4 0 c 4 -5 c 5 -9 c 4 -3 c 5 0 c 4 1 c 4 1 c 5 6 c 4 39 c 4 62 c 5 22 c 4 14 c 5 -8 c 4 -49 c
4 -19 c 5 -16 c 4 -33 c 4 -36 c 5 16 c 4 -1 c 5 -1 c 4 0 c 4 -1 c 5 1 c 4 -1 c 4 0 c 5 1 c 4 3 c 4 2 c 5 1 c 4 2 c 5 -1 c 4 5 c
4 5 c 5 1 c 4 -2 c 4 -9 c 5 -6 c 4 -1 c 5 1 c 4 0 c 4 0 c 5 11 c 4 37 c 4 27 c 5 1 c 4 -10 c 5 -37 c 4 -22 c 4 -4 c 5 -1 c 4 0 c
4 -1 c 5 0 c 4 -1 c 5 0 c 4 0 c 4 2 c 5 3 c 4 10 c 4 8 c 5 2 c 4 0 c 4 -8 c 5 -8 c 4 -2 c 5 -3 c 4 -3 c 4 -1 c 5 1 c 4 0 c 4 2 c
5 0 c 4 0 c 5 -3 c 4 -1 c 4 0 c 5 0 c 4 0 c 4 -1 c 5 0 c 4 1 c 5 3 c 4 15 c 4 13 c 5 5 c 4 1 c 4 -14 c 5 -12 c 4 -5 c 5 -2 c 4 2 c
4 1 c 5 1 c 4 8 c 4 22 c 5 13 c 4 -1 c 4 -11 c 5 -26 c 4 -12 c 5 -2 c 4 1 c 4 0 c 5 2 c 4 1 c 4 -1 c 5 0 c 4 1 c 5 2 c 4 1 c 4 -1 c
5 0 c 4 3 c 4 69 c 5 236 c 4 165 c 5 24 c 4 -67 c 4 -257 c 5 -154 c 4 -20 c 4 -2 c 5 -1 c 4 0 c 4 -1 c 5 2 c 4 4 c 5 3 c 4 6 c
4 41 c 5 54 c 4 27 c 4 5 c 5 -39 c 4 -60 c 5 -26 c 4 -7 c 4 2 c 5 1 c 4 -1 c 4 -3 c 5 -3 c 4 -2 c 5 -3 c 4 -1 c 4 -1 c 5 0 c 4 0 c
4 1 c 5 0 c 4 1 c 5 1 c 4 0 c 4 -1 c 5 -1 c 4 0 c 4 -1 c 5 1 c 4 0 c 4 0 c 5 0 c 4 0 c 5 0 c 4 1 c 4 0 c 5 1 c 4 0 c 4 1 c 5 6 c
4 12 c 5 5 c 4 1 c 4 -2 c 5 -4 c 4 -1 c 4 16 c 5 202 c 4 674 c 5 397 c 4 138 c 4 -163 c 5 -660 c 4 -368 c 4 -110 c 5 -51 c 4 -41 c
5 -25 c 4 -6 c 4 0 c 5 -6 c 4 -10 c 4 -4 c 5 0 c 4 1 c 4 1 c 5 5 c 4 1 c 5 0 c 4 -2 c 4 -5 c 5 -1 c 4 -1 c 4 0 c 5 0 c 4 -1 c 5 1 c
4 1 c 4 1 c 5 2 c 4 1 c 4 1 c 5 7 c 4 33 c 5 330 c 4 770 c 4 316 c 5 -4 c 4 -312 c 4 -753 c 5 -332 c 4 -48 c 5 -4 c 4 -3 c 4 0 c
5 -1 c 4 0 c 4 1 c 5 6 c 4 23 c 4 22 c 5 4 c 4 -7 c 5 -25 c 4 -22 c 4 -7 c 5 -1 c 4 0 c 4 -1 c 5 -1 c 4 1 c 5 0 c 4 1 c 4 2 c 5 1 c
4 -1 c 4 1 c 5 0 c 4 -1 c 5 0 c 4 -1 c 4 -1 c 5 1 c 4 1 c 4 6 c 5 13 c 4 3 c 5 0 c 4 -6 c 4 -13 c 5 -5 c 4 -2 c 4 0 c 5 0 c 4 -1 c
4 0 c 5 0 c 4 0 c 5 0 c 4 0 c 4 1 c 5 0 c 4 0 c 4 3 c 5 10 c 4 5 c 5 0 c 4 -1 c 4 -10 c 5 -6 c 4 0 c 4 -1 c 5 0 c 4 1 c 5 2 c 4 1 c
4 0 c 5 2 c 4 5 c 4 4 c 5 3 c 4 0 c 4 -8 c 5 -4 c 4 -3 c 5 3 c 4 38 c 4 236 c 5 216 c 4 30 c 4 -32 c 5 -230 c 4 -221 c 5 -36 c 4 6 c
4 92 c 5 144 c 4 35 c 4 -6 c 5 -80 c 4 -145 c 5 -42 c 4 -4 c 4 -4 c 5 -3 c 4 -1 c 4 0 c 5 4 c 4 2 c 5 0 c 4 0 c 4 -2 c 5 -2 c 4 0 c
4 1 c 5 0 c 4 0 c 4 0 c 5 1 c 4 0 c 5 0 c 4 -2 c 4 -1 c 5 0 c 4 1 c 4 2 c 5 32 c 4 44 c 5 10 c 4 -4 c 4 -32 c 5 -44 c 4 -9 c 4 -2 c
5 1 c 4 0 c 5 0 c 4 1 c 4 0 c 5 0 c 4 0 c 4 0 c 5 0 c 4 0 c 5 0 c 4 0 c 4 0 c 5 1 c 4 1 c 4 0 c 5 1 c 4 4 c 4 0 c 5 1 c 4 -2 c
5 -4 c 4 4 c 4 3 c 5 -1 c 4 -2 c 4 -4 c 5 -3 c 4 0 c 5 1 c 4 6 c 4 7 c 5 2 c 4 0 c 4 -6 c 5 -8 c 4 -2 c 5 0 c 4 -1 c 4 2 c 5 1 c
4 0 c 4 0 c 5 -2 c 4 -1 c 5 0 c 4 1 c 4 6 c 5 26 c 4 15 c 4 2 c 5 -6 c 4 -24 c 4 -15 c 5 -2 c 4 0 c 5 0 c 4 1 c 4 7 c 5 10 c 4 1 c
4 1 c 5 -6 c 4 -9 c 5 -3 c 4 -1 c 4 0 c 5 -2 c 4 0 c 4 0 c 5 3 c 4 24 c 5 22 c 4 3 c 4 -1 c 5 -22 c 4 -23 c 4 -3 c 5 -2 c 4 -1 c
4 0 c 5 0 c 4 -1 c 5 0 c 4 0 c 4 1 c 5 2 c 4 1 c 4 1 c 5 12 c 4 54 c 5 29 c 4 -2 c 4 -6 c 5 -51 c 4 -34 c 4 -2 c 5 -2 c 4 -2 c
5 -1 c 4 0 c 4 -1 c 5 1 c 4 2 c 4 2 c 5 2 c 4 19 c 5 82 c 4 37 c 4 -1 c 5 -17 c 4 -77 c 4 -43 c 5 -5 c 4 -1 c 4 1 c 5 1 c 4 4 c
5 0 c 4 0 c 4 -1 c 5 -1 c 4 3 c 4 0 c 5 0 c 4 -1 c 5 -4 c 4 -1 c 4 2 c 5 3 c 4 1 c 4 -1 c 5 -1 c 4 0 c 5 37 c 4 100 c 4 27 c 5 7 c
4 -27 c 4 -101 c 5 -35 c 4 26 c 5 205 c 4 340 c 4 90 c 5 -16 c 4 -165 c 4 -335 c 5 -115 c 4 -19 c 4 -11 c 5 -8 c 4 -2 c 5 -1 c 4 0 c
4 -1 c 5 0 c 4 -1 c 4 1 c 5 1 c 4 2 c 5 1 c 4 4 c 4 7 c 5 29 c 4 12 c 4 0 c 5 -10 c 4 -26 c 5 -19 c 4 -1 c 4 1 c 5 0 c 4 0 c 4 0 c
5 -1 c 4 1 c 5 2 c 4 8 c 4 4 c 5 9 c 4 73 c 4 67 c 5 9 c 4 -5 c 4 -62 c 5 -90 c 4 -12 c 5 -1 c 4 0 c 4 0 c 5 2 c 4 -1 c 4 -1 c 5 0 c
4 -2 c 5 0 c 4 2 c 4 15 c 5 142 c 4 269 c 4 50 c 5 -1 c 4 -110 c 5 -273 c 4 -49 c 4 35 c 5 3 c 4 -5 c 4 -30 c 5 -41 c 4 -4 c 5 2 c
4 -1 c 4 0 c 5 -2 c 4 -3 c 4 -1 c 5 0 c 4 0 c 4 0 c 5 1 c 4 0 c 5 1 c 4 0 c 4 3 c 5 20 c 4 82 c 4 46 c 5 3 c 4 -11 c 5 -72 c 4 -44 c
4 43 c 5 287 c 4 730 c 4 168 c 5 -45 c 4 -220 c 5 -723 c 4 -242 c 4 -19 c 5 -2 c 4 -2 c 4 0 c 5 1 c 4 1 c 4 0 c 5 1 c 4 0 c 5 1 c
4 -2 c 4 -1 c 5 -2 c 4 -2 c 4 0 c 5 1 c 4 1 c 5 0 c 4 1 c 4 4 c 5 53 c 4 301 c 4 228 c 5 11 c 4 -39 c 5 -261 c 4 -264 c 4 -32 c
5 -2 c 4 -1 c 4 1 c 5 4 c 4 0 c 5 0 c 4 -1 c 4 -5 c 5 -1 c 4 -1 c 4 0 c 5 0 c 4 0 c 4 0 c 5 1 c 4 1 c 5 0 c 4 1 c 4 0 c 5 -1 c 4 0 c
4 -1 c 5 0 c 4 -1 c 5 1 c 4 0 c 4 1 c 5 1 c 4 1 c 4 3 c 5 19 c 4 172 c 5 231 c 4 41 c 4 -8 c 5 -132 c 4 -263 c 4 -57 c 5 7 c 4 51 c
5 63 c 4 19 c 4 5 c 5 -37 c 4 -70 c 4 -29 c 5 -12 c 4 1 c 4 1 c 5 1 c 4 -2 c 5 -4 c 4 -1 c 4 -1 c 5 0 c 4 6 c 4 25 c 5 11 c 4 1 c
5 -6 c 4 -23 c 4 -15 c 5 -1 c 4 0 c 4 1 c 5 1 c 4 2 c 5 0 c 4 0 c 4 -1 c 5 -2 c 4 5 c 4 3 c
5 0 c 4 -2 c 5 -2 c 4 -3 c 4 -13 c 4 11 9549 780 l 4 0 c 5 0 c 4 2 c 4 1 c 5 0 c 4 1 c 5 1 c 4 0 c 4 -1 c 5 0 c 4 -2 c 4 0 c 5 20 c
4 85 c 5 38 c 4 28 c 4 28 c 5 -52 c 4 -50 c 4 -21 c 5 -46 c 4 -21 c 5 -9 c 4 -1 c 4 -1 c 5 0 c 4 1 c 4 0 c 5 0 c 4 2 c 5 4 c 4 11 c
4 41 c 5 47 c 4 10 c 4 -2 c 5 -34 c 4 -48 c
0 -126 3030 418 l 54 0 3030 418 l 18 -6 c 6 -6 c 6 -12 c 0 -12 c -6 -12 c -6 -6 c -18 -6 c -54 0 c 42 -66 3072 358 l
-12 -6 3180 376 l -12 -12 c -6 -18 c 0 -12 c 6 -18 c 12 -12 c 12 -6 c 18 0 c 12 6 c 12 12 c 6 18 c 0 12 c -6 18 c -12 12 c -12 6 c
-18 0 c 24 -84 3264 376 l -24 -84 3312 376 l 24 -84 3312 376 l -24 -84 3360 376 l 108 0 3402 364 l 108 0 3402 328 l 12 6 3666 394 l
18 18 c 0 -126 c -6 12 3846 400 l -18 6 c -12 0 c -18 -6 c -12 -18 c -6 -30 c 0 -30 c 6 -24 c 12 -12 c 18 -6 c 6 0 c 18 6 c 12 12 c
6 18 c 0 6 c -6 18 c -12 12 c -18 6 c -6 0 c -18 -6 c -12 -12 c -6 -18 c 12 6 4290 394 l 18 18 c 0 -126 c -6 -6 4404 376 l 6 -6 c
6 6 c -6 6 c -6 -6 4404 304 l 6 -6 c 6 6 c -6 6 c -48 -126 4584 418 l 48 -126 4584 418 l 60 0 4554 334 l 0 -84 4662 376 l
6 18 4662 340 l 12 12 c 12 6 c 18 0 c -12 12 4806 358 l -12 6 c -18 0 c -12 -6 c -12 -12 c -6 -18 c 0 -12 c 6 -18 c 12 -12 c 12 -6 c
18 0 c 12 6 c 12 12 c 108 0 4848 346 l -18 -6 5034 418 l -12 -18 c -6 -30 c 0 -18 c 6 -30 c 12 -18 c 18 -6 c 12 0 c 18 6 c 12 18 c
6 30 c 0 18 c -6 30 c -12 18 c -18 6 c -12 0 c 66 0 5130 418 l -36 -48 c 18 0 c 12 -6 c 6 -6 c 6 -18 c 0 -12 c -6 -18 c -12 -12 c
-18 -6 c -18 0 c -18 6 c -6 6 c -6 12 c -59 0 5309 418 l -6 -54 c 6 6 c 17 6 c 18 0 c 18 -6 c 12 -12 c 6 -18 c 0 -12 c -6 -18 c
-12 -12 c -18 -6 c -18 0 c -17 6 c -6 6 c -6 12 c -6 -6 5369 304 l 6 -6 c 6 6 c -6 6 c -12 0 5459 418 l -12 -6 c -6 -18 c 0 -102 c
42 0 5411 376 l 6 -6 5489 418 l 6 6 c -6 6 c -6 -6 c 0 -84 5495 376 l 0 -102 5549 418 l 6 -18 c 12 -6 c 12 0 c 42 0 5531 376 l
-6 12 5675 358 l -18 6 c -18 0 c -18 -6 c -6 -12 c 6 -12 c 12 -6 c 30 -6 c 12 -6 c 6 -12 c 0 -6 c -6 -12 c -18 -6 c -18 0 c -18 6 c
-6 12 c 0 -192 6005 442 l 0 -192 6011 442 l 42 0 6005 442 l 42 0 6005 250 l 0 6 6089 388 l 6 12 c 6 6 c 12 6 c 24 0 c 12 -6 c 6 -6 c
6 -12 c 0 -12 c -6 -12 c -12 -18 c -60 -60 c 84 0 c -6 -6 6215 376 l 6 -6 c 6 6 c -6 6 c -6 -6 6215 304 l 6 -6 c 6 6 c -6 6 c
-48 -126 6395 418 l 48 -126 6395 418 l 60 0 6365 334 l 0 -84 6473 376 l 6 18 6473 340 l 12 12 c 12 6 c 18 0 c -12 12 6617 358 l
-12 6 c -18 0 c -12 -6 c -12 -12 c -6 -18 c 0 -12 c 6 -18 c 12 -12 c 12 -6 c 18 0 c 12 6 c 12 12 c 108 0 6659 346 l
-18 -6 6845 418 l -12 -18 c -6 -30 c 0 -18 c 6 -30 c 12 -18 c 18 -6 c 12 0 c 18 6 c 12 18 c 6 30 c 0 18 c -6 30 c -12 18 c -18 6 c
-12 0 c 66 0 6941 418 l -36 -48 c 18 0 c 12 -6 c 6 -6 c 6 -18 c 0 -12 c -6 -18 c -12 -12 c -18 -6 c -18 0 c -18 6 c -6 6 c -6 12 c
-6 12 7127 400 l -18 6 c -12 0 c -18 -6 c -12 -18 c -6 -30 c 0 -30 c 6 -24 c 12 -12 c 18 -6 c 6 0 c 18 6 c 12 12 c 6 18 c 0 6 c
-6 18 c -12 12 c -18 6 c -6 0 c -18 -6 c -12 -12 c -6 -18 c -6 -6 7181 304 l 6 -6 c 6 6 c -6 6 c -12 0 7271 418 l -12 -6 c -6 -18 c
0 -102 c 42 0 7223 376 l 6 -6 7301 418 l 6 6 c -6 6 c -6 -6 c 0 -84 7307 376 l 0 -102 7361 418 l 6 -18 c 12 -6 c 12 0 c
42 0 7343 376 l -6 12 7487 358 l -18 6 c -18 0 c -18 -6 c -6 -12 c 6 -12 c 12 -6 c 30 -6 c 12 -6 c 6 -12 c 0 -6 c -6 -12 c -18 -6 c
-18 0 c -18 6 c -6 12 c 0 -192 7559 442 l 0 -192 7565 442 l 42 0 7523 442 l 42 0 7523 250 l
0 -250 1015 3412 l 53 -37 972 3521 l 0 56 c 79 0 972 3521 l 53 -38 972 3597 l 0 57 c 79 0 972 3597 l 79 -38 972 3688 l
0 53 972 3635 l 53 -38 972 3748 l 0 57 c 79 0 972 3748 l 3 -3 1044 3793 l 4 3 c -4 4 c -3 -4 c 79 -38 972 3877 l 0 53 972 3824 l
0 -38 972 3945 l 34 -4 c -4 4 c -4 11 c 0 12 c 4 11 c 8 7 c 11 4 c 8 0 c 11 -4 c 7 -7 c 4 -11 c 0 -12 c -4 -11 c -3 -4 c -8 -4 c
12 -4 998 4024 l 7 -7 c 4 -12 c 0 -3 c -4 -12 c -7 -7 c -12 -4 c -3 0 c -12 4 c -7 7 c -4 12 c 0 3 c 4 12 c 7 7 c 15 4 c 19 0 c
19 -4 c 11 -7 c 4 -12 c 0 -7 c -4 -12 c -7 -3 c 0 -250 1076 1528 l 53 -38 1032 1638 l 0 57 c 79 0 1032 1638 l 53 -38 1032 1713 l
0 57 c 79 0 1032 1713 l 79 -38 1032 1804 l 0 53 1032 1751 l 0 -38 1032 1872 l 34 -4 c -4 4 c -3 12 c 0 11 c 3 11 c 8 8 c 11 4 c
8 0 c 11 -4 c 8 -8 c 3 -11 c 0 -11 c -3 -12 c -4 -4 c -8 -3 c 4 -4 1104 1910 l 3 4 c -3 4 c -4 -4 c -4 0 1051 1944 l -7 4 c -4 3 c
-4 8 c 0 15 c 4 8 c 4 3 c 7 4 c 8 0 c 7 -4 c 12 -7 c 37 -38 c 0 53 c -4 0 1051 2019 l -7 4 c -4 4 c -4 7 c 0 16 c 4 7 c 4 4 c 7 4 c
8 0 c 7 -4 c 12 -8 c 37 -37 c 0 52 c -4 7 1047 2103 l -11 11 c 79 0 c 0 -250 1651 1275 l 53 -38 1608 1384 l 0 57 c 79 0 1608 1384 l
53 -38 1608 1460 l 0 57 c 79 0 1608 1460 l 79 -37 1608 1550 l 0 52 1608 1498 l 12 -3 1634 1622 l 7 -8 c 4 -11 c 0 -4 c -4 -11 c
-7 -8 c -12 -4 c -4 0 c -11 4 c -7 8 c -4 11 c 0 4 c 4 11 c 7 8 c 15 3 c 19 0 c 19 -3 c 11 -8 c 4 -11 c 0 -8 c -4 -11 c -7 -4 c
3 -3 1680 1656 l 4 3 c -4 4 c -3 -4 c -7 -4 1619 1736 l -4 -11 c 0 -8 c 4 -11 c 11 -8 c 19 -4 c 19 0 c 15 4 c 7 8 c 4 11 c 0 4 c
-4 11 c -7 8 c -12 3 c -3 0 c -12 -3 c -7 -8 c -4 -11 c 0 -4 c 4 -11 c 7 -8 c 12 -4 c 0 41 1608 1770 l 30 -22 c 0 11 c 4 7 c 4 4 c
11 4 c 7 0 c 12 -4 c 7 -7 c 4 -12 c 0 -11 c -4 -11 c -3 -4 c -8 -4 c 4 -12 1608 1857 l 7 -3 c 8 0 c 7 3 c 4 8 c 4 15 c 4 11 c 7 8 c
8 4 c 11 0 c 8 -4 c 3 -4 c 4 -11 c 0 -15 c -4 -12 c -3 -3 c -8 -4 c -11 0 c -8 4 c -7 7 c -4 11 c -4 16 c -4 7 c -7 4 c -8 0 c
-7 -4 c -4 -11 c 0 -15 c 0 -249 1936 6142 l 53 -38 1893 6252 l 0 57 c 79 0 1893 6252 l 53 -38 1893 6328 l 0 57 c 79 0 1893 6328 l
4 -11 1893 6384 l 7 -4 c 8 0 c 7 4 c 4 8 c 4 15 c 4 11 c 7 8 c 8 3 c 11 0 c 8 -3 c 3 -4 c 4 -12 c 0 -15 c -4 -11 c -3 -4 c -8 -4 c
-11 0 c -8 4 c -7 8 c -4 11 c -4 15 c -4 8 c -7 4 c -8 0 c -7 -4 c -4 -12 c 0 -15 c -4 8 1908 6452 l -11 11 c 79 0 c
3 -4 1965 6524 l 4 4 c -4 4 c -3 -4 c 4 -11 1893 6573 l 7 -4 c 8 0 c 7 4 c 4 8 c 4 15 c 4 11 c 7 8 c 8 3 c 11 0 c 8 -3 c 3 -4 c
4 -12 c 0 -15 c -4 -11 c -3 -4 c -8 -4 c -11 0 c -8 4 c -7 8 c -4 11 c -4 15 c -4 8 c -7 4 c -8 0 c -7 -4 c -4 -12 c 0 -15 c
-4 8 1908 6641 l -11 11 c 79 0 c -4 8 1908 6717 l -11 11 c 79 0 c 0 -250 2138 1457 l 52 -37 2095 1566 l 0 56 c 79 0 2095 1566 l
52 -38 2095 1642 l 0 57 c 79 0 2095 1642 l 3 -12 2095 1699 l 8 -3 c 7 0 c 8 3 c 4 8 c 4 15 c 3 11 c 8 8 c 7 4 c 12 0 c 7 -4 c 4 -4 c
4 -11 c 0 -15 c -4 -12 c -4 -3 c -7 -4 c -12 0 c -7 4 c -8 7 c -3 11 c -4 16 c -4 7 c -8 4 c -7 0 c -8 -4 c -3 -11 c 0 -15 c
0 41 2095 1763 l 30 -22 c 0 11 c 4 8 c 3 3 c 12 4 c 7 0 c 12 -4 c 7 -7 c 4 -11 c 0 -12 c -4 -11 c -4 -4 c -7 -4 c 4 -3 2166 1838 l
4 3 c -4 4 c -4 -4 c 0 42 2095 1876 l 30 -23 c 0 12 c 4 7 c 3 4 c 12 4 c 7 0 c 12 -4 c 7 -8 c 4 -11 c 0 -11 c -4 -12 c -4 -3 c
-7 -4 c 52 -38 2095 1982 l 0 57 c 79 0 2095 1982 l 79 -38 2095 2073 l 0 53 2095 2020 l 0 -250 2607 2236 l 53 -38 2564 2345 l 0 57 c
79 0 2564 2345 l 53 -38 2564 2421 l 0 57 c 79 0 2564 2421 l 4 -12 2564 2478 l 7 -4 c 8 0 c 7 4 c 4 8 c 4 15 c 4 11 c 7 8 c 8 4 c
11 0 c 8 -4 c 3 -4 c 4 -11 c 0 -15 c -4 -12 c -3 -4 c -8 -3 c -11 0 c -8 3 c -7 8 c -4 11 c -4 15 c -4 8 c -7 4 c -8 0 c -7 -4 c
-4 -11 c 0 -15 c -7 -3 2575 2583 l -4 -12 c 0 -7 c 4 -12 c 11 -7 c 19 -4 c 19 0 c 15 4 c 7 7 c 4 12 c 0 3 c -4 12 c -7 7 c -12 4 c
-3 0 c -12 -4 c -7 -7 c -4 -12 c 0 -3 c 4 -12 c 7 -7 c 12 -4 c 3 -3 2636 2617 l 4 3 c -4 4 c -3 -4 c 4 -12 2564 2667 l 7 -4 c 8 0 c
7 4 c 4 8 c 4 15 c 4 11 c 7 8 c 8 4 c 11 0 c 8 -4 c 3 -4 c 4 -11 c 0 -15 c -4 -12 c -3 -4 c -8 -3 c -11 0 c -8 3 c -7 8 c -4 11 c
-4 15 c -4 8 c -7 4 c -8 0 c -7 -4 c -4 -11 c 0 -15 c 12 -3 2590 2772 l 7 -8 c 4 -11 c 0 -4 c -4 -11 c -7 -8 c -12 -4 c -4 0 c
-11 4 c -7 8 c -4 11 c 0 4 c 4 11 c 7 8 c 15 3 c 19 0 c 19 -3 c 11 -8 c 4 -11 c 0 -8 c -4 -11 c -7 -4 c 79 -38 2564 2852 l
0 53 2564 2799 l 0 -250 2687 3901 l 53 -38 2643 4010 l 0 57 c 79 0 2643 4010 l 53 -38 2643 4086 l 0 57 c 79 0 2643 4086 l
4 -11 2643 4142 l 7 -4 c 8 0 c 8 4 c 3 8 c 4 15 c 4 11 c 7 8 c 8 3 c 11 0 c 8 -3 c 4 -4 c 3 -11 c 0 -16 c -3 -11 c -4 -4 c -8 -3 c
-11 0 c -8 3 c -7 8 c -4 11 c -4 15 c -3 8 c -8 4 c -8 0 c -7 -4 c -4 -11 c 0 -16 c 79 -38 2643 4252 l 0 53 2643 4199 l
4 -3 2715 4282 l 3 3 c -3 4 c -4 -4 c 53 -37 2643 4350 l 0 56 c 79 0 2643 4350 l 11 -4 2670 4437 l 7 -7 c 4 -11 c 0 -4 c -4 -12 c
-7 -7 c -11 -4 c -4 0 c -12 4 c -7 7 c -4 12 c 0 4 c 4 11 c 7 7 c 16 4 c 18 0 c 19 -4 c 12 -7 c 3 -11 c 0 -8 c -3 -11 c -8 -4 c
0 -38 2643 4509 l 34 -4 c -4 4 c -3 12 c 0 11 c 3 11 c 8 8 c 11 4 c 8 0 c 11 -4 c 8 -8 c 3 -11 c 0 -11 c -3 -12 c -4 -4 c -8 -3 c
0 -250 2844 4549 l 53 -38 2800 4658 l 0 57 c 80 0 2800 4658 l 53 -38 2800 4734 l 0 57 c 80 0 2800 4734 l 4 -11 2800 4790 l 8 -4 c
7 0 c 8 4 c 4 8 c 3 15 c 4 11 c 8 8 c 7 3 c 12 0 c 7 -3 c 4 -4 c 4 -11 c 0 -16 c -4 -11 c -4 -4 c -7 -3 c -12 0 c -7 3 c -8 8 c
-4 11 c -3 15 c -4 8 c -8 4 c -7 0 c -8 -4 c -4 -11 c 0 -16 c 4 -11 2800 4866 l 8 -4 c 7 0 c 8 4 c 4 7 c 3 15 c 4 12 c 8 7 c 7 4 c
12 0 c 7 -4 c 4 -4 c 4 -11 c 0 -15 c -4 -11 c -4 -4 c -7 -4 c -12 0 c -7 4 c -8 7 c -4 12 c -3 15 c -4 7 c -8 4 c -7 0 c -8 -4 c
-4 -11 c 0 -15 c 4 -4 2872 4930 l 4 4 c -4 4 c -4 -4 c -8 -4 2812 5010 l -4 -11 c 0 -8 c 4 -11 c 11 -8 c 19 -4 c 19 0 c 15 4 c 8 8 c
4 11 c 0 4 c -4 11 c -8 8 c -11 3 c -4 0 c -11 -3 c -8 -8 c -3 -11 c 0 -4 c 3 -11 c 8 -8 c 11 -4 c 4 -11 2800 5055 l 8 -4 c 7 0 c
8 4 c 4 7 c 3 15 c 4 12 c 8 7 c 7 4 c 12 0 c 7 -4 c 4 -4 c 4 -11 c 0 -15 c -4 -11 c -4 -4 c -7 -4 c -12 0 c -7 4 c -8 7 c -4 12 c
-3 15 c -4 7 c -8 4 c -7 0 c -8 -4 c -4 -11 c 0 -15 c 4 -11 2800 5134 l 11 -8 c 19 -3 c 12 0 c 19 3 c 11 8 c 4 11 c 0 8 c -4 11 c
-11 8 c -19 4 c -12 0 c -19 -4 c -11 -8 c -4 -11 c 0 -8 c 0 -249 2974 1369 l 53 -38 2931 1479 l 0 57 c 79 0 2931 1479 l
53 -38 2931 1555 l 0 56 c 79 0 2931 1555 l 3 -11 2931 1611 l 8 -4 c 8 0 c 7 4 c 4 7 c 4 16 c 3 11 c 8 7 c 8 4 c 11 0 c 7 -4 c 4 -3 c
4 -12 c 0 -15 c -4 -11 c -4 -4 c -7 -4 c -11 0 c -8 4 c -8 8 c -3 11 c -4 15 c -4 8 c -7 3 c -8 0 c -8 -3 c -3 -12 c 0 -15 c
11 -4 2957 1717 l 8 -7 c 4 -12 c 0 -3 c -4 -12 c -8 -7 c -11 -4 c -4 0 c -11 4 c -8 7 c -3 12 c 0 3 c 3 12 c 8 7 c 15 4 c 19 0 c
19 -4 c 11 -7 c 4 -12 c 0 -7 c -4 -12 c -7 -3 c 4 -4 3002 1751 l 4 4 c -4 4 c -4 -4 c -8 -3 2942 1830 l -3 -12 c 0 -7 c 3 -12 c
12 -7 c 19 -4 c 19 0 c 15 4 c 7 7 c 4 12 c 0 4 c -4 11 c -7 7 c -12 4 c -3 0 c -12 -4 c -7 -7 c -4 -11 c 0 -4 c 4 -12 c 7 -7 c
12 -4 c -8 -4 2942 1906 l -3 -11 c 0 -8 c 3 -11 c 12 -8 c 19 -3 c 19 0 c 15 3 c 7 8 c 4 11 c 0 4 c -4 11 c -7 8 c -12 4 c -3 0 c
-12 -4 c -7 -8 c -4 -11 c 0 -4 c 4 -11 c 7 -8 c 12 -3 c 53 -38 2931 1970 l 0 57 c 79 0 2931 1970 l 0 -249 3151 1666 l
52 -38 3108 1776 l 0 57 c 79 0 3108 1776 l 52 -38 3108 1852 l 0 56 c 79 0 3108 1852 l 11 -4 3134 1939 l 8 -8 c 4 -11 c 0 -4 c
-4 -11 c -8 -8 c -11 -4 c -4 0 c -11 4 c -8 8 c -3 11 c 0 4 c 3 11 c 8 8 c 15 4 c 19 0 c 19 -4 c 11 -8 c 4 -11 c 0 -8 c -4 -11 c
-7 -4 c 3 -12 3108 1988 l 12 -7 c 19 -4 c 11 0 c 19 4 c 11 7 c 4 12 c 0 7 c -4 12 c -11 7 c -19 4 c -11 0 c -19 -4 c -12 -7 c
-3 -12 c 0 -7 c 4 -4 3179 2048 l 4 4 c -4 4 c -4 -4 c 11 -3 3134 2127 l 8 -8 c 4 -11 c 0 -4 c -4 -11 c -8 -8 c -11 -4 c -4 0 c
-11 4 c -8 8 c -3 11 c 0 4 c 3 11 c 8 8 c 15 3 c 19 0 c 19 -3 c 11 -8 c 4 -11 c 0 -8 c -4 -11 c -7 -4 c 3 -11 3108 2173 l 8 -4 c
7 0 c 8 4 c 4 7 c 4 15 c 3 12 c 8 7 c 7 4 c 12 0 c 7 -4 c 4 -4 c 4 -11 c 0 -15 c -4 -11 c -4 -4 c -7 -4 c -12 0 c -7 4 c -8 7 c
-3 12 c -4 15 c -4 7 c -8 4 c -7 0 c -8 -4 c -3 -11 c 0 -15 c -3 0 3126 2233 l -8 4 c -4 4 c -3 7 c 0 16 c 3 7 c 4 4 c 8 4 c 7 0 c
8 -4 c 11 -8 c 38 -37 c 0 52 c 0 -249 3466 7019 l 53 -38 3422 7129 l 0 57 c 80 0 3422 7129 l 53 -37 3422 7204 l 0 56 c
80 0 3422 7204 l 11 -4 3449 7291 l 8 -7 c 3 -11 c 0 -4 c -3 -12 c -8 -7 c -11 -4 c -4 0 c -11 4 c -8 7 c -4 12 c 0 4 c 4 11 c 8 7 c
15 4 c 19 0 c 19 -4 c 11 -7 c 4 -11 c 0 -8 c -4 -11 c -8 -4 c 0 42 3422 7325 l 31 -23 c 0 11 c 3 8 c 4 4 c 11 4 c 8 0 c 11 -4 c
8 -8 c 4 -11 c 0 -11 c -4 -12 c -4 -4 c -7 -3 c 4 -4 3494 7401 l 4 4 c -4 4 c -4 -4 c 0 41 3422 7439 l 31 -22 c 0 11 c 3 7 c 4 4 c
11 4 c 8 0 c 11 -4 c 8 -7 c 4 -12 c 0 -11 c -4 -11 c -4 -4 c -7 -4 c 0 42 3422 7514 l 31 -23 c 0 11 c 3 8 c 4 4 c 11 4 c 8 0 c
11 -4 c 8 -8 c 4 -11 c 0 -11 c -4 -12 c -4 -4 c -7 -3 c 53 -38 3422 7620 l 0 57 c 80 0 3422 7620 l 0 -250 4082 1295 l
53 -38 4038 1404 l 0 57 c 79 0 4038 1404 l 53 -38 4038 1480 l 0 57 c 79 0 4038 1480 l 11 -4 4065 1567 l 7 -8 c 4 -11 c 0 -4 c
-4 -11 c -7 -8 c -11 -3 c -4 0 c -12 3 c -7 8 c -4 11 c 0 4 c 4 11 c 7 8 c 16 4 c 18 0 c 19 -4 c 12 -8 c 3 -11 c 0 -8 c -3 -11 c
-8 -4 c 79 -38 4038 1646 l 0 53 4038 1593 l 4 -4 4110 1676 l 3 4 c -3 4 c -4 -4 c 11 -4 4065 1756 l 7 -8 c 4 -11 c 0 -4 c -4 -11 c
-7 -8 c -11 -4 c -4 0 c -12 4 c -7 8 c -4 11 c 0 4 c 4 11 c 7 8 c 16 4 c 18 0 c 19 -4 c 12 -8 c 3 -11 c 0 -8 c -3 -11 c -8 -4 c
-4 8 4053 1793 l -11 11 c 79 0 c 53 -37 4038 1895 l 0 56 c 79 0 4038 1895 l 0 -250 4222 2197 l 53 -37 4179 2306 l 0 56 c
79 0 4179 2306 l 53 -38 4179 2382 l 0 57 c 79 0 4179 2382 l 12 -4 4205 2469 l 7 -7 c 4 -12 c 0 -4 c -4 -11 c -7 -7 c -12 -4 c -4 0 c
-11 4 c -7 7 c -4 11 c 0 4 c 4 12 c 7 7 c 15 4 c 19 0 c 19 -4 c 11 -7 c 4 -12 c 0 -7 c -4 -12 c -7 -3 c 4 -11 4179 2514 l 7 -4 c
8 0 c 7 4 c 4 7 c 4 16 c 4 11 c 7 7 c 8 4 c 11 0 c 8 -4 c 3 -3 c 4 -12 c 0 -15 c -4 -11 c -3 -4 c -8 -4 c -11 0 c -8 4 c -7 8 c
-4 11 c -4 15 c -4 8 c -7 3 c -8 0 c -7 -3 c -4 -12 c 0 -15 c 3 -3 4251 2578 l 4 3 c -4 4 c -3 -4 c 12 -4 4205 2658 l 7 -7 c 4 -12 c
0 -4 c -4 -11 c -7 -8 c -12 -3 c -4 0 c -11 3 c -7 8 c -4 11 c 0 4 c 4 12 c 7 7 c 15 4 c 19 0 c 19 -4 c 11 -7 c 4 -12 c 0 -7 c
-4 -12 c -7 -4 c 53 -38 4179 2722 l 0 57 c 79 0 4179 2722 l 4 -12 4179 2783 l 11 -7 c 19 -4 c 11 0 c 19 4 c 11 7 c 4 12 c 0 7 c
-4 11 c -11 8 c -19 4 c -11 0 c -19 -4 c -11 -8 c -4 -11 c 0 -7 c 0 -249 4364 1892 l 53 -38 4320 2002 l 0 57 c 79 0 4320 2002 l
53 -38 4320 2078 l 0 57 c 79 0 4320 2078 l 12 -4 4346 2165 l 7 -8 c 4 -11 c 0 -4 c -4 -11 c -7 -8 c -12 -4 c -3 0 c -12 4 c -7 8 c
-4 11 c 0 4 c 4 11 c 7 8 c 15 4 c 19 0 c 19 -4 c 12 -8 c 3 -11 c 0 -8 c -3 -11 c -8 -4 c 12 -4 4346 2240 l 7 -7 c 4 -12 c 0 -3 c
-4 -12 c -7 -7 c -12 -4 c -3 0 c -12 4 c -7 7 c -4 12 c 0 3 c 4 12 c 7 7 c 15 4 c 19 0 c 19 -4 c 12 -7 c 3 -12 c 0 -7 c -3 -11 c
-8 -4 c 4 -4 4392 2274 l 3 4 c -3 4 c -4 -4 c 12 -4 4346 2354 l 7 -8 c 4 -11 c 0 -4 c -4 -11 c -7 -8 c -12 -4 c -3 0 c -12 4 c
-7 8 c -4 11 c 0 4 c 4 11 c 7 8 c 15 4 c 19 0 c 19 -4 c 12 -8 c 3 -11 c 0 -8 c -3 -11 c -8 -4 c 4 -11 4320 2399 l 7 -4 c 8 0 c 7 4 c
4 7 c 4 15 c 4 12 c 7 7 c 8 4 c 11 0 c 8 -4 c 4 -4 c 3 -11 c 0 -15 c -3 -11 c -4 -4 c -8 -4 c -11 0 c -8 4 c -7 7 c -4 12 c -4 15 c
-4 7 c -7 4 c -8 0 c -7 -4 c -4 -11 c 0 -15 c 0 42 4320 2463 l 30 -23 c 0 11 c 4 8 c 4 4 c 11 4 c 8 0 c 11 -4 c 8 -8 c 3 -11 c
0 -11 c -3 -12 c -4 -4 c -8 -3 c 0 -249 4765 1774 l 53 -38 4722 1884 l 0 57 c 79 0 4722 1884 l 0 -38 4722 1967 l 34 -3 c -4 3 c
-4 12 c 0 11 c 4 11 c 8 8 c 11 4 c 8 0 c 11 -4 c 7 -8 c 4 -11 c 0 -11 c -4 -12 c -3 -3 c -8 -4 c 4 -11 4722 2020 l 11 -8 c 19 -4 c
11 0 c 19 4 c 11 8 c 4 11 c 0 8 c -4 11 c -11 8 c -19 3 c -11 0 c -19 -3 c -11 -8 c -4 -11 c 0 -8 c -4 0 4741 2077 l -8 4 c -3 3 c
-4 8 c 0 15 c 4 8 c 3 3 c 8 4 c 8 0 c 7 -4 c 11 -7 c 38 -38 c 0 53 c 3 -4 4794 2156 l 4 4 c -4 4 c -3 -4 c 12 -3 4748 2235 l 7 -8 c
4 -11 c 0 -4 c -4 -11 c -7 -8 c -12 -4 c -3 0 c -12 4 c -7 8 c -4 11 c 0 4 c 4 11 c 7 8 c 15 3 c 19 0 c 19 -3 c 11 -8 c 4 -11 c
0 -8 c -4 -11 c -7 -4 c -4 0 4741 2266 l -8 3 c -3 4 c -4 8 c 0 15 c 4 8 c 3 3 c 8 4 c 8 0 c 7 -4 c 11 -7 c 38 -38 c 0 53 c
79 -37 4722 2390 l 0 52 4722 2338 l 0 -250 5079 1666 l 53 -38 5035 1775 l 0 57 c 80 0 5035 1775 l 0 -37 5035 1858 l 34 -4 c -3 4 c
-4 11 c 0 11 c 4 12 c 7 7 c 11 4 c 8 0 c 11 -4 c 8 -7 c 4 -12 c 0 -11 c -4 -11 c -4 -4 c -7 -4 c 4 -11 5035 1911 l 11 -8 c 19 -3 c
12 0 c 19 3 c 11 8 c 4 11 c 0 8 c -4 11 c -11 8 c -19 3 c -12 0 c -19 -3 c -11 -8 c -4 -11 c 0 -8 c 0 -38 5035 2010 l 34 -4 c -3 4 c
-4 11 c 0 11 c 4 12 c 7 7 c 11 4 c 8 0 c 11 -4 c 8 -7 c 4 -12 c 0 -11 c -4 -11 c -4 -4 c -7 -4 c 4 -3 5107 2047 l 4 3 c -4 4 c
-4 -4 c -4 0 5054 2081 l -7 4 c -4 4 c -4 7 c 0 16 c 4 7 c 4 4 c 7 4 c 8 0 c 8 -4 c 11 -8 c 38 -37 c 0 52 c -3 8 5050 2164 l
-12 11 c 80 0 c 80 -38 5035 2282 l 0 53 5035 2229 l 0 -249 5841 7019 l 52 -38 5798 7129 l 0 57 c 79 0 5798 7129 l 0 -38 5798 7212 l
34 -4 c -4 4 c -4 11 c 0 12 c 4 11 c 7 8 c 12 3 c 7 0 c 12 -3 c 7 -8 c 4 -11 c 0 -12 c -4 -11 c -4 -4 c -7 -3 c -4 8 5813 7253 l
-11 11 c 79 0 c 3 -11 5798 7340 l 12 -8 c 19 -3 c 11 0 c 19 3 c 11 8 c 4 11 c 0 8 c -4 11 c -11 8 c -19 4 c -11 0 c -19 -4 c
-12 -8 c -3 -11 c 0 -8 c 4 -4 5869 7401 l 4 4 c -4 4 c -4 -4 c 79 -38 5798 7484 l 0 53 5798 7431 l 0 42 5798 7514 l 30 -23 c 0 11 c
4 8 c 3 4 c 12 4 c 7 0 c 12 -4 c 7 -8 c 4 -11 c 0 -11 c -4 -12 c -4 -4 c -7 -3 c 0 41 5798 7590 l 30 -22 c 0 11 c 4 8 c 3 3 c 12 4 c
7 0 c 12 -4 c 7 -7 c 4 -12 c 0 -11 c -4 -11 c -4 -4 c -7 -4 c 0 -250 6189 1579 l 53 -38 6145 1689 l 0 56 c 79 0 6145 1689 l
0 -38 6145 1772 l 34 -4 c -4 4 c -4 11 c 0 12 c 4 11 c 8 8 c 11 3 c 8 0 c 11 -3 c 8 -8 c 3 -11 c 0 -12 c -3 -11 c -4 -4 c -8 -4 c
-4 8 6160 1813 l -11 11 c 79 0 c 0 42 6145 1885 l 30 -23 c 0 11 c 4 8 c 4 4 c 11 3 c 8 0 c 11 -3 c 8 -8 c 3 -11 c 0 -12 c -3 -11 c
-4 -4 c -8 -3 c 4 -4 6217 1961 l 3 4 c -3 3 c -4 -3 c -4 0 6164 1995 l -7 4 c -4 3 c -4 8 c 0 15 c 4 8 c 4 3 c 7 4 c 8 0 c 7 -4 c
12 -7 c 37 -38 c 0 53 c -4 0 6164 2070 l -7 4 c -4 4 c -4 7 c 0 16 c 4 7 c 4 4 c 7 4 c 8 0 c 7 -4 c 12 -8 c 37 -37 c 0 52 c
0 41 6145 2150 l 30 -22 c 0 11 c 4 7 c 4 4 c 11 4 c 8 0 c 11 -4 c 8 -7 c 3 -12 c 0 -11 c -3 -11 c -4 -4 c -8 -4 c 0 -250 6252 1549 l
53 -38 6209 1658 l 0 57 c 79 0 6209 1658 l 0 -37 6209 1741 l 34 -4 c -4 4 c -4 11 c 0 11 c 4 12 c 8 7 c 11 4 c 8 0 c 11 -4 c 7 -7 c
4 -12 c 0 -11 c -4 -11 c -3 -4 c -8 -4 c -4 7 6224 1783 l -11 12 c 79 0 c 0 41 6209 1855 l 30 -22 c 0 11 c 4 7 c 4 4 c 11 4 c 8 0 c
11 -4 c 7 -7 c 4 -12 c 0 -11 c -4 -11 c -3 -4 c -8 -4 c 3 -3 6281 1930 l 4 3 c -4 4 c -3 -4 c -7 -4 6220 2010 l -4 -11 c 0 -8 c
4 -11 c 11 -8 c 19 -4 c 19 0 c 15 4 c 7 8 c 4 11 c 0 4 c -4 11 c -7 8 c -11 3 c -4 0 c -12 -3 c -7 -8 c -4 -11 c 0 -4 c 4 -11 c
7 -8 c 12 -4 c 4 -11 6209 2055 l 7 -4 c 8 0 c 7 4 c 4 7 c 4 15 c 4 12 c 7 7 c 8 4 c 11 0 c 8 -4 c 3 -4 c 4 -11 c 0 -15 c -4 -11 c
-3 -4 c -8 -4 c -11 0 c -8 4 c -7 7 c -4 12 c -4 15 c -4 7 c -7 4 c -8 0 c -7 -4 c -4 -11 c 0 -15 c 4 -11 6209 2134 l 11 -8 c
19 -3 c 11 0 c 19 3 c 11 8 c 4 11 c 0 8 c -4 11 c -11 8 c -19 4 c -11 0 c -19 -4 c -11 -8 c -4 -11 c 0 -8 c 0 -250 6454 3486 l
52 -38 6411 3595 l 0 57 c 79 0 6411 3595 l 0 -37 6411 3678 l 34 -4 c -4 4 c -4 11 c 0 11 c 4 12 c 7 7 c 12 4 c 7 0 c 12 -4 c 7 -7 c
4 -12 c 0 -11 c -4 -11 c -4 -4 c -7 -4 c -4 7 6426 3720 l -11 12 c 79 0 c 0 -38 6411 3830 l 34 -4 c -4 4 c -4 11 c 0 11 c 4 12 c
7 7 c 12 4 c 7 0 c 12 -4 c 7 -7 c 4 -12 c 0 -11 c -4 -11 c -4 -4 c -7 -4 c 4 -3 6482 3867 l 4 3 c -4 4 c -4 -4 c -4 7 6426 3909 l
-11 12 c 79 0 c -4 7 6426 3985 l -11 11 c 79 0 c 3 -12 6411 4068 l 8 -3 c 7 0 c 8 3 c 4 8 c 4 15 c 3 11 c 8 8 c 7 4 c 12 0 c 7 -4 c
4 -4 c 4 -11 c 0 -15 c -4 -12 c -4 -3 c -7 -4 c -12 0 c -7 4 c -8 7 c -3 11 c -4 16 c -4 7 c -8 4 c -7 0 c -8 -4 c -3 -11 c 0 -15 c
0 -249 7039 1732 l 53 -38 6995 1842 l 0 57 c 79 0 6995 1842 l 0 -38 6995 1925 l 34 -3 c -4 3 c -4 12 c 0 11 c 4 11 c 8 8 c 11 4 c
8 0 c 11 -4 c 7 -8 c 4 -11 c 0 -11 c -4 -12 c -3 -3 c -8 -4 c -4 7 7010 1967 l -11 12 c 79 0 c 12 -4 7021 2080 l 7 -7 c 4 -12 c
0 -3 c -4 -12 c -7 -7 c -12 -4 c -3 0 c -12 4 c -7 7 c -4 12 c 0 3 c 4 12 c 7 7 c 15 4 c 19 0 c 19 -4 c 11 -7 c 4 -12 c 0 -7 c
-4 -11 c -7 -4 c 3 -4 7067 2114 l 4 4 c -4 4 c -3 -4 c -4 0 7014 2148 l -8 4 c -3 4 c -4 7 c 0 15 c 4 8 c 3 4 c 8 4 c 8 0 c 7 -4 c
11 -8 c 38 -38 c 0 53 c 0 -37 6995 2265 l 34 -4 c -4 4 c -4 11 c 0 11 c 4 12 c 8 7 c 11 4 c 8 0 c 11 -4 c 7 -7 c 4 -12 c 0 -11 c
-4 -11 c -3 -4 c -8 -4 c 12 -4 7021 2345 l 7 -8 c 4 -11 c 0 -4 c -4 -11 c -7 -8 c -12 -3 c -3 0 c -12 3 c -7 8 c -4 11 c 0 4 c
4 11 c 7 8 c 15 4 c 19 0 c 19 -4 c 11 -8 c 4 -11 c 0 -8 c -4 -11 c -7 -4 c 0 -249 7314 2677 l 53 -38 7271 2787 l 0 57 c
79 0 7271 2787 l 0 -38 7271 2870 l 34 -4 c -4 4 c -4 12 c 0 11 c 4 11 c 7 8 c 12 4 c 7 0 c 12 -4 c 7 -8 c 4 -11 c 0 -11 c -4 -12 c
-3 -4 c -8 -3 c -4 0 7290 2904 l -8 4 c -4 4 c -3 7 c 0 15 c 3 8 c 4 4 c 8 3 c 7 0 c 8 -3 c 11 -8 c 38 -38 c 0 53 c -4 8 7286 2987 l
-11 11 c 79 0 c 3 -4 7343 3059 l 4 4 c -4 4 c -3 -4 c -4 7 7286 3101 l -11 12 c 79 0 c 11 -4 7297 3214 l 8 -7 c 4 -12 c 0 -3 c
-4 -12 c -8 -7 c -11 -4 c -4 0 c -11 4 c -8 7 c -3 12 c 0 3 c 3 12 c 8 7 c 15 4 c 19 0 c 19 -4 c 11 -7 c 4 -12 c 0 -7 c -4 -12 c
-7 -3 c 53 -38 7271 3278 l 0 57 c 79 0 7271 3278 l 0 -249 7474 2694 l 53 -38 7431 2804 l 0 57 c 79 0 7431 2804 l 0 -38 7431 2887 l
34 -4 c -4 4 c -4 12 c 0 11 c 4 11 c 8 8 c 11 4 c 8 0 c 11 -4 c 7 -8 c 4 -11 c 0 -11 c -4 -12 c -3 -4 c -8 -3 c -4 0 7450 2921 l
-8 4 c -3 4 c -4 7 c 0 15 c 4 8 c 3 4 c 8 3 c 8 0 c 7 -3 c 11 -8 c 38 -38 c 0 53 c -4 0 7450 2997 l -8 3 c -3 4 c -4 8 c 0 15 c
4 7 c 3 4 c 8 4 c 8 0 c 7 -4 c 11 -7 c 38 -38 c 0 53 c 3 -4 7503 3076 l 4 4 c -4 4 c -3 -4 c 0 41 7431 3114 l 30 -22 c 0 11 c 4 8 c
4 3 c 11 4 c 8 0 c 11 -4 c 7 -7 c 4 -12 c 0 -11 c -4 -11 c -3 -4 c -8 -4 c -4 0 7450 3186 l -8 3 c -3 4 c -4 8 c 0 15 c 4 7 c 3 4 c
8 4 c 8 0 c 7 -4 c 11 -7 c 38 -38 c 0 53 c 0 42 7431 3265 l 30 -23 c 0 11 c 4 8 c 4 4 c 11 3 c 8 0 c 11 -3 c 7 -8 c 4 -11 c 0 -12 c
-4 -11 c -3 -4 c -8 -4 c 0 -249 8912 1708 l 53 -38 8868 1818 l 0 57 c 80 0 8868 1818 l 0 -38 8868 1901 l 34 -3 c -3 3 c -4 12 c
0 11 c 4 11 c 7 8 c 12 4 c 7 0 c 11 -4 c 8 -8 c 4 -11 c 0 -11 c -4 -12 c -4 -3 c -7 -4 c 0 42 8868 1939 l 31 -23 c 0 11 c 3 8 c
4 4 c 12 3 c 7 0 c 11 -3 c 8 -8 c 4 -11 c 0 -12 c -4 -11 c -4 -4 c -7 -4 c -4 0 8887 2011 l -7 4 c -4 3 c -4 8 c 0 15 c 4 8 c 4 3 c
7 4 c 8 0 c 8 -4 c 11 -7 c 38 -38 c 0 53 c 4 -4 8940 2090 l 4 4 c -4 4 c -4 -4 c -4 0 8887 2124 l -7 4 c -4 4 c -4 7 c 0 15 c 4 8 c
4 4 c 7 4 c 8 0 c 8 -4 c 11 -8 c 38 -38 c 0 53 c 0 -37 8868 2241 l 34 -4 c -3 4 c -4 11 c 0 11 c 4 12 c 7 7 c 12 4 c 7 0 c 11 -4 c
8 -7 c 4 -12 c 0 -11 c -4 -11 c -4 -4 c -7 -4 c 4 -12 8868 2291 l 8 -4 c 7 0 c 8 4 c 4 8 c 3 15 c 4 11 c 8 8 c 7 4 c 12 0 c 7 -4 c
4 -4 c 4 -11 c 0 -15 c -4 -12 c -4 -4 c -7 -3 c -12 0 c -7 3 c -8 8 c -4 11 c -3 15 c -4 8 c -8 4 c -7 0 c -8 -4 c -4 -11 c 0 -15 c
0 -250 9185 1830 l 53 -37 9142 1939 l 0 56 c 79 0 9142 1939 l 0 -37 9142 2022 l 34 -4 c -4 4 c -4 11 c 0 11 c 4 12 c 8 7 c 11 4 c
7 0 c 12 -4 c 7 -7 c 4 -12 c 0 -11 c -4 -11 c -3 -4 c -8 -4 c 0 42 9142 2060 l 30 -23 c 0 12 c 4 7 c 4 4 c 11 4 c 7 0 c 12 -4 c
7 -8 c 4 -11 c 0 -11 c -4 -12 c -3 -4 c -8 -3 c 53 -38 9142 2166 l 0 57 c 79 0 9142 2166 l 3 -3 9214 2211 l 4 3 c -4 4 c -3 -4 c
-4 8 9157 2253 l -11 11 c 79 0 c -4 0 9161 2321 l -8 4 c -3 4 c -4 7 c 0 15 c 4 8 c 3 4 c 8 3 c 7 0 c 8 -3 c 11 -8 c 38 -38 c 0 53 c
4 -12 9142 2416 l 11 -7 c 19 -4 c 11 0 c 19 4 c 11 7 c 4 12 c 0 7 c -4 11 c -11 8 c -19 4 c -11 0 c -19 -4 c -11 -8 c -4 -11 c
0 -7 c 0 -249 9353 1698 l 53 -38 9309 1808 l 0 57 c 80 0 9309 1808 l 0 -38 9309 1891 l 34 -4 c -3 4 c -4 12 c 0 11 c 4 11 c 7 8 c
11 4 c 8 0 c 11 -4 c 8 -8 c 4 -11 c 0 -11 c -4 -12 c -4 -4 c -7 -3 c 0 41 9309 1929 l 31 -22 c 0 11 c 3 8 c 4 3 c 11 4 c 8 0 c
11 -4 c 8 -7 c 4 -12 c 0 -11 c -4 -11 c -4 -4 c -7 -4 c 0 -38 9309 2042 l 34 -3 c -3 3 c -4 12 c 0 11 c 4 11 c 7 8 c 11 4 c 8 0 c
11 -4 c 8 -8 c 4 -11 c 0 -11 c -4 -12 c -4 -3 c -7 -4 c 4 -4 9381 2080 l 4 4 c -4 4 c -4 -4 c -4 0 9328 2114 l -7 4 c -4 4 c -4 7 c
0 15 c 4 8 c 4 4 c 7 3 c 8 0 c 8 -3 c 11 -8 c 38 -38 c 0 53 c 0 -38 9309 2231 l 34 -3 c -3 3 c -4 12 c 0 11 c 4 11 c 7 8 c 11 4 c
8 0 c 11 -4 c 8 -8 c 4 -11 c 0 -11 c -4 -12 c -4 -3 c -7 -4 c 0 -38 9309 2307 l 34 -4 c -3 4 c -4 11 c 0 12 c 4 11 c 7 7 c 11 4 c
8 0 c 11 -4 c 8 -7 c 4 -11 c 0 -12 c -4 -11 c -4 -4 c -7 -4 c
showpage PGPLOT restore
 
%%Trailer
%%DocumentFonts: 
%%Pages: 1
%%EOF
