%!PS-Adobe-3.0 EPSF-3.0
%%For: tom
%%Title: PGPLOT PostScript plot
%%Creator: PGPLOT
%%CreationDate:  9-Nov-1994 13:47
%%BoundingBox: 25 18 587 774
%%DocumentFonts: (atend)
%%LanguageLevel: 1
%%Orientation: Landscape
%%Pages: (atend)
%%EndComments
%%BeginProlog
/l {moveto rlineto currentpoint stroke moveto} bind def
/c {rlineto currentpoint stroke moveto} bind def
/d {moveto 0 0 rlineto currentpoint stroke moveto} bind def
/SLW {5 mul setlinewidth} bind def
/SCF /pop load def
/BP {newpath moveto} bind def
/LP /rlineto load def
/EP {rlineto closepath eofill} bind def
/MB {gsave translate MFAC dup scale 1 setlinewidth 2 setlinecap 0 setlinejoin newpath} bind def
/ME /grestore load def
/C {0 360 arc stroke} bind def
/FC {0 360 arc fill} bind def
%%EndProlog
 
%%Page: 1 1
%%BeginPageSetup
/PGPLOT save def
0.072 0.072 scale
8150 250 translate 90 rotate
1 setlinejoin 1 setlinecap 1 SLW 1 SCF
%%EndPageSetup
0.00 setgray 1 SLW 8939 0 780 780 l 0 6239 c -8939 0 c 0 -6239 c 0 -45 1116 780 l 0 -45 1554 780 l 0 -45 1991 780 l 0 -45 2428 780 l
0 -90 2865 780 l 0 -45 3302 780 l 0 -45 3739 780 l 0 -45 4176 780 l 0 -45 4613 780 l 0 -90 5051 780 l 0 -45 5488 780 l
0 -45 5925 780 l 0 -45 6362 780 l 0 -45 6799 780 l 0 -90 7236 780 l 0 -45 7673 780 l 0 -45 8110 780 l 0 -45 8548 780 l
0 -45 8985 780 l 0 -90 9422 780 l 0 -45 1116 7064 l 0 -45 1554 7064 l 0 -45 1991 7064 l 0 -45 2428 7064 l 0 -90 2865 7109 l
0 -45 3302 7064 l 0 -45 3739 7064 l 0 -45 4176 7064 l 0 -45 4613 7064 l 0 -90 5051 7109 l 0 -45 5488 7064 l 0 -45 5925 7064 l
0 -45 6362 7064 l 0 -45 6799 7064 l 0 -90 7236 7109 l 0 -45 7673 7064 l 0 -45 8110 7064 l 0 -45 8548 7064 l 0 -45 8985 7064 l
0 -90 9422 7109 l -60 0 2775 672 l -6 -54 c 6 6 c 18 6 c 18 0 c 18 -6 c 12 -12 c 6 -18 c 0 -12 c -6 -18 c -12 -12 c -18 -6 c -18 0 c
-18 6 c -6 6 c -6 12 c -18 -6 2859 672 l -12 -18 c -6 -30 c 0 -18 c 6 -30 c 12 -18 c 18 -6 c 12 0 c 18 6 c 12 18 c 6 30 c 0 18 c
-6 30 c -12 18 c -18 6 c -12 0 c -18 -6 2979 672 l -12 -18 c -6 -30 c 0 -18 c 6 -30 c 12 -18 c 18 -6 c 12 0 c 18 6 c 12 18 c 6 30 c
0 18 c -6 30 c -12 18 c -18 6 c -12 0 c 12 6 4847 648 l 18 18 c 0 -126 c -18 -6 4985 672 l -12 -18 c -6 -30 c 0 -18 c 6 -30 c
12 -18 c 18 -6 c 12 0 c 18 6 c 12 18 c 6 30 c 0 18 c -6 30 c -12 18 c -18 6 c -12 0 c -18 -6 5105 672 l -12 -18 c -6 -30 c 0 -18 c
6 -30 c 12 -18 c 18 -6 c 12 0 c 18 6 c 12 18 c 6 30 c 0 18 c -6 30 c -12 18 c -18 6 c -12 0 c -18 -6 5225 672 l -12 -18 c -6 -30 c
0 -18 c 6 -30 c 12 -18 c 18 -6 c 12 0 c 18 6 c 12 18 c 6 30 c 0 18 c -6 30 c -12 18 c -18 6 c -12 0 c 12 6 7032 648 l 18 18 c
0 -126 c -60 0 7206 672 l -6 -54 c 6 6 c 18 6 c 18 0 c 18 -6 c 12 -12 c 6 -18 c 0 -12 c -6 -18 c -12 -12 c -18 -6 c -18 0 c -18 6 c
-6 6 c -6 12 c -18 -6 7290 672 l -12 -18 c -6 -30 c 0 -18 c 6 -30 c 12 -18 c 18 -6 c 12 0 c 18 6 c 12 18 c 6 30 c 0 18 c -6 30 c
-12 18 c -18 6 c -12 0 c -18 -6 7410 672 l -12 -18 c -6 -30 c 0 -18 c 6 -30 c 12 -18 c 18 -6 c 12 0 c 18 6 c 12 18 c 6 30 c 0 18 c
-6 30 c -12 18 c -18 6 c -12 0 c 0 6 9206 642 l 6 12 c 6 6 c 12 6 c 24 0 c 12 -6 c 6 -6 c 6 -12 c 0 -12 c -6 -12 c -12 -18 c
-60 -60 c 84 0 c -18 -6 9356 672 l -12 -18 c -6 -30 c 0 -18 c 6 -30 c 12 -18 c 18 -6 c 12 0 c 18 6 c 12 18 c 6 30 c 0 18 c -6 30 c
-12 18 c -18 6 c -12 0 c -18 -6 9476 672 l -12 -18 c -6 -30 c 0 -18 c 6 -30 c 12 -18 c 18 -6 c 12 0 c 18 6 c 12 18 c 6 30 c 0 18 c
-6 30 c -12 18 c -18 6 c -12 0 c -18 -6 9596 672 l -12 -18 c -6 -30 c 0 -18 c 6 -30 c 12 -18 c 18 -6 c 12 0 c 18 6 c 12 18 c 6 30 c
0 18 c -6 30 c -12 18 c -18 6 c -12 0 c -90 0 780 780 l -45 0 780 1714 l -90 0 780 2647 l -45 0 780 3581 l -90 0 780 4515 l
-45 0 780 5449 l -90 0 780 6383 l -90 0 9809 780 l -45 0 9764 1714 l -90 0 9809 2647 l -45 0 9764 3581 l -90 0 9809 4515 l
-45 0 9764 5449 l -90 0 9809 6383 l 6 -18 517 774 l 18 -12 c 30 -6 c 18 0 c 30 6 c 18 12 c 6 18 c 0 12 c -6 18 c -18 12 c -30 6 c
-18 0 c -30 -6 c -18 -12 c -6 -18 c 0 -12 c -6 0 547 2389 l -12 6 c -6 6 c -6 12 c 0 24 c 6 12 c 6 6 c 12 6 c 12 0 c 12 -6 c
18 -12 c 60 -60 c 0 84 c 84 84 547 2509 l 84 -84 547 2593 l -6 12 541 2653 l -18 18 c 126 0 c 6 -18 517 2791 l 18 -12 c 30 -6 c
18 0 c 30 6 c 18 12 c 6 18 c 0 12 c -6 18 c -18 12 c -30 6 c -18 0 c -30 -6 c -18 -12 c -6 -18 c 0 -12 c 63 -45 453 2916 l 0 67 c
94 0 453 2916 l 84 -60 517 4311 l 0 90 c 126 0 517 4311 l 84 84 547 4377 l 84 -84 547 4461 l -6 12 541 4521 l -18 18 c 126 0 c
6 -18 517 4659 l 18 -12 c 30 -6 c 18 0 c 30 6 c 18 12 c 6 18 c 0 12 c -6 18 c -18 12 c -30 6 c -18 0 c -30 -6 c -18 -12 c -6 -18 c
0 -12 c 63 -45 453 4783 l 0 68 c 94 0 453 4783 l -12 -6 535 6197 l -6 -18 c 0 -12 c 6 -18 c 18 -12 c 30 -6 c 30 0 c 24 6 c 12 12 c
6 18 c 0 6 c -6 18 c -12 12 c -18 6 c -6 0 c -18 -6 c -12 -12 c -6 -18 c 0 -6 c 6 -18 c 12 -12 c 18 -6 c 84 84 547 6245 l
84 -84 547 6329 l -6 12 541 6389 l -18 18 c 126 0 c 6 -18 517 6527 l 18 -12 c 30 -6 c 18 0 c 30 6 c 18 12 c 6 18 c 0 12 c -6 18 c
-18 12 c -30 6 c -18 0 c -30 -6 c -18 -12 c -6 -18 c 0 -12 c 63 -45 453 6651 l 0 68 c 94 0 453 6651 l
4 16 780 947 l 5 -1 c 4 -3 c 4 92 c 5 32 c 4 -22 c 4 -112 c 5 -126 c 4 -20 c 5 0 c 4 2 c 4 2 c 5 6 c 4 21 c 4 48 c 5 46 c 4 12 c
5 30 c 4 127 c 4 509 c 5 1587 c 4 3472 c 4 144 c 5 -29 c 4 -1587 c 5 -3320 c 4 -799 c 4 -153 c 5 -66 c 4 -25 c 4 -11 c 5 -6 c 4 -6 c
5 -3 c 4 -4 c 4 0 c 5 -1 c 4 -1 c 4 -2 c 5 -1 c 4 0 c 4 0 c 5 -1 c 4 0 c 5 0 c 4 0 c 4 -1 c 5 0 c 4 0 c 4 0 c 5 -1 c 4 0 c 5 0 c
4 0 c 4 0 c 5 0 c 4 -1 c 4 0 c 5 0 c 4 0 c 5 0 c 4 0 c 4 1 c 5 2 c 4 1 c 4 0 c 5 0 c 4 -3 c 5 -1 c 4 0 c 4 0 c 5 0 c 4 1 c 4 -1 c
5 -1 c 4 0 c 4 0 c 5 0 c 4 1 c 5 0 c 4 0 c 4 0 c 5 0 c 4 -11 c 5 24 1151 780 l 4 7 c 5 -1 c 4 -6 c 4 -8 c 5 -1 c 4 -1 c 4 0 c 5 -1 c
4 -1 c 5 1 c 4 0 c 4 2 c 5 5 c 4 21 c 4 63 c 5 197 c 4 98 c 5 -13 c 4 -103 c 4 -211 c 5 -52 c 4 -3 c 4 -1 c 5 4 c 4 7 c 4 -1 c
5 -2 c 4 -8 c 5 -5 c 4 -1 c 4 0 c 5 2 c 4 4 c 4 11 c 5 3 c 4 0 c 5 -6 c 4 -7 c 4 5 c 5 4 c 4 8 c 4 11 c 5 -1 c 4 14 c 5 9 c 4 -9 c
4 -9 c 5 -25 c 4 -12 c 4 -1 c 5 -1 c 4 1 c 5 1 c 4 4 c 4 3 c 5 1 c 4 0 c 4 -4 c 5 -3 c 4 0 c 4 -2 c 5 -1 c 4 0 c 5 0 c 4 1 c 4 -1 c
5 0 c 4 0 c 4 0 c 5 2 c 4 0 c 5 1 c 4 -1 c 4 -1 c 5 -1 c 4 1 c 4 1 c 5 0 c 4 0 c 5 -1 c 4 0 c 4 0 c 5 1 c 4 0 c 4 1 c 5 0 c 4 1 c
4 0 c 5 1 c 4 2 c 5 0 c 4 5 c 4 12 c 5 76 c 4 280 c 4 1069 c 5 557 c 4 -21 c 5 -476 c 4 -1191 c 4 -284 c 5 -21 c 4 -3 c 4 -1 c
5 -1 c 4 -1 c 5 0 c 4 -1 c 4 1 c 5 0 c 4 1 c 4 2 c 5 13 c 4 58 c 5 221 c 4 487 c 4 150 c 5 -67 c 4 -324 c 4 -432 c 5 -72 c 4 35 c
4 11 c 5 -5 c 4 -25 c 5 -47 c 4 -8 c 4 -2 c 5 0 c 4 0 c 4 0 c 5 -1 c 4 1 c 5 1 c 4 1 c 4 -1 c 5 -1 c 4 -1 c 4 0 c 5 0 c 4 1 c 5 -1 c
4 1 c 4 -1 c 5 0 c 4 0 c 4 -1 c 5 1 c 4 0 c 5 0 c 4 0 c 4 0 c 5 1 c 4 0 c 4 0 c 5 -1 c 4 0 c 4 0 c 5 2 c 4 1 c 5 5 c 4 6 c 4 -1 c
5 -2 c 4 -6 c 4 -4 c 5 0 c 4 2 c 5 3 c 4 0 c 4 -1 c 5 -2 c 4 0 c 4 1 c 5 0 c 4 -1 c 5 -3 c 4 0 c 4 0 c 5 0 c 4 0 c 4 1 c 5 1 c 4 3 c
5 3 c 4 0 c 4 0 c 5 -2 c 4 2 c 4 3 c 5 17 c 4 89 c 4 386 c 5 742 c 4 242 c 5 -79 c 4 -574 c 4 -652 c 5 -123 c 4 -18 c 4 -7 c 5 -12 c
4 -15 c 5 -3 c 4 -1 c 4 -1 c 5 0 c 4 1 c 4 0 c 5 4 c 4 12 c 5 7 c 4 -2 c 4 -5 c 5 -13 c 4 -1 c 4 1 c 5 0 c 4 -2 c 5 2 c 4 17 c
4 20 c 5 1 c 4 -6 c 4 -24 c 5 -13 c 4 -1 c 4 0 c 5 0 c 4 2 c 5 1 c 4 0 c 4 0 c 5 -2 c 4 0 c 4 -1 c 5 0 c 4 0 c 5 -1 c 4 0 c 4 0 c
5 0 c 4 1 c 4 0 c 5 0 c 4 0 c 5 -1 c 4 0 c 4 0 c 5 0 c 4 0 c 4 0 c 5 0 c 4 2 c 4 2 c 5 5 c 4 1 c 5 0 c 4 -4 c 4 -4 c 5 -1 c 4 0 c
4 0 c 5 0 c 4 0 c 5 1 c 4 0 c 4 1 c 5 0 c 4 0 c 4 0 c 5 0 c 4 0 c 5 2 c 4 3 c 4 1 c 5 0 c 4 -5 c 4 -2 c 5 -1 c 4 0 c 5 0 c 4 0 c
4 0 c 5 -1 c 4 2 c 4 7 c 5 4 c 4 1 c 4 -3 c 5 -6 c 4 -4 c 5 0 c 4 1 c 4 -1 c 5 1 c 4 0 c 4 -1 c 5 -1 c 4 1 c 5 1 c 4 2 c 4 -1 c
5 0 c 4 -1 c 4 -1 c 5 1 c 4 0 c 5 0 c 4 1 c 4 0 c 5 2 c 4 9 c 4 78 c 5 249 c 4 113 c 5 -16 c 4 -119 c 4 -244 c 5 -65 c 4 6 c 4 54 c
5 79 c 4 18 c 4 -13 c 5 -73 c 4 -71 c 5 -5 c 4 2 c 4 3 c 5 0 c 4 -1 c 4 -5 c 5 -2 c 4 -1 c 5 0 c 4 0 c 4 0 c 5 0 c 4 0 c 4 0 c 5 0 c
4 0 c 5 3 c 4 6 c 4 8 c 5 1 c 4 -2 c 4 -7 c 5 -5 c 4 -1 c 5 3 c 4 1 c 4 -1 c 5 0 c 4 -4 c 4 -1 c 5 -1 c 4 0 c 4 0 c 5 0 c 4 0 c
5 0 c 4 0 c 4 0 c 5 2 c 4 11 c 4 8 c 5 0 c 4 -4 c 5 -13 c 4 -4 c 4 0 c 5 1 c 4 0 c 4 0 c 5 0 c 4 0 c 5 -1 c 4 0 c 4 0 c 5 0 c 4 1 c
4 4 c 5 3 c 4 1 c 4 -2 c 5 -4 c 4 -2 c 5 0 c 4 0 c 4 0 c 5 0 c 4 -1 c 4 1 c 5 -1 c 4 0 c 5 0 c 4 0 c 4 0 c 5 1 c 4 1 c 4 1 c 5 0 c
4 -1 c 5 -2 c 4 0 c 4 0 c 5 0 c 4 0 c 4 1 c 5 1 c 4 0 c 5 1 c 4 1 c 4 3 c 5 1 c 4 0 c 4 -2 c 5 -1 c 4 22 c 4 99 c 5 48 c 4 10 c
5 -39 c 4 -100 c 4 -32 c 5 -4 c 4 1 c 4 0 c 5 -4 c 4 -1 c 5 -2 c 4 -1 c 4 -1 c 5 -1 c 4 0 c 4 0 c 5 1 c 4 0 c 5 2 c 4 1 c 4 1 c
5 -1 c 4 -1 c 4 -1 c 5 4 c 4 16 c 5 8 c 4 -1 c 4 -6 c 5 -17 c 4 -4 c 4 0 c 5 -1 c 4 3 c 4 3 c 5 2 c 4 -1 c 5 -2 c 4 -1 c 4 6 c 5 6 c
4 55 c 4 87 c 5 17 c 4 -5 c 5 -71 c 4 -88 c 4 -9 c 5 -1 c 4 1 c 4 1 c 5 0 c 4 0 c 5 0 c 4 0 c 4 1 c 5 2 c 4 0 c 4 -1 c 5 0 c 4 2 c
5 24 c 4 100 c 4 47 c 5 7 c 4 -33 c 4 -107 c 5 -35 c 4 -1 c 4 0 c 5 1 c 4 2 c 5 -1 c 4 1 c 4 1 c 5 0 c 4 3 c 4 3 c 5 3 c 4 4 c 5 5 c
4 3 c 4 12 c 5 33 c 4 160 c 4 220 c 5 71 c 4 79 c 5 87 c 4 1568 c 4 3754 c 5 -1 c 4 5 c 4 -6 c 5 28 c 4 -4005 c 5 -1410 c 4 -326 c
4 -128 c 5 -25 c 4 2 c 4 -19 c 5 -19 c 4 -51 c 4 -29 c 5 -3 c 4 4 c 5 -3 c 4 -2 c 4 -7 c 5 -6 c 4 -3 c 4 0 c 5 0 c 4 -1 c 5 -2 c
4 0 c 4 0 c 5 1 c 4 1 c 4 1 c 5 2 c 4 17 c 5 10 c 4 0 c 4 -7 c 5 -20 c 4 -8 c 4 -2 c 5 0 c 4 0 c 4 0 c 5 -1 c 4 0 c 5 0 c 4 0 c
4 1 c 5 1 c 4 2 c 4 8 c 5 33 c 4 46 c 5 17 c 4 -9 c 4 -42 c 5 -40 c 4 -12 c 4 -4 c 5 0 c 4 -1 c 5 0 c 4 0 c 4 0 c 5 1 c 4 0 c 4 2 c
5 6 c 4 12 c 5 136 c 4 495 c 4 242 c 5 6 c 4 -213 c 4 -513 c 5 -157 c 4 -14 c 4 -2 c 5 0 c 4 3 c 5 2 c 4 1 c 4 -3 c 5 -2 c 4 -3 c
4 0 c 5 1 c 4 0 c 5 0 c 4 4 c 4 61 c 5 128 c 4 45 c 4 -2 c 5 -84 c 4 -122 c 5 -30 c 4 -2 c 4 0 c 5 -1 c 4 1 c 4 -1 c 5 0 c 4 0 c
5 0 c 4 0 c 4 0 c 5 0 c 4 -1 c 4 1 c 5 0 c 4 1 c 4 3 c 5 3 c 4 1 c 5 2 c 4 -1 c 4 -1 c 5 5 c 4 4 c 4 3 c 5 15 c 4 138 c 5 150 c
4 35 c 4 -29 c 5 -170 c 4 -131 c 4 -16 c 5 -1 c 4 7 c 5 13 c 4 3 c 4 3 c 5 -1 c 4 -9 c 4 -1 c 5 -1 c 4 1 c 5 3 c 4 0 c 4 -7 c 5 -9 c
4 -4 c 4 -3 c 5 -2 c 4 -2 c 4 -2 c 5 0 c 4 0 c 5 0 c 4 1 c 4 0 c 5 0 c 4 0 c 4 -1 c 5 -1 c 4 1 c 5 -1 c 4 0 c 4 0 c 5 1 c 4 0 c
4 1 c 5 18 c 4 99 c 5 67 c 4 17 c 4 -22 c 5 -109 c 4 -62 c 4 -5 c 5 1 c 4 9 c 5 105 c 4 142 c 4 48 c 5 -9 c 4 -131 c 4 -138 c
5 -28 c 4 -2 c 4 0 c 5 1 c 4 2 c 5 5 c 4 3 c 4 -2 c 5 -4 c 4 -5 c 4 -2 c 5 6 c 4 2 c 5 1 c 4 -1 c 4 -6 c 5 -2 c 4 -1 c 4 0 c 5 1 c
4 -1 c 5 1 c 4 0 c 4 1 c 5 0 c 4 -1 c 4 0 c 5 1 c 4 10 c 4 10 c 5 3 c 4 0 c 5 -12 c 4 -9 c 4 -1 c 5 -1 c 4 0 c 4 -1 c 5 0 c 4 1 c
5 -1 c 4 0 c 4 0 c 5 1 c 4 0 c 4 0 c 5 0 c 4 -1 c 5 -1 c 4 0 c 4 0 c 5 0 c 4 0 c 4 1 c 5 1 c 4 2 c 5 1 c 4 -1 c 4 -2 c 5 -1 c 4 0 c
4 0 c 5 0 c 4 0 c 4 0 c 5 -1 c 4 0 c 5 0 c 4 0 c 4 0 c 5 0 c 4 0 c 4 1 c 5 3 c 4 0 c 5 0 c 4 -2 c 4 -1 c 5 0 c 4 0 c 4 0 c 5 0 c
4 0 c 5 0 c 4 0 c 4 2 c 5 1 c 4 -1 c 4 -1 c 5 -1 c 4 -1 c 5 0 c 4 0 c 4 0 c 5 0 c 4 0 c 4 0 c 5 0 c 4 0 c 4 1 c 5 0 c 4 1 c 5 0 c
4 3 c 4 6 c 5 2 c 4 0 c 4 -5 c 5 -5 c 4 -1 c 5 -1 c 4 1 c 4 1 c 5 -1 c 4 2 c 4 1 c 5 0 c 4 3 c 5 11 c 4 116 c 4 525 c 5 460 c
4 166 c 4 -46 c 5 -533 c 4 -369 c 5 -151 c 4 -125 c 4 -50 c 5 -6 c 4 -1 c 4 -2 c 5 2 c 4 0 c 4 -1 c 5 0 c 4 -1 c 5 -1 c 4 0 c 4 1 c
5 0 c 4 2 c 4 4 c 5 37 c 4 41 c 5 13 c 4 -1 c 4 -46 c 5 -38 c 4 -2 c 4 19 c 5 9 c 4 -1 c 5 -12 c 4 -20 c 4 -5 c 5 3 c 4 8 c 4 13 c
5 7 c 4 -2 c 5 -7 c 4 -14 c 4 -9 c 5 -1 c 4 1 c 4 0 c 5 1 c 4 15 c 4 38 c 5 31 c 4 93 c 5 135 c 4 24 c 4 -27 c 5 -123 c 4 -133 c
4 -48 c 5 -3 c 4 0 c 5 -1 c 4 -1 c 4 -16 c 5 14 c 4 2 c 4 4 c 5 6 c 4 6 c 5 0 c 4 -5 c 4 -6 c 5 -4 c 4 -3 c 4 2 c 5 1 c 4 0 c 4 0 c
5 -2 c 4 0 c 5 3 c 4 6 c 4 9 c 5 6 c 4 -3 c 4 -5 c 5 -10 c 4 -6 c 5 -1 c 4 -1 c 4 1 c 5 0 c 4 -1 c 4 0 c 5 0 c 4 1 c 5 0 c 4 0 c
4 -1 c 5 0 c 4 1 c 4 2 c 5 1 c 4 0 c 5 -1 c 4 0 c 4 -1 c 5 0 c 4 -2 c 4 0 c 5 0 c 4 2 c 4 9 c 5 10 c 4 5 c 5 0 c 4 -9 c 4 -9 c
5 -4 c 4 -2 c 4 4 c 5 16 c 4 11 c 5 5 c 4 -7 c 4 -13 c 5 -4 c 4 -1 c 4 0 c 5 -3 c 4 -6 c 5 -3 c 4 0 c 4 0 c 5 1 c 4 7 c 4 28 c
5 24 c 4 4 c 5 -7 c 4 -31 c 4 -19 c 5 1 c 4 52 c 4 97 c 5 46 c 4 2 c 4 -60 c 5 -79 c 4 17 c 5 41 c 4 13 c 4 -15 c 5 -66 c 4 -47 c
4 -8 c 5 -1 c 4 1 c 5 0 c 4 1 c 4 3 c 5 3 c 4 1 c 4 0 c 5 -4 c 4 -3 c 5 -1 c 4 -1 c 4 0 c 5 1 c 4 2 c 4 20 c 5 59 c 4 36 c 5 1 c
4 -24 c 4 -60 c 5 -30 c 4 -1 c 4 10 c 5 2 c 4 1 c 4 -5 c 5 -8 c 4 -1 c 5 10 c 4 13 c 4 5 c 5 0 c 4 -13 c 4 -13 c 5 -4 c 4 -1 c 5 0 c
4 0 c 4 -1 c 5 0 c 4 0 c 4 0 c 5 0 c 4 0 c 5 0 c 4 0 c 4 -1 c 5 1 c 4 3 c 4 4 c 5 1 c 4 -1 c 4 -4 c 5 -2 c 4 -1 c 5 1 c 4 0 c 4 0 c
5 -1 c 4 0 c 4 0 c 5 1 c 4 4 c 5 9 c 4 7 c 4 6 c 5 1 c 4 -9 c 4 -5 c 5 -2 c 4 1 c 5 0 c 4 -26 c 4 19 c 5 -3 c 4 -1 c 4 2 c 5 4 c
4 4 c 5 0 c 4 -1 c 4 -5 c 5 -1 c 4 18 c 4 86 c 5 69 c 4 26 c 4 -22 c 5 -86 c 4 -77 c 5 -16 c 4 0 c 4 0 c 5 3 c 4 16 c 4 23 c 5 9 c
4 -5 c 5 -18 c 4 -20 c 4 -7 c 5 1 c 4 4 c 4 3 c 5 2 c 4 -1 c 5 -4 c 4 -4 c 4 -1 c 5 1 c 4 2 c 4 25 c 5 111 c 4 96 c 5 33 c 4 -30 c
4 -107 c 5 -89 c 4 23 c 4 292 c 5 488 c 4 250 c 4 -21 c 5 -336 c 4 -457 c 5 -194 c 4 -34 c 4 -16 c 5 -22 c 4 -11 c 4 -3 c 5 0 c
4 0 c 5 -1 c 4 -1 c 4 0 c 5 1 c 4 9 c 4 11 c 5 3 c 4 -4 c 5 -11 c 4 -8 c 4 -1 c 5 2 c 4 1 c 4 2 c 5 1 c 4 9 c 5 13 c 4 3 c 4 -4 c
5 -9 c 4 -13 c 4 -4 c 5 0 c 4 0 c 4 -1 c 5 0 c 4 1 c 5 25 c 4 74 c 4 41 c 5 5 c 4 -24 c 4 -78 c 5 -38 c 4 -7 c 5 -1 c 4 -1 c 4 0 c
5 0 c 4 0 c 4 2 c 5 3 c 4 1 c 5 0 c 4 0 c 4 -1 c 5 10 c 4 8 c 4 3 c 5 -2 c 4 -12 c 5 -9 c 4 -2 c 4 0 c 5 1 c 4 2 c 4 4 c 5 1 c
4 -1 c 4 -3 c 5 -2 c 4 -2 c 5 0 c 4 1 c 4 0 c 5 1 c 4 2 c 4 6 c 5 5 c 4 1 c 5 0 c 4 -6 c 4 1 c 5 0 c 4 -1 c 4 -1 c 5 3 c 4 27 c
5 27 c 4 6 c 4 -8 c 5 -30 c 4 -20 c 4 -4 c 5 3 c 4 6 c 4 41 c 5 48 c 4 37 c 5 310 c 4 1224 c 4 830 c 5 212 c 4 -354 c 4 -1280 c
5 -885 c 4 -173 c 5 -14 c 4 -3 c 4 -1 c 5 -1 c 4 0 c 4 1 c 5 1 c 4 0 c 5 1 c 4 -3 c 4 -2 c 5 -2 c 4 -2 c 4 0 c 5 -2 c 4 0 c 5 1 c
4 0 c 4 0 c 5 1 c 4 0 c 4 -1 c 5 -1 c 4 -1 c 4 -1 c 5 0 c 4 0 c 5 0 c 4 0 c 4 0 c 5 0 c 4 0 c 4 1 c 5 0 c 4 0 c 5 0 c 4 0 c 4 0 c
5 0 c 4 0 c 4 1 c 5 1 c 4 -2 c 5 0 c 4 -1 c 4 1 c 5 -1 c 4 1 c 4 -15 c 5 25 c 4 11 c 5 42 c 4 34 c 4 4 c 5 -5 c 4 7 c 4 81 c 5 151 c
4 358 c 4 223 c 5 -78 c 4 -165 c 5 -375 c 4 -238 c 4 -48 c 5 0 c 4 -2 c 4 -2 c 5 -4 c 4 -1 c 5 0 c 4 0 c 4 -1 c 5 -1 c 4 -1 c 4 0 c
5 0 c 4 0 c 5 0 c 4 1 c 4 3 c 5 0 c 4 2 c 4 0 c 5 -1 c 4 0 c 5 -1 c 4 -2 c 4 0 c 5 0 c 4 -1 c 4 1 c 5 0 c 4 -2 c 4 -1 c 5 0 c 4 0 c
5 0 c 4 1 c 4 0 c 5 0 c 4 0 c 4 0 c 5 0 c 4 0 c 5 0 c 4 0 c 4 1 c 5 0 c 4 0 c 4 0 c 5 0 c 4 -2 c 5 0 c 4 1 c 4 2 c 5 1 c 4 0 c
4 -1 c 5 -2 c 4 -1 c 5 0 c 4 -1 c 4 0 c 5 1 c 4 1 c 4 0 c 5 0 c 4 -1 c 4 0 c 5 0 c 4 -1 c 5 0 c 4 0 c 4 0 c 5 0 c 4 0 c 4 0 c 5 0 c
4 0 c 5 0 c 4 1 c 4 1 c 5 2 c 4 2 c 4 0 c 5 0 c 4 -2 c 5 -2 c 4 1 c 4 -1 c 5 1 c 4 0 c 4 1 c 5 -1 c 4 0 c 4 1 c 5 2 c 4 2 c 5 1 c
4 3 c 4 2 c 5 10 c 4 29 c 4 188 c 5 710 c 4 682 c 5 157 c 4 -148 c 4 -729 c 5 -647 c 4 -179 c 4 -53 c 5 -15 c 4 -7 c 5 -4 c 4 -2 c
4 -1 c 5 0 c 4 0 c 4 -1 c 5 1 c 4 -2 c 5 0 c 4 0 c 4 0 c 5 0 c 4 1 c 4 2 c 5 2 c 4 -1 c 4 -2 c 5 0 c 4 19 c 5 31 c 4 9 c 4 -3 c
5 -19 c 4 -31 c 4 -8 c 5 -1 c 4 -1 c 5 0 c 4 1 c 4 0 c 5 0 c 4 0 c 4 2 c 5 0 c 4 4 c 5 36 c 4 210 c 4 198 c 5 49 c 4 -28 c 4 -214 c
5 -206 c 4 -45 c 5 -3 c 4 1 c 4 -1 c 5 0 c 4 -1 c 4 0 c 5 8 c 4 8 c 4 2 c 5 2 c 4 -9 c 5 -7 c 4 -3 c 4 -2 c 5 0 c 4 1 c 4 1 c 5 0 c
4 2 c 5 10 c 4 23 c 4 9 c 5 1 c 4 -10 c 4 -11 c 5 119 c 4 252 c 5 106 c 4 -1 c 4 -134 c 5 -233 c 4 -73 c 4 9 c 5 8 c 4 -9 c 5 9 c
4 320 c 4 593 c 5 178 c 4 -22 c 4 -350 c 5 -577 c 4 -186 c 4 -24 c 5 -6 c 4 -3 c 5 -1 c 4 0 c 4 -1 c 5 -1 c 4 0 c 4 0 c 5 0 c 4 3 c
5 0 c 4 1 c 4 -1 c 5 -3 c 4 -1 c 4 1 c 5 -1 c 4 0 c 5 0 c 4 -1 c 4 0 c 5 0 c 4 0 c 4 0 c 5 0 c 4 2 c 5 2 c 4 2 c 4 14 c 5 28 c
4 34 c 4 58 c 5 24 c 4 -24 c 4 -32 c 5 -62 c 4 -35 c 5 -2 c 4 1 c 4 -3 c 5 -1 c 4 -3 c 4 -2 c 5 1 c 4 1 c 5 0 c 4 -1 c 4 -1 c 5 0 c
4 -1 c 4 0 c 5 0 c 4 0 c 5 0 c 4 0 c 4 1 c 5 6 c 4 12 c 4 7 c 5 6 c 4 12 c 4 -1 c 5 0 c 4 -2 c 5 -15 c 4 -12 c 4 -5 c 5 -4 c 4 -3 c
4 -1 c 5 0 c 4 0 c 5 0 c 4 1 c 4 0 c 5 1 c 4 0 c 4 0 c 5 0 c 4 -1 c 5 0 c 4 -1 c 4 0 c 5 4 c 4 5 c 4 1 c 5 -1 c 4 -3 c 5 -6 c 4 -1 c
4 1 c 5 1 c 4 1 c 4 1 c 5 0 c 4 -2 c 4 0 c 5 -2 c 4 0 c 5 0 c 4 -1 c 4 1 c 5 2 c 4 1 c 4 7 c 5 25 c 4 14 c 5 -1 c 4 -7 c 4 -26 c
5 -14 c 4 -1 c 4 0 c 5 0 c 4 2 c 5 3 c 4 2 c 4 0 c 5 -1 c 4 -4 c 4 -1 c 5 0 c 4 -1 c 5 0 c 4 -1 c 4 0 c 5 -1 c 4 0 c 4 1 c 5 2 c
4 5 c 4 2 c 5 0 c 4 -1 c 5 -4 c 4 -2 c 4 2 c 5 0 c 4 1 c 4 -1 c 5 0 c 4 7 c 5 36 c 4 21 c 4 3 c 5 -8 c 4 -37 c 4 -22 c 5 -3 c 4 1 c
5 2 c 4 2 c 4 2 c 5 -1 c 4 -2 c 4 -2 c 5 -2 c 4 0 c 5 1 c 4 1 c 4 -1 c 5 0 c 4 -1 c 4 0 c 5 1 c 4 -1 c 4 1 c 5 9 c 4 18 c 5 4 c
4 -2 c 4 -8 c 5 -18 c 4 -4 c 4 0 c 5 1 c 4 0 c 5 1 c 4 2 c 4 0 c 5 -1 c 4 -2 c 4 -1 c 5 -1 c 4 0 c 5 -1 c 4 1 c 4 0 c 5 3 c 4 3 c
4 3 c 5 1 c 4 -2 c 4 -5 c 5 -2 c 4 0 c 5 2 c 4 0 c 4 0 c 5 -1 c 4 4 c 4 23 c 5 20 c 4 3 c 5 0 c 4 -4 c 4 56 c 5 33 c 4 2 c 4 -16 c
5 -76 c 4 -42 c 5 -3 c 4 0 c 4 1 c 5 2 c 4 1 c 4 0 c 5 5 c 4 4 c 5 7 c 4 7 c 4 0 c 5 28 c 4 200 c 4 187 c 5 28 c 4 -18 c 4 -192 c
5 -222 c 4 -31 c 5 5 c 4 20 c 4 17 c 5 1 c 4 -4 c 4 -21 c 5 -18 c 4 -6 c 5 -1 c 4 -1 c 4 0 c 5 -1 c 4 0 c 4 0 c 5 3 c 4 7 c 5 7 c
4 6 c 4 -2 c 5 -7 c 4 -7 c 4 -5 c 5 -1 c 4 0 c 5 -1 c 4 0 c 4 1 c 5 -1 c 4 0 c 4 2 c 5 2 c 4 1 c 4 2 c 5 -1 c 4 -1 c 5 -1 c 4 -2 c
4 -2 c 5 -1 c 4 0 c 4 1 c 5 0 c 4 0 c 5 0 c 4 0 c 4 0 c 5 4 c 4 3 c 4 1 c 5 -1 c 4 -3 c 5 -1 c 4 4 c 4 2 c 5 -1 c 4 -1 c 4 -4 c
5 -2 c 4 0 c 5 1 c 4 -1 c 4 0 c 5 0 c 4 0 c 4 -1 c 5 0 c 4 1 c 4 1 c 5 1 c 4 0 c 5 -1 c 4 -1 c 4 -1 c 5 -1 c 4 1 c 4 0 c 5 -1 c
4 0 c 5 0 c 4 1 c 4 0 c 5 4 c 4 14 c 4 8 c 5 1 c 4 -3 c 5 -12 c 4 -9 c 4 1 c 5 11 c 4 97 c 4 111 c 5 21 c 4 -7 c 5 -70 c 4 -134 c
4 -27 c 5 -4 c 4 -1 c 4 0 c 5 0 c 4 0 c 4 1 c 5 5 c 4 5 c 5 1 c 4 0 c 4 2 c 5 8 c 4 83 c 4 150 c 5 32 c 4 56 c 5 178 c 4 -47 c
4 -45 c 5 -47 c 4 -216 c 4 -132 c 5 -5 c 4 5 c 5 -1 c 4 -9 c 4 -8 c 5 -9 c 4 1 c 4 2 c 5 5 c 4 9 c 4 7 c 5 2 c 4 10 c 5 68 c 4 824 c
4 1789 c 5 459 c 4 -24 c 4 -601 c 5 -1848 c 4 -636 c 5 -50 c 4 -4 c 4 -3 c 5 -1 c 4 0 c 4 4 c 5 19 c 4 250 c 5 927 c 4 376 c 4 -9 c
5 -189 c 4 -861 c 4 -477 c 5 -44 c 4 -2 c 5 -3 c 4 -2 c 4 0 c 5 -2 c 4 1 c 4 1 c 5 10 c 4 4 c 4 0 c 5 -1 c 4 -8 c 5 -7 c 4 -1 c
4 0 c 5 -1 c 4 0 c 4 1 c 5 2 c 4 2 c 5 4 c 4 4 c 4 1 c 5 -2 c 4 -4 c 4 -5 c 5 -4 c 4 -1 c 5 1 c 4 5 c 4 4 c 5 1 c 4 0 c 4 -2 c
5 -4 c 4 0 c 5 3 c 4 2 c 4 -1 c 5 -1 c 4 -3 c 4 -4 c 5 -1 c 4 0 c 4 0 c 5 0 c 4 0 c 5 1 c 4 0 c 4 1 c 5 0 c 4 0 c 4 -1 c 5 0 c 4 0 c
5 0 c 4 0 c 4 0 c 5 0 c 4 4 c 4 4 c 5 1 c 4 1 c 5 -3 c 4 -5 c 4 -1 c 5 -1 c 4 -1 c 4 0 c
5 1 c 4 0 c 5 0 c 4 -1 c 4 -12 c 4 13 9549 780 l 4 0 c 5 1 c 4 0 c 4 0 c 5 1 c 4 0 c 5 -1 c 4 -2 c 4 0 c 5 -1 c 4 1 c 4 0 c 5 0 c
4 0 c 5 0 c 4 -1 c 4 3 c 5 11 c 4 10 c 4 1 c 5 -1 c 4 -8 c 5 -8 c 4 22 c 4 20 c 5 1 c 4 -1 c 4 -22 c 5 -23 c 4 -3 c 5 -1 c 4 0 c
4 -1 c 5 0 c 4 1 c 4 0 c 5 0 c 4 1 c
0 -126 3030 418 l 54 0 3030 418 l 18 -6 c 6 -6 c 6 -12 c 0 -12 c -6 -12 c -6 -6 c -18 -6 c -54 0 c 42 -66 3072 358 l
-12 -6 3180 376 l -12 -12 c -6 -18 c 0 -12 c 6 -18 c 12 -12 c 12 -6 c 18 0 c 12 6 c 12 12 c 6 18 c 0 12 c -6 18 c -12 12 c -12 6 c
-18 0 c 24 -84 3264 376 l -24 -84 3312 376 l 24 -84 3312 376 l -24 -84 3360 376 l 108 0 3402 364 l 108 0 3402 328 l 12 6 3666 394 l
18 18 c 0 -126 c -18 -6 3798 418 l -6 -12 c 0 -12 c 6 -12 c 12 -6 c 24 -6 c 18 -6 c 12 -12 c 6 -12 c 0 -18 c -6 -12 c -6 -6 c
-18 -6 c -24 0 c -18 6 c -6 6 c -6 12 c 0 18 c 6 12 c 12 12 c 18 6 c 24 6 c 12 6 c 6 12 c 0 12 c -6 12 c -18 6 c -24 0 c
12 6 4290 394 l 18 18 c 0 -126 c -6 -6 4404 376 l 6 -6 c 6 6 c -6 6 c -6 -6 4404 304 l 6 -6 c 6 6 c -6 6 c -48 -126 4584 418 l
48 -126 4584 418 l 60 0 4554 334 l 0 -84 4662 376 l 6 18 4662 340 l 12 12 c 12 6 c 18 0 c -12 12 4806 358 l -12 6 c -18 0 c -12 -6 c
-12 -12 c -6 -18 c 0 -12 c 6 -18 c 12 -12 c 12 -6 c 18 0 c 12 6 c 12 12 c 108 0 4848 346 l -18 -6 5034 418 l -12 -18 c -6 -30 c
0 -18 c 6 -30 c 12 -18 c 18 -6 c 12 0 c 18 6 c 12 18 c 6 30 c 0 18 c -6 30 c -12 18 c -18 6 c -12 0 c 66 0 5130 418 l -36 -48 c
18 0 c 12 -6 c 6 -6 c 6 -18 c 0 -12 c -6 -18 c -12 -12 c -18 -6 c -18 0 c -18 6 c -6 6 c -6 12 c -59 0 5309 418 l -6 -54 c 6 6 c
17 6 c 18 0 c 18 -6 c 12 -12 c 6 -18 c 0 -12 c -6 -18 c -12 -12 c -18 -6 c -18 0 c -17 6 c -6 6 c -6 12 c -6 -6 5369 304 l 6 -6 c
6 6 c -6 6 c -12 0 5459 418 l -12 -6 c -6 -18 c 0 -102 c 42 0 5411 376 l 6 -6 5489 418 l 6 6 c -6 6 c -6 -6 c 0 -84 5495 376 l
0 -102 5549 418 l 6 -18 c 12 -6 c 12 0 c 42 0 5531 376 l -6 12 5675 358 l -18 6 c -18 0 c -18 -6 c -6 -12 c 6 -12 c 12 -6 c 30 -6 c
12 -6 c 6 -12 c 0 -6 c -6 -12 c -18 -6 c -18 0 c -18 6 c -6 12 c 0 -192 6005 442 l 0 -192 6011 442 l 42 0 6005 442 l 42 0 6005 250 l
0 6 6089 388 l 6 12 c 6 6 c 12 6 c 24 0 c 12 -6 c 6 -6 c 6 -12 c 0 -12 c -6 -12 c -12 -18 c -60 -60 c 84 0 c -6 -6 6215 376 l 6 -6 c
6 6 c -6 6 c -6 -6 6215 304 l 6 -6 c 6 6 c -6 6 c -48 -126 6395 418 l 48 -126 6395 418 l 60 0 6365 334 l 0 -84 6473 376 l
6 18 6473 340 l 12 12 c 12 6 c 18 0 c -12 12 6617 358 l -12 6 c -18 0 c -12 -6 c -12 -12 c -6 -18 c 0 -12 c 6 -18 c 12 -12 c 12 -6 c
18 0 c 12 6 c 12 12 c 108 0 6659 346 l -18 -6 6845 418 l -12 -18 c -6 -30 c 0 -18 c 6 -30 c 12 -18 c 18 -6 c 12 0 c 18 6 c 12 18 c
6 30 c 0 18 c -6 30 c -12 18 c -18 6 c -12 0 c 66 0 6941 418 l -36 -48 c 18 0 c 12 -6 c 6 -6 c 6 -18 c 0 -12 c -6 -18 c -12 -12 c
-18 -6 c -18 0 c -18 6 c -6 6 c -6 12 c -6 12 7127 400 l -18 6 c -12 0 c -18 -6 c -12 -18 c -6 -30 c 0 -30 c 6 -24 c 12 -12 c
18 -6 c 6 0 c 18 6 c 12 12 c 6 18 c 0 6 c -6 18 c -12 12 c -18 6 c -6 0 c -18 -6 c -12 -12 c -6 -18 c -6 -6 7181 304 l 6 -6 c 6 6 c
-6 6 c -12 0 7271 418 l -12 -6 c -6 -18 c 0 -102 c 42 0 7223 376 l 6 -6 7301 418 l 6 6 c -6 6 c -6 -6 c 0 -84 7307 376 l
0 -102 7361 418 l 6 -18 c 12 -6 c 12 0 c 42 0 7343 376 l -6 12 7487 358 l -18 6 c -18 0 c -18 -6 c -6 -12 c 6 -12 c 12 -6 c 30 -6 c
12 -6 c 6 -12 c 0 -6 c -6 -12 c -18 -6 c -18 0 c -18 6 c -6 12 c 0 -192 7559 442 l 0 -192 7565 442 l 42 0 7523 442 l 42 0 7523 250 l
0 -249 881 7019 l 53 -38 838 7129 l 0 57 c 79 0 838 7129 l 0 -38 838 7212 l 34 -4 c -4 4 c -4 11 c 0 12 c 4 11 c 8 8 c 11 3 c 8 0 c
11 -3 c 7 -8 c 4 -11 c 0 -12 c -4 -11 c -3 -4 c -8 -3 c 4 -11 838 7261 l 7 -4 c 8 0 c 7 4 c 4 7 c 4 15 c 4 12 c 7 7 c 8 4 c 11 0 c
8 -4 c 3 -4 c 4 -11 c 0 -15 c -4 -11 c -3 -4 c -8 -4 c -11 0 c -8 4 c -7 7 c -4 12 c -4 15 c -4 7 c -7 4 c -8 0 c -7 -4 c -4 -11 c
0 -15 c 12 -4 864 7367 l 7 -8 c 4 -11 c 0 -4 c -4 -11 c -7 -8 c -12 -3 c -4 0 c -11 3 c -7 8 c -4 11 c 0 4 c 4 11 c 7 8 c 15 4 c
19 0 c 19 -4 c 11 -8 c 4 -11 c 0 -7 c -4 -12 c -7 -4 c 3 -4 910 7401 l 4 4 c -4 4 c -3 -4 c 4 -11 838 7450 l 7 -4 c 8 0 c 7 4 c
4 7 c 4 15 c 4 12 c 7 7 c 8 4 c 11 0 c 8 -4 c 3 -4 c 4 -11 c 0 -15 c -4 -11 c -3 -4 c -8 -4 c -11 0 c -8 4 c -7 7 c -4 12 c -4 15 c
-4 7 c -7 4 c -8 0 c -7 -4 c -4 -11 c 0 -15 c 12 -4 864 7556 l 7 -8 c 4 -11 c 0 -4 c -4 -11 c -7 -8 c -12 -3 c -4 0 c -11 3 c -7 8 c
-4 11 c 0 4 c 4 11 c 7 8 c 15 4 c 19 0 c 19 -4 c 11 -8 c 4 -11 c 0 -7 c -4 -12 c -7 -4 c 4 -11 838 7601 l 7 -4 c 8 0 c 7 4 c 4 7 c
4 15 c 4 12 c 7 7 c 8 4 c 11 0 c 8 -4 c 3 -3 c 4 -12 c 0 -15 c -4 -11 c -3 -4 c -8 -4 c -11 0 c -8 4 c -7 8 c -4 11 c -4 15 c -4 8 c
-7 3 c -8 0 c -7 -3 c -4 -12 c 0 -15 c 0 -249 1232 1616 l 53 -38 1188 1726 l 0 57 c 80 0 1188 1726 l 0 -38 1188 1809 l 34 -4 c
-3 4 c -4 12 c 0 11 c 4 11 c 7 8 c 12 4 c 7 0 c 11 -4 c 8 -8 c 4 -11 c 0 -11 c -4 -12 c -4 -4 c -7 -3 c 11 -3 1215 1888 l 8 -8 c
4 -11 c 0 -4 c -4 -11 c -8 -8 c -11 -4 c -4 0 c -11 4 c -8 8 c -4 11 c 0 4 c 4 11 c 8 8 c 15 3 c 19 0 c 19 -3 c 11 -8 c 4 -11 c
0 -8 c -4 -11 c -8 -4 c -4 0 1207 1919 l -7 3 c -4 4 c -4 8 c 0 15 c 4 7 c 4 4 c 7 4 c 8 0 c 8 -4 c 11 -7 c 38 -38 c 0 53 c
4 -4 1260 1998 l 4 4 c -4 4 c -4 -4 c -8 -3 1200 2077 l -4 -12 c 0 -7 c 4 -12 c 11 -7 c 19 -4 c 19 0 c 15 4 c 8 7 c 4 12 c 0 3 c
-4 12 c -8 7 c -11 4 c -4 0 c -11 -4 c -8 -7 c -3 -12 c 0 -3 c 3 -12 c 8 -7 c 11 -4 c -8 -4 1200 2153 l -4 -11 c 0 -8 c 4 -11 c
11 -8 c 19 -3 c 19 0 c 15 3 c 8 8 c 4 11 c 0 4 c -4 11 c -8 8 c -11 4 c -4 0 c -11 -4 c -8 -8 c -3 -11 c 0 -4 c 3 -11 c 8 -8 c
11 -3 c -8 -3 1200 2228 l -4 -12 c 0 -7 c 4 -12 c 11 -7 c 19 -4 c 19 0 c 15 4 c 8 7 c 4 12 c 0 4 c -4 11 c -8 7 c -11 4 c -4 0 c
-11 -4 c -8 -7 c -3 -11 c 0 -4 c 3 -12 c 8 -7 c 11 -4 c 0 -249 1352 1284 l 53 -38 1308 1394 l 0 57 c 79 0 1308 1394 l
0 -38 1308 1477 l 34 -4 c -4 4 c -4 12 c 0 11 c 4 11 c 8 8 c 11 4 c 8 0 c 11 -4 c 8 -8 c 3 -11 c 0 -11 c -3 -12 c -4 -4 c -8 -3 c
12 -3 1334 1556 l 7 -8 c 4 -11 c 0 -4 c -4 -11 c -7 -8 c -12 -4 c -3 0 c -12 4 c -7 8 c -4 11 c 0 4 c 4 11 c 7 8 c 15 3 c 19 0 c
19 -3 c 12 -8 c 3 -11 c 0 -8 c -3 -11 c -8 -4 c 0 42 1308 1590 l 30 -23 c 0 12 c 4 7 c 4 4 c 11 4 c 8 0 c 11 -4 c 8 -8 c 3 -11 c
0 -11 c -3 -12 c -4 -3 c -8 -4 c 4 -4 1380 1666 l 3 4 c -3 4 c -4 -4 c -7 -3 1319 1745 l -4 -12 c 0 -7 c 4 -12 c 11 -7 c 19 -4 c
19 0 c 15 4 c 8 7 c 3 12 c 0 3 c -3 12 c -8 7 c -11 4 c -4 0 c -11 -4 c -8 -7 c -4 -12 c 0 -3 c 4 -12 c 8 -7 c 11 -4 c
53 -38 1308 1810 l 0 56 c 79 0 1308 1810 l 53 -38 1308 1885 l 0 57 c 79 0 1308 1885 l 0 -249 1582 3233 l 53 -38 1538 3343 l 0 57 c
80 0 1538 3343 l 0 -38 1538 3426 l 34 -4 c -3 4 c -4 12 c 0 11 c 4 11 c 7 8 c 12 4 c 7 0 c 11 -4 c 8 -8 c 4 -11 c 0 -11 c -4 -12 c
-4 -4 c -7 -3 c 11 -3 1565 3505 l 8 -8 c 4 -11 c 0 -4 c -4 -11 c -8 -8 c -11 -4 c -4 0 c -11 4 c -8 8 c -4 11 c 0 4 c 4 11 c 8 8 c
15 3 c 19 0 c 19 -3 c 11 -8 c 4 -11 c 0 -8 c -4 -11 c -8 -4 c 0 -38 1538 3577 l 34 -3 c -3 3 c -4 12 c 0 11 c 4 11 c 7 8 c 12 4 c
7 0 c 11 -4 c 8 -8 c 4 -11 c 0 -11 c -4 -12 c -4 -3 c -7 -4 c 4 -4 1610 3615 l 4 4 c -4 4 c -4 -4 c 53 -38 1538 3683 l 0 57 c
80 0 1538 3683 l -3 0 1557 3725 l -8 3 c -4 4 c -4 8 c 0 15 c 4 7 c 4 4 c 8 4 c 7 0 c 8 -4 c 11 -7 c 38 -38 c 0 53 c
-4 7 1554 3808 l -12 12 c 80 0 c 0 -250 2009 2716 l 53 -37 1965 2825 l 0 56 c 80 0 1965 2825 l 0 -38 1965 2909 l 35 -4 c -4 4 c
-4 11 c 0 12 c 4 11 c 7 7 c 12 4 c 7 0 c 12 -4 c 7 -7 c 4 -11 c 0 -12 c -4 -11 c -4 -4 c -7 -4 c 11 -4 1992 2988 l 8 -7 c 4 -12 c
0 -3 c -4 -12 c -8 -7 c -11 -4 c -4 0 c -11 4 c -8 7 c -4 12 c 0 3 c 4 12 c 8 7 c 15 4 c 19 0 c 19 -4 c 11 -7 c 4 -12 c 0 -7 c
-4 -12 c -7 -3 c 4 -11 1965 3033 l 8 -4 c 7 0 c 8 4 c 4 8 c 4 15 c 3 11 c 8 8 c 7 3 c 12 0 c 7 -3 c 4 -4 c 4 -12 c 0 -15 c -4 -11 c
-4 -4 c -7 -4 c -12 0 c -7 4 c -8 8 c -3 11 c -4 15 c -4 8 c -8 4 c -7 0 c -8 -4 c -4 -12 c 0 -15 c 4 -4 2037 3098 l 4 4 c -4 3 c
-4 -3 c 80 -38 1965 3181 l 0 53 1965 3128 l -8 -4 1977 3253 l -4 -12 c 0 -7 c 4 -11 c 12 -8 c 19 -4 c 18 0 c 16 4 c 7 8 c 4 11 c
0 4 c -4 11 c -7 8 c -12 3 c -4 0 c -11 -3 c -7 -8 c -4 -11 c 0 -4 c 4 -11 c 7 -8 c 11 -4 c 0 41 1965 3287 l 31 -23 c 0 12 c 4 7 c
3 4 c 12 4 c 7 0 c 12 -4 c 7 -7 c 4 -12 c 0 -11 c -4 -11 c -4 -4 c -7 -4 c 0 -249 2130 1273 l 53 -38 2086 1383 l 0 57 c
80 0 2086 1383 l 0 -38 2086 1466 l 34 -4 c -4 4 c -3 12 c 0 11 c 3 11 c 8 8 c 11 4 c 8 0 c 11 -4 c 8 -8 c 4 -11 c 0 -11 c -4 -12 c
-4 -4 c -8 -3 c 11 -3 2113 1545 l 8 -8 c 3 -11 c 0 -4 c -3 -11 c -8 -8 c -11 -4 c -4 0 c -11 4 c -8 8 c -4 11 c 0 4 c 4 11 c 8 8 c
15 3 c 19 0 c 18 -3 c 12 -8 c 4 -11 c 0 -8 c -4 -11 c -8 -4 c 11 -4 2113 1621 l 8 -7 c 3 -12 c 0 -4 c -3 -11 c -8 -7 c -11 -4 c
-4 0 c -11 4 c -8 7 c -4 11 c 0 4 c 4 12 c 8 7 c 15 4 c 19 0 c 18 -4 c 12 -7 c 4 -12 c 0 -7 c -4 -12 c -8 -3 c 4 -4 2158 1655 l
4 4 c -4 4 c -4 -4 c 80 -38 2086 1738 l 0 53 2086 1685 l 4 -11 2086 1783 l 11 -7 c 19 -4 c 12 0 c 18 4 c 12 7 c 4 11 c 0 8 c -4 11 c
-12 8 c -18 4 c -12 0 c -19 -4 c -11 -8 c -4 -11 c 0 -8 c 0 -38 2086 1882 l 34 -4 c -4 4 c -3 11 c 0 12 c 3 11 c 8 8 c 11 3 c 8 0 c
11 -3 c 8 -8 c 4 -11 c 0 -12 c -4 -11 c -4 -4 c -8 -4 c 0 -250 2572 1395 l 53 -38 2529 1504 l 0 57 c 79 0 2529 1504 l
-7 -4 2540 1591 l -4 -11 c 0 -8 c 4 -11 c 11 -7 c 19 -4 c 19 0 c 15 4 c 7 7 c 4 11 c 0 4 c -4 12 c -7 7 c -12 4 c -3 0 c -12 -4 c
-7 -7 c -4 -12 c 0 -4 c 4 -11 c 7 -7 c 12 -4 c 4 -11 2529 1640 l 11 -8 c 19 -3 c 11 0 c 19 3 c 11 8 c 4 11 c 0 8 c -4 11 c -11 8 c
-19 3 c -11 0 c -19 -3 c -11 -8 c -4 -11 c 0 -8 c 0 41 2529 1701 l 30 -22 c 0 11 c 4 8 c 4 3 c 11 4 c 7 0 c 12 -4 c 7 -7 c 4 -12 c
0 -11 c -4 -11 c -3 -4 c -8 -4 c 3 -3 2601 1776 l 4 3 c -4 4 c -3 -4 c -4 7 2544 1818 l -11 12 c 79 0 c 53 -38 2529 1920 l 0 57 c
79 0 2529 1920 l 0 -38 2529 2003 l 34 -4 c -4 4 c -4 12 c 0 11 c 4 11 c 8 8 c 11 4 c 7 0 c 12 -4 c 7 -8 c 4 -11 c 0 -11 c -4 -12 c
-3 -4 c -8 -3 c 0 -250 3193 1405 l 53 -37 3150 1514 l 0 56 c 79 0 3150 1514 l -7 -4 3161 1601 l -4 -11 c 0 -7 c 4 -12 c 11 -7 c
19 -4 c 19 0 c 15 4 c 7 7 c 4 12 c 0 3 c -4 12 c -7 7 c -12 4 c -3 0 c -12 -4 c -7 -7 c -4 -12 c 0 -3 c 4 -12 c 7 -7 c 12 -4 c
4 -11 3150 1650 l 11 -7 c 19 -4 c 11 0 c 19 4 c 11 7 c 4 11 c 0 8 c -4 11 c -11 8 c -19 4 c -11 0 c -19 -4 c -11 -8 c -4 -11 c
0 -8 c 79 -38 3150 1756 l 0 53 3150 1703 l 3 -3 3222 1786 l 4 3 c -4 4 c -3 -4 c 12 -4 3176 1866 l 7 -7 c 4 -12 c 0 -4 c -4 -11 c
-7 -8 c -12 -3 c -4 0 c -11 3 c -7 8 c -4 11 c 0 4 c 4 12 c 7 7 c 15 4 c 19 0 c 19 -4 c 11 -7 c 4 -12 c 0 -7 c -4 -12 c -7 -4 c
0 41 3150 1900 l 30 -22 c 0 11 c 4 8 c 4 3 c 11 4 c 7 0 c 12 -4 c 7 -7 c 4 -11 c 0 -12 c -4 -11 c -3 -4 c -8 -4 c 0 -38 3150 2013 l
34 -3 c -4 3 c -4 12 c 0 11 c 4 11 c 8 8 c 11 4 c 7 0 c 12 -4 c 7 -8 c 4 -11 c 0 -11 c -4 -12 c -3 -3 c -8 -4 c 0 -250 3283 1415 l
53 -38 3239 1525 l 0 56 c 80 0 3239 1525 l -8 -3 3251 1611 l -4 -12 c 0 -7 c 4 -12 c 11 -7 c 19 -4 c 19 0 c 15 4 c 8 7 c 4 12 c
0 4 c -4 11 c -8 7 c -11 4 c -4 0 c -11 -4 c -8 -7 c -3 -11 c 0 -4 c 3 -12 c 8 -7 c 11 -4 c 4 -12 3239 1661 l 11 -7 c 19 -4 c 12 0 c
19 4 c 11 7 c 4 12 c 0 7 c -4 11 c -11 8 c -19 4 c -12 0 c -19 -4 c -11 -8 c -4 -11 c 0 -7 c 4 -11 3239 1732 l 8 -4 c 7 0 c 8 4 c
4 8 c 3 15 c 4 11 c 8 8 c 7 3 c 12 0 c 7 -3 c 4 -4 c 4 -11 c 0 -16 c -4 -11 c -4 -4 c -7 -3 c -12 0 c -7 3 c -8 8 c -4 11 c -3 15 c
-4 8 c -8 4 c -7 0 c -8 -4 c -4 -11 c 0 -16 c 4 -4 3311 1797 l 4 4 c -4 3 c -4 -3 c -8 -4 3251 1876 l -4 -11 c 0 -8 c 4 -11 c
11 -8 c 19 -3 c 19 0 c 15 3 c 8 8 c 4 11 c 0 4 c -4 11 c -8 8 c -11 4 c -4 0 c -11 -4 c -8 -8 c -3 -11 c 0 -4 c 3 -11 c 8 -8 c
11 -3 c -4 0 3258 1906 l -7 4 c -4 4 c -4 7 c 0 16 c 4 7 c 4 4 c 7 4 c 8 0 c 8 -4 c 11 -8 c 38 -38 c 0 53 c 4 -12 3239 2001 l
11 -7 c 19 -4 c 12 0 c 19 4 c 11 7 c 4 12 c 0 7 c -4 12 c -11 7 c -19 4 c -12 0 c -19 -4 c -11 -7 c -4 -12 c 0 -7 c
0 -249 3407 7019 l 53 -38 3363 7129 l 0 57 c 80 0 3363 7129 l -8 -4 3375 7216 l -4 -11 c 0 -8 c 4 -11 c 11 -8 c 19 -4 c 19 0 c
15 4 c 8 8 c 4 11 c 0 4 c -4 11 c -8 8 c -11 3 c -4 0 c -11 -3 c -8 -8 c -3 -11 c 0 -4 c 3 -11 c 8 -8 c 11 -4 c 4 -12 3363 7265 l
11 -7 c 19 -4 c 12 0 c 19 4 c 11 7 c 4 12 c 0 7 c -4 12 c -11 7 c -19 4 c -12 0 c -19 -4 c -11 -7 c -4 -12 c 0 -7 c
11 -4 3390 7367 l 8 -8 c 3 -11 c 0 -4 c -3 -11 c -8 -8 c -11 -3 c -4 0 c -11 3 c -8 8 c -4 11 c 0 4 c 4 11 c 8 8 c 15 4 c 19 0 c
19 -4 c 11 -8 c 4 -11 c 0 -7 c -4 -12 c -8 -4 c 4 -4 3435 7401 l 4 4 c -4 4 c -4 -4 c 0 -37 3363 7476 l 34 -4 c -3 4 c -4 11 c
0 11 c 4 12 c 7 7 c 11 4 c 8 0 c 11 -4 c 8 -7 c 4 -12 c 0 -11 c -4 -11 c -4 -4 c -7 -4 c -8 -4 3375 7556 l -4 -11 c 0 -8 c 4 -11 c
11 -8 c 19 -4 c 19 0 c 15 4 c 8 8 c 4 11 c 0 4 c -4 11 c -8 8 c -11 4 c -4 0 c -11 -4 c -8 -8 c -3 -11 c 0 -4 c 3 -11 c 8 -8 c
11 -4 c 80 -38 3363 7635 l 0 53 3363 7582 l 0 -250 3545 1273 l 53 -38 3501 1383 l 0 57 c 80 0 3501 1383 l -8 -4 3513 1470 l -4 -12 c
0 -7 c 4 -11 c 12 -8 c 18 -4 c 19 0 c 15 4 c 8 8 c 4 11 c 0 4 c -4 11 c -8 8 c -11 3 c -4 0 c -11 -3 c -8 -8 c -3 -11 c 0 -4 c
3 -11 c 8 -8 c 11 -4 c -4 8 3517 1507 l -12 11 c 80 0 c 4 -11 3501 1594 l 12 -8 c 18 -3 c 12 0 c 19 3 c 11 8 c 4 11 c 0 8 c -4 11 c
-11 8 c -19 4 c -12 0 c -18 -4 c -12 -8 c -4 -11 c 0 -8 c 4 -4 3573 1655 l 4 4 c -4 4 c -4 -4 c -8 -4 3513 1734 l -4 -11 c 0 -8 c
4 -11 c 12 -7 c 18 -4 c 19 0 c 15 4 c 8 7 c 4 11 c 0 4 c -4 12 c -8 7 c -11 4 c -4 0 c -11 -4 c -8 -7 c -3 -12 c 0 -4 c 3 -11 c
8 -7 c 11 -4 c -3 0 3520 1764 l -8 4 c -4 4 c -4 8 c 0 15 c 4 7 c 4 4 c 8 4 c 7 0 c 8 -4 c 11 -8 c 38 -37 c 0 53 c
80 -38 3501 1889 l 0 53 3501 1836 l 0 -250 3707 2135 l 53 -37 3663 2244 l 0 56 c 79 0 3663 2244 l -7 -4 3674 2331 l -4 -11 c 0 -7 c
4 -12 c 11 -7 c 19 -4 c 19 0 c 15 4 c 8 7 c 3 12 c 0 3 c -3 12 c -8 7 c -11 4 c -4 0 c -11 -4 c -8 -7 c -4 -12 c 0 -3 c 4 -12 c
8 -7 c 11 -4 c -4 8 3678 2369 l -11 11 c 79 0 c -4 7 3678 2445 l -11 12 c 79 0 c 4 -3 3735 2516 l 3 3 c -3 4 c -4 -4 c
4 -12 3663 2566 l 7 -4 c 8 0 c 7 4 c 4 8 c 4 15 c 4 11 c 7 8 c 8 4 c 11 0 c 8 -4 c 4 -4 c 3 -11 c 0 -15 c -3 -12 c -4 -4 c -8 -3 c
-11 0 c -8 3 c -7 8 c -4 11 c -4 15 c -4 8 c -7 4 c -8 0 c -7 -4 c -4 -11 c 0 -15 c -7 -3 3674 2671 l -4 -12 c 0 -7 c 4 -12 c
11 -7 c 19 -4 c 19 0 c 15 4 c 8 7 c 3 12 c 0 4 c -3 11 c -8 7 c -11 4 c -4 0 c -11 -4 c -8 -7 c -4 -11 c 0 -4 c 4 -12 c 8 -7 c
11 -4 c 4 -12 3663 2721 l 11 -7 c 19 -4 c 11 0 c 19 4 c 12 7 c 3 12 c 0 7 c -3 11 c -12 8 c -19 4 c -11 0 c -19 -4 c -11 -8 c
-4 -11 c 0 -7 c 0 -250 3936 1590 l 53 -38 3892 1700 l 0 57 c 80 0 3892 1700 l -8 -4 3904 1787 l -4 -12 c 0 -7 c 4 -11 c 11 -8 c
19 -4 c 19 0 c 15 4 c 8 8 c 4 11 c 0 4 c -4 11 c -8 8 c -11 3 c -4 0 c -11 -3 c -8 -8 c -3 -11 c 0 -4 c 3 -11 c 8 -8 c 11 -4 c
-3 8 3907 1824 l -12 11 c 80 0 c 0 42 3892 1896 l 31 -23 c 0 11 c 3 8 c 4 4 c 11 4 c 8 0 c 11 -4 c 8 -8 c 4 -11 c 0 -12 c -4 -11 c
-4 -4 c -7 -3 c 4 -4 3964 1972 l 4 4 c -4 4 c -4 -4 c -8 -4 3904 2051 l -4 -11 c 0 -8 c 4 -11 c 11 -7 c 19 -4 c 19 0 c 15 4 c 8 7 c
4 11 c 0 4 c -4 12 c -8 7 c -11 4 c -4 0 c -11 -4 c -8 -7 c -3 -12 c 0 -4 c 3 -11 c 8 -7 c 11 -4 c 4 -11 3892 2100 l 11 -8 c 19 -3 c
12 0 c 19 3 c 11 8 c 4 11 c 0 8 c -4 11 c -11 8 c -19 3 c -12 0 c -19 -3 c -11 -8 c -4 -11 c 0 -8 c 53 -38 3892 2191 l 0 57 c
80 0 3892 2191 l 0 -249 4164 1540 l 53 -38 4120 1650 l 0 57 c 80 0 4120 1650 l -8 -4 4132 1737 l -4 -11 c 0 -8 c 4 -11 c 12 -8 c
18 -4 c 19 0 c 15 4 c 8 8 c 4 11 c 0 4 c -4 11 c -8 8 c -11 4 c -4 0 c -11 -4 c -8 -8 c -3 -11 c 0 -4 c 3 -11 c 8 -8 c 11 -4 c
-4 7 4136 1775 l -12 12 c 80 0 c 0 -38 4120 1884 l 34 -3 c -3 3 c -4 12 c 0 11 c 4 11 c 7 8 c 12 4 c 7 0 c 11 -4 c 8 -8 c 4 -11 c
0 -11 c -4 -12 c -4 -3 c -7 -4 c 4 -4 4192 1922 l 4 4 c -4 4 c -4 -4 c 0 41 4120 1960 l 31 -22 c 0 11 c 3 8 c 4 3 c 12 4 c 7 0 c
11 -4 c 8 -7 c 4 -12 c 0 -11 c -4 -11 c -4 -4 c -7 -4 c 0 42 4120 2035 l 31 -23 c 0 12 c 3 7 c 4 4 c 12 4 c 7 0 c 11 -4 c 8 -8 c
4 -11 c 0 -11 c -4 -12 c -4 -3 c -7 -4 c 53 -38 4120 2141 l 0 57 c 80 0 4120 2141 l 0 -250 4715 2516 l 53 -38 4671 2626 l 0 56 c
79 0 4671 2626 l -7 -4 4682 2713 l -4 -12 c 0 -7 c 4 -11 c 11 -8 c 19 -4 c 19 0 c 15 4 c 8 8 c 3 11 c 0 4 c -3 11 c -8 8 c -11 3 c
-4 0 c -11 -3 c -8 -8 c -4 -11 c 0 -4 c 4 -11 c 8 -8 c 11 -4 c -4 8 4686 2750 l -11 11 c 79 0 c 12 -4 4697 2864 l 7 -8 c 4 -11 c
0 -4 c -4 -11 c -7 -8 c -12 -3 c -3 0 c -12 3 c -7 8 c -4 11 c 0 4 c 4 11 c 7 8 c 15 4 c 19 0 c 19 -4 c 12 -8 c 3 -11 c 0 -8 c
-3 -11 c -8 -4 c 4 -4 4743 2898 l 3 4 c -3 4 c -4 -4 c 53 -38 4671 2966 l 0 57 c 79 0 4671 2966 l 79 -37 4671 3056 l
0 52 4671 3004 l 12 -4 4697 3128 l 7 -7 c 4 -11 c 0 -4 c -4 -12 c -7 -7 c -12 -4 c -3 0 c -12 4 c -7 7 c -4 12 c 0 4 c 4 11 c 7 7 c
15 4 c 19 0 c 19 -4 c 12 -7 c 3 -11 c 0 -8 c -3 -11 c -8 -4 c 0 -250 4937 1569 l 53 -38 4893 1679 l 0 56 c 80 0 4893 1679 l
-8 -3 4905 1765 l -4 -12 c 0 -7 c 4 -12 c 11 -7 c 19 -4 c 19 0 c 15 4 c 8 7 c 4 12 c 0 4 c -4 11 c -8 7 c -11 4 c -4 0 c -11 -4 c
-8 -7 c -4 -11 c 0 -4 c 4 -12 c 8 -7 c 11 -4 c -4 0 4912 1796 l -7 3 c -4 4 c -4 8 c 0 15 c 4 8 c 4 3 c 7 4 c 8 0 c 7 -4 c 12 -7 c
38 -38 c 0 53 c -3 7 4908 1879 l -12 12 c 80 0 c 4 -4 4965 1951 l 4 4 c -4 3 c -4 -3 c -3 8 4908 1992 l -12 11 c 80 0 c
-8 -4 4905 2106 l -4 -11 c 0 -8 c 4 -11 c 11 -8 c 19 -4 c 19 0 c 15 4 c 8 8 c 4 11 c 0 4 c -4 11 c -8 8 c -11 3 c -4 0 c -11 -3 c
-8 -8 c -4 -11 c 0 -4 c 4 -11 c 8 -8 c 11 -4 c 0 41 4893 2140 l 30 -22 c 0 11 c 4 7 c 4 4 c 11 4 c 8 0 c 11 -4 c 8 -7 c 4 -12 c
0 -11 c -4 -11 c -4 -4 c -7 -4 c 0 -249 5360 1375 l 53 -38 5316 1485 l 0 57 c 79 0 5316 1485 l -7 -4 5327 1572 l -4 -11 c 0 -8 c
4 -11 c 11 -8 c 19 -3 c 19 0 c 15 3 c 8 8 c 3 11 c 0 4 c -3 11 c -8 8 c -11 4 c -4 0 c -12 -4 c -7 -8 c -4 -11 c 0 -4 c 4 -11 c
7 -8 c 12 -3 c -4 0 5335 1602 l -8 4 c -3 4 c -4 7 c 0 15 c 4 8 c 3 4 c 8 4 c 8 0 c 7 -4 c 11 -8 c 38 -38 c 0 53 c
53 -38 5316 1712 l 0 57 c 79 0 5316 1712 l 4 -4 5388 1757 l 3 4 c -3 4 c -4 -4 c 0 42 5316 1795 l 30 -23 c 0 11 c 4 8 c 4 4 c 11 3 c
8 0 c 11 -3 c 8 -8 c 3 -11 c 0 -12 c -3 -11 c -4 -4 c -8 -4 c -4 8 5331 1874 l -11 11 c 79 0 c 53 -37 5316 1976 l 0 56 c
79 0 5316 1976 l 0 -249 5763 1433 l 53 -38 5719 1543 l 0 57 c 80 0 5719 1543 l -8 -4 5731 1630 l -4 -11 c 0 -8 c 4 -11 c 11 -8 c
19 -4 c 19 0 c 15 4 c 8 8 c 4 11 c 0 4 c -4 11 c -8 8 c -11 4 c -4 0 c -11 -4 c -8 -8 c -3 -11 c 0 -4 c 3 -11 c 8 -8 c 11 -4 c
-4 0 5738 1660 l -7 4 c -4 4 c -4 7 c 0 15 c 4 8 c 4 4 c 7 3 c 8 0 c 8 -3 c 11 -8 c 38 -38 c 0 53 c 80 -38 5719 1785 l
0 53 5719 1732 l 4 -4 5791 1815 l 4 4 c -4 4 c -4 -4 c -4 0 5738 1849 l -7 4 c -4 4 c -4 7 c 0 15 c 4 8 c 4 4 c 7 3 c 8 0 c 8 -3 c
11 -8 c 38 -38 c 0 53 c 11 -4 5746 1970 l 8 -7 c 4 -12 c 0 -3 c -4 -12 c -8 -7 c -11 -4 c -4 0 c -11 4 c -8 7 c -4 12 c 0 3 c 4 12 c
8 7 c 15 4 c 19 0 c 19 -4 c 11 -7 c 4 -12 c 0 -7 c -4 -12 c -8 -3 c 4 -11 5719 2015 l 8 -4 c 7 0 c 8 4 c 4 8 c 3 15 c 4 11 c 8 8 c
7 3 c 12 0 c 7 -3 c 4 -4 c 4 -12 c 0 -15 c -4 -11 c -4 -4 c -7 -4 c -12 0 c -7 4 c -8 8 c -4 11 c -3 15 c -4 8 c -8 4 c -7 0 c
-8 -4 c -4 -12 c 0 -15 c 0 -249 6370 3952 l 53 -38 6326 4062 l 0 57 c 80 0 6326 4062 l -8 -4 6338 4149 l -4 -12 c 0 -7 c 4 -11 c
11 -8 c 19 -4 c 19 0 c 15 4 c 8 8 c 4 11 c 0 4 c -4 11 c -8 8 c -11 3 c -4 0 c -11 -3 c -8 -8 c -3 -11 c 0 -4 c 3 -11 c 8 -8 c
11 -4 c 0 41 6326 4183 l 31 -22 c 0 11 c 3 7 c 4 4 c 11 4 c 8 0 c 11 -4 c 8 -7 c 4 -12 c 0 -11 c -4 -11 c -4 -4 c -7 -4 c
-3 8 6341 4262 l -12 11 c 80 0 c 4 -4 6398 4334 l 4 4 c -4 4 c -4 -4 c 80 -38 6326 4417 l 0 53 6326 4364 l -8 -4 6338 4489 l
-4 -11 c 0 -8 c 4 -11 c 11 -8 c 19 -4 c 19 0 c 15 4 c 8 8 c 4 11 c 0 4 c -4 11 c -8 8 c -11 4 c -4 0 c -11 -4 c -8 -8 c -3 -11 c
0 -4 c 3 -11 c 8 -8 c 11 -4 c 4 -11 6326 4538 l 11 -8 c 19 -4 c 12 0 c 19 4 c 11 8 c 4 11 c 0 7 c -4 12 c -11 7 c -19 4 c -12 0 c
-19 -4 c -11 -7 c -4 -12 c 0 -7 c 0 -250 6652 2148 l 53 -37 6609 2257 l 0 56 c 79 0 6609 2257 l -8 -3 6620 2344 l -3 -12 c 0 -7 c
3 -12 c 12 -7 c 19 -4 c 19 0 c 15 4 c 7 7 c 4 12 c 0 3 c -4 12 c -7 7 c -12 4 c -3 0 c -12 -4 c -7 -7 c -4 -12 c 0 -3 c 4 -12 c
7 -7 c 12 -4 c 0 42 6609 2378 l 30 -23 c 0 12 c 4 7 c 3 4 c 12 4 c 7 0 c 12 -4 c 7 -8 c 4 -11 c 0 -11 c -4 -12 c -4 -3 c -7 -4 c
0 42 6609 2454 l 30 -23 c 0 11 c 4 8 c 3 4 c 12 3 c 7 0 c 12 -3 c 7 -8 c 4 -11 c 0 -12 c -4 -11 c -4 -4 c -7 -4 c 4 -4 6680 2530 l
4 4 c -4 3 c -4 -3 c 79 -38 6609 2613 l 0 53 6609 2560 l 79 -37 6609 2688 l 0 53 6609 2635 l 3 -12 6609 2734 l 12 -7 c 19 -4 c
11 0 c 19 4 c 11 7 c 4 12 c 0 7 c -4 12 c -11 7 c -19 4 c -11 0 c -19 -4 c -12 -7 c -3 -12 c 0 -7 c 0 -250 7123 3020 l
53 -38 7079 3129 l 0 57 c 79 0 7079 3129 l -7 -4 7090 3216 l -4 -11 c 0 -8 c 4 -11 c 11 -7 c 19 -4 c 19 0 c 15 4 c 8 7 c 3 11 c
0 4 c -3 12 c -8 7 c -11 4 c -4 0 c -11 -4 c -8 -7 c -4 -12 c 0 -4 c 4 -11 c 8 -7 c 11 -4 c 0 42 7079 3250 l 30 -23 c 0 11 c 4 8 c
4 4 c 11 4 c 8 0 c 11 -4 c 8 -8 c 3 -11 c 0 -12 c -3 -11 c -4 -4 c -8 -3 c 79 -38 7079 3371 l 0 53 7079 3318 l 4 -3 7151 3401 l
3 3 c -3 4 c -4 -4 c -4 0 7098 3435 l -8 4 c -3 4 c -4 7 c 0 16 c 4 7 c 3 4 c 8 4 c 8 0 c 7 -4 c 12 -8 c 37 -37 c 0 52 c
0 41 7079 3515 l 30 -22 c 0 11 c 4 8 c 4 3 c 11 4 c 8 0 c 11 -4 c 8 -7 c 3 -12 c 0 -11 c -3 -11 c -4 -4 c -8 -4 c 0 42 7079 3590 l
30 -23 c 0 12 c 4 7 c 4 4 c 11 4 c 8 0 c 11 -4 c 8 -8 c 3 -11 c 0 -11 c -3 -12 c -4 -3 c -8 -4 c 0 -250 7324 1731 l
53 -38 7280 1840 l 0 57 c 80 0 7280 1840 l -8 -4 7292 1927 l -4 -11 c 0 -8 c 4 -11 c 11 -8 c 19 -3 c 19 0 c 15 3 c 8 8 c 4 11 c
0 4 c -4 12 c -8 7 c -11 4 c -4 0 c -11 -4 c -8 -7 c -4 -12 c 0 -4 c 4 -11 c 8 -8 c 11 -3 c 0 42 7280 1961 l 30 -23 c 0 11 c 4 8 c
4 4 c 11 3 c 8 0 c 11 -3 c 8 -8 c 4 -11 c 0 -12 c -4 -11 c -4 -4 c -8 -3 c 4 -11 7280 2048 l 8 -4 c 7 0 c 8 4 c 3 7 c 4 15 c 4 12 c
8 7 c 7 4 c 11 0 c 8 -4 c 4 -4 c 4 -11 c 0 -15 c -4 -11 c -4 -4 c -8 -4 c -11 0 c -7 4 c -8 7 c -4 12 c -4 15 c -3 7 c -8 4 c -7 0 c
-8 -4 c -4 -11 c 0 -15 c 4 -4 7352 2112 l 4 4 c -4 4 c -4 -4 c -8 -4 7292 2192 l -4 -11 c 0 -8 c 4 -11 c 11 -8 c 19 -4 c 19 0 c
15 4 c 8 8 c 4 11 c 0 4 c -4 11 c -8 8 c -11 3 c -4 0 c -11 -3 c -8 -8 c -4 -11 c 0 -4 c 4 -11 c 8 -8 c 11 -4 c 4 -11 7280 2237 l
8 -4 c 7 0 c 8 4 c 3 7 c 4 15 c 4 12 c 8 7 c 7 4 c 11 0 c 8 -4 c 4 -4 c 4 -11 c 0 -15 c -4 -11 c -4 -4 c -8 -4 c -11 0 c -7 4 c
-8 7 c -4 12 c -4 15 c -3 7 c -8 4 c -7 0 c -8 -4 c -4 -11 c 0 -15 c 0 -38 7280 2339 l 34 -4 c -4 4 c -3 12 c 0 11 c 3 11 c 8 8 c
11 4 c 8 0 c 11 -4 c 8 -8 c 4 -11 c 0 -11 c -4 -12 c -4 -4 c -8 -3 c 0 -250 8004 1279 l 53 -37 7960 1388 l 0 56 c 80 0 7960 1388 l
-8 -4 7972 1475 l -4 -11 c 0 -7 c 4 -12 c 11 -7 c 19 -4 c 19 0 c 15 4 c 8 7 c 4 12 c 0 3 c -4 12 c -8 7 c -11 4 c -4 0 c -11 -4 c
-8 -7 c -3 -12 c 0 -3 c 3 -12 c 8 -7 c 11 -4 c 53 -37 7960 1539 l 0 56 c 80 0 7960 1539 l 0 41 7960 1585 l 31 -22 c 0 11 c 3 8 c
4 3 c 11 4 c 8 0 c 11 -4 c 8 -7 c 4 -11 c 0 -12 c -4 -11 c -4 -4 c -7 -4 c 4 -3 8032 1660 l 4 3 c -4 4 c -4 -4 c 0 -38 7960 1736 l
34 -4 c -3 4 c -4 12 c 0 11 c 4 11 c 7 8 c 11 4 c 8 0 c 11 -4 c 8 -8 c 4 -11 c 0 -11 c -4 -12 c -4 -4 c -7 -3 c 0 -38 7960 1812 l
34 -4 c -3 4 c -4 11 c 0 12 c 4 11 c 7 7 c 11 4 c 8 0 c 11 -4 c 8 -7 c 4 -11 c 0 -12 c -4 -11 c -4 -4 c -7 -4 c 80 -38 7960 1895 l
0 53 7960 1842 l 0 -249 8166 1299 l 53 -38 8123 1409 l 0 57 c 79 0 8123 1409 l -8 -4 8134 1496 l -3 -11 c 0 -8 c 3 -11 c 12 -8 c
19 -3 c 19 0 c 15 3 c 7 8 c 4 11 c 0 4 c -4 11 c -7 8 c -12 4 c -3 0 c -12 -4 c -7 -8 c -4 -11 c 0 -4 c 4 -11 c 7 -8 c 12 -3 c
53 -38 8123 1560 l 0 57 c 79 0 8123 1560 l 53 -38 8123 1636 l 0 57 c 79 0 8123 1636 l 4 -4 8194 1681 l 4 4 c -4 4 c -4 -4 c
79 -38 8123 1764 l 0 53 8123 1711 l 3 -12 8123 1810 l 12 -7 c 19 -4 c 11 0 c 19 4 c 11 7 c 4 12 c 0 7 c -4 11 c -11 8 c -19 4 c
-11 0 c -19 -4 c -12 -8 c -3 -11 c 0 -7 c 79 -37 8123 1915 l 0 53 8123 1862 l 0 -250 8526 1701 l 53 -38 8482 1810 l 0 57 c
80 0 8482 1810 l -8 -4 8494 1897 l -4 -11 c 0 -8 c 4 -11 c 11 -7 c 19 -4 c 19 0 c 15 4 c 8 7 c 4 11 c 0 4 c -4 12 c -8 7 c -11 4 c
-4 0 c -11 -4 c -8 -7 c -4 -12 c 0 -4 c 4 -11 c 8 -7 c 11 -4 c 53 -37 8482 1961 l 0 56 c 80 0 8482 1961 l 80 -38 8482 2052 l
0 53 8482 1999 l 4 -3 8554 2082 l 4 3 c -4 4 c -4 -4 c -4 0 8501 2116 l -7 4 c -4 4 c -4 7 c 0 16 c 4 7 c 4 4 c 7 4 c 8 0 c 7 -4 c
12 -8 c 38 -37 c 0 53 c 0 -38 8482 2234 l 34 -4 c -4 4 c -3 11 c 0 11 c 3 12 c 8 7 c 11 4 c 8 0 c 11 -4 c 8 -7 c 4 -12 c 0 -11 c
-4 -11 c -4 -4 c -8 -4 c -3 8 8497 2275 l -12 11 c 80 0 c 0 -249 8951 1473 l 53 -38 8907 1583 l 0 57 c 79 0 8907 1583 l
-7 -4 8918 1670 l -4 -12 c 0 -7 c 4 -11 c 11 -8 c 19 -4 c 19 0 c 15 4 c 8 8 c 3 11 c 0 4 c -3 11 c -8 8 c -11 3 c -4 0 c -11 -3 c
-8 -8 c -4 -11 c 0 -4 c 4 -11 c 8 -8 c 11 -4 c 0 -37 8907 1741 l 34 -4 c -4 4 c -4 11 c 0 11 c 4 12 c 8 7 c 11 4 c 8 0 c 11 -4 c
8 -7 c 3 -12 c 0 -11 c -3 -11 c -4 -4 c -8 -4 c 4 -11 8907 1794 l 11 -8 c 19 -3 c 11 0 c 19 3 c 12 8 c 3 11 c 0 8 c -3 11 c -12 8 c
-19 4 c -11 0 c -19 -4 c -11 -8 c -4 -11 c 0 -8 c 4 -4 8979 1855 l 3 4 c -3 4 c -4 -4 c -4 0 8926 1889 l -7 4 c -4 3 c -4 8 c 0 15 c
4 8 c 4 3 c 7 4 c 8 0 c 7 -4 c 12 -7 c 37 -38 c 0 53 c 0 42 8907 1968 l 30 -23 c 0 11 c 4 8 c 4 4 c 11 4 c 8 0 c 11 -4 c 8 -8 c
3 -11 c 0 -11 c -3 -12 c -4 -4 c -8 -3 c 53 -38 8907 2074 l 0 57 c 79 0 8907 2074 l 0 -249 9140 4412 l 53 -38 9096 4522 l 0 57 c
79 0 9096 4522 l -7 -4 9107 4609 l -4 -11 c 0 -8 c 4 -11 c 11 -8 c 19 -3 c 19 0 c 15 3 c 8 8 c 3 11 c 0 4 c -3 11 c -8 8 c -11 4 c
-4 0 c -11 -4 c -8 -8 c -4 -11 c 0 -4 c 4 -11 c 8 -8 c 11 -3 c 0 -38 9096 4681 l 34 -4 c -4 4 c -4 11 c 0 12 c 4 11 c 8 8 c 11 3 c
8 0 c 11 -3 c 8 -8 c 3 -11 c 0 -12 c -3 -11 c -4 -4 c -8 -4 c -4 8 9111 4722 l -11 11 c 79 0 c 4 -4 9168 4794 l 3 4 c -3 4 c -4 -4 c
0 -38 9096 4870 l 34 -4 c -4 4 c -4 11 c 0 12 c 4 11 c 8 8 c 11 3 c 8 0 c 11 -3 c 8 -8 c 3 -11 c 0 -12 c -3 -11 c -4 -4 c -8 -4 c
0 -37 9096 4945 l 34 -4 c -4 4 c -4 11 c 0 11 c 4 12 c 8 7 c 11 4 c 8 0 c 11 -4 c 8 -7 c 3 -12 c 0 -11 c -3 -11 c -4 -4 c -8 -4 c
0 -38 9096 5021 l 34 -4 c -4 4 c -4 11 c 0 12 c 4 11 c 8 8 c 11 4 c 8 0 c 11 -4 c 8 -8 c 3 -11 c 0 -12 c -3 -11 c -4 -4 c -8 -3 c
0 -250 9667 1279 l 53 -38 9623 1388 l 0 57 c 79 0 9623 1388 l -7 -4 9634 1475 l -4 -11 c 0 -8 c 4 -11 c 11 -8 c 19 -3 c 19 0 c
15 3 c 7 8 c 4 11 c 0 4 c -4 11 c -7 8 c -11 4 c -4 0 c -12 -4 c -7 -8 c -4 -11 c 0 -4 c 4 -11 c 7 -8 c 12 -3 c 0 -38 9623 1547 l
34 -4 c -4 4 c -4 11 c 0 12 c 4 11 c 8 8 c 11 3 c 8 0 c 11 -3 c 7 -8 c 4 -11 c 0 -12 c -4 -11 c -3 -4 c -8 -3 c 0 -37 9623 1622 l
34 -4 c -4 4 c -4 11 c 0 11 c 4 12 c 8 7 c 11 4 c 8 0 c 11 -4 c 7 -7 c 4 -12 c 0 -11 c -4 -11 c -3 -4 c -8 -4 c 3 -4 9695 1660 l
4 4 c -4 4 c -3 -4 c -4 0 9642 1694 l -8 4 c -3 4 c -4 7 c 0 16 c 4 7 c 3 4 c 8 4 c 8 0 c 7 -4 c 11 -8 c 38 -38 c 0 53 c
-4 8 9638 1777 l -11 11 c 79 0 c 0 42 9623 1849 l 30 -23 c 0 11 c 4 8 c 4 4 c 11 4 c 8 0 c 11 -4 c 7 -8 c 4 -11 c 0 -11 c -4 -12 c
-3 -4 c -8 -3 c
showpage PGPLOT restore
 
%%Trailer
%%DocumentFonts: 
%%Pages: 1
%%EOF
