%!PS-Adobe-3.0 EPSF-3.0
%%For: tom
%%Title: PGPLOT PostScript plot
%%Creator: PGPLOT
%%CreationDate:  9-Nov-1994 13:43
%%BoundingBox: 25 18 587 774
%%DocumentFonts: (atend)
%%LanguageLevel: 1
%%Orientation: Landscape
%%Pages: (atend)
%%EndComments
%%BeginProlog
/l {moveto rlineto currentpoint stroke moveto} bind def
/c {rlineto currentpoint stroke moveto} bind def
/d {moveto 0 0 rlineto currentpoint stroke moveto} bind def
/SLW {5 mul setlinewidth} bind def
/SCF /pop load def
/BP {newpath moveto} bind def
/LP /rlineto load def
/EP {rlineto closepath eofill} bind def
/MB {gsave translate MFAC dup scale 1 setlinewidth 2 setlinecap 0 setlinejoin newpath} bind def
/ME /grestore load def
/C {0 360 arc stroke} bind def
/FC {0 360 arc fill} bind def
%%EndProlog
 
%%Page: 1 1
%%BeginPageSetup
/PGPLOT save def
0.072 0.072 scale
8150 250 translate 90 rotate
1 setlinejoin 1 setlinecap 1 SLW 1 SCF
%%EndPageSetup
0.00 setgray 1 SLW 8939 0 780 780 l 0 6239 c -8939 0 c 0 -6239 c 0 -45 1116 780 l 0 -45 1554 780 l 0 -45 1991 780 l 0 -45 2428 780 l
0 -90 2865 780 l 0 -45 3302 780 l 0 -45 3739 780 l 0 -45 4176 780 l 0 -45 4613 780 l 0 -90 5051 780 l 0 -45 5488 780 l
0 -45 5925 780 l 0 -45 6362 780 l 0 -45 6799 780 l 0 -90 7236 780 l 0 -45 7673 780 l 0 -45 8110 780 l 0 -45 8548 780 l
0 -45 8985 780 l 0 -90 9422 780 l 0 -45 1116 7064 l 0 -45 1554 7064 l 0 -45 1991 7064 l 0 -45 2428 7064 l 0 -90 2865 7109 l
0 -45 3302 7064 l 0 -45 3739 7064 l 0 -45 4176 7064 l 0 -45 4613 7064 l 0 -90 5051 7109 l 0 -45 5488 7064 l 0 -45 5925 7064 l
0 -45 6362 7064 l 0 -45 6799 7064 l 0 -90 7236 7109 l 0 -45 7673 7064 l 0 -45 8110 7064 l 0 -45 8548 7064 l 0 -45 8985 7064 l
0 -90 9422 7109 l -60 0 2775 672 l -6 -54 c 6 6 c 18 6 c 18 0 c 18 -6 c 12 -12 c 6 -18 c 0 -12 c -6 -18 c -12 -12 c -18 -6 c -18 0 c
-18 6 c -6 6 c -6 12 c -18 -6 2859 672 l -12 -18 c -6 -30 c 0 -18 c 6 -30 c 12 -18 c 18 -6 c 12 0 c 18 6 c 12 18 c 6 30 c 0 18 c
-6 30 c -12 18 c -18 6 c -12 0 c -18 -6 2979 672 l -12 -18 c -6 -30 c 0 -18 c 6 -30 c 12 -18 c 18 -6 c 12 0 c 18 6 c 12 18 c 6 30 c
0 18 c -6 30 c -12 18 c -18 6 c -12 0 c 12 6 4847 648 l 18 18 c 0 -126 c -18 -6 4985 672 l -12 -18 c -6 -30 c 0 -18 c 6 -30 c
12 -18 c 18 -6 c 12 0 c 18 6 c 12 18 c 6 30 c 0 18 c -6 30 c -12 18 c -18 6 c -12 0 c -18 -6 5105 672 l -12 -18 c -6 -30 c 0 -18 c
6 -30 c 12 -18 c 18 -6 c 12 0 c 18 6 c 12 18 c 6 30 c 0 18 c -6 30 c -12 18 c -18 6 c -12 0 c -18 -6 5225 672 l -12 -18 c -6 -30 c
0 -18 c 6 -30 c 12 -18 c 18 -6 c 12 0 c 18 6 c 12 18 c 6 30 c 0 18 c -6 30 c -12 18 c -18 6 c -12 0 c 12 6 7032 648 l 18 18 c
0 -126 c -60 0 7206 672 l -6 -54 c 6 6 c 18 6 c 18 0 c 18 -6 c 12 -12 c 6 -18 c 0 -12 c -6 -18 c -12 -12 c -18 -6 c -18 0 c -18 6 c
-6 6 c -6 12 c -18 -6 7290 672 l -12 -18 c -6 -30 c 0 -18 c 6 -30 c 12 -18 c 18 -6 c 12 0 c 18 6 c 12 18 c 6 30 c 0 18 c -6 30 c
-12 18 c -18 6 c -12 0 c -18 -6 7410 672 l -12 -18 c -6 -30 c 0 -18 c 6 -30 c 12 -18 c 18 -6 c 12 0 c 18 6 c 12 18 c 6 30 c 0 18 c
-6 30 c -12 18 c -18 6 c -12 0 c 0 6 9206 642 l 6 12 c 6 6 c 12 6 c 24 0 c 12 -6 c 6 -6 c 6 -12 c 0 -12 c -6 -12 c -12 -18 c
-60 -60 c 84 0 c -18 -6 9356 672 l -12 -18 c -6 -30 c 0 -18 c 6 -30 c 12 -18 c 18 -6 c 12 0 c 18 6 c 12 18 c 6 30 c 0 18 c -6 30 c
-12 18 c -18 6 c -12 0 c -18 -6 9476 672 l -12 -18 c -6 -30 c 0 -18 c 6 -30 c 12 -18 c 18 -6 c 12 0 c 18 6 c 12 18 c 6 30 c 0 18 c
-6 30 c -12 18 c -18 6 c -12 0 c -18 -6 9596 672 l -12 -18 c -6 -30 c 0 -18 c 6 -30 c 12 -18 c 18 -6 c 12 0 c 18 6 c 12 18 c 6 30 c
0 18 c -6 30 c -12 18 c -18 6 c -12 0 c -90 0 780 780 l -45 0 780 1715 l -90 0 780 2651 l -45 0 780 3587 l -90 0 780 4522 l
-45 0 780 5458 l -90 0 780 6393 l -90 0 9809 780 l -45 0 9764 1715 l -90 0 9809 2651 l -45 0 9764 3587 l -90 0 9809 4522 l
-45 0 9764 5458 l -90 0 9809 6393 l 6 -18 517 774 l 18 -12 c 30 -6 c 18 0 c 30 6 c 18 12 c 6 18 c 0 12 c -6 18 c -18 12 c -30 6 c
-18 0 c -30 -6 c -18 -12 c -6 -18 c 0 -12 c -6 0 547 2393 l -12 6 c -6 6 c -6 12 c 0 24 c 6 12 c 6 6 c 12 6 c 12 0 c 12 -6 c
18 -12 c 60 -60 c 0 84 c 84 84 547 2513 l 84 -84 547 2597 l -6 12 541 2657 l -18 18 c 126 0 c 6 -18 517 2795 l 18 -12 c 30 -6 c
18 0 c 30 6 c 18 12 c 6 18 c 0 12 c -6 18 c -18 12 c -30 6 c -18 0 c -30 -6 c -18 -12 c -6 -18 c 0 -12 c 63 -45 453 2920 l 0 67 c
94 0 453 2920 l 84 -60 517 4318 l 0 90 c 126 0 517 4318 l 84 84 547 4384 l 84 -84 547 4468 l -6 12 541 4528 l -18 18 c 126 0 c
6 -18 517 4666 l 18 -12 c 30 -6 c 18 0 c 30 6 c 18 12 c 6 18 c 0 12 c -6 18 c -18 12 c -30 6 c -18 0 c -30 -6 c -18 -12 c -6 -18 c
0 -12 c 63 -45 453 4791 l 0 67 c 94 0 453 4791 l -12 -6 535 6207 l -6 -18 c 0 -12 c 6 -18 c 18 -12 c 30 -6 c 30 0 c 24 6 c 12 12 c
6 18 c 0 6 c -6 18 c -12 12 c -18 6 c -6 0 c -18 -6 c -12 -12 c -6 -18 c 0 -6 c 6 -18 c 12 -12 c 18 -6 c 84 84 547 6255 l
84 -84 547 6339 l -6 12 541 6399 l -18 18 c 126 0 c 6 -18 517 6537 l 18 -12 c 30 -6 c 18 0 c 30 6 c 18 12 c 6 18 c 0 12 c -6 18 c
-18 12 c -30 6 c -18 0 c -30 -6 c -18 -12 c -6 -18 c 0 -12 c 63 -45 453 6662 l 0 67 c 94 0 453 6662 l
4 -47 780 857 l 5 -9 c 4 -1 c 4 1 c 5 1 c 4 -3 c 4 -3 c 5 -2 c 4 -1 c 5 0 c 4 -1 c 4 1 c 5 6 c 4 11 c 4 41 c 5 62 c 4 30 c 5 84 c
4 152 c 4 -2 c 5 -52 c 4 -149 c 4 -158 c 5 -10 c 4 13 c 5 -1 c 4 -3 c 4 -15 c 5 -10 c 4 0 c 4 1 c 5 -1 c 4 0 c 5 -1 c 4 -1 c 4 1 c
5 0 c 4 1 c 4 1 c 5 0 c 4 -1 c 4 1 c 5 -1 c 4 0 c 5 0 c 4 -1 c 4 0 c 5 4 c 4 4 c 4 2 c 5 2 c 4 4 c 5 -2 c 4 -2 c 4 -5 c 5 -5 c 4 2 c
4 1 c 5 1 c 4 -1 c 5 -3 c 4 -1 c 4 0 c 5 -1 c 4 1 c 4 2 c 5 9 c 4 12 c 5 7 c 4 -1 c 4 -10 c 5 -4 c 4 6 c 4 45 c 5 48 c 4 1 c 4 -19 c
5 -66 c 4 -30 c 5 -2 c 4 0 c 4 0 c 5 0 c 4 -10 c 5 11 1151 780 l 4 0 c 5 0 c 4 0 c 4 0 c 5 0 c 4 0 c 4 0 c 5 1 c 4 0 c 5 0 c 4 0 c
4 0 c 5 -1 c 4 0 c 4 1 c 5 0 c 4 1 c 5 0 c 4 1 c 4 1 c 5 4 c 4 18 c 4 86 c 5 209 c 4 707 c 4 592 c 5 -5 c 4 -357 c 5 -867 c 4 -351 c
4 -26 c 5 -1 c 4 7 c 4 27 c 5 94 c 4 41 c 5 -7 c 4 -43 c 4 -101 c 5 -22 c 4 0 c 4 0 c 5 -1 c 4 7 c 5 2 c 4 -2 c 4 -4 c 5 -8 c 4 -1 c
4 2 c 5 2 c 4 2 c 5 2 c 4 0 c 4 3 c 5 12 c 4 45 c 4 13 c 5 -8 c 4 -29 c 4 -37 c 5 -2 c 4 1 c 5 3 c 4 5 c 4 27 c 5 32 c 4 -2 c
4 -12 c 5 -38 c 4 -19 c 5 -2 c 4 -1 c 4 0 c 5 -1 c 4 -1 c 4 0 c 5 0 c 4 0 c 5 0 c 4 1 c 4 1 c 5 1 c 4 1 c 4 1 c 5 2 c 4 0 c 4 1 c
5 2 c 4 1 c 5 2 c 4 2 c 4 22 c 5 80 c 4 301 c 4 334 c 5 3 c 4 -135 c 5 -389 c 4 -205 c 4 -18 c 5 -1 c 4 0 c 4 -1 c 5 3 c 4 7 c 5 3 c
4 -1 c 4 0 c 5 3 c 4 -1 c 4 -4 c 5 -7 c 4 -7 c 5 2 c 4 9 c 4 24 c 5 11 c 4 -1 c 4 -12 c 5 -19 c 4 7 c 4 6 c 5 -4 c 4 -8 c 5 -12 c
4 -3 c 4 0 c 5 1 c 4 2 c 4 2 c 5 -1 c 4 -1 c 5 -3 c 4 2 c 4 4 c 5 1 c 4 -1 c 4 -4 c 5 -3 c 4 -1 c 5 0 c 4 -1 c 4 1 c 5 0 c 4 0 c
4 0 c 5 0 c 4 1 c 5 -1 c 4 1 c 4 -1 c 5 0 c 4 0 c 4 0 c 5 3 c 4 4 c 4 2 c 5 -1 c 4 -2 c 5 -2 c 4 4 c 4 2 c 5 -2 c 4 -2 c 4 -1 c
5 0 c 4 0 c 5 -1 c 4 -1 c 4 2 c 5 1 c 4 3 c 4 1 c 5 1 c 4 4 c 5 1 c 4 0 c 4 -3 c 5 -5 c 4 -4 c 4 -2 c 5 0 c 4 0 c 5 3 c 4 0 c 4 1 c
5 4 c 4 22 c 4 81 c 5 40 c 4 -3 c 4 -12 c 5 -25 c 4 -3 c 5 -9 c 4 -35 c 4 -54 c 5 -6 c 4 5 c 4 9 c 5 5 c 4 -2 c 5 -8 c 4 -10 c
4 -3 c 5 -1 c 4 0 c 4 0 c 5 1 c 4 3 c 5 1 c 4 2 c 4 7 c 5 27 c 4 19 c 4 0 c 5 -12 c 4 -35 c 5 -10 c 4 -1 c 4 -1 c 5 -1 c 4 0 c 4 0 c
5 0 c 4 0 c 4 0 c 5 1 c 4 1 c 5 1 c 4 -1 c 4 -1 c 5 0 c 4 0 c 4 1 c 5 3 c 4 1 c 5 0 c 4 0 c 4 0 c 5 1 c 4 3 c 4 4 c 5 37 c 4 211 c
5 1052 c 4 1012 c 4 83 c 5 -352 c 4 -1325 c 4 -668 c 5 -47 c 4 -5 c 4 -2 c 5 1 c 4 10 c 5 15 c 4 1 c 4 7 c 5 25 c 4 99 c 4 50 c
5 0 c 4 -48 c 5 -110 c 4 -27 c 4 -10 c 5 -5 c 4 -8 c 4 -7 c 5 0 c 4 3 c 5 12 c 4 43 c 4 41 c 5 -3 c 4 -15 c 4 -54 c 5 -26 c 4 -2 c
5 -1 c 4 0 c 4 0 c 5 0 c 4 -1 c 4 1 c 5 1 c 4 1 c 4 0 c 5 0 c 4 -2 c 5 -1 c 4 1 c 4 0 c 5 -1 c 4 1 c 4 1 c 5 0 c 4 -1 c 5 0 c 4 -2 c
4 0 c 5 0 c 4 1 c 4 0 c 5 2 c 4 -1 c 5 0 c 4 -1 c 4 0 c 5 0 c 4 0 c 4 0 c 5 0 c 4 0 c 5 1 c 4 0 c 4 0 c 5 0 c 4 -1 c 4 1 c 5 1 c
4 5 c 4 6 c 5 0 c 4 -1 c 5 -7 c 4 1 c 4 4 c 5 1 c 4 -2 c 4 -5 c 5 -3 c 4 0 c 5 0 c 4 0 c 4 1 c 5 3 c 4 3 c 4 0 c 5 -3 c 4 -4 c
5 -1 c 4 0 c 4 0 c 5 -1 c 4 0 c 4 1 c 5 1 c 4 0 c 5 0 c 4 -1 c 4 0 c 5 0 c 4 2 c 4 1 c 5 2 c 4 -1 c 4 -1 c 5 -2 c 4 -1 c 5 0 c 4 0 c
4 0 c 5 0 c 4 0 c 4 0 c 5 0 c 4 0 c 5 0 c 4 -1 c 4 1 c 5 0 c 4 0 c 4 0 c 5 1 c 4 1 c 5 2 c 4 1 c 4 -1 c 5 -2 c 4 0 c 4 0 c 5 -1 c
4 1 c 4 -1 c 5 0 c 4 1 c 5 0 c 4 0 c 4 -1 c 5 1 c 4 2 c 4 1 c 5 -1 c 4 1 c 5 0 c 4 3 c 4 3 c 5 0 c 4 -2 c 4 -1 c 5 -3 c 4 -1 c 5 0 c
4 2 c 4 3 c 5 31 c 4 34 c 4 0 c 5 -7 c 4 -40 c 5 -24 c 4 -1 c 4 0 c 5 1 c 4 -1 c 4 0 c 5 0 c 4 -1 c 4 1 c 5 1 c 4 2 c 5 7 c 4 0 c
4 8 c 5 23 c 4 4 c 4 -2 c 5 -12 c 4 -26 c 5 -6 c 4 -1 c 4 0 c 5 1 c 4 2 c 4 2 c 5 0 c 4 0 c 5 -2 c 4 -2 c 4 1 c 5 0 c 4 0 c 4 -1 c
5 0 c 4 0 c 5 2 c 4 1 c 4 1 c 5 0 c 4 -1 c 4 0 c 5 0 c 4 1 c 4 -1 c 5 -2 c 4 0 c 5 0 c 4 0 c 4 1 c 5 2 c 4 3 c 4 12 c 5 52 c 4 172 c
5 99 c 4 -2 c 4 -55 c 5 1 c 4 147 c 4 17 c 5 -17 c 4 -237 c 5 -165 c 4 -17 c 4 -2 c 5 -2 c 4 0 c 4 3 c 5 1 c 4 0 c 5 0 c 4 -5 c
4 0 c 5 11 c 4 5 c 4 -1 c 5 -6 c 4 -12 c 4 -3 c 5 -1 c 4 0 c 5 1 c 4 1 c 4 1 c 5 0 c 4 -2 c 4 -1 c 5 0 c 4 0 c 5 1 c 4 0 c 4 3 c
5 1 c 4 0 c 4 -1 c 5 -3 c 4 0 c 5 0 c 4 1 c 4 0 c 5 0 c 4 0 c 4 1 c 5 14 c 4 35 c 5 12 c 4 -2 c 4 -19 c 5 -31 c 4 2 c 4 126 c
5 538 c 4 269 c 4 29 c 5 -234 c 4 -563 c 5 -159 c 4 -9 c 4 2 c 5 -1 c 4 -2 c 4 -3 c 5 -2 c 4 0 c 5 -1 c 4 -2 c 4 2 c 5 25 c 4 52 c
4 73 c 5 63 c 4 -15 c 5 -49 c 4 -91 c 4 -54 c 5 -5 c 4 0 c 4 1 c 5 2 c 4 -1 c 4 -1 c 5 -2 c 4 -1 c 5 1 c 4 0 c 4 0 c 5 -1 c 4 -1 c
4 0 c 5 0 c 4 0 c 5 1 c 4 7 c 4 8 c 5 3 c 4 0 c 4 -7 c 5 -4 c 4 11 c 5 30 c 4 11 c 4 -4 c 5 -21 c 4 -27 c 4 -4 c 5 1 c 4 2 c 5 4 c
4 5 c 4 2 c 5 -1 c 4 1 c 4 61 c 5 96 c 4 30 c 4 -4 c 5 -79 c 4 -89 c 5 -9 c 4 6 c 4 8 c 5 26 c 4 87 c 4 645 c 5 1889 c 4 1185 c
5 90 c 4 -857 c 4 -1993 c 5 -809 c 4 -137 c 4 -49 c 5 -51 c 4 -36 c 5 -11 c 4 -3 c 4 -3 c 5 -1 c 4 -1 c 4 -1 c 5 -1 c 4 -1 c 5 -1 c
4 0 c 4 1 c 5 1 c 4 11 c 4 58 c 5 50 c 4 45 c 4 229 c 5 349 c 4 79 c 5 -50 c 4 -312 c 4 -332 c 5 -91 c 4 -20 c 4 -10 c 5 -3 c 4 12 c
5 17 c 4 2 c 4 -3 c 5 -19 c 4 -15 c 4 -2 c 5 0 c 4 0 c 5 0 c 4 1 c 4 0 c 5 1 c 4 0 c 4 -1 c 5 1 c 4 1 c 5 0 c 4 0 c 4 -1 c 5 1 c
4 0 c 4 0 c 5 0 c 4 1 c 4 1 c 5 2 c 4 0 c 5 2 c 4 1 c 4 2 c 5 6 c 4 6 c 4 4 c 5 4 c 4 6 c 5 14 c 4 33 c 4 179 c 5 1683 c 4 3390 c
4 670 c 5 -23 c 4 -1626 c 5 -3290 c 4 -914 c 4 -84 c 5 -18 c 4 -9 c 4 -7 c 5 -6 c 4 1 c 5 17 c 4 6 c 4 -3 c 5 -15 c 4 -22 c 4 -7 c
5 0 c 4 0 c 4 -1 c 5 0 c 4 4 c 5 3 c 4 4 c 4 1 c 5 -4 c 4 -4 c 4 -5 c 5 -3 c 4 0 c 5 0 c 4 -1 c 4 0 c 5 0 c 4 0 c 4 1 c 5 -1 c 4 1 c
5 0 c 4 0 c 4 0 c 5 0 c 4 0 c 4 0 c 5 1 c 4 1 c 4 1 c 5 0 c 4 1 c 5 1 c 4 3 c 4 4 c 5 4 c 4 12 c 4 53 c 5 441 c 4 1312 c 5 683 c
4 64 c 4 -555 c 5 -1381 c 4 -546 c 4 -70 c 5 -9 c 4 -4 c 5 3 c 4 49 c 4 215 c 5 296 c 4 122 c 4 1 c 5 -119 c 4 -207 c 5 -114 c
4 -66 c 4 -136 c 5 -53 c 4 -3 c 4 -1 c 5 0 c 4 -1 c 4 -1 c 5 -1 c 4 -1 c 5 0 c 4 0 c 4 -1 c 5 0 c 4 0 c 4 0 c 5 0 c 4 1 c 5 4 c
4 10 c 4 12 c 5 2 c 4 -6 c 4 -12 c 5 -9 c 4 -1 c 5 0 c 4 0 c 4 0 c 5 0 c 4 0 c 4 1 c 5 1 c 4 1 c 5 4 c 4 14 c 4 23 c 5 92 c 4 272 c
4 191 c 5 15 c 4 -114 c 4 -294 c 5 -92 c 4 483 c 5 1093 c 4 396 c 4 19 c 5 -593 c 4 -1066 c 4 -231 c 5 -46 c 4 -102 c 5 -53 c 4 -6 c
4 0 c 5 0 c 4 0 c 4 -2 c 5 -2 c 4 -2 c 5 0 c 4 -1 c 4 3 c 5 6 c 4 1 c 4 -1 c 5 -2 c 4 -6 c 5 -1 c 4 4 c 4 36 c 5 68 c 4 23 c 4 -2 c
5 -35 c 4 -42 c 4 -6 c 5 -3 c 4 -16 c 5 -19 c 4 -4 c 4 0 c 5 -1 c 4 -3 c 4 -2 c 5 -1 c 4 1 c 5 -1 c 4 0 c 4 -1 c 5 0 c 4 0 c 4 1 c
5 4 c 4 4 c 5 0 c 4 -1 c 4 -5 c 5 -1 c 4 1 c 4 2 c 5 0 c 4 0 c 5 -2 c 4 -2 c 4 -1 c 5 0 c 4 0 c 4 0 c 5 -1 c 4 1 c 4 2 c 5 6 c 4 4 c
5 2 c 4 -2 c 4 -6 c 5 -3 c 4 -2 c 4 -1 c 5 1 c 4 4 c 5 1 c 4 0 c 4 -20 c 5 17 c 4 0 c 4 3 c 5 12 c 4 7 c 5 2 c 4 -2 c 4 -14 c 5 -8 c
4 -2 c 4 -1 c 5 0 c 4 1 c 4 1 c 5 1 c 4 -1 c 5 -1 c 4 -1 c 4 0 c 5 0 c 4 0 c 4 0 c 5 0 c 4 2 c 5 0 c 4 0 c 4 0 c 5 0 c 4 0 c 4 1 c
5 0 c 4 -1 c 5 0 c 4 -1 c 4 1 c 5 11 c 4 79 c 4 91 c 5 31 c 4 -11 c 5 -75 c 4 -62 c 4 -8 c 5 -3 c 4 -21 c 4 -26 c 5 -7 c 4 0 c 4 1 c
5 -1 c 4 0 c 5 0 c 4 0 c 4 0 c 5 0 c 4 -1 c 4 0 c 5 1 c 4 0 c 5 0 c 4 0 c 4 0 c 5 1 c 4 0 c 4 -1 c 5 0 c 4 0 c 5 -1 c 4 0 c 4 0 c
5 0 c 4 0 c 4 2 c 5 2 c 4 4 c 5 3 c 4 0 c 4 -2 c 5 -2 c 4 3 c 4 50 c 5 144 c 4 93 c 4 9 c 5 -54 c 4 -139 c 5 10 c 4 340 c 4 272 c
5 26 c 4 -109 c 4 -396 c 5 -215 c 4 -32 c 5 0 c 4 4 c 4 1 c 5 0 c 4 -4 c 4 -6 c 5 -2 c 4 0 c 5 0 c 4 1 c 4 2 c 5 1 c 4 2 c 4 -1 c
5 -1 c 4 0 c 5 -1 c 4 -1 c 4 0 c 5 7 c 4 6 c 4 1 c 5 0 c 4 7 c 4 33 c 5 16 c 4 2 c 5 -16 c 4 -39 c 4 -11 c 5 19 c 4 89 c 4 61 c
5 20 c 4 -25 c 5 -82 c 4 -62 c 4 -8 c 5 -1 c 4 2 c 4 12 c 5 96 c 4 813 c 5 1336 c 4 412 c 4 -39 c 5 -906 c 4 -1346 c 4 -336 c
5 -30 c 4 2 c 4 2 c 5 16 c 4 76 c 5 833 c 4 2548 c 4 1421 c 5 102 c 4 -997 c 4 -2592 c 5 -1280 c 4 -122 c 5 -13 c 4 -4 c 4 3 c 5 1 c
4 -2 c 4 -2 c 5 -5 c 4 -5 c 5 -4 c 4 -27 c 4 26 c 5 0 c 4 -1 c 4 4 c 5 1 c 4 5 c 5 8 c 4 19 c 4 26 c 5 109 c 4 739 c 4 1187 c
5 456 c 4 -44 c 4 -785 c 5 -1239 c 4 -395 c 5 -63 c 4 -13 c 4 -5 c 5 -2 c 4 0 c 4 -4 c 5 -3 c 4 -3 c 5 2 c 4 10 c 4 11 c 5 7 c 4 3 c
4 -12 c 5 -10 c 4 -1 c 5 27 c 4 45 c 4 42 c 5 10 c 4 -30 c 4 -49 c 5 -43 c 4 -13 c 5 -2 c 4 -1 c 4 -1 c 5 1 c 4 1 c 4 3 c 5 8 c
4 3 c 4 1 c 5 1 c 4 28 c 5 182 c 4 250 c 4 82 c 5 -28 c 4 -217 c 4 -235 c 5 -69 c 4 -4 c 5 -4 c 4 -1 c 4 2 c 5 2 c 4 3 c 4 1 c
5 -3 c 4 -3 c 5 -3 c 4 1 c 4 1 c 5 1 c 4 0 c 4 -1 c 5 0 c 4 0 c 5 3 c 4 17 c 4 31 c 5 38 c 4 34 c 4 -11 c 5 -31 c 4 -42 c 4 -30 c
5 -4 c 4 1 c 5 1 c 4 1 c 4 1 c 5 0 c 4 2 c 4 10 c 5 11 c 4 5 c 5 3 c 4 -6 c 4 -5 c 5 6 c 4 13 c 4 16 c 5 24 c 4 44 c 5 78 c 4 215 c
4 1066 c 5 4542 c 4 -8 c 4 -4 c 5 -2 c 4 17 c 5 -2781 c 4 -2311 c 4 -534 c 5 -150 c 4 -73 c 4 -30 c 5 -30 c 4 -25 c 4 -40 c 5 -24 c
4 -11 c 5 -4 c 4 1 c 4 27 c 5 25 c 4 4 c 4 -5 c 5 -34 c 4 -26 c 5 -6 c 4 -3 c 4 -1 c 5 0 c 4 0 c 4 2 c 5 4 c 4 3 c 5 6 c 4 89 c
4 285 c 5 184 c 4 25 c 4 -90 c 5 -322 c 4 -162 c 4 -24 c 5 -1 c 4 0 c 5 2 c 4 0 c 4 0 c 5 2 c 4 -1 c 4 -1 c 5 -3 c 4 -4 c 5 -2 c
4 3 c 4 3 c 5 2 c 4 -1 c 4 -3 c 5 -4 c 4 -1 c 5 -1 c 4 0 c 4 0 c 5 0 c 4 1 c 4 0 c 5 -1 c 4 0 c 5 0 c 4 2 c 4 1 c 5 1 c 4 0 c 4 0 c
5 6 c 4 25 c 4 15 c 5 3 c 4 -9 c 5 -25 c 4 -13 c 4 -2 c 5 -1 c 4 -2 c 4 0 c 5 3 c 4 2 c 5 0 c 4 0 c 4 -2 c 5 -1 c 4 0 c 4 2 c 5 9 c
4 13 c 5 4 c 4 -2 c 4 -11 c 5 -13 c 4 -3 c 4 -18 c 5 23 c 4 4 c 5 2 c 4 -2 c 4 -4 c 5 -4 c 4 0 c 4 12 c 5 16 c 4 6 c 4 -3 c 5 -14 c
4 -15 c 5 -2 c 4 8 c 4 10 c 5 15 c 4 3 c 4 -6 c 5 -8 c 4 -14 c 5 -5 c 4 -2 c 4 -1 c 5 1 c 4 1 c 4 2 c 5 0 c 4 -1 c 5 -1 c 4 -1 c
4 1 c 5 0 c 4 2 c 4 2 c 5 5 c 4 15 c 5 57 c 4 353 c 4 646 c 5 234 c 4 0 c 4 -377 c 5 -607 c 4 -239 c 4 -58 c 5 -17 c 4 -7 c 5 -5 c
4 -2 c 4 1 c 5 13 c 4 105 c 4 98 c 5 85 c 4 75 c 5 -74 c 4 -101 c 4 -66 c 5 -40 c 4 29 c 4 8 c 5 -10 c 4 -60 c 5 -57 c 4 -10 c 4 1 c
5 2 c 4 -1 c 4 1 c 5 -3 c 4 -1 c 5 2 c 4 1 c 4 2 c 5 3 c 4 6 c 4 4 c 5 54 c 4 158 c 4 320 c 5 350 c 4 20 c 5 -141 c 4 -362 c
4 -329 c 5 -82 c 4 -2 c 4 -1 c 5 2 c 4 0 c 5 3 c 4 5 c 4 -1 c 5 0 c 4 -6 c 4 -6 c 5 -2 c 4 -1 c 5 0 c 4 1 c 4 0 c 5 0 c 4 1 c 4 1 c
5 -1 c 4 -1 c 4 -1 c 5 0 c 4 -1 c 5 1 c 4 0 c 4 1 c 5 1 c 4 5 c 4 29 c 5 25 c 4 6 c 5 -3 c 4 -26 c 4 -22 c 5 5 c 4 1 c 4 0 c 5 -4 c
4 -9 c 5 -7 c 4 -1 c 4 0 c 5 1 c 4 1 c 4 1 c 5 0 c 4 -1 c 5 0 c 4 0 c 4 1 c 5 0 c 4 0 c 4 1 c 5 -2 c 4 3 c 4 22 c 5 223 c 4 352 c
5 102 c 4 -23 c 4 -218 c 5 -345 c 4 -106 c 4 1 c 5 9 c 4 0 c 5 0 c 4 -6 c 4 -9 c 5 -1 c 4 -1 c 4 -1 c 5 -2 c 4 -2 c 5 -1 c 4 0 c
4 1 c 5 2 c 4 0 c 4 2 c 5 10 c 4 35 c 5 21 c 4 0 c 4 -11 c 5 -37 c 4 -19 c 4 -2 c 5 0 c 4 -1 c 4 -2 c 5 0 c 4 1 c 5 2 c 4 1 c 4 4 c
5 8 c 4 25 c 4 24 c 5 2 c 4 -10 c 5 -26 c 4 -20 c 4 -7 c 5 -2 c 4 0 c 4 0 c 5 0 c 4 0 c 5 0 c 4 -1 c 4 1 c 5 0 c 4 0 c 4 -1 c 5 1 c
4 3 c 5 2 c 4 -1 c 4 1 c 5 -3 c 4 0 c 4 4 c 5 4 c 4 0 c 4 -1 c 5 -3 c 4 -3 c 5 1 c 4 1 c 4 1 c 5 1 c 4 6 c 4 83 c 5 516 c 4 515 c
5 64 c 4 -68 c 4 -526 c 5 -499 c 4 -86 c 4 -5 c 5 0 c 4 0 c 5 -1 c 4 0 c 4 0 c 5 0 c 4 -1 c 4 -2 c 5 1 c 4 0 c 5 0 c 4 -1 c 4 -2 c
5 -2 c 4 2 c 4 12 c 5 87 c 4 79 c 4 17 c 5 -6 c 4 -77 c 5 -94 c 4 -5 c 4 13 c 5 44 c 4 34 c 4 -2 c 5 -13 c 4 -40 c 5 -34 c 4 -5 c
4 -1 c 5 -2 c 4 2 c 4 5 c 5 1 c 4 -3 c 5 -7 c 4 -6 c 4 -1 c 5 0 c 4 0 c 4 -1 c 5 2 c 4 6 c 4 4 c 5 -1 c 4 -2 c 5 -6 c 4 -2 c 4 2 c
5 15 c 4 89 c 4 65 c 5 17 c 4 -15 c 5 -83 c 4 -81 c 4 -7 c 5 2 c 4 0 c 4 0 c 5 -1 c 4 -2 c 5 -1 c 4 0 c 4 0 c 5 -1 c 4 0 c 4 1 c
5 1 c 4 0 c 5 0 c 4 0 c 4 -1 c 5 -1 c 4 0 c 4 1 c 5 2 c 4 27 c 4 31 c 5 4 c 4 -4 c 5 -25 c 4 -31 c 4 -6 c 5 0 c 4 0 c 4 0 c 5 0 c
4 0 c 5 0 c 4 1 c 4 2 c 5 1 c 4 2 c 4 2 c 5 5 c 4 7 c 5 3 c 4 -2 c 4 -7 c 5 -8 c 4 -4 c 4 -1 c 5 0 c 4 -1 c 5 0 c 4 0 c 4 0 c 5 -1 c
4 1 c 4 0 c 5 0 c 4 0 c 4 1 c 5 0 c 4 6 c 5 56 c 4 80 c 4 17 c 5 -2 c 4 -50 c 4 -86 c 5 -19 c 4 -2 c 5 1 c 4 -1 c 4 1 c 5 0 c 4 1 c
4 3 c 5 3 c 4 2 c 5 3 c 4 18 c 4 15 c 5 -2 c 4 -1 c 4 -19 c 5 -14 c 4 0 c 5 9 c 4 45 c 4 255 c 5 407 c 4 129 c 4 -23 c 5 -229 c
4 -414 c 4 -139 c 5 -31 c 4 -8 c 5 -3 c 4 1 c 4 5 c 5 1 c 4 -1 c 4 9 c 5 9 c 4 1 c 5 -1 c 4 -9 c 4 -18 c 5 -3 c 4 1 c 4 -1 c 5 1 c
4 1 c 5 2 c 4 4 c 4 -2 c 5 -2 c 4 -2 c 4 -4 c 5 -1 c 4 0 c 4 0 c 5 1 c 4 0 c 5 0 c 4 1 c 4 -1 c 5 0 c 4 0 c 4 -1 c 5 1 c 4 1 c 5 0 c
4 -1 c 4 0 c 5 2 c 4 4 c 4 1 c 5 2 c 4 -3 c 5 -3 c 4 -1 c 4 0 c 5 0 c 4 0 c 4 -1 c 5 2 c 4 18 c 5 91 c 4 58 c 4 10 c 5 -18 c 4 -73 c
4 -79 c 5 -9 c 4 2 c 4 6 c 5 9 c 4 0 c 5 0 c 4 -8 c 4 -7 c 5 1 c 4 1 c 4 0 c 5 -2 c 4 -3 c 5 -2 c 4 0 c 4 1 c 5 1 c 4 1 c 4 3 c
5 2 c 4 1 c 5 -2 c 4 -3 c 4 -2 c 5 -1 c 4 -1 c 4 0 c 5 1 c 4 2 c 5 1 c 4 0 c 4 -1 c 5 -2 c 4 0 c 4 0 c 5 1 c 4 1 c 4 3 c 5 -1 c
4 0 c 5 -2 c 4 -3 c 4 -1 c 5 1 c 4 0 c 4 0 c 5 0 c 4 0 c 5 0 c 4 0 c 4 0 c 5 0 c 4 0 c 4 3 c 5 0 c 4 1 c 5 1 c 4 0 c 4 -1 c 5 -1 c
4 -1 c 4 -1 c 5 1 c 4 0 c 5 0 c 4 2 c 4 4 c 5 48 c 4 277 c 4 198 c 5 17 c 4 -27 c 4 -265 c 5 -223 c 4 -26 c 5 1 c 4 1 c 4 0 c 5 -2 c
4 -3 c 4 -3 c 5 0 c 4 2 c 5 0 c 4 1 c 4 0 c 5 -1 c 4 -2 c 4 0 c 5 0 c 4 0 c 5 0 c 4 0 c 4 -1 c 5 0 c 4 0 c 4 1 c 5 0 c 4 0 c 5 1 c
4 0 c 4 0 c 5 2 c 4 14 c 4 106 c 5 81 c 4 12 c 4 -7 c 5 -85 c 4 -108 c 5 -12 c 4 -1 c 4 1 c 5 0 c 4 3 c 4 25 c 5 23 c 4 4 c 5 0 c
4 -13 c 4 10 c 5 13 c 4 2 c 4 -10 c 5 -36 c 4 -19 c 5 0 c 4 1 c 4 2 c 5 2 c 4 6 c 4 10 c 5 31 c 4 120 c 4 585 c 5 708 c 4 147 c
5 -53 c 4 -500 c 4 -741 c 5 -227 c 4 -55 c 4 -20 c 5 -8 c 4 -5 c 5 -1 c 4 -2 c 4 -1 c 5 -2 c 4 0 c 4 -1 c 5 1 c 4 0 c 5 1 c 4 0 c
4 -1 c 5 2 c 4 -1 c 4 -1 c 5 -1 c 4 -2 c 5 -1 c 4 -1 c 4 1 c 5 0 c 4 0 c 4 1 c 5 1 c 4 -1 c 4 -1 c 5 0 c 4 2 c 5 1 c 4 0 c 4 0 c
5 3 c 4 0 c 4 1 c 5 4 c 4 -1 c 5 -2 c 4 0 c 4 -3 c 5 -2 c 4 3 c 4 21 c 5 101 c 4 113 c 5 22 c 4 -20 c 4 -77 c 5 -131 c 4 -6 c 4 46 c
5 6 c 4 7 c 5 -10 c 4 -42 c 4 -13 c 5 -7 c 4 -5 c 4 -6 c 5 0 c 4 1 c 4 6 c 5 66 c 4 327 c 5 185 c 4 5 c 4 -52 c 5 -287 c 4 -227 c
4 -21 c 5 -1 c 4 1 c 5 -2 c 4 0 c 4 0 c 5 1 c 4 0 c 4 1 c 5 1 c 4 1 c 5 2 c 4 4 c 4 3 c 5 0 c 4 0 c 4 -1 c
5 2 c 4 2 c 5 6 c 4 8 c 4 -48 c 4 257 9549 780 l 4 893 c 5 2500 c 4 1399 c 4 89 c 5 -633 c 4 -2230 c 5 -1756 c 4 -335 c 4 -84 c
5 -35 c 4 -16 c 4 -6 c 5 -4 c 4 -3 c 5 2 c 4 7 c 4 1 c 5 3 c 4 8 c 4 26 c 5 153 c 4 740 c 5 621 c 4 73 c 4 -103 c 5 -576 c 4 -718 c
4 -166 c 5 -48 c 4 -20 c 5 -9 c 4 -4 c 4 -4 c 5 -2 c 4 -2 c 4 0 c 5 1 c 4 3 c
0 -126 3030 418 l 54 0 3030 418 l 18 -6 c 6 -6 c 6 -12 c 0 -12 c -6 -12 c -6 -6 c -18 -6 c -54 0 c 42 -66 3072 358 l
-12 -6 3180 376 l -12 -12 c -6 -18 c 0 -12 c 6 -18 c 12 -12 c 12 -6 c 18 0 c 12 6 c 12 12 c 6 18 c 0 12 c -6 18 c -12 12 c -12 6 c
-18 0 c 24 -84 3264 376 l -24 -84 3312 376 l 24 -84 3312 376 l -24 -84 3360 376 l 108 0 3402 364 l 108 0 3402 328 l 12 6 3666 394 l
18 18 c 0 -126 c 66 0 3780 418 l -36 -48 c 18 0 c 12 -6 c 6 -6 c 6 -18 c 0 -12 c -6 -18 c -12 -12 c -18 -6 c -18 0 c -18 6 c -6 6 c
-6 12 c 12 6 4290 394 l 18 18 c 0 -126 c -6 -6 4404 376 l 6 -6 c 6 6 c -6 6 c -6 -6 4404 304 l 6 -6 c 6 6 c -6 6 c
-48 -126 4584 418 l 48 -126 4584 418 l 60 0 4554 334 l 0 -84 4662 376 l 6 18 4662 340 l 12 12 c 12 6 c 18 0 c -12 12 4806 358 l
-12 6 c -18 0 c -12 -6 c -12 -12 c -6 -18 c 0 -12 c 6 -18 c 12 -12 c 12 -6 c 18 0 c 12 6 c 12 12 c 108 0 4848 346 l
-18 -6 5034 418 l -12 -18 c -6 -30 c 0 -18 c 6 -30 c 12 -18 c 18 -6 c 12 0 c 18 6 c 12 18 c 6 30 c 0 18 c -6 30 c -12 18 c -18 6 c
-12 0 c 66 0 5130 418 l -36 -48 c 18 0 c 12 -6 c 6 -6 c 6 -18 c 0 -12 c -6 -18 c -12 -12 c -18 -6 c -18 0 c -18 6 c -6 6 c -6 12 c
-59 0 5309 418 l -6 -54 c 6 6 c 17 6 c 18 0 c 18 -6 c 12 -12 c 6 -18 c 0 -12 c -6 -18 c -12 -12 c -18 -6 c -18 0 c -17 6 c -6 6 c
-6 12 c -6 -6 5369 304 l 6 -6 c 6 6 c -6 6 c -12 0 5459 418 l -12 -6 c -6 -18 c 0 -102 c 42 0 5411 376 l 6 -6 5489 418 l 6 6 c
-6 6 c -6 -6 c 0 -84 5495 376 l 0 -102 5549 418 l 6 -18 c 12 -6 c 12 0 c 42 0 5531 376 l -6 12 5675 358 l -18 6 c -18 0 c -18 -6 c
-6 -12 c 6 -12 c 12 -6 c 30 -6 c 12 -6 c 6 -12 c 0 -6 c -6 -12 c -18 -6 c -18 0 c -18 6 c -6 12 c 0 -192 6005 442 l
0 -192 6011 442 l 42 0 6005 442 l 42 0 6005 250 l 0 6 6089 388 l 6 12 c 6 6 c 12 6 c 24 0 c 12 -6 c 6 -6 c 6 -12 c 0 -12 c -6 -12 c
-12 -18 c -60 -60 c 84 0 c -6 -6 6215 376 l 6 -6 c 6 6 c -6 6 c -6 -6 6215 304 l 6 -6 c 6 6 c -6 6 c -48 -126 6395 418 l
48 -126 6395 418 l 60 0 6365 334 l 0 -84 6473 376 l 6 18 6473 340 l 12 12 c 12 6 c 18 0 c -12 12 6617 358 l -12 6 c -18 0 c -12 -6 c
-12 -12 c -6 -18 c 0 -12 c 6 -18 c 12 -12 c 12 -6 c 18 0 c 12 6 c 12 12 c 108 0 6659 346 l -18 -6 6845 418 l -12 -18 c -6 -30 c
0 -18 c 6 -30 c 12 -18 c 18 -6 c 12 0 c 18 6 c 12 18 c 6 30 c 0 18 c -6 30 c -12 18 c -18 6 c -12 0 c 66 0 6941 418 l -36 -48 c
18 0 c 12 -6 c 6 -6 c 6 -18 c 0 -12 c -6 -18 c -12 -12 c -18 -6 c -18 0 c -18 6 c -6 6 c -6 12 c -6 12 7127 400 l -18 6 c -12 0 c
-18 -6 c -12 -18 c -6 -30 c 0 -30 c 6 -24 c 12 -12 c 18 -6 c 6 0 c 18 6 c 12 12 c 6 18 c 0 6 c -6 18 c -12 12 c -18 6 c -6 0 c
-18 -6 c -12 -12 c -6 -18 c -6 -6 7181 304 l 6 -6 c 6 6 c -6 6 c -12 0 7271 418 l -12 -6 c -6 -18 c 0 -102 c 42 0 7223 376 l
6 -6 7301 418 l 6 6 c -6 6 c -6 -6 c 0 -84 7307 376 l 0 -102 7361 418 l 6 -18 c 12 -6 c 12 0 c 42 0 7343 376 l -6 12 7487 358 l
-18 6 c -18 0 c -18 -6 c -6 -12 c 6 -12 c 12 -6 c 30 -6 c 12 -6 c 6 -12 c 0 -6 c -6 -12 c -18 -6 c -18 0 c -18 6 c -6 12 c
0 -192 7559 442 l 0 -192 7565 442 l 42 0 7523 442 l 42 0 7523 250 l
0 -250 1272 2848 l 52 -38 1229 2958 l 0 57 c 79 0 1229 2958 l 0 42 1229 3003 l 30 -23 c 0 11 c 4 8 c 3 4 c 12 3 c 7 0 c 12 -3 c
7 -8 c 4 -11 c 0 -12 c -4 -11 c -4 -4 c -7 -4 c -4 8 1244 3082 l -11 11 c 79 0 c -3 0 1247 3150 l -8 4 c -4 4 c -3 7 c 0 16 c 3 7 c
4 4 c 8 4 c 7 0 c 8 -4 c 11 -8 c 38 -37 c 0 53 c 4 -4 1300 3230 l 4 4 c -4 4 c -4 -4 c 11 -4 1255 3309 l 8 -7 c 4 -12 c 0 -3 c
-4 -12 c -8 -7 c -11 -4 c -4 0 c -11 4 c -8 7 c -3 12 c 0 3 c 3 12 c 8 7 c 15 4 c 19 0 c 19 -4 c 11 -7 c 4 -12 c 0 -7 c -4 -11 c
-7 -4 c 11 -4 1255 3385 l 8 -8 c 4 -11 c 0 -4 c -4 -11 c -8 -8 c -11 -3 c -4 0 c -11 3 c -8 8 c -3 11 c 0 4 c 3 11 c 8 8 c 15 4 c
19 0 c 19 -4 c 11 -8 c 4 -11 c 0 -8 c -4 -11 c -7 -4 c 3 -11 1229 3430 l 8 -4 c 7 0 c 8 4 c 4 7 c 4 15 c 3 12 c 8 7 c 7 4 c 12 0 c
7 -4 c 4 -3 c 4 -12 c 0 -15 c -4 -11 c -4 -4 c -7 -4 c -12 0 c -7 4 c -8 7 c -3 12 c -4 15 c -4 8 c -8 3 c -7 0 c -8 -3 c -3 -12 c
0 -15 c 0 -249 1452 1303 l 53 -38 1408 1413 l 0 57 c 79 0 1408 1413 l 0 42 1408 1458 l 30 -23 c 0 11 c 4 8 c 4 4 c 11 3 c 8 0 c
11 -3 c 8 -8 c 3 -11 c 0 -12 c -3 -11 c -4 -4 c -8 -3 c -4 8 1423 1537 l -11 11 c 79 0 c 53 -38 1408 1640 l 0 56 c 79 0 1408 1640 l
4 -4 1480 1685 l 3 4 c -3 4 c -4 -4 c 0 41 1408 1723 l 30 -22 c 0 11 c 4 7 c 4 4 c 11 4 c 8 0 c 11 -4 c 8 -7 c 3 -12 c 0 -11 c
-3 -11 c -4 -4 c -8 -4 c -4 8 1423 1802 l -11 11 c 79 0 c 11 -3 1435 1915 l 7 -8 c 4 -11 c 0 -4 c -4 -11 c -7 -8 c -11 -4 c -4 0 c
-12 4 c -7 8 c -4 11 c 0 4 c 4 11 c 7 8 c 16 3 c 18 0 c 19 -3 c 12 -8 c 3 -11 c 0 -8 c -3 -11 c -8 -4 c 0 -249 1579 1981 l
53 -38 1535 2091 l 0 57 c 79 0 1535 2091 l 0 42 1535 2136 l 30 -23 c 0 12 c 4 7 c 4 4 c 11 4 c 8 0 c 11 -4 c 8 -8 c 3 -11 c 0 -11 c
-3 -12 c -4 -3 c -8 -4 c -4 7 1550 2216 l -11 12 c 79 0 c 0 -37 1535 2325 l 34 -4 c -4 4 c -3 11 c 0 11 c 3 12 c 8 7 c 11 4 c 8 0 c
11 -4 c 8 -7 c 3 -12 c 0 -11 c -3 -11 c -4 -4 c -8 -4 c 4 -4 1607 2363 l 3 4 c -3 4 c -4 -4 c -4 0 1554 2397 l -7 4 c -4 4 c -4 7 c
0 15 c 4 8 c 4 4 c 7 3 c 8 0 c 7 -3 c 12 -8 c 37 -38 c 0 53 c 0 -37 1535 2514 l 34 -4 c -4 4 c -3 11 c 0 11 c 3 12 c 8 7 c 11 4 c
8 0 c 11 -4 c 8 -7 c 3 -12 c 0 -11 c -3 -11 c -4 -4 c -8 -4 c 53 -37 1535 2582 l 0 56 c 79 0 1535 2582 l 0 -249 2243 3637 l
53 -38 2200 3747 l 0 57 c 79 0 2200 3747 l 0 42 2200 3792 l 30 -23 c 0 11 c 4 8 c 4 4 c 11 4 c 7 0 c 12 -4 c 7 -8 c 4 -11 c 0 -12 c
-4 -11 c -3 -4 c -8 -3 c -4 0 2219 3864 l -8 4 c -3 4 c -4 7 c 0 15 c 4 8 c 3 4 c 8 3 c 7 0 c 8 -3 c 11 -8 c 38 -38 c 0 53 c
4 -11 2200 3958 l 11 -7 c 19 -4 c 11 0 c 19 4 c 11 7 c 4 11 c 0 8 c -4 11 c -11 8 c -19 4 c -11 0 c -19 -4 c -11 -8 c -4 -11 c
0 -8 c 3 -4 2272 4019 l 4 4 c -4 4 c -3 -4 c -4 7 2215 4061 l -11 11 c 79 0 c -4 0 2219 4129 l -8 3 c -3 4 c -4 8 c 0 15 c 4 7 c
3 4 c 8 4 c 7 0 c 8 -4 c 11 -7 c 38 -38 c 0 53 c -7 -3 2211 4249 l -4 -12 c 0 -7 c 4 -12 c 11 -7 c 19 -4 c 19 0 c 15 4 c 7 7 c
4 12 c 0 4 c -4 11 c -7 7 c -12 4 c -3 0 c -12 -4 c -7 -7 c -4 -11 c 0 -4 c 4 -12 c 7 -7 c 12 -4 c 0 -250 2952 1302 l
53 -37 2908 1411 l 0 56 c 79 0 2908 1411 l 0 41 2908 1457 l 30 -22 c 0 11 c 4 7 c 4 4 c 11 4 c 8 0 c 11 -4 c 8 -7 c 3 -12 c 0 -11 c
-3 -11 c -4 -4 c -8 -4 c -4 0 2927 1528 l -7 4 c -4 4 c -4 8 c 0 15 c 4 7 c 4 4 c 7 4 c 8 0 c 7 -4 c 12 -8 c 37 -37 c 0 53 c
0 -38 2908 1646 l 34 -4 c -4 4 c -3 11 c 0 12 c 3 11 c 8 7 c 11 4 c 8 0 c 11 -4 c 8 -7 c 3 -11 c 0 -12 c -3 -11 c -4 -4 c -8 -4 c
4 -3 2980 1683 l 3 3 c -3 4 c -4 -4 c -4 0 2927 1717 l -7 4 c -4 4 c -4 8 c 0 15 c 4 7 c 4 4 c 7 4 c 8 0 c 7 -4 c 12 -8 c 37 -37 c
0 53 c 79 -38 2908 1842 l 0 53 2908 1789 l 53 -38 2908 1903 l 0 57 c 79 0 2908 1903 l 0 -250 3458 2207 l 53 -37 3414 2316 l 0 56 c
79 0 3414 2316 l 0 41 3414 2362 l 30 -22 c 0 11 c 4 8 c 4 3 c 11 4 c 8 0 c 11 -4 c 8 -7 c 3 -12 c 0 -11 c -3 -11 c -4 -4 c -8 -4 c
-4 0 3433 2434 l -7 3 c -4 4 c -4 8 c 0 15 c 4 7 c 4 4 c 7 4 c 8 0 c 7 -4 c 12 -7 c 37 -38 c 0 53 c 4 -11 3414 2524 l 7 -4 c 8 0 c
7 4 c 4 7 c 4 16 c 4 11 c 7 7 c 8 4 c 11 0 c 8 -4 c 4 -3 c 3 -12 c 0 -15 c -3 -11 c -4 -4 c -8 -4 c -11 0 c -8 4 c -7 8 c -4 11 c
-4 15 c -4 8 c -7 3 c -8 0 c -7 -3 c -4 -12 c 0 -15 c 4 -3 3486 2588 l 3 3 c -3 4 c -4 -4 c 12 -4 3440 2668 l 7 -7 c 4 -12 c 0 -4 c
-4 -11 c -7 -7 c -12 -4 c -3 0 c -12 4 c -7 7 c -4 11 c 0 4 c 4 12 c 7 7 c 15 4 c 19 0 c 19 -4 c 12 -7 c 3 -12 c 0 -7 c -3 -12 c
-8 -3 c -4 7 3429 2706 l -11 12 c 79 0 c 0 -38 3414 2815 l 34 -3 c -4 3 c -4 12 c 0 11 c 4 11 c 8 8 c 11 4 c 8 0 c 11 -4 c 8 -8 c
3 -11 c 0 -11 c -3 -12 c -4 -3 c -8 -4 c 0 -250 3777 5191 l 53 -38 3733 5300 l 0 57 c 80 0 3733 5300 l 0 41 3733 5346 l 31 -23 c
0 12 c 3 7 c 4 4 c 11 4 c 8 0 c 11 -4 c 8 -7 c 4 -12 c 0 -11 c -4 -11 c -4 -4 c -7 -4 c 0 42 3733 5421 l 31 -23 c 0 11 c 3 8 c 4 4 c
11 4 c 8 0 c 11 -4 c 8 -8 c 4 -11 c 0 -11 c -4 -12 c -4 -4 c -7 -3 c -3 7 3748 5501 l -12 11 c 80 0 c 4 -3 3805 5572 l 4 3 c -4 4 c
-4 -4 c -3 7 3748 5614 l -12 12 c 80 0 c 11 -3 3760 5727 l 8 -8 c 3 -11 c 0 -4 c -3 -11 c -8 -8 c -11 -4 c -4 0 c -11 4 c -8 8 c
-4 11 c 0 4 c 4 11 c 8 8 c 15 3 c 19 0 c 19 -3 c 11 -8 c 4 -11 c 0 -8 c -4 -11 c -8 -4 c 11 -4 3760 5803 l 8 -7 c 3 -12 c 0 -4 c
-3 -11 c -8 -7 c -11 -4 c -4 0 c -11 4 c -8 7 c -4 11 c 0 4 c 4 12 c 8 7 c 15 4 c 19 0 c 19 -4 c 11 -7 c 4 -12 c 0 -7 c -4 -12 c
-8 -3 c 0 -249 3892 2058 l 53 -38 3849 2168 l 0 57 c 79 0 3849 2168 l 0 42 3849 2213 l 30 -23 c 0 12 c 4 7 c 4 4 c 11 4 c 8 0 c
11 -4 c 7 -8 c 4 -11 c 0 -11 c -4 -12 c -3 -3 c -8 -4 c 0 42 3849 2289 l 30 -23 c 0 11 c 4 8 c 4 4 c 11 3 c 8 0 c 11 -3 c 7 -8 c
4 -11 c 0 -12 c -4 -11 c -3 -4 c -8 -4 c -4 0 3868 2361 l -8 4 c -3 3 c -4 8 c 0 15 c 4 8 c 3 3 c 8 4 c 8 0 c 7 -4 c 11 -7 c
38 -38 c 0 53 c 3 -4 3921 2440 l 4 4 c -4 4 c -3 -4 c 4 -11 3849 2493 l 11 -8 c 19 -4 c 11 0 c 19 4 c 11 8 c 4 11 c 0 8 c -4 11 c
-11 8 c -19 3 c -11 0 c -19 -3 c -11 -8 c -4 -11 c 0 -8 c 0 41 3849 2554 l 30 -23 c 0 12 c 4 7 c 4 4 c 11 4 c 8 0 c 11 -4 c 7 -7 c
4 -12 c 0 -11 c -4 -11 c -3 -4 c -8 -4 c 4 -11 3849 2644 l 11 -8 c 19 -3 c 11 0 c 19 3 c 11 8 c 4 11 c 0 8 c -4 11 c -11 8 c -19 4 c
-11 0 c -19 -4 c -11 -8 c -4 -11 c 0 -8 c 0 -249 4108 7019 l 53 -38 4064 7129 l 0 57 c 80 0 4064 7129 l 0 42 4064 7174 l 30 -23 c
0 11 c 4 8 c 4 4 c 11 3 c 8 0 c 11 -3 c 8 -8 c 4 -11 c 0 -12 c -4 -11 c -4 -4 c -8 -3 c 0 41 4064 7250 l 30 -22 c 0 11 c 4 7 c 4 4 c
11 4 c 8 0 c 11 -4 c 8 -7 c 4 -12 c 0 -11 c -4 -11 c -4 -4 c -8 -4 c 0 42 4064 7325 l 30 -23 c 0 11 c 4 8 c 4 4 c 11 4 c 8 0 c
11 -4 c 8 -8 c 4 -11 c 0 -11 c -4 -12 c -4 -4 c -8 -3 c 4 -4 4136 7401 l 4 4 c -4 4 c -4 -4 c 0 -37 4064 7476 l 34 -4 c -4 4 c
-3 11 c 0 11 c 3 12 c 8 7 c 11 4 c 8 0 c 11 -4 c 8 -7 c 4 -12 c 0 -11 c -4 -11 c -4 -4 c -8 -4 c -8 -4 4076 7556 l -4 -11 c 0 -8 c
4 -11 c 11 -8 c 19 -4 c 19 0 c 15 4 c 8 8 c 4 11 c 0 4 c -4 11 c -8 8 c -11 4 c -4 0 c -11 -4 c -8 -8 c -4 -11 c 0 -4 c 4 -11 c
8 -8 c 11 -4 c -3 7 4079 7594 l -12 11 c 80 0 c 0 -250 4633 3339 l 53 -38 4589 3449 l 0 57 c 80 0 4589 3449 l 0 42 4589 3494 l
30 -23 c 0 11 c 4 8 c 4 4 c 11 3 c 8 0 c 11 -3 c 8 -8 c 4 -11 c 0 -12 c -4 -11 c -4 -4 c -8 -4 c 0 41 4589 3570 l 30 -23 c 0 12 c
4 7 c 4 4 c 11 4 c 8 0 c 11 -4 c 8 -7 c 4 -12 c 0 -11 c -4 -11 c -4 -4 c -8 -4 c 80 -38 4589 3691 l 0 53 4589 3638 l
4 -4 4661 3721 l 4 4 c -4 4 c -4 -4 c -4 0 4608 3755 l -7 4 c -4 3 c -4 8 c 0 15 c 4 8 c 4 3 c 7 4 c 8 0 c 7 -4 c 12 -7 c 38 -38 c
0 53 c 80 -37 4589 3879 l 0 52 4589 3827 l 80 -38 4589 3955 l 0 53 4589 3902 l 0 -250 5148 1445 l 53 -38 5104 1554 l 0 57 c
80 0 5104 1554 l 0 42 5104 1599 l 30 -23 c 0 12 c 4 7 c 4 4 c 11 4 c 8 0 c 11 -4 c 8 -8 c 4 -11 c 0 -11 c -4 -12 c -4 -3 c -8 -4 c
53 -38 5104 1705 l 0 57 c 80 0 5104 1705 l 4 -12 5104 1766 l 11 -7 c 19 -4 c 12 0 c 18 4 c 12 7 c 4 12 c 0 7 c -4 12 c -12 7 c
-18 4 c -12 0 c -19 -4 c -11 -7 c -4 -12 c 0 -7 c 4 -4 5176 1826 l 4 4 c -4 4 c -4 -4 c 4 -11 5104 1875 l 8 -4 c 7 0 c 8 4 c 3 8 c
4 15 c 4 11 c 8 8 c 7 3 c 11 0 c 8 -3 c 4 -4 c 4 -12 c 0 -15 c -4 -11 c -4 -4 c -8 -4 c -11 0 c -7 4 c -8 8 c -4 11 c -4 15 c -3 8 c
-8 4 c -7 0 c -8 -4 c -4 -12 c 0 -15 c 11 -4 5131 1981 l 8 -7 c 3 -11 c 0 -4 c -3 -12 c -8 -7 c -11 -4 c -4 0 c -11 4 c -8 7 c
-4 12 c 0 4 c 4 11 c 8 7 c 15 4 c 19 0 c 18 -4 c 12 -7 c 4 -11 c 0 -8 c -4 -11 c -8 -4 c 0 -38 5104 2053 l 34 -4 c -4 4 c -3 12 c
0 11 c 3 11 c 8 8 c 11 4 c 8 0 c 11 -4 c 8 -8 c 4 -11 c 0 -11 c -4 -12 c -4 -4 c -8 -3 c 0 -249 5369 1991 l 53 -38 5325 2101 l
0 57 c 79 0 5325 2101 l 0 42 5325 2146 l 30 -23 c 0 12 c 4 7 c 4 4 c 11 4 c 8 0 c 11 -4 c 8 -8 c 3 -11 c 0 -11 c -3 -12 c -4 -3 c
-8 -4 c 53 -38 5325 2252 l 0 57 c 79 0 5325 2252 l -4 0 5344 2294 l -7 4 c -4 3 c -4 8 c 0 15 c 4 8 c 4 3 c 7 4 c 8 0 c 7 -4 c
12 -7 c 37 -38 c 0 53 c 4 -4 5397 2373 l 3 4 c -3 4 c -4 -4 c 53 -38 5325 2441 l 0 57 c 79 0 5325 2441 l 53 -38 5325 2517 l 0 57 c
79 0 5325 2517 l 53 -37 5325 2592 l 0 56 c 79 0 5325 2592 l 0 -249 5639 6266 l 53 -38 5595 6376 l 0 57 c 80 0 5595 6376 l
0 42 5595 6421 l 31 -23 c 0 11 c 3 8 c 4 4 c 12 4 c 7 0 c 11 -4 c 8 -8 c 4 -11 c 0 -12 c -4 -11 c -4 -4 c -7 -3 c 53 -38 5595 6527 l
0 57 c 80 0 5595 6527 l 53 -38 5595 6603 l 0 56 c 80 0 5595 6603 l 4 -4 5667 6648 l 4 4 c -4 4 c -4 -4 c 0 41 5595 6686 l 31 -22 c
0 11 c 3 8 c 4 3 c 12 4 c 7 0 c 11 -4 c 8 -7 c 4 -12 c 0 -11 c -4 -11 c -4 -4 c -7 -4 c -3 0 5614 6758 l -8 3 c -4 4 c -4 8 c 0 15 c
4 7 c 4 4 c 8 4 c 7 0 c 8 -4 c 11 -7 c 38 -38 c 0 53 c 80 -38 5595 6882 l 0 53 5595 6829 l 0 -250 5760 3796 l 52 -38 5717 3905 l
0 57 c 79 0 5717 3905 l 0 41 5717 3951 l 30 -23 c 0 12 c 4 7 c 3 4 c 12 4 c 7 0 c 12 -4 c 7 -7 c 4 -12 c 0 -11 c -4 -11 c -4 -4 c
-7 -4 c 52 -37 5717 4056 l 0 56 c 79 0 5717 4056 l 0 -38 5717 4140 l 34 -4 c -4 4 c -4 11 c 0 11 c 4 12 c 7 7 c 12 4 c 7 0 c 12 -4 c
7 -7 c 4 -12 c 0 -11 c -4 -11 c -4 -4 c -7 -4 c 4 -3 5788 4177 l 4 3 c -4 4 c -4 -4 c -4 7 5732 4219 l -11 12 c 79 0 c
-8 -4 5728 4332 l -3 -11 c 0 -7 c 3 -12 c 12 -7 c 19 -4 c 18 0 c 16 4 c 7 7 c 4 12 c 0 3 c -4 12 c -7 7 c -12 4 c -4 0 c -11 -4 c
-7 -7 c -4 -12 c 0 -3 c 4 -12 c 7 -7 c 11 -4 c 3 -12 5717 4378 l 8 -3 c 7 0 c 8 3 c 4 8 c 4 15 c 3 11 c 8 8 c 7 4 c 12 0 c 7 -4 c
4 -4 c 4 -11 c 0 -15 c -4 -12 c -4 -3 c -7 -4 c -12 0 c -7 4 c -8 7 c -3 11 c -4 16 c -4 7 c -8 4 c -7 0 c -8 -4 c -3 -11 c 0 -15 c
0 -250 5943 1795 l 53 -38 5899 1904 l 0 57 c 80 0 5899 1904 l 0 41 5899 1950 l 31 -23 c 0 12 c 3 7 c 4 4 c 12 4 c 7 0 c 11 -4 c
8 -7 c 4 -12 c 0 -11 c -4 -11 c -4 -4 c -7 -4 c 53 -37 5899 2055 l 0 56 c 80 0 5899 2055 l -8 -4 5911 2142 l -4 -11 c 0 -7 c 4 -12 c
12 -7 c 18 -4 c 19 0 c 15 4 c 8 7 c 4 12 c 0 3 c -4 12 c -8 7 c -11 4 c -4 0 c -11 -4 c -8 -7 c -3 -12 c 0 -3 c 3 -12 c 8 -7 c
11 -4 c 4 -3 5971 2176 l 4 3 c -4 4 c -4 -4 c 53 -37 5899 2244 l 0 56 c 80 0 5899 2244 l 0 41 5899 2290 l 31 -22 c 0 11 c 3 7 c
4 4 c 12 4 c 7 0 c 11 -4 c 8 -7 c 4 -12 c 0 -11 c -4 -11 c -4 -4 c -7 -4 c 80 -38 5899 2411 l 0 53 5899 2358 l 0 -249 6179 7019 l
53 -38 6135 7129 l 0 57 c 80 0 6135 7129 l 0 42 6135 7174 l 31 -23 c 0 11 c 3 8 c 4 4 c 12 3 c 7 0 c 11 -3 c 8 -8 c 4 -11 c 0 -12 c
-4 -11 c -4 -4 c -7 -3 c 53 -38 6135 7280 l 0 57 c 80 0 6135 7280 l 4 -12 6135 7337 l 8 -4 c 7 0 c 8 4 c 4 8 c 3 15 c 4 11 c 8 8 c
7 4 c 12 0 c 7 -4 c 4 -4 c 4 -11 c 0 -15 c -4 -12 c -4 -4 c -7 -3 c -12 0 c -7 3 c -8 8 c -4 11 c -3 15 c -4 8 c -8 4 c -7 0 c
-8 -4 c -4 -11 c 0 -15 c 4 -4 6207 7401 l 4 4 c -4 4 c -4 -4 c 4 -12 6135 7454 l 12 -7 c 18 -4 c 12 0 c 19 4 c 11 7 c 4 12 c 0 7 c
-4 12 c -11 7 c -19 4 c -12 0 c -18 -4 c -12 -7 c -4 -12 c 0 -7 c -8 -4 6147 7556 l -4 -11 c 0 -8 c 4 -11 c 12 -8 c 18 -4 c 19 0 c
15 4 c 8 8 c 4 11 c 0 4 c -4 11 c -8 8 c -11 4 c -4 0 c -11 -4 c -8 -8 c -3 -11 c 0 -4 c 3 -11 c 8 -8 c 11 -4 c 53 -38 6135 7620 l
0 57 c 80 0 6135 7620 l 0 -250 6326 1841 l 53 -38 6282 1951 l 0 56 c 79 0 6282 1951 l 0 41 6282 1996 l 30 -22 c 0 11 c 4 8 c 4 3 c
11 4 c 8 0 c 11 -4 c 8 -7 c 3 -11 c 0 -12 c -3 -11 c -4 -4 c -8 -4 c 53 -38 6282 2102 l 0 57 c 79 0 6282 2102 l 11 -4 6309 2189 l
7 -8 c 4 -11 c 0 -4 c -4 -11 c -7 -8 c -11 -3 c -4 0 c -12 3 c -7 8 c -4 11 c 0 4 c 4 11 c 7 8 c 16 4 c 18 0 c 19 -4 c 12 -8 c
3 -11 c 0 -8 c -3 -11 c -8 -4 c 4 -4 6354 2223 l 3 4 c -3 3 c -4 -3 c 4 -12 6282 2276 l 11 -7 c 19 -4 c 11 0 c 19 4 c 12 7 c 3 12 c
0 7 c -3 11 c -12 8 c -19 4 c -11 0 c -19 -4 c -11 -8 c -4 -11 c 0 -7 c 79 -37 6282 2381 l 0 52 6282 2329 l -4 0 6301 2408 l -7 4 c
-4 3 c -4 8 c 0 15 c 4 8 c 4 3 c 7 4 c 8 0 c 7 -4 c 12 -7 c 37 -38 c 0 53 c 0 -249 6783 2552 l 53 -38 6740 2662 l 0 57 c
79 0 6740 2662 l 0 42 6740 2707 l 30 -23 c 0 11 c 4 8 c 3 4 c 12 3 c 7 0 c 12 -3 c 7 -8 c 4 -11 c 0 -12 c -4 -11 c -3 -4 c -8 -3 c
0 -37 6740 2820 l 34 -4 c -4 4 c -4 11 c 0 11 c 4 12 c 7 7 c 12 4 c 7 0 c 12 -4 c 7 -7 c 4 -12 c 0 -11 c -4 -11 c -3 -4 c -8 -4 c
-4 0 6759 2855 l -8 3 c -4 4 c -3 8 c 0 15 c 3 7 c 4 4 c 8 4 c 7 0 c 8 -4 c 11 -7 c 38 -38 c 0 53 c 3 -4 6812 2934 l 4 4 c -4 4 c
-3 -4 c -4 0 6759 2968 l -8 4 c -4 3 c -3 8 c 0 15 c 3 8 c 4 3 c 8 4 c 7 0 c 8 -4 c 11 -7 c 38 -38 c 0 53 c 3 -11 6740 3062 l
12 -8 c 19 -3 c 11 0 c 19 3 c 11 8 c 4 11 c 0 8 c -4 11 c -11 8 c -19 4 c -11 0 c -19 -4 c -12 -8 c -3 -11 c 0 -8 c
0 -38 6740 3161 l 34 -4 c -4 4 c -4 11 c 0 12 c 4 11 c 7 7 c 12 4 c 7 0 c 12 -4 c 7 -7 c 4 -11 c 0 -12 c -4 -11 c -3 -4 c -8 -4 c
0 -250 6964 2155 l 53 -38 6921 2265 l 0 56 c 79 0 6921 2265 l 0 41 6921 2310 l 30 -22 c 0 11 c 4 8 c 3 3 c 12 4 c 7 0 c 12 -4 c
7 -7 c 4 -11 c 0 -12 c -4 -11 c -4 -4 c -7 -4 c 0 -38 6921 2423 l 34 -3 c -4 3 c -4 12 c 0 11 c 4 11 c 7 8 c 12 4 c 7 0 c 12 -4 c
7 -8 c 4 -11 c 0 -11 c -4 -12 c -4 -3 c -7 -4 c 0 42 6921 2461 l 30 -23 c 0 11 c 4 8 c 3 4 c 12 3 c 7 0 c 12 -3 c 7 -8 c 4 -11 c
0 -12 c -4 -11 c -4 -4 c -7 -4 c 4 -4 6992 2537 l 4 4 c -4 3 c -4 -3 c 53 -38 6921 2605 l 0 57 c 79 0 6921 2605 l 53 -38 6921 2680 l
0 57 c 79 0 6921 2680 l 11 -4 6947 2767 l 8 -7 c 4 -11 c 0 -4 c -4 -12 c -8 -7 c -11 -4 c -4 0 c -11 4 c -8 7 c -3 12 c 0 4 c 3 11 c
8 7 c 15 4 c 19 0 c 19 -4 c 11 -7 c 4 -11 c 0 -8 c -4 -11 c -7 -4 c 0 -250 7687 1429 l 53 -37 7643 1538 l 0 56 c 80 0 7643 1538 l
0 41 7643 1584 l 30 -22 c 0 11 c 4 8 c 4 3 c 11 4 c 8 0 c 11 -4 c 8 -7 c 4 -12 c 0 -11 c -4 -11 c -4 -4 c -8 -4 c 0 -38 7643 1697 l
34 -3 c -4 3 c -3 12 c 0 11 c 3 11 c 8 8 c 11 4 c 8 0 c 11 -4 c 8 -8 c 4 -11 c 0 -11 c -4 -12 c -4 -3 c -8 -4 c 4 -11 7643 1746 l
8 -4 c 7 0 c 8 4 c 3 8 c 4 15 c 4 11 c 8 8 c 7 3 c 11 0 c 8 -3 c 4 -4 c 4 -12 c 0 -15 c -4 -11 c -4 -4 c -8 -4 c -11 0 c -7 4 c
-8 8 c -4 11 c -4 15 c -3 8 c -8 4 c -7 0 c -8 -4 c -4 -12 c 0 -15 c 4 -4 7715 1811 l 4 4 c -4 3 c -4 -3 c 0 42 7643 1848 l 30 -23 c
0 12 c 4 7 c 4 4 c 11 4 c 8 0 c 11 -4 c 8 -8 c 4 -11 c 0 -11 c -4 -12 c -4 -3 c -8 -4 c -4 0 7662 1920 l -7 4 c -4 4 c -4 7 c 0 15 c
4 8 c 4 4 c 7 4 c 8 0 c 7 -4 c 12 -8 c 38 -38 c 0 53 c 4 -12 7643 2015 l 11 -7 c 19 -4 c 12 0 c 18 4 c 12 7 c 4 12 c 0 7 c -4 12 c
-12 7 c -18 4 c -12 0 c -19 -4 c -11 -7 c -4 -12 c 0 -7 c 0 -249 7844 1419 l 53 -38 7800 1529 l 0 57 c 79 0 7800 1529 l
0 42 7800 1574 l 30 -23 c 0 12 c 4 7 c 4 4 c 11 4 c 8 0 c 11 -4 c 8 -8 c 3 -11 c 0 -11 c -3 -12 c -4 -3 c -8 -4 c 0 -38 7800 1688 l
34 -4 c -4 4 c -4 11 c 0 12 c 4 11 c 8 8 c 11 3 c 8 0 c 11 -3 c 8 -8 c 3 -11 c 0 -12 c -3 -11 c -4 -4 c -8 -4 c 12 -4 7826 1767 l
7 -7 c 4 -11 c 0 -4 c -4 -12 c -7 -7 c -12 -4 c -3 0 c -12 4 c -7 7 c -4 12 c 0 4 c 4 11 c 7 7 c 15 4 c 19 0 c 19 -4 c 12 -7 c
3 -11 c 0 -8 c -3 -11 c -8 -4 c 4 -4 7872 1801 l 3 4 c -3 4 c -4 -4 c 0 42 7800 1839 l 30 -23 c 0 11 c 4 8 c 4 4 c 11 3 c 8 0 c
11 -3 c 8 -8 c 3 -11 c 0 -12 c -3 -11 c -4 -4 c -8 -4 c 79 -38 7800 1960 l 0 53 7800 1907 l -4 0 7819 1986 l -7 4 c -4 4 c -4 8 c
0 15 c 4 7 c 4 4 c 7 4 c 8 0 c 7 -4 c 12 -8 c 37 -37 c 0 53 c 0 -249 8247 2085 l 53 -38 8204 2195 l 0 57 c 79 0 8204 2195 l
0 42 8204 2240 l 30 -23 c 0 12 c 4 7 c 4 4 c 11 4 c 7 0 c 12 -4 c 7 -8 c 4 -11 c 0 -11 c -4 -12 c -3 -3 c -8 -4 c -7 -3 8215 2357 l
-4 -12 c 0 -7 c 4 -12 c 11 -7 c 19 -4 c 19 0 c 15 4 c 7 7 c 4 12 c 0 4 c -4 11 c -7 7 c -12 4 c -3 0 c -12 -4 c -7 -7 c -4 -11 c
0 -4 c 4 -12 c 7 -7 c 12 -4 c -4 0 8223 2388 l -8 4 c -3 3 c -4 8 c 0 15 c 4 8 c 3 3 c 8 4 c 7 0 c 8 -4 c 11 -7 c 38 -38 c 0 53 c
3 -4 8276 2467 l 4 4 c -4 4 c -3 -4 c 4 -11 8204 2520 l 11 -8 c 19 -4 c 11 0 c 19 4 c 11 8 c 4 11 c 0 8 c -4 11 c -11 7 c -19 4 c
-11 0 c -19 -4 c -11 -7 c -4 -11 c 0 -8 c -7 -4 8215 2622 l -4 -11 c 0 -8 c 4 -11 c 11 -8 c 19 -3 c 19 0 c 15 3 c 7 8 c 4 11 c 0 4 c
-4 12 c -7 7 c -12 4 c -3 0 c -12 -4 c -7 -7 c -4 -12 c 0 -4 c 4 -11 c 7 -8 c 12 -3 c -7 -4 8215 2698 l -4 -11 c 0 -8 c 4 -11 c
11 -8 c 19 -4 c 19 0 c 15 4 c 7 8 c 4 11 c 0 4 c -4 11 c -7 8 c -12 3 c -3 0 c -12 -3 c -7 -8 c -4 -11 c 0 -4 c 4 -11 c 7 -8 c
12 -4 c 0 -250 8831 1777 l 53 -38 8788 1887 l 0 56 c 79 0 8788 1887 l 0 42 8788 1932 l 30 -23 c 0 11 c 4 8 c 3 4 c 12 3 c 7 0 c
12 -3 c 7 -8 c 4 -11 c 0 -12 c -4 -11 c -4 -4 c -7 -4 c -8 -4 8799 2049 l -3 -11 c 0 -8 c 3 -11 c 12 -7 c 19 -4 c 19 0 c 15 4 c
7 7 c 4 11 c 0 4 c -4 12 c -7 7 c -12 4 c -3 0 c -12 -4 c -7 -7 c -4 -12 c 0 -4 c 4 -11 c 7 -7 c 12 -4 c 0 -38 8788 2121 l 34 -4 c
-4 4 c -4 11 c 0 12 c 4 11 c 7 8 c 12 3 c 7 0 c 12 -3 c 7 -8 c 4 -11 c 0 -12 c -4 -11 c -4 -4 c -7 -3 c 4 -4 8859 2159 l 4 4 c
-4 4 c -4 -4 c 11 -4 8814 2238 l 8 -7 c 4 -12 c 0 -3 c -4 -12 c -8 -7 c -11 -4 c -4 0 c -11 4 c -8 7 c -3 12 c 0 3 c 3 12 c 8 7 c
15 4 c 19 0 c 19 -4 c 11 -7 c 4 -12 c 0 -7 c -4 -11 c -7 -4 c 0 42 8788 2272 l 30 -23 c 0 11 c 4 8 c 3 4 c 12 3 c 7 0 c 12 -3 c
7 -8 c 4 -11 c 0 -12 c -4 -11 c -4 -4 c -7 -3 c 3 -12 8788 2363 l 12 -7 c 19 -4 c 11 0 c 19 4 c 11 7 c 4 12 c 0 7 c -4 12 c -11 7 c
-19 4 c -11 0 c -19 -4 c -12 -7 c -3 -12 c 0 -7 c 0 -250 9121 2848 l 53 -38 9077 2958 l 0 56 c 80 0 9077 2958 l 0 41 9077 3003 l
31 -22 c 0 11 c 3 8 c 4 3 c 12 4 c 7 0 c 11 -4 c 8 -7 c 4 -11 c 0 -12 c -4 -11 c -4 -4 c -7 -4 c -8 -4 9089 3120 l -4 -11 c 0 -8 c
4 -11 c 12 -8 c 18 -3 c 19 0 c 15 3 c 8 8 c 4 11 c 0 4 c -4 12 c -8 7 c -11 4 c -4 0 c -11 -4 c -8 -7 c -3 -12 c 0 -4 c 3 -11 c
8 -8 c 11 -3 c 80 -37 9077 3199 l 0 52 9077 3147 l 4 -4 9149 3230 l 4 4 c -4 3 c -4 -3 c 4 -12 9077 3279 l 8 -3 c 7 0 c 8 3 c 4 8 c
3 15 c 4 11 c 8 8 c 7 4 c 12 0 c 7 -4 c 4 -4 c 4 -11 c 0 -15 c -4 -12 c -4 -3 c -7 -4 c -12 0 c -7 4 c -8 7 c -4 12 c -3 15 c -4 7 c
-8 4 c -7 0 c -8 -4 c -4 -11 c 0 -15 c 0 42 9077 3343 l 31 -23 c 0 11 c 3 8 c 4 4 c 12 3 c 7 0 c 11 -3 c 8 -8 c 4 -11 c 0 -12 c
-4 -11 c -4 -4 c -7 -3 c -3 0 9096 3415 l -8 4 c -4 3 c -4 8 c 0 15 c 4 8 c 4 3 c 8 4 c 7 0 c 8 -4 c 11 -7 c 38 -38 c 0 53 c
0 -250 9434 1824 l 53 -38 9390 1933 l 0 57 c 80 0 9390 1933 l 0 41 9390 1979 l 31 -22 c 0 11 c 3 7 c 4 4 c 12 4 c 7 0 c 11 -4 c
8 -7 c 4 -12 c 0 -11 c -4 -11 c -4 -4 c -7 -4 c -8 -4 9402 2096 l -4 -11 c 0 -8 c 4 -11 c 12 -8 c 18 -4 c 19 0 c 15 4 c 8 8 c 4 11 c
0 4 c -4 11 c -8 8 c -11 4 c -4 0 c -11 -4 c -8 -8 c -3 -11 c 0 -4 c 3 -11 c 8 -8 c 11 -4 c 11 -3 9417 2171 l 8 -8 c 4 -11 c 0 -4 c
-4 -11 c -8 -8 c -11 -4 c -4 0 c -11 4 c -8 8 c -4 11 c 0 4 c 4 11 c 8 8 c 15 3 c 19 0 c 19 -3 c 11 -8 c 4 -11 c 0 -8 c -4 -11 c
-8 -4 c 4 -3 9462 2205 l 4 3 c -4 4 c -4 -4 c 4 -12 9390 2255 l 8 -4 c 7 0 c 8 4 c 4 8 c 3 15 c 4 11 c 8 8 c 7 4 c 12 0 c 7 -4 c
4 -4 c 4 -11 c 0 -15 c -4 -12 c -4 -4 c -7 -3 c -12 0 c -7 3 c -8 8 c -4 11 c -3 15 c -4 8 c -8 4 c -7 0 c -8 -4 c -4 -11 c 0 -15 c
80 -38 9390 2364 l 0 53 9390 2311 l -8 -4 9402 2436 l -4 -11 c 0 -8 c 4 -11 c 12 -8 c 18 -3 c 19 0 c 15 3 c 8 8 c 4 11 c 0 4 c
-4 11 c -8 8 c -11 4 c -4 0 c -11 -4 c -8 -8 c -3 -11 c 0 -4 c 3 -11 c 8 -8 c 11 -3 c 0 -250 9569 6355 l 53 -38 9526 6464 l 0 57 c
79 0 9526 6464 l 0 41 9526 6510 l 30 -22 c 0 11 c 4 7 c 3 4 c 12 4 c 7 0 c 12 -4 c 7 -7 c 4 -12 c 0 -11 c -4 -11 c -3 -4 c -8 -4 c
79 -38 9526 6631 l 0 53 9526 6578 l 3 -11 9526 6676 l 12 -8 c 19 -4 c 11 0 c 19 4 c 11 8 c 4 11 c 0 8 c -4 11 c -11 7 c -19 4 c
-11 0 c -19 -4 c -12 -7 c -3 -11 c 0 -8 c 3 -3 9598 6736 l 4 3 c -4 4 c -3 -4 c 79 -38 9526 6820 l 0 53 9526 6767 l
0 -38 9526 6888 l 34 -4 c -4 4 c -4 11 c 0 11 c 4 12 c 7 7 c 12 4 c 7 0 c 12 -4 c 7 -7 c 4 -12 c 0 -11 c -4 -11 c -3 -4 c -8 -4 c
0 42 9526 6925 l 30 -23 c 0 12 c 4 7 c 3 4 c 12 4 c 7 0 c 12 -4 c 7 -8 c 4 -11 c 0 -11 c -4 -12 c -3 -3 c -8 -4 c 0 -250 9658 2887 l
53 -38 9614 2996 l 0 57 c 80 0 9614 2996 l 0 41 9614 3042 l 31 -23 c 0 12 c 3 7 c 4 4 c 11 4 c 8 0 c 11 -4 c 8 -7 c 4 -12 c 0 -11 c
-4 -11 c -4 -4 c -7 -4 c 80 -37 9614 3162 l 0 52 9614 3110 l -3 8 9629 3196 l -12 11 c 80 0 c 4 -3 9686 3268 l 4 3 c -4 4 c -4 -4 c
0 42 9614 3306 l 31 -23 c 0 11 c 3 8 c 4 4 c 11 3 c 8 0 c 11 -3 c 8 -8 c 4 -11 c 0 -12 c -4 -11 c -4 -4 c -7 -3 c -4 0 9633 3378 l
-7 4 c -4 3 c -4 8 c 0 15 c 4 8 c 4 3 c 7 4 c 8 0 c 8 -4 c 11 -7 c 38 -38 c 0 53 c 11 -4 9641 3499 l 8 -7 c 3 -12 c 0 -4 c -3 -11 c
-8 -8 c -11 -3 c -4 0 c -11 3 c -8 8 c -4 11 c 0 4 c 4 12 c 8 7 c 15 4 c 19 0 c 19 -4 c 11 -7 c 4 -12 c 0 -7 c -4 -12 c -8 -4 c
showpage PGPLOT restore
 
%%Trailer
%%DocumentFonts: 
%%Pages: 1
%%EOF
