%!PS-Adobe-3.0 EPSF-3.0
%%For: tom
%%Title: PGPLOT PostScript plot
%%Creator: PGPLOT
%%CreationDate:  9-Nov-1994 13:50
%%BoundingBox: 25 18 587 774
%%DocumentFonts: (atend)
%%LanguageLevel: 1
%%Orientation: Landscape
%%Pages: (atend)
%%EndComments
%%BeginProlog
/l {moveto rlineto currentpoint stroke moveto} bind def
/c {rlineto currentpoint stroke moveto} bind def
/d {moveto 0 0 rlineto currentpoint stroke moveto} bind def
/SLW {5 mul setlinewidth} bind def
/SCF /pop load def
/BP {newpath moveto} bind def
/LP /rlineto load def
/EP {rlineto closepath eofill} bind def
/MB {gsave translate MFAC dup scale 1 setlinewidth 2 setlinecap 0 setlinejoin newpath} bind def
/ME /grestore load def
/C {0 360 arc stroke} bind def
/FC {0 360 arc fill} bind def
%%EndProlog
 
%%Page: 1 1
%%BeginPageSetup
/PGPLOT save def
0.072 0.072 scale
8150 250 translate 90 rotate
1 setlinejoin 1 setlinecap 1 SLW 1 SCF
%%EndPageSetup
0.00 setgray 1 SLW 8939 0 780 780 l 0 6239 c -8939 0 c 0 -6239 c 0 -45 1116 780 l 0 -45 1554 780 l 0 -45 1991 780 l 0 -45 2428 780 l
0 -90 2865 780 l 0 -45 3302 780 l 0 -45 3739 780 l 0 -45 4176 780 l 0 -45 4613 780 l 0 -90 5051 780 l 0 -45 5488 780 l
0 -45 5925 780 l 0 -45 6362 780 l 0 -45 6799 780 l 0 -90 7236 780 l 0 -45 7673 780 l 0 -45 8110 780 l 0 -45 8548 780 l
0 -45 8985 780 l 0 -90 9422 780 l 0 -45 1116 7064 l 0 -45 1554 7064 l 0 -45 1991 7064 l 0 -45 2428 7064 l 0 -90 2865 7109 l
0 -45 3302 7064 l 0 -45 3739 7064 l 0 -45 4176 7064 l 0 -45 4613 7064 l 0 -90 5051 7109 l 0 -45 5488 7064 l 0 -45 5925 7064 l
0 -45 6362 7064 l 0 -45 6799 7064 l 0 -90 7236 7109 l 0 -45 7673 7064 l 0 -45 8110 7064 l 0 -45 8548 7064 l 0 -45 8985 7064 l
0 -90 9422 7109 l -60 0 2775 672 l -6 -54 c 6 6 c 18 6 c 18 0 c 18 -6 c 12 -12 c 6 -18 c 0 -12 c -6 -18 c -12 -12 c -18 -6 c -18 0 c
-18 6 c -6 6 c -6 12 c -18 -6 2859 672 l -12 -18 c -6 -30 c 0 -18 c 6 -30 c 12 -18 c 18 -6 c 12 0 c 18 6 c 12 18 c 6 30 c 0 18 c
-6 30 c -12 18 c -18 6 c -12 0 c -18 -6 2979 672 l -12 -18 c -6 -30 c 0 -18 c 6 -30 c 12 -18 c 18 -6 c 12 0 c 18 6 c 12 18 c 6 30 c
0 18 c -6 30 c -12 18 c -18 6 c -12 0 c 12 6 4847 648 l 18 18 c 0 -126 c -18 -6 4985 672 l -12 -18 c -6 -30 c 0 -18 c 6 -30 c
12 -18 c 18 -6 c 12 0 c 18 6 c 12 18 c 6 30 c 0 18 c -6 30 c -12 18 c -18 6 c -12 0 c -18 -6 5105 672 l -12 -18 c -6 -30 c 0 -18 c
6 -30 c 12 -18 c 18 -6 c 12 0 c 18 6 c 12 18 c 6 30 c 0 18 c -6 30 c -12 18 c -18 6 c -12 0 c -18 -6 5225 672 l -12 -18 c -6 -30 c
0 -18 c 6 -30 c 12 -18 c 18 -6 c 12 0 c 18 6 c 12 18 c 6 30 c 0 18 c -6 30 c -12 18 c -18 6 c -12 0 c 12 6 7032 648 l 18 18 c
0 -126 c -60 0 7206 672 l -6 -54 c 6 6 c 18 6 c 18 0 c 18 -6 c 12 -12 c 6 -18 c 0 -12 c -6 -18 c -12 -12 c -18 -6 c -18 0 c -18 6 c
-6 6 c -6 12 c -18 -6 7290 672 l -12 -18 c -6 -30 c 0 -18 c 6 -30 c 12 -18 c 18 -6 c 12 0 c 18 6 c 12 18 c 6 30 c 0 18 c -6 30 c
-12 18 c -18 6 c -12 0 c -18 -6 7410 672 l -12 -18 c -6 -30 c 0 -18 c 6 -30 c 12 -18 c 18 -6 c 12 0 c 18 6 c 12 18 c 6 30 c 0 18 c
-6 30 c -12 18 c -18 6 c -12 0 c 0 6 9206 642 l 6 12 c 6 6 c 12 6 c 24 0 c 12 -6 c 6 -6 c 6 -12 c 0 -12 c -6 -12 c -12 -18 c
-60 -60 c 84 0 c -18 -6 9356 672 l -12 -18 c -6 -30 c 0 -18 c 6 -30 c 12 -18 c 18 -6 c 12 0 c 18 6 c 12 18 c 6 30 c 0 18 c -6 30 c
-12 18 c -18 6 c -12 0 c -18 -6 9476 672 l -12 -18 c -6 -30 c 0 -18 c 6 -30 c 12 -18 c 18 -6 c 12 0 c 18 6 c 12 18 c 6 30 c 0 18 c
-6 30 c -12 18 c -18 6 c -12 0 c -18 -6 9596 672 l -12 -18 c -6 -30 c 0 -18 c 6 -30 c 12 -18 c 18 -6 c 12 0 c 18 6 c 12 18 c 6 30 c
0 18 c -6 30 c -12 18 c -18 6 c -12 0 c -90 0 780 780 l -45 0 780 1714 l -90 0 780 2648 l -45 0 780 3582 l -90 0 780 4516 l
-45 0 780 5450 l -90 0 780 6384 l -90 0 9809 780 l -45 0 9764 1714 l -90 0 9809 2648 l -45 0 9764 3582 l -90 0 9809 4516 l
-45 0 9764 5450 l -90 0 9809 6384 l 6 -18 517 774 l 18 -12 c 30 -6 c 18 0 c 30 6 c 18 12 c 6 18 c 0 12 c -6 18 c -18 12 c -30 6 c
-18 0 c -30 -6 c -18 -12 c -6 -18 c 0 -12 c -6 0 547 2390 l -12 6 c -6 6 c -6 12 c 0 24 c 6 12 c 6 6 c 12 6 c 12 0 c 12 -6 c
18 -12 c 60 -60 c 0 84 c 84 84 547 2510 l 84 -84 547 2594 l -6 12 541 2654 l -18 18 c 126 0 c 6 -18 517 2792 l 18 -12 c 30 -6 c
18 0 c 30 6 c 18 12 c 6 18 c 0 12 c -6 18 c -18 12 c -30 6 c -18 0 c -30 -6 c -18 -12 c -6 -18 c 0 -12 c 63 -45 453 2917 l 0 67 c
94 0 453 2917 l 84 -60 517 4312 l 0 90 c 126 0 517 4312 l 84 84 547 4378 l 84 -84 547 4462 l -6 12 541 4522 l -18 18 c 126 0 c
6 -18 517 4660 l 18 -12 c 30 -6 c 18 0 c 30 6 c 18 12 c 6 18 c 0 12 c -6 18 c -18 12 c -30 6 c -18 0 c -30 -6 c -18 -12 c -6 -18 c
0 -12 c 63 -45 453 4785 l 0 67 c 94 0 453 4785 l -12 -6 535 6198 l -6 -18 c 0 -12 c 6 -18 c 18 -12 c 30 -6 c 30 0 c 24 6 c 12 12 c
6 18 c 0 6 c -6 18 c -12 12 c -18 6 c -6 0 c -18 -6 c -12 -12 c -6 -18 c 0 -6 c 6 -18 c 12 -12 c 18 -6 c 84 84 547 6246 l
84 -84 547 6330 l -6 12 541 6390 l -18 18 c 126 0 c 6 -18 517 6528 l 18 -12 c 30 -6 c 18 0 c 30 6 c 18 12 c 6 18 c 0 12 c -6 18 c
-18 12 c -30 6 c -18 0 c -30 -6 c -18 -12 c -6 -18 c 0 -12 c 63 -45 453 6653 l 0 67 c 94 0 453 6653 l
4 -230 780 1969 l 5 -649 c 4 -263 c 4 -20 c 5 16 c 4 84 c 4 239 c 5 906 c 4 872 c 5 24 c 4 -359 c 4 -1195 c 5 -519 c 4 -57 c 4 -14 c
5 -3 c 4 -1 c 5 2 c 4 2 c 4 0 c 5 1 c 4 -1 c 4 2 c 5 1 c 4 -6 c 5 -4 c 4 -4 c 4 -1 c 5 0 c 4 0 c 4 0 c 5 -1 c 4 0 c 5 2 c 4 4 c
4 1 c 5 0 c 4 -3 c 4 -3 c 5 -1 c 4 0 c 4 1 c 5 2 c 4 5 c 5 7 c 4 0 c 4 -2 c 5 -7 c 4 -6 c 4 -1 c 5 -1 c 4 1 c 5 -1 c 4 1 c 4 1 c
5 2 c 4 1 c 4 -1 c 5 -1 c 4 -2 c 5 1 c 4 -1 c 4 1 c 5 -1 c 4 0 c 4 0 c 5 1 c 4 3 c 5 3 c 4 1 c 4 -1 c 5 -2 c 4 -2 c 4 -2 c 5 -1 c
4 1 c 4 0 c 5 0 c 4 -1 c 5 0 c 4 0 c 4 0 c 5 1 c 4 -11 c 5 11 1151 780 l 4 1 c 5 1 c 4 6 c 4 14 c 5 55 c 4 88 c 4 111 c 5 83 c
4 -59 c 5 -90 c 4 -124 c 4 -9 c 5 199 c 4 269 c 4 31 c 5 -66 c 4 -274 c 5 -177 c 4 -29 c 4 -22 c 5 -4 c 4 4 c 4 21 c 5 83 c 4 69 c
4 4 c 5 -26 c 4 -88 c 5 -10 c 4 79 c 4 16 c 5 -13 c 4 -65 c 4 -63 c 5 -4 c 4 -1 c 5 -1 c 4 -3 c 4 4 c 5 30 c 4 78 c 4 25 c 5 -7 c
4 -49 c 5 -74 c 4 -12 c 4 -1 c 5 0 c 4 1 c 4 1 c 5 0 c 4 -1 c 5 -1 c 4 0 c 4 0 c 5 0 c 4 1 c 4 1 c 5 0 c 4 3 c 4 5 c 5 13 c 4 9 c
5 0 c 4 -8 c 4 -16 c 5 -6 c 4 0 c 4 -1 c 5 -1 c 4 0 c 5 1 c 4 0 c 4 0 c 5 0 c 4 -1 c 4 0 c 5 -1 c 4 0 c 5 0 c 4 0 c 4 1 c 5 0 c
4 1 c 4 0 c 5 0 c 4 0 c 4 -1 c 5 0 c 4 0 c 5 0 c 4 1 c 4 0 c 5 1 c 4 1 c 4 1 c 5 0 c 4 0 c 5 1 c 4 8 c 4 12 c 5 3 c 4 -2 c 4 -11 c
5 -8 c 4 2 c 5 4 c 4 3 c 4 6 c 5 12 c 4 43 c 4 164 c 5 705 c 4 1643 c 5 796 c 4 -135 c 4 -989 c 5 -1623 c 4 -398 c 4 -56 c 5 -35 c
4 -44 c 4 -57 c 5 -23 c 4 1 c 5 7 c 4 37 c 4 185 c 5 806 c 4 526 c 4 13 c 5 -321 c 4 -945 c 5 -299 c 4 -23 c 4 -3 c 5 -2 c 4 -1 c
4 0 c 5 0 c 4 0 c 5 6 c 4 5 c 4 0 c 5 -4 c 4 -4 c 4 16 c 5 56 c 4 27 c 5 26 c 4 32 c 4 -36 c 5 -22 c 4 -50 c 4 -49 c 5 -6 c 4 0 c
4 5 c 5 18 c 4 14 c 5 0 c 4 -10 c 4 -19 c 5 -8 c 4 0 c 4 0 c 5 0 c 4 2 c 5 7 c 4 42 c 4 83 c 5 19 c 4 -8 c 4 -60 c 5 -59 c 4 -1 c
5 0 c 4 -3 c 4 -10 c 5 -3 c 4 2 c 4 6 c 5 4 c 4 27 c 5 169 c 4 1040 c 4 2241 c 5 537 c 4 -299 c 4 -1565 c 5 -1899 c 4 -235 c 4 -20 c
5 -5 c 4 -4 c 5 -2 c 4 -1 c 4 -1 c 5 -1 c 4 -2 c 4 0 c 5 -1 c 4 0 c 5 -1 c 4 1 c 4 0 c 5 0 c 4 1 c 4 -1 c 5 0 c 4 -2 c 5 0 c 4 0 c
4 0 c 5 1 c 4 0 c 4 0 c 5 0 c 4 -1 c 5 0 c 4 2 c 4 2 c 5 -1 c 4 0 c 4 -2 c 5 0 c 4 3 c 4 3 c 5 0 c 4 -2 c 5 -3 c 4 -2 c 4 0 c 5 -1 c
4 1 c 4 1 c 5 1 c 4 -1 c 5 -1 c 4 0 c 4 0 c 5 1 c 4 1 c 4 0 c 5 1 c 4 0 c 5 -1 c 4 0 c 4 -2 c 5 0 c 4 1 c 4 5 c 5 17 c 4 82 c 4 56 c
5 4 c 4 -22 c 5 -101 c 4 -38 c 4 -3 c 5 0 c 4 0 c 4 0 c 5 0 c 4 0 c 5 -1 c 4 0 c 4 0 c 5 0 c 4 1 c 4 0 c 5 0 c 4 0 c 5 1 c 4 1 c
4 1 c 5 0 c 4 -2 c 4 -3 c 5 2 c 4 3 c 5 1 c 4 1 c 4 -3 c 5 -3 c 4 0 c 4 -1 c 5 0 c 4 0 c 4 0 c 5 0 c 4 0 c 5 0 c 4 1 c 4 1 c 5 -1 c
4 1 c 4 0 c 5 -1 c 4 1 c 5 -1 c 4 2 c 4 2 c 5 1 c 4 0 c 4 -2 c 5 -2 c 4 -1 c 5 0 c 4 0 c 4 0 c 5 0 c 4 1 c 4 -1 c 5 1 c 4 -1 c 5 0 c
4 0 c 4 -1 c 5 2 c 4 0 c 4 0 c 5 1 c 4 1 c 4 1 c 5 0 c 4 -1 c 5 1 c 4 -1 c 4 0 c 5 -2 c 4 0 c 4 -1 c 5 0 c 4 0 c 5 0 c 4 -1 c 4 0 c
5 1 c 4 0 c 4 1 c 5 0 c 4 0 c 5 0 c 4 1 c 4 4 c 5 3 c 4 4 c 4 20 c 5 26 c 4 2 c 5 -6 c 4 -31 c 4 -20 c 5 -2 c 4 -2 c 4 1 c 5 0 c
4 0 c 4 0 c 5 -1 c 4 0 c 5 1 c 4 0 c 4 -1 c 5 1 c 4 0 c 4 1 c 5 2 c 4 1 c 5 -1 c 4 -1 c 4 -1 c 5 6 c 4 6 c 4 1 c 5 -2 c 4 -7 c
5 -4 c 4 -1 c 4 1 c 5 0 c 4 0 c 4 6 c 5 16 c 4 7 c 4 0 c 5 -9 c 4 -15 c 5 -5 c 4 -1 c 4 -1 c 5 1 c 4 0 c 4 1 c 5 5 c 4 5 c 5 1 c
4 4 c 4 24 c 5 40 c 4 5 c 4 -5 c 5 -31 c 4 -15 c 5 99 c 4 502 c 4 367 c 5 9 c 4 -164 c 4 -599 c 5 -220 c 4 -22 c 5 -3 c 4 0 c 4 -1 c
5 2 c 4 1 c 4 0 c 5 -2 c 4 -1 c 4 0 c 5 1 c 4 1 c 5 -1 c 4 -2 c 4 -1 c 5 1 c 4 -1 c 4 1 c 5 -1 c 4 0 c 5 0 c 4 -1 c 4 1 c 5 0 c
4 0 c 4 2 c 5 1 c 4 1 c 5 -1 c 4 -2 c 4 -1 c 5 1 c 4 0 c 4 0 c 5 1 c 4 0 c 5 0 c 4 0 c 4 -2 c 5 -1 c 4 0 c 4 1 c 5 1 c 4 1 c 4 0 c
5 2 c 4 3 c 5 0 c 4 4 c 4 1 c 5 0 c 4 1 c 4 1 c 5 16 c 4 13 c 5 -3 c 4 -10 c 4 -22 c 5 -7 c 4 0 c 4 1 c 5 0 c 4 1 c 5 0 c 4 0 c
4 -1 c 5 -1 c 4 0 c 4 0 c 5 1 c 4 -1 c 5 0 c 4 1 c 4 1 c 5 14 c 4 128 c 4 158 c 5 35 c 4 -13 c 4 -173 c 5 -133 c 4 -16 c 5 0 c 4 0 c
4 0 c 5 0 c 4 3 c 4 10 c 5 11 c 4 80 c 5 127 c 4 25 c 4 -7 c 5 -105 c 4 -125 c 4 -14 c 5 4 c 4 1 c 5 0 c 4 -3 c 4 -4 c 5 1 c 4 1 c
4 1 c 5 1 c 4 0 c 5 -1 c 4 -2 c 4 1 c 5 0 c 4 4 c 4 1 c 5 0 c 4 -1 c 4 -3 c 5 1 c 4 1 c 5 2 c 4 2 c 4 4 c 5 1 c 4 2 c 4 6 c 5 7 c
4 5 c 5 7 c 4 11 c 4 22 c 5 54 c 4 314 c 4 3813 c 5 1757 c 4 18 c 5 -8 c 4 -6 c 4 -3186 c 5 -2553 c 4 -185 c 4 -30 c 5 -15 c 4 -4 c
4 -7 c 5 -8 c 4 -5 c 5 -6 c 4 -1 c 4 -3 c 5 -3 c 4 -2 c 4 -1 c 5 0 c 4 0 c 5 1 c 4 -2 c 4 -1 c 5 -1 c 4 -1 c 4 -1 c 5 1 c 4 -1 c
5 1 c 4 0 c 4 0 c 5 -1 c 4 1 c 4 2 c 5 3 c 4 4 c 5 0 c 4 -3 c 4 -4 c 5 -4 c 4 -1 c 4 2 c 5 5 c 4 6 c 4 3 c 5 3 c 4 -6 c 5 -4 c
4 -5 c 4 -3 c 5 -2 c 4 1 c 4 2 c 5 2 c 4 -1 c 5 0 c 4 1 c 4 2 c 5 1 c 4 3 c 4 1 c 5 6 c 4 26 c 5 185 c 4 1436 c 4 1421 c 5 365 c
4 -239 c 4 -1730 c 5 -1312 c 4 -144 c 5 -11 c 4 -2 c 4 1 c 5 6 c 4 36 c 4 233 c 5 427 c 4 203 c 4 -13 c 5 -307 c 4 -390 c 5 -145 c
4 -44 c 4 -10 c 5 -5 c 4 -2 c 4 0 c 5 0 c 4 2 c 5 -2 c 4 -1 c 4 -2 c 5 -2 c 4 2 c 4 4 c 5 5 c 4 6 c 5 -1 c 4 -4 c 4 -4 c 5 -6 c
4 -1 c 4 0 c 5 0 c 4 1 c 5 1 c 4 0 c 4 0 c 5 1 c 4 1 c 4 0 c 5 -3 c 4 -3 c 4 0 c 5 0 c 4 2 c 5 0 c 4 1 c 4 0 c 5 0 c 4 2 c 4 9 c
5 51 c 4 82 c 5 34 c 4 -8 c 4 -60 c 5 -89 c 4 -21 c 4 -1 c 5 0 c 4 1 c 5 2 c 4 1 c 4 0 c 5 0 c 4 -2 c 4 -1 c 5 -1 c 4 0 c 5 1 c
4 0 c 4 8 c 5 49 c 4 39 c 4 8 c 5 -11 c 4 -62 c 4 -29 c 5 -3 c 4 9 c 5 15 c 4 6 c 4 3 c 5 -9 c 4 -12 c 4 -3 c 5 -5 c 4 -3 c 5 9 c
4 114 c 4 176 c 5 61 c 4 -2 c 4 -147 c 5 -169 c 4 -41 c 5 -3 c 4 -1 c 4 0 c 5 -1 c 4 1 c 4 -1 c 5 2 c 4 2 c 4 1 c 5 0 c 4 -1 c
5 -2 c 4 -1 c 4 0 c 5 -1 c 4 1 c 4 0 c 5 0 c 4 0 c 5 0 c 4 0 c 4 0 c 5 0 c 4 0 c 4 -1 c 5 0 c 4 0 c 5 1 c 4 0 c 4 0 c 5 0 c 4 1 c
4 0 c 5 2 c 4 -1 c 5 -1 c 4 0 c 4 -1 c 5 0 c 4 0 c 4 0 c 5 0 c 4 0 c 4 -1 c 5 0 c 4 0 c 5 0 c 4 0 c 4 1 c 5 0 c 4 0 c 4 1 c 5 4 c
4 9 c 5 4 c 4 0 c 4 -6 c 5 -7 c 4 -3 c 4 1 c 5 2 c 4 9 c 5 104 c 4 203 c 4 88 c 5 5 c 4 -124 c 4 -209 c 5 -74 c 4 -4 c 5 1 c 4 0 c
4 0 c 5 0 c 4 1 c 4 1 c 5 0 c 4 -1 c 4 -3 c 5 -1 c 4 1 c 5 0 c 4 0 c 4 4 c 5 23 c 4 17 c 4 4 c 5 4 c 4 -15 c 5 2 c 4 24 c 4 15 c
5 0 c 4 -13 c 4 -29 c 5 -24 c 4 -9 c 5 -1 c 4 1 c 4 3 c 5 1 c 4 1 c 4 -1 c 5 -3 c 4 1 c 5 4 c 4 6 c 4 11 c 5 64 c 4 626 c 4 1167 c
5 563 c 4 56 c 4 -729 c 5 -1245 c 4 -438 c 5 -72 c 4 -9 c 4 -2 c 5 -1 c 4 -1 c 4 0 c 5 3 c 4 2 c 5 0 c 4 -2 c 4 -5 c 5 -3 c 4 -1 c
4 1 c 5 7 c 4 6 c 5 1 c 4 -2 c 4 -7 c 5 -5 c 4 0 c 4 1 c 5 1 c 4 1 c 5 -1 c 4 0 c 4 1 c 5 -1 c 4 0 c 4 2 c 5 1 c 4 1 c 4 0 c 5 1 c
4 26 c 5 240 c 4 335 c 4 136 c 5 -26 c 4 -296 c 4 -311 c 5 -101 c 4 -5 c 5 -1 c 4 -2 c 4 -19 c 5 16 c 4 0 c 4 0 c 5 0 c 4 0 c 5 -1 c
4 -1 c 4 0 c 5 0 c 4 0 c 4 1 c 5 0 c 4 1 c 4 1 c 5 0 c 4 0 c 5 0 c 4 -1 c 4 0 c 5 0 c 4 0 c 4 -1 c 5 1 c 4 -1 c 5 -1 c 4 0 c 4 0 c
5 3 c 4 3 c 4 4 c 5 3 c 4 1 c 5 -2 c 4 -3 c 4 -3 c 5 -1 c 4 0 c 4 -1 c 5 0 c 4 3 c 5 2 c 4 3 c 4 5 c 5 23 c 4 133 c 4 214 c 5 128 c
4 -9 c 4 -158 c 5 -213 c 4 -95 c 5 31 c 4 45 c 4 18 c 5 -10 c 4 -56 c 4 -49 c 5 -13 c 4 -1 c 5 0 c 4 0 c 4 2 c 5 2 c 4 2 c 4 5 c
5 53 c 4 201 c 5 158 c 4 37 c 4 -58 c 5 -203 c 4 -135 c 4 -33 c 5 -7 c 4 -9 c 5 -2 c 4 -2 c 4 -3 c 5 -3 c 4 -1 c 4 3 c 5 4 c 4 4 c
4 2 c 5 0 c 4 -3 c 5 1 c 4 6 c 4 37 c 5 335 c 4 693 c 4 331 c 5 -19 c 4 -391 c 5 -635 c 4 87 c 4 394 c 5 176 c 4 -29 c 4 -421 c
5 -404 c 4 -135 c 5 -15 c 4 -9 c 4 -4 c 5 2 c 4 3 c 4 11 c 5 10 c 4 1 c 5 0 c 4 -5 c 4 -3 c 5 10 c 4 26 c 4 174 c 5 1493 c 4 2213 c
4 1111 c 5 -68 c 4 -1704 c 5 -2273 c 4 -895 c 4 -77 c 5 -9 c 4 -4 c 4 1 c 5 1 c 4 35 c 5 107 c 4 74 c 4 12 c 5 -37 c 4 -108 c 4 32 c
5 146 c 4 80 c 5 -6 c 4 -105 c 4 -133 c 5 -52 c 4 7 c 4 20 c 5 17 c 4 39 c 4 72 c 5 134 c 4 305 c 5 1260 c 4 4101 c 4 8 c 5 -25 c
4 1 c 4 5 c 5 0 c 4 -3854 c 5 -1395 c 4 -365 c 4 -143 c 5 -80 c 4 -34 c 4 -15 c 5 -27 c 4 -20 c 5 -22 c 4 -83 c 4 59 c 5 -5 c 4 -4 c
4 -4 c 5 -3 c 4 4 c 5 2 c 4 0 c 4 -5 c 5 -6 c 4 -3 c 4 1 c 5 10 c 4 28 c 4 29 c 5 18 c 4 -4 c 5 -29 c 4 -33 c 4 -18 c 5 -4 c 4 7 c
4 74 c 5 209 c 4 134 c 5 31 c 4 -81 c 4 -225 c 5 -134 c 4 -22 c 4 -2 c 5 -1 c 4 -1 c 5 2 c 4 8 c 4 11 c 5 4 c 4 -2 c 4 -9 c 5 -10 c
4 -2 c 5 13 c 4 48 c 4 31 c 5 8 c 4 -14 c 4 -49 c 5 -28 c 4 -6 c 4 -1 c 5 4 c 4 11 c 5 41 c 4 133 c 4 174 c 5 95 c 4 -22 c 4 -133 c
5 -165 c 4 -13 c 5 83 c 4 27 c 4 -13 c 5 -83 c 4 -103 c 4 -35 c 5 -2 c 4 -2 c 5 -1 c 4 -3 c 4 0 c 5 0 c 4 1 c 4 2 c 5 1 c 4 2 c
5 -2 c 4 -2 c 4 0 c 5 0 c 4 -1 c 4 1 c 5 3 c 4 5 c 4 4 c 5 2 c 4 0 c 5 -5 c 4 -6 c 4 -5 c 5 1 c 4 0 c 4 3 c 5 5 c 4 3 c 5 1 c 4 -3 c
4 -5 c 5 -5 c 4 -3 c 4 0 c 5 0 c 4 2 c 5 2 c 4 1 c 4 1 c 5 -2 c 4 -2 c 4 -1 c 5 -1 c 4 1 c 5 -1 c 4 0 c 4 -1 c 5 1 c 4 0 c 4 0 c
5 0 c 4 2 c 4 4 c 5 4 c 4 5 c 5 5 c 4 -1 c 4 -3 c 5 -2 c 4 0 c 4 0 c 5 0 c 4 -5 c 5 -9 c 4 -2 c 4 0 c 5 1 c 4 0 c 4 0 c 5 0 c 4 0 c
5 0 c 4 0 c 4 0 c 5 0 c 4 1 c 4 2 c 5 1 c 4 1 c 4 -1 c 5 -1 c 4 -1 c 5 1 c 4 19 c 4 43 c 5 26 c 4 8 c 4 -23 c 5 -43 c 4 -26 c 5 -4 c
4 1 c 4 3 c 5 2 c 4 1 c 4 -2 c 5 11 c 4 39 c 5 27 c 4 3 c 4 -12 c 5 -38 c 4 -19 c 4 -1 c 5 1 c 4 -1 c 5 13 c 4 22 c 4 17 c 5 4 c
4 -16 c 4 -24 c 5 -14 c 4 -7 c 4 -3 c 5 -1 c 4 -2 c 5 -3 c 4 -1 c 4 -1 c 5 1 c 4 0 c 4 2 c 5 7 c 4 5 c 5 1 c 4 -2 c 4 -7 c 5 -6 c
4 0 c 4 6 c 5 4 c 4 0 c 5 -1 c 4 -6 c 4 -5 c 5 0 c 4 0 c 4 -16 c 5 17 c 4 1 c 5 1 c 4 0 c 4 0 c 5 1 c 4 1 c 4 1 c 5 1 c 4 -1 c
4 -2 c 5 -1 c 4 1 c 5 2 c 4 6 c 4 35 c 5 169 c 4 217 c 4 97 c 5 -16 c 4 -182 c 5 -216 c 4 -85 c 4 -9 c 5 4 c 4 17 c 4 31 c 5 12 c
4 2 c 5 0 c 4 -24 c 4 -21 c 5 -7 c 4 -14 c 4 -7 c 5 -1 c 4 -1 c 5 -2 c 4 -1 c 4 2 c 5 2 c 4 3 c 4 4 c 5 3 c 4 6 c 4 13 c 5 31 c
4 95 c 5 676 c 4 1765 c 4 1437 c 5 309 c 4 -609 c 4 -1837 c 5 -1410 c 4 -335 c 5 -83 c 4 -35 c 4 -15 c 5 -6 c 4 -5 c 4 6 c 5 61 c
4 65 c 5 21 c 4 -3 c 4 -61 c 5 -81 c 4 -20 c 4 -2 c 5 -1 c 4 1 c 5 19 c 4 120 c 4 123 c 5 44 c 4 -26 c 4 -125 c 5 -121 c 4 -31 c
4 -1 c 5 0 c 4 0 c 5 -2 c 4 -1 c 4 -2 c 5 0 c 4 -2 c 4 1 c 5 1 c 4 22 c 5 94 c 4 81 c 4 31 c 5 -23 c 4 -92 c 4 -94 c 5 -18 c 4 -1 c
5 -1 c 4 0 c 4 0 c 5 0 c 4 -1 c 4 0 c 5 -1 c 4 1 c 4 2 c 5 6 c 4 9 c 5 4 c 4 0 c 4 -6 c 5 -5 c 4 -1 c 4 0 c 5 -2 c 4 -4 c 5 -4 c
4 0 c 4 3 c 5 5 c 4 5 c 4 1 c 5 -3 c 4 -5 c 5 -2 c 4 10 c 4 15 c 5 4 c 4 0 c 4 -14 c 5 -14 c 4 -5 c 5 1 c 4 4 c 4 9 c 5 6 c 4 5 c
4 6 c 5 -6 c 4 -4 c 4 -7 c 5 -10 c 4 -4 c 5 0 c 4 4 c 4 5 c 5 2 c 4 0 c 4 -4 c 5 -5 c 4 -2 c 5 -1 c 4 0 c 4 0 c 5 1 c 4 2 c 4 2 c
5 9 c 4 76 c 5 89 c 4 32 c 4 -2 c 5 -69 c 4 -105 c 4 -29 c 5 -3 c 4 -1 c 5 0 c 4 -1 c 4 -1 c 5 0 c 4 0 c 4 0 c 5 0 c 4 1 c 4 -1 c
5 0 c 4 1 c 5 15 c 4 64 c 4 45 c 5 11 c 4 -8 c 4 -62 c 5 -48 c 4 -12 c 5 -4 c 4 4 c 4 2 c 5 2 c 4 -2 c 4 -4 c 5 -3 c 4 2 c 5 0 c
4 0 c 4 0 c 5 0 c 4 1 c 4 2 c 5 0 c 4 0 c 5 -1 c 4 0 c 4 1 c 5 -1 c 4 3 c 4 4 c 5 5 c 4 2 c 4 -2 c 5 0 c 4 -1 c 5 1 c 4 4 c 4 7 c
5 43 c 4 83 c 4 55 c 5 7 c 4 -34 c 5 -71 c 4 -8 c 4 207 c 5 2681 c 4 3016 c 4 30 c 5 -9 c 4 -5 c 5 -3120 c 4 -2562 c 4 -263 c
5 -24 c 4 -13 c 4 -7 c 5 -5 c 4 -5 c 5 -4 c 4 -4 c 4 -4 c 5 -1 c 4 0 c 4 -2 c 5 -1 c 4 -1 c 4 5 c 5 27 c 4 20 c 5 5 c 4 -8 c 4 -29 c
5 -21 c 4 -3 c 4 -1 c 5 0 c 4 -1 c 5 0 c 4 0 c 4 0 c 5 0 c 4 1 c 4 0 c 5 0 c 4 0 c 5 0 c 4 1 c 4 1 c 5 -1 c 4 -2 c 4 -2 c 5 0 c
4 0 c 4 1 c 5 0 c 4 1 c 5 1 c 4 -2 c 4 0 c 5 -1 c 4 -1 c 4 0 c 5 0 c 4 1 c 5 -1 c 4 0 c 4 0 c 5 1 c 4 0 c 4 0 c 5 1 c 4 0 c 5 0 c
4 -1 c 4 0 c 5 0 c 4 0 c 4 -1 c 5 1 c 4 0 c 5 0 c 4 -1 c 4 0 c 5 -1 c 4 1 c 4 2 c 5 5 c 4 3 c 4 0 c 5 -2 c 4 -5 c 5 -2 c 4 -2 c
4 1 c 5 0 c 4 1 c 4 8 c 5 5 c 4 1 c 5 -2 c 4 -6 c 4 -5 c 5 -1 c 4 1 c 4 -1 c 5 -1 c 4 1 c 5 0 c 4 2 c 4 12 c 5 10 c 4 23 c 4 100 c
5 77 c 4 12 c 5 -24 c 4 -96 c 4 -98 c 5 -15 c 4 2 c 4 3 c 5 6 c 4 63 c 4 146 c 5 43 c 4 2 c 5 -50 c 4 -150 c 4 -61 c 5 -4 c 4 2 c
4 3 c 5 5 c 4 30 c 5 34 c 4 16 c 4 53 c 5 4 c 4 -25 c 4 -2 c 5 -48 c 4 -36 c 5 -9 c 4 -18 c 4 -12 c 5 -1 c 4 1 c 4 1 c 5 0 c 4 0 c
5 -1 c 4 -1 c 4 0 c 5 0 c 4 -1 c 4 0 c 5 0 c 4 0 c 4 1 c 5 1 c 4 2 c 5 1 c 4 -1 c 4 1 c 5 15 c 4 31 c 4 7 c 5 0 c 4 -15 c 5 -32 c
4 -10 c 4 0 c 5 -1 c 4 0 c 4 0 c 5 0 c 4 -1 c 5 1 c 4 0 c 4 0 c 5 0 c 4 1 c 4 1 c 5 0 c 4 0 c 4 1 c 5 2 c 4 1 c 5 1 c 4 0 c 4 -3 c
5 -2 c 4 -1 c 4 -1 c 5 0 c 4 0 c 5 0 c 4 0 c 4 3 c 5 4 c 4 1 c 4 2 c 5 -1 c 4 -5 c 5 0 c 4 -1 c 4 1 c 5 0 c 4 1 c 4 1 c 5 -1 c 4 0 c
5 -2 c 4 -2 c 4 0 c 5 1 c 4 0 c 4 1 c 5 0 c 4 10 c 4 52 c 5 64 c 4 195 c 5 203 c 4 -12 c 4 -67 c 5 -186 c 4 -216 c 4 -37 c 5 2 c
4 -1 c 5 2 c 4 -1 c 4 -4 c 5 -2 c 4 -2 c 4 -2 c 5 0 c 4 2 c 5 13 c 4 8 c 4 1 c 5 0 c 4 -5 c 4 17 c 5 88 c 4 51 c 5 3 c 4 -22 c
4 -81 c 5 -67 c 4 -5 c 4 1 c 5 11 c 4 10 c 4 20 c 5 28 c 4 -6 c 5 -9 c 4 -19 c 4 -29 c 5 -4 c 4 2 c 4 -1 c 5 -1 c 4 -2 c 5 -4 c
4 -1 c 4 1 c 5 0 c 4 1 c 4 0 c 5 0 c 4 0 c 5 0 c 4 1 c 4 1 c 5 3 c 4 1 c 4 -1 c 5 1 c 4 -3 c 5 -3 c 4 -1 c 4 -1 c 5 -1 c 4 1 c 4 0 c
5 1 c 4 0 c 4 -1 c 5 1 c 4 0 c 5 0 c 4 1 c 4 0 c 5 0 c 4 0 c 4 0 c 5 1 c 4 2 c 5 2 c 4 4 c 4 16 c 5 69 c 4 310 c 4 519 c 5 146 c
4 -36 c 5 -253 c 4 -520 c 4 -189 c 5 -41 c 4 -13 c 4 -8 c 5 -4 c 4 -4 c 5 -1 c 4 -1 c 4 -1 c 5 1 c 4 -1 c 4 1 c 5 -1 c 4 1 c 4 0 c
5 -1 c 4 0 c 5 0 c 4 1 c 4 1 c 5 1 c 4 1 c 4 0 c 5 0 c 4 -1 c 5 -1 c 4 -1 c 4 -1 c 5 -1 c 4 0 c 4 0 c 5 0 c 4 0 c 5 1 c 4 -1 c 4 2 c
5 2 c 4 0 c 4 0 c 5 -1 c 4 -2 c 4 -1 c 5 1 c 4 -1 c 5 0 c 4 -1 c 4 0 c 5 1 c 4 0 c 4 0 c 5 -1 c 4 1 c 5 0 c 4 0 c 4 1 c 5 1 c 4 1 c
4 1 c 5 -1 c 4 -2 c 5 -1 c 4 -1 c 4 1 c 5 1 c 4 1 c 4 3 c 5 6 c 4 0 c 5 -1 c 4 -2 c 4 2 c 5 22 c 4 9 c 4 0 c 5 -4 c 4 -24 c 4 -11 c
5 -2 c 4 0 c 5 0 c 4 0 c 4 1 c 5 0 c 4 1 c 4 4 c 5 2 c 4 0 c 5 -1 c 4 -5 c 4 -3 c 5 0 c 4 -1 c 4 1 c 5 0 c 4 1 c 5 2 c 4 4 c 4 2 c
5 1 c 4 0 c 4 -2 c 5 -3 c 4 0 c 5 -1 c 4 -1 c 4 -1 c 5 -1 c 4 -1 c 4 1 c 5 3 c 4 7 c 4 5 c 5 3 c 4 1 c 5 -6 c 4 -4 c 4 -2 c 5 -3 c
4 -2 c 4 -1 c 5 0 c 4 -1 c 5 0 c 4 1 c 4 0 c 5 0 c 4 0 c 4 0 c 5 1 c 4 0 c 5 -1 c 4 -1 c 4 0 c 5 3 c 4 2 c 4 1 c
5 0 c 4 -2 c 5 -3 c 4 -2 c 4 -11 c 4 11 9549 780 l 4 0 c 5 0 c 4 0 c 4 0 c 5 1 c 4 4 c 5 2 c 4 1 c 4 -1 c 5 0 c 4 8 c 4 7 c 5 1 c
4 0 c 5 -9 c 4 -10 c 4 -2 c 5 1 c 4 5 c 4 43 c 5 186 c 4 104 c 5 11 c 4 -26 c 4 -154 c 5 -117 c 4 0 c 4 1 c 5 -3 c 4 -21 c 5 -22 c
4 -2 c 4 6 c 5 6 c 4 1 c 4 0 c 5 -6 c 4 -10 c
0 -126 3030 418 l 54 0 3030 418 l 18 -6 c 6 -6 c 6 -12 c 0 -12 c -6 -12 c -6 -6 c -18 -6 c -54 0 c 42 -66 3072 358 l
-12 -6 3180 376 l -12 -12 c -6 -18 c 0 -12 c 6 -18 c 12 -12 c 12 -6 c 18 0 c 12 6 c 12 12 c 6 18 c 0 12 c -6 18 c -12 12 c -12 6 c
-18 0 c 24 -84 3264 376 l -24 -84 3312 376 l 24 -84 3312 376 l -24 -84 3360 376 l 108 0 3402 364 l 108 0 3402 328 l 0 6 3654 388 l
6 12 c 6 6 c 12 6 c 24 0 c 12 -6 c 6 -6 c 6 -12 c 0 -12 c -6 -12 c -12 -18 c -60 -60 c 84 0 c 0 6 3774 388 l 6 12 c 6 6 c 12 6 c
24 0 c 12 -6 c 6 -6 c 6 -12 c 0 -12 c -6 -12 c -12 -18 c -60 -60 c 84 0 c 12 6 4290 394 l 18 18 c 0 -126 c -6 -6 4404 376 l 6 -6 c
6 6 c -6 6 c -6 -6 4404 304 l 6 -6 c 6 6 c -6 6 c -48 -126 4584 418 l 48 -126 4584 418 l 60 0 4554 334 l 0 -84 4662 376 l
6 18 4662 340 l 12 12 c 12 6 c 18 0 c -12 12 4806 358 l -12 6 c -18 0 c -12 -6 c -12 -12 c -6 -18 c 0 -12 c 6 -18 c 12 -12 c 12 -6 c
18 0 c 12 6 c 12 12 c 108 0 4848 346 l -18 -6 5034 418 l -12 -18 c -6 -30 c 0 -18 c 6 -30 c 12 -18 c 18 -6 c 12 0 c 18 6 c 12 18 c
6 30 c 0 18 c -6 30 c -12 18 c -18 6 c -12 0 c 66 0 5130 418 l -36 -48 c 18 0 c 12 -6 c 6 -6 c 6 -18 c 0 -12 c -6 -18 c -12 -12 c
-18 -6 c -18 0 c -18 6 c -6 6 c -6 12 c -59 0 5309 418 l -6 -54 c 6 6 c 17 6 c 18 0 c 18 -6 c 12 -12 c 6 -18 c 0 -12 c -6 -18 c
-12 -12 c -18 -6 c -18 0 c -17 6 c -6 6 c -6 12 c -6 -6 5369 304 l 6 -6 c 6 6 c -6 6 c -12 0 5459 418 l -12 -6 c -6 -18 c 0 -102 c
42 0 5411 376 l 6 -6 5489 418 l 6 6 c -6 6 c -6 -6 c 0 -84 5495 376 l 0 -102 5549 418 l 6 -18 c 12 -6 c 12 0 c 42 0 5531 376 l
-6 12 5675 358 l -18 6 c -18 0 c -18 -6 c -6 -12 c 6 -12 c 12 -6 c 30 -6 c 12 -6 c 6 -12 c 0 -6 c -6 -12 c -18 -6 c -18 0 c -18 6 c
-6 12 c 0 -192 6005 442 l 0 -192 6011 442 l 42 0 6005 442 l 42 0 6005 250 l 0 6 6089 388 l 6 12 c 6 6 c 12 6 c 24 0 c 12 -6 c 6 -6 c
6 -12 c 0 -12 c -6 -12 c -12 -18 c -60 -60 c 84 0 c -6 -6 6215 376 l 6 -6 c 6 6 c -6 6 c -6 -6 6215 304 l 6 -6 c 6 6 c -6 6 c
-48 -126 6395 418 l 48 -126 6395 418 l 60 0 6365 334 l 0 -84 6473 376 l 6 18 6473 340 l 12 12 c 12 6 c 18 0 c -12 12 6617 358 l
-12 6 c -18 0 c -12 -6 c -12 -12 c -6 -18 c 0 -12 c 6 -18 c 12 -12 c 12 -6 c 18 0 c 12 6 c 12 12 c 108 0 6659 346 l
-18 -6 6845 418 l -12 -18 c -6 -30 c 0 -18 c 6 -30 c 12 -18 c 18 -6 c 12 0 c 18 6 c 12 18 c 6 30 c 0 18 c -6 30 c -12 18 c -18 6 c
-12 0 c 66 0 6941 418 l -36 -48 c 18 0 c 12 -6 c 6 -6 c 6 -18 c 0 -12 c -6 -18 c -12 -12 c -18 -6 c -18 0 c -18 6 c -6 6 c -6 12 c
-6 12 7127 400 l -18 6 c -12 0 c -18 -6 c -12 -18 c -6 -30 c 0 -30 c 6 -24 c 12 -12 c 18 -6 c 6 0 c 18 6 c 12 12 c 6 18 c 0 6 c
-6 18 c -12 12 c -18 6 c -6 0 c -18 -6 c -12 -12 c -6 -18 c -6 -6 7181 304 l 6 -6 c 6 6 c -6 6 c -12 0 7271 418 l -12 -6 c -6 -18 c
0 -102 c 42 0 7223 376 l 6 -6 7301 418 l 6 6 c -6 6 c -6 -6 c 0 -84 7307 376 l 0 -102 7361 418 l 6 -18 c 12 -6 c 12 0 c
42 0 7343 376 l -6 12 7487 358 l -18 6 c -18 0 c -18 -6 c -6 -12 c 6 -12 c 12 -6 c 30 -6 c 12 -6 c 6 -12 c 0 -6 c -6 -12 c -18 -6 c
-18 0 c -18 6 c -6 12 c 0 -192 7559 442 l 0 -192 7565 442 l 42 0 7523 442 l 42 0 7523 250 l
0 -250 822 3385 l 53 -38 779 3494 l 0 57 c 79 0 779 3494 l 4 -11 779 3551 l 7 -4 c 8 0 c 7 4 c 4 7 c 4 15 c 4 12 c 7 7 c 8 4 c
11 0 c 8 -4 c 3 -4 c 4 -11 c 0 -15 c -4 -11 c -3 -4 c -8 -4 c -11 0 c -8 4 c -7 7 c -4 12 c -4 15 c -4 7 c -7 4 c -8 0 c -7 -4 c
-4 -11 c 0 -15 c 53 -37 779 3645 l 0 56 c 79 0 779 3645 l 4 -11 779 3706 l 11 -8 c 19 -4 c 11 0 c 19 4 c 11 8 c 4 11 c 0 7 c -4 12 c
-11 7 c -19 4 c -11 0 c -19 -4 c -11 -7 c -4 -12 c 0 -7 c 3 -3 851 3766 l 4 3 c -4 4 c -3 -4 c 4 -11 779 3815 l 7 -4 c 8 0 c 7 4 c
4 8 c 4 15 c 4 11 c 7 8 c 8 3 c 11 0 c 8 -3 c 3 -4 c 4 -11 c 0 -16 c -4 -11 c -3 -4 c -8 -3 c -11 0 c -8 3 c -7 8 c -4 11 c -4 15 c
-4 8 c -7 4 c -8 0 c -7 -4 c -4 -11 c 0 -16 c 53 -38 779 3910 l 0 57 c 79 0 779 3910 l 12 -4 805 3997 l 7 -7 c 4 -12 c 0 -4 c
-4 -11 c -7 -7 c -12 -4 c -4 0 c -11 4 c -7 7 c -4 11 c 0 4 c 4 12 c 7 7 c 15 4 c 19 0 c 19 -4 c 11 -7 c 4 -12 c 0 -7 c -4 -12 c
-7 -3 c 0 -250 1341 1371 l 53 -38 1297 1480 l 0 57 c 79 0 1297 1480 l 4 -11 1297 1537 l 7 -4 c 8 0 c 7 4 c 4 7 c 4 15 c 4 12 c 7 7 c
8 4 c 11 0 c 8 -4 c 4 -4 c 3 -11 c 0 -15 c -3 -11 c -4 -4 c -8 -4 c -11 0 c -8 4 c -7 7 c -4 12 c -4 15 c -4 7 c -7 4 c -8 0 c
-7 -4 c -4 -11 c 0 -15 c 53 -37 1297 1631 l 0 56 c 79 0 1297 1631 l 0 -38 1297 1715 l 34 -4 c -4 4 c -4 11 c 0 11 c 4 12 c 8 7 c
11 4 c 8 0 c 11 -4 c 8 -7 c 3 -12 c 0 -11 c -3 -11 c -4 -4 c -8 -4 c 4 -3 1369 1752 l 3 3 c -3 4 c -4 -4 c -4 7 1312 1794 l -11 12 c
79 0 c -7 -4 1308 1907 l -4 -11 c 0 -7 c 4 -12 c 11 -7 c 19 -4 c 19 0 c 15 4 c 8 7 c 3 12 c 0 3 c -3 12 c -8 7 c -11 4 c -4 0 c
-11 -4 c -8 -7 c -4 -12 c 0 -3 c 4 -12 c 8 -7 c 11 -4 c 0 42 1297 1941 l 30 -23 c 0 12 c 4 7 c 4 4 c 11 4 c 8 0 c 11 -4 c 8 -8 c
3 -11 c 0 -11 c -3 -12 c -4 -4 c -8 -3 c 0 -250 1660 4613 l 52 -38 1617 4723 l 0 57 c 79 0 1617 4723 l 3 -11 1617 4779 l 8 -4 c
7 0 c 8 4 c 4 8 c 4 15 c 3 11 c 8 8 c 7 3 c 12 0 c 7 -3 c 4 -4 c 4 -12 c 0 -15 c -4 -11 c -4 -4 c -7 -4 c -12 0 c -7 4 c -8 8 c
-3 11 c -4 15 c -4 8 c -8 4 c -7 0 c -8 -4 c -3 -12 c 0 -15 c 52 -38 1617 4874 l 0 57 c 79 0 1617 4874 l 79 -38 1617 4965 l
0 53 1617 4912 l 4 -4 1688 4995 l 4 4 c -4 4 c -4 -4 c 3 -11 1617 5044 l 8 -4 c 7 0 c 8 4 c 4 7 c 4 15 c 3 12 c 8 7 c 7 4 c 12 0 c
7 -4 c 4 -4 c 4 -11 c 0 -15 c -4 -11 c -4 -4 c -7 -4 c -12 0 c -7 4 c -8 7 c -3 12 c -4 15 c -4 7 c -8 4 c -7 0 c -8 -4 c -3 -11 c
0 -15 c -4 7 1632 5112 l -11 12 c 79 0 c 3 -11 1617 5199 l 12 -8 c 19 -4 c 11 0 c 19 4 c 11 8 c 4 11 c 0 7 c -4 12 c -11 7 c -19 4 c
-11 0 c -19 -4 c -12 -7 c -3 -12 c 0 -7 c 0 -250 1727 2828 l 53 -37 1683 2937 l 0 56 c 80 0 1683 2937 l 4 -11 1683 2994 l 7 -4 c
8 0 c 8 4 c 3 7 c 4 15 c 4 12 c 8 7 c 7 4 c 11 0 c 8 -4 c 4 -3 c 4 -12 c 0 -15 c -4 -11 c -4 -4 c -8 -4 c -11 0 c -7 4 c -8 8 c
-4 11 c -4 15 c -3 8 c -8 3 c -8 0 c -7 -3 c -4 -12 c 0 -15 c 53 -38 1683 3089 l 0 56 c 80 0 1683 3089 l 4 -11 1683 3145 l 7 -4 c
8 0 c 8 4 c 3 7 c 4 16 c 4 11 c 8 7 c 7 4 c 11 0 c 8 -4 c 4 -3 c 4 -12 c 0 -15 c -4 -11 c -4 -4 c -8 -4 c -11 0 c -7 4 c -8 8 c
-4 11 c -4 15 c -3 8 c -8 3 c -8 0 c -7 -3 c -4 -12 c 0 -15 c 4 -4 1755 3210 l 4 4 c -4 3 c -4 -3 c 0 42 1683 3247 l 30 -23 c 0 12 c
4 7 c 4 4 c 11 4 c 8 0 c 11 -4 c 8 -8 c 4 -11 c 0 -11 c -4 -12 c -4 -3 c -8 -4 c -7 -3 1694 3364 l -4 -12 c 0 -7 c 4 -12 c 11 -7 c
19 -4 c 19 0 c 15 4 c 8 7 c 4 12 c 0 4 c -4 11 c -8 7 c -11 4 c -4 0 c -11 -4 c -8 -7 c -4 -11 c 0 -4 c 4 -12 c 8 -7 c 11 -4 c
0 42 1683 3398 l 30 -23 c 0 12 c 4 7 c 4 4 c 11 4 c 8 0 c 11 -4 c 8 -7 c 4 -12 c 0 -11 c -4 -12 c -4 -3 c -8 -4 c 0 -250 1909 1384 l
53 -37 1865 1493 l 0 56 c 79 0 1865 1493 l 4 -11 1865 1550 l 7 -4 c 8 0 c 7 4 c 4 7 c 4 15 c 4 12 c 7 7 c 8 4 c 11 0 c 8 -4 c 4 -4 c
3 -11 c 0 -15 c -3 -11 c -4 -4 c -8 -4 c -11 0 c -8 4 c -7 7 c -4 12 c -4 15 c -4 7 c -7 4 c -8 0 c -7 -4 c -4 -11 c 0 -15 c
53 -37 1865 1644 l 0 56 c 79 0 1865 1644 l 12 -3 1891 1731 l 7 -8 c 4 -11 c 0 -4 c -4 -11 c -7 -8 c -12 -4 c -3 0 c -12 4 c -7 8 c
-4 11 c 0 4 c 4 11 c 7 8 c 15 3 c 19 0 c 19 -3 c 12 -8 c 3 -11 c 0 -8 c -3 -11 c -8 -4 c 4 -3 1937 1765 l 3 3 c -3 4 c -4 -4 c
4 -12 1865 1815 l 7 -4 c 8 0 c 7 4 c 4 8 c 4 15 c 4 11 c 7 8 c 8 4 c 11 0 c 8 -4 c 4 -4 c 3 -11 c 0 -15 c -3 -12 c -4 -4 c -8 -3 c
-11 0 c -8 3 c -7 8 c -4 11 c -4 15 c -4 8 c -7 4 c -8 0 c -7 -4 c -4 -11 c 0 -15 c -7 -3 1876 1920 l -4 -12 c 0 -7 c 4 -12 c
11 -7 c 19 -4 c 19 0 c 15 4 c 8 7 c 3 12 c 0 3 c -3 12 c -8 7 c -11 4 c -4 0 c -12 -4 c -7 -7 c -4 -12 c 0 -3 c 4 -12 c 7 -7 c
12 -4 c -4 0 1884 1951 l -8 3 c -3 4 c -4 8 c 0 15 c 4 7 c 3 4 c 8 4 c 8 0 c 7 -4 c 11 -7 c 38 -38 c 0 53 c 0 -249 1978 5265 l
53 -38 1935 5375 l 0 57 c 79 0 1935 5375 l 4 -12 1935 5432 l 7 -3 c 8 0 c 7 3 c 4 8 c 4 15 c 4 11 c 7 8 c 8 4 c 11 0 c 8 -4 c 3 -4 c
4 -11 c 0 -15 c -4 -12 c -3 -3 c -8 -4 c -11 0 c -8 4 c -7 7 c -4 12 c -4 15 c -4 7 c -7 4 c -8 0 c -7 -4 c -4 -11 c 0 -15 c
0 -38 1935 5534 l 34 -4 c -4 4 c -4 11 c 0 12 c 4 11 c 8 8 c 11 3 c 7 0 c 12 -3 c 7 -8 c 4 -11 c 0 -12 c -4 -11 c -3 -4 c -8 -4 c
4 -12 1935 5587 l 11 -7 c 19 -4 c 11 0 c 19 4 c 11 7 c 4 12 c 0 7 c -4 12 c -11 7 c -19 4 c -11 0 c -19 -4 c -11 -7 c -4 -12 c
0 -7 c 3 -4 2007 5647 l 4 4 c -4 4 c -3 -4 c 53 -38 1935 5715 l 0 57 c 79 0 1935 5715 l 53 -38 1935 5791 l 0 57 c 79 0 1935 5791 l
4 -11 1935 5851 l 11 -8 c 19 -3 c 11 0 c 19 3 c 11 8 c 4 11 c 0 8 c -4 11 c -11 8 c -19 4 c -11 0 c -19 -4 c -11 -8 c -4 -11 c
0 -8 c 0 -250 2274 1394 l 53 -37 2230 1503 l 0 56 c 79 0 2230 1503 l 4 -11 2230 1560 l 7 -4 c 8 0 c 7 4 c 4 7 c 4 15 c 4 12 c 7 7 c
8 4 c 11 0 c 8 -4 c 4 -3 c 3 -12 c 0 -15 c -3 -11 c -4 -4 c -8 -4 c -11 0 c -8 4 c -7 8 c -4 11 c -4 15 c -4 8 c -7 3 c -8 0 c
-7 -3 c -4 -12 c 0 -15 c 0 -38 2230 1662 l 34 -3 c -4 3 c -4 12 c 0 11 c 4 11 c 8 8 c 11 4 c 8 0 c 11 -4 c 8 -8 c 3 -11 c 0 -11 c
-3 -12 c -4 -3 c -8 -4 c -4 0 2249 1696 l -7 4 c -4 4 c -4 7 c 0 15 c 4 8 c 4 4 c 7 4 c 8 0 c 7 -4 c 12 -8 c 37 -38 c 0 53 c
4 -4 2302 1776 l 3 4 c -3 3 c -4 -3 c 4 -12 2230 1825 l 7 -3 c 8 0 c 7 3 c 4 8 c 4 15 c 4 11 c 7 8 c 8 4 c 11 0 c 8 -4 c 4 -4 c
3 -11 c 0 -15 c -3 -12 c -4 -3 c -8 -4 c -11 0 c -8 4 c -7 7 c -4 11 c -4 16 c -4 7 c -7 4 c -8 0 c -7 -4 c -4 -11 c 0 -15 c
-7 -4 2241 1931 l -4 -12 c 0 -7 c 4 -12 c 11 -7 c 19 -4 c 19 0 c 15 4 c 8 7 c 3 12 c 0 4 c -3 11 c -8 8 c -11 3 c -4 0 c -11 -3 c
-8 -8 c -4 -11 c 0 -4 c 4 -12 c 8 -7 c 11 -4 c 4 -11 2230 1976 l 7 -4 c 8 0 c 7 4 c 4 7 c 4 15 c 4 12 c 7 7 c 8 4 c 11 0 c 8 -4 c
4 -4 c 3 -11 c 0 -15 c -3 -11 c -4 -4 c -8 -4 c -11 0 c -8 4 c -7 7 c -4 12 c -4 15 c -4 7 c -7 4 c -8 0 c -7 -4 c -4 -11 c 0 -15 c
0 -250 2942 2241 l 53 -38 2899 2350 l 0 57 c 79 0 2899 2350 l 3 -11 2899 2407 l 8 -4 c 8 0 c 7 4 c 4 7 c 4 15 c 3 12 c 8 7 c 8 4 c
11 0 c 7 -4 c 4 -4 c 4 -11 c 0 -15 c -4 -11 c -4 -4 c -7 -4 c -11 0 c -8 4 c -8 7 c -3 12 c -4 15 c -4 7 c -7 4 c -8 0 c -8 -4 c
-3 -11 c 0 -15 c 0 -38 2899 2509 l 34 -4 c -4 4 c -4 12 c 0 11 c 4 11 c 7 8 c 12 4 c 7 0 c 12 -4 c 7 -8 c 4 -11 c 0 -11 c -4 -12 c
-4 -4 c -7 -3 c 3 -11 2899 2558 l 8 -4 c 8 0 c 7 4 c 4 7 c 4 15 c 3 12 c 8 7 c 8 4 c 11 0 c 7 -4 c 4 -3 c 4 -12 c 0 -15 c -4 -11 c
-4 -4 c -7 -4 c -11 0 c -8 4 c -8 8 c -3 11 c -4 15 c -4 8 c -7 3 c -8 0 c -8 -3 c -3 -12 c 0 -15 c 4 -3 2970 2622 l 4 3 c -4 4 c
-4 -4 c 0 42 2899 2660 l 30 -23 c 0 11 c 4 8 c 3 4 c 12 4 c 7 0 c 12 -4 c 7 -8 c 4 -11 c 0 -11 c -4 -12 c -4 -4 c -7 -3 c
0 41 2899 2736 l 30 -22 c 0 11 c 4 8 c 3 3 c 12 4 c 7 0 c 12 -4 c 7 -7 c 4 -12 c 0 -11 c -4 -11 c -4 -4 c -7 -4 c 0 42 2899 2811 l
30 -23 c 0 12 c 4 7 c 3 4 c 12 4 c 7 0 c 12 -4 c 7 -8 c 4 -11 c 0 -11 c -4 -12 c -4 -3 c -7 -4 c 0 -250 3298 1568 l
53 -37 3254 1677 l 0 56 c 80 0 3254 1677 l 4 -11 3254 1734 l 8 -4 c 7 0 c 8 4 c 4 7 c 3 15 c 4 12 c 8 7 c 7 4 c 12 0 c 7 -4 c 4 -3 c
4 -12 c 0 -15 c -4 -11 c -4 -4 c -7 -4 c -12 0 c -7 4 c -8 8 c -4 11 c -3 15 c -4 8 c -8 3 c -7 0 c -8 -3 c -4 -12 c 0 -15 c
-8 -4 3266 1840 l -4 -11 c 0 -8 c 4 -11 c 11 -8 c 19 -3 c 19 0 c 15 3 c 8 8 c 4 11 c 0 4 c -4 11 c -8 8 c -11 4 c -4 0 c -11 -4 c
-8 -8 c -3 -11 c 0 -4 c 3 -11 c 8 -8 c 11 -3 c -3 7 3269 1878 l -12 12 c 80 0 c 4 -4 3326 1950 l 4 4 c -4 3 c -4 -3 c
-4 0 3273 1984 l -7 3 c -4 4 c -4 8 c 0 15 c 4 7 c 4 4 c 7 4 c 8 0 c 8 -4 c 11 -7 c 38 -38 c 0 53 c -3 7 3269 2067 l -12 12 c 80 0 c
80 -38 3254 2184 l 0 53 3254 2131 l 0 -250 3360 1489 l 53 -38 3316 1598 l 0 57 c 79 0 3316 1598 l 4 -11 3316 1655 l 7 -4 c 8 0 c
7 4 c 4 7 c 4 15 c 4 12 c 7 7 c 8 4 c 11 0 c 8 -4 c 3 -4 c 4 -11 c 0 -15 c -4 -11 c -3 -4 c -8 -4 c -11 0 c -8 4 c -7 7 c -4 12 c
-4 15 c -4 7 c -7 4 c -8 0 c -7 -4 c -4 -11 c 0 -15 c -7 -4 3327 1761 l -4 -11 c 0 -8 c 4 -11 c 11 -8 c 19 -4 c 19 0 c 15 4 c 7 8 c
4 11 c 0 4 c -4 11 c -7 8 c -11 4 c -4 0 c -12 -4 c -7 -8 c -4 -11 c 0 -4 c 4 -11 c 7 -8 c 12 -4 c -4 7 3331 1799 l -11 11 c 79 0 c
3 -3 3388 1870 l 4 3 c -4 4 c -3 -4 c 79 -38 3316 1954 l 0 53 3316 1901 l -4 7 3331 1988 l -11 11 c 79 0 c 79 -38 3316 2105 l
0 53 3316 2052 l 0 -249 3540 7019 l 53 -38 3496 7129 l 0 57 c 79 0 3496 7129 l 4 -11 3496 7185 l 7 -4 c 8 0 c 8 4 c 3 8 c 4 15 c
4 11 c 7 8 c 8 3 c 11 0 c 8 -3 c 4 -4 c 3 -11 c 0 -16 c -3 -11 c -4 -4 c -8 -3 c -11 0 c -8 3 c -7 8 c -4 11 c -4 15 c -3 8 c -8 4 c
-8 0 c -7 -4 c -4 -11 c 0 -16 c -7 -4 3507 7291 l -4 -11 c 0 -7 c 4 -12 c 11 -7 c 19 -4 c 19 0 c 15 4 c 8 7 c 3 12 c 0 3 c -3 12 c
-8 7 c -11 4 c -4 0 c -11 -4 c -8 -7 c -4 -12 c 0 -3 c 4 -12 c 8 -7 c 11 -4 c 0 42 3496 7325 l 30 -23 c 0 11 c 4 8 c 4 4 c 11 4 c
8 0 c 11 -4 c 8 -8 c 3 -11 c 0 -11 c -3 -12 c -4 -4 c -8 -3 c 4 -4 3568 7401 l 3 4 c -3 4 c -4 -4 c -4 8 3511 7442 l -11 11 c 79 0 c
79 -38 3496 7560 l 0 53 3496 7507 l -4 0 3515 7586 l -7 4 c -4 4 c -4 7 c 0 15 c 4 8 c 4 4 c 7 3 c 8 0 c 7 -3 c 12 -8 c 37 -38 c
0 53 c 0 -250 3827 4686 l 53 -38 3783 4796 l 0 56 c 79 0 3783 4796 l 4 -11 3783 4852 l 7 -4 c 8 0 c 7 4 c 4 7 c 4 16 c 4 11 c 7 7 c
8 4 c 11 0 c 8 -4 c 4 -3 c 3 -12 c 0 -15 c -3 -11 c -4 -4 c -8 -4 c -11 0 c -8 4 c -7 8 c -4 11 c -4 15 c -4 8 c -7 3 c -8 0 c
-7 -3 c -4 -12 c 0 -15 c -7 -4 3794 4958 l -4 -11 c 0 -8 c 4 -11 c 11 -8 c 19 -3 c 19 0 c 15 3 c 8 8 c 3 11 c 0 4 c -3 11 c -8 8 c
-11 4 c -4 0 c -11 -4 c -8 -8 c -4 -11 c 0 -4 c 4 -11 c 8 -8 c 11 -3 c 0 -38 3783 5030 l 34 -4 c -4 4 c -4 11 c 0 12 c 4 11 c 8 8 c
11 3 c 8 0 c 11 -3 c 8 -8 c 3 -11 c 0 -12 c -3 -11 c -4 -4 c -8 -3 c 4 -4 3855 5068 l 3 4 c -3 3 c -4 -3 c 53 -38 3783 5136 l 0 57 c
79 0 3783 5136 l 79 -37 3783 5226 l 0 53 3783 5173 l 79 -38 3783 5302 l 0 53 3783 5249 l 0 -250 4252 1595 l 53 -37 4208 1704 l
0 56 c 80 0 4208 1704 l 4 -11 4208 1761 l 8 -4 c 7 0 c 8 4 c 3 7 c 4 15 c 4 12 c 8 7 c 7 4 c 11 0 c 8 -4 c 4 -4 c 4 -11 c 0 -15 c
-4 -11 c -4 -4 c -8 -4 c -11 0 c -7 4 c -8 7 c -4 12 c -4 15 c -3 7 c -8 4 c -7 0 c -8 -4 c -4 -11 c 0 -15 c -8 -4 4220 1867 l
-4 -11 c 0 -8 c 4 -11 c 11 -8 c 19 -4 c 19 0 c 15 4 c 8 8 c 4 11 c 0 4 c -4 11 c -8 8 c -11 4 c -4 0 c -11 -4 c -8 -8 c -4 -11 c
0 -4 c 4 -11 c 8 -8 c 11 -4 c 4 -11 4208 1912 l 8 -4 c 7 0 c 8 4 c 3 7 c 4 16 c 4 11 c 8 7 c 7 4 c 11 0 c 8 -4 c 4 -3 c 4 -12 c
0 -15 c -4 -11 c -4 -4 c -8 -4 c -11 0 c -7 4 c -8 8 c -4 11 c -4 15 c -3 8 c -8 3 c -7 0 c -8 -3 c -4 -12 c 0 -15 c
4 -3 4280 1976 l 4 3 c -4 4 c -4 -4 c 4 -12 4208 2026 l 8 -4 c 7 0 c 8 4 c 3 8 c 4 15 c 4 11 c 8 8 c 7 4 c 11 0 c 8 -4 c 4 -4 c
4 -11 c 0 -15 c -4 -12 c -4 -4 c -8 -3 c -11 0 c -7 3 c -8 8 c -4 11 c -4 15 c -3 8 c -8 4 c -7 0 c -8 -4 c -4 -11 c 0 -15 c
4 -11 4208 2101 l 8 -4 c 7 0 c 8 4 c 3 7 c 4 16 c 4 11 c 8 7 c 7 4 c 11 0 c 8 -4 c 4 -3 c 4 -12 c 0 -15 c -4 -11 c -4 -4 c -8 -4 c
-11 0 c -7 4 c -8 8 c -4 11 c -4 15 c -3 8 c -8 3 c -7 0 c -8 -3 c -4 -12 c 0 -15 c -3 8 4223 2169 l -12 11 c 80 0 c
0 -249 4554 1646 l 52 -38 4511 1756 l 0 57 c 79 0 4511 1756 l 3 -12 4511 1813 l 8 -4 c 7 0 c 8 4 c 4 8 c 4 15 c 3 11 c 8 8 c 7 4 c
12 0 c 7 -4 c 4 -4 c 4 -11 c 0 -15 c -4 -12 c -4 -4 c -7 -3 c -12 0 c -7 3 c -8 8 c -3 11 c -4 15 c -4 8 c -8 4 c -7 0 c -8 -4 c
-3 -11 c 0 -15 c 79 -38 4511 1922 l 0 53 4511 1869 l -4 8 4526 1956 l -11 11 c 79 0 c 4 -4 4582 2028 l 4 4 c -4 4 c -4 -4 c
-3 0 4529 2062 l -8 4 c -4 4 c -3 7 c 0 15 c 3 8 c 4 4 c 8 3 c 7 0 c 8 -3 c 11 -8 c 38 -38 c 0 53 c 3 -12 4511 2153 l 8 -3 c 7 0 c
8 3 c 4 8 c 4 15 c 3 11 c 8 8 c 7 4 c 12 0 c 7 -4 c 4 -4 c 4 -11 c 0 -15 c -4 -12 c -4 -3 c -7 -4 c -12 0 c -7 4 c -8 7 c -3 11 c
-4 16 c -4 7 c -8 4 c -7 0 c -8 -4 c -3 -11 c 0 -15 c 11 -4 4537 2259 l 8 -8 c 4 -11 c 0 -4 c -4 -11 c -8 -8 c -11 -4 c -4 0 c
-11 4 c -8 8 c -3 11 c 0 4 c 3 11 c 8 8 c 15 4 c 19 0 c 19 -4 c 11 -8 c 4 -11 c 0 -8 c -4 -11 c -7 -4 c 0 -249 4760 3735 l
53 -38 4716 3845 l 0 57 c 79 0 4716 3845 l 4 -12 4716 3902 l 7 -3 c 8 0 c 8 3 c 3 8 c 4 15 c 4 11 c 7 8 c 8 4 c 11 0 c 8 -4 c 4 -4 c
3 -11 c 0 -15 c -3 -12 c -4 -3 c -8 -4 c -11 0 c -8 4 c -7 7 c -4 12 c -4 15 c -3 7 c -8 4 c -8 0 c -7 -4 c -4 -11 c 0 -15 c
79 -37 4716 4011 l 0 53 4716 3958 l -4 0 4735 4038 l -7 4 c -4 3 c -4 8 c 0 15 c 4 8 c 4 3 c 7 4 c 8 0 c 7 -4 c 12 -7 c 37 -38 c
0 53 c 4 -4 4788 4117 l 3 4 c -3 4 c -4 -4 c 11 -4 4743 4197 l 7 -8 c 4 -11 c 0 -4 c -4 -11 c -7 -8 c -11 -4 c -4 0 c -12 4 c -7 8 c
-4 11 c 0 4 c 4 11 c 7 8 c 16 4 c 18 0 c 19 -4 c 12 -8 c 3 -11 c 0 -8 c -3 -11 c -8 -4 c -4 8 4731 4234 l -11 11 c 79 0 c
79 -37 4716 4351 l 0 52 4716 4299 l 0 -249 4942 1977 l 53 -38 4899 2087 l 0 57 c 79 0 4899 2087 l 3 -12 4899 2144 l 8 -4 c 8 0 c
7 4 c 4 8 c 4 15 c 4 11 c 7 8 c 8 4 c 11 0 c 8 -4 c 3 -4 c 4 -11 c 0 -15 c -4 -12 c -3 -4 c -8 -3 c -11 0 c -8 3 c -7 8 c -4 11 c
-4 15 c -4 8 c -7 4 c -8 0 c -8 -4 c -3 -11 c 0 -15 c 79 -38 4899 2253 l 0 53 4899 2200 l 53 -38 4899 2314 l 0 57 c 79 0 4899 2314 l
3 -4 4971 2359 l 4 4 c -4 4 c -3 -4 c 0 41 4899 2397 l 30 -22 c 0 11 c 4 8 c 4 3 c 11 4 c 7 0 c 12 -4 c 7 -7 c 4 -12 c 0 -11 c
-4 -11 c -3 -4 c -8 -4 c -8 -4 4910 2514 l -3 -11 c 0 -8 c 3 -11 c 12 -8 c 19 -3 c 19 0 c 15 3 c 7 8 c 4 11 c 0 4 c -4 11 c -7 8 c
-12 4 c -3 0 c -12 -4 c -7 -8 c -4 -11 c 0 -4 c 4 -11 c 7 -8 c 12 -3 c 53 -38 4899 2578 l 0 57 c 79 0 4899 2578 l 0 -250 5405 2265 l
53 -37 5361 2374 l 0 56 c 80 0 5361 2374 l 4 -11 5361 2431 l 8 -4 c 7 0 c 8 4 c 4 7 c 3 16 c 4 11 c 8 7 c 7 4 c 12 0 c 7 -4 c 4 -3 c
4 -12 c 0 -15 c -4 -11 c -4 -4 c -7 -4 c -12 0 c -7 4 c -8 8 c -4 11 c -3 15 c -4 8 c -8 3 c -7 0 c -8 -3 c -4 -12 c 0 -15 c
80 -38 5361 2541 l 0 53 5361 2488 l 4 -11 5361 2582 l 8 -4 c 7 0 c 8 4 c 4 8 c 3 15 c 4 11 c 8 8 c 7 3 c 12 0 c 7 -3 c 4 -4 c
4 -12 c 0 -15 c -4 -11 c -4 -4 c -7 -4 c -12 0 c -7 4 c -8 8 c -4 11 c -3 15 c -4 8 c -8 4 c -7 0 c -8 -4 c -4 -12 c 0 -15 c
4 -4 5433 2647 l 4 4 c -4 3 c -4 -3 c 4 -12 5361 2700 l 11 -7 c 19 -4 c 12 0 c 19 4 c 11 7 c 4 12 c 0 7 c -4 11 c -11 8 c -19 4 c
-12 0 c -19 -4 c -11 -8 c -4 -11 c 0 -7 c 4 -11 5361 2775 l 11 -8 c 19 -4 c 12 0 c 19 4 c 11 8 c 4 11 c 0 8 c -4 11 c -11 8 c
-19 3 c -12 0 c -19 -3 c -11 -8 c -4 -11 c 0 -8 c 11 -4 5388 2877 l 8 -7 c 3 -12 c 0 -3 c -3 -12 c -8 -7 c -11 -4 c -4 0 c -11 4 c
-8 7 c -4 12 c 0 3 c 4 12 c 8 7 c 15 4 c 19 0 c 19 -4 c 11 -7 c 4 -12 c 0 -7 c -4 -11 c -8 -4 c 0 -249 5498 6294 l
53 -38 5454 6404 l 0 57 c 80 0 5454 6404 l 4 -11 5454 6460 l 8 -4 c 7 0 c 8 4 c 4 8 c 3 15 c 4 11 c 8 8 c 7 3 c 12 0 c 7 -3 c 4 -4 c
4 -11 c 0 -16 c -4 -11 c -4 -4 c -7 -3 c -12 0 c -7 3 c -8 8 c -4 11 c -3 15 c -4 8 c -8 4 c -7 0 c -8 -4 c -4 -11 c 0 -16 c
80 -38 5454 6570 l 0 53 5454 6517 l 4 -12 5454 6612 l 8 -3 c 7 0 c 8 3 c 4 8 c 3 15 c 4 11 c 8 8 c 7 4 c 12 0 c 7 -4 c 4 -4 c
4 -11 c 0 -15 c -4 -12 c -4 -3 c -7 -4 c -12 0 c -7 4 c -8 7 c -4 11 c -3 16 c -4 7 c -8 4 c -7 0 c -8 -4 c -4 -11 c 0 -15 c
4 -4 5526 6676 l 4 4 c -4 4 c -4 -4 c 80 -38 5454 6759 l 0 53 5454 6706 l 0 42 5454 6789 l 31 -23 c 0 11 c 3 8 c 4 4 c 11 4 c 8 0 c
11 -4 c 8 -8 c 4 -11 c 0 -11 c -4 -12 c -4 -4 c -7 -3 c 0 41 5454 6865 l 31 -22 c 0 11 c 3 8 c 4 3 c 11 4 c 8 0 c 11 -4 c 8 -7 c
4 -11 c 0 -12 c -4 -11 c -4 -4 c -7 -4 c 0 -249 5643 7019 l 53 -38 5599 7129 l 0 57 c 80 0 5599 7129 l 4 -11 5599 7185 l 8 -4 c
7 0 c 8 4 c 4 8 c 3 15 c 4 11 c 8 8 c 7 3 c 12 0 c 7 -3 c 4 -4 c 4 -11 c 0 -16 c -4 -11 c -4 -4 c -7 -3 c -12 0 c -7 3 c -8 8 c
-4 11 c -3 15 c -4 8 c -8 4 c -7 0 c -8 -4 c -4 -11 c 0 -16 c 80 -38 5599 7295 l 0 53 5599 7242 l 11 -4 5626 7367 l 8 -8 c 4 -11 c
0 -4 c -4 -11 c -8 -8 c -11 -3 c -4 0 c -11 3 c -8 8 c -4 11 c 0 4 c 4 11 c 8 8 c 15 4 c 19 0 c 19 -4 c 11 -8 c 4 -11 c 0 -7 c
-4 -12 c -8 -4 c 4 -4 5671 7401 l 4 4 c -4 4 c -4 -4 c 4 -11 5599 7450 l 8 -4 c 7 0 c 8 4 c 4 7 c 3 15 c 4 12 c 8 7 c 7 4 c 12 0 c
7 -4 c 4 -4 c 4 -11 c 0 -15 c -4 -11 c -4 -4 c -7 -4 c -12 0 c -7 4 c -8 7 c -4 12 c -3 15 c -4 7 c -8 4 c -7 0 c -8 -4 c -4 -11 c
0 -15 c -8 -4 5611 7556 l -4 -11 c 0 -8 c 4 -11 c 12 -8 c 18 -4 c 19 0 c 15 4 c 8 8 c 4 11 c 0 4 c -4 11 c -8 8 c -11 4 c -4 0 c
-11 -4 c -8 -8 c -3 -11 c 0 -4 c 3 -11 c 8 -8 c 11 -4 c 53 -38 5599 7620 l 0 57 c 80 0 5599 7620 l 0 -249 5814 1705 l
53 -38 5771 1815 l 0 57 c 79 0 5771 1815 l 3 -12 5771 1872 l 8 -4 c 8 0 c 7 4 c 4 8 c 4 15 c 4 11 c 7 8 c 8 4 c 11 0 c 8 -4 c 3 -4 c
4 -11 c 0 -15 c -4 -12 c -3 -4 c -8 -3 c -11 0 c -8 3 c -7 8 c -4 11 c -4 15 c -4 8 c -7 4 c -8 0 c -8 -4 c -3 -11 c 0 -15 c
3 -11 5771 1947 l 8 -4 c 8 0 c 7 4 c 4 7 c 4 15 c 4 12 c 7 7 c 8 4 c 11 0 c 8 -4 c 3 -3 c 4 -12 c 0 -15 c -4 -11 c -3 -4 c -8 -4 c
-11 0 c -8 4 c -7 8 c -4 11 c -4 15 c -4 8 c -7 3 c -8 0 c -8 -3 c -3 -12 c 0 -15 c -4 8 5786 2015 l -11 11 c 79 0 c
3 -4 5843 2087 l 4 4 c -4 4 c -3 -4 c -4 0 5790 2121 l -8 4 c -4 4 c -3 7 c 0 15 c 3 8 c 4 4 c 8 3 c 7 0 c 8 -3 c 11 -8 c 38 -38 c
0 53 c 3 -11 5771 2215 l 12 -7 c 19 -4 c 11 0 c 19 4 c 11 7 c 4 11 c 0 8 c -4 11 c -11 8 c -19 4 c -11 0 c -19 -4 c -12 -8 c
-3 -11 c 0 -8 c 0 -38 5771 2314 l 34 -4 c -4 4 c -4 11 c 0 12 c 4 11 c 8 8 c 11 3 c 7 0 c 12 -3 c 7 -8 c 4 -11 c 0 -12 c -4 -11 c
-3 -4 c -8 -4 c 0 -249 6829 5588 l 53 -38 6785 5698 l 0 57 c 80 0 6785 5698 l 4 -12 6785 5755 l 8 -3 c 7 0 c 8 3 c 4 8 c 3 15 c
4 11 c 8 8 c 7 4 c 12 0 c 7 -4 c 4 -4 c 4 -11 c 0 -15 c -4 -12 c -4 -3 c -7 -4 c -12 0 c -7 4 c -8 7 c -4 11 c -3 16 c -4 7 c -8 4 c
-7 0 c -8 -4 c -4 -11 c 0 -15 c 4 -11 6785 5830 l 8 -4 c 7 0 c 8 4 c 4 7 c 3 16 c 4 11 c 8 7 c 7 4 c 12 0 c 7 -4 c 4 -3 c 4 -12 c
0 -15 c -4 -11 c -4 -4 c -7 -4 c -12 0 c -7 4 c -8 8 c -4 11 c -3 15 c -4 8 c -8 3 c -7 0 c -8 -3 c -4 -12 c 0 -15 c
11 -4 6812 5936 l 8 -7 c 4 -12 c 0 -3 c -4 -12 c -8 -7 c -11 -4 c -4 0 c -11 4 c -8 7 c -4 12 c 0 3 c 4 12 c 8 7 c 15 4 c 19 0 c
19 -4 c 11 -7 c 4 -12 c 0 -7 c -4 -11 c -8 -4 c 4 -4 6857 5970 l 4 4 c -4 4 c -4 -4 c 4 -11 6785 6023 l 11 -8 c 19 -4 c 12 0 c
19 4 c 11 8 c 4 11 c 0 8 c -4 11 c -11 7 c -19 4 c -12 0 c -19 -4 c -11 -7 c -4 -11 c 0 -8 c 53 -38 6785 6114 l 0 57 c
80 0 6785 6114 l -4 0 6804 6155 l -7 4 c -4 4 c -4 7 c 0 16 c 4 7 c 4 4 c 7 4 c 8 0 c 8 -4 c 11 -8 c 38 -37 c 0 52 c
0 -249 6887 1406 l 52 -38 6844 1516 l 0 57 c 79 0 6844 1516 l 3 -12 6844 1573 l 8 -3 c 7 0 c 8 3 c 4 8 c 4 15 c 3 11 c 8 8 c 7 4 c
12 0 c 7 -4 c 4 -4 c 4 -11 c 0 -15 c -4 -12 c -4 -3 c -7 -4 c -12 0 c -7 4 c -8 7 c -3 12 c -4 15 c -4 7 c -8 4 c -7 0 c -8 -4 c
-3 -11 c 0 -15 c 3 -11 6844 1648 l 8 -4 c 7 0 c 8 4 c 4 8 c 4 15 c 3 11 c 8 8 c 7 3 c 12 0 c 7 -3 c 4 -4 c 4 -12 c 0 -15 c -4 -11 c
-4 -4 c -7 -4 c -12 0 c -7 4 c -8 8 c -3 11 c -4 15 c -4 8 c -8 4 c -7 0 c -8 -4 c -3 -12 c 0 -15 c 11 -4 6870 1754 l 8 -7 c 4 -11 c
0 -4 c -4 -12 c -8 -7 c -11 -4 c -4 0 c -11 4 c -8 7 c -3 12 c 0 4 c 3 11 c 8 7 c 15 4 c 19 0 c 19 -4 c 11 -7 c 4 -11 c 0 -8 c
-4 -11 c -7 -4 c 4 -4 6915 1788 l 4 4 c -4 4 c -4 -4 c 52 -38 6844 1856 l 0 57 c 79 0 6844 1856 l 11 -4 6870 1943 l 8 -7 c 4 -11 c
0 -4 c -4 -12 c -8 -7 c -11 -4 c -4 0 c -11 4 c -8 7 c -3 12 c 0 4 c 3 11 c 8 7 c 15 4 c 19 0 c 19 -4 c 11 -7 c 4 -11 c 0 -8 c
-4 -11 c -7 -4 c 3 -11 6844 1992 l 12 -8 c 19 -3 c 11 0 c 19 3 c 11 8 c 4 11 c 0 8 c -4 11 c -11 8 c -19 4 c -11 0 c -19 -4 c
-12 -8 c -3 -11 c 0 -8 c 0 -249 7013 1464 l 53 -38 6970 1574 l 0 57 c 79 0 6970 1574 l 4 -12 6970 1631 l 7 -3 c 8 0 c 7 3 c 4 8 c
4 15 c 4 11 c 7 8 c 8 4 c 11 0 c 8 -4 c 3 -4 c 4 -11 c 0 -15 c -4 -12 c -3 -3 c -8 -4 c -11 0 c -8 4 c -7 7 c -4 11 c -4 16 c -4 7 c
-7 4 c -8 0 c -7 -4 c -4 -11 c 0 -15 c 12 -4 6996 1737 l 7 -8 c 4 -11 c 0 -4 c -4 -11 c -7 -8 c -12 -4 c -4 0 c -11 4 c -7 8 c
-4 11 c 0 4 c 4 11 c 7 8 c 15 4 c 19 0 c 19 -4 c 11 -8 c 4 -11 c 0 -8 c -4 -11 c -7 -4 c 4 -12 6970 1786 l 11 -7 c 19 -4 c 11 0 c
19 4 c 11 7 c 4 12 c 0 7 c -4 12 c -11 7 c -19 4 c -11 0 c -19 -4 c -11 -7 c -4 -12 c 0 -7 c 3 -4 7042 1846 l 4 4 c -4 4 c -3 -4 c
53 -38 6970 1914 l 0 57 c 79 0 6970 1914 l 0 -37 6970 1997 l 34 -4 c -4 4 c -4 11 c 0 11 c 4 12 c 8 7 c 11 4 c 7 0 c 12 -4 c 7 -7 c
4 -12 c 0 -11 c -4 -11 c -3 -4 c -8 -4 c 4 -11 6970 2046 l 7 -4 c 8 0 c 7 4 c 4 8 c 4 15 c 4 11 c 7 8 c 8 3 c 11 0 c 8 -3 c 3 -4 c
4 -11 c 0 -16 c -4 -11 c -3 -4 c -8 -3 c -11 0 c -8 3 c -7 8 c -4 11 c -4 15 c -4 8 c -7 4 c -8 0 c -7 -4 c -4 -11 c 0 -16 c
0 -249 7316 1444 l 53 -38 7272 1554 l 0 57 c 80 0 7272 1554 l 4 -11 7272 1610 l 8 -4 c 7 0 c 8 4 c 4 8 c 3 15 c 4 11 c 8 8 c 7 3 c
12 0 c 7 -3 c 4 -4 c 4 -11 c 0 -16 c -4 -11 c -4 -4 c -7 -4 c -12 0 c -7 4 c -8 8 c -4 11 c -3 15 c -4 8 c -8 4 c -7 0 c -8 -4 c
-4 -11 c 0 -16 c 11 -4 7299 1716 l 8 -7 c 4 -11 c 0 -4 c -4 -12 c -8 -7 c -11 -4 c -4 0 c -11 4 c -8 7 c -4 12 c 0 4 c 4 11 c 8 7 c
15 4 c 19 0 c 19 -4 c 11 -7 c 4 -11 c 0 -8 c -4 -11 c -8 -4 c -3 0 7291 1746 l -8 4 c -4 4 c -4 8 c 0 15 c 4 7 c 4 4 c 8 4 c 7 0 c
8 -4 c 11 -8 c 38 -37 c 0 53 c 4 -4 7344 1826 l 4 4 c -4 4 c -4 -4 c 80 -38 7272 1909 l 0 53 7272 1856 l 0 -38 7272 1977 l 34 -4 c
-3 4 c -4 12 c 0 11 c 4 11 c 7 8 c 12 4 c 7 0 c 11 -4 c 8 -8 c 4 -11 c 0 -11 c -4 -12 c -4 -4 c -7 -3 c 11 -3 7299 2056 l 8 -8 c
4 -11 c 0 -4 c -4 -11 c -8 -8 c -11 -4 c -4 0 c -11 4 c -8 8 c -4 11 c 0 4 c 4 11 c 8 8 c 15 3 c 19 0 c 19 -3 c 11 -8 c 4 -11 c
0 -8 c -4 -11 c -8 -4 c 0 -250 7406 1369 l 53 -38 7363 1478 l 0 57 c 79 0 7363 1478 l 4 -12 7363 1535 l 7 -3 c 8 0 c 7 3 c 4 8 c
4 15 c 4 11 c 7 8 c 8 4 c 11 0 c 8 -4 c 3 -4 c 4 -11 c 0 -15 c -4 -12 c -3 -3 c -8 -4 c -11 0 c -8 4 c -7 7 c -4 12 c -4 15 c -4 7 c
-7 4 c -8 0 c -7 -4 c -4 -11 c 0 -15 c 12 -4 7389 1641 l 7 -8 c 4 -11 c 0 -4 c -4 -11 c -7 -8 c -12 -4 c -3 0 c -12 4 c -7 8 c
-4 11 c 0 4 c 4 11 c 7 8 c 15 4 c 19 0 c 19 -4 c 11 -8 c 4 -11 c 0 -8 c -4 -11 c -7 -4 c 0 41 7363 1675 l 30 -22 c 0 11 c 4 7 c
4 4 c 11 4 c 8 0 c 11 -4 c 7 -7 c 4 -12 c 0 -11 c -4 -11 c -3 -4 c -8 -4 c 3 -4 7435 1750 l 4 4 c -4 4 c -3 -4 c 53 -38 7363 1818 l
0 57 c 79 0 7363 1818 l 53 -38 7363 1894 l 0 57 c 79 0 7363 1894 l 0 -38 7363 1977 l 34 -4 c -4 4 c -4 12 c 0 11 c 4 11 c 8 8 c
11 4 c 8 0 c 11 -4 c 7 -8 c 4 -11 c 0 -11 c -4 -12 c -3 -4 c -8 -3 c 0 -249 7606 7019 l 53 -38 7562 7129 l 0 57 c 79 0 7562 7129 l
4 -11 7562 7185 l 7 -4 c 8 0 c 7 4 c 4 8 c 4 15 c 4 11 c 7 8 c 8 3 c 11 0 c 8 -3 c 4 -4 c 3 -11 c 0 -16 c -3 -11 c -4 -4 c -8 -3 c
-11 0 c -8 3 c -7 8 c -4 11 c -4 15 c -4 8 c -7 4 c -8 0 c -7 -4 c -4 -11 c 0 -16 c 12 -4 7588 7291 l 7 -7 c 4 -11 c 0 -4 c -4 -12 c
-7 -7 c -12 -4 c -3 0 c -12 4 c -7 7 c -4 12 c 0 4 c 4 11 c 7 7 c 15 4 c 19 0 c 19 -4 c 12 -7 c 3 -11 c 0 -8 c -3 -11 c -8 -4 c
53 -37 7562 7355 l 0 56 c 79 0 7562 7355 l 4 -4 7634 7401 l 3 4 c -3 4 c -4 -4 c 12 -4 7588 7480 l 7 -7 c 4 -11 c 0 -4 c -4 -12 c
-7 -7 c -12 -4 c -3 0 c -12 4 c -7 7 c -4 12 c 0 4 c 4 11 c 7 7 c 15 4 c 19 0 c 19 -4 c 12 -7 c 3 -11 c 0 -8 c -3 -11 c -8 -4 c
0 -38 7562 7552 l 34 -4 c -4 4 c -4 12 c 0 11 c 4 11 c 8 8 c 11 4 c 8 0 c 11 -4 c 8 -8 c 3 -11 c 0 -11 c -3 -12 c -4 -4 c -8 -3 c
0 -38 7562 7628 l 34 -4 c -4 4 c -4 11 c 0 11 c 4 12 c 8 7 c 11 4 c 8 0 c 11 -4 c 8 -7 c 3 -12 c 0 -11 c -3 -11 c -4 -4 c -8 -4 c
0 -249 8551 1756 l 53 -38 8507 1866 l 0 57 c 80 0 8507 1866 l 11 -4 8534 1953 l 8 -7 c 4 -12 c 0 -4 c -4 -11 c -8 -7 c -11 -4 c
-4 0 c -11 4 c -8 7 c -4 11 c 0 4 c 4 12 c 8 7 c 15 4 c 19 0 c 19 -4 c 11 -7 c 4 -12 c 0 -7 c -4 -12 c -8 -3 c 4 -11 8507 2002 l
12 -8 c 18 -4 c 12 0 c 19 4 c 11 8 c 4 11 c 0 8 c -4 11 c -11 7 c -19 4 c -12 0 c -18 -4 c -12 -7 c -4 -11 c 0 -8 c -3 0 8526 2059 l
-8 4 c -4 3 c -4 8 c 0 15 c 4 8 c 4 3 c 8 4 c 7 0 c 8 -4 c 11 -7 c 38 -38 c 0 53 c 4 -4 8579 2138 l 4 4 c -4 4 c -4 -4 c
4 -11 8507 2191 l 12 -8 c 18 -4 c 12 0 c 19 4 c 11 8 c 4 11 c 0 8 c -4 11 c -11 7 c -19 4 c -12 0 c -18 -4 c -12 -7 c -4 -11 c
0 -8 c 0 -38 8507 2289 l 34 -3 c -3 3 c -4 12 c 0 11 c 4 12 c 7 7 c 12 4 c 7 0 c 11 -4 c 8 -7 c 4 -12 c 0 -11 c -4 -12 c -4 -3 c
-7 -4 c 0 -38 8507 2365 l 34 -4 c -3 4 c -4 11 c 0 12 c 4 11 c 7 8 c 12 3 c 7 0 c 11 -3 c 8 -8 c 4 -11 c 0 -12 c -4 -11 c -4 -4 c
-7 -3 c 0 -250 8916 2301 l 53 -37 8873 2410 l 0 56 c 79 0 8873 2410 l 11 -4 8899 2497 l 8 -7 c 4 -11 c 0 -4 c -4 -12 c -8 -7 c
-11 -4 c -4 0 c -11 4 c -8 7 c -3 12 c 0 4 c 3 11 c 8 7 c 15 4 c 19 0 c 19 -4 c 11 -7 c 4 -11 c 0 -8 c -4 -11 c -7 -4 c
3 -11 8873 2546 l 12 -8 c 19 -3 c 11 0 c 19 3 c 11 8 c 4 11 c 0 8 c -4 11 c -11 8 c -19 4 c -11 0 c -19 -4 c -12 -8 c -3 -11 c
0 -8 c 53 -38 8873 2637 l 0 57 c 79 0 8873 2637 l 4 -3 8944 2682 l 4 3 c -4 4 c -4 -4 c 79 -38 8873 2766 l 0 53 8873 2713 l
0 -38 8873 2834 l 34 -4 c -4 4 c -4 11 c 0 12 c 4 11 c 7 7 c 12 4 c 7 0 c 12 -4 c 7 -7 c 4 -11 c 0 -12 c -4 -11 c -4 -4 c -7 -4 c
-4 0 8892 2868 l -8 3 c -4 4 c -3 8 c 0 15 c 3 7 c 4 4 c 8 4 c 7 0 c 8 -4 c 11 -7 c 38 -38 c 0 53 c 0 -250 9250 1270 l
53 -37 9206 1379 l 0 56 c 79 0 9206 1379 l 12 -4 9232 1466 l 7 -7 c 4 -11 c 0 -4 c -4 -12 c -7 -7 c -12 -4 c -3 0 c -12 4 c -7 7 c
-4 12 c 0 4 c 4 11 c 7 7 c 15 4 c 19 0 c 19 -4 c 12 -7 c 3 -11 c 0 -8 c -3 -11 c -8 -4 c 4 -11 9206 1515 l 11 -8 c 19 -3 c 11 0 c
19 3 c 12 8 c 3 11 c 0 8 c -3 11 c -12 8 c -19 4 c -11 0 c -19 -4 c -11 -8 c -4 -11 c 0 -8 c 79 -38 9206 1621 l 0 53 9206 1568 l
4 -3 9278 1651 l 3 3 c -3 4 c -4 -4 c -4 0 9225 1685 l -7 4 c -4 4 c -4 8 c 0 15 c 4 7 c 4 4 c 7 4 c 8 0 c 7 -4 c 12 -8 c 37 -37 c
0 53 c 4 -11 9206 1780 l 11 -8 c 19 -4 c 11 0 c 19 4 c 12 8 c 3 11 c 0 7 c -3 12 c -12 7 c -19 4 c -11 0 c -19 -4 c -11 -7 c
-4 -12 c 0 -7 c 12 -4 9232 1882 l 7 -7 c 4 -12 c 0 -3 c -4 -12 c -7 -7 c -12 -4 c -3 0 c -12 4 c -7 7 c -4 12 c 0 3 c 4 12 c 7 7 c
15 4 c 19 0 c 19 -4 c 12 -7 c 3 -12 c 0 -7 c -3 -12 c -8 -3 c 0 -250 9653 1580 l 53 -37 9609 1689 l 0 56 c 80 0 9609 1689 l
11 -3 9636 1776 l 8 -8 c 3 -11 c 0 -4 c -3 -11 c -8 -8 c -11 -4 c -4 0 c -11 4 c -8 8 c -4 11 c 0 4 c 4 11 c 8 8 c 15 3 c 19 0 c
19 -3 c 11 -8 c 4 -11 c 0 -8 c -4 -11 c -8 -4 c -3 8 9624 1814 l -12 11 c 80 0 c 4 -11 9609 1901 l 11 -8 c 19 -4 c 12 0 c 19 4 c
11 8 c 4 11 c 0 8 c -4 11 c -11 7 c -19 4 c -12 0 c -19 -4 c -11 -7 c -4 -11 c 0 -8 c 4 -4 9681 1962 l 4 4 c -4 3 c -4 -3 c
-3 8 9624 2003 l -12 11 c 80 0 c 0 -38 9609 2113 l 34 -4 c -3 4 c -4 11 c 0 12 c 4 11 c 7 7 c 11 4 c 8 0 c 11 -4 c 8 -7 c 4 -11 c
0 -12 c -4 -11 c -4 -4 c -7 -4 c 4 -12 9609 2162 l 8 -3 c 7 0 c 8 3 c 4 8 c 3 15 c 4 11 c 8 8 c 7 4 c 12 0 c 7 -4 c 4 -4 c 4 -11 c
0 -15 c -4 -12 c -4 -3 c -7 -4 c -12 0 c -7 4 c -8 7 c -4 12 c -3 15 c -4 7 c -8 4 c -7 0 c -8 -4 c -4 -11 c 0 -15 c
showpage PGPLOT restore
 
%%Trailer
%%DocumentFonts: 
%%Pages: 1
%%EOF
