%!PS-Adobe-3.0 EPSF-3.0
%%For: tom
%%Title: PGPLOT PostScript plot
%%Creator: PGPLOT
%%CreationDate:  9-Nov-1994 13:51
%%BoundingBox: 25 18 587 774
%%DocumentFonts: (atend)
%%LanguageLevel: 1
%%Orientation: Landscape
%%Pages: (atend)
%%EndComments
%%BeginProlog
/l {moveto rlineto currentpoint stroke moveto} bind def
/c {rlineto currentpoint stroke moveto} bind def
/d {moveto 0 0 rlineto currentpoint stroke moveto} bind def
/SLW {5 mul setlinewidth} bind def
/SCF /pop load def
/BP {newpath moveto} bind def
/LP /rlineto load def
/EP {rlineto closepath eofill} bind def
/MB {gsave translate MFAC dup scale 1 setlinewidth 2 setlinecap 0 setlinejoin newpath} bind def
/ME /grestore load def
/C {0 360 arc stroke} bind def
/FC {0 360 arc fill} bind def
%%EndProlog
 
%%Page: 1 1
%%BeginPageSetup
/PGPLOT save def
0.072 0.072 scale
8150 250 translate 90 rotate
1 setlinejoin 1 setlinecap 1 SLW 1 SCF
%%EndPageSetup
0.00 setgray 1 SLW 8939 0 780 780 l 0 6239 c -8939 0 c 0 -6239 c 0 -45 1116 780 l 0 -45 1554 780 l 0 -45 1991 780 l 0 -45 2428 780 l
0 -90 2865 780 l 0 -45 3302 780 l 0 -45 3739 780 l 0 -45 4176 780 l 0 -45 4613 780 l 0 -90 5051 780 l 0 -45 5488 780 l
0 -45 5925 780 l 0 -45 6362 780 l 0 -45 6799 780 l 0 -90 7236 780 l 0 -45 7673 780 l 0 -45 8110 780 l 0 -45 8548 780 l
0 -45 8985 780 l 0 -90 9422 780 l 0 -45 1116 7064 l 0 -45 1554 7064 l 0 -45 1991 7064 l 0 -45 2428 7064 l 0 -90 2865 7109 l
0 -45 3302 7064 l 0 -45 3739 7064 l 0 -45 4176 7064 l 0 -45 4613 7064 l 0 -90 5051 7109 l 0 -45 5488 7064 l 0 -45 5925 7064 l
0 -45 6362 7064 l 0 -45 6799 7064 l 0 -90 7236 7109 l 0 -45 7673 7064 l 0 -45 8110 7064 l 0 -45 8548 7064 l 0 -45 8985 7064 l
0 -90 9422 7109 l -60 0 2775 672 l -6 -54 c 6 6 c 18 6 c 18 0 c 18 -6 c 12 -12 c 6 -18 c 0 -12 c -6 -18 c -12 -12 c -18 -6 c -18 0 c
-18 6 c -6 6 c -6 12 c -18 -6 2859 672 l -12 -18 c -6 -30 c 0 -18 c 6 -30 c 12 -18 c 18 -6 c 12 0 c 18 6 c 12 18 c 6 30 c 0 18 c
-6 30 c -12 18 c -18 6 c -12 0 c -18 -6 2979 672 l -12 -18 c -6 -30 c 0 -18 c 6 -30 c 12 -18 c 18 -6 c 12 0 c 18 6 c 12 18 c 6 30 c
0 18 c -6 30 c -12 18 c -18 6 c -12 0 c 12 6 4847 648 l 18 18 c 0 -126 c -18 -6 4985 672 l -12 -18 c -6 -30 c 0 -18 c 6 -30 c
12 -18 c 18 -6 c 12 0 c 18 6 c 12 18 c 6 30 c 0 18 c -6 30 c -12 18 c -18 6 c -12 0 c -18 -6 5105 672 l -12 -18 c -6 -30 c 0 -18 c
6 -30 c 12 -18 c 18 -6 c 12 0 c 18 6 c 12 18 c 6 30 c 0 18 c -6 30 c -12 18 c -18 6 c -12 0 c -18 -6 5225 672 l -12 -18 c -6 -30 c
0 -18 c 6 -30 c 12 -18 c 18 -6 c 12 0 c 18 6 c 12 18 c 6 30 c 0 18 c -6 30 c -12 18 c -18 6 c -12 0 c 12 6 7032 648 l 18 18 c
0 -126 c -60 0 7206 672 l -6 -54 c 6 6 c 18 6 c 18 0 c 18 -6 c 12 -12 c 6 -18 c 0 -12 c -6 -18 c -12 -12 c -18 -6 c -18 0 c -18 6 c
-6 6 c -6 12 c -18 -6 7290 672 l -12 -18 c -6 -30 c 0 -18 c 6 -30 c 12 -18 c 18 -6 c 12 0 c 18 6 c 12 18 c 6 30 c 0 18 c -6 30 c
-12 18 c -18 6 c -12 0 c -18 -6 7410 672 l -12 -18 c -6 -30 c 0 -18 c 6 -30 c 12 -18 c 18 -6 c 12 0 c 18 6 c 12 18 c 6 30 c 0 18 c
-6 30 c -12 18 c -18 6 c -12 0 c 0 6 9206 642 l 6 12 c 6 6 c 12 6 c 24 0 c 12 -6 c 6 -6 c 6 -12 c 0 -12 c -6 -12 c -12 -18 c
-60 -60 c 84 0 c -18 -6 9356 672 l -12 -18 c -6 -30 c 0 -18 c 6 -30 c 12 -18 c 18 -6 c 12 0 c 18 6 c 12 18 c 6 30 c 0 18 c -6 30 c
-12 18 c -18 6 c -12 0 c -18 -6 9476 672 l -12 -18 c -6 -30 c 0 -18 c 6 -30 c 12 -18 c 18 -6 c 12 0 c 18 6 c 12 18 c 6 30 c 0 18 c
-6 30 c -12 18 c -18 6 c -12 0 c -18 -6 9596 672 l -12 -18 c -6 -30 c 0 -18 c 6 -30 c 12 -18 c 18 -6 c 12 0 c 18 6 c 12 18 c 6 30 c
0 18 c -6 30 c -12 18 c -18 6 c -12 0 c -90 0 780 780 l -45 0 780 1714 l -90 0 780 2648 l -45 0 780 3583 l -90 0 780 4517 l
-45 0 780 5451 l -90 0 780 6386 l -90 0 9809 780 l -45 0 9764 1714 l -90 0 9809 2648 l -45 0 9764 3583 l -90 0 9809 4517 l
-45 0 9764 5451 l -90 0 9809 6386 l 6 -18 517 774 l 18 -12 c 30 -6 c 18 0 c 30 6 c 18 12 c 6 18 c 0 12 c -6 18 c -18 12 c -30 6 c
-18 0 c -30 -6 c -18 -12 c -6 -18 c 0 -12 c -6 0 547 2391 l -12 6 c -6 6 c -6 12 c 0 24 c 6 12 c 6 6 c 12 6 c 12 0 c 12 -6 c
18 -12 c 60 -60 c 0 84 c 84 84 547 2511 l 84 -84 547 2595 l -6 12 541 2654 l -18 18 c 126 0 c 6 -18 517 2792 l 18 -12 c 30 -6 c
18 0 c 30 6 c 18 12 c 6 18 c 0 12 c -6 18 c -18 12 c -30 6 c -18 0 c -30 -6 c -18 -12 c -6 -18 c 0 -12 c 63 -45 453 2917 l 0 67 c
94 0 453 2917 l 84 -60 517 4313 l 0 90 c 126 0 517 4313 l 84 84 547 4379 l 84 -84 547 4463 l -6 12 541 4523 l -18 18 c 126 0 c
6 -18 517 4661 l 18 -12 c 30 -6 c 18 0 c 30 6 c 18 12 c 6 18 c 0 12 c -6 18 c -18 12 c -30 6 c -18 0 c -30 -6 c -18 -12 c -6 -18 c
0 -12 c 63 -45 453 4786 l 0 67 c 94 0 453 4786 l -12 -6 535 6200 l -6 -18 c 0 -12 c 6 -18 c 18 -12 c 30 -6 c 30 0 c 24 6 c 12 12 c
6 18 c 0 6 c -6 18 c -12 12 c -18 6 c -6 0 c -18 -6 c -12 -12 c -6 -18 c 0 -6 c 6 -18 c 12 -12 c 18 -6 c 84 84 547 6248 l
84 -84 547 6332 l -6 12 541 6392 l -18 18 c 126 0 c 6 -18 517 6530 l 18 -12 c 30 -6 c 18 0 c 30 6 c 18 12 c 6 18 c 0 12 c -6 18 c
-18 12 c -30 6 c -18 0 c -30 -6 c -18 -12 c -6 -18 c 0 -12 c 63 -45 453 6654 l 0 68 c 94 0 453 6654 l
4 -2 780 791 l 5 0 c 4 0 c 4 0 c 5 1 c 4 1 c 4 2 c 5 2 c 4 0 c 5 0 c 4 -2 c 4 0 c 5 -1 c 4 -1 c 4 -1 c 5 0 c 4 0 c 5 2 c 4 4 c 4 3 c
5 1 c 4 1 c 4 -4 c 5 -3 c 4 -1 c 5 -2 c 4 -1 c 4 0 c 5 0 c 4 1 c 4 -1 c 5 0 c 4 1 c 5 0 c 4 0 c 4 0 c 5 -1 c 4 0 c 4 1 c 5 2 c 4 1 c
4 -1 c 5 -2 c 4 -1 c 5 -1 c 4 0 c 4 0 c 5 1 c 4 0 c 4 0 c 5 1 c 4 2 c 5 1 c 4 1 c 4 0 c 5 3 c 4 5 c 4 1 c 5 -2 c 4 -6 c 5 -4 c 4 2 c
4 11 c 5 43 c 4 119 c 4 57 c 5 -6 c 4 -65 c 5 -110 c 4 -16 c 4 -1 c 5 -5 c 4 -17 c 4 -8 c 5 2 c 4 6 c 4 0 c 5 -1 c 4 -6 c 5 -1 c
4 13 c 4 51 c 5 40 c 4 -120 c 5 41 1151 780 l 4 -27 c 5 -2 c 4 2 c 4 7 c 5 33 c 4 43 c 4 6 c 5 -14 c 4 -46 c 5 -24 c 4 11 c 4 50 c
5 32 c 4 24 c 4 -8 c 5 -52 c 4 -26 c 5 -28 c 4 -8 c 4 -1 c 5 -2 c 4 0 c 4 0 c 5 0 c 4 0 c 4 0 c 5 1 c 4 2 c 5 2 c 4 7 c 4 3 c 5 -1 c
4 -2 c 4 -5 c 5 -3 c 4 0 c 5 0 c 4 0 c 4 2 c 5 9 c 4 47 c 4 187 c 5 816 c 4 715 c 5 -6 c 4 -317 c 4 -1009 c 5 -400 c 4 -35 c 4 -5 c
5 -4 c 4 -1 c 5 0 c 4 -1 c 4 0 c 5 -1 c 4 0 c 4 0 c 5 0 c 4 0 c 4 -1 c 5 -1 c 4 0 c 5 0 c 4 1 c 4 0 c 5 1 c 4 1 c 4 1 c 5 1 c 4 0 c
5 -1 c 4 -1 c 4 -1 c 5 0 c 4 0 c 4 -1 c 5 1 c 4 0 c 5 0 c 4 -1 c 4 0 c 5 0 c 4 1 c 4 6 c 5 22 c 4 33 c 4 4 c 5 -7 c 4 -32 c 5 -15 c
4 11 c 4 4 c 5 -2 c 4 -8 c 4 -12 c 5 -2 c 4 2 c 5 6 c 4 2 c 4 -2 c 5 -4 c 4 -4 c 4 0 c 5 0 c 4 -1 c 5 -2 c 4 -1 c 4 0 c 5 0 c 4 1 c
4 -1 c 5 0 c 4 0 c 5 1 c 4 -1 c 4 1 c 5 0 c 4 1 c 4 1 c 5 3 c 4 7 c 4 2 c 5 -1 c 4 -5 c 5 -7 c 4 -1 c 4 0 c 5 0 c 4 0 c 4 0 c 5 1 c
4 3 c 5 1 c 4 0 c 4 -1 c 5 -2 c 4 -1 c 4 0 c 5 -1 c 4 1 c 5 0 c 4 0 c 4 0 c 5 -1 c 4 -1 c 4 1 c 5 1 c 4 1 c 5 4 c 4 2 c 4 -1 c
5 -2 c 4 -4 c 4 -1 c 5 0 c 4 0 c 4 0 c 5 -1 c 4 0 c 5 1 c 4 0 c 4 0 c 5 0 c 4 -1 c 4 1 c 5 0 c 4 0 c 5 0 c 4 2 c 4 1 c 5 1 c 4 1 c
4 -2 c 5 0 c 4 0 c 5 5 c 4 18 c 4 21 c 5 28 c 4 -4 c 4 -21 c 5 -25 c 4 -22 c 5 -2 c 4 1 c 4 3 c 5 4 c 4 2 c 4 0 c 5 -4 c 4 -2 c
4 -1 c 5 0 c 4 1 c 5 3 c 4 8 c 4 1 c 5 -1 c 4 -6 c 4 -6 c 5 -1 c 4 1 c 5 0 c 4 0 c 4 0 c 5 -1 c 4 0 c 4 1 c 5 0 c 4 1 c 5 1 c 4 1 c
4 -1 c 5 0 c 4 1 c 4 -1 c 5 0 c 4 1 c 5 2 c 4 0 c 4 1 c 5 0 c 4 2 c 4 2 c 5 1 c 4 2 c 4 1 c 5 2 c 4 3 c 5 3 c 4 3 c 4 4 c 5 11 c
4 13 c 4 6 c 5 15 c 4 19 c 5 56 c 4 372 c 4 2788 c 5 2715 c 4 1 c 4 7 c 5 10 c 4 -66 c 5 -5273 c 4 -306 c 4 12 c 5 -33 c 4 -121 c
4 -145 c 5 -54 c 4 -14 c 4 -5 c 5 -2 c 4 -2 c 5 -7 c 4 1 c 4 23 c 5 178 c 4 437 c 4 327 c 5 106 c 4 -167 c 5 -449 c 4 -242 c
4 -146 c 5 -74 c 4 -2 c 4 4 c 5 2 c 4 -3 c 5 -6 c 4 -2 c 4 5 c 5 7 c 4 2 c 4 -3 c 5 -6 c 4 -4 c 5 -1 c 4 2 c 4 -1 c 5 -1 c 4 -1 c
4 -2 c 5 1 c 4 11 c 4 81 c 5 536 c 4 962 c 5 165 c 4 -122 c 4 -775 c 5 -753 c 4 -100 c 4 -5 c 5 1 c 4 -1 c 5 -1 c 4 -2 c 4 -2 c
5 0 c 4 1 c 4 -1 c 5 -1 c 4 -2 c 5 -1 c 4 0 c 4 0 c 5 0 c 4 -1 c 4 0 c 5 -1 c 4 1 c 5 1 c 4 2 c 4 0 c 5 1 c 4 -1 c 4 -2 c 5 0 c
4 -1 c 4 1 c 5 5 c 4 47 c 5 248 c 4 227 c 4 28 c 5 -77 c 4 -301 c 4 -153 c 5 -17 c 4 -5 c 5 -1 c 4 1 c 4 0 c 5 0 c 4 -2 c 4 2 c
5 3 c 4 0 c 5 -1 c 4 -4 c 4 -3 c 5 0 c 4 0 c 4 2 c 5 1 c 4 1 c 5 0 c 4 -1 c 4 -1 c 5 -1 c 4 0 c 4 -1 c 5 1 c 4 0 c 4 3 c 5 2 c 4 6 c
5 4 c 4 8 c 4 6 c 5 -3 c 4 8 c 4 118 c 5 607 c 4 393 c 5 5 c 4 -229 c 4 -682 c 5 -223 c 4 -18 c 4 -1 c 5 0 c 4 5 c 5 44 c 4 61 c
4 10 c 5 -7 c 4 -61 c 4 -39 c 5 27 c 4 17 c 4 1 c 5 -14 c 4 -33 c 5 -11 c 4 -3 c 4 0 c 5 2 c 4 3 c 4 9 c 5 34 c 4 104 c 5 37 c 4 3 c
4 -54 c 5 -115 c 4 -23 c 4 -1 c 5 0 c 4 3 c 5 36 c 4 133 c 4 72 c 5 5 c 4 -50 c 4 -121 c 5 -24 c 4 0 c 5 -4 c 4 -28 c 4 -20 c 5 -1 c
4 0 c 4 2 c 5 5 c 4 2 c 4 0 c 5 0 c 4 -5 c 5 -1 c 4 -1 c 4 -3 c 5 -2 c 4 0 c 4 0 c 5 0 c 4 2 c 5 0 c 4 0 c 4 0 c 5 -2 c 4 1 c 4 8 c
5 11 c 4 3 c 5 -2 c 4 -9 c 4 -9 c 5 -2 c 4 -1 c 4 0 c 5 1 c 4 14 c 5 42 c 4 18 c 4 -1 c 5 -22 c 4 -41 c 4 -5 c 5 10 c 4 15 c 4 32 c
5 7 c 4 -12 c 5 -17 c 4 6 c 4 212 c 5 195 c 4 27 c 4 -49 c 5 -272 c 4 -142 c 5 -12 c 4 2 c 4 3 c 5 -2 c 4 -1 c 4 -5 c 5 -2 c 4 5 c
5 3 c 4 1 c 4 -2 c 5 -5 c 4 5 c 4 24 c 5 12 c 4 2 c 5 -13 c 4 -20 c 4 -5 c 5 6 c 4 6 c 4 -3 c 5 -3 c 4 -7 c 4 -6 c 5 0 c 4 0 c 5 4 c
4 2 c 4 9 c 5 35 c 4 58 c 4 12 c 5 -10 c 4 -45 c 5 -54 c 4 -7 c 4 0 c 5 19 c 4 44 c 4 8 c 5 -2 c 4 -28 c 5 -38 c 4 -6 c 4 -2 c 5 0 c
4 3 c 4 6 c 5 2 c 4 1 c 5 -3 c 4 -2 c 4 1 c 5 8 c 4 108 c 4 263 c 5 92 c 4 -5 c 4 -156 c 5 -257 c 4 -53 c 5 -4 c 4 0 c 4 5 c 5 8 c
4 0 c 4 -1 c 5 -8 c 4 -7 c 5 -1 c 4 1 c 4 0 c 5 0 c 4 0 c 4 0 c 5 0 c 4 0 c 5 0 c 4 0 c 4 -1 c 5 0 c 4 0 c 4 0 c 5 0 c 4 4 c 4 4 c
5 4 c 4 2 c 5 -3 c 4 -5 c 4 -3 c 5 -1 c 4 0 c 4 3 c 5 5 c 4 2 c 5 -1 c 4 -4 c 4 -5 c 5 -2 c 4 0 c 4 0 c 5 0 c 4 0 c 5 0 c 4 0 c
4 1 c 5 -1 c 4 0 c 4 0 c 5 1 c 4 0 c 5 0 c 4 0 c 4 0 c 5 0 c 4 0 c 4 1 c 5 2 c 4 1 c 4 4 c 5 12 c 4 4 c 5 -2 c 4 -4 c 4 -5 c 5 22 c
4 18 c 4 10 c 5 -8 c 4 -28 c 5 -15 c 4 -8 c 4 0 c 5 10 c 4 15 c 4 5 c 5 -1 c 4 -12 c 5 -6 c 4 3 c 4 6 c 5 11 c 4 31 c 4 221 c
5 841 c 4 614 c 5 100 c 4 -301 c 4 -934 c 5 -447 c 4 -96 c 4 2 c 5 61 c 4 35 c 4 104 c 5 22 c 4 -53 c 5 -46 c 4 -118 c 4 -53 c 5 9 c
4 142 c 4 795 c 5 647 c 4 41 c 5 -223 c 4 -922 c 4 -448 c 5 -48 c 4 -3 c 4 -2 c 5 -1 c 4 -1 c 5 -1 c 4 0 c 4 3 c 5 7 c 4 3 c 4 -2 c
5 -5 c 4 -5 c 5 7 c 4 9 c 4 3 c 5 -1 c 4 -12 c 4 -8 c 5 -1 c 4 -1 c 4 1 c 5 0 c 4 0 c 5 1 c 4 0 c 4 1 c 5 0 c 4 -1 c 4 -1 c 5 1 c
4 2 c 5 1 c 4 0 c 4 0 c 5 -3 c 4 -1 c 4 -1 c 5 -1 c 4 0 c 5 0 c 4 0 c 4 0 c 5 0 c 4 1 c 4 0 c 5 0 c 4 0 c 5 2 c 4 0 c 4 1 c 5 1 c
4 6 c 4 11 c 5 2 c 4 -3 c 4 -6 c 5 -4 c 4 2 c 5 1 c 4 -1 c 4 -7 c 5 -4 c 4 0 c 4 -1 c 5 0 c 4 0 c 5 0 c 4 0 c 4 1 c 5 2 c 4 7 c
4 3 c 5 0 c 4 0 c 5 17 c 4 215 c 4 321 c 5 97 c 4 -23 c 4 -274 c 5 -276 c 4 -68 c 4 -4 c 5 -8 c 4 -5 c 5 -1 c 4 -2 c 4 1 c 5 0 c
4 2 c 4 3 c 5 0 c 4 6 c 5 9 c 4 9 c 4 0 c 5 -7 c 4 -13 c 4 -9 c 5 -1 c 4 0 c 5 3 c 4 6 c 4 12 c 5 42 c 4 274 c 4 344 c 5 89 c
4 -46 c 5 -339 c 4 -298 c 4 -69 c 5 -5 c 4 -6 c 4 -3 c 5 0 c 4 5 c 4 5 c 5 14 c 4 17 c 5 -2 c 4 -4 c 4 -17 c 5 -11 c 4 42 c 4 67 c
5 24 c 4 3 c 5 -44 c 4 -63 c 4 -18 c 5 -10 c 4 -7 c 4 -2 c 5 -1 c 4 -1 c 5 -1 c 4 0 c 4 -1 c 5 2 c 4 6 c 4 7 c 5 1 c 4 0 c 5 -7 c
4 -4 c 4 16 c 5 17 c 4 3 c 4 -1 c 5 -20 c 4 -13 c 4 -1 c 5 3 c 4 6 c 5 31 c 4 375 c 4 1055 c 5 551 c 4 69 c 4 -485 c 5 -1134 c
4 -405 c 5 -46 c 4 -3 c 4 -1 c 5 1 c 4 0 c 4 1 c 5 -3 c 4 -7 c 5 -4 c 4 -2 c 4 -4 c 5 -2 c 4 0 c 4 -1 c 5 -1 c 4 1 c 5 1 c 4 0 c
4 0 c 5 -2 c 4 0 c 4 -1 c 5 0 c 4 2 c 4 -1 c 5 1 c 4 0 c 5 0 c 4 1 c 4 2 c 5 9 c 4 5 c 4 0 c 5 -2 c 4 -5 c 5 -1 c 4 1 c 4 -2 c
5 -3 c 4 -4 c 4 -2 c 5 0 c 4 1 c 5 2 c 4 17 c 4 21 c 5 7 c 4 -2 c 4 -21 c 5 -18 c 4 -2 c 5 1 c 4 -1 c 4 -2 c 5 -2 c 4 -1 c 4 3 c
5 12 c 4 17 c 4 12 c 5 1 c 4 -15 c 5 -17 c 4 -10 c 4 -3 c 5 -1 c 4 0 c 4 1 c 5 -1 c 4 0 c 5 1 c 4 -1 c 4 -14 c 5 15 c 4 0 c 4 0 c
5 1 c 4 -1 c 5 3 c 4 2 c 4 1 c 5 0 c 4 -1 c 4 2 c 5 14 c 4 68 c 4 70 c 5 100 c 4 85 c 5 -33 c 4 -2 c 4 441 c 5 610 c 4 220 c 4 -53 c
5 -647 c 4 -660 c 5 -189 c 4 -21 c 4 -4 c 5 -1 c 4 0 c 4 0 c 5 1 c 4 2 c 5 1 c 4 -1 c 4 -1 c 5 2 c 4 20 c 4 52 c 5 25 c 4 3 c
5 -28 c 4 -55 c 4 -22 c 5 -3 c 4 1 c 4 0 c 5 1 c 4 -1 c 4 -1 c 5 0 c 4 -1 c 5 0 c 4 0 c 4 0 c 5 0 c 4 -1 c 4 0 c 5 0 c 4 1 c 5 0 c
4 1 c 4 0 c 5 0 c 4 1 c 4 -1 c 5 -1 c 4 1 c 5 2 c 4 4 c 4 5 c 5 2 c 4 -1 c 4 -2 c 5 -4 c 4 -2 c 5 -1 c 4 1 c 4 0 c 5 3 c 4 2 c 4 2 c
5 4 c 4 2 c 4 2 c 5 8 c 4 35 c 5 408 c 4 1832 c 4 1435 c 5 419 c 4 -418 c 4 -2016 c 5 -1424 c 4 -259 c 5 -19 c 4 -5 c 4 -3 c 5 1 c
4 17 c 4 38 c 5 18 c 4 0 c 5 -23 c 4 -42 c 4 -15 c 5 -1 c 4 3 c 4 4 c 5 0 c 4 -1 c 5 -4 c 4 -3 c 4 0 c 5 -1 c 4 -1 c 4 0 c 5 0 c
4 0 c 4 1 c 5 1 c 4 7 c 5 83 c 4 190 c 4 113 c 5 11 c 4 -90 c 4 -200 c 5 -103 c 4 -12 c 5 -1 c 4 -1 c 4 0 c 5 2 c 4 1 c 4 1 c 5 -1 c
4 -2 c 5 0 c 4 0 c 4 2 c 5 3 c 4 4 c 4 2 c 5 10 c 4 18 c 4 10 c 5 16 c 4 140 c 5 648 c 4 584 c 4 120 c 5 -197 c 4 -747 c 4 -495 c
5 -107 c 4 -6 c 5 -2 c 4 -2 c 4 0 c 5 0 c 4 0 c 4 -1 c 5 1 c 4 2 c 5 2 c 4 -23 c 4 20 c 5 -3 c 4 -2 c 4 0 c 5 0 c 4 0 c 5 0 c 4 0 c
4 1 c 5 -2 c 4 0 c 4 1 c 5 0 c 4 0 c 4 -1 c 5 0 c 4 1 c 5 0 c 4 0 c 4 0 c 5 0 c 4 0 c 4 4 c 5 3 c 4 2 c 5 1 c 4 -2 c 4 -3 c 5 -1 c
4 -2 c 4 0 c 5 0 c 4 1 c 5 1 c 4 11 c 4 27 c 5 17 c 4 4 c 4 -16 c 5 -27 c 4 -16 c 5 -3 c 4 0 c 4 0 c 5 1 c 4 0 c 4 0 c 5 -1 c 4 1 c
4 1 c 5 0 c 4 7 c 5 6 c 4 2 c 4 -2 c 5 -5 c 4 2 c 4 31 c 5 31 c 4 27 c 5 32 c 4 -14 c 4 -22 c 5 -34 c 4 -39 c 4 -15 c 5 0 c 4 4 c
5 12 c 4 108 c 4 812 c 5 1207 c 4 494 c 4 -74 c 5 -912 c 4 -1217 c 5 -377 c 4 -47 c 4 -6 c 5 -6 c 4 -1 c 4 0 c 5 0 c 4 -1 c 4 -2 c
5 -3 c 4 0 c 5 -1 c 4 1 c 4 0 c 5 1 c 4 1 c 4 3 c 5 4 c 4 2 c 5 0 c 4 -4 c 4 -4 c 5 -2 c 4 0 c 4 0 c 5 0 c 4 0 c 5 2 c 4 6 c 4 8 c
5 9 c 4 3 c 4 -5 c 5 -9 c 4 -9 c 5 -4 c 4 0 c 4 -1 c 5 -2 c 4 -1 c 4 0 c 5 0 c 4 1 c 4 1 c 5 6 c 4 7 c 5 2 c 4 0 c 4 -6 c 5 -7 c
4 -3 c 4 -1 c 5 1 c 4 1 c 5 23 c 4 38 c 4 17 c 5 0 c 4 -17 c 4 -28 c 5 -11 c 4 0 c 5 -6 c 4 -10 c 4 -3 c 5 -2 c 4 -2 c 4 -1 c 5 0 c
4 -1 c 4 1 c 5 0 c 4 1 c 5 1 c 4 0 c 4 -1 c 5 0 c 4 -1 c 4 3 c 5 11 c 4 10 c 5 3 c 4 -2 c 4 -9 c 5 -10 c 4 -3 c 4 -1 c 5 -1 c 4 -1 c
5 1 c 4 3 c 4 6 c 5 3 c 4 6 c 4 3 c 5 -4 c 4 -3 c 5 -6 c 4 -5 c 4 -2 c 5 0 c 4 0 c 4 3 c 5 5 c 4 2 c 4 2 c 5 3 c 4 3 c 5 73 c
4 338 c 4 306 c 5 130 c 4 272 c 4 -98 c 5 -223 c 4 -115 c 5 -334 c 4 -282 c 4 -75 c 5 -5 c 4 -2 c 4 0 c 5 1 c 4 1 c 5 9 c 4 26 c
4 33 c 5 16 c 4 0 c 4 -105 c 5 47 c 4 -14 c 5 -4 c 4 -4 c 4 -1 c 5 -2 c 4 -2 c 4 0 c 5 -1 c 4 -2 c 4 -2 c 5 -1 c 4 0 c 5 0 c 4 2 c
4 0 c 5 0 c 4 0 c 4 -1 c 5 1 c 4 2 c 5 2 c 4 1 c 4 0 c 5 -2 c 4 -3 c 4 -1 c 5 0 c 4 0 c 5 0 c 4 1 c 4 0 c 5 1 c 4 1 c 4 0 c 5 0 c
4 0 c 5 -1 c 4 1 c 4 1 c 5 7 c 4 8 c 4 7 c 5 27 c 4 56 c 4 57 c 5 31 c 4 -7 c 5 -50 c 4 -56 c 4 -33 c 5 -3 c 4 -3 c 4 -2 c 5 -8 c
4 -14 c 5 -10 c 4 -7 c 4 -3 c 5 13 c 4 25 c 4 9 c 5 1 c 4 -11 c 5 -21 c 4 -3 c 4 3 c 5 1 c 4 -3 c 4 -1 c 5 -3 c 4 -2 c 5 -5 c 4 -2 c
4 -2 c 5 1 c 4 -1 c 4 -1 c 5 1 c 4 0 c 4 0 c 5 1 c 4 4 c 5 25 c 4 26 c 4 8 c 5 -5 c 4 -27 c 4 -25 c 5 -7 c 4 0 c 5 0 c 4 0 c 4 0 c
5 1 c 4 -1 c 4 0 c 5 0 c 4 2 c 5 1 c 4 7 c 4 91 c 5 227 c 4 125 c 4 5 c 5 -92 c 4 -225 c 4 -121 c 5 -14 c 4 -1 c 5 1 c 4 -1 c 4 0 c
5 -2 c 4 -2 c 4 -1 c 5 0 c 4 0 c 5 0 c 4 1 c 4 6 c 5 7 c 4 4 c 4 6 c 5 4 c 4 4 c 5 2 c 4 -7 c 4 -10 c 5 -8 c 4 -5 c 4 0 c 5 1 c
4 1 c 5 -2 c 4 -2 c 4 -1 c 5 -1 c 4 0 c 4 0 c 5 0 c 4 0 c 4 0 c 5 0 c 4 1 c 5 3 c 4 1 c 4 3 c 5 2 c 4 -1 c 4 -1 c 5 6 c 4 31 c
5 59 c 4 206 c 4 216 c 5 24 c 4 -71 c 4 -213 c 5 -210 c 4 -52 c 5 -2 c 4 0 c 4 0 c 5 1 c 4 3 c 4 1 c 5 -1 c 4 -1 c 5 -4 c 4 -2 c
4 1 c 5 0 c 4 -1 c 4 0 c 5 1 c 4 0 c 4 -1 c 5 2 c 4 1 c 5 3 c 4 5 c 4 2 c 5 0 c 4 -3 c 4 -7 c 5 -1 c 4 -1 c 5 0 c 4 2 c 4 24 c
5 67 c 4 32 c 4 0 c 5 -18 c 4 -70 c 5 -32 c 4 -4 c 4 0 c 5 -1 c 4 4 c 4 9 c 5 5 c 4 1 c 5 -3 c 4 -9 c 4 -6 c 5 -1 c 4 0 c 4 3 c
5 4 c 4 -1 c 4 3 c 5 4 c 4 1 c 5 0 c 4 -1 c 4 -7 c 5 -5 c 4 0 c 4 1 c 5 0 c 4 1 c 5 -1 c 4 0 c 4 2 c 5 18 c 4 102 c 4 180 c 5 79 c
4 1 c 5 -89 c 4 -199 c 4 -69 c 5 121 c 4 191 c 4 61 c 5 -21 c 4 -125 c 5 -188 c 4 -60 c 4 -4 c 5 -1 c 4 0 c 4 0 c 5 3 c 4 1 c 4 1 c
5 0 c 4 -2 c 5 1 c 4 12 c 4 27 c 5 20 c 4 0 c 4 -13 c 5 -24 c 4 -19 c 5 -3 c 4 1 c 4 5 c 5 54 c 4 310 c 4 321 c 5 64 c 4 -59 c
5 -296 c 4 -301 c 4 -62 c 5 -5 c 4 -10 c 4 -15 c 5 -4 c 4 0 c 4 1 c 5 0 c 4 1 c 5 3 c 4 1 c 4 0 c 5 2 c 4 5 c 4 6 c 5 9 c 4 12 c
5 15 c 4 21 c 4 43 c 5 85 c 4 250 c 4 1490 c 5 4055 c 4 11 c 5 4 c 4 2 c 4 -935 c 5 -3682 c 4 -991 c 4 -198 c 5 -87 c 4 -49 c
5 -25 c 4 -12 c 4 -12 c 5 -6 c 4 -4 c 4 -5 c 5 0 c 4 -1 c 4 14 c 5 118 c 4 201 c 5 62 c 4 -11 c 4 -105 c 5 -207 c 4 -77 c 4 -4 c
5 -1 c 4 -1 c 5 0 c 4 -1 c 4 -1 c 5 0 c 4 -1 c 4 1 c 5 -1 c 4 2 c 5 0 c 4 -1 c 4 0 c 5 -2 c 4 0 c 4 -1 c 5 0 c 4 -1 c 5 -1 c 4 1 c
4 0 c 5 0 c 4 0 c 4 0 c 5 1 c 4 0 c 4 0 c 5 0 c 4 0 c 5 0 c 4 -1 c 4 2 c 5 22 c 4 51 c 4 14 c 5 -3 c 4 -17 c 5 -53 c 4 -15 c 4 -1 c
5 0 c 4 2 c 4 1 c 5 0 c 4 -1 c 5 -2 c 4 -1 c 4 -1 c 5 2 c 4 1 c 4 5 c 5 8 c 4 0 c 5 0 c 4 -6 c 4 -7 c 5 -2 c 4 0 c 4 0 c 5 1 c 4 1 c
4 0 c 5 -1 c 4 0 c 5 0 c 4 1 c 4 3 c 5 1 c 4 -1 c 4 -1 c 5 -3 c 4 0 c 5 2 c 4 2 c 4 2 c 5 1 c 4 -3 c 4 -1 c 5 0 c 4 3 c 5 4 c 4 6 c
4 35 c 5 419 c 4 1052 c 4 325 c 5 -3 c 4 -359 c 4 -1072 c 5 -368 c 4 -34 c 5 -2 c 4 -4 c 4 1 c 5 7 c 4 27 c 4 19 c 5 0 c 4 -9 c
5 -27 c 4 -18 c 4 1 c 5 1 c 4 0 c 4 -1 c 5 -2 c 4 -1 c 5 0 c 4 0 c 4 0 c 5 0 c 4 -1 c 4 -1 c 5 -1 c 4 -1 c 5 1 c 4 0 c 4 1 c 5 6 c
4 9 c 4 5 c 5 27 c 4 207 c 4 254 c 5 114 c 4 19 c 5 -183 c 4 -269 c 4 -129 c 5 -51 c 4 -4 c 4 -1 c 5 1 c 4 -3 c 5 0 c 4 0 c 4 -2 c
5 -1 c 4 0 c 4 -1 c 5 -1 c 4 0 c 5 0 c 4 -1 c 4 1 c 5 0 c 4 0 c 4 3 c 5 3 c 4 0 c 5 0 c 4 -3 c 4 -3 c 5 -1 c 4 0 c 4 1 c 5 0 c 4 0 c
4 1 c 5 0 c 4 0 c 5 -1 c 4 -1 c 4 0 c 5 0 c 4 0 c 4 0 c 5 0 c 4 0 c 5 0 c 4 1 c 4 -1 c 5 1 c 4 0 c 4 1 c 5 0 c 4 0 c 5 -1 c 4 1 c
4 2 c 5 4 c 4 2 c 4 2 c 5 4 c 4 26 c 5 28 c 4 80 c 4 350 c 5 349 c 4 59 c 4 -42 c 5 -332 c 4 -384 c 4 -102 c 5 -25 c 4 -13 c 5 -5 c
4 -1 c 4 -1 c 5 1 c 4 18 c 4 51 c 5 18 c 4 22 c 5 -5 c 4 -43 c 4 -15 c 5 -24 c 4 -11 c 4 -7 c 5 -6 c 4 -1 c 5 0 c 4 1 c 4 7 c 5 10 c
4 6 c 4 1 c 5 -6 c 4 -11 c 5 -7 c 4 -1 c 4 1 c 5 6 c 4 64 c 4 188 c 5 143 c 4 29 c 4 -44 c 5 -176 c 4 -147 c 5 -50 c 4 1 c 4 -2 c
5 -1 c 4 -4 c 4 0 c 5 4 c 4 0 c 5 -1 c 4 -3 c 4 -5 c 5 0 c 4 -1 c 4 0 c 5 -1 c 4 0 c 5 1 c 4 -1 c 4 1 c 5 1 c 4 2 c 4 0 c 5 1 c
4 0 c 4 -2 c 5 -2 c 4 0 c 5 0 c 4 -1 c 4 0 c 5 -2 c 4 0 c 4 -1 c 5 1 c 4 1 c 5 3 c 4 2 c 4 -2 c 5 -1 c 4 -2 c 4 -2 c 5 0 c 4 2 c
5 8 c 4 4 c 4 2 c 5 5 c 4 -4 c 4 -4 c 5 -2 c 4 -6 c 5 -3 c 4 1 c 4 -1 c 5 1 c 4 -1 c 4 0 c 5 1 c 4 0 c 4 1 c 5 3 c 4 6 c 5 2 c 4 1 c
4 1 c 5 -3 c 4 -3 c 4 -1 c 5 -4 c 4 -2 c 5 1 c 4 30 c 4 148 c 5 120 c 4 12 c 4 -26 c 5 -127 c 4 -138 c 5 -19 c 4 2 c 4 -1 c 5 -1 c
4 -1 c 4 -3 c 5 -1 c 4 0 c 5 0 c 4 1 c 4 1 c 5 0 c 4 3 c 4 24 c 5 100 c 4 47 c 4 5 c 5 -9 c 4 -86 c 5 -77 c 4 -6 c 4 -1 c 5 -1 c
4 1 c 4 0 c 5 0 c 4 -1 c 5 -1 c 4 0 c 4 -1 c 5 0 c 4 0 c 4 1 c 5 0 c 4 0 c 5 0 c 4 -1 c 4 2 c 5 5 c 4 10 c 4 3 c
5 2 c 4 -4 c 5 -7 c 4 -4 c 4 -17 c 4 16 9549 780 l 4 -1 c 5 0 c 4 0 c 4 -3 c 5 -1 c 4 0 c 5 1 c 4 1 c 4 2 c 5 2 c 4 4 c 4 7 c 5 -1 c
4 -1 c 5 -3 c 4 -9 c 4 -2 c 5 1 c 4 0 c 4 2 c 5 1 c 4 -1 c 5 -1 c 4 -1 c 4 -2 c 5 0 c 4 0 c 4 0 c 5 1 c 4 1 c 5 -1 c 4 0 c 4 0 c
5 0 c 4 0 c 4 0 c 5 0 c 4 -2 c
0 -126 3030 418 l 54 0 3030 418 l 18 -6 c 6 -6 c 6 -12 c 0 -12 c -6 -12 c -6 -6 c -18 -6 c -54 0 c 42 -66 3072 358 l
-12 -6 3180 376 l -12 -12 c -6 -18 c 0 -12 c 6 -18 c 12 -12 c 12 -6 c 18 0 c 12 6 c 12 12 c 6 18 c 0 12 c -6 18 c -12 12 c -12 6 c
-18 0 c 24 -84 3264 376 l -24 -84 3312 376 l 24 -84 3312 376 l -24 -84 3360 376 l 108 0 3402 364 l 108 0 3402 328 l 0 6 3654 388 l
6 12 c 6 6 c 12 6 c 24 0 c 12 -6 c 6 -6 c 6 -12 c 0 -12 c -6 -12 c -12 -18 c -60 -60 c 84 0 c 66 0 3780 418 l -36 -48 c 18 0 c
12 -6 c 6 -6 c 6 -18 c 0 -12 c -6 -18 c -12 -12 c -18 -6 c -18 0 c -18 6 c -6 6 c -6 12 c 12 6 4290 394 l 18 18 c 0 -126 c
-6 -6 4404 376 l 6 -6 c 6 6 c -6 6 c -6 -6 4404 304 l 6 -6 c 6 6 c -6 6 c -48 -126 4584 418 l 48 -126 4584 418 l 60 0 4554 334 l
0 -84 4662 376 l 6 18 4662 340 l 12 12 c 12 6 c 18 0 c -12 12 4806 358 l -12 6 c -18 0 c -12 -6 c -12 -12 c -6 -18 c 0 -12 c 6 -18 c
12 -12 c 12 -6 c 18 0 c 12 6 c 12 12 c 108 0 4848 346 l -18 -6 5034 418 l -12 -18 c -6 -30 c 0 -18 c 6 -30 c 12 -18 c 18 -6 c 12 0 c
18 6 c 12 18 c 6 30 c 0 18 c -6 30 c -12 18 c -18 6 c -12 0 c 66 0 5130 418 l -36 -48 c 18 0 c 12 -6 c 6 -6 c 6 -18 c 0 -12 c
-6 -18 c -12 -12 c -18 -6 c -18 0 c -18 6 c -6 6 c -6 12 c -59 0 5309 418 l -6 -54 c 6 6 c 17 6 c 18 0 c 18 -6 c 12 -12 c 6 -18 c
0 -12 c -6 -18 c -12 -12 c -18 -6 c -18 0 c -17 6 c -6 6 c -6 12 c -6 -6 5369 304 l 6 -6 c 6 6 c -6 6 c -12 0 5459 418 l -12 -6 c
-6 -18 c 0 -102 c 42 0 5411 376 l 6 -6 5489 418 l 6 6 c -6 6 c -6 -6 c 0 -84 5495 376 l 0 -102 5549 418 l 6 -18 c 12 -6 c 12 0 c
42 0 5531 376 l -6 12 5675 358 l -18 6 c -18 0 c -18 -6 c -6 -12 c 6 -12 c 12 -6 c 30 -6 c 12 -6 c 6 -12 c 0 -6 c -6 -12 c -18 -6 c
-18 0 c -18 6 c -6 12 c 0 -192 6005 442 l 0 -192 6011 442 l 42 0 6005 442 l 42 0 6005 250 l 0 6 6089 388 l 6 12 c 6 6 c 12 6 c
24 0 c 12 -6 c 6 -6 c 6 -12 c 0 -12 c -6 -12 c -12 -18 c -60 -60 c 84 0 c -6 -6 6215 376 l 6 -6 c 6 6 c -6 6 c -6 -6 6215 304 l
6 -6 c 6 6 c -6 6 c -48 -126 6395 418 l 48 -126 6395 418 l 60 0 6365 334 l 0 -84 6473 376 l 6 18 6473 340 l 12 12 c 12 6 c 18 0 c
-12 12 6617 358 l -12 6 c -18 0 c -12 -6 c -12 -12 c -6 -18 c 0 -12 c 6 -18 c 12 -12 c 12 -6 c 18 0 c 12 6 c 12 12 c
108 0 6659 346 l -18 -6 6845 418 l -12 -18 c -6 -30 c 0 -18 c 6 -30 c 12 -18 c 18 -6 c 12 0 c 18 6 c 12 18 c 6 30 c 0 18 c -6 30 c
-12 18 c -18 6 c -12 0 c 66 0 6941 418 l -36 -48 c 18 0 c 12 -6 c 6 -6 c 6 -18 c 0 -12 c -6 -18 c -12 -12 c -18 -6 c -18 0 c -18 6 c
-6 6 c -6 12 c -6 12 7127 400 l -18 6 c -12 0 c -18 -6 c -12 -18 c -6 -30 c 0 -30 c 6 -24 c 12 -12 c 18 -6 c 6 0 c 18 6 c 12 12 c
6 18 c 0 6 c -6 18 c -12 12 c -18 6 c -6 0 c -18 -6 c -12 -12 c -6 -18 c -6 -6 7181 304 l 6 -6 c 6 6 c -6 6 c -12 0 7271 418 l
-12 -6 c -6 -18 c 0 -102 c 42 0 7223 376 l 6 -6 7301 418 l 6 6 c -6 6 c -6 -6 c 0 -84 7307 376 l 0 -102 7361 418 l 6 -18 c 12 -6 c
12 0 c 42 0 7343 376 l -6 12 7487 358 l -18 6 c -18 0 c -18 -6 c -6 -12 c 6 -12 c 12 -6 c 30 -6 c 12 -6 c 6 -12 c 0 -6 c -6 -12 c
-18 -6 c -18 0 c -18 6 c -6 12 c 0 -192 7559 442 l 0 -192 7565 442 l 42 0 7523 442 l 42 0 7523 250 l
0 -250 1070 1461 l 53 -38 1027 1571 l 0 56 c 79 0 1027 1571 l 11 -3 1053 1657 l 8 -8 c 4 -11 c 0 -4 c -4 -11 c -8 -8 c -11 -4 c
-4 0 c -11 4 c -8 8 c -3 11 c 0 4 c 3 11 c 8 8 c 15 3 c 19 0 c 19 -3 c 11 -8 c 4 -11 c 0 -8 c -4 -11 c -7 -4 c -4 8 1042 1695 l
-11 11 c 79 0 c 3 -11 1027 1782 l 12 -8 c 19 -3 c 11 0 c 19 3 c 11 8 c 4 11 c 0 8 c -4 11 c -11 8 c -19 3 c -11 0 c -19 -3 c
-12 -8 c -3 -11 c 0 -8 c 3 -4 1099 1843 l 4 4 c -4 3 c -3 -3 c -4 8 1042 1884 l -11 11 c 79 0 c 0 -38 1027 1994 l 34 -4 c -4 4 c
-4 11 c 0 12 c 4 11 c 7 8 c 12 3 c 7 0 c 12 -3 c 7 -8 c 4 -11 c 0 -12 c -4 -11 c -3 -4 c -8 -3 c 3 -11 1027 2043 l 8 -4 c 8 0 c
7 4 c 4 7 c 4 15 c 3 12 c 8 7 c 8 4 c 11 0 c 8 -4 c 3 -4 c 4 -11 c 0 -15 c -4 -11 c -3 -4 c -8 -4 c -11 0 c -8 4 c -8 7 c -3 12 c
-4 15 c -4 7 c -7 4 c -8 0 c -8 -4 c -3 -11 c 0 -15 c 0 -250 1142 1337 l 53 -38 1098 1446 l 0 57 c 80 0 1098 1446 l
11 -4 1125 1533 l 8 -7 c 4 -11 c 0 -4 c -4 -12 c -8 -7 c -11 -4 c -4 0 c -11 4 c -8 7 c -4 12 c 0 4 c 4 11 c 8 7 c 15 4 c 19 0 c
19 -4 c 11 -7 c 4 -11 c 0 -8 c -4 -11 c -8 -4 c -4 8 1114 1571 l -12 11 c 80 0 c 4 -11 1098 1658 l 12 -8 c 18 -4 c 12 0 c 19 4 c
11 8 c 4 11 c 0 7 c -4 12 c -11 7 c -19 4 c -12 0 c -18 -4 c -12 -7 c -4 -12 c 0 -7 c 4 -3 1170 1718 l 4 3 c -4 4 c -4 -4 c
80 -38 1098 1802 l 0 53 1098 1749 l 11 -3 1125 1873 l 8 -8 c 4 -11 c 0 -4 c -4 -11 c -8 -8 c -11 -4 c -4 0 c -11 4 c -8 8 c -4 11 c
0 4 c 4 11 c 8 8 c 15 3 c 19 0 c 19 -3 c 11 -8 c 4 -11 c 0 -8 c -4 -11 c -8 -4 c 0 42 1098 1907 l 31 -23 c 0 12 c 3 7 c 4 4 c 12 4 c
7 0 c 11 -4 c 8 -8 c 4 -11 c 0 -11 c -4 -12 c -4 -3 c -7 -4 c 0 -250 1218 1353 l 53 -38 1174 1462 l 0 57 c 79 0 1174 1462 l
12 -4 1200 1549 l 7 -7 c 4 -11 c 0 -4 c -4 -12 c -7 -7 c -12 -4 c -3 0 c -12 4 c -7 7 c -4 12 c 0 4 c 4 11 c 7 7 c 15 4 c 19 0 c
19 -4 c 11 -7 c 4 -11 c 0 -8 c -4 -11 c -7 -4 c -4 8 1189 1587 l -11 11 c 79 0 c -4 7 1189 1663 l -11 11 c 79 0 c 3 -3 1246 1734 l
4 3 c -4 4 c -3 -4 c 0 42 1174 1772 l 30 -23 c 0 11 c 4 8 c 4 4 c 11 4 c 8 0 c 11 -4 c 7 -8 c 4 -11 c 0 -11 c -4 -12 c -3 -4 c
-8 -3 c 79 -38 1174 1893 l 0 53 1174 1840 l 12 -4 1200 1965 l 7 -7 c 4 -12 c 0 -4 c -4 -11 c -7 -7 c -12 -4 c -3 0 c -12 4 c -7 7 c
-4 11 c 0 4 c 4 12 c 7 7 c 15 4 c 19 0 c 19 -4 c 11 -7 c 4 -12 c 0 -7 c -4 -12 c -7 -3 c 0 -250 1351 3008 l 52 -38 1308 3118 l
0 57 c 79 0 1308 3118 l 11 -4 1334 3205 l 8 -8 c 4 -11 c 0 -4 c -4 -11 c -8 -8 c -11 -4 c -4 0 c -11 4 c -8 8 c -3 11 c 0 4 c 3 11 c
8 8 c 15 4 c 19 0 c 19 -4 c 11 -8 c 4 -11 c 0 -8 c -4 -11 c -7 -4 c -4 8 1323 3242 l -11 11 c 79 0 c -3 0 1326 3310 l -8 4 c -4 4 c
-3 7 c 0 16 c 3 7 c 4 4 c 8 4 c 7 0 c 8 -4 c 11 -8 c 38 -37 c 0 53 c 4 -4 1379 3390 l 4 4 c -4 4 c -4 -4 c 0 -37 1308 3465 l 34 -4 c
-4 4 c -4 11 c 0 11 c 4 12 c 7 7 c 12 4 c 7 0 c 12 -4 c 7 -7 c 4 -12 c 0 -11 c -4 -11 c -4 -4 c -7 -4 c -3 0 1326 3499 l -8 4 c
-4 4 c -3 7 c 0 16 c 3 7 c 4 4 c 8 4 c 7 0 c 8 -4 c 11 -8 c 38 -37 c 0 52 c 11 -3 1334 3620 l 8 -8 c 4 -11 c 0 -4 c -4 -12 c -8 -7 c
-11 -4 c -4 0 c -11 4 c -8 7 c -3 12 c 0 4 c 3 11 c 8 8 c 15 3 c 19 0 c 19 -3 c 11 -8 c 4 -11 c 0 -8 c -4 -11 c -7 -4 c
0 -249 1694 1241 l 53 -38 1650 1351 l 0 57 c 80 0 1650 1351 l 11 -4 1677 1438 l 8 -7 c 4 -12 c 0 -4 c -4 -11 c -8 -7 c -11 -4 c
-4 0 c -11 4 c -8 7 c -4 11 c 0 4 c 4 12 c 8 7 c 15 4 c 19 0 c 19 -4 c 11 -7 c 4 -12 c 0 -7 c -4 -12 c -8 -3 c -4 7 1666 1476 l
-12 12 c 80 0 c 0 -37 1650 1585 l 34 -4 c -3 4 c -4 11 c 0 11 c 4 12 c 7 7 c 12 4 c 7 0 c 11 -4 c 8 -7 c 4 -12 c 0 -11 c -4 -11 c
-4 -4 c -7 -4 c 4 -4 1722 1623 l 4 4 c -4 4 c -4 -4 c 53 -38 1650 1691 l 0 57 c 80 0 1650 1691 l -4 8 1666 1740 l -12 11 c 80 0 c
-8 -4 1662 1854 l -4 -11 c 0 -8 c 4 -11 c 12 -8 c 18 -4 c 19 0 c 15 4 c 8 8 c 4 11 c 0 4 c -4 11 c -8 8 c -11 3 c -4 0 c -11 -3 c
-8 -8 c -3 -11 c 0 -4 c 3 -11 c 8 -8 c 11 -4 c 0 -249 2222 7019 l 53 -38 2178 7129 l 0 57 c 79 0 2178 7129 l 11 -4 2205 7216 l
7 -8 c 4 -11 c 0 -4 c -4 -11 c -7 -8 c -11 -3 c -4 0 c -12 3 c -7 8 c -4 11 c 0 4 c 4 11 c 7 8 c 16 4 c 18 0 c 19 -4 c 12 -8 c
3 -11 c 0 -8 c -3 -11 c -8 -4 c -4 8 2193 7253 l -11 11 c 79 0 c 11 -4 2205 7367 l 7 -8 c 4 -11 c 0 -4 c -4 -11 c -7 -8 c -11 -3 c
-4 0 c -12 3 c -7 8 c -4 11 c 0 4 c 4 11 c 7 8 c 16 4 c 18 0 c 19 -4 c 12 -8 c 3 -11 c 0 -7 c -3 -12 c -8 -4 c 4 -4 2250 7401 l
3 4 c -3 4 c -4 -4 c 4 -11 2178 7450 l 7 -4 c 8 0 c 8 4 c 3 7 c 4 15 c 4 12 c 7 7 c 8 4 c 11 0 c 8 -4 c 4 -4 c 3 -11 c 0 -15 c
-3 -11 c -4 -4 c -8 -4 c -11 0 c -8 4 c -7 7 c -4 12 c -4 15 c -3 7 c -8 4 c -8 0 c -7 -4 c -4 -11 c 0 -15 c -4 8 2193 7518 l
-11 11 c 79 0 c -7 -3 2189 7631 l -4 -12 c 0 -7 c 4 -12 c 11 -7 c 19 -4 c 19 0 c 15 4 c 8 7 c 3 12 c 0 3 c -3 12 c -8 7 c -11 4 c
-4 0 c -11 -4 c -8 -7 c -4 -12 c 0 -3 c 4 -12 c 8 -7 c 11 -4 c 0 -250 2437 2998 l 53 -37 2393 3107 l 0 56 c 80 0 2393 3107 l
11 -3 2420 3194 l 8 -8 c 4 -11 c 0 -4 c -4 -11 c -8 -8 c -11 -4 c -4 0 c -11 4 c -8 8 c -4 11 c 0 4 c 4 11 c 8 8 c 15 3 c 19 0 c
19 -3 c 11 -8 c 4 -11 c 0 -8 c -4 -11 c -8 -4 c -4 0 2412 3225 l -7 3 c -4 4 c -4 8 c 0 15 c 4 7 c 4 4 c 7 4 c 8 0 c 8 -4 c 11 -7 c
38 -38 c 0 53 c -3 7 2408 3308 l -12 12 c 80 0 c 4 -4 2465 3380 l 4 4 c -4 3 c -4 -3 c -8 -4 2405 3459 l -4 -11 c 0 -8 c 4 -11 c
11 -8 c 19 -3 c 19 0 c 15 3 c 8 8 c 4 11 c 0 4 c -4 11 c -8 8 c -11 4 c -4 0 c -11 -4 c -8 -8 c -3 -11 c 0 -4 c 3 -11 c 8 -8 c
11 -3 c -3 7 2408 3497 l -12 12 c 80 0 c 0 41 2393 3569 l 31 -23 c 0 12 c 3 7 c 4 4 c 12 4 c 7 0 c 11 -4 c 8 -7 c 4 -12 c 0 -11 c
-4 -11 c -4 -4 c -7 -4 c 0 -250 2598 1789 l 53 -37 2554 1898 l 0 56 c 79 0 2554 1898 l 12 -3 2580 1985 l 7 -8 c 4 -11 c 0 -4 c
-4 -11 c -7 -8 c -12 -4 c -3 0 c -12 4 c -7 8 c -4 11 c 0 4 c 4 11 c 7 8 c 15 3 c 19 0 c 19 -3 c 12 -8 c 3 -11 c 0 -8 c -3 -11 c
-8 -4 c -4 0 2573 2016 l -8 3 c -3 4 c -4 8 c 0 15 c 4 7 c 3 4 c 8 4 c 8 0 c 7 -4 c 11 -7 c 38 -38 c 0 53 c -4 0 2573 2091 l -8 4 c
-3 4 c -4 7 c 0 15 c 4 8 c 3 4 c 8 4 c 8 0 c 7 -4 c 11 -8 c 38 -38 c 0 53 c 4 -4 2626 2171 l 3 4 c -3 3 c -4 -3 c 12 -4 2580 2250 l
7 -7 c 4 -12 c 0 -4 c -4 -11 c -7 -7 c -12 -4 c -3 0 c -12 4 c -7 7 c -4 11 c 0 4 c 4 12 c 7 7 c 15 4 c 19 0 c 19 -4 c 12 -7 c
3 -12 c 0 -7 c -3 -12 c -8 -3 c 53 -38 2554 2314 l 0 57 c 79 0 2554 2314 l 53 -38 2554 2390 l 0 57 c 79 0 2554 2390 l
0 -249 2897 1425 l 53 -38 2854 1535 l 0 57 c 79 0 2854 1535 l 12 -4 2880 1622 l 7 -8 c 4 -11 c 0 -4 c -4 -11 c -7 -8 c -12 -3 c
-4 0 c -11 3 c -7 8 c -4 11 c 0 4 c 4 11 c 7 8 c 15 4 c 19 0 c 19 -4 c 11 -8 c 4 -11 c 0 -8 c -4 -11 c -7 -4 c -4 0 2873 1652 l
-8 4 c -3 3 c -4 8 c 0 15 c 4 8 c 3 4 c 8 3 c 7 0 c 8 -3 c 11 -8 c 38 -38 c 0 53 c 0 -38 2854 1769 l 34 -3 c -4 3 c -4 12 c 0 11 c
4 11 c 8 8 c 11 4 c 7 0 c 12 -4 c 7 -8 c 4 -11 c 0 -11 c -4 -12 c -3 -3 c -8 -4 c 3 -4 2926 1807 l 4 4 c -4 4 c -3 -4 c
53 -38 2854 1875 l 0 57 c 79 0 2854 1875 l -4 0 2873 1917 l -8 3 c -3 4 c -4 8 c 0 15 c 4 7 c 3 4 c 8 4 c 7 0 c 8 -4 c 11 -7 c
38 -38 c 0 53 c 0 -38 2854 2034 l 34 -4 c -4 4 c -4 11 c 0 12 c 4 11 c 8 7 c 11 4 c 7 0 c 12 -4 c 7 -7 c 4 -11 c 0 -12 c -4 -11 c
-3 -4 c -8 -4 c 0 -249 3183 1710 l 53 -38 3140 1820 l 0 57 c 79 0 3140 1820 l 12 -4 3166 1907 l 7 -7 c 4 -12 c 0 -4 c -4 -11 c
-7 -8 c -12 -3 c -4 0 c -11 3 c -7 8 c -4 11 c 0 4 c 4 12 c 7 7 c 15 4 c 19 0 c 19 -4 c 11 -7 c 4 -12 c 0 -7 c -4 -12 c -7 -4 c
-4 0 3159 1937 l -8 4 c -3 4 c -4 7 c 0 15 c 4 8 c 3 4 c 8 3 c 7 0 c 8 -3 c 11 -8 c 38 -38 c 0 53 c 79 -38 3140 2062 l
0 53 3140 2009 l 3 -4 3212 2092 l 4 4 c -4 4 c -3 -4 c 79 -38 3140 2175 l 0 53 3140 2122 l 4 -12 3140 2217 l 7 -3 c 8 0 c 7 3 c
4 8 c 4 15 c 4 11 c 7 8 c 8 4 c 11 0 c 8 -4 c 3 -4 c 4 -11 c 0 -15 c -4 -12 c -3 -3 c -8 -4 c -11 0 c -8 4 c -7 7 c -4 12 c -4 15 c
-4 7 c -7 4 c -8 0 c -7 -4 c -4 -11 c 0 -15 c 4 -11 3140 2296 l 11 -8 c 19 -4 c 11 0 c 19 4 c 11 8 c 4 11 c 0 8 c -4 11 c -11 8 c
-19 3 c -11 0 c -19 -3 c -11 -8 c -4 -11 c 0 -8 c 0 -250 3342 1351 l 53 -38 3298 1461 l 0 56 c 80 0 3298 1461 l 11 -4 3325 1548 l
8 -8 c 3 -11 c 0 -4 c -3 -11 c -8 -8 c -11 -4 c -4 0 c -11 4 c -8 8 c -4 11 c 0 4 c 4 11 c 8 8 c 15 4 c 19 0 c 18 -4 c 12 -8 c
4 -11 c 0 -8 c -4 -11 c -8 -4 c -4 0 3317 1578 l -7 4 c -4 3 c -4 8 c 0 15 c 4 8 c 4 3 c 7 4 c 8 0 c 7 -4 c 12 -7 c 38 -38 c 0 53 c
11 -4 3325 1699 l 8 -8 c 3 -11 c 0 -4 c -3 -11 c -8 -8 c -11 -3 c -4 0 c -11 3 c -8 8 c -4 11 c 0 4 c 4 11 c 8 8 c 15 4 c 19 0 c
18 -4 c 12 -8 c 4 -11 c 0 -8 c -4 -11 c -8 -4 c 4 -4 3370 1733 l 4 4 c -4 3 c -4 -3 c 4 -12 3298 1786 l 11 -7 c 19 -4 c 12 0 c
18 4 c 12 7 c 4 12 c 0 7 c -4 12 c -12 7 c -18 4 c -12 0 c -19 -4 c -11 -7 c -4 -12 c 0 -7 c 4 -11 3298 1857 l 8 -4 c 7 0 c 8 4 c
3 8 c 4 15 c 4 11 c 8 8 c 7 3 c 11 0 c 8 -3 c 4 -4 c 4 -11 c 0 -16 c -4 -11 c -4 -4 c -8 -3 c -11 0 c -7 3 c -8 8 c -4 11 c -4 15 c
-3 8 c -8 4 c -7 0 c -8 -4 c -4 -11 c 0 -16 c -8 -4 3310 1963 l -4 -11 c 0 -7 c 4 -12 c 11 -7 c 19 -4 c 19 0 c 15 4 c 8 7 c 4 12 c
0 3 c -4 12 c -8 7 c -11 4 c -4 0 c -11 -4 c -8 -7 c -4 -12 c 0 -3 c 4 -12 c 8 -7 c 11 -4 c 0 -249 3452 1709 l 53 -38 3409 1819 l
0 57 c 79 0 3409 1819 l 11 -4 3435 1906 l 8 -8 c 4 -11 c 0 -4 c -4 -11 c -8 -8 c -11 -4 c -4 0 c -11 4 c -8 8 c -3 11 c 0 4 c 3 11 c
8 8 c 15 4 c 19 0 c 19 -4 c 11 -8 c 4 -11 c 0 -8 c -4 -11 c -7 -4 c -4 0 3428 1936 l -8 4 c -4 3 c -3 8 c 0 15 c 3 8 c 4 3 c 8 4 c
7 0 c 8 -4 c 11 -7 c 38 -38 c 0 53 c 11 -4 3435 2057 l 8 -8 c 4 -11 c 0 -4 c -4 -11 c -8 -8 c -11 -3 c -4 0 c -11 3 c -8 8 c -3 11 c
0 4 c 3 11 c 8 8 c 15 4 c 19 0 c 19 -4 c 11 -8 c 4 -11 c 0 -7 c -4 -12 c -7 -4 c 4 -4 3480 2091 l 4 4 c -4 4 c -4 -4 c
11 -4 3435 2170 l 8 -7 c 4 -11 c 0 -4 c -4 -12 c -8 -7 c -11 -4 c -4 0 c -11 4 c -8 7 c -3 12 c 0 4 c 3 11 c 8 7 c 15 4 c 19 0 c
19 -4 c 11 -7 c 4 -11 c 0 -8 c -4 -11 c -7 -4 c 3 -12 3409 2216 l 8 -4 c 8 0 c 7 4 c 4 8 c 4 15 c 3 11 c 8 8 c 8 4 c 11 0 c 7 -4 c
4 -4 c 4 -11 c 0 -15 c -4 -12 c -4 -4 c -7 -3 c -11 0 c -8 3 c -8 8 c -3 11 c -4 15 c -4 8 c -7 4 c -8 0 c -8 -4 c -3 -11 c 0 -15 c
0 -38 3409 2318 l 34 -4 c -4 4 c -4 11 c 0 11 c 4 12 c 7 7 c 12 4 c 7 0 c 12 -4 c 7 -7 c 4 -12 c 0 -11 c -4 -11 c -4 -4 c -7 -4 c
0 -249 3847 3072 l 53 -38 3804 3182 l 0 57 c 79 0 3804 3182 l 12 -4 3830 3269 l 7 -7 c 4 -12 c 0 -4 c -4 -11 c -7 -7 c -12 -4 c
-4 0 c -11 4 c -7 7 c -4 11 c 0 4 c 4 12 c 7 7 c 15 4 c 19 0 c 19 -4 c 11 -7 c 4 -12 c 0 -7 c -4 -12 c -7 -3 c 0 42 3804 3303 l
30 -23 c 0 11 c 4 8 c 4 4 c 11 3 c 7 0 c 12 -3 c 7 -8 c 4 -11 c 0 -12 c -4 -11 c -3 -4 c -8 -4 c 0 41 3804 3379 l 30 -23 c 0 12 c
4 7 c 4 4 c 11 4 c 7 0 c 12 -4 c 7 -7 c 4 -12 c 0 -11 c -4 -11 c -3 -4 c -8 -4 c 3 -4 3876 3454 l 4 4 c -4 4 c -3 -4 c
-4 0 3823 3488 l -8 4 c -3 4 c -4 7 c 0 15 c 4 8 c 3 4 c 8 3 c 7 0 c 8 -3 c 11 -8 c 38 -38 c 0 53 c 4 -12 3804 3583 l 11 -7 c
19 -4 c 11 0 c 19 4 c 11 7 c 4 12 c 0 7 c -4 12 c -11 7 c -19 4 c -11 0 c -19 -4 c -11 -7 c -4 -12 c 0 -7 c 12 -4 3830 3685 l 7 -8 c
4 -11 c 0 -4 c -4 -11 c -7 -8 c -12 -3 c -4 0 c -11 3 c -7 8 c -4 11 c 0 4 c 4 11 c 7 8 c 15 4 c 19 0 c 19 -4 c 11 -8 c 4 -11 c
0 -8 c -4 -11 c -7 -4 c 0 -249 3926 2883 l 52 -38 3883 2993 l 0 57 c 79 0 3883 2993 l 11 -4 3909 3080 l 8 -8 c 4 -11 c 0 -4 c
-4 -11 c -8 -8 c -11 -3 c -4 0 c -11 3 c -8 8 c -3 11 c 0 4 c 3 11 c 8 8 c 15 4 c 19 0 c 19 -4 c 11 -8 c 4 -11 c 0 -7 c -4 -12 c
-7 -4 c 0 41 3883 3114 l 30 -22 c 0 11 c 4 8 c 3 3 c 12 4 c 7 0 c 12 -4 c 7 -7 c 4 -12 c 0 -11 c -4 -11 c -4 -4 c -7 -4 c
0 42 3883 3189 l 30 -23 c 0 12 c 4 7 c 3 4 c 12 4 c 7 0 c 12 -4 c 7 -8 c 4 -11 c 0 -11 c -4 -12 c -4 -3 c -7 -4 c 4 -4 3954 3265 l
4 4 c -4 4 c -4 -4 c 3 -11 3883 3314 l 8 -4 c 7 0 c 8 4 c 4 7 c 4 15 c 3 12 c 8 7 c 7 4 c 12 0 c 7 -4 c 4 -3 c 4 -12 c 0 -15 c
-4 -11 c -4 -4 c -7 -4 c -12 0 c -7 4 c -8 8 c -3 11 c -4 15 c -4 8 c -8 3 c -7 0 c -8 -3 c -3 -12 c 0 -15 c 0 -38 3883 3416 l
34 -3 c -4 3 c -4 12 c 0 11 c 4 11 c 7 8 c 12 4 c 7 0 c 12 -4 c 7 -8 c 4 -11 c 0 -11 c -4 -12 c -4 -3 c -7 -4 c -3 0 3901 3450 l
-8 4 c -4 4 c -3 7 c 0 15 c 3 8 c 4 4 c 8 4 c 7 0 c 8 -4 c 11 -8 c 38 -38 c 0 53 c 0 -250 4286 1894 l 53 -37 4243 2003 l 0 56 c
79 0 4243 2003 l 12 -3 4269 2090 l 7 -8 c 4 -11 c 0 -4 c -4 -11 c -7 -8 c -12 -4 c -3 0 c -12 4 c -7 8 c -4 11 c 0 4 c 4 11 c 7 8 c
15 3 c 19 0 c 19 -3 c 11 -8 c 4 -11 c 0 -8 c -4 -11 c -7 -4 c 0 42 4243 2124 l 30 -23 c 0 12 c 4 7 c 4 4 c 11 4 c 8 0 c 11 -4 c
7 -8 c 4 -11 c 0 -11 c -4 -12 c -3 -3 c -8 -4 c -7 -4 4254 2242 l -4 -12 c 0 -7 c 4 -12 c 11 -7 c 19 -4 c 19 0 c 15 4 c 7 7 c 4 12 c
0 4 c -4 11 c -7 8 c -11 3 c -4 0 c -12 -3 c -7 -8 c -4 -11 c 0 -4 c 4 -12 c 7 -7 c 12 -4 c 3 -4 4315 2276 l 4 4 c -4 3 c -3 -3 c
79 -38 4243 2359 l 0 53 4243 2306 l 79 -38 4243 2434 l 0 53 4243 2381 l 0 -37 4243 2502 l 34 -4 c -4 4 c -4 11 c 0 11 c 4 12 c 8 7 c
11 4 c 8 0 c 11 -4 c 7 -7 c 4 -12 c 0 -11 c -4 -11 c -3 -4 c -8 -4 c 0 -250 4417 2003 l 52 -37 4374 2112 l 0 56 c 79 0 4374 2112 l
11 -3 4400 2199 l 8 -8 c 4 -11 c 0 -4 c -4 -11 c -8 -8 c -11 -4 c -4 0 c -11 4 c -8 8 c -3 11 c 0 4 c 3 11 c 8 8 c 15 3 c 19 0 c
19 -3 c 11 -8 c 4 -11 c 0 -8 c -4 -11 c -7 -4 c 0 42 4374 2233 l 30 -23 c 0 12 c 4 7 c 3 4 c 12 4 c 7 0 c 12 -4 c 7 -8 c 4 -11 c
0 -11 c -4 -12 c -4 -3 c -7 -4 c 79 -37 4374 2354 l 0 53 4374 2301 l 4 -4 4445 2385 l 4 4 c -4 3 c -4 -3 c 3 -12 4374 2434 l 8 -3 c
7 0 c 8 3 c 4 8 c 4 15 c 3 11 c 8 8 c 7 4 c 12 0 c 7 -4 c 4 -4 c 4 -11 c 0 -15 c -4 -12 c -4 -3 c -7 -4 c -12 0 c -7 4 c -8 7 c
-3 11 c -4 16 c -4 7 c -8 4 c -7 0 c -8 -4 c -3 -11 c 0 -15 c -3 0 4392 2494 l -8 4 c -4 4 c -3 7 c 0 15 c 3 8 c 4 4 c 8 3 c 7 0 c
8 -3 c 11 -8 c 38 -38 c 0 53 c 11 -4 4400 2615 l 8 -7 c 4 -12 c 0 -3 c -4 -12 c -8 -7 c -11 -4 c -4 0 c -11 4 c -8 7 c -3 12 c 0 3 c
3 12 c 8 7 c 15 4 c 19 0 c 19 -4 c 11 -7 c 4 -12 c 0 -7 c -4 -11 c -7 -4 c 0 -249 4642 3327 l 52 -38 4599 3437 l 0 57 c
79 0 4599 3437 l 11 -4 4625 3524 l 8 -7 c 4 -12 c 0 -3 c -4 -12 c -8 -7 c -11 -4 c -4 0 c -11 4 c -8 7 c -3 12 c 0 3 c 3 12 c 8 7 c
15 4 c 19 0 c 19 -4 c 11 -7 c 4 -12 c 0 -7 c -4 -12 c -7 -3 c 0 42 4599 3558 l 30 -23 c 0 11 c 4 8 c 3 4 c 12 3 c 7 0 c 12 -3 c
7 -8 c 4 -11 c 0 -12 c -4 -11 c -4 -4 c -7 -4 c 11 -4 4625 3675 l 8 -7 c 4 -12 c 0 -3 c -4 -12 c -8 -7 c -11 -4 c -4 0 c -11 4 c
-8 7 c -3 12 c 0 3 c 3 12 c 8 7 c 15 4 c 19 0 c 19 -4 c 11 -7 c 4 -12 c 0 -7 c -4 -11 c -7 -4 c 4 -4 4670 3709 l 4 4 c -4 4 c
-4 -4 c -8 -4 4610 3789 l -3 -12 c 0 -7 c 3 -11 c 12 -8 c 19 -4 c 18 0 c 16 4 c 7 8 c 4 11 c 0 4 c -4 11 c -7 8 c -12 3 c -4 0 c
-11 -3 c -7 -8 c -4 -11 c 0 -4 c 4 -11 c 7 -8 c 11 -4 c 52 -38 4599 3853 l 0 57 c 79 0 4599 3853 l -3 0 4617 3894 l -8 4 c -4 4 c
-3 7 c 0 16 c 3 7 c 4 4 c 8 4 c 7 0 c 8 -4 c 11 -8 c 38 -37 c 0 53 c 0 -249 5069 2811 l 53 -38 5025 2921 l 0 57 c 79 0 5025 2921 l
12 -4 5051 3008 l 7 -7 c 4 -12 c 0 -4 c -4 -11 c -7 -7 c -12 -4 c -3 0 c -12 4 c -7 7 c -4 11 c 0 4 c 4 12 c 7 7 c 15 4 c 19 0 c
19 -4 c 11 -7 c 4 -12 c 0 -7 c -4 -12 c -7 -3 c 53 -38 5025 3072 l 0 57 c 79 0 5025 3072 l 0 42 5025 3117 l 30 -23 c 0 12 c 4 7 c
4 4 c 11 4 c 8 0 c 11 -4 c 7 -7 c 4 -12 c 0 -11 c -4 -12 c -3 -3 c -8 -4 c 3 -4 5097 3193 l 4 4 c -4 4 c -3 -4 c 4 -11 5025 3246 l
11 -8 c 19 -4 c 11 0 c 19 4 c 11 8 c 4 11 c 0 8 c -4 11 c -11 7 c -19 4 c -11 0 c -19 -4 c -11 -7 c -4 -11 c 0 -8 c
-7 -4 5036 3348 l -4 -11 c 0 -8 c 4 -11 c 11 -8 c 19 -3 c 19 0 c 15 3 c 7 8 c 4 11 c 0 4 c -4 11 c -7 8 c -11 4 c -4 0 c -12 -4 c
-7 -8 c -4 -11 c 0 -4 c 4 -11 c 7 -8 c 12 -3 c 53 -38 5025 3412 l 0 57 c 79 0 5025 3412 l 0 -249 5369 5389 l 53 -38 5326 5499 l
0 57 c 79 0 5326 5499 l 11 -4 5352 5586 l 8 -8 c 4 -11 c 0 -4 c -4 -11 c -8 -8 c -11 -3 c -4 0 c -11 3 c -8 8 c -3 11 c 0 4 c 3 11 c
8 8 c 15 4 c 19 0 c 19 -4 c 11 -8 c 4 -11 c 0 -8 c -4 -11 c -7 -4 c 53 -38 5326 5650 l 0 57 c 79 0 5326 5650 l 0 -38 5326 5733 l
34 -3 c -4 3 c -4 12 c 0 11 c 4 11 c 7 8 c 12 4 c 7 0 c 12 -4 c 7 -8 c 4 -11 c 0 -11 c -4 -12 c -4 -3 c -7 -4 c 4 -4 5397 5771 l
4 4 c -4 4 c -4 -4 c 53 -38 5326 5839 l 0 57 c 79 0 5326 5839 l 0 -38 5326 5922 l 34 -4 c -4 4 c -4 12 c 0 11 c 4 11 c 7 8 c 12 4 c
7 0 c 12 -4 c 7 -8 c 4 -11 c 0 -11 c -4 -12 c -4 -4 c -7 -3 c 11 -3 5352 6001 l 8 -8 c 4 -11 c 0 -4 c -4 -11 c -8 -8 c -11 -4 c
-4 0 c -11 4 c -8 8 c -3 11 c 0 4 c 3 11 c 8 8 c 15 3 c 19 0 c 19 -3 c 11 -8 c 4 -11 c 0 -8 c -4 -11 c -7 -4 c 0 -250 5521 1641 l
53 -37 5477 1750 l 0 56 c 80 0 5477 1750 l 11 -3 5504 1837 l 8 -8 c 3 -11 c 0 -4 c -3 -11 c -8 -8 c -11 -4 c -4 0 c -11 4 c -8 8 c
-4 11 c 0 4 c 4 11 c 8 8 c 15 3 c 19 0 c 19 -3 c 11 -8 c 4 -11 c 0 -8 c -4 -11 c -8 -4 c 53 -38 5477 1902 l 0 56 c 80 0 5477 1902 l
-8 -4 5489 1989 l -4 -12 c 0 -7 c 4 -12 c 11 -7 c 19 -4 c 19 0 c 15 4 c 8 7 c 4 12 c 0 4 c -4 11 c -8 8 c -11 3 c -4 0 c -11 -3 c
-8 -8 c -3 -11 c 0 -4 c 3 -12 c 8 -7 c 11 -4 c 4 -4 5549 2023 l 4 4 c -4 3 c -4 -3 c -8 -4 5489 2102 l -4 -11 c 0 -8 c 4 -11 c
11 -8 c 19 -3 c 19 0 c 15 3 c 8 8 c 4 11 c 0 4 c -4 11 c -8 8 c -11 4 c -4 0 c -11 -4 c -8 -8 c -3 -11 c 0 -4 c 3 -11 c 8 -8 c
11 -3 c -8 -3 5489 2177 l -4 -12 c 0 -7 c 4 -12 c 11 -7 c 19 -4 c 19 0 c 15 4 c 8 7 c 4 12 c 0 4 c -4 11 c -8 7 c -11 4 c -4 0 c
-11 -4 c -8 -7 c -3 -11 c 0 -4 c 3 -12 c 8 -7 c 11 -4 c 53 -38 5477 2242 l 0 57 c 80 0 5477 2242 l 0 -250 5636 2792 l
53 -38 5592 2902 l 0 56 c 80 0 5592 2902 l 11 -4 5619 2989 l 8 -8 c 3 -11 c 0 -4 c -3 -11 c -8 -8 c -11 -4 c -4 0 c -12 4 c -7 8 c
-4 11 c 0 4 c 4 11 c 7 8 c 16 4 c 19 0 c 18 -4 c 12 -8 c 4 -11 c 0 -8 c -4 -11 c -8 -4 c 53 -38 5592 3053 l 0 57 c 80 0 5592 3053 l
80 -37 5592 3143 l 0 52 5592 3091 l 4 -4 5664 3174 l 4 4 c -4 4 c -4 -4 c 0 -37 5592 3249 l 34 -4 c -4 4 c -3 11 c 0 11 c 3 12 c
8 7 c 11 4 c 8 0 c 11 -4 c 8 -7 c 4 -12 c 0 -11 c -4 -11 c -4 -4 c -8 -4 c 80 -37 5592 3332 l 0 52 5592 3280 l 0 -37 5592 3400 l
34 -4 c -4 4 c -3 11 c 0 11 c 3 12 c 8 7 c 11 4 c 8 0 c 11 -4 c 8 -7 c 4 -12 c 0 -11 c -4 -11 c -4 -4 c -8 -4 c 0 -249 6022 3878 l
53 -38 5979 3988 l 0 57 c 79 0 5979 3988 l 11 -4 6005 4075 l 8 -8 c 4 -11 c 0 -4 c -4 -11 c -8 -8 c -11 -3 c -4 0 c -11 3 c -8 8 c
-3 11 c 0 4 c 3 11 c 8 8 c 15 4 c 19 0 c 19 -4 c 11 -8 c 4 -11 c 0 -7 c -4 -12 c -7 -4 c 0 -38 5979 4147 l 34 -4 c -4 4 c -4 11 c
0 11 c 4 12 c 7 7 c 12 4 c 7 0 c 12 -4 c 7 -7 c 4 -12 c 0 -11 c -4 -11 c -4 -4 c -7 -4 c 3 -12 5979 4200 l 12 -7 c 19 -4 c 11 0 c
19 4 c 11 7 c 4 12 c 0 7 c -4 11 c -11 8 c -19 4 c -11 0 c -19 -4 c -12 -8 c -3 -11 c 0 -7 c 4 -4 6050 4260 l 4 4 c -4 4 c -4 -4 c
-8 -3 5990 4339 l -3 -12 c 0 -7 c 3 -12 c 12 -7 c 19 -4 c 19 0 c 15 4 c 7 7 c 4 12 c 0 3 c -4 12 c -7 7 c -12 4 c -3 0 c -12 -4 c
-7 -7 c -4 -12 c 0 -3 c 4 -12 c 7 -7 c 12 -4 c -4 0 5998 4370 l -8 3 c -4 4 c -3 8 c 0 15 c 3 7 c 4 4 c 8 4 c 7 0 c 8 -4 c 11 -7 c
38 -38 c 0 53 c -8 -4 5990 4491 l -3 -12 c 0 -7 c 3 -11 c 12 -8 c 19 -4 c 19 0 c 15 4 c 7 8 c 4 11 c 0 4 c -4 11 c -7 8 c -12 3 c
-3 0 c -12 -3 c -7 -8 c -4 -11 c 0 -4 c 4 -11 c 7 -8 c 12 -4 c 0 -250 6286 1311 l 52 -38 6243 1421 l 0 56 c 79 0 6243 1421 l
11 -4 6269 1508 l 8 -8 c 4 -11 c 0 -4 c -4 -11 c -8 -8 c -11 -4 c -4 0 c -11 4 c -8 8 c -3 11 c 0 4 c 3 11 c 8 8 c 15 4 c 19 0 c
19 -4 c 11 -8 c 4 -11 c 0 -8 c -4 -11 c -7 -4 c 0 -37 6243 1579 l 34 -4 c -4 4 c -4 11 c 0 11 c 4 12 c 7 7 c 12 4 c 7 0 c 12 -4 c
7 -7 c 4 -12 c 0 -11 c -4 -11 c -4 -4 c -7 -4 c -3 0 6261 1613 l -8 4 c -4 4 c -3 7 c 0 16 c 3 7 c 4 4 c 8 4 c 7 0 c 8 -4 c 11 -8 c
38 -37 c 0 52 c 4 -4 6314 1693 l 4 4 c -4 3 c -4 -3 c -8 -4 6254 1772 l -3 -11 c 0 -8 c 3 -11 c 12 -8 c 19 -3 c 18 0 c 16 3 c 7 8 c
4 11 c 0 4 c -4 12 c -7 7 c -12 4 c -4 0 c -11 -4 c -7 -7 c -4 -12 c 0 -4 c 4 -11 c 7 -8 c 11 -3 c 11 -4 6269 1848 l 8 -8 c 4 -11 c
0 -4 c -4 -11 c -8 -8 c -11 -3 c -4 0 c -11 3 c -8 8 c -3 11 c 0 4 c 3 11 c 8 8 c 15 4 c 19 0 c 19 -4 c 11 -8 c 4 -11 c 0 -8 c
-4 -11 c -7 -4 c -4 8 6258 1885 l -11 11 c 79 0 c 0 -249 6979 1295 l 53 -38 6935 1405 l 0 57 c 79 0 6935 1405 l 12 -4 6961 1492 l
7 -7 c 4 -12 c 0 -4 c -4 -11 c -7 -7 c -12 -4 c -3 0 c -12 4 c -7 7 c -4 11 c 0 4 c 4 12 c 7 7 c 15 4 c 19 0 c 19 -4 c 12 -7 c
3 -12 c 0 -7 c -3 -12 c -8 -3 c 0 -38 6935 1564 l 34 -4 c -4 4 c -4 11 c 0 12 c 4 11 c 8 8 c 11 3 c 8 0 c 11 -3 c 8 -8 c 3 -11 c
0 -12 c -3 -11 c -4 -4 c -8 -4 c 4 -11 6935 1613 l 7 -4 c 8 0 c 7 4 c 4 7 c 4 15 c 4 12 c 7 7 c 8 4 c 11 0 c 8 -4 c 4 -4 c 3 -11 c
0 -15 c -3 -11 c -4 -4 c -8 -4 c -11 0 c -8 4 c -7 7 c -4 12 c -4 15 c -4 7 c -7 4 c -8 0 c -7 -4 c -4 -11 c 0 -15 c
4 -4 7007 1677 l 3 4 c -3 4 c -4 -4 c 4 -11 6935 1730 l 11 -8 c 19 -4 c 11 0 c 19 4 c 12 8 c 3 11 c 0 8 c -3 11 c -12 8 c -19 3 c
-11 0 c -19 -3 c -11 -8 c -4 -11 c 0 -8 c 12 -4 6961 1832 l 7 -7 c 4 -12 c 0 -3 c -4 -12 c -7 -7 c -12 -4 c -3 0 c -12 4 c -7 7 c
-4 12 c 0 3 c 4 12 c 7 7 c 15 4 c 19 0 c 19 -4 c 12 -7 c 3 -12 c 0 -7 c -3 -11 c -8 -4 c 12 -4 6961 1908 l 7 -8 c 4 -11 c 0 -4 c
-4 -11 c -7 -8 c -12 -3 c -3 0 c -12 3 c -7 8 c -4 11 c 0 4 c 4 11 c 7 8 c 15 4 c 19 0 c 19 -4 c 12 -8 c 3 -11 c 0 -8 c -3 -11 c
-8 -4 c 0 -250 7449 1357 l 53 -38 7405 1466 l 0 57 c 80 0 7405 1466 l 11 -4 7432 1553 l 7 -7 c 4 -12 c 0 -3 c -4 -12 c -7 -7 c
-11 -4 c -4 0 c -12 4 c -7 7 c -4 12 c 0 3 c 4 12 c 7 7 c 16 4 c 18 0 c 19 -4 c 12 -7 c 4 -12 c 0 -7 c -4 -11 c -8 -4 c
-7 -4 7416 1629 l -4 -11 c 0 -8 c 4 -11 c 11 -8 c 19 -4 c 19 0 c 15 4 c 8 8 c 4 11 c 0 4 c -4 11 c -8 8 c -11 3 c -4 0 c -11 -3 c
-8 -8 c -4 -11 c 0 -4 c 4 -11 c 8 -8 c 11 -4 c -4 7 7420 1667 l -11 11 c 80 0 c 4 -3 7477 1738 l 4 3 c -4 4 c -4 -4 c
80 -37 7405 1821 l 0 52 7405 1769 l -4 0 7424 1848 l -7 4 c -4 3 c -4 8 c 0 15 c 4 8 c 4 4 c 7 3 c 8 0 c 7 -3 c 12 -8 c 38 -38 c
0 53 c -7 -4 7416 1969 l -4 -11 c 0 -8 c 4 -11 c 11 -8 c 19 -3 c 19 0 c 15 3 c 8 8 c 4 11 c 0 4 c -4 11 c -8 8 c -11 4 c -4 0 c
-11 -4 c -8 -8 c -4 -11 c 0 -4 c 4 -11 c 8 -8 c 11 -3 c 0 -249 7887 7019 l 53 -38 7843 7129 l 0 57 c 80 0 7843 7129 l
11 -4 7870 7216 l 8 -8 c 3 -11 c 0 -4 c -3 -11 c -8 -8 c -11 -3 c -4 0 c -11 3 c -8 8 c -4 11 c 0 4 c 4 11 c 8 8 c 15 4 c 19 0 c
19 -4 c 11 -8 c 4 -11 c 0 -8 c -4 -11 c -8 -4 c -8 -4 7855 7291 l -4 -11 c 0 -7 c 4 -12 c 11 -7 c 19 -4 c 19 0 c 15 4 c 8 7 c 4 12 c
0 3 c -4 12 c -8 7 c -11 4 c -4 0 c -11 -4 c -8 -7 c -3 -12 c 0 -3 c 3 -12 c 8 -7 c 11 -4 c 0 -38 7843 7363 l 34 -4 c -3 4 c -4 12 c
0 11 c 4 11 c 7 8 c 11 4 c 8 0 c 11 -4 c 8 -8 c 4 -11 c 0 -11 c -4 -12 c -4 -4 c -7 -3 c 4 -4 7915 7401 l 4 4 c -4 4 c -4 -4 c
4 -12 7843 7454 l 11 -7 c 19 -4 c 12 0 c 19 4 c 11 7 c 4 12 c 0 7 c -4 12 c -11 7 c -19 4 c -12 0 c -19 -4 c -11 -7 c -4 -12 c
0 -7 c 80 -38 7843 7560 l 0 53 7843 7507 l 11 -3 7870 7631 l 8 -8 c 3 -11 c 0 -4 c -3 -11 c -8 -8 c -11 -4 c -4 0 c -11 4 c -8 8 c
-4 11 c 0 4 c 4 11 c 8 8 c 15 3 c 19 0 c 19 -3 c 11 -8 c 4 -11 c 0 -8 c -4 -11 c -8 -4 c 0 -250 7972 1644 l 53 -38 7928 1754 l
0 57 c 80 0 7928 1754 l 11 -4 7955 1841 l 8 -8 c 4 -11 c 0 -4 c -4 -11 c -8 -8 c -11 -4 c -4 0 c -11 4 c -8 8 c -4 11 c 0 4 c 4 11 c
8 8 c 15 4 c 19 0 c 19 -4 c 11 -8 c 4 -11 c 0 -8 c -4 -11 c -8 -4 c -8 -4 7940 1916 l -4 -11 c 0 -8 c 4 -11 c 12 -7 c 18 -4 c 19 0 c
15 4 c 8 7 c 4 11 c 0 4 c -4 12 c -8 7 c -11 4 c -4 0 c -11 -4 c -8 -7 c -3 -12 c 0 -4 c 3 -11 c 8 -7 c 11 -4 c 0 -38 7928 1988 l
34 -4 c -3 4 c -4 11 c 0 12 c 4 11 c 7 8 c 12 4 c 7 0 c 11 -4 c 8 -8 c 4 -11 c 0 -12 c -4 -11 c -4 -4 c -7 -3 c 4 -4 8000 2026 l
4 4 c -4 4 c -4 -4 c 80 -38 7928 2109 l 0 53 7928 2056 l 0 42 7928 2139 l 31 -23 c 0 11 c 3 8 c 4 4 c 12 3 c 7 0 c 11 -3 c 8 -8 c
4 -11 c 0 -12 c -4 -11 c -4 -4 c -7 -3 c -4 7 7944 2219 l -12 11 c 80 0 c 0 -250 8370 3079 l 53 -37 8327 3188 l 0 56 c
79 0 8327 3188 l 12 -3 8353 3275 l 7 -8 c 4 -11 c 0 -4 c -4 -11 c -7 -8 c -12 -4 c -3 0 c -12 4 c -7 8 c -4 11 c 0 4 c 4 11 c 7 8 c
15 3 c 19 0 c 19 -3 c 11 -8 c 4 -11 c 0 -8 c -4 -11 c -7 -4 c -7 -4 8338 3351 l -4 -11 c 0 -8 c 4 -11 c 11 -8 c 19 -3 c 19 0 c
15 3 c 7 8 c 4 11 c 0 4 c -4 11 c -7 8 c -11 4 c -4 0 c -12 -4 c -7 -8 c -4 -11 c 0 -4 c 4 -11 c 7 -8 c 12 -3 c 4 -11 8327 3396 l
7 -4 c 8 0 c 7 4 c 4 8 c 4 15 c 4 11 c 7 8 c 8 3 c 11 0 c 8 -3 c 3 -4 c 4 -12 c 0 -15 c -4 -11 c -3 -4 c -8 -4 c -11 0 c -8 4 c
-7 8 c -4 11 c -4 15 c -4 8 c -7 4 c -8 0 c -7 -4 c -4 -12 c 0 -15 c 3 -4 8399 3461 l 4 4 c -4 3 c -3 -3 c 79 -38 8327 3544 l
0 53 8327 3491 l 0 -38 8327 3612 l 34 -4 c -4 4 c -4 11 c 0 12 c 4 11 c 8 8 c 11 3 c 8 0 c 11 -3 c 7 -8 c 4 -11 c 0 -12 c -4 -11 c
-3 -4 c -8 -4 c -7 -4 8338 3691 l -4 -11 c 0 -8 c 4 -11 c 11 -7 c 19 -4 c 19 0 c 15 4 c 7 7 c 4 11 c 0 4 c -4 12 c -7 7 c -11 4 c
-4 0 c -12 -4 c -7 -7 c -4 -12 c 0 -4 c 4 -11 c 7 -7 c 12 -4 c 0 -250 8823 2137 l 52 -38 8780 2246 l 0 57 c 79 0 8780 2246 l
11 -4 8806 2333 l 8 -7 c 4 -11 c 0 -4 c -4 -12 c -8 -7 c -11 -4 c -4 0 c -11 4 c -8 7 c -3 12 c 0 4 c 3 11 c 8 7 c 15 4 c 19 0 c
19 -4 c 11 -7 c 4 -11 c 0 -8 c -4 -11 c -7 -4 c 79 -38 8780 2413 l 0 53 8780 2360 l -3 0 8798 2439 l -8 4 c -4 4 c -3 7 c 0 15 c
3 8 c 4 4 c 8 3 c 7 0 c 8 -3 c 11 -8 c 38 -38 c 0 53 c 4 -3 8851 2518 l 4 3 c -4 4 c -4 -4 c -4 8 8795 2560 l -11 11 c 79 0 c
3 -11 8780 2643 l 8 -4 c 7 0 c 8 4 c 4 7 c 4 15 c 3 12 c 8 7 c 7 4 c 12 0 c 7 -4 c 4 -3 c 4 -12 c 0 -15 c -4 -11 c -4 -4 c -7 -4 c
-12 0 c -7 4 c -8 8 c -3 11 c -4 15 c -4 8 c -8 3 c -7 0 c -8 -3 c -3 -12 c 0 -15 c 3 -11 8780 2722 l 12 -7 c 19 -4 c 11 0 c 19 4 c
11 7 c 4 11 c 0 8 c -4 11 c -11 8 c -19 4 c -11 0 c -19 -4 c -12 -8 c -3 -11 c 0 -8 c 0 -250 9330 1543 l 53 -38 9286 1652 l 0 57 c
79 0 9286 1652 l 11 -4 9313 1739 l 7 -7 c 4 -12 c 0 -3 c -4 -12 c -7 -7 c -11 -4 c -4 0 c -12 4 c -7 7 c -4 12 c 0 3 c 4 12 c 7 7 c
16 4 c 18 0 c 19 -4 c 12 -7 c 3 -12 c 0 -7 c -3 -12 c -8 -3 c 79 -37 9286 1818 l 0 52 9286 1766 l 0 -37 9286 1886 l 34 -4 c -4 4 c
-3 11 c 0 11 c 3 12 c 8 7 c 11 4 c 8 0 c 11 -4 c 8 -7 c 3 -12 c 0 -11 c -3 -11 c -4 -4 c -8 -4 c 4 -4 9358 1924 l 3 4 c -3 4 c
-4 -4 c 11 -4 9313 2004 l 7 -8 c 4 -11 c 0 -4 c -4 -11 c -7 -8 c -11 -4 c -4 0 c -12 4 c -7 8 c -4 11 c 0 4 c 4 11 c 7 8 c 16 4 c
18 0 c 19 -4 c 12 -8 c 3 -11 c 0 -8 c -3 -11 c -8 -4 c 53 -38 9286 2068 l 0 57 c 79 0 9286 2068 l 11 -4 9313 2155 l 7 -8 c 4 -11 c
0 -4 c -4 -11 c -7 -8 c -11 -3 c -4 0 c -12 3 c -7 8 c -4 11 c 0 4 c 4 11 c 7 8 c 16 4 c 18 0 c 19 -4 c 12 -8 c 3 -11 c 0 -7 c
-3 -12 c -8 -4 c
showpage PGPLOT restore
 
%%Trailer
%%DocumentFonts: 
%%Pages: 1
%%EOF
