%!PS-Adobe-3.0 EPSF-3.0
%%For: tom
%%Title: PGPLOT PostScript plot
%%Creator: PGPLOT
%%CreationDate:  9-Nov-1994 14:02
%%BoundingBox: 25 18 587 774
%%DocumentFonts: (atend)
%%LanguageLevel: 1
%%Orientation: Landscape
%%Pages: (atend)
%%EndComments
%%BeginProlog
/l {moveto rlineto currentpoint stroke moveto} bind def
/c {rlineto currentpoint stroke moveto} bind def
/d {moveto 0 0 rlineto currentpoint stroke moveto} bind def
/SLW {5 mul setlinewidth} bind def
/SCF /pop load def
/BP {newpath moveto} bind def
/LP /rlineto load def
/EP {rlineto closepath eofill} bind def
/MB {gsave translate MFAC dup scale 1 setlinewidth 2 setlinecap 0 setlinejoin newpath} bind def
/ME /grestore load def
/C {0 360 arc stroke} bind def
/FC {0 360 arc fill} bind def
%%EndProlog
 
%%Page: 1 1
%%BeginPageSetup
/PGPLOT save def
0.072 0.072 scale
8150 250 translate 90 rotate
1 setlinejoin 1 setlinecap 1 SLW 1 SCF
%%EndPageSetup
0.00 setgray 1 SLW 8939 0 780 780 l 0 6239 c -8939 0 c 0 -6239 c 0 -45 1116 780 l 0 -45 1554 780 l 0 -45 1991 780 l 0 -45 2428 780 l
0 -90 2865 780 l 0 -45 3302 780 l 0 -45 3739 780 l 0 -45 4176 780 l 0 -45 4613 780 l 0 -90 5051 780 l 0 -45 5488 780 l
0 -45 5925 780 l 0 -45 6362 780 l 0 -45 6799 780 l 0 -90 7236 780 l 0 -45 7673 780 l 0 -45 8110 780 l 0 -45 8548 780 l
0 -45 8985 780 l 0 -90 9422 780 l 0 -45 1116 7064 l 0 -45 1554 7064 l 0 -45 1991 7064 l 0 -45 2428 7064 l 0 -90 2865 7109 l
0 -45 3302 7064 l 0 -45 3739 7064 l 0 -45 4176 7064 l 0 -45 4613 7064 l 0 -90 5051 7109 l 0 -45 5488 7064 l 0 -45 5925 7064 l
0 -45 6362 7064 l 0 -45 6799 7064 l 0 -90 7236 7109 l 0 -45 7673 7064 l 0 -45 8110 7064 l 0 -45 8548 7064 l 0 -45 8985 7064 l
0 -90 9422 7109 l -60 0 2775 672 l -6 -54 c 6 6 c 18 6 c 18 0 c 18 -6 c 12 -12 c 6 -18 c 0 -12 c -6 -18 c -12 -12 c -18 -6 c -18 0 c
-18 6 c -6 6 c -6 12 c -18 -6 2859 672 l -12 -18 c -6 -30 c 0 -18 c 6 -30 c 12 -18 c 18 -6 c 12 0 c 18 6 c 12 18 c 6 30 c 0 18 c
-6 30 c -12 18 c -18 6 c -12 0 c -18 -6 2979 672 l -12 -18 c -6 -30 c 0 -18 c 6 -30 c 12 -18 c 18 -6 c 12 0 c 18 6 c 12 18 c 6 30 c
0 18 c -6 30 c -12 18 c -18 6 c -12 0 c 12 6 4847 648 l 18 18 c 0 -126 c -18 -6 4985 672 l -12 -18 c -6 -30 c 0 -18 c 6 -30 c
12 -18 c 18 -6 c 12 0 c 18 6 c 12 18 c 6 30 c 0 18 c -6 30 c -12 18 c -18 6 c -12 0 c -18 -6 5105 672 l -12 -18 c -6 -30 c 0 -18 c
6 -30 c 12 -18 c 18 -6 c 12 0 c 18 6 c 12 18 c 6 30 c 0 18 c -6 30 c -12 18 c -18 6 c -12 0 c -18 -6 5225 672 l -12 -18 c -6 -30 c
0 -18 c 6 -30 c 12 -18 c 18 -6 c 12 0 c 18 6 c 12 18 c 6 30 c 0 18 c -6 30 c -12 18 c -18 6 c -12 0 c 12 6 7032 648 l 18 18 c
0 -126 c -60 0 7206 672 l -6 -54 c 6 6 c 18 6 c 18 0 c 18 -6 c 12 -12 c 6 -18 c 0 -12 c -6 -18 c -12 -12 c -18 -6 c -18 0 c -18 6 c
-6 6 c -6 12 c -18 -6 7290 672 l -12 -18 c -6 -30 c 0 -18 c 6 -30 c 12 -18 c 18 -6 c 12 0 c 18 6 c 12 18 c 6 30 c 0 18 c -6 30 c
-12 18 c -18 6 c -12 0 c -18 -6 7410 672 l -12 -18 c -6 -30 c 0 -18 c 6 -30 c 12 -18 c 18 -6 c 12 0 c 18 6 c 12 18 c 6 30 c 0 18 c
-6 30 c -12 18 c -18 6 c -12 0 c 0 6 9206 642 l 6 12 c 6 6 c 12 6 c 24 0 c 12 -6 c 6 -6 c 6 -12 c 0 -12 c -6 -12 c -12 -18 c
-60 -60 c 84 0 c -18 -6 9356 672 l -12 -18 c -6 -30 c 0 -18 c 6 -30 c 12 -18 c 18 -6 c 12 0 c 18 6 c 12 18 c 6 30 c 0 18 c -6 30 c
-12 18 c -18 6 c -12 0 c -18 -6 9476 672 l -12 -18 c -6 -30 c 0 -18 c 6 -30 c 12 -18 c 18 -6 c 12 0 c 18 6 c 12 18 c 6 30 c 0 18 c
-6 30 c -12 18 c -18 6 c -12 0 c -18 -6 9596 672 l -12 -18 c -6 -30 c 0 -18 c 6 -30 c 12 -18 c 18 -6 c 12 0 c 18 6 c 12 18 c 6 30 c
0 18 c -6 30 c -12 18 c -18 6 c -12 0 c -90 0 780 780 l -45 0 780 1719 l -90 0 780 2658 l -45 0 780 3598 l -90 0 780 4537 l
-45 0 780 5476 l -90 0 780 6415 l -90 0 9809 780 l -45 0 9764 1719 l -90 0 9809 2658 l -45 0 9764 3598 l -90 0 9809 4537 l
-45 0 9764 5476 l -90 0 9809 6415 l 6 -18 517 774 l 18 -12 c 30 -6 c 18 0 c 30 6 c 18 12 c 6 18 c 0 12 c -6 18 c -18 12 c -30 6 c
-18 0 c -30 -6 c -18 -12 c -6 -18 c 0 -12 c -6 0 547 2400 l -12 6 c -6 6 c -6 12 c 0 24 c 6 12 c 6 6 c 12 6 c 12 0 c 12 -6 c
18 -12 c 60 -60 c 0 84 c 84 84 547 2520 l 84 -84 547 2604 l -6 12 541 2664 l -18 18 c 126 0 c 6 -18 517 2802 l 18 -12 c 30 -6 c
18 0 c 30 6 c 18 12 c 6 18 c 0 12 c -6 18 c -18 12 c -30 6 c -18 0 c -30 -6 c -18 -12 c -6 -18 c 0 -12 c 63 -45 453 2927 l 0 67 c
94 0 453 2927 l 84 -60 517 4333 l 0 90 c 126 0 517 4333 l 84 84 547 4399 l 84 -84 547 4483 l -6 12 541 4543 l -18 18 c 126 0 c
6 -18 517 4681 l 18 -12 c 30 -6 c 18 0 c 30 6 c 18 12 c 6 18 c 0 12 c -6 18 c -18 12 c -30 6 c -18 0 c -30 -6 c -18 -12 c -6 -18 c
0 -12 c 63 -45 453 4805 l 0 68 c 94 0 453 4805 l -12 -6 535 6229 l -6 -18 c 0 -12 c 6 -18 c 18 -12 c 30 -6 c 30 0 c 24 6 c 12 12 c
6 18 c 0 6 c -6 18 c -12 12 c -18 6 c -6 0 c -18 -6 c -12 -12 c -6 -18 c 0 -6 c 6 -18 c 12 -12 c 18 -6 c 84 84 547 6277 l
84 -84 547 6361 l -6 12 541 6421 l -18 18 c 126 0 c 6 -18 517 6559 l 18 -12 c 30 -6 c 18 0 c 30 6 c 18 12 c 6 18 c 0 12 c -6 18 c
-18 12 c -30 6 c -18 0 c -30 -6 c -18 -12 c -6 -18 c 0 -12 c 63 -45 453 6684 l 0 67 c 94 0 453 6684 l
4 -2 780 806 l 5 0 c 4 -2 c 4 0 c 5 -1 c 4 0 c 4 0 c 5 0 c 4 -1 c 5 0 c 4 -1 c 4 0 c 5 0 c 4 1 c 4 1 c 5 1 c 4 7 c 5 25 c 4 32 c
4 14 c 5 -7 c 4 -31 c 4 -24 c 5 -14 c 4 -5 c 5 -1 c 4 0 c 4 0 c 5 0 c 4 0 c 4 0 c 5 1 c 4 0 c 5 -1 c 4 0 c 4 0 c 5 0 c 4 0 c 4 0 c
5 0 c 4 -1 c 4 1 c 5 -1 c 4 1 c 5 0 c 4 0 c 4 1 c 5 1 c 4 5 c 4 22 c 5 74 c 4 311 c 5 372 c 4 105 c 4 -101 c 5 -391 c 4 -297 c
4 -93 c 5 -7 c 4 0 c 5 0 c 4 -1 c 4 -1 c 5 0 c 4 0 c 4 0 c 5 1 c 4 3 c 5 3 c 4 1 c 4 -1 c 5 -4 c 4 -1 c 4 7 c 5 13 c 4 4 c 4 -2 c
5 -10 c 4 -11 c 5 -4 c 4 0 c 4 0 c 5 1 c 4 -18 c 5 16 1151 780 l 4 -1 c 5 -1 c 4 -1 c 4 0 c 5 5 c 4 8 c 4 5 c 5 2 c 4 -2 c 5 -1 c
4 20 c 4 91 c 5 68 c 4 16 c 4 -34 c 5 -100 c 4 -59 c 5 -11 c 4 -1 c 4 0 c 5 -1 c 4 0 c 4 0 c 5 1 c 4 0 c 4 0 c 5 -1 c 4 0 c 5 1 c
4 0 c 4 -1 c 5 1 c 4 0 c 4 0 c 5 0 c 4 1 c 5 1 c 4 8 c 4 28 c 5 91 c 4 66 c 4 13 c 5 -53 c 4 -96 c 5 -51 c 4 -7 c 4 0 c 5 2 c 4 0 c
4 1 c 5 5 c 4 23 c 5 76 c 4 48 c 4 8 c 5 -34 c 4 -82 c 4 -38 c 5 -7 c 4 5 c 4 12 c 5 6 c 4 1 c 5 -9 c 4 -13 c 4 -4 c 5 5 c 4 13 c
4 5 c 5 -1 c 4 -8 c 5 -10 c 4 -4 c 4 1 c 5 8 c 4 38 c 4 194 c 5 366 c 4 148 c 5 -36 c 4 -292 c 4 -305 c 5 -106 c 4 -11 c 4 -1 c
5 2 c 4 8 c 4 10 c 5 3 c 4 -3 c 5 -14 c 4 -9 c 4 -3 c 5 0 c 4 0 c 4 0 c 5 0 c 4 1 c 5 0 c 4 1 c 4 0 c 5 1 c 4 2 c 4 0 c 5 0 c 4 -3 c
5 -1 c 4 -2 c 4 0 c 5 0 c 4 0 c 4 1 c 5 -1 c 4 0 c 5 0 c 4 0 c 4 0 c 5 0 c 4 -1 c 4 1 c 5 0 c 4 0 c 4 -1 c 5 1 c 4 0 c 5 0 c 4 1 c
4 0 c 5 0 c 4 0 c 4 0 c 5 -1 c 4 0 c 5 0 c 4 0 c 4 0 c 5 0 c 4 0 c 4 -1 c 5 1 c 4 0 c 5 2 c 4 1 c 4 3 c 5 11 c 4 65 c 4 166 c
5 105 c 4 11 c 5 -78 c 4 -160 c 4 -80 c 5 -23 c 4 -12 c 4 7 c 5 78 c 4 207 c 4 135 c 5 15 c 4 -107 c 5 -219 c 4 -106 c 4 -18 c
5 -2 c 4 0 c 4 0 c 5 3 c 4 3 c 5 1 c 4 0 c 4 -3 c 5 -2 c 4 1 c 4 10 c 5 14 c 4 12 c 5 1 c 4 -10 c 4 -10 c 5 -4 c 4 -4 c 4 -4 c
5 -3 c 4 -4 c 5 -2 c 4 0 c 4 0 c 5 0 c 4 -1 c 4 -1 c 5 1 c 4 1 c 4 0 c 5 -1 c 4 -1 c 5 0 c 4 1 c 4 -2 c 5 0 c 4 0 c 4 1 c 5 1 c
4 0 c 5 0 c 4 5 c 4 23 c 5 18 c 4 3 c 4 -13 c 5 -25 c 4 -12 c 5 -3 c 4 -1 c 4 1 c 5 0 c 4 0 c 4 0 c 5 3 c 4 15 c 5 36 c 4 21 c 4 2 c
5 -22 c 4 -38 c 4 -15 c 5 -1 c 4 0 c 4 -1 c 5 -1 c 4 0 c 5 0 c 4 0 c 4 0 c 5 0 c 4 1 c 4 3 c 5 4 c 4 3 c 5 0 c 4 -1 c 4 -2 c 5 -1 c
4 -1 c 4 -2 c 5 -2 c 4 -1 c 5 0 c 4 0 c 4 0 c 5 2 c 4 3 c 4 1 c 5 4 c 4 30 c 4 188 c 5 321 c 4 148 c 5 -45 c 4 -247 c 4 -279 c
5 -104 c 4 -13 c 4 -6 c 5 -2 c 4 -1 c 5 0 c 4 1 c 4 0 c 5 1 c 4 -1 c 4 1 c 5 -1 c 4 -1 c 5 0 c 4 0 c 4 1 c 5 2 c 4 11 c 4 29 c
5 18 c 4 1 c 5 -15 c 4 -28 c 4 -12 c 5 -1 c 4 15 c 4 114 c 5 347 c 4 255 c 4 34 c 5 -165 c 4 -352 c 5 -193 c 4 -39 c 4 -2 c 5 -8 c
4 -6 c 4 -3 c 5 -2 c 4 -1 c 5 1 c 4 1 c 4 1 c 5 8 c 4 33 c 4 31 c 5 5 c 4 -13 c 5 -39 c 4 -21 c 4 -7 c 5 0 c 4 0 c 4 1 c 5 -1 c
4 -1 c 5 1 c 4 0 c 4 0 c 5 0 c 4 0 c 4 -1 c 5 0 c 4 1 c 4 0 c 5 0 c 4 0 c 5 0 c 4 0 c 4 0 c 5 0 c 4 0 c 4 -1 c 5 0 c 4 0 c 5 0 c
4 1 c 4 0 c 5 0 c 4 0 c 4 0 c 5 0 c 4 -1 c 5 1 c 4 -1 c 4 1 c 5 0 c 4 4 c 4 15 c 5 23 c 4 10 c 5 1 c 4 -12 c 4 -13 c 5 -6 c 4 -5 c
4 -10 c 5 -5 c 4 0 c 4 2 c 5 0 c 4 2 c 5 7 c 4 59 c 4 261 c 5 368 c 4 160 c 4 -47 c 5 -306 c 4 -343 c 5 -140 c 4 -21 c 4 -2 c 5 0 c
4 -1 c 4 0 c 5 0 c 4 0 c 5 0 c 4 1 c 4 0 c 5 0 c 4 0 c 4 1 c 5 -2 c 4 0 c 4 0 c 5 0 c 4 0 c 5 0 c 4 0 c 4 0 c 5 0 c 4 1 c 4 1 c
5 1 c 4 1 c 5 -1 c 4 -1 c 4 -1 c 5 4 c 4 11 c 4 6 c 5 -1 c 4 -5 c 5 -10 c 4 -4 c 4 1 c 5 0 c 4 0 c 4 0 c 5 0 c 4 0 c 5 -1 c 4 1 c
4 2 c 5 8 c 4 50 c 4 71 c 5 28 c 4 -2 c 4 -58 c 5 -65 c 4 -25 c 5 -2 c 4 -2 c 4 -2 c 5 1 c 4 2 c 4 3 c 5 2 c 4 2 c 5 5 c 4 11 c
4 27 c 5 77 c 4 565 c 4 2461 c 5 2702 c 4 175 c 5 -9 c 4 -2346 c 4 -2581 c 5 -949 c 4 -93 c 4 -22 c 5 -8 c 4 -7 c 5 -3 c 4 -3 c
4 -4 c 5 -1 c 4 -1 c 4 -2 c 5 -1 c 4 -1 c 4 -1 c 5 0 c 4 -2 c 5 0 c 4 1 c 4 -1 c 5 1 c 4 1 c 4 1 c 5 3 c 4 6 c 5 8 c 4 5 c 4 -2 c
5 -5 c 4 -10 c 4 -7 c 5 -1 c 4 0 c 5 1 c 4 0 c 4 1 c 5 0 c 4 1 c 4 1 c 5 2 c 4 2 c 5 2 c 4 0 c 4 4 c 5 5 c 4 13 c 4 26 c 5 212 c
4 1655 c 4 3234 c 5 868 c 4 -9 c 5 -879 c 4 -3170 c 4 -1394 c 5 1141 c 4 1684 c 4 876 c 5 -215 c 4 -1498 c 5 -1671 c 4 -748 c
4 -115 c 5 -12 c 4 -4 c 4 -3 c 5 -2 c 4 -1 c 5 -1 c 4 -1 c 4 -1 c 5 0 c 4 0 c 4 1 c 5 0 c 4 -2 c 5 -1 c 4 -2 c 4 0 c 5 -1 c 4 0 c
4 0 c 5 -1 c 4 0 c 4 0 c 5 0 c 4 0 c 5 0 c 4 0 c 4 0 c 5 1 c 4 -1 c 4 0 c 5 0 c 4 4 c 5 5 c 4 4 c 4 0 c 5 0 c 4 17 c 4 93 c 5 96 c
4 72 c 5 51 c 4 -21 c 4 -72 c 5 -61 c 4 -87 c 4 -79 c 5 -21 c 4 -2 c 4 0 c 5 0 c 4 0 c 5 0 c 4 0 c 4 1 c 5 1 c 4 1 c 4 -1 c 5 -2 c
4 -2 c 5 1 c 4 0 c 4 0 c 5 0 c 4 0 c 4 0 c 5 -1 c 4 0 c 5 1 c 4 1 c 4 2 c 5 1 c 4 -1 c 4 -1 c 5 0 c 4 2 c 5 4 c 4 3 c 4 -2 c 5 -4 c
4 -4 c 4 -1 c 5 0 c 4 0 c 4 0 c 5 0 c 4 0 c 5 1 c 4 1 c 4 5 c 5 8 c 4 10 c 4 64 c 5 194 c 4 163 c 5 42 c 4 -75 c 4 -214 c 5 -156 c
4 -38 c 4 -1 c 5 1 c 4 0 c 5 -2 c 4 -1 c 4 -3 c 5 0 c 4 1 c 4 -1 c 5 0 c 4 0 c 5 0 c 4 0 c 4 0 c 5 -1 c 4 1 c 4 -1 c 5 1 c 4 0 c
4 0 c 5 0 c 4 0 c 5 0 c 4 -1 c 4 1 c 5 0 c 4 0 c 4 0 c 5 1 c 4 -1 c 5 0 c 4 -1 c 4 1 c 5 0 c 4 1 c 4 1 c 5 -1 c 4 0 c 5 -1 c 4 0 c
4 2 c 5 4 c 4 1 c 4 1 c 5 -3 c 4 -1 c 5 -3 c 4 0 c 4 0 c 5 0 c 4 0 c 4 1 c 5 1 c 4 -1 c 4 0 c 5 -1 c 4 -1 c 5 0 c 4 0 c 4 0 c 5 2 c
4 1 c 4 2 c 5 5 c 4 8 c 5 6 c 4 1 c 4 -4 c 5 -10 c 4 -9 c 4 -2 c 5 0 c 4 -1 c 5 0 c 4 0 c 4 1 c 5 1 c 4 2 c 4 0 c 5 1 c 4 -1 c
5 -1 c 4 2 c 4 18 c 5 39 c 4 48 c 4 25 c 5 -11 c 4 -38 c 4 -53 c 5 -23 c 4 -6 c 5 -1 c 4 0 c 4 -1 c 5 -1 c 4 0 c 4 -1 c 5 1 c 4 0 c
5 0 c 4 0 c 4 0 c 5 1 c 4 0 c 4 0 c 5 0 c 4 0 c 5 0 c 4 2 c 4 6 c 5 5 c 4 0 c 4 -2 c 5 -4 c 4 -2 c 4 0 c 5 -1 c 4 -1 c 5 0 c 4 18 c
4 48 c 5 32 c 4 8 c 4 -13 c 5 -46 c 4 -29 c 5 -8 c 4 -5 c 4 5 c 5 5 c 4 3 c 4 -1 c 5 -7 c 4 -6 c 5 -2 c 4 0 c 4 0 c 5 0 c 4 0 c
4 0 c 5 2 c 4 4 c 5 26 c 4 218 c 4 560 c 5 396 c 4 57 c 4 -251 c 5 -596 c 4 -328 c 4 -72 c 5 -1 c 4 7 c 5 29 c 4 251 c 4 1251 c
5 1555 c 4 796 c 4 -138 c 5 -1362 c 4 -1523 c 5 -633 c 4 -32 c 4 475 c 5 744 c 4 339 c 4 -84 c 5 -621 c 4 -751 c 5 -269 c 4 -39 c
4 -2 c 5 -2 c 4 -1 c 4 -1 c 5 2 c 4 9 c 5 8 c 4 5 c 4 16 c 5 72 c 4 71 c 4 35 c 5 -19 c 4 -12 c 4 21 c 5 32 c 4 4 c 5 -68 c 4 -105 c
4 -63 c 5 -10 c 4 -2 c 4 -1 c 5 -1 c 4 1 c 5 1 c 4 0 c 4 6 c 5 8 c 4 5 c 4 1 c 5 -3 c 4 -6 c 5 -1 c 4 1 c 4 0 c 5 -1 c 4 -5 c 4 -3 c
5 -1 c 4 0 c 5 2 c 4 1 c 4 -1 c 5 0 c 4 -1 c 4 1 c 5 1 c 4 2 c 4 5 c 5 12 c 4 26 c 5 125 c 4 694 c 4 1222 c 5 750 c 4 81 c 4 -778 c
5 -1279 c 4 -677 c 5 -134 c 4 -24 c 4 -5 c 5 -2 c 4 -2 c 4 -4 c 5 1 c 4 2 c 5 30 c 4 161 c 4 245 c 5 117 c 4 -27 c 4 -193 c 5 -225 c
4 -106 c 5 -10 c 4 -1 c 4 5 c 5 71 c 4 282 c 4 337 c 5 114 c 4 -76 c 4 -322 c 5 -301 c 4 -111 c 5 -8 c 4 0 c 4 4 c 5 4 c 4 2 c
4 -1 c 5 -2 c 4 -4 c 5 -1 c 4 -1 c 4 -1 c 5 0 c 4 0 c 4 0 c 5 0 c 4 -1 c 5 1 c 4 5 c 4 9 c 5 13 c 4 20 c 4 22 c 5 3 c 4 -9 c 4 -24 c
5 -29 c 4 -10 c 5 -2 c 4 -1 c 4 0 c 5 0 c 4 -1 c 4 0 c 5 0 c 4 0 c 5 2 c 4 1 c 4 1 c 5 1 c 4 -1 c 4 -2 c 5 0 c 4 0 c 5 1 c 4 7 c
4 42 c 5 67 c 4 29 c 4 -2 c 5 -48 c 4 -61 c 5 -27 c 4 5 c 4 21 c 5 13 c 4 -1 c 4 -11 c 5 -22 c 4 -5 c 4 12 c 5 7 c 4 2 c 5 -8 c
4 -12 c 4 -6 c 5 -1 c 4 1 c 4 0 c 5 -2 c 4 -2 c 5 -1 c 4 -1 c 4 1 c 5 1 c 4 2 c 4 14 c 5 41 c 4 35 c 5 6 c 4 -19 c 4 -44 c 5 -31 c
4 -7 c 4 0 c 5 0 c 4 0 c 5 2 c 4 2 c 4 2 c 5 -1 c 4 -1 c 4 -2 c 5 -1 c 4 0 c 4 1 c 5 -1 c 4 0 c 5 0 c 4 1 c 4 21 c 5 78 c 4 79 c
4 40 c 5 -13 c 4 -75 c 5 -88 c 4 -33 c 4 -2 c 5 5 c 4 4 c 4 0 c 5 -5 c 4 -7 c 5 -3 c 4 -1 c 4 -1 c 5 0 c 4 0 c 4 1 c 5 2 c 4 -1 c
5 1 c 4 0 c 4 -1 c 5 1 c 4 5 c 4 5 c 5 1 c 4 -2 c 4 -5 c 5 -5 c 4 -2 c 5 0 c 4 3 c 4 3 c 5 2 c 4 0 c 4 -3 c 5 -3 c 4 -2 c 5 -1 c
4 1 c 4 5 c 5 6 c 4 3 c 4 2 c 5 10 c 4 56 c 5 86 c 4 41 c 4 -10 c 5 -59 c 4 -91 c 4 -30 c 5 1 c 4 1 c 4 -5 c 5 -8 c 4 -2 c 5 18 c
4 23 c 4 7 c 5 -3 c 4 -18 c 4 -22 c 5 6 c 4 56 c 5 56 c 4 18 c 4 -10 c 5 -54 c 4 -56 c 4 -15 c 5 -2 c 4 -3 c 5 0 c 4 -23 c 4 66 c
5 198 c 4 236 c 4 83 c 5 -34 c 4 -202 c 5 -240 c 4 -56 c 4 32 c 5 13 c 4 0 c 4 -21 c 5 -35 c 4 -14 c 4 -2 c 5 1 c 4 4 c 5 9 c 4 16 c
4 121 c 5 665 c 4 1014 c 4 417 c 5 385 c 4 20 c 5 -746 c 4 -515 c 4 -537 c 5 -252 c 4 1416 c 4 2006 c 5 702 c 4 -358 c 5 -1638 c
4 -2006 c 4 -638 c 5 -68 c 4 -6 c 4 -4 c 5 -4 c 4 -2 c 5 -2 c 4 0 c 4 0 c 5 -2 c 4 0 c 4 -1 c 5 0 c 4 1 c 4 0 c 5 0 c 4 -1 c 5 0 c
4 1 c 4 1 c 5 1 c 4 -1 c 4 -3 c 5 -2 c 4 -1 c 5 -1 c 4 0 c 4 0 c 5 0 c 4 -1 c 4 0 c 5 0 c 4 0 c 5 1 c 4 1 c 4 3 c 5 17 c 4 24 c
4 9 c 5 -1 c 4 -20 c 5 -22 c 4 2 c 4 38 c 5 65 c 4 25 c 4 3 c 5 -38 c 4 -65 c 4 -27 c 5 -6 c 4 -4 c 5 -1 c 4 1 c 4 -1 c 5 -1 c
4 -1 c 4 0 c 5 -1 c 4 0 c 5 -1 c 4 1 c 4 0 c 5 0 c 4 1 c 4 1 c 5 5 c 4 8 c 5 5 c 4 -1 c 4 -4 c 5 -7 c 4 -4 c 4 10 c 5 47 c 4 56 c
5 15 c 4 -13 c 4 -46 c 5 -37 c 4 32 c 4 27 c 5 0 c 4 -14 c 4 -41 c 5 -17 c 4 53 c 5 225 c 4 374 c 4 226 c 5 356 c 4 438 c 4 -127 c
5 -219 c 4 -416 c 5 -670 c 4 -223 c 4 -28 c 5 -3 c 4 0 c 4 -1 c 5 -2 c 4 -3 c 5 -2 c 4 1 c 4 2 c 5 14 c 4 42 c 4 28 c 5 5 c 4 -15 c
4 -39 c 5 -22 c 4 16 c 5 32 c 4 3 c 4 2 c 5 -7 c 4 -6 c 4 -2 c 5 -4 c 4 0 c 5 4 c 4 11 c 4 2 c 5 -16 c 4 -25 c 4 -19 c 5 -5 c 4 1 c
5 1 c 4 -1 c 4 3 c 5 10 c 4 58 c 4 317 c 5 660 c 4 280 c 5 -46 c 4 -322 c 4 -660 c 5 -260 c 4 -36 c 4 -3 c 5 -2 c 4 1 c 4 0 c 5 -1 c
4 0 c 5 0 c 4 -1 c 4 -1 c 5 0 c 4 -1 c 4 1 c 5 1 c 4 6 c 5 2 c 4 2 c 4 1 c 5 -1 c 4 -4 c 4 -2 c 5 -3 c 4 -4 c 5 -1 c 4 0 c 4 0 c
5 1 c 4 1 c 4 1 c 5 0 c 4 0 c 5 3 c 4 17 c 4 27 c 5 9 c 4 -3 c 4 -18 c 5 -28 c 4 -9 c 4 -1 c 5 0 c 4 0 c 5 0 c 4 0 c 4 0 c 5 -1 c
4 1 c 4 0 c 5 2 c 4 0 c 5 0 c 4 -1 c 4 0 c 5 -1 c 4 0 c 4 0 c 5 -1 c 4 1 c 5 0 c 4 0 c 4 0 c 5 1 c 4 -1 c 4 0 c 5 0 c 4 0 c 5 0 c
4 0 c 4 0 c 5 0 c 4 0 c 4 0 c 5 0 c 4 1 c 4 0 c 5 0 c 4 1 c 5 0 c 4 0 c 4 0 c 5 -1 c 4 -1 c 4 1 c 5 1 c 4 0 c 5 1 c 4 2 c 4 1 c
5 6 c 4 26 c 4 39 c 5 6 c 4 -8 c 5 -25 c 4 -11 c 4 97 c 5 121 c 4 31 c 4 -19 c 5 -98 c 4 -135 c 5 -30 c 4 -1 c 4 2 c 5 2 c 4 13 c
4 58 c 5 110 c 4 69 c 4 29 c 5 -17 c 4 -102 c 5 -71 c 4 -45 c 4 -40 c 5 -9 c 4 -1 c 4 1 c 5 1 c 4 0 c 5 -1 c 4 -2 c 4 -1 c 5 -1 c
4 1 c 4 0 c 5 0 c 4 1 c 5 2 c 4 3 c 4 4 c 5 5 c 4 -1 c 4 -2 c 5 -2 c 4 5 c 4 8 c 5 2 c 4 -1 c 5 -6 c 4 -8 c 4 6 c 5 2 c 4 2 c 4 4 c
5 -2 c 4 -3 c 5 -1 c 4 -7 c 4 -5 c 5 0 c 4 -2 c 4 -3 c 5 -1 c 4 1 c 5 3 c 4 2 c 4 0 c 5 0 c 4 -3 c 4 -2 c 5 1 c 4 1 c 5 0 c 4 0 c
4 -2 c 5 -1 c 4 -1 c 4 0 c 5 0 c 4 0 c 4 0 c 5 0 c 4 0 c 5 0 c 4 0 c 4 -1 c 5 1 c 4 1 c 4 -1 c 5 1 c 4 3 c 5 3 c 4 5 c 4 1 c 5 -1 c
4 -4 c 4 -5 c 5 -2 c 4 0 c 5 0 c 4 0 c 4 -1 c 5 0 c 4 0 c 4 1 c 5 1 c 4 0 c 5 -1 c 4 0 c 4 -1 c 5 0 c 4 0 c 4 0 c 5 3 c 4 9 c 4 8 c
5 2 c 4 -2 c 5 -11 c 4 -8 c 4 -1 c 5 3 c 4 13 c 4 18 c 5 4 c 4 -2 c 5 -12 c 4 -16 c 4 -1 c 5 9 c 4 3 c 4 0 c 5 -5 c 4 -10 c 5 -3 c
4 -1 c 4 -1 c 5 0 c 4 0 c 4 0 c 5 0 c 4 -1 c 5 1 c 4 0 c 4 1 c 5 -1 c 4 5 c 4 19 c 5 24 c 4 4 c 4 -2 c 5 -15 c 4 -21 c 5 -2 c 4 5 c
4 10 c 5 2 c 4 -3 c 4 -6 c 5 -12 c 4 -5 c 5 1 c 4 1 c 4 -1 c 5 0 c 4 -1 c 4 -2 c 5 1 c 4 -1 c 5 2 c 4 10 c 4 56 c 5 103 c 4 33 c
4 -2 c 5 -48 c 4 -109 c 5 -40 c 4 -4 c 4 -1 c 5 2 c 4 7 c 4 6 c 5 3 c 4 -3 c 4 -7 c 5 -7 c 4 0 c 5 12 c 4 32 c 4 23 c 5 2 c 4 -11 c
4 -34 c 5 -23 c 4 -1 c 5 2 c 4 1 c 4 0 c 5 -2 c 4 -2 c 4 1 c 5 7 c 4 12 c 5 2 c 4 -1 c 4 -7 c 5 -11 c 4 -3 c 4 4 c 5 10 c 4 4 c
4 1 c 5 -3 c 4 -10 c 5 -5 c 4 -1 c 4 0 c 5 1 c 4 7 c 4 7 c 5 8 c 4 21 c 5 18 c 4 -6 c 4 -5 c 5 -20 c 4 -23 c 4 -3 c 5 -2 c 4 -1 c
5 -1 c 4 0 c 4 2 c 5 10 c 4 7 c 4 2 c 5 -3 c 4 -8 c 5 -9 c 4 -2 c 4 0 c 5 0 c 4 0 c 4 1 c 5 0 c 4 0 c 4 0 c 5 0 c 4 0 c 5 2 c 4 8 c
4 10 c 5 11 c 4 3 c 4 -7 c 5 -10 c 4 -13 c 5 -5 c 4 -1 c 4 0 c 5 0 c 4 1 c 4 0 c 5 0 c 4 0 c 5 -1 c 4 0 c 4 1 c 5 1 c 4 0 c 4 0 c
5 0 c 4 10 c 5 53 c 4 77 c 4 37 c 5 7 c 4 -43 c 4 -84 c 5 -42 c 4 -14 c 4 -2 c 5 0 c 4 0 c 5 0 c 4 0 c 4 0 c 5 0 c 4 0 c 4 1 c 5 8 c
4 23 c 5 15 c 4 0 c 4 -8 c 5 -21 c 4 -14 c 4 -1 c 5 0 c 4 -1 c 5 10 c 4 40 c 4 44 c 5 6 c 4 -7 c 4 -36 c 5 -48 c 4 -9 c 5 -2 c 4 0 c
4 0 c 5 0 c 4 1 c 4 0 c 5 -1 c 4 0 c 4 1 c 5 0 c 4 1 c 5 0 c 4 -1 c 4 -1 c 5 0 c 4 1 c 4 0 c 5 0 c 4 0 c 5 1 c 4 3 c 4 16 c 5 131 c
4 442 c 4 370 c 5 45 c 4 -72 c 5 -375 c 4 -274 c 4 70 c 5 -21 c 4 -36 c 4 -104 c 5 -158 c 4 -34 c 4 -3 c 5 -1 c 4 0 c 5 0 c 4 1 c
4 -1 c 5 0 c 4 -1 c 4 1 c 5 1 c 4 0 c 5 0 c 4 -1 c 4 -2 c 5 1 c 4 0 c 4 0 c 5 -1 c 4 1 c 5 0 c 4 3 c 4 1 c 5 2 c 4 -2 c 4 0 c 5 -2 c
4 -2 c 5 -1 c 4 -1 c 4 0 c 5 1 c 4 1 c 4 1 c 5 -1 c 4 -1 c 4 0 c 5 0 c 4 2 c 5 5 c 4 3 c 4 6 c 5 0 c 4 -5 c 4 -2 c 5 -6 c 4 -3 c
5 -1 c 4 0 c 4 1 c 5 2 c 4 9 c 4 28 c 5 49 c 4 19 c 5 -7 c 4 -24 c 4 -48 c 5 -24 c 4 -2 c 4 -1 c 5 0 c 4 -1 c 5 -1 c 4 0 c 4 1 c
5 2 c 4 2 c 4 1 c 5 0 c 4 -1 c 4 -3 c 5 -1 c 4 -1 c 5 1 c 4 -1 c 4 0 c 5 0 c 4 0 c 4 0 c 5 -1 c 4 0 c 5 1 c 4 1 c 4 7 c 5 17 c
4 18 c 4 29 c 5 12 c 4 -14 c 5 -16 c 4 -31 c 4 -21 c 5 -2 c 4 -1 c 4 0 c 5 2 c 4 2 c 5 1 c 4 0 c 4 -2 c 5 -1 c 4 -2 c 4 0 c 5 0 c
4 0 c 4 0 c 5 0 c 4 0 c 5 1 c 4 0 c 4 0 c 5 1 c 4 -1 c 4 0 c 5 -1 c 4 0 c 5 0 c 4 0 c 4 0 c 5 1 c 4 0 c 4 0 c 5 -1 c 4 0 c 5 0 c
4 1 c 4 -1 c 5 1 c 4 4 c 4 10 c 5 4 c 4 0 c 5 -3 c 4 -10 c 4 -6 c 5 0 c 4 0 c 4 0 c 5 0 c 4 0 c 4 -1 c 5 1 c 4 0 c 5 0 c 4 0 c 4 0 c
5 1 c 4 2 c 4 10 c 5 45 c 4 63 c 5 15 c 4 -1 c 4 -35 c 5 -68 c 4 -26 c 4 -3 c 5 -1 c 4 -1 c 5 1 c 4 -2 c 4 0 c 5 0 c 4 0 c 4 0 c
5 0 c 4 1 c 4 0 c 5 0 c 4 0 c 5 1 c 4 -1 c 4 0 c 5 0 c 4 -1 c 4 0 c 5 0 c 4 0 c 5 1 c 4 1 c 4 0 c 5 0 c 4 0 c 4 1 c 5 9 c 4 61 c
5 134 c 4 50 c 4 -5 c 5 -39 c 4 -133 c 4 -75 c 5 -4 c 4 0 c 5 0 c 4 -1 c 4 0 c 5 1 c 4 -1 c 4 0 c 5 0 c 4 0 c 4 1 c 5 4 c 4 4 c
5 4 c 4 1 c 4 -3 c 5 -4 c 4 -5 c 4 -1 c 5 0 c 4 0 c 5 0 c 4 0 c 4 1 c 5 2 c 4 3 c 4 0 c 5 0 c 4 -2 c 5 -3 c 4 0 c 4 -1 c 5 0 c
4 -1 c 4 0 c 5 1 c 4 1 c 5 1 c 4 1 c 4 4 c 5 18 c 4 92 c 4 154 c 5 69 c 4 1 c 4 -68 c 5 -160 c 4 -95 c 5 -12 c 4 -1 c 4 -2 c 5 -1 c
4 0 c 4 0 c 5 -1 c 4 1 c 5 0 c 4 0 c 4 0 c 5 0 c 4 1 c 4 0 c 5 5 c 4 16 c 5 17 c 4 2 c 4 -2 c 5 -13 c 4 -18 c 4 -4 c
5 0 c 4 3 c 5 11 c 4 10 c 4 -42 c 4 30 9549 780 l 4 -10 c 5 -1 c 4 1 c 4 1 c 5 0 c 4 2 c 5 5 c 4 3 c 4 1 c 5 5 c 4 2 c 4 3 c 5 5 c
4 8 c 5 17 c 4 55 c 4 379 c 5 2605 c 4 2937 c 4 9 c 5 -6 c 4 -1 c 5 -63 c 4 -5235 c 4 -622 c 5 -57 c 4 -15 c 4 -12 c 5 -5 c 4 -3 c
5 -2 c 4 1 c 4 -1 c 5 -1 c 4 -3 c 4 -3 c 5 -2 c 4 -2 c
0 -126 3030 418 l 54 0 3030 418 l 18 -6 c 6 -6 c 6 -12 c 0 -12 c -6 -12 c -6 -6 c -18 -6 c -54 0 c 42 -66 3072 358 l
-12 -6 3180 376 l -12 -12 c -6 -18 c 0 -12 c 6 -18 c 12 -12 c 12 -6 c 18 0 c 12 6 c 12 12 c 6 18 c 0 12 c -6 18 c -12 12 c -12 6 c
-18 0 c 24 -84 3264 376 l -24 -84 3312 376 l 24 -84 3312 376 l -24 -84 3360 376 l 108 0 3402 364 l 108 0 3402 328 l 66 0 3660 418 l
-36 -48 c 18 0 c 12 -6 c 6 -6 c 6 -18 c 0 -12 c -6 -18 c -12 -12 c -18 -6 c -18 0 c -18 6 c -6 6 c -6 12 c -60 0 3840 418 l -6 -54 c
6 6 c 18 6 c 18 0 c 18 -6 c 12 -12 c 6 -18 c 0 -12 c -6 -18 c -12 -12 c -18 -6 c -18 0 c -18 6 c -6 6 c -6 12 c 12 6 4290 394 l
18 18 c 0 -126 c -6 -6 4404 376 l 6 -6 c 6 6 c -6 6 c -6 -6 4404 304 l 6 -6 c 6 6 c -6 6 c -48 -126 4584 418 l 48 -126 4584 418 l
60 0 4554 334 l 0 -84 4662 376 l 6 18 4662 340 l 12 12 c 12 6 c 18 0 c -12 12 4806 358 l -12 6 c -18 0 c -12 -6 c -12 -12 c -6 -18 c
0 -12 c 6 -18 c 12 -12 c 12 -6 c 18 0 c 12 6 c 12 12 c 108 0 4848 346 l -18 -6 5034 418 l -12 -18 c -6 -30 c 0 -18 c 6 -30 c
12 -18 c 18 -6 c 12 0 c 18 6 c 12 18 c 6 30 c 0 18 c -6 30 c -12 18 c -18 6 c -12 0 c 66 0 5130 418 l -36 -48 c 18 0 c 12 -6 c
6 -6 c 6 -18 c 0 -12 c -6 -18 c -12 -12 c -18 -6 c -18 0 c -18 6 c -6 6 c -6 12 c -59 0 5309 418 l -6 -54 c 6 6 c 17 6 c 18 0 c
18 -6 c 12 -12 c 6 -18 c 0 -12 c -6 -18 c -12 -12 c -18 -6 c -18 0 c -17 6 c -6 6 c -6 12 c -6 -6 5369 304 l 6 -6 c 6 6 c -6 6 c
-12 0 5459 418 l -12 -6 c -6 -18 c 0 -102 c 42 0 5411 376 l 6 -6 5489 418 l 6 6 c -6 6 c -6 -6 c 0 -84 5495 376 l 0 -102 5549 418 l
6 -18 c 12 -6 c 12 0 c 42 0 5531 376 l -6 12 5675 358 l -18 6 c -18 0 c -18 -6 c -6 -12 c 6 -12 c 12 -6 c 30 -6 c 12 -6 c 6 -12 c
0 -6 c -6 -12 c -18 -6 c -18 0 c -18 6 c -6 12 c 0 -192 6005 442 l 0 -192 6011 442 l 42 0 6005 442 l 42 0 6005 250 l 0 6 6089 388 l
6 12 c 6 6 c 12 6 c 24 0 c 12 -6 c 6 -6 c 6 -12 c 0 -12 c -6 -12 c -12 -18 c -60 -60 c 84 0 c -6 -6 6215 376 l 6 -6 c 6 6 c -6 6 c
-6 -6 6215 304 l 6 -6 c 6 6 c -6 6 c -48 -126 6395 418 l 48 -126 6395 418 l 60 0 6365 334 l 0 -84 6473 376 l 6 18 6473 340 l 12 12 c
12 6 c 18 0 c -12 12 6617 358 l -12 6 c -18 0 c -12 -6 c -12 -12 c -6 -18 c 0 -12 c 6 -18 c 12 -12 c 12 -6 c 18 0 c 12 6 c 12 12 c
108 0 6659 346 l -18 -6 6845 418 l -12 -18 c -6 -30 c 0 -18 c 6 -30 c 12 -18 c 18 -6 c 12 0 c 18 6 c 12 18 c 6 30 c 0 18 c -6 30 c
-12 18 c -18 6 c -12 0 c 66 0 6941 418 l -36 -48 c 18 0 c 12 -6 c 6 -6 c 6 -18 c 0 -12 c -6 -18 c -12 -12 c -18 -6 c -18 0 c -18 6 c
-6 6 c -6 12 c -6 12 7127 400 l -18 6 c -12 0 c -18 -6 c -12 -18 c -6 -30 c 0 -30 c 6 -24 c 12 -12 c 18 -6 c 6 0 c 18 6 c 12 12 c
6 18 c 0 6 c -6 18 c -12 12 c -18 6 c -6 0 c -18 -6 c -12 -12 c -6 -18 c -6 -6 7181 304 l 6 -6 c 6 6 c -6 6 c -12 0 7271 418 l
-12 -6 c -6 -18 c 0 -102 c 42 0 7223 376 l 6 -6 7301 418 l 6 6 c -6 6 c -6 -6 c 0 -84 7307 376 l 0 -102 7361 418 l 6 -18 c 12 -6 c
12 0 c 42 0 7343 376 l -6 12 7487 358 l -18 6 c -18 0 c -18 -6 c -6 -12 c 6 -12 c 12 -6 c 30 -6 c 12 -6 c 6 -12 c 0 -6 c -6 -12 c
-18 -6 c -18 0 c -18 6 c -6 12 c 0 -192 7559 442 l 0 -192 7565 442 l 42 0 7523 442 l 42 0 7523 250 l
0 -250 868 1317 l 0 -38 824 1434 l 34 -4 c -3 4 c -4 11 c 0 12 c 4 11 c 7 8 c 11 3 c 8 0 c 11 -3 c 8 -8 c 4 -11 c 0 -12 c -4 -11 c
-4 -4 c -7 -4 c 4 -11 824 1483 l 8 -4 c 7 0 c 8 4 c 4 7 c 3 15 c 4 12 c 8 7 c 7 4 c 12 0 c 7 -4 c 4 -4 c 4 -11 c 0 -15 c -4 -11 c
-4 -4 c -7 -4 c -12 0 c -7 4 c -8 7 c -4 12 c -3 15 c -4 7 c -8 4 c -7 0 c -8 -4 c -4 -11 c 0 -15 c 4 -11 824 1558 l 8 -4 c 7 0 c
8 4 c 4 8 c 3 15 c 4 11 c 8 8 c 7 3 c 12 0 c 7 -3 c 4 -4 c 4 -11 c 0 -16 c -4 -11 c -4 -4 c -7 -3 c -12 0 c -7 3 c -8 8 c -4 11 c
-3 15 c -4 8 c -8 4 c -7 0 c -8 -4 c -4 -11 c 0 -16 c 11 -3 851 1664 l 8 -8 c 3 -11 c 0 -4 c -3 -11 c -8 -8 c -11 -4 c -4 0 c
-11 4 c -8 8 c -4 11 c 0 4 c 4 11 c 8 8 c 15 3 c 19 0 c 19 -3 c 11 -8 c 4 -11 c 0 -8 c -4 -11 c -8 -4 c 4 -3 896 1698 l 4 3 c -4 4 c
-4 -4 c 11 -4 851 1778 l 8 -8 c 3 -11 c 0 -4 c -3 -11 c -8 -8 c -11 -3 c -4 0 c -11 3 c -8 8 c -4 11 c 0 4 c 4 11 c 8 8 c 15 4 c
19 0 c 19 -4 c 11 -8 c 4 -11 c 0 -8 c -4 -11 c -8 -4 c 0 -37 824 1849 l 34 -4 c -3 4 c -4 11 c 0 11 c 4 12 c 7 7 c 11 4 c 8 0 c
11 -4 c 8 -7 c 4 -12 c 0 -11 c -4 -11 c -4 -4 c -7 -4 c 0 42 824 1887 l 31 -23 c 0 12 c 3 7 c 4 4 c 11 4 c 8 0 c 11 -4 c 8 -8 c
4 -11 c 0 -11 c -4 -12 c -4 -3 c -7 -4 c 0 -250 1016 2126 l 0 -38 972 2243 l 34 -4 c -3 4 c -4 11 c 0 12 c 4 11 c 7 8 c 11 3 c 8 0 c
11 -3 c 8 -8 c 4 -11 c 0 -12 c -4 -11 c -4 -4 c -7 -3 c 4 -11 972 2292 l 8 -4 c 7 0 c 8 4 c 4 7 c 3 15 c 4 12 c 8 7 c 7 4 c 12 0 c
7 -4 c 4 -4 c 4 -11 c 0 -15 c -4 -11 c -4 -4 c -7 -4 c -12 0 c -7 4 c -8 7 c -4 12 c -3 15 c -4 7 c -8 4 c -7 0 c -8 -4 c -4 -11 c
0 -15 c 11 -4 999 2398 l 8 -7 c 3 -12 c 0 -4 c -3 -11 c -8 -7 c -11 -4 c -4 0 c -11 4 c -8 7 c -4 11 c 0 4 c 4 12 c 8 7 c 15 4 c
19 0 c 19 -4 c 11 -7 c 4 -12 c 0 -7 c -4 -12 c -8 -3 c -3 7 987 2436 l -12 12 c 80 0 c 4 -3 1044 2507 l 4 3 c -4 4 c -4 -4 c
53 -37 972 2575 l 0 56 c 80 0 972 2575 l 0 -38 972 2659 l 34 -4 c -3 4 c -4 11 c 0 12 c 4 11 c 7 7 c 11 4 c 8 0 c 11 -4 c 8 -7 c
4 -11 c 0 -12 c -4 -11 c -4 -4 c -7 -4 c -3 8 987 2700 l -12 11 c 80 0 c 0 -249 1395 1400 l 0 -37 1351 1517 l 34 -4 c -4 4 c -3 11 c
0 11 c 3 12 c 8 7 c 11 4 c 8 0 c 11 -4 c 8 -7 c 3 -12 c 0 -11 c -3 -11 c -4 -4 c -8 -4 c 4 -12 1351 1567 l 7 -4 c 8 0 c 8 4 c 3 8 c
4 15 c 4 11 c 7 8 c 8 4 c 11 0 c 8 -4 c 4 -4 c 3 -11 c 0 -15 c -3 -12 c -4 -4 c -8 -3 c -11 0 c -8 3 c -7 8 c -4 11 c -4 16 c -3 7 c
-8 4 c -8 0 c -7 -4 c -4 -11 c 0 -15 c 11 -3 1378 1672 l 7 -8 c 4 -11 c 0 -4 c -4 -11 c -7 -8 c -11 -4 c -4 0 c -12 4 c -7 8 c
-4 11 c 0 4 c 4 11 c 7 8 c 16 3 c 18 0 c 19 -3 c 12 -8 c 3 -11 c 0 -8 c -3 -11 c -8 -4 c 0 -38 1351 1744 l 34 -3 c -4 3 c -3 12 c
0 11 c 3 11 c 8 8 c 11 4 c 8 0 c 11 -4 c 8 -8 c 3 -11 c 0 -11 c -3 -12 c -4 -3 c -8 -4 c 4 -4 1423 1782 l 3 4 c -3 4 c -4 -4 c
-4 0 1370 1816 l -7 4 c -4 4 c -4 7 c 0 15 c 4 8 c 4 4 c 7 3 c 8 0 c 7 -3 c 12 -8 c 37 -38 c 0 53 c 4 -12 1351 1907 l 7 -3 c 8 0 c
8 3 c 3 8 c 4 15 c 4 11 c 7 8 c 8 4 c 11 0 c 8 -4 c 4 -4 c 3 -11 c 0 -15 c -3 -12 c -4 -3 c -8 -4 c -11 0 c -8 4 c -7 7 c -4 12 c
-4 15 c -3 7 c -8 4 c -8 0 c -7 -4 c -4 -11 c 0 -15 c -4 0 1370 1967 l -7 4 c -4 4 c -4 7 c 0 15 c 4 8 c 4 4 c 7 4 c 8 0 c 7 -4 c
12 -8 c 37 -38 c 0 53 c 0 -249 1502 1992 l 0 -38 1459 2110 l 34 -4 c -4 4 c -4 11 c 0 11 c 4 12 c 7 7 c 12 4 c 7 0 c 12 -4 c 7 -7 c
4 -12 c 0 -11 c -4 -11 c -4 -4 c -7 -4 c 3 -12 1459 2159 l 8 -3 c 8 0 c 7 3 c 4 8 c 4 15 c 3 11 c 8 8 c 8 4 c 11 0 c 7 -4 c 4 -4 c
4 -11 c 0 -15 c -4 -12 c -4 -3 c -7 -4 c -11 0 c -8 4 c -8 7 c -3 11 c -4 16 c -4 7 c -7 4 c -8 0 c -8 -4 c -3 -11 c 0 -15 c
11 -4 1485 2265 l 8 -8 c 4 -11 c 0 -4 c -4 -11 c -8 -8 c -11 -4 c -4 0 c -11 4 c -8 8 c -3 11 c 0 4 c 3 11 c 8 8 c 15 4 c 19 0 c
19 -4 c 11 -8 c 4 -11 c 0 -8 c -4 -11 c -7 -4 c -8 -4 1470 2340 l -3 -11 c 0 -8 c 3 -11 c 12 -7 c 19 -4 c 19 0 c 15 4 c 7 7 c 4 11 c
0 4 c -4 12 c -7 7 c -12 4 c -3 0 c -12 -4 c -7 -7 c -4 -12 c 0 -4 c 4 -11 c 7 -7 c 12 -4 c 4 -4 1530 2374 l 4 4 c -4 4 c -4 -4 c
0 42 1459 2412 l 30 -23 c 0 11 c 4 8 c 3 4 c 12 3 c 7 0 c 12 -3 c 7 -8 c 4 -11 c 0 -12 c -4 -11 c -4 -4 c -7 -4 c -8 -4 1470 2529 l
-3 -11 c 0 -8 c 3 -11 c 12 -7 c 19 -4 c 19 0 c 15 4 c 7 7 c 4 11 c 0 4 c -4 12 c -7 7 c -12 4 c -3 0 c -12 -4 c -7 -7 c -4 -12 c
0 -4 c 4 -11 c 7 -7 c 12 -4 c 0 42 1459 2563 l 30 -23 c 0 11 c 4 8 c 3 4 c 12 3 c 7 0 c 12 -3 c 7 -8 c 4 -11 c 0 -12 c -4 -11 c
-4 -4 c -7 -3 c 0 -250 1849 1688 l 0 -38 1806 1805 l 34 -4 c -4 4 c -4 11 c 0 12 c 4 11 c 7 8 c 12 3 c 7 0 c 12 -3 c 7 -8 c 4 -11 c
0 -12 c -4 -11 c -4 -4 c -7 -4 c 3 -11 1806 1854 l 8 -4 c 7 0 c 8 4 c 4 7 c 4 15 c 3 12 c 8 7 c 7 4 c 12 0 c 7 -4 c 4 -4 c 4 -11 c
0 -15 c -4 -11 c -4 -4 c -7 -4 c -12 0 c -7 4 c -8 7 c -3 12 c -4 15 c -4 7 c -8 4 c -7 0 c -8 -4 c -3 -11 c 0 -15 c
11 -4 1832 1960 l 8 -8 c 4 -11 c 0 -4 c -4 -11 c -8 -8 c -11 -3 c -4 0 c -11 3 c -8 8 c -3 11 c 0 4 c 3 11 c 8 8 c 15 4 c 19 0 c
19 -4 c 11 -8 c 4 -11 c 0 -7 c -4 -12 c -7 -4 c 11 -3 1832 2035 l 8 -8 c 4 -11 c 0 -4 c -4 -11 c -8 -8 c -11 -4 c -4 0 c -11 4 c
-8 8 c -3 11 c 0 4 c 3 11 c 8 8 c 15 3 c 19 0 c 19 -3 c 11 -8 c 4 -11 c 0 -8 c -4 -11 c -7 -4 c 4 -3 1877 2069 l 4 3 c -4 4 c
-4 -4 c 3 -11 1806 2118 l 8 -4 c 7 0 c 8 4 c 4 8 c 4 15 c 3 11 c 8 8 c 7 4 c 12 0 c 7 -4 c 4 -4 c 4 -11 c 0 -16 c -4 -11 c -4 -4 c
-7 -3 c -12 0 c -7 3 c -8 8 c -3 11 c -4 15 c -4 8 c -8 4 c -7 0 c -8 -4 c -3 -11 c 0 -16 c 52 -38 1806 2213 l 0 57 c
79 0 1806 2213 l 52 -38 1806 2289 l 0 56 c 79 0 1806 2289 l 0 -250 2124 1307 l 0 -38 2080 1424 l 34 -4 c -3 4 c -4 11 c 0 12 c
4 11 c 7 8 c 12 3 c 7 0 c 12 -3 c 7 -8 c 4 -11 c 0 -12 c -4 -11 c -4 -4 c -7 -3 c 11 -3 2107 1503 l 8 -8 c 4 -11 c 0 -4 c -4 -12 c
-8 -7 c -11 -4 c -4 0 c -11 4 c -8 7 c -4 12 c 0 4 c 4 11 c 8 8 c 15 3 c 19 0 c 19 -3 c 11 -8 c 4 -11 c 0 -8 c -4 -11 c -7 -4 c
4 -11 2080 1552 l 12 -7 c 18 -4 c 12 0 c 19 4 c 11 7 c 4 11 c 0 8 c -4 11 c -11 8 c -19 4 c -12 0 c -18 -4 c -12 -8 c -4 -11 c
0 -8 c -3 0 2099 1609 l -8 4 c -4 4 c -4 7 c 0 15 c 4 8 c 4 4 c 8 3 c 7 0 c 8 -3 c 11 -8 c 38 -38 c 0 53 c 4 -3 2152 1688 l 4 3 c
-4 4 c -4 -4 c -8 -4 2092 1768 l -4 -11 c 0 -8 c 4 -11 c 12 -8 c 18 -3 c 19 0 c 16 3 c 7 8 c 4 11 c 0 4 c -4 11 c -7 8 c -12 4 c
-4 0 c -11 -4 c -8 -8 c -3 -11 c 0 -4 c 3 -11 c 8 -8 c 11 -3 c 4 -11 2080 1817 l 12 -8 c 18 -4 c 12 0 c 19 4 c 11 8 c 4 11 c 0 8 c
-4 11 c -11 7 c -19 4 c -12 0 c -18 -4 c -12 -7 c -4 -11 c 0 -8 c -3 0 2099 1874 l -8 3 c -4 4 c -4 8 c 0 15 c 4 7 c 4 4 c 8 4 c
7 0 c 8 -4 c 11 -7 c 38 -38 c 0 53 c 0 -249 2280 1926 l 0 -38 2237 2044 l 34 -4 c -4 4 c -4 11 c 0 11 c 4 12 c 8 7 c 11 4 c 8 0 c
11 -4 c 7 -7 c 4 -12 c 0 -11 c -4 -11 c -3 -4 c -8 -4 c 12 -4 2263 2123 l 7 -7 c 4 -12 c 0 -4 c -4 -11 c -7 -7 c -12 -4 c -4 0 c
-11 4 c -7 7 c -4 11 c 0 4 c 4 12 c 7 7 c 15 4 c 19 0 c 19 -4 c 11 -7 c 4 -12 c 0 -7 c -4 -12 c -7 -3 c 4 -11 2237 2172 l 11 -8 c
19 -4 c 11 0 c 19 4 c 11 8 c 4 11 c 0 8 c -4 11 c -11 8 c -19 3 c -11 0 c -19 -3 c -11 -8 c -4 -11 c 0 -8 c 53 -38 2237 2263 l
0 57 c 79 0 2237 2263 l 3 -4 2309 2308 l 4 4 c -4 4 c -3 -4 c -4 7 2252 2350 l -11 12 c 79 0 c 0 -37 2237 2459 l 34 -4 c -4 4 c
-4 11 c 0 11 c 4 12 c 8 7 c 11 4 c 8 0 c 11 -4 c 7 -7 c 4 -12 c 0 -11 c -4 -11 c -3 -4 c -8 -4 c 12 -4 2263 2539 l 7 -8 c 4 -11 c
0 -4 c -4 -11 c -7 -8 c -12 -3 c -4 0 c -11 3 c -7 8 c -4 11 c 0 4 c 4 11 c 7 8 c 15 4 c 19 0 c 19 -4 c 11 -8 c 4 -11 c 0 -8 c
-4 -11 c -7 -4 c 0 -250 2422 2001 l 0 -38 2379 2118 l 34 -3 c -4 3 c -4 12 c 0 11 c 4 11 c 7 8 c 12 4 c 7 0 c 12 -4 c 7 -8 c 4 -11 c
0 -11 c -4 -12 c -4 -3 c -7 -4 c 11 -3 2405 2197 l 8 -8 c 4 -11 c 0 -4 c -4 -11 c -8 -8 c -11 -4 c -4 0 c -11 4 c -8 8 c -3 11 c
0 4 c 3 11 c 8 8 c 15 3 c 19 0 c 19 -3 c 11 -8 c 4 -11 c 0 -8 c -4 -11 c -7 -4 c 3 -12 2379 2247 l 12 -7 c 19 -4 c 11 0 c 19 4 c
11 7 c 4 12 c 0 7 c -4 12 c -11 7 c -19 4 c -11 0 c -19 -4 c -12 -7 c -3 -12 c 0 -7 c 0 -38 2379 2345 l 34 -4 c -4 4 c -4 11 c
0 12 c 4 11 c 7 8 c 12 3 c 7 0 c 12 -3 c 7 -8 c 4 -11 c 0 -12 c -4 -11 c -4 -4 c -7 -3 c 4 -4 2450 2383 l 4 4 c -4 3 c -4 -3 c
0 -38 2379 2458 l 34 -3 c -4 3 c -4 12 c 0 11 c 4 11 c 7 8 c 12 4 c 7 0 c 12 -4 c 7 -8 c 4 -11 c 0 -11 c -4 -12 c -4 -3 c -7 -4 c
79 -37 2379 2541 l 0 52 2379 2489 l -4 8 2394 2575 l -11 11 c 79 0 c 0 -250 2993 1393 l 0 -38 2949 1510 l 34 -4 c -3 4 c -4 11 c
0 12 c 4 11 c 7 8 c 12 3 c 7 0 c 11 -3 c 8 -8 c 4 -11 c 0 -12 c -4 -11 c -4 -4 c -7 -3 c 11 -4 2976 1589 l 8 -7 c 4 -11 c 0 -4 c
-4 -12 c -8 -7 c -11 -4 c -4 0 c -11 4 c -8 7 c -4 12 c 0 4 c 4 11 c 8 7 c 15 4 c 19 0 c 19 -4 c 11 -7 c 4 -11 c 0 -8 c -4 -11 c
-8 -4 c -3 8 2964 1627 l -12 11 c 80 0 c -3 7 2964 1703 l -12 12 c 80 0 c 4 -3 3021 1774 l 4 3 c -4 4 c -4 -4 c -4 0 2968 1808 l
-7 4 c -4 4 c -4 8 c 0 15 c 4 7 c 4 4 c 7 4 c 8 0 c 8 -4 c 11 -8 c 38 -37 c 0 53 c 0 41 2949 1888 l 31 -22 c 0 11 c 3 8 c 4 3 c
12 4 c 7 0 c 11 -4 c 8 -7 c 4 -11 c 0 -12 c -4 -11 c -4 -4 c -7 -4 c 4 -12 2949 1979 l 11 -7 c 19 -4 c 12 0 c 19 4 c 11 7 c 4 12 c
0 7 c -4 11 c -11 8 c -19 4 c -12 0 c -19 -4 c -11 -8 c -4 -11 c 0 -7 c 0 -249 3080 7019 l 0 -38 3036 7136 l 34 -3 c -4 3 c -4 12 c
0 11 c 4 11 c 8 8 c 11 4 c 8 0 c 11 -4 c 8 -8 c 3 -11 c 0 -11 c -3 -12 c -4 -3 c -8 -4 c 12 -4 3062 7216 l 7 -8 c 4 -11 c 0 -4 c
-4 -11 c -7 -8 c -12 -3 c -3 0 c -12 3 c -7 8 c -4 11 c 0 4 c 4 11 c 7 8 c 15 4 c 19 0 c 19 -4 c 12 -8 c 3 -11 c 0 -8 c -3 -11 c
-8 -4 c -4 8 3051 7253 l -11 11 c 79 0 c -4 0 3055 7321 l -8 4 c -3 4 c -4 8 c 0 15 c 4 7 c 3 4 c 8 4 c 8 0 c 7 -4 c 12 -8 c
37 -37 c 0 53 c 4 -4 3108 7401 l 3 4 c -3 4 c -4 -4 c 4 -12 3036 7454 l 11 -7 c 19 -4 c 11 0 c 19 4 c 12 7 c 3 12 c 0 7 c -3 12 c
-12 7 c -19 4 c -11 0 c -19 -4 c -11 -7 c -4 -12 c 0 -7 c 4 -12 3036 7526 l 7 -4 c 8 0 c 7 4 c 4 8 c 4 15 c 4 11 c 7 8 c 8 4 c
11 0 c 8 -4 c 4 -4 c 3 -11 c 0 -15 c -3 -12 c -4 -4 c -8 -3 c -11 0 c -8 3 c -7 8 c -4 11 c -4 15 c -4 8 c -7 4 c -8 0 c -7 -4 c
-4 -11 c 0 -15 c 0 -38 3036 7628 l 34 -4 c -4 4 c -4 11 c 0 11 c 4 12 c 8 7 c 11 4 c 8 0 c 11 -4 c 8 -7 c 3 -12 c 0 -11 c -3 -11 c
-4 -4 c -8 -4 c 0 -249 3342 5512 l 0 -38 3299 5629 l 34 -3 c -4 3 c -4 12 c 0 11 c 4 11 c 8 8 c 11 4 c 8 0 c 11 -4 c 7 -8 c 4 -11 c
0 -11 c -4 -12 c -3 -3 c -8 -4 c 12 -4 3325 5709 l 7 -8 c 4 -11 c 0 -4 c -4 -11 c -7 -8 c -12 -3 c -3 0 c -12 3 c -7 8 c -4 11 c
0 4 c 4 11 c 7 8 c 15 4 c 19 0 c 19 -4 c 11 -8 c 4 -11 c 0 -8 c -4 -11 c -7 -4 c -4 8 3314 5746 l -11 11 c 79 0 c 53 -37 3299 5848 l
0 56 c 79 0 3299 5848 l 3 -4 3371 5894 l 4 4 c -4 4 c -3 -4 c -7 -4 3310 5973 l -4 -11 c 0 -7 c 4 -12 c 11 -7 c 19 -4 c 19 0 c
15 4 c 7 7 c 4 12 c 0 3 c -4 12 c -7 7 c -11 4 c -4 0 c -12 -4 c -7 -7 c -4 -12 c 0 -3 c 4 -12 c 7 -7 c 12 -4 c 79 -38 3299 6053 l
0 53 3299 6000 l -4 7 3314 6087 l -11 11 c 79 0 c 0 -250 3544 1576 l 0 -38 3500 1693 l 34 -4 c -4 4 c -4 11 c 0 12 c 4 11 c 8 7 c
11 4 c 8 0 c 11 -4 c 8 -7 c 3 -11 c 0 -12 c -3 -11 c -4 -4 c -8 -4 c 12 -4 3526 1772 l 7 -7 c 4 -12 c 0 -3 c -4 -12 c -7 -7 c
-12 -4 c -3 0 c -12 4 c -7 7 c -4 12 c 0 3 c 4 12 c 7 7 c 15 4 c 19 0 c 19 -4 c 12 -7 c 3 -12 c 0 -7 c -3 -11 c -8 -4 c
-4 7 3515 1810 l -11 12 c 79 0 c -7 -4 3511 1923 l -4 -11 c 0 -7 c 4 -12 c 11 -7 c 19 -4 c 19 0 c 15 4 c 8 7 c 3 12 c 0 3 c -3 12 c
-8 7 c -11 4 c -4 0 c -11 -4 c -8 -7 c -4 -12 c 0 -3 c 4 -12 c 8 -7 c 11 -4 c 4 -4 3572 1957 l 3 4 c -3 4 c -4 -4 c
79 -37 3500 2040 l 0 52 3500 1988 l -4 0 3519 2067 l -8 4 c -3 3 c -4 8 c 0 15 c 4 8 c 3 3 c 8 4 c 8 0 c 7 -4 c 12 -7 c 37 -38 c
0 53 c 4 -12 3500 2158 l 7 -4 c 8 0 c 7 4 c 4 8 c 4 15 c 4 11 c 7 8 c 8 4 c 11 0 c 8 -4 c 4 -4 c 3 -11 c 0 -15 c -3 -12 c -4 -4 c
-8 -3 c -11 0 c -8 3 c -7 8 c -4 11 c -4 15 c -4 8 c -7 4 c -8 0 c -7 -4 c -4 -11 c 0 -15 c 0 -249 3778 1719 l 0 -38 3734 1837 l
34 -4 c -4 4 c -3 11 c 0 11 c 3 12 c 8 7 c 11 4 c 8 0 c 11 -4 c 8 -7 c 4 -12 c 0 -11 c -4 -11 c -4 -4 c -8 -4 c 11 -4 3761 1916 l
8 -7 c 3 -12 c 0 -4 c -3 -11 c -8 -7 c -11 -4 c -4 0 c -11 4 c -8 7 c -4 11 c 0 4 c 4 12 c 8 7 c 15 4 c 19 0 c 18 -4 c 12 -7 c
4 -12 c 0 -7 c -4 -12 c -8 -3 c -3 7 3749 1954 l -12 12 c 80 0 c 4 -12 3734 2037 l 8 -3 c 7 0 c 8 3 c 3 8 c 4 15 c 4 12 c 8 7 c
7 4 c 11 0 c 8 -4 c 4 -4 c 4 -11 c 0 -15 c -4 -12 c -4 -3 c -8 -4 c -11 0 c -7 4 c -8 7 c -4 12 c -4 15 c -3 7 c -8 4 c -7 0 c
-8 -4 c -4 -11 c 0 -15 c 4 -4 3806 2101 l 4 4 c -4 4 c -4 -4 c 11 -3 3761 2180 l 8 -8 c 3 -11 c 0 -4 c -3 -11 c -8 -8 c -11 -4 c
-4 0 c -11 4 c -8 8 c -4 11 c 0 4 c 4 11 c 8 8 c 15 3 c 19 0 c 18 -3 c 12 -8 c 4 -11 c 0 -8 c -4 -11 c -8 -4 c 53 -38 3734 2245 l
0 57 c 80 0 3734 2245 l 53 -38 3734 2320 l 0 57 c 80 0 3734 2320 l 0 -250 4442 2500 l 0 -38 4398 2617 l 34 -3 c -4 3 c -4 12 c
0 11 c 4 11 c 8 8 c 11 4 c 8 0 c 11 -4 c 8 -8 c 3 -11 c 0 -11 c -3 -12 c -4 -3 c -8 -4 c 12 -3 4424 2696 l 7 -8 c 4 -11 c 0 -4 c
-4 -11 c -7 -8 c -12 -4 c -3 0 c -12 4 c -7 8 c -4 11 c 0 4 c 4 11 c 7 8 c 15 3 c 19 0 c 19 -3 c 12 -8 c 3 -11 c 0 -8 c -3 -11 c
-8 -4 c -4 0 4417 2727 l -7 3 c -4 4 c -4 8 c 0 15 c 4 8 c 4 3 c 7 4 c 8 0 c 7 -4 c 12 -7 c 37 -38 c 0 53 c 0 -38 4398 2844 l
34 -4 c -4 4 c -4 11 c 0 12 c 4 11 c 8 8 c 11 3 c 8 0 c 11 -3 c 8 -8 c 3 -11 c 0 -12 c -3 -11 c -4 -4 c -8 -3 c 4 -4 4470 2882 l
3 4 c -3 3 c -4 -3 c 53 -38 4398 2950 l 0 57 c 79 0 4398 2950 l 4 -11 4398 3010 l 11 -8 c 19 -4 c 11 0 c 19 4 c 12 8 c 3 11 c 0 8 c
-3 11 c -12 8 c -19 3 c -11 0 c -19 -3 c -11 -8 c -4 -11 c 0 -8 c 53 -38 4398 3101 l 0 57 c 79 0 4398 3101 l 0 -250 4795 4158 l
0 -38 4751 4275 l 34 -4 c -3 4 c -4 12 c 0 11 c 4 11 c 7 8 c 12 4 c 7 0 c 11 -4 c 8 -8 c 4 -11 c 0 -11 c -4 -12 c -4 -4 c -7 -3 c
11 -3 4778 4354 l 8 -8 c 4 -11 c 0 -4 c -4 -11 c -8 -8 c -11 -4 c -4 0 c -11 4 c -8 8 c -4 11 c 0 4 c 4 11 c 8 8 c 15 3 c 19 0 c
19 -3 c 11 -8 c 4 -11 c 0 -8 c -4 -11 c -8 -4 c -3 0 4770 4385 l -8 3 c -4 4 c -4 8 c 0 15 c 4 7 c 4 4 c 8 4 c 7 0 c 8 -4 c 11 -7 c
38 -38 c 0 53 c 4 -11 4751 4475 l 8 -4 c 7 0 c 8 4 c 4 8 c 3 15 c 4 11 c 8 8 c 7 3 c 12 0 c 7 -3 c 4 -4 c 4 -12 c 0 -15 c -4 -11 c
-4 -4 c -7 -4 c -12 0 c -7 4 c -8 8 c -4 11 c -3 15 c -4 8 c -8 4 c -7 0 c -8 -4 c -4 -12 c 0 -15 c 4 -4 4823 4540 l 4 4 c -4 3 c
-4 -3 c 4 -12 4751 4589 l 8 -3 c 7 0 c 8 3 c 4 8 c 3 15 c 4 11 c 8 8 c 7 4 c 12 0 c 7 -4 c 4 -4 c 4 -11 c 0 -15 c -4 -12 c -4 -3 c
-7 -4 c -12 0 c -7 4 c -8 7 c -4 12 c -3 15 c -4 7 c -8 4 c -7 0 c -8 -4 c -4 -11 c 0 -15 c -4 7 4767 4657 l -12 12 c 80 0 c
0 41 4751 4729 l 31 -23 c 0 12 c 3 7 c 4 4 c 12 4 c 7 0 c 11 -4 c 8 -7 c 4 -12 c 0 -11 c -4 -11 c -4 -4 c -7 -4 c 0 -250 4911 2056 l
0 -38 4867 2173 l 34 -4 c -3 4 c -4 12 c 0 11 c 4 11 c 7 8 c 12 4 c 7 0 c 11 -4 c 8 -8 c 4 -11 c 0 -11 c -4 -12 c -4 -4 c -7 -3 c
11 -3 4894 2252 l 8 -8 c 4 -11 c 0 -4 c -4 -11 c -8 -8 c -11 -4 c -4 0 c -11 4 c -8 8 c -4 11 c 0 4 c 4 11 c 8 8 c 15 3 c 19 0 c
19 -3 c 11 -8 c 4 -11 c 0 -8 c -4 -11 c -8 -4 c -3 0 4886 2283 l -8 3 c -4 4 c -4 8 c 0 15 c 4 7 c 4 4 c 8 4 c 7 0 c 8 -4 c 11 -7 c
38 -38 c 0 53 c 11 -4 4894 2404 l 8 -8 c 4 -11 c 0 -4 c -4 -11 c -8 -8 c -11 -4 c -4 0 c -11 4 c -8 8 c -4 11 c 0 4 c 4 11 c 8 8 c
15 4 c 19 0 c 19 -4 c 11 -8 c 4 -11 c 0 -8 c -4 -11 c -8 -4 c 4 -4 4939 2438 l 4 4 c -4 3 c -4 -3 c 11 -4 4894 2517 l 8 -7 c 4 -12 c
0 -3 c -4 -12 c -8 -7 c -11 -4 c -4 0 c -11 4 c -8 7 c -4 12 c 0 3 c 4 12 c 8 7 c 15 4 c 19 0 c 19 -4 c 11 -7 c 4 -12 c 0 -7 c
-4 -12 c -8 -3 c 0 42 4867 2551 l 31 -23 c 0 11 c 3 8 c 4 4 c 12 3 c 7 0 c 11 -3 c 8 -8 c 4 -11 c 0 -12 c -4 -11 c -4 -4 c -7 -4 c
53 -38 4867 2657 l 0 57 c 80 0 4867 2657 l 0 -249 5585 1442 l 0 -37 5542 1559 l 34 -4 c -4 4 c -4 11 c 0 11 c 4 12 c 7 7 c 12 4 c
7 0 c 12 -4 c 7 -7 c 4 -12 c 0 -11 c -4 -11 c -4 -4 c -7 -4 c 11 -4 5568 1639 l 8 -8 c 4 -11 c 0 -4 c -4 -11 c -8 -8 c -11 -3 c
-4 0 c -11 3 c -8 8 c -3 11 c 0 4 c 3 11 c 8 8 c 15 4 c 19 0 c 19 -4 c 11 -8 c 4 -11 c 0 -8 c -4 -11 c -7 -4 c 0 41 5542 1673 l
30 -22 c 0 11 c 4 8 c 3 3 c 12 4 c 7 0 c 12 -4 c 7 -7 c 4 -12 c 0 -11 c -4 -11 c -4 -4 c -7 -4 c -8 -4 5553 1790 l -3 -11 c 0 -8 c
3 -11 c 12 -8 c 19 -3 c 19 0 c 15 3 c 7 8 c 4 11 c 0 4 c -4 11 c -7 8 c -12 4 c -3 0 c -12 -4 c -7 -8 c -4 -11 c 0 -4 c 4 -11 c
7 -8 c 12 -3 c 4 -4 5613 1824 l 4 4 c -4 4 c -4 -4 c 0 41 5542 1862 l 30 -22 c 0 11 c 4 7 c 3 4 c 12 4 c 7 0 c 12 -4 c 7 -7 c
4 -12 c 0 -11 c -4 -11 c -4 -4 c -7 -4 c 3 -12 5542 1949 l 8 -3 c 8 0 c 7 3 c 4 8 c 4 15 c 3 11 c 8 8 c 8 4 c 11 0 c 7 -4 c 4 -4 c
4 -11 c 0 -15 c -4 -12 c -4 -3 c -7 -4 c -11 0 c -8 4 c -8 7 c -3 11 c -4 16 c -4 7 c -7 4 c -8 0 c -8 -4 c -3 -11 c 0 -15 c
-8 -3 5553 2054 l -3 -12 c 0 -7 c 3 -12 c 12 -7 c 19 -4 c 19 0 c 15 4 c 7 7 c 4 12 c 0 4 c -4 11 c -7 7 c -12 4 c -3 0 c -12 -4 c
-7 -7 c -4 -11 c 0 -4 c 4 -12 c 7 -7 c 12 -4 c 0 -249 5720 1799 l 0 -37 5676 1916 l 35 -4 c -4 4 c -4 11 c 0 11 c 4 12 c 7 7 c
12 4 c 7 0 c 12 -4 c 7 -7 c 4 -12 c 0 -11 c -4 -11 c -4 -4 c -7 -4 c 11 -4 5703 1996 l 8 -7 c 4 -12 c 0 -4 c -4 -11 c -8 -7 c
-11 -4 c -4 0 c -11 4 c -8 7 c -4 11 c 0 4 c 4 12 c 8 7 c 15 4 c 19 0 c 19 -4 c 11 -7 c 4 -12 c 0 -7 c -4 -12 c -7 -3 c
0 41 5676 2030 l 31 -22 c 0 11 c 4 8 c 3 3 c 12 4 c 7 0 c 12 -4 c 7 -7 c 4 -11 c 0 -12 c -4 -11 c -4 -4 c -7 -4 c 80 -38 5676 2151 l
0 53 5676 2098 l 4 -4 5748 2181 l 4 4 c -4 4 c -4 -4 c -8 -3 5688 2260 l -4 -12 c 0 -7 c 4 -12 c 12 -7 c 19 -4 c 18 0 c 16 4 c 7 7 c
4 12 c 0 4 c -4 11 c -7 7 c -12 4 c -4 0 c -11 -4 c -7 -7 c -4 -11 c 0 -4 c 4 -12 c 7 -7 c 11 -4 c -8 -4 5688 2336 l -4 -11 c 0 -8 c
4 -11 c 12 -8 c 19 -3 c 18 0 c 16 3 c 7 8 c 4 11 c 0 4 c -4 11 c -7 8 c -12 4 c -4 0 c -11 -4 c -7 -8 c -4 -11 c 0 -4 c 4 -11 c
7 -8 c 11 -3 c 0 42 5676 2370 l 31 -23 c 0 11 c 4 8 c 3 4 c 12 3 c 7 0 c 12 -3 c 7 -8 c 4 -11 c 0 -12 c -4 -11 c -4 -4 c -7 -4 c
0 -250 6460 2565 l 0 -38 6416 2682 l 34 -3 c -3 3 c -4 12 c 0 11 c 4 11 c 7 8 c 11 4 c 8 0 c 11 -4 c 8 -8 c 4 -11 c 0 -11 c -4 -12 c
-4 -3 c -7 -4 c 11 -4 6443 2762 l 8 -8 c 3 -11 c 0 -4 c -3 -11 c -8 -8 c -11 -4 c -4 0 c -11 4 c -8 8 c -4 11 c 0 4 c 4 11 c 8 8 c
15 4 c 19 0 c 19 -4 c 11 -8 c 4 -11 c 0 -8 c -4 -11 c -8 -4 c 53 -38 6416 2826 l 0 57 c 80 0 6416 2826 l 53 -37 6416 2901 l 0 56 c
80 0 6416 2901 l 4 -4 6488 2947 l 4 4 c -4 4 c -4 -4 c -8 -4 6428 3026 l -4 -11 c 0 -8 c 4 -11 c 11 -7 c 19 -4 c 19 0 c 15 4 c 8 7 c
4 11 c 0 4 c -4 12 c -8 7 c -11 4 c -4 0 c -11 -4 c -8 -7 c -3 -12 c 0 -4 c 3 -11 c 8 -7 c 11 -4 c 53 -37 6416 3090 l 0 56 c
80 0 6416 3090 l 80 -38 6416 3181 l 0 53 6416 3128 l 0 -250 6904 1519 l 0 -38 6861 1636 l 34 -4 c -4 4 c -4 11 c 0 12 c 4 11 c 8 8 c
11 3 c 8 0 c 11 -3 c 7 -8 c 4 -11 c 0 -12 c -4 -11 c -3 -4 c -8 -3 c 12 -3 6887 1715 l 7 -8 c 4 -11 c 0 -4 c -4 -12 c -7 -7 c
-12 -4 c -3 0 c -12 4 c -7 7 c -4 12 c 0 4 c 4 11 c 7 8 c 15 3 c 19 0 c 19 -3 c 11 -8 c 4 -11 c 0 -8 c -4 -11 c -7 -4 c
53 -38 6861 1780 l 0 56 c 79 0 6861 1780 l 4 -11 6861 1836 l 7 -4 c 8 0 c 7 4 c 4 7 c 4 16 c 4 11 c 7 7 c 8 4 c 11 0 c 8 -4 c 3 -3 c
4 -12 c 0 -15 c -4 -11 c -3 -4 c -8 -4 c -11 0 c -8 4 c -7 8 c -4 11 c -4 15 c -4 8 c -7 3 c -8 0 c -7 -3 c -4 -12 c 0 -15 c
3 -3 6933 1900 l 4 3 c -4 4 c -3 -4 c 79 -38 6861 1984 l 0 53 6861 1931 l 12 -3 6887 2055 l 7 -8 c 4 -11 c 0 -4 c -4 -11 c -7 -8 c
-12 -4 c -3 0 c -12 4 c -7 8 c -4 11 c 0 4 c 4 11 c 7 8 c 15 3 c 19 0 c 19 -3 c 11 -8 c 4 -11 c 0 -8 c -4 -11 c -7 -4 c
12 -4 6887 2131 l 7 -7 c 4 -12 c 0 -3 c -4 -12 c -7 -7 c -12 -4 c -3 0 c -12 4 c -7 7 c -4 12 c 0 3 c 4 12 c 7 7 c 15 4 c 19 0 c
19 -4 c 11 -7 c 4 -12 c 0 -7 c -4 -12 c -7 -3 c 0 -250 7636 1435 l 0 -38 7592 1552 l 34 -3 c -4 3 c -3 12 c 0 11 c 3 11 c 8 8 c
11 4 c 8 0 c 11 -4 c 8 -8 c 3 -11 c 0 -11 c -3 -12 c -4 -3 c -8 -4 c 11 -4 7619 1632 l 7 -8 c 4 -11 c 0 -4 c -4 -11 c -7 -8 c
-11 -4 c -4 0 c -12 4 c -7 8 c -4 11 c 0 4 c 4 11 c 7 8 c 16 4 c 18 0 c 19 -4 c 12 -8 c 3 -11 c 0 -8 c -3 -11 c -8 -4 c
0 -37 7592 1703 l 34 -4 c -4 4 c -3 11 c 0 11 c 3 12 c 8 7 c 11 4 c 8 0 c 11 -4 c 8 -7 c 3 -12 c 0 -11 c -3 -11 c -4 -4 c -8 -4 c
0 -38 7592 1779 l 34 -4 c -4 4 c -3 12 c 0 11 c 3 11 c 8 8 c 11 4 c 8 0 c 11 -4 c 8 -8 c 3 -11 c 0 -11 c -3 -12 c -4 -4 c -8 -3 c
4 -4 7664 1817 l 3 4 c -3 4 c -4 -4 c 0 -37 7592 1892 l 34 -4 c -4 4 c -3 11 c 0 11 c 3 12 c 8 7 c 11 4 c 8 0 c 11 -4 c 8 -7 c
3 -12 c 0 -11 c -3 -11 c -4 -4 c -8 -4 c -7 -4 7603 1972 l -4 -11 c 0 -8 c 4 -11 c 11 -8 c 19 -4 c 19 0 c 15 4 c 8 8 c 3 11 c 0 4 c
-3 11 c -8 8 c -11 3 c -4 0 c -11 -3 c -8 -8 c -4 -11 c 0 -4 c 4 -11 c 8 -8 c 11 -4 c -4 0 7611 2002 l -7 4 c -4 4 c -4 7 c 0 15 c
4 8 c 4 4 c 7 3 c 8 0 c 7 -3 c 12 -8 c 37 -38 c 0 53 c 0 -250 9201 1485 l 0 -38 9158 1602 l 34 -4 c -4 4 c -4 11 c 0 12 c 4 11 c
7 8 c 12 3 c 7 0 c 12 -3 c 7 -8 c 4 -11 c 0 -12 c -4 -11 c -4 -4 c -7 -3 c 11 -4 9184 1681 l 8 -7 c 4 -11 c 0 -4 c -4 -12 c -8 -7 c
-11 -4 c -4 0 c -11 4 c -8 7 c -3 12 c 0 4 c 3 11 c 8 7 c 15 4 c 19 0 c 19 -4 c 11 -7 c 4 -11 c 0 -8 c -4 -11 c -7 -4 c
-8 -4 9169 1757 l -3 -11 c 0 -8 c 3 -11 c 12 -8 c 19 -4 c 18 0 c 16 4 c 7 8 c 4 11 c 0 4 c -4 11 c -7 8 c -12 4 c -4 0 c -11 -4 c
-7 -8 c -4 -11 c 0 -4 c 4 -11 c 7 -8 c 11 -4 c 11 -3 9184 1832 l 8 -8 c 4 -11 c 0 -4 c -4 -11 c -8 -8 c -11 -4 c -4 0 c -11 4 c
-8 8 c -3 11 c 0 4 c 3 11 c 8 8 c 15 3 c 19 0 c 19 -3 c 11 -8 c 4 -11 c 0 -8 c -4 -11 c -7 -4 c 4 -3 9229 1866 l 4 3 c -4 4 c
-4 -4 c 79 -38 9158 1950 l 0 53 9158 1897 l 0 41 9158 1980 l 30 -22 c 0 11 c 4 8 c 3 3 c 12 4 c 7 0 c 12 -4 c 7 -7 c 4 -11 c 0 -12 c
-4 -11 c -4 -4 c -7 -4 c 79 -38 9158 2101 l 0 53 9158 2048 l 0 -249 9644 7019 l 0 -38 9601 7136 l 34 -3 c -4 3 c -4 12 c 0 11 c
4 11 c 7 8 c 12 4 c 7 0 c 12 -4 c 7 -8 c 4 -11 c 0 -11 c -4 -12 c -4 -3 c -7 -4 c 11 -4 9627 7216 l 8 -8 c 4 -11 c 0 -4 c -4 -11 c
-8 -8 c -11 -3 c -4 0 c -11 3 c -8 8 c -3 11 c 0 4 c 3 11 c 8 8 c 15 4 c 19 0 c 19 -4 c 11 -8 c 4 -11 c 0 -8 c -4 -11 c -7 -4 c
79 -38 9601 7295 l 0 53 9601 7242 l 0 42 9601 7325 l 30 -23 c 0 11 c 4 8 c 3 4 c 12 4 c 7 0 c 12 -4 c 7 -8 c 4 -11 c 0 -11 c
-4 -12 c -4 -4 c -7 -3 c 4 -4 9672 7401 l 4 4 c -4 4 c -4 -4 c -8 -4 9612 7480 l -3 -11 c 0 -7 c 3 -12 c 12 -7 c 19 -4 c 18 0 c
16 4 c 7 7 c 4 12 c 0 3 c -4 12 c -7 7 c -12 4 c -4 0 c -11 -4 c -7 -7 c -4 -12 c 0 -3 c 4 -12 c 7 -7 c 11 -4 c -8 -4 9612 7556 l
-3 -11 c 0 -8 c 3 -11 c 12 -8 c 19 -4 c 18 0 c 16 4 c 7 8 c 4 11 c 0 4 c -4 11 c -7 8 c -12 4 c -4 0 c -11 -4 c -7 -8 c -4 -11 c
0 -4 c 4 -11 c 7 -8 c 11 -4 c 0 -38 9601 7628 l 34 -4 c -4 4 c -4 11 c 0 11 c 4 12 c 7 7 c 12 4 c 7 0 c 12 -4 c 7 -7 c 4 -12 c
0 -11 c -4 -11 c -4 -4 c -7 -4 c
showpage PGPLOT restore
 
%%Trailer
%%DocumentFonts: 
%%Pages: 1
%%EOF
