%!PS-Adobe-3.0 EPSF-3.0
%%For: tom
%%Title: PGPLOT PostScript plot
%%Creator: PGPLOT
%%CreationDate:  9-Nov-1994 14:01
%%BoundingBox: 25 18 587 774
%%DocumentFonts: (atend)
%%LanguageLevel: 1
%%Orientation: Landscape
%%Pages: (atend)
%%EndComments
%%BeginProlog
/l {moveto rlineto currentpoint stroke moveto} bind def
/c {rlineto currentpoint stroke moveto} bind def
/d {moveto 0 0 rlineto currentpoint stroke moveto} bind def
/SLW {5 mul setlinewidth} bind def
/SCF /pop load def
/BP {newpath moveto} bind def
/LP /rlineto load def
/EP {rlineto closepath eofill} bind def
/MB {gsave translate MFAC dup scale 1 setlinewidth 2 setlinecap 0 setlinejoin newpath} bind def
/ME /grestore load def
/C {0 360 arc stroke} bind def
/FC {0 360 arc fill} bind def
%%EndProlog
 
%%Page: 1 1
%%BeginPageSetup
/PGPLOT save def
0.072 0.072 scale
8150 250 translate 90 rotate
1 setlinejoin 1 setlinecap 1 SLW 1 SCF
%%EndPageSetup
0.00 setgray 1 SLW 8939 0 780 780 l 0 6239 c -8939 0 c 0 -6239 c 0 -45 1116 780 l 0 -45 1554 780 l 0 -45 1991 780 l 0 -45 2428 780 l
0 -90 2865 780 l 0 -45 3302 780 l 0 -45 3739 780 l 0 -45 4176 780 l 0 -45 4613 780 l 0 -90 5051 780 l 0 -45 5488 780 l
0 -45 5925 780 l 0 -45 6362 780 l 0 -45 6799 780 l 0 -90 7236 780 l 0 -45 7673 780 l 0 -45 8110 780 l 0 -45 8548 780 l
0 -45 8985 780 l 0 -90 9422 780 l 0 -45 1116 7064 l 0 -45 1554 7064 l 0 -45 1991 7064 l 0 -45 2428 7064 l 0 -90 2865 7109 l
0 -45 3302 7064 l 0 -45 3739 7064 l 0 -45 4176 7064 l 0 -45 4613 7064 l 0 -90 5051 7109 l 0 -45 5488 7064 l 0 -45 5925 7064 l
0 -45 6362 7064 l 0 -45 6799 7064 l 0 -90 7236 7109 l 0 -45 7673 7064 l 0 -45 8110 7064 l 0 -45 8548 7064 l 0 -45 8985 7064 l
0 -90 9422 7109 l -60 0 2775 672 l -6 -54 c 6 6 c 18 6 c 18 0 c 18 -6 c 12 -12 c 6 -18 c 0 -12 c -6 -18 c -12 -12 c -18 -6 c -18 0 c
-18 6 c -6 6 c -6 12 c -18 -6 2859 672 l -12 -18 c -6 -30 c 0 -18 c 6 -30 c 12 -18 c 18 -6 c 12 0 c 18 6 c 12 18 c 6 30 c 0 18 c
-6 30 c -12 18 c -18 6 c -12 0 c -18 -6 2979 672 l -12 -18 c -6 -30 c 0 -18 c 6 -30 c 12 -18 c 18 -6 c 12 0 c 18 6 c 12 18 c 6 30 c
0 18 c -6 30 c -12 18 c -18 6 c -12 0 c 12 6 4847 648 l 18 18 c 0 -126 c -18 -6 4985 672 l -12 -18 c -6 -30 c 0 -18 c 6 -30 c
12 -18 c 18 -6 c 12 0 c 18 6 c 12 18 c 6 30 c 0 18 c -6 30 c -12 18 c -18 6 c -12 0 c -18 -6 5105 672 l -12 -18 c -6 -30 c 0 -18 c
6 -30 c 12 -18 c 18 -6 c 12 0 c 18 6 c 12 18 c 6 30 c 0 18 c -6 30 c -12 18 c -18 6 c -12 0 c -18 -6 5225 672 l -12 -18 c -6 -30 c
0 -18 c 6 -30 c 12 -18 c 18 -6 c 12 0 c 18 6 c 12 18 c 6 30 c 0 18 c -6 30 c -12 18 c -18 6 c -12 0 c 12 6 7032 648 l 18 18 c
0 -126 c -60 0 7206 672 l -6 -54 c 6 6 c 18 6 c 18 0 c 18 -6 c 12 -12 c 6 -18 c 0 -12 c -6 -18 c -12 -12 c -18 -6 c -18 0 c -18 6 c
-6 6 c -6 12 c -18 -6 7290 672 l -12 -18 c -6 -30 c 0 -18 c 6 -30 c 12 -18 c 18 -6 c 12 0 c 18 6 c 12 18 c 6 30 c 0 18 c -6 30 c
-12 18 c -18 6 c -12 0 c -18 -6 7410 672 l -12 -18 c -6 -30 c 0 -18 c 6 -30 c 12 -18 c 18 -6 c 12 0 c 18 6 c 12 18 c 6 30 c 0 18 c
-6 30 c -12 18 c -18 6 c -12 0 c 0 6 9206 642 l 6 12 c 6 6 c 12 6 c 24 0 c 12 -6 c 6 -6 c 6 -12 c 0 -12 c -6 -12 c -12 -18 c
-60 -60 c 84 0 c -18 -6 9356 672 l -12 -18 c -6 -30 c 0 -18 c 6 -30 c 12 -18 c 18 -6 c 12 0 c 18 6 c 12 18 c 6 30 c 0 18 c -6 30 c
-12 18 c -18 6 c -12 0 c -18 -6 9476 672 l -12 -18 c -6 -30 c 0 -18 c 6 -30 c 12 -18 c 18 -6 c 12 0 c 18 6 c 12 18 c 6 30 c 0 18 c
-6 30 c -12 18 c -18 6 c -12 0 c -18 -6 9596 672 l -12 -18 c -6 -30 c 0 -18 c 6 -30 c 12 -18 c 18 -6 c 12 0 c 18 6 c 12 18 c 6 30 c
0 18 c -6 30 c -12 18 c -18 6 c -12 0 c -90 0 780 780 l -45 0 780 1714 l -90 0 780 2648 l -45 0 780 3582 l -90 0 780 4516 l
-45 0 780 5450 l -90 0 780 6384 l -90 0 9809 780 l -45 0 9764 1714 l -90 0 9809 2648 l -45 0 9764 3582 l -90 0 9809 4516 l
-45 0 9764 5450 l -90 0 9809 6384 l 6 -18 517 774 l 18 -12 c 30 -6 c 18 0 c 30 6 c 18 12 c 6 18 c 0 12 c -6 18 c -18 12 c -30 6 c
-18 0 c -30 -6 c -18 -12 c -6 -18 c 0 -12 c -6 0 547 2390 l -12 6 c -6 6 c -6 12 c 0 24 c 6 12 c 6 6 c 12 6 c 12 0 c 12 -6 c
18 -12 c 60 -60 c 0 84 c 84 84 547 2510 l 84 -84 547 2594 l -6 12 541 2654 l -18 18 c 126 0 c 6 -18 517 2792 l 18 -12 c 30 -6 c
18 0 c 30 6 c 18 12 c 6 18 c 0 12 c -6 18 c -18 12 c -30 6 c -18 0 c -30 -6 c -18 -12 c -6 -18 c 0 -12 c 63 -45 453 2916 l 0 68 c
94 0 453 2916 l 84 -60 517 4312 l 0 90 c 126 0 517 4312 l 84 84 547 4378 l 84 -84 547 4462 l -6 12 541 4522 l -18 18 c 126 0 c
6 -18 517 4660 l 18 -12 c 30 -6 c 18 0 c 30 6 c 18 12 c 6 18 c 0 12 c -6 18 c -18 12 c -30 6 c -18 0 c -30 -6 c -18 -12 c -6 -18 c
0 -12 c 63 -45 453 4784 l 0 68 c 94 0 453 4784 l -12 -6 535 6198 l -6 -18 c 0 -12 c 6 -18 c 18 -12 c 30 -6 c 30 0 c 24 6 c 12 12 c
6 18 c 0 6 c -6 18 c -12 12 c -18 6 c -6 0 c -18 -6 c -12 -12 c -6 -18 c 0 -6 c 6 -18 c 12 -12 c 18 -6 c 84 84 547 6246 l
84 -84 547 6330 l -6 12 541 6390 l -18 18 c 126 0 c 6 -18 517 6528 l 18 -12 c 30 -6 c 18 0 c 30 6 c 18 12 c 6 18 c 0 12 c -6 18 c
-18 12 c -30 6 c -18 0 c -30 -6 c -18 -12 c -6 -18 c 0 -12 c 63 -45 453 6652 l 0 68 c 94 0 453 6652 l
4 -278 780 1155 l 5 -71 c 4 -5 c 4 0 c 5 -1 c 4 -1 c 4 0 c 5 0 c 4 1 c 5 2 c 4 -1 c 4 0 c 5 -2 c 4 0 c 4 2 c 5 1 c 4 -2 c 5 -2 c
4 -1 c 4 0 c 5 0 c 4 1 c 4 -1 c 5 0 c 4 0 c 5 0 c 4 -1 c 4 1 c 5 0 c 4 0 c 4 -1 c 5 1 c 4 -1 c 5 0 c 4 0 c 4 0 c 5 0 c 4 0 c 4 1 c
5 5 c 4 10 c 4 5 c 5 -1 c 4 -7 c 5 -9 c 4 -4 c 4 -1 c 5 1 c 4 -1 c 4 1 c 5 2 c 4 2 c 5 2 c 4 0 c 4 -2 c 5 -3 c 4 -1 c 4 0 c 5 0 c
4 -1 c 5 0 c 4 0 c 4 0 c 5 0 c 4 1 c 4 0 c 5 0 c 4 0 c 5 0 c 4 0 c 4 0 c 5 1 c 4 0 c 4 1 c 5 2 c 4 9 c 4 32 c 5 45 c 4 142 c 5 245 c
4 78 c 4 -46 c 5 -198 c 4 -327 c 5 54 1151 780 l 4 119 c 5 240 c 4 109 c 4 -26 c 5 -174 c 4 -217 c 4 -72 c 5 -12 c 4 -3 c 5 0 c
4 -1 c 4 0 c 5 -2 c 4 -1 c 4 0 c 5 1 c 4 1 c 5 3 c 4 1 c 4 3 c 5 10 c 4 48 c 4 64 c 5 18 c 4 -11 c 4 -64 c 5 -54 c 4 -14 c 5 -1 c
4 -1 c 4 1 c 5 1 c 4 0 c 4 1 c 5 -1 c 4 -1 c 5 0 c 4 0 c 4 0 c 5 1 c 4 1 c 4 -1 c 5 1 c 4 -1 c 5 1 c 4 1 c 4 4 c 5 22 c 4 89 c
4 62 c 5 18 c 4 -32 c 5 -97 c 4 -57 c 4 -9 c 5 3 c 4 2 c 4 -1 c 5 -1 c 4 -2 c 4 -2 c 5 -1 c 4 -1 c 5 1 c 4 1 c 4 1 c 5 0 c 4 -1 c
4 0 c 5 0 c 4 0 c 5 0 c 4 0 c 4 0 c 5 -1 c 4 0 c 4 1 c 5 4 c 4 4 c 5 2 c 4 -2 c 4 -3 c 5 -4 c 4 -1 c 4 -1 c 5 0 c 4 1 c 4 0 c 5 1 c
4 0 c 5 0 c 4 0 c 4 1 c 5 0 c 4 2 c 4 1 c 5 1 c 4 1 c 5 4 c 4 9 c 4 50 c 5 208 c 4 1204 c 4 1497 c 5 459 c 4 -316 c 5 -1495 c
4 -1278 c 4 -290 c 5 -34 c 4 -6 c 4 -9 c 5 -4 c 4 -2 c 5 -1 c 4 0 c 4 -1 c 5 0 c 4 -1 c 4 1 c 5 1 c 4 0 c 4 0 c 5 -1 c 4 2 c 5 10 c
4 8 c 4 3 c 5 -4 c 4 -3 c 4 28 c 5 134 c 4 173 c 5 60 c 4 -43 c 4 -162 c 5 -128 c 4 -48 c 4 -7 c 5 -8 c 4 -3 c 5 -3 c 4 -3 c 4 -5 c
5 -2 c 4 -1 c 4 -1 c 5 0 c 4 0 c 5 9 c 4 7 c 4 2 c 5 -3 c 4 -6 c 4 -6 c 5 -4 c 4 0 c 4 0 c 5 0 c 4 0 c 5 -1 c 4 0 c 4 0 c 5 0 c
4 1 c 4 1 c 5 1 c 4 1 c 5 2 c 4 2 c 4 3 c 5 6 c 4 5 c 4 3 c 5 7 c 4 11 c 5 40 c 4 205 c 4 1389 c 5 4297 c 4 18 c 4 -13 c 5 17 c
4 -1620 c 5 -3607 c 4 -680 c 4 -46 c 5 -11 c 4 -6 c 4 -6 c 5 -2 c 4 -2 c 4 -4 c 5 -3 c 4 -3 c 5 -2 c 4 -1 c 4 0 c 5 -1 c 4 0 c 4 0 c
5 -1 c 4 -1 c 5 -1 c 4 0 c 4 0 c 5 0 c 4 0 c 4 0 c 5 -1 c 4 1 c 5 2 c 4 2 c 4 1 c 5 3 c 4 24 c 4 28 c 5 5 c 4 -7 c 5 -30 c 4 -23 c
4 -6 c 5 0 c 4 -1 c 4 0 c 5 0 c 4 4 c 4 14 c 5 48 c 4 118 c 5 64 c 4 -10 c 4 -73 c 5 -111 c 4 -48 c 4 -6 c 5 1 c 4 1 c 5 0 c 4 -1 c
4 -2 c 5 -1 c 4 0 c 4 0 c 5 1 c 4 0 c 5 0 c 4 1 c 4 -1 c 5 0 c 4 -1 c 4 -1 c 5 0 c 4 0 c 4 0 c 5 0 c 4 0 c 5 0 c 4 0 c 4 2 c 5 6 c
4 24 c 4 32 c 5 10 c 4 -7 c 5 -30 c 4 -28 c 4 -8 c 5 0 c 4 1 c 4 9 c 5 17 c 4 11 c 5 -1 c 4 -14 c 4 -18 c 5 -6 c 4 0 c 4 0 c 5 0 c
4 1 c 5 0 c 4 1 c 4 5 c 5 25 c 4 22 c 4 6 c 5 -10 c 4 -29 c 4 -17 c 5 -4 c 4 2 c 5 2 c 4 1 c 4 0 c 5 -2 c 4 -2 c 4 -1 c 5 0 c 4 0 c
5 1 c 4 4 c 4 11 c 5 10 c 4 0 c 4 -6 c 5 -11 c 4 -5 c 5 -2 c 4 -1 c 4 -1 c 5 -1 c 4 1 c 4 0 c 5 0 c 4 1 c 5 0 c 4 0 c 4 -1 c 5 0 c
4 1 c 4 2 c 5 1 c 4 1 c 4 -1 c 5 -1 c 4 0 c 5 -1 c 4 0 c 4 0 c 5 -2 c 4 0 c 4 0 c 5 1 c 4 -1 c 5 0 c 4 0 c 4 1 c 5 3 c 4 3 c 4 2 c
5 0 c 4 -6 c 5 -2 c 4 0 c 4 -1 c 5 1 c 4 0 c 4 1 c 5 1 c 4 1 c 5 -2 c 4 -2 c 4 0 c 5 0 c 4 0 c 4 1 c 5 0 c 4 6 c 4 16 c 5 8 c 4 1 c
5 -9 c 4 -16 c 4 -5 c 5 -1 c 4 0 c 4 0 c 5 1 c 4 -1 c 5 0 c 4 1 c 4 0 c 5 0 c 4 -1 c 4 1 c 5 0 c 4 2 c 5 4 c 4 12 c 4 42 c 5 41 c
4 40 c 4 33 c 5 -3 c 4 96 c 4 91 c 5 2 c 4 -44 c 5 -164 c 4 -117 c 4 -25 c 5 -2 c 4 -1 c 4 -4 c 5 -3 c 4 0 c 5 -1 c 4 1 c 4 4 c
5 6 c 4 4 c 4 -1 c 5 -4 c 4 -6 c 5 -3 c 4 0 c 4 0 c 5 1 c 4 0 c 4 0 c 5 1 c 4 2 c 5 4 c 4 4 c 4 1 c 5 -1 c 4 -4 c 4 0 c 5 1 c 4 -2 c
4 -1 c 5 -2 c 4 -1 c 5 1 c 4 2 c 4 5 c 5 5 c 4 3 c 4 -2 c 5 -5 c 4 -3 c 5 -1 c 4 2 c 4 2 c 5 3 c 4 0 c 4 6 c 5 8 c 4 16 c 5 29 c
4 181 c 4 1764 c 5 4008 c 4 16 c 4 -9 c 5 -10 c 4 -2720 c 5 -2803 c 4 -429 c 4 -32 c 5 -10 c 4 -6 c 4 -4 c 5 -2 c 4 -2 c 4 -3 c
5 -3 c 4 -1 c 5 -2 c 4 0 c 4 -1 c 5 1 c 4 1 c 4 1 c 5 0 c 4 -2 c 5 -1 c 4 -2 c 4 -2 c 5 0 c 4 0 c 4 0 c 5 0 c 4 0 c 5 0 c 4 -1 c
4 0 c 5 0 c 4 1 c 4 4 c 5 5 c 4 1 c 5 -2 c 4 -5 c 4 -3 c 5 5 c 4 37 c 4 65 c 5 24 c 4 -3 c 4 -52 c 5 -55 c 4 -15 c 5 1 c 4 5 c
4 22 c 5 157 c 4 249 c 4 114 c 5 -31 c 4 -203 c 5 -230 c 4 -77 c 4 -5 c 5 -3 c 4 -3 c 4 -2 c 5 -2 c 4 0 c 5 0 c 4 1 c 4 0 c 5 3 c
4 23 c 4 30 c 5 9 c 4 -4 c 5 -28 c 4 -26 c 4 -7 c 5 0 c 4 -1 c 4 1 c 5 0 c 4 -1 c 4 0 c 5 -1 c 4 1 c 5 2 c 4 15 c 4 22 c 5 8 c
4 -3 c 4 -17 c 5 -18 c 4 -4 c 5 -1 c 4 -1 c 4 -2 c 5 0 c 4 8 c 4 19 c 5 9 c 4 -1 c 5 -11 c 4 -18 c 4 -7 c 5 3 c 4 12 c 4 5 c 5 1 c
4 -2 c 4 0 c 5 29 c 4 135 c 5 127 c 4 20 c 4 -45 c 5 -131 c 4 -33 c 4 44 c 5 15 c 4 -22 c 5 -85 c 4 -60 c 4 -9 c 5 0 c 4 1 c 4 -2 c
5 -2 c 4 -1 c 5 1 c 4 0 c 4 -1 c 5 -1 c 4 0 c 4 0 c 5 0 c 4 1 c 5 1 c 4 0 c 4 -1 c 5 -1 c 4 0 c 4 0 c 5 0 c 4 0 c 4 0 c 5 0 c 4 0 c
5 0 c 4 0 c 4 0 c 5 1 c 4 -1 c 4 0 c 5 0 c 4 1 c 5 1 c 4 5 c 4 9 c 5 18 c 4 7 c 4 -3 c 5 -9 c 4 -17 c 5 -7 c 4 0 c 4 3 c 5 34 c
4 143 c 4 131 c 5 22 c 4 -58 c 5 -153 c 4 -105 c 4 12 c 5 46 c 4 15 c 4 -2 c 5 -34 c 4 -43 c 4 -13 c 5 -2 c 4 0 c 5 0 c 4 0 c 4 0 c
5 -1 c 4 1 c 4 -1 c 5 0 c 4 0 c 5 0 c 4 0 c 4 2 c 5 0 c 4 0 c 4 -1 c 5 -1 c 4 -1 c 5 0 c 4 0 c 4 1 c 5 0 c 4 0 c 4 -1 c 5 1 c 4 -1 c
5 1 c 4 0 c 4 0 c 5 0 c 4 0 c 4 -1 c 5 0 c 4 2 c 4 1 c 5 0 c 4 1 c 5 0 c 4 -2 c 4 -1 c 5 -1 c 4 1 c 4 1 c 5 9 c 4 12 c 5 6 c 4 8 c
4 2 c 5 -10 c 4 -5 c 4 -10 c 5 -9 c 4 -2 c 5 -1 c 4 0 c 4 0 c 5 0 c 4 0 c 4 1 c 5 -1 c 4 1 c 5 0 c 4 2 c 4 1 c 5 1 c 4 0 c 4 -2 c
5 -2 c 4 -1 c 4 0 c 5 1 c 4 7 c 5 11 c 4 8 c 4 0 c 5 -5 c 4 -2 c 4 12 c 5 27 c 4 27 c 5 1 c 4 -21 c 4 -29 c 5 -26 c 4 -6 c 4 -2 c
5 -1 c 4 -2 c 5 0 c 4 0 c 4 1 c 5 -1 c 4 0 c 4 -1 c 5 -1 c 4 1 c 4 0 c 5 0 c 4 -1 c 5 0 c 4 0 c 4 0 c 5 1 c 4 1 c 4 0 c 5 0 c 4 0 c
5 0 c 4 -1 c 4 0 c 5 1 c 4 2 c 4 1 c 5 2 c 4 -1 c 5 -1 c 4 0 c 4 0 c 5 3 c 4 10 c 4 20 c 5 14 c 4 2 c 5 -11 c 4 -22 c 4 -12 c 5 -4 c
4 1 c 4 4 c 5 2 c 4 0 c 4 -3 c 5 -4 c 4 -2 c 5 -1 c 4 0 c 4 1 c 5 0 c 4 1 c 4 3 c 5 1 c 4 0 c 5 0 c 4 -1 c 4 8 c 5 18 c 4 8 c 4 1 c
5 -10 c 4 -19 c 5 -8 c 4 -3 c 4 0 c 5 0 c 4 1 c 4 -1 c 5 0 c 4 0 c 5 0 c 4 1 c 4 0 c 5 2 c 4 5 c 4 8 c 5 4 c 4 -1 c 4 -6 c 5 -8 c
4 -3 c 5 -1 c 4 1 c 4 0 c 5 1 c 4 -1 c 4 -1 c 5 0 c 4 -1 c 5 1 c 4 7 c 4 6 c 5 2 c 4 -2 c 4 -6 c 5 -5 c 4 2 c 5 28 c 4 102 c 4 73 c
5 21 c 4 -37 c 4 -102 c 5 -77 c 4 -8 c 5 -1 c 4 0 c 4 -2 c 5 2 c 4 0 c 4 0 c 5 0 c 4 -2 c 4 -2 c 5 0 c 4 0 c 5 0 c 4 -1 c 4 2 c
5 1 c 4 1 c 4 1 c 5 0 c 4 -2 c 5 4 c 4 7 c 4 2 c 5 0 c 4 -4 c 4 -6 c 5 -1 c 4 -1 c 5 2 c 4 6 c 4 62 c 5 274 c 4 315 c 4 84 c 5 -70 c
4 -310 c 5 -289 c 4 -71 c 4 -3 c 5 2 c 4 2 c 4 1 c 5 -1 c 4 -2 c 4 -3 c 5 -1 c 4 0 c 5 0 c 4 0 c 4 -1 c 5 0 c 4 -1 c 4 1 c 5 1 c
4 0 c 5 0 c 4 -1 c 4 0 c 5 0 c 4 1 c 4 2 c 5 1 c 4 0 c 5 -1 c 4 -2 c 4 0 c 5 0 c 4 2 c 4 0 c 5 1 c 4 0 c 4 -1 c 5 1 c 4 5 c 5 8 c
4 21 c 4 134 c 5 471 c 4 459 c 4 110 c 5 -157 c 4 -518 c 5 -408 c 4 -104 c 4 -12 c 5 -4 c 4 -2 c 4 -2 c 5 0 c 4 -2 c 5 -1 c 4 -1 c
4 0 c 5 0 c 4 -1 c 4 1 c 5 -1 c 4 0 c 5 0 c 4 1 c 4 1 c 5 0 c 4 2 c 4 -1 c 5 0 c 4 -1 c 4 -1 c 5 1 c 4 1 c 5 0 c 4 -2 c 4 0 c 5 -1 c
4 0 c 4 1 c 5 8 c 4 52 c 5 76 c 4 24 c 4 -3 c 5 -58 c 4 -75 c 4 -22 c 5 -2 c 4 0 c 5 2 c 4 2 c 4 1 c 5 0 c 4 -3 c 4 -2 c 5 -1 c
4 0 c 5 1 c 4 0 c 4 8 c 5 17 c 4 9 c 4 0 c 5 -8 c 4 -18 c 4 -7 c 5 0 c 4 1 c 5 1 c 4 -2 c 4 -1 c 5 -1 c 4 -1 c 4 0 c 5 0 c 4 -1 c
5 1 c 4 0 c 4 0 c 5 2 c 4 2 c 4 2 c 5 1 c 4 -1 c 5 -2 c 4 -1 c 4 -1 c 5 0 c 4 -1 c 4 0 c 5 0 c 4 -2 c 5 0 c 4 1 c 4 0 c 5 0 c 4 1 c
4 0 c 5 1 c 4 2 c 4 0 c 5 0 c 4 -1 c 5 0 c 4 0 c 4 1 c 5 0 c 4 -1 c 4 1 c 5 0 c 4 1 c 5 2 c 4 5 c 4 21 c 5 212 c 4 917 c 4 935 c
5 218 c 4 -221 c 5 -1047 c 4 -868 c 4 -152 c 5 -14 c 4 2 c 4 11 c 5 9 c 4 -1 c 4 2 c 5 27 c 4 47 c 5 33 c 4 53 c 4 -3 c 5 -46 c
4 -45 c 4 -66 c 5 -15 c 4 57 c 5 56 c 4 13 c 4 -11 c 5 -61 c 4 -59 c 4 -6 c 5 2 c 4 -1 c 5 -3 c 4 -21 c 4 15 c 5 -1 c 4 0 c 4 1 c
5 0 c 4 0 c 5 2 c 4 15 c 4 98 c 5 157 c 4 60 c 4 -11 c 5 -97 c 4 -168 c 4 -53 c 5 -4 c 4 -1 c 5 1 c 4 0 c 4 2 c 5 3 c 4 7 c 4 3 c
5 2 c 4 -4 c 5 -5 c 4 -4 c 4 -1 c 5 1 c 4 1 c 4 0 c 5 -2 c 4 -2 c 5 -2 c 4 0 c 4 0 c 5 1 c 4 1 c 4 0 c 5 0 c 4 1 c 5 0 c 4 3 c 4 9 c
5 9 c 4 2 c 4 -3 c 5 -11 c 4 -10 c 4 -2 c 5 0 c 4 0 c 5 0 c 4 1 c 4 0 c 5 0 c 4 0 c 4 -1 c 5 0 c 4 1 c 5 0 c 4 2 c 4 1 c 5 0 c 4 0 c
4 -1 c 5 0 c 4 0 c 5 1 c 4 6 c 4 26 c 5 22 c 4 3 c 4 -5 c 5 -26 c 4 -20 c 5 -5 c 4 -2 c 4 -1 c 5 1 c 4 2 c 4 1 c 5 0 c 4 0 c 4 1 c
5 26 c 4 115 c 5 141 c 4 37 c 4 -30 c 5 -117 c 4 -138 c 4 -35 c 5 -3 c 4 0 c 5 -1 c 4 -1 c 4 -1 c 5 0 c 4 2 c 4 1 c 5 -1 c 4 0 c
5 -1 c 4 -1 c 4 0 c 5 0 c 4 -1 c 4 1 c 5 0 c 4 5 c 5 9 c 4 4 c 4 0 c 5 -4 c 4 -8 c 4 -4 c 5 -1 c 4 0 c 4 -1 c 5 1 c 4 0 c 5 -2 c
4 3 c 4 1 c 5 1 c 4 -1 c 4 -1 c 5 -1 c 4 1 c 5 1 c 4 0 c 4 0 c 5 0 c 4 2 c 4 3 c 5 2 c 4 17 c 5 101 c 4 168 c 4 57 c 5 -12 c 4 -98 c
4 -181 c 5 -49 c 4 -3 c 4 4 c 5 5 c 4 2 c 5 -3 c 4 -4 c 4 -8 c 5 -2 c 4 -1 c 4 -2 c 5 -1 c 4 -1 c 5 1 c 4 0 c 4 0 c 5 0 c 4 1 c
4 1 c 5 0 c 4 3 c 5 6 c 4 1 c 4 0 c 5 -3 c 4 -6 c 4 -2 c 5 0 c 4 0 c 5 0 c 4 -1 c 4 0 c 5 1 c 4 0 c 4 0 c 5 0 c 4 0 c 4 -1 c 5 1 c
4 0 c 5 0 c 4 1 c 4 5 c 5 5 c 4 0 c 4 1 c 5 -6 c 4 -5 c 5 -1 c 4 0 c 4 -1 c 5 0 c 4 0 c 4 0 c 5 0 c 4 0 c 5 0 c 4 0 c 4 0 c 5 2 c
4 4 c 4 3 c 5 0 c 4 -1 c 5 -4 c 4 -2 c 4 -2 c 5 0 c 4 0 c 4 0 c 5 0 c 4 1 c 4 4 c 5 14 c 4 11 c 5 1 c 4 -3 c 4 -12 c 5 -9 c 4 -2 c
4 -1 c 5 -3 c 4 0 c 5 1 c 4 2 c 4 1 c 5 -1 c 4 -1 c 4 -2 c 5 0 c 4 2 c 5 1 c 4 1 c 4 -2 c 5 -1 c 4 0 c 4 2 c 5 2 c 4 2 c 5 1 c
4 -3 c 4 -1 c 5 0 c 4 0 c 4 0 c 5 1 c 4 -1 c 4 -1 c 5 -1 c 4 -1 c 5 -1 c 4 0 c 4 -1 c 5 0 c 4 1 c 4 3 c 5 1 c 4 0 c 5 -1 c 4 -3 c
4 -1 c 5 0 c 4 0 c 4 0 c 5 0 c 4 1 c 5 4 c 4 3 c 4 1 c 5 -1 c 4 -4 c 4 -2 c 5 0 c 4 0 c 5 0 c 4 -1 c 4 0 c 5 1 c 4 0 c 4 0 c 5 0 c
4 3 c 4 2 c 5 5 c 4 3 c 5 1 c 4 -2 c 4 -2 c 5 -3 c 4 7 c 4 34 c 5 34 c 4 4 c 5 -9 c 4 -34 c 4 -33 c 5 -3 c 4 23 c 4 76 c 5 41 c
4 10 c 5 -1 c 4 134 c 4 535 c 5 297 c 4 -10 c 4 -183 c 5 -601 c 4 -282 c 4 -32 c 5 -2 c 4 0 c 5 19 c 4 37 c 4 9 c 5 2 c 4 -19 c
4 -36 c 5 -13 c 4 -2 c 5 1 c 4 32 c 4 243 c 5 606 c 4 252 c 4 -26 c 5 -229 c 4 -617 c 5 -230 c 4 -17 c 4 32 c 5 26 c 4 0 c 4 -11 c
5 -34 c 4 -27 c 5 -3 c 4 14 c 4 137 c 5 437 c 4 271 c 4 15 c 5 -121 c 4 -444 c 4 -270 c 5 -32 c 4 -4 c 5 -5 c 4 -2 c 4 -1 c 5 -1 c
4 0 c 4 0 c 5 -1 c 4 1 c 5 -1 c 4 1 c 4 0 c 5 1 c 4 1 c 4 0 c 5 6 c 4 13 c 5 5 c 4 0 c 4 -6 c 5 -14 c 4 -7 c 4 -1 c 5 2 c 4 2 c
5 0 c 4 2 c 4 10 c 5 19 c 4 7 c 4 0 c 5 -11 c 4 -20 c 4 -8 c 5 -1 c 4 -1 c 5 0 c 4 1 c 4 2 c 5 1 c 4 1 c 4 -1 c 5 0 c 4 3 c 5 3 c
4 1 c 4 2 c 5 0 c 4 -2 c 4 5 c 5 10 c 4 6 c 5 -1 c 4 -4 c 4 -17 c 5 -8 c 4 -2 c 4 0 c 5 -1 c 4 1 c 5 -1 c 4 1 c 4 0 c 5 0 c 4 0 c
4 -1 c 5 0 c 4 0 c 4 -1 c 5 0 c 4 0 c 5 1 c 4 0 c 4 0 c 5 0 c 4 3 c 4 19 c 5 50 c 4 24 c 5 -1 c 4 -15 c 4 -48 c 5 -26 c 4 -3 c
4 -2 c 5 0 c 4 -1 c 5 1 c 4 -1 c 4 -1 c 5 0 c 4 0 c 4 0 c 5 1 c 4 1 c 5 -1 c 4 0 c 4 1 c 5 1 c 4 -1 c 4 0 c 5 0 c 4 0 c 4 0 c 5 0 c
4 1 c 5 4 c 4 18 c 4 12 c 5 12 c 4 30 c 4 -1 c 5 -12 c 4 -13 c 5 -32 c 4 -17 c 4 0 c 5 0 c 4 -1 c 4 0 c 5 -1 c 4 0 c 5 2 c 4 5 c
4 2 c 5 3 c 4 1 c 4 -1 c 5 25 c 4 153 c 4 238 c 5 79 c 4 99 c 5 312 c 4 111 c 4 -20 c 5 -104 c 4 -461 c 4 -381 c 5 -54 c 4 -3 c
5 -1 c 4 0 c 4 0 c 5 1 c 4 3 c 4 6 c 5 19 c 4 137 c 5 647 c 4 875 c 4 191 c 5 -92 c 4 -567 c 4 -939 c 5 -221 c 4 -18 c 5 4 c 4 -10 c
4 -7 c 5 -14 c 4 -12 c 4 -3 c 5 0 c 4 0 c 4 0 c 5 -2 c 4 -1 c 5 0 c 4 -1 c 4 1 c 5 8 c 4 21 c 4 9 c 5 1 c 4 -7 c 5 -19 c 4 -12 c
4 -2 c 5 -2 c 4 0 c 4 0 c 5 1 c 4 -1 c 5 1 c 4 -1 c 4 -1 c 5 0 c 4 0 c 4 1 c 5 1 c 4 1 c 5 0 c 4 -1 c 4 0 c 5 0 c 4 1 c 4 0 c 5 0 c
4 -1 c 4 -1 c 5 0 c 4 0 c 5 1 c 4 0 c 4 0 c 5 0 c 4 -1 c 4 0 c 5 0 c 4 0 c 5 0 c 4 1 c 4 -1 c 5 0 c 4 -1 c 4 0 c 5 1 c 4 -1 c 5 0 c
4 1 c 4 0 c 5 1 c 4 0 c 4 -1 c 5 0 c 4 0 c 5 3 c 4 5 c 4 2 c 5 1 c 4 -1 c 4 -3 c 5 1 c 4 7 c 4 77 c 5 385 c 4 503 c 5 72 c 4 -69 c
4 -351 c 5 -517 c 4 -105 c 4 -5 c 5 -1 c 4 -1 c 5 -1 c 4 -1 c 4 0 c 5 0 c 4 1 c 4 -1 c 5 -2 c 4 0 c 5 1 c 4 0 c 4 0 c 5 -1 c 4 0 c
4 -1 c 5 1 c 4 0 c 4 0 c 5 0 c 4 0 c 5 2 c 4 5 c 4 4 c 5 0 c 4 0 c 4 -5 c 5 -5 c 4 -1 c 5 0 c 4 0 c 4 1 c 5 0 c 4 0 c 4 -1 c 5 -1 c
4 0 c 5 0 c 4 0 c 4 0 c 5 1 c 4 -1 c 4 2 c 5 0 c 4 0 c 5 -1 c 4 -1 c 4 1 c 5 -1 c 4 0 c 4 1 c 5 0 c 4 1 c 4 7 c 5 7 c 4 4 c 5 -1 c
4 -3 c 4 -10 c 5 -4 c 4 -1 c 4 0 c 5 0 c 4 0 c 5 1 c 4 0 c 4 2 c 5 3 c 4 3 c 4 1 c 5 2 c 4 22 c 5 67 c 4 25 c 4 -2 c 5 -19 c 4 -64 c
4 -38 c 5 -3 c 4 0 c 5 0 c 4 0 c 4 0 c 5 0 c 4 1 c 4 0 c 5 0 c 4 1 c 4 0 c 5 -1 c 4 -1 c 5 2 c 4 11 c 4 14 c 5 3 c 4 -5 c 4 -8 c
5 -14 c 4 -1 c 5 1 c 4 0 c 4 0 c 5 -1 c 4 0 c 4 1 c 5 0 c 4 0 c 5 -1 c 4 -1 c 4 0 c 5 1 c 4 14 c 4 47 c 5 39 c 4 2 c 5 -9 c 4 -40 c
4 -48 c 5 -6 c 4 -1 c 4 -1 c 5 1 c 4 -1 c 4 -1 c 5 0 c 4 0 c 5 0 c 4 0 c 4 1 c 5 0 c 4 1 c 4 0 c 5 2 c 4 2 c 5 1 c 4 -1 c 4 -1 c
5 -2 c 4 -2 c 4 -1 c 5 1 c 4 -1 c 5 0 c 4 1 c 4 1 c 5 1 c 4 0 c 4 0 c 5 2 c 4 20 c 5 102 c 4 128 c 4 30 c 5 -11 c 4 -80 c 4 -130 c
5 -20 c 4 1 c 4 -2 c 5 -8 c 4 -17 c 5 7 c 4 16 c 4 4 c 5 0 c 4 -11 c 4 -1 c 5 60 c 4 340 c 5 710 c 4 184 c 4 -39 c 5 -289 c 4 -718 c
4 -249 c 5 -22 c 4 -4 c 5 -1 c 4 -1 c 4 0 c 5 1 c 4 -1 c 4 1 c 5 6 c 4 47 c 4 157 c 5 106 c 4 5 c 5 -38 c 4 -139 c 4 -129 c 5 -6 c
4 24 c 4 16 c 5 -1 c 4 -10 c 5 -22 c 4 -18 c 4 -1 c 5 0 c 4 -1 c 4 0 c 5 0 c 4 0 c 5 -1 c 4 0 c 4 0 c 5 0 c 4 0 c 4 0 c 5 1 c 4 0 c
5 0 c 4 0 c 4 3 c 5 2 c 4 1 c 4 1 c 5 -1 c 4 0 c 4 14 c 5 119 c 4 380 c 5 275 c 4 14 c 4 -91 c 5 -365 c 4 -306 c 4 -38 c 5 2 c 4 5 c
5 2 c 4 -2 c 4 -4 c 5 -8 c 4 -1 c 4 0 c 5 0 c 4 -1 c 5 -1 c 4 -1 c 4 2 c 5 1 c 4 0 c 4 0 c 5 -1 c 4 -1 c 5 0 c 4 -1 c 4 0 c 5 0 c
4 0 c 4 1 c 5 1 c 4 0 c 4 1 c 5 0 c 4 0 c 5 3 c 4 12 c 4 22 c 5 3 c 4 -1 c 4 -9 c 5 -22 c 4 -4 c 5 32 c 4 199 c 4 458 c 5 192 c
4 -15 c 4 -158 c 5 -457 c 4 -229 c 5 -22 c 4 -2 c 4 0 c 5 9 c 4 7 c 4 2 c
5 -1 c 4 -9 c 5 -8 c 4 1 c 4 -17 c 4 59 9549 780 l 4 1 c 5 -13 c 4 -23 c 4 -7 c 5 -1 c 4 12 c 5 10 c 4 1 c 4 -2 c 5 -10 c 4 -10 c
4 4 c 5 6 c 4 6 c 5 1 c 4 -7 c 4 -6 c 5 -7 c 4 -3 c 4 -1 c 5 0 c 4 0 c 5 0 c 4 0 c 4 0 c 5 0 c 4 0 c 4 0 c 5 1 c 4 1 c 5 2 c 4 1 c
4 0 c 5 0 c 4 0 c 4 0 c 5 -1 c 4 -1 c
0 -126 3030 418 l 54 0 3030 418 l 18 -6 c 6 -6 c 6 -12 c 0 -12 c -6 -12 c -6 -6 c -18 -6 c -54 0 c 42 -66 3072 358 l
-12 -6 3180 376 l -12 -12 c -6 -18 c 0 -12 c 6 -18 c 12 -12 c 12 -6 c 18 0 c 12 6 c 12 12 c 6 18 c 0 12 c -6 18 c -12 12 c -12 6 c
-18 0 c 24 -84 3264 376 l -24 -84 3312 376 l 24 -84 3312 376 l -24 -84 3360 376 l 108 0 3402 364 l 108 0 3402 328 l 66 0 3660 418 l
-36 -48 c 18 0 c 12 -6 c 6 -6 c 6 -18 c 0 -12 c -6 -18 c -12 -12 c -18 -6 c -18 0 c -18 6 c -6 6 c -6 12 c -60 -84 3828 418 l 90 0 c
0 -126 3828 418 l 12 6 4290 394 l 18 18 c 0 -126 c -6 -6 4404 376 l 6 -6 c 6 6 c -6 6 c -6 -6 4404 304 l 6 -6 c 6 6 c -6 6 c
-48 -126 4584 418 l 48 -126 4584 418 l 60 0 4554 334 l 0 -84 4662 376 l 6 18 4662 340 l 12 12 c 12 6 c 18 0 c -12 12 4806 358 l
-12 6 c -18 0 c -12 -6 c -12 -12 c -6 -18 c 0 -12 c 6 -18 c 12 -12 c 12 -6 c 18 0 c 12 6 c 12 12 c 108 0 4848 346 l
-18 -6 5034 418 l -12 -18 c -6 -30 c 0 -18 c 6 -30 c 12 -18 c 18 -6 c 12 0 c 18 6 c 12 18 c 6 30 c 0 18 c -6 30 c -12 18 c -18 6 c
-12 0 c 66 0 5130 418 l -36 -48 c 18 0 c 12 -6 c 6 -6 c 6 -18 c 0 -12 c -6 -18 c -12 -12 c -18 -6 c -18 0 c -18 6 c -6 6 c -6 12 c
-59 0 5309 418 l -6 -54 c 6 6 c 17 6 c 18 0 c 18 -6 c 12 -12 c 6 -18 c 0 -12 c -6 -18 c -12 -12 c -18 -6 c -18 0 c -17 6 c -6 6 c
-6 12 c -6 -6 5369 304 l 6 -6 c 6 6 c -6 6 c -12 0 5459 418 l -12 -6 c -6 -18 c 0 -102 c 42 0 5411 376 l 6 -6 5489 418 l 6 6 c
-6 6 c -6 -6 c 0 -84 5495 376 l 0 -102 5549 418 l 6 -18 c 12 -6 c 12 0 c 42 0 5531 376 l -6 12 5675 358 l -18 6 c -18 0 c -18 -6 c
-6 -12 c 6 -12 c 12 -6 c 30 -6 c 12 -6 c 6 -12 c 0 -6 c -6 -12 c -18 -6 c -18 0 c -18 6 c -6 12 c 0 -192 6005 442 l
0 -192 6011 442 l 42 0 6005 442 l 42 0 6005 250 l 0 6 6089 388 l 6 12 c 6 6 c 12 6 c 24 0 c 12 -6 c 6 -6 c 6 -12 c 0 -12 c -6 -12 c
-12 -18 c -60 -60 c 84 0 c -6 -6 6215 376 l 6 -6 c 6 6 c -6 6 c -6 -6 6215 304 l 6 -6 c 6 6 c -6 6 c -48 -126 6395 418 l
48 -126 6395 418 l 60 0 6365 334 l 0 -84 6473 376 l 6 18 6473 340 l 12 12 c 12 6 c 18 0 c -12 12 6617 358 l -12 6 c -18 0 c -12 -6 c
-12 -12 c -6 -18 c 0 -12 c 6 -18 c 12 -12 c 12 -6 c 18 0 c 12 6 c 12 12 c 108 0 6659 346 l -18 -6 6845 418 l -12 -18 c -6 -30 c
0 -18 c 6 -30 c 12 -18 c 18 -6 c 12 0 c 18 6 c 12 18 c 6 30 c 0 18 c -6 30 c -12 18 c -18 6 c -12 0 c 66 0 6941 418 l -36 -48 c
18 0 c 12 -6 c 6 -6 c 6 -18 c 0 -12 c -6 -18 c -12 -12 c -18 -6 c -18 0 c -18 6 c -6 6 c -6 12 c -6 12 7127 400 l -18 6 c -12 0 c
-18 -6 c -12 -18 c -6 -30 c 0 -30 c 6 -24 c 12 -12 c 18 -6 c 6 0 c 18 6 c 12 12 c 6 18 c 0 6 c -6 18 c -12 12 c -18 6 c -6 0 c
-18 -6 c -12 -12 c -6 -18 c -6 -6 7181 304 l 6 -6 c 6 6 c -6 6 c -12 0 7271 418 l -12 -6 c -6 -18 c 0 -102 c 42 0 7223 376 l
6 -6 7301 418 l 6 6 c -6 6 c -6 -6 c 0 -84 7307 376 l 0 -102 7361 418 l 6 -18 c 12 -6 c 12 0 c 42 0 7343 376 l -6 12 7487 358 l
-18 6 c -18 0 c -18 -6 c -6 -12 c 6 -12 c 12 -6 c 30 -6 c 12 -6 c 6 -12 c 0 -6 c -6 -12 c -18 -6 c -18 0 c -18 6 c -6 12 c
0 -192 7559 442 l 0 -192 7565 442 l 42 0 7523 442 l 42 0 7523 250 l
0 -250 1134 1788 l 0 -38 1091 1905 l 34 -4 c -4 4 c -4 11 c 0 12 c 4 11 c 8 8 c 11 3 c 7 0 c 12 -3 c 7 -8 c 4 -11 c 0 -12 c -4 -11 c
-3 -4 c -8 -3 c 79 -38 1091 1988 l 0 53 1091 1935 l 12 -4 1117 2060 l 7 -7 c 4 -12 c 0 -4 c -4 -11 c -7 -7 c -12 -4 c -4 0 c -11 4 c
-7 7 c -4 11 c 0 4 c 4 12 c 7 7 c 15 4 c 19 0 c 19 -4 c 11 -7 c 4 -12 c 0 -7 c -4 -12 c -7 -3 c -7 -3 1102 2135 l -4 -12 c 0 -7 c
4 -12 c 11 -7 c 19 -4 c 19 0 c 15 4 c 7 7 c 4 12 c 0 4 c -4 11 c -7 7 c -12 4 c -3 0 c -12 -4 c -7 -7 c -4 -11 c 0 -4 c 4 -12 c
7 -7 c 12 -4 c 3 -3 1163 2169 l 4 3 c -4 4 c -3 -4 c 4 -11 1091 2222 l 11 -8 c 19 -3 c 11 0 c 19 3 c 11 8 c 4 11 c 0 8 c -4 11 c
-11 8 c -19 4 c -11 0 c -19 -4 c -11 -8 c -4 -11 c 0 -8 c -7 -3 1102 2324 l -4 -12 c 0 -7 c 4 -12 c 11 -7 c 19 -4 c 19 0 c 15 4 c
7 7 c 4 12 c 0 4 c -4 11 c -7 7 c -12 4 c -3 0 c -12 -4 c -7 -7 c -4 -11 c 0 -4 c 4 -12 c 7 -7 c 12 -4 c 4 -12 1091 2370 l 7 -3 c
8 0 c 7 3 c 4 8 c 4 15 c 4 11 c 7 8 c 8 4 c 11 0 c 8 -4 c 3 -4 c 4 -11 c 0 -15 c -4 -12 c -3 -3 c -8 -4 c -11 0 c -8 4 c -7 7 c
-4 12 c -4 15 c -4 7 c -7 4 c -8 0 c -7 -4 c -4 -11 c 0 -15 c 0 -250 1261 1380 l 0 -38 1217 1497 l 34 -4 c -3 4 c -4 11 c 0 12 c
4 11 c 7 8 c 12 3 c 7 0 c 11 -3 c 8 -8 c 4 -11 c 0 -12 c -4 -11 c -4 -4 c -7 -3 c 80 -38 1217 1580 l 0 53 1217 1527 l
11 -4 1244 1652 l 8 -7 c 4 -12 c 0 -4 c -4 -11 c -8 -7 c -11 -4 c -4 0 c -11 4 c -8 7 c -4 11 c 0 4 c 4 12 c 8 7 c 15 4 c 19 0 c
19 -4 c 11 -7 c 4 -12 c 0 -7 c -4 -12 c -8 -3 c 80 -38 1217 1731 l 0 53 1217 1678 l 4 -3 1289 1761 l 4 3 c -4 4 c -4 -4 c
0 42 1217 1799 l 31 -23 c 0 12 c 3 7 c 4 4 c 12 4 c 7 0 c 11 -4 c 8 -8 c 4 -11 c 0 -11 c -4 -12 c -4 -4 c -7 -3 c -3 7 1232 1879 l
-12 12 c 80 0 c 11 -4 1244 1992 l 8 -7 c 4 -12 c 0 -3 c -4 -12 c -8 -7 c -11 -4 c -4 0 c -11 4 c -8 7 c -4 12 c 0 3 c 4 12 c 8 7 c
15 4 c 19 0 c 19 -4 c 11 -7 c 4 -12 c 0 -7 c -4 -12 c -8 -3 c 0 -250 1378 1434 l 0 -38 1334 1551 l 34 -4 c -4 4 c -3 11 c 0 12 c
3 11 c 8 8 c 11 3 c 8 0 c 11 -3 c 8 -8 c 4 -11 c 0 -12 c -4 -11 c -4 -4 c -8 -4 c 80 -38 1334 1634 l 0 53 1334 1581 l
11 -4 1361 1706 l 8 -8 c 3 -11 c 0 -4 c -3 -11 c -8 -8 c -11 -3 c -4 0 c -11 3 c -8 8 c -4 11 c 0 4 c 4 11 c 8 8 c 15 4 c 19 0 c
18 -4 c 12 -8 c 4 -11 c 0 -7 c -4 -12 c -8 -4 c 4 -11 1334 1751 l 8 -4 c 7 0 c 8 4 c 3 7 c 4 15 c 4 12 c 8 7 c 7 4 c 11 0 c 8 -4 c
4 -3 c 4 -12 c 0 -15 c -4 -11 c -4 -4 c -8 -4 c -11 0 c -7 4 c -8 8 c -4 11 c -4 15 c -3 8 c -8 3 c -7 0 c -8 -3 c -4 -12 c 0 -15 c
4 -3 1406 1815 l 4 3 c -4 4 c -4 -4 c 53 -37 1334 1883 l 0 56 c 80 0 1334 1883 l 80 -38 1334 1974 l 0 53 1334 1921 l
4 -12 1334 2016 l 8 -3 c 7 0 c 8 3 c 3 8 c 4 15 c 4 11 c 8 8 c 7 4 c 11 0 c 8 -4 c 4 -4 c 4 -11 c 0 -15 c -4 -12 c -4 -3 c -8 -4 c
-11 0 c -7 4 c -8 7 c -4 11 c -4 16 c -3 7 c -8 4 c -7 0 c -8 -4 c -4 -11 c 0 -15 c 0 -249 1615 4675 l 0 -38 1571 4793 l 34 -4 c
-3 4 c -4 11 c 0 12 c 4 11 c 7 7 c 12 4 c 7 0 c 11 -4 c 8 -7 c 4 -11 c 0 -12 c -4 -11 c -4 -4 c -7 -4 c 4 -12 1571 4842 l 8 -3 c
7 0 c 8 3 c 4 8 c 3 15 c 4 11 c 8 8 c 7 4 c 12 0 c 7 -4 c 4 -4 c 4 -11 c 0 -15 c -4 -12 c -4 -3 c -7 -4 c -12 0 c -7 4 c -8 7 c
-4 12 c -3 15 c -4 7 c -8 4 c -7 0 c -8 -4 c -4 -11 c 0 -15 c 4 -11 1571 4921 l 12 -8 c 18 -4 c 12 0 c 19 4 c 11 8 c 4 11 c 0 8 c
-4 11 c -11 8 c -19 3 c -12 0 c -18 -3 c -12 -8 c -4 -11 c 0 -8 c 4 -12 1571 4997 l 12 -7 c 18 -4 c 12 0 c 19 4 c 11 7 c 4 12 c
0 7 c -4 12 c -11 7 c -19 4 c -12 0 c -18 -4 c -12 -7 c -4 -12 c 0 -7 c 4 -4 1643 5057 l 4 4 c -4 4 c -4 -4 c 4 -11 1571 5106 l
8 -4 c 7 0 c 8 4 c 4 8 c 3 15 c 4 11 c 8 8 c 7 3 c 12 0 c 7 -3 c 4 -4 c 4 -12 c 0 -15 c -4 -11 c -4 -4 c -7 -4 c -12 0 c -7 4 c
-8 8 c -4 11 c -3 15 c -4 8 c -8 4 c -7 0 c -8 -4 c -4 -12 c 0 -15 c 0 41 1571 5171 l 31 -23 c 0 12 c 3 7 c 4 4 c 12 4 c 7 0 c
11 -4 c 8 -7 c 4 -12 c 0 -11 c -4 -11 c -4 -4 c -7 -4 c 4 -11 1571 5261 l 12 -8 c 18 -3 c 12 0 c 19 3 c 11 8 c 4 11 c 0 8 c -4 11 c
-11 8 c -19 4 c -12 0 c -18 -4 c -12 -8 c -4 -11 c 0 -8 c 0 -249 1950 7019 l 0 -38 1907 7136 l 34 -3 c -4 3 c -4 12 c 0 11 c 4 11 c
8 8 c 11 4 c 7 0 c 12 -4 c 7 -8 c 4 -11 c 0 -11 c -4 -12 c -3 -3 c -8 -4 c 4 -11 1907 7185 l 7 -4 c 8 0 c 7 4 c 4 8 c 4 15 c 4 11 c
7 8 c 8 3 c 11 0 c 8 -3 c 3 -4 c 4 -11 c 0 -16 c -4 -11 c -3 -4 c -8 -3 c -11 0 c -8 3 c -7 8 c -4 11 c -4 15 c -4 8 c -7 4 c -8 0 c
-7 -4 c -4 -11 c 0 -16 c 4 -12 1907 7265 l 11 -7 c 19 -4 c 11 0 c 19 4 c 11 7 c 4 12 c 0 7 c -4 12 c -11 7 c -19 4 c -11 0 c
-19 -4 c -11 -7 c -4 -12 c 0 -7 c 53 -37 1907 7355 l 0 56 c 79 0 1907 7355 l 3 -4 1979 7401 l 4 4 c -4 4 c -3 -4 c -4 8 1922 7442 l
-11 11 c 79 0 c 53 -37 1907 7544 l 0 56 c 79 0 1907 7544 l -4 7 1922 7594 l -11 11 c 79 0 c 0 -249 2108 1299 l 0 -37 2065 1416 l
34 -4 c -4 4 c -4 11 c 0 11 c 4 12 c 8 7 c 11 4 c 8 0 c 11 -4 c 7 -7 c 4 -12 c 0 -11 c -4 -11 c -3 -4 c -8 -4 c 4 -12 2065 1466 l
7 -4 c 8 0 c 7 4 c 4 8 c 4 15 c 4 11 c 7 8 c 8 4 c 11 0 c 8 -4 c 3 -4 c 4 -11 c 0 -15 c -4 -12 c -3 -4 c -8 -3 c -11 0 c -8 3 c
-7 8 c -4 11 c -4 15 c -4 8 c -7 4 c -8 0 c -7 -4 c -4 -11 c 0 -15 c 4 -11 2065 1545 l 11 -8 c 19 -4 c 11 0 c 19 4 c 11 8 c 4 11 c
0 7 c -4 12 c -11 7 c -19 4 c -11 0 c -19 -4 c -11 -7 c -4 -12 c 0 -7 c 0 -38 2065 1643 l 34 -3 c -4 3 c -4 12 c 0 11 c 4 11 c 8 8 c
11 4 c 8 0 c 11 -4 c 7 -8 c 4 -11 c 0 -11 c -4 -12 c -3 -3 c -8 -4 c 3 -4 2137 1681 l 4 4 c -4 4 c -3 -4 c 79 -38 2065 1764 l
0 53 2065 1711 l 4 -11 2065 1809 l 11 -7 c 19 -4 c 11 0 c 19 4 c 11 7 c 4 11 c 0 8 c -4 11 c -11 8 c -19 4 c -11 0 c -19 -4 c
-11 -8 c -4 -11 c 0 -8 c -4 0 2084 1866 l -8 4 c -3 4 c -4 7 c 0 15 c 4 8 c 3 4 c 8 4 c 8 0 c 7 -4 c 11 -8 c 38 -38 c 0 53 c
0 -250 2310 1303 l 0 -38 2267 1420 l 34 -4 c -4 4 c -4 12 c 0 11 c 4 11 c 7 8 c 12 4 c 7 0 c 12 -4 c 7 -8 c 4 -11 c 0 -11 c -4 -12 c
-4 -4 c -7 -3 c 3 -11 2267 1469 l 8 -4 c 7 0 c 8 4 c 4 7 c 4 16 c 3 11 c 8 7 c 7 4 c 12 0 c 7 -4 c 4 -3 c 4 -12 c 0 -15 c -4 -11 c
-4 -4 c -7 -4 c -12 0 c -7 4 c -8 8 c -3 11 c -4 15 c -4 8 c -8 3 c -7 0 c -8 -3 c -3 -12 c 0 -15 c 3 -12 2267 1549 l 12 -7 c
19 -4 c 11 0 c 19 4 c 11 7 c 4 12 c 0 7 c -4 11 c -11 8 c -19 4 c -11 0 c -19 -4 c -12 -8 c -3 -11 c 0 -7 c 79 -37 2267 1654 l
0 53 2267 1601 l 4 -4 2338 1685 l 4 4 c -4 3 c -4 -3 c -8 -4 2278 1764 l -3 -11 c 0 -8 c 3 -11 c 12 -8 c 19 -3 c 18 0 c 16 3 c 7 8 c
4 11 c 0 4 c -4 11 c -7 8 c -12 4 c -4 0 c -11 -4 c -7 -8 c -4 -11 c 0 -4 c 4 -11 c 7 -8 c 11 -3 c 3 -11 2267 1809 l 8 -4 c 7 0 c
8 4 c 4 8 c 4 15 c 3 11 c 8 8 c 7 3 c 12 0 c 7 -3 c 4 -4 c 4 -12 c 0 -15 c -4 -11 c -4 -4 c -7 -4 c -12 0 c -7 4 c -8 8 c -3 11 c
-4 15 c -4 8 c -8 4 c -7 0 c -8 -4 c -3 -12 c 0 -15 c -4 8 2282 1877 l -11 11 c 79 0 c 0 -249 2850 1591 l 0 -37 2806 1708 l 34 -4 c
-3 4 c -4 11 c 0 11 c 4 12 c 7 7 c 12 4 c 7 0 c 11 -4 c 8 -7 c 4 -12 c 0 -11 c -4 -11 c -4 -4 c -7 -4 c 4 -12 2806 1758 l 8 -4 c
7 0 c 8 4 c 4 8 c 3 15 c 4 11 c 8 8 c 7 4 c 12 0 c 7 -4 c 4 -4 c 4 -11 c 0 -15 c -4 -12 c -4 -4 c -7 -3 c -12 0 c -7 3 c -8 8 c
-4 11 c -3 15 c -4 8 c -8 4 c -7 0 c -8 -4 c -4 -11 c 0 -15 c -3 7 2821 1826 l -12 11 c 80 0 c -4 0 2825 1894 l -7 3 c -4 4 c -4 8 c
0 15 c 4 7 c 4 4 c 7 4 c 8 0 c 8 -4 c 11 -7 c 38 -38 c 0 53 c 4 -4 2878 1973 l 4 4 c -4 4 c -4 -4 c 11 -3 2833 2052 l 8 -8 c 4 -11 c
0 -4 c -4 -11 c -8 -8 c -11 -4 c -4 0 c -11 4 c -8 8 c -4 11 c 0 4 c 4 11 c 8 8 c 15 3 c 19 0 c 19 -3 c 11 -8 c 4 -11 c 0 -8 c
-4 -11 c -8 -4 c 80 -38 2806 2132 l 0 53 2806 2079 l -4 0 2825 2158 l -7 4 c -4 4 c -4 7 c 0 15 c 4 8 c 4 4 c 7 4 c 8 0 c 8 -4 c
11 -8 c 38 -38 c 0 53 c 0 -249 3104 7019 l 0 -38 3060 7136 l 34 -3 c -4 3 c -3 12 c 0 11 c 3 11 c 8 8 c 11 4 c 8 0 c 11 -4 c 8 -8 c
3 -11 c 0 -11 c -3 -12 c -4 -3 c -8 -4 c 4 -11 3060 7185 l 7 -4 c 8 0 c 8 4 c 3 8 c 4 15 c 4 11 c 7 8 c 8 3 c 11 0 c 8 -3 c 4 -4 c
3 -11 c 0 -16 c -3 -11 c -4 -4 c -8 -3 c -11 0 c -8 3 c -7 8 c -4 11 c -4 15 c -3 8 c -8 4 c -8 0 c -7 -4 c -4 -11 c 0 -16 c
-4 8 3075 7253 l -11 11 c 79 0 c 0 -38 3060 7363 l 34 -4 c -4 4 c -3 12 c 0 11 c 3 11 c 8 8 c 11 4 c 8 0 c 11 -4 c 8 -8 c 3 -11 c
0 -11 c -3 -12 c -4 -4 c -8 -3 c 4 -4 3132 7401 l 3 4 c -3 4 c -4 -4 c 53 -38 3060 7469 l 0 57 c 79 0 3060 7469 l -4 0 3079 7510 l
-7 4 c -4 4 c -4 8 c 0 15 c 4 7 c 4 4 c 7 4 c 8 0 c 7 -4 c 12 -8 c 37 -37 c 0 53 c -4 0 3079 7586 l -7 4 c -4 4 c -4 7 c 0 15 c
4 8 c 4 4 c 7 3 c 8 0 c 7 -3 c 12 -8 c 37 -38 c 0 53 c 0 -249 3867 1357 l 0 -37 3823 1474 l 34 -4 c -3 4 c -4 11 c 0 11 c 4 12 c
7 7 c 11 4 c 8 0 c 11 -4 c 8 -7 c 4 -12 c 0 -11 c -4 -11 c -4 -4 c -7 -4 c 4 -11 3823 1523 l 8 -4 c 7 0 c 8 4 c 4 8 c 3 15 c 4 11 c
8 8 c 7 3 c 12 0 c 7 -3 c 4 -4 c 4 -11 c 0 -16 c -4 -11 c -4 -4 c -7 -3 c -12 0 c -7 3 c -8 8 c -4 11 c -3 15 c -4 8 c -8 4 c -7 0 c
-8 -4 c -4 -11 c 0 -16 c -4 0 3842 1584 l -7 4 c -4 3 c -4 8 c 0 15 c 4 8 c 4 4 c 7 3 c 8 0 c 8 -3 c 11 -8 c 38 -38 c 0 53 c
-4 0 3842 1660 l -7 3 c -4 4 c -4 8 c 0 15 c 4 7 c 4 4 c 7 4 c 8 0 c 8 -4 c 11 -7 c 38 -38 c 0 53 c 4 -4 3895 1739 l 4 4 c -4 4 c
-4 -4 c 80 -38 3823 1822 l 0 53 3823 1769 l 11 -4 3850 1894 l 8 -7 c 3 -12 c 0 -4 c -3 -11 c -8 -8 c -11 -3 c -4 0 c -11 3 c -8 8 c
-4 11 c 0 4 c 4 12 c 8 7 c 15 4 c 19 0 c 19 -4 c 11 -7 c 4 -12 c 0 -7 c -4 -12 c -8 -4 c 0 41 3823 1928 l 31 -22 c 0 11 c 3 8 c
4 3 c 11 4 c 8 0 c 11 -4 c 8 -7 c 4 -11 c 0 -12 c -4 -11 c -4 -4 c -7 -4 c 0 -249 4236 1317 l 0 -37 4192 1434 l 34 -4 c -4 4 c
-3 11 c 0 11 c 3 12 c 8 7 c 11 4 c 8 0 c 11 -4 c 8 -7 c 4 -12 c 0 -11 c -4 -11 c -4 -4 c -8 -4 c 4 -12 4192 1484 l 8 -3 c 7 0 c
8 3 c 3 8 c 4 15 c 4 11 c 8 8 c 7 4 c 11 0 c 8 -4 c 4 -4 c 4 -11 c 0 -15 c -4 -12 c -4 -3 c -8 -4 c -11 0 c -7 4 c -8 7 c -4 11 c
-4 16 c -3 7 c -8 4 c -7 0 c -8 -4 c -4 -11 c 0 -15 c -4 0 4211 1544 l -7 4 c -4 4 c -4 7 c 0 15 c 4 8 c 4 4 c 7 3 c 8 0 c 7 -3 c
12 -8 c 38 -38 c 0 53 c -8 -4 4204 1665 l -4 -11 c 0 -8 c 4 -11 c 11 -8 c 19 -3 c 19 0 c 15 3 c 8 8 c 4 11 c 0 4 c -4 11 c -8 8 c
-11 4 c -4 0 c -11 -4 c -8 -8 c -4 -11 c 0 -4 c 4 -11 c 8 -8 c 11 -3 c 4 -4 4264 1699 l 4 4 c -4 4 c -4 -4 c -4 0 4211 1733 l -7 4 c
-4 4 c -4 7 c 0 15 c 4 8 c 4 4 c 7 3 c 8 0 c 7 -3 c 12 -8 c 38 -38 c 0 53 c 80 -38 4192 1858 l 0 53 4192 1805 l -4 0 4211 1884 l
-7 4 c -4 4 c -4 7 c 0 15 c 4 8 c 4 4 c 7 4 c 8 0 c 7 -4 c 12 -8 c 38 -38 c 0 53 c 0 -249 4709 1459 l 0 -37 4665 1576 l 34 -4 c
-4 4 c -3 11 c 0 11 c 3 12 c 8 7 c 11 4 c 8 0 c 11 -4 c 8 -7 c 4 -12 c 0 -11 c -4 -11 c -4 -4 c -8 -4 c 4 -12 4665 1626 l 8 -3 c
7 0 c 8 3 c 3 8 c 4 15 c 4 11 c 8 8 c 7 4 c 11 0 c 8 -4 c 4 -4 c 4 -11 c 0 -15 c -4 -12 c -4 -3 c -8 -4 c -11 0 c -7 4 c -8 7 c
-4 11 c -4 16 c -3 7 c -8 4 c -7 0 c -8 -4 c -4 -11 c 0 -15 c 0 41 4665 1690 l 30 -22 c 0 11 c 4 8 c 4 3 c 11 4 c 8 0 c 11 -4 c
8 -7 c 4 -11 c 0 -12 c -4 -11 c -4 -4 c -8 -4 c 4 -12 4665 1781 l 11 -7 c 19 -4 c 12 0 c 18 4 c 12 7 c 4 12 c 0 7 c -4 11 c -12 8 c
-18 4 c -12 0 c -19 -4 c -11 -8 c -4 -11 c 0 -7 c 4 -4 4737 1841 l 4 4 c -4 4 c -4 -4 c 4 -11 4665 1890 l 8 -4 c 7 0 c 8 4 c 3 7 c
4 16 c 4 11 c 8 7 c 7 4 c 11 0 c 8 -4 c 4 -3 c 4 -12 c 0 -15 c -4 -11 c -4 -4 c -8 -4 c -11 0 c -7 4 c -8 8 c -4 11 c -4 15 c -3 8 c
-8 3 c -7 0 c -8 -3 c -4 -12 c 0 -15 c -4 0 4684 1951 l -7 3 c -4 4 c -4 8 c 0 15 c 4 7 c 4 4 c 7 4 c 8 0 c 7 -4 c 12 -7 c 38 -38 c
0 53 c 80 -37 4665 2075 l 0 53 4665 2022 l 0 -250 4872 1977 l 0 -38 4828 2094 l 34 -3 c -4 3 c -4 12 c 0 11 c 4 11 c 8 8 c 11 4 c
8 0 c 11 -4 c 7 -8 c 4 -11 c 0 -11 c -4 -12 c -3 -3 c -8 -4 c 4 -11 4828 2143 l 7 -4 c 8 0 c 7 4 c 4 8 c 4 15 c 4 11 c 7 8 c 8 3 c
11 0 c 8 -3 c 3 -4 c 4 -12 c 0 -15 c -4 -11 c -3 -4 c -8 -4 c -11 0 c -8 4 c -7 8 c -4 11 c -4 15 c -4 8 c -7 4 c -8 0 c -7 -4 c
-4 -12 c 0 -15 c 0 41 4828 2208 l 30 -23 c 0 12 c 4 7 c 4 4 c 11 4 c 8 0 c 11 -4 c 7 -7 c 4 -12 c 0 -11 c -4 -11 c -3 -4 c -8 -4 c
-4 0 4847 2279 l -8 4 c -3 4 c -4 7 c 0 16 c 4 7 c 3 4 c 8 4 c 8 0 c 7 -4 c 11 -8 c 38 -37 c 0 52 c 3 -4 4900 2359 l 4 4 c -4 3 c
-3 -3 c 0 41 4828 2397 l 30 -23 c 0 12 c 4 7 c 4 4 c 11 4 c 8 0 c 11 -4 c 7 -7 c 4 -12 c 0 -11 c -4 -11 c -3 -4 c -8 -4 c
79 -37 4828 2517 l 0 52 4828 2465 l 4 -12 4828 2563 l 11 -7 c 19 -4 c 11 0 c 19 4 c 11 7 c 4 12 c 0 7 c -4 12 c -11 7 c -19 4 c
-11 0 c -19 -4 c -11 -7 c -4 -12 c 0 -7 c 0 -250 5072 2443 l 0 -38 5028 2560 l 34 -4 c -3 4 c -4 11 c 0 12 c 4 11 c 7 8 c 12 3 c
7 0 c 12 -3 c 7 -8 c 4 -11 c 0 -12 c -4 -11 c -4 -4 c -7 -3 c 4 -11 5028 2609 l 8 -4 c 7 0 c 8 4 c 4 7 c 3 15 c 4 12 c 8 7 c 7 4 c
12 0 c 7 -4 c 4 -3 c 4 -12 c 0 -15 c -4 -11 c -4 -4 c -7 -4 c -12 0 c -7 4 c -8 7 c -4 12 c -3 15 c -4 8 c -8 3 c -7 0 c -8 -3 c
-4 -12 c 0 -15 c 0 42 5028 2673 l 31 -23 c 0 12 c 3 7 c 4 4 c 12 4 c 7 0 c 12 -4 c 7 -8 c 4 -11 c 0 -11 c -4 -12 c -4 -3 c -7 -4 c
53 -38 5028 2779 l 0 57 c 80 0 5028 2779 l 4 -3 5100 2824 l 4 3 c -4 4 c -4 -4 c -3 0 5047 2859 l -8 3 c -4 4 c -4 8 c 0 15 c 4 7 c
4 4 c 8 4 c 7 0 c 8 -4 c 11 -7 c 38 -38 c 0 53 c -8 -3 5040 2979 l -4 -12 c 0 -7 c 4 -12 c 12 -7 c 18 -4 c 19 0 c 16 4 c 7 7 c
4 12 c 0 4 c -4 11 c -7 7 c -12 4 c -4 0 c -11 -4 c -8 -7 c -3 -11 c 0 -4 c 3 -12 c 8 -7 c 11 -4 c 0 42 5028 3013 l 31 -23 c 0 12 c
3 7 c 4 4 c 12 4 c 7 0 c 12 -4 c 7 -8 c 4 -11 c 0 -11 c -4 -12 c -4 -3 c -7 -4 c 0 -250 5571 3545 l 0 -38 5527 3662 l 34 -3 c -4 3 c
-4 12 c 0 11 c 4 11 c 8 8 c 11 4 c 8 0 c 11 -4 c 8 -8 c 3 -11 c 0 -11 c -3 -12 c -4 -3 c -8 -4 c 4 -11 5527 3711 l 7 -4 c 8 0 c
7 4 c 4 8 c 4 15 c 4 11 c 7 8 c 8 3 c 11 0 c 8 -3 c 4 -4 c 3 -12 c 0 -15 c -3 -11 c -4 -4 c -8 -4 c -11 0 c -8 4 c -7 8 c -4 11 c
-4 15 c -4 8 c -7 4 c -8 0 c -7 -4 c -4 -12 c 0 -15 c 0 41 5527 3776 l 30 -22 c 0 11 c 4 7 c 4 4 c 11 4 c 8 0 c 11 -4 c 8 -7 c
3 -12 c 0 -11 c -3 -11 c -4 -4 c -8 -4 c 4 -12 5527 3863 l 7 -4 c 8 0 c 7 4 c 4 8 c 4 15 c 4 11 c 7 8 c 8 4 c 11 0 c 8 -4 c 4 -4 c
3 -11 c 0 -15 c -3 -12 c -4 -4 c -8 -3 c -11 0 c -8 3 c -7 8 c -4 11 c -4 15 c -4 8 c -7 4 c -8 0 c -7 -4 c -4 -11 c 0 -15 c
4 -4 5599 3927 l 3 4 c -3 4 c -4 -4 c 12 -4 5553 4006 l 7 -7 c 4 -12 c 0 -3 c -4 -12 c -7 -7 c -12 -4 c -3 0 c -12 4 c -7 7 c
-4 12 c 0 3 c 4 12 c 7 7 c 15 4 c 19 0 c 19 -4 c 12 -7 c 3 -12 c 0 -7 c -3 -11 c -8 -4 c 0 -38 5527 4078 l 34 -4 c -4 4 c -4 12 c
0 11 c 4 11 c 8 8 c 11 4 c 8 0 c 11 -4 c 8 -8 c 3 -11 c 0 -11 c -3 -12 c -4 -4 c -8 -3 c 4 -11 5527 4131 l 11 -8 c 19 -4 c 11 0 c
19 4 c 12 8 c 3 11 c 0 7 c -3 12 c -12 7 c -19 4 c -11 0 c -19 -4 c -11 -7 c -4 -12 c 0 -7 c 0 -250 5751 1564 l 0 -38 5708 1681 l
34 -4 c -4 4 c -4 12 c 0 11 c 4 11 c 8 8 c 11 4 c 7 0 c 12 -4 c 7 -8 c 4 -11 c 0 -11 c -4 -12 c -3 -4 c -8 -3 c 4 -11 5708 1730 l
7 -4 c 8 0 c 7 4 c 4 7 c 4 15 c 4 12 c 7 7 c 8 4 c 11 0 c 8 -4 c 3 -3 c 4 -12 c 0 -15 c -4 -11 c -3 -4 c -8 -4 c -11 0 c -8 4 c
-7 8 c -4 11 c -4 15 c -4 8 c -7 3 c -8 0 c -7 -3 c -4 -12 c 0 -15 c 53 -38 5708 1825 l 0 57 c 79 0 5708 1825 l 4 -11 5708 1885 l
11 -8 c 19 -4 c 11 0 c 19 4 c 11 8 c 4 11 c 0 8 c -4 11 c -11 8 c -19 3 c -11 0 c -19 -3 c -11 -8 c -4 -11 c 0 -8 c 3 -4 5780 1946 l
4 4 c -4 3 c -3 -3 c -7 -4 5719 2025 l -4 -11 c 0 -8 c 4 -11 c 11 -8 c 19 -3 c 19 0 c 15 3 c 7 8 c 4 11 c 0 4 c -4 11 c -7 8 c
-12 4 c -3 0 c -12 -4 c -7 -8 c -4 -11 c 0 -4 c 4 -11 c 7 -8 c 12 -3 c 53 -38 5708 2089 l 0 57 c 79 0 5708 2089 l 4 -12 5708 2150 l
11 -7 c 19 -4 c 11 0 c 19 4 c 11 7 c 4 12 c 0 7 c -4 12 c -11 7 c -19 4 c -11 0 c -19 -4 c -11 -7 c -4 -12 c 0 -7 c
0 -250 6091 1556 l 0 -38 6048 1673 l 34 -3 c -4 3 c -4 12 c 0 11 c 4 11 c 7 8 c 12 4 c 7 0 c 12 -4 c 7 -8 c 4 -11 c 0 -11 c -4 -12 c
-3 -3 c -8 -4 c 3 -11 6048 1722 l 8 -4 c 8 0 c 7 4 c 4 8 c 4 15 c 3 11 c 8 8 c 8 3 c 11 0 c 8 -3 c 3 -4 c 4 -12 c 0 -15 c -4 -11 c
-3 -4 c -8 -4 c -11 0 c -8 4 c -8 8 c -3 11 c -4 15 c -4 8 c -7 4 c -8 0 c -8 -4 c -3 -12 c 0 -15 c 53 -38 6048 1817 l 0 57 c
79 0 6048 1817 l 0 42 6048 1862 l 30 -23 c 0 11 c 4 8 c 3 4 c 12 4 c 7 0 c 12 -4 c 7 -8 c 4 -11 c 0 -12 c -4 -11 c -3 -4 c -8 -3 c
3 -4 6120 1938 l 4 4 c -4 4 c -3 -4 c 3 -11 6048 1987 l 8 -4 c 8 0 c 7 4 c 4 7 c 4 15 c 3 12 c 8 7 c 8 4 c 11 0 c 8 -4 c 3 -4 c
4 -11 c 0 -15 c -4 -11 c -3 -4 c -8 -4 c -11 0 c -8 4 c -8 7 c -3 12 c -4 15 c -4 7 c -7 4 c -8 0 c -8 -4 c -3 -11 c 0 -15 c
3 -11 6048 2066 l 12 -8 c 19 -3 c 11 0 c 19 3 c 11 8 c 4 11 c 0 8 c -4 11 c -11 8 c -19 3 c -11 0 c -19 -3 c -12 -8 c -3 -11 c
0 -8 c 79 -38 6048 2172 l 0 53 6048 2119 l 0 -249 6320 1582 l 0 -38 6276 1700 l 34 -4 c -4 4 c -4 11 c 0 12 c 4 11 c 8 7 c 11 4 c
8 0 c 11 -4 c 8 -7 c 3 -11 c 0 -12 c -3 -11 c -4 -4 c -8 -4 c 4 -12 6276 1749 l 7 -3 c 8 0 c 7 3 c 4 8 c 4 15 c 4 11 c 7 8 c 8 4 c
11 0 c 8 -4 c 4 -4 c 3 -11 c 0 -15 c -3 -12 c -4 -3 c -8 -4 c -11 0 c -8 4 c -7 7 c -4 12 c -4 15 c -4 7 c -7 4 c -8 0 c -7 -4 c
-4 -11 c 0 -15 c 53 -38 6276 1843 l 0 57 c 79 0 6276 1843 l 0 -37 6276 1926 l 34 -4 c -4 4 c -4 11 c 0 11 c 4 12 c 8 7 c 11 4 c
8 0 c 11 -4 c 8 -7 c 3 -12 c 0 -11 c -3 -11 c -4 -4 c -8 -4 c 4 -4 6348 1964 l 3 4 c -3 4 c -4 -4 c 12 -4 6302 2044 l 7 -8 c 4 -11 c
0 -4 c -4 -11 c -7 -8 c -12 -4 c -3 0 c -12 4 c -7 8 c -4 11 c 0 4 c 4 11 c 7 8 c 15 4 c 19 0 c 19 -4 c 12 -8 c 3 -11 c 0 -8 c
-3 -11 c -8 -4 c -4 8 6291 2081 l -11 11 c 79 0 c 12 -4 6302 2195 l 7 -8 c 4 -11 c 0 -4 c -4 -11 c -7 -8 c -12 -3 c -3 0 c -12 3 c
-7 8 c -4 11 c 0 4 c 4 11 c 7 8 c 15 4 c 19 0 c 19 -4 c 12 -8 c 3 -11 c 0 -7 c -3 -12 c -8 -4 c 0 -250 7055 2354 l 0 -38 7012 2471 l
34 -4 c -4 4 c -4 11 c 0 12 c 4 11 c 7 7 c 12 4 c 7 0 c 12 -4 c 7 -7 c 4 -11 c 0 -12 c -4 -11 c -4 -4 c -7 -4 c 3 -12 7012 2520 l
8 -3 c 7 0 c 8 3 c 4 8 c 4 15 c 3 11 c 8 8 c 7 4 c 12 0 c 7 -4 c 4 -4 c 4 -11 c 0 -15 c -4 -12 c -4 -3 c -7 -4 c -12 0 c -7 4 c
-8 7 c -3 12 c -4 15 c -4 7 c -8 4 c -7 0 c -8 -4 c -3 -11 c 0 -15 c 0 -38 7012 2622 l 34 -4 c -4 4 c -4 11 c 0 12 c 4 11 c 7 8 c
12 3 c 7 0 c 12 -3 c 7 -8 c 4 -11 c 0 -12 c -4 -11 c -4 -4 c -7 -3 c -3 0 7030 2656 l -8 4 c -4 3 c -3 8 c 0 15 c 3 8 c 4 3 c 8 4 c
7 0 c 8 -4 c 11 -7 c 38 -38 c 0 53 c 4 -4 7083 2735 l 4 4 c -4 4 c -4 -4 c -8 -4 7023 2815 l -3 -12 c 0 -7 c 3 -11 c 12 -8 c 19 -4 c
18 0 c 16 4 c 7 8 c 4 11 c 0 4 c -4 11 c -7 8 c -12 3 c -4 0 c -11 -3 c -7 -8 c -4 -11 c 0 -4 c 4 -11 c 7 -8 c 11 -4 c
3 -11 7012 2860 l 8 -4 c 7 0 c 8 4 c 4 7 c 4 15 c 3 12 c 8 7 c 7 4 c 12 0 c 7 -4 c 4 -4 c 4 -11 c 0 -15 c -4 -11 c -4 -4 c -7 -4 c
-12 0 c -7 4 c -8 7 c -3 12 c -4 15 c -4 7 c -8 4 c -7 0 c -8 -4 c -3 -11 c 0 -15 c -4 8 7027 2928 l -11 11 c 79 0 c
0 -250 7142 2375 l 0 -38 7099 2492 l 34 -4 c -4 4 c -4 12 c 0 11 c 4 11 c 7 8 c 12 4 c 7 0 c 12 -4 c 7 -8 c 4 -11 c 0 -11 c -4 -12 c
-4 -4 c -7 -3 c 3 -11 7099 2541 l 8 -4 c 7 0 c 8 4 c 4 7 c 4 15 c 3 12 c 8 7 c 7 4 c 12 0 c 7 -4 c 4 -3 c 4 -12 c 0 -15 c -4 -11 c
-4 -4 c -7 -4 c -12 0 c -7 4 c -8 8 c -3 11 c -4 15 c -4 8 c -8 3 c -7 0 c -8 -3 c -3 -12 c 0 -15 c 0 -38 7099 2643 l 34 -3 c -4 3 c
-4 12 c 0 11 c 4 11 c 7 8 c 12 4 c 7 0 c 12 -4 c 7 -8 c 4 -11 c 0 -11 c -4 -12 c -4 -3 c -7 -4 c 0 42 7099 2681 l 30 -23 c 0 11 c
4 8 c 3 4 c 12 3 c 7 0 c 12 -3 c 7 -8 c 4 -11 c 0 -12 c -4 -11 c -4 -4 c -7 -4 c 4 -4 7170 2757 l 4 4 c -4 3 c -4 -3 c
52 -38 7099 2825 l 0 56 c 79 0 7099 2825 l 79 -38 7099 2915 l 0 53 7099 2862 l 0 -37 7099 2983 l 34 -4 c -4 4 c -4 11 c 0 11 c
4 12 c 7 7 c 12 4 c 7 0 c 12 -4 c 7 -7 c 4 -12 c 0 -11 c -4 -11 c -4 -4 c -7 -4 c 0 -250 7213 2113 l 0 -38 7169 2230 l 35 -4 c
-4 4 c -4 11 c 0 12 c 4 11 c 7 8 c 12 3 c 7 0 c 12 -3 c 7 -8 c 4 -11 c 0 -12 c -4 -11 c -4 -4 c -7 -4 c 4 -11 7169 2279 l 8 -4 c
7 0 c 8 4 c 4 7 c 4 15 c 3 12 c 8 7 c 7 4 c 12 0 c 7 -4 c 4 -4 c 4 -11 c 0 -15 c -4 -11 c -4 -4 c -7 -4 c -12 0 c -7 4 c -8 7 c
-3 12 c -4 15 c -4 7 c -8 4 c -7 0 c -8 -4 c -4 -11 c 0 -15 c 0 -38 7169 2381 l 35 -4 c -4 4 c -4 12 c 0 11 c 4 11 c 7 8 c 12 4 c
7 0 c 12 -4 c 7 -8 c 4 -11 c 0 -11 c -4 -12 c -4 -4 c -7 -3 c 53 -38 7169 2449 l 0 57 c 80 0 7169 2449 l 4 -3 7241 2494 l 4 3 c
-4 4 c -4 -4 c -4 7 7185 2536 l -12 12 c 80 0 c -3 0 7188 2604 l -8 4 c -4 4 c -4 7 c 0 15 c 4 8 c 4 4 c 8 3 c 7 0 c 8 -3 c 11 -8 c
38 -38 c 0 53 c -4 8 7185 2687 l -12 11 c 80 0 c 0 -250 7580 1327 l 0 -38 7536 1444 l 34 -4 c -4 4 c -3 12 c 0 11 c 3 11 c 8 8 c
11 4 c 8 0 c 11 -4 c 8 -8 c 4 -11 c 0 -11 c -4 -12 c -4 -4 c -8 -3 c 4 -11 7536 1493 l 8 -4 c 7 0 c 8 4 c 3 7 c 4 15 c 4 12 c 8 7 c
7 4 c 11 0 c 8 -4 c 4 -3 c 4 -12 c 0 -15 c -4 -11 c -4 -4 c -8 -4 c -11 0 c -7 4 c -8 8 c -4 11 c -4 15 c -3 8 c -8 3 c -7 0 c
-8 -3 c -4 -12 c 0 -15 c 0 -38 7536 1595 l 34 -3 c -4 3 c -3 12 c 0 11 c 3 11 c 8 8 c 11 4 c 8 0 c 11 -4 c 8 -8 c 4 -11 c 0 -11 c
-4 -12 c -4 -3 c -8 -4 c 80 -37 7536 1678 l 0 53 7536 1625 l 4 -4 7608 1709 l 4 4 c -4 3 c -4 -3 c 53 -38 7536 1777 l 0 57 c
80 0 7536 1777 l 53 -38 7536 1852 l 0 57 c 80 0 7536 1852 l 11 -4 7563 1939 l 8 -7 c 3 -12 c 0 -3 c -3 -12 c -8 -7 c -11 -4 c -4 0 c
-11 4 c -8 7 c -4 12 c 0 3 c 4 12 c 8 7 c 15 4 c 19 0 c 18 -4 c 12 -7 c 4 -12 c 0 -7 c -4 -11 c -8 -4 c 0 -249 7897 3115 l
0 -37 7853 3232 l 34 -4 c -3 4 c -4 11 c 0 11 c 4 12 c 7 7 c 12 4 c 7 0 c 12 -4 c 7 -7 c 4 -12 c 0 -11 c -4 -11 c -4 -4 c -7 -4 c
4 -12 7853 3282 l 8 -3 c 7 0 c 8 3 c 4 8 c 3 15 c 4 11 c 8 8 c 7 4 c 12 0 c 7 -4 c 4 -4 c 4 -11 c 0 -15 c -4 -12 c -4 -3 c -7 -4 c
-12 0 c -7 4 c -8 7 c -4 11 c -3 16 c -4 7 c -8 4 c -7 0 c -8 -4 c -4 -11 c 0 -15 c -8 -3 7865 3387 l -4 -12 c 0 -7 c 4 -12 c
12 -7 c 18 -4 c 19 0 c 16 4 c 7 7 c 4 12 c 0 4 c -4 11 c -7 7 c -12 4 c -4 0 c -11 -4 c -8 -7 c -3 -11 c 0 -4 c 3 -12 c 8 -7 c
11 -4 c 4 -12 7853 3437 l 12 -7 c 18 -4 c 12 0 c 19 4 c 11 7 c 4 12 c 0 7 c -4 11 c -11 8 c -19 4 c -12 0 c -18 -4 c -12 -8 c
-4 -11 c 0 -7 c 4 -4 7925 3497 l 4 4 c -4 4 c -4 -4 c 0 41 7853 3535 l 31 -22 c 0 11 c 3 8 c 4 3 c 12 4 c 7 0 c 12 -4 c 7 -7 c
4 -11 c 0 -12 c -4 -11 c -4 -4 c -7 -4 c -4 8 7869 3614 l -12 11 c 80 0 c 4 -11 7853 3701 l 12 -8 c 18 -4 c 12 0 c 19 4 c 11 8 c
4 11 c 0 8 c -4 11 c -11 8 c -19 3 c -12 0 c -18 -3 c -12 -8 c -4 -11 c 0 -8 c 0 -250 8277 2283 l 0 -38 8233 2400 l 34 -4 c -3 4 c
-4 12 c 0 11 c 4 11 c 7 8 c 12 4 c 7 0 c 11 -4 c 8 -8 c 4 -11 c 0 -11 c -4 -12 c -4 -4 c -7 -3 c 4 -11 8233 2449 l 8 -4 c 7 0 c
8 4 c 4 7 c 3 16 c 4 11 c 8 7 c 7 4 c 12 0 c 7 -4 c 4 -3 c 4 -12 c 0 -15 c -4 -11 c -4 -4 c -7 -4 c -12 0 c -7 4 c -8 8 c -4 11 c
-3 15 c -4 8 c -8 3 c -7 0 c -8 -3 c -4 -12 c 0 -15 c -8 -4 8245 2555 l -4 -11 c 0 -8 c 4 -11 c 12 -8 c 18 -3 c 19 0 c 15 3 c 8 8 c
4 11 c 0 4 c -4 11 c -8 8 c -11 4 c -4 0 c -11 -4 c -8 -8 c -3 -11 c 0 -4 c 3 -11 c 8 -8 c 11 -3 c 0 42 8233 2589 l 31 -23 c 0 11 c
3 8 c 4 4 c 12 3 c 7 0 c 11 -3 c 8 -8 c 4 -11 c 0 -12 c -4 -11 c -4 -4 c -7 -4 c 4 -4 8305 2665 l 4 4 c -4 3 c -4 -3 c
80 -38 8233 2748 l 0 53 8233 2695 l -4 7 8249 2782 l -12 12 c 80 0 c 4 -11 8233 2865 l 8 -4 c 7 0 c 8 4 c 4 7 c 3 15 c 4 12 c 8 7 c
7 4 c 12 0 c 7 -4 c 4 -4 c 4 -11 c 0 -15 c -4 -11 c -4 -4 c -7 -4 c -12 0 c -7 4 c -8 7 c -4 12 c -3 15 c -4 7 c -8 4 c -7 0 c
-8 -4 c -4 -11 c 0 -15 c 0 -250 8624 1356 l 0 -38 8581 1473 l 34 -4 c -4 4 c -4 11 c 0 12 c 4 11 c 7 8 c 12 3 c 7 0 c 12 -3 c 7 -8 c
4 -11 c 0 -12 c -4 -11 c -3 -4 c -8 -3 c 3 -11 8581 1522 l 8 -4 c 8 0 c 7 4 c 4 7 c 4 15 c 3 12 c 8 7 c 8 4 c 11 0 c 8 -4 c 3 -3 c
4 -12 c 0 -15 c -4 -11 c -3 -4 c -8 -4 c -11 0 c -8 4 c -8 7 c -3 12 c -4 15 c -4 8 c -7 3 c -8 0 c -8 -3 c -3 -12 c 0 -15 c
-8 -4 8592 1628 l -3 -11 c 0 -8 c 3 -11 c 12 -8 c 19 -3 c 19 0 c 15 3 c 7 8 c 4 11 c 0 4 c -4 11 c -7 8 c -12 4 c -3 0 c -12 -4 c
-7 -8 c -4 -11 c 0 -4 c 4 -11 c 7 -8 c 12 -3 c -8 -3 8592 1703 l -3 -12 c 0 -7 c 3 -12 c 12 -7 c 19 -4 c 19 0 c 15 4 c 7 7 c 4 12 c
0 4 c -4 11 c -7 7 c -12 4 c -3 0 c -12 -4 c -7 -7 c -4 -11 c 0 -4 c 4 -12 c 7 -7 c 12 -4 c 3 -3 8653 1737 l 4 3 c -4 4 c -3 -4 c
3 -12 8581 1787 l 8 -3 c 8 0 c 7 3 c 4 8 c 4 15 c 3 11 c 8 8 c 8 4 c 11 0 c 8 -4 c 3 -4 c 4 -11 c 0 -15 c -4 -12 c -3 -3 c -8 -4 c
-11 0 c -8 4 c -8 7 c -3 11 c -4 16 c -4 7 c -7 4 c -8 0 c -8 -4 c -3 -11 c 0 -15 c -4 7 8596 1855 l -11 12 c 79 0 c
-4 0 8600 1923 l -8 3 c -4 4 c -3 8 c 0 15 c 3 7 c 4 4 c 8 4 c 7 0 c 8 -4 c 11 -7 c 38 -38 c 0 53 c 0 -250 8801 1334 l
0 -38 8757 1451 l 34 -4 c -4 4 c -3 11 c 0 12 c 3 11 c 8 8 c 11 3 c 8 0 c 11 -3 c 8 -8 c 3 -11 c 0 -12 c -3 -11 c -4 -4 c -8 -4 c
4 -11 8757 1500 l 7 -4 c 8 0 c 8 4 c 3 7 c 4 15 c 4 12 c 7 7 c 8 4 c 11 0 c 8 -4 c 4 -4 c 3 -11 c 0 -15 c -3 -11 c -4 -4 c -8 -4 c
-11 0 c -8 4 c -7 7 c -4 12 c -4 15 c -3 7 c -8 4 c -8 0 c -7 -4 c -4 -11 c 0 -15 c -7 -4 8768 1606 l -4 -11 c 0 -8 c 4 -11 c
11 -8 c 19 -4 c 19 0 c 15 4 c 8 8 c 3 11 c 0 4 c -3 11 c -8 8 c -11 4 c -4 0 c -11 -4 c -8 -8 c -4 -11 c 0 -4 c 4 -11 c 8 -8 c
11 -4 c 4 -11 8757 1651 l 7 -4 c 8 0 c 8 4 c 3 7 c 4 15 c 4 12 c 7 7 c 8 4 c 11 0 c 8 -4 c 4 -3 c 3 -12 c 0 -15 c -3 -11 c -4 -4 c
-8 -4 c -11 0 c -8 4 c -7 8 c -4 11 c -4 15 c -3 8 c -8 3 c -8 0 c -7 -3 c -4 -12 c 0 -15 c 4 -3 8829 1715 l 3 3 c -3 4 c -4 -4 c
0 42 8757 1753 l 30 -23 c 0 11 c 4 8 c 4 4 c 11 4 c 8 0 c 11 -4 c 8 -8 c 3 -11 c 0 -11 c -3 -12 c -4 -4 c -8 -3 c 79 -38 8757 1874 l
0 53 8757 1821 l 53 -38 8757 1935 l 0 57 c 79 0 8757 1935 l 0 -249 8968 1513 l 0 -37 8925 1630 l 34 -4 c -4 4 c -4 11 c 0 11 c
4 12 c 7 7 c 12 4 c 7 0 c 12 -4 c 7 -7 c 4 -12 c 0 -11 c -4 -11 c -4 -4 c -7 -4 c 3 -12 8925 1680 l 8 -4 c 8 0 c 7 4 c 4 8 c 4 15 c
3 11 c 8 8 c 8 4 c 11 0 c 7 -4 c 4 -4 c 4 -11 c 0 -15 c -4 -12 c -4 -4 c -7 -3 c -11 0 c -8 3 c -8 8 c -3 11 c -4 15 c -4 8 c -7 4 c
-8 0 c -8 -4 c -3 -11 c 0 -15 c -8 -3 8936 1785 l -3 -12 c 0 -7 c 3 -12 c 12 -7 c 19 -4 c 19 0 c 15 4 c 7 7 c 4 12 c 0 3 c -4 12 c
-7 7 c -12 4 c -3 0 c -12 -4 c -7 -7 c -4 -12 c 0 -3 c 4 -12 c 7 -7 c 12 -4 c 11 -4 8951 1861 l 8 -7 c 4 -12 c 0 -4 c -4 -11 c
-8 -7 c -11 -4 c -4 0 c -11 4 c -8 7 c -3 11 c 0 4 c 3 12 c 8 7 c 15 4 c 19 0 c 19 -4 c 11 -7 c 4 -12 c 0 -7 c -4 -12 c -7 -3 c
4 -4 8996 1895 l 4 4 c -4 4 c -4 -4 c 3 -11 8925 1944 l 8 -4 c 8 0 c 7 4 c 4 7 c 4 15 c 3 12 c 8 7 c 8 4 c 11 0 c 7 -4 c 4 -3 c
4 -12 c 0 -15 c -4 -11 c -4 -4 c -7 -4 c -11 0 c -8 4 c -8 8 c -3 11 c -4 15 c -4 8 c -7 3 c -8 0 c -8 -3 c -3 -12 c 0 -15 c
0 -38 8925 2046 l 34 -3 c -4 3 c -4 12 c 0 11 c 4 11 c 7 8 c 12 4 c 7 0 c 12 -4 c 7 -8 c 4 -11 c 0 -11 c -4 -12 c -4 -3 c -7 -4 c
-4 7 8940 2088 l -11 12 c 79 0 c 0 -249 9048 2554 l 0 -37 9004 2671 l 34 -4 c -4 4 c -4 11 c 0 11 c 4 12 c 8 7 c 11 4 c 8 0 c
11 -4 c 8 -7 c 3 -12 c 0 -11 c -3 -11 c -4 -4 c -8 -4 c 4 -12 9004 2721 l 7 -4 c 8 0 c 7 4 c 4 8 c 4 15 c 4 11 c 7 8 c 8 4 c 11 0 c
8 -4 c 4 -4 c 3 -11 c 0 -15 c -3 -12 c -4 -4 c -8 -3 c -11 0 c -8 3 c -7 8 c -4 11 c -4 15 c -4 8 c -7 4 c -8 0 c -7 -4 c -4 -11 c
0 -15 c 79 -38 9004 2830 l 0 53 9004 2777 l 4 -12 9004 2876 l 11 -7 c 19 -4 c 11 0 c 19 4 c 12 7 c 3 12 c 0 7 c -3 11 c -12 8 c
-19 4 c -11 0 c -19 -4 c -11 -8 c -4 -11 c 0 -7 c 4 -4 9076 2936 l 3 4 c -3 4 c -4 -4 c 0 -38 9004 3012 l 34 -4 c -4 4 c -4 11 c
0 11 c 4 12 c 8 7 c 11 4 c 8 0 c 11 -4 c 8 -7 c 3 -12 c 0 -11 c -3 -11 c -4 -4 c -8 -4 c 0 -38 9004 3087 l 34 -3 c -4 3 c -4 12 c
0 11 c 4 11 c 8 8 c 11 4 c 8 0 c 11 -4 c 8 -8 c 3 -11 c 0 -11 c -3 -12 c -4 -3 c -8 -4 c 0 42 9004 3125 l 30 -23 c 0 11 c 4 8 c
4 4 c 11 3 c 8 0 c 11 -3 c 8 -8 c 3 -11 c 0 -12 c -3 -11 c -4 -4 c -8 -4 c 0 -250 9119 1554 l 0 -38 9076 1671 l 34 -4 c -4 4 c
-4 12 c 0 11 c 4 11 c 7 8 c 12 4 c 7 0 c 12 -4 c 7 -8 c 4 -11 c 0 -11 c -4 -12 c -3 -4 c -8 -3 c 3 -11 9076 1720 l 8 -4 c 8 0 c
7 4 c 4 7 c 4 15 c 3 12 c 8 7 c 8 4 c 11 0 c 8 -4 c 3 -3 c 4 -12 c 0 -15 c -4 -11 c -3 -4 c -8 -4 c -11 0 c -8 4 c -8 8 c -3 11 c
-4 15 c -4 8 c -7 3 c -8 0 c -8 -3 c -3 -12 c 0 -15 c 79 -38 9076 1830 l 0 53 9076 1777 l -4 7 9091 1864 l -11 12 c 79 0 c
3 -4 9148 1936 l 4 4 c -4 3 c -3 -3 c -4 8 9091 1977 l -11 11 c 79 0 c 3 -11 9076 2060 l 8 -4 c 8 0 c 7 4 c 4 8 c 4 15 c 3 11 c
8 8 c 8 3 c 11 0 c 8 -3 c 3 -4 c 4 -12 c 0 -15 c -4 -11 c -3 -4 c -8 -4 c -11 0 c -8 4 c -8 8 c -3 11 c -4 15 c -4 8 c -7 4 c -8 0 c
-8 -4 c -3 -12 c 0 -15 c 0 41 9076 2125 l 30 -23 c 0 12 c 4 7 c 3 4 c 12 4 c 7 0 c 12 -4 c 7 -7 c 4 -12 c 0 -11 c -4 -11 c -3 -4 c
-8 -4 c 0 -249 9281 2036 l 0 -37 9237 2153 l 34 -4 c -3 4 c -4 11 c 0 11 c 4 12 c 7 7 c 12 4 c 7 0 c 11 -4 c 8 -7 c 4 -12 c 0 -11 c
-4 -11 c -4 -4 c -7 -4 c 4 -12 9237 2203 l 8 -4 c 7 0 c 8 4 c 4 8 c 3 15 c 4 11 c 8 8 c 7 4 c 12 0 c 7 -4 c 4 -4 c 4 -11 c 0 -15 c
-4 -12 c -4 -4 c -7 -3 c -12 0 c -7 3 c -8 8 c -4 11 c -3 15 c -4 8 c -8 4 c -7 0 c -8 -4 c -4 -11 c 0 -15 c 80 -38 9237 2312 l
0 53 9237 2259 l -3 0 9256 2339 l -8 3 c -4 4 c -4 8 c 0 15 c 4 7 c 4 4 c 8 4 c 7 0 c 8 -4 c 11 -7 c 38 -38 c 0 53 c
4 -4 9309 2418 l 4 4 c -4 4 c -4 -4 c -8 -3 9249 2497 l -4 -12 c 0 -7 c 4 -12 c 12 -7 c 18 -4 c 19 0 c 15 4 c 8 7 c 4 12 c 0 3 c
-4 12 c -8 7 c -11 4 c -4 0 c -11 -4 c -8 -7 c -3 -12 c 0 -3 c 3 -12 c 8 -7 c 11 -4 c 4 -12 9237 2547 l 12 -7 c 18 -4 c 12 0 c
19 4 c 11 7 c 4 12 c 0 7 c -4 11 c -11 8 c -19 4 c -12 0 c -18 -4 c -12 -8 c -4 -11 c 0 -7 c 0 42 9237 2607 l 31 -23 c 0 11 c 3 8 c
4 4 c 12 3 c 7 0 c 11 -3 c 8 -8 c 4 -11 c 0 -12 c -4 -11 c -4 -4 c -7 -4 c
showpage PGPLOT restore
 
%%Trailer
%%DocumentFonts: 
%%Pages: 1
%%EOF
