%!PS-Adobe-3.0 EPSF-3.0
%%For: tom
%%Title: PGPLOT PostScript plot
%%Creator: PGPLOT
%%CreationDate:  9-Nov-1994 13:55
%%BoundingBox: 25 18 587 774
%%DocumentFonts: (atend)
%%LanguageLevel: 1
%%Orientation: Landscape
%%Pages: (atend)
%%EndComments
%%BeginProlog
/l {moveto rlineto currentpoint stroke moveto} bind def
/c {rlineto currentpoint stroke moveto} bind def
/d {moveto 0 0 rlineto currentpoint stroke moveto} bind def
/SLW {5 mul setlinewidth} bind def
/SCF /pop load def
/BP {newpath moveto} bind def
/LP /rlineto load def
/EP {rlineto closepath eofill} bind def
/MB {gsave translate MFAC dup scale 1 setlinewidth 2 setlinecap 0 setlinejoin newpath} bind def
/ME /grestore load def
/C {0 360 arc stroke} bind def
/FC {0 360 arc fill} bind def
%%EndProlog
 
%%Page: 1 1
%%BeginPageSetup
/PGPLOT save def
0.072 0.072 scale
8150 250 translate 90 rotate
1 setlinejoin 1 setlinecap 1 SLW 1 SCF
%%EndPageSetup
0.00 setgray 1 SLW 8939 0 780 780 l 0 6239 c -8939 0 c 0 -6239 c 0 -45 1116 780 l 0 -45 1554 780 l 0 -45 1991 780 l 0 -45 2428 780 l
0 -90 2865 780 l 0 -45 3302 780 l 0 -45 3739 780 l 0 -45 4176 780 l 0 -45 4613 780 l 0 -90 5051 780 l 0 -45 5488 780 l
0 -45 5925 780 l 0 -45 6362 780 l 0 -45 6799 780 l 0 -90 7236 780 l 0 -45 7673 780 l 0 -45 8110 780 l 0 -45 8548 780 l
0 -45 8985 780 l 0 -90 9422 780 l 0 -45 1116 7064 l 0 -45 1554 7064 l 0 -45 1991 7064 l 0 -45 2428 7064 l 0 -90 2865 7109 l
0 -45 3302 7064 l 0 -45 3739 7064 l 0 -45 4176 7064 l 0 -45 4613 7064 l 0 -90 5051 7109 l 0 -45 5488 7064 l 0 -45 5925 7064 l
0 -45 6362 7064 l 0 -45 6799 7064 l 0 -90 7236 7109 l 0 -45 7673 7064 l 0 -45 8110 7064 l 0 -45 8548 7064 l 0 -45 8985 7064 l
0 -90 9422 7109 l -60 0 2775 672 l -6 -54 c 6 6 c 18 6 c 18 0 c 18 -6 c 12 -12 c 6 -18 c 0 -12 c -6 -18 c -12 -12 c -18 -6 c -18 0 c
-18 6 c -6 6 c -6 12 c -18 -6 2859 672 l -12 -18 c -6 -30 c 0 -18 c 6 -30 c 12 -18 c 18 -6 c 12 0 c 18 6 c 12 18 c 6 30 c 0 18 c
-6 30 c -12 18 c -18 6 c -12 0 c -18 -6 2979 672 l -12 -18 c -6 -30 c 0 -18 c 6 -30 c 12 -18 c 18 -6 c 12 0 c 18 6 c 12 18 c 6 30 c
0 18 c -6 30 c -12 18 c -18 6 c -12 0 c 12 6 4847 648 l 18 18 c 0 -126 c -18 -6 4985 672 l -12 -18 c -6 -30 c 0 -18 c 6 -30 c
12 -18 c 18 -6 c 12 0 c 18 6 c 12 18 c 6 30 c 0 18 c -6 30 c -12 18 c -18 6 c -12 0 c -18 -6 5105 672 l -12 -18 c -6 -30 c 0 -18 c
6 -30 c 12 -18 c 18 -6 c 12 0 c 18 6 c 12 18 c 6 30 c 0 18 c -6 30 c -12 18 c -18 6 c -12 0 c -18 -6 5225 672 l -12 -18 c -6 -30 c
0 -18 c 6 -30 c 12 -18 c 18 -6 c 12 0 c 18 6 c 12 18 c 6 30 c 0 18 c -6 30 c -12 18 c -18 6 c -12 0 c 12 6 7032 648 l 18 18 c
0 -126 c -60 0 7206 672 l -6 -54 c 6 6 c 18 6 c 18 0 c 18 -6 c 12 -12 c 6 -18 c 0 -12 c -6 -18 c -12 -12 c -18 -6 c -18 0 c -18 6 c
-6 6 c -6 12 c -18 -6 7290 672 l -12 -18 c -6 -30 c 0 -18 c 6 -30 c 12 -18 c 18 -6 c 12 0 c 18 6 c 12 18 c 6 30 c 0 18 c -6 30 c
-12 18 c -18 6 c -12 0 c -18 -6 7410 672 l -12 -18 c -6 -30 c 0 -18 c 6 -30 c 12 -18 c 18 -6 c 12 0 c 18 6 c 12 18 c 6 30 c 0 18 c
-6 30 c -12 18 c -18 6 c -12 0 c 0 6 9206 642 l 6 12 c 6 6 c 12 6 c 24 0 c 12 -6 c 6 -6 c 6 -12 c 0 -12 c -6 -12 c -12 -18 c
-60 -60 c 84 0 c -18 -6 9356 672 l -12 -18 c -6 -30 c 0 -18 c 6 -30 c 12 -18 c 18 -6 c 12 0 c 18 6 c 12 18 c 6 30 c 0 18 c -6 30 c
-12 18 c -18 6 c -12 0 c -18 -6 9476 672 l -12 -18 c -6 -30 c 0 -18 c 6 -30 c 12 -18 c 18 -6 c 12 0 c 18 6 c 12 18 c 6 30 c 0 18 c
-6 30 c -12 18 c -18 6 c -12 0 c -18 -6 9596 672 l -12 -18 c -6 -30 c 0 -18 c 6 -30 c 12 -18 c 18 -6 c 12 0 c 18 6 c 12 18 c 6 30 c
0 18 c -6 30 c -12 18 c -18 6 c -12 0 c -90 0 780 780 l -45 0 780 1712 l -90 0 780 2644 l -45 0 780 3576 l -90 0 780 4508 l
-45 0 780 5440 l -90 0 780 6372 l -90 0 9809 780 l -45 0 9764 1712 l -90 0 9809 2644 l -45 0 9764 3576 l -90 0 9809 4508 l
-45 0 9764 5440 l -90 0 9809 6372 l 6 -18 517 774 l 18 -12 c 30 -6 c 18 0 c 30 6 c 18 12 c 6 18 c 0 12 c -6 18 c -18 12 c -30 6 c
-18 0 c -30 -6 c -18 -12 c -6 -18 c 0 -12 c -6 0 547 2386 l -12 6 c -6 6 c -6 12 c 0 24 c 6 12 c 6 6 c 12 6 c 12 0 c 12 -6 c
18 -12 c 60 -60 c 0 84 c 84 84 547 2506 l 84 -84 547 2590 l -6 12 541 2650 l -18 18 c 126 0 c 6 -18 517 2788 l 18 -12 c 30 -6 c
18 0 c 30 6 c 18 12 c 6 18 c 0 12 c -6 18 c -18 12 c -30 6 c -18 0 c -30 -6 c -18 -12 c -6 -18 c 0 -12 c 63 -45 453 2912 l 0 68 c
94 0 453 2912 l 84 -60 517 4304 l 0 90 c 126 0 517 4304 l 84 84 547 4370 l 84 -84 547 4454 l -6 12 541 4514 l -18 18 c 126 0 c
6 -18 517 4652 l 18 -12 c 30 -6 c 18 0 c 30 6 c 18 12 c 6 18 c 0 12 c -6 18 c -18 12 c -30 6 c -18 0 c -30 -6 c -18 -12 c -6 -18 c
0 -12 c 63 -45 453 4777 l 0 67 c 94 0 453 4777 l -12 -6 535 6186 l -6 -18 c 0 -12 c 6 -18 c 18 -12 c 30 -6 c 30 0 c 24 6 c 12 12 c
6 18 c 0 6 c -6 18 c -12 12 c -18 6 c -6 0 c -18 -6 c -12 -12 c -6 -18 c 0 -6 c 6 -18 c 12 -12 c 18 -6 c 84 84 547 6234 l
84 -84 547 6318 l -6 12 541 6378 l -18 18 c 126 0 c 6 -18 517 6516 l 18 -12 c 30 -6 c 18 0 c 30 6 c 18 12 c 6 18 c 0 12 c -6 18 c
-18 12 c -30 6 c -18 0 c -30 -6 c -18 -12 c -6 -18 c 0 -12 c 63 -45 453 6641 l 0 67 c 94 0 453 6641 l
4 0 780 791 l 5 1 c 4 1 c 4 0 c 5 0 c 4 -1 c 4 -1 c 5 0 c 4 -1 c 5 0 c 4 0 c 4 2 c 5 2 c 4 1 c 4 0 c 5 -2 c 4 -2 c 5 0 c 4 0 c 4 2 c
5 6 c 4 17 c 4 4 c 5 -2 c 4 -11 c 5 -14 c 4 -3 c 4 1 c 5 0 c 4 0 c 4 1 c 5 -1 c 4 3 c 5 1 c 4 0 c 4 -1 c 5 -2 c 4 -1 c 4 0 c 5 1 c
4 1 c 4 1 c 5 0 c 4 -1 c 5 -1 c 4 0 c 4 0 c 5 0 c 4 0 c 4 0 c 5 0 c 4 0 c 5 1 c 4 0 c 4 1 c 5 0 c 4 1 c 4 2 c 5 8 c 4 33 c 5 141 c
4 312 c 4 234 c 5 13 c 4 -199 c 4 -324 c 5 -167 c 4 -3 c 5 113 c 4 494 c 4 1488 c 5 714 c 4 -5 c 4 -742 c 5 -1371 c 4 -347 c 4 -40 c
5 -72 c 4 -191 c 5 -81 c 4 -6 c 4 -1 c 5 -2 c 4 -16 c 5 13 1151 780 l 4 0 c 5 -1 c 4 0 c 4 0 c 5 0 c 4 0 c 4 2 c 5 1 c 4 -1 c 5 0 c
4 -2 c 4 -1 c 5 0 c 4 0 c 4 0 c 5 0 c 4 3 c 5 1 c 4 0 c 4 -1 c 5 -2 c 4 -1 c 4 -1 c 5 0 c 4 0 c 4 0 c 5 1 c 4 0 c 5 1 c 4 -1 c 4 0 c
5 0 c 4 0 c 4 0 c 5 0 c 4 1 c 5 -1 c 4 0 c 4 -1 c 5 2 c 4 3 c 4 0 c 5 0 c 4 -3 c 5 -1 c 4 1 c 4 1 c 5 0 c 4 -1 c 4 -1 c 5 -1 c 4 0 c
5 2 c 4 1 c 4 0 c 5 0 c 4 6 c 4 18 c 5 8 c 4 -1 c 4 -9 c 5 -13 c 4 3 c 5 2 c 4 -1 c 4 -7 c 5 -7 c 4 -1 c 4 0 c 5 -1 c 4 0 c 5 0 c
4 -1 c 4 0 c 5 0 c 4 2 c 4 1 c 5 6 c 4 1 c 5 0 c 4 -3 c 4 -5 c 5 -2 c 4 1 c 4 0 c 5 1 c 4 0 c 4 1 c 5 0 c 4 1 c 5 1 c 4 0 c 4 -2 c
5 -1 c 4 1 c 4 0 c 5 1 c 4 0 c 5 -2 c 4 0 c 4 1 c 5 1 c 4 5 c 4 31 c 5 90 c 4 37 c 5 -1 c 4 -57 c 4 -85 c 5 -19 c 4 -1 c 4 -2 c
5 0 c 4 -1 c 5 0 c 4 0 c 4 0 c 5 0 c 4 1 c 4 3 c 5 5 c 4 3 c 4 0 c 5 -2 c 4 -4 c 5 -2 c 4 -2 c 4 -1 c 5 0 c 4 -1 c 4 0 c 5 1 c 4 2 c
5 11 c 4 20 c 4 6 c 5 4 c 4 26 c 4 77 c 5 26 c 4 -3 c 5 -61 c 4 -87 c 4 -17 c 5 -4 c 4 0 c 4 0 c 5 1 c 4 3 c 5 1 c 4 1 c 4 1 c 5 7 c
4 53 c 4 155 c 5 63 c 4 -5 c 4 -81 c 5 -150 c 4 -37 c 5 -3 c 4 -1 c 4 1 c 5 1 c 4 -2 c 4 -1 c 5 -1 c 4 -1 c 5 2 c 4 2 c 4 15 c
5 100 c 4 536 c 4 644 c 5 57 c 4 -159 c 5 -621 c 4 -210 c 4 6 c 5 -26 c 4 -140 c 4 -158 c 5 -30 c 4 -6 c 5 -9 c 4 -3 c 4 0 c 5 2 c
4 2 c 4 0 c 5 2 c 4 -1 c 4 -2 c 5 -3 c 4 -2 c 5 0 c 4 0 c 4 -1 c 5 1 c 4 1 c 4 -1 c 5 -1 c 4 -1 c 5 3 c 4 2 c 4 4 c 5 17 c 4 11 c
4 0 c 5 -8 c 4 -21 c 5 -8 c 4 3 c 4 6 c 5 4 c 4 1 c 4 -1 c 5 -6 c 4 -4 c 5 -3 c 4 -1 c 4 0 c 5 3 c 4 1 c 4 0 c 5 0 c 4 -2 c 4 -1 c
5 0 c 4 -1 c 5 1 c 4 3 c 4 1 c 5 0 c 4 -2 c 4 -3 c 5 0 c 4 0 c 5 0 c 4 0 c 4 0 c 5 1 c 4 0 c 4 0 c 5 0 c 4 -1 c 5 0 c 4 0 c 4 0 c
5 0 c 4 1 c 4 0 c 5 0 c 4 2 c 4 10 c 5 90 c 4 292 c 5 136 c 4 3 c 4 -144 c 5 -299 c 4 -85 c 4 -4 c 5 0 c 4 0 c 5 -1 c 4 0 c 4 1 c
5 2 c 4 3 c 4 4 c 5 1 c 4 -2 c 5 -3 c 4 -1 c 4 13 c 5 33 c 4 24 c 4 26 c 5 -6 c 4 -34 c 5 -21 c 4 -27 c 4 -8 c 5 1 c 4 9 c 4 8 c
5 1 c 4 -4 c 4 -8 c 5 -2 c 4 4 c 5 10 c 4 47 c 4 396 c 5 1696 c 4 983 c 4 87 c 5 -631 c 4 -1880 c 5 -655 c 4 -47 c 4 -4 c 5 3 c
4 31 c 4 19 c 5 4 c 4 -14 c 5 -38 c 4 -13 c 4 -5 c 5 -1 c 4 0 c 4 -1 c 5 0 c 4 0 c 5 0 c 4 0 c 4 0 c 5 0 c 4 0 c 4 1 c 5 0 c 4 0 c
4 3 c 5 2 c 4 -1 c 5 -1 c 4 -4 c 4 -1 c 5 0 c 4 1 c 4 1 c 5 5 c 4 2 c 5 -1 c 4 -2 c 4 -4 c 5 -1 c 4 0 c 4 1 c 5 0 c 4 1 c 5 0 c
4 0 c 4 0 c 5 1 c 4 1 c 4 5 c 5 52 c 4 288 c 5 275 c 4 26 c 4 -62 c 5 -322 c 4 -176 c 4 -23 c 5 -20 c 4 -36 c 4 -8 c 5 0 c 4 1 c
5 -1 c 4 0 c 4 -1 c 5 -1 c 4 0 c 4 0 c 5 1 c 4 0 c 5 5 c 4 39 c 4 57 c 5 7 c 4 -10 c 4 -52 c 5 -43 c 4 -4 c 5 0 c 4 0 c 4 0 c 5 0 c
4 0 c 4 -1 c 5 1 c 4 1 c 4 7 c 5 34 c 4 61 c 5 35 c 4 6 c 4 -35 c 5 -48 c 4 -13 c 4 -8 c 5 -6 c 4 -16 c 5 -15 c 4 -2 c 4 -1 c 5 -1 c
4 0 c 4 0 c 5 1 c 4 -1 c 5 0 c 4 0 c 4 0 c 5 0 c 4 1 c 4 -1 c 5 1 c 4 0 c 5 4 c 4 4 c 4 2 c 5 -1 c 4 -5 c 4 -3 c 5 -1 c 4 0 c 4 1 c
5 2 c 4 0 c 5 0 c 4 1 c 4 7 c 5 18 c 4 18 c 4 8 c 5 2 c 4 -11 c 5 -2 c 4 24 c 4 311 c 5 2064 c 4 1968 c 4 229 c 5 -535 c 4 -2564 c
5 -1359 c 4 -6 c 4 37 c 5 -11 c 4 -51 c 4 -97 c 5 -37 c 4 -5 c 5 -3 c 4 -2 c 4 -1 c 5 0 c 4 1 c 4 0 c 5 0 c 4 -1 c 4 -2 c 5 -1 c
4 -1 c 5 1 c 4 -1 c 4 0 c 5 0 c 4 1 c 4 0 c 5 0 c 4 -1 c 5 -1 c 4 1 c 4 0 c 5 0 c 4 -1 c 4 1 c 5 -1 c 4 1 c 5 0 c 4 0 c 4 0 c 5 1 c
4 0 c 4 1 c 5 0 c 4 2 c 5 3 c 4 16 c 4 202 c 5 842 c 4 480 c 4 6 c 5 -348 c 4 -911 c 4 -265 c 5 -20 c 4 -1 c 5 -1 c 4 -2 c 4 0 c
5 0 c 4 2 c 4 6 c 5 79 c 4 592 c 5 646 c 4 81 c 4 -117 c 5 -777 c 4 -437 c 4 -29 c 5 10 c 4 -5 c 5 -20 c 4 -19 c 4 -12 c 5 -2 c
4 2 c 4 3 c 5 1 c 4 -2 c 5 -5 c 4 -2 c 4 -1 c 5 0 c 4 0 c 4 8 c 5 27 c 4 9 c 4 -2 c 5 -12 c 4 -23 c 5 -5 c 4 0 c 4 0 c 5 0 c 4 5 c
4 2 c 5 1 c 4 -1 c 5 -6 c 4 -2 c 4 -1 c 5 1 c 4 1 c 4 4 c 5 36 c 4 51 c 5 8 c 4 -3 c 4 -49 c 5 -29 c 4 78 c 4 67 c 5 21 c 4 -8 c
4 -93 c 5 -59 c 4 -7 c 5 6 c 4 61 c 4 327 c 5 525 c 4 184 c 4 -74 c 5 -433 c 4 -453 c 5 -112 c 4 -21 c 4 -11 c 5 -8 c 4 -3 c 4 -1 c
5 -1 c 4 0 c 5 1 c 4 9 c 4 25 c 5 20 c 4 3 c 4 -16 c 5 -27 c 4 -12 c 5 -4 c 4 -1 c 4 1 c 5 0 c 4 3 c 4 5 c 5 2 c 4 -1 c 4 -6 c
5 -6 c 4 -1 c 5 1 c 4 -1 c 4 0 c 5 0 c 4 -1 c 4 0 c 5 2 c 4 5 c 5 3 c 4 1 c 4 8 c 5 14 c 4 5 c 4 -1 c 5 -15 c 4 -17 c 5 -4 c 4 0 c
4 0 c 5 0 c 4 1 c 4 0 c 5 0 c 4 0 c 5 -2 c 4 -1 c 4 0 c 5 0 c 4 0 c 4 0 c 5 1 c 4 0 c 4 -1 c 5 1 c 4 -1 c 5 1 c 4 0 c 4 1 c 5 -1 c
4 1 c 4 0 c 5 1 c 4 23 c 5 89 c 4 46 c 4 -2 c 5 -30 c 4 -96 c 4 -30 c 5 -1 c 4 -1 c 5 0 c 4 1 c 4 -1 c 5 0 c 4 0 c 4 0 c 5 1 c 4 2 c
5 0 c 4 0 c 4 0 c 5 -2 c 4 2 c 4 1 c 5 1 c 4 0 c 4 0 c 5 9 c 4 12 c 5 1 c 4 -2 c 4 -14 c 5 -8 c 4 -1 c 4 -1 c 5 0 c 4 -1 c 5 1 c
4 0 c 4 3 c 5 12 c 4 28 c 4 14 c 5 -4 c 4 -15 c 5 -26 c 4 -7 c 4 -3 c 5 -1 c 4 -1 c 4 0 c 5 5 c 4 0 c 5 1 c 4 1 c 4 -2 c 5 -1 c
4 0 c 4 -4 c 5 -2 c 4 1 c 4 -1 c 5 0 c 4 1 c 5 0 c 4 5 c 4 16 c 5 9 c 4 2 c 4 -7 c 5 -18 c 4 -5 c 5 -2 c 4 0 c 4 0 c 5 0 c 4 1 c
4 1 c 5 0 c 4 -1 c 5 2 c 4 4 c 4 2 c 5 5 c 4 7 c 4 1 c 5 -2 c 4 -8 c 4 -9 c 5 -3 c 4 1 c 5 5 c 4 1 c 4 1 c 5 -1 c 4 -1 c 4 12 c
5 5 c 4 -1 c 5 -5 c 4 -14 c 4 -3 c 5 1 c 4 2 c 4 0 c 5 0 c 4 0 c 5 -2 c 4 0 c 4 1 c 5 11 c 4 77 c 4 73 c 5 16 c 4 -10 c 5 -86 c
4 -69 c 4 -8 c 5 -2 c 4 -3 c 4 -1 c 5 0 c 4 1 c 4 0 c 5 0 c 4 0 c 5 -2 c 4 1 c 4 0 c 5 0 c 4 1 c 4 8 c 5 29 c 4 17 c 5 0 c 4 -11 c
4 -31 c 5 -10 c 4 0 c 4 1 c 5 -1 c 4 0 c 5 -2 c 4 0 c 4 -1 c 5 0 c 4 0 c 4 1 c 5 -1 c 4 0 c 5 0 c 4 1 c 4 0 c 5 4 c 4 7 c 4 16 c
5 19 c 4 3 c 4 -3 c 5 -18 c 4 -18 c 5 -6 c 4 -1 c 4 -1 c 5 0 c 4 0 c 4 1 c 5 4 c 4 1 c 5 1 c 4 -1 c 4 -1 c 5 14 c 4 18 c 4 5 c
5 -1 c 4 -15 c 5 -12 c 4 -2 c 4 -1 c 5 4 c 4 5 c 4 2 c 5 2 c 4 2 c 5 4 c 4 11 c 4 27 c 5 105 c 4 1447 c 4 4403 c 5 -9 c 4 26 c
4 -22 c 5 -2774 c 4 -2897 c 5 -276 c 4 -26 c 4 -12 c 5 -7 c 4 -3 c 4 -4 c 5 -3 c 4 -2 c 5 1 c 4 9 c 4 7 c 5 3 c 4 -1 c 4 -12 c
5 -6 c 4 -4 c 5 24 c 4 105 c 4 70 c 5 3 c 4 -28 c 4 -109 c 5 -65 c 4 -5 c 5 4 c 4 8 c 4 8 c 5 2 c 4 -6 c 4 -8 c 5 -4 c 4 2 c 4 0 c
5 -1 c 4 -6 c 5 -4 c 4 0 c 4 1 c 5 0 c 4 1 c 4 2 c 5 0 c 4 2 c 5 1 c 4 3 c 4 5 c 5 3 c 4 9 c 4 59 c 5 659 c 4 1467 c 5 529 c 4 -19 c
4 -818 c 5 -1476 c 4 -383 c 4 -31 c 5 -5 c 4 -4 c 4 -2 c 5 -1 c 4 -1 c 5 0 c 4 -1 c 4 -1 c 5 1 c 4 0 c 4 1 c 5 -1 c 4 -1 c 5 -1 c
4 1 c 4 4 c 5 43 c 4 63 c 4 16 c 5 -3 c 4 -36 c 5 -50 c 4 -6 c 4 -3 c 5 -13 c 4 -10 c 4 -5 c 5 -2 c 4 -1 c 5 0 c 4 0 c 4 1 c 5 3 c
4 4 c 4 6 c 5 6 c 4 2 c 4 -3 c 5 -6 c 4 -5 c 5 -3 c 4 -2 c 4 0 c 5 -1 c 4 -1 c 4 0 c 5 0 c 4 0 c 5 1 c 4 -1 c 4 1 c 5 0 c 4 2 c
4 1 c 5 1 c 4 5 c 5 14 c 4 7 c 4 0 c 5 -7 c 4 -13 c 4 -5 c 5 -2 c 4 0 c 5 -2 c 4 -1 c 4 0 c 5 0 c 4 4 c 4 4 c 5 3 c 4 -1 c 4 -2 c
5 -2 c 4 11 c 5 14 c 4 5 c 4 -1 c 5 -10 c 4 11 c 4 28 c 5 4 c 4 -6 c 5 -29 c 4 -26 c 4 -5 c 5 0 c 4 7 c 4 27 c 5 21 c 4 3 c 5 -3 c
4 -23 c 4 -10 c 5 -4 c 4 -7 c 4 -7 c 5 -3 c 4 -2 c 5 0 c 4 -1 c 4 3 c 5 3 c 4 0 c 4 0 c 5 -4 c 4 -4 c 4 0 c 5 0 c 4 0 c 5 0 c 4 7 c
4 24 c 5 18 c 4 1 c 4 -9 c 5 -24 c 4 -12 c 5 8 c 4 80 c 4 118 c 5 37 c 4 -10 c 4 -88 c 5 -115 c 4 -29 c 5 -3 c 4 2 c 4 3 c 5 1 c
4 2 c 4 -2 c 5 -3 c 4 -2 c 4 2 c 5 2 c 4 1 c 5 1 c 4 -1 c 4 -2 c 5 1 c 4 0 c 4 4 c 5 64 c 4 389 c 5 422 c 4 101 c 4 -67 c 5 -454 c
4 -378 c 4 -78 c 5 -3 c 4 0 c 5 0 c 4 -22 c 4 19 c 5 -1 c 4 -1 c 4 1 c 5 0 c 4 1 c 5 3 c 4 15 c 4 56 c 5 319 c 4 470 c 4 118 c
5 -49 c 4 -374 c 4 -436 c 5 -104 c 4 -7 c 5 -1 c 4 -3 c 4 -1 c 5 2 c 4 0 c 4 3 c 5 4 c 4 8 c 5 38 c 4 430 c 4 1871 c 5 1496 c
4 229 c 4 -522 c 5 -2036 c 4 -1338 c 5 -163 c 4 -13 c 4 -4 c 5 -3 c 4 -1 c 4 -1 c 5 -3 c 4 -1 c 5 -2 c 4 0 c 4 4 c 5 7 c 4 7 c
4 -1 c 5 -5 c 4 -8 c 4 -5 c 5 4 c 4 19 c 5 42 c 4 26 c 4 5 c 5 -18 c 4 -39 c 4 -21 c 5 -10 c 4 -3 c 5 -2 c 4 0 c 4 0 c 5 -2 c 4 -2 c
4 0 c 5 -1 c 4 0 c 5 3 c 4 3 c 4 3 c 5 10 c 4 32 c 4 58 c 5 15 c 4 -6 c 5 -40 c 4 -57 c 4 6 c 5 63 c 4 35 c 4 1 c 5 -22 c 4 -68 c
4 -31 c 5 -4 c 4 -1 c 5 0 c 4 -2 c 4 0 c 5 0 c 4 0 c 4 1 c 5 0 c 4 0 c 5 2 c 4 3 c 4 1 c 5 -1 c 4 -3 c 4 -2 c 5 -1 c 4 0 c 5 0 c
4 1 c 4 0 c 5 1 c 4 1 c 4 -1 c 5 0 c 4 0 c 5 0 c 4 -1 c 4 0 c 5 -1 c 4 1 c 4 0 c 5 0 c 4 0 c 4 0 c 5 2 c 4 1 c 5 2 c 4 1 c 4 7 c
5 10 c 4 3 c 4 2 c 5 -8 c 4 -10 c 5 -4 c 4 -5 c 4 -2 c 5 2 c 4 9 c 4 13 c 5 6 c 4 1 c 5 -11 c 4 -11 c 4 4 c 5 6 c 4 0 c 4 -1 c
5 -11 c 4 -5 c 4 -1 c 5 1 c 4 3 c 5 3 c 4 2 c 4 -1 c 5 -3 c 4 -3 c 4 -3 c 5 1 c 4 -1 c 5 0 c 4 0 c 4 1 c 5 1 c 4 7 c 4 4 c 5 3 c
4 -2 c 5 -4 c 4 -4 c 4 1 c 5 5 c 4 26 c 4 36 c 5 20 c 4 -1 c 5 -25 c 4 -34 c 4 -11 c 5 -7 c 4 -5 c 4 -2 c 5 -2 c 4 -1 c 4 -1 c
5 -1 c 4 -1 c 5 0 c 4 0 c 4 -1 c 5 0 c 4 0 c 4 0 c 5 1 c 4 4 c 5 18 c 4 25 c 4 17 c 5 0 c 4 -15 c 4 -22 c 5 -13 c 4 -4 c 5 -2 c
4 -3 c 4 -1 c 5 1 c 4 -1 c 4 -21 c 5 21 c 4 0 c 5 0 c 4 2 c 4 1 c 5 3 c 4 2 c 4 2 c 5 0 c 4 -2 c 4 0 c 5 2 c 4 3 c 5 34 c 4 93 c
4 46 c 5 14 c 4 -13 c 4 -73 c 5 -28 c 4 3 c 5 -2 c 4 -1 c 4 17 c 5 66 c 4 622 c 4 5219 c 5 7 c 4 -4 c 5 -6 c 4 7 c 4 -2235 c
5 -3354 c 4 -307 c 4 -37 c 5 -7 c 4 5 c 5 2 c 4 0 c 4 -16 c 5 -26 c 4 -16 c 4 -5 c 5 0 c 4 -2 c 4 -3 c 5 -2 c 4 -3 c 5 -1 c 4 3 c
4 4 c 5 2 c 4 1 c 4 -1 c 5 -6 c 4 -2 c 5 -3 c 4 -3 c 4 -1 c 5 0 c 4 1 c 4 2 c 5 0 c 4 0 c 5 -2 c 4 -2 c 4 2 c 5 4 c 4 9 c 4 9 c
5 1 c 4 -1 c 5 -6 c 4 -10 c 4 -4 c 5 -3 c 4 -1 c 4 0 c 5 6 c 4 27 c 4 26 c 5 4 c 4 0 c 5 -29 c 4 -22 c 4 -6 c 5 -4 c 4 -2 c 4 1 c
5 0 c 4 0 c 5 0 c 4 -2 c 4 -1 c 5 -2 c 4 0 c 4 1 c 5 2 c 4 1 c 5 2 c 4 2 c 4 3 c 5 1 c 4 -2 c 4 -3 c 5 -5 c 4 -1 c 4 1 c 5 1 c 4 0 c
5 0 c 4 -1 c 4 -2 c 5 0 c 4 2 c 4 17 c 5 101 c 4 77 c 5 16 c 4 -15 c 4 -96 c 5 -83 c 4 3 c 4 15 c 5 9 c 4 2 c 5 -8 c 4 -16 c 4 -7 c
5 -4 c 4 8 c 4 16 c 5 12 c 4 -1 c 5 -11 c 4 -20 c 4 -10 c 5 -2 c 4 -1 c 4 0 c 5 0 c 4 0 c 4 -1 c 5 -1 c 4 0 c 5 0 c 4 0 c 4 1 c
5 0 c 4 -1 c 4 -1 c 5 2 c 4 8 c 5 6 c 4 -1 c 4 -1 c 5 -5 c 4 -4 c 4 1 c 5 -2 c 4 -2 c 5 0 c 4 -1 c 4 5 c 5 12 c 4 4 c 4 1 c 5 -1 c
4 8 c 5 110 c 4 269 c 4 199 c 5 57 c 4 -98 c 4 -270 c 5 -196 c 4 -64 c 4 -16 c 5 -8 c 4 -4 c 5 -3 c 4 -1 c 4 1 c 5 4 c 4 2 c 4 2 c
5 1 c 4 7 c 5 80 c 4 100 c 4 31 c 5 -9 c 4 -76 c 4 -109 c 5 -28 c 4 1 c 5 -1 c 4 2 c 4 2 c 5 -3 c 4 -2 c 4 -3 c 5 -4 c 4 0 c 5 0 c
4 3 c 4 5 c 5 21 c 4 14 c 4 2 c 5 3 c 4 27 c 4 25 c 5 6 c 4 -9 c 5 -43 c 4 -5 c 4 92 c 5 59 c 4 7 c 4 -29 c 5 -90 c 4 -68 c 5 -11 c
4 -5 c 4 -6 c 5 -2 c 4 0 c 4 0 c 5 0 c 4 0 c 5 2 c 4 -1 c 4 -1 c 5 0 c 4 -1 c 4 -1 c 5 0 c 4 0 c 5 0 c 4 -1 c 4 1 c 5 0 c 4 2 c
4 1 c 5 1 c 4 0 c 4 3 c 5 14 c 4 9 c 5 1 c 4 -1 c 4 -12 c 5 -12 c 4 -2 c 4 -2 c 5 -2 c 4 3 c 5 12 c 4 14 c 4 12 c 5 1 c 4 -11 c
4 -10 c 5 -12 c 4 -4 c 5 -3 c 4 -1 c 4 3 c 5 1 c 4 0 c 4 0 c 5 -4 c 4 -1 c 4 0 c 5 6 c 4 20 c 5 19 c 4 4 c 4 -5 c 5 -19 c 4 -20 c
4 -4 c 5 -1 c 4 1 c 5 0 c 4 -1 c 4 0 c 5 -1 c 4 1 c 4 2 c 5 0 c 4 1 c 5 0 c 4 -2 c 4 0 c 5 -1 c 4 -1 c 4 1 c 5 -1 c 4 0 c 5 0 c
4 1 c 4 0 c 5 0 c 4 1 c 4 0 c 5 0 c 4 0 c 4 1 c 5 0 c 4 0 c 5 0 c 4 0 c 4 1 c 5 0 c 4 1 c 4 2 c 5 1 c 4 1 c 5 1 c 4 2 c 4 13 c
5 32 c 4 22 c 4 39 c 5 447 c 4 2374 c 5 1714 c 4 207 c 4 -362 c 5 -2319 c 4 -1903 c 4 -230 c 5 -22 c 4 -8 c 5 -4 c 4 -2 c 4 0 c
5 0 c 4 -1 c 4 -2 c 5 0 c 4 0 c 4 -1 c 5 0 c 4 -2 c 5 -1 c 4 1 c 4 4 c 5 2 c 4 2 c 4 -1 c 5 -4 c 4 -3 c 5 -1 c 4 0 c 4 0 c 5 0 c
4 -1 c 4 -1 c 5 2 c 4 5 c 5 2 c 4 -1 c 4 0 c 5 0 c 4 31 c 4 41 c 5 5 c 4 -3 c 5 -30 c 4 -40 c 4 -7 c 5 1 c 4 11 c 4 135 c 5 343 c
4 114 c 4 -7 c 5 -107 c 4 -345 c 5 -132 c 4 -6 c 4 6 c 5 1 c 4 -3 c 4 -5 c 5 -8 c 4 -3 c 5 0 c 4 0 c 4 1 c 5 0 c 4 0 c 4 -1 c 5 -1 c
4 0 c 5 3 c 4 7 c 4 2 c 5 0 c 4 -2 c 4 -7 c 5 -2 c 4 -1 c 4 1 c 5 -1 c 4 2 c 5 1 c 4 0 c 4 -1 c 5 0 c 4 3 c 4 5 c 5 40 c 4 105 c
5 34 c 4 5 c 4 -31 c 5 -105 c 4 -47 c 4 -1 c 5 8 c 4 0 c 5 0 c 4 -5 c 4 -2 c 5 16 c 4 12 c 4 2 c 5 -2 c 4 -16 c 5 -13 c 4 -4 c
4 -2 c 5 -2 c 4 5 c 4 11 c 5 3 c 4 0 c 4 -5 c 5 -12 c 4 -4 c 5 0 c 4 6 c 4 42 c 5 71 c 4 22 c 4 17 c 5 -27 c 4 -72 c 5 -30 c 4 -21 c
4 -8 c 5 1 c 4 1 c 4 1 c 5 -1 c 4 0 c 5 2 c 4 4 c 4 1 c 5 4 c 4 -1 c 4 -5 c 5 -2 c 4 -2 c 5 -3 c 4 1 c 4 1 c 5 -1 c 4 1 c 4 1 c
5 2 c 4 -1 c 4 0 c 5 -2 c 4 -3 c 5 0 c 4 0 c 4 0 c 5 -1 c 4 0 c 4 1 c 5 1 c 4 2 c 5 0 c 4 -1 c 4 -1 c 5 -1 c 4 0 c 4 1 c 5 1 c 4 3 c
5 9 c 4 7 c 4 1 c 5 2 c 4 -7 c 4 -7 c 5 -4 c 4 -3 c 5 -2 c 4 0 c 4 1 c 5 -1 c 4 1 c 4 2 c 5 5 c 4 28 c 4 63 c 5 27 c 4 2 c 5 -16 c
4 -38 c 4 27 c 5 20 c 4 2 c 4 -19 c 5 -60 c 4 -32 c 5 -7 c 4 -2 c 4 -3 c 5 0 c 4 -1 c 4 0 c 5 0 c 4 0 c 5 0 c 4 2 c 4 8 c 5 25 c
4 13 c 4 -1 c 5 -5 c 4 -24 c 5 -15 c 4 -2 c 4 0 c 5 0 c 4 -1 c 4 0 c 5 -1 c 4 0 c 4 0 c 5 1 c 4 0 c 5 0 c 4 0 c 4 0 c 5 2 c 4 0 c
4 0 c 5 0 c 4 0 c 5 0 c 4 1 c 4 1 c 5 1 c 4 0 c 4 3 c 5 3 c 4 12 c 5 95 c 4 759 c 4 1088 c 5 173 c 4 -53 c 4 -596 c 5 -1205 c
4 -251 c 4 -19 c 5 -2 c 4 1 c 5 2 c 4 3 c 4 1 c 5 17 c 4 30 c 4 9 c 5 -2 c 4 -15 c 5 -35 c 4 -11 c 4 1 c 5 -1 c 4 0 c 4 -1 c 5 -5 c
4 -1 c 5 -1 c 4 -2 c 4 0 c 5 -1 c 4 0 c 4 0 c 5 -1 c 4 0 c 5 0 c 4 1 c 4 7 c 5 14 c 4 9 c 4 1 c 5 -4 c 4 -13 c 4 -8 c 5 -4 c 4 1 c
5 10 c 4 9 c 4 3 c 5 -2 c 4 -7 c 4 -10 c 5 -2 c 4 0 c 5 -1 c 4 -1 c 4 -3 c 5 0 c 4 0 c 4 3 c 5 10 c 4 8 c 5 1 c 4 -3 c 4 -10 c
5 -6 c 4 9 c 4 4 c 5 0 c 4 -3 c 5 -8 c 4 -7 c 4 0 c 5 1 c 4 1 c 4 2 c 5 2 c 4 1 c 4 4 c 5 17 c 4 12 c 5 1 c 4 -3 c 4 -3 c 5 1 c
4 2 c 4 5 c 5 2 c 4 -14 c 5 2 c 4 18 c 4 21 c 5 6 c 4 -5 c 4 -22 c 5 -30 c 4 -17 c 5 -3 c 4 0 c 4 -1 c 5 1 c 4 2 c 4 0 c
5 3 c 4 17 c 5 43 c 4 14 c 4 -91 c 4 46 9549 780 l 4 -24 c 5 -4 c 4 -5 c 4 -1 c 5 1 c 4 0 c 5 1 c 4 -1 c 4 2 c 5 4 c 4 1 c 4 2 c
5 0 c 4 -5 c 5 -1 c 4 -2 c 4 -1 c 5 1 c 4 1 c 4 -1 c 5 -1 c 4 -2 c 5 0 c 4 0 c 4 0 c 5 -1 c 4 0 c 4 0 c 5 0 c 4 0 c 5 0 c 4 0 c
4 2 c 5 1 c 4 4 c 4 4 c 5 1 c 4 -1 c
0 -126 3030 418 l 54 0 3030 418 l 18 -6 c 6 -6 c 6 -12 c 0 -12 c -6 -12 c -6 -6 c -18 -6 c -54 0 c 42 -66 3072 358 l
-12 -6 3180 376 l -12 -12 c -6 -18 c 0 -12 c 6 -18 c 12 -12 c 12 -6 c 18 0 c 12 6 c 12 12 c 6 18 c 0 12 c -6 18 c -12 12 c -12 6 c
-18 0 c 24 -84 3264 376 l -24 -84 3312 376 l 24 -84 3312 376 l -24 -84 3360 376 l 108 0 3402 364 l 108 0 3402 328 l 0 6 3654 388 l
6 12 c 6 6 c 12 6 c 24 0 c 12 -6 c 6 -6 c 6 -12 c 0 -12 c -6 -12 c -12 -18 c -60 -60 c 84 0 c -60 -126 3852 418 l 84 0 3768 418 l
12 6 4290 394 l 18 18 c 0 -126 c -6 -6 4404 376 l 6 -6 c 6 6 c -6 6 c -6 -6 4404 304 l 6 -6 c 6 6 c -6 6 c -48 -126 4584 418 l
48 -126 4584 418 l 60 0 4554 334 l 0 -84 4662 376 l 6 18 4662 340 l 12 12 c 12 6 c 18 0 c -12 12 4806 358 l -12 6 c -18 0 c -12 -6 c
-12 -12 c -6 -18 c 0 -12 c 6 -18 c 12 -12 c 12 -6 c 18 0 c 12 6 c 12 12 c 108 0 4848 346 l -18 -6 5034 418 l -12 -18 c -6 -30 c
0 -18 c 6 -30 c 12 -18 c 18 -6 c 12 0 c 18 6 c 12 18 c 6 30 c 0 18 c -6 30 c -12 18 c -18 6 c -12 0 c 66 0 5130 418 l -36 -48 c
18 0 c 12 -6 c 6 -6 c 6 -18 c 0 -12 c -6 -18 c -12 -12 c -18 -6 c -18 0 c -18 6 c -6 6 c -6 12 c -59 0 5309 418 l -6 -54 c 6 6 c
17 6 c 18 0 c 18 -6 c 12 -12 c 6 -18 c 0 -12 c -6 -18 c -12 -12 c -18 -6 c -18 0 c -17 6 c -6 6 c -6 12 c -6 -6 5369 304 l 6 -6 c
6 6 c -6 6 c -12 0 5459 418 l -12 -6 c -6 -18 c 0 -102 c 42 0 5411 376 l 6 -6 5489 418 l 6 6 c -6 6 c -6 -6 c 0 -84 5495 376 l
0 -102 5549 418 l 6 -18 c 12 -6 c 12 0 c 42 0 5531 376 l -6 12 5675 358 l -18 6 c -18 0 c -18 -6 c -6 -12 c 6 -12 c 12 -6 c 30 -6 c
12 -6 c 6 -12 c 0 -6 c -6 -12 c -18 -6 c -18 0 c -18 6 c -6 12 c 0 -192 6005 442 l 0 -192 6011 442 l 42 0 6005 442 l 42 0 6005 250 l
0 6 6089 388 l 6 12 c 6 6 c 12 6 c 24 0 c 12 -6 c 6 -6 c 6 -12 c 0 -12 c -6 -12 c -12 -18 c -60 -60 c 84 0 c -6 -6 6215 376 l 6 -6 c
6 6 c -6 6 c -6 -6 6215 304 l 6 -6 c 6 6 c -6 6 c -48 -126 6395 418 l 48 -126 6395 418 l 60 0 6365 334 l 0 -84 6473 376 l
6 18 6473 340 l 12 12 c 12 6 c 18 0 c -12 12 6617 358 l -12 6 c -18 0 c -12 -6 c -12 -12 c -6 -18 c 0 -12 c 6 -18 c 12 -12 c 12 -6 c
18 0 c 12 6 c 12 12 c 108 0 6659 346 l -18 -6 6845 418 l -12 -18 c -6 -30 c 0 -18 c 6 -30 c 12 -18 c 18 -6 c 12 0 c 18 6 c 12 18 c
6 30 c 0 18 c -6 30 c -12 18 c -18 6 c -12 0 c 66 0 6941 418 l -36 -48 c 18 0 c 12 -6 c 6 -6 c 6 -18 c 0 -12 c -6 -18 c -12 -12 c
-18 -6 c -18 0 c -18 6 c -6 6 c -6 12 c -6 12 7127 400 l -18 6 c -12 0 c -18 -6 c -12 -18 c -6 -30 c 0 -30 c 6 -24 c 12 -12 c
18 -6 c 6 0 c 18 6 c 12 12 c 6 18 c 0 6 c -6 18 c -12 12 c -18 6 c -6 0 c -18 -6 c -12 -12 c -6 -18 c -6 -6 7181 304 l 6 -6 c 6 6 c
-6 6 c -12 0 7271 418 l -12 -6 c -6 -18 c 0 -102 c 42 0 7223 376 l 6 -6 7301 418 l 6 6 c -6 6 c -6 -6 c 0 -84 7307 376 l
0 -102 7361 418 l 6 -18 c 12 -6 c 12 0 c 42 0 7343 376 l -6 12 7487 358 l -18 6 c -18 0 c -18 -6 c -6 -12 c 6 -12 c 12 -6 c 30 -6 c
12 -6 c 6 -12 c 0 -6 c -6 -12 c -18 -6 c -18 0 c -18 6 c -6 12 c 0 -192 7559 442 l 0 -192 7565 442 l 42 0 7523 442 l 42 0 7523 250 l
0 -249 1058 1975 l 0 -37 1014 2092 l 34 -4 c -4 4 c -3 11 c 0 11 c 3 12 c 8 7 c 11 4 c 8 0 c 11 -4 c 8 -7 c 4 -12 c 0 -11 c -4 -11 c
-4 -4 c -8 -4 c -3 7 1029 2134 l -12 12 c 80 0 c 11 -3 1041 2247 l 8 -8 c 3 -11 c 0 -4 c -3 -11 c -8 -8 c -11 -4 c -4 0 c -11 4 c
-8 8 c -4 11 c 0 4 c 4 11 c 8 8 c 15 3 c 19 0 c 18 -3 c 12 -8 c 4 -11 c 0 -8 c -4 -11 c -8 -4 c 4 -12 1014 2293 l 8 -3 c 7 0 c 8 3 c
3 8 c 4 15 c 4 11 c 8 8 c 7 4 c 11 0 c 8 -4 c 4 -4 c 4 -11 c 0 -15 c -4 -12 c -4 -3 c -8 -4 c -11 0 c -7 4 c -8 7 c -4 11 c -4 16 c
-3 7 c -8 4 c -7 0 c -8 -4 c -4 -11 c 0 -15 c 4 -4 1086 2357 l 4 4 c -4 4 c -4 -4 c 4 -11 1014 2406 l 8 -4 c 7 0 c 8 4 c 3 7 c
4 15 c 4 12 c 8 7 c 7 4 c 11 0 c 8 -4 c 4 -3 c 4 -12 c 0 -15 c -4 -11 c -4 -4 c -8 -4 c -11 0 c -7 4 c -8 8 c -4 11 c -4 15 c -3 8 c
-8 3 c -7 0 c -8 -3 c -4 -12 c 0 -15 c 4 -11 1014 2485 l 11 -7 c 19 -4 c 12 0 c 18 4 c 12 7 c 4 11 c 0 8 c -4 11 c -12 8 c -18 4 c
-12 0 c -19 -4 c -11 -8 c -4 -11 c 0 -8 c 4 -11 1014 2561 l 11 -8 c 19 -4 c 12 0 c 18 4 c 12 8 c 4 11 c 0 8 c -4 11 c -12 7 c
-18 4 c -12 0 c -19 -4 c -11 -7 c -4 -11 c 0 -8 c 0 -250 1416 1262 l 0 -38 1372 1379 l 34 -4 c -4 4 c -3 11 c 0 12 c 3 11 c 8 8 c
11 3 c 8 0 c 11 -3 c 8 -8 c 4 -11 c 0 -12 c -4 -11 c -4 -4 c -8 -3 c -4 0 1391 1413 l -7 4 c -4 3 c -4 8 c 0 15 c 4 8 c 4 3 c 7 4 c
8 0 c 7 -4 c 12 -7 c 38 -38 c 0 53 c 4 -11 1372 1507 l 11 -8 c 19 -3 c 12 0 c 18 3 c 12 8 c 4 11 c 0 8 c -4 11 c -12 8 c -18 4 c
-12 0 c -19 -4 c -11 -8 c -4 -11 c 0 -8 c -4 0 1391 1564 l -7 4 c -4 4 c -4 7 c 0 15 c 4 8 c 4 4 c 7 3 c 8 0 c 7 -3 c 12 -8 c
38 -38 c 0 53 c 4 -3 1444 1643 l 4 3 c -4 4 c -4 -4 c 4 -11 1372 1696 l 11 -8 c 19 -3 c 12 0 c 18 3 c 12 8 c 4 11 c 0 8 c -4 11 c
-12 8 c -18 4 c -12 0 c -19 -4 c -11 -8 c -4 -11 c 0 -8 c 4 -11 1372 1772 l 11 -8 c 19 -4 c 12 0 c 18 4 c 12 8 c 4 11 c 0 8 c
-4 11 c -12 7 c -18 4 c -12 0 c -19 -4 c -11 -7 c -4 -11 c 0 -8 c 11 -4 1399 1874 l 8 -7 c 3 -12 c 0 -3 c -3 -12 c -8 -7 c -11 -4 c
-4 0 c -11 4 c -8 7 c -4 12 c 0 3 c 4 12 c 8 7 c 15 4 c 19 0 c 18 -4 c 12 -7 c 4 -12 c 0 -7 c -4 -12 c -8 -3 c 0 -249 1621 1393 l
0 -38 1577 1510 l 34 -3 c -4 3 c -3 12 c 0 11 c 3 11 c 8 8 c 11 4 c 8 0 c 11 -4 c 8 -8 c 4 -11 c 0 -11 c -4 -12 c -4 -3 c -8 -4 c
-4 0 1596 1544 l -7 4 c -4 4 c -4 7 c 0 16 c 4 7 c 4 4 c 7 4 c 8 0 c 7 -4 c 12 -8 c 38 -38 c 0 53 c 4 -12 1577 1639 l 11 -7 c
19 -4 c 12 0 c 18 4 c 12 7 c 4 12 c 0 7 c -4 12 c -12 7 c -18 4 c -12 0 c -19 -4 c -11 -7 c -4 -12 c 0 -7 c 0 42 1577 1699 l
30 -23 c 0 11 c 4 8 c 4 4 c 11 4 c 8 0 c 11 -4 c 8 -8 c 4 -11 c 0 -11 c -4 -12 c -4 -4 c -8 -3 c 4 -4 1649 1775 l 4 4 c -4 4 c
-4 -4 c 4 -11 1577 1824 l 8 -4 c 7 0 c 8 4 c 3 7 c 4 15 c 4 12 c 8 7 c 7 4 c 11 0 c 8 -4 c 4 -4 c 4 -11 c 0 -15 c -4 -11 c -4 -4 c
-8 -4 c -11 0 c -7 4 c -8 7 c -4 12 c -4 15 c -3 7 c -8 4 c -7 0 c -8 -4 c -4 -11 c 0 -15 c 53 -37 1577 1918 l 0 56 c
80 0 1577 1918 l 4 -11 1577 1975 l 8 -4 c 7 0 c 8 4 c 3 7 c 4 15 c 4 12 c 8 7 c 7 4 c 11 0 c 8 -4 c 4 -3 c 4 -12 c 0 -15 c -4 -11 c
-4 -4 c -8 -4 c -11 0 c -7 4 c -8 8 c -4 11 c -4 15 c -3 8 c -8 3 c -7 0 c -8 -3 c -4 -12 c 0 -15 c 0 -250 1769 1400 l
0 -38 1725 1517 l 34 -3 c -4 3 c -4 12 c 0 11 c 4 11 c 8 8 c 11 4 c 8 0 c 11 -4 c 8 -8 c 3 -11 c 0 -11 c -3 -12 c -4 -3 c -8 -4 c
-4 0 1744 1551 l -8 4 c -3 4 c -4 7 c 0 15 c 4 8 c 3 4 c 8 4 c 8 0 c 7 -4 c 12 -8 c 37 -38 c 0 53 c 4 -12 1725 1646 l 11 -7 c
19 -4 c 11 0 c 19 4 c 12 7 c 3 12 c 0 7 c -3 12 c -12 7 c -19 4 c -11 0 c -19 -4 c -11 -7 c -4 -12 c 0 -7 c 0 -38 1725 1744 l
34 -4 c -4 4 c -4 11 c 0 12 c 4 11 c 8 8 c 11 4 c 8 0 c 11 -4 c 8 -8 c 3 -11 c 0 -12 c -3 -11 c -4 -4 c -8 -3 c 4 -4 1797 1782 l
3 4 c -3 4 c -4 -4 c -4 8 1740 1823 l -11 11 c 79 0 c 0 -38 1725 1933 l 34 -4 c -4 4 c -4 11 c 0 12 c 4 11 c 8 8 c 11 3 c 8 0 c
11 -3 c 8 -8 c 3 -11 c 0 -12 c -3 -11 c -4 -4 c -8 -3 c -4 0 1744 1967 l -8 4 c -3 4 c -4 7 c 0 15 c 4 8 c 3 4 c 8 3 c 8 0 c 7 -3 c
12 -8 c 37 -38 c 0 53 c 0 -250 2067 1266 l 0 -38 2024 1383 l 34 -4 c -4 4 c -4 11 c 0 12 c 4 11 c 8 8 c 11 3 c 8 0 c 11 -3 c 7 -8 c
4 -11 c 0 -12 c -4 -11 c -3 -4 c -8 -4 c -4 0 2043 1417 l -8 4 c -3 3 c -4 8 c 0 15 c 4 8 c 3 3 c 8 4 c 8 0 c 7 -4 c 11 -7 c
38 -38 c 0 53 c 4 -11 2024 1511 l 11 -8 c 19 -3 c 11 0 c 19 3 c 11 8 c 4 11 c 0 8 c -4 11 c -11 8 c -19 3 c -11 0 c -19 -3 c
-11 -8 c -4 -11 c 0 -8 c 79 -38 2024 1617 l 0 53 2024 1564 l 3 -3 2096 1647 l 4 3 c -4 4 c -3 -4 c 4 -11 2024 1696 l 7 -4 c 8 0 c
7 4 c 4 8 c 4 15 c 4 11 c 7 8 c 8 3 c 11 0 c 8 -3 c 3 -4 c 4 -11 c 0 -16 c -4 -11 c -3 -4 c -8 -3 c -11 0 c -8 3 c -7 8 c -4 11 c
-4 15 c -4 8 c -7 4 c -8 0 c -7 -4 c -4 -11 c 0 -16 c 4 -12 2024 1776 l 11 -7 c 19 -4 c 11 0 c 19 4 c 11 7 c 4 12 c 0 7 c -4 12 c
-11 7 c -19 4 c -11 0 c -19 -4 c -11 -7 c -4 -12 c 0 -7 c -4 8 2039 1840 l -11 11 c 79 0 c 0 -250 2286 1762 l 0 -38 2242 1879 l
34 -4 c -4 4 c -3 11 c 0 12 c 3 11 c 8 8 c 11 3 c 8 0 c 11 -3 c 8 -8 c 3 -11 c 0 -12 c -3 -11 c -4 -4 c -8 -3 c -4 0 2261 1913 l
-7 4 c -4 4 c -4 7 c 0 15 c 4 8 c 4 4 c 7 3 c 8 0 c 7 -3 c 12 -8 c 37 -38 c 0 53 c 4 -11 2242 2007 l 11 -7 c 19 -4 c 11 0 c 19 4 c
12 7 c 3 11 c 0 8 c -3 11 c -12 8 c -19 4 c -11 0 c -19 -4 c -11 -8 c -4 -11 c 0 -8 c 11 -3 2269 2109 l 7 -8 c 4 -11 c 0 -4 c
-4 -11 c -7 -8 c -11 -4 c -4 0 c -12 4 c -7 8 c -4 11 c 0 4 c 4 11 c 7 8 c 16 3 c 18 0 c 19 -3 c 12 -8 c 3 -11 c 0 -8 c -3 -11 c
-8 -4 c 4 -4 2314 2144 l 3 4 c -3 3 c -4 -3 c 79 -38 2242 2227 l 0 53 2242 2174 l -4 0 2261 2253 l -7 4 c -4 4 c -4 7 c 0 15 c 4 8 c
4 4 c 7 3 c 8 0 c 7 -3 c 12 -8 c 37 -38 c 0 53 c 0 -38 2242 2370 l 34 -3 c -4 3 c -3 12 c 0 11 c 3 11 c 8 8 c 11 4 c 8 0 c 11 -4 c
8 -8 c 3 -11 c 0 -11 c -3 -12 c -4 -3 c -8 -4 c 0 -249 2457 4462 l 0 -38 2413 4579 l 34 -3 c -4 3 c -3 12 c 0 11 c 3 12 c 8 7 c
11 4 c 8 0 c 11 -4 c 8 -7 c 4 -12 c 0 -11 c -4 -12 c -4 -3 c -8 -4 c -4 0 2432 4613 l -7 4 c -4 4 c -4 7 c 0 16 c 4 7 c 4 4 c 7 4 c
8 0 c 7 -4 c 12 -8 c 38 -37 c 0 52 c -3 8 2428 4696 l -12 11 c 80 0 c -3 8 2428 4772 l -12 11 c 80 0 c 4 -4 2485 4844 l 4 4 c -4 4 c
-4 -4 c -4 0 2432 4878 l -7 4 c -4 3 c -4 8 c 0 15 c 4 8 c 4 3 c 7 4 c 8 0 c 7 -4 c 12 -7 c 38 -38 c 0 53 c 0 42 2413 4957 l
30 -23 c 0 11 c 4 8 c 4 4 c 11 4 c 8 0 c 11 -4 c 8 -8 c 4 -11 c 0 -11 c -4 -12 c -4 -4 c -8 -3 c 4 -11 2413 5048 l 11 -8 c 19 -4 c
12 0 c 18 4 c 12 8 c 4 11 c 0 8 c -4 11 c -12 7 c -18 4 c -12 0 c -19 -4 c -11 -7 c -4 -11 c 0 -8 c 0 -250 2698 1880 l
0 -38 2655 1997 l 34 -4 c -4 4 c -4 11 c 0 12 c 4 11 c 8 8 c 11 3 c 8 0 c 11 -3 c 7 -8 c 4 -11 c 0 -12 c -4 -11 c -3 -4 c -8 -4 c
-4 0 2674 2031 l -8 4 c -3 3 c -4 8 c 0 15 c 4 8 c 3 3 c 8 4 c 8 0 c 7 -4 c 11 -7 c 38 -38 c 0 53 c -4 8 2670 2114 l -11 11 c 79 0 c
0 41 2655 2186 l 30 -22 c 0 11 c 4 8 c 4 3 c 11 4 c 8 0 c 11 -4 c 7 -7 c 4 -12 c 0 -11 c -4 -11 c -3 -4 c -8 -4 c 3 -3 2727 2261 l
4 3 c -4 4 c -3 -4 c 0 42 2655 2299 l 30 -23 c 0 11 c 4 8 c 4 4 c 11 3 c 8 0 c 11 -3 c 7 -8 c 4 -11 c 0 -12 c -4 -11 c -3 -4 c
-8 -3 c 53 -38 2655 2405 l 0 57 c 79 0 2655 2405 l 12 -4 2681 2492 l 7 -7 c 4 -12 c 0 -4 c -4 -11 c -7 -7 c -12 -4 c -3 0 c -12 4 c
-7 7 c -4 11 c 0 4 c 4 12 c 7 7 c 15 4 c 19 0 c 19 -4 c 11 -7 c 4 -12 c 0 -7 c -4 -12 c -7 -3 c 0 -250 3070 5871 l 0 -38 3026 5988 l
34 -4 c -4 4 c -3 11 c 0 12 c 3 11 c 8 8 c 11 3 c 8 0 c 11 -3 c 8 -8 c 4 -11 c 0 -12 c -4 -11 c -4 -4 c -8 -4 c -4 0 3045 6022 l
-7 4 c -4 3 c -4 8 c 0 15 c 4 8 c 4 3 c 7 4 c 8 0 c 7 -4 c 12 -7 c 38 -38 c 0 53 c -4 8 3041 6105 l -11 11 c 80 0 c
-7 -3 3037 6218 l -4 -12 c 0 -7 c 4 -12 c 11 -7 c 19 -4 c 19 0 c 15 4 c 8 7 c 4 12 c 0 4 c -4 11 c -8 7 c -11 4 c -4 0 c -11 -4 c
-8 -7 c -4 -11 c 0 -4 c 4 -12 c 8 -7 c 11 -4 c 4 -3 3098 6252 l 4 3 c -4 4 c -4 -4 c 0 -38 3026 6328 l 34 -4 c -4 4 c -3 12 c 0 11 c
3 11 c 8 8 c 11 4 c 8 0 c 11 -4 c 8 -8 c 4 -11 c 0 -11 c -4 -12 c -4 -4 c -8 -3 c 11 -3 3053 6407 l 8 -8 c 3 -11 c 0 -4 c -3 -11 c
-8 -8 c -11 -4 c -4 0 c -12 4 c -7 8 c -4 11 c 0 4 c 4 11 c 7 8 c 16 3 c 19 0 c 18 -3 c 12 -8 c 4 -11 c 0 -8 c -4 -11 c -8 -4 c
80 -38 3026 6487 l 0 53 3026 6434 l 0 -250 3359 2644 l 0 -38 3315 2761 l 34 -4 c -4 4 c -4 11 c 0 12 c 4 11 c 8 8 c 11 3 c 8 0 c
11 -3 c 8 -8 c 3 -11 c 0 -12 c -3 -11 c -4 -4 c -8 -4 c -4 0 3334 2795 l -7 4 c -4 3 c -4 8 c 0 15 c 4 8 c 4 3 c 7 4 c 8 0 c 7 -4 c
12 -7 c 37 -38 c 0 53 c -4 7 3330 2878 l -11 12 c 79 0 c 12 -3 3341 2991 l 7 -8 c 4 -11 c 0 -4 c -4 -12 c -7 -7 c -12 -4 c -3 0 c
-12 4 c -7 7 c -4 12 c 0 4 c 4 11 c 7 8 c 15 3 c 19 0 c 19 -3 c 12 -8 c 3 -11 c 0 -8 c -3 -11 c -8 -4 c 4 -3 3387 3025 l 3 3 c
-3 4 c -4 -4 c -4 7 3330 3067 l -11 12 c 79 0 c -4 8 3330 3142 l -11 11 c 79 0 c 4 -11 3315 3229 l 11 -8 c 19 -3 c 11 0 c 19 3 c
12 8 c 3 11 c 0 8 c -3 11 c -12 8 c -19 4 c -11 0 c -19 -4 c -11 -8 c -4 -11 c 0 -8 c 0 -250 4417 1410 l 0 -38 4373 1527 l 34 -4 c
-4 4 c -3 12 c 0 11 c 3 11 c 8 8 c 11 4 c 8 0 c 11 -4 c 8 -8 c 4 -11 c 0 -11 c -4 -12 c -4 -4 c -8 -3 c -4 0 4392 1561 l -7 4 c
-4 4 c -4 7 c 0 15 c 4 8 c 4 4 c 7 3 c 8 0 c 7 -3 c 12 -8 c 38 -38 c 0 53 c -4 0 4392 1637 l -7 3 c -4 4 c -4 8 c 0 15 c 4 7 c 4 4 c
7 4 c 8 0 c 7 -4 c 12 -7 c 38 -38 c 0 53 c 4 -11 4373 1727 l 7 -4 c 8 0 c 8 4 c 3 8 c 4 15 c 4 11 c 7 8 c 8 3 c 11 0 c 8 -3 c 4 -4 c
4 -12 c 0 -15 c -4 -11 c -4 -4 c -8 -4 c -11 0 c -8 4 c -7 8 c -4 11 c -4 15 c -3 8 c -8 4 c -8 0 c -7 -4 c -4 -12 c 0 -15 c
4 -4 4445 1792 l 4 4 c -4 3 c -4 -3 c -4 0 4392 1826 l -7 3 c -4 4 c -4 8 c 0 15 c 4 7 c 4 4 c 7 4 c 8 0 c 7 -4 c 12 -7 c 38 -38 c
0 53 c -4 0 4392 1901 l -7 4 c -4 4 c -4 7 c 0 15 c 4 8 c 4 4 c 7 3 c 8 0 c 7 -3 c 12 -8 c 38 -38 c 0 53 c 0 -37 4373 2018 l 34 -4 c
-4 4 c -3 11 c 0 11 c 3 12 c 8 7 c 11 4 c 8 0 c 11 -4 c 8 -7 c 4 -12 c 0 -11 c -4 -11 c -4 -4 c -8 -4 c 0 -249 4760 7019 l
0 -38 4717 7136 l 34 -3 c -4 3 c -4 12 c 0 11 c 4 11 c 8 8 c 11 4 c 8 0 c 11 -4 c 7 -8 c 4 -11 c 0 -11 c -4 -12 c -3 -3 c -8 -4 c
-4 0 4736 7170 l -8 4 c -3 4 c -4 7 c 0 16 c 4 7 c 3 4 c 8 4 c 8 0 c 7 -4 c 11 -8 c 38 -37 c 0 52 c 0 41 4717 7250 l 30 -22 c 0 11 c
4 7 c 4 4 c 11 4 c 8 0 c 11 -4 c 7 -7 c 4 -12 c 0 -11 c -4 -11 c -3 -4 c -8 -4 c -4 8 4732 7329 l -11 11 c 79 0 c 3 -4 4789 7401 l
4 4 c -4 4 c -3 -4 c -4 8 4732 7442 l -11 11 c 79 0 c -7 -4 4728 7556 l -4 -11 c 0 -8 c 4 -11 c 11 -8 c 19 -4 c 19 0 c 15 4 c 7 8 c
4 11 c 0 4 c -4 11 c -7 8 c -11 4 c -4 0 c -12 -4 c -7 -8 c -4 -11 c 0 -4 c 4 -11 c 7 -8 c 12 -4 c 4 -11 4717 7605 l 11 -8 c 19 -4 c
11 0 c 19 4 c 11 8 c 4 11 c 0 7 c -4 12 c -11 7 c -19 4 c -11 0 c -19 -4 c -11 -7 c -4 -12 c 0 -7 c 0 -250 5109 1360 l
0 -38 5065 1477 l 34 -4 c -3 4 c -4 12 c 0 11 c 4 11 c 7 8 c 11 4 c 8 0 c 11 -4 c 8 -8 c 4 -11 c 0 -11 c -4 -12 c -4 -4 c -7 -3 c
-4 0 5084 1511 l -7 4 c -4 4 c -4 7 c 0 15 c 4 8 c 4 4 c 7 3 c 8 0 c 8 -3 c 11 -8 c 38 -38 c 0 53 c 0 42 5065 1590 l 31 -23 c 0 12 c
3 7 c 4 4 c 11 4 c 8 0 c 11 -4 c 8 -8 c 4 -11 c 0 -11 c -4 -12 c -4 -3 c -7 -4 c 53 -38 5065 1696 l 0 57 c 80 0 5065 1696 l
4 -4 5137 1742 l 4 4 c -4 3 c -4 -3 c -3 8 5080 1783 l -12 11 c 80 0 c 4 -11 5065 1870 l 11 -8 c 19 -4 c 12 0 c 19 4 c 11 8 c 4 11 c
0 8 c -4 11 c -11 8 c -19 3 c -12 0 c -19 -3 c -11 -8 c -4 -11 c 0 -8 c 80 -38 5065 1976 l 0 53 5065 1923 l 0 -250 5667 2219 l
0 -38 5623 2336 l 34 -4 c -3 4 c -4 12 c 0 11 c 4 11 c 7 8 c 12 4 c 7 0 c 11 -4 c 8 -8 c 4 -11 c 0 -11 c -4 -12 c -4 -4 c -7 -3 c
-3 0 5642 2370 l -8 4 c -4 4 c -4 7 c 0 15 c 4 8 c 4 4 c 8 3 c 7 0 c 8 -3 c 11 -8 c 38 -38 c 0 53 c 0 42 5623 2449 l 31 -23 c 0 12 c
3 7 c 4 4 c 12 4 c 7 0 c 11 -4 c 8 -8 c 4 -11 c 0 -11 c -4 -12 c -4 -3 c -7 -4 c 4 -11 5623 2536 l 8 -4 c 7 0 c 8 4 c 4 8 c 3 15 c
4 11 c 8 8 c 7 3 c 12 0 c 7 -3 c 4 -4 c 4 -12 c 0 -15 c -4 -11 c -4 -4 c -7 -4 c -12 0 c -7 4 c -8 8 c -4 11 c -3 15 c -4 8 c -8 4 c
-7 0 c -8 -4 c -4 -12 c 0 -15 c 4 -4 5695 2601 l 4 4 c -4 3 c -4 -3 c 4 -12 5623 2650 l 8 -3 c 7 0 c 8 3 c 4 8 c 3 15 c 4 11 c 8 8 c
7 4 c 12 0 c 7 -4 c 4 -4 c 4 -11 c 0 -15 c -4 -12 c -4 -3 c -7 -4 c -12 0 c -7 4 c -8 7 c -4 12 c -3 15 c -4 7 c -8 4 c -7 0 c
-8 -4 c -4 -11 c 0 -15 c -4 7 5639 2718 l -12 12 c 80 0 c 53 -38 5623 2820 l 0 57 c 80 0 5623 2820 l 0 -250 5755 2217 l
0 -38 5711 2334 l 34 -3 c -3 3 c -4 12 c 0 11 c 4 11 c 7 8 c 12 4 c 7 0 c 11 -4 c 8 -8 c 4 -11 c 0 -11 c -4 -12 c -4 -3 c -7 -4 c
-3 0 5730 2368 l -8 4 c -4 4 c -4 7 c 0 15 c 4 8 c 4 4 c 8 4 c 7 0 c 8 -4 c 11 -8 c 38 -38 c 0 53 c 0 41 5711 2448 l 31 -23 c 0 12 c
3 7 c 4 4 c 12 4 c 7 0 c 11 -4 c 8 -7 c 4 -12 c 0 -11 c -4 -11 c -4 -4 c -7 -4 c 11 -4 5738 2565 l 8 -8 c 4 -11 c 0 -4 c -4 -11 c
-8 -8 c -11 -3 c -4 0 c -11 3 c -8 8 c -4 11 c 0 4 c 4 11 c 8 8 c 15 4 c 19 0 c 19 -4 c 11 -8 c 4 -11 c 0 -8 c -4 -11 c -8 -4 c
4 -4 5783 2599 l 4 4 c -4 4 c -4 -4 c 0 -37 5711 2674 l 34 -4 c -3 4 c -4 11 c 0 11 c 4 12 c 7 7 c 12 4 c 7 0 c 11 -4 c 8 -7 c
4 -12 c 0 -11 c -4 -11 c -4 -4 c -7 -4 c 0 -38 5711 2750 l 34 -4 c -3 4 c -4 11 c 0 12 c 4 11 c 7 8 c 12 3 c 7 0 c 11 -3 c 8 -8 c
4 -11 c 0 -12 c -4 -11 c -4 -4 c -7 -3 c -3 0 5730 2784 l -8 4 c -4 3 c -4 8 c 0 15 c 4 8 c 4 4 c 8 3 c 7 0 c 8 -3 c 11 -8 c
38 -38 c 0 53 c 0 -250 5832 5323 l 0 -38 5789 5440 l 34 -3 c -4 3 c -4 12 c 0 11 c 4 11 c 7 8 c 12 4 c 7 0 c 12 -4 c 7 -8 c 4 -11 c
0 -11 c -4 -12 c -4 -3 c -7 -4 c -4 0 5808 5474 l -8 4 c -4 4 c -3 7 c 0 15 c 3 8 c 4 4 c 8 3 c 7 0 c 8 -3 c 11 -8 c 38 -38 c 0 53 c
53 -38 5789 5584 l 0 57 c 79 0 5789 5584 l 3 -11 5789 5644 l 12 -8 c 19 -3 c 11 0 c 19 3 c 11 8 c 4 11 c 0 8 c -4 11 c -11 8 c
-19 3 c -11 0 c -19 -3 c -12 -8 c -3 -11 c 0 -8 c 4 -4 5860 5705 l 4 4 c -4 3 c -4 -3 c -4 8 5804 5746 l -11 11 c 79 0 c
11 -4 5815 5860 l 8 -8 c 4 -11 c 0 -4 c -4 -11 c -8 -8 c -11 -3 c -4 0 c -11 3 c -8 8 c -3 11 c 0 4 c 3 11 c 8 8 c 15 4 c 19 0 c
19 -4 c 11 -8 c 4 -11 c 0 -8 c -4 -11 c -7 -4 c 79 -38 5789 5939 l 0 53 5789 5886 l 0 -249 6730 7019 l 0 -38 6686 7136 l 34 -3 c
-3 3 c -4 12 c 0 11 c 4 11 c 7 8 c 12 4 c 7 0 c 12 -4 c 7 -8 c 4 -11 c 0 -11 c -4 -12 c -4 -3 c -7 -4 c -3 0 6705 7170 l -8 4 c
-4 4 c -4 7 c 0 16 c 4 7 c 4 4 c 8 4 c 7 0 c 8 -4 c 11 -8 c 38 -37 c 0 52 c 53 -38 6686 7280 l 0 57 c 80 0 6686 7280 l
80 -38 6686 7371 l 0 53 6686 7318 l 4 -4 6758 7401 l 4 4 c -4 4 c -4 -4 c -8 -4 6698 7480 l -4 -11 c 0 -7 c 4 -12 c 12 -7 c 18 -4 c
19 0 c 16 4 c 7 7 c 4 12 c 0 3 c -4 12 c -7 7 c -12 4 c -4 0 c -11 -4 c -8 -7 c -3 -12 c 0 -3 c 3 -12 c 8 -7 c 11 -4 c
0 -38 6686 7552 l 34 -4 c -3 4 c -4 12 c 0 11 c 4 11 c 7 8 c 12 4 c 7 0 c 12 -4 c 7 -8 c 4 -11 c 0 -11 c -4 -12 c -4 -4 c -7 -3 c
0 -38 6686 7628 l 34 -4 c -3 4 c -4 11 c 0 11 c 4 12 c 7 7 c 12 4 c 7 0 c 12 -4 c 7 -7 c 4 -12 c 0 -11 c -4 -11 c -4 -4 c -7 -4 c
0 -249 7438 1467 l 0 -37 7395 1584 l 34 -4 c -4 4 c -4 11 c 0 11 c 4 12 c 7 7 c 12 4 c 7 0 c 12 -4 c 7 -7 c 4 -12 c 0 -11 c -4 -11 c
-4 -4 c -7 -4 c -3 0 7413 1618 l -8 4 c -4 4 c -3 8 c 0 15 c 3 7 c 4 4 c 8 4 c 7 0 c 8 -4 c 11 -7 c 38 -38 c 0 53 c
0 -38 7395 1736 l 34 -4 c -4 4 c -4 11 c 0 12 c 4 11 c 7 7 c 12 4 c 7 0 c 12 -4 c 7 -7 c 4 -11 c 0 -12 c -4 -11 c -4 -4 c -7 -4 c
0 42 7395 1773 l 30 -23 c 0 12 c 4 7 c 3 4 c 12 4 c 7 0 c 12 -4 c 7 -8 c 4 -11 c 0 -11 c -4 -12 c -4 -3 c -7 -4 c 4 -4 7466 1849 l
4 4 c -4 4 c -4 -4 c 52 -38 7395 1917 l 0 57 c 79 0 7395 1917 l 52 -38 7395 1993 l 0 57 c 79 0 7395 1993 l 52 -38 7395 2068 l 0 57 c
79 0 7395 2068 l 0 -249 8044 6090 l 0 -38 8001 6208 l 34 -4 c -4 4 c -4 11 c 0 11 c 4 12 c 8 7 c 11 4 c 7 0 c 12 -4 c 7 -7 c 4 -12 c
0 -11 c -4 -11 c -3 -4 c -8 -4 c -4 0 8020 6242 l -8 3 c -3 4 c -4 8 c 0 15 c 4 7 c 3 4 c 8 4 c 7 0 c 8 -4 c 11 -7 c 38 -38 c 0 53 c
0 -38 8001 6359 l 34 -4 c -4 4 c -4 11 c 0 12 c 4 11 c 8 7 c 11 4 c 7 0 c 12 -4 c 7 -7 c 4 -11 c 0 -12 c -4 -11 c -3 -4 c -8 -4 c
4 -12 8001 6408 l 7 -3 c 8 0 c 7 3 c 4 8 c 4 15 c 4 12 c 7 7 c 8 4 c 11 0 c 8 -4 c 3 -4 c 4 -11 c 0 -15 c -4 -12 c -3 -3 c -8 -4 c
-11 0 c -8 4 c -7 7 c -4 12 c -4 15 c -4 7 c -7 4 c -8 0 c -7 -4 c -4 -11 c 0 -15 c 3 -4 8073 6472 l 4 4 c -4 4 c -3 -4 c
0 41 8001 6510 l 30 -22 c 0 11 c 4 8 c 4 3 c 11 4 c 7 0 c 12 -4 c 7 -7 c 4 -11 c 0 -12 c -4 -11 c -3 -4 c -8 -4 c -7 -4 8012 6627 l
-4 -11 c 0 -8 c 4 -11 c 11 -8 c 19 -3 c 19 0 c 15 3 c 7 8 c 4 11 c 0 4 c -4 11 c -7 8 c -12 4 c -3 0 c -12 -4 c -7 -8 c -4 -11 c
0 -4 c 4 -11 c 7 -8 c 12 -3 c 4 -11 8001 6676 l 11 -8 c 19 -3 c 11 0 c 19 3 c 11 8 c 4 11 c 0 8 c -4 11 c -11 8 c -19 3 c -11 0 c
-19 -3 c -11 -8 c -4 -11 c 0 -8 c 0 -250 8261 1841 l 0 -38 8218 1958 l 34 -4 c -4 4 c -4 11 c 0 12 c 4 11 c 7 8 c 12 3 c 7 0 c
12 -3 c 7 -8 c 4 -11 c 0 -12 c -4 -11 c -4 -4 c -7 -4 c -4 0 8237 1992 l -8 4 c -4 3 c -3 8 c 0 15 c 3 8 c 4 3 c 8 4 c 7 0 c 8 -4 c
11 -7 c 38 -38 c 0 53 c -8 -4 8229 2113 l -3 -11 c 0 -8 c 3 -11 c 12 -8 c 19 -4 c 19 0 c 15 4 c 7 8 c 4 11 c 0 4 c -4 11 c -7 8 c
-12 3 c -3 0 c -12 -3 c -7 -8 c -4 -11 c 0 -4 c 4 -11 c 7 -8 c 12 -4 c 3 -11 8218 2162 l 12 -8 c 19 -4 c 11 0 c 19 4 c 11 8 c 4 11 c
0 7 c -4 12 c -11 7 c -19 4 c -11 0 c -19 -4 c -12 -7 c -3 -12 c 0 -7 c 4 -3 8289 2222 l 4 3 c -4 4 c -4 -4 c -4 7 8233 2264 l
-11 12 c 79 0 c 3 -12 8218 2351 l 12 -7 c 19 -4 c 11 0 c 19 4 c 11 7 c 4 12 c 0 7 c -4 12 c -11 7 c -19 4 c -11 0 c -19 -4 c
-12 -7 c -3 -12 c 0 -7 c 53 -38 8218 2442 l 0 56 c 79 0 8218 2442 l 0 -249 8432 1425 l 0 -37 8388 1542 l 34 -4 c -3 4 c -4 11 c
0 11 c 4 12 c 7 7 c 12 4 c 7 0 c 11 -4 c 8 -7 c 4 -12 c 0 -11 c -4 -11 c -4 -4 c -7 -4 c -3 0 8407 1576 l -8 4 c -4 4 c -4 7 c
0 16 c 4 7 c 4 4 c 8 4 c 7 0 c 8 -4 c 11 -8 c 38 -37 c 0 52 c -8 -3 8400 1697 l -4 -12 c 0 -7 c 4 -12 c 12 -7 c 18 -4 c 19 0 c
15 4 c 8 7 c 4 12 c 0 3 c -4 12 c -8 7 c -11 4 c -4 0 c -11 -4 c -8 -7 c -3 -12 c 0 -3 c 3 -12 c 8 -7 c 11 -4 c -4 8 8404 1735 l
-12 11 c 80 0 c 4 -4 8460 1807 l 4 4 c -4 4 c -4 -4 c 53 -38 8388 1875 l 0 57 c 80 0 8388 1875 l 80 -38 8388 1966 l 0 53 8388 1913 l
-3 0 8407 1992 l -8 4 c -4 4 c -4 7 c 0 15 c 4 8 c 4 4 c 8 3 c 7 0 c 8 -3 c 11 -8 c 38 -38 c 0 53 c 0 -249 8944 1278 l
0 -38 8900 1395 l 34 -3 c -3 3 c -4 12 c 0 11 c 4 12 c 7 7 c 11 4 c 8 0 c 11 -4 c 8 -7 c 4 -12 c 0 -11 c -4 -12 c -4 -3 c -7 -4 c
-4 0 8919 1429 l -7 4 c -4 4 c -4 7 c 0 16 c 4 7 c 4 4 c 7 4 c 8 0 c 8 -4 c 11 -8 c 38 -37 c 0 52 c -8 -4 8912 1550 l -4 -11 c
0 -7 c 4 -12 c 11 -7 c 19 -4 c 19 0 c 15 4 c 8 7 c 4 12 c 0 3 c -4 12 c -8 7 c -11 4 c -4 0 c -11 -4 c -8 -7 c -3 -12 c 0 -3 c
3 -12 c 8 -7 c 11 -4 c 0 -38 8900 1622 l 34 -4 c -3 4 c -4 12 c 0 11 c 4 11 c 7 8 c 11 4 c 8 0 c 11 -4 c 8 -8 c 4 -11 c 0 -11 c
-4 -12 c -4 -4 c -7 -3 c 4 -4 8972 1660 l 4 4 c -4 4 c -4 -4 c 0 -37 8900 1735 l 34 -4 c -3 4 c -4 11 c 0 11 c 4 12 c 7 7 c 11 4 c
8 0 c 11 -4 c 8 -7 c 4 -12 c 0 -11 c -4 -11 c -4 -4 c -7 -4 c 0 -38 8900 1811 l 34 -4 c -3 4 c -4 12 c 0 11 c 4 11 c 7 8 c 11 4 c
8 0 c 11 -4 c 8 -8 c 4 -11 c 0 -11 c -4 -12 c -4 -4 c -7 -3 c -3 7 8915 1853 l -12 12 c 80 0 c 0 -249 9091 3368 l 0 -37 9047 3485 l
34 -4 c -4 4 c -4 11 c 0 11 c 4 12 c 8 7 c 11 4 c 8 0 c 11 -4 c 8 -7 c 3 -12 c 0 -11 c -3 -11 c -4 -4 c -8 -4 c -4 0 9066 3519 l
-7 4 c -4 4 c -4 8 c 0 15 c 4 7 c 4 4 c 7 4 c 8 0 c 7 -4 c 12 -8 c 37 -37 c 0 53 c -7 -3 9058 3640 l -4 -12 c 0 -7 c 4 -12 c 11 -7 c
19 -4 c 19 0 c 15 4 c 8 7 c 3 12 c 0 3 c -3 12 c -8 7 c -11 4 c -4 0 c -11 -4 c -8 -7 c -4 -12 c 0 -3 c 4 -12 c 8 -7 c 11 -4 c
-7 -4 9058 3716 l -4 -11 c 0 -8 c 4 -11 c 11 -8 c 19 -3 c 19 0 c 15 3 c 8 8 c 3 11 c 0 4 c -3 11 c -8 8 c -11 4 c -4 0 c -11 -4 c
-8 -8 c -4 -11 c 0 -4 c 4 -11 c 8 -8 c 11 -3 c 4 -4 9119 3750 l 3 4 c -3 4 c -4 -4 c 79 -38 9047 3833 l 0 53 9047 3780 l
-4 8 9062 3867 l -11 11 c 79 0 c 4 -11 9047 3954 l 11 -8 c 19 -4 c 11 0 c 19 4 c 12 8 c 3 11 c 0 8 c -3 11 c -12 7 c -19 4 c -11 0 c
-19 -4 c -11 -7 c -4 -11 c 0 -8 c 0 -250 9478 1306 l 0 -38 9435 1423 l 34 -4 c -4 4 c -4 12 c 0 11 c 4 11 c 8 8 c 11 4 c 7 0 c
12 -4 c 7 -8 c 4 -11 c 0 -11 c -4 -12 c -3 -4 c -8 -3 c -4 0 9454 1457 l -8 4 c -3 4 c -4 7 c 0 15 c 4 8 c 3 4 c 8 3 c 7 0 c 8 -3 c
11 -8 c 38 -38 c 0 53 c -7 -4 9446 1578 l -4 -11 c 0 -8 c 4 -11 c 11 -8 c 19 -3 c 19 0 c 15 3 c 7 8 c 4 11 c 0 4 c -4 11 c -7 8 c
-12 4 c -3 0 c -12 -4 c -7 -8 c -4 -11 c 0 -4 c 4 -11 c 7 -8 c 12 -3 c 12 -4 9461 1654 l 7 -8 c 4 -11 c 0 -4 c -4 -11 c -7 -8 c
-12 -4 c -4 0 c -11 4 c -7 8 c -4 11 c 0 4 c 4 11 c 7 8 c 15 4 c 19 0 c 19 -4 c 11 -8 c 4 -11 c 0 -8 c -4 -11 c -7 -4 c
3 -4 9507 1688 l 4 4 c -4 3 c -3 -3 c 79 -38 9435 1771 l 0 53 9435 1718 l 12 -4 9461 1843 l 7 -8 c 4 -11 c 0 -4 c -4 -11 c -7 -8 c
-12 -4 c -4 0 c -11 4 c -7 8 c -4 11 c 0 4 c 4 11 c 7 8 c 15 4 c 19 0 c 19 -4 c 11 -8 c 4 -11 c 0 -8 c -4 -11 c -7 -4 c
0 41 9435 1877 l 30 -23 c 0 12 c 4 7 c 4 4 c 11 4 c 7 0 c 12 -4 c 7 -7 c 4 -12 c 0 -11 c -4 -11 c -3 -4 c -8 -4 c 0 -250 9537 1308 l
0 -38 9494 1425 l 34 -4 c -4 4 c -4 11 c 0 12 c 4 11 c 7 8 c 12 3 c 7 0 c 12 -3 c 7 -8 c 4 -11 c 0 -12 c -4 -11 c -4 -4 c -7 -3 c
-3 0 9512 1459 l -8 4 c -4 4 c -3 7 c 0 15 c 3 8 c 4 4 c 8 3 c 7 0 c 8 -3 c 11 -8 c 38 -38 c 0 53 c 79 -38 9494 1584 l
0 53 9494 1531 l 3 -11 9494 1629 l 12 -8 c 19 -4 c 11 0 c 19 4 c 11 8 c 4 11 c 0 8 c -4 11 c -11 7 c -19 4 c -11 0 c -19 -4 c
-12 -7 c -3 -11 c 0 -8 c 4 -3 9565 1689 l 4 3 c -4 4 c -4 -4 c -3 0 9512 1724 l -8 3 c -4 4 c -3 8 c 0 15 c 3 7 c 4 4 c 8 4 c 7 0 c
8 -4 c 11 -7 c 38 -38 c 0 53 c -8 -3 9505 1844 l -3 -12 c 0 -7 c 3 -12 c 12 -7 c 19 -4 c 18 0 c 16 4 c 7 7 c 4 12 c 0 4 c -4 11 c
-7 7 c -12 4 c -4 0 c -11 -4 c -7 -7 c -4 -11 c 0 -4 c 4 -12 c 7 -7 c 11 -4 c -8 -4 9505 1920 l -3 -11 c 0 -8 c 3 -11 c 12 -8 c
19 -3 c 18 0 c 16 3 c 7 8 c 4 11 c 0 4 c -4 11 c -7 8 c -12 4 c -4 0 c -11 -4 c -7 -8 c -4 -11 c 0 -4 c 4 -11 c 7 -8 c 11 -3 c
showpage PGPLOT restore
 
%%Trailer
%%DocumentFonts: 
%%Pages: 1
%%EOF
