%!PS-Adobe-3.0 EPSF-3.0
%%For: tom
%%Title: PGPLOT PostScript plot
%%Creator: PGPLOT
%%CreationDate:  9-Nov-1994 13:57
%%BoundingBox: 25 18 587 774
%%DocumentFonts: (atend)
%%LanguageLevel: 1
%%Orientation: Landscape
%%Pages: (atend)
%%EndComments
%%BeginProlog
/l {moveto rlineto currentpoint stroke moveto} bind def
/c {rlineto currentpoint stroke moveto} bind def
/d {moveto 0 0 rlineto currentpoint stroke moveto} bind def
/SLW {5 mul setlinewidth} bind def
/SCF /pop load def
/BP {newpath moveto} bind def
/LP /rlineto load def
/EP {rlineto closepath eofill} bind def
/MB {gsave translate MFAC dup scale 1 setlinewidth 2 setlinecap 0 setlinejoin newpath} bind def
/ME /grestore load def
/C {0 360 arc stroke} bind def
/FC {0 360 arc fill} bind def
%%EndProlog
 
%%Page: 1 1
%%BeginPageSetup
/PGPLOT save def
0.072 0.072 scale
8150 250 translate 90 rotate
1 setlinejoin 1 setlinecap 1 SLW 1 SCF
%%EndPageSetup
0.00 setgray 1 SLW 8939 0 780 780 l 0 6239 c -8939 0 c 0 -6239 c 0 -45 1116 780 l 0 -45 1554 780 l 0 -45 1991 780 l 0 -45 2428 780 l
0 -90 2865 780 l 0 -45 3302 780 l 0 -45 3739 780 l 0 -45 4176 780 l 0 -45 4613 780 l 0 -90 5051 780 l 0 -45 5488 780 l
0 -45 5925 780 l 0 -45 6362 780 l 0 -45 6799 780 l 0 -90 7236 780 l 0 -45 7673 780 l 0 -45 8110 780 l 0 -45 8548 780 l
0 -45 8985 780 l 0 -90 9422 780 l 0 -45 1116 7064 l 0 -45 1554 7064 l 0 -45 1991 7064 l 0 -45 2428 7064 l 0 -90 2865 7109 l
0 -45 3302 7064 l 0 -45 3739 7064 l 0 -45 4176 7064 l 0 -45 4613 7064 l 0 -90 5051 7109 l 0 -45 5488 7064 l 0 -45 5925 7064 l
0 -45 6362 7064 l 0 -45 6799 7064 l 0 -90 7236 7109 l 0 -45 7673 7064 l 0 -45 8110 7064 l 0 -45 8548 7064 l 0 -45 8985 7064 l
0 -90 9422 7109 l -60 0 2775 672 l -6 -54 c 6 6 c 18 6 c 18 0 c 18 -6 c 12 -12 c 6 -18 c 0 -12 c -6 -18 c -12 -12 c -18 -6 c -18 0 c
-18 6 c -6 6 c -6 12 c -18 -6 2859 672 l -12 -18 c -6 -30 c 0 -18 c 6 -30 c 12 -18 c 18 -6 c 12 0 c 18 6 c 12 18 c 6 30 c 0 18 c
-6 30 c -12 18 c -18 6 c -12 0 c -18 -6 2979 672 l -12 -18 c -6 -30 c 0 -18 c 6 -30 c 12 -18 c 18 -6 c 12 0 c 18 6 c 12 18 c 6 30 c
0 18 c -6 30 c -12 18 c -18 6 c -12 0 c 12 6 4847 648 l 18 18 c 0 -126 c -18 -6 4985 672 l -12 -18 c -6 -30 c 0 -18 c 6 -30 c
12 -18 c 18 -6 c 12 0 c 18 6 c 12 18 c 6 30 c 0 18 c -6 30 c -12 18 c -18 6 c -12 0 c -18 -6 5105 672 l -12 -18 c -6 -30 c 0 -18 c
6 -30 c 12 -18 c 18 -6 c 12 0 c 18 6 c 12 18 c 6 30 c 0 18 c -6 30 c -12 18 c -18 6 c -12 0 c -18 -6 5225 672 l -12 -18 c -6 -30 c
0 -18 c 6 -30 c 12 -18 c 18 -6 c 12 0 c 18 6 c 12 18 c 6 30 c 0 18 c -6 30 c -12 18 c -18 6 c -12 0 c 12 6 7032 648 l 18 18 c
0 -126 c -60 0 7206 672 l -6 -54 c 6 6 c 18 6 c 18 0 c 18 -6 c 12 -12 c 6 -18 c 0 -12 c -6 -18 c -12 -12 c -18 -6 c -18 0 c -18 6 c
-6 6 c -6 12 c -18 -6 7290 672 l -12 -18 c -6 -30 c 0 -18 c 6 -30 c 12 -18 c 18 -6 c 12 0 c 18 6 c 12 18 c 6 30 c 0 18 c -6 30 c
-12 18 c -18 6 c -12 0 c -18 -6 7410 672 l -12 -18 c -6 -30 c 0 -18 c 6 -30 c 12 -18 c 18 -6 c 12 0 c 18 6 c 12 18 c 6 30 c 0 18 c
-6 30 c -12 18 c -18 6 c -12 0 c 0 6 9206 642 l 6 12 c 6 6 c 12 6 c 24 0 c 12 -6 c 6 -6 c 6 -12 c 0 -12 c -6 -12 c -12 -18 c
-60 -60 c 84 0 c -18 -6 9356 672 l -12 -18 c -6 -30 c 0 -18 c 6 -30 c 12 -18 c 18 -6 c 12 0 c 18 6 c 12 18 c 6 30 c 0 18 c -6 30 c
-12 18 c -18 6 c -12 0 c -18 -6 9476 672 l -12 -18 c -6 -30 c 0 -18 c 6 -30 c 12 -18 c 18 -6 c 12 0 c 18 6 c 12 18 c 6 30 c 0 18 c
-6 30 c -12 18 c -18 6 c -12 0 c -18 -6 9596 672 l -12 -18 c -6 -30 c 0 -18 c 6 -30 c 12 -18 c 18 -6 c 12 0 c 18 6 c 12 18 c 6 30 c
0 18 c -6 30 c -12 18 c -18 6 c -12 0 c -90 0 780 780 l -45 0 780 1715 l -90 0 780 2650 l -45 0 780 3585 l -90 0 780 4520 l
-45 0 780 5455 l -90 0 780 6390 l -90 0 9809 780 l -45 0 9764 1715 l -90 0 9809 2650 l -45 0 9764 3585 l -90 0 9809 4520 l
-45 0 9764 5455 l -90 0 9809 6390 l 6 -18 517 774 l 18 -12 c 30 -6 c 18 0 c 30 6 c 18 12 c 6 18 c 0 12 c -6 18 c -18 12 c -30 6 c
-18 0 c -30 -6 c -18 -12 c -6 -18 c 0 -12 c -6 0 547 2392 l -12 6 c -6 6 c -6 12 c 0 24 c 6 12 c 6 6 c 12 6 c 12 0 c 12 -6 c
18 -12 c 60 -60 c 0 84 c 84 84 547 2512 l 84 -84 547 2596 l -6 12 541 2656 l -18 18 c 126 0 c 6 -18 517 2794 l 18 -12 c 30 -6 c
18 0 c 30 6 c 18 12 c 6 18 c 0 12 c -6 18 c -18 12 c -30 6 c -18 0 c -30 -6 c -18 -12 c -6 -18 c 0 -12 c 63 -45 453 2918 l 0 68 c
94 0 453 2918 l 84 -60 517 4316 l 0 90 c 126 0 517 4316 l 84 84 547 4382 l 84 -84 547 4466 l -6 12 541 4526 l -18 18 c 126 0 c
6 -18 517 4664 l 18 -12 c 30 -6 c 18 0 c 30 6 c 18 12 c 6 18 c 0 12 c -6 18 c -18 12 c -30 6 c -18 0 c -30 -6 c -18 -12 c -6 -18 c
0 -12 c 63 -45 453 4788 l 0 68 c 94 0 453 4788 l -12 -6 535 6204 l -6 -18 c 0 -12 c 6 -18 c 18 -12 c 30 -6 c 30 0 c 24 6 c 12 12 c
6 18 c 0 6 c -6 18 c -12 12 c -18 6 c -6 0 c -18 -6 c -12 -12 c -6 -18 c 0 -6 c 6 -18 c 12 -12 c 18 -6 c 84 84 547 6252 l
84 -84 547 6336 l -6 12 541 6396 l -18 18 c 126 0 c 6 -18 517 6534 l 18 -12 c 30 -6 c 18 0 c 30 6 c 18 12 c 6 18 c 0 12 c -6 18 c
-18 12 c -30 6 c -18 0 c -30 -6 c -18 -12 c -6 -18 c 0 -12 c 63 -45 453 6658 l 0 67 c 94 0 453 6658 l
4 -1 780 795 l 5 1 c 4 0 c 4 0 c 5 -1 c 4 0 c 4 5 c 5 14 c 4 9 c 5 -1 c 4 -9 c 4 -16 c 5 -3 c 4 1 c 4 -1 c 5 1 c 4 -2 c 5 -1 c 4 0 c
4 -1 c 5 1 c 4 0 c 4 0 c 5 1 c 4 1 c 5 3 c 4 10 c 4 35 c 5 160 c 4 293 c 4 90 c 5 -60 c 4 -248 c 5 -226 c 4 -55 c 4 -3 c 5 -1 c
4 0 c 4 0 c 5 -1 c 4 0 c 4 0 c 5 1 c 4 0 c 5 0 c 4 2 c 4 8 c 5 25 c 4 12 c 4 0 c 5 -13 c 4 -22 c 5 -8 c 4 -2 c 4 -1 c 5 -1 c 4 -1 c
4 0 c 5 0 c 4 0 c 5 1 c 4 0 c 4 0 c 5 -1 c 4 1 c 4 1 c 5 1 c 4 0 c 5 0 c 4 -1 c 4 -1 c 5 0 c 4 0 c 4 0 c 5 0 c 4 -1 c 4 0 c 5 0 c
4 0 c 5 0 c 4 0 c 4 0 c 5 1 c 4 -11 c 5 24 1151 780 l 4 2 c 5 -1 c 4 -3 c 4 6 c 5 10 c 4 30 c 4 101 c 5 93 c 4 16 c 5 -52 c 4 -127 c
4 -70 c 5 -13 c 4 -3 c 4 -1 c 5 0 c 4 1 c 5 0 c 4 1 c 4 5 c 5 17 c 4 67 c 4 47 c 5 2 c 4 -28 c 4 -75 c 5 -32 c 4 -3 c 5 0 c 4 3 c
4 3 c 5 4 c 4 7 c 4 0 c 5 -4 c 4 -2 c 5 1 c 4 6 c 4 2 c 5 -3 c 4 -11 c 4 -6 c 5 -3 c 4 -1 c 5 0 c 4 1 c 4 1 c 5 -1 c 4 0 c 4 0 c
5 0 c 4 0 c 5 0 c 4 0 c 4 0 c 5 0 c 4 0 c 4 0 c 5 0 c 4 1 c 4 4 c 5 19 c 4 33 c 5 14 c 4 -5 c 4 -24 c 5 -30 c 4 -7 c 4 -2 c 5 -1 c
4 -1 c 5 0 c 4 0 c 4 1 c 5 0 c 4 1 c 4 1 c 5 1 c 4 1 c 5 2 c 4 12 c 4 61 c 5 292 c 4 1054 c 4 529 c 5 12 c 4 -441 c 4 -1014 c
5 -304 c 4 -81 c 5 -82 c 4 -32 c 4 -6 c 5 -2 c 4 5 c 4 8 c 5 14 c 4 35 c 5 15 c 4 -4 c 4 -17 c 5 -36 c 4 -10 c 4 2 c 5 -1 c 4 -2 c
5 -5 c 4 -6 c 4 -3 c 5 -1 c 4 0 c 4 0 c 5 0 c 4 1 c 5 0 c 4 2 c 4 1 c 5 1 c 4 -1 c 4 0 c 5 -2 c 4 0 c 4 -1 c 5 0 c 4 1 c 5 1 c 4 0 c
4 0 c 5 -1 c 4 -1 c 4 -1 c 5 0 c 4 -1 c 5 1 c 4 1 c 4 1 c 5 10 c 4 16 c 4 5 c 5 -3 c 4 -15 c 5 -13 c 4 -2 c 4 0 c 5 0 c 4 -1 c 4 1 c
5 0 c 4 1 c 5 0 c 4 0 c 4 0 c 5 0 c 4 2 c 4 21 c 5 29 c 4 7 c 4 -7 c 5 -30 c 4 -17 c 5 -4 c 4 1 c 4 2 c 5 2 c 4 0 c 4 -2 c 5 -3 c
4 -2 c 5 1 c 4 0 c 4 0 c 5 0 c 4 1 c 4 7 c 5 21 c 4 9 c 5 3 c 4 -8 c 4 -16 c 5 -2 c 4 15 c 4 103 c 5 651 c 4 818 c 5 118 c 4 -173 c
4 -878 c 5 -536 c 4 -73 c 4 -13 c 5 -25 c 4 -17 c 4 -1 c 5 2 c 4 -1 c 5 -1 c 4 -1 c 4 -2 c 5 -1 c 4 -1 c 4 0 c 5 0 c 4 0 c 5 0 c
4 0 c 4 0 c 5 1 c 4 1 c 4 -1 c 5 2 c 4 8 c 5 4 c 4 1 c 4 -3 c 5 -10 c 4 -2 c 4 -1 c 5 1 c 4 2 c 5 2 c 4 2 c 4 1 c 5 0 c 4 -2 c
4 -2 c 5 1 c 4 1 c 4 0 c 5 0 c 4 0 c 5 -1 c 4 -1 c 4 -1 c 5 0 c 4 0 c 4 1 c 5 3 c 4 6 c 5 18 c 4 133 c 4 461 c 5 228 c 4 -11 c
4 -232 c 5 -444 c 4 -127 c 5 -6 c 4 -2 c 4 -7 c 5 -2 c 4 67 c 4 70 c 5 12 c 4 -18 c 4 -91 c 5 -55 c 4 -4 c 5 0 c 4 -1 c 4 0 c 5 -1 c
4 0 c 4 0 c 5 0 c 4 1 c 5 2 c 4 4 c 4 1 c 5 -1 c 4 -2 c 4 -1 c 5 1 c 4 1 c 5 -2 c 4 -2 c 4 -1 c 5 0 c 4 1 c 4 1 c 5 0 c 4 2 c 5 0 c
4 0 c 4 -2 c 5 -1 c 4 0 c 4 0 c 5 2 c 4 2 c 4 2 c 5 2 c 4 6 c 5 32 c 4 209 c 4 623 c 5 341 c 4 6 c 4 -337 c 5 -631 c 4 -205 c
5 -35 c 4 -7 c 4 0 c 5 2 c 4 1 c 4 2 c 5 13 c 4 138 c 5 513 c 4 281 c 4 7 c 5 -205 c 4 -559 c 4 -177 c 5 -19 c 4 -3 c 5 0 c 4 1 c
4 -1 c 5 -2 c 4 0 c 4 -2 c 5 1 c 4 0 c 4 1 c 5 0 c 4 -2 c 5 -1 c 4 -1 c 4 0 c 5 1 c 4 0 c 4 1 c 5 1 c 4 0 c 5 1 c 4 -1 c 4 0 c 5 0 c
4 -1 c 4 0 c 5 2 c 4 7 c 5 12 c 4 17 c 4 4 c 5 -6 c 4 -14 c 4 -15 c 5 -5 c 4 -1 c 5 -1 c 4 0 c 4 1 c 5 0 c 4 0 c 4 1 c 5 0 c 4 7 c
4 28 c 5 82 c 4 57 c 5 11 c 4 -38 c 4 -88 c 5 -46 c 4 -11 c 4 -2 c 5 -2 c 4 0 c 5 0 c 4 1 c 4 4 c 5 2 c 4 0 c 4 0 c 5 -4 c 4 -2 c
5 -1 c 4 -1 c 4 3 c 5 12 c 4 10 c 4 0 c 5 -5 c 4 -13 c 4 -7 c 5 -1 c 4 0 c 5 0 c 4 1 c 4 1 c 5 3 c 4 7 c 4 0 c 5 -1 c 4 -5 c 5 -6 c
4 0 c 4 0 c 5 0 c 4 0 c 4 2 c 5 1 c 4 1 c 5 0 c 4 -2 c 4 -2 c 5 2 c 4 5 c 4 3 c 5 7 c 4 11 c 5 4 c 4 -2 c 4 -10 c 5 -13 c 4 -5 c
4 0 c 5 0 c 4 0 c 4 -1 c 5 0 c 4 -1 c 5 0 c 4 1 c 4 -1 c 5 2 c 4 0 c 4 1 c 5 0 c 4 0 c 5 1 c 4 2 c 4 23 c 5 55 c 4 23 c 4 59 c
5 160 c 4 64 c 5 -1 c 4 -84 c 4 -199 c 5 -88 c 4 -9 c 4 -2 c 5 4 c 4 31 c 5 46 c 4 15 c 4 -7 c 5 -41 c 4 -40 c 4 -8 c 5 0 c 4 9 c
4 3 c 5 0 c 4 -3 c 5 -5 c 4 -1 c 4 0 c 5 1 c 4 3 c 4 1 c 5 -1 c 4 -5 c 5 -6 c 4 -2 c 4 1 c 5 0 c 4 0 c 4 0 c 5 1 c 4 3 c 5 7 c
4 88 c 4 274 c 5 113 c 4 -5 c 4 -140 c 5 -261 c 4 -72 c 5 -2 c 4 1 c 4 -1 c 5 -3 c 4 -3 c 4 0 c 5 -1 c 4 0 c 4 0 c 5 0 c 4 4 c
5 16 c 4 14 c 4 2 c 5 -6 c 4 -19 c 4 -10 c 5 -2 c 4 0 c 5 0 c 4 0 c 4 1 c 5 0 c 4 1 c 4 1 c 5 0 c 4 0 c 5 -2 c 4 1 c 4 1 c 5 0 c
4 0 c 4 0 c 5 -2 c 4 0 c 5 -1 c 4 1 c 4 0 c 5 6 c 4 6 c 4 1 c 5 -2 c 4 -5 c 4 -5 c 5 -1 c 4 1 c 5 1 c 4 0 c 4 11 c 5 41 c 4 25 c
4 -2 c 5 -12 c 4 -49 c 5 -12 c 4 0 c 4 1 c 5 0 c 4 0 c 4 -2 c 5 -1 c 4 4 c 5 18 c 4 199 c 4 413 c 5 119 c 4 -33 c 4 -282 c 5 -346 c
4 -71 c 4 -4 c 5 -7 c 4 -8 c 5 -2 c 4 0 c 4 -1 c 5 0 c 4 0 c 4 5 c 5 14 c 4 6 c 5 1 c 4 -6 c 4 -12 c 5 6 c 4 129 c 4 361 c 5 148 c
4 -7 c 5 -198 c 4 -344 c 4 -92 c 5 -2 c 4 -2 c 4 -2 c 5 -2 c 4 -2 c 5 -1 c 4 0 c 4 0 c 5 0 c 4 0 c 4 1 c 5 5 c 4 12 c 4 2 c 5 -1 c
4 -7 c 5 -9 c 4 -3 c 4 0 c 5 0 c 4 0 c 4 -1 c 5 2 c 4 7 c 5 5 c 4 0 c 4 -2 c 5 -7 c 4 -3 c 4 0 c 5 1 c 4 2 c 5 10 c 4 107 c 4 555 c
5 410 c 4 28 c 4 -139 c 5 -657 c 4 -279 c 5 -31 c 4 -5 c 4 -1 c 5 -1 c 4 0 c 4 0 c 5 1 c 4 0 c 4 2 c 5 3 c 4 1 c 5 0 c 4 -2 c 4 -4 c
5 0 c 4 2 c 4 1 c 5 1 c 4 -2 c 5 -2 c 4 -1 c 4 0 c 5 1 c 4 3 c 4 1 c 5 -2 c 4 0 c 5 -4 c 4 -1 c 4 0 c 5 0 c 4 0 c 4 0 c 5 0 c 4 1 c
5 -1 c 4 0 c 4 0 c 5 0 c 4 0 c 4 1 c 5 0 c 4 1 c 4 0 c 5 0 c 4 4 c 5 17 c 4 34 c 4 7 c 5 -4 c 4 -18 c 4 -18 c 5 -1 c 4 -1 c 5 -7 c
4 -7 c 4 -4 c 5 -1 c 4 -1 c 4 0 c 5 2 c 4 1 c 5 1 c 4 -1 c 4 -2 c 5 -1 c 4 1 c 4 1 c 5 10 c 4 57 c 5 66 c 4 14 c 4 -8 c 5 -70 c
4 -57 c 4 -10 c 5 -1 c 4 -2 c 4 -1 c 5 0 c 4 -1 c 5 1 c 4 0 c 4 -1 c 5 -1 c 4 0 c 4 0 c 5 -1 c 4 1 c 5 0 c 4 0 c 4 0 c 5 0 c 4 0 c
4 0 c 5 0 c 4 1 c 5 0 c 4 0 c 4 -1 c 5 0 c 4 0 c 4 0 c 5 0 c 4 0 c 4 0 c 5 0 c 4 1 c 5 1 c 4 7 c 4 11 c 5 3 c 4 -1 c 4 -9 c 5 -11 c
4 0 c 5 0 c 4 4 c 4 13 c 5 28 c 4 13 c 4 1 c 5 -16 c 4 -28 c 5 -9 c 4 -5 c 4 -2 c 5 -1 c 4 0 c 4 0 c 5 1 c 4 0 c 5 1 c 4 5 c 4 7 c
5 4 c 4 0 c 4 -5 c 5 -8 c 4 -3 c 4 -2 c 5 0 c 4 0 c 5 1 c 4 1 c 4 6 c 5 11 c 4 3 c 4 1 c 5 -6 c 4 -5 c 5 0 c 4 -1 c 4 -2 c 5 -4 c
4 -3 c 4 0 c 5 -1 c 4 2 c 5 5 c 4 43 c 4 235 c 5 199 c 4 20 c 4 -62 c 5 -267 c 4 -145 c 5 -12 c 4 -3 c 4 -4 c 5 -9 c 4 -3 c 4 1 c
5 -1 c 4 0 c 4 0 c 5 2 c 4 14 c 5 15 c 4 2 c 4 -2 c 5 -18 c 4 -12 c 4 -1 c 5 -1 c 4 1 c 5 1 c 4 2 c 4 2 c 5 0 c 4 -1 c 4 -3 c 5 -2 c
4 0 c 5 1 c 4 2 c 4 1 c 5 0 c 4 -2 c 4 -1 c 5 -1 c 4 1 c 5 -1 c 4 0 c 4 0 c 5 1 c 4 1 c 4 5 c 5 1 c 4 2 c 4 1 c 5 -2 c 4 0 c 5 -1 c
4 -3 c 4 -3 c 5 0 c 4 -1 c 4 0 c 5 0 c 4 0 c 5 0 c 4 0 c 4 1 c 5 0 c 4 1 c 4 2 c 5 2 c 4 30 c 5 175 c 4 234 c 4 137 c 5 -16 c
4 -212 c 4 -218 c 5 -109 c 4 -17 c 5 -4 c 4 -1 c 4 0 c 5 1 c 4 1 c 4 -1 c 5 -2 c 4 -1 c 4 -1 c 5 1 c 4 1 c 5 1 c 4 0 c 4 -1 c 5 0 c
4 -2 c 4 0 c 5 0 c 4 0 c 5 0 c 4 2 c 4 0 c 5 1 c 4 1 c 4 2 c 5 8 c 4 59 c 5 71 c 4 62 c 4 593 c 5 1496 c 4 558 c 4 -14 c 5 -762 c
4 -1593 c 4 -440 c 5 -31 c 4 -3 c 5 -2 c 4 -2 c 4 -2 c 5 0 c 4 -1 c 4 -1 c 5 -1 c 4 -1 c 5 0 c 4 1 c 4 1 c 5 -1 c 4 0 c 4 -1 c
5 -1 c 4 1 c 5 0 c 4 0 c 4 0 c 5 -2 c 4 1 c 4 0 c 5 0 c 4 0 c 5 1 c 4 0 c 4 0 c 5 0 c 4 -1 c 4 -1 c 5 0 c 4 0 c 4 1 c 5 2 c 4 5 c
5 1 c 4 0 c 4 -2 c 5 -6 c 4 -1 c 4 0 c 5 0 c 4 0 c 5 -1 c 4 1 c 4 1 c 5 2 c 4 4 c 4 26 c 5 34 c 4 4 c 5 -6 c 4 -32 c 4 -30 c 5 -4 c
4 1 c 4 0 c 5 1 c 4 0 c 5 0 c 4 1 c 4 9 c 5 10 c 4 2 c 4 -2 c 5 -11 c 4 -9 c 4 -2 c 5 0 c 4 1 c 5 1 c 4 0 c 4 1 c 5 -2 c 4 0 c
4 -1 c 5 1 c 4 2 c 5 0 c 4 0 c 4 -1 c 5 -1 c 4 -1 c 4 0 c 5 0 c 4 0 c 5 1 c 4 0 c 4 1 c 5 -1 c 4 0 c 4 2 c 5 7 c 4 9 c 5 2 c 4 -3 c
4 -8 c 5 -5 c 4 1 c 4 6 c 5 73 c 4 197 c 4 104 c 5 -2 c 4 -83 c 5 -214 c 4 -81 c 4 -1 c 5 0 c 4 0 c 4 0 c 5 0 c 4 0 c 5 -1 c 4 -1 c
4 -1 c 5 7 c 4 18 c 4 5 c 5 0 c 4 -10 c 5 -17 c 4 -5 c 4 0 c 5 0 c 4 0 c 4 0 c 5 0 c 4 0 c 4 0 c 5 1 c 4 0 c 5 -1 c 4 0 c 4 0 c
5 1 c 4 1 c 4 0 c 5 0 c 4 -1 c 5 0 c 4 1 c 4 0 c 5 0 c 4 0 c 4 1 c 5 4 c 4 34 c 5 155 c 4 -208 c 4 344 c 5 -46 c 4 -162 c 4 -112 c
5 -10 c 4 0 c 5 1 c 4 1 c 4 0 c 5 -1 c 4 -1 c 4 0 c 5 2 c 4 19 c 4 33 c 5 9 c 4 -5 c 5 -21 c 4 -29 c 4 -7 c 5 -1 c 4 0 c 4 0 c 5 2 c
4 1 c 5 5 c 4 27 c 4 25 c 5 5 c 4 -11 c 4 -28 c 5 -22 c 4 -5 c 5 0 c 4 0 c 4 0 c 5 2 c 4 10 c 4 24 c 5 10 c 4 19 c 5 1 c 4 -22 c
4 -8 c 5 -20 c 4 -14 c 4 0 c 5 1 c 4 0 c 4 0 c 5 -2 c 4 0 c 5 1 c 4 -1 c 4 0 c 5 1 c 4 1 c 4 6 c 5 3 c 4 -1 c 5 -1 c 4 -6 c 4 1 c
5 6 c 4 3 c 4 1 c 5 -4 c 4 -5 c 5 -3 c 4 0 c 4 0 c 5 0 c 4 1 c 4 -1 c 5 -1 c 4 0 c 5 3 c 4 2 c 4 1 c 5 1 c 4 1 c 4 9 c 5 86 c
4 477 c 4 537 c 5 67 c 4 -97 c 5 -541 c 4 -452 c 4 -70 c 5 -4 c 4 -8 c 4 -5 c 5 1 c 4 17 c 5 11 c 4 0 c 4 -4 c 5 -18 c 4 -11 c
4 -3 c 5 -1 c 4 0 c 5 0 c 4 1 c 4 6 c 5 9 c 4 1 c 4 -1 c 5 -5 c 4 -10 c 5 -2 c 4 0 c 4 0 c 5 0 c 4 0 c 4 0 c 5 1 c 4 1 c 4 0 c 5 0 c
4 1 c 5 1 c 4 -1 c 4 0 c 5 -1 c 4 1 c 4 2 c 5 -1 c 4 -1 c 5 -1 c 4 -1 c 4 0 c 5 2 c 4 2 c 4 4 c 5 2 c 4 1 c 5 -2 c 4 -4 c 4 -3 c
5 -1 c 4 -1 c 4 1 c 5 4 c 4 20 c 4 28 c 5 13 c 4 1 c 5 -18 c 4 -30 c 4 -11 c 5 -4 c 4 -1 c 4 -1 c 5 0 c 4 7 c 5 9 c 4 3 c 4 0 c
5 -9 c 4 -7 c 4 -2 c 5 0 c 4 1 c 5 2 c 4 0 c 4 -1 c 5 -1 c 4 -2 c 4 0 c 5 1 c 4 5 c 5 2 c 4 -1 c 4 -1 c 5 -4 c 4 -2 c 4 0 c 5 1 c
4 7 c 4 13 c 5 4 c 4 1 c 5 -4 c 4 -10 c 4 -3 c 5 -1 c 4 -3 c 4 -1 c 5 3 c 4 0 c 5 1 c 4 0 c 4 0 c 5 0 c 4 3 c 4 3 c 5 6 c 4 12 c
5 126 c 4 1028 c 4 1431 c 5 406 c 4 -96 c 4 -2943 c 5 352 c 4 -270 c 5 48 c 4 531 c 4 607 c 5 83 c 4 -102 c 4 -557 c 5 -519 c
4 -78 c 4 -9 c 5 -21 c 4 -33 c 5 -10 c 4 -2 c 4 0 c 5 -1 c 4 0 c 4 0 c 5 -1 c 4 1 c 5 1 c 4 4 c 4 2 c 5 0 c 4 -3 c 4 -3 c 5 -3 c
4 0 c 5 0 c 4 -1 c 4 0 c 5 2 c 4 2 c 4 16 c 5 55 c 4 44 c 5 2 c 4 -13 c 4 -56 c 5 -40 c 4 -8 c 4 -2 c 5 -1 c 4 -1 c 4 -1 c 5 1 c
4 -1 c 5 1 c 4 2 c 4 8 c 5 4 c 4 1 c 4 -3 c 5 -8 c 4 -4 c 5 -1 c 4 0 c 4 0 c 5 0 c 4 1 c 4 3 c 5 1 c 4 1 c 5 -1 c 4 1 c 4 0 c 5 1 c
4 0 c 4 -3 c 5 -2 c 4 -1 c 5 5 c 4 10 c 4 2 c 5 -1 c 4 -5 c 4 -10 c 5 -2 c 4 0 c 4 0 c 5 1 c 4 0 c 5 0 c 4 0 c 4 2 c 5 20 c 4 54 c
4 34 c 5 8 c 4 -13 c 5 -61 c 4 -29 c 4 18 c 5 74 c 4 33 c 4 19 c 5 -14 c 4 -73 c 5 -34 c 4 -10 c 4 111 c 5 659 c 4 508 c 4 53 c
5 -117 c 4 -695 c 4 -476 c 5 -61 c 4 -1 c 5 3 c 4 0 c 4 0 c 5 -3 c 4 -2 c 4 2 c 5 50 c 4 233 c 5 156 c 4 21 c 4 -46 c 5 -236 c
4 -163 c 4 -17 c 5 7 c 4 13 c 5 5 c 4 1 c 4 -6 c 5 -13 c 4 -6 c 4 -4 c 5 -4 c 4 0 c 5 0 c 4 0 c 4 1 c 5 3 c 4 2 c 4 0 c 5 -1 c
4 -2 c 4 -2 c 5 0 c 4 1 c 5 3 c 4 32 c 4 202 c 5 185 c 4 32 c 4 -29 c 5 -203 c 4 -186 c 5 6 c 4 48 c 4 10 c 5 -7 c 4 -35 c 4 -46 c
5 -11 c 4 -2 c 5 1 c 4 0 c 4 0 c 5 0 c 4 0 c 4 0 c 5 0 c 4 0 c 5 -1 c 4 0 c 4 -1 c 5 1 c 4 2 c 4 0 c 5 0 c 4 1 c 4 1 c 5 2 c 4 2 c
5 2 c 4 5 c 4 14 c 5 15 c 4 10 c 4 13 c 5 53 c 4 236 c 5 1148 c 4 2130 c 4 1011 c 5 -120 c 4 -1078 c 4 -2200 c 5 -1004 c 4 153 c
5 595 c 4 176 c 4 -12 c 5 -284 c 4 -638 c 4 -192 c 5 -21 c 4 -4 c 5 3 c 4 11 c 4 2 c 5 0 c 4 -6 c 4 -12 c 5 -1 c 4 1 c 4 -2 c 5 -1 c
4 -4 c 5 -3 c 4 -1 c 4 -1 c 5 0 c 4 -1 c 4 0 c 5 2 c 4 10 c 5 11 c 4 1 c 4 0 c 5 -8 c 4 -12 c 4 -2 c 5 -1 c 4 0 c 5 0 c 4 1 c 4 -1 c
5 -1 c 4 0 c 4 0 c 5 -1 c 4 3 c 5 19 c 4 19 c 4 3 c 5 1 c 4 -20 c 4 -18 c 5 -3 c 4 0 c 4 1 c 5 4 c 4 8 c 5 30 c 4 76 c 4 35 c 5 7 c
4 -29 c 4 -73 c 5 -44 c 4 -11 c 5 -4 c 4 -2 c 4 -1 c 5 0 c 4 1 c 4 0 c 5 0 c 4 4 c 5 2 c 4 0 c 4 1 c 5 3 c 4 1 c 4 2 c 5 5 c 4 7 c
4 4 c 5 6 c 4 6 c 5 21 c 4 135 c 4 1728 c 5 4105 c 4 -13 c 4 21 c 5 -19 c 4 -3851 c 5 -1972 c 4 -151 c 4 -15 c 5 -7 c 4 15 c 4 139 c
5 180 c 4 24 c 5 -13 c 4 -130 c 4 -195 c 5 -38 c 4 -2 c 4 -1 c 5 0 c 4 3 c 5 12 c 4 6 c 4 4 c 5 2 c 4 -10 c 4 -2 c 5 4 c 4 6 c
4 27 c 5 20 c 4 -1 c 5 -11 c 4 -28 c 4 -21 c 5 -6 c 4 -5 c 4 -4 c 5 -1 c 4 0 c 5 0 c 4 0 c 4 1 c 5 0 c 4 0 c 4 0 c 5 -1 c 4 -1 c
5 0 c 4 0 c 4 1 c 5 -1 c 4 1 c 4 4 c 5 44 c 4 96 c 5 26 c 4 1 c 4 -36 c 5 -97 c 4 -29 c 4 7 c 5 12 c 4 6 c 4 -2 c 5 -6 c 4 -9 c
5 -4 c 4 -1 c 4 1 c 5 0 c 4 21 c 4 271 c 5 649 c 4 216 c 5 -14 c 4 -248 c 4 -659 c 5 -224 c 4 -20 c 4 -3 c 5 -1 c 4 -2 c 5 0 c 4 0 c
4 0 c 5 0 c 4 1 c 4 0 c 5 0 c 4 2 c 5 0 c 4 1 c 4 0 c 5 0 c 4 -2 c 4 0 c 5 -1 c 4 -1 c 4 0 c 5 1 c 4 0 c 5 1 c 4 1 c 4 -1 c 5 0 c
4 -2 c 4 1 c 5 8 c 4 15 c 5 9 c 4 -2 c 4 -5 c 5 -17 c 4 -6 c 4 -2 c 5 0 c 4 0 c 5 -1 c 4 0 c 4 0 c 5 0 c 4 -1 c 4 0 c 5 -1 c 4 1 c
4 -1 c 5 1 c 4 1 c 5 0 c 4 1 c 4 0 c 5 1 c 4 1 c 4 3 c 5 16 c 4 150 c 5 679 c 4 404 c 4 10 c 5 -112 c 4 -625 c 4 -460 c 5 -56 c
4 -6 c 5 -4 c 4 -1 c 4 -1 c 5 0 c 4 0 c 4 1 c 5 0 c 4 1 c 5 5 c 4 13 c 4 9 c 5 3 c 4 -5 c 4 -11 c 5 -12 c 4 -4 c 4 0 c 5 3 c 4 3 c
5 3 c 4 -1 c 4 -1 c 5 -4 c 4 -2 c 4 -1 c 5 -1 c 4 0 c 5 0 c 4 0 c 4 0 c 5 0 c 4 0 c 4 0 c 5 0 c 4 0 c 5 0 c 4 1 c 4 3 c 5 3 c 4 7 c
4 34 c 5 198 c 4 408 c 5 195 c 4 -6 c 4 -166 c 5 -412 c 4 -207 c 4 -39 c 5 -7 c 4 -2 c 4 -3 c 5 -2 c 4 -2 c 5 0 c 4 -2 c 4 0 c
5 -1 c 4 0 c 4 0 c 5 1 c 4 4 c 5 1 c 4 7 c 4 21 c 5 5 c 4 0 c 4 -7 c 5 -21 c 4 -8 c 5 -1 c 4 -1 c 4 0 c 5 -1 c 4 0 c 4 1 c 5 1 c
4 0 c 5 1 c 4 5 c 4 52 c 5 149 c 4 69 c 4 6 c 5 -34 c 4 -144 c 4 -73 c 5 29 c 4 30 c 5 0 c 4 -8 c 4 -23 c 5 48 c 4 85 c 4 11 c
5 -16 c 4 -64 c 5 -105 c 4 -16 c 4 -3 c 5 -2 c 4 0 c 4 -1 c 5 1 c 4 0 c 5 1 c 4 0 c 4 2 c 5 24 c 4 86 c 4 39 c 5 4 c 4 -15 c 5 -77 c
4 -55 c 4 -6 c 5 -2 c 4 0 c 4 0 c 5 1 c 4 -1 c 4 0 c 5 -1 c 4 0 c 5 1 c 4 0 c 4 1 c 5 0 c 4 -2 c 4 -1 c 5 0 c 4 -1 c 5 0 c 4 0 c
4 0 c 5 1 c 4 0 c 4 1 c 5 1 c 4 0 c 5 1 c 4 0 c 4 -1 c 5 0 c 4 1 c 4 3 c 5 7 c 4 56 c 4 398 c 5 836 c 4 188 c 5 -14 c 4 -338 c
4 -832 c 5 -276 c 4 -22 c 4 -3 c 5 -1 c 4 0 c 5 5 c 4 3 c 4 0 c 5 4 c 4 2 c 4 -3 c 5 -1 c 4 4 c 5 50 c 4 130 c 4 43 c 5 -1 c 4 -46 c
4 -130 c 5 -61 c 4 -3 c 5 0 c 4 3 c 4 3 c 5 9 c 4 6 c 4 -1 c 5 -3 c 4 -8 c 4 -9 c 5 -2 c 4 0 c 5 0 c 4 0 c 4 -1 c 5 1 c 4 0 c 4 0 c
5 0 c 4 0 c 5 0 c 4 0 c 4 0 c 5 1 c 4 0 c 4 0 c 5 1 c 4 0 c 5 0 c 4 0 c 4 -1 c 5 -1 c 4 0 c 4 0 c 5 1 c 4 4 c 5 8 c 4 3 c 4 -1 c
5 -2 c 4 -6 c 4 -4 c 5 -1 c 4 1 c 4 -1 c 5 -1 c 4 -1 c 5 0 c 4 0 c 4 1 c 5 6 c 4 3 c 4 0 c 5 -1 c 4 -4 c 5 -4 c 4 0 c 4 2 c 5 5 c
4 0 c 4 0 c 5 -1 c 4 -6 c 5 -1 c 4 -1 c 4 0 c 5 2 c 4 1 c 4 2 c
5 0 c 4 0 c 5 -2 c 4 -1 c 4 -12 c 4 10 9549 780 l 4 0 c 5 0 c 4 0 c 4 0 c 5 1 c 4 0 c 5 3 c 4 4 c 4 1 c 5 -1 c 4 -1 c 4 -5 c 5 -2 c
4 1 c 5 1 c 4 0 c 4 0 c 5 0 c 4 -1 c 4 4 c 5 17 c 4 32 c 5 11 c 4 2 c 4 -14 c 5 -32 c 4 -14 c 4 -4 c 5 -1 c 4 1 c 5 2 c 4 3 c 4 7 c
5 55 c 4 308 c 4 510 c 5 84 c 4 -30 c
0 -126 3030 418 l 54 0 3030 418 l 18 -6 c 6 -6 c 6 -12 c 0 -12 c -6 -12 c -6 -6 c -18 -6 c -54 0 c 42 -66 3072 358 l
-12 -6 3180 376 l -12 -12 c -6 -18 c 0 -12 c 6 -18 c 12 -12 c 12 -6 c 18 0 c 12 6 c 12 12 c 6 18 c 0 12 c -6 18 c -12 12 c -12 6 c
-18 0 c 24 -84 3264 376 l -24 -84 3312 376 l 24 -84 3312 376 l -24 -84 3360 376 l 108 0 3402 364 l 108 0 3402 328 l 66 0 3660 418 l
-36 -48 c 18 0 c 12 -6 c 6 -6 c 6 -18 c 0 -12 c -6 -18 c -12 -12 c -18 -6 c -18 0 c -18 6 c -6 6 c -6 12 c -18 -6 3804 418 l
-12 -18 c -6 -30 c 0 -18 c 6 -30 c 12 -18 c 18 -6 c 12 0 c 18 6 c 12 18 c 6 30 c 0 18 c -6 30 c -12 18 c -18 6 c -12 0 c
12 6 4290 394 l 18 18 c 0 -126 c -6 -6 4404 376 l 6 -6 c 6 6 c -6 6 c -6 -6 4404 304 l 6 -6 c 6 6 c -6 6 c -48 -126 4584 418 l
48 -126 4584 418 l 60 0 4554 334 l 0 -84 4662 376 l 6 18 4662 340 l 12 12 c 12 6 c 18 0 c -12 12 4806 358 l -12 6 c -18 0 c -12 -6 c
-12 -12 c -6 -18 c 0 -12 c 6 -18 c 12 -12 c 12 -6 c 18 0 c 12 6 c 12 12 c 108 0 4848 346 l -18 -6 5034 418 l -12 -18 c -6 -30 c
0 -18 c 6 -30 c 12 -18 c 18 -6 c 12 0 c 18 6 c 12 18 c 6 30 c 0 18 c -6 30 c -12 18 c -18 6 c -12 0 c 66 0 5130 418 l -36 -48 c
18 0 c 12 -6 c 6 -6 c 6 -18 c 0 -12 c -6 -18 c -12 -12 c -18 -6 c -18 0 c -18 6 c -6 6 c -6 12 c -59 0 5309 418 l -6 -54 c 6 6 c
17 6 c 18 0 c 18 -6 c 12 -12 c 6 -18 c 0 -12 c -6 -18 c -12 -12 c -18 -6 c -18 0 c -17 6 c -6 6 c -6 12 c -6 -6 5369 304 l 6 -6 c
6 6 c -6 6 c -12 0 5459 418 l -12 -6 c -6 -18 c 0 -102 c 42 0 5411 376 l 6 -6 5489 418 l 6 6 c -6 6 c -6 -6 c 0 -84 5495 376 l
0 -102 5549 418 l 6 -18 c 12 -6 c 12 0 c 42 0 5531 376 l -6 12 5675 358 l -18 6 c -18 0 c -18 -6 c -6 -12 c 6 -12 c 12 -6 c 30 -6 c
12 -6 c 6 -12 c 0 -6 c -6 -12 c -18 -6 c -18 0 c -18 6 c -6 12 c 0 -192 6005 442 l 0 -192 6011 442 l 42 0 6005 442 l 42 0 6005 250 l
0 6 6089 388 l 6 12 c 6 6 c 12 6 c 24 0 c 12 -6 c 6 -6 c 6 -12 c 0 -12 c -6 -12 c -12 -18 c -60 -60 c 84 0 c -6 -6 6215 376 l 6 -6 c
6 6 c -6 6 c -6 -6 6215 304 l 6 -6 c 6 6 c -6 6 c -48 -126 6395 418 l 48 -126 6395 418 l 60 0 6365 334 l 0 -84 6473 376 l
6 18 6473 340 l 12 12 c 12 6 c 18 0 c -12 12 6617 358 l -12 6 c -18 0 c -12 -6 c -12 -12 c -6 -18 c 0 -12 c 6 -18 c 12 -12 c 12 -6 c
18 0 c 12 6 c 12 12 c 108 0 6659 346 l -18 -6 6845 418 l -12 -18 c -6 -30 c 0 -18 c 6 -30 c 12 -18 c 18 -6 c 12 0 c 18 6 c 12 18 c
6 30 c 0 18 c -6 30 c -12 18 c -18 6 c -12 0 c 66 0 6941 418 l -36 -48 c 18 0 c 12 -6 c 6 -6 c 6 -18 c 0 -12 c -6 -18 c -12 -12 c
-18 -6 c -18 0 c -18 6 c -6 6 c -6 12 c -6 12 7127 400 l -18 6 c -12 0 c -18 -6 c -12 -18 c -6 -30 c 0 -30 c 6 -24 c 12 -12 c
18 -6 c 6 0 c 18 6 c 12 12 c 6 18 c 0 6 c -6 18 c -12 12 c -18 6 c -6 0 c -18 -6 c -12 -12 c -6 -18 c -6 -6 7181 304 l 6 -6 c 6 6 c
-6 6 c -12 0 7271 418 l -12 -6 c -6 -18 c 0 -102 c 42 0 7223 376 l 6 -6 7301 418 l 6 6 c -6 6 c -6 -6 c 0 -84 7307 376 l
0 -102 7361 418 l 6 -18 c 12 -6 c 12 0 c 42 0 7343 376 l -6 12 7487 358 l -18 6 c -18 0 c -18 -6 c -6 -12 c 6 -12 c 12 -6 c 30 -6 c
12 -6 c 6 -12 c 0 -6 c -6 -12 c -18 -6 c -18 0 c -18 6 c -6 12 c 0 -192 7559 442 l 0 -192 7565 442 l 42 0 7523 442 l 42 0 7523 250 l
0 -250 916 1821 l 0 -38 872 1938 l 34 -3 c -4 3 c -3 12 c 0 11 c 3 11 c 8 8 c 11 4 c 8 0 c 11 -4 c 8 -8 c 4 -11 c 0 -11 c -4 -12 c
-4 -3 c -7 -4 c 53 -38 872 2006 l 0 57 c 80 0 872 2006 l 0 41 872 2052 l 30 -23 c 0 12 c 4 7 c 4 4 c 11 4 c 8 0 c 11 -4 c 8 -7 c
4 -12 c 0 -11 c -4 -11 c -4 -4 c -7 -4 c 80 -37 872 2172 l 0 52 872 2120 l 4 -4 944 2203 l 4 4 c -4 3 c -4 -3 c 0 42 872 2240 l
30 -23 c 0 12 c 4 7 c 4 4 c 11 4 c 8 0 c 11 -4 c 8 -7 c 4 -12 c 0 -11 c -4 -12 c -4 -3 c -7 -4 c 4 -11 872 2327 l 8 -4 c 7 0 c 8 4 c
3 8 c 4 15 c 4 11 c 8 8 c 7 3 c 12 0 c 7 -3 c 4 -4 c 4 -11 c 0 -16 c -4 -11 c -4 -4 c -7 -3 c -12 0 c -7 3 c -8 8 c -4 11 c -4 15 c
-3 8 c -8 4 c -7 0 c -8 -4 c -4 -11 c 0 -16 c 4 -11 872 2403 l 8 -4 c 7 0 c 8 4 c 3 7 c 4 15 c 4 12 c 8 7 c 7 4 c 12 0 c 7 -4 c
4 -4 c 4 -11 c 0 -15 c -4 -11 c -4 -4 c -7 -4 c -12 0 c -7 4 c -8 7 c -4 12 c -4 15 c -3 7 c -8 4 c -7 0 c -8 -4 c -4 -11 c 0 -15 c
0 -250 996 1275 l 0 -38 953 1392 l 34 -4 c -4 4 c -4 11 c 0 12 c 4 11 c 7 8 c 12 3 c 7 0 c 12 -3 c 7 -8 c 4 -11 c 0 -12 c -4 -11 c
-4 -4 c -7 -3 c 53 -38 953 1460 l 0 57 c 79 0 953 1460 l 0 42 953 1505 l 30 -23 c 0 12 c 4 7 c 3 4 c 12 4 c 7 0 c 12 -4 c 7 -8 c
4 -11 c 0 -11 c -4 -12 c -4 -3 c -7 -4 c 3 -11 953 1592 l 8 -4 c 8 0 c 7 4 c 4 7 c 4 16 c 3 11 c 8 7 c 8 4 c 11 0 c 7 -4 c 4 -3 c
4 -12 c 0 -15 c -4 -11 c -4 -4 c -7 -4 c -11 0 c -8 4 c -8 8 c -3 11 c -4 15 c -4 8 c -7 3 c -8 0 c -8 -3 c -3 -12 c 0 -15 c
4 -3 1024 1656 l 4 3 c -4 4 c -4 -4 c -4 8 968 1698 l -11 11 c 79 0 c 0 41 953 1770 l 30 -22 c 0 11 c 4 8 c 3 3 c 12 4 c 7 0 c
12 -4 c 7 -7 c 4 -11 c 0 -12 c -4 -11 c -4 -4 c -7 -4 c 79 -38 953 1891 l 0 53 953 1838 l 0 -250 1259 1369 l 0 -38 1216 1486 l
34 -3 c -4 3 c -4 12 c 0 11 c 4 11 c 7 8 c 12 4 c 7 0 c 12 -4 c 7 -8 c 4 -11 c 0 -11 c -4 -12 c -4 -3 c -7 -4 c 52 -38 1216 1554 l
0 57 c 79 0 1216 1554 l 52 -38 1216 1630 l 0 57 c 79 0 1216 1630 l 3 -11 1216 1690 l 12 -8 c 19 -3 c 11 0 c 19 3 c 11 8 c 4 11 c
0 8 c -4 11 c -11 8 c -19 3 c -11 0 c -19 -3 c -12 -8 c -3 -11 c 0 -8 c 4 -4 1287 1751 l 4 4 c -4 3 c -4 -3 c -8 -4 1227 1830 l
-3 -11 c 0 -8 c 3 -11 c 12 -8 c 19 -3 c 18 0 c 16 3 c 7 8 c 4 11 c 0 4 c -4 11 c -7 8 c -12 4 c -4 0 c -11 -4 c -7 -8 c -4 -11 c
0 -4 c 4 -11 c 7 -8 c 11 -3 c 3 -11 1216 1879 l 12 -8 c 19 -3 c 11 0 c 19 3 c 11 8 c 4 11 c 0 8 c -4 11 c -11 8 c -19 3 c -11 0 c
-19 -3 c -12 -8 c -3 -11 c 0 -8 c -4 8 1231 1943 l -11 11 c 79 0 c 0 -250 1530 3196 l 0 -38 1486 3313 l 34 -3 c -3 3 c -4 12 c
0 11 c 4 11 c 7 8 c 11 4 c 8 0 c 11 -4 c 8 -8 c 4 -11 c 0 -11 c -4 -12 c -4 -3 c -7 -4 c 53 -38 1486 3381 l 0 57 c 80 0 1486 3381 l
53 -38 1486 3457 l 0 57 c 80 0 1486 3457 l 0 42 1486 3502 l 31 -23 c 0 11 c 3 8 c 4 4 c 11 3 c 8 0 c 11 -3 c 8 -8 c 4 -11 c 0 -12 c
-4 -11 c -4 -4 c -7 -3 c 4 -4 1558 3578 l 4 4 c -4 3 c -4 -3 c -3 8 1501 3619 l -12 11 c 80 0 c -3 7 1501 3695 l -12 12 c 80 0 c
11 -4 1513 3808 l 8 -7 c 3 -11 c 0 -4 c -3 -12 c -8 -7 c -11 -4 c -4 0 c -11 4 c -8 7 c -4 12 c 0 4 c 4 11 c 8 7 c 15 4 c 19 0 c
19 -4 c 11 -7 c 4 -11 c 0 -8 c -4 -11 c -8 -4 c 0 -250 1964 2949 l 0 -38 1921 3066 l 34 -3 c -4 3 c -4 12 c 0 11 c 4 11 c 7 8 c
12 4 c 7 0 c 12 -4 c 7 -8 c 4 -11 c 0 -11 c -4 -12 c -4 -3 c -7 -4 c 53 -38 1921 3134 l 0 57 c 79 0 1921 3134 l 53 -38 1921 3210 l
0 57 c 79 0 1921 3210 l 79 -37 1921 3300 l 0 52 1921 3248 l 4 -4 1992 3331 l 4 4 c -4 4 c -4 -4 c -4 8 1936 3372 l -11 11 c 79 0 c
0 -38 1921 3482 l 34 -4 c -4 4 c -4 11 c 0 12 c 4 11 c 7 8 c 12 3 c 7 0 c 12 -3 c 7 -8 c 4 -11 c 0 -12 c -4 -11 c -4 -4 c -7 -3 c
53 -38 1921 3550 l 0 57 c 79 0 1921 3550 l 0 -249 2085 1243 l 0 -37 2042 1360 l 34 -4 c -4 4 c -4 11 c 0 11 c 4 12 c 7 7 c 12 4 c
7 0 c 12 -4 c 7 -7 c 4 -12 c 0 -11 c -4 -11 c -4 -4 c -7 -4 c 52 -37 2042 1428 l 0 56 c 79 0 2042 1428 l 52 -38 2042 1504 l 0 57 c
79 0 2042 1504 l 3 -12 2042 1561 l 8 -3 c 7 0 c 8 3 c 4 8 c 4 15 c 3 11 c 8 8 c 7 4 c 12 0 c 7 -4 c 4 -4 c 4 -11 c 0 -15 c -4 -12 c
-4 -3 c -7 -4 c -12 0 c -7 4 c -8 7 c -3 12 c -4 15 c -4 7 c -8 4 c -7 0 c -8 -4 c -3 -11 c 0 -15 c 4 -4 2113 1625 l 4 4 c -4 4 c
-4 -4 c -3 0 2060 1659 l -8 4 c -4 4 c -3 7 c 0 15 c 3 8 c 4 4 c 8 3 c 7 0 c 8 -3 c 11 -8 c 38 -38 c 0 53 c 79 -38 2042 1784 l
0 53 2042 1731 l -3 0 2060 1810 l -8 4 c -4 4 c -3 7 c 0 15 c 3 8 c 4 4 c 8 4 c 7 0 c 8 -4 c 11 -8 c 38 -38 c 0 53 c
0 -249 2216 2080 l 0 -38 2172 2198 l 34 -4 c -4 4 c -3 11 c 0 12 c 3 11 c 8 7 c 11 4 c 8 0 c 11 -4 c 8 -7 c 4 -11 c 0 -12 c -4 -11 c
-4 -4 c -8 -4 c 53 -38 2172 2266 l 0 57 c 80 0 2172 2266 l 53 -38 2172 2341 l 0 57 c 80 0 2172 2341 l 11 -4 2199 2428 l 8 -7 c
3 -11 c 0 -4 c -3 -12 c -8 -7 c -11 -4 c -4 0 c -11 4 c -8 7 c -4 12 c 0 4 c 4 11 c 8 7 c 15 4 c 19 0 c 18 -4 c 12 -7 c 4 -11 c
0 -8 c -4 -11 c -8 -4 c 4 -4 2244 2462 l 4 4 c -4 4 c -4 -4 c 53 -38 2172 2530 l 0 57 c 80 0 2172 2530 l 80 -38 2172 2621 l
0 53 2172 2568 l 11 -4 2199 2693 l 8 -8 c 3 -11 c 0 -4 c -3 -11 c -8 -8 c -11 -3 c -4 0 c -11 3 c -8 8 c -4 11 c 0 4 c 4 11 c 8 8 c
15 4 c 19 0 c 18 -4 c 12 -8 c 4 -11 c 0 -7 c -4 -12 c -8 -4 c 0 -250 2452 2456 l 0 -38 2408 2573 l 34 -3 c -3 3 c -4 12 c 0 11 c
4 11 c 7 8 c 11 4 c 8 0 c 11 -4 c 8 -8 c 4 -11 c 0 -11 c -4 -12 c -4 -3 c -7 -4 c 53 -38 2408 2641 l 0 57 c 80 0 2408 2641 l
0 -37 2408 2724 l 34 -4 c -3 4 c -4 11 c 0 11 c 4 12 c 7 7 c 11 4 c 8 0 c 11 -4 c 8 -7 c 4 -12 c 0 -11 c -4 -11 c -4 -4 c -7 -4 c
-3 7 2423 2766 l -12 12 c 80 0 c 4 -4 2480 2838 l 4 4 c -4 4 c -4 -4 c -8 -4 2420 2917 l -4 -11 c 0 -8 c 4 -11 c 11 -7 c 19 -4 c
19 0 c 15 4 c 8 7 c 4 11 c 0 4 c -4 12 c -8 7 c -11 4 c -4 0 c -11 -4 c -8 -7 c -3 -12 c 0 -4 c 3 -11 c 8 -7 c 11 -4 c
0 -38 2408 2989 l 34 -4 c -3 4 c -4 11 c 0 12 c 4 11 c 7 8 c 11 3 c 8 0 c 11 -3 c 8 -8 c 4 -11 c 0 -12 c -4 -11 c -4 -4 c -7 -3 c
-4 0 2427 3023 l -7 4 c -4 4 c -4 7 c 0 15 c 4 8 c 4 4 c 7 3 c 8 0 c 8 -3 c 11 -8 c 38 -38 c 0 53 c 0 -249 2513 2197 l
0 -37 2470 2314 l 34 -4 c -4 4 c -4 11 c 0 11 c 4 12 c 8 7 c 11 4 c 8 0 c 11 -4 c 7 -7 c 4 -12 c 0 -11 c -4 -11 c -3 -4 c -8 -4 c
53 -37 2470 2382 l 0 56 c 79 0 2470 2382 l 0 -38 2470 2466 l 34 -4 c -4 4 c -4 11 c 0 11 c 4 12 c 8 7 c 11 4 c 8 0 c 11 -4 c 7 -7 c
4 -12 c 0 -11 c -4 -11 c -3 -4 c -8 -4 c -4 0 2489 2500 l -8 3 c -3 4 c -4 8 c 0 15 c 4 7 c 3 4 c 8 4 c 7 0 c 8 -4 c 11 -7 c
38 -38 c 0 53 c 3 -4 2542 2579 l 4 4 c -4 4 c -3 -4 c -4 0 2489 2613 l -8 4 c -3 4 c -4 7 c 0 15 c 4 8 c 3 4 c 8 3 c 7 0 c 8 -3 c
11 -8 c 38 -38 c 0 53 c -4 8 2485 2696 l -11 11 c 79 0 c 12 -4 2496 2810 l 7 -8 c 4 -11 c 0 -4 c -4 -11 c -7 -8 c -12 -4 c -4 0 c
-11 4 c -7 8 c -4 11 c 0 4 c 4 11 c 7 8 c 15 4 c 19 0 c 19 -4 c 11 -8 c 4 -11 c 0 -8 c -4 -11 c -7 -4 c 0 -250 2833 1255 l
0 -38 2789 1372 l 34 -3 c -3 3 c -4 12 c 0 11 c 4 11 c 7 8 c 12 4 c 7 0 c 11 -4 c 8 -8 c 4 -11 c 0 -11 c -4 -12 c -4 -3 c -7 -4 c
53 -38 2789 1440 l 0 57 c 80 0 2789 1440 l 0 -37 2789 1523 l 34 -4 c -3 4 c -4 11 c 0 11 c 4 12 c 7 7 c 12 4 c 7 0 c 11 -4 c 8 -7 c
4 -12 c 0 -11 c -4 -11 c -4 -4 c -7 -4 c 0 -38 2789 1599 l 34 -4 c -3 4 c -4 11 c 0 12 c 4 11 c 7 8 c 12 3 c 7 0 c 11 -3 c 8 -8 c
4 -11 c 0 -12 c -4 -11 c -4 -4 c -7 -3 c 4 -4 2861 1637 l 4 4 c -4 3 c -4 -3 c -4 8 2805 1678 l -12 11 c 80 0 c 0 -38 2789 1788 l
34 -4 c -3 4 c -4 11 c 0 12 c 4 11 c 7 8 c 12 3 c 7 0 c 11 -3 c 8 -8 c 4 -11 c 0 -12 c -4 -11 c -4 -4 c -7 -3 c -3 0 2808 1822 l
-8 4 c -4 3 c -4 8 c 0 15 c 4 8 c 4 3 c 8 4 c 7 0 c 8 -4 c 11 -7 c 38 -38 c 0 53 c 0 -250 3252 1717 l 0 -38 3208 1834 l 34 -3 c
-4 3 c -4 12 c 0 11 c 4 11 c 8 8 c 11 4 c 8 0 c 11 -4 c 8 -8 c 3 -11 c 0 -11 c -3 -12 c -4 -3 c -8 -4 c 53 -38 3208 1902 l 0 57 c
79 0 3208 1902 l 0 -37 3208 1985 l 34 -4 c -4 4 c -4 11 c 0 11 c 4 12 c 8 7 c 11 4 c 8 0 c 11 -4 c 8 -7 c 3 -12 c 0 -11 c -3 -11 c
-4 -4 c -8 -4 c 4 -11 3208 2034 l 7 -4 c 8 0 c 7 4 c 4 8 c 4 15 c 4 11 c 7 8 c 8 3 c 11 0 c 8 -3 c 4 -4 c 3 -11 c 0 -16 c -3 -11 c
-4 -4 c -8 -3 c -11 0 c -8 3 c -7 8 c -4 11 c -4 15 c -4 8 c -7 4 c -8 0 c -7 -4 c -4 -11 c 0 -16 c 4 -4 3280 2099 l 3 4 c -3 4 c
-4 -4 c 12 -4 3234 2178 l 7 -7 c 4 -12 c 0 -3 c -4 -12 c -7 -7 c -12 -4 c -3 0 c -12 4 c -7 7 c -4 12 c 0 3 c 4 12 c 7 7 c 15 4 c
19 0 c 19 -4 c 12 -7 c 3 -12 c 0 -7 c -3 -11 c -8 -4 c -7 -4 3219 2254 l -4 -11 c 0 -8 c 4 -11 c 11 -8 c 19 -4 c 19 0 c 15 4 c 8 8 c
3 11 c 0 4 c -3 11 c -8 8 c -11 3 c -4 0 c -11 -3 c -8 -8 c -4 -11 c 0 -4 c 4 -11 c 8 -8 c 11 -4 c 4 -11 3208 2299 l 7 -4 c 8 0 c
7 4 c 4 7 c 4 15 c 4 12 c 7 7 c 8 4 c 11 0 c 8 -4 c 4 -3 c 3 -12 c 0 -15 c -3 -11 c -4 -4 c -8 -4 c -11 0 c -8 4 c -7 7 c -4 12 c
-4 15 c -4 8 c -7 3 c -8 0 c -7 -3 c -4 -12 c 0 -15 c 0 -249 3557 1984 l 0 -38 3513 2102 l 34 -4 c -4 4 c -3 11 c 0 11 c 3 12 c
8 7 c 11 4 c 8 0 c 11 -4 c 8 -7 c 3 -12 c 0 -11 c -3 -11 c -4 -4 c -8 -4 c 53 -38 3513 2170 l 0 56 c 79 0 3513 2170 l
-7 -4 3524 2257 l -4 -12 c 0 -7 c 4 -12 c 11 -7 c 19 -4 c 19 0 c 15 4 c 8 7 c 3 12 c 0 4 c -3 11 c -8 8 c -11 3 c -4 0 c -11 -3 c
-8 -8 c -4 -11 c 0 -4 c 4 -12 c 8 -7 c 11 -4 c -4 8 3528 2294 l -11 11 c 79 0 c 4 -4 3585 2366 l 3 4 c -3 4 c -4 -4 c
79 -38 3513 2449 l 0 53 3513 2396 l 0 41 3513 2480 l 30 -23 c 0 12 c 4 7 c 4 4 c 11 4 c 8 0 c 11 -4 c 8 -7 c 3 -12 c 0 -11 c
-3 -11 c -4 -4 c -8 -4 c -7 -4 3524 2597 l -4 -11 c 0 -8 c 4 -11 c 11 -8 c 19 -4 c 19 0 c 15 4 c 8 8 c 3 11 c 0 4 c -3 11 c -8 8 c
-11 3 c -4 0 c -11 -3 c -8 -8 c -4 -11 c 0 -4 c 4 -11 c 8 -8 c 11 -4 c 0 -249 3654 1882 l 0 -38 3610 2000 l 34 -4 c -4 4 c -4 11 c
0 11 c 4 12 c 8 7 c 11 4 c 8 0 c 11 -4 c 8 -7 c 3 -12 c 0 -11 c -3 -11 c -4 -4 c -8 -4 c 53 -38 3610 2068 l 0 56 c 79 0 3610 2068 l
-7 -4 3621 2155 l -4 -12 c 0 -7 c 4 -12 c 11 -7 c 19 -4 c 19 0 c 15 4 c 8 7 c 3 12 c 0 4 c -3 11 c -8 8 c -11 3 c -4 0 c -11 -3 c
-8 -8 c -4 -11 c 0 -4 c 4 -12 c 8 -7 c 11 -4 c -4 0 3629 2185 l -7 4 c -4 3 c -4 8 c 0 15 c 4 8 c 4 3 c 7 4 c 8 0 c 7 -4 c 12 -7 c
37 -38 c 0 53 c 4 -4 3682 2264 l 3 4 c -3 4 c -4 -4 c -7 -3 3621 2343 l -4 -12 c 0 -7 c 4 -12 c 11 -7 c 19 -4 c 19 0 c 15 4 c 8 7 c
3 12 c 0 4 c -3 11 c -8 7 c -11 4 c -4 0 c -11 -4 c -8 -7 c -4 -11 c 0 -4 c 4 -12 c 8 -7 c 11 -4 c -4 8 3625 2381 l -11 11 c 79 0 c
0 42 3610 2453 l 30 -23 c 0 11 c 4 8 c 4 4 c 11 3 c 8 0 c 11 -3 c 8 -8 c 3 -11 c 0 -12 c -3 -11 c -4 -4 c -8 -3 c 0 -250 3830 2345 l
0 -38 3786 2462 l 34 -4 c -3 4 c -4 12 c 0 11 c 4 11 c 7 8 c 11 4 c 8 0 c 11 -4 c 8 -8 c 4 -11 c 0 -11 c -4 -12 c -4 -4 c -7 -3 c
53 -38 3786 2530 l 0 57 c 80 0 3786 2530 l -8 -4 3798 2617 l -4 -11 c 0 -8 c 4 -11 c 11 -8 c 19 -3 c 19 0 c 15 3 c 8 8 c 4 11 c
0 4 c -4 11 c -8 8 c -11 4 c -4 0 c -11 -4 c -8 -8 c -3 -11 c 0 -4 c 3 -11 c 8 -8 c 11 -3 c 53 -38 3786 2681 l 0 57 c
80 0 3786 2681 l 4 -4 3858 2727 l 4 4 c -4 3 c -4 -3 c -4 0 3805 2761 l -7 3 c -4 4 c -4 8 c 0 15 c 4 7 c 4 4 c 7 4 c 8 0 c 8 -4 c
11 -7 c 38 -38 c 0 53 c 4 -11 3786 2855 l 11 -8 c 19 -4 c 12 0 c 19 4 c 11 8 c 4 11 c 0 8 c -4 11 c -11 8 c -19 3 c -12 0 c -19 -3 c
-11 -8 c -4 -11 c 0 -8 c -8 -4 3798 2957 l -4 -11 c 0 -8 c 4 -11 c 11 -7 c 19 -4 c 19 0 c 15 4 c 8 7 c 4 11 c 0 4 c -4 12 c -8 7 c
-11 4 c -4 0 c -11 -4 c -8 -7 c -3 -12 c 0 -4 c 3 -11 c 8 -7 c 11 -4 c 0 -249 4159 1381 l 0 -38 4115 1498 l 34 -3 c -3 3 c -4 12 c
0 11 c 4 11 c 7 8 c 12 4 c 7 0 c 11 -4 c 8 -8 c 4 -11 c 0 -11 c -4 -12 c -4 -3 c -7 -4 c 53 -38 4115 1566 l 0 57 c 80 0 4115 1566 l
-8 -4 4127 1653 l -4 -11 c 0 -7 c 4 -12 c 12 -7 c 18 -4 c 19 0 c 15 4 c 8 7 c 4 12 c 0 3 c -4 12 c -8 7 c -11 4 c -4 0 c -11 -4 c
-8 -7 c -3 -12 c 0 -3 c 3 -12 c 8 -7 c 11 -4 c 80 -38 4115 1733 l 0 53 4115 1680 l 4 -4 4187 1763 l 4 4 c -4 4 c -4 -4 c
-4 8 4131 1804 l -12 11 c 80 0 c 80 -38 4115 1922 l 0 53 4115 1869 l 4 -11 4115 1967 l 12 -8 c 18 -4 c 12 0 c 19 4 c 11 8 c 4 11 c
0 7 c -4 12 c -11 7 c -19 4 c -12 0 c -18 -4 c -12 -7 c -4 -12 c 0 -7 c 0 -250 4560 1735 l 0 -38 4517 1852 l 34 -4 c -4 4 c -4 11 c
0 12 c 4 11 c 7 8 c 12 3 c 7 0 c 12 -3 c 7 -8 c 4 -11 c 0 -12 c -4 -11 c -4 -4 c -7 -3 c 53 -38 4517 1920 l 0 57 c 79 0 4517 1920 l
79 -38 4517 2011 l 0 53 4517 1958 l 3 -11 4517 2056 l 12 -8 c 19 -4 c 11 0 c 19 4 c 11 8 c 4 11 c 0 8 c -4 11 c -11 7 c -19 4 c
-11 0 c -19 -4 c -12 -7 c -3 -11 c 0 -8 c 4 -3 4588 2116 l 4 3 c -4 4 c -4 -4 c 79 -38 4517 2200 l 0 53 4517 2147 l
0 -38 4517 2268 l 34 -4 c -4 4 c -4 11 c 0 11 c 4 12 c 7 7 c 12 4 c 7 0 c 12 -4 c 7 -7 c 4 -12 c 0 -11 c -4 -11 c -4 -4 c -7 -4 c
11 -4 4543 2347 l 8 -7 c 4 -12 c 0 -3 c -4 -12 c -8 -7 c -11 -4 c -4 0 c -11 4 c -8 7 c -3 12 c 0 3 c 3 12 c 8 7 c 15 4 c 19 0 c
19 -4 c 11 -7 c 4 -12 c 0 -7 c -4 -12 c -7 -3 c 0 -250 5326 1253 l 0 -38 5282 1370 l 34 -4 c -3 4 c -4 11 c 0 12 c 4 11 c 7 8 c
11 3 c 8 0 c 11 -3 c 8 -8 c 4 -11 c 0 -12 c -4 -11 c -4 -4 c -7 -4 c 53 -38 5282 1438 l 0 57 c 80 0 5282 1438 l 80 -38 5282 1529 l
0 53 5282 1476 l 80 -38 5282 1604 l 0 53 5282 1551 l 4 -3 5354 1634 l 4 3 c -4 4 c -4 -4 c 0 -38 5282 1710 l 34 -4 c -3 4 c -4 12 c
0 11 c 4 11 c 7 8 c 11 4 c 8 0 c 11 -4 c 8 -8 c 4 -11 c 0 -11 c -4 -12 c -4 -4 c -7 -3 c 0 -38 5282 1786 l 34 -4 c -3 4 c -4 11 c
0 11 c 4 12 c 7 7 c 11 4 c 8 0 c 11 -4 c 8 -7 c 4 -12 c 0 -11 c -4 -11 c -4 -4 c -7 -4 c -4 0 5301 1820 l -7 3 c -4 4 c -4 8 c
0 15 c 4 7 c 4 4 c 7 4 c 8 0 c 8 -4 c 11 -7 c 38 -38 c 0 53 c 0 -249 5499 1614 l 0 -38 5455 1732 l 34 -4 c -4 4 c -3 11 c 0 12 c
3 11 c 8 7 c 11 4 c 8 0 c 11 -4 c 8 -7 c 4 -11 c 0 -12 c -4 -11 c -4 -4 c -8 -4 c 53 -38 5455 1800 l 0 57 c 80 0 5455 1800 l
80 -37 5455 1890 l 0 53 5455 1837 l 11 -4 5482 1962 l 8 -7 c 3 -11 c 0 -4 c -3 -12 c -8 -7 c -11 -4 c -4 0 c -11 4 c -8 7 c -4 12 c
0 4 c 4 11 c 8 7 c 15 4 c 19 0 c 18 -4 c 12 -7 c 4 -11 c 0 -8 c -4 -11 c -8 -4 c 4 -4 5527 1996 l 4 4 c -4 4 c -4 -4 c
4 -11 5455 2049 l 11 -8 c 19 -4 c 12 0 c 18 4 c 12 8 c 4 11 c 0 8 c -4 11 c -12 8 c -18 3 c -12 0 c -19 -3 c -11 -8 c -4 -11 c
0 -8 c 80 -38 5455 2155 l 0 53 5455 2102 l 0 -38 5455 2223 l 34 -4 c -4 4 c -3 12 c 0 11 c 3 11 c 8 8 c 11 4 c 8 0 c 11 -4 c 8 -8 c
4 -11 c 0 -11 c -4 -12 c -4 -4 c -8 -3 c 0 -250 5707 1561 l 0 -38 5663 1678 l 34 -3 c -4 3 c -3 12 c 0 11 c 3 11 c 8 8 c 11 4 c
8 0 c 11 -4 c 8 -8 c 4 -11 c 0 -11 c -4 -12 c -4 -3 c -8 -4 c 53 -38 5663 1746 l 0 57 c 80 0 5663 1746 l 4 -11 5663 1803 l 8 -4 c
7 0 c 8 4 c 3 7 c 4 15 c 4 12 c 8 7 c 7 4 c 11 0 c 8 -4 c 4 -4 c 4 -11 c 0 -15 c -4 -11 c -4 -4 c -8 -4 c -11 0 c -7 4 c -8 7 c
-4 12 c -4 15 c -3 7 c -8 4 c -7 0 c -8 -4 c -4 -11 c 0 -15 c 4 -11 5663 1882 l 11 -8 c 19 -3 c 12 0 c 18 3 c 12 8 c 4 11 c 0 8 c
-4 11 c -12 8 c -18 3 c -12 0 c -19 -3 c -11 -8 c -4 -11 c 0 -8 c 4 -4 5735 1943 l 4 4 c -4 3 c -4 -3 c 4 -11 5663 1992 l 8 -4 c
7 0 c 8 4 c 3 7 c 4 15 c 4 12 c 8 7 c 7 4 c 11 0 c 8 -4 c 4 -4 c 4 -11 c 0 -15 c -4 -11 c -4 -4 c -8 -4 c -11 0 c -7 4 c -8 7 c
-4 12 c -4 15 c -3 7 c -8 4 c -7 0 c -8 -4 c -4 -11 c 0 -15 c 11 -4 5690 2098 l 8 -8 c 3 -11 c 0 -4 c -3 -11 c -8 -8 c -11 -3 c
-4 0 c -11 3 c -8 8 c -4 11 c 0 4 c 4 11 c 8 8 c 15 4 c 19 0 c 18 -4 c 12 -8 c 4 -11 c 0 -8 c -4 -11 c -8 -4 c -3 8 5678 2135 l
-12 11 c 80 0 c 0 -249 6078 2415 l 0 -37 6034 2532 l 34 -4 c -4 4 c -3 11 c 0 11 c 3 12 c 8 7 c 11 4 c 8 0 c 11 -4 c 8 -7 c 3 -12 c
0 -11 c -3 -11 c -4 -4 c -8 -4 c 53 -38 6034 2601 l 0 56 c 79 0 6034 2601 l 4 -11 6034 2657 l 7 -4 c 8 0 c 8 4 c 3 7 c 4 16 c 4 11 c
7 7 c 8 4 c 11 0 c 8 -4 c 4 -3 c 3 -12 c 0 -15 c -3 -11 c -4 -4 c -8 -4 c -11 0 c -8 4 c -7 8 c -4 11 c -4 15 c -3 8 c -8 3 c -8 0 c
-7 -3 c -4 -12 c 0 -15 c 53 -38 6034 2752 l 0 57 c 79 0 6034 2752 l 4 -4 6106 2797 l 3 4 c -3 4 c -4 -4 c -4 7 6049 2839 l -11 12 c
79 0 c 53 -38 6034 2941 l 0 57 c 79 0 6034 2941 l 79 -37 6034 3031 l 0 53 6034 2978 l 0 -250 6594 4256 l 0 -38 6550 4373 l 34 -3 c
-4 3 c -4 12 c 0 11 c 4 11 c 8 8 c 11 4 c 8 0 c 11 -4 c 7 -8 c 4 -11 c 0 -11 c -4 -12 c -3 -3 c -8 -4 c 53 -38 6550 4441 l 0 57 c
79 0 6550 4441 l 4 -11 6550 4498 l 7 -4 c 8 0 c 7 4 c 4 7 c 4 15 c 4 12 c 7 7 c 8 4 c 11 0 c 8 -4 c 3 -4 c 4 -11 c 0 -15 c -4 -11 c
-3 -4 c -8 -4 c -11 0 c -8 4 c -7 7 c -4 12 c -4 15 c -4 7 c -7 4 c -8 0 c -7 -4 c -4 -11 c 0 -15 c 4 -11 6550 4573 l 7 -4 c 8 0 c
7 4 c 4 8 c 4 15 c 4 11 c 7 8 c 8 4 c 11 0 c 8 -4 c 3 -4 c 4 -11 c 0 -16 c -4 -11 c -3 -4 c -8 -3 c -11 0 c -8 3 c -7 8 c -4 11 c
-4 15 c -4 8 c -7 4 c -8 0 c -7 -4 c -4 -11 c 0 -16 c 3 -4 6622 4638 l 4 4 c -4 4 c -3 -4 c -7 -4 6561 4717 l -4 -11 c 0 -8 c
4 -11 c 11 -7 c 19 -4 c 19 0 c 15 4 c 7 7 c 4 11 c 0 4 c -4 12 c -7 7 c -11 4 c -4 0 c -12 -4 c -7 -7 c -4 -12 c 0 -4 c 4 -11 c
7 -7 c 12 -4 c -4 0 6569 4747 l -8 4 c -3 4 c -4 7 c 0 16 c 4 7 c 3 4 c 8 4 c 8 0 c 7 -4 c 11 -8 c 38 -37 c 0 52 c 12 -3 6576 4868 l
7 -8 c 4 -11 c 0 -4 c -4 -11 c -7 -8 c -12 -4 c -3 0 c -12 4 c -7 8 c -4 11 c 0 4 c 4 11 c 7 8 c 15 3 c 19 0 c 19 -3 c 11 -8 c
4 -11 c 0 -8 c -4 -11 c -7 -4 c 0 -250 7061 2592 l 0 -38 7017 2709 l 34 -3 c -4 3 c -3 12 c 0 11 c 3 11 c 8 8 c 11 4 c 8 0 c 11 -4 c
8 -8 c 4 -11 c 0 -11 c -4 -12 c -4 -3 c -8 -4 c 53 -38 7017 2777 l 0 57 c 80 0 7017 2777 l 11 -4 7044 2864 l 7 -7 c 4 -11 c 0 -4 c
-4 -12 c -7 -7 c -11 -4 c -4 0 c -12 4 c -7 7 c -4 12 c 0 4 c 4 11 c 7 7 c 16 4 c 18 0 c 19 -4 c 12 -7 c 4 -11 c 0 -8 c -4 -11 c
-8 -4 c -4 0 7036 2894 l -7 4 c -4 4 c -4 8 c 0 15 c 4 7 c 4 4 c 7 4 c 8 0 c 7 -4 c 12 -8 c 38 -37 c 0 53 c 4 -4 7089 2974 l 4 4 c
-4 4 c -4 -4 c -7 -4 7028 3053 l -4 -11 c 0 -8 c 4 -11 c 11 -7 c 19 -4 c 19 0 c 15 4 c 8 7 c 4 11 c 0 4 c -4 12 c -8 7 c -11 4 c
-4 0 c -11 -4 c -8 -7 c -4 -12 c 0 -4 c 4 -11 c 8 -7 c 11 -4 c 53 -37 7017 3117 l 0 56 c 80 0 7017 3117 l 53 -38 7017 3193 l 0 57 c
80 0 7017 3193 l 0 -249 7126 1702 l 0 -38 7083 1819 l 34 -3 c -4 3 c -4 12 c 0 11 c 4 11 c 7 8 c 12 4 c 7 0 c 12 -4 c 7 -8 c 4 -11 c
0 -11 c -4 -12 c -4 -3 c -7 -4 c 52 -38 7083 1887 l 0 57 c 79 0 7083 1887 l 11 -4 7109 1974 l 8 -7 c 4 -11 c 0 -4 c -4 -12 c -8 -7 c
-11 -4 c -4 0 c -11 4 c -8 7 c -3 12 c 0 4 c 3 11 c 8 7 c 15 4 c 19 0 c 19 -4 c 11 -7 c 4 -11 c 0 -8 c -4 -11 c -7 -4 c
0 42 7083 2008 l 30 -23 c 0 11 c 4 8 c 3 4 c 12 4 c 7 0 c 12 -4 c 7 -8 c 4 -11 c 0 -11 c -4 -12 c -4 -4 c -7 -3 c 4 -4 7154 2084 l
4 4 c -4 4 c -4 -4 c -3 0 7101 2118 l -8 4 c -4 3 c -3 8 c 0 15 c 3 8 c 4 3 c 8 4 c 7 0 c 8 -4 c 11 -7 c 38 -38 c 0 53 c
3 -11 7083 2212 l 12 -8 c 19 -3 c 11 0 c 19 3 c 11 8 c 4 11 c 0 8 c -4 11 c -11 8 c -19 4 c -11 0 c -19 -4 c -12 -8 c -3 -11 c
0 -8 c 52 -38 7083 2303 l 0 57 c 79 0 7083 2303 l 0 -250 7258 1689 l 0 -38 7214 1806 l 34 -4 c -3 4 c -4 11 c 0 12 c 4 11 c 7 8 c
12 3 c 7 0 c 11 -3 c 8 -8 c 4 -11 c 0 -12 c -4 -11 c -4 -4 c -7 -3 c 53 -38 7214 1874 l 0 57 c 80 0 7214 1874 l 11 -4 7241 1961 l
8 -7 c 4 -12 c 0 -4 c -4 -11 c -8 -7 c -11 -4 c -4 0 c -11 4 c -8 7 c -4 11 c 0 4 c 4 12 c 8 7 c 15 4 c 19 0 c 19 -4 c 11 -7 c
4 -12 c 0 -7 c -4 -12 c -8 -3 c 53 -38 7214 2025 l 0 57 c 80 0 7214 2025 l 4 -4 7286 2071 l 4 4 c -4 3 c -4 -3 c 0 42 7214 2108 l
31 -23 c 0 12 c 3 7 c 4 4 c 12 4 c 7 0 c 11 -4 c 8 -8 c 4 -11 c 0 -11 c -4 -12 c -4 -3 c -7 -4 c 0 41 7214 2184 l 31 -22 c 0 11 c
3 8 c 4 3 c 12 4 c 7 0 c 11 -4 c 8 -7 c 4 -11 c 0 -12 c -4 -11 c -4 -4 c -7 -4 c -4 8 7230 2263 l -12 11 c 80 0 c 0 -250 7469 2481 l
0 -38 7426 2598 l 34 -4 c -4 4 c -4 11 c 0 12 c 4 11 c 8 8 c 11 3 c 7 0 c 12 -3 c 7 -8 c 4 -11 c 0 -12 c -4 -11 c -3 -4 c -8 -4 c
53 -38 7426 2666 l 0 57 c 79 0 7426 2666 l 12 -4 7452 2753 l 7 -8 c 4 -11 c 0 -4 c -4 -11 c -7 -8 c -12 -3 c -4 0 c -11 3 c -7 8 c
-4 11 c 0 4 c 4 11 c 7 8 c 15 4 c 19 0 c 19 -4 c 11 -8 c 4 -11 c 0 -7 c -4 -12 c -7 -4 c -7 -3 7437 2828 l -4 -12 c 0 -7 c 4 -12 c
11 -7 c 19 -4 c 19 0 c 15 4 c 7 7 c 4 12 c 0 3 c -4 12 c -7 7 c -12 4 c -3 0 c -12 -4 c -7 -7 c -4 -12 c 0 -3 c 4 -12 c 7 -7 c
12 -4 c 3 -3 7498 2862 l 4 3 c -4 4 c -3 -4 c -4 7 7441 2904 l -11 12 c 79 0 c 0 41 7426 2976 l 30 -22 c 0 11 c 4 8 c 4 3 c 11 4 c
7 0 c 12 -4 c 7 -7 c 4 -12 c 0 -11 c -4 -11 c -3 -4 c -8 -4 c 79 -38 7426 3097 l 0 53 7426 3044 l 0 -249 7837 7019 l
0 -38 7794 7136 l 34 -3 c -4 3 c -4 12 c 0 11 c 4 11 c 8 8 c 11 4 c 7 0 c 12 -4 c 7 -8 c 4 -11 c 0 -11 c -4 -12 c -3 -3 c -8 -4 c
53 -37 7794 7204 l 0 56 c 79 0 7794 7204 l 12 -4 7820 7291 l 7 -7 c 4 -11 c 0 -4 c -4 -12 c -7 -7 c -12 -4 c -4 0 c -11 4 c -7 7 c
-4 12 c 0 4 c 4 11 c 7 7 c 15 4 c 19 0 c 19 -4 c 11 -7 c 4 -11 c 0 -8 c -4 -11 c -7 -4 c 12 -4 7820 7367 l 7 -8 c 4 -11 c 0 -4 c
-4 -11 c -7 -8 c -12 -3 c -4 0 c -11 3 c -7 8 c -4 11 c 0 4 c 4 11 c 7 8 c 15 4 c 19 0 c 19 -4 c 11 -8 c 4 -11 c 0 -7 c -4 -12 c
-7 -4 c 3 -4 7866 7401 l 4 4 c -4 4 c -3 -4 c -4 0 7813 7435 l -8 4 c -3 3 c -4 8 c 0 15 c 4 8 c 3 3 c 8 4 c 7 0 c 8 -4 c 11 -7 c
38 -38 c 0 53 c 0 -38 7794 7552 l 34 -4 c -4 4 c -4 12 c 0 11 c 4 11 c 8 8 c 11 4 c 7 0 c 12 -4 c 7 -8 c 4 -11 c 0 -11 c -4 -12 c
-3 -4 c -8 -3 c 0 -38 7794 7628 l 34 -4 c -4 4 c -4 11 c 0 11 c 4 12 c 8 7 c 11 4 c 7 0 c 12 -4 c 7 -7 c 4 -12 c 0 -11 c -4 -11 c
-3 -4 c -8 -4 c 0 -250 8077 1404 l 0 -38 8034 1521 l 34 -3 c -4 3 c -4 12 c 0 11 c 4 11 c 8 8 c 11 4 c 8 0 c 11 -4 c 7 -8 c 4 -11 c
0 -11 c -4 -12 c -3 -3 c -8 -4 c 0 -38 8034 1597 l 34 -4 c -4 4 c -4 11 c 0 12 c 4 11 c 8 8 c 11 3 c 8 0 c 11 -3 c 7 -8 c 4 -11 c
0 -12 c -4 -11 c -3 -4 c -8 -4 c 4 -12 8034 1650 l 11 -7 c 19 -4 c 11 0 c 19 4 c 11 7 c 4 12 c 0 7 c -4 12 c -11 7 c -19 4 c -11 0 c
-19 -4 c -11 -7 c -4 -12 c 0 -7 c -4 8 8049 1714 l -11 11 c 79 0 c 3 -4 8106 1786 l 4 4 c -4 4 c -3 -4 c -4 0 8053 1820 l -8 4 c
-3 3 c -4 8 c 0 15 c 4 8 c 3 3 c 8 4 c 8 0 c 7 -4 c 11 -7 c 38 -38 c 0 53 c 4 -11 8034 1910 l 7 -4 c 8 0 c 7 4 c 4 8 c 4 15 c 4 11 c
7 8 c 8 4 c 11 0 c 8 -4 c 3 -4 c 4 -11 c 0 -16 c -4 -11 c -3 -4 c -8 -3 c -11 0 c -8 3 c -7 8 c -4 11 c -4 15 c -4 8 c -7 4 c -8 0 c
-7 -4 c -4 -11 c 0 -16 c -4 7 8049 1979 l -11 11 c 79 0 c 0 -250 8156 2403 l 0 -38 8113 2520 l 34 -4 c -4 4 c -4 12 c 0 11 c 4 11 c
7 8 c 12 4 c 7 0 c 12 -4 c 7 -8 c 4 -11 c 0 -11 c -4 -12 c -4 -4 c -7 -3 c 0 -38 8113 2596 l 34 -4 c -4 4 c -4 11 c 0 11 c 4 12 c
7 7 c 12 4 c 7 0 c 12 -4 c 7 -7 c 4 -12 c 0 -11 c -4 -11 c -4 -4 c -7 -4 c 3 -12 8113 2649 l 12 -7 c 19 -4 c 11 0 c 19 4 c 11 7 c
4 12 c 0 7 c -4 11 c -11 8 c -19 4 c -11 0 c -19 -4 c -12 -8 c -3 -11 c 0 -7 c -4 7 8128 2713 l -11 12 c 79 0 c 4 -4 8184 2785 l
4 4 c -4 3 c -4 -3 c 11 -4 8139 2864 l 8 -7 c 4 -12 c 0 -4 c -4 -11 c -8 -7 c -11 -4 c -4 0 c -11 4 c -8 7 c -3 11 c 0 4 c 3 12 c
8 7 c 15 4 c 19 0 c 19 -4 c 11 -7 c 4 -12 c 0 -7 c -4 -12 c -7 -3 c 52 -38 8113 2928 l 0 57 c 79 0 8113 2928 l 52 -38 8113 3004 l
0 57 c 79 0 8113 3004 l 0 -250 8437 2497 l 0 -38 8394 2614 l 34 -3 c -4 3 c -4 12 c 0 11 c 4 11 c 8 8 c 11 4 c 7 0 c 12 -4 c 7 -8 c
4 -11 c 0 -11 c -4 -12 c -3 -3 c -8 -4 c 0 -38 8394 2690 l 34 -4 c -4 4 c -4 11 c 0 12 c 4 11 c 8 8 c 11 3 c 7 0 c 12 -3 c 7 -8 c
4 -11 c 0 -12 c -4 -11 c -3 -4 c -8 -4 c 4 -12 8394 2743 l 11 -7 c 19 -4 c 11 0 c 19 4 c 11 7 c 4 12 c 0 7 c -4 12 c -11 7 c -19 4 c
-11 0 c -19 -4 c -11 -7 c -4 -12 c 0 -7 c 53 -37 8394 2833 l 0 56 c 79 0 8394 2833 l 3 -4 8466 2879 l 4 4 c -4 3 c -3 -3 c
0 41 8394 2917 l 30 -23 c 0 12 c 4 7 c 4 4 c 11 4 c 7 0 c 12 -4 c 7 -7 c 4 -12 c 0 -11 c -4 -11 c -3 -4 c -8 -4 c 4 -11 8394 3007 l
11 -8 c 19 -3 c 11 0 c 19 3 c 11 8 c 4 11 c 0 8 c -4 11 c -11 8 c -19 3 c -11 0 c -19 -3 c -11 -8 c -4 -11 c 0 -8 c -4 0 8413 3064 l
-8 4 c -3 3 c -4 8 c 0 15 c 4 8 c 3 3 c 8 4 c 7 0 c 8 -4 c 11 -7 c 38 -38 c 0 53 c 0 -250 8655 2080 l 0 -38 8611 2197 l 34 -4 c
-4 4 c -3 11 c 0 12 c 3 11 c 8 8 c 11 3 c 8 0 c 11 -3 c 8 -8 c 4 -11 c 0 -12 c -4 -11 c -4 -4 c -8 -4 c 0 -37 8611 2272 l 34 -4 c
-4 4 c -3 11 c 0 11 c 3 12 c 8 7 c 11 4 c 8 0 c 11 -4 c 8 -7 c 4 -12 c 0 -11 c -4 -11 c -4 -4 c -8 -4 c 4 -11 8611 2325 l 11 -8 c
19 -3 c 12 0 c 18 3 c 12 8 c 4 11 c 0 8 c -4 11 c -12 8 c -18 4 c -12 0 c -19 -4 c -11 -8 c -4 -11 c 0 -8 c -8 -3 8623 2427 l
-4 -12 c 0 -7 c 4 -12 c 11 -7 c 19 -4 c 19 0 c 15 4 c 8 7 c 4 12 c 0 4 c -4 11 c -8 7 c -11 4 c -4 0 c -11 -4 c -8 -7 c -4 -11 c
0 -4 c 4 -12 c 8 -7 c 11 -4 c 4 -3 8683 2461 l 4 3 c -4 4 c -4 -4 c -3 8 8626 2503 l -12 11 c 80 0 c -3 7 8626 2579 l -12 11 c
80 0 c 0 42 8611 2650 l 30 -23 c 0 12 c 4 7 c 4 4 c 11 4 c 8 0 c 11 -4 c 8 -8 c 4 -11 c 0 -11 c -4 -12 c -4 -3 c -8 -4 c
0 -249 8751 1269 l 0 -38 8707 1387 l 34 -4 c -4 4 c -4 11 c 0 11 c 4 12 c 8 7 c 11 4 c 8 0 c 11 -4 c 8 -7 c 3 -12 c 0 -11 c -3 -11 c
-4 -4 c -8 -4 c 0 -38 8707 1462 l 34 -3 c -4 3 c -4 12 c 0 11 c 4 11 c 8 8 c 11 4 c 8 0 c 11 -4 c 8 -8 c 3 -11 c 0 -11 c -3 -12 c
-4 -3 c -8 -4 c 4 -11 8707 1515 l 11 -8 c 19 -4 c 11 0 c 19 4 c 12 8 c 3 11 c 0 8 c -3 11 c -12 8 c -19 3 c -11 0 c -19 -3 c
-11 -8 c -4 -11 c 0 -8 c -7 -4 8718 1617 l -4 -11 c 0 -8 c 4 -11 c 11 -7 c 19 -4 c 19 0 c 15 4 c 8 7 c 3 11 c 0 4 c -3 12 c -8 7 c
-11 4 c -4 0 c -12 -4 c -7 -7 c -4 -12 c 0 -4 c 4 -11 c 7 -7 c 12 -4 c 4 -4 8779 1651 l 3 4 c -3 4 c -4 -4 c 12 -4 8733 1731 l
7 -8 c 4 -11 c 0 -4 c -4 -11 c -7 -8 c -12 -4 c -3 0 c -12 4 c -7 8 c -4 11 c 0 4 c 4 11 c 7 8 c 15 4 c 19 0 c 19 -4 c 12 -8 c
3 -11 c 0 -8 c -3 -11 c -8 -4 c -4 0 8726 1761 l -8 4 c -3 3 c -4 8 c 0 15 c 4 8 c 3 3 c 8 4 c 8 0 c 7 -4 c 11 -7 c 38 -38 c 0 53 c
4 -11 8707 1855 l 11 -8 c 19 -3 c 11 0 c 19 3 c 12 8 c 3 11 c 0 8 c -3 11 c -12 8 c -19 3 c -11 0 c -19 -3 c -11 -8 c -4 -11 c
0 -8 c 0 -249 8826 1515 l 0 -38 8782 1632 l 34 -3 c -3 3 c -4 12 c 0 11 c 4 11 c 7 8 c 12 4 c 7 0 c 11 -4 c 8 -8 c 4 -11 c 0 -11 c
-4 -12 c -4 -3 c -7 -4 c 0 -38 8782 1708 l 34 -4 c -3 4 c -4 11 c 0 12 c 4 11 c 7 8 c 12 3 c 7 0 c 11 -3 c 8 -8 c 4 -11 c 0 -12 c
-4 -11 c -4 -4 c -7 -4 c 4 -12 8782 1761 l 12 -7 c 18 -4 c 12 0 c 19 4 c 11 7 c 4 12 c 0 7 c -4 12 c -11 7 c -19 4 c -12 0 c
-18 -4 c -12 -7 c -4 -12 c 0 -7 c 80 -38 8782 1867 l 0 53 8782 1814 l 4 -4 8854 1897 l 4 4 c -4 4 c -4 -4 c 0 -37 8782 1972 l
34 -4 c -3 4 c -4 11 c 0 11 c 4 12 c 7 7 c 12 4 c 7 0 c 11 -4 c 8 -7 c 4 -12 c 0 -11 c -4 -11 c -4 -4 c -7 -4 c 0 42 8782 2010 l
31 -23 c 0 11 c 3 8 c 4 4 c 12 4 c 7 0 c 11 -4 c 8 -8 c 4 -11 c 0 -11 c -4 -12 c -4 -4 c -7 -3 c 4 -11 8782 2097 l 8 -4 c 7 0 c
8 4 c 4 7 c 3 15 c 4 12 c 8 7 c 7 4 c 12 0 c 7 -4 c 4 -3 c 4 -12 c 0 -15 c -4 -11 c -4 -4 c -7 -4 c -12 0 c -7 4 c -8 8 c -4 11 c
-3 15 c -4 8 c -8 3 c -7 0 c -8 -3 c -4 -12 c 0 -15 c 0 -250 8949 1386 l 0 -38 8905 1503 l 34 -4 c -4 4 c -4 11 c 0 12 c 4 11 c
8 7 c 11 4 c 8 0 c 11 -4 c 8 -7 c 3 -11 c 0 -12 c -3 -11 c -4 -4 c -8 -4 c 0 -38 8905 1578 l 34 -3 c -4 3 c -4 12 c 0 11 c 4 12 c
8 7 c 11 4 c 8 0 c 11 -4 c 8 -7 c 3 -12 c 0 -11 c -3 -12 c -4 -3 c -8 -4 c 4 -11 8905 1631 l 11 -8 c 19 -3 c 11 0 c 19 3 c 12 8 c
3 11 c 0 8 c -3 11 c -12 8 c -19 3 c -11 0 c -19 -3 c -11 -8 c -4 -11 c 0 -8 c 4 -11 8905 1703 l 7 -4 c 8 0 c 7 4 c 4 7 c 4 15 c
4 12 c 7 7 c 8 4 c 11 0 c 8 -4 c 4 -4 c 3 -11 c 0 -15 c -3 -11 c -4 -4 c -8 -4 c -11 0 c -8 4 c -7 7 c -4 12 c -4 15 c -4 7 c -7 4 c
-8 0 c -7 -4 c -4 -11 c 0 -15 c 4 -4 8977 1767 l 3 4 c -3 4 c -4 -4 c 0 -38 8905 1843 l 34 -4 c -4 4 c -4 11 c 0 12 c 4 11 c 8 8 c
11 3 c 8 0 c 11 -3 c 8 -8 c 3 -11 c 0 -12 c -3 -11 c -4 -4 c -8 -3 c 0 -37 8905 1918 l 34 -4 c -4 4 c -4 11 c 0 11 c 4 12 c 8 7 c
11 4 c 8 0 c 11 -4 c 8 -7 c 3 -12 c 0 -11 c -3 -11 c -4 -4 c -8 -4 c 12 -4 8931 1998 l 7 -8 c 4 -11 c 0 -4 c -4 -11 c -7 -8 c
-12 -3 c -3 0 c -12 3 c -7 8 c -4 11 c 0 4 c 4 11 c 7 8 c 15 4 c 19 0 c 19 -4 c 12 -8 c 3 -11 c 0 -7 c -3 -12 c -8 -4 c
0 -250 9122 2720 l 0 -38 9078 2837 l 34 -4 c -3 4 c -4 11 c 0 12 c 4 11 c 7 8 c 11 4 c 8 0 c 11 -4 c 8 -8 c 4 -11 c 0 -12 c -4 -11 c
-4 -4 c -7 -3 c 0 -38 9078 2913 l 34 -4 c -3 4 c -4 11 c 0 11 c 4 12 c 7 7 c 11 4 c 8 0 c 11 -4 c 8 -7 c 4 -12 c 0 -11 c -4 -11 c
-4 -4 c -7 -4 c 4 -11 9078 2965 l 11 -7 c 19 -4 c 12 0 c 19 4 c 11 7 c 4 11 c 0 8 c -4 11 c -11 8 c -19 4 c -12 0 c -19 -4 c
-11 -8 c -4 -11 c 0 -8 c 11 -3 9105 3067 l 8 -8 c 3 -11 c 0 -4 c -3 -11 c -8 -8 c -11 -4 c -4 0 c -11 4 c -8 8 c -4 11 c 0 4 c
4 11 c 8 8 c 15 3 c 19 0 c 19 -3 c 11 -8 c 4 -11 c 0 -8 c -4 -11 c -8 -4 c 4 -4 9150 3102 l 4 4 c -4 3 c -4 -3 c 11 -4 9105 3181 l
8 -7 c 3 -12 c 0 -4 c -3 -11 c -8 -7 c -11 -4 c -4 0 c -11 4 c -8 7 c -4 11 c 0 4 c 4 12 c 8 7 c 15 4 c 19 0 c 19 -4 c 11 -7 c
4 -12 c 0 -7 c -4 -12 c -8 -3 c 11 -3 9105 3256 l 8 -8 c 3 -11 c 0 -4 c -3 -11 c -8 -8 c -11 -4 c -4 0 c -11 4 c -8 8 c -4 11 c
0 4 c 4 11 c 8 8 c 15 3 c 19 0 c 19 -3 c 11 -8 c 4 -11 c 0 -8 c -4 -11 c -8 -4 c 53 -38 9078 3321 l 0 57 c 80 0 9078 3321 l
0 -249 9714 2198 l 0 -38 9671 2316 l 34 -4 c -4 4 c -4 11 c 0 11 c 4 12 c 8 7 c 11 4 c 7 0 c 12 -4 c 7 -7 c 4 -12 c 0 -11 c -4 -11 c
-3 -4 c -8 -4 c 0 -38 9671 2391 l 34 -3 c -4 3 c -4 12 c 0 11 c 4 11 c 8 8 c 11 4 c 7 0 c 12 -4 c 7 -8 c 4 -11 c 0 -11 c -4 -12 c
-3 -3 c -8 -4 c -4 7 9686 2433 l -11 12 c 79 0 c 53 -38 9671 2535 l 0 57 c 79 0 9671 2535 l 3 -4 9743 2580 l 4 4 c -4 4 c -3 -4 c
4 -11 9671 2629 l 7 -4 c 8 0 c 7 4 c 4 8 c 4 15 c 4 11 c 7 8 c 8 3 c 11 0 c 8 -3 c 3 -4 c 4 -12 c 0 -15 c -4 -11 c -3 -4 c -8 -4 c
-11 0 c -8 4 c -7 8 c -4 11 c -4 15 c -4 8 c -7 4 c -8 0 c -7 -4 c -4 -12 c 0 -15 c 79 -38 9671 2739 l 0 53 9671 2686 l
0 42 9671 2769 l 30 -23 c 0 11 c 4 8 c 4 4 c 11 3 c 7 0 c 12 -3 c 7 -8 c 4 -11 c 0 -12 c -4 -11 c -3 -4 c -8 -3 c
showpage PGPLOT restore
 
%%Trailer
%%DocumentFonts: 
%%Pages: 1
%%EOF
