%!PS-Adobe-3.0 EPSF-3.0
%%For: tom
%%Title: PGPLOT PostScript plot
%%Creator: PGPLOT
%%CreationDate:  9-Nov-1994 13:55
%%BoundingBox: 25 18 587 774
%%DocumentFonts: (atend)
%%LanguageLevel: 1
%%Orientation: Landscape
%%Pages: (atend)
%%EndComments
%%BeginProlog
/l {moveto rlineto currentpoint stroke moveto} bind def
/c {rlineto currentpoint stroke moveto} bind def
/d {moveto 0 0 rlineto currentpoint stroke moveto} bind def
/SLW {5 mul setlinewidth} bind def
/SCF /pop load def
/BP {newpath moveto} bind def
/LP /rlineto load def
/EP {rlineto closepath eofill} bind def
/MB {gsave translate MFAC dup scale 1 setlinewidth 2 setlinecap 0 setlinejoin newpath} bind def
/ME /grestore load def
/C {0 360 arc stroke} bind def
/FC {0 360 arc fill} bind def
%%EndProlog
 
%%Page: 1 1
%%BeginPageSetup
/PGPLOT save def
0.072 0.072 scale
8150 250 translate 90 rotate
1 setlinejoin 1 setlinecap 1 SLW 1 SCF
%%EndPageSetup
0.00 setgray 1 SLW 8939 0 780 780 l 0 6239 c -8939 0 c 0 -6239 c 0 -45 1116 780 l 0 -45 1554 780 l 0 -45 1991 780 l 0 -45 2428 780 l
0 -90 2865 780 l 0 -45 3302 780 l 0 -45 3739 780 l 0 -45 4176 780 l 0 -45 4613 780 l 0 -90 5051 780 l 0 -45 5488 780 l
0 -45 5925 780 l 0 -45 6362 780 l 0 -45 6799 780 l 0 -90 7236 780 l 0 -45 7673 780 l 0 -45 8110 780 l 0 -45 8548 780 l
0 -45 8985 780 l 0 -90 9422 780 l 0 -45 1116 7064 l 0 -45 1554 7064 l 0 -45 1991 7064 l 0 -45 2428 7064 l 0 -90 2865 7109 l
0 -45 3302 7064 l 0 -45 3739 7064 l 0 -45 4176 7064 l 0 -45 4613 7064 l 0 -90 5051 7109 l 0 -45 5488 7064 l 0 -45 5925 7064 l
0 -45 6362 7064 l 0 -45 6799 7064 l 0 -90 7236 7109 l 0 -45 7673 7064 l 0 -45 8110 7064 l 0 -45 8548 7064 l 0 -45 8985 7064 l
0 -90 9422 7109 l -60 0 2775 672 l -6 -54 c 6 6 c 18 6 c 18 0 c 18 -6 c 12 -12 c 6 -18 c 0 -12 c -6 -18 c -12 -12 c -18 -6 c -18 0 c
-18 6 c -6 6 c -6 12 c -18 -6 2859 672 l -12 -18 c -6 -30 c 0 -18 c 6 -30 c 12 -18 c 18 -6 c 12 0 c 18 6 c 12 18 c 6 30 c 0 18 c
-6 30 c -12 18 c -18 6 c -12 0 c -18 -6 2979 672 l -12 -18 c -6 -30 c 0 -18 c 6 -30 c 12 -18 c 18 -6 c 12 0 c 18 6 c 12 18 c 6 30 c
0 18 c -6 30 c -12 18 c -18 6 c -12 0 c 12 6 4847 648 l 18 18 c 0 -126 c -18 -6 4985 672 l -12 -18 c -6 -30 c 0 -18 c 6 -30 c
12 -18 c 18 -6 c 12 0 c 18 6 c 12 18 c 6 30 c 0 18 c -6 30 c -12 18 c -18 6 c -12 0 c -18 -6 5105 672 l -12 -18 c -6 -30 c 0 -18 c
6 -30 c 12 -18 c 18 -6 c 12 0 c 18 6 c 12 18 c 6 30 c 0 18 c -6 30 c -12 18 c -18 6 c -12 0 c -18 -6 5225 672 l -12 -18 c -6 -30 c
0 -18 c 6 -30 c 12 -18 c 18 -6 c 12 0 c 18 6 c 12 18 c 6 30 c 0 18 c -6 30 c -12 18 c -18 6 c -12 0 c 12 6 7032 648 l 18 18 c
0 -126 c -60 0 7206 672 l -6 -54 c 6 6 c 18 6 c 18 0 c 18 -6 c 12 -12 c 6 -18 c 0 -12 c -6 -18 c -12 -12 c -18 -6 c -18 0 c -18 6 c
-6 6 c -6 12 c -18 -6 7290 672 l -12 -18 c -6 -30 c 0 -18 c 6 -30 c 12 -18 c 18 -6 c 12 0 c 18 6 c 12 18 c 6 30 c 0 18 c -6 30 c
-12 18 c -18 6 c -12 0 c -18 -6 7410 672 l -12 -18 c -6 -30 c 0 -18 c 6 -30 c 12 -18 c 18 -6 c 12 0 c 18 6 c 12 18 c 6 30 c 0 18 c
-6 30 c -12 18 c -18 6 c -12 0 c 0 6 9206 642 l 6 12 c 6 6 c 12 6 c 24 0 c 12 -6 c 6 -6 c 6 -12 c 0 -12 c -6 -12 c -12 -18 c
-60 -60 c 84 0 c -18 -6 9356 672 l -12 -18 c -6 -30 c 0 -18 c 6 -30 c 12 -18 c 18 -6 c 12 0 c 18 6 c 12 18 c 6 30 c 0 18 c -6 30 c
-12 18 c -18 6 c -12 0 c -18 -6 9476 672 l -12 -18 c -6 -30 c 0 -18 c 6 -30 c 12 -18 c 18 -6 c 12 0 c 18 6 c 12 18 c 6 30 c 0 18 c
-6 30 c -12 18 c -18 6 c -12 0 c -18 -6 9596 672 l -12 -18 c -6 -30 c 0 -18 c 6 -30 c 12 -18 c 18 -6 c 12 0 c 18 6 c 12 18 c 6 30 c
0 18 c -6 30 c -12 18 c -18 6 c -12 0 c -90 0 780 780 l -45 0 780 1737 l -90 0 780 2694 l -45 0 780 3651 l -90 0 780 4608 l
-45 0 780 5565 l -90 0 780 6522 l -90 0 9809 780 l -45 0 9764 1737 l -90 0 9809 2694 l -45 0 9764 3651 l -90 0 9809 4608 l
-45 0 9764 5565 l -90 0 9809 6522 l 6 -18 517 774 l 18 -12 c 30 -6 c 18 0 c 30 6 c 18 12 c 6 18 c 0 12 c -6 18 c -18 12 c -30 6 c
-18 0 c -30 -6 c -18 -12 c -6 -18 c 0 -12 c -6 0 547 2436 l -12 6 c -6 6 c -6 12 c 0 24 c 6 12 c 6 6 c 12 6 c 12 0 c 12 -6 c
18 -12 c 60 -60 c 0 84 c 84 84 547 2556 l 84 -84 547 2640 l -6 12 541 2700 l -18 18 c 126 0 c 6 -18 517 2838 l 18 -12 c 30 -6 c
18 0 c 30 6 c 18 12 c 6 18 c 0 12 c -6 18 c -18 12 c -30 6 c -18 0 c -30 -6 c -18 -12 c -6 -18 c 0 -12 c 63 -45 453 2962 l 0 68 c
94 0 453 2962 l 84 -60 517 4404 l 0 90 c 126 0 517 4404 l 84 84 547 4470 l 84 -84 547 4554 l -6 12 541 4614 l -18 18 c 126 0 c
6 -18 517 4752 l 18 -12 c 30 -6 c 18 0 c 30 6 c 18 12 c 6 18 c 0 12 c -6 18 c -18 12 c -30 6 c -18 0 c -30 -6 c -18 -12 c -6 -18 c
0 -12 c 63 -45 453 4876 l 0 68 c 94 0 453 4876 l -12 -6 535 6336 l -6 -18 c 0 -12 c 6 -18 c 18 -12 c 30 -6 c 30 0 c 24 6 c 12 12 c
6 18 c 0 6 c -6 18 c -12 12 c -18 6 c -6 0 c -18 -6 c -12 -12 c -6 -18 c 0 -6 c 6 -18 c 12 -12 c 18 -6 c 84 84 547 6384 l
84 -84 547 6468 l -6 12 541 6528 l -18 18 c 126 0 c 6 -18 517 6666 l 18 -12 c 30 -6 c 18 0 c 30 6 c 18 12 c 6 18 c 0 12 c -6 18 c
-18 12 c -30 6 c -18 0 c -30 -6 c -18 -12 c -6 -18 c 0 -12 c 63 -45 453 6790 l 0 68 c 94 0 453 6790 l
4 2 780 793 l 5 5 c 4 22 c 4 89 c 5 203 c 4 91 c 4 -23 c 5 -137 c 4 -194 c 5 -54 c 4 1 c 4 4 c 5 1 c 4 -1 c 4 -4 c 5 -5 c 4 -1 c
5 -1 c 4 0 c 4 -1 c 5 0 c 4 0 c 4 0 c 5 1 c 4 1 c 5 2 c 4 0 c 4 0 c 5 -2 c 4 -2 c 4 0 c 5 -1 c 4 0 c 5 0 c 4 0 c 4 1 c 5 1 c 4 2 c
4 1 c 5 -1 c 4 -1 c 4 -1 c 5 -1 c 4 1 c 5 0 c 4 0 c 4 1 c 5 0 c 4 0 c 4 -1 c 5 -1 c 4 0 c 5 0 c 4 0 c 4 1 c 5 -1 c 4 1 c 4 1 c 5 3 c
4 8 c 5 20 c 4 97 c 4 115 c 5 19 c 4 -35 c 4 -123 c 5 -88 c 4 -13 c 5 -3 c 4 -1 c 4 0 c 5 0 c 4 1 c 4 0 c 5 0 c 4 1 c 4 1 c 5 2 c
4 5 c 5 17 c 4 56 c 4 33 c 5 13 c 4 -140 c 5 39 1151 780 l 4 6 c 5 67 c 4 290 c 4 934 c 5 430 c 4 -46 c 4 -533 c 5 -874 c 4 -241 c
5 -45 c 4 -9 c 4 -3 c 5 -1 c 4 0 c 4 -1 c 5 -1 c 4 0 c 5 0 c 4 0 c 4 0 c 5 1 c 4 1 c 4 1 c 5 0 c 4 0 c 4 4 c 5 3 c 4 -1 c 5 -2 c
4 -5 c 4 -3 c 5 0 c 4 0 c 4 0 c 5 0 c 4 1 c 5 -1 c 4 0 c 4 0 c 5 0 c 4 0 c 4 6 c 5 9 c 4 3 c 5 -2 c 4 -4 c 4 -4 c 5 -1 c 4 -1 c
4 -2 c 5 -3 c 4 0 c 5 0 c 4 0 c 4 -1 c 5 0 c 4 -1 c 4 0 c 5 0 c 4 0 c 4 1 c 5 0 c 4 0 c 5 0 c 4 0 c 4 0 c 5 3 c 4 14 c 4 61 c 5 50 c
4 6 c 5 -19 c 4 -73 c 4 -12 c 5 16 c 4 19 c 4 9 c 5 -10 c 4 -15 c 5 -14 c 4 -14 c 4 -6 c 5 -5 c 4 -3 c 4 -2 c 5 -1 c 4 -1 c 4 -1 c
5 -1 c 4 1 c 5 1 c 4 10 c 4 50 c 5 201 c 4 139 c 4 10 c 5 -83 c 4 -227 c 5 -92 c 4 -7 c 4 -1 c 5 0 c 4 0 c 4 1 c 5 0 c 4 2 c 5 8 c
4 33 c 4 32 c 5 6 c 4 -10 c 4 -39 c 5 -24 c 4 -6 c 5 -3 c 4 -1 c 4 0 c 5 0 c 4 0 c 4 -1 c 5 1 c 4 3 c 4 1 c 5 0 c 4 -3 c 5 -2 c
4 5 c 4 13 c 5 6 c 4 -1 c 4 -8 c 5 -10 c 4 -2 c 5 1 c 4 -1 c 4 -1 c 5 0 c 4 0 c 4 -1 c 5 0 c 4 -1 c 5 -1 c 4 0 c 4 -1 c 5 1 c 4 -1 c
4 1 c 5 0 c 4 1 c 5 0 c 4 0 c 4 0 c 5 2 c 4 8 c 4 9 c 5 2 c 4 1 c 4 -5 c 5 -5 c 4 0 c 5 10 c 4 2 c 4 -4 c 5 -7 c 4 -10 c 4 -2 c
5 -1 c 4 -1 c 5 0 c 4 0 c 4 -1 c 5 0 c 4 1 c 4 0 c 5 0 c 4 2 c 5 1 c 4 0 c 4 1 c 5 -1 c 4 7 c 4 44 c 5 53 c 4 5 c 5 -16 c 4 -62 c
4 -28 c 5 1 c 4 0 c 4 0 c 5 -2 c 4 -4 c 4 -1 c 5 0 c 4 1 c 5 1 c 4 0 c 4 0 c 5 -1 c 4 0 c 4 1 c 5 -1 c 4 1 c 5 3 c 4 7 c 4 3 c 5 1 c
4 -4 c 4 -7 c 5 -4 c 4 -1 c 5 -1 c 4 1 c 4 0 c 5 0 c 4 0 c 4 -1 c 5 2 c 4 0 c 5 6 c 4 23 c 4 22 c 5 4 c 4 -7 c 4 -27 c 5 -16 c
4 -4 c 4 -1 c 5 -1 c 4 0 c 5 1 c 4 1 c 4 1 c 5 0 c 4 -1 c 4 -1 c 5 0 c 4 1 c 5 0 c 4 4 c 4 17 c 5 60 c 4 49 c 4 5 c 5 -27 c 4 -65 c
5 -33 c 4 -8 c 4 -2 c 5 0 c 4 0 c 4 0 c 5 -1 c 4 1 c 4 1 c 5 -1 c 4 0 c 5 0 c 4 1 c 4 0 c 5 0 c 4 -1 c 4 -1 c 5 0 c 4 0 c 5 2 c
4 2 c 4 -1 c 5 -1 c 4 -1 c 4 0 c 5 1 c 4 -2 c 5 -1 c 4 -1 c 4 0 c 5 0 c 4 0 c 4 0 c 5 1 c 4 1 c 5 0 c 4 0 c 4 -1 c 5 0 c 4 0 c 4 1 c
5 0 c 4 1 c 4 0 c 5 -1 c 4 0 c 5 0 c 4 0 c 4 0 c 5 0 c 4 0 c 4 1 c 5 -1 c 4 1 c 5 -1 c 4 0 c 4 0 c 5 0 c 4 0 c 4 1 c 5 1 c 4 1 c
5 10 c 4 7 c 4 2 c 5 6 c 4 -5 c 4 -4 c 5 -2 c 4 -8 c 5 2 c 4 50 c 4 263 c 5 263 c 4 22 c 4 -67 c 5 -304 c 4 -153 c 4 -24 c 5 -22 c
4 -24 c 5 -9 c 4 -2 c 4 -1 c 5 -1 c 4 0 c 4 0 c 5 1 c 4 1 c 5 -1 c 4 -1 c 4 -1 c 5 1 c 4 0 c 4 0 c 5 -1 c 4 -1 c 5 0 c 4 1 c 4 0 c
5 1 c 4 2 c 4 0 c 5 0 c 4 1 c 5 2 c 4 1 c 4 -2 c 5 -3 c 4 -2 c 4 1 c 5 2 c 4 0 c 4 -1 c 5 -2 c 4 0 c 5 0 c 4 1 c 4 1 c 5 2 c 4 7 c
4 65 c 5 108 c 4 40 c 5 7 c 4 -86 c 4 -97 c 5 -26 c 4 -11 c 4 1 c 5 -1 c 4 0 c 5 -7 c 4 -5 c 4 0 c 5 3 c 4 2 c 4 0 c 5 0 c 4 -3 c
4 -2 c 5 0 c 4 0 c 5 0 c 4 1 c 4 0 c 5 -1 c 4 0 c 4 1 c 5 1 c 4 7 c 5 4 c 4 1 c 4 -3 c 5 -7 c 4 -2 c 4 2 c 5 1 c 4 -1 c 5 -2 c
4 -2 c 4 0 c 5 0 c 4 1 c 4 2 c 5 0 c 4 0 c 5 -2 c 4 -1 c 4 0 c 5 0 c 4 2 c 4 7 c 5 22 c 4 19 c 4 0 c 5 -8 c 4 -23 c 5 -11 c 4 -1 c
4 2 c 5 0 c 4 0 c 4 -3 c 5 0 c 4 2 c 5 3 c 4 35 c 4 174 c 5 124 c 4 11 c 4 -48 c 5 -211 c 4 -89 c 5 -5 c 4 1 c 4 4 c 5 4 c 4 2 c
4 -1 c 5 -4 c 4 -3 c 5 -2 c 4 -1 c 4 -1 c 5 5 c 4 25 c 4 13 c 5 0 c 4 -9 c 4 -25 c 5 -8 c 4 -1 c 5 0 c 4 0 c 4 1 c 5 1 c 4 1 c 4 5 c
5 57 c 4 127 c 5 49 c 4 2 c 4 -80 c 5 -119 c 4 -30 c 4 0 c 5 7 c 4 5 c 5 -1 c 4 -7 c 4 -8 c 5 -3 c 4 0 c 4 1 c 5 5 c 4 87 c 5 262 c
4 112 c 4 21 c 5 -81 c 4 -242 c 4 -70 c 5 -34 c 4 -38 c 4 -15 c 5 1 c 4 17 c 5 12 c 4 4 c 4 3 c 5 -6 c 4 -1 c 4 -4 c 5 -17 c 4 -12 c
5 -6 c 4 -1 c 4 -1 c 5 -1 c 4 -1 c 4 0 c 5 0 c 4 0 c 5 1 c 4 2 c 4 12 c 5 9 c 4 -1 c 4 -2 c 5 -12 c 4 -5 c 5 2 c 4 9 c 4 122 c
5 399 c 4 177 c 4 16 c 5 -126 c 4 -412 c 4 -101 c 5 -23 c 4 -13 c 5 5 c 4 -7 c 4 -19 c 5 -22 c 4 4 c 4 122 c 5 420 c 4 190 c 5 3 c
4 -188 c 4 -435 c 5 -117 c 4 1 c 4 38 c 5 26 c 4 0 c 5 -8 c 4 -44 c 4 -18 c 5 -1 c 4 0 c 4 -3 c 5 -1 c 4 0 c 4 0 c 5 2 c 4 8 c
5 14 c 4 5 c 4 -2 c 5 -10 c 4 -12 c 4 -5 c 5 0 c 4 -1 c 5 1 c 4 1 c 4 4 c 5 2 c 4 0 c 4 -1 c 5 -4 c 4 -1 c 5 -2 c 4 1 c 4 0 c 5 0 c
4 -1 c 4 0 c 5 2 c 4 3 c 5 3 c 4 2 c 4 -1 c 5 -3 c 4 -1 c 4 5 c 5 4 c 4 1 c 4 0 c 5 -7 c 4 -3 c 5 1 c 4 22 c 4 179 c 5 187 c 4 27 c
4 -26 c 5 -222 c 4 -145 c 5 0 c 4 35 c 4 14 c 5 -1 c 4 -18 c 4 -34 c 5 -12 c 4 -2 c 5 -2 c 4 -2 c 4 -1 c 5 1 c 4 1 c 4 0 c 5 0 c
4 3 c 5 27 c 4 226 c 4 256 c 5 42 c 4 -53 c 4 -280 c 5 -199 c 4 -22 c 4 -1 c 5 0 c 4 -1 c 5 -1 c 4 -2 c 4 0 c 5 0 c 4 0 c 4 0 c
5 0 c 4 1 c 5 0 c 4 1 c 4 -1 c 5 -1 c 4 -1 c 4 0 c 5 2 c 4 1 c 5 1 c 4 1 c 4 -2 c 5 -2 c 4 1 c 4 0 c 5 0 c 4 1 c 5 4 c 4 3 c 4 -1 c
5 -1 c 4 -4 c 4 -2 c 5 0 c 4 2 c 4 16 c 5 137 c 4 180 c 5 31 c 4 -18 c 4 -167 c 5 -142 c 4 -20 c 4 -7 c 5 3 c 4 4 c 5 2 c 4 16 c
4 53 c 5 18 c 4 2 c 4 -26 c 5 -65 c 4 -14 c 5 -7 c 4 -1 c 4 0 c 5 0 c 4 1 c 4 0 c 5 1 c 4 -1 c 5 0 c 4 0 c 4 2 c 5 1 c 4 0 c 4 -2 c
5 -1 c 4 0 c 4 0 c 5 0 c 4 0 c 5 2 c 4 4 c 4 2 c 5 1 c 4 30 c 4 79 c 5 30 c 4 4 c 5 -35 c 4 -85 c 4 -24 c 5 -6 c 4 -1 c 4 0 c 5 -1 c
4 0 c 5 1 c 4 0 c 4 1 c 5 0 c 4 1 c 4 0 c 5 1 c 4 1 c 4 1 c 5 0 c 4 -2 c 5 1 c 4 9 c 4 92 c 5 268 c 4 124 c 4 42 c 5 -43 c 4 -226 c
5 -61 c 4 -60 c 4 -80 c 5 -48 c 4 -15 c 4 -3 c 5 0 c 4 -2 c 5 -1 c 4 0 c 4 2 c 5 3 c 4 2 c 4 2 c 5 2 c 4 -4 c 5 -2 c 4 -3 c 4 -2 c
5 0 c 4 1 c 4 1 c 5 -1 c 4 0 c 4 0 c 5 0 c 4 0 c 5 -2 c 4 0 c 4 0 c 5 1 c 4 16 c 4 59 c 5 27 c 4 2 c 5 -19 c 4 -59 c 4 -21 c 5 1 c
4 0 c 4 -1 c 5 0 c 4 3 c 5 28 c 4 269 c 4 537 c 5 157 c 4 -52 c 4 -350 c 5 -487 c 4 -104 c 5 -4 c 4 -1 c 4 0 c 5 0 c 4 0 c 4 2 c
5 0 c 4 0 c 4 0 c 5 5 c 4 9 c 5 7 c 4 13 c 4 -2 c 5 -9 c 4 0 c 4 14 c 5 10 c 4 11 c 5 53 c 4 25 c 4 -4 c 5 -17 c 4 -75 c 4 -40 c
5 -5 c 4 1 c 5 1 c 4 2 c 4 1 c 5 3 c 4 1 c 4 0 c 5 -1 c 4 -4 c 5 -3 c 4 1 c 4 0 c 5 2 c 4 0 c 4 0 c 5 0 c 4 -1 c 4 0 c 5 0 c 4 1 c
5 1 c 4 8 c 4 23 c 5 22 c 4 22 c 4 7 c 5 -15 c 4 -3 c 5 -4 c 4 -12 c 4 -6 c 5 -17 c 4 -17 c 4 -3 c 5 0 c 4 3 c 5 1 c 4 6 c 4 9 c
5 14 c 4 92 c 4 1005 c 5 2535 c 4 1169 c 5 -67 c 4 -1315 c 4 -2591 c 5 -792 c 4 -49 c 4 -9 c 5 -6 c 4 -3 c 4 -1 c 5 -1 c 4 -1 c
5 0 c 4 6 c 4 78 c 5 164 c 4 75 c 4 -13 c 5 -100 c 4 -161 c 5 -52 c 4 -2 c 4 1 c 5 2 c 4 1 c 4 -1 c 5 0 c 4 -3 c 5 -1 c 4 0 c 4 1 c
5 0 c 4 1 c 4 0 c 5 1 c 4 2 c 4 2 c 5 1 c 4 1 c 5 1 c 4 7 c 4 26 c 5 38 c 4 71 c 4 731 c 5 2277 c 4 1223 c 5 97 c 4 -864 c 4 -2458 c
5 -997 c 4 -99 c 4 -29 c 5 -9 c 4 -4 c 5 -1 c 4 1 c 4 22 c 5 263 c 4 956 c 4 492 c 5 50 c 4 -277 c 5 -1001 c 4 -396 c 4 -34 c 5 -1 c
4 7 c 4 125 c 5 460 c 4 238 c 4 -10 c 5 -145 c 4 -522 c 5 -220 c 4 -22 c 4 -1 c 5 -1 c 4 -1 c 4 0 c 5 -1 c 4 -1 c 5 0 c 4 0 c 4 1 c
5 0 c 4 3 c 4 7 c 5 10 c 4 10 c 5 6 c 4 -4 c 4 -9 c 5 -10 c 4 -11 c 4 -3 c 5 1 c 4 0 c 5 -1 c 4 -2 c 4 0 c 5 -1 c 4 1 c 4 5 c 5 5 c
4 9 c 4 7 c 5 -3 c 4 -7 c 5 -8 c 4 -4 c 4 0 c 5 0 c 4 -1 c 4 -1 c 5 0 c 4 1 c 5 -2 c 4 -1 c 4 -1 c 5 -1 c 4 1 c 4 0 c 5 0 c 4 0 c
5 1 c 4 0 c 4 0 c 5 2 c 4 4 c 4 20 c 5 46 c 4 22 c 5 2 c 4 -23 c 4 -48 c 5 -17 c 4 -4 c 4 -2 c 5 -1 c 4 -1 c 4 -1 c 5 0 c 4 0 c
5 -1 c 4 0 c 4 1 c 5 0 c 4 1 c 4 0 c 5 -1 c 4 -1 c 5 0 c 4 2 c 4 1 c 5 2 c 4 0 c 4 0 c 5 -1 c 4 -2 c 5 -2 c 4 0 c 4 0 c 5 1 c 4 -1 c
4 1 c 5 0 c 4 0 c 4 0 c 5 0 c 4 0 c 5 0 c 4 1 c 4 2 c 5 2 c 4 0 c 4 0 c 5 -2 c 4 -1 c 5 0 c 4 0 c 4 1 c 5 1 c 4 1 c 4 3 c 5 0 c
4 1 c 5 0 c 4 -23 c 4 25 c 5 11 c 4 95 c 4 294 c 5 164 c 4 10 c 5 -99 c 4 -314 c 4 -122 c 5 1 c 4 10 c 4 -3 c 5 -15 c 4 -25 c
4 -10 c 5 -3 c 4 1 c 5 0 c 4 0 c 4 10 c 5 16 c 4 6 c 4 2 c 5 -1 c 4 2 c 5 1 c 4 6 c 4 86 c 5 368 c 4 272 c 4 12 c 5 -125 c 4 -398 c
5 -229 c 4 -28 c 4 -3 c 5 -2 c 4 0 c 4 0 c 5 0 c 4 0 c 5 -1 c 4 0 c 4 0 c 5 0 c 4 1 c 4 0 c 5 0 c 4 0 c 4 0 c 5 0 c 4 -1 c 5 -1 c
4 0 c 4 1 c 5 0 c 4 0 c 4 2 c 5 0 c 4 0 c 5 0 c 4 -1 c 4 -2 c 5 2 c 4 1 c 4 1 c 5 0 c 4 1 c 5 0 c 4 0 c 4 0 c 5 -2 c 4 -1 c 4 4 c
5 4 c 4 2 c 5 1 c 4 -4 c 4 -3 c 5 0 c 4 -3 c 4 0 c 5 0 c 4 1 c 4 2 c 5 2 c 4 1 c 5 0 c 4 3 c 4 13 c 5 138 c 4 851 c 4 955 c 5 126 c
4 -142 c 5 -959 c 4 -836 c 4 -134 c 5 -7 c 4 -2 c 4 -1 c 5 -4 c 4 -3 c 5 -1 c 4 -1 c 4 7 c 5 35 c 4 27 c 4 2 c 5 -12 c 4 -33 c
5 -26 c 4 -2 c 4 0 c 5 0 c 4 0 c 4 1 c 5 0 c 4 -1 c 4 0 c 5 1 c 4 0 c 5 0 c 4 1 c 4 -2 c 5 -1 c 4 -2 c 4 1 c 5 -1 c 4 1 c 5 2 c
4 0 c 4 0 c 5 0 c 4 0 c 4 0 c 5 5 c 4 5 c 5 4 c 4 12 c 4 28 c 5 5 c 4 -1 c 4 -17 c 5 -32 c 4 -9 c 4 0 c 5 0 c 4 9 c 5 42 c 4 27 c
4 2 c 5 -10 c 4 -43 c 4 -22 c 5 -2 c 4 0 c 5 -1 c 4 -2 c 4 -1 c 5 0 c 4 0 c 4 3 c 5 8 c 4 2 c 5 0 c 4 -1 c 4 -6 c 5 -2 c 4 0 c
4 -2 c 5 -2 c 4 0 c 5 0 c 4 0 c 4 3 c 5 2 c 4 1 c 4 -2 c 5 -2 c 4 3 c 4 5 c 5 2 c 4 0 c 5 -3 c 4 -5 c 4 -2 c 5 0 c 4 -2 c 4 0 c
5 0 c 4 1 c 5 1 c 4 1 c 4 2 c 5 9 c 4 16 c 4 17 c 5 4 c 4 -9 c 5 -15 c 4 -15 c 4 -2 c 5 1 c 4 1 c 4 -27 c 5 30 c 4 6 c 5 15 c
4 146 c 4 835 c 5 779 c 4 98 c 4 -157 c 5 -908 c 4 -698 c 4 -112 c 5 10 c 4 83 c 5 48 c 4 9 c 4 -16 c 5 -84 c 4 -56 c 4 -7 c 5 -2 c
4 -1 c 5 -1 c 4 0 c 4 0 c 5 0 c 4 0 c 4 0 c 5 0 c 4 1 c 5 0 c 4 1 c 4 1 c 5 5 c 4 15 c 4 37 c 5 160 c 4 130 c 5 6 c 4 -29 c 4 -170 c
5 -128 c 4 -15 c 4 1 c 5 -2 c 4 -5 c 4 -4 c 5 -1 c 4 0 c 5 0 c 4 1 c 4 2 c 5 3 c 4 12 c 4 121 c 5 909 c 4 945 c 5 172 c 4 -85 c
4 -921 c 5 -976 c 4 -161 c 4 -15 c 5 -4 c 4 -1 c 5 -2 c 4 1 c 4 2 c 5 1 c 4 -1 c 4 -1 c 5 -3 c 4 -2 c 5 0 c 4 0 c 4 2 c 5 0 c 4 1 c
4 -1 c 5 2 c 4 4 c 4 1 c 5 -1 c 4 1 c 5 12 c 4 22 c 4 10 c 5 -2 c 4 -13 c 4 -23 c 5 -8 c 4 -3 c 5 0 c 4 4 c 4 0 c 5 1 c 4 -3 c
4 -5 c 5 0 c 4 0 c 5 0 c 4 1 c 4 -1 c 5 2 c 4 4 c 4 1 c 5 0 c 4 -1 c 4 -4 c 5 -1 c 4 -1 c 5 0 c 4 0 c 4 0 c 5 0 c 4 0 c 4 1 c 5 1 c
4 3 c 5 7 c 4 89 c 4 517 c 5 475 c 4 132 c 4 4 c 5 -516 c 4 -461 c 5 -106 c 4 -78 c 4 9 c 5 62 c 4 112 c 4 208 c 5 38 c 4 -67 c
5 -120 c 4 -208 c 4 -81 c 5 -4 c 4 12 c 4 87 c 5 169 c 4 64 c 4 -10 c 5 -85 c 4 -184 c 5 -65 c 4 -3 c 4 0 c 5 1 c 4 -1 c 4 0 c
5 -1 c 4 1 c 5 0 c 4 1 c 4 3 c 5 4 c 4 0 c 4 -1 c 5 -3 c 4 -4 c 5 2 c 4 2 c 4 1 c 5 1 c 4 7 c 4 34 c 5 35 c 4 10 c 5 -5 c 4 -36 c
4 -27 c 5 -5 c 4 -3 c 4 -3 c 5 -7 c 4 -6 c 4 -2 c 5 1 c 4 2 c 5 0 c 4 -1 c 4 0 c 5 -1 c 4 0 c 4 7 c 5 16 c 4 6 c 5 -2 c 4 -7 c
4 -17 c 5 -7 c 4 0 c 4 0 c 5 2 c 4 0 c 5 0 c 4 1 c 4 -1 c 5 0 c 4 1 c 4 0 c 5 -1 c 4 -1 c 5 -1 c 4 0 c 4 1 c 5 0 c 4 0 c 4 0 c
5 -1 c 4 0 c 4 0 c 5 1 c 4 0 c 5 0 c 4 -1 c 4 -1 c 5 0 c 4 0 c 4 0 c 5 1 c 4 1 c 5 1 c 4 3 c 4 11 c 5 5 c 4 1 c 4 -5 c 5 -10 c 4 0 c
5 37 c 4 27 c 4 5 c 5 -4 c 4 -37 c 4 -28 c 5 -5 c 4 1 c 5 5 c 4 1 c 4 0 c 5 -4 c 4 -3 c 4 0 c 5 0 c 4 0 c 4 -1 c 5 -1 c 4 0 c 5 1 c
4 1 c 4 4 c 5 2 c 4 0 c 4 -1 c 5 -4 c 4 -1 c 5 0 c 4 0 c 4 -1 c 5 -1 c 4 0 c 4 0 c 5 1 c 4 0 c 5 -1 c 4 -1 c 4 0 c 5 0 c 4 -1 c
4 1 c 5 0 c 4 0 c 4 -1 c 5 1 c 4 0 c 5 0 c 4 1 c 4 1 c 5 1 c 4 0 c 4 0 c 5 -1 c 4 -1 c 5 0 c 4 1 c 4 4 c 5 0 c 4 -1 c 4 -2 c 5 -3 c
4 0 c 5 1 c 4 2 c 4 0 c 5 0 c 4 -1 c 4 -2 c 5 1 c 4 -1 c 5 2 c 4 4 c 4 4 c 5 1 c 4 -1 c 4 -5 c 5 -3 c 4 -1 c 4 -1 c 5 0 c 4 1 c
5 0 c 4 2 c 4 0 c 5 1 c 4 -1 c 4 -2 c 5 -1 c 4 -1 c 5 1 c 4 0 c 4 0 c 5 0 c 4 0 c 4 2 c 5 8 c 4 3 c 5 0 c 4 -1 c 4 -8 c 5 -1 c
4 16 c 4 18 c 5 9 c 4 12 c 5 -14 c 4 -16 c 4 -7 c 5 -11 c 4 -3 c 4 0 c 5 -2 c 4 -3 c 4 -2 c 5 0 c 4 0 c 5 0 c 4 -1 c 4 0 c 5 1 c
4 1 c 4 0 c 5 0 c 4 -1 c 5 -1 c 4 0 c 4 0 c 5 0 c 4 0 c 4 1 c 5 0 c 4 1 c 5 3 c 4 2 c 4 2 c 5 8 c 4 5 c 4 13 c 5 6 c 4 -4 c 5 -5 c
4 -14 c 4 -11 c 5 -3 c 4 -3 c 4 0 c 5 2 c 4 8 c 4 4 c 5 0 c 4 -2 c 5 -8 c 4 -5 c 4 -1 c 5 0 c 4 1 c 4 -1 c 5 0 c 4 0 c 5 1 c 4 0 c
4 0 c 5 0 c 4 1 c 4 -1 c 5 1 c 4 0 c 5 1 c 4 0 c 4 0 c 5 -1 c 4 -1 c 4 0 c 5 0 c 4 0 c 4 1 c 5 0 c 4 1 c 5 2 c 4 -1 c 4 0 c 5 0 c
4 6 c 4 9 c 5 19 c 4 18 c 5 -4 c 4 -11 c 4 -20 c 5 -18 c 4 -2 c 4 0 c 5 1 c 4 -1 c 5 1 c 4 -1 c 4 1 c 5 1 c 4 5 c 4 31 c 5 29 c
4 2 c 5 -2 c 4 -25 c 4 -31 c 5 -5 c 4 -2 c 4 -2 c 5 -1 c 4 -1 c 4 0 c 5 0 c 4 0 c 5 1 c 4 1 c 4 2 c 5 0 c 4 -1 c 4 0 c 5 4 c 4 5 c
5 2 c 4 1 c 4 -6 c 5 -6 c 4 -1 c 4 -2 c 5 0 c 4 1 c 5 2 c 4 0 c 4 1 c 5 0 c 4 -2 c 4 1 c 5 1 c 4 4 c 5 3 c 4 -1 c 4 -1 c 5 -4 c
4 -1 c 4 0 c 5 0 c 4 -1 c 4 0 c 5 -1 c 4 -1 c 5 0 c 4 0 c 4 0 c 5 1 c 4 1 c 4 2 c 5 -1 c 4 -1 c 5 -1 c 4 0 c 4 1 c 5 0 c 4 0 c 4 0 c
5 -1 c 4 0 c 5 2 c 4 0 c 4 -1 c 5 0 c 4 -1 c 4 0 c 5 1 c 4 0 c 5 1 c 4 1 c 4 0 c 5 0 c 4 2 c 4 3 c 5 10 c 4 11 c 4 6 c 5 3 c 4 -3 c
5 0 c 4 25 c 4 228 c 5 1978 c 4 3125 c 4 651 c 5 -106 c 4 -1580 c 5 -3369 c 4 -902 c 4 -55 c 5 -7 c 4 -5 c 4 -4 c 5 -2 c 4 0 c
5 -2 c 4 0 c 4 -3 c 5 -3 c 4 -2 c 4 1 c 5 4 c 4 6 c 5 1 c 4 0 c 4 -4 c 5 -4 c 4 -1 c 4 3 c 5 15 c 4 15 c 4 4 c 5 -2 c 4 -14 c
5 -18 c 4 -4 c 4 -2 c 5 -2 c 4 0 c 4 0 c 5 -1 c 4 1 c 5 2 c 4 6 c 4 1 c 5 2 c 4 -3 c 4 -4 c 5 -3 c 4 1 c 5 5 c 4 57 c 4 135 c 5 48 c
4 3 c 4 -46 c 5 -133 c 4 -67 c 4 -2 c 5 0 c 4 1 c 5 2 c 4 -1 c 4 -1 c 5 -2 c 4 2 c 4 10 c 5 19 c 4 11 c 5 6 c 4 -7 c 4 -18 c 5 -12 c
4 -7 c 4 -4 c 5 -1 c 4 -1 c 5 0 c 4 1 c 4 2 c 5 5 c 4 59 c 4 283 c 5 259 c 4 8 c 5 -41 c 4 -246 c 4 -286 c 5 -40 c 4 -3 c 4 -1 c
5 0 c 4 1 c 4 1 c 5 1 c 4 -1 c 5 1 c 4 -1 c 4 0 c 5 3 c 4 25 c 4 57 c 5 41 c 4 2 c 5 -21 c 4 -52 c 4 -48 c 5 -7 c 4 0 c 4 0 c 5 -1 c
4 9 c 5 28 c 4 29 c 4 11 c 5 0 c 4 -17 c 4 -30 c 5 -12 c 4 -7 c 5 -5 c 4 -4 c 4 -3 c 5 -1 c 4 1 c 4 1 c 5 7 c 4 63 c 4 177 c 5 74 c
4 4 c 5 -47 c 4 -167 c 4 -105 c 5 -5 c 4 6 c 4 21 c 5 30 c 4 16 c 5 -3 c 4 -16 c 4 -26 c 5 -18 c 4 -6 c 4 0 c 5 0 c 4 5 c 5 2 c
4 -1 c 4 -1 c 5 -5 c 4 -2 c 4 8 c
5 6 c 4 0 c 5 -2 c 4 -4 c 4 -26 c 4 81 9549 780 l 4 -2 c 5 -19 c 4 -36 c 4 -10 c 5 1 c 4 0 c 5 0 c 4 -1 c 4 0 c 5 4 c 4 19 c 4 35 c
5 8 c 4 -2 c 5 -15 c 4 -34 c 4 -16 c 5 2 c 4 5 c 4 3 c 5 -1 c 4 -1 c 5 -5 c 4 -3 c 4 -1 c 5 0 c 4 -1 c 4 1 c 5 -1 c 4 0 c 5 0 c
4 0 c 4 3 c 5 2 c 4 0 c 4 -1 c 5 -1 c 4 -3 c
0 -126 3030 418 l 54 0 3030 418 l 18 -6 c 6 -6 c 6 -12 c 0 -12 c -6 -12 c -6 -6 c -18 -6 c -54 0 c 42 -66 3072 358 l
-12 -6 3180 376 l -12 -12 c -6 -18 c 0 -12 c 6 -18 c 12 -12 c 12 -6 c 18 0 c 12 6 c 12 12 c 6 18 c 0 12 c -6 18 c -12 12 c -12 6 c
-18 0 c 24 -84 3264 376 l -24 -84 3312 376 l 24 -84 3312 376 l -24 -84 3360 376 l 108 0 3402 364 l 108 0 3402 328 l 0 6 3654 388 l
6 12 c 6 6 c 12 6 c 24 0 c 12 -6 c 6 -6 c 6 -12 c 0 -12 c -6 -12 c -12 -18 c -60 -60 c 84 0 c -18 -6 3798 418 l -6 -12 c 0 -12 c
6 -12 c 12 -6 c 24 -6 c 18 -6 c 12 -12 c 6 -12 c 0 -18 c -6 -12 c -6 -6 c -18 -6 c -24 0 c -18 6 c -6 6 c -6 12 c 0 18 c 6 12 c
12 12 c 18 6 c 24 6 c 12 6 c 6 12 c 0 12 c -6 12 c -18 6 c -24 0 c 12 6 4290 394 l 18 18 c 0 -126 c -6 -6 4404 376 l 6 -6 c 6 6 c
-6 6 c -6 -6 4404 304 l 6 -6 c 6 6 c -6 6 c -48 -126 4584 418 l 48 -126 4584 418 l 60 0 4554 334 l 0 -84 4662 376 l 6 18 4662 340 l
12 12 c 12 6 c 18 0 c -12 12 4806 358 l -12 6 c -18 0 c -12 -6 c -12 -12 c -6 -18 c 0 -12 c 6 -18 c 12 -12 c 12 -6 c 18 0 c 12 6 c
12 12 c 108 0 4848 346 l -18 -6 5034 418 l -12 -18 c -6 -30 c 0 -18 c 6 -30 c 12 -18 c 18 -6 c 12 0 c 18 6 c 12 18 c 6 30 c 0 18 c
-6 30 c -12 18 c -18 6 c -12 0 c 66 0 5130 418 l -36 -48 c 18 0 c 12 -6 c 6 -6 c 6 -18 c 0 -12 c -6 -18 c -12 -12 c -18 -6 c -18 0 c
-18 6 c -6 6 c -6 12 c -59 0 5309 418 l -6 -54 c 6 6 c 17 6 c 18 0 c 18 -6 c 12 -12 c 6 -18 c 0 -12 c -6 -18 c -12 -12 c -18 -6 c
-18 0 c -17 6 c -6 6 c -6 12 c -6 -6 5369 304 l 6 -6 c 6 6 c -6 6 c -12 0 5459 418 l -12 -6 c -6 -18 c 0 -102 c 42 0 5411 376 l
6 -6 5489 418 l 6 6 c -6 6 c -6 -6 c 0 -84 5495 376 l 0 -102 5549 418 l 6 -18 c 12 -6 c 12 0 c 42 0 5531 376 l -6 12 5675 358 l
-18 6 c -18 0 c -18 -6 c -6 -12 c 6 -12 c 12 -6 c 30 -6 c 12 -6 c 6 -12 c 0 -6 c -6 -12 c -18 -6 c -18 0 c -18 6 c -6 12 c
0 -192 6005 442 l 0 -192 6011 442 l 42 0 6005 442 l 42 0 6005 250 l 0 6 6089 388 l 6 12 c 6 6 c 12 6 c 24 0 c 12 -6 c 6 -6 c 6 -12 c
0 -12 c -6 -12 c -12 -18 c -60 -60 c 84 0 c -6 -6 6215 376 l 6 -6 c 6 6 c -6 6 c -6 -6 6215 304 l 6 -6 c 6 6 c -6 6 c
-48 -126 6395 418 l 48 -126 6395 418 l 60 0 6365 334 l 0 -84 6473 376 l 6 18 6473 340 l 12 12 c 12 6 c 18 0 c -12 12 6617 358 l
-12 6 c -18 0 c -12 -6 c -12 -12 c -6 -18 c 0 -12 c 6 -18 c 12 -12 c 12 -6 c 18 0 c 12 6 c 12 12 c 108 0 6659 346 l
-18 -6 6845 418 l -12 -18 c -6 -30 c 0 -18 c 6 -30 c 12 -18 c 18 -6 c 12 0 c 18 6 c 12 18 c 6 30 c 0 18 c -6 30 c -12 18 c -18 6 c
-12 0 c 66 0 6941 418 l -36 -48 c 18 0 c 12 -6 c 6 -6 c 6 -18 c 0 -12 c -6 -18 c -12 -12 c -18 -6 c -18 0 c -18 6 c -6 6 c -6 12 c
-6 12 7127 400 l -18 6 c -12 0 c -18 -6 c -12 -18 c -6 -30 c 0 -30 c 6 -24 c 12 -12 c 18 -6 c 6 0 c 18 6 c 12 12 c 6 18 c 0 6 c
-6 18 c -12 12 c -18 6 c -6 0 c -18 -6 c -12 -12 c -6 -18 c -6 -6 7181 304 l 6 -6 c 6 6 c -6 6 c -12 0 7271 418 l -12 -6 c -6 -18 c
0 -102 c 42 0 7223 376 l 6 -6 7301 418 l 6 6 c -6 6 c -6 -6 c 0 -84 7307 376 l 0 -102 7361 418 l 6 -18 c 12 -6 c 12 0 c
42 0 7343 376 l -6 12 7487 358 l -18 6 c -18 0 c -18 -6 c -6 -12 c 6 -12 c 12 -6 c 30 -6 c 12 -6 c 6 -12 c 0 -6 c -6 -12 c -18 -6 c
-18 0 c -18 6 c -6 12 c 0 -192 7559 442 l 0 -192 7565 442 l 42 0 7523 442 l 42 0 7523 250 l
0 -250 807 1642 l 0 -38 764 1759 l 34 -4 c -4 4 c -4 11 c 0 12 c 4 11 c 8 8 c 11 3 c 8 0 c 11 -3 c 7 -8 c 4 -11 c 0 -12 c -4 -11 c
-3 -4 c -8 -3 c -4 0 783 1793 l -8 4 c -3 4 c -4 7 c 0 15 c 4 8 c 3 4 c 8 3 c 8 0 c 7 -3 c 11 -8 c 38 -38 c 0 53 c 79 -38 764 1918 l
0 53 764 1865 l 53 -38 764 1978 l 0 57 c 79 0 764 1978 l 3 -3 836 2023 l 4 3 c -4 4 c -3 -4 c -4 8 779 2065 l -11 11 c 79 0 c
-4 7 779 2141 l -11 12 c 79 0 c 12 -4 790 2254 l 7 -7 c 4 -12 c 0 -3 c -4 -12 c -7 -7 c -12 -4 c -3 0 c -12 4 c -7 7 c -4 12 c 0 3 c
4 12 c 7 7 c 15 4 c 19 0 c 19 -4 c 11 -7 c 4 -12 c 0 -7 c -4 -12 c -7 -3 c 0 -250 1139 1357 l 0 -38 1095 1474 l 34 -3 c -3 3 c
-4 12 c 0 11 c 4 11 c 7 8 c 11 4 c 8 0 c 11 -4 c 8 -8 c 4 -11 c 0 -11 c -4 -12 c -4 -3 c -7 -4 c -4 0 1114 1508 l -7 4 c -4 4 c
-4 7 c 0 15 c 4 8 c 4 4 c 7 3 c 8 0 c 8 -3 c 11 -8 c 38 -38 c 0 53 c 80 -38 1095 1633 l 0 53 1095 1580 l 80 -37 1095 1708 l
0 53 1095 1655 l 4 -4 1167 1739 l 4 4 c -4 3 c -4 -3 c -3 8 1110 1780 l -12 11 c 80 0 c 53 -38 1095 1882 l 0 57 c 80 0 1095 1882 l
-8 -4 1107 1969 l -4 -11 c 0 -7 c 4 -12 c 11 -7 c 19 -4 c 19 0 c 15 4 c 8 7 c 4 12 c 0 3 c -4 12 c -8 7 c -11 4 c -4 0 c -11 -4 c
-8 -7 c -3 -12 c 0 -3 c 3 -12 c 8 -7 c 11 -4 c 0 -250 1179 2983 l 0 -38 1136 3100 l 34 -3 c -4 3 c -4 12 c 0 11 c 4 11 c 8 8 c
11 4 c 8 0 c 11 -4 c 7 -8 c 4 -11 c 0 -11 c -4 -12 c -3 -3 c -8 -4 c -4 0 1155 3134 l -8 4 c -3 4 c -4 7 c 0 15 c 4 8 c 3 4 c 8 3 c
8 0 c 7 -3 c 11 -8 c 38 -38 c 0 53 c 79 -38 1136 3259 l 0 53 1136 3206 l 79 -37 1136 3334 l 0 52 1136 3282 l 3 -4 1208 3365 l 4 4 c
-4 3 c -3 -3 c 0 -38 1136 3440 l 34 -3 c -4 3 c -4 12 c 0 11 c 4 11 c 8 8 c 11 4 c 8 0 c 11 -4 c 7 -8 c 4 -11 c 0 -11 c -4 -12 c
-3 -3 c -8 -4 c 4 -11 1136 3493 l 11 -8 c 19 -3 c 11 0 c 19 3 c 11 8 c 4 11 c 0 8 c -4 11 c -11 8 c -19 3 c -11 0 c -19 -3 c
-11 -8 c -4 -11 c 0 -8 c 4 -12 1136 3569 l 11 -7 c 19 -4 c 11 0 c 19 4 c 11 7 c 4 12 c 0 7 c -4 12 c -11 7 c -19 4 c -11 0 c
-19 -4 c -11 -7 c -4 -12 c 0 -7 c 0 -250 1574 1641 l 0 -38 1530 1758 l 34 -4 c -3 4 c -4 12 c 0 11 c 4 11 c 7 8 c 11 4 c 8 0 c
11 -4 c 8 -8 c 4 -11 c 0 -11 c -4 -12 c -4 -4 c -7 -3 c -4 0 1549 1792 l -7 4 c -4 4 c -4 7 c 0 15 c 4 8 c 4 4 c 7 3 c 8 0 c 8 -3 c
11 -8 c 38 -38 c 0 53 c 4 -12 1530 1883 l 8 -3 c 7 0 c 8 3 c 4 8 c 3 15 c 4 11 c 8 8 c 7 4 c 12 0 c 7 -4 c 4 -4 c 4 -11 c 0 -15 c
-4 -12 c -4 -3 c -7 -4 c -12 0 c -7 4 c -8 7 c -4 11 c -3 16 c -4 7 c -8 4 c -7 0 c -8 -4 c -4 -11 c 0 -15 c -3 7 1545 1951 l
-12 12 c 80 0 c 4 -4 1602 2023 l 4 4 c -4 3 c -4 -3 c 4 -11 1530 2075 l 11 -7 c 19 -4 c 12 0 c 19 4 c 11 7 c 4 11 c 0 8 c -4 11 c
-11 8 c -19 4 c -12 0 c -19 -4 c -11 -8 c -4 -11 c 0 -8 c -8 -4 1542 2178 l -4 -12 c 0 -7 c 4 -12 c 11 -7 c 19 -4 c 19 0 c 15 4 c
8 7 c 4 12 c 0 4 c -4 11 c -8 8 c -11 3 c -4 0 c -11 -3 c -8 -8 c -3 -11 c 0 -4 c 3 -12 c 8 -7 c 11 -4 c 11 -4 1557 2253 l 8 -7 c
3 -12 c 0 -3 c -3 -12 c -8 -7 c -11 -4 c -4 0 c -11 4 c -8 7 c -4 12 c 0 3 c 4 12 c 8 7 c 15 4 c 19 0 c 19 -4 c 11 -7 c 4 -12 c
0 -7 c -4 -11 c -8 -4 c 0 -249 2221 1365 l 0 -38 2178 1482 l 34 -3 c -4 3 c -4 12 c 0 11 c 4 11 c 7 8 c 12 4 c 7 0 c 12 -4 c 7 -8 c
4 -11 c 0 -11 c -4 -12 c -4 -3 c -7 -4 c -3 0 2196 1516 l -8 4 c -4 4 c -3 7 c 0 15 c 3 8 c 4 4 c 8 4 c 7 0 c 8 -4 c 11 -8 c
38 -38 c 0 53 c 3 -11 2178 1607 l 8 -4 c 7 0 c 8 4 c 4 7 c 4 15 c 3 12 c 8 7 c 8 4 c 11 0 c 7 -4 c 4 -4 c 4 -11 c 0 -15 c -4 -11 c
-4 -4 c -7 -4 c -11 0 c -8 4 c -8 7 c -3 12 c -4 15 c -4 7 c -8 4 c -7 0 c -8 -4 c -3 -11 c 0 -15 c -8 -4 2189 1713 l -3 -11 c
0 -8 c 3 -11 c 12 -8 c 19 -4 c 19 0 c 15 4 c 7 8 c 4 11 c 0 4 c -4 11 c -7 8 c -12 4 c -3 0 c -12 -4 c -7 -8 c -4 -11 c 0 -4 c
4 -11 c 7 -8 c 12 -4 c 4 -4 2249 1747 l 4 4 c -4 4 c -4 -4 c 3 -11 2178 1796 l 8 -4 c 7 0 c 8 4 c 4 7 c 4 15 c 3 12 c 8 7 c 8 4 c
11 0 c 7 -4 c 4 -4 c 4 -11 c 0 -15 c -4 -11 c -4 -4 c -7 -4 c -11 0 c -8 4 c -8 7 c -3 12 c -4 15 c -4 7 c -8 4 c -7 0 c -8 -4 c
-3 -11 c 0 -15 c 3 -12 2178 1872 l 8 -4 c 7 0 c 8 4 c 4 8 c 4 15 c 3 11 c 8 8 c 8 4 c 11 0 c 7 -4 c 4 -4 c 4 -11 c 0 -15 c -4 -12 c
-4 -4 c -7 -3 c -11 0 c -8 3 c -8 8 c -3 11 c -4 15 c -4 8 c -8 4 c -7 0 c -8 -4 c -3 -11 c 0 -15 c 79 -38 2178 1981 l
0 53 2178 1928 l 0 -250 2558 1838 l 0 -38 2515 1955 l 34 -3 c -4 3 c -4 12 c 0 11 c 4 11 c 8 8 c 11 4 c 8 0 c 11 -4 c 7 -8 c 4 -11 c
0 -11 c -4 -12 c -3 -3 c -8 -4 c -4 0 2534 1989 l -8 4 c -3 4 c -4 7 c 0 15 c 4 8 c 3 4 c 8 4 c 8 0 c 7 -4 c 11 -8 c 38 -38 c 0 53 c
4 -11 2515 2080 l 7 -4 c 8 0 c 7 4 c 4 7 c 4 15 c 4 12 c 7 7 c 8 4 c 11 0 c 8 -4 c 3 -4 c 4 -11 c 0 -15 c -4 -11 c -3 -4 c -8 -4 c
-11 0 c -8 4 c -7 7 c -4 12 c -4 15 c -4 7 c -7 4 c -8 0 c -7 -4 c -4 -11 c 0 -15 c 12 -4 2541 2186 l 7 -8 c 4 -11 c 0 -4 c -4 -11 c
-7 -8 c -12 -3 c -3 0 c -12 3 c -7 8 c -4 11 c 0 4 c 4 11 c 7 8 c 15 4 c 19 0 c 19 -4 c 11 -8 c 4 -11 c 0 -7 c -4 -12 c -7 -4 c
3 -4 2587 2220 l 4 4 c -4 4 c -3 -4 c 4 -11 2515 2269 l 7 -4 c 8 0 c 7 4 c 4 7 c 4 15 c 4 12 c 7 7 c 8 4 c 11 0 c 8 -4 c 3 -4 c
4 -11 c 0 -15 c -4 -11 c -3 -4 c -8 -4 c -11 0 c -8 4 c -7 7 c -4 12 c -4 15 c -4 7 c -7 4 c -8 0 c -7 -4 c -4 -11 c 0 -15 c
12 -4 2541 2375 l 7 -8 c 4 -11 c 0 -4 c -4 -11 c -7 -8 c -12 -3 c -3 0 c -12 3 c -7 8 c -4 11 c 0 4 c 4 11 c 7 8 c 15 4 c 19 0 c
19 -4 c 11 -8 c 4 -11 c 0 -8 c -4 -11 c -7 -4 c 79 -38 2515 2454 l 0 53 2515 2401 l 0 -250 2775 1461 l 0 -38 2731 1578 l 34 -4 c
-4 4 c -3 11 c 0 12 c 3 11 c 8 7 c 11 4 c 8 0 c 11 -4 c 8 -7 c 3 -11 c 0 -12 c -3 -11 c -4 -4 c -8 -4 c -4 0 2750 1612 l -7 3 c
-4 4 c -4 8 c 0 15 c 4 8 c 4 3 c 7 4 c 8 0 c 7 -4 c 12 -7 c 37 -38 c 0 53 c 11 -4 2758 1733 l 7 -8 c 4 -11 c 0 -4 c -4 -11 c -7 -8 c
-11 -3 c -4 0 c -12 3 c -7 8 c -4 11 c 0 4 c 4 11 c 7 8 c 16 4 c 18 0 c 19 -4 c 12 -8 c 3 -11 c 0 -8 c -3 -11 c -8 -4 c
-4 8 2746 1770 l -11 11 c 79 0 c 4 -4 2803 1842 l 3 4 c -3 4 c -4 -4 c 4 -11 2731 1891 l 7 -4 c 8 0 c 8 4 c 3 8 c 4 15 c 4 11 c
7 8 c 8 3 c 11 0 c 8 -3 c 4 -4 c 3 -11 c 0 -16 c -3 -11 c -4 -4 c -8 -4 c -11 0 c -8 4 c -7 8 c -4 11 c -4 15 c -3 8 c -8 4 c -8 0 c
-7 -4 c -4 -11 c 0 -16 c -4 8 2746 1959 l -11 11 c 79 0 c -7 -4 2742 2073 l -4 -11 c 0 -8 c 4 -11 c 11 -8 c 19 -4 c 19 0 c 15 4 c
8 8 c 3 11 c 0 4 c -3 11 c -8 8 c -11 4 c -4 0 c -11 -4 c -8 -8 c -4 -11 c 0 -4 c 4 -11 c 8 -8 c 11 -4 c 0 -249 3065 1584 l
0 -38 3021 1701 l 34 -3 c -3 3 c -4 12 c 0 11 c 4 11 c 7 8 c 11 4 c 8 0 c 11 -4 c 8 -8 c 4 -11 c 0 -11 c -4 -12 c -4 -3 c -7 -4 c
-4 0 3040 1735 l -7 4 c -4 4 c -4 7 c 0 16 c 4 7 c 4 4 c 7 4 c 8 0 c 8 -4 c 11 -8 c 38 -37 c 0 52 c 11 -4 3048 1856 l 8 -7 c 3 -11 c
0 -4 c -3 -12 c -8 -7 c -11 -4 c -4 0 c -11 4 c -8 7 c -4 12 c 0 4 c 4 11 c 8 7 c 15 4 c 19 0 c 19 -4 c 11 -7 c 4 -11 c 0 -8 c
-4 -11 c -8 -4 c 53 -37 3021 1920 l 0 56 c 80 0 3021 1920 l 4 -4 3093 1966 l 4 4 c -4 4 c -4 -4 c 0 41 3021 2004 l 31 -22 c 0 11 c
3 7 c 4 4 c 11 4 c 8 0 c 11 -4 c 8 -7 c 4 -12 c 0 -11 c -4 -11 c -4 -4 c -7 -4 c 11 -4 3048 2121 l 8 -8 c 3 -11 c 0 -4 c -3 -11 c
-8 -8 c -11 -3 c -4 0 c -11 3 c -8 8 c -4 11 c 0 4 c 4 11 c 8 8 c 15 4 c 19 0 c 19 -4 c 11 -8 c 4 -11 c 0 -7 c -4 -12 c -8 -4 c
80 -38 3021 2200 l 0 53 3021 2147 l 0 -250 3143 1273 l 0 -38 3099 1390 l 34 -4 c -3 4 c -4 12 c 0 11 c 4 11 c 7 8 c 11 4 c 8 0 c
11 -4 c 8 -8 c 4 -11 c 0 -11 c -4 -12 c -4 -4 c -7 -3 c -4 0 3118 1424 l -7 4 c -4 4 c -4 7 c 0 15 c 4 8 c 4 4 c 7 3 c 8 0 c 8 -3 c
11 -8 c 38 -38 c 0 53 c 11 -4 3126 1545 l 8 -7 c 3 -12 c 0 -3 c -3 -12 c -8 -7 c -11 -4 c -4 0 c -11 4 c -8 7 c -4 12 c 0 3 c 4 12 c
8 7 c 15 4 c 19 0 c 19 -4 c 11 -7 c 4 -12 c 0 -7 c -4 -12 c -8 -3 c 0 -38 3099 1617 l 34 -4 c -3 4 c -4 11 c 0 12 c 4 11 c 7 8 c
11 3 c 8 0 c 11 -3 c 8 -8 c 4 -11 c 0 -12 c -4 -11 c -4 -4 c -7 -4 c 4 -4 3171 1655 l 4 4 c -4 3 c -4 -3 c 4 -12 3099 1708 l 11 -7 c
19 -4 c 12 0 c 19 4 c 11 7 c 4 12 c 0 7 c -4 11 c -11 8 c -19 4 c -12 0 c -19 -4 c -11 -8 c -4 -11 c 0 -7 c 4 -11 3099 1779 l 8 -4 c
7 0 c 8 4 c 4 8 c 3 15 c 4 11 c 8 8 c 7 3 c 12 0 c 7 -3 c 4 -4 c 4 -12 c 0 -15 c -4 -11 c -4 -4 c -7 -4 c -12 0 c -7 4 c -8 8 c
-4 11 c -3 15 c -4 8 c -8 4 c -7 0 c -8 -4 c -4 -12 c 0 -15 c 11 -4 3126 1885 l 8 -7 c 3 -12 c 0 -3 c -3 -12 c -8 -7 c -11 -4 c
-4 0 c -11 4 c -8 7 c -4 12 c 0 3 c 4 12 c 8 7 c 15 4 c 19 0 c 19 -4 c 11 -7 c 4 -12 c 0 -7 c -4 -11 c -8 -4 c 0 -249 3279 1724 l
0 -38 3235 1842 l 34 -4 c -4 4 c -3 11 c 0 12 c 3 11 c 8 7 c 11 4 c 8 0 c 11 -4 c 8 -7 c 4 -11 c 0 -12 c -4 -11 c -4 -4 c -7 -4 c
-4 0 3254 1876 l -7 3 c -4 4 c -4 8 c 0 15 c 4 7 c 4 4 c 7 4 c 8 0 c 7 -4 c 12 -7 c 38 -38 c 0 53 c 11 -4 3262 1997 l 8 -8 c 3 -11 c
0 -4 c -3 -11 c -8 -8 c -11 -4 c -4 0 c -11 4 c -8 8 c -4 11 c 0 4 c 4 11 c 8 8 c 15 4 c 19 0 c 19 -4 c 11 -8 c 4 -11 c 0 -8 c
-4 -11 c -8 -4 c -8 -4 3247 2072 l -4 -11 c 0 -7 c 4 -12 c 11 -7 c 19 -4 c 19 0 c 15 4 c 8 7 c 4 12 c 0 3 c -4 12 c -8 7 c -11 4 c
-4 0 c -11 -4 c -8 -7 c -4 -12 c 0 -3 c 4 -12 c 8 -7 c 11 -4 c 4 -4 3307 2106 l 4 4 c -4 4 c -4 -4 c -4 0 3254 2140 l -7 4 c -4 4 c
-4 7 c 0 15 c 4 8 c 4 4 c 7 4 c 8 0 c 7 -4 c 12 -8 c 38 -38 c 0 53 c 80 -38 3235 2265 l 0 53 3235 2212 l 11 -4 3262 2337 l 8 -8 c
3 -11 c 0 -4 c -3 -11 c -8 -8 c -11 -3 c -4 0 c -11 3 c -8 8 c -4 11 c 0 4 c 4 11 c 8 8 c 15 4 c 19 0 c 19 -4 c 11 -8 c 4 -11 c
0 -7 c -4 -12 c -8 -4 c 0 -250 3445 1961 l 0 -38 3401 2078 l 34 -4 c -4 4 c -3 11 c 0 12 c 3 11 c 8 8 c 11 3 c 8 0 c 11 -3 c 8 -8 c
3 -11 c 0 -12 c -3 -11 c -4 -4 c -8 -4 c -4 0 3420 2112 l -7 4 c -4 3 c -4 8 c 0 15 c 4 8 c 4 3 c 7 4 c 8 0 c 7 -4 c 12 -7 c
37 -38 c 0 53 c 11 -4 3428 2233 l 7 -8 c 4 -11 c 0 -4 c -4 -11 c -7 -8 c -11 -3 c -4 0 c -12 3 c -7 8 c -4 11 c 0 4 c 4 11 c 7 8 c
16 4 c 18 0 c 19 -4 c 12 -8 c 3 -11 c 0 -8 c -3 -11 c -8 -4 c 79 -38 3401 2312 l 0 53 3401 2259 l 4 -3 3473 2342 l 3 3 c -3 4 c
-4 -4 c 79 -37 3401 2425 l 0 52 3401 2373 l 53 -38 3401 2486 l 0 57 c 79 0 3401 2486 l 0 42 3401 2531 l 30 -23 c 0 12 c 4 7 c 4 4 c
11 4 c 8 0 c 11 -4 c 8 -8 c 3 -11 c 0 -11 c -3 -12 c -4 -3 c -8 -4 c 0 -250 3505 1982 l 0 -38 3462 2099 l 34 -4 c -4 4 c -4 11 c
0 12 c 4 11 c 8 8 c 11 3 c 7 0 c 12 -3 c 7 -8 c 4 -11 c 0 -12 c -4 -11 c -3 -4 c -8 -4 c -4 0 3481 2133 l -8 4 c -3 3 c -4 8 c
0 15 c 4 8 c 3 3 c 8 4 c 7 0 c 8 -4 c 11 -7 c 38 -38 c 0 53 c 12 -4 3488 2254 l 7 -8 c 4 -11 c 0 -4 c -4 -11 c -7 -8 c -12 -3 c
-4 0 c -11 3 c -7 8 c -4 11 c 0 4 c 4 11 c 7 8 c 15 4 c 19 0 c 19 -4 c 11 -8 c 4 -11 c 0 -7 c -4 -12 c -7 -4 c 4 -11 3462 2299 l
7 -4 c 8 0 c 7 4 c 4 7 c 4 15 c 4 12 c 7 7 c 8 4 c 11 0 c 8 -4 c 3 -3 c 4 -12 c 0 -15 c -4 -11 c -3 -4 c -8 -4 c -11 0 c -8 4 c
-7 8 c -4 11 c -4 15 c -4 8 c -7 3 c -8 0 c -7 -3 c -4 -12 c 0 -15 c 3 -3 3534 2363 l 4 3 c -4 4 c -3 -4 c -4 0 3481 2397 l -8 4 c
-3 4 c -4 8 c 0 15 c 4 7 c 3 4 c 8 4 c 7 0 c 8 -4 c 11 -8 c 38 -37 c 0 53 c 4 -11 3462 2488 l 7 -4 c 8 0 c 7 4 c 4 7 c 4 15 c 4 12 c
7 7 c 8 4 c 11 0 c 8 -4 c 3 -3 c 4 -12 c 0 -15 c -4 -11 c -3 -4 c -8 -4 c -11 0 c -8 4 c -7 8 c -4 11 c -4 15 c -4 8 c -7 3 c -8 0 c
-7 -3 c -4 -12 c 0 -15 c -4 0 3481 2549 l -8 3 c -3 4 c -4 8 c 0 15 c 4 7 c 3 4 c 8 4 c 7 0 c 8 -4 c 11 -7 c 38 -38 c 0 53 c
0 -249 3761 1651 l 0 -38 3717 1769 l 34 -4 c -3 4 c -4 11 c 0 11 c 4 12 c 7 7 c 11 4 c 8 0 c 11 -4 c 8 -7 c 4 -12 c 0 -11 c -4 -11 c
-4 -4 c -7 -4 c 0 42 3717 1806 l 31 -23 c 0 12 c 3 7 c 4 4 c 11 4 c 8 0 c 11 -4 c 8 -8 c 4 -11 c 0 -11 c -4 -12 c -4 -3 c -7 -4 c
4 -11 3717 1897 l 11 -8 c 19 -4 c 12 0 c 19 4 c 11 8 c 4 11 c 0 8 c -4 11 c -11 8 c -19 3 c -12 0 c -19 -3 c -11 -8 c -4 -11 c
0 -8 c 4 -12 3717 1973 l 11 -7 c 19 -4 c 12 0 c 19 4 c 11 7 c 4 12 c 0 7 c -4 12 c -11 7 c -19 4 c -12 0 c -19 -4 c -11 -7 c
-4 -12 c 0 -7 c 4 -4 3789 2033 l 4 4 c -4 4 c -4 -4 c 0 -38 3717 2109 l 34 -4 c -3 4 c -4 11 c 0 12 c 4 11 c 7 7 c 11 4 c 8 0 c
11 -4 c 8 -7 c 4 -11 c 0 -12 c -4 -11 c -4 -4 c -7 -4 c -4 0 3736 2143 l -7 3 c -4 4 c -4 8 c 0 15 c 4 8 c 4 3 c 7 4 c 8 0 c 8 -4 c
11 -7 c 38 -38 c 0 53 c 0 42 3717 2222 l 31 -23 c 0 11 c 3 8 c 4 4 c 11 3 c 8 0 c 11 -3 c 8 -8 c 4 -11 c 0 -12 c -4 -11 c -4 -4 c
-7 -3 c 0 -250 3861 1792 l 0 -38 3818 1909 l 34 -4 c -4 4 c -4 12 c 0 11 c 4 11 c 8 8 c 11 4 c 7 0 c 12 -4 c 7 -8 c 4 -11 c 0 -11 c
-4 -12 c -3 -4 c -8 -3 c 0 41 3818 1947 l 30 -22 c 0 11 c 4 8 c 4 3 c 11 4 c 7 0 c 12 -4 c 7 -7 c 4 -11 c 0 -12 c -4 -11 c -3 -4 c
-8 -4 c 4 -12 3818 2038 l 11 -7 c 19 -4 c 11 0 c 19 4 c 11 7 c 4 12 c 0 7 c -4 11 c -11 8 c -19 4 c -11 0 c -19 -4 c -11 -8 c
-4 -11 c 0 -7 c -4 7 3833 2102 l -11 12 c 79 0 c 3 -4 3890 2174 l 4 4 c -4 3 c -3 -3 c 53 -38 3818 2242 l 0 57 c 79 0 3818 2242 l
4 -11 3818 2302 l 11 -8 c 19 -4 c 11 0 c 19 4 c 11 8 c 4 11 c 0 8 c -4 11 c -11 8 c -19 3 c -11 0 c -19 -3 c -11 -8 c -4 -11 c
0 -8 c 53 -38 3818 2393 l 0 57 c 79 0 3818 2393 l 0 -250 4502 1337 l 0 -38 4459 1454 l 34 -3 c -4 3 c -4 12 c 0 11 c 4 11 c 8 8 c
11 4 c 8 0 c 11 -4 c 7 -8 c 4 -11 c 0 -11 c -4 -12 c -3 -3 c -8 -4 c 0 42 4459 1492 l 30 -23 c 0 11 c 4 8 c 4 4 c 11 3 c 8 0 c
11 -3 c 7 -8 c 4 -11 c 0 -12 c -4 -11 c -3 -4 c -8 -4 c 4 -12 4459 1583 l 11 -7 c 19 -4 c 11 0 c 19 4 c 11 7 c 4 12 c 0 7 c -4 12 c
-11 7 c -19 4 c -11 0 c -19 -4 c -11 -7 c -4 -12 c 0 -7 c -7 -4 4470 1685 l -4 -11 c 0 -8 c 4 -11 c 11 -8 c 19 -4 c 19 0 c 15 4 c
7 8 c 4 11 c 0 4 c -4 11 c -7 8 c -11 4 c -4 0 c -12 -4 c -7 -8 c -4 -11 c 0 -4 c 4 -11 c 7 -8 c 12 -4 c 3 -4 4531 1719 l 4 4 c
-4 4 c -3 -4 c 12 -4 4485 1798 l 7 -7 c 4 -12 c 0 -3 c -4 -12 c -7 -7 c -12 -4 c -3 0 c -12 4 c -7 7 c -4 12 c 0 3 c 4 12 c 7 7 c
15 4 c 19 0 c 19 -4 c 11 -7 c 4 -12 c 0 -7 c -4 -11 c -7 -4 c 4 -11 4459 1843 l 7 -4 c 8 0 c 7 4 c 4 8 c 4 15 c 4 11 c 7 8 c 8 4 c
11 0 c 8 -4 c 3 -4 c 4 -11 c 0 -16 c -4 -11 c -3 -4 c -8 -3 c -11 0 c -8 3 c -7 8 c -4 11 c -4 15 c -4 8 c -7 4 c -8 0 c -7 -4 c
-4 -11 c 0 -16 c -7 -3 4470 1949 l -4 -12 c 0 -7 c 4 -12 c 11 -7 c 19 -4 c 19 0 c 15 4 c 7 7 c 4 12 c 0 3 c -4 12 c -7 7 c -11 4 c
-4 0 c -12 -4 c -7 -7 c -4 -12 c 0 -3 c 4 -12 c 7 -7 c 12 -4 c 0 -250 4558 2232 l 0 -38 4514 2349 l 34 -4 c -4 4 c -3 11 c 0 12 c
3 11 c 8 8 c 11 3 c 8 0 c 11 -3 c 8 -8 c 3 -11 c 0 -12 c -3 -11 c -4 -4 c -8 -4 c 0 41 4514 2387 l 30 -22 c 0 11 c 4 7 c 4 4 c
11 4 c 8 0 c 11 -4 c 8 -7 c 3 -12 c 0 -11 c -3 -11 c -4 -4 c -8 -4 c 4 -11 4514 2477 l 11 -8 c 19 -3 c 11 0 c 19 3 c 12 8 c 3 11 c
0 8 c -3 11 c -12 8 c -19 4 c -11 0 c -19 -4 c -11 -8 c -4 -11 c 0 -8 c 79 -38 4514 2583 l 0 53 4514 2530 l 4 -3 4586 2613 l 3 3 c
-3 4 c -4 -4 c 53 -37 4514 2681 l 0 56 c 79 0 4514 2681 l -7 -3 4525 2768 l -4 -12 c 0 -7 c 4 -12 c 11 -7 c 19 -4 c 19 0 c 15 4 c
8 7 c 3 12 c 0 3 c -3 12 c -8 7 c -11 4 c -4 0 c -11 -4 c -8 -7 c -4 -12 c 0 -3 c 4 -12 c 8 -7 c 11 -4 c -7 -4 4525 2844 l -4 -11 c
0 -8 c 4 -11 c 11 -8 c 19 -3 c 19 0 c 15 3 c 8 8 c 3 11 c 0 4 c -3 11 c -8 8 c -11 4 c -4 0 c -11 -4 c -8 -8 c -4 -11 c 0 -4 c
4 -11 c 8 -8 c 11 -3 c 0 -250 4805 1318 l 0 -38 4761 1435 l 34 -3 c -4 3 c -4 12 c 0 11 c 4 11 c 8 8 c 11 4 c 8 0 c 11 -4 c 8 -8 c
3 -11 c 0 -11 c -3 -12 c -4 -3 c -8 -4 c 0 42 4761 1473 l 30 -23 c 0 11 c 4 8 c 4 4 c 11 3 c 8 0 c 11 -3 c 8 -8 c 3 -11 c 0 -12 c
-3 -11 c -4 -4 c -8 -4 c 4 -12 4761 1564 l 11 -7 c 19 -4 c 11 0 c 19 4 c 12 7 c 3 12 c 0 7 c -3 12 c -12 7 c -19 4 c -11 0 c
-19 -4 c -11 -7 c -4 -12 c 0 -7 c 12 -4 4787 1666 l 7 -8 c 4 -11 c 0 -4 c -4 -11 c -7 -8 c -12 -3 c -3 0 c -12 3 c -7 8 c -4 11 c
0 4 c 4 11 c 7 8 c 15 4 c 19 0 c 19 -4 c 12 -8 c 3 -11 c 0 -8 c -3 -11 c -8 -4 c 4 -4 4833 1700 l 3 4 c -3 4 c -4 -4 c
-7 -4 4772 1779 l -4 -11 c 0 -8 c 4 -11 c 11 -7 c 19 -4 c 19 0 c 15 4 c 8 7 c 3 11 c 0 4 c -3 12 c -8 7 c -11 4 c -4 0 c -11 -4 c
-8 -7 c -4 -12 c 0 -4 c 4 -11 c 8 -7 c 11 -4 c 4 -11 4761 1828 l 11 -8 c 19 -3 c 11 0 c 19 3 c 12 8 c 3 11 c 0 8 c -3 11 c -12 8 c
-19 3 c -11 0 c -19 -3 c -11 -8 c -4 -11 c 0 -8 c 12 -4 4787 1930 l 7 -7 c 4 -11 c 0 -4 c -4 -12 c -7 -7 c -12 -4 c -3 0 c -12 4 c
-7 7 c -4 12 c 0 4 c 4 11 c 7 7 c 15 4 c 19 0 c 19 -4 c 12 -7 c 3 -11 c 0 -8 c -3 -11 c -8 -4 c 0 -249 4882 6074 l 0 -38 4838 6192 l
34 -4 c -3 4 c -4 11 c 0 11 c 4 12 c 7 7 c 12 4 c 7 0 c 11 -4 c 8 -7 c 4 -12 c 0 -11 c -4 -11 c -4 -4 c -7 -4 c 0 42 4838 6229 l
31 -23 c 0 12 c 3 7 c 4 4 c 12 4 c 7 0 c 11 -4 c 8 -8 c 4 -11 c 0 -11 c -4 -12 c -4 -3 c -7 -4 c -4 7 4854 6309 l -12 12 c 80 0 c
4 -12 4838 6396 l 12 -7 c 18 -4 c 12 0 c 19 4 c 11 7 c 4 12 c 0 7 c -4 12 c -11 7 c -19 4 c -12 0 c -18 -4 c -12 -7 c -4 -12 c
0 -7 c 4 -4 4910 6456 l 4 4 c -4 4 c -4 -4 c -3 0 4857 6490 l -8 4 c -4 4 c -4 7 c 0 15 c 4 8 c 4 4 c 8 3 c 7 0 c 8 -3 c 11 -8 c
38 -38 c 0 53 c -8 -4 4850 6611 l -4 -11 c 0 -8 c 4 -11 c 12 -8 c 18 -3 c 19 0 c 15 3 c 8 8 c 4 11 c 0 4 c -4 11 c -8 8 c -11 4 c
-4 0 c -11 -4 c -8 -8 c -3 -11 c 0 -4 c 3 -11 c 8 -8 c 11 -3 c -8 -4 4850 6687 l -4 -11 c 0 -8 c 4 -11 c 12 -8 c 18 -4 c 19 0 c
15 4 c 8 8 c 4 11 c 0 4 c -4 11 c -8 8 c -11 3 c -4 0 c -11 -3 c -8 -8 c -3 -11 c 0 -4 c 3 -11 c 8 -8 c 11 -4 c 0 -250 5084 5714 l
0 -38 5040 5831 l 34 -4 c -4 4 c -3 11 c 0 12 c 3 11 c 8 8 c 11 3 c 8 0 c 11 -3 c 8 -8 c 4 -11 c 0 -12 c -4 -11 c -4 -4 c -8 -3 c
0 41 5040 5869 l 30 -22 c 0 11 c 4 7 c 4 4 c 11 4 c 8 0 c 11 -4 c 8 -7 c 4 -12 c 0 -11 c -4 -11 c -4 -4 c -8 -4 c -3 8 5055 5948 l
-12 11 c 80 0 c -4 0 5059 6016 l -7 4 c -4 4 c -4 7 c 0 15 c 4 8 c 4 4 c 7 3 c 8 0 c 7 -3 c 12 -8 c 38 -38 c 0 53 c 4 -3 5112 6095 l
4 3 c -4 4 c -4 -4 c 4 -11 5040 6148 l 11 -8 c 19 -3 c 12 0 c 18 3 c 12 8 c 4 11 c 0 8 c -4 11 c -12 8 c -18 4 c -12 0 c -19 -4 c
-11 -8 c -4 -11 c 0 -8 c 4 -11 5040 6224 l 11 -8 c 19 -4 c 12 0 c 18 4 c 12 8 c 4 11 c 0 8 c -4 11 c -12 7 c -18 4 c -12 0 c
-19 -4 c -11 -7 c -4 -11 c 0 -8 c -4 0 5059 6281 l -7 3 c -4 4 c -4 8 c 0 15 c 4 7 c 4 4 c 7 4 c 8 0 c 7 -4 c 12 -7 c 38 -38 c
0 53 c 0 -249 5145 3036 l 0 -38 5102 3154 l 34 -4 c -4 4 c -4 11 c 0 11 c 4 12 c 7 7 c 12 4 c 7 0 c 12 -4 c 7 -7 c 4 -12 c 0 -11 c
-4 -11 c -4 -4 c -7 -4 c 0 42 5102 3191 l 30 -23 c 0 12 c 4 7 c 3 4 c 12 4 c 7 0 c 12 -4 c 7 -8 c 4 -11 c 0 -11 c -4 -12 c -4 -3 c
-7 -4 c -4 7 5117 3271 l -11 12 c 79 0 c -4 0 5121 3339 l -8 4 c -4 3 c -3 8 c 0 15 c 3 8 c 4 3 c 8 4 c 7 0 c 8 -4 c 11 -7 c
38 -38 c 0 53 c 4 -4 5173 3418 l 4 4 c -4 4 c -4 -4 c 0 -38 5102 3494 l 34 -4 c -4 4 c -4 11 c 0 12 c 4 11 c 7 7 c 12 4 c 7 0 c
12 -4 c 7 -7 c 4 -11 c 0 -12 c -4 -11 c -4 -4 c -7 -4 c -4 0 5121 3528 l -8 3 c -4 4 c -3 8 c 0 15 c 3 8 c 4 3 c 8 4 c 7 0 c 8 -4 c
11 -7 c 38 -38 c 0 53 c 11 -4 5128 3649 l 8 -8 c 4 -11 c 0 -4 c -4 -11 c -8 -8 c -11 -3 c -4 0 c -11 3 c -8 8 c -3 11 c 0 4 c 3 11 c
8 8 c 15 4 c 19 0 c 19 -4 c 11 -8 c 4 -11 c 0 -8 c -4 -11 c -7 -4 c 0 -250 5189 2158 l 0 -38 5145 2275 l 34 -4 c -4 4 c -4 11 c
0 12 c 4 11 c 8 8 c 11 3 c 8 0 c 11 -3 c 8 -8 c 3 -11 c 0 -12 c -3 -11 c -4 -4 c -8 -3 c 0 41 5145 2313 l 30 -22 c 0 11 c 4 8 c
4 3 c 11 4 c 8 0 c 11 -4 c 8 -7 c 3 -12 c 0 -11 c -3 -11 c -4 -4 c -8 -4 c -4 8 5160 2392 l -11 11 c 79 0 c -4 0 5164 2460 l -7 4 c
-4 4 c -4 7 c 0 15 c 4 8 c 4 4 c 7 3 c 8 0 c 7 -3 c 12 -8 c 37 -38 c 0 53 c 4 -4 5217 2540 l 3 4 c -3 3 c -4 -3 c 12 -4 5171 2619 l
7 -7 c 4 -12 c 0 -4 c -4 -11 c -7 -7 c -12 -4 c -3 0 c -12 4 c -7 7 c -4 11 c 0 4 c 4 12 c 7 7 c 15 4 c 19 0 c 19 -4 c 12 -7 c
3 -12 c 0 -7 c -3 -12 c -8 -3 c 4 -11 5145 2668 l 11 -8 c 19 -4 c 11 0 c 19 4 c 12 8 c 3 11 c 0 8 c -3 11 c -12 7 c -19 4 c -11 0 c
-19 -4 c -11 -7 c -4 -11 c 0 -8 c 53 -38 5145 2759 l 0 57 c 79 0 5145 2759 l 0 -249 5459 1328 l 0 -38 5416 1445 l 34 -3 c -4 3 c
-4 12 c 0 11 c 4 11 c 8 8 c 11 4 c 7 0 c 12 -4 c 7 -8 c 4 -11 c 0 -11 c -4 -12 c -3 -3 c -8 -4 c 0 42 5416 1483 l 30 -23 c 0 11 c
4 8 c 4 4 c 11 3 c 7 0 c 12 -3 c 7 -8 c 4 -11 c 0 -12 c -4 -11 c -3 -4 c -8 -4 c -4 8 5431 1562 l -11 11 c 79 0 c 0 -38 5416 1672 l
34 -4 c -4 4 c -4 12 c 0 11 c 4 11 c 8 8 c 11 4 c 7 0 c 12 -4 c 7 -8 c 4 -11 c 0 -11 c -4 -12 c -3 -4 c -8 -3 c 3 -4 5488 1710 l
4 4 c -4 4 c -3 -4 c -4 0 5435 1744 l -8 4 c -3 3 c -4 8 c 0 15 c 4 8 c 3 3 c 8 4 c 7 0 c 8 -4 c 11 -7 c 38 -38 c 0 53 c
-4 0 5435 1819 l -8 4 c -3 4 c -4 8 c 0 15 c 4 7 c 3 4 c 8 4 c 7 0 c 8 -4 c 11 -8 c 38 -37 c 0 53 c 4 -11 5416 1910 l 7 -4 c 8 0 c
7 4 c 4 7 c 4 15 c 4 12 c 7 7 c 8 4 c 11 0 c 8 -4 c 3 -3 c 4 -12 c 0 -15 c -4 -11 c -3 -4 c -8 -4 c -11 0 c -8 4 c -7 8 c -4 11 c
-4 15 c -4 8 c -7 3 c -8 0 c -7 -3 c -4 -12 c 0 -15 c 0 -249 5727 1815 l 0 -37 5683 1932 l 34 -4 c -4 4 c -4 11 c 0 11 c 4 12 c
8 7 c 11 4 c 8 0 c 11 -4 c 8 -7 c 3 -12 c 0 -11 c -3 -11 c -4 -4 c -8 -4 c 0 42 5683 1970 l 30 -23 c 0 12 c 4 7 c 4 4 c 11 4 c 8 0 c
11 -4 c 8 -8 c 3 -11 c 0 -11 c -3 -12 c -4 -4 c -8 -3 c -4 7 5698 2050 l -11 12 c 79 0 c 79 -38 5683 2167 l 0 53 5683 2114 l
4 -4 5755 2197 l 3 4 c -3 4 c -4 -4 c 53 -38 5683 2265 l 0 57 c 79 0 5683 2265 l 12 -4 5709 2352 l 7 -7 c 4 -12 c 0 -3 c -4 -12 c
-7 -7 c -12 -4 c -3 0 c -12 4 c -7 7 c -4 12 c 0 3 c 4 12 c 7 7 c 15 4 c 19 0 c 19 -4 c 12 -7 c 3 -12 c 0 -7 c -3 -12 c -8 -3 c
53 -38 5683 2416 l 0 57 c 79 0 5683 2416 l 0 -250 5836 2017 l 0 -38 5793 2134 l 34 -4 c -4 4 c -4 12 c 0 11 c 4 11 c 7 8 c 12 4 c
7 0 c 12 -4 c 7 -8 c 4 -11 c 0 -11 c -4 -12 c -4 -4 c -7 -3 c 0 41 5793 2172 l 30 -22 c 0 11 c 4 8 c 3 3 c 12 4 c 7 0 c 12 -4 c
7 -7 c 4 -12 c 0 -11 c -4 -11 c -4 -4 c -7 -4 c -4 8 5808 2251 l -11 11 c 79 0 c 3 -11 5793 2334 l 8 -4 c 7 0 c 8 4 c 4 8 c 4 15 c
3 11 c 8 8 c 7 3 c 12 0 c 7 -3 c 4 -4 c 4 -12 c 0 -15 c -4 -11 c -4 -4 c -7 -4 c -12 0 c -7 4 c -8 8 c -3 11 c -4 15 c -4 8 c -8 4 c
-7 0 c -8 -4 c -3 -12 c 0 -15 c 4 -4 5864 2399 l 4 4 c -4 3 c -4 -3 c 52 -38 5793 2467 l 0 57 c 79 0 5793 2467 l -3 0 5811 2508 l
-8 4 c -4 4 c -3 7 c 0 15 c 3 8 c 4 4 c 8 4 c 7 0 c 8 -4 c 11 -8 c 38 -38 c 0 53 c 79 -38 5793 2633 l 0 53 5793 2580 l
0 -249 6113 3324 l 0 -38 6069 3442 l 34 -4 c -4 4 c -3 11 c 0 11 c 3 12 c 8 7 c 11 4 c 8 0 c 11 -4 c 8 -7 c 4 -12 c 0 -11 c -4 -11 c
-4 -4 c -8 -4 c 0 42 6069 3479 l 30 -23 c 0 12 c 4 7 c 4 4 c 11 4 c 8 0 c 11 -4 c 8 -8 c 4 -11 c 0 -11 c -4 -12 c -4 -3 c -8 -4 c
-4 0 6088 3551 l -7 4 c -4 4 c -4 7 c 0 15 c 4 8 c 4 4 c 7 4 c 8 0 c 7 -4 c 12 -8 c 38 -38 c 0 53 c 4 -12 6069 3646 l 11 -7 c
19 -4 c 12 0 c 18 4 c 12 7 c 4 12 c 0 7 c -4 12 c -12 7 c -18 4 c -12 0 c -19 -4 c -11 -7 c -4 -12 c 0 -7 c 4 -4 6141 3706 l 4 4 c
-4 4 c -4 -4 c 80 -37 6069 3789 l 0 53 6069 3736 l 80 -38 6069 3865 l 0 53 6069 3812 l 4 -11 6069 3910 l 11 -8 c 19 -3 c 12 0 c
18 3 c 12 8 c 4 11 c 0 8 c -4 11 c -12 8 c -18 4 c -12 0 c -19 -4 c -11 -8 c -4 -11 c 0 -8 c 0 -250 6365 1313 l 0 -38 6322 1430 l
34 -4 c -4 4 c -4 11 c 0 12 c 4 11 c 7 8 c 12 3 c 7 0 c 12 -3 c 7 -8 c 4 -11 c 0 -12 c -4 -11 c -4 -4 c -7 -4 c 0 41 6322 1468 l
30 -23 c 0 12 c 4 7 c 3 4 c 12 4 c 7 0 c 12 -4 c 7 -7 c 4 -12 c 0 -11 c -4 -11 c -4 -4 c -7 -4 c -4 0 6341 1539 l -8 4 c -4 4 c
-3 7 c 0 16 c 3 7 c 4 4 c 8 4 c 7 0 c 8 -4 c 11 -8 c 38 -37 c 0 52 c -4 0 6341 1615 l -8 4 c -4 3 c -3 8 c 0 15 c 3 8 c 4 4 c 8 3 c
7 0 c 8 -3 c 11 -8 c 38 -38 c 0 53 c 4 -3 6393 1694 l 4 3 c -4 4 c -4 -4 c 3 -11 6322 1743 l 8 -4 c 8 0 c 7 4 c 4 8 c 4 15 c 3 11 c
8 8 c 8 3 c 11 0 c 7 -3 c 4 -4 c 4 -11 c 0 -16 c -4 -11 c -4 -4 c -7 -3 c -11 0 c -8 3 c -8 8 c -3 11 c -4 15 c -4 8 c -7 4 c -8 0 c
-8 -4 c -3 -11 c 0 -16 c 11 -4 6348 1849 l 8 -7 c 4 -11 c 0 -4 c -4 -12 c -8 -7 c -11 -4 c -4 0 c -11 4 c -8 7 c -3 12 c 0 4 c
3 11 c 8 7 c 15 4 c 19 0 c 19 -4 c 11 -7 c 4 -11 c 0 -8 c -4 -11 c -7 -4 c 11 -4 6348 1925 l 8 -7 c 4 -12 c 0 -4 c -4 -11 c -8 -7 c
-11 -4 c -4 0 c -11 4 c -8 7 c -3 11 c 0 4 c 3 12 c 8 7 c 15 4 c 19 0 c 19 -4 c 11 -7 c 4 -12 c 0 -7 c -4 -12 c -7 -3 c
0 -249 6667 1400 l 0 -38 6623 1518 l 34 -4 c -3 4 c -4 11 c 0 11 c 4 12 c 7 7 c 12 4 c 7 0 c 11 -4 c 8 -7 c 4 -12 c 0 -11 c -4 -11 c
-4 -4 c -7 -4 c 0 42 6623 1555 l 31 -23 c 0 12 c 3 7 c 4 4 c 12 4 c 7 0 c 11 -4 c 8 -8 c 4 -11 c 0 -11 c -4 -12 c -4 -3 c -7 -4 c
-3 0 6642 1627 l -8 4 c -4 4 c -4 7 c 0 15 c 4 8 c 4 4 c 8 4 c 7 0 c 8 -4 c 11 -8 c 38 -38 c 0 53 c 0 -37 6623 1744 l 34 -4 c -3 4 c
-4 11 c 0 11 c 4 12 c 7 7 c 12 4 c 7 0 c 11 -4 c 8 -7 c 4 -12 c 0 -11 c -4 -11 c -4 -4 c -7 -4 c 4 -4 6695 1782 l 4 4 c -4 4 c
-4 -4 c 53 -38 6623 1850 l 0 57 c 80 0 6623 1850 l 0 41 6623 1896 l 31 -23 c 0 12 c 3 7 c 4 4 c 12 4 c 7 0 c 11 -4 c 8 -7 c 4 -12 c
0 -11 c -4 -11 c -4 -4 c -7 -4 c -3 0 6642 1967 l -8 4 c -4 4 c -4 7 c 0 16 c 4 7 c 4 4 c 8 4 c 7 0 c 8 -4 c 11 -8 c 38 -37 c 0 53 c
0 -249 6768 1589 l 0 -38 6724 1707 l 34 -4 c -4 4 c -3 11 c 0 11 c 3 12 c 8 7 c 11 4 c 8 0 c 11 -4 c 8 -7 c 4 -12 c 0 -11 c -4 -11 c
-4 -4 c -8 -4 c 0 42 6724 1744 l 30 -23 c 0 12 c 4 7 c 4 4 c 11 4 c 8 0 c 11 -4 c 8 -8 c 4 -11 c 0 -11 c -4 -12 c -4 -3 c -8 -4 c
-4 0 6743 1816 l -7 4 c -4 4 c -4 7 c 0 15 c 4 8 c 4 4 c 7 3 c 8 0 c 7 -3 c 12 -8 c 38 -38 c 0 53 c -8 -4 6736 1937 l -4 -11 c
0 -8 c 4 -11 c 11 -7 c 19 -4 c 19 0 c 15 4 c 8 7 c 4 11 c 0 4 c -4 12 c -8 7 c -11 4 c -4 0 c -11 -4 c -8 -7 c -4 -12 c 0 -4 c
4 -11 c 8 -7 c 11 -4 c 4 -4 6796 1971 l 4 4 c -4 4 c -4 -4 c -4 0 6743 2005 l -7 4 c -4 4 c -4 7 c 0 15 c 4 8 c 4 4 c 7 3 c 8 0 c
7 -3 c 12 -8 c 38 -38 c 0 53 c 80 -38 6724 2130 l 0 53 6724 2077 l 80 -37 6724 2205 l 0 52 6724 2153 l 0 -250 6852 3402 l
0 -38 6808 3519 l 34 -4 c -4 4 c -3 11 c 0 12 c 3 11 c 8 8 c 11 3 c 8 0 c 11 -3 c 8 -8 c 4 -11 c 0 -12 c -4 -11 c -4 -4 c -8 -3 c
0 41 6808 3557 l 30 -22 c 0 11 c 4 8 c 4 3 c 11 4 c 8 0 c 11 -4 c 8 -7 c 4 -12 c 0 -11 c -4 -11 c -4 -4 c -8 -4 c -4 0 6827 3629 l
-7 3 c -4 4 c -4 8 c 0 15 c 4 7 c 4 4 c 7 4 c 8 0 c 7 -4 c 12 -7 c 38 -38 c 0 53 c -8 -3 6820 3749 l -4 -12 c 0 -7 c 4 -12 c 11 -7 c
19 -4 c 19 0 c 15 4 c 8 7 c 4 12 c 0 4 c -4 11 c -8 7 c -11 4 c -4 0 c -11 -4 c -8 -7 c -4 -11 c 0 -4 c 4 -12 c 8 -7 c 11 -4 c
4 -3 6880 3783 l 4 3 c -4 4 c -4 -4 c 11 -4 6835 3863 l 8 -7 c 3 -12 c 0 -4 c -3 -11 c -8 -7 c -11 -4 c -4 0 c -11 4 c -8 7 c
-4 11 c 0 4 c 4 12 c 8 7 c 15 4 c 19 0 c 18 -4 c 12 -7 c 4 -12 c 0 -7 c -4 -12 c -8 -3 c 80 -38 6808 3942 l 0 53 6808 3889 l
-8 -4 6820 4014 l -4 -11 c 0 -8 c 4 -11 c 11 -8 c 19 -3 c 19 0 c 15 3 c 8 8 c 4 11 c 0 4 c -4 11 c -8 8 c -11 4 c -4 0 c -11 -4 c
-8 -8 c -4 -11 c 0 -4 c 4 -11 c 8 -8 c 11 -3 c 0 -250 7225 1584 l 0 -38 7181 1701 l 34 -3 c -4 3 c -3 12 c 0 11 c 3 11 c 8 8 c
11 4 c 8 0 c 11 -4 c 8 -8 c 3 -11 c 0 -11 c -3 -12 c -4 -3 c -8 -4 c 0 42 7181 1739 l 30 -23 c 0 11 c 4 8 c 4 4 c 11 3 c 8 0 c
11 -3 c 8 -8 c 3 -11 c 0 -12 c -3 -11 c -4 -4 c -8 -4 c 0 41 7181 1815 l 30 -23 c 0 12 c 4 7 c 4 4 c 11 4 c 8 0 c 11 -4 c 8 -7 c
3 -12 c 0 -11 c -3 -11 c -4 -4 c -8 -4 c 4 -11 7181 1905 l 11 -8 c 19 -3 c 11 0 c 19 3 c 12 8 c 3 11 c 0 8 c -3 11 c -12 8 c -19 3 c
-11 0 c -19 -3 c -11 -8 c -4 -11 c 0 -8 c 4 -4 7253 1966 l 3 4 c -3 3 c -4 -3 c 4 -12 7181 2019 l 11 -7 c 19 -4 c 11 0 c 19 4 c
12 7 c 3 12 c 0 7 c -3 12 c -12 7 c -19 4 c -11 0 c -19 -4 c -11 -7 c -4 -12 c 0 -7 c 4 -11 7181 2090 l 7 -4 c 8 0 c 8 4 c 3 8 c
4 15 c 4 11 c 7 8 c 8 3 c 11 0 c 8 -3 c 4 -4 c 3 -11 c 0 -16 c -3 -11 c -4 -4 c -8 -3 c -11 0 c -8 3 c -7 8 c -4 11 c -4 15 c -3 8 c
-8 4 c -8 0 c -7 -4 c -4 -11 c 0 -16 c 4 -12 7181 2170 l 11 -7 c 19 -4 c 11 0 c 19 4 c 12 7 c 3 12 c 0 7 c -3 12 c -12 7 c -19 4 c
-11 0 c -19 -4 c -11 -7 c -4 -12 c 0 -7 c 0 -250 8071 1289 l 0 -38 8027 1406 l 34 -4 c -4 4 c -3 11 c 0 12 c 3 11 c 8 8 c 11 3 c
8 0 c 11 -3 c 8 -8 c 3 -11 c 0 -12 c -3 -11 c -4 -4 c -8 -3 c 0 41 8027 1444 l 30 -22 c 0 11 c 4 7 c 4 4 c 11 4 c 8 0 c 11 -4 c
8 -7 c 3 -12 c 0 -11 c -3 -11 c -4 -4 c -8 -4 c 0 42 8027 1519 l 30 -23 c 0 12 c 4 7 c 4 4 c 11 4 c 8 0 c 11 -4 c 8 -8 c 3 -11 c
0 -11 c -3 -12 c -4 -3 c -8 -4 c 79 -38 8027 1640 l 0 53 8027 1587 l 4 -3 8099 1670 l 3 3 c -3 4 c -4 -4 c 4 -11 8027 1723 l 11 -8 c
19 -3 c 11 0 c 19 3 c 12 8 c 3 11 c 0 8 c -3 11 c -12 8 c -19 4 c -11 0 c -19 -4 c -11 -8 c -4 -11 c 0 -8 c -4 7 8042 1788 l
-11 12 c 79 0 c 0 -38 8027 1897 l 34 -3 c -4 3 c -3 12 c 0 11 c 3 11 c 8 8 c 11 4 c 8 0 c 11 -4 c 8 -8 c 3 -11 c 0 -11 c -3 -12 c
-4 -3 c -8 -4 c 0 -249 8495 1299 l 0 -37 8452 1416 l 34 -4 c -4 4 c -4 11 c 0 11 c 4 12 c 8 7 c 11 4 c 7 0 c 12 -4 c 7 -7 c 4 -12 c
0 -11 c -4 -11 c -3 -4 c -8 -4 c 0 42 8452 1454 l 30 -23 c 0 11 c 4 8 c 4 4 c 11 4 c 7 0 c 12 -4 c 7 -8 c 4 -11 c 0 -11 c -4 -12 c
-3 -4 c -8 -3 c 53 -38 8452 1560 l 0 57 c 79 0 8452 1560 l 4 -11 8452 1620 l 11 -7 c 19 -4 c 11 0 c 19 4 c 11 7 c 4 11 c 0 8 c
-4 11 c -11 8 c -19 4 c -11 0 c -19 -4 c -11 -8 c -4 -11 c 0 -8 c 3 -4 8524 1681 l 4 4 c -4 4 c -3 -4 c 53 -38 8452 1749 l 0 57 c
79 0 8452 1749 l 12 -4 8478 1836 l 7 -7 c 4 -12 c 0 -4 c -4 -11 c -7 -7 c -12 -4 c -4 0 c -11 4 c -7 7 c -4 11 c 0 4 c 4 12 c 7 7 c
15 4 c 19 0 c 19 -4 c 11 -7 c 4 -12 c 0 -7 c -4 -12 c -7 -3 c 4 -11 8452 1881 l 7 -4 c 8 0 c 7 4 c 4 8 c 4 15 c 4 11 c 7 8 c 8 3 c
11 0 c 8 -3 c 3 -4 c 4 -12 c 0 -15 c -4 -11 c -3 -4 c -8 -4 c -11 0 c -8 4 c -7 8 c -4 11 c -4 15 c -4 8 c -7 4 c -8 0 c -7 -4 c
-4 -12 c 0 -15 c 0 -249 8877 7019 l 0 -38 8833 7136 l 34 -3 c -4 3 c -3 12 c 0 11 c 3 11 c 8 8 c 11 4 c 8 0 c 11 -4 c 8 -8 c 3 -11 c
0 -11 c -3 -12 c -4 -3 c -8 -4 c 0 42 8833 7174 l 30 -23 c 0 11 c 4 8 c 4 4 c 11 3 c 8 0 c 11 -3 c 8 -8 c 3 -11 c 0 -12 c -3 -11 c
-4 -4 c -8 -3 c 53 -38 8833 7280 l 0 57 c 79 0 8833 7280 l 0 42 8833 7325 l 30 -23 c 0 11 c 4 8 c 4 4 c 11 4 c 8 0 c 11 -4 c 8 -8 c
3 -11 c 0 -11 c -3 -12 c -4 -4 c -8 -3 c 4 -4 8905 7401 l 3 4 c -3 4 c -4 -4 c 0 -37 8833 7476 l 34 -4 c -4 4 c -3 11 c 0 11 c
3 12 c 8 7 c 11 4 c 8 0 c 11 -4 c 8 -7 c 3 -12 c 0 -11 c -3 -11 c -4 -4 c -8 -4 c 4 -12 8833 7526 l 7 -4 c 8 0 c 8 4 c 3 8 c 4 15 c
4 11 c 7 8 c 8 4 c 11 0 c 8 -4 c 4 -4 c 3 -11 c 0 -15 c -3 -12 c -4 -4 c -8 -3 c -11 0 c -8 3 c -7 8 c -4 11 c -4 15 c -3 8 c -8 4 c
-8 0 c -7 -4 c -4 -11 c 0 -15 c -4 7 8848 7594 l -11 11 c 79 0 c 0 -249 9092 1481 l 0 -38 9048 1599 l 34 -4 c -3 4 c -4 11 c 0 11 c
4 12 c 7 7 c 11 4 c 8 0 c 11 -4 c 8 -7 c 4 -12 c 0 -11 c -4 -11 c -4 -4 c -7 -4 c 0 42 9048 1636 l 31 -23 c 0 12 c 3 7 c 4 4 c
11 4 c 8 0 c 11 -4 c 8 -8 c 4 -11 c 0 -11 c -4 -12 c -4 -3 c -7 -4 c 53 -38 9048 1742 l 0 57 c 80 0 9048 1742 l 0 -37 9048 1825 l
34 -4 c -3 4 c -4 11 c 0 11 c 4 12 c 7 7 c 11 4 c 8 0 c 11 -4 c 8 -7 c 4 -12 c 0 -11 c -4 -11 c -4 -4 c -7 -4 c 4 -4 9120 1863 l
4 4 c -4 4 c -4 -4 c 0 42 9048 1901 l 31 -23 c 0 11 c 3 8 c 4 4 c 11 3 c 8 0 c 11 -3 c 8 -8 c 4 -11 c 0 -12 c -4 -11 c -4 -4 c
-7 -4 c -3 8 9063 1980 l -12 11 c 80 0 c -4 0 9067 2048 l -7 4 c -4 4 c -4 7 c 0 16 c 4 7 c 4 4 c 7 4 c 8 0 c 8 -4 c 11 -8 c
38 -37 c 0 53 c 0 -249 9225 1847 l 0 -37 9181 1964 l 34 -4 c -3 4 c -4 11 c 0 11 c 4 12 c 7 7 c 11 4 c 8 0 c 11 -4 c 8 -7 c 4 -12 c
0 -11 c -4 -11 c -4 -4 c -7 -4 c 0 42 9181 2002 l 31 -23 c 0 11 c 3 8 c 4 4 c 11 4 c 8 0 c 11 -4 c 8 -8 c 4 -11 c 0 -11 c -4 -12 c
-4 -4 c -7 -3 c 53 -38 9181 2108 l 0 57 c 80 0 9181 2108 l -8 -4 9193 2195 l -4 -11 c 0 -8 c 4 -11 c 11 -8 c 19 -3 c 19 0 c 15 3 c
8 8 c 4 11 c 0 4 c -4 11 c -8 8 c -11 4 c -4 0 c -11 -4 c -8 -8 c -3 -11 c 0 -4 c 3 -11 c 8 -8 c 11 -3 c 4 -4 9253 2229 l 4 4 c
-4 4 c -4 -4 c 0 41 9181 2267 l 31 -22 c 0 11 c 3 8 c 4 3 c 11 4 c 8 0 c 11 -4 c 8 -7 c 4 -12 c 0 -11 c -4 -11 c -4 -4 c -7 -4 c
80 -38 9181 2388 l 0 53 9181 2335 l 4 -11 9181 2429 l 8 -4 c 7 0 c 8 4 c 4 8 c 3 15 c 4 11 c 8 8 c 7 3 c 12 0 c 7 -3 c 4 -4 c
4 -12 c 0 -15 c -4 -11 c -4 -4 c -7 -4 c -12 0 c -7 4 c -8 8 c -4 11 c -3 15 c -4 8 c -8 4 c -7 0 c -8 -4 c -4 -12 c 0 -15 c
0 -249 9425 1556 l 0 -38 9381 1674 l 34 -4 c -4 4 c -4 11 c 0 11 c 4 12 c 8 7 c 11 4 c 8 0 c 11 -4 c 8 -7 c 3 -12 c 0 -11 c -3 -11 c
-4 -4 c -8 -4 c 0 42 9381 1711 l 30 -23 c 0 12 c 4 7 c 4 4 c 11 4 c 8 0 c 11 -4 c 8 -8 c 3 -11 c 0 -11 c -3 -12 c -4 -3 c -8 -4 c
53 -38 9381 1817 l 0 57 c 79 0 9381 1817 l 79 -38 9381 1908 l 0 53 9381 1855 l 4 -4 9453 1938 l 3 4 c -3 4 c -4 -4 c
12 -4 9407 2018 l 7 -8 c 4 -11 c 0 -4 c -4 -11 c -7 -8 c -12 -4 c -3 0 c -12 4 c -7 8 c -4 11 c 0 4 c 4 11 c 7 8 c 15 4 c 19 0 c
19 -4 c 12 -8 c 3 -11 c 0 -8 c -3 -11 c -8 -4 c 79 -38 9381 2097 l 0 53 9381 2044 l -4 7 9396 2131 l -11 12 c 79 0 c
0 -250 9557 1298 l 0 -38 9513 1415 l 34 -4 c -3 4 c -4 12 c 0 11 c 4 11 c 7 8 c 12 4 c 7 0 c 12 -4 c 7 -8 c 4 -11 c 0 -11 c -4 -12 c
-4 -4 c -7 -3 c 0 41 9513 1453 l 31 -22 c 0 11 c 3 8 c 4 3 c 12 4 c 7 0 c 12 -4 c 7 -7 c 4 -11 c 0 -12 c -4 -11 c -4 -4 c -7 -4 c
53 -38 9513 1559 l 0 57 c 80 0 9513 1559 l 11 -4 9540 1646 l 8 -8 c 4 -11 c 0 -4 c -4 -11 c -8 -8 c -11 -4 c -4 0 c -11 4 c -8 8 c
-4 11 c 0 4 c 4 11 c 8 8 c 15 4 c 19 0 c 19 -4 c 11 -8 c 4 -11 c 0 -8 c -4 -11 c -7 -4 c 4 -4 9585 1680 l 4 4 c -4 3 c -4 -3 c
4 -12 9513 1733 l 12 -7 c 18 -4 c 12 0 c 19 4 c 11 7 c 4 12 c 0 7 c -4 11 c -11 8 c -19 4 c -12 0 c -18 -4 c -12 -8 c -4 -11 c
0 -7 c 4 -11 9513 1808 l 12 -8 c 18 -4 c 12 0 c 19 4 c 11 8 c 4 11 c 0 8 c -4 11 c -11 8 c -19 3 c -12 0 c -18 -3 c -12 -8 c
-4 -11 c 0 -8 c 0 -37 9513 1906 l 34 -4 c -3 4 c -4 11 c 0 11 c 4 12 c 7 7 c 12 4 c 7 0 c 12 -4 c 7 -7 c 4 -12 c 0 -11 c -4 -11 c
-4 -4 c -7 -4 c 0 -250 9611 1297 l 0 -38 9568 1414 l 34 -3 c -4 3 c -4 12 c 0 11 c 4 11 c 7 8 c 12 4 c 7 0 c 12 -4 c 7 -8 c 4 -11 c
0 -11 c -4 -12 c -4 -3 c -7 -4 c 0 41 9568 1452 l 30 -22 c 0 11 c 4 8 c 3 3 c 12 4 c 7 0 c 12 -4 c 7 -7 c 4 -11 c 0 -12 c -4 -11 c
-4 -4 c -7 -4 c 53 -38 9568 1558 l 0 57 c 79 0 9568 1558 l 11 -4 9594 1645 l 8 -8 c 4 -11 c 0 -4 c -4 -11 c -8 -8 c -11 -4 c -4 0 c
-11 4 c -8 8 c -3 11 c 0 4 c 3 11 c 8 8 c 15 4 c 19 0 c 19 -4 c 11 -8 c 4 -11 c 0 -8 c -4 -11 c -7 -4 c 4 -4 9639 1679 l 4 4 c
-4 3 c -4 -3 c 53 -38 9568 1747 l 0 57 c 79 0 9568 1747 l -8 -4 9579 1834 l -3 -12 c 0 -7 c 3 -11 c 12 -8 c 19 -4 c 19 0 c 15 4 c
7 8 c 4 11 c 0 4 c -4 11 c -7 8 c -12 3 c -3 0 c -12 -3 c -7 -8 c -4 -11 c 0 -4 c 4 -11 c 7 -8 c 12 -4 c -4 8 9583 1871 l -11 11 c
79 0 c
showpage PGPLOT restore
 
%%Trailer
%%DocumentFonts: 
%%Pages: 1
%%EOF
