%!PS-Adobe-3.0 EPSF-3.0
%%For: tom
%%Title: PGPLOT PostScript plot
%%Creator: PGPLOT
%%CreationDate:  9-Nov-1994 13:54
%%BoundingBox: 25 18 587 774
%%DocumentFonts: (atend)
%%LanguageLevel: 1
%%Orientation: Landscape
%%Pages: (atend)
%%EndComments
%%BeginProlog
/l {moveto rlineto currentpoint stroke moveto} bind def
/c {rlineto currentpoint stroke moveto} bind def
/d {moveto 0 0 rlineto currentpoint stroke moveto} bind def
/SLW {5 mul setlinewidth} bind def
/SCF /pop load def
/BP {newpath moveto} bind def
/LP /rlineto load def
/EP {rlineto closepath eofill} bind def
/MB {gsave translate MFAC dup scale 1 setlinewidth 2 setlinecap 0 setlinejoin newpath} bind def
/ME /grestore load def
/C {0 360 arc stroke} bind def
/FC {0 360 arc fill} bind def
%%EndProlog
 
%%Page: 1 1
%%BeginPageSetup
/PGPLOT save def
0.072 0.072 scale
8150 250 translate 90 rotate
1 setlinejoin 1 setlinecap 1 SLW 1 SCF
%%EndPageSetup
0.00 setgray 1 SLW 8939 0 780 780 l 0 6239 c -8939 0 c 0 -6239 c 0 -45 1116 780 l 0 -45 1554 780 l 0 -45 1991 780 l 0 -45 2428 780 l
0 -90 2865 780 l 0 -45 3302 780 l 0 -45 3739 780 l 0 -45 4176 780 l 0 -45 4613 780 l 0 -90 5051 780 l 0 -45 5488 780 l
0 -45 5925 780 l 0 -45 6362 780 l 0 -45 6799 780 l 0 -90 7236 780 l 0 -45 7673 780 l 0 -45 8110 780 l 0 -45 8548 780 l
0 -45 8985 780 l 0 -90 9422 780 l 0 -45 1116 7064 l 0 -45 1554 7064 l 0 -45 1991 7064 l 0 -45 2428 7064 l 0 -90 2865 7109 l
0 -45 3302 7064 l 0 -45 3739 7064 l 0 -45 4176 7064 l 0 -45 4613 7064 l 0 -90 5051 7109 l 0 -45 5488 7064 l 0 -45 5925 7064 l
0 -45 6362 7064 l 0 -45 6799 7064 l 0 -90 7236 7109 l 0 -45 7673 7064 l 0 -45 8110 7064 l 0 -45 8548 7064 l 0 -45 8985 7064 l
0 -90 9422 7109 l -60 0 2775 672 l -6 -54 c 6 6 c 18 6 c 18 0 c 18 -6 c 12 -12 c 6 -18 c 0 -12 c -6 -18 c -12 -12 c -18 -6 c -18 0 c
-18 6 c -6 6 c -6 12 c -18 -6 2859 672 l -12 -18 c -6 -30 c 0 -18 c 6 -30 c 12 -18 c 18 -6 c 12 0 c 18 6 c 12 18 c 6 30 c 0 18 c
-6 30 c -12 18 c -18 6 c -12 0 c -18 -6 2979 672 l -12 -18 c -6 -30 c 0 -18 c 6 -30 c 12 -18 c 18 -6 c 12 0 c 18 6 c 12 18 c 6 30 c
0 18 c -6 30 c -12 18 c -18 6 c -12 0 c 12 6 4847 648 l 18 18 c 0 -126 c -18 -6 4985 672 l -12 -18 c -6 -30 c 0 -18 c 6 -30 c
12 -18 c 18 -6 c 12 0 c 18 6 c 12 18 c 6 30 c 0 18 c -6 30 c -12 18 c -18 6 c -12 0 c -18 -6 5105 672 l -12 -18 c -6 -30 c 0 -18 c
6 -30 c 12 -18 c 18 -6 c 12 0 c 18 6 c 12 18 c 6 30 c 0 18 c -6 30 c -12 18 c -18 6 c -12 0 c -18 -6 5225 672 l -12 -18 c -6 -30 c
0 -18 c 6 -30 c 12 -18 c 18 -6 c 12 0 c 18 6 c 12 18 c 6 30 c 0 18 c -6 30 c -12 18 c -18 6 c -12 0 c 12 6 7032 648 l 18 18 c
0 -126 c -60 0 7206 672 l -6 -54 c 6 6 c 18 6 c 18 0 c 18 -6 c 12 -12 c 6 -18 c 0 -12 c -6 -18 c -12 -12 c -18 -6 c -18 0 c -18 6 c
-6 6 c -6 12 c -18 -6 7290 672 l -12 -18 c -6 -30 c 0 -18 c 6 -30 c 12 -18 c 18 -6 c 12 0 c 18 6 c 12 18 c 6 30 c 0 18 c -6 30 c
-12 18 c -18 6 c -12 0 c -18 -6 7410 672 l -12 -18 c -6 -30 c 0 -18 c 6 -30 c 12 -18 c 18 -6 c 12 0 c 18 6 c 12 18 c 6 30 c 0 18 c
-6 30 c -12 18 c -18 6 c -12 0 c 0 6 9206 642 l 6 12 c 6 6 c 12 6 c 24 0 c 12 -6 c 6 -6 c 6 -12 c 0 -12 c -6 -12 c -12 -18 c
-60 -60 c 84 0 c -18 -6 9356 672 l -12 -18 c -6 -30 c 0 -18 c 6 -30 c 12 -18 c 18 -6 c 12 0 c 18 6 c 12 18 c 6 30 c 0 18 c -6 30 c
-12 18 c -18 6 c -12 0 c -18 -6 9476 672 l -12 -18 c -6 -30 c 0 -18 c 6 -30 c 12 -18 c 18 -6 c 12 0 c 18 6 c 12 18 c 6 30 c 0 18 c
-6 30 c -12 18 c -18 6 c -12 0 c -18 -6 9596 672 l -12 -18 c -6 -30 c 0 -18 c 6 -30 c 12 -18 c 18 -6 c 12 0 c 18 6 c 12 18 c 6 30 c
0 18 c -6 30 c -12 18 c -18 6 c -12 0 c -90 0 780 780 l -45 0 780 1716 l -90 0 780 2652 l -45 0 780 3588 l -90 0 780 4524 l
-45 0 780 5460 l -90 0 780 6396 l -90 0 9809 780 l -45 0 9764 1716 l -90 0 9809 2652 l -45 0 9764 3588 l -90 0 9809 4524 l
-45 0 9764 5460 l -90 0 9809 6396 l 6 -18 517 774 l 18 -12 c 30 -6 c 18 0 c 30 6 c 18 12 c 6 18 c 0 12 c -6 18 c -18 12 c -30 6 c
-18 0 c -30 -6 c -18 -12 c -6 -18 c 0 -12 c -6 0 547 2394 l -12 6 c -6 6 c -6 12 c 0 24 c 6 12 c 6 6 c 12 6 c 12 0 c 12 -6 c
18 -12 c 60 -60 c 0 84 c 84 84 547 2514 l 84 -84 547 2598 l -6 12 541 2658 l -18 18 c 126 0 c 6 -18 517 2796 l 18 -12 c 30 -6 c
18 0 c 30 6 c 18 12 c 6 18 c 0 12 c -6 18 c -18 12 c -30 6 c -18 0 c -30 -6 c -18 -12 c -6 -18 c 0 -12 c 63 -45 453 2920 l 0 68 c
94 0 453 2920 l 84 -60 517 4320 l 0 90 c 126 0 517 4320 l 84 84 547 4386 l 84 -84 547 4470 l -6 12 541 4530 l -18 18 c 126 0 c
6 -18 517 4668 l 18 -12 c 30 -6 c 18 0 c 30 6 c 18 12 c 6 18 c 0 12 c -6 18 c -18 12 c -30 6 c -18 0 c -30 -6 c -18 -12 c -6 -18 c
0 -12 c 63 -45 453 4793 l 0 67 c 94 0 453 4793 l -12 -6 535 6210 l -6 -18 c 0 -12 c 6 -18 c 18 -12 c 30 -6 c 30 0 c 24 6 c 12 12 c
6 18 c 0 6 c -6 18 c -12 12 c -18 6 c -6 0 c -18 -6 c -12 -12 c -6 -18 c 0 -6 c 6 -18 c 12 -12 c 18 -6 c 84 84 547 6258 l
84 -84 547 6342 l -6 12 541 6402 l -18 18 c 126 0 c 6 -18 517 6540 l 18 -12 c 30 -6 c 18 0 c 30 6 c 18 12 c 6 18 c 0 12 c -6 18 c
-18 12 c -30 6 c -18 0 c -30 -6 c -18 -12 c -6 -18 c 0 -12 c 63 -45 453 6665 l 0 67 c 94 0 453 6665 l
4 0 780 791 l 5 0 c 4 0 c 4 1 c 5 3 c 4 9 c 4 6 c 5 -1 c 4 -2 c 5 -4 c 4 2 c 4 -1 c 5 -3 c 4 -7 c 4 -3 c 5 0 c 4 -1 c 5 1 c 4 -1 c
4 1 c 5 2 c 4 1 c 4 0 c 5 0 c 4 -2 c 5 -2 c 4 0 c 4 0 c 5 1 c 4 0 c 4 0 c 5 1 c 4 0 c 5 3 c 4 13 c 4 27 c 5 33 c 4 5 c 4 -18 c
5 -34 c 4 -25 c 4 -4 c 5 0 c 4 0 c 5 0 c 4 2 c 4 6 c 5 3 c 4 4 c 4 -2 c 5 -3 c 4 -1 c 5 9 c 4 15 c 4 3 c 5 1 c 4 -15 c 4 -12 c
5 -5 c 4 -4 c 5 -1 c 4 2 c 4 1 c 5 0 c 4 -1 c 4 -3 c 5 0 c 4 -1 c 5 0 c 4 0 c 4 0 c 5 0 c 4 1 c 4 0 c 5 -1 c 4 0 c 4 0 c 5 0 c 4 0 c
5 0 c 4 1 c 4 2 c 5 1 c 4 -14 c 5 12 1151 780 l 4 3 c 5 0 c 4 0 c 4 -1 c 5 -2 c 4 -1 c 4 1 c 5 1 c 4 1 c 5 0 c 4 0 c 4 -2 c 5 0 c
4 0 c 4 0 c 5 0 c 4 1 c 5 0 c 4 2 c 4 1 c 5 -1 c 4 0 c 4 -1 c 5 0 c 4 2 c 4 1 c 5 4 c 4 19 c 5 11 c 4 1 c 4 -7 c 5 -16 c 4 7 c
4 46 c 5 132 c 4 143 c 5 25 c 4 -35 c 4 -98 c 5 147 c 4 124 c 4 -7 c 5 -119 c 4 -272 c 5 -101 c 4 -7 c 4 0 c 5 -1 c 4 -1 c 4 -1 c
5 1 c 4 0 c 5 0 c 4 0 c 4 0 c 5 0 c 4 0 c 4 3 c 5 6 c 4 1 c 4 0 c 5 -5 c 4 -3 c 5 0 c 4 0 c 4 0 c 5 -1 c 4 -1 c 4 2 c 5 0 c 4 0 c
5 -1 c 4 -2 c 4 -1 c 5 0 c 4 0 c 4 0 c 5 0 c 4 0 c 5 0 c 4 0 c 4 0 c 5 0 c 4 0 c 4 0 c 5 1 c 4 3 c 4 10 c 5 8 c 4 1 c 5 -5 c 4 -9 c
4 -5 c 5 -2 c 4 2 c 4 0 c 5 1 c 4 -1 c 5 -2 c 4 -1 c 4 0 c 5 -1 c 4 1 c 4 5 c 5 22 c 4 107 c 5 89 c 4 12 c 4 -31 c 5 -126 c 4 -69 c
4 -6 c 5 0 c 4 1 c 5 0 c 4 -2 c 4 -1 c 5 -1 c 4 0 c 4 1 c 5 1 c 4 7 c 4 5 c 5 0 c 4 0 c 5 -6 c 4 -3 c 4 -1 c 5 -3 c 4 -1 c 4 0 c
5 1 c 4 1 c 5 4 c 4 2 c 4 -1 c 5 0 c 4 -4 c 4 0 c 5 2 c 4 16 c 5 37 c 4 9 c 4 -4 c 5 -26 c 4 -26 c 4 -4 c 5 -1 c 4 -2 c 5 -1 c 4 3 c
4 13 c 5 4 c 4 -1 c 4 -7 c 5 -12 c 4 -3 c 4 1 c 5 0 c 4 0 c 5 -1 c 4 0 c 4 0 c 5 0 c 4 2 c 4 6 c 5 6 c 4 1 c 5 -2 c 4 -7 c 4 -4 c
5 9 c 4 58 c 4 157 c 5 58 c 4 0 c 5 -101 c 4 -147 c 4 -28 c 5 -1 c 4 0 c 4 -3 c 5 -2 c 4 0 c 5 4 c 4 3 c 4 -1 c 5 -2 c 4 -5 c 4 0 c
5 0 c 4 0 c 4 1 c 5 -1 c 4 0 c 5 1 c 4 3 c 4 9 c 5 4 c 4 0 c 4 -3 c 5 -7 c 4 0 c 5 16 c 4 22 c 4 -1 c 5 -4 c 4 -25 c 4 -14 c 5 0 c
4 1 c 5 0 c 4 0 c 4 -2 c 5 0 c 4 1 c 4 4 c 5 5 c 4 0 c 5 -1 c 4 -2 c 4 -5 c 5 0 c 4 -1 c 4 0 c 5 2 c 4 11 c 4 9 c 5 3 c 4 -2 c
5 -13 c 4 -7 c 4 -3 c 5 -1 c 4 1 c 4 0 c 5 0 c 4 0 c 5 -1 c 4 0 c 4 0 c 5 0 c 4 0 c 4 3 c 5 1 c 4 1 c 5 0 c 4 -2 c 4 -1 c 5 -1 c
4 -1 c 4 1 c 5 -1 c 4 0 c 4 1 c 5 2 c 4 3 c 5 2 c 4 0 c 4 -2 c 5 -2 c 4 -1 c 4 -1 c 5 -1 c 4 2 c 5 4 c 4 2 c 4 5 c 5 39 c 4 239 c
4 261 c 5 39 c 4 -64 c 5 -317 c 4 -189 c 4 -18 c 5 -1 c 4 -1 c 4 -1 c 5 0 c 4 0 c 5 0 c 4 2 c 4 1 c 5 0 c 4 0 c 4 -2 c 5 -1 c 4 0 c
4 1 c 5 -1 c 4 1 c 5 2 c 4 0 c 4 0 c 5 0 c 4 -2 c 4 -1 c 5 0 c 4 0 c 5 1 c 4 -1 c 4 0 c 5 0 c 4 0 c 4 6 c 5 10 c 4 1 c 5 -2 c 4 -7 c
4 -8 c 5 -1 c 4 0 c 4 1 c 5 1 c 4 0 c 5 -1 c 4 -1 c 4 1 c 5 -1 c 4 1 c 4 2 c 5 1 c 4 0 c 4 -2 c 5 -2 c 4 -1 c 5 0 c 4 1 c 4 0 c
5 0 c 4 0 c 4 1 c 5 0 c 4 1 c 5 0 c 4 0 c 4 0 c 5 0 c 4 1 c 4 11 c 5 74 c 4 76 c 5 14 c 4 -13 c 4 -94 c 5 -61 c 4 3 c 4 22 c 5 6 c
4 -3 c 5 -14 c 4 -19 c 4 -3 c 5 0 c 4 -1 c 4 0 c 5 1 c 4 2 c 4 0 c 5 0 c 4 -2 c 5 -1 c 4 -1 c 4 1 c 5 0 c 4 0 c 4 0 c 5 0 c 4 0 c
5 0 c 4 0 c 4 0 c 5 0 c 4 0 c 4 0 c 5 0 c 4 -1 c 5 0 c 4 1 c 4 3 c 5 2 c 4 1 c 4 3 c 5 2 c 4 0 c 4 -1 c 5 -5 c 4 -5 c 5 0 c 4 0 c
4 0 c 5 0 c 4 1 c 4 4 c 5 2 c 4 0 c 5 -3 c 4 -4 c 4 -1 c 5 0 c 4 0 c 4 1 c 5 3 c 4 6 c 5 4 c 4 -2 c 4 -3 c 5 -6 c 4 -1 c 4 2 c 5 5 c
4 4 c 5 1 c 4 -4 c 4 -3 c 5 -4 c 4 -1 c 4 0 c 5 0 c 4 1 c 4 1 c 5 2 c 4 3 c 5 3 c 4 4 c 4 35 c 5 321 c 4 528 c 4 234 c 5 11 c
4 -457 c 5 -440 c 4 -187 c 4 -50 c 5 -3 c 4 1 c 4 0 c 5 1 c 4 -1 c 5 0 c 4 2 c 4 6 c 5 5 c 4 -1 c 4 -1 c 5 -7 c 4 -1 c 5 0 c 4 2 c
4 1 c 5 4 c 4 8 c 4 18 c 5 73 c 4 444 c 4 1162 c 5 567 c 4 8 c 5 -624 c 4 -1167 c 4 -357 c 5 -79 c 4 -34 c 4 -12 c 5 -6 c 4 -2 c
5 -3 c 4 -2 c 4 -2 c 5 0 c 4 -1 c 4 0 c 5 0 c 4 1 c 5 -1 c 4 -2 c 4 1 c 5 4 c 4 6 c 4 7 c 5 2 c 4 -5 c 5 -6 c 4 -7 c 4 -1 c 5 1 c
4 1 c 4 1 c 5 2 c 4 3 c 4 1 c 5 8 c 4 20 c 5 172 c 4 1730 c 4 2563 c 5 538 c 4 -317 c 4 -2242 c 5 -1990 c 4 -249 c 5 -77 c 4 -118 c
4 -36 c 5 -2 c 4 -2 c 4 -1 c 5 -2 c 4 1 c 5 14 c 4 19 c 4 121 c 5 380 c 4 127 c 4 -10 c 5 -183 c 4 -381 c 5 -88 c 4 -5 c 4 -1 c
5 0 c 4 0 c 4 -1 c 5 0 c 4 0 c 4 0 c 5 0 c 4 -1 c 5 1 c 4 0 c 4 0 c 5 0 c 4 1 c 4 1 c 5 1 c 4 1 c 5 2 c 4 0 c 4 1 c 5 5 c 4 19 c
4 252 c 5 885 c 4 390 c 5 -18 c 4 -439 c 4 -842 c 5 -176 c 4 158 c 4 687 c 5 534 c 4 48 c 4 -240 c 5 -768 c 4 -371 c 5 -82 c 4 -24 c
4 -12 c 5 -4 c 4 -2 c 4 0 c 5 -2 c 4 -3 c 5 -1 c 4 0 c 4 -1 c 5 0 c 4 0 c 4 3 c 5 22 c 4 15 c 5 2 c 4 -4 c 4 -25 c 5 -11 c 4 -2 c
4 -1 c 5 -1 c 4 -1 c 5 -1 c 4 1 c 4 1 c 5 0 c 4 0 c 4 0 c 5 -1 c 4 0 c 4 0 c 5 0 c 4 0 c 5 0 c 4 -1 c 4 1 c 5 0 c 4 0 c 4 1 c 5 10 c
4 40 c 5 30 c 4 7 c 4 -15 c 5 -45 c 4 -22 c 4 -4 c 5 2 c 4 2 c 5 2 c 4 7 c 4 3 c 5 1 c 4 -4 c 4 -8 c 5 -5 c 4 -1 c 5 -1 c 4 1 c
4 0 c 5 0 c 4 1 c 4 1 c 5 3 c 4 6 c 4 1 c 5 2 c 4 -3 c 5 3 c 4 98 c 4 565 c 5 475 c 4 22 c 4 -146 c 5 -674 c 4 -314 c 5 -34 c 4 -3 c
4 -1 c 5 -2 c 4 0 c 4 0 c 5 0 c 4 -1 c 5 0 c 4 1 c 4 0 c 5 0 c 4 0 c 4 0 c 5 0 c 4 0 c 5 1 c 4 1 c 4 2 c 5 0 c 4 7 c 4 31 c 5 18 c
4 1 c 4 -12 c 5 -34 c 4 -12 c 5 0 c 4 0 c 4 0 c 5 -1 c 4 0 c 4 -2 c 5 -1 c 4 1 c 5 0 c 4 1 c 4 9 c 5 9 c 4 1 c 4 -2 c 5 -9 c 4 -7 c
5 -1 c 4 0 c 4 -1 c 5 0 c 4 0 c 4 0 c 5 0 c 4 -1 c 5 0 c 4 0 c 4 2 c 5 0 c 4 0 c 4 0 c 5 1 c 4 0 c 4 0 c 5 2 c 4 17 c 5 38 c 4 17 c
4 -2 c 5 -26 c 4 -36 c 4 -10 c 5 0 c 4 0 c 5 0 c 4 1 c 4 0 c 5 0 c 4 2 c 4 2 c 5 1 c 4 4 c 5 11 c 4 91 c 4 343 c 5 287 c 4 44 c
4 -114 c 5 -357 c 4 183 c 4 1777 c 5 1154 c 4 208 c 5 -470 c 4 -2000 c 4 -918 c 5 56 c 4 467 c 4 175 c 5 -7 c 4 -283 c 5 -498 c
4 -132 c 4 -13 c 5 -8 c 4 -2 c 4 -1 c 5 -1 c 4 -1 c 5 0 c 4 0 c 4 1 c 5 -1 c 4 0 c 4 0 c 5 3 c 4 1 c 5 0 c 4 -1 c 4 -4 c 5 -1 c
4 0 c 4 1 c 5 3 c 4 11 c 4 8 c 5 0 c 4 -4 c 5 -12 c 4 -5 c 4 1 c 5 7 c 4 13 c 4 8 c 5 1 c 4 -6 c 5 -11 c 4 -5 c 4 -3 c 5 0 c 4 2 c
4 19 c 5 55 c 4 24 c 5 -1 c 4 -29 c 4 -55 c 5 -18 c 4 -2 c 4 -2 c 5 1 c 4 0 c 5 2 c 4 2 c 4 2 c 5 2 c 4 1 c 4 -1 c 5 4 c 4 10 c
4 98 c 5 859 c 4 1306 c 5 407 c 4 -60 c 4 -1029 c 5 -1343 c 4 -233 c 4 -16 c 5 -2 c 4 -1 c 5 -2 c 4 -2 c 4 -1 c 5 -1 c 4 -1 c 4 -1 c
5 4 c 4 22 c 5 146 c 4 187 c 4 38 c 5 -22 c 4 -184 c 4 -159 c 5 -27 c 4 0 c 5 -1 c 4 -2 c 4 -3 c 5 -1 c 4 2 c 4 0 c 5 1 c 4 -1 c
4 -2 c 5 -1 c 4 0 c 5 3 c 4 0 c 4 1 c 5 -2 c 4 -2 c 4 0 c 5 0 c 4 0 c 5 1 c 4 2 c 4 3 c 5 3 c 4 0 c 4 0 c 5 -2 c 4 -3 c 5 -1 c
4 -3 c 4 0 c 5 1 c 4 1 c 4 0 c 5 -1 c 4 -1 c 5 1 c 4 0 c 4 1 c 5 1 c 4 0 c 4 0 c 5 0 c 4 -2 c 4 -1 c 5 0 c 4 0 c 5 0 c 4 0 c 4 0 c
5 0 c 4 1 c 4 1 c 5 1 c 4 0 c 5 -1 c 4 0 c 4 1 c 5 1 c 4 0 c 4 -2 c 5 1 c 4 7 c 5 11 c 4 6 c 4 0 c 5 -1 c 4 5 c 4 1 c 5 0 c 4 -9 c
4 -15 c 5 -2 c 4 -1 c 5 1 c 4 0 c 4 0 c 5 0 c 4 1 c 4 -1 c 5 0 c 4 1 c 5 1 c 4 0 c 4 2 c 5 3 c 4 4 c 4 5 c 5 4 c 4 7 c 5 5 c 4 10 c
4 31 c 5 196 c 4 2142 c 4 3617 c 5 7 c 4 1 c 5 -7 c 4 -3744 c 4 -2050 c 5 -177 c 4 -23 c 4 -9 c 5 -6 c 4 -2 c 4 -4 c 5 -3 c 4 -2 c
5 -1 c 4 7 c 4 3 c 5 -1 c 4 -3 c 4 -7 c 5 -2 c 4 1 c 5 4 c 4 16 c 4 11 c 5 5 c 4 1 c 4 17 c 5 61 c 4 26 c 5 7 c 4 -25 c 4 -66 c
5 -27 c 4 -11 c 4 -16 c 5 -9 c 4 -2 c 5 0 c 4 0 c 4 0 c 5 0 c 4 1 c 4 0 c 5 0 c 4 1 c 4 0 c 5 2 c 4 2 c 5 1 c 4 1 c 4 2 c 5 2 c
4 3 c 4 11 c 5 31 c 4 311 c 5 1803 c 4 1943 c 4 579 c 5 -400 c 4 -2007 c 4 -1779 c 5 -435 c 4 -50 c 5 -5 c 4 -5 c 4 -1 c 5 1 c 4 0 c
4 -1 c 5 3 c 4 2 c 5 0 c 4 -3 c 4 -6 c 5 -3 c 4 -1 c 4 4 c 5 25 c 4 201 c 4 352 c 5 134 c 4 -19 c 5 -235 c 4 -332 c 4 -113 c 5 -9 c
4 -3 c 4 -3 c 5 -2 c 4 0 c 5 1 c 4 1 c 4 2 c 5 4 c 4 6 c 4 6 c 5 14 c 4 43 c 5 251 c 4 1016 c 4 947 c 5 279 c 4 -241 c 4 -1120 c
5 -937 c 4 -200 c 4 -30 c 5 7 c 4 3 c 5 1 c 4 -4 c 4 10 c 5 68 c 4 42 c 4 3 c 5 -34 c 4 -78 c 5 -46 c 4 -10 c 4 -2 c 5 -1 c 4 -1 c
4 0 c 5 1 c 4 0 c 5 5 c 4 -28 c 4 37 c 5 3 c 4 11 c 4 99 c 5 648 c 4 1219 c 5 483 c 4 -4 c 4 -736 c 5 -1294 c 4 -396 c 4 -39 c
5 -4 c 4 -3 c 4 -2 c 5 -1 c 4 -1 c 5 -1 c 4 -1 c 4 -1 c 5 1 c 4 0 c 4 4 c 5 11 c 4 6 c 5 6 c 4 2 c 4 -10 c 5 -6 c 4 -6 c 4 6 c
5 29 c 4 26 c 5 13 c 4 -9 c 4 -33 c 5 -23 c 4 -14 c 4 -4 c 5 -1 c 4 0 c 5 0 c 4 1 c 4 -1 c 5 1 c 4 1 c 4 4 c 5 10 c 4 9 c 4 21 c
5 11 c 4 -7 c 5 -12 c 4 -22 c 4 -12 c 5 0 c 4 2 c 4 1 c 5 1 c 4 0 c 5 -1 c 4 0 c 4 1 c 5 3 c 4 6 c 4 6 c 5 2 c 4 9 c 5 89 c 4 238 c
4 172 c 5 34 c 4 -122 c 4 -263 c 5 -143 c 4 -29 c 5 -3 c 4 -2 c 4 0 c 5 0 c 4 0 c 4 1 c 5 4 c 4 5 c 4 4 c 5 -1 c 4 -4 c 5 -6 c
4 -3 c 4 -1 c 5 3 c 4 3 c 4 4 c 5 19 c 4 27 c 5 9 c 4 -4 c 4 -26 c 5 -24 c 4 4 c 4 32 c 5 30 c 4 6 c 5 -16 c 4 -32 c 4 -27 c 5 -9 c
4 -1 c 4 -1 c 5 1 c 4 0 c 5 0 c 4 1 c 4 4 c 5 1 c 4 0 c 4 3 c 5 6 c 4 5 c 4 2 c 5 -5 c 4 -9 c 5 -6 c 4 -2 c 4 -1 c 5 -1 c 4 0 c
4 4 c 5 8 c 4 3 c 5 0 c 4 -3 c 4 -7 c 5 -2 c 4 0 c 4 -1 c 5 1 c 4 2 c 5 0 c 4 0 c 4 -2 c 5 1 c 4 8 c 4 5 c 5 2 c 4 0 c 4 -3 c 5 33 c
4 52 c 5 16 c 4 -4 c 4 -43 c 5 -55 c 4 -13 c 4 -1 c 5 5 c 4 40 c 5 108 c 4 55 c 4 12 c 5 -43 c 4 -109 c 4 -54 c 5 -2 c 4 2 c 5 0 c
4 -2 c 4 -5 c 5 -6 c 4 -1 c 4 -1 c 5 0 c 4 0 c 5 2 c 4 6 c 4 4 c 5 0 c 4 -1 c 4 -5 c 5 -2 c 4 -1 c 4 0 c 5 -1 c 4 -1 c 5 -1 c 4 1 c
4 1 c 5 0 c 4 1 c 4 0 c 5 0 c 4 3 c 5 28 c 4 201 c 4 241 c 5 61 c 4 -20 c 4 -218 c 5 -224 c 4 -58 c 5 -6 c 4 -3 c 4 -4 c 5 -2 c
4 0 c 4 -17 c 5 16 c 4 -1 c 5 0 c 4 0 c 4 0 c 5 0 c 4 0 c 4 -1 c 5 0 c 4 1 c 4 -1 c 5 1 c 4 0 c 5 0 c 4 0 c 4 0 c 5 2 c 4 0 c 4 0 c
5 -1 c 4 -1 c 5 0 c 4 1 c 4 1 c 5 1 c 4 1 c 4 1 c 5 3 c 4 0 c 5 0 c 4 -2 c 4 -1 c 5 -2 c 4 -2 c 4 0 c 5 0 c 4 0 c 5 0 c 4 -1 c 4 0 c
5 0 c 4 1 c 4 0 c 5 2 c 4 2 c 4 0 c 5 0 c 4 -1 c 5 -1 c 4 -1 c 4 7 c 5 17 c 4 7 c 4 1 c 5 -7 c 4 -17 c 5 -6 c 4 3 c 4 3 c 5 0 c
4 0 c 4 -4 c 5 11 c 4 77 c 5 78 c 4 13 c 4 -14 c 5 -75 c 4 -81 c 4 -13 c 5 -1 c 4 0 c 5 1 c 4 2 c 4 2 c 5 1 c 4 0 c 4 -2 c 5 -1 c
4 -1 c 4 -1 c 5 0 c 4 2 c 5 7 c 4 78 c 4 116 c 5 42 c 4 -2 c 4 -76 c 5 -109 c 4 -25 c 5 2 c 4 -2 c 4 -13 c 5 -15 c 4 -3 c 4 2 c
5 2 c 4 2 c 5 5 c 4 43 c 4 50 c 5 13 c 4 -4 c 4 -23 c 5 -21 c 4 -7 c 4 -5 c 5 -25 c 4 -24 c 5 17 c 4 32 c 4 26 c 5 16 c 4 -20 c
4 -25 c 5 6 c 4 32 c 5 9 c 4 -4 c 4 -31 c 5 -50 c 4 -7 c 4 0 c 5 4 c 4 2 c 5 -3 c 4 -3 c 4 -5 c 5 -3 c 4 19 c 4 163 c 5 198 c 4 58 c
5 -11 c 4 -162 c 4 -200 c 5 -56 c 4 -6 c 4 -3 c 5 -1 c 4 -1 c 4 0 c 5 0 c 4 0 c 5 0 c 4 1 c 4 12 c 5 62 c 4 41 c 4 6 c 5 -11 c
4 -62 c 5 -43 c 4 -1 c 4 7 c 5 44 c 4 143 c 4 128 c 5 30 c 4 -32 c 5 -118 c 4 -11 c 4 42 c 5 3 c 4 -31 c 4 -109 c 5 -84 c 4 -6 c
5 0 c 4 0 c 4 9 c 5 15 c 4 4 c 4 1 c 5 -8 c 4 4 c 4 249 c 5 899 c 4 516 c 5 98 c 4 -157 c 4 -888 c 5 -512 c 4 -95 c 4 -68 c 5 -62 c
4 -11 c 5 -2 c 4 -1 c 4 0 c 5 2 c 4 9 c 4 28 c 5 72 c 4 90 c 5 78 c 4 89 c 4 -5 c 5 -90 c 4 -80 c 4 -125 c 5 -62 c 4 -7 c 5 -1 c
4 0 c 4 1 c 5 2 c 4 1 c 4 -1 c 5 -2 c 4 -2 c 4 -1 c 5 1 c 4 4 c 5 2 c 4 1 c 4 7 c 5 4 c 4 1 c 4 1 c 5 13 c 4 13 c 5 0 c 4 -2 c
4 -21 c 5 -21 c 4 -4 c 4 0 c 5 0 c 4 1 c 5 0 c 4 0 c 4 -1 c 5 1 c 4 -1 c 4 0 c 5 0 c 4 0 c 5 1 c 4 8 c 4 5 c 5 2 c 4 1 c 4 -4 c
5 -6 c 4 0 c 4 2 c 5 0 c 4 1 c 5 -1 c 4 -2 c 4 -1 c 5 -1 c 4 -1 c 4 -2 c 5 -2 c 4 1 c 5 1 c 4 1 c 4 0 c 5 0 c 4 0 c 4 2 c 5 2 c
4 4 c 5 0 c 4 -1 c 4 -2 c 5 -2 c 4 -2 c 4 1 c 5 0 c 4 -2 c 4 -2 c 5 0 c 4 0 c 5 2 c 4 1 c 4 -1 c 5 -1 c 4 -2 c 4 -1 c 5 0 c 4 1 c
5 10 c 4 17 c 4 4 c 5 0 c 4 -12 c 4 -16 c 5 -4 c 4 -1 c 5 0 c 4 0 c 4 0 c 5 0 c 4 0 c 4 0 c 5 0 c 4 0 c 5 0 c 4 0 c 4 1 c 5 1 c
4 0 c 4 1 c 5 2 c 4 1 c 4 7 c 5 3 c 4 0 c 5 -1 c 4 -5 c 4 -6 c 5 -1 c 4 0 c 4 -2 c 5 0 c 4 0 c 5 0 c 4 7 c 4 22 c 5 16 c 4 5 c
4 -4 c 5 -23 c 4 -13 c 5 -5 c 4 -1 c 4 -1 c 5 -1 c 4 -1 c 4 0 c 5 2 c 4 4 c 5 14 c 4 136 c 4 206 c 5 42 c 4 -13 c 4 -121 c 5 -208 c
4 -57 c 4 -2 c 5 0 c 4 -1 c 5 0 c 4 0 c 4 0 c 5 0 c 4 0 c 4 0 c 5 16 c 4 37 c 5 21 c 4 3 c 4 -12 c 5 -38 c 4 -4 c 4 25 c 5 14 c
4 8 c 5 -16 c 4 -29 c 4 -18 c 5 -8 c 4 -1 c 4 4 c 5 7 c 4 2 c 5 1 c 4 -1 c 4 -7 c 5 -2 c 4 -1 c 4 0 c 5 3 c 4 19 c 4 220 c 5 588 c
4 209 c 5 0 c 4 -202 c 4 -589 c 5 -223 c 4 -22 c 4 -1 c 5 -1 c 4 -1 c 5 0 c 4 0 c 4 8 c 5 57 c 4 43 c 4 4 c 5 -8 c 4 -49 c 5 -31 c
4 25 c 4 30 c 5 127 c 4 115 c 4 -19 c 5 -23 c 4 -120 c 4 -136 c 5 -21 c 4 -2 c 5 -1 c 4 -2 c 4 -1 c 5 0 c 4 0 c 4 4 c 5 14 c 4 12 c
5 2 c 4 -2 c 4 -3 c 5 10 c 4 3 c 4 -1 c 5 -8 c 4 -24 c 5 -7 c 4 0 c 4 -1 c 5 1 c 4 0 c 4 0 c 5 -1 c 4 0 c 5 0 c 4 2 c 4 4 c 5 2 c
4 1 c 4 -2 c 5 -4 c 4 -2 c 4 1 c 5 0 c 4 1 c 5 1 c 4 0 c 4 0 c 5 0 c 4 1 c 4 22 c 5 101 c 4 61 c 5 8 c 4 -15 c 4 -93 c 5 -80 c
4 -7 c 4 -1 c 5 0 c 4 1 c 5 0 c 4 -1 c 4 1 c 5 0 c 4 -1 c 4 1 c 5 0 c 4 2 c 5 1 c 4 1 c 4 6 c 5 13 c 4 30 c 4 16 c 5 -2 c 4 -2 c
4 56 c 5 304 c 4 180 c 5 32 c 4 172 c 4 328 c 5 16 c 4 -13 c 4 -200 c 5 -629 c 4 -245 c 5 36 c 4 451 c 4 1339 c 5 729 c 4 106 c
4 -325 c 5 -1309 c 4 -909 c 5 -114 c 4 -19 c 4 -4 c 5 -5 c 4 -15 c 4 -8 c 5 -5 c 4 -5 c 5 -2 c 4 0 c 4 2 c 5 45 c 4 174 c 4 91 c
5 15 c 4 -39 c 4 -162 c 5 -120 c 4 -10 c 5 -2 c 4 0 c 4 0 c 5 5 c 4 5 c 4 1 c 5 3 c 4 4 c 5 -2 c 4 -1 c 4 -3 c 5 -6 c 4 -1 c 4 2 c
5 0 c 4 -1 c 5 -4 c 4 -2 c 4 0 c 5 -1 c 4 1 c 4 0 c 5 0 c 4 -1 c 5 0 c 4 1 c 4 1 c 5 0 c 4 0 c 4 1 c 5 6 c 4 41 c 4 51 c 5 3 c
4 -2 c 5 -37 c 4 -55 c 4 -8 c 5 -1 c 4 1 c 4 -1 c 5 -1 c 4 0 c 5 -1 c 4 0 c 4 0 c 5 0 c 4 0 c 4 1 c 5 0 c 4 0 c 5 0 c 4 1 c 4 0 c
5 0 c 4 0 c 4 0 c 5 0 c 4 0 c 4 2 c 5 1 c 4 0 c 5 0 c 4 4 c 4 9 c 5 97 c 4 690 c 4 1017 c 5 153 c 4 -38 c 5 -584 c 4 -1094 c
4 -228 c 5 -19 c 4 -4 c 4 -2 c 5 -1 c 4 0 c 5 0 c 4 0 c 4 9 c 5 26 c 4 16 c 4 4 c 5 -5 c 4 5 c 5 58 c 4 21 c 4 1 c 5 -17 c 4 -77 c
4 -40 c 5 -4 c 4 0 c 4 0 c 5 -1 c 4 -1 c 5 0 c 4 -1 c 4 1 c 5 2 c 4 -1 c 4 0 c 5 -1 c 4 -1 c 5 1 c 4 1 c 4 0 c 5 -1 c 4 0 c 4 -1 c
5 2 c 4 3 c 5 3 c 4 -1 c 4 -2 c 5 -2 c 4 -2 c 4 -1 c 5 0 c 4 3 c 5 12 c 4 17 c 4 7 c 5 5 c 4 -1 c 4 -12 c 5 -9 c 4 -5 c 4 -9 c
5 -4 c 4 2 c 5 4 c 4 -1 c 4 -1 c 5 -1 c 4 -4 c 4 -1 c 5 1 c 4 -1 c 5 0 c 4 3 c 4 2 c 5 1 c 4 1 c 4 1 c 5 0 c 4 4 c 5 8 c 4 7 c 4 4 c
5 17 c 4 148 c 4 1189 c
5 2091 c 4 548 c 5 -126 c 4 -851 c 4 -3062 c 4 71 9549 780 l 4 -16 c 5 -18 c 4 -1 c 4 -2 c 5 0 c 4 2 c 5 -2 c 4 -4 c 4 -2 c 5 0 c
4 46 c 4 185 c 5 184 c 4 18 c 5 -25 c 4 -162 c 4 -212 c 5 -44 c 4 -2 c 4 0 c 5 0 c 4 2 c 5 6 c 4 8 c 4 3 c 5 0 c 4 -6 c 4 -8 c
5 -4 c 4 -2 c 5 -2 c 4 -1 c 4 1 c 5 0 c 4 0 c 4 3 c 5 5 c 4 1 c
0 -126 3030 418 l 54 0 3030 418 l 18 -6 c 6 -6 c 6 -12 c 0 -12 c -6 -12 c -6 -6 c -18 -6 c -54 0 c 42 -66 3072 358 l
-12 -6 3180 376 l -12 -12 c -6 -18 c 0 -12 c 6 -18 c 12 -12 c 12 -6 c 18 0 c 12 6 c 12 12 c 6 18 c 0 12 c -6 18 c -12 12 c -12 6 c
-18 0 c 24 -84 3264 376 l -24 -84 3312 376 l 24 -84 3312 376 l -24 -84 3360 376 l 108 0 3402 364 l 108 0 3402 328 l 0 6 3654 388 l
6 12 c 6 6 c 12 6 c 24 0 c 12 -6 c 6 -6 c 6 -12 c 0 -12 c -6 -12 c -12 -18 c -60 -60 c 84 0 c -6 12 3846 400 l -18 6 c -12 0 c
-18 -6 c -12 -18 c -6 -30 c 0 -30 c 6 -24 c 12 -12 c 18 -6 c 6 0 c 18 6 c 12 12 c 6 18 c 0 6 c -6 18 c -12 12 c -18 6 c -6 0 c
-18 -6 c -12 -12 c -6 -18 c 12 6 4290 394 l 18 18 c 0 -126 c -6 -6 4404 376 l 6 -6 c 6 6 c -6 6 c -6 -6 4404 304 l 6 -6 c 6 6 c
-6 6 c -48 -126 4584 418 l 48 -126 4584 418 l 60 0 4554 334 l 0 -84 4662 376 l 6 18 4662 340 l 12 12 c 12 6 c 18 0 c
-12 12 4806 358 l -12 6 c -18 0 c -12 -6 c -12 -12 c -6 -18 c 0 -12 c 6 -18 c 12 -12 c 12 -6 c 18 0 c 12 6 c 12 12 c
108 0 4848 346 l -18 -6 5034 418 l -12 -18 c -6 -30 c 0 -18 c 6 -30 c 12 -18 c 18 -6 c 12 0 c 18 6 c 12 18 c 6 30 c 0 18 c -6 30 c
-12 18 c -18 6 c -12 0 c 66 0 5130 418 l -36 -48 c 18 0 c 12 -6 c 6 -6 c 6 -18 c 0 -12 c -6 -18 c -12 -12 c -18 -6 c -18 0 c -18 6 c
-6 6 c -6 12 c -59 0 5309 418 l -6 -54 c 6 6 c 17 6 c 18 0 c 18 -6 c 12 -12 c 6 -18 c 0 -12 c -6 -18 c -12 -12 c -18 -6 c -18 0 c
-17 6 c -6 6 c -6 12 c -6 -6 5369 304 l 6 -6 c 6 6 c -6 6 c -12 0 5459 418 l -12 -6 c -6 -18 c 0 -102 c 42 0 5411 376 l
6 -6 5489 418 l 6 6 c -6 6 c -6 -6 c 0 -84 5495 376 l 0 -102 5549 418 l 6 -18 c 12 -6 c 12 0 c 42 0 5531 376 l -6 12 5675 358 l
-18 6 c -18 0 c -18 -6 c -6 -12 c 6 -12 c 12 -6 c 30 -6 c 12 -6 c 6 -12 c 0 -6 c -6 -12 c -18 -6 c -18 0 c -18 6 c -6 12 c
0 -192 6005 442 l 0 -192 6011 442 l 42 0 6005 442 l 42 0 6005 250 l 0 6 6089 388 l 6 12 c 6 6 c 12 6 c 24 0 c 12 -6 c 6 -6 c 6 -12 c
0 -12 c -6 -12 c -12 -18 c -60 -60 c 84 0 c -6 -6 6215 376 l 6 -6 c 6 6 c -6 6 c -6 -6 6215 304 l 6 -6 c 6 6 c -6 6 c
-48 -126 6395 418 l 48 -126 6395 418 l 60 0 6365 334 l 0 -84 6473 376 l 6 18 6473 340 l 12 12 c 12 6 c 18 0 c -12 12 6617 358 l
-12 6 c -18 0 c -12 -6 c -12 -12 c -6 -18 c 0 -12 c 6 -18 c 12 -12 c 12 -6 c 18 0 c 12 6 c 12 12 c 108 0 6659 346 l
-18 -6 6845 418 l -12 -18 c -6 -30 c 0 -18 c 6 -30 c 12 -18 c 18 -6 c 12 0 c 18 6 c 12 18 c 6 30 c 0 18 c -6 30 c -12 18 c -18 6 c
-12 0 c 66 0 6941 418 l -36 -48 c 18 0 c 12 -6 c 6 -6 c 6 -18 c 0 -12 c -6 -18 c -12 -12 c -18 -6 c -18 0 c -18 6 c -6 6 c -6 12 c
-6 12 7127 400 l -18 6 c -12 0 c -18 -6 c -12 -18 c -6 -30 c 0 -30 c 6 -24 c 12 -12 c 18 -6 c 6 0 c 18 6 c 12 12 c 6 18 c 0 6 c
-6 18 c -12 12 c -18 6 c -6 0 c -18 -6 c -12 -12 c -6 -18 c -6 -6 7181 304 l 6 -6 c 6 6 c -6 6 c -12 0 7271 418 l -12 -6 c -6 -18 c
0 -102 c 42 0 7223 376 l 6 -6 7301 418 l 6 6 c -6 6 c -6 -6 c 0 -84 7307 376 l 0 -102 7361 418 l 6 -18 c 12 -6 c 12 0 c
42 0 7343 376 l -6 12 7487 358 l -18 6 c -18 0 c -18 -6 c -6 -12 c 6 -12 c 12 -6 c 30 -6 c 12 -6 c 6 -12 c 0 -6 c -6 -12 c -18 -6 c
-18 0 c -18 6 c -6 12 c 0 -192 7559 442 l 0 -192 7565 442 l 42 0 7523 442 l 42 0 7523 250 l
0 -250 945 1310 l 0 -38 901 1427 l 34 -4 c -3 4 c -4 11 c 0 12 c 4 11 c 7 7 c 12 4 c 7 0 c 11 -4 c 8 -7 c 4 -11 c 0 -12 c -4 -11 c
-4 -4 c -7 -4 c -3 8 916 1468 l -12 11 c 80 0 c -4 0 920 1536 l -7 4 c -4 4 c -4 7 c 0 16 c 4 7 c 4 4 c 7 4 c 8 0 c 8 -4 c 11 -8 c
38 -37 c 0 52 c -4 0 920 1612 l -7 4 c -4 3 c -4 8 c 0 15 c 4 8 c 4 3 c 7 4 c 8 0 c 8 -4 c 11 -7 c 38 -38 c 0 53 c 4 -4 973 1691 l
4 4 c -4 4 c -4 -4 c 53 -38 901 1759 l 0 57 c 80 0 901 1759 l 11 -4 928 1846 l 8 -7 c 4 -11 c 0 -4 c -4 -12 c -8 -7 c -11 -4 c
-4 0 c -11 4 c -8 7 c -4 12 c 0 4 c 4 11 c 8 7 c 15 4 c 19 0 c 19 -4 c 11 -7 c 4 -11 c 0 -8 c -4 -11 c -8 -4 c 11 -4 928 1922 l
8 -8 c 4 -11 c 0 -4 c -4 -11 c -8 -8 c -11 -3 c -4 0 c -11 3 c -8 8 c -4 11 c 0 4 c 4 11 c 8 8 c 15 4 c 19 0 c 19 -4 c 11 -8 c
4 -11 c 0 -7 c -4 -12 c -8 -4 c 0 -250 1335 1737 l 0 -38 1291 1854 l 34 -4 c -3 4 c -4 11 c 0 12 c 4 11 c 7 8 c 11 3 c 8 0 c 11 -3 c
8 -8 c 4 -11 c 0 -12 c -4 -11 c -4 -4 c -7 -4 c -3 8 1306 1895 l -12 11 c 80 0 c -4 0 1310 1963 l -7 4 c -4 4 c -4 7 c 0 16 c 4 7 c
4 4 c 7 4 c 8 0 c 8 -4 c 11 -8 c 38 -37 c 0 52 c 0 -38 1291 2081 l 34 -4 c -3 4 c -4 11 c 0 11 c 4 12 c 7 7 c 11 4 c 8 0 c 11 -4 c
8 -7 c 4 -12 c 0 -11 c -4 -11 c -4 -4 c -7 -4 c 4 -3 1363 2118 l 4 3 c -4 4 c -4 -4 c 11 -4 1318 2198 l 8 -8 c 3 -11 c 0 -4 c
-3 -11 c -8 -8 c -11 -3 c -4 0 c -11 3 c -8 8 c -4 11 c 0 4 c 4 11 c 8 8 c 15 4 c 19 0 c 19 -4 c 11 -8 c 4 -11 c 0 -8 c -4 -11 c
-8 -4 c 0 -37 1291 2269 l 34 -4 c -3 4 c -4 11 c 0 11 c 4 12 c 7 7 c 11 4 c 8 0 c 11 -4 c 8 -7 c 4 -12 c 0 -11 c -4 -11 c -4 -4 c
-7 -4 c 4 -11 1291 2322 l 11 -8 c 19 -3 c 12 0 c 19 3 c 11 8 c 4 11 c 0 8 c -4 11 c -11 8 c -19 4 c -12 0 c -19 -4 c -11 -8 c
-4 -11 c 0 -8 c 0 -249 1627 1463 l 0 -37 1583 1580 l 34 -4 c -3 4 c -4 11 c 0 11 c 4 12 c 7 7 c 12 4 c 7 0 c 11 -4 c 8 -7 c 4 -12 c
0 -11 c -4 -11 c -4 -4 c -7 -4 c -4 7 1599 1622 l -12 12 c 80 0 c -3 0 1602 1690 l -8 4 c -4 4 c -4 7 c 0 15 c 4 8 c 4 4 c 8 3 c
7 0 c 8 -3 c 11 -8 c 38 -38 c 0 53 c 4 -12 1583 1781 l 8 -3 c 7 0 c 8 3 c 4 8 c 3 15 c 4 11 c 8 8 c 7 4 c 12 0 c 7 -4 c 4 -4 c
4 -11 c 0 -15 c -4 -12 c -4 -3 c -7 -4 c -12 0 c -7 4 c -8 7 c -4 11 c -3 16 c -4 7 c -8 4 c -7 0 c -8 -4 c -4 -11 c 0 -15 c
4 -4 1655 1845 l 4 4 c -4 4 c -4 -4 c 53 -38 1583 1913 l 0 57 c 80 0 1583 1913 l 11 -4 1610 2000 l 8 -7 c 4 -12 c 0 -4 c -4 -11 c
-8 -7 c -11 -4 c -4 0 c -11 4 c -8 7 c -4 11 c 0 4 c 4 12 c 8 7 c 15 4 c 19 0 c 19 -4 c 11 -7 c 4 -12 c 0 -7 c -4 -12 c -8 -3 c
4 -11 1583 2049 l 12 -8 c 18 -4 c 12 0 c 19 4 c 11 8 c 4 11 c 0 8 c -4 11 c -11 7 c -19 4 c -12 0 c -18 -4 c -12 -7 c -4 -11 c
0 -8 c 0 -249 1922 1512 l 0 -37 1879 1629 l 34 -4 c -4 4 c -4 11 c 0 11 c 4 12 c 8 7 c 11 4 c 7 0 c 12 -4 c 7 -7 c 4 -12 c 0 -11 c
-4 -11 c -3 -4 c -8 -4 c -4 7 1894 1671 l -11 12 c 79 0 c 0 41 1879 1743 l 30 -22 c 0 11 c 4 8 c 4 3 c 11 4 c 7 0 c 12 -4 c 7 -7 c
4 -12 c 0 -11 c -4 -11 c -3 -4 c -8 -4 c -4 8 1894 1822 l -11 11 c 79 0 c 3 -4 1951 1894 l 4 4 c -4 4 c -3 -4 c 4 -12 1879 1947 l
11 -7 c 19 -4 c 11 0 c 19 4 c 11 7 c 4 12 c 0 7 c -4 12 c -11 7 c -19 4 c -11 0 c -19 -4 c -11 -7 c -4 -12 c 0 -7 c
79 -38 1879 2053 l 0 53 1879 2000 l -4 0 1898 2079 l -8 4 c -3 4 c -4 7 c 0 15 c 4 8 c 3 4 c 8 3 c 7 0 c 8 -3 c 11 -8 c 38 -38 c
0 53 c 0 -250 2157 1255 l 0 -38 2113 1372 l 34 -4 c -4 4 c -3 12 c 0 11 c 3 11 c 8 8 c 11 4 c 8 0 c 11 -4 c 8 -8 c 3 -11 c 0 -11 c
-3 -12 c -4 -4 c -8 -3 c -4 7 2128 1414 l -11 12 c 79 0 c 0 42 2113 1485 l 30 -23 c 0 12 c 4 7 c 4 4 c 11 4 c 8 0 c 11 -4 c 8 -8 c
3 -11 c 0 -11 c -3 -12 c -4 -3 c -8 -4 c 0 42 2113 1561 l 30 -23 c 0 11 c 4 8 c 4 4 c 11 3 c 8 0 c 11 -3 c 8 -8 c 3 -11 c 0 -12 c
-3 -11 c -4 -4 c -8 -4 c 4 -4 2185 1637 l 3 4 c -3 3 c -4 -3 c -4 8 2128 1678 l -11 11 c 79 0 c 4 -11 2113 1765 l 11 -8 c 19 -4 c
11 0 c 19 4 c 12 8 c 3 11 c 0 8 c -3 11 c -12 8 c -19 3 c -11 0 c -19 -3 c -11 -8 c -4 -11 c 0 -8 c 0 -37 2113 1863 l 34 -4 c -4 4 c
-3 11 c 0 11 c 3 12 c 8 7 c 11 4 c 8 0 c 11 -4 c 8 -7 c 3 -12 c 0 -11 c -3 -11 c -4 -4 c -8 -4 c 0 -249 2344 1821 l
0 -37 2301 1938 l 34 -4 c -4 4 c -4 11 c 0 11 c 4 12 c 8 7 c 11 4 c 7 0 c 12 -4 c 7 -7 c 4 -12 c 0 -11 c -4 -11 c -3 -4 c -8 -4 c
-4 8 2316 1980 l -11 11 c 79 0 c 0 41 2301 2052 l 30 -22 c 0 11 c 4 8 c 4 3 c 11 4 c 7 0 c 12 -4 c 7 -7 c 4 -12 c 0 -11 c -4 -11 c
-3 -4 c -8 -4 c 53 -38 2301 2158 l 0 57 c 79 0 2301 2158 l 3 -4 2373 2203 l 4 4 c -4 4 c -3 -4 c 79 -38 2301 2286 l 0 53 2301 2233 l
53 -38 2301 2347 l 0 56 c 79 0 2301 2347 l -7 -4 2312 2434 l -4 -12 c 0 -7 c 4 -12 c 11 -7 c 19 -4 c 19 0 c 15 4 c 7 7 c 4 12 c
0 4 c -4 11 c -7 8 c -12 3 c -3 0 c -12 -3 c -7 -8 c -4 -11 c 0 -4 c 4 -12 c 7 -7 c 12 -4 c 0 -250 2502 1247 l 0 -38 2459 1364 l
34 -3 c -4 3 c -4 12 c 0 11 c 4 11 c 8 8 c 11 4 c 8 0 c 11 -4 c 7 -8 c 4 -11 c 0 -11 c -4 -12 c -3 -3 c -8 -4 c -4 7 2474 1406 l
-11 12 c 79 0 c 0 41 2459 1478 l 30 -23 c 0 12 c 4 7 c 4 4 c 11 4 c 8 0 c 11 -4 c 7 -7 c 4 -12 c 0 -11 c -4 -11 c -3 -4 c -8 -4 c
-7 -4 2470 1595 l -4 -11 c 0 -8 c 4 -11 c 11 -8 c 19 -4 c 19 0 c 15 4 c 7 8 c 4 11 c 0 4 c -4 11 c -7 8 c -11 4 c -4 0 c -12 -4 c
-7 -8 c -4 -11 c 0 -4 c 4 -11 c 7 -8 c 12 -4 c 3 -4 2531 1629 l 4 4 c -4 4 c -3 -4 c -4 8 2474 1670 l -11 11 c 79 0 c
-4 0 2478 1738 l -8 4 c -3 4 c -4 7 c 0 16 c 4 7 c 3 4 c 8 4 c 8 0 c 7 -4 c 11 -8 c 38 -37 c 0 52 c -4 7 2474 1822 l -11 11 c 79 0 c
0 -249 2659 1406 l 0 -37 2616 1523 l 34 -4 c -4 4 c -4 11 c 0 11 c 4 12 c 7 7 c 12 4 c 7 0 c 12 -4 c 7 -7 c 4 -12 c 0 -11 c -4 -11 c
-3 -4 c -8 -4 c -4 8 2631 1565 l -11 11 c 79 0 c 0 41 2616 1637 l 30 -22 c 0 11 c 4 8 c 3 3 c 12 4 c 7 0 c 12 -4 c 7 -7 c 4 -11 c
0 -12 c -4 -11 c -3 -4 c -8 -4 c 79 -38 2616 1758 l 0 53 2616 1705 l 3 -4 2688 1788 l 4 4 c -4 4 c -3 -4 c 53 -38 2616 1856 l 0 57 c
79 0 2616 1856 l 79 -38 2616 1947 l 0 53 2616 1894 l 0 42 2616 1977 l 30 -23 c 0 11 c 4 8 c 3 4 c 12 3 c 7 0 c 12 -3 c 7 -8 c
4 -11 c 0 -12 c -4 -11 c -3 -4 c -8 -4 c 0 -249 3037 2374 l 0 -37 2993 2491 l 34 -4 c -3 4 c -4 11 c 0 11 c 4 12 c 7 7 c 11 4 c
8 0 c 11 -4 c 8 -7 c 4 -12 c 0 -11 c -4 -11 c -4 -4 c -7 -4 c -3 8 3008 2533 l -12 11 c 80 0 c 53 -38 2993 2635 l 0 57 c
80 0 2993 2635 l 4 -11 2993 2695 l 11 -7 c 19 -4 c 12 0 c 19 4 c 11 7 c 4 11 c 0 8 c -4 11 c -11 8 c -19 4 c -12 0 c -19 -4 c
-11 -8 c -4 -11 c 0 -8 c 4 -4 3065 2756 l 4 4 c -4 4 c -4 -4 c 80 -38 2993 2839 l 0 53 2993 2786 l 80 -38 2993 2915 l
0 53 2993 2862 l 53 -38 2993 2975 l 0 57 c 80 0 2993 2975 l 0 -249 3160 3527 l 0 -37 3116 3644 l 34 -4 c -3 4 c -4 11 c 0 11 c
4 12 c 7 7 c 11 4 c 8 0 c 11 -4 c 8 -7 c 4 -12 c 0 -11 c -4 -11 c -4 -4 c -7 -4 c -3 8 3131 3686 l -12 11 c 80 0 c
53 -38 3116 3788 l 0 57 c 80 0 3116 3788 l -3 8 3131 3837 l -12 11 c 80 0 c 4 -4 3188 3909 l 4 4 c -4 4 c -4 -4 c 80 -38 3116 3992 l
0 53 3116 3939 l 4 -12 3116 4034 l 8 -3 c 7 0 c 8 3 c 4 8 c 3 15 c 4 11 c 8 8 c 7 4 c 12 0 c 7 -4 c 4 -4 c 4 -11 c 0 -15 c -4 -12 c
-4 -3 c -7 -4 c -12 0 c -7 4 c -8 7 c -4 12 c -3 15 c -4 7 c -8 4 c -7 0 c -8 -4 c -4 -11 c 0 -15 c 0 42 3116 4098 l 31 -23 c 0 11 c
3 8 c 4 4 c 11 3 c 8 0 c 11 -3 c 8 -8 c 4 -11 c 0 -12 c -4 -11 c -4 -4 c -7 -4 c 0 -250 3333 6278 l 0 -38 3290 6395 l 34 -4 c -4 4 c
-4 12 c 0 11 c 4 11 c 7 8 c 12 4 c 7 0 c 12 -4 c 7 -8 c 4 -11 c 0 -11 c -4 -12 c -4 -4 c -7 -3 c -4 7 3305 6437 l -11 11 c 79 0 c
52 -38 3290 6539 l 0 57 c 79 0 3290 6539 l 0 42 3290 6584 l 30 -23 c 0 11 c 4 8 c 3 4 c 12 3 c 7 0 c 12 -3 c 7 -8 c 4 -11 c 0 -12 c
-4 -11 c -4 -4 c -7 -4 c 4 -4 3361 6660 l 4 4 c -4 3 c -4 -3 c -3 0 3308 6694 l -8 3 c -4 4 c -3 8 c 0 15 c 3 7 c 4 4 c 8 4 c 7 0 c
8 -4 c 11 -7 c 38 -38 c 0 53 c -8 -4 3301 6815 l -3 -12 c 0 -7 c 3 -11 c 12 -8 c 19 -4 c 18 0 c 16 4 c 7 8 c 4 11 c 0 4 c -4 11 c
-7 8 c -12 3 c -4 0 c -11 -3 c -7 -8 c -4 -11 c 0 -4 c 4 -11 c 7 -8 c 11 -4 c 79 -38 3290 6894 l 0 53 3290 6841 l 0 -250 3409 1904 l
0 -38 3365 2021 l 34 -3 c -4 3 c -3 12 c 0 11 c 3 11 c 8 8 c 11 4 c 8 0 c 11 -4 c 8 -8 c 3 -11 c 0 -11 c -3 -12 c -4 -3 c -8 -4 c
-4 7 3380 2063 l -11 12 c 79 0 c 53 -38 3365 2165 l 0 57 c 79 0 3365 2165 l 0 42 3365 2210 l 30 -23 c 0 11 c 4 8 c 4 4 c 11 4 c
8 0 c 11 -4 c 8 -8 c 3 -11 c 0 -12 c -3 -11 c -4 -4 c -8 -3 c 4 -4 3437 2286 l 3 4 c -3 4 c -4 -4 c 11 -4 3392 2365 l 7 -7 c 4 -12 c
0 -3 c -4 -12 c -7 -7 c -11 -4 c -4 0 c -12 4 c -7 7 c -4 12 c 0 3 c 4 12 c 7 7 c 16 4 c 18 0 c 19 -4 c 12 -7 c 3 -12 c 0 -7 c
-3 -11 c -8 -4 c -4 7 3380 2403 l -11 12 c 79 0 c 79 -38 3365 2520 l 0 53 3365 2467 l 0 -250 3572 2745 l 0 -38 3528 2862 l 34 -4 c
-3 4 c -4 12 c 0 11 c 4 11 c 7 8 c 12 4 c 7 0 c 11 -4 c 8 -8 c 4 -11 c 0 -11 c -4 -12 c -4 -4 c -7 -3 c -3 7 3543 2904 l -12 12 c
80 0 c 53 -38 3528 3006 l 0 57 c 80 0 3528 3006 l 0 -38 3528 3089 l 34 -4 c -3 4 c -4 11 c 0 12 c 4 11 c 7 8 c 12 3 c 7 0 c 11 -3 c
8 -8 c 4 -11 c 0 -12 c -4 -11 c -4 -4 c -7 -4 c 4 -4 3600 3127 l 4 4 c -4 3 c -4 -3 c 0 42 3528 3164 l 31 -23 c 0 12 c 3 7 c 4 4 c
12 4 c 7 0 c 11 -4 c 8 -8 c 4 -11 c 0 -11 c -4 -12 c -4 -3 c -7 -4 c 4 -11 3528 3255 l 11 -8 c 19 -4 c 12 0 c 19 4 c 11 8 c 4 11 c
0 8 c -4 11 c -11 8 c -19 3 c -12 0 c -19 -3 c -11 -8 c -4 -11 c 0 -8 c 4 -11 3528 3327 l 8 -4 c 7 0 c 8 4 c 4 7 c 3 15 c 4 12 c
8 7 c 7 4 c 12 0 c 7 -4 c 4 -4 c 4 -11 c 0 -15 c -4 -11 c -4 -4 c -7 -4 c -12 0 c -7 4 c -8 7 c -4 12 c -3 15 c -4 7 c -8 4 c -7 0 c
-8 -4 c -4 -11 c 0 -15 c 0 -250 3660 1277 l 0 -38 3616 1394 l 34 -3 c -4 3 c -3 12 c 0 11 c 3 11 c 8 8 c 11 4 c 8 0 c 11 -4 c 8 -8 c
4 -11 c 0 -11 c -4 -12 c -4 -3 c -8 -4 c -4 7 3631 1436 l -11 12 c 80 0 c 53 -38 3616 1538 l 0 57 c 80 0 3616 1538 l
-7 -4 3627 1625 l -4 -11 c 0 -8 c 4 -11 c 11 -8 c 19 -4 c 19 0 c 15 4 c 8 8 c 4 11 c 0 4 c -4 11 c -8 8 c -11 3 c -4 0 c -11 -3 c
-8 -8 c -4 -11 c 0 -4 c 4 -11 c 8 -8 c 11 -4 c 4 -4 3688 1659 l 4 4 c -4 3 c -4 -3 c 4 -12 3616 1712 l 11 -7 c 19 -4 c 12 0 c 18 4 c
12 7 c 4 12 c 0 7 c -4 11 c -12 8 c -18 4 c -12 0 c -19 -4 c -11 -8 c -4 -11 c 0 -7 c 0 -38 3616 1810 l 34 -4 c -4 4 c -3 11 c
0 12 c 3 11 c 8 8 c 11 3 c 8 0 c 11 -3 c 8 -8 c 4 -11 c 0 -12 c -4 -11 c -4 -4 c -8 -4 c -7 -4 3627 1889 l -4 -11 c 0 -7 c 4 -12 c
11 -7 c 19 -4 c 19 0 c 15 4 c 8 7 c 4 12 c 0 3 c -4 12 c -8 7 c -11 4 c -4 0 c -11 -4 c -8 -7 c -4 -12 c 0 -3 c 4 -12 c 8 -7 c
11 -4 c 0 -250 3913 2407 l 0 -38 3870 2524 l 34 -3 c -4 3 c -4 12 c 0 11 c 4 11 c 7 8 c 12 4 c 7 0 c 12 -4 c 7 -8 c 4 -11 c 0 -11 c
-4 -12 c -4 -3 c -7 -4 c -4 7 3885 2566 l -11 12 c 79 0 c 52 -38 3870 2668 l 0 57 c 79 0 3870 2668 l 3 -12 3870 2725 l 8 -4 c 7 0 c
8 4 c 4 8 c 4 15 c 3 11 c 8 8 c 7 4 c 12 0 c 7 -4 c 4 -4 c 4 -11 c 0 -15 c -4 -12 c -4 -4 c -7 -3 c -12 0 c -7 3 c -8 8 c -3 11 c
-4 15 c -4 8 c -8 4 c -7 0 c -8 -4 c -3 -11 c 0 -15 c 4 -4 3941 2789 l 4 4 c -4 4 c -4 -4 c -3 0 3888 2823 l -8 4 c -4 3 c -3 8 c
0 15 c 3 8 c 4 3 c 8 4 c 7 0 c 8 -4 c 11 -7 c 38 -38 c 0 53 c -4 7 3885 2906 l -11 12 c 79 0 c -3 0 3888 2974 l -8 4 c -4 4 c -3 7 c
0 15 c 3 8 c 4 4 c 8 3 c 7 0 c 8 -3 c 11 -8 c 38 -38 c 0 53 c 0 -249 4030 1294 l 0 -37 3987 1411 l 34 -4 c -4 4 c -4 11 c 0 11 c
4 12 c 8 7 c 11 4 c 8 0 c 11 -4 c 7 -7 c 4 -12 c 0 -11 c -4 -11 c -3 -4 c -8 -4 c -4 7 4002 1453 l -11 12 c 79 0 c
53 -38 3987 1555 l 0 57 c 79 0 3987 1555 l 12 -4 4013 1642 l 7 -7 c 4 -12 c 0 -4 c -4 -11 c -7 -7 c -12 -4 c -4 0 c -11 4 c -7 7 c
-4 11 c 0 4 c 4 12 c 7 7 c 15 4 c 19 0 c 19 -4 c 11 -7 c 4 -12 c 0 -7 c -4 -12 c -7 -3 c 3 -4 4059 1676 l 4 4 c -4 4 c -3 -4 c
-4 0 4006 1710 l -8 4 c -3 3 c -4 8 c 0 15 c 4 8 c 3 3 c 8 4 c 7 0 c 8 -4 c 11 -7 c 38 -38 c 0 53 c 4 -11 3987 1804 l 11 -8 c
19 -3 c 11 0 c 19 3 c 11 8 c 4 11 c 0 8 c -4 11 c -11 8 c -19 4 c -11 0 c -19 -4 c -11 -8 c -4 -11 c 0 -8 c 79 -38 3987 1910 l
0 53 3987 1857 l 0 -250 4315 4872 l 0 -38 4272 4989 l 34 -4 c -4 4 c -4 11 c 0 12 c 4 11 c 7 8 c 12 3 c 7 0 c 12 -3 c 7 -8 c 4 -11 c
0 -12 c -4 -11 c -4 -4 c -7 -3 c -4 7 4287 5031 l -11 11 c 79 0 c 0 -38 4272 5140 l 34 -3 c -4 3 c -4 12 c 0 11 c 4 11 c 7 8 c
12 4 c 7 0 c 12 -4 c 7 -8 c 4 -11 c 0 -11 c -4 -12 c -4 -3 c -7 -4 c -4 7 4287 5182 l -11 12 c 79 0 c 4 -4 4343 5254 l 4 4 c -4 3 c
-4 -3 c -8 -4 4283 5333 l -3 -11 c 0 -8 c 3 -11 c 12 -8 c 19 -3 c 19 0 c 15 3 c 7 8 c 4 11 c 0 4 c -4 11 c -7 8 c -12 4 c -3 0 c
-12 -4 c -7 -8 c -4 -11 c 0 -4 c 4 -11 c 7 -8 c 12 -3 c -4 7 4287 5371 l -11 12 c 79 0 c -3 0 4290 5439 l -8 3 c -4 4 c -3 8 c
0 15 c 3 7 c 4 4 c 8 4 c 7 0 c 8 -4 c 11 -7 c 38 -38 c 0 53 c 0 -249 4628 3926 l 0 -37 4584 4043 l 34 -4 c -4 4 c -4 11 c 0 11 c
4 12 c 8 7 c 11 4 c 8 0 c 11 -4 c 8 -7 c 3 -12 c 0 -11 c -3 -11 c -4 -4 c -8 -4 c -4 8 4599 4085 l -11 11 c 79 0 c 0 -38 4584 4195 l
34 -4 c -4 4 c -4 11 c 0 12 c 4 11 c 8 7 c 11 4 c 8 0 c 11 -4 c 8 -7 c 3 -11 c 0 -12 c -3 -11 c -4 -4 c -8 -4 c 53 -38 4584 4263 l
0 57 c 79 0 4584 4263 l 4 -4 4656 4308 l 3 4 c -3 4 c -4 -4 c -4 0 4603 4342 l -7 4 c -4 4 c -4 7 c 0 15 c 4 8 c 4 4 c 7 3 c 8 0 c
7 -3 c 12 -8 c 37 -38 c 0 53 c 53 -38 4584 4452 l 0 57 c 79 0 4584 4452 l 0 42 4584 4497 l 30 -23 c 0 11 c 4 8 c 4 4 c 11 3 c 8 0 c
11 -3 c 8 -8 c 3 -11 c 0 -12 c -3 -11 c -4 -4 c -8 -4 c 0 -249 5149 7019 l 0 -38 5105 7136 l 34 -3 c -3 3 c -4 12 c 0 11 c 4 11 c
7 8 c 11 4 c 8 0 c 11 -4 c 8 -8 c 4 -11 c 0 -11 c -4 -12 c -4 -3 c -7 -4 c -3 7 5120 7178 l -12 12 c 80 0 c 0 -37 5105 7287 l
34 -4 c -3 4 c -4 11 c 0 11 c 4 12 c 7 7 c 11 4 c 8 0 c 11 -4 c 8 -7 c 4 -12 c 0 -11 c -4 -11 c -4 -4 c -7 -4 c 4 -12 5105 7337 l
8 -4 c 7 0 c 8 4 c 4 8 c 3 15 c 4 11 c 8 8 c 7 4 c 12 0 c 7 -4 c 4 -4 c 4 -11 c 0 -15 c -4 -12 c -4 -4 c -7 -3 c -12 0 c -7 3 c
-8 8 c -4 11 c -3 15 c -4 8 c -8 4 c -7 0 c -8 -4 c -4 -11 c 0 -15 c 4 -4 5177 7401 l 4 4 c -4 4 c -4 -4 c -8 -4 5117 7480 l
-4 -11 c 0 -7 c 4 -12 c 11 -7 c 19 -4 c 19 0 c 15 4 c 8 7 c 4 12 c 0 3 c -4 12 c -8 7 c -11 4 c -4 0 c -11 -4 c -8 -7 c -3 -12 c
0 -3 c 3 -12 c 8 -7 c 11 -4 c 4 -11 5105 7529 l 11 -8 c 19 -3 c 12 0 c 19 3 c 11 8 c 4 11 c 0 8 c -4 11 c -11 8 c -19 4 c -12 0 c
-19 -4 c -11 -8 c -4 -11 c 0 -8 c 53 -38 5105 7620 l 0 57 c 80 0 5105 7620 l 0 -249 5502 1954 l 0 -38 5459 2072 l 34 -4 c -4 4 c
-4 11 c 0 11 c 4 12 c 7 7 c 12 4 c 7 0 c 12 -4 c 7 -7 c 4 -12 c 0 -11 c -4 -11 c -4 -4 c -7 -4 c -4 8 5474 2113 l -11 11 c 79 0 c
-8 -4 5470 2227 l -3 -12 c 0 -7 c 3 -11 c 12 -8 c 19 -4 c 19 0 c 15 4 c 7 8 c 4 11 c 0 4 c -4 11 c -7 8 c -12 3 c -3 0 c -12 -3 c
-7 -8 c -4 -11 c 0 -4 c 4 -11 c 7 -8 c 12 -4 c -4 8 5474 2264 l -11 11 c 79 0 c 4 -4 5530 2336 l 4 4 c -4 4 c -4 -4 c
0 -38 5459 2412 l 34 -4 c -4 4 c -4 11 c 0 12 c 4 11 c 7 8 c 12 3 c 7 0 c 12 -3 c 7 -8 c 4 -11 c 0 -12 c -4 -11 c -4 -4 c -7 -4 c
53 -38 5459 2480 l 0 57 c 79 0 5459 2480 l 3 -11 5459 2540 l 12 -8 c 19 -3 c 11 0 c 19 3 c 11 8 c 4 11 c 0 8 c -4 11 c -11 8 c
-19 3 c -11 0 c -19 -3 c -12 -8 c -3 -11 c 0 -8 c 0 -250 5593 3809 l 0 -38 5549 3926 l 34 -4 c -4 4 c -4 11 c 0 12 c 4 11 c 8 7 c
11 4 c 8 0 c 11 -4 c 7 -7 c 4 -11 c 0 -12 c -4 -11 c -3 -4 c -8 -4 c -4 8 5564 3967 l -11 11 c 79 0 c -7 -4 5560 4081 l -4 -11 c
0 -8 c 4 -11 c 11 -8 c 19 -4 c 19 0 c 15 4 c 7 8 c 4 11 c 0 4 c -4 11 c -7 8 c -11 3 c -4 0 c -12 -3 c -7 -8 c -4 -11 c 0 -4 c
4 -11 c 7 -8 c 12 -4 c -4 0 5568 4111 l -8 4 c -3 3 c -4 8 c 0 15 c 4 8 c 3 3 c 8 4 c 8 0 c 7 -4 c 11 -7 c 38 -38 c 0 53 c
3 -4 5621 4190 l 4 4 c -4 4 c -3 -4 c -4 0 5568 4224 l -8 4 c -3 4 c -4 7 c 0 15 c 4 8 c 3 4 c 8 4 c 8 0 c 7 -4 c 11 -8 c 38 -38 c
0 53 c 4 -11 5549 4315 l 7 -4 c 8 0 c 7 4 c 4 7 c 4 15 c 4 12 c 7 7 c 8 4 c 11 0 c 8 -4 c 3 -4 c 4 -11 c 0 -15 c -4 -11 c -3 -4 c
-8 -4 c -11 0 c -8 4 c -7 7 c -4 12 c -4 15 c -4 7 c -7 4 c -8 0 c -7 -4 c -4 -11 c 0 -15 c 0 -38 5549 4417 l 34 -4 c -4 4 c -4 12 c
0 11 c 4 11 c 8 8 c 11 4 c 8 0 c 11 -4 c 7 -8 c 4 -11 c 0 -11 c -4 -12 c -3 -4 c -8 -3 c 0 -250 5734 3717 l 0 -38 5691 3834 l
34 -3 c -4 3 c -4 12 c 0 11 c 4 11 c 7 8 c 12 4 c 7 0 c 12 -4 c 7 -8 c 4 -11 c 0 -11 c -4 -12 c -4 -3 c -7 -4 c -4 7 5706 3876 l
-11 12 c 79 0 c -8 -4 5702 3989 l -3 -11 c 0 -8 c 3 -11 c 12 -7 c 19 -4 c 18 0 c 16 4 c 7 7 c 4 11 c 0 4 c -4 12 c -7 7 c -12 4 c
-4 0 c -11 -4 c -7 -7 c -4 -12 c 0 -4 c 4 -11 c 7 -7 c 11 -4 c 0 42 5691 4023 l 30 -23 c 0 11 c 4 8 c 3 4 c 12 4 c 7 0 c 12 -4 c
7 -8 c 4 -11 c 0 -12 c -4 -11 c -4 -4 c -7 -3 c 4 -4 5762 4099 l 4 4 c -4 4 c -4 -4 c 52 -38 5691 4167 l 0 57 c 79 0 5691 4167 l
0 -38 5691 4250 l 34 -4 c -4 4 c -4 11 c 0 12 c 4 11 c 7 8 c 12 3 c 7 0 c 12 -3 c 7 -8 c 4 -11 c 0 -12 c -4 -11 c -4 -4 c -7 -3 c
3 -11 5691 4299 l 8 -4 c 7 0 c 8 4 c 4 7 c 4 15 c 3 12 c 8 7 c 7 4 c 12 0 c 7 -4 c 4 -3 c 4 -12 c 0 -15 c -4 -11 c -4 -4 c -7 -4 c
-12 0 c -7 4 c -8 8 c -3 11 c -4 15 c -4 8 c -8 3 c -7 0 c -8 -3 c -3 -12 c 0 -15 c 0 -250 6122 1301 l 0 -38 6078 1418 l 34 -4 c
-3 4 c -4 12 c 0 11 c 4 11 c 7 8 c 12 4 c 7 0 c 11 -4 c 8 -8 c 4 -11 c 0 -11 c -4 -12 c -4 -4 c -7 -3 c -4 7 6094 1460 l -12 11 c
80 0 c -8 -4 6090 1573 l -4 -11 c 0 -8 c 4 -11 c 12 -8 c 18 -3 c 19 0 c 15 3 c 8 8 c 4 11 c 0 4 c -4 11 c -8 8 c -11 4 c -4 0 c
-11 -4 c -8 -8 c -3 -11 c 0 -4 c 3 -11 c 8 -8 c 11 -3 c -8 -4 6090 1649 l -4 -12 c 0 -7 c 4 -11 c 12 -8 c 18 -4 c 19 0 c 15 4 c
8 8 c 4 11 c 0 4 c -4 11 c -8 8 c -11 3 c -4 0 c -11 -3 c -8 -8 c -3 -11 c 0 -4 c 3 -11 c 8 -8 c 11 -4 c 4 -4 6150 1683 l 4 4 c
-4 3 c -4 -3 c -8 -4 6090 1762 l -4 -11 c 0 -8 c 4 -11 c 12 -8 c 18 -3 c 19 0 c 15 3 c 8 8 c 4 11 c 0 4 c -4 11 c -8 8 c -11 4 c
-4 0 c -11 -4 c -8 -8 c -3 -11 c 0 -4 c 3 -11 c 8 -8 c 11 -3 c 0 -38 6078 1834 l 34 -4 c -3 4 c -4 11 c 0 12 c 4 11 c 7 8 c 12 3 c
7 0 c 11 -3 c 8 -8 c 4 -11 c 0 -12 c -4 -11 c -4 -4 c -7 -4 c 0 -37 6078 1909 l 34 -4 c -3 4 c -4 11 c 0 11 c 4 12 c 7 7 c 12 4 c
7 0 c 11 -4 c 8 -7 c 4 -12 c 0 -11 c -4 -11 c -4 -4 c -7 -4 c 0 -250 6400 1453 l 0 -38 6356 1570 l 34 -3 c -4 3 c -3 12 c 0 11 c
3 11 c 8 8 c 11 4 c 8 0 c 11 -4 c 8 -8 c 4 -11 c 0 -11 c -4 -12 c -4 -3 c -8 -4 c -4 7 6371 1612 l -11 12 c 80 0 c -7 -4 6367 1725 l
-4 -11 c 0 -8 c 4 -11 c 11 -7 c 19 -4 c 19 0 c 15 4 c 8 7 c 4 11 c 0 4 c -4 12 c -8 7 c -11 4 c -4 0 c -11 -4 c -8 -7 c -4 -12 c
0 -4 c 4 -11 c 8 -7 c 11 -4 c 4 -11 6356 1770 l 7 -4 c 8 0 c 8 4 c 3 8 c 4 15 c 4 11 c 7 8 c 8 4 c 11 0 c 8 -4 c 4 -4 c 4 -11 c
0 -16 c -4 -11 c -4 -4 c -8 -3 c -11 0 c -8 3 c -7 8 c -4 11 c -4 15 c -3 8 c -8 4 c -8 0 c -7 -4 c -4 -11 c 0 -16 c
4 -4 6428 1835 l 4 4 c -4 4 c -4 -4 c 11 -4 6383 1914 l 7 -7 c 4 -12 c 0 -3 c -4 -12 c -7 -7 c -11 -4 c -4 0 c -12 4 c -7 7 c
-4 12 c 0 3 c 4 12 c 7 7 c 16 4 c 18 0 c 19 -4 c 12 -7 c 4 -12 c 0 -7 c -4 -11 c -8 -4 c -4 0 6375 1944 l -7 4 c -4 4 c -4 7 c
0 16 c 4 7 c 4 4 c 7 4 c 8 0 c 7 -4 c 12 -8 c 38 -37 c 0 52 c -4 0 6375 2020 l -7 4 c -4 3 c -4 8 c 0 15 c 4 8 c 4 4 c 7 3 c 8 0 c
7 -3 c 12 -8 c 38 -38 c 0 53 c 0 -250 6984 1479 l 0 -38 6941 1596 l 34 -3 c -4 3 c -4 12 c 0 11 c 4 11 c 7 8 c 12 4 c 7 0 c 12 -4 c
7 -8 c 4 -11 c 0 -11 c -4 -12 c -4 -3 c -7 -4 c -4 7 6956 1638 l -11 12 c 79 0 c 79 -38 6941 1755 l 0 53 6941 1702 l
0 42 6941 1785 l 30 -23 c 0 11 c 4 8 c 3 4 c 12 3 c 7 0 c 12 -3 c 7 -8 c 4 -11 c 0 -12 c -4 -11 c -4 -4 c -7 -3 c 4 -4 7012 1861 l
4 4 c -4 3 c -4 -3 c -8 -4 6952 1940 l -3 -11 c 0 -8 c 3 -11 c 12 -8 c 19 -3 c 19 0 c 15 3 c 7 8 c 4 11 c 0 4 c -4 12 c -7 7 c
-12 4 c -3 0 c -12 -4 c -7 -7 c -4 -12 c 0 -4 c 4 -11 c 7 -8 c 12 -3 c 79 -37 6941 2019 l 0 52 6941 1967 l -3 0 6959 2046 l -8 4 c
-4 3 c -3 8 c 0 15 c 3 8 c 4 3 c 8 4 c 7 0 c 8 -4 c 11 -7 c 38 -38 c 0 53 c 0 -250 7122 1337 l 0 -38 7078 1454 l 34 -4 c -3 4 c
-4 11 c 0 12 c 4 11 c 7 8 c 12 3 c 7 0 c 11 -3 c 8 -8 c 4 -11 c 0 -12 c -4 -11 c -4 -4 c -7 -4 c -4 8 7094 1495 l -12 11 c 80 0 c
80 -38 7078 1613 l 0 53 7078 1560 l 53 -38 7078 1673 l 0 57 c 80 0 7078 1673 l 4 -3 7150 1718 l 4 3 c -4 4 c -4 -4 c
80 -38 7078 1802 l 0 53 7078 1749 l 11 -3 7105 1873 l 8 -8 c 4 -11 c 0 -4 c -4 -11 c -8 -8 c -11 -4 c -4 0 c -11 4 c -8 8 c -4 11 c
0 4 c 4 11 c 8 8 c 15 3 c 19 0 c 19 -3 c 11 -8 c 4 -11 c 0 -8 c -4 -11 c -8 -4 c 11 -4 7105 1949 l 8 -7 c 4 -12 c 0 -4 c -4 -11 c
-8 -7 c -11 -4 c -4 0 c -11 4 c -8 7 c -4 11 c 0 4 c 4 12 c 8 7 c 15 4 c 19 0 c 19 -4 c 11 -7 c 4 -12 c 0 -7 c -4 -12 c -8 -3 c
0 -249 7189 1674 l 0 -37 7145 1791 l 34 -4 c -3 4 c -4 11 c 0 11 c 4 12 c 7 7 c 12 4 c 7 0 c 11 -4 c 8 -7 c 4 -12 c 0 -11 c -4 -11 c
-4 -4 c -7 -4 c -4 8 7161 1833 l -12 11 c 80 0 c 80 -38 7145 1950 l 0 53 7145 1897 l 0 -38 7145 2018 l 34 -3 c -3 3 c -4 12 c 0 11 c
4 11 c 7 8 c 12 4 c 7 0 c 11 -4 c 8 -8 c 4 -11 c 0 -11 c -4 -12 c -4 -3 c -7 -4 c 4 -4 7217 2056 l 4 4 c -4 4 c -4 -4 c
0 41 7145 2094 l 31 -22 c 0 11 c 3 8 c 4 3 c 12 4 c 7 0 c 11 -4 c 8 -7 c 4 -11 c 0 -12 c -4 -11 c -4 -4 c -7 -4 c -3 0 7164 2166 l
-8 3 c -4 4 c -4 8 c 0 15 c 4 7 c 4 4 c 8 4 c 7 0 c 8 -4 c 11 -7 c 38 -38 c 0 53 c 0 -38 7145 2283 l 34 -4 c -3 4 c -4 11 c 0 12 c
4 11 c 7 8 c 12 3 c 7 0 c 11 -3 c 8 -8 c 4 -11 c 0 -12 c -4 -11 c -4 -4 c -7 -4 c 0 -250 7262 1357 l 0 -38 7218 1474 l 34 -4 c
-4 4 c -3 12 c 0 11 c 3 11 c 8 8 c 11 4 c 8 0 c 11 -4 c 8 -8 c 4 -11 c 0 -11 c -4 -12 c -4 -4 c -8 -3 c -4 7 7233 1516 l -11 11 c
80 0 c 80 -38 7218 1633 l 0 53 7218 1580 l 0 -38 7218 1701 l 34 -4 c -4 4 c -3 11 c 0 12 c 3 11 c 8 8 c 11 3 c 8 0 c 11 -3 c 8 -8 c
4 -11 c 0 -12 c -4 -11 c -4 -4 c -8 -4 c 4 -4 7290 1739 l 4 4 c -4 3 c -4 -3 c 11 -4 7245 1818 l 7 -7 c 4 -12 c 0 -4 c -4 -11 c
-7 -7 c -11 -4 c -4 0 c -12 4 c -7 7 c -4 11 c 0 4 c 4 12 c 7 7 c 16 4 c 18 0 c 19 -4 c 12 -7 c 4 -12 c 0 -7 c -4 -12 c -8 -3 c
-4 7 7233 1856 l -11 12 c 80 0 c -4 0 7237 1924 l -7 3 c -4 4 c -4 8 c 0 15 c 4 8 c 4 3 c 7 4 c 8 0 c 7 -4 c 12 -7 c 38 -38 c 0 53 c
0 -249 7393 3032 l 0 -38 7349 3150 l 34 -4 c -4 4 c -3 11 c 0 12 c 3 11 c 8 7 c 11 4 c 8 0 c 11 -4 c 8 -7 c 4 -11 c 0 -12 c -4 -11 c
-4 -4 c -8 -4 c -3 8 7364 3191 l -12 11 c 80 0 c 80 -37 7349 3308 l 0 53 7349 3255 l -8 -4 7361 3380 l -4 -11 c 0 -7 c 4 -12 c
11 -7 c 19 -4 c 19 0 c 15 4 c 8 7 c 4 12 c 0 3 c -4 12 c -8 7 c -11 4 c -4 0 c -11 -4 c -8 -7 c -4 -12 c 0 -3 c 4 -12 c 8 -7 c
11 -4 c 4 -4 7421 3414 l 4 4 c -4 4 c -4 -4 c 11 -4 7376 3494 l 8 -8 c 3 -11 c 0 -4 c -3 -11 c -8 -8 c -11 -4 c -4 0 c -11 4 c
-8 8 c -4 11 c 0 4 c 4 11 c 8 8 c 15 4 c 19 0 c 18 -4 c 12 -8 c 4 -11 c 0 -8 c -4 -11 c -8 -4 c -8 -4 7361 3569 l -4 -11 c 0 -7 c
4 -12 c 11 -7 c 19 -4 c 19 0 c 15 4 c 8 7 c 4 12 c 0 3 c -4 12 c -8 7 c -11 4 c -4 0 c -11 -4 c -8 -7 c -4 -12 c 0 -3 c 4 -12 c
8 -7 c 11 -4 c -3 8 7364 3607 l -12 11 c 80 0 c 0 -249 7470 1604 l 0 -37 7427 1721 l 34 -4 c -4 4 c -4 11 c 0 11 c 4 12 c 7 7 c
12 4 c 7 0 c 12 -4 c 7 -7 c 4 -12 c 0 -11 c -4 -11 c -4 -4 c -7 -4 c -4 8 7442 1763 l -11 11 c 79 0 c 79 -38 7427 1880 l
0 53 7427 1827 l 79 -38 7427 1956 l 0 53 7427 1903 l 4 -4 7498 1986 l 4 4 c -4 4 c -4 -4 c -8 -3 7438 2065 l -3 -12 c 0 -7 c 3 -12 c
12 -7 c 19 -4 c 18 0 c 16 4 c 7 7 c 4 12 c 0 3 c -4 12 c -7 7 c -12 4 c -4 0 c -11 -4 c -7 -7 c -4 -12 c 0 -3 c 4 -12 c 7 -7 c
11 -4 c -3 0 7445 2096 l -8 3 c -4 4 c -3 8 c 0 15 c 3 7 c 4 4 c 8 4 c 7 0 c 8 -4 c 11 -7 c 38 -38 c 0 53 c 0 42 7427 2175 l
30 -23 c 0 11 c 4 8 c 3 4 c 12 3 c 7 0 c 12 -3 c 7 -8 c 4 -11 c 0 -12 c -4 -11 c -4 -4 c -7 -4 c 0 -250 8090 1636 l
0 -38 8046 1753 l 34 -4 c -4 4 c -3 12 c 0 11 c 3 11 c 8 8 c 11 4 c 8 0 c 11 -4 c 8 -8 c 3 -11 c 0 -11 c -3 -12 c -4 -4 c -8 -3 c
-4 7 8061 1795 l -11 12 c 79 0 c 4 -12 8046 1878 l 7 -3 c 8 0 c 8 3 c 3 8 c 4 15 c 4 11 c 7 8 c 8 4 c 11 0 c 8 -4 c 4 -4 c 3 -11 c
0 -15 c -3 -12 c -4 -3 c -8 -4 c -11 0 c -8 4 c -7 7 c -4 12 c -4 15 c -3 7 c -8 4 c -8 0 c -7 -4 c -4 -11 c 0 -15 c
-4 0 8065 1938 l -7 4 c -4 4 c -4 7 c 0 15 c 4 8 c 4 4 c 7 4 c 8 0 c 7 -4 c 12 -8 c 37 -38 c 0 53 c 4 -4 8118 2018 l 3 4 c -3 3 c
-4 -3 c 0 -38 8046 2093 l 34 -3 c -4 3 c -3 12 c 0 11 c 3 11 c 8 8 c 11 4 c 8 0 c 11 -4 c 8 -8 c 3 -11 c 0 -11 c -3 -12 c -4 -3 c
-8 -4 c -4 0 8065 2127 l -7 4 c -4 4 c -4 7 c 0 15 c 4 8 c 4 4 c 7 4 c 8 0 c 7 -4 c 12 -8 c 37 -38 c 0 53 c 79 -38 8046 2252 l
0 53 8046 2199 l 0 -250 8274 2274 l 0 -38 8231 2391 l 34 -4 c -4 4 c -4 12 c 0 11 c 4 11 c 8 8 c 11 4 c 8 0 c 11 -4 c 7 -8 c 4 -11 c
0 -11 c -4 -12 c -3 -4 c -8 -3 c -4 7 8246 2433 l -11 11 c 79 0 c 4 -12 8231 2516 l 7 -3 c 8 0 c 7 3 c 4 8 c 4 15 c 4 11 c 7 8 c
8 4 c 11 0 c 8 -4 c 3 -4 c 4 -11 c 0 -15 c -4 -12 c -3 -3 c -8 -4 c -11 0 c -8 4 c -7 7 c -4 11 c -4 16 c -4 7 c -7 4 c -8 0 c
-7 -4 c -4 -11 c 0 -15 c 0 42 8231 2580 l 30 -23 c 0 11 c 4 8 c 4 4 c 11 3 c 8 0 c 11 -3 c 7 -8 c 4 -11 c 0 -12 c -4 -11 c -3 -4 c
-8 -4 c 3 -4 8303 2656 l 4 4 c -4 3 c -3 -3 c 12 -4 8257 2735 l 7 -7 c 4 -12 c 0 -4 c -4 -11 c -7 -7 c -12 -4 c -3 0 c -12 4 c
-7 7 c -4 11 c 0 4 c 4 12 c 7 7 c 15 4 c 19 0 c 19 -4 c 11 -7 c 4 -12 c 0 -7 c -4 -12 c -7 -3 c 12 -3 8257 2810 l 7 -8 c 4 -11 c
0 -4 c -4 -11 c -7 -8 c -12 -4 c -3 0 c -12 4 c -7 8 c -4 11 c 0 4 c 4 11 c 7 8 c 15 3 c 19 0 c 19 -3 c 11 -8 c 4 -11 c 0 -8 c
-4 -11 c -7 -4 c 4 -12 8231 2860 l 11 -7 c 19 -4 c 11 0 c 19 4 c 11 7 c 4 12 c 0 7 c -4 12 c -11 7 c -19 4 c -11 0 c -19 -4 c
-11 -7 c -4 -12 c 0 -7 c 0 -250 8582 1427 l 0 -38 8538 1544 l 34 -4 c -4 4 c -3 11 c 0 12 c 3 11 c 8 8 c 11 3 c 8 0 c 11 -3 c 8 -8 c
4 -11 c 0 -12 c -4 -11 c -4 -4 c -7 -3 c -3 8 8553 1585 l -12 11 c 80 0 c 4 -12 8538 1669 l 8 -4 c 7 0 c 8 4 c 3 8 c 4 15 c 4 11 c
8 8 c 7 4 c 12 0 c 7 -4 c 4 -4 c 4 -11 c 0 -15 c -4 -12 c -4 -4 c -7 -3 c -12 0 c -7 3 c -8 8 c -4 11 c -4 15 c -3 8 c -8 4 c -7 0 c
-8 -4 c -4 -11 c 0 -15 c -8 -3 8550 1774 l -4 -12 c 0 -7 c 4 -12 c 11 -7 c 19 -4 c 19 0 c 15 4 c 8 7 c 4 12 c 0 4 c -4 11 c -8 7 c
-11 4 c -4 0 c -11 -4 c -8 -7 c -4 -11 c 0 -4 c 4 -12 c 8 -7 c 11 -4 c 4 -3 8610 1808 l 4 3 c -4 4 c -4 -4 c 53 -37 8538 1876 l
0 56 c 80 0 8538 1876 l -3 7 8553 1926 l -12 11 c 80 0 c 0 42 8538 1997 l 30 -23 c 0 12 c 4 7 c 4 4 c 11 4 c 8 0 c 11 -4 c 8 -8 c
4 -11 c 0 -11 c -4 -12 c -4 -3 c -7 -4 c 0 -249 9152 3205 l 0 -38 9108 3323 l 34 -4 c -4 4 c -3 11 c 0 12 c 3 11 c 8 7 c 11 4 c
8 0 c 11 -4 c 8 -7 c 4 -11 c 0 -12 c -4 -11 c -4 -4 c -8 -4 c -3 8 9123 3364 l -12 11 c 80 0 c 11 -4 9135 3478 l 8 -8 c 3 -11 c
0 -4 c -3 -11 c -8 -8 c -11 -4 c -4 0 c -11 4 c -8 8 c -4 11 c 0 4 c 4 11 c 8 8 c 15 4 c 19 0 c 18 -4 c 12 -8 c 4 -11 c 0 -8 c
-4 -11 c -8 -4 c 4 -12 9108 3527 l 11 -7 c 19 -4 c 12 0 c 18 4 c 12 7 c 4 12 c 0 7 c -4 12 c -12 7 c -18 4 c -12 0 c -19 -4 c
-11 -7 c -4 -12 c 0 -7 c 4 -4 9180 3587 l 4 4 c -4 4 c -4 -4 c 4 -11 9108 3636 l 8 -4 c 7 0 c 8 4 c 3 8 c 4 15 c 4 11 c 8 8 c 7 3 c
11 0 c 8 -3 c 4 -4 c 4 -12 c 0 -15 c -4 -11 c -4 -4 c -8 -4 c -11 0 c -7 4 c -8 8 c -4 11 c -4 15 c -3 8 c -8 4 c -7 0 c -8 -4 c
-4 -12 c 0 -15 c 80 -38 9108 3746 l 0 53 9108 3693 l -4 0 9127 3772 l -7 4 c -4 4 c -4 8 c 0 15 c 4 7 c 4 4 c 7 4 c 8 0 c 7 -4 c
12 -8 c 38 -37 c 0 53 c 0 -249 9614 1677 l 0 -37 9571 1794 l 34 -4 c -4 4 c -4 11 c 0 11 c 4 12 c 7 7 c 12 4 c 7 0 c 12 -4 c 7 -7 c
4 -12 c 0 -11 c -4 -11 c -4 -4 c -7 -4 c -4 8 9586 1836 l -11 11 c 79 0 c 11 -3 9597 1949 l 8 -8 c 4 -11 c 0 -4 c -4 -11 c -8 -8 c
-11 -4 c -4 0 c -11 4 c -8 8 c -3 11 c 0 4 c 3 11 c 8 8 c 15 3 c 19 0 c 19 -3 c 11 -8 c 4 -11 c 0 -8 c -4 -11 c -7 -4 c
53 -38 9571 2014 l 0 57 c 79 0 9571 2014 l 4 -4 9642 2059 l 4 4 c -4 4 c -4 -4 c 53 -38 9571 2127 l 0 57 c 79 0 9571 2127 l
0 -38 9571 2210 l 34 -3 c -4 3 c -4 12 c 0 11 c 4 11 c 7 8 c 12 4 c 7 0 c 12 -4 c 7 -8 c 4 -11 c 0 -11 c -4 -12 c -4 -3 c -7 -4 c
3 -11 9571 2259 l 8 -4 c 8 0 c 7 4 c 4 8 c 4 15 c 3 11 c 8 8 c 8 3 c 11 0 c 7 -3 c 4 -4 c 4 -12 c 0 -15 c -4 -11 c -4 -4 c -7 -4 c
-11 0 c -8 4 c -8 8 c -3 11 c -4 15 c -4 8 c -7 4 c -8 0 c -8 -4 c -3 -12 c 0 -15 c
showpage PGPLOT restore
 
%%Trailer
%%DocumentFonts: 
%%Pages: 1
%%EOF
