%!PS-Adobe-3.0 EPSF-3.0
%%For: tom
%%Title: PGPLOT PostScript plot
%%Creator: PGPLOT
%%CreationDate:  9-Nov-1994 13:56
%%BoundingBox: 25 18 587 774
%%DocumentFonts: (atend)
%%LanguageLevel: 1
%%Orientation: Landscape
%%Pages: (atend)
%%EndComments
%%BeginProlog
/l {moveto rlineto currentpoint stroke moveto} bind def
/c {rlineto currentpoint stroke moveto} bind def
/d {moveto 0 0 rlineto currentpoint stroke moveto} bind def
/SLW {5 mul setlinewidth} bind def
/SCF /pop load def
/BP {newpath moveto} bind def
/LP /rlineto load def
/EP {rlineto closepath eofill} bind def
/MB {gsave translate MFAC dup scale 1 setlinewidth 2 setlinecap 0 setlinejoin newpath} bind def
/ME /grestore load def
/C {0 360 arc stroke} bind def
/FC {0 360 arc fill} bind def
%%EndProlog
 
%%Page: 1 1
%%BeginPageSetup
/PGPLOT save def
0.072 0.072 scale
8150 250 translate 90 rotate
1 setlinejoin 1 setlinecap 1 SLW 1 SCF
%%EndPageSetup
0.00 setgray 1 SLW 8939 0 780 780 l 0 6239 c -8939 0 c 0 -6239 c 0 -45 1116 780 l 0 -45 1554 780 l 0 -45 1991 780 l 0 -45 2428 780 l
0 -90 2865 780 l 0 -45 3302 780 l 0 -45 3739 780 l 0 -45 4176 780 l 0 -45 4613 780 l 0 -90 5051 780 l 0 -45 5488 780 l
0 -45 5925 780 l 0 -45 6362 780 l 0 -45 6799 780 l 0 -90 7236 780 l 0 -45 7673 780 l 0 -45 8110 780 l 0 -45 8548 780 l
0 -45 8985 780 l 0 -90 9422 780 l 0 -45 1116 7064 l 0 -45 1554 7064 l 0 -45 1991 7064 l 0 -45 2428 7064 l 0 -90 2865 7109 l
0 -45 3302 7064 l 0 -45 3739 7064 l 0 -45 4176 7064 l 0 -45 4613 7064 l 0 -90 5051 7109 l 0 -45 5488 7064 l 0 -45 5925 7064 l
0 -45 6362 7064 l 0 -45 6799 7064 l 0 -90 7236 7109 l 0 -45 7673 7064 l 0 -45 8110 7064 l 0 -45 8548 7064 l 0 -45 8985 7064 l
0 -90 9422 7109 l -60 0 2775 672 l -6 -54 c 6 6 c 18 6 c 18 0 c 18 -6 c 12 -12 c 6 -18 c 0 -12 c -6 -18 c -12 -12 c -18 -6 c -18 0 c
-18 6 c -6 6 c -6 12 c -18 -6 2859 672 l -12 -18 c -6 -30 c 0 -18 c 6 -30 c 12 -18 c 18 -6 c 12 0 c 18 6 c 12 18 c 6 30 c 0 18 c
-6 30 c -12 18 c -18 6 c -12 0 c -18 -6 2979 672 l -12 -18 c -6 -30 c 0 -18 c 6 -30 c 12 -18 c 18 -6 c 12 0 c 18 6 c 12 18 c 6 30 c
0 18 c -6 30 c -12 18 c -18 6 c -12 0 c 12 6 4847 648 l 18 18 c 0 -126 c -18 -6 4985 672 l -12 -18 c -6 -30 c 0 -18 c 6 -30 c
12 -18 c 18 -6 c 12 0 c 18 6 c 12 18 c 6 30 c 0 18 c -6 30 c -12 18 c -18 6 c -12 0 c -18 -6 5105 672 l -12 -18 c -6 -30 c 0 -18 c
6 -30 c 12 -18 c 18 -6 c 12 0 c 18 6 c 12 18 c 6 30 c 0 18 c -6 30 c -12 18 c -18 6 c -12 0 c -18 -6 5225 672 l -12 -18 c -6 -30 c
0 -18 c 6 -30 c 12 -18 c 18 -6 c 12 0 c 18 6 c 12 18 c 6 30 c 0 18 c -6 30 c -12 18 c -18 6 c -12 0 c 12 6 7032 648 l 18 18 c
0 -126 c -60 0 7206 672 l -6 -54 c 6 6 c 18 6 c 18 0 c 18 -6 c 12 -12 c 6 -18 c 0 -12 c -6 -18 c -12 -12 c -18 -6 c -18 0 c -18 6 c
-6 6 c -6 12 c -18 -6 7290 672 l -12 -18 c -6 -30 c 0 -18 c 6 -30 c 12 -18 c 18 -6 c 12 0 c 18 6 c 12 18 c 6 30 c 0 18 c -6 30 c
-12 18 c -18 6 c -12 0 c -18 -6 7410 672 l -12 -18 c -6 -30 c 0 -18 c 6 -30 c 12 -18 c 18 -6 c 12 0 c 18 6 c 12 18 c 6 30 c 0 18 c
-6 30 c -12 18 c -18 6 c -12 0 c 0 6 9206 642 l 6 12 c 6 6 c 12 6 c 24 0 c 12 -6 c 6 -6 c 6 -12 c 0 -12 c -6 -12 c -12 -18 c
-60 -60 c 84 0 c -18 -6 9356 672 l -12 -18 c -6 -30 c 0 -18 c 6 -30 c 12 -18 c 18 -6 c 12 0 c 18 6 c 12 18 c 6 30 c 0 18 c -6 30 c
-12 18 c -18 6 c -12 0 c -18 -6 9476 672 l -12 -18 c -6 -30 c 0 -18 c 6 -30 c 12 -18 c 18 -6 c 12 0 c 18 6 c 12 18 c 6 30 c 0 18 c
-6 30 c -12 18 c -18 6 c -12 0 c -18 -6 9596 672 l -12 -18 c -6 -30 c 0 -18 c 6 -30 c 12 -18 c 18 -6 c 12 0 c 18 6 c 12 18 c 6 30 c
0 18 c -6 30 c -12 18 c -18 6 c -12 0 c -90 0 780 780 l -45 0 780 1717 l -90 0 780 2655 l -45 0 780 3592 l -90 0 780 4529 l
-45 0 780 5467 l -90 0 780 6404 l -90 0 9809 780 l -45 0 9764 1717 l -90 0 9809 2655 l -45 0 9764 3592 l -90 0 9809 4529 l
-45 0 9764 5467 l -90 0 9809 6404 l 6 -18 517 774 l 18 -12 c 30 -6 c 18 0 c 30 6 c 18 12 c 6 18 c 0 12 c -6 18 c -18 12 c -30 6 c
-18 0 c -30 -6 c -18 -12 c -6 -18 c 0 -12 c -6 0 547 2397 l -12 6 c -6 6 c -6 12 c 0 24 c 6 12 c 6 6 c 12 6 c 12 0 c 12 -6 c
18 -12 c 60 -60 c 0 84 c 84 84 547 2517 l 84 -84 547 2601 l -6 12 541 2661 l -18 18 c 126 0 c 6 -18 517 2799 l 18 -12 c 30 -6 c
18 0 c 30 6 c 18 12 c 6 18 c 0 12 c -6 18 c -18 12 c -30 6 c -18 0 c -30 -6 c -18 -12 c -6 -18 c 0 -12 c 63 -45 453 2923 l 0 68 c
94 0 453 2923 l 84 -60 517 4325 l 0 90 c 126 0 517 4325 l 84 84 547 4391 l 84 -84 547 4475 l -6 12 541 4535 l -18 18 c 126 0 c
6 -18 517 4673 l 18 -12 c 30 -6 c 18 0 c 30 6 c 18 12 c 6 18 c 0 12 c -6 18 c -18 12 c -30 6 c -18 0 c -30 -6 c -18 -12 c -6 -18 c
0 -12 c 63 -45 453 4798 l 0 67 c 94 0 453 4798 l -12 -6 535 6218 l -6 -18 c 0 -12 c 6 -18 c 18 -12 c 30 -6 c 30 0 c 24 6 c 12 12 c
6 18 c 0 6 c -6 18 c -12 12 c -18 6 c -6 0 c -18 -6 c -12 -12 c -6 -18 c 0 -6 c 6 -18 c 12 -12 c 18 -6 c 84 84 547 6266 l
84 -84 547 6350 l -6 12 541 6410 l -18 18 c 126 0 c 6 -18 517 6548 l 18 -12 c 30 -6 c 18 0 c 30 6 c 18 12 c 6 18 c 0 12 c -6 18 c
-18 12 c -30 6 c -18 0 c -30 -6 c -18 -12 c -6 -18 c 0 -12 c 63 -45 453 6672 l 0 68 c 94 0 453 6672 l
4 0 780 794 l 5 7 c 4 7 c 4 3 c 5 1 c 4 -6 c 4 -4 c 5 -6 c 4 -5 c 5 -1 c 4 1 c 4 0 c 5 0 c 4 0 c 4 -1 c 5 1 c 4 2 c 5 8 c 4 36 c
4 35 c 5 6 c 4 -12 c 4 -45 c 5 -21 c 4 -2 c 5 2 c 4 -2 c 4 -4 c 5 -3 c 4 -1 c 4 -1 c 5 1 c 4 -1 c 5 0 c 4 0 c 4 0 c 5 0 c 4 0 c
4 0 c 5 0 c 4 1 c 4 0 c 5 2 c 4 11 c 5 32 c 4 18 c 4 -1 c 5 -19 c 4 -31 c 4 -11 c 5 -1 c 4 0 c 5 -1 c 4 0 c 4 0 c 5 1 c 4 2 c 4 1 c
5 3 c 4 1 c 5 -2 c 4 -1 c 4 -2 c 5 1 c 4 7 c 4 10 c 5 5 c 4 -3 c 5 -8 c 4 -7 c 4 -1 c 5 1 c 4 -1 c 4 -1 c 5 -1 c 4 -2 c 4 -1 c 5 1 c
4 -1 c 5 0 c 4 0 c 4 0 c 5 0 c 4 -11 c 5 11 1151 780 l 4 -1 c 5 1 c 4 0 c 4 -1 c 5 1 c 4 0 c 4 0 c 5 0 c 4 1 c 5 0 c 4 2 c 4 2 c
5 1 c 4 0 c 4 0 c 5 -2 c 4 -3 c 5 0 c 4 -1 c 4 0 c 5 1 c 4 2 c 4 7 c 5 22 c 4 28 c 4 25 c 5 55 c 4 23 c 5 -6 c 4 -38 c 4 -78 c
5 -30 c 4 -4 c 4 4 c 5 20 c 4 15 c 5 3 c 4 -10 c 4 -24 c 5 -12 c 4 -3 c 4 1 c 5 2 c 4 9 c 5 8 c 4 0 c 4 -3 c 5 -11 c 4 -5 c 4 0 c
5 -1 c 4 -1 c 5 1 c 4 0 c 4 0 c 5 0 c 4 -1 c 4 0 c 5 0 c 4 1 c 4 2 c 5 7 c 4 30 c 5 22 c 4 0 c 4 -11 c 5 -34 c 4 -10 c 4 10 c 5 56 c
4 224 c 5 178 c 4 13 c 4 -85 c 5 -270 c 4 -119 c 4 -11 c 5 -1 c 4 0 c 5 -1 c 4 0 c 4 -1 c 5 1 c 4 0 c 4 0 c 5 0 c 4 0 c 4 0 c 5 0 c
4 -1 c 5 1 c 4 3 c 4 6 c 5 4 c 4 9 c 4 54 c 5 44 c 4 3 c 5 -15 c 4 -67 c 4 -32 c 5 5 c 4 17 c 4 5 c 5 -3 c 4 -14 c 5 -15 c 4 -3 c
4 0 c 5 0 c 4 0 c 4 1 c 5 -1 c 4 0 c 5 1 c 4 0 c 4 1 c 5 -1 c 4 -1 c 4 1 c 5 3 c 4 13 c 4 78 c 5 135 c 4 41 c 5 -22 c 4 -109 c
4 -120 c 5 -15 c 4 10 c 4 66 c 5 145 c 4 47 c 5 -11 c 4 -98 c 4 -131 c 5 -30 c 4 -3 c 4 0 c 5 -1 c 4 1 c 5 0 c 4 0 c 4 0 c 5 2 c
4 0 c 4 0 c 5 -2 c 4 -1 c 5 0 c 4 0 c 4 0 c 5 -1 c 4 1 c 4 1 c 5 4 c 4 22 c 4 38 c 5 6 c 4 -8 c 5 -30 c 4 -29 c 4 -4 c 5 1 c 4 0 c
4 0 c 5 1 c 4 -1 c 5 2 c 4 6 c 4 21 c 5 16 c 4 4 c 4 -11 c 5 -22 c 4 -11 c 5 1 c 4 1 c 4 0 c 5 -3 c 4 -3 c 4 -1 c 5 2 c 4 4 c 5 3 c
4 0 c 4 -3 c 5 -2 c 4 -3 c 4 0 c 5 -1 c 4 0 c 4 0 c 5 -1 c 4 0 c 5 0 c 4 0 c 4 -1 c 5 0 c 4 1 c 4 0 c 5 1 c 4 2 c 5 4 c 4 8 c 4 4 c
5 0 c 4 -8 c 4 -6 c 5 -4 c 4 -1 c 5 -1 c 4 0 c 4 0 c 5 1 c 4 -1 c 4 0 c 5 0 c 4 0 c 5 0 c 4 0 c 4 0 c 5 0 c 4 0 c 4 1 c 5 0 c 4 0 c
4 0 c 5 0 c 4 -1 c 5 0 c 4 1 c 4 1 c 5 0 c 4 2 c 4 2 c 5 0 c 4 1 c 5 -2 c 4 -2 c 4 0 c 5 -2 c 4 0 c 4 1 c 5 0 c 4 1 c 5 -1 c 4 1 c
4 0 c 5 -1 c 4 0 c 4 -1 c 5 0 c 4 -1 c 4 1 c 5 0 c 4 0 c 5 0 c 4 0 c 4 0 c 5 -1 c 4 1 c 4 0 c 5 0 c 4 -1 c 5 1 c 4 0 c 4 -1 c 5 1 c
4 0 c 4 1 c 5 1 c 4 0 c 5 -1 c 4 0 c 4 1 c 5 -1 c 4 0 c 4 -1 c 5 2 c 4 1 c 5 0 c 4 -1 c 4 -1 c 5 0 c 4 0 c 4 0 c 5 1 c 4 0 c 4 1 c
5 0 c 4 0 c 5 -1 c 4 0 c 4 0 c 5 5 c 4 26 c 4 39 c 5 27 c 4 111 c 5 95 c 4 -6 c 4 -27 c 5 -64 c 4 23 c 4 12 c 5 -14 c 4 -110 c
5 -102 c 4 -12 c 4 -2 c 5 -1 c 4 0 c 4 0 c 5 1 c 4 2 c 5 2 c 4 3 c 4 2 c 5 0 c 4 -2 c 4 -3 c 5 -3 c 4 -1 c 4 0 c 5 -1 c 4 -1 c 5 0 c
4 0 c 4 0 c 5 1 c 4 0 c 4 0 c 5 2 c 4 16 c 5 109 c 4 129 c 4 26 c 5 -26 c 4 -137 c 4 -108 c 5 -11 c 4 -1 c 5 0 c 4 0 c 4 2 c 5 6 c
4 3 c 4 0 c 5 -2 c 4 -6 c 5 -2 c 4 -1 c 4 0 c 5 1 c 4 7 c 4 5 c 5 0 c 4 -2 c 4 -7 c 5 -3 c 4 -1 c 5 0 c 4 0 c 4 0 c 5 0 c 4 1 c
4 3 c 5 6 c 4 3 c 5 1 c 4 -3 c 4 -7 c 5 -2 c 4 0 c 4 1 c 5 2 c 4 1 c 5 6 c 4 38 c 4 79 c 5 21 c 4 -6 c 4 -58 c 5 -68 c 4 15 c 4 94 c
5 39 c 4 6 c 5 -36 c 4 -97 c 4 -23 c 5 13 c 4 9 c 4 2 c 5 -8 c 4 -18 c 5 -7 c 4 1 c 4 4 c 5 3 c 4 -1 c 4 -3 c 5 -2 c 4 5 c 5 19 c
4 71 c 4 62 c 5 21 c 4 -20 c 4 -81 c 5 -60 c 4 -16 c 5 -6 c 4 -1 c 4 -1 c 5 0 c 4 -1 c 4 0 c 5 1 c 4 -1 c 4 0 c 5 0 c 4 1 c 5 1 c
4 1 c 4 -1 c 5 0 c 4 0 c 4 0 c 5 1 c 4 0 c 5 1 c 4 1 c 4 0 c 5 3 c 4 3 c 4 4 c 5 16 c 4 167 c 5 507 c 4 190 c 4 -6 c 5 -261 c
4 -479 c 4 -111 c 5 -5 c 4 0 c 5 -10 c 4 -6 c 4 6 c 5 24 c 4 205 c 4 1594 c 5 1850 c 4 337 c 4 -392 c 5 -1999 c 4 -1465 c 5 -137 c
4 -14 c 4 -5 c 5 3 c 4 84 c 4 328 c 5 205 c 4 -4 c 5 -134 c 4 -363 c 4 -120 c 5 -6 c 4 10 c 4 109 c 5 657 c 4 596 c 5 37 c 4 -181 c
4 -805 c 5 -385 c 4 -37 c 4 -2 c 5 -1 c 4 -2 c 5 -2 c 4 0 c 4 4 c 5 12 c 4 11 c 4 29 c 5 123 c 4 147 c 4 30 c 5 -39 c 4 -153 c
5 -139 c 4 -27 c 4 -2 c 5 0 c 4 0 c 4 0 c 5 0 c 4 0 c 5 -1 c 4 0 c 4 0 c 5 0 c 4 0 c 4 0 c 5 -1 c 4 0 c 5 -1 c 4 0 c 4 0 c 5 0 c
4 0 c 4 0 c 5 0 c 4 0 c 5 0 c 4 1 c 4 3 c 5 4 c 4 5 c 4 14 c 5 11 c 4 2 c 4 2 c 5 -19 c 4 -6 c 5 -9 c 4 -5 c 4 -1 c 5 0 c 4 -1 c
4 0 c 5 0 c 4 0 c 5 0 c 4 1 c 4 0 c 5 2 c 4 19 c 4 147 c 5 196 c 4 35 c 5 -17 c 4 -195 c 4 -155 c 5 22 c 4 389 c 4 587 c 5 112 c
4 -48 c 4 -541 c 5 -470 c 4 -67 c 5 -4 c 4 0 c 4 -4 c 5 -3 c 4 -3 c 4 -2 c 5 0 c 4 0 c 5 2 c 4 3 c 4 1 c 5 -1 c 4 -2 c 4 -2 c 5 2 c
4 0 c 5 -1 c 4 -2 c 4 -1 c 5 0 c 4 1 c 4 2 c 5 5 c 4 2 c 5 0 c 4 -3 c 4 -5 c 5 -1 c 4 -1 c 4 0 c 5 0 c 4 0 c 4 0 c 5 0 c 4 0 c 5 0 c
4 -1 c 4 0 c 5 0 c 4 0 c 4 -1 c 5 1 c 4 0 c 5 0 c 4 0 c 4 0 c 5 0 c 4 0 c 4 1 c 5 1 c 4 5 c 5 12 c 4 16 c 4 2 c 5 -4 c 4 -10 c
4 -12 c 5 -2 c 4 -1 c 5 -4 c 4 -4 c 4 1 c 5 -1 c 4 0 c 4 2 c 5 0 c 4 0 c 4 0 c 5 -1 c 4 0 c 5 0 c 4 1 c 4 7 c 5 7 c 4 4 c 4 0 c
5 -5 c 4 -3 c 5 -1 c 4 -2 c 4 -1 c 5 -2 c 4 3 c 4 1 c 5 0 c 4 1 c 5 -2 c 4 2 c 4 3 c 5 10 c 4 65 c 4 740 c 5 1830 c 4 497 c 5 -42 c
4 -1096 c 4 -1670 c 5 -304 c 4 -25 c 4 -5 c 5 -3 c 4 -1 c 4 -2 c 5 -1 c 4 0 c 5 0 c 4 0 c 4 -1 c 5 -1 c 4 0 c 4 1 c 5 0 c 4 1 c
5 1 c 4 2 c 4 1 c 5 1 c 4 3 c 4 13 c 5 146 c 4 1141 c 5 1245 c 4 201 c 4 -200 c 5 -1421 c 4 -1022 c 4 -92 c 5 12 c 4 25 c 5 51 c
4 33 c 4 -11 c 5 -31 c 4 -62 c 4 -30 c 5 -8 c 4 -1 c 4 0 c 5 -1 c 4 -1 c 5 1 c 4 -1 c 4 1 c 5 0 c 4 -1 c 4 0 c 5 1 c 4 5 c 5 1 c
4 3 c 4 2 c 5 -3 c 4 -2 c 4 -3 c 5 -4 c 4 0 c 5 0 c 4 -1 c 4 0 c 5 0 c 4 1 c 4 0 c 5 -1 c 4 1 c 4 4 c 5 3 c 4 0 c 5 0 c 4 -2 c
4 -3 c 5 0 c 4 -1 c 4 0 c 5 0 c 4 3 c 5 3 c 4 2 c 4 -2 c 5 -2 c 4 -2 c 4 0 c 5 6 c 4 24 c 5 26 c 4 16 c 4 16 c 5 232 c 4 1160 c
4 644 c 5 41 c 4 -298 c 5 -1121 c 4 -93 c 4 84 c 5 -29 c 4 -241 c 4 -376 c 5 -81 c 4 -4 c 4 -1 c 5 -2 c 4 6 c 5 4 c 4 1 c 4 -3 c
5 -6 c 4 -3 c 4 5 c 5 12 c 4 12 c 5 4 c 4 -2 c 4 -12 c 5 -10 c 4 -5 c 4 -3 c 5 -1 c 4 4 c 5 28 c 4 29 c 4 0 c 5 -4 c 4 -37 c 4 -17 c
5 42 c 4 59 c 5 12 c 4 -6 c 4 -51 c 5 -58 c 4 -7 c 4 -1 c 5 0 c 4 0 c 4 0 c 5 0 c 4 0 c 5 0 c 4 1 c 4 0 c 5 0 c 4 0 c 4 0 c 5 0 c
4 0 c 5 2 c 4 25 c 4 62 c 5 24 c 4 -3 c 4 -35 c 5 -58 c 4 0 c 5 25 c 4 18 c 4 8 c 5 -9 c 4 -26 c 4 -17 c 5 -5 c 4 16 c 5 44 c 4 22 c
4 0 c 5 -26 c 4 -47 c 4 -17 c 5 0 c 4 0 c 4 1 c 5 0 c 4 1 c 5 -1 c 4 1 c 4 1 c 5 0 c 4 -1 c 4 0 c 5 2 c 4 2 c 5 6 c 4 9 c 4 4 c
5 5 c 4 11 c 4 71 c 5 589 c 4 2349 c 5 2940 c 4 49 c 4 -2 c 5 -2807 c 4 -2724 c 4 -445 c 5 -30 c 4 3 c 5 7 c 4 1 c 4 -2 c 5 -10 c
4 -12 c 4 -3 c 5 26 c 4 219 c 4 320 c 5 45 c 4 -39 c 5 -272 c 4 -269 c 4 -41 c 5 -2 c 4 -1 c 4 0 c 5 0 c 4 1 c 5 -1 c 4 -1 c 4 0 c
5 -1 c 4 1 c 4 1 c 5 0 c 4 -1 c 5 -1 c 4 -1 c 4 1 c 5 2 c 4 1 c 4 0 c 5 0 c 4 -1 c 4 -1 c 5 1 c 4 0 c 5 3 c 4 2 c 4 6 c 5 19 c
4 14 c 4 7 c 5 13 c 4 99 c 5 1194 c 4 2373 c 4 845 c 5 -171 c 4 -1489 c 4 -2312 c 5 -549 c 4 -35 c 5 -6 c 4 -4 c 4 -3 c 5 -1 c 4 0 c
4 -2 c 5 11 c 4 31 c 5 21 c 4 9 c 4 -11 c 5 -33 c 4 -17 c 4 -11 c 5 -3 c 4 -2 c 4 0 c 5 2 c 4 5 c 5 26 c 4 43 c 4 14 c 5 -1 c
4 -28 c 4 -42 c 5 -11 c 4 14 c 5 36 c 4 36 c 4 162 c 5 198 c 4 25 c 4 -35 c 5 -196 c 4 -190 c 5 -45 c 4 -6 c 4 -2 c 5 -1 c 4 -4 c
4 1 c 5 0 c 4 1 c 5 1 c 4 1 c 4 1 c 5 3 c 4 8 c 4 22 c 5 248 c 4 1211 c 4 874 c 5 142 c 4 -259 c 5 -1355 c 4 -808 c 4 -77 c 5 -6 c
4 -4 c 4 -1 c 5 -2 c 4 0 c 5 1 c 4 0 c 4 1 c 5 0 c 4 -2 c 4 -2 c 5 -1 c 4 -1 c 5 0 c 4 -1 c 4 0 c 5 0 c 4 0 c 4 0 c 5 0 c 4 1 c
5 0 c 4 -1 c 4 1 c 5 0 c 4 0 c 4 0 c 5 1 c 4 5 c 4 12 c 5 5 c 4 -1 c 5 -6 c 4 -13 c 4 -4 c 5 0 c 4 0 c 4 2 c 5 0 c 4 2 c 5 6 c 4 4 c
4 0 c 5 -2 c 4 -7 c 4 -3 c 5 1 c 4 0 c 5 0 c 4 0 c 4 2 c 5 1 c 4 -1 c 4 -2 c 5 -2 c 4 2 c 4 7 c 5 2 c 4 0 c 5 -3 c 4 -4 c 4 -1 c
5 0 c 4 3 c 4 11 c 5 47 c 4 104 c 5 70 c 4 13 c 4 -52 c 5 -104 c 4 -71 c 4 -12 c 5 -6 c 4 -2 c 5 1 c 4 -19 c 4 23 c 5 -1 c 4 -3 c
4 -3 c 5 0 c 4 0 c 5 6 c 4 33 c 4 26 c 5 3 c 4 -9 c 4 -35 c 5 -22 c 4 -2 c 4 0 c 5 2 c 4 3 c 5 1 c 4 4 c 4 40 c 5 252 c 4 280 c
4 49 c 5 -44 c 4 -281 c 5 -203 c 4 103 c 4 105 c 5 7 c 4 -35 c 4 -140 c 5 -82 c 4 90 c 5 295 c 4 128 c 4 -8 c 5 -109 c 4 -319 c
4 -127 c 5 -8 c 4 0 c 5 0 c 4 -1 c 4 2 c 5 18 c 4 49 c 4 18 c 5 -3 c 4 -24 c 4 -48 c 5 -15 c 4 -1 c 5 0 c 4 0 c 4 0 c 5 0 c 4 0 c
4 2 c 5 21 c 4 44 c 5 14 c 4 -2 c 4 -23 c 5 -46 c 4 -10 c 4 0 c 5 -1 c 4 1 c 5 0 c 4 0 c 4 0 c 5 1 c 4 2 c 4 1 c 5 1 c 4 1 c 5 1 c
4 2 c 4 6 c 5 1 c 4 -4 c 4 -2 c 5 -3 c 4 -1 c 4 0 c 5 -2 c 4 -4 c 5 1 c 4 0 c 4 -1 c 5 0 c 4 -1 c 4 -1 c 5 1 c 4 0 c 5 3 c 4 6 c
4 5 c 5 2 c 4 -3 c 4 0 c 5 12 c 4 6 c 5 0 c 4 -7 c 4 -16 c 5 -6 c 4 0 c 4 0 c 5 0 c 4 0 c 5 2 c 4 5 c 4 10 c 5 3 c 4 0 c 4 -2 c
5 -9 c 4 -3 c 4 -2 c 5 -1 c 4 5 c 5 7 c 4 26 c 4 99 c 5 92 c 4 27 c 4 -18 c 5 -100 c 4 -99 c 5 -25 c 4 -7 c 4 -4 c 5 -4 c 4 -2 c
4 0 c 5 -1 c 4 1 c 5 0 c 4 10 c 4 53 c 5 38 c 4 7 c 4 -10 c 5 -57 c 4 -32 c 4 -3 c 5 2 c 4 0 c 5 -2 c 4 -3 c 4 -3 c 5 -1 c 4 2 c
4 0 c 5 0 c 4 -1 c 5 -1 c 4 -1 c 4 1 c 5 0 c 4 -1 c 4 0 c 5 0 c 4 1 c 5 1 c 4 0 c 4 0 c 5 0 c 4 -1 c 4 0 c 5 0 c 4 0 c 5 0 c 4 -1 c
4 1 c 5 0 c 4 -1 c 4 0 c 5 0 c 4 2 c 4 1 c 5 0 c 4 0 c 5 0 c 4 -2 c 4 0 c 5 0 c 4 0 c 4 0 c 5 2 c 4 2 c 5 2 c 4 22 c 4 95 c 5 51 c
4 11 c 4 -25 c 5 -100 c 4 -54 c 5 -4 c 4 2 c 4 3 c 5 2 c 4 -1 c 4 -22 c 5 17 c 4 0 c 5 1 c 4 7 c 4 6 c 5 0 c 4 0 c 4 -8 c 5 -7 c
4 -1 c 4 0 c 5 1 c 4 0 c 5 -1 c 4 -1 c 4 0 c 5 1 c 4 3 c 4 13 c 5 13 c 4 4 c 5 -2 c 4 -16 c 4 -13 c 5 -1 c 4 0 c 4 1 c 5 1 c 4 0 c
5 10 c 4 18 c 4 5 c 5 -1 c 4 -10 c 4 -19 c 5 -4 c 4 0 c 5 1 c 4 2 c 4 2 c 5 0 c 4 0 c 4 0 c 5 5 c 4 22 c 4 106 c 5 150 c 4 54 c
5 -4 c 4 -102 c 4 -146 c 5 -46 c 4 24 c 4 277 c 5 880 c 4 358 c 5 4 c 4 -265 c 4 -931 c 5 -343 c 4 -38 c 4 -3 c 5 -2 c 4 -1 c 5 -1 c
4 0 c 4 -2 c 5 1 c 4 -1 c 4 1 c 5 0 c 4 0 c 5 0 c 4 0 c 4 1 c 5 0 c 4 1 c 4 -1 c 5 -1 c 4 0 c 4 -1 c 5 0 c 4 1 c 5 6 c 4 9 c 4 1 c
5 0 c 4 -1 c 4 -8 c 5 -2 c 4 -3 c 5 -3 c 4 -2 c 4 1 c 5 -1 c 4 2 c 4 1 c 5 1 c 4 0 c 5 -1 c 4 0 c 4 2 c 5 1 c 4 -1 c 4 -1 c 5 -2 c
4 -2 c 4 0 c 5 -1 c 4 1 c 5 0 c 4 0 c 4 0 c 5 1 c 4 0 c 4 -1 c 5 0 c 4 0 c 5 0 c 4 1 c 4 -1 c 5 0 c 4 2 c 4 5 c 5 8 c 4 7 c 5 6 c
4 -1 c 4 -3 c 5 10 c 4 72 c 4 84 c 5 38 c 4 -1 c 5 -65 c 4 -87 c 4 -28 c 5 126 c 4 932 c 4 787 c 5 116 c 4 -117 c 4 -968 c 5 -792 c
4 -114 c 5 -6 c 4 -2 c 4 -1 c 5 -2 c 4 -1 c 4 -1 c 5 -1 c 4 -1 c 5 1 c 4 1 c 4 1 c 5 -1 c 4 -2 c 4 -1 c 5 0 c 4 -1 c 5 2 c 4 2 c
4 4 c 5 1 c 4 -1 c 4 -3 c 5 -3 c 4 -1 c 5 0 c 4 0 c 4 -1 c 5 0 c 4 -1 c 4 0 c 5 1 c 4 0 c 4 12 c 5 26 c 4 7 c 5 0 c 4 -10 c 4 -24 c
5 -1 c 4 22 c 4 11 c 5 1 c 4 -8 c 5 -23 c 4 -11 c 4 -1 c 5 1 c 4 0 c 4 4 c 5 9 c 4 4 c 5 -1 c 4 -4 c 4 -10 c 5 -4 c 4 0 c 4 0 c
5 1 c 4 2 c 5 0 c 4 0 c 4 0 c 5 -1 c 4 0 c 4 6 c 5 5 c 4 1 c 4 0 c 5 -7 c 4 -6 c 5 -2 c 4 0 c 4 0 c 5 0 c 4 2 c 4 11 c 5 30 c 4 16 c
5 4 c 4 3 c 4 -23 c 5 -14 c 4 -4 c 4 -11 c 5 -8 c 4 -2 c 5 -1 c 4 -2 c 4 0 c 5 -1 c 4 0 c 4 0 c 5 0 c 4 0 c 5 2 c 4 17 c 4 43 c
5 15 c 4 2 c 4 -17 c 5 -45 c 4 -14 c 4 -2 c 5 0 c 4 -1 c 5 0 c 4 0 c 4 2 c 5 0 c 4 -1 c 4 1 c 5 -1 c 4 1 c 5 1 c 4 2 c 4 1 c 5 0 c
4 2 c 4 6 c 5 47 c 4 434 c 5 799 c 4 252 c 4 269 c 5 -216 c 4 -762 c 4 -249 c 5 -337 c 4 -204 c 4 -33 c 5 1 c 4 0 c 5 1 c 4 -3 c
4 -6 c 5 -3 c 4 0 c 4 -1 c 5 0 c 4 0 c 5 -1 c 4 -1 c 4 0 c 5 -1 c 4 0 c 4 1 c 5 2 c 4 8 c 5 3 c 4 1 c 4 -3 c 5 -6 c 4 -4 c 4 1 c
5 2 c 4 0 c 5 2 c 4 -1 c 4 -2 c 5 0 c 4 -1 c 4 0 c 5 0 c 4 0 c 4 0 c 5 0 c 4 1 c 5 2 c 4 4 c 4 4 c 5 3 c 4 4 c 4 5 c 5 4 c 4 10 c
5 54 c 4 698 c 4 2856 c 5 1637 c 4 130 c 4 -611 c 5 -2747 c 4 -1848 c 5 -169 c 4 -16 c 4 -3 c 5 7 c 4 2 c 4 -1 c 5 -4 c 4 -12 c
5 -6 c 4 0 c 4 2 c 5 1 c 4 -1 c 4 -1 c 5 6 c 4 29 c 4 21 c 5 2 c 4 -9 c 5 -30 c 4 -24 c 4 -3 c 5 0 c 4 0 c 4 0 c 5 0 c 4 0 c 5 1 c
4 0 c 4 0 c 5 0 c 4 0 c 4 -1 c 5 -1 c 4 0 c 5 1 c 4 1 c 4 2 c 5 2 c 4 13 c 4 13 c 5 2 c 4 -3 c 5 -10 c 4 -16 c 4 -3 c 5 -1 c 4 1 c
4 0 c 5 0 c 4 0 c 4 0 c 5 0 c 4 -1 c 5 2 c 4 -1 c 4 0 c 5 -1 c 4 -1 c 4 0 c 5 -1 c 4 0 c 5 1 c 4 -1 c 4 1 c 5 -1 c 4 0 c 4 0 c 5 0 c
4 1 c 5 1 c 4 0 c 4 0 c 5 0 c 4 -2 c 4 0 c 5 2 c 4 2 c 4 2 c 5 1 c 4 -1 c 5 -2 c 4 -3 c 4 -1 c 5 0 c 4 1 c 4 0 c 5 0 c 4 0 c 5 0 c
4 0 c 4 1 c 5 1 c 4 0 c 4 1 c 5 3 c 4 22 c 5 92 c 4 54 c 4 19 c 5 69 c 4 245 c 4 187 c 5 38 c 4 -85 c 5 -303 c 4 -255 c 4 -65 c
5 -4 c 4 20 c 4 33 c 5 10 c 4 2 c 4 52 c 5 522 c 4 835 c 5 114 c 4 -33 c 4 -515 c 5 -864 c 4 -171 c 4 -14 c 5 -1 c 4 -2 c 5 -1 c
4 -1 c 4 -2 c 5 -1 c 4 -1 c 4 -1 c 5 0 c 4 -1 c 5 0 c 4 -1 c 4 0 c 5 0 c 4 0 c 4 1 c 5 0 c 4 4 c 5 3 c 4 0 c 4 0 c 5 -2 c 4 0 c
4 4 c 5 0 c 4 0 c 4 -2 c 5 -4 c 4 -1 c 5 -1 c 4 -1 c 4 -1 c 5 0 c 4 1 c 4 2 c 5 2 c 4 18 c 5 124 c 4 130 c 4 27 c 5 -11 c 4 -108 c
4 -144 c 5 -33 c 4 -5 c 5 -1 c 4 0 c 4 0 c 5 0 c 4 1 c 4 1 c 5 9 c 4 99 c 5 361 c 4 198 c 4 9 c 5 -56 c 4 -326 c 4 -225 c 5 -23 c
4 -12 c 4 -26 c 5 -9 c 4 2 c 5 2 c 4 0 c 4 -1 c 5 -2 c 4 -3 c 4 -1 c 5 1 c 4 -1 c 5 1 c 4 4 c 4 4 c 5 1 c 4 0 c 4 -3 c 5 -4 c 4 -1 c
5 -2 c 4 1 c 4 0 c 5 1 c 4 0 c 4 1 c 5 -1 c 4 0 c 5 0 c 4 1 c 4 3 c 5 0 c 4 1 c 4 2 c 5 1 c 4 6 c 4 8 c 5 16 c 4 107 c 5 997 c
4 2498 c 4 953 c 5 -24 c 4 -781 c 4 -2458 c 5 -1227 c 4 -76 c 5 -9 c 4 -4 c 4 -4 c 5 -3 c 4 -2 c 4 1 c 5 4 c 4 6 c 5 7 c 4 28 c
4 20 c 5 -9 c 4 9 c 4 42 c 5 34 c 4 2 c 4 -7 c 5 -58 c 4 -72 c 5 -7 c 4 0 c 4 0 c 5 -2 c 4 -3 c 4 -2 c 5 -1 c 4 0 c 5 0 c 4 0 c
4 0 c 5 0 c 4 0 c 4 0 c 5 0 c 4 0 c 5 0 c 4 0 c 4 0 c 5 0 c 4 0 c 4 -1 c 5 1 c 4 0 c 5 1 c 4 2 c 4 -1 c 5 2 c 4 6 c 4 7 c 5 0 c
4 0 c 4 -5 c 5 -7 c 4 0 c 5 8 c 4 10 c 4 6 c 5 0 c 4 -6 c 4 -6 c 5 -4 c 4 -1 c 5 -1 c 4 -4 c 4 -5 c 5 -2 c 4 0 c 4 -1 c 5 0 c 4 0 c
5 2 c 4 2 c 4 0 c 5 0 c 4 -1 c 4 -2 c 5 -2 c 4 1 c 5 0 c 4 0 c 4 0 c 5 1 c 4 0 c 4 0 c 5 2 c 4 7 c 4 5 c 5 0 c 4 -1 c 5 3 c 4 5 c
4 1 c 5 0 c 4 -7 c 4 -11 c 5 -2 c 4 -1 c 5 0 c 4 -1 c 4 -1 c 5 0 c 4 0 c 4 0 c 5 1 c 4 1 c 5 2 c 4 6 c 4 7 c 5 6 c 4 0 c 4 -5 c
5 -5 c 4 -7 c 5 -4 c 4 -2 c 4 -11 c 4 11 9549 780 l 4 2 c 5 0 c 4 1 c 4 1 c 5 0 c 4 2 c 5 2 c 4 0 c 4 -1 c 5 -2 c 4 -3 c 4 -1 c
5 1 c 4 4 c 5 7 c 4 1 c 4 -1 c 5 -3 c 4 -6 c 4 1 c 5 3 c 4 1 c 5 0 c 4 -1 c 4 -2 c 5 3 c 4 16 c 4 133 c 5 590 c 4 560 c 5 70 c
4 -102 c 4 -499 c 5 -631 c 4 -128 c 4 -8 c 5 9 c 4 28 c
0 -126 3030 418 l 54 0 3030 418 l 18 -6 c 6 -6 c 6 -12 c 0 -12 c -6 -12 c -6 -6 c -18 -6 c -54 0 c 42 -66 3072 358 l
-12 -6 3180 376 l -12 -12 c -6 -18 c 0 -12 c 6 -18 c 12 -12 c 12 -6 c 18 0 c 12 6 c 12 12 c 6 18 c 0 12 c -6 18 c -12 12 c -12 6 c
-18 0 c 24 -84 3264 376 l -24 -84 3312 376 l 24 -84 3312 376 l -24 -84 3360 376 l 108 0 3402 364 l 108 0 3402 328 l 0 6 3654 388 l
6 12 c 6 6 c 12 6 c 24 0 c 12 -6 c 6 -6 c 6 -12 c 0 -12 c -6 -12 c -12 -18 c -60 -60 c 84 0 c -6 -18 3846 376 l -12 -12 c -18 -6 c
-6 0 c -18 6 c -12 12 c -6 18 c 0 6 c 6 18 c 12 12 c 18 6 c 6 0 c 18 -6 c 12 -12 c 6 -24 c 0 -30 c -6 -30 c -12 -18 c -18 -6 c
-12 0 c -18 6 c -6 12 c 12 6 4290 394 l 18 18 c 0 -126 c -6 -6 4404 376 l 6 -6 c 6 6 c -6 6 c -6 -6 4404 304 l 6 -6 c 6 6 c -6 6 c
-48 -126 4584 418 l 48 -126 4584 418 l 60 0 4554 334 l 0 -84 4662 376 l 6 18 4662 340 l 12 12 c 12 6 c 18 0 c -12 12 4806 358 l
-12 6 c -18 0 c -12 -6 c -12 -12 c -6 -18 c 0 -12 c 6 -18 c 12 -12 c 12 -6 c 18 0 c 12 6 c 12 12 c 108 0 4848 346 l
-18 -6 5034 418 l -12 -18 c -6 -30 c 0 -18 c 6 -30 c 12 -18 c 18 -6 c 12 0 c 18 6 c 12 18 c 6 30 c 0 18 c -6 30 c -12 18 c -18 6 c
-12 0 c 66 0 5130 418 l -36 -48 c 18 0 c 12 -6 c 6 -6 c 6 -18 c 0 -12 c -6 -18 c -12 -12 c -18 -6 c -18 0 c -18 6 c -6 6 c -6 12 c
-59 0 5309 418 l -6 -54 c 6 6 c 17 6 c 18 0 c 18 -6 c 12 -12 c 6 -18 c 0 -12 c -6 -18 c -12 -12 c -18 -6 c -18 0 c -17 6 c -6 6 c
-6 12 c -6 -6 5369 304 l 6 -6 c 6 6 c -6 6 c -12 0 5459 418 l -12 -6 c -6 -18 c 0 -102 c 42 0 5411 376 l 6 -6 5489 418 l 6 6 c
-6 6 c -6 -6 c 0 -84 5495 376 l 0 -102 5549 418 l 6 -18 c 12 -6 c 12 0 c 42 0 5531 376 l -6 12 5675 358 l -18 6 c -18 0 c -18 -6 c
-6 -12 c 6 -12 c 12 -6 c 30 -6 c 12 -6 c 6 -12 c 0 -6 c -6 -12 c -18 -6 c -18 0 c -18 6 c -6 12 c 0 -192 6005 442 l
0 -192 6011 442 l 42 0 6005 442 l 42 0 6005 250 l 0 6 6089 388 l 6 12 c 6 6 c 12 6 c 24 0 c 12 -6 c 6 -6 c 6 -12 c 0 -12 c -6 -12 c
-12 -18 c -60 -60 c 84 0 c -6 -6 6215 376 l 6 -6 c 6 6 c -6 6 c -6 -6 6215 304 l 6 -6 c 6 6 c -6 6 c -48 -126 6395 418 l
48 -126 6395 418 l 60 0 6365 334 l 0 -84 6473 376 l 6 18 6473 340 l 12 12 c 12 6 c 18 0 c -12 12 6617 358 l -12 6 c -18 0 c -12 -6 c
-12 -12 c -6 -18 c 0 -12 c 6 -18 c 12 -12 c 12 -6 c 18 0 c 12 6 c 12 12 c 108 0 6659 346 l -18 -6 6845 418 l -12 -18 c -6 -30 c
0 -18 c 6 -30 c 12 -18 c 18 -6 c 12 0 c 18 6 c 12 18 c 6 30 c 0 18 c -6 30 c -12 18 c -18 6 c -12 0 c 66 0 6941 418 l -36 -48 c
18 0 c 12 -6 c 6 -6 c 6 -18 c 0 -12 c -6 -18 c -12 -12 c -18 -6 c -18 0 c -18 6 c -6 6 c -6 12 c -6 12 7127 400 l -18 6 c -12 0 c
-18 -6 c -12 -18 c -6 -30 c 0 -30 c 6 -24 c 12 -12 c 18 -6 c 6 0 c 18 6 c 12 12 c 6 18 c 0 6 c -6 18 c -12 12 c -18 6 c -6 0 c
-18 -6 c -12 -12 c -6 -18 c -6 -6 7181 304 l 6 -6 c 6 6 c -6 6 c -12 0 7271 418 l -12 -6 c -6 -18 c 0 -102 c 42 0 7223 376 l
6 -6 7301 418 l 6 6 c -6 6 c -6 -6 c 0 -84 7307 376 l 0 -102 7361 418 l 6 -18 c 12 -6 c 12 0 c 42 0 7343 376 l -6 12 7487 358 l
-18 6 c -18 0 c -18 -6 c -6 -12 c 6 -12 c 12 -6 c 30 -6 c 12 -6 c 6 -12 c 0 -6 c -6 -12 c -18 -6 c -18 0 c -18 6 c -6 12 c
0 -192 7559 442 l 0 -192 7565 442 l 42 0 7523 442 l 42 0 7523 250 l
0 -249 871 1315 l 0 -37 827 1432 l 34 -4 c -3 4 c -4 11 c 0 11 c 4 12 c 7 7 c 12 4 c 7 0 c 11 -4 c 8 -7 c 4 -12 c 0 -11 c -4 -11 c
-4 -4 c -7 -4 c 0 42 827 1470 l 31 -23 c 0 11 c 3 8 c 4 4 c 12 3 c 7 0 c 11 -3 c 8 -8 c 4 -11 c 0 -12 c -4 -11 c -4 -4 c -7 -3 c
0 -38 827 1584 l 34 -4 c -3 4 c -4 11 c 0 11 c 4 12 c 7 7 c 12 4 c 7 0 c 11 -4 c 8 -7 c 4 -12 c 0 -11 c -4 -11 c -4 -4 c -7 -4 c
53 -38 827 1652 l 0 56 c 80 0 827 1652 l 4 -4 899 1697 l 4 4 c -4 4 c -4 -4 c -8 -3 839 1776 l -4 -12 c 0 -7 c 4 -12 c 12 -7 c
18 -4 c 19 0 c 15 4 c 8 7 c 4 12 c 0 3 c -4 12 c -8 7 c -11 4 c -4 0 c -11 -4 c -8 -7 c -3 -12 c 0 -3 c 3 -12 c 8 -7 c 11 -4 c
4 -11 827 1825 l 12 -7 c 18 -4 c 12 0 c 19 4 c 11 7 c 4 11 c 0 8 c -4 11 c -11 8 c -19 4 c -12 0 c -18 -4 c -12 -8 c -4 -11 c 0 -8 c
-3 0 846 1882 l -8 4 c -4 4 c -4 7 c 0 15 c 4 8 c 4 4 c 8 3 c 7 0 c 8 -3 c 11 -8 c 38 -38 c 0 53 c 0 -250 983 1290 l
0 -38 939 1407 l 34 -4 c -3 4 c -4 12 c 0 11 c 4 11 c 7 8 c 11 4 c 8 0 c 11 -4 c 8 -8 c 4 -11 c 0 -11 c -4 -12 c -4 -4 c -7 -3 c
0 41 939 1445 l 31 -22 c 0 11 c 3 8 c 4 3 c 11 4 c 8 0 c 11 -4 c 8 -7 c 4 -12 c 0 -11 c -4 -11 c -4 -4 c -7 -4 c 0 -38 939 1558 l
34 -3 c -3 3 c -4 12 c 0 11 c 4 11 c 7 8 c 11 4 c 8 0 c 11 -4 c 8 -8 c 4 -11 c 0 -11 c -4 -12 c -4 -3 c -7 -4 c 0 -38 939 1634 l
34 -4 c -3 4 c -4 11 c 0 12 c 4 11 c 7 8 c 11 3 c 8 0 c 11 -3 c 8 -8 c 4 -11 c 0 -12 c -4 -11 c -4 -4 c -7 -4 c 4 -4 1011 1672 l
4 4 c -4 3 c -4 -3 c -8 -4 951 1751 l -4 -11 c 0 -8 c 4 -11 c 11 -8 c 19 -3 c 19 0 c 15 3 c 8 8 c 4 11 c 0 4 c -4 11 c -8 8 c
-11 4 c -4 0 c -11 -4 c -8 -8 c -3 -11 c 0 -4 c 3 -11 c 8 -8 c 11 -3 c 0 42 939 1785 l 31 -23 c 0 11 c 3 8 c 4 4 c 11 3 c 8 0 c
11 -3 c 8 -8 c 4 -11 c 0 -12 c -4 -11 c -4 -4 c -7 -4 c -8 -4 951 1902 l -4 -11 c 0 -8 c 4 -11 c 11 -7 c 19 -4 c 19 0 c 15 4 c 8 7 c
4 11 c 0 4 c -4 12 c -8 7 c -11 4 c -4 0 c -11 -4 c -8 -7 c -3 -12 c 0 -4 c 3 -11 c 8 -7 c 11 -4 c 0 -250 1316 1277 l
0 -38 1272 1394 l 35 -3 c -4 3 c -4 12 c 0 11 c 4 11 c 7 8 c 12 4 c 7 0 c 12 -4 c 7 -8 c 4 -11 c 0 -11 c -4 -12 c -4 -3 c -7 -4 c
0 41 1272 1432 l 31 -22 c 0 11 c 4 8 c 3 3 c 12 4 c 7 0 c 12 -4 c 7 -7 c 4 -11 c 0 -12 c -4 -11 c -4 -4 c -7 -4 c 0 -38 1272 1545 l
35 -3 c -4 3 c -4 12 c 0 11 c 4 11 c 7 8 c 12 4 c 7 0 c 12 -4 c 7 -8 c 4 -11 c 0 -11 c -4 -12 c -4 -3 c -7 -4 c 4 -11 1272 1594 l
8 -4 c 7 0 c 8 4 c 4 8 c 4 15 c 3 11 c 8 8 c 7 3 c 12 0 c 7 -3 c 4 -4 c 4 -11 c 0 -16 c -4 -11 c -4 -4 c -7 -4 c -12 0 c -7 4 c
-8 8 c -3 11 c -4 15 c -4 8 c -8 4 c -7 0 c -8 -4 c -4 -11 c 0 -16 c 4 -4 1344 1659 l 4 4 c -4 3 c -4 -3 c 80 -38 1272 1742 l
0 53 1272 1689 l 4 -11 1272 1787 l 12 -8 c 19 -4 c 11 0 c 19 4 c 11 8 c 4 11 c 0 8 c -4 11 c -11 8 c -19 3 c -11 0 c -19 -3 c
-12 -8 c -4 -11 c 0 -8 c -8 -4 1284 1889 l -4 -11 c 0 -7 c 4 -12 c 12 -7 c 19 -4 c 18 0 c 16 4 c 7 7 c 4 12 c 0 3 c -4 12 c -7 7 c
-12 4 c -4 0 c -11 -4 c -7 -7 c -4 -12 c 0 -3 c 4 -12 c 7 -7 c 11 -4 c 0 -249 1474 1715 l 0 -38 1430 1832 l 34 -3 c -4 3 c -4 12 c
0 11 c 4 11 c 8 8 c 11 4 c 8 0 c 11 -4 c 8 -8 c 3 -11 c 0 -11 c -3 -12 c -4 -3 c -8 -4 c 0 42 1430 1870 l 30 -23 c 0 11 c 4 8 c
4 4 c 11 3 c 8 0 c 11 -3 c 8 -8 c 3 -11 c 0 -12 c -3 -11 c -4 -4 c -8 -4 c -7 -4 1441 1987 l -4 -11 c 0 -7 c 4 -12 c 11 -7 c 19 -4 c
19 0 c 15 4 c 8 7 c 3 12 c 0 3 c -3 12 c -8 7 c -11 4 c -4 0 c -11 -4 c -8 -7 c -4 -12 c 0 -3 c 4 -12 c 8 -7 c 11 -4 c
4 -11 1430 2036 l 11 -8 c 19 -3 c 11 0 c 19 3 c 12 8 c 3 11 c 0 8 c -3 11 c -12 8 c -19 4 c -11 0 c -19 -4 c -11 -8 c -4 -11 c
0 -8 c 4 -4 1502 2097 l 3 4 c -3 4 c -4 -4 c -4 8 1445 2138 l -11 11 c 79 0 c 0 -38 1430 2248 l 34 -4 c -4 4 c -4 12 c 0 11 c 4 11 c
8 8 c 11 4 c 8 0 c 11 -4 c 8 -8 c 3 -11 c 0 -11 c -3 -12 c -4 -4 c -8 -3 c 4 -11 1430 2301 l 11 -8 c 19 -4 c 11 0 c 19 4 c 12 8 c
3 11 c 0 7 c -3 12 c -12 7 c -19 4 c -11 0 c -19 -4 c -11 -7 c -4 -12 c 0 -7 c 0 -249 1583 1351 l 0 -37 1540 1468 l 34 -4 c -4 4 c
-4 11 c 0 11 c 4 12 c 7 7 c 12 4 c 7 0 c 12 -4 c 7 -7 c 4 -12 c 0 -11 c -4 -11 c -4 -4 c -7 -4 c 0 42 1540 1506 l 30 -23 c 0 11 c
4 8 c 3 4 c 12 3 c 7 0 c 12 -3 c 7 -8 c 4 -11 c 0 -12 c -4 -11 c -4 -4 c -7 -3 c -8 -3 1551 1623 l -3 -12 c 0 -7 c 3 -12 c 12 -7 c
19 -4 c 18 0 c 16 4 c 7 7 c 4 12 c 0 3 c -4 12 c -7 7 c -12 4 c -4 0 c -11 -4 c -7 -7 c -4 -12 c 0 -3 c 4 -12 c 7 -7 c 11 -4 c
-4 8 1555 1661 l -11 11 c 79 0 c 4 -4 1611 1733 l 4 4 c -4 4 c -4 -4 c -4 8 1555 1774 l -11 11 c 79 0 c 0 -38 1540 1884 l 34 -3 c
-4 3 c -4 12 c 0 11 c 4 11 c 7 8 c 12 4 c 7 0 c 12 -4 c 7 -8 c 4 -11 c 0 -11 c -4 -12 c -4 -3 c -7 -4 c -8 -3 1551 1963 l -3 -12 c
0 -7 c 3 -12 c 12 -7 c 19 -4 c 18 0 c 16 4 c 7 7 c 4 12 c 0 4 c -4 11 c -7 7 c -12 4 c -4 0 c -11 -4 c -7 -7 c -4 -11 c 0 -4 c
4 -12 c 7 -7 c 11 -4 c 0 -250 1738 1502 l 0 -38 1695 1619 l 34 -4 c -4 4 c -4 11 c 0 12 c 4 11 c 8 7 c 11 4 c 7 0 c 12 -4 c 7 -7 c
4 -11 c 0 -12 c -4 -11 c -3 -4 c -8 -4 c 0 42 1695 1656 l 30 -23 c 0 12 c 4 7 c 4 4 c 11 4 c 7 0 c 12 -4 c 7 -8 c 4 -11 c 0 -11 c
-4 -12 c -3 -3 c -8 -4 c -7 -4 1706 1774 l -4 -11 c 0 -8 c 4 -11 c 11 -8 c 19 -4 c 19 0 c 15 4 c 7 8 c 4 11 c 0 4 c -4 11 c -7 8 c
-12 3 c -3 0 c -12 -3 c -7 -8 c -4 -11 c 0 -4 c 4 -11 c 7 -8 c 12 -4 c -4 0 1714 1804 l -8 4 c -3 3 c -4 8 c 0 15 c 4 8 c 3 3 c
8 4 c 7 0 c 8 -4 c 11 -7 c 38 -38 c 0 53 c 3 -4 1767 1883 l 4 4 c -4 4 c -3 -4 c 0 -38 1695 1959 l 34 -4 c -4 4 c -4 11 c 0 12 c
4 11 c 8 8 c 11 3 c 7 0 c 12 -3 c 7 -8 c 4 -11 c 0 -12 c -4 -11 c -3 -4 c -8 -4 c 79 -38 1695 2042 l 0 53 1695 1989 l
0 -38 1695 2110 l 34 -4 c -4 4 c -4 12 c 0 11 c 4 11 c 8 8 c 11 4 c 7 0 c 12 -4 c 7 -8 c 4 -11 c 0 -11 c -4 -12 c -3 -4 c -8 -3 c
0 -250 2058 1247 l 0 -38 2014 1364 l 34 -4 c -4 4 c -4 11 c 0 12 c 4 11 c 8 8 c 11 3 c 8 0 c 11 -3 c 8 -8 c 3 -11 c 0 -12 c -3 -11 c
-4 -4 c -8 -3 c 0 41 2014 1402 l 30 -22 c 0 11 c 4 7 c 4 4 c 11 4 c 8 0 c 11 -4 c 8 -7 c 3 -12 c 0 -11 c -3 -11 c -4 -4 c -8 -4 c
-7 -4 2025 1519 l -4 -11 c 0 -8 c 4 -11 c 11 -8 c 19 -4 c 19 0 c 15 4 c 8 8 c 3 11 c 0 4 c -3 11 c -8 8 c -11 4 c -4 0 c -11 -4 c
-8 -8 c -4 -11 c 0 -4 c 4 -11 c 8 -8 c 11 -4 c 0 -38 2014 1591 l 34 -4 c -4 4 c -4 11 c 0 12 c 4 11 c 8 7 c 11 4 c 8 0 c 11 -4 c
8 -7 c 3 -11 c 0 -12 c -3 -11 c -4 -4 c -8 -4 c 4 -3 2086 1628 l 3 3 c -3 4 c -4 -4 c 53 -37 2014 1696 l 0 56 c 79 0 2014 1696 l
79 -38 2014 1787 l 0 53 2014 1734 l -4 8 2029 1821 l -11 11 c 79 0 c 0 -250 2633 1512 l 0 -38 2590 1629 l 34 -4 c -4 4 c -4 12 c
0 11 c 4 11 c 7 8 c 12 4 c 7 0 c 12 -4 c 7 -8 c 4 -11 c 0 -11 c -4 -12 c -4 -4 c -7 -3 c 0 41 2590 1667 l 30 -22 c 0 11 c 4 8 c
3 3 c 12 4 c 7 0 c 12 -4 c 7 -7 c 4 -12 c 0 -11 c -4 -11 c -4 -4 c -7 -4 c 79 -38 2590 1788 l 0 53 2590 1735 l 3 -11 2590 1833 l
12 -8 c 19 -4 c 11 0 c 19 4 c 11 8 c 4 11 c 0 8 c -4 11 c -11 8 c -19 3 c -11 0 c -19 -3 c -12 -8 c -3 -11 c 0 -8 c 4 -4 2661 1894 l
4 4 c -4 3 c -4 -3 c 79 -38 2590 1977 l 0 53 2590 1924 l -4 7 2605 2011 l -11 12 c 79 0 c 3 -12 2590 2098 l 12 -7 c 19 -4 c 11 0 c
19 4 c 11 7 c 4 12 c 0 7 c -4 12 c -11 7 c -19 4 c -11 0 c -19 -4 c -12 -7 c -3 -12 c 0 -7 c 0 -250 2854 1401 l 0 -38 2811 1518 l
34 -4 c -4 4 c -4 11 c 0 12 c 4 11 c 8 8 c 11 3 c 7 0 c 12 -3 c 7 -8 c 4 -11 c 0 -12 c -4 -11 c -3 -4 c -8 -4 c 0 41 2811 1556 l
30 -23 c 0 12 c 4 7 c 4 4 c 11 4 c 7 0 c 12 -4 c 7 -7 c 4 -12 c 0 -11 c -4 -11 c -3 -4 c -8 -4 c 79 -37 2811 1676 l 0 52 2811 1624 l
-4 0 2830 1703 l -8 4 c -4 3 c -3 8 c 0 15 c 3 8 c 4 4 c 8 3 c 7 0 c 8 -3 c 11 -8 c 38 -38 c 0 53 c 3 -3 2883 1782 l 4 3 c -4 4 c
-3 -4 c 79 -37 2811 1865 l 0 52 2811 1813 l 3 -12 2811 1911 l 12 -7 c 19 -4 c 11 0 c 19 4 c 11 7 c 4 12 c 0 7 c -4 12 c -11 7 c
-19 4 c -11 0 c -19 -4 c -12 -7 c -3 -12 c 0 -7 c 0 42 2811 1971 l 30 -23 c 0 12 c 4 7 c 4 4 c 11 4 c 7 0 c 12 -4 c 7 -8 c 4 -11 c
0 -11 c -4 -12 c -3 -4 c -8 -3 c 0 -249 3090 2125 l 0 -37 3046 2242 l 34 -4 c -4 4 c -3 11 c 0 11 c 3 12 c 8 7 c 11 4 c 8 0 c
11 -4 c 8 -7 c 4 -12 c 0 -11 c -4 -11 c -4 -4 c -8 -4 c 0 42 3046 2280 l 30 -23 c 0 11 c 4 8 c 4 4 c 11 4 c 8 0 c 11 -4 c 8 -8 c
4 -11 c 0 -12 c -4 -11 c -4 -4 c -8 -3 c 80 -38 3046 2401 l 0 53 3046 2348 l 53 -38 3046 2462 l 0 56 c 80 0 3046 2462 l
4 -4 3118 2507 l 4 4 c -4 4 c -4 -4 c 4 -11 3046 2556 l 7 -4 c 8 0 c 8 4 c 3 7 c 4 15 c 4 12 c 7 7 c 8 4 c 11 0 c 8 -4 c 4 -3 c
4 -12 c 0 -15 c -4 -11 c -4 -4 c -8 -4 c -11 0 c -8 4 c -7 7 c -4 12 c -4 15 c -3 8 c -8 3 c -8 0 c -7 -3 c -4 -12 c 0 -15 c
-4 0 3065 2617 l -7 3 c -4 4 c -4 8 c 0 15 c 4 7 c 4 4 c 7 4 c 8 0 c 7 -4 c 12 -7 c 38 -38 c 0 53 c -4 0 3065 2692 l -7 4 c -4 4 c
-4 7 c 0 15 c 4 8 c 4 4 c 7 3 c 8 0 c 7 -3 c 12 -8 c 38 -38 c 0 53 c 0 -250 3149 5263 l 0 -38 3105 5380 l 34 -3 c -3 3 c -4 12 c
0 11 c 4 11 c 7 8 c 11 4 c 8 0 c 11 -4 c 8 -8 c 4 -11 c 0 -11 c -4 -12 c -4 -3 c -7 -4 c 0 42 3105 5418 l 31 -23 c 0 11 c 3 8 c
4 4 c 11 3 c 8 0 c 11 -3 c 8 -8 c 4 -11 c 0 -12 c -4 -11 c -4 -4 c -7 -4 c 80 -38 3105 5539 l 0 53 3105 5486 l 0 -38 3105 5607 l
34 -4 c -3 4 c -4 11 c 0 12 c 4 11 c 7 8 c 11 3 c 8 0 c 11 -3 c 8 -8 c 4 -11 c 0 -12 c -4 -11 c -4 -4 c -7 -3 c 4 -4 3177 5645 l
4 4 c -4 3 c -4 -3 c 0 41 3105 5683 l 31 -23 c 0 12 c 3 7 c 4 4 c 11 4 c 8 0 c 11 -4 c 8 -7 c 4 -12 c 0 -11 c -4 -11 c -4 -4 c
-7 -4 c 0 -38 3105 5796 l 34 -4 c -3 4 c -4 11 c 0 12 c 4 11 c 7 8 c 11 3 c 8 0 c 11 -3 c 8 -8 c 4 -11 c 0 -12 c -4 -11 c -4 -4 c
-7 -3 c 0 41 3105 5834 l 31 -22 c 0 11 c 3 7 c 4 4 c 11 4 c 8 0 c 11 -4 c 8 -7 c 4 -12 c 0 -11 c -4 -11 c -4 -4 c -7 -4 c
0 -249 3195 1871 l 0 -38 3152 1988 l 34 -3 c -4 3 c -4 12 c 0 11 c 4 11 c 8 8 c 11 4 c 7 0 c 12 -4 c 7 -8 c 4 -11 c 0 -11 c -4 -12 c
-3 -3 c -8 -4 c 0 42 3152 2026 l 30 -23 c 0 11 c 4 8 c 4 4 c 11 3 c 7 0 c 12 -3 c 7 -8 c 4 -11 c 0 -12 c -4 -11 c -3 -4 c -8 -3 c
79 -38 3152 2147 l 0 53 3152 2094 l 0 -38 3152 2215 l 34 -4 c -4 4 c -4 12 c 0 11 c 4 11 c 8 8 c 11 4 c 7 0 c 12 -4 c 7 -8 c 4 -11 c
0 -11 c -4 -12 c -3 -4 c -8 -3 c 3 -4 3224 2253 l 4 4 c -4 4 c -3 -4 c 79 -38 3152 2336 l 0 53 3152 2283 l -7 -4 3163 2408 l
-4 -11 c 0 -8 c 4 -11 c 11 -8 c 19 -4 c 19 0 c 15 4 c 7 8 c 4 11 c 0 4 c -4 11 c -7 8 c -12 4 c -3 0 c -12 -4 c -7 -8 c -4 -11 c
0 -4 c 4 -11 c 7 -8 c 12 -4 c 12 -3 3178 2483 l 7 -8 c 4 -11 c 0 -4 c -4 -11 c -7 -8 c -12 -4 c -4 0 c -11 4 c -7 8 c -4 11 c 0 4 c
4 11 c 7 8 c 15 3 c 19 0 c 19 -3 c 11 -8 c 4 -11 c 0 -8 c -4 -11 c -7 -4 c 0 -250 3236 2653 l 0 -38 3192 2770 l 34 -4 c -4 4 c
-4 12 c 0 11 c 4 11 c 8 8 c 11 4 c 8 0 c 11 -4 c 8 -8 c 3 -11 c 0 -11 c -3 -12 c -4 -4 c -8 -3 c 0 41 3192 2808 l 30 -22 c 0 11 c
4 8 c 4 3 c 11 4 c 8 0 c 11 -4 c 8 -7 c 3 -11 c 0 -12 c -3 -11 c -4 -4 c -8 -4 c 79 -38 3192 2929 l 0 53 3192 2876 l
-7 -4 3203 3001 l -4 -11 c 0 -8 c 4 -11 c 11 -8 c 19 -4 c 19 0 c 15 4 c 8 8 c 3 11 c 0 4 c -3 11 c -8 8 c -11 3 c -4 0 c -11 -3 c
-8 -8 c -4 -11 c 0 -4 c 4 -11 c 8 -8 c 11 -4 c 4 -4 3264 3035 l 3 4 c -3 3 c -4 -3 c -4 8 3207 3076 l -11 11 c 79 0 c
0 42 3192 3148 l 30 -23 c 0 11 c 4 8 c 4 4 c 11 3 c 8 0 c 11 -3 c 8 -8 c 3 -11 c 0 -12 c -3 -11 c -4 -4 c -8 -4 c 4 -12 3192 3239 l
11 -7 c 19 -4 c 11 0 c 19 4 c 12 7 c 3 12 c 0 7 c -3 12 c -12 7 c -19 4 c -11 0 c -19 -4 c -11 -7 c -4 -12 c 0 -7 c
0 -249 3306 1594 l 0 -38 3263 1711 l 34 -3 c -4 3 c -4 12 c 0 11 c 4 11 c 7 8 c 12 4 c 7 0 c 12 -4 c 7 -8 c 4 -11 c 0 -11 c -4 -12 c
-4 -3 c -7 -4 c 0 42 3263 1749 l 30 -23 c 0 11 c 4 8 c 3 4 c 12 3 c 7 0 c 12 -3 c 7 -8 c 4 -11 c 0 -12 c -4 -11 c -4 -4 c -7 -4 c
79 -38 3263 1870 l 0 53 3263 1817 l -8 -4 3274 1942 l -3 -11 c 0 -8 c 3 -11 c 12 -8 c 19 -4 c 19 0 c 15 4 c 7 8 c 4 11 c 0 4 c
-4 11 c -7 8 c -12 4 c -3 0 c -12 -4 c -7 -8 c -4 -11 c 0 -4 c 4 -11 c 7 -8 c 12 -4 c 4 -4 3334 1976 l 4 4 c -4 4 c -4 -4 c
79 -38 3263 2059 l 0 53 3263 2006 l 3 -12 3263 2101 l 8 -4 c 8 0 c 7 4 c 4 8 c 4 15 c 3 11 c 8 8 c 8 4 c 11 0 c 7 -4 c 4 -4 c
4 -11 c 0 -15 c -4 -12 c -4 -4 c -7 -3 c -11 0 c -8 3 c -8 8 c -3 11 c -4 15 c -4 8 c -7 4 c -8 0 c -8 -4 c -3 -11 c 0 -15 c
-4 7 3278 2169 l -11 11 c 79 0 c 0 -250 3569 2375 l 0 -38 3526 2492 l 34 -4 c -4 4 c -4 11 c 0 12 c 4 11 c 7 8 c 12 3 c 7 0 c
12 -3 c 7 -8 c 4 -11 c 0 -12 c -4 -11 c -4 -4 c -7 -3 c 0 41 3526 2530 l 30 -22 c 0 11 c 4 7 c 3 4 c 12 4 c 7 0 c 12 -4 c 7 -7 c
4 -12 c 0 -11 c -4 -11 c -4 -4 c -7 -4 c 79 -38 3526 2651 l 0 53 3526 2598 l 11 -3 3552 2722 l 8 -8 c 4 -11 c 0 -4 c -4 -11 c
-8 -8 c -11 -4 c -4 0 c -11 4 c -8 8 c -3 11 c 0 4 c 3 11 c 8 8 c 15 3 c 19 0 c 19 -3 c 11 -8 c 4 -11 c 0 -8 c -4 -11 c -7 -4 c
4 -3 3597 2756 l 4 3 c -4 4 c -4 -4 c -4 8 3541 2798 l -11 11 c 79 0 c -4 7 3541 2874 l -11 12 c 79 0 c 3 -12 3526 2961 l 12 -7 c
19 -4 c 11 0 c 19 4 c 11 7 c 4 12 c 0 7 c -4 11 c -11 8 c -19 4 c -11 0 c -19 -4 c -12 -8 c -3 -11 c 0 -7 c 0 -250 4416 3401 l
0 -38 4372 3518 l 34 -4 c -4 4 c -3 11 c 0 12 c 3 11 c 8 8 c 11 3 c 8 0 c 11 -3 c 8 -8 c 4 -11 c 0 -12 c -4 -11 c -4 -4 c -8 -4 c
0 41 4372 3556 l 30 -22 c 0 11 c 4 7 c 4 4 c 11 4 c 8 0 c 11 -4 c 8 -7 c 4 -12 c 0 -11 c -4 -11 c -4 -4 c -8 -4 c 4 -12 4372 3643 l
8 -4 c 7 0 c 8 4 c 3 8 c 4 15 c 4 11 c 8 8 c 7 4 c 11 0 c 8 -4 c 4 -4 c 4 -11 c 0 -15 c -4 -12 c -4 -4 c -8 -3 c -11 0 c -7 3 c
-8 8 c -4 11 c -4 15 c -3 8 c -8 4 c -7 0 c -8 -4 c -4 -11 c 0 -15 c -8 -3 4384 3748 l -4 -12 c 0 -7 c 4 -12 c 11 -7 c 19 -4 c
19 0 c 15 4 c 8 7 c 4 12 c 0 3 c -4 12 c -8 7 c -11 4 c -4 0 c -11 -4 c -8 -7 c -4 -12 c 0 -3 c 4 -12 c 8 -7 c 11 -4 c
4 -3 4444 3782 l 4 3 c -4 4 c -4 -4 c -8 -4 4384 3862 l -4 -11 c 0 -8 c 4 -11 c 11 -8 c 19 -4 c 19 0 c 15 4 c 8 8 c 4 11 c 0 4 c
-4 11 c -8 8 c -11 4 c -4 0 c -11 -4 c -8 -8 c -4 -11 c 0 -4 c 4 -11 c 8 -8 c 11 -4 c -3 7 4387 3900 l -12 11 c 80 0 c
-3 8 4387 3975 l -12 11 c 80 0 c 0 -250 5096 5811 l 0 -38 5052 5928 l 34 -4 c -4 4 c -4 11 c 0 12 c 4 11 c 8 8 c 11 3 c 8 0 c
11 -3 c 8 -8 c 3 -11 c 0 -12 c -3 -11 c -4 -4 c -8 -4 c 0 41 5052 5966 l 30 -23 c 0 12 c 4 7 c 4 4 c 11 4 c 8 0 c 11 -4 c 8 -7 c
3 -12 c 0 -11 c -3 -11 c -4 -4 c -8 -4 c 12 -4 5078 6083 l 7 -8 c 4 -11 c 0 -4 c -4 -11 c -7 -8 c -12 -3 c -3 0 c -12 3 c -7 8 c
-4 11 c 0 4 c 4 11 c 7 8 c 15 4 c 19 0 c 19 -4 c 12 -8 c 3 -11 c 0 -7 c -3 -12 c -8 -4 c -4 0 5071 6113 l -7 4 c -4 4 c -4 7 c
0 15 c 4 8 c 4 4 c 7 3 c 8 0 c 7 -3 c 12 -8 c 37 -38 c 0 53 c 4 -3 5124 6192 l 3 3 c -3 4 c -4 -4 c 0 -38 5052 6268 l 34 -4 c -4 4 c
-4 11 c 0 12 c 4 11 c 8 8 c 11 4 c 8 0 c 11 -4 c 8 -8 c 3 -11 c 0 -12 c -3 -11 c -4 -4 c -8 -3 c 79 -38 5052 6351 l 0 53 5052 6298 l
0 42 5052 6381 l 30 -23 c 0 12 c 4 7 c 4 4 c 11 4 c 8 0 c 11 -4 c 8 -8 c 3 -11 c 0 -11 c -3 -12 c -4 -3 c -8 -4 c 0 -250 5256 1713 l
0 -38 5212 1830 l 34 -4 c -4 4 c -3 12 c 0 11 c 3 11 c 8 8 c 11 4 c 8 0 c 11 -4 c 8 -8 c 4 -11 c 0 -11 c -4 -12 c -4 -4 c -7 -3 c
0 41 5212 1868 l 30 -22 c 0 11 c 4 8 c 4 3 c 11 4 c 8 0 c 11 -4 c 8 -7 c 4 -11 c 0 -12 c -4 -11 c -4 -4 c -7 -4 c 11 -4 5239 1985 l
8 -7 c 3 -12 c 0 -3 c -3 -12 c -8 -7 c -11 -4 c -4 0 c -11 4 c -8 7 c -4 12 c 0 3 c 4 12 c 8 7 c 15 4 c 19 0 c 19 -4 c 11 -7 c
4 -12 c 0 -7 c -4 -12 c -8 -3 c 0 42 5212 2019 l 30 -23 c 0 11 c 4 8 c 4 4 c 11 3 c 8 0 c 11 -3 c 8 -8 c 4 -11 c 0 -12 c -4 -11 c
-4 -4 c -7 -4 c 4 -4 5284 2095 l 4 4 c -4 3 c -4 -3 c 11 -4 5239 2174 l 8 -7 c 3 -12 c 0 -3 c -3 -12 c -8 -7 c -11 -4 c -4 0 c
-11 4 c -8 7 c -4 12 c 0 3 c 4 12 c 8 7 c 15 4 c 19 0 c 19 -4 c 11 -7 c 4 -12 c 0 -7 c -4 -12 c -8 -3 c 80 -37 5212 2253 l
0 53 5212 2200 l -4 0 5231 2280 l -7 4 c -4 3 c -4 8 c 0 15 c 4 8 c 4 3 c 7 4 c 8 0 c 7 -4 c 12 -7 c 38 -38 c 0 53 c
0 -250 5347 3747 l 0 -38 5303 3864 l 34 -4 c -3 4 c -4 11 c 0 12 c 4 11 c 7 7 c 12 4 c 7 0 c 11 -4 c 8 -7 c 4 -11 c 0 -12 c -4 -11 c
-4 -4 c -7 -4 c 0 42 5303 3901 l 31 -23 c 0 12 c 3 7 c 4 4 c 12 4 c 7 0 c 11 -4 c 8 -7 c 4 -12 c 0 -11 c -4 -12 c -4 -3 c -7 -4 c
11 -4 5330 4019 l 8 -8 c 4 -11 c 0 -4 c -4 -11 c -8 -8 c -11 -3 c -4 0 c -11 3 c -8 8 c -4 11 c 0 4 c 4 11 c 8 8 c 15 4 c 19 0 c
19 -4 c 11 -8 c 4 -11 c 0 -8 c -4 -11 c -8 -4 c 53 -38 5303 4083 l 0 57 c 80 0 5303 4083 l 4 -4 5375 4128 l 4 4 c -4 4 c -4 -4 c
80 -37 5303 4211 l 0 53 5303 4158 l -8 -4 5315 4283 l -4 -11 c 0 -7 c 4 -12 c 12 -7 c 18 -4 c 19 0 c 15 4 c 8 7 c 4 12 c 0 3 c
-4 12 c -8 7 c -11 4 c -4 0 c -11 -4 c -8 -7 c -3 -12 c 0 -3 c 3 -12 c 8 -7 c 11 -4 c -4 8 5319 4321 l -12 11 c 80 0 c
0 -249 5857 1807 l 0 -37 5813 1924 l 34 -4 c -3 4 c -4 11 c 0 11 c 4 12 c 7 7 c 12 4 c 7 0 c 11 -4 c 8 -7 c 4 -12 c 0 -11 c -4 -11 c
-4 -4 c -7 -4 c 0 42 5813 1962 l 31 -23 c 0 11 c 3 8 c 4 4 c 12 4 c 7 0 c 11 -4 c 8 -8 c 4 -11 c 0 -11 c -4 -12 c -4 -4 c -7 -3 c
11 -3 5840 2079 l 8 -8 c 4 -11 c 0 -4 c -4 -11 c -8 -8 c -11 -4 c -4 0 c -11 4 c -8 8 c -4 11 c 0 4 c 4 11 c 8 8 c 15 3 c 19 0 c
19 -3 c 11 -8 c 4 -11 c 0 -8 c -4 -11 c -8 -4 c 11 -4 5840 2155 l 8 -7 c 4 -12 c 0 -4 c -4 -11 c -8 -7 c -11 -4 c -4 0 c -11 4 c
-8 7 c -4 11 c 0 4 c 4 12 c 8 7 c 15 4 c 19 0 c 19 -4 c 11 -7 c 4 -12 c 0 -7 c -4 -12 c -8 -3 c 4 -4 5885 2189 l 4 4 c -4 4 c
-4 -4 c -4 7 5829 2231 l -12 11 c 80 0 c 80 -38 5813 2348 l 0 53 5813 2295 l 0 -38 5813 2416 l 34 -4 c -3 4 c -4 11 c 0 12 c 4 11 c
7 8 c 12 3 c 7 0 c 11 -3 c 8 -8 c 4 -11 c 0 -12 c -4 -11 c -4 -4 c -7 -4 c 0 -249 5970 1312 l 0 -37 5926 1429 l 34 -4 c -3 4 c
-4 11 c 0 11 c 4 12 c 7 7 c 12 4 c 7 0 c 11 -4 c 8 -7 c 4 -12 c 0 -11 c -4 -11 c -4 -4 c -7 -4 c 53 -37 5926 1497 l 0 56 c
80 0 5926 1497 l 4 -12 5926 1558 l 12 -7 c 18 -4 c 12 0 c 19 4 c 11 7 c 4 12 c 0 7 c -4 12 c -11 7 c -19 4 c -12 0 c -18 -4 c
-12 -7 c -4 -12 c 0 -7 c 4 -11 5926 1633 l 12 -7 c 18 -4 c 12 0 c 19 4 c 11 7 c 4 11 c 0 8 c -4 11 c -11 8 c -19 4 c -12 0 c
-18 -4 c -12 -8 c -4 -11 c 0 -8 c 4 -4 5998 1694 l 4 4 c -4 4 c -4 -4 c -4 8 5942 1735 l -12 11 c 80 0 c 53 -37 5926 1837 l 0 56 c
80 0 5926 1837 l 0 -38 5926 1921 l 34 -4 c -3 4 c -4 11 c 0 12 c 4 11 c 7 7 c 12 4 c 7 0 c 11 -4 c 8 -7 c 4 -11 c 0 -12 c -4 -11 c
-4 -4 c -7 -4 c 0 -249 6257 1490 l 0 -38 6214 1608 l 34 -4 c -4 4 c -4 11 c 0 11 c 4 12 c 7 7 c 12 4 c 7 0 c 12 -4 c 7 -7 c 4 -12 c
0 -11 c -4 -11 c -4 -4 c -7 -4 c 52 -38 6214 1676 l 0 57 c 79 0 6214 1676 l 3 -11 6214 1736 l 12 -8 c 19 -4 c 11 0 c 19 4 c 11 8 c
4 11 c 0 8 c -4 11 c -11 8 c -19 3 c -11 0 c -19 -3 c -12 -8 c -3 -11 c 0 -8 c -3 0 6232 1793 l -8 4 c -4 3 c -3 8 c 0 15 c 3 8 c
4 3 c 8 4 c 7 0 c 8 -4 c 11 -7 c 38 -38 c 0 53 c 4 -4 6285 1872 l 4 4 c -4 4 c -4 -4 c -8 -4 6225 1952 l -3 -12 c 0 -7 c 3 -11 c
12 -8 c 19 -4 c 18 0 c 16 4 c 7 8 c 4 11 c 0 4 c -4 11 c -7 8 c -12 3 c -4 0 c -11 -3 c -7 -8 c -4 -11 c 0 -4 c 4 -11 c 7 -8 c
11 -4 c 3 -12 6214 2001 l 12 -7 c 19 -4 c 11 0 c 19 4 c 11 7 c 4 12 c 0 7 c -4 12 c -11 7 c -19 4 c -11 0 c -19 -4 c -12 -7 c
-3 -12 c 0 -7 c 0 -38 6214 2099 l 34 -4 c -4 4 c -4 11 c 0 12 c 4 11 c 7 8 c 12 3 c 7 0 c 12 -3 c 7 -8 c 4 -11 c 0 -12 c -4 -11 c
-4 -4 c -7 -3 c 0 -250 6326 1340 l 0 -38 6283 1457 l 34 -4 c -4 4 c -4 11 c 0 12 c 4 11 c 8 8 c 11 3 c 7 0 c 12 -3 c 7 -8 c 4 -11 c
0 -12 c -4 -11 c -3 -4 c -8 -4 c 53 -38 6283 1525 l 0 57 c 79 0 6283 1525 l 4 -11 6283 1585 l 11 -8 c 19 -3 c 11 0 c 19 3 c 11 8 c
4 11 c 0 8 c -4 11 c -11 8 c -19 4 c -11 0 c -19 -4 c -11 -8 c -4 -11 c 0 -8 c 0 41 6283 1646 l 30 -22 c 0 11 c 4 8 c 4 3 c 11 4 c
7 0 c 12 -4 c 7 -7 c 4 -12 c 0 -11 c -4 -11 c -3 -4 c -8 -4 c 3 -3 6355 1721 l 4 3 c -4 4 c -3 -4 c -4 8 6298 1763 l -11 11 c 79 0 c
12 -3 6309 1876 l 7 -8 c 4 -11 c 0 -4 c -4 -11 c -7 -8 c -12 -4 c -4 0 c -11 4 c -7 8 c -4 11 c 0 4 c 4 11 c 7 8 c 15 3 c 19 0 c
19 -3 c 11 -8 c 4 -11 c 0 -8 c -4 -11 c -7 -4 c 12 -4 6309 1952 l 7 -7 c 4 -12 c 0 -3 c -4 -12 c -7 -7 c -12 -4 c -4 0 c -11 4 c
-7 7 c -4 12 c 0 3 c 4 12 c 7 7 c 15 4 c 19 0 c 19 -4 c 11 -7 c 4 -12 c 0 -7 c -4 -12 c -7 -3 c 0 -249 6744 1268 l 0 -37 6700 1385 l
34 -4 c -4 4 c -4 11 c 0 11 c 4 12 c 8 7 c 11 4 c 8 0 c 11 -4 c 8 -7 c 3 -12 c 0 -11 c -3 -11 c -4 -4 c -8 -4 c 53 -37 6700 1453 l
0 56 c 79 0 6700 1453 l 4 -12 6700 1514 l 11 -7 c 19 -4 c 11 0 c 19 4 c 12 7 c 3 12 c 0 7 c -3 12 c -12 7 c -19 4 c -11 0 c -19 -4 c
-11 -7 c -4 -12 c 0 -7 c -7 -4 6711 1616 l -4 -11 c 0 -8 c 4 -11 c 11 -8 c 19 -3 c 19 0 c 15 3 c 8 8 c 3 11 c 0 4 c -3 11 c -8 8 c
-11 4 c -4 0 c -11 -4 c -8 -8 c -4 -11 c 0 -4 c 4 -11 c 8 -8 c 11 -3 c 4 -4 6772 1650 l 3 4 c -3 4 c -4 -4 c 79 -38 6700 1733 l
0 53 6700 1680 l 0 -38 6700 1801 l 34 -4 c -4 4 c -4 12 c 0 11 c 4 11 c 8 8 c 11 4 c 8 0 c 11 -4 c 8 -8 c 3 -11 c 0 -11 c -3 -12 c
-4 -4 c -8 -3 c 0 -38 6700 1877 l 34 -4 c -4 4 c -4 11 c 0 12 c 4 11 c 8 7 c 11 4 c 8 0 c 11 -4 c 8 -7 c 3 -11 c 0 -12 c -3 -11 c
-4 -4 c -8 -4 c 0 -250 6850 2821 l 0 -38 6806 2938 l 34 -3 c -4 3 c -4 12 c 0 11 c 4 11 c 8 8 c 11 4 c 8 0 c 11 -4 c 8 -8 c 3 -11 c
0 -11 c -3 -12 c -4 -3 c -8 -4 c 53 -38 6806 3006 l 0 57 c 79 0 6806 3006 l 4 -12 6806 3067 l 11 -7 c 19 -4 c 11 0 c 19 4 c 12 7 c
3 12 c 0 7 c -3 11 c -12 8 c -19 4 c -11 0 c -19 -4 c -11 -8 c -4 -11 c 0 -7 c 79 -37 6806 3172 l 0 52 6806 3120 l 4 -4 6878 3203 l
3 4 c -3 3 c -4 -3 c -7 -4 6817 3282 l -4 -11 c 0 -8 c 4 -11 c 11 -8 c 19 -3 c 19 0 c 15 3 c 8 8 c 3 11 c 0 4 c -3 11 c -8 8 c
-11 4 c -4 0 c -11 -4 c -8 -8 c -4 -11 c 0 -4 c 4 -11 c 8 -8 c 11 -3 c 0 -38 6806 3354 l 34 -4 c -4 4 c -4 11 c 0 12 c 4 11 c 8 8 c
11 3 c 8 0 c 11 -3 c 8 -8 c 3 -11 c 0 -12 c -3 -11 c -4 -4 c -8 -4 c 53 -38 6806 3422 l 0 57 c 79 0 6806 3422 l 0 -249 7218 3241 l
0 -38 7175 3358 l 34 -3 c -4 3 c -4 12 c 0 11 c 4 11 c 8 8 c 11 4 c 8 0 c 11 -4 c 7 -8 c 4 -11 c 0 -11 c -4 -12 c -3 -3 c -8 -4 c
53 -37 7175 3426 l 0 56 c 79 0 7175 3426 l -4 8 7190 3475 l -11 11 c 79 0 c 4 -11 7175 3562 l 11 -8 c 19 -3 c 11 0 c 19 3 c 11 8 c
4 11 c 0 8 c -4 11 c -11 8 c -19 4 c -11 0 c -19 -4 c -11 -8 c -4 -11 c 0 -8 c 3 -4 7247 3623 l 4 4 c -4 4 c -3 -4 c
79 -38 7175 3706 l 0 53 7175 3653 l -7 -4 7186 3778 l -4 -11 c 0 -8 c 4 -11 c 11 -8 c 19 -4 c 19 0 c 15 4 c 7 8 c 4 11 c 0 4 c
-4 11 c -7 8 c -11 4 c -4 0 c -12 -4 c -7 -8 c -4 -11 c 0 -4 c 4 -11 c 7 -8 c 12 -4 c 12 -3 7201 3853 l 7 -8 c 4 -11 c 0 -4 c
-4 -11 c -7 -8 c -12 -4 c -3 0 c -12 4 c -7 8 c -4 11 c 0 4 c 4 11 c 7 8 c 15 3 c 19 0 c 19 -3 c 11 -8 c 4 -11 c 0 -8 c -4 -11 c
-7 -4 c 0 -249 8022 6646 l 0 -38 7978 6764 l 34 -4 c -3 4 c -4 11 c 0 11 c 4 12 c 7 7 c 11 4 c 8 0 c 11 -4 c 8 -7 c 4 -12 c 0 -11 c
-4 -11 c -4 -4 c -7 -4 c 53 -38 7978 6832 l 0 57 c 80 0 7978 6832 l -3 7 7993 6881 l -12 12 c 80 0 c 80 -38 7978 6998 l
0 53 7978 6945 l 4 -4 8050 7028 l 4 4 c -4 4 c -4 -4 c 53 -38 7978 7096 l 0 57 c 80 0 7978 7096 l 4 -11 7978 7153 l 8 -4 c 7 0 c
8 4 c 4 7 c 3 15 c 4 12 c 8 7 c 7 4 c 12 0 c 7 -4 c 4 -4 c 4 -11 c 0 -15 c -4 -11 c -4 -4 c -7 -4 c -12 0 c -7 4 c -8 7 c -4 12 c
-3 15 c -4 7 c -8 4 c -7 0 c -8 -4 c -4 -11 c 0 -15 c -8 -4 7990 7259 l -4 -11 c 0 -8 c 4 -11 c 11 -8 c 19 -4 c 19 0 c 15 4 c 8 8 c
4 11 c 0 4 c -4 11 c -8 8 c -11 3 c -4 0 c -11 -3 c -8 -8 c -3 -11 c 0 -4 c 3 -11 c 8 -8 c 11 -4 c 0 -249 8220 1264 l
0 -38 8176 1382 l 34 -4 c -4 4 c -3 11 c 0 11 c 3 12 c 8 7 c 11 4 c 8 0 c 11 -4 c 8 -7 c 4 -12 c 0 -11 c -4 -11 c -4 -4 c -8 -4 c
53 -38 8176 1450 l 0 56 c 80 0 8176 1450 l -3 7 8191 1499 l -12 12 c 80 0 c 11 -4 8203 1612 l 8 -7 c 3 -12 c 0 -3 c -3 -12 c -8 -7 c
-11 -4 c -4 0 c -11 4 c -8 7 c -4 12 c 0 3 c 4 12 c 8 7 c 15 4 c 19 0 c 18 -4 c 12 -7 c 4 -12 c 0 -7 c -4 -11 c -8 -4 c
4 -4 8248 1646 l 4 4 c -4 4 c -4 -4 c -3 7 8191 1688 l -12 12 c 80 0 c -4 0 8195 1756 l -7 4 c -4 3 c -4 8 c 0 15 c 4 8 c 4 3 c
7 4 c 8 0 c 7 -4 c 12 -7 c 38 -38 c 0 53 c 4 -11 8176 1846 l 8 -4 c 7 0 c 8 4 c 3 8 c 4 15 c 4 11 c 8 8 c 7 3 c 11 0 c 8 -3 c 4 -4 c
4 -11 c 0 -16 c -4 -11 c -4 -4 c -8 -3 c -11 0 c -7 3 c -8 8 c -4 11 c -4 15 c -3 8 c -8 4 c -7 0 c -8 -4 c -4 -11 c 0 -16 c
0 -250 8813 1910 l 0 -38 8770 2027 l 34 -4 c -4 4 c -4 11 c 0 12 c 4 11 c 7 8 c 12 3 c 7 0 c 12 -3 c 7 -8 c 4 -11 c 0 -12 c -4 -11 c
-3 -4 c -8 -4 c 53 -38 8770 2095 l 0 57 c 79 0 8770 2095 l -4 0 8789 2136 l -8 4 c -4 4 c -3 8 c 0 15 c 3 7 c 4 4 c 8 4 c 7 0 c
8 -4 c 11 -8 c 38 -37 c 0 53 c 53 -38 8770 2246 l 0 57 c 79 0 8770 2246 l 3 -3 8842 2291 l 4 3 c -4 4 c -3 -4 c 3 -11 8770 2344 l
12 -8 c 19 -3 c 11 0 c 19 3 c 11 8 c 4 11 c 0 8 c -4 11 c -11 8 c -19 3 c -11 0 c -19 -3 c -12 -8 c -3 -11 c 0 -8 c
3 -11 8770 2420 l 12 -8 c 19 -4 c 11 0 c 19 4 c 11 8 c 4 11 c 0 7 c -4 12 c -11 7 c -19 4 c -11 0 c -19 -4 c -12 -7 c -3 -12 c
0 -7 c 3 -12 8770 2492 l 8 -3 c 8 0 c 7 3 c 4 8 c 4 15 c 3 11 c 8 8 c 8 4 c 11 0 c 8 -4 c 3 -4 c 4 -11 c 0 -15 c -4 -12 c -3 -3 c
-8 -4 c -11 0 c -8 4 c -8 7 c -3 11 c -4 16 c -4 7 c -7 4 c -8 0 c -8 -4 c -3 -11 c 0 -15 c 0 -249 9018 5825 l 0 -37 8974 5942 l
34 -4 c -4 4 c -3 11 c 0 11 c 3 12 c 8 7 c 11 4 c 8 0 c 11 -4 c 8 -7 c 3 -12 c 0 -11 c -3 -11 c -4 -4 c -8 -4 c 53 -37 8974 6010 l
0 56 c 79 0 8974 6010 l -4 0 8993 6052 l -7 4 c -4 4 c -4 7 c 0 15 c 4 8 c 4 4 c 7 3 c 8 0 c 7 -3 c 12 -8 c 37 -38 c 0 53 c
0 -38 8974 6169 l 34 -3 c -4 3 c -3 12 c 0 11 c 3 11 c 8 8 c 11 4 c 8 0 c 11 -4 c 8 -8 c 3 -11 c 0 -11 c -3 -12 c -4 -3 c -8 -4 c
4 -4 9046 6207 l 3 4 c -3 4 c -4 -4 c -7 -3 8985 6286 l -4 -12 c 0 -7 c 4 -12 c 11 -7 c 19 -4 c 19 0 c 15 4 c 8 7 c 3 12 c 0 3 c
-3 12 c -8 7 c -11 4 c -4 0 c -11 -4 c -8 -7 c -4 -12 c 0 -3 c 4 -12 c 8 -7 c 11 -4 c 79 -38 8974 6366 l 0 53 8974 6313 l
4 -11 8974 6407 l 7 -4 c 8 0 c 8 4 c 3 7 c 4 16 c 4 11 c 7 7 c 8 4 c 11 0 c 8 -4 c 4 -3 c 3 -12 c 0 -15 c -3 -11 c -4 -4 c -8 -4 c
-11 0 c -8 4 c -7 8 c -4 11 c -4 15 c -3 8 c -8 3 c -8 0 c -7 -3 c -4 -12 c 0 -15 c 0 -250 9106 1381 l 0 -38 9062 1498 l 34 -4 c
-4 4 c -3 11 c 0 12 c 3 11 c 8 8 c 11 3 c 8 0 c 11 -3 c 8 -8 c 4 -11 c 0 -12 c -4 -11 c -4 -4 c -8 -3 c 53 -38 9062 1566 l 0 57 c
80 0 9062 1566 l -4 0 9081 1608 l -7 3 c -4 4 c -4 8 c 0 15 c 4 7 c 4 4 c 7 4 c 8 0 c 7 -4 c 12 -7 c 38 -38 c 0 53 c
-8 -3 9074 1728 l -4 -12 c 0 -7 c 4 -12 c 11 -7 c 19 -4 c 19 0 c 15 4 c 8 7 c 4 12 c 0 4 c -4 11 c -8 7 c -11 4 c -4 0 c -11 -4 c
-8 -7 c -4 -11 c 0 -4 c 4 -12 c 8 -7 c 11 -4 c 4 -3 9134 1762 l 4 3 c -4 4 c -4 -4 c 53 -38 9062 1831 l 0 56 c 80 0 9062 1831 l
4 -11 9062 1891 l 11 -8 c 19 -4 c 12 0 c 18 4 c 12 8 c 4 11 c 0 8 c -4 11 c -12 7 c -18 4 c -12 0 c -19 -4 c -11 -7 c -4 -11 c
0 -8 c 4 -12 9062 1963 l 8 -3 c 7 0 c 8 3 c 3 8 c 4 15 c 4 11 c 8 8 c 7 4 c 11 0 c 8 -4 c 4 -4 c 4 -11 c 0 -15 c -4 -12 c -4 -3 c
-8 -4 c -11 0 c -7 4 c -8 7 c -4 12 c -4 15 c -3 7 c -8 4 c -7 0 c -8 -4 c -4 -11 c 0 -15 c 0 -249 9438 1251 l 0 -38 9395 1368 l
34 -3 c -4 3 c -4 12 c 0 11 c 4 11 c 8 8 c 11 4 c 7 0 c 12 -4 c 7 -8 c 4 -11 c 0 -11 c -4 -12 c -3 -3 c -8 -4 c 53 -37 9395 1436 l
0 56 c 79 0 9395 1436 l -4 0 9414 1478 l -8 4 c -4 3 c -3 8 c 0 15 c 3 8 c 4 3 c 8 4 c 7 0 c 8 -4 c 11 -7 c 38 -38 c 0 53 c
12 -4 9421 1599 l 7 -8 c 4 -11 c 0 -4 c -4 -11 c -7 -8 c -12 -3 c -4 0 c -11 3 c -8 8 c -3 11 c 0 4 c 3 11 c 8 8 c 15 4 c 19 0 c
19 -4 c 11 -8 c 4 -11 c 0 -7 c -4 -12 c -7 -4 c 3 -4 9467 1633 l 4 4 c -4 4 c -3 -4 c -4 8 9410 1674 l -11 11 c 79 0 c
3 -11 9395 1761 l 12 -8 c 19 -3 c 11 0 c 19 3 c 11 8 c 4 11 c 0 8 c -4 11 c -11 8 c -19 4 c -11 0 c -19 -4 c -12 -8 c -3 -11 c
0 -8 c 0 -38 9395 1860 l 34 -4 c -4 4 c -4 11 c 0 11 c 4 12 c 8 7 c 11 4 c 7 0 c 12 -4 c 7 -7 c 4 -12 c 0 -11 c -4 -11 c -3 -4 c
-8 -4 c 0 -249 9688 2606 l 0 -37 9645 2723 l 34 -4 c -4 4 c -4 11 c 0 11 c 4 12 c 8 7 c 11 4 c 8 0 c 11 -4 c 7 -7 c 4 -12 c 0 -11 c
-4 -11 c -3 -4 c -8 -4 c 53 -37 9645 2791 l 0 56 c 79 0 9645 2791 l 0 41 9645 2837 l 30 -22 c 0 11 c 4 8 c 4 3 c 11 4 c 8 0 c
11 -4 c 7 -7 c 4 -12 c 0 -11 c -4 -11 c -3 -4 c -8 -4 c -4 8 9660 2916 l -11 11 c 79 0 c 3 -4 9717 2988 l 4 4 c -4 4 c -3 -4 c
-4 8 9660 3029 l -11 11 c 79 0 c -4 8 9660 3105 l -11 11 c 79 0 c -4 0 9664 3173 l -8 4 c -3 4 c -4 7 c 0 15 c 4 8 c 3 4 c 8 3 c
8 0 c 7 -3 c 11 -8 c 38 -38 c 0 53 c
showpage PGPLOT restore
 
%%Trailer
%%DocumentFonts: 
%%Pages: 1
%%EOF
