%!PS-Adobe-3.0 EPSF-3.0
%%For: tom
%%Title: PGPLOT PostScript plot
%%Creator: PGPLOT
%%CreationDate:  9-Nov-1994 13:52
%%BoundingBox: 25 18 587 774
%%DocumentFonts: (atend)
%%LanguageLevel: 1
%%Orientation: Landscape
%%Pages: (atend)
%%EndComments
%%BeginProlog
/l {moveto rlineto currentpoint stroke moveto} bind def
/c {rlineto currentpoint stroke moveto} bind def
/d {moveto 0 0 rlineto currentpoint stroke moveto} bind def
/SLW {5 mul setlinewidth} bind def
/SCF /pop load def
/BP {newpath moveto} bind def
/LP /rlineto load def
/EP {rlineto closepath eofill} bind def
/MB {gsave translate MFAC dup scale 1 setlinewidth 2 setlinecap 0 setlinejoin newpath} bind def
/ME /grestore load def
/C {0 360 arc stroke} bind def
/FC {0 360 arc fill} bind def
%%EndProlog
 
%%Page: 1 1
%%BeginPageSetup
/PGPLOT save def
0.072 0.072 scale
8150 250 translate 90 rotate
1 setlinejoin 1 setlinecap 1 SLW 1 SCF
%%EndPageSetup
0.00 setgray 1 SLW 8939 0 780 780 l 0 6239 c -8939 0 c 0 -6239 c 0 -45 1116 780 l 0 -45 1554 780 l 0 -45 1991 780 l 0 -45 2428 780 l
0 -90 2865 780 l 0 -45 3302 780 l 0 -45 3739 780 l 0 -45 4176 780 l 0 -45 4613 780 l 0 -90 5051 780 l 0 -45 5488 780 l
0 -45 5925 780 l 0 -45 6362 780 l 0 -45 6799 780 l 0 -90 7236 780 l 0 -45 7673 780 l 0 -45 8110 780 l 0 -45 8548 780 l
0 -45 8985 780 l 0 -90 9422 780 l 0 -45 1116 7064 l 0 -45 1554 7064 l 0 -45 1991 7064 l 0 -45 2428 7064 l 0 -90 2865 7109 l
0 -45 3302 7064 l 0 -45 3739 7064 l 0 -45 4176 7064 l 0 -45 4613 7064 l 0 -90 5051 7109 l 0 -45 5488 7064 l 0 -45 5925 7064 l
0 -45 6362 7064 l 0 -45 6799 7064 l 0 -90 7236 7109 l 0 -45 7673 7064 l 0 -45 8110 7064 l 0 -45 8548 7064 l 0 -45 8985 7064 l
0 -90 9422 7109 l -60 0 2775 672 l -6 -54 c 6 6 c 18 6 c 18 0 c 18 -6 c 12 -12 c 6 -18 c 0 -12 c -6 -18 c -12 -12 c -18 -6 c -18 0 c
-18 6 c -6 6 c -6 12 c -18 -6 2859 672 l -12 -18 c -6 -30 c 0 -18 c 6 -30 c 12 -18 c 18 -6 c 12 0 c 18 6 c 12 18 c 6 30 c 0 18 c
-6 30 c -12 18 c -18 6 c -12 0 c -18 -6 2979 672 l -12 -18 c -6 -30 c 0 -18 c 6 -30 c 12 -18 c 18 -6 c 12 0 c 18 6 c 12 18 c 6 30 c
0 18 c -6 30 c -12 18 c -18 6 c -12 0 c 12 6 4847 648 l 18 18 c 0 -126 c -18 -6 4985 672 l -12 -18 c -6 -30 c 0 -18 c 6 -30 c
12 -18 c 18 -6 c 12 0 c 18 6 c 12 18 c 6 30 c 0 18 c -6 30 c -12 18 c -18 6 c -12 0 c -18 -6 5105 672 l -12 -18 c -6 -30 c 0 -18 c
6 -30 c 12 -18 c 18 -6 c 12 0 c 18 6 c 12 18 c 6 30 c 0 18 c -6 30 c -12 18 c -18 6 c -12 0 c -18 -6 5225 672 l -12 -18 c -6 -30 c
0 -18 c 6 -30 c 12 -18 c 18 -6 c 12 0 c 18 6 c 12 18 c 6 30 c 0 18 c -6 30 c -12 18 c -18 6 c -12 0 c 12 6 7032 648 l 18 18 c
0 -126 c -60 0 7206 672 l -6 -54 c 6 6 c 18 6 c 18 0 c 18 -6 c 12 -12 c 6 -18 c 0 -12 c -6 -18 c -12 -12 c -18 -6 c -18 0 c -18 6 c
-6 6 c -6 12 c -18 -6 7290 672 l -12 -18 c -6 -30 c 0 -18 c 6 -30 c 12 -18 c 18 -6 c 12 0 c 18 6 c 12 18 c 6 30 c 0 18 c -6 30 c
-12 18 c -18 6 c -12 0 c -18 -6 7410 672 l -12 -18 c -6 -30 c 0 -18 c 6 -30 c 12 -18 c 18 -6 c 12 0 c 18 6 c 12 18 c 6 30 c 0 18 c
-6 30 c -12 18 c -18 6 c -12 0 c 0 6 9206 642 l 6 12 c 6 6 c 12 6 c 24 0 c 12 -6 c 6 -6 c 6 -12 c 0 -12 c -6 -12 c -12 -18 c
-60 -60 c 84 0 c -18 -6 9356 672 l -12 -18 c -6 -30 c 0 -18 c 6 -30 c 12 -18 c 18 -6 c 12 0 c 18 6 c 12 18 c 6 30 c 0 18 c -6 30 c
-12 18 c -18 6 c -12 0 c -18 -6 9476 672 l -12 -18 c -6 -30 c 0 -18 c 6 -30 c 12 -18 c 18 -6 c 12 0 c 18 6 c 12 18 c 6 30 c 0 18 c
-6 30 c -12 18 c -18 6 c -12 0 c -18 -6 9596 672 l -12 -18 c -6 -30 c 0 -18 c 6 -30 c 12 -18 c 18 -6 c 12 0 c 18 6 c 12 18 c 6 30 c
0 18 c -6 30 c -12 18 c -18 6 c -12 0 c -90 0 780 780 l -45 0 780 1715 l -90 0 780 2650 l -45 0 780 3585 l -90 0 780 4521 l
-45 0 780 5456 l -90 0 780 6391 l -90 0 9809 780 l -45 0 9764 1715 l -90 0 9809 2650 l -45 0 9764 3585 l -90 0 9809 4521 l
-45 0 9764 5456 l -90 0 9809 6391 l 6 -18 517 774 l 18 -12 c 30 -6 c 18 0 c 30 6 c 18 12 c 6 18 c 0 12 c -6 18 c -18 12 c -30 6 c
-18 0 c -30 -6 c -18 -12 c -6 -18 c 0 -12 c -6 0 547 2392 l -12 6 c -6 6 c -6 12 c 0 24 c 6 12 c 6 6 c 12 6 c 12 0 c 12 -6 c
18 -12 c 60 -60 c 0 84 c 84 84 547 2512 l 84 -84 547 2596 l -6 12 541 2656 l -18 18 c 126 0 c 6 -18 517 2794 l 18 -12 c 30 -6 c
18 0 c 30 6 c 18 12 c 6 18 c 0 12 c -6 18 c -18 12 c -30 6 c -18 0 c -30 -6 c -18 -12 c -6 -18 c 0 -12 c 63 -45 453 2919 l 0 67 c
94 0 453 2919 l 84 -60 517 4317 l 0 90 c 126 0 517 4317 l 84 84 547 4383 l 84 -84 547 4467 l -6 12 541 4527 l -18 18 c 126 0 c
6 -18 517 4665 l 18 -12 c 30 -6 c 18 0 c 30 6 c 18 12 c 6 18 c 0 12 c -6 18 c -18 12 c -30 6 c -18 0 c -30 -6 c -18 -12 c -6 -18 c
0 -12 c 63 -45 453 4789 l 0 68 c 94 0 453 4789 l -12 -6 535 6205 l -6 -18 c 0 -12 c 6 -18 c 18 -12 c 30 -6 c 30 0 c 24 6 c 12 12 c
6 18 c 0 6 c -6 18 c -12 12 c -18 6 c -6 0 c -18 -6 c -12 -12 c -6 -18 c 0 -6 c 6 -18 c 12 -12 c 18 -6 c 84 84 547 6253 l
84 -84 547 6337 l -6 12 541 6397 l -18 18 c 126 0 c 6 -18 517 6535 l 18 -12 c 30 -6 c 18 0 c 30 6 c 18 12 c 6 18 c 0 12 c -6 18 c
-18 12 c -30 6 c -18 0 c -30 -6 c -18 -12 c -6 -18 c 0 -12 c 63 -44 453 6659 l 0 67 c 94 0 453 6659 l
4 0 780 790 l 5 1 c 4 0 c 4 -1 c 5 -1 c 4 0 c 4 0 c 5 0 c 4 0 c 5 0 c 4 0 c 4 1 c 5 1 c 4 6 c 4 4 c 5 1 c 4 -2 c 5 -5 c 4 -2 c 4 0 c
5 0 c 4 -1 c 4 0 c 5 -1 c 4 -1 c 5 -1 c 4 1 c 4 1 c 5 1 c 4 1 c 4 5 c 5 2 c 4 -1 c 5 -3 c 4 -4 c 4 -2 c 5 1 c 4 0 c 4 2 c 5 -1 c
4 -1 c 4 -1 c 5 -1 c 4 0 c 5 0 c 4 1 c 4 0 c 5 0 c 4 0 c 4 0 c 5 1 c 4 -1 c 5 -1 c 4 0 c 4 0 c 5 0 c 4 1 c 4 1 c 5 0 c 4 3 c 5 2 c
4 1 c 4 -1 c 5 -3 c 4 -3 c 4 0 c 5 1 c 4 1 c 5 1 c 4 2 c 4 3 c 5 10 c 4 3 c 4 -2 c 5 -7 c 4 -10 c 4 -2 c 5 0 c 4 0 c 5 2 c 4 1 c
4 0 c 5 2 c 4 -15 c 5 17 1151 780 l 4 10 c 5 49 c 4 85 c 4 16 c 5 -9 c 4 -74 c 4 -75 c 5 -7 c 4 0 c 5 -1 c 4 -1 c 4 0 c 5 1 c 4 0 c
4 0 c 5 1 c 4 3 c 5 5 c 4 2 c 4 3 c 5 15 c 4 63 c 4 251 c 5 163 c 4 -11 c 4 -120 c 5 -277 c 4 -91 c 5 -4 c 4 2 c 4 5 c 5 2 c 4 1 c
4 -5 c 5 -6 c 4 -3 c 5 0 c 4 -1 c 4 1 c 5 0 c 4 1 c 4 2 c 5 0 c 4 -1 c 5 -1 c 4 -1 c 4 1 c 5 2 c 4 2 c 4 -2 c 5 -1 c 4 -1 c 5 0 c
4 0 c 4 1 c 5 0 c 4 0 c 4 0 c 5 -1 c 4 0 c 4 3 c 5 13 c 4 59 c 5 196 c 4 161 c 4 3 c 5 -88 c 4 -237 c 4 -101 c 5 -7 c 4 -1 c 5 1 c
4 0 c 4 0 c 5 0 c 4 0 c 4 -1 c 5 0 c 4 -1 c 5 0 c 4 -1 c 4 -1 c 5 1 c 4 -1 c 4 0 c 5 0 c 4 0 c 4 0 c 5 1 c 4 0 c 5 1 c 4 5 c 4 2 c
5 2 c 4 -2 c 4 -5 c 5 -2 c 4 -1 c 5 -1 c 4 0 c 4 1 c 5 -1 c 4 1 c 4 0 c 5 0 c 4 0 c 5 0 c 4 0 c 4 0 c 5 1 c 4 0 c 4 -1 c 5 0 c 4 1 c
5 -1 c 4 0 c 4 0 c 5 0 c 4 0 c 4 0 c 5 1 c 4 1 c 4 1 c 5 0 c 4 -1 c 5 -1 c 4 0 c 4 0 c 5 0 c 4 0 c 4 0 c 5 1 c 4 1 c 5 3 c 4 5 c
4 3 c 5 1 c 4 1 c 4 4 c 5 54 c 4 299 c 5 676 c 4 170 c 4 -75 c 5 -478 c 4 -564 c 4 -92 c 5 -4 c 4 -2 c 5 -1 c 4 0 c 4 0 c 5 -1 c
4 0 c 4 0 c 5 3 c 4 14 c 4 9 c 5 2 c 4 -3 c 5 -14 c 4 -6 c 4 -3 c 5 -3 c 4 0 c 4 0 c 5 0 c 4 2 c 5 0 c 4 0 c 4 -1 c 5 0 c 4 -1 c
4 -1 c 5 0 c 4 0 c 5 0 c 4 1 c 4 2 c 5 1 c 4 0 c 4 0 c 5 1 c 4 3 c 5 0 c 4 0 c 4 0 c 5 16 c 4 108 c 4 168 c 5 29 c 4 -30 c 4 -151 c
5 -132 c 4 -13 c 5 -1 c 4 0 c 4 -1 c 5 2 c 4 7 c 4 15 c 5 3 c 4 -2 c 5 -9 c 4 -12 c 4 -2 c 5 -1 c 4 -2 c 4 0 c 5 0 c 4 1 c 5 -1 c
4 0 c 4 0 c 5 0 c 4 0 c 4 0 c 5 0 c 4 0 c 5 0 c 4 1 c 4 -1 c 5 1 c 4 0 c 4 -1 c 5 1 c 4 -1 c 4 1 c 5 0 c 4 0 c 5 0 c 4 0 c 4 0 c
5 1 c 4 0 c 4 1 c 5 -1 c 4 1 c 5 2 c 4 2 c 4 0 c 5 -1 c 4 -2 c 4 0 c 5 1 c 4 8 c 5 62 c 4 206 c 4 101 c 5 -2 c 4 -94 c 4 -221 c
5 -58 c 4 -3 c 4 0 c 5 -1 c 4 -1 c 5 -1 c 4 0 c 4 1 c 5 1 c 4 0 c 4 1 c 5 4 c 4 14 c 5 23 c 4 49 c 4 63 c 5 -2 c 4 -19 c 4 -65 c
5 -56 c 4 -8 c 5 -2 c 4 -2 c 4 0 c 5 -1 c 4 1 c 4 2 c 5 4 c 4 1 c 5 0 c 4 -5 c 4 -3 c 5 0 c 4 1 c 4 0 c 5 0 c 4 0 c 4 -1 c 5 0 c
4 -1 c 5 3 c 4 7 c 4 4 c 5 -1 c 4 -3 c 4 -6 c 5 4 c 4 9 c 5 1 c 4 -2 c 4 -9 c 5 -6 c 4 -1 c 4 0 c 5 0 c 4 0 c 5 0 c 4 1 c 4 1 c
5 0 c 4 -1 c 4 0 c 5 -1 c 4 0 c 5 1 c 4 0 c 4 3 c 5 1 c 4 1 c 4 0 c 5 -1 c 4 12 c 4 15 c 5 1 c 4 -3 c 5 -17 c 4 -10 c 4 -1 c 5 2 c
4 1 c 4 1 c 5 0 c 4 -1 c 5 0 c 4 4 c 4 14 c 5 14 c 4 2 c 4 -7 c 5 -18 c 4 -10 c 5 -2 c 4 0 c 4 -1 c 5 0 c 4 0 c 4 -1 c 5 2 c 4 0 c
5 2 c 4 1 c 4 0 c 5 0 c 4 -2 c 4 -2 c 5 0 c 4 0 c 4 1 c 5 1 c 4 1 c 5 0 c 4 -1 c 4 0 c 5 1 c 4 6 c 4 61 c 5 108 c 4 31 c 5 -7 c
4 -58 c 4 -52 c 5 28 c 4 9 c 4 -27 c 5 -49 c 4 -14 c 5 18 c 4 3 c 4 -6 c 5 -31 c 4 -21 c 4 -1 c 5 0 c 4 0 c 4 0 c 5 0 c 4 0 c 5 2 c
4 2 c 4 2 c 5 -1 c 4 -3 c 4 -3 c 5 0 c 4 0 c 5 -1 c 4 1 c 4 4 c 5 6 c 4 8 c 4 2 c 5 -4 c 4 -6 c 5 -7 c 4 -2 c 4 -1 c 5 0 c 4 1 c
4 5 c 5 2 c 4 0 c 5 -1 c 4 -5 c 4 -1 c 5 0 c 4 0 c 4 1 c 5 1 c 4 1 c 4 0 c 5 -2 c 4 0 c 5 1 c 4 0 c 4 0 c 5 -1 c 4 0 c 4 1 c 5 0 c
4 0 c 5 -1 c 4 -2 c 4 0 c 5 2 c 4 2 c 4 2 c 5 1 c 4 -2 c 5 -2 c 4 -1 c 4 -1 c 5 1 c 4 4 c 4 1 c 5 0 c 4 -2 c 5 -4 c 4 -1 c 4 1 c
5 1 c 4 2 c 4 3 c 5 1 c 4 0 c 4 0 c 5 -3 c 4 -1 c 5 -1 c 4 -2 c 4 -1 c 5 1 c 4 0 c 4 1 c 5 10 c 4 17 c 5 2 c 4 0 c 4 -16 c 5 -13 c
4 -1 c 4 3 c 5 3 c 4 21 c 5 72 c 4 30 c 4 -1 c 5 -16 c 4 16 c 4 30 c 5 1 c 4 -35 c 5 -91 c 4 -31 c 4 -1 c 5 -1 c 4 0 c 4 0 c 5 0 c
4 -1 c 4 0 c 5 0 c 4 1 c 5 -1 c 4 0 c 4 1 c 5 -1 c 4 0 c 4 0 c 5 0 c 4 0 c 5 0 c 4 0 c 4 0 c 5 0 c 4 0 c 4 1 c 5 -1 c 4 1 c 5 0 c
4 0 c 4 3 c 5 8 c 4 24 c 4 33 c 5 -1 c 4 -5 c 5 -28 c 4 -22 c 4 -2 c 5 -2 c 4 -2 c 4 -2 c 5 0 c 4 0 c 4 -3 c 5 -1 c 4 0 c 5 0 c
4 3 c 4 1 c 5 0 c 4 0 c 4 -1 c 5 2 c 4 15 c 5 137 c 4 185 c 4 27 c 5 -19 c 4 -182 c 4 -147 c 5 -18 c 4 -1 c 5 7 c 4 18 c 4 8 c
5 -1 c 4 -10 c 4 -17 c 5 -3 c 4 2 c 4 0 c 5 0 c 4 -3 c 5 -2 c 4 0 c 4 0 c 5 3 c 4 4 c 4 0 c 5 -1 c 4 -3 c 5 -2 c 4 1 c 4 -1 c 5 0 c
4 -1 c 4 1 c 5 1 c 4 1 c 5 0 c 4 6 c 4 15 c 5 2 c 4 0 c 4 -9 c 5 -11 c 4 0 c 5 2 c 4 0 c 4 -1 c 5 -3 c 4 -1 c 4 0 c 5 0 c 4 0 c
4 2 c 5 1 c 4 2 c 5 3 c 4 2 c 4 3 c 5 11 c 4 34 c 4 463 c 5 2140 c 4 1224 c 5 176 c 4 -733 c 4 -2334 c 5 -910 c 4 -65 c 4 -7 c
5 -4 c 4 -2 c 5 -1 c 4 0 c 4 2 c 5 15 c 4 10 c 4 -1 c 5 -5 c 4 -18 c 5 -8 c 4 -2 c 4 0 c 5 2 c 4 7 c 4 3 c 5 1 c 4 -2 c 4 -8 c
5 -3 c 4 -1 c 5 0 c 4 0 c 4 1 c 5 3 c 4 2 c 4 1 c 5 2 c 4 2 c 5 -1 c 4 0 c 4 3 c 5 4 c 4 52 c 4 94 c 5 25 c 4 -4 c 5 -69 c 4 -96 c
4 -14 c 5 4 c 4 12 c 4 4 c 5 -1 c 4 0 c 5 6 c 4 4 c 4 7 c 5 42 c 4 32 c 4 2 c 5 -8 c 4 -59 c 4 -39 c 5 3 c 4 6 c 5 4 c 4 -3 c 4 -6 c
5 -5 c 4 -4 c 4 -2 c 5 -2 c 4 -1 c 5 -1 c 4 1 c 4 0 c 5 0 c 4 -1 c 4 0 c 5 1 c 4 0 c 5 -1 c 4 0 c 4 -1 c 5 0 c 4 1 c 4 2 c 5 0 c
4 3 c 5 0 c 4 1 c 4 2 c 5 -1 c 4 0 c 4 -1 c 5 -3 c 4 -1 c 4 -1 c 5 -1 c 4 -1 c 5 0 c 4 1 c 4 -1 c 5 1 c 4 0 c 4 0 c 5 -1 c 4 0 c
5 3 c 4 6 c 4 2 c 5 1 c 4 -3 c 4 -4 c 5 -1 c 4 0 c 5 0 c 4 -1 c 4 -2 c 5 -1 c 4 1 c 4 3 c 5 1 c 4 1 c 4 0 c 5 -3 c 4 -2 c 5 -1 c
4 0 c 4 0 c 5 1 c 4 0 c 4 3 c 5 5 c 4 3 c 5 1 c 4 -3 c 4 -4 c 5 -2 c 4 -1 c 4 2 c 5 2 c 4 0 c 5 0 c 4 -3 c 4 -2 c 5 1 c 4 6 c 4 17 c
5 8 c 4 2 c 5 -10 c 4 -17 c 4 -6 c 5 0 c 4 0 c 4 2 c 5 0 c 4 0 c 4 -1 c 5 -2 c 4 1 c 5 0 c 4 1 c 4 0 c 5 1 c 4 2 c 4 3 c 5 0 c 4 3 c
5 39 c 4 68 c 4 22 c 5 -1 c 4 -56 c 4 -67 c 5 -13 c 4 -1 c 5 0 c 4 0 c 4 0 c 5 0 c 4 1 c 4 2 c 5 0 c 4 0 c 5 -2 c 4 -1 c 4 3 c 5 2 c
4 1 c 4 -2 c 5 -3 c 4 -1 c 4 2 c 5 1 c 4 4 c 5 5 c 4 5 c 4 12 c 5 34 c 4 125 c 4 754 c 5 1180 c 4 563 c 5 -4 c 4 -880 c 4 -1204 c
5 -403 c 4 -97 c 4 -57 c 5 -20 c 4 -9 c 5 -4 c 4 -1 c 4 -3 c 5 -1 c 4 -1 c 4 1 c 5 12 c 4 35 c 5 37 c 4 10 c 4 -15 c 5 -37 c 4 -35 c
4 -9 c 5 -1 c 4 -1 c 4 0 c 5 0 c 4 0 c 5 3 c 4 14 c 4 10 c 5 1 c 4 -4 c 4 -17 c 5 -8 c 4 -1 c 5 0 c 4 0 c 4 1 c 5 0 c 4 0 c 4 0 c
5 0 c 4 5 c 5 16 c 4 12 c 4 3 c 5 -6 c 4 -18 c 4 -8 c 5 -1 c 4 1 c 5 1 c 4 0 c 4 -2 c 5 -2 c 4 -1 c 4 1 c 5 7 c 4 17 c 4 10 c 5 -2 c
4 -8 c 5 -18 c 4 -7 c 4 -1 c 5 1 c 4 -1 c 4 1 c 5 1 c 4 0 c 5 0 c 4 -1 c 4 -14 c 5 14 c 4 1 c 4 0 c 5 0 c 4 0 c 5 0 c 4 1 c 4 5 c
5 6 c 4 -1 c 4 -1 c 5 -7 c 4 -2 c 4 -2 c 5 -1 c 4 0 c 5 2 c 4 -1 c 4 0 c 5 -1 c 4 2 c 4 1 c 5 4 c 4 1 c 5 -3 c 4 -1 c 4 -1 c 5 -1 c
4 0 c 4 -1 c 5 0 c 4 1 c 5 4 c 4 5 c 4 0 c 5 -1 c 4 -5 c 4 -3 c 5 -2 c 4 1 c 5 0 c 4 1 c 4 0 c 5 2 c 4 7 c 4 11 c 5 7 c 4 2 c 4 -8 c
5 -12 c 4 -8 c 5 -2 c 4 0 c 4 0 c 5 1 c 4 -1 c 4 1 c 5 0 c 4 -1 c 5 0 c 4 0 c 4 3 c 5 3 c 4 1 c 4 -1 c 5 -2 c 4 -2 c 5 1 c 4 2 c
4 5 c 5 1 c 4 0 c 4 -4 c 5 -4 c 4 0 c 5 -1 c 4 4 c 4 34 c 5 39 c 4 8 c 4 -2 c 5 -38 c 4 -25 c 4 -1 c 5 4 c 4 -4 c 5 -7 c 4 -9 c
4 -3 c 5 -1 c 4 -1 c 4 1 c 5 2 c 4 3 c 5 1 c 4 -1 c 4 -3 c 5 -2 c 4 -1 c 4 1 c 5 0 c 4 1 c 5 0 c 4 1 c 4 0 c 5 4 c 4 2 c 4 6 c
5 51 c 4 398 c 5 666 c 4 265 c 4 -31 c 5 -510 c 4 -617 c 4 -195 c 5 -25 c 4 -6 c 4 -1 c 5 -1 c 4 0 c 5 0 c 4 0 c 4 1 c 5 1 c 4 4 c
4 5 c 5 13 c 4 42 c 5 17 c 4 4 c 4 -15 c 5 -43 c 4 -17 c 4 0 c 5 5 c 4 1 c 5 5 c 4 6 c 4 14 c 5 21 c 4 17 c 4 33 c 5 58 c 4 232 c
4 1317 c 5 2643 c 4 1617 c 5 53 c 4 -14 c 4 8 c 5 -15 c 4 7 c 4 -3862 c 5 -1885 c 4 -60 c 5 107 c 4 44 c 4 2 c 5 -66 c 4 -109 c
4 -41 c 5 -24 c 4 -44 c 5 -37 c 4 -68 c 4 55 c 5 -6 c 4 -5 c 4 -2 c 5 -1 c 4 22 c 5 20 c 4 3 c 4 -6 c 5 -30 c 4 -18 c 4 -1 c 5 0 c
4 -1 c 4 -2 c 5 -4 c 4 -1 c 5 0 c 4 0 c 4 -2 c 5 1 c 4 1 c 4 0 c 5 0 c 4 0 c 5 -1 c 4 0 c 4 0 c 5 -1 c 4 -1 c 4 -1 c 5 0 c 4 -1 c
5 0 c 4 1 c 4 -1 c 5 1 c 4 0 c 4 1 c 5 3 c 4 27 c 5 183 c 4 246 c 4 91 c 5 -33 c 4 -199 c 4 -223 c 5 -74 c 4 -8 c 4 -2 c 5 -1 c
4 0 c 5 3 c 4 10 c 4 108 c 5 513 c 4 465 c 4 133 c 5 -114 c 4 -584 c 5 -423 c 4 -104 c 4 -5 c 5 -2 c 4 -3 c 4 -5 c 5 -3 c 4 0 c
5 -1 c 4 1 c 4 2 c 5 3 c 4 7 c 4 7 c 5 2 c 4 38 c 5 157 c 4 144 c 4 48 c 5 -44 c 4 -178 c 4 -142 c 5 -38 c 4 -1 c 4 -1 c 5 -2 c
4 -2 c 5 -2 c 4 -1 c 4 0 c 5 1 c 4 0 c 4 0 c 5 -1 c 4 1 c 5 1 c 4 9 c 4 18 c 5 9 c 4 -1 c 4 -10 c 5 -20 c 4 -7 c 5 -1 c 4 0 c 4 2 c
5 0 c 4 0 c 4 0 c 5 -1 c 4 2 c 5 14 c 4 9 c 4 4 c 5 -2 c 4 -11 c 4 -6 c 5 17 c 4 92 c 4 78 c 5 31 c 4 -13 c 5 -88 c 4 -60 c 4 -3 c
5 -1 c 4 -7 c 4 -30 c 5 -21 c 4 -4 c 5 0 c 4 2 c 4 0 c 5 2 c 4 2 c 4 0 c 5 -2 c 4 -2 c 5 -4 c 4 -1 c 4 0 c 5 0 c 4 0 c 4 0 c 5 0 c
4 0 c 4 1 c 5 7 c 4 40 c 5 42 c 4 15 c 4 -4 c 5 -38 c 4 -38 c 4 -13 c 5 -5 c 4 0 c 5 2 c 4 0 c 4 -1 c 5 1 c 4 10 c 4 7 c 5 3 c
4 -5 c 5 -14 c 4 0 c 4 37 c 5 41 c 4 9 c 4 -3 c 5 -43 c 4 -39 c 5 -10 c 4 -2 c 4 0 c 5 0 c 4 0 c 4 1 c 5 2 c 4 2 c 4 1 c 5 2 c
4 -3 c 5 -3 c 4 -1 c 4 -2 c 5 0 c 4 1 c 4 1 c 5 1 c 4 1 c 5 2 c 4 4 c 4 3 c 5 0 c 4 -1 c 4 -4 c 5 -1 c 4 3 c 5 3 c 4 -1 c 4 -2 c
5 -6 c 4 -2 c 4 -15 c 5 15 c 4 1 c 5 1 c 4 2 c 4 1 c 5 0 c 4 -2 c 4 -2 c 5 -1 c 4 -1 c 4 0 c 5 0 c 4 0 c 5 0 c 4 1 c 4 1 c 5 1 c
4 0 c 4 0 c 5 1 c 4 -1 c 5 1 c 4 4 c 4 37 c 5 62 c 4 22 c 4 1 c 5 -40 c 4 -66 c 5 -18 c 4 3 c 4 6 c 5 3 c 4 1 c 4 -1 c 5 -1 c 4 0 c
5 -2 c 4 -6 c 4 -6 c 5 -2 c 4 1 c 4 1 c 5 -1 c 4 0 c 4 0 c 5 -1 c 4 0 c 5 0 c 4 0 c 4 0 c 5 1 c 4 0 c 4 0 c 5 4 c 4 14 c 5 15 c
4 5 c 4 -2 c 5 -13 c 4 -13 c 4 -4 c 5 -2 c 4 0 c 5 -1 c 4 0 c 4 0 c 5 0 c 4 2 c 4 0 c 5 0 c 4 -1 c 5 -2 c 4 -2 c 4 0 c 5 6 c 4 9 c
4 5 c 5 0 c 4 -4 c 4 -10 c 5 -3 c 4 -1 c 5 -1 c 4 0 c 4 0 c 5 0 c 4 1 c 4 0 c 5 0 c 4 0 c 5 1 c 4 1 c 4 0 c 5 2 c 4 2 c 4 2 c 5 2 c
4 2 c 5 3 c 4 5 c 4 17 c 5 179 c 4 1313 c 4 1865 c 5 1506 c 4 415 c 4 -1252 c 5 -1891 c 4 -1535 c 5 -535 c 4 -77 c 4 -7 c 5 -3 c
4 4 c 4 24 c 5 20 c 4 2 c 5 -7 c 4 -29 c 4 -20 c 5 0 c 4 1 c 4 0 c 5 -2 c 4 -3 c 5 -2 c 4 0 c 4 -1 c 5 0 c 4 0 c 4 4 c 5 34 c
4 189 c 5 189 c 4 42 c 4 -37 c 5 -192 c 4 -178 c 4 -34 c 5 124 c 4 377 c 4 219 c 5 20 c 4 -118 c 5 -398 c 4 -208 c 4 -26 c 5 -1 c
4 -2 c 4 -1 c 5 -3 c 4 -1 c 5 0 c 4 1 c 4 1 c 5 1 c 4 -1 c 4 -3 c 5 0 c 4 0 c 5 0 c 4 1 c 4 2 c 5 4 c 4 4 c 4 2 c 5 -2 c 4 -3 c
5 -5 c 4 -2 c 4 -1 c 5 -1 c 4 0 c 4 -1 c 5 0 c 4 1 c 4 3 c 5 5 c 4 2 c 5 -2 c 4 -2 c 4 -2 c 5 6 c 4 4 c 4 1 c 5 -2 c 4 -7 c 5 -5 c
4 0 c 4 -1 c 5 0 c 4 -1 c 4 0 c 5 0 c 4 0 c 5 2 c 4 12 c 4 9 c 5 3 c 4 -1 c 4 -10 c 5 -5 c 4 13 c 5 27 c 4 12 c 4 6 c 5 -12 c
4 -27 c 4 -15 c 5 -7 c 4 -4 c 4 -2 c 5 0 c 4 0 c 5 0 c 4 0 c 4 -1 c 5 0 c 4 -1 c 4 -1 c 5 0 c 4 -1 c 5 0 c 4 0 c 4 1 c 5 1 c 4 0 c
4 -1 c 5 1 c 4 0 c 5 -1 c 4 1 c 4 2 c 5 1 c 4 0 c 4 -1 c 5 -2 c 4 -1 c 5 1 c 4 5 c 4 33 c 5 32 c 4 5 c 4 -4 c 5 -34 c 4 -31 c 4 -6 c
5 -1 c 4 -1 c 5 1 c 4 -1 c 4 0 c 5 0 c 4 0 c 4 0 c 5 2 c 4 1 c 5 6 c 4 11 c 4 1 c 5 1 c 4 -6 c 4 -10 c 5 -3 c 4 -1 c 5 0 c 4 0 c
4 1 c 5 7 c 4 14 c 4 9 c 5 1 c 4 -4 c 4 -11 c 5 -7 c 4 -1 c 5 -1 c 4 -3 c 4 -3 c 5 -1 c 4 -1 c 4 1 c 5 0 c 4 0 c 5 -1 c 4 0 c 4 0 c
5 -1 c 4 1 c 4 0 c 5 2 c 4 0 c 5 0 c 4 -1 c 4 0 c 5 0 c 4 0 c 4 2 c 5 8 c 4 7 c 5 12 c 4 7 c 4 -6 c 5 -7 c 4 -12 c 4 -9 c 5 -1 c
4 0 c 4 -2 c 5 0 c 4 0 c 5 -1 c 4 1 c 4 1 c 5 0 c 4 1 c 4 2 c 5 1 c 4 0 c 5 0 c 4 -2 c 4 -2 c 5 -2 c 4 0 c 4 -1 c 5 0 c 4 1 c 5 1 c
4 0 c 4 0 c 5 -1 c 4 -1 c 4 0 c 5 1 c 4 0 c 5 0 c 4 0 c 4 0 c 5 1 c 4 1 c 4 2 c 5 12 c 4 12 c 4 2 c 5 0 c 4 -11 c 5 -14 c 4 -3 c
4 1 c 5 4 c 4 2 c 4 1 c 5 -1 c 4 -5 c 5 -2 c 4 -1 c 4 2 c 5 18 c 4 47 c 4 16 c 5 1 c 4 -19 c 5 -47 c 4 -16 c 4 0 c 5 1 c 4 3 c 4 1 c
5 0 c 4 -2 c 5 -1 c 4 0 c 4 1 c 5 0 c 4 1 c 4 -1 c 5 -2 c 4 -1 c 4 -1 c 5 0 c 4 0 c 5 1 c 4 3 c 4 2 c 5 -2 c 4 -1 c 4 -3 c 5 4 c
4 17 c 5 11 c 4 1 c 4 -1 c 5 -13 c 4 -11 c 4 -2 c 5 -2 c 4 -4 c 5 -1 c 4 0 c 4 0 c 5 -1 c 4 0 c 4 1 c 5 0 c 4 0 c 4 1 c 5 1 c 4 1 c
5 2 c 4 0 c 4 2 c 5 3 c 4 3 c 4 9 c 5 45 c 4 550 c 5 1671 c 4 601 c 4 48 c 5 -465 c 4 -1654 c 4 -736 c 5 -63 c 4 -2 c 5 27 c 4 63 c
4 14 c 5 -2 c 4 -27 c 4 -69 c 5 -19 c 4 -2 c 5 -1 c 4 -1 c 4 0 c 5 -1 c 4 1 c 4 1 c 5 0 c 4 1 c 4 -1 c 5 0 c 4 0 c 5 0 c 4 2 c 4 0 c
5 0 c 4 1 c 4 -1 c 5 -1 c 4 4 c 5 1 c 4 -1 c 4 3 c 5 4 c 4 14 c 4 14 c 5 2 c 4 0 c 5 38 c 4 23 c 4 -1 c 5 -6 c 4 -46 c 4 -44 c
5 -5 c 4 -1 c 5 0 c 4 0 c 4 -1 c 5 -1 c 4 4 c 4 31 c 5 42 c 4 4 c 4 2 c 5 -21 c 4 -42 c 5 -6 c 4 -1 c 4 -4 c 5 -3 c 4 -2 c 4 0 c
5 -1 c 4 -1 c 5 10 c 4 29 c 4 9 c 5 2 c 4 -8 c 4 -28 c 5 -11 c 4 -2 c 5 -1 c 4 -1 c 4 0 c 5 0 c 4 0 c 4 -1 c 5 0 c 4 0 c 5 -1 c
4 1 c 4 3 c 5 6 c 4 1 c 4 -1 c 5 -3 c 4 -5 c 4 -1 c 5 1 c 4 1 c 5 1 c 4 -1 c 4 -1 c 5 -1 c 4 2 c 4 0 c 5 1 c 4 2 c 5 3 c 4 0 c
4 -1 c 5 -3 c 4 -3 c 4 -2 c 5 0 c 4 -1 c 5 0 c 4 1 c 4 2 c 5 4 c 4 2 c 4 -1 c 5 -2 c 4 -2 c 5 -1 c 4 2 c 4 2 c 5 0 c 4 0 c 4 -1 c
5 1 c 4 17 c 4 23 c 5 2 c 4 -3 c 5 -16 c 4 -23 c 4 -5 c 5 0 c 4 0 c 4 0 c 5 0 c 4 0 c 5 -1 c 4 0 c 4 1 c 5 1 c 4 5 c 4 13 c 5 4 c
4 0 c 5 -4 c 4 -11 c 4 -4 c 5 2 c 4 2 c 4 2 c 5 2 c 4 2 c 4 -2 c 5 -1 c 4 0 c 5 1 c 4 2 c 4 6 c 5 17 c 4 98 c 4 1060 c 5 2686 c
4 977 c 5 58 c 4 -795 c 4 -2655 c 5 -1267 c 4 -119 c 4 -16 c 5 -17 c 4 -4 c 5 -15 c 4 -15 c 4 -2 c 5 0 c 4 8 c 4 103 c 5 248 c
4 81 c 5 -2 c 4 -75 c 4 -249 c 5 -113 c 4 -7 c 4 0 c 5 0 c 4 -1 c 4 0 c 5 -2 c 4 -1 c 5 -1 c 4 0 c 4 0 c 5 1 c 4 2 c 4 0 c 5 -1 c
4 -1 c 5 0 c 4 0 c 4 -1 c 5 1 c 4 0 c 4 0 c 5 -1 c 4 0 c 5 -1 c 4 0 c 4 2 c 5 3 c 4 20 c 4 18 c 5 1 c 4 -3 c 5 -17 c 4 -20 c 4 -3 c
5 1 c 4 6 c 4 17 c 5 6 c 4 1 c 4 -4 c 5 -15 c 4 -10 c 5 0 c 4 -1 c 4 1 c 5 3 c 4 9 c 4 83 c 5 440 c 4 402 c 5 35 c 4 -41 c 4 -383 c
5 -456 c 4 -81 c 4 -7 c 5 -2 c 4 1 c 5 3 c 4 39 c 4 134 c 5 62 c 4 2 c 4 -20 c
5 -120 c 4 -94 c 5 -5 c 4 -1 c 4 -19 c 4 17 9549 780 l 4 -1 c 5 0 c 4 -2 c 4 0 c 5 1 c 4 2 c 5 0 c 4 4 c 4 4 c 5 -2 c 4 -1 c 4 -3 c
5 -4 c 4 -1 c 5 0 c 4 -1 c 4 0 c 5 -1 c 4 1 c 4 0 c 5 1 c 4 0 c 5 0 c 4 1 c 4 -1 c 5 1 c 4 1 c 4 0 c 5 1 c 4 5 c 5 24 c 4 93 c
4 84 c 5 27 c 4 17 c 4 24 c 5 -54 c 4 -26 c
0 -126 3030 418 l 54 0 3030 418 l 18 -6 c 6 -6 c 6 -12 c 0 -12 c -6 -12 c -6 -6 c -18 -6 c -54 0 c 42 -66 3072 358 l
-12 -6 3180 376 l -12 -12 c -6 -18 c 0 -12 c 6 -18 c 12 -12 c 12 -6 c 18 0 c 12 6 c 12 12 c 6 18 c 0 12 c -6 18 c -12 12 c -12 6 c
-18 0 c 24 -84 3264 376 l -24 -84 3312 376 l 24 -84 3312 376 l -24 -84 3360 376 l 108 0 3402 364 l 108 0 3402 328 l 0 6 3654 388 l
6 12 c 6 6 c 12 6 c 24 0 c 12 -6 c 6 -6 c 6 -12 c 0 -12 c -6 -12 c -12 -18 c -60 -60 c 84 0 c -60 -84 3828 418 l 90 0 c
0 -126 3828 418 l 12 6 4290 394 l 18 18 c 0 -126 c -6 -6 4404 376 l 6 -6 c 6 6 c -6 6 c -6 -6 4404 304 l 6 -6 c 6 6 c -6 6 c
-48 -126 4584 418 l 48 -126 4584 418 l 60 0 4554 334 l 0 -84 4662 376 l 6 18 4662 340 l 12 12 c 12 6 c 18 0 c -12 12 4806 358 l
-12 6 c -18 0 c -12 -6 c -12 -12 c -6 -18 c 0 -12 c 6 -18 c 12 -12 c 12 -6 c 18 0 c 12 6 c 12 12 c 108 0 4848 346 l
-18 -6 5034 418 l -12 -18 c -6 -30 c 0 -18 c 6 -30 c 12 -18 c 18 -6 c 12 0 c 18 6 c 12 18 c 6 30 c 0 18 c -6 30 c -12 18 c -18 6 c
-12 0 c 66 0 5130 418 l -36 -48 c 18 0 c 12 -6 c 6 -6 c 6 -18 c 0 -12 c -6 -18 c -12 -12 c -18 -6 c -18 0 c -18 6 c -6 6 c -6 12 c
-59 0 5309 418 l -6 -54 c 6 6 c 17 6 c 18 0 c 18 -6 c 12 -12 c 6 -18 c 0 -12 c -6 -18 c -12 -12 c -18 -6 c -18 0 c -17 6 c -6 6 c
-6 12 c -6 -6 5369 304 l 6 -6 c 6 6 c -6 6 c -12 0 5459 418 l -12 -6 c -6 -18 c 0 -102 c 42 0 5411 376 l 6 -6 5489 418 l 6 6 c
-6 6 c -6 -6 c 0 -84 5495 376 l 0 -102 5549 418 l 6 -18 c 12 -6 c 12 0 c 42 0 5531 376 l -6 12 5675 358 l -18 6 c -18 0 c -18 -6 c
-6 -12 c 6 -12 c 12 -6 c 30 -6 c 12 -6 c 6 -12 c 0 -6 c -6 -12 c -18 -6 c -18 0 c -18 6 c -6 12 c 0 -192 6005 442 l
0 -192 6011 442 l 42 0 6005 442 l 42 0 6005 250 l 0 6 6089 388 l 6 12 c 6 6 c 12 6 c 24 0 c 12 -6 c 6 -6 c 6 -12 c 0 -12 c -6 -12 c
-12 -18 c -60 -60 c 84 0 c -6 -6 6215 376 l 6 -6 c 6 6 c -6 6 c -6 -6 6215 304 l 6 -6 c 6 6 c -6 6 c -48 -126 6395 418 l
48 -126 6395 418 l 60 0 6365 334 l 0 -84 6473 376 l 6 18 6473 340 l 12 12 c 12 6 c 18 0 c -12 12 6617 358 l -12 6 c -18 0 c -12 -6 c
-12 -12 c -6 -18 c 0 -12 c 6 -18 c 12 -12 c 12 -6 c 18 0 c 12 6 c 12 12 c 108 0 6659 346 l -18 -6 6845 418 l -12 -18 c -6 -30 c
0 -18 c 6 -30 c 12 -18 c 18 -6 c 12 0 c 18 6 c 12 18 c 6 30 c 0 18 c -6 30 c -12 18 c -18 6 c -12 0 c 66 0 6941 418 l -36 -48 c
18 0 c 12 -6 c 6 -6 c 6 -18 c 0 -12 c -6 -18 c -12 -12 c -18 -6 c -18 0 c -18 6 c -6 6 c -6 12 c -6 12 7127 400 l -18 6 c -12 0 c
-18 -6 c -12 -18 c -6 -30 c 0 -30 c 6 -24 c 12 -12 c 18 -6 c 6 0 c 18 6 c 12 12 c 6 18 c 0 6 c -6 18 c -12 12 c -18 6 c -6 0 c
-18 -6 c -12 -12 c -6 -18 c -6 -6 7181 304 l 6 -6 c 6 6 c -6 6 c -12 0 7271 418 l -12 -6 c -6 -18 c 0 -102 c 42 0 7223 376 l
6 -6 7301 418 l 6 6 c -6 6 c -6 -6 c 0 -84 7307 376 l 0 -102 7361 418 l 6 -18 c 12 -6 c 12 0 c 42 0 7343 376 l -6 12 7487 358 l
-18 6 c -18 0 c -18 -6 c -6 -12 c 6 -12 c 12 -6 c 30 -6 c 12 -6 c 6 -12 c 0 -6 c -6 -12 c -18 -6 c -18 0 c -18 6 c -6 12 c
0 -192 7559 442 l 0 -192 7565 442 l 42 0 7523 442 l 42 0 7523 250 l
0 -249 1174 1393 l 53 -38 1130 1503 l 0 57 c 79 0 1130 1503 l 12 -4 1156 1590 l 7 -7 c 4 -12 c 0 -4 c -4 -11 c -7 -7 c -12 -4 c
-3 0 c -12 4 c -7 7 c -4 11 c 0 4 c 4 12 c 7 7 c 15 4 c 19 0 c 19 -4 c 12 -7 c 3 -12 c 0 -7 c -3 -12 c -8 -3 c 4 -11 1130 1635 l
7 -4 c 8 0 c 7 4 c 4 7 c 4 16 c 4 11 c 7 8 c 8 3 c 11 0 c 8 -3 c 4 -4 c 3 -12 c 0 -15 c -3 -11 c -4 -4 c -8 -4 c -11 0 c -8 4 c
-7 8 c -4 11 c -4 15 c -4 8 c -7 4 c -8 0 c -7 -4 c -4 -12 c 0 -15 c 4 -12 1130 1715 l 11 -7 c 19 -4 c 11 0 c 19 4 c 12 7 c 3 12 c
0 7 c -3 12 c -12 7 c -19 4 c -11 0 c -19 -4 c -11 -7 c -4 -12 c 0 -7 c 4 -4 1202 1775 l 3 4 c -3 4 c -4 -4 c -4 7 1145 1817 l
-11 12 c 79 0 c 4 -11 1130 1900 l 7 -4 c 8 0 c 7 4 c 4 7 c 4 15 c 4 12 c 7 7 c 8 4 c 11 0 c 8 -4 c 4 -4 c 3 -11 c 0 -15 c -3 -11 c
-4 -4 c -8 -4 c -11 0 c -8 4 c -7 7 c -4 12 c -4 15 c -4 7 c -7 4 c -8 0 c -7 -4 c -4 -11 c 0 -15 c -7 -4 1141 2006 l -4 -11 c
0 -8 c 4 -11 c 11 -8 c 19 -4 c 19 0 c 15 4 c 8 8 c 3 11 c 0 4 c -3 11 c -8 8 c -11 3 c -4 0 c -11 -3 c -8 -8 c -4 -11 c 0 -4 c
4 -11 c 8 -8 c 11 -4 c 0 -249 1443 1663 l 53 -38 1399 1773 l 0 57 c 80 0 1399 1773 l 11 -4 1426 1860 l 8 -8 c 3 -11 c 0 -4 c
-3 -11 c -8 -8 c -11 -3 c -4 0 c -11 3 c -8 8 c -4 11 c 0 4 c 4 11 c 8 8 c 15 4 c 19 0 c 18 -4 c 12 -8 c 4 -11 c 0 -8 c -4 -11 c
-8 -4 c 4 -11 1399 1905 l 8 -4 c 7 0 c 8 4 c 3 7 c 4 15 c 4 12 c 8 7 c 7 4 c 11 0 c 8 -4 c 4 -4 c 4 -11 c 0 -15 c -4 -11 c -4 -4 c
-8 -4 c -11 0 c -7 4 c -8 7 c -4 12 c -4 15 c -3 7 c -8 4 c -7 0 c -8 -4 c -4 -11 c 0 -15 c -4 0 1418 1965 l -7 4 c -4 4 c -4 8 c
0 15 c 4 7 c 4 4 c 7 4 c 8 0 c 7 -4 c 12 -7 c 38 -38 c 0 53 c 4 -4 1471 2045 l 4 4 c -4 4 c -4 -4 c 53 -38 1399 2113 l 0 57 c
80 0 1399 2113 l 4 -12 1399 2170 l 8 -4 c 7 0 c 8 4 c 3 8 c 4 15 c 4 11 c 8 8 c 7 4 c 11 0 c 8 -4 c 4 -4 c 4 -11 c 0 -15 c -4 -12 c
-4 -4 c -8 -3 c -11 0 c -7 3 c -8 8 c -4 11 c -4 15 c -3 8 c -8 4 c -7 0 c -8 -4 c -4 -11 c 0 -15 c 4 -11 1399 2245 l 8 -4 c 7 0 c
8 4 c 3 7 c 4 16 c 4 11 c 8 7 c 7 4 c 11 0 c 8 -4 c 4 -3 c 4 -12 c 0 -15 c -4 -11 c -4 -4 c -8 -4 c -11 0 c -7 4 c -8 8 c -4 11 c
-4 15 c -3 8 c -8 3 c -7 0 c -8 -3 c -4 -12 c 0 -15 c 0 -250 1782 2446 l 53 -37 1738 2555 l 0 56 c 79 0 1738 2555 l
11 -3 1765 2642 l 7 -8 c 4 -11 c 0 -4 c -4 -11 c -7 -8 c -11 -4 c -4 0 c -12 4 c -7 8 c -4 11 c 0 4 c 4 11 c 7 8 c 16 3 c 18 0 c
19 -3 c 12 -8 c 3 -11 c 0 -8 c -3 -11 c -8 -4 c 4 -12 1738 2688 l 7 -3 c 8 0 c 8 3 c 3 8 c 4 15 c 4 11 c 7 8 c 8 4 c 11 0 c 8 -4 c
4 -4 c 3 -11 c 0 -15 c -3 -12 c -4 -3 c -8 -4 c -11 0 c -8 4 c -7 7 c -4 12 c -4 15 c -3 7 c -8 4 c -8 0 c -7 -4 c -4 -11 c 0 -15 c
0 -38 1738 2790 l 34 -4 c -4 4 c -3 11 c 0 12 c 3 11 c 8 8 c 11 3 c 8 0 c 11 -3 c 8 -8 c 3 -11 c 0 -12 c -3 -11 c -4 -4 c -8 -4 c
4 -4 1810 2828 l 3 4 c -3 3 c -4 -3 c 0 42 1738 2865 l 30 -23 c 0 12 c 4 7 c 4 4 c 11 4 c 8 0 c 11 -4 c 8 -8 c 3 -11 c 0 -11 c
-3 -12 c -4 -3 c -8 -4 c 79 -37 1738 2986 l 0 53 1738 2933 l 0 41 1738 3017 l 30 -23 c 0 12 c 4 7 c 4 4 c 11 4 c 8 0 c 11 -4 c
8 -7 c 3 -12 c 0 -11 c -3 -11 c -4 -4 c -8 -4 c 0 -249 1991 1555 l 53 -38 1947 1665 l 0 57 c 80 0 1947 1665 l 11 -4 1974 1752 l
8 -7 c 3 -12 c 0 -3 c -3 -12 c -8 -7 c -11 -4 c -4 0 c -11 4 c -8 7 c -4 12 c 0 3 c 4 12 c 8 7 c 15 4 c 19 0 c 18 -4 c 12 -7 c
4 -12 c 0 -7 c -4 -12 c -8 -3 c 4 -11 1947 1797 l 8 -4 c 7 0 c 8 4 c 3 8 c 4 15 c 4 11 c 8 8 c 7 3 c 11 0 c 8 -3 c 4 -4 c 4 -12 c
0 -15 c -4 -11 c -4 -4 c -8 -4 c -11 0 c -7 4 c -8 8 c -4 11 c -4 15 c -3 8 c -8 4 c -7 0 c -8 -4 c -4 -12 c 0 -15 c
80 -38 1947 1907 l 0 53 1947 1854 l 4 -4 2019 1937 l 4 4 c -4 4 c -4 -4 c -3 7 1962 1979 l -12 12 c 80 0 c 53 -38 1947 2081 l 0 57 c
80 0 1947 2081 l 80 -38 1947 2172 l 0 53 1947 2119 l 0 -250 2246 1609 l 53 -38 2203 1718 l 0 57 c 79 0 2203 1718 l 12 -4 2229 1805 l
7 -7 c 4 -12 c 0 -3 c -4 -12 c -7 -7 c -12 -4 c -3 0 c -12 4 c -7 7 c -4 12 c 0 3 c 4 12 c 7 7 c 15 4 c 19 0 c 19 -4 c 11 -7 c
4 -12 c 0 -7 c -4 -11 c -7 -4 c 4 -11 2203 1850 l 7 -4 c 8 0 c 7 4 c 4 8 c 4 15 c 4 11 c 7 8 c 8 3 c 11 0 c 8 -3 c 3 -4 c 4 -11 c
0 -16 c -4 -11 c -3 -4 c -8 -3 c -11 0 c -8 3 c -7 8 c -4 11 c -4 15 c -4 8 c -7 4 c -8 0 c -7 -4 c -4 -11 c 0 -16 c
12 -3 2229 1956 l 7 -8 c 4 -11 c 0 -4 c -4 -12 c -7 -7 c -12 -4 c -3 0 c -12 4 c -7 7 c -4 12 c 0 4 c 4 11 c 7 8 c 15 3 c 19 0 c
19 -3 c 11 -8 c 4 -11 c 0 -8 c -4 -11 c -7 -4 c 3 -3 2275 1990 l 4 3 c -4 4 c -3 -4 c 0 42 2203 2028 l 30 -23 c 0 11 c 4 8 c 4 4 c
11 3 c 8 0 c 11 -3 c 7 -8 c 4 -11 c 0 -12 c -4 -11 c -3 -4 c -8 -3 c 4 -12 2203 2119 l 11 -7 c 19 -4 c 11 0 c 19 4 c 11 7 c 4 12 c
0 7 c -4 12 c -11 7 c -19 4 c -11 0 c -19 -4 c -11 -7 c -4 -12 c 0 -7 c 12 -4 2229 2221 l 7 -7 c 4 -12 c 0 -4 c -4 -11 c -7 -7 c
-12 -4 c -3 0 c -12 4 c -7 7 c -4 11 c 0 4 c 4 12 c 7 7 c 15 4 c 19 0 c 19 -4 c 11 -7 c 4 -12 c 0 -7 c -4 -12 c -7 -3 c
0 -250 2580 1261 l 53 -38 2537 1370 l 0 57 c 79 0 2537 1370 l 12 -4 2563 1457 l 7 -7 c 4 -11 c 0 -4 c -4 -12 c -7 -7 c -12 -4 c
-4 0 c -11 4 c -7 7 c -4 12 c 0 4 c 4 11 c 7 7 c 15 4 c 19 0 c 19 -4 c 11 -7 c 4 -11 c 0 -8 c -4 -11 c -7 -4 c 12 -4 2563 1533 l
7 -8 c 4 -11 c 0 -4 c -4 -11 c -7 -8 c -12 -3 c -4 0 c -11 3 c -7 8 c -4 11 c 0 4 c 4 11 c 7 8 c 15 4 c 19 0 c 19 -4 c 11 -8 c
4 -11 c 0 -7 c -4 -12 c -7 -4 c -4 0 2556 1563 l -8 4 c -3 4 c -4 7 c 0 15 c 4 8 c 3 4 c 8 3 c 7 0 c 8 -3 c 11 -8 c 38 -38 c 0 53 c
3 -3 2609 1642 l 4 3 c -4 4 c -3 -4 c -4 8 2552 1684 l -11 11 c 79 0 c -4 0 2556 1752 l -8 4 c -3 4 c -4 7 c 0 15 c 4 8 c 3 4 c
8 3 c 7 0 c 8 -3 c 11 -8 c 38 -38 c 0 53 c -7 -4 2548 1873 l -4 -11 c 0 -8 c 4 -11 c 11 -8 c 19 -3 c 19 0 c 15 3 c 7 8 c 4 11 c
0 4 c -4 11 c -7 8 c -12 4 c -3 0 c -12 -4 c -7 -8 c -4 -11 c 0 -4 c 4 -11 c 7 -8 c 12 -3 c 0 -250 2775 1438 l 53 -38 2731 1548 l
0 56 c 80 0 2731 1548 l 11 -3 2758 1634 l 8 -8 c 4 -11 c 0 -4 c -4 -11 c -8 -8 c -11 -4 c -4 0 c -11 4 c -8 8 c -4 11 c 0 4 c 4 11 c
8 8 c 15 3 c 19 0 c 19 -3 c 11 -8 c 4 -11 c 0 -8 c -4 -11 c -8 -4 c 11 -4 2758 1710 l 8 -7 c 4 -12 c 0 -3 c -4 -12 c -8 -7 c
-11 -4 c -4 0 c -11 4 c -8 7 c -4 12 c 0 3 c 4 12 c 8 7 c 15 4 c 19 0 c 19 -4 c 11 -7 c 4 -12 c 0 -7 c -4 -12 c -8 -3 c
0 42 2731 1744 l 31 -23 c 0 11 c 3 8 c 4 4 c 12 3 c 7 0 c 11 -3 c 8 -8 c 4 -11 c 0 -12 c -4 -11 c -4 -4 c -7 -3 c 4 -4 2803 1820 l
4 4 c -4 3 c -4 -3 c 80 -38 2731 1903 l 0 53 2731 1850 l 53 -38 2731 1963 l 0 57 c 80 0 2731 1963 l 11 -4 2758 2050 l 8 -7 c 4 -11 c
0 -4 c -4 -12 c -8 -7 c -11 -4 c -4 0 c -11 4 c -8 7 c -4 12 c 0 4 c 4 11 c 8 7 c 15 4 c 19 0 c 19 -4 c 11 -7 c 4 -11 c 0 -8 c
-4 -11 c -8 -4 c 0 -250 3777 5295 l 0 -38 3734 5412 l 34 -4 c -4 4 c -4 12 c 0 11 c 4 11 c 7 8 c 12 4 c 7 0 c 12 -4 c 7 -8 c 4 -11 c
0 -11 c -4 -12 c -4 -4 c -7 -3 c 3 -11 3734 5465 l 12 -8 c 19 -4 c 11 0 c 19 4 c 11 8 c 4 11 c 0 8 c -4 11 c -11 7 c -19 4 c -11 0 c
-19 -4 c -12 -7 c -3 -11 c 0 -8 c 3 -12 3734 5541 l 12 -7 c 19 -4 c 11 0 c 19 4 c 11 7 c 4 12 c 0 7 c -4 11 c -11 8 c -19 4 c
-11 0 c -19 -4 c -12 -8 c -3 -11 c 0 -7 c -3 0 3752 5597 l -8 4 c -4 4 c -3 7 c 0 16 c 3 7 c 4 4 c 8 4 c 7 0 c 8 -4 c 11 -8 c
38 -38 c 0 53 c 4 -4 3805 5677 l 4 4 c -4 3 c -4 -3 c 3 -12 3734 5730 l 12 -7 c 19 -4 c 11 0 c 19 4 c 11 7 c 4 12 c 0 7 c -4 11 c
-11 8 c -19 4 c -11 0 c -19 -4 c -12 -8 c -3 -11 c 0 -7 c 11 -4 3760 5832 l 8 -8 c 4 -11 c 0 -4 c -4 -11 c -8 -8 c -11 -4 c -4 0 c
-11 4 c -8 8 c -3 11 c 0 4 c 3 11 c 8 8 c 15 4 c 19 0 c 19 -4 c 11 -8 c 4 -11 c 0 -8 c -4 -11 c -7 -4 c 79 -38 3734 5911 l
0 53 3734 5858 l 0 -250 3959 1419 l 0 -38 3915 1536 l 34 -4 c -4 4 c -3 11 c 0 12 c 3 11 c 8 8 c 11 3 c 8 0 c 11 -3 c 8 -8 c 4 -11 c
0 -12 c -4 -11 c -4 -4 c -8 -3 c 4 -12 3915 1589 l 11 -7 c 19 -4 c 11 0 c 19 4 c 12 7 c 4 12 c 0 7 c -4 12 c -12 7 c -19 4 c -11 0 c
-19 -4 c -11 -7 c -4 -12 c 0 -7 c 4 -11 3915 1664 l 11 -7 c 19 -4 c 11 0 c 19 4 c 12 7 c 4 11 c 0 8 c -4 11 c -12 8 c -19 4 c
-11 0 c -19 -4 c -11 -8 c -4 -11 c 0 -8 c 0 41 3915 1725 l 30 -22 c 0 11 c 4 8 c 4 3 c 11 4 c 8 0 c 11 -4 c 8 -7 c 4 -11 c 0 -12 c
-4 -11 c -4 -4 c -8 -4 c 4 -3 3987 1800 l 4 3 c -4 4 c -4 -4 c 0 -38 3915 1876 l 34 -4 c -4 4 c -3 12 c 0 11 c 3 11 c 8 8 c 11 4 c
8 0 c 11 -4 c 8 -8 c 4 -11 c 0 -11 c -4 -12 c -4 -4 c -8 -3 c 11 -3 3942 1955 l 7 -8 c 4 -11 c 0 -4 c -4 -11 c -7 -8 c -11 -4 c
-4 0 c -12 4 c -7 8 c -4 11 c 0 4 c 4 11 c 7 8 c 16 3 c 18 0 c 19 -3 c 12 -8 c 4 -11 c 0 -8 c -4 -11 c -8 -4 c 4 -12 3915 2001 l
7 -3 c 8 0 c 8 3 c 3 8 c 4 15 c 4 11 c 7 8 c 8 4 c 11 0 c 8 -4 c 4 -4 c 4 -11 c 0 -15 c -4 -12 c -4 -3 c -8 -4 c -11 0 c -8 4 c
-7 7 c -4 12 c -4 15 c -3 7 c -8 4 c -8 0 c -7 -4 c -4 -11 c 0 -15 c 0 -250 4659 3919 l 0 -38 4615 4036 l 34 -4 c -4 4 c -3 11 c
0 12 c 3 11 c 8 8 c 11 3 c 8 0 c 11 -3 c 8 -8 c 4 -11 c 0 -12 c -4 -11 c -4 -4 c -8 -3 c 4 -12 4615 4089 l 11 -7 c 19 -4 c 12 0 c
18 4 c 12 7 c 4 12 c 0 7 c -4 12 c -12 7 c -18 4 c -12 0 c -19 -4 c -11 -7 c -4 -12 c 0 -7 c 4 -11 4615 4164 l 11 -7 c 19 -4 c
12 0 c 18 4 c 12 7 c 4 11 c 0 8 c -4 11 c -12 8 c -18 4 c -12 0 c -19 -4 c -11 -8 c -4 -11 c 0 -8 c 11 -3 4642 4266 l 8 -8 c 3 -11 c
0 -4 c -3 -11 c -8 -8 c -11 -4 c -4 0 c -12 4 c -7 8 c -4 11 c 0 4 c 4 11 c 7 8 c 16 3 c 19 0 c 18 -3 c 12 -8 c 4 -11 c 0 -8 c
-4 -11 c -8 -4 c 4 -3 4687 4300 l 4 3 c -4 4 c -4 -4 c 0 42 4615 4338 l 30 -23 c 0 12 c 4 7 c 4 4 c 11 4 c 8 0 c 11 -4 c 8 -8 c
4 -11 c 0 -11 c -4 -12 c -4 -4 c -8 -3 c 0 41 4615 4414 l 30 -22 c 0 11 c 4 8 c 4 3 c 11 4 c 8 0 c 11 -4 c 8 -7 c 4 -11 c 0 -12 c
-4 -11 c -4 -4 c -8 -4 c 53 -38 4615 4520 l 0 57 c 80 0 4615 4520 l 0 -250 5467 2626 l 0 -38 5424 2743 l 34 -4 c -4 4 c -4 12 c
0 11 c 4 11 c 7 8 c 12 4 c 7 0 c 12 -4 c 7 -8 c 4 -11 c 0 -11 c -4 -12 c -4 -4 c -7 -3 c 3 -11 5424 2796 l 12 -8 c 19 -4 c 11 0 c
19 4 c 11 8 c 4 11 c 0 7 c -4 12 c -11 7 c -19 4 c -11 0 c -19 -4 c -12 -7 c -3 -12 c 0 -7 c -4 8 5439 2860 l -11 11 c 79 0 c
0 -38 5424 2970 l 34 -4 c -4 4 c -4 11 c 0 12 c 4 11 c 7 8 c 12 3 c 7 0 c 12 -3 c 7 -8 c 4 -11 c 0 -12 c -4 -11 c -4 -4 c -7 -4 c
4 -4 5495 3008 l 4 4 c -4 3 c -4 -3 c 3 -12 5424 3057 l 8 -3 c 7 0 c 8 3 c 4 8 c 4 15 c 3 11 c 8 8 c 7 4 c 12 0 c 7 -4 c 4 -4 c
4 -11 c 0 -15 c -4 -12 c -4 -3 c -7 -4 c -12 0 c -7 4 c -8 7 c -3 11 c -4 16 c -4 7 c -8 4 c -7 0 c -8 -4 c -3 -11 c 0 -15 c
3 -11 5424 3132 l 8 -4 c 7 0 c 8 4 c 4 7 c 4 16 c 3 11 c 8 8 c 7 3 c 12 0 c 7 -3 c 4 -4 c 4 -12 c 0 -15 c -4 -11 c -4 -4 c -7 -4 c
-12 0 c -7 4 c -8 8 c -3 11 c -4 15 c -4 8 c -8 4 c -7 0 c -8 -4 c -3 -12 c 0 -15 c 11 -4 5450 3238 l 8 -7 c 4 -12 c 0 -3 c -4 -12 c
-8 -7 c -11 -4 c -4 0 c -11 4 c -8 7 c -3 12 c 0 3 c 3 12 c 8 7 c 15 4 c 19 0 c 19 -4 c 11 -7 c 4 -12 c 0 -7 c -4 -11 c -7 -4 c
0 -249 5955 2479 l 0 -37 5912 2596 l 34 -4 c -4 4 c -4 11 c 0 11 c 4 12 c 7 7 c 12 4 c 7 0 c 12 -4 c 7 -7 c 4 -12 c 0 -11 c -4 -11 c
-4 -4 c -7 -4 c 3 -11 5912 2649 l 12 -8 c 19 -3 c 11 0 c 19 3 c 11 8 c 4 11 c 0 8 c -4 11 c -11 8 c -19 4 c -11 0 c -19 -4 c
-12 -8 c -3 -11 c 0 -8 c -4 7 5927 2714 l -11 11 c 79 0 c 11 -4 5938 2827 l 8 -7 c 4 -12 c 0 -4 c -4 -11 c -8 -7 c -11 -4 c -4 0 c
-11 4 c -8 7 c -3 11 c 0 4 c 3 12 c 8 7 c 15 4 c 19 0 c 19 -4 c 11 -7 c 4 -12 c 0 -7 c -4 -12 c -7 -3 c 4 -4 5983 2861 l 4 4 c
-4 4 c -4 -4 c 3 -11 5912 2910 l 8 -4 c 8 0 c 7 4 c 4 7 c 4 15 c 3 12 c 8 7 c 8 4 c 11 0 c 7 -4 c 4 -3 c 4 -12 c 0 -15 c -4 -11 c
-4 -4 c -7 -4 c -11 0 c -8 4 c -8 8 c -3 11 c -4 15 c -4 8 c -7 3 c -8 0 c -8 -3 c -3 -12 c 0 -15 c 3 -11 5912 2989 l 12 -7 c
19 -4 c 11 0 c 19 4 c 11 7 c 4 11 c 0 8 c -4 11 c -11 8 c -19 4 c -11 0 c -19 -4 c -12 -8 c -3 -11 c 0 -8 c -8 -4 5923 3092 l
-3 -12 c 0 -7 c 3 -12 c 12 -7 c 19 -4 c 19 0 c 15 4 c 7 7 c 4 12 c 0 4 c -4 11 c -7 8 c -12 3 c -3 0 c -12 -3 c -7 -8 c -4 -11 c
0 -4 c 4 -12 c 7 -7 c 12 -4 c 0 -249 6231 1460 l 0 -37 6188 1577 l 34 -4 c -4 4 c -4 11 c 0 11 c 4 12 c 8 7 c 11 4 c 7 0 c 12 -4 c
7 -7 c 4 -12 c 0 -11 c -4 -11 c -3 -4 c -8 -4 c 4 -11 6188 1630 l 11 -7 c 19 -4 c 11 0 c 19 4 c 11 7 c 4 11 c 0 8 c -4 11 c -11 8 c
-19 4 c -11 0 c -19 -4 c -11 -8 c -4 -11 c 0 -8 c -4 0 6207 1687 l -8 4 c -3 4 c -4 7 c 0 15 c 4 8 c 3 4 c 8 3 c 7 0 c 8 -3 c
11 -8 c 38 -38 c 0 53 c -4 0 6207 1763 l -8 3 c -3 4 c -4 8 c 0 15 c 4 7 c 3 4 c 8 4 c 7 0 c 8 -4 c 11 -7 c 38 -38 c 0 53 c
3 -4 6260 1842 l 4 4 c -4 4 c -3 -4 c 4 -11 6188 1895 l 11 -8 c 19 -4 c 11 0 c 19 4 c 11 8 c 4 11 c 0 8 c -4 11 c -11 7 c -19 4 c
-11 0 c -19 -4 c -11 -7 c -4 -11 c 0 -8 c 4 -12 6188 1971 l 11 -7 c 19 -4 c 11 0 c 19 4 c 11 7 c 4 12 c 0 7 c -4 11 c -11 8 c
-19 4 c -11 0 c -19 -4 c -11 -8 c -4 -11 c 0 -7 c 0 -38 6188 2069 l 34 -4 c -4 4 c -4 11 c 0 12 c 4 11 c 8 8 c 11 3 c 7 0 c 12 -3 c
7 -8 c 4 -11 c 0 -12 c -4 -11 c -3 -4 c -8 -4 c 0 -249 6445 1327 l 0 -38 6402 1445 l 34 -4 c -4 4 c -4 11 c 0 12 c 4 11 c 8 7 c
11 4 c 7 0 c 12 -4 c 7 -7 c 4 -11 c 0 -12 c -4 -11 c -3 -4 c -8 -4 c 3 -12 6402 1498 l 12 -7 c 19 -4 c 11 0 c 19 4 c 11 7 c 4 12 c
0 7 c -4 11 c -11 8 c -19 4 c -11 0 c -19 -4 c -12 -8 c -3 -11 c 0 -7 c -4 0 6421 1554 l -8 4 c -4 4 c -3 7 c 0 15 c 3 8 c 4 4 c
8 4 c 7 0 c 8 -4 c 11 -8 c 38 -38 c 0 53 c 0 41 6402 1634 l 30 -22 c 0 11 c 4 7 c 4 4 c 11 4 c 7 0 c 12 -4 c 7 -7 c 4 -12 c 0 -11 c
-4 -11 c -3 -4 c -8 -4 c 3 -4 6474 1709 l 4 4 c -4 4 c -3 -4 c 79 -37 6402 1792 l 0 53 6402 1739 l 3 -12 6402 1838 l 12 -7 c 19 -4 c
11 0 c 19 4 c 11 7 c 4 12 c 0 7 c -4 12 c -11 7 c -19 4 c -11 0 c -19 -4 c -12 -7 c -3 -12 c 0 -7 c 3 -12 6402 1910 l 8 -4 c 8 0 c
7 4 c 4 8 c 4 15 c 4 11 c 7 8 c 8 4 c 11 0 c 8 -4 c 3 -4 c 4 -11 c 0 -15 c -4 -12 c -3 -4 c -8 -3 c -11 0 c -8 3 c -7 8 c -4 11 c
-4 15 c -4 8 c -7 4 c -8 0 c -8 -4 c -3 -11 c 0 -15 c 0 -249 7069 6549 l 0 -38 7025 6667 l 34 -4 c -4 4 c -3 11 c 0 11 c 3 12 c
8 7 c 11 4 c 8 0 c 11 -4 c 8 -7 c 4 -12 c 0 -11 c -4 -11 c -4 -4 c -8 -4 c 4 -11 7025 6719 l 11 -7 c 19 -4 c 12 0 c 18 4 c 12 7 c
4 11 c 0 8 c -4 11 c -12 8 c -18 4 c -12 0 c -19 -4 c -11 -8 c -4 -11 c 0 -8 c -4 0 7044 6776 l -7 4 c -4 4 c -4 7 c 0 15 c 4 8 c
4 4 c 7 3 c 8 0 c 7 -3 c 12 -8 c 38 -38 c 0 53 c 4 -12 7025 6867 l 8 -3 c 7 0 c 8 3 c 3 8 c 4 15 c 4 12 c 8 7 c 7 4 c 11 0 c 8 -4 c
4 -4 c 4 -11 c 0 -15 c -4 -12 c -4 -3 c -8 -4 c -11 0 c -7 4 c -8 7 c -4 12 c -4 15 c -3 7 c -8 4 c -7 0 c -8 -4 c -4 -11 c 0 -15 c
4 -4 7097 6931 l 4 4 c -4 4 c -4 -4 c -8 -3 7037 7010 l -4 -12 c 0 -7 c 4 -12 c 11 -7 c 19 -4 c 19 0 c 15 4 c 8 7 c 4 12 c 0 4 c
-4 11 c -8 7 c -11 4 c -4 0 c -11 -4 c -8 -7 c -4 -11 c 0 -4 c 4 -12 c 8 -7 c 11 -4 c 0 -38 7025 7082 l 34 -3 c -4 3 c -3 12 c
0 11 c 3 11 c 8 8 c 11 4 c 8 0 c 11 -4 c 8 -8 c 4 -11 c 0 -11 c -4 -12 c -4 -3 c -8 -4 c -8 -4 7037 7162 l -4 -11 c 0 -8 c 4 -11 c
11 -8 c 19 -4 c 19 0 c 15 4 c 8 8 c 4 11 c 0 4 c -4 11 c -8 8 c -11 3 c -4 0 c -11 -3 c -8 -8 c -4 -11 c 0 -4 c 4 -11 c 8 -8 c
11 -4 c 0 -249 7230 1993 l 0 -37 7187 2110 l 34 -4 c -4 4 c -4 11 c 0 11 c 4 12 c 8 7 c 11 4 c 8 0 c 11 -4 c 7 -7 c 4 -12 c 0 -11 c
-4 -11 c -3 -4 c -8 -4 c 4 -11 7187 2163 l 11 -8 c 19 -3 c 11 0 c 19 3 c 11 8 c 4 11 c 0 8 c -4 11 c -11 8 c -19 4 c -11 0 c
-19 -4 c -11 -8 c -4 -11 c 0 -8 c -4 0 7206 2220 l -8 4 c -3 4 c -4 7 c 0 15 c 4 8 c 3 4 c 8 3 c 7 0 c 8 -3 c 11 -8 c 38 -38 c
0 53 c 12 -4 7213 2341 l 7 -7 c 4 -12 c 0 -3 c -4 -12 c -7 -7 c -12 -4 c -4 0 c -11 4 c -7 7 c -4 12 c 0 3 c 4 12 c 7 7 c 15 4 c
19 0 c 19 -4 c 11 -7 c 4 -12 c 0 -7 c -4 -12 c -7 -3 c 3 -4 7259 2375 l 4 4 c -4 4 c -3 -4 c 4 -11 7187 2424 l 7 -4 c 8 0 c 7 4 c
4 7 c 4 16 c 4 11 c 7 7 c 8 4 c 11 0 c 8 -4 c 3 -3 c 4 -12 c 0 -15 c -4 -11 c -3 -4 c -8 -4 c -11 0 c -8 4 c -7 8 c -4 11 c -4 15 c
-4 8 c -7 3 c -8 0 c -7 -3 c -4 -12 c 0 -15 c 12 -4 7213 2530 l 7 -7 c 4 -12 c 0 -3 c -4 -12 c -7 -7 c -12 -4 c -4 0 c -11 4 c
-7 7 c -4 12 c 0 3 c 4 12 c 7 7 c 15 4 c 19 0 c 19 -4 c 11 -7 c 4 -12 c 0 -7 c -4 -12 c -7 -3 c -4 0 7206 2560 l -8 4 c -3 4 c
-4 7 c 0 15 c 4 8 c 3 4 c 8 4 c 7 0 c 8 -4 c 11 -8 c 38 -38 c 0 53 c 0 -250 7928 1269 l 0 -38 7884 1386 l 34 -4 c -4 4 c -4 12 c
0 11 c 4 11 c 8 8 c 11 4 c 8 0 c 11 -4 c 8 -8 c 3 -11 c 0 -11 c -3 -12 c -4 -4 c -8 -3 c 4 -11 7884 1439 l 11 -8 c 19 -4 c 11 0 c
19 4 c 12 8 c 3 11 c 0 7 c -3 12 c -12 7 c -19 4 c -11 0 c -19 -4 c -11 -7 c -4 -12 c 0 -7 c 0 42 7884 1499 l 30 -23 c 0 12 c 4 7 c
4 4 c 11 4 c 8 0 c 11 -4 c 8 -8 c 3 -11 c 0 -11 c -3 -12 c -4 -3 c -8 -4 c 0 -38 7884 1613 l 34 -4 c -4 4 c -4 11 c 0 12 c 4 11 c
8 8 c 11 3 c 8 0 c 11 -3 c 8 -8 c 3 -11 c 0 -12 c -3 -11 c -4 -4 c -8 -4 c 4 -4 7956 1651 l 3 4 c -3 3 c -4 -3 c 0 42 7884 1688 l
30 -23 c 0 12 c 4 7 c 4 4 c 11 4 c 8 0 c 11 -4 c 8 -8 c 3 -11 c 0 -11 c -3 -12 c -4 -3 c -8 -4 c 0 41 7884 1764 l 30 -22 c 0 11 c
4 8 c 4 3 c 11 4 c 8 0 c 11 -4 c 8 -7 c 3 -11 c 0 -12 c -3 -11 c -4 -4 c -8 -4 c 79 -38 7884 1885 l 0 53 7884 1832 l
0 -250 8316 1266 l 0 -38 8272 1383 l 34 -4 c -3 4 c -4 11 c 0 12 c 4 11 c 7 8 c 11 3 c 8 0 c 11 -3 c 8 -8 c 4 -11 c 0 -12 c -4 -11 c
-4 -4 c -7 -4 c 4 -12 8272 1436 l 11 -7 c 19 -4 c 12 0 c 19 4 c 11 7 c 4 12 c 0 7 c -4 12 c -11 7 c -19 4 c -12 0 c -19 -4 c
-11 -7 c -4 -12 c 0 -7 c 0 42 8272 1496 l 31 -23 c 0 11 c 3 8 c 4 4 c 11 4 c 8 0 c 11 -4 c 8 -8 c 4 -11 c 0 -11 c -4 -12 c -4 -4 c
-7 -3 c 4 -11 8272 1583 l 8 -4 c 7 0 c 8 4 c 4 7 c 3 15 c 4 12 c 8 7 c 7 4 c 12 0 c 7 -4 c 4 -3 c 4 -12 c 0 -15 c -4 -11 c -4 -4 c
-7 -4 c -12 0 c -7 4 c -8 8 c -4 11 c -3 15 c -4 8 c -8 3 c -7 0 c -8 -3 c -4 -12 c 0 -15 c 4 -3 8344 1647 l 4 3 c -4 4 c -4 -4 c
0 42 8272 1685 l 31 -23 c 0 11 c 3 8 c 4 4 c 11 3 c 8 0 c 11 -3 c 8 -8 c 4 -11 c 0 -12 c -4 -11 c -4 -4 c -7 -3 c 4 -11 8272 1776 l
11 -8 c 19 -4 c 12 0 c 19 4 c 11 8 c 4 11 c 0 7 c -4 12 c -11 7 c -19 4 c -12 0 c -19 -4 c -11 -7 c -4 -12 c 0 -7 c -4 0 8291 1833 l
-7 3 c -4 4 c -4 8 c 0 15 c 4 7 c 4 4 c 7 4 c 8 0 c 8 -4 c 11 -7 c 38 -38 c 0 53 c 0 -250 8436 4169 l 0 -38 8393 4286 l 34 -4 c
-4 4 c -4 11 c 0 12 c 4 11 c 8 8 c 11 3 c 8 0 c 11 -3 c 7 -8 c 4 -11 c 0 -12 c -4 -11 c -3 -4 c -8 -3 c 4 -12 8393 4339 l 11 -7 c
19 -4 c 11 0 c 19 4 c 11 7 c 4 12 c 0 7 c -4 12 c -11 7 c -19 4 c -11 0 c -19 -4 c -11 -7 c -4 -12 c 0 -7 c 0 42 8393 4399 l
30 -23 c 0 12 c 4 7 c 4 4 c 11 4 c 8 0 c 11 -4 c 7 -8 c 4 -11 c 0 -11 c -4 -12 c -3 -4 c -8 -3 c 12 -3 8419 4516 l 7 -8 c 4 -11 c
0 -4 c -4 -11 c -7 -8 c -12 -4 c -3 0 c -12 4 c -7 8 c -4 11 c 0 4 c 4 11 c 7 8 c 15 3 c 19 0 c 19 -3 c 11 -8 c 4 -11 c 0 -8 c
-4 -11 c -7 -4 c 3 -3 8465 4550 l 4 3 c -4 4 c -3 -4 c -4 0 8412 4584 l -8 4 c -3 4 c -4 8 c 0 15 c 4 7 c 3 4 c 8 4 c 8 0 c 7 -4 c
11 -8 c 38 -37 c 0 53 c 0 41 8393 4664 l 30 -22 c 0 11 c 4 8 c 4 3 c 11 4 c 8 0 c 11 -4 c 7 -7 c 4 -11 c 0 -12 c -4 -11 c -3 -4 c
-8 -4 c 4 -12 8393 4755 l 11 -7 c 19 -4 c 11 0 c 19 4 c 11 7 c 4 12 c 0 7 c -4 11 c -11 8 c -19 4 c -11 0 c -19 -4 c -11 -8 c
-4 -11 c 0 -7 c 0 -250 8684 1314 l 0 -38 8641 1431 l 34 -3 c -4 3 c -4 12 c 0 11 c 4 11 c 8 8 c 11 4 c 7 0 c 12 -4 c 7 -8 c 4 -11 c
0 -11 c -4 -12 c -3 -3 c -8 -4 c 4 -11 8641 1484 l 11 -8 c 19 -4 c 11 0 c 19 4 c 11 8 c 4 11 c 0 8 c -4 11 c -11 7 c -19 4 c -11 0 c
-19 -4 c -11 -7 c -4 -11 c 0 -8 c 53 -38 8641 1575 l 0 57 c 79 0 8641 1575 l -4 7 8656 1624 l -11 12 c 79 0 c 3 -4 8713 1696 l 4 4 c
-4 3 c -3 -3 c -4 8 8656 1737 l -11 11 c 79 0 c -4 0 8660 1805 l -8 4 c -3 4 c -4 7 c 0 15 c 4 8 c 3 4 c 8 4 c 7 0 c 8 -4 c 11 -8 c
38 -38 c 0 53 c -4 0 8660 1881 l -8 4 c -3 3 c -4 8 c 0 15 c 4 8 c 3 3 c 8 4 c 7 0 c 8 -4 c 11 -7 c 38 -38 c 0 53 c
0 -250 8747 1283 l 0 -38 8703 1400 l 34 -4 c -4 4 c -3 11 c 0 12 c 3 11 c 8 7 c 11 4 c 8 0 c 11 -4 c 8 -7 c 4 -11 c 0 -12 c -4 -11 c
-4 -4 c -8 -4 c 4 -12 8703 1453 l 11 -7 c 19 -4 c 12 0 c 18 4 c 12 7 c 4 12 c 0 7 c -4 11 c -12 8 c -18 4 c -12 0 c -19 -4 c
-11 -8 c -4 -11 c 0 -7 c 53 -37 8703 1543 l 0 56 c 80 0 8703 1543 l -3 8 8718 1592 l -12 11 c 80 0 c 4 -4 8775 1664 l 4 4 c -4 4 c
-4 -4 c -8 -4 8715 1744 l -4 -11 c 0 -8 c 4 -11 c 11 -8 c 19 -4 c 19 0 c 15 4 c 8 8 c 4 11 c 0 4 c -4 11 c -8 8 c -11 3 c -4 0 c
-11 -3 c -8 -8 c -4 -11 c 0 -4 c 4 -11 c 8 -8 c 11 -4 c 4 -12 8703 1793 l 11 -7 c 19 -4 c 12 0 c 18 4 c 12 7 c 4 12 c 0 7 c -4 12 c
-12 7 c -18 4 c -12 0 c -19 -4 c -11 -7 c -4 -12 c 0 -7 c 4 -11 8703 1868 l 11 -8 c 19 -3 c 12 0 c 18 3 c 12 8 c 4 11 c 0 8 c
-4 11 c -12 8 c -18 4 c -12 0 c -19 -4 c -11 -8 c -4 -11 c 0 -8 c 0 -250 9158 6147 l 0 -38 9114 6264 l 34 -4 c -4 4 c -3 11 c 0 12 c
3 11 c 8 8 c 11 3 c 8 0 c 11 -3 c 8 -8 c 3 -11 c 0 -12 c -3 -11 c -4 -4 c -8 -4 c 4 -12 9114 6317 l 11 -7 c 19 -4 c 11 0 c 19 4 c
12 7 c 3 12 c 0 7 c -3 12 c -12 7 c -19 4 c -11 0 c -19 -4 c -11 -7 c -4 -12 c 0 -7 c 53 -37 9114 6407 l 0 56 c 79 0 9114 6407 l
53 -38 9114 6483 l 0 57 c 79 0 9114 6483 l 4 -3 9186 6528 l 3 3 c -3 4 c -4 -4 c 79 -38 9114 6612 l 0 53 9114 6559 l
-4 0 9133 6638 l -7 4 c -4 4 c -4 7 c 0 15 c 4 8 c 4 4 c 7 3 c 8 0 c 7 -3 c 12 -8 c 37 -38 c 0 53 c 4 -12 9114 6733 l 11 -7 c
19 -4 c 11 0 c 19 4 c 12 7 c 3 12 c 0 7 c -3 11 c -12 8 c -19 4 c -11 0 c -19 -4 c -11 -8 c -4 -11 c 0 -7 c 0 -250 9227 1682 l
0 -38 9184 1799 l 34 -4 c -4 4 c -4 12 c 0 11 c 4 11 c 8 8 c 11 4 c 7 0 c 12 -4 c 7 -8 c 4 -11 c 0 -11 c -4 -12 c -3 -4 c -8 -3 c
4 -11 9184 1852 l 11 -8 c 19 -4 c 11 0 c 19 4 c 11 8 c 4 11 c 0 8 c -4 11 c -11 7 c -19 4 c -11 0 c -19 -4 c -11 -7 c -4 -11 c
0 -8 c 53 -38 9184 1943 l 0 57 c 79 0 9184 1943 l 0 -38 9184 2026 l 34 -4 c -4 4 c -4 11 c 0 12 c 4 11 c 8 8 c 11 3 c 7 0 c 12 -3 c
7 -8 c 4 -11 c 0 -12 c -4 -11 c -3 -4 c -8 -4 c 3 -4 9256 2064 l 4 4 c -4 3 c -3 -3 c -4 0 9203 2098 l -8 3 c -3 4 c -4 8 c 0 15 c
4 7 c 3 4 c 8 4 c 7 0 c 8 -4 c 11 -7 c 38 -38 c 0 53 c 53 -38 9184 2207 l 0 57 c 79 0 9184 2207 l 4 -11 9184 2264 l 7 -4 c 8 0 c
7 4 c 4 7 c 4 15 c 4 12 c 7 7 c 8 4 c 11 0 c 8 -4 c 3 -4 c 4 -11 c 0 -15 c -4 -11 c -3 -4 c -8 -4 c -11 0 c -8 4 c -7 7 c -4 12 c
-4 15 c -4 7 c -7 4 c -8 0 c -7 -4 c -4 -11 c 0 -15 c 0 -250 9466 2205 l 0 -38 9422 2322 l 34 -4 c -4 4 c -4 11 c 0 12 c 4 11 c
8 8 c 11 3 c 8 0 c 11 -3 c 8 -8 c 3 -11 c 0 -12 c -3 -11 c -4 -4 c -8 -4 c 4 -12 9422 2375 l 11 -7 c 19 -4 c 11 0 c 19 4 c 12 7 c
3 12 c 0 7 c -3 12 c -12 7 c -19 4 c -11 0 c -19 -4 c -11 -7 c -4 -12 c 0 -7 c 53 -37 9422 2465 l 0 56 c 79 0 9422 2465 l
79 -38 9422 2556 l 0 53 9422 2503 l 4 -3 9494 2586 l 3 3 c -3 4 c -4 -4 c 4 -11 9422 2639 l 11 -8 c 19 -3 c 11 0 c 19 3 c 12 8 c
3 11 c 0 8 c -3 11 c -12 8 c -19 3 c -11 0 c -19 -3 c -11 -8 c -4 -11 c 0 -8 c 53 -38 9422 2730 l 0 57 c 79 0 9422 2730 l
0 42 9422 2775 l 30 -23 c 0 12 c 4 7 c 4 4 c 11 4 c 8 0 c 11 -4 c 8 -8 c 3 -11 c 0 -11 c -3 -12 c -4 -3 c -8 -4 c
showpage PGPLOT restore
 
%%Trailer
%%DocumentFonts: 
%%Pages: 1
%%EOF
