%!PS-Adobe-3.0 EPSF-3.0
%%For: tom
%%Title: PGPLOT PostScript plot
%%Creator: PGPLOT
%%CreationDate:  9-Nov-1994 13:58
%%BoundingBox: 25 18 587 774
%%DocumentFonts: (atend)
%%LanguageLevel: 1
%%Orientation: Landscape
%%Pages: (atend)
%%EndComments
%%BeginProlog
/l {moveto rlineto currentpoint stroke moveto} bind def
/c {rlineto currentpoint stroke moveto} bind def
/d {moveto 0 0 rlineto currentpoint stroke moveto} bind def
/SLW {5 mul setlinewidth} bind def
/SCF /pop load def
/BP {newpath moveto} bind def
/LP /rlineto load def
/EP {rlineto closepath eofill} bind def
/MB {gsave translate MFAC dup scale 1 setlinewidth 2 setlinecap 0 setlinejoin newpath} bind def
/ME /grestore load def
/C {0 360 arc stroke} bind def
/FC {0 360 arc fill} bind def
%%EndProlog
 
%%Page: 1 1
%%BeginPageSetup
/PGPLOT save def
0.072 0.072 scale
8150 250 translate 90 rotate
1 setlinejoin 1 setlinecap 1 SLW 1 SCF
%%EndPageSetup
0.00 setgray 1 SLW 8939 0 780 780 l 0 6239 c -8939 0 c 0 -6239 c 0 -45 1116 780 l 0 -45 1554 780 l 0 -45 1991 780 l 0 -45 2428 780 l
0 -90 2865 780 l 0 -45 3302 780 l 0 -45 3739 780 l 0 -45 4176 780 l 0 -45 4613 780 l 0 -90 5051 780 l 0 -45 5488 780 l
0 -45 5925 780 l 0 -45 6362 780 l 0 -45 6799 780 l 0 -90 7236 780 l 0 -45 7673 780 l 0 -45 8110 780 l 0 -45 8548 780 l
0 -45 8985 780 l 0 -90 9422 780 l 0 -45 1116 7064 l 0 -45 1554 7064 l 0 -45 1991 7064 l 0 -45 2428 7064 l 0 -90 2865 7109 l
0 -45 3302 7064 l 0 -45 3739 7064 l 0 -45 4176 7064 l 0 -45 4613 7064 l 0 -90 5051 7109 l 0 -45 5488 7064 l 0 -45 5925 7064 l
0 -45 6362 7064 l 0 -45 6799 7064 l 0 -90 7236 7109 l 0 -45 7673 7064 l 0 -45 8110 7064 l 0 -45 8548 7064 l 0 -45 8985 7064 l
0 -90 9422 7109 l -60 0 2775 672 l -6 -54 c 6 6 c 18 6 c 18 0 c 18 -6 c 12 -12 c 6 -18 c 0 -12 c -6 -18 c -12 -12 c -18 -6 c -18 0 c
-18 6 c -6 6 c -6 12 c -18 -6 2859 672 l -12 -18 c -6 -30 c 0 -18 c 6 -30 c 12 -18 c 18 -6 c 12 0 c 18 6 c 12 18 c 6 30 c 0 18 c
-6 30 c -12 18 c -18 6 c -12 0 c -18 -6 2979 672 l -12 -18 c -6 -30 c 0 -18 c 6 -30 c 12 -18 c 18 -6 c 12 0 c 18 6 c 12 18 c 6 30 c
0 18 c -6 30 c -12 18 c -18 6 c -12 0 c 12 6 4847 648 l 18 18 c 0 -126 c -18 -6 4985 672 l -12 -18 c -6 -30 c 0 -18 c 6 -30 c
12 -18 c 18 -6 c 12 0 c 18 6 c 12 18 c 6 30 c 0 18 c -6 30 c -12 18 c -18 6 c -12 0 c -18 -6 5105 672 l -12 -18 c -6 -30 c 0 -18 c
6 -30 c 12 -18 c 18 -6 c 12 0 c 18 6 c 12 18 c 6 30 c 0 18 c -6 30 c -12 18 c -18 6 c -12 0 c -18 -6 5225 672 l -12 -18 c -6 -30 c
0 -18 c 6 -30 c 12 -18 c 18 -6 c 12 0 c 18 6 c 12 18 c 6 30 c 0 18 c -6 30 c -12 18 c -18 6 c -12 0 c 12 6 7032 648 l 18 18 c
0 -126 c -60 0 7206 672 l -6 -54 c 6 6 c 18 6 c 18 0 c 18 -6 c 12 -12 c 6 -18 c 0 -12 c -6 -18 c -12 -12 c -18 -6 c -18 0 c -18 6 c
-6 6 c -6 12 c -18 -6 7290 672 l -12 -18 c -6 -30 c 0 -18 c 6 -30 c 12 -18 c 18 -6 c 12 0 c 18 6 c 12 18 c 6 30 c 0 18 c -6 30 c
-12 18 c -18 6 c -12 0 c -18 -6 7410 672 l -12 -18 c -6 -30 c 0 -18 c 6 -30 c 12 -18 c 18 -6 c 12 0 c 18 6 c 12 18 c 6 30 c 0 18 c
-6 30 c -12 18 c -18 6 c -12 0 c 0 6 9206 642 l 6 12 c 6 6 c 12 6 c 24 0 c 12 -6 c 6 -6 c 6 -12 c 0 -12 c -6 -12 c -12 -18 c
-60 -60 c 84 0 c -18 -6 9356 672 l -12 -18 c -6 -30 c 0 -18 c 6 -30 c 12 -18 c 18 -6 c 12 0 c 18 6 c 12 18 c 6 30 c 0 18 c -6 30 c
-12 18 c -18 6 c -12 0 c -18 -6 9476 672 l -12 -18 c -6 -30 c 0 -18 c 6 -30 c 12 -18 c 18 -6 c 12 0 c 18 6 c 12 18 c 6 30 c 0 18 c
-6 30 c -12 18 c -18 6 c -12 0 c -18 -6 9596 672 l -12 -18 c -6 -30 c 0 -18 c 6 -30 c 12 -18 c 18 -6 c 12 0 c 18 6 c 12 18 c 6 30 c
0 18 c -6 30 c -12 18 c -18 6 c -12 0 c -90 0 780 780 l -45 0 780 1715 l -90 0 780 2650 l -45 0 780 3585 l -90 0 780 4520 l
-45 0 780 5455 l -90 0 780 6390 l -90 0 9809 780 l -45 0 9764 1715 l -90 0 9809 2650 l -45 0 9764 3585 l -90 0 9809 4520 l
-45 0 9764 5455 l -90 0 9809 6390 l 6 -18 517 774 l 18 -12 c 30 -6 c 18 0 c 30 6 c 18 12 c 6 18 c 0 12 c -6 18 c -18 12 c -30 6 c
-18 0 c -30 -6 c -18 -12 c -6 -18 c 0 -12 c -6 0 547 2392 l -12 6 c -6 6 c -6 12 c 0 24 c 6 12 c 6 6 c 12 6 c 12 0 c 12 -6 c
18 -12 c 60 -60 c 0 84 c 84 84 547 2512 l 84 -84 547 2596 l -6 12 541 2656 l -18 18 c 126 0 c 6 -18 517 2794 l 18 -12 c 30 -6 c
18 0 c 30 6 c 18 12 c 6 18 c 0 12 c -6 18 c -18 12 c -30 6 c -18 0 c -30 -6 c -18 -12 c -6 -18 c 0 -12 c 63 -45 453 2918 l 0 68 c
94 0 453 2918 l 84 -60 517 4316 l 0 90 c 126 0 517 4316 l 84 84 547 4382 l 84 -84 547 4466 l -6 12 541 4526 l -18 18 c 126 0 c
6 -18 517 4664 l 18 -12 c 30 -6 c 18 0 c 30 6 c 18 12 c 6 18 c 0 12 c -6 18 c -18 12 c -30 6 c -18 0 c -30 -6 c -18 -12 c -6 -18 c
0 -12 c 63 -45 453 4788 l 0 68 c 94 0 453 4788 l -12 -6 535 6204 l -6 -18 c 0 -12 c 6 -18 c 18 -12 c 30 -6 c 30 0 c 24 6 c 12 12 c
6 18 c 0 6 c -6 18 c -12 12 c -18 6 c -6 0 c -18 -6 c -12 -12 c -6 -18 c 0 -6 c 6 -18 c 12 -12 c 18 -6 c 84 84 547 6252 l
84 -84 547 6336 l -6 12 541 6396 l -18 18 c 126 0 c 6 -18 517 6534 l 18 -12 c 30 -6 c 18 0 c 30 6 c 18 12 c 6 18 c 0 12 c -6 18 c
-18 12 c -30 6 c -18 0 c -30 -6 c -18 -12 c -6 -18 c 0 -12 c 63 -45 453 6658 l 0 68 c 94 0 453 6658 l
4 0 780 790 l 5 0 c 4 -1 c 4 1 c 5 0 c 4 0 c 4 1 c 5 0 c 4 1 c 5 0 c 4 0 c 4 0 c 5 -1 c 4 2 c 4 9 c 5 17 c 4 7 c 5 -3 c 4 -11 c
4 -15 c 5 -5 c 4 0 c 4 -1 c 5 0 c 4 1 c 5 1 c 4 0 c 4 -1 c 5 0 c 4 0 c 4 -1 c 5 0 c 4 -1 c 5 0 c 4 0 c 4 1 c 5 0 c 4 1 c 4 0 c
5 -1 c 4 -1 c 4 0 c 5 0 c 4 -1 c 5 1 c 4 0 c 4 -1 c 5 1 c 4 2 c 4 4 c 5 1 c 4 0 c 5 -2 c 4 -2 c 4 1 c 5 4 c 4 3 c 4 1 c 5 -1 c
4 -3 c 5 -2 c 4 1 c 4 0 c 5 2 c 4 -1 c 4 -2 c 5 -3 c 4 -1 c 5 1 c 4 2 c 4 0 c 5 2 c 4 5 c 4 28 c 5 94 c 4 46 c 4 11 c 5 -55 c
4 -97 c 5 -33 c 4 0 c 4 13 c 5 56 c 4 -85 c 5 594 1151 780 l 4 -56 c 5 -207 c 4 -232 c 4 -71 c 5 5 c 4 57 c 4 122 c 5 62 c 4 -10 c
5 -87 c 4 -114 c 4 -39 c 5 -4 c 4 -2 c 4 -3 c 5 -3 c 4 0 c 5 0 c 4 0 c 4 -1 c 5 1 c 4 0 c 4 0 c 5 0 c 4 0 c 4 1 c 5 -1 c 4 0 c 5 1 c
4 1 c 4 -1 c 5 0 c 4 -1 c 4 0 c 5 0 c 4 0 c 5 0 c 4 0 c 4 1 c 5 1 c 4 1 c 4 1 c 5 2 c 4 4 c 5 9 c 4 0 c 4 -2 c 5 -9 c 4 -7 c 4 -2 c
5 0 c 4 -1 c 5 0 c 4 0 c 4 0 c 5 1 c 4 0 c 4 0 c 5 1 c 4 0 c 4 2 c 5 8 c 4 37 c 5 31 c 4 6 c 4 -14 c 5 -45 c 4 -16 c 4 -2 c 5 0 c
4 -4 c 5 -4 c 4 0 c 4 -1 c 5 1 c 4 0 c 4 1 c 5 2 c 4 3 c 5 11 c 4 12 c 4 3 c 5 -4 c 4 -13 c 4 13 c 5 50 c 4 18 c 4 -1 c 5 -34 c
4 -45 c 5 -13 c 4 -3 c 4 0 c 5 0 c 4 0 c 4 1 c 5 1 c 4 2 c 5 2 c 4 1 c 4 0 c 5 3 c 4 11 c 4 11 c 5 2 c 4 -1 c 5 -1 c 4 -7 c 4 -1 c
5 -9 c 4 -12 c 4 -3 c 5 -1 c 4 1 c 5 0 c 4 1 c 4 0 c 5 0 c 4 0 c 4 0 c 5 1 c 4 1 c 4 4 c 5 4 c 4 0 c 5 -1 c 4 -6 c 4 -4 c 5 2 c
4 9 c 4 15 c 5 6 c 4 -3 c 5 -15 c 4 -12 c 4 -3 c 5 1 c 4 0 c 4 0 c 5 0 c 4 0 c 5 1 c 4 2 c 4 15 c 5 93 c 4 184 c 4 62 c 5 -21 c
4 -139 c 5 -159 c 4 -35 c 4 -3 c 5 0 c 4 0 c 4 0 c 5 -1 c 4 1 c 4 0 c 5 -1 c 4 1 c 5 -1 c 4 0 c 4 0 c 5 1 c 4 -1 c 4 1 c 5 2 c 4 1 c
5 3 c 4 1 c 4 1 c 5 -2 c 4 -2 c 4 -3 c 5 -1 c 4 0 c 5 0 c 4 1 c 4 0 c 5 1 c 4 2 c 4 6 c 5 2 c 4 -1 c 5 -4 c 4 -4 c 4 -1 c 5 0 c
4 -1 c 4 -1 c 5 0 c 4 0 c 4 0 c 5 1 c 4 1 c 5 6 c 4 7 c 4 2 c 5 -2 c 4 -8 c 4 -4 c 5 -2 c 4 2 c 5 18 c 4 91 c 4 85 c 5 34 c 4 11 c
4 -97 c 5 -59 c 4 -42 c 5 -34 c 4 -8 c 4 -1 c 5 0 c 4 1 c 4 0 c 5 1 c 4 0 c 5 -1 c 4 -2 c 4 0 c 5 0 c 4 1 c 4 0 c 5 1 c 4 0 c 4 0 c
5 -2 c 4 0 c 5 0 c 4 2 c 4 1 c 5 0 c 4 0 c 4 2 c 5 13 c 4 46 c 5 43 c 4 16 c 4 -15 c 5 -54 c 4 -34 c 4 -12 c 5 -5 c 4 -1 c 5 1 c
4 0 c 4 0 c 5 1 c 4 0 c 4 -2 c 5 0 c 4 -1 c 4 0 c 5 3 c 4 2 c 5 0 c 4 -1 c 4 -4 c 5 -1 c 4 0 c 4 0 c 5 1 c 4 0 c 5 0 c 4 -1 c 4 0 c
5 0 c 4 1 c 4 -1 c 5 1 c 4 7 c 5 36 c 4 27 c 4 4 c 5 -12 c 4 -40 c 4 -18 c 5 -3 c 4 -1 c 5 0 c 4 2 c 4 1 c 5 1 c 4 -1 c 4 -1 c
5 -1 c 4 -1 c 4 0 c 5 0 c 4 0 c 5 1 c 4 0 c 4 1 c 5 1 c 4 0 c 4 2 c 5 5 c 4 7 c 5 33 c 4 216 c 4 379 c 5 87 c 4 -38 c 4 -312 c
5 -288 c 4 -60 c 5 -5 c 4 -9 c 4 -8 c 5 21 c 4 88 c 4 44 c 5 6 c 4 -34 c 5 -98 c 4 -32 c 4 -3 c 5 0 c 4 0 c 4 0 c 5 -1 c 4 0 c 4 1 c
5 1 c 4 1 c 5 1 c 4 -1 c 4 -2 c 5 -1 c 4 0 c 4 2 c 5 7 c 4 67 c 5 245 c 4 174 c 4 58 c 5 33 c 4 -208 c 4 -103 c 5 -88 c 4 -140 c
5 -41 c 4 -2 c 4 1 c 5 1 c 4 0 c 4 1 c 5 3 c 4 3 c 5 12 c 4 72 c 4 601 c 5 1815 c 4 818 c 4 18 c 5 -886 c 4 -1833 c 4 -562 c 5 -46 c
4 -2 c 5 -1 c 4 0 c 4 1 c 5 6 c 4 10 c 4 25 c 5 171 c 4 1508 c 5 4210 c 4 46 c 4 8 c 5 -531 c 4 -4118 c 4 -1229 c 5 -79 c 4 -12 c
5 -10 c 4 -7 c 4 -3 c 5 -2 c 4 -3 c 4 0 c 5 -2 c 4 0 c 4 -1 c 5 -1 c 4 -2 c 5 -1 c 4 0 c 4 -1 c 5 2 c 4 5 c 4 5 c 5 2 c 4 -2 c 5 0 c
4 13 c 4 19 c 5 76 c 4 57 c 4 -5 c 5 -22 c 4 -88 c 5 -55 c 4 -5 c 4 -1 c 5 -1 c 4 1 c 4 22 c 5 88 c 4 45 c 5 6 c 4 -31 c 4 -97 c
5 -32 c 4 -3 c 4 0 c 5 12 c 4 24 c 4 9 c 5 -1 c 4 -15 c 5 -24 c 4 -6 c 4 0 c 5 -1 c 4 0 c 4 0 c 5 -1 c 4 0 c 5 1 c 4 3 c 4 1 c 5 0 c
4 0 c 4 -3 c 5 -1 c 4 4 c 5 13 c 4 15 c 4 46 c 5 260 c 4 265 c 4 33 c 5 -63 c 4 -330 c 5 -212 c 4 -28 c 4 -1 c 5 -1 c 4 -1 c 4 0 c
5 2 c 4 10 c 4 12 c 5 1 c 4 0 c 5 -13 c 4 -8 c 4 -2 c 5 -2 c 4 0 c 4 0 c 5 0 c 4 -1 c 5 0 c 4 4 c 4 3 c 5 2 c 4 -1 c 4 -5 c 5 -3 c
4 -1 c 5 0 c 4 1 c 4 1 c 5 0 c 4 1 c 4 2 c 5 6 c 4 3 c 5 -2 c 4 -2 c 4 -7 c 5 -2 c 4 -1 c 4 0 c 5 0 c 4 0 c 4 0 c 5 0 c 4 1 c 5 2 c
4 4 c 4 19 c 5 41 c 4 17 c 4 3 c 5 -24 c 4 -43 c 5 -13 c 4 -2 c 4 0 c 5 0 c 4 0 c 4 -2 c 5 -1 c 4 0 c 5 0 c 4 -1 c 4 0 c 5 0 c 4 2 c
4 13 c 5 20 c 4 7 c 5 -2 c 4 -18 c 4 -16 c 5 4 c 4 57 c 4 403 c 5 475 c 4 64 c 4 -100 c 5 -517 c 4 -334 c 5 -52 c 4 -2 c 4 0 c 5 4 c
4 9 c 4 3 c 5 -2 c 4 -6 c 5 -7 c 4 -2 c 4 -1 c 5 -1 c 4 -1 c 4 0 c 5 0 c 4 0 c 5 1 c 4 0 c 4 0 c 5 12 c 4 18 c 4 6 c 5 -2 c 4 -15 c
4 -17 c 5 -2 c 4 -1 c 5 0 c 4 1 c 4 0 c 5 0 c 4 2 c 4 2 c 5 2 c 4 1 c 5 0 c 4 0 c 4 2 c 5 1 c 4 1 c 4 -2 c 5 0 c 4 6 c 5 50 c
4 249 c 4 932 c 5 1157 c 4 216 c 4 -279 c 5 -1127 c 4 -1044 c 5 -119 c 4 -8 c 4 -1 c 5 -9 c 4 -9 c 4 -2 c 5 -5 c 4 -10 c 4 -4 c
5 -1 c 4 0 c 5 0 c 4 -1 c 4 1 c 5 0 c 4 0 c 4 -1 c 5 1 c 4 2 c 5 2 c 4 0 c 4 -1 c 5 -2 c 4 -2 c 4 0 c 5 1 c 4 -1 c 5 0 c 4 0 c
4 -1 c 5 0 c 4 0 c 4 1 c 5 -1 c 4 0 c 5 0 c 4 0 c 4 0 c 5 0 c 4 2 c 4 0 c 5 1 c 4 -1 c 4 -1 c 5 0 c 4 0 c 5 0 c 4 0 c 4 2 c 5 2 c
4 -1 c 4 0 c 5 -2 c 4 -1 c 5 1 c 4 0 c 4 1 c 5 0 c 4 0 c 4 0 c 5 0 c 4 -1 c 5 -1 c 4 0 c 4 1 c 5 1 c 4 0 c 4 1 c 5 1 c 4 8 c 5 21 c
4 10 c 4 10 c 5 101 c 4 768 c 4 873 c 5 104 c 4 -178 c 4 -992 c 5 -636 c 4 -78 c 5 -5 c 4 -3 c 4 0 c 5 4 c 4 2 c 4 -1 c 5 -2 c
4 -5 c 5 -1 c 4 -2 c 4 0 c 5 0 c 4 1 c 4 0 c 5 -1 c 4 -1 c 5 -1 c 4 0 c 4 1 c 5 0 c 4 2 c 4 7 c 5 15 c 4 12 c 5 47 c 4 80 c 4 16 c
5 -6 c 4 -50 c 4 -84 c 5 -12 c 4 -7 c 4 -7 c 5 -6 c 4 -4 c 5 -1 c 4 0 c 4 -2 c 5 0 c 4 -1 c 4 1 c 5 0 c 4 1 c 5 3 c 4 1 c 4 2 c
5 0 c 4 -3 c 4 0 c 5 -2 c 4 2 c 5 -1 c 4 0 c 4 0 c 5 1 c 4 -1 c 4 2 c 5 3 c 4 16 c 4 107 c 5 246 c 4 128 c 5 32 c 4 -62 c 4 -222 c
5 -95 c 4 -51 c 4 -69 c 5 -29 c 4 -5 c 5 -2 c 4 2 c 4 7 c 5 6 c 4 1 c 4 -3 c 5 -8 c 4 -2 c 5 -1 c 4 -1 c 4 -2 c 5 -1 c 4 0 c 4 0 c
5 1 c 4 -1 c 5 2 c 4 5 c 4 6 c 5 0 c 4 0 c 4 -7 c 5 -6 c 4 1 c 4 0 c 5 1 c 4 3 c 5 18 c 4 50 c 4 18 c 5 -2 c 4 -23 c 4 -53 c 5 -12 c
4 -1 c 5 3 c 4 2 c 4 1 c 5 0 c 4 -1 c 4 -1 c 5 5 c 4 50 c 5 344 c 4 416 c 4 78 c 5 -71 c 4 -426 c 4 -343 c 5 -51 c 4 -2 c 5 -1 c
4 0 c 4 -1 c 5 0 c 4 0 c 4 0 c 5 0 c 4 1 c 4 1 c 5 0 c 4 1 c 5 2 c 4 5 c 4 22 c 5 234 c 4 940 c 4 522 c 5 11 c 4 -290 c 5 -1034 c
4 -358 c 4 75 c 5 222 c 4 68 c 4 -15 c 5 -136 c 4 -213 c 5 -52 c 4 -4 c 4 0 c 5 -1 c 4 0 c 4 -1 c 5 2 c 4 0 c 5 1 c 4 6 c 4 16 c
5 13 c 4 2 c 4 -5 c 5 -18 c 4 -9 c 4 1 c 5 4 c 4 9 c 5 60 c 4 587 c 4 1509 c 5 562 c 4 34 c 4 -655 c 5 -1573 c 4 -409 c 5 -40 c
4 77 c 4 842 c 5 2374 c 4 1545 c 4 83 c 5 -1091 c 4 -2547 c 5 -1159 c 4 -118 c 4 -39 c 5 -27 c 4 -9 c 4 18 c 5 103 c 4 81 c 5 11 c
4 -29 c 4 -120 c 5 -73 c 4 -7 c 4 0 c 5 -3 c 4 -1 c 4 2 c 5 6 c 4 32 c 5 152 c 4 193 c 4 57 c 5 -25 c 4 -147 c 4 -9 c 5 789 c
4 559 c 5 25 c 4 -231 c 4 -845 c 5 -343 c 4 -30 c 4 -12 c 5 -88 c 4 -76 c 5 3 c 4 11 c 4 6 c 5 -1 c 4 -10 c 4 -12 c 5 -1 c 4 8 c
4 6 c 5 2 c 4 -6 c 5 -12 c 4 -6 c 4 -4 c 5 -1 c 4 -2 c 4 0 c 5 0 c 4 0 c 5 0 c 4 -1 c 4 0 c 5 0 c 4 1 c 4 1 c 5 1 c 4 0 c 5 -2 c
4 0 c 4 -1 c 5 0 c 4 1 c 4 0 c 5 0 c 4 1 c 5 0 c 4 1 c 4 1 c 5 0 c 4 -1 c 4 -1 c 5 -2 c 4 0 c 4 1 c 5 0 c 4 0 c 5 0 c 4 0 c 4 2 c
5 3 c 4 2 c 4 2 c 5 0 c 4 -2 c 5 -4 c 4 -4 c 4 -1 c 5 0 c 4 1 c 4 -1 c 5 1 c 4 0 c 5 0 c 4 0 c 4 1 c 5 0 c 4 0 c 4 0 c 5 0 c 4 -1 c
5 0 c 4 0 c 4 0 c 5 0 c 4 3 c 4 6 c 5 4 c 4 0 c 4 0 c 5 -2 c 4 -2 c 5 0 c 4 -2 c 4 -5 c 5 0 c 4 0 c 4 1 c 5 -1 c 4 -1 c 5 -1 c 4 0 c
4 0 c 5 1 c 4 0 c 4 2 c 5 1 c 4 2 c 5 6 c 4 25 c 4 262 c 5 929 c 4 468 c 4 20 c 5 -332 c 4 -889 c 5 -281 c 4 -20 c 4 -24 c 5 -84 c
4 -70 c 4 -8 c 5 -1 c 4 -3 c 4 -2 c 5 1 c 4 3 c 5 7 c 4 2 c 4 0 c 5 2 c 4 58 c 4 112 c 5 47 c 4 29 c 5 -51 c 4 -109 c 4 -43 c
5 -39 c 4 -19 c 4 -2 c 5 0 c 4 0 c 5 0 c 4 1 c 4 0 c 5 0 c 4 -1 c 4 -1 c 5 1 c 4 0 c 4 0 c 5 0 c 4 0 c 5 -1 c 4 0 c 4 0 c 5 1 c
4 -1 c 4 0 c 5 0 c 4 0 c 5 2 c 4 1 c 4 0 c 5 -1 c 4 -1 c 4 -1 c 5 0 c 4 0 c 5 0 c 4 -13 c 4 13 c 5 0 c 4 0 c 4 1 c 5 1 c 4 1 c
5 -1 c 4 0 c 4 -2 c 5 0 c 4 0 c 4 -1 c 5 1 c 4 0 c 4 0 c 5 0 c 4 0 c 5 0 c 4 1 c 4 0 c 5 3 c 4 7 c 4 3 c 5 -2 c 4 -2 c 5 -7 c 4 -2 c
4 0 c 5 0 c 4 1 c 4 1 c 5 1 c 4 1 c 5 2 c 4 4 c 4 36 c 5 287 c 4 719 c 4 280 c 5 -36 c 4 -347 c 5 -723 c 4 -202 c 4 -18 c 5 -2 c
4 -1 c 4 -1 c 5 0 c 4 -1 c 4 1 c 5 6 c 4 8 c 5 7 c 4 1 c 4 -7 c 5 -7 c 4 -7 c 4 -1 c 5 5 c 4 6 c 5 3 c 4 -1 c 4 -6 c 5 -5 c 4 -1 c
4 -1 c 5 1 c 4 -1 c 5 -1 c 4 1 c 4 0 c 5 0 c 4 -1 c 4 -1 c 5 0 c 4 0 c 5 0 c 4 0 c 4 0 c 5 0 c 4 0 c 4 0 c 5 0 c 4 0 c 4 0 c 5 0 c
4 -1 c 5 0 c 4 0 c 4 0 c 5 1 c 4 -1 c 4 1 c 5 0 c 4 1 c 5 -1 c 4 1 c 4 1 c 5 1 c 4 1 c 4 -1 c 5 0 c 4 0 c 5 0 c 4 -1 c 4 -1 c 5 0 c
4 2 c 4 4 c 5 2 c 4 3 c 5 26 c 4 103 c 4 60 c 5 7 c 4 -24 c 4 -106 c 5 -28 c 4 314 c 4 1006 c 5 462 c 4 110 c 5 -289 c 4 -1047 c
4 -408 c 5 -132 c 4 -46 c 4 -7 c 5 -2 c 4 0 c 5 4 c 4 3 c 4 -2 c 5 -1 c 4 -3 c 4 -4 c 5 -1 c 4 0 c 5 -1 c 4 2 c 4 2 c 5 5 c 4 16 c
4 16 c 5 3 c 4 -2 c 4 -15 c 5 -13 c 4 0 c 5 6 c 4 32 c 4 309 c 5 1071 c 4 795 c 4 1036 c 5 295 c 4 -990 c 5 -790 c 4 -1155 c
4 -507 c 5 -76 c 4 -11 c 4 -6 c 5 -6 c 4 -4 c 5 -2 c 4 -1 c 4 1 c 5 7 c 4 3 c 4 3 c 5 3 c 4 5 c 5 53 c 4 625 c 4 2561 c 5 1451 c
4 116 c 4 -639 c 5 -2594 c 4 -1458 c 4 -119 c 5 -11 c 4 -4 c 5 -5 c 4 -2 c 4 -1 c 5 8 c 4 62 c 4 89 c 5 24 c 4 -11 c 5 -65 c 4 -96 c
4 -15 c 5 -2 c 4 0 c 4 0 c 5 2 c 4 2 c 5 0 c 4 -1 c 4 -3 c 5 -1 c 4 -1 c 4 -17 c 5 17 c 4 0 c 5 0 c 4 0 c 4 1 c 5 1 c 4 0 c 4 -1 c
5 3 c 4 13 c 4 15 c 5 4 c 4 -4 c 5 -14 c 4 -16 c 4 -4 c 5 1 c 4 0 c 4 1 c 5 4 c 4 3 c 5 3 c 4 0 c 4 -3 c 5 -2 c 4 -2 c 4 1 c 5 1 c
4 1 c 5 -1 c 4 -2 c 4 -2 c 5 -2 c 4 0 c 4 0 c 5 0 c 4 1 c 5 6 c 4 18 c 4 9 c 5 3 c 4 1 c 4 38 c 5 385 c 4 466 c 4 69 c 5 -26 c
4 -412 c 5 -449 c 4 -80 c 4 -18 c 5 -7 c 4 0 c 4 0 c 5 -1 c 4 -1 c 5 -1 c 4 0 c 4 -1 c 5 -1 c 4 0 c 4 0 c 5 0 c 4 -1 c 5 0 c 4 1 c
4 1 c 5 2 c 4 1 c 4 1 c 5 -1 c 4 0 c 5 -1 c 4 1 c 4 0 c 5 1 c 4 3 c 4 10 c 5 10 c 4 8 c 4 21 c 5 67 c 4 199 c 5 166 c 4 56 c 4 -64 c
5 -210 c 4 -171 c 4 -39 c 5 -8 c 4 -7 c 5 -12 c 4 -22 c 4 -8 c 5 -1 c 4 0 c 4 0 c 5 0 c 4 0 c 5 0 c 4 0 c 4 3 c 5 6 c 4 20 c 4 51 c
5 45 c 4 7 c 4 -9 c 5 -50 c 4 -47 c 5 -14 c 4 -6 c 4 -3 c 5 -1 c 4 0 c 4 0 c 5 1 c 4 1 c 5 0 c 4 1 c 4 1 c 5 2 c 4 1 c 4 8 c 5 27 c
4 297 c 5 1471 c 4 959 c 4 156 c 5 -257 c 4 -1443 c 4 -1094 c 5 -108 c 4 -10 c 5 -5 c 4 -4 c 4 -2 c 5 -1 c 4 0 c 4 -1 c 5 0 c 4 0 c
4 0 c 5 4 c 4 31 c 5 128 c 4 80 c 4 7 c 5 -23 c 4 -132 c 4 -86 c 5 -6 c 4 -1 c 5 7 c 4 8 c 4 -1 c 5 0 c 4 -6 c 4 -9 c 5 0 c 4 -1 c
5 0 c 4 16 c 4 63 c 5 28 c 4 1 c 4 -16 c 5 -64 c 4 -29 c 5 -3 c 4 0 c 4 0 c 5 1 c 4 1 c 4 0 c 5 1 c 4 3 c 4 15 c 5 8 c 4 1 c 5 -5 c
4 -16 c 4 -8 c 5 -1 c 4 0 c 4 1 c 5 1 c 4 1 c 5 0 c 4 0 c 4 0 c 5 9 c 4 54 c 4 69 c 5 24 c 4 12 c 5 -26 c 4 -71 c 4 -22 c 5 -21 c
4 -18 c 4 -6 c 5 -4 c 4 -1 c 5 3 c 4 22 c 4 38 c 5 7 c 4 -2 c 4 -26 c 5 -36 c 4 -7 c 4 2 c 5 8 c 4 16 c 5 5 c 4 -2 c 4 -6 c 5 3 c
4 47 c 4 17 c 5 1 c 4 -19 c 5 -55 c 4 -12 c 4 3 c 5 1 c 4 -1 c 4 -4 c 5 -4 c 4 -1 c 5 1 c 4 0 c 4 1 c 5 0 c 4 1 c 4 -1 c 5 1 c 4 2 c
5 3 c 4 9 c 4 71 c 5 656 c 4 1152 c 4 299 c 5 -62 c 4 -623 c 4 -1188 c 5 -285 c 4 -26 c 5 -2 c 4 0 c 4 16 c 5 102 c 4 96 c 4 11 c
5 -16 c 4 -98 c 5 -105 c 4 -12 c 4 0 c 5 0 c 4 -1 c 4 -1 c 5 0 c 4 -2 c 5 0 c 4 0 c 4 0 c 5 0 c 4 0 c 4 0 c 5 0 c 4 0 c 4 -1 c 5 1 c
4 1 c 5 1 c 4 8 c 4 13 c 5 3 c 4 -1 c 4 -8 c 5 -13 c 4 -4 c 5 0 c 4 0 c 4 0 c 5 1 c 4 1 c 4 0 c 5 2 c 4 6 c 5 2 c 4 0 c 4 -2 c
5 -6 c 4 1 c 4 11 c 5 9 c 4 1 c 5 0 c 4 -7 c 4 -8 c 5 -3 c 4 0 c 4 -3 c 5 -2 c 4 1 c 4 2 c 5 2 c 4 1 c 5 0 c 4 2 c 4 20 c 5 22 c
4 2 c 4 -2 c 5 -19 c 4 -14 c 5 6 c 4 2 c 4 3 c 5 0 c 4 -2 c 4 7 c 5 18 c 4 51 c 5 431 c 4 3788 c 4 1713 c 5 5 c 4 -9 c 4 5 c
5 -3999 c 4 -1872 c 5 -104 c 4 -22 c 4 -9 c 5 -5 c 4 -1 c 4 -1 c 5 -3 c 4 -2 c 4 -2 c 5 -5 c 4 -1 c 5 7 c 4 55 c 4 84 c 5 18 c 4 6 c
4 -41 c 5 -93 c 4 -23 c 5 -6 c 4 -11 c 4 -4 c 5 1 c 4 0 c 4 1 c 5 0 c 4 0 c 5 -1 c 4 0 c 4 -1 c 5 0 c 4 -2 c 4 0 c 5 1 c 4 1 c 5 2 c
4 3 c 4 9 c 5 64 c 4 212 c 4 234 c 5 56 c 4 65 c 4 212 c 5 -51 c 4 -55 c 5 -117 c 4 -383 c 4 -221 c 5 -24 c 4 -5 c 4 -2 c 5 -1 c
4 0 c 5 -1 c 4 1 c 4 0 c 5 0 c 4 0 c 4 -1 c 5 -1 c 4 0 c 5 0 c 4 1 c 4 5 c 5 5 c 4 0 c 4 -1 c 5 -3 c 4 -7 c 4 1 c 5 7 c 4 5 c 5 0 c
4 -1 c 4 -5 c 5 8 c 4 15 c 4 3 c 5 8 c 4 -5 c 5 -15 c 4 -6 c 4 -9 c 5 -7 c 4 0 c 4 -1 c 5 0 c 4 0 c 5 3 c 4 2 c 4 0 c 5 0 c 4 -2 c
4 -3 c 5 -1 c 4 0 c 5 0 c 4 0 c 4 1 c 5 1 c 4 -1 c 4 1 c 5 0 c 4 0 c 4 0 c 5 0 c 4 1 c 5 1 c 4 0 c 4 2 c 5 0 c 4 -3 c 4 0 c 5 -2 c
4 -1 c 5 2 c 4 1 c 4 0 c 5 1 c 4 -1 c 4 -1 c 5 1 c 4 0 c 5 3 c 4 7 c 4 1 c 5 -1 c 4 -3 c 4 -7 c 5 -1 c 4 1 c 5 1 c 4 3 c 4 1 c 5 5 c
4 18 c 4 3 c 5 1 c 4 -5 c 4 -18 c 5 -6 c 4 2 c 5 0 c 4 0 c 4 -4 c 5 -3 c 4 1 c 4 3 c 5 12 c 4 4 c 5 2 c 4 -4 c 4 -10 c 5 -7 c 4 0 c
4 0 c 5 0 c 4 0 c 5 1 c 4 12 c 4 88 c 5 156 c 4 45 c 4 -6 c 5 -62 c 4 -165 c 5 -47 c 4 14 c 4 33 c 5 283 c 4 997 c 4 605 c 5 -1 c
4 -222 c 4 -974 c 5 -678 c 4 -64 c 5 -7 c 4 -3 c 4 -2 c 5 0 c 4 -1 c 4 0 c 5 -1 c 4 1 c 5 3 c 4 1 c 4 1 c 5 -1 c 4 -3 c 4 -2 c 5 3 c
4 24 c 5 75 c 4 33 c 4 2 c 5 -4 c 4 -55 c 4 -45 c 5 -4 c 4 -13 c 5 -12 c 4 -1 c 4 -1 c 5 2 c 4 2 c 4 5 c 5 22 c 4 176 c 4 1013 c
5 1074 c 4 147 c 5 -106 c 4 -825 c 4 -1281 c 5 -199 c 4 -21 c 4 -4 c 5 -3 c 4 -1 c 5 0 c 4 0 c 4 2 c 5 16 c 4 78 c 4 68 c 5 13 c
4 -9 c 5 -69 c 4 -76 c 4 66 c 5 143 c 4 41 c 4 5 c 5 -36 c 4 -137 c 4 -64 c 5 -11 c 4 -23 c 5 -5 c 4 3 c 4 0 c 5 -1 c 4 -4 c 4 -5 c
5 -1 c 4 0 c 5 0 c 4 0 c 4 0 c 5 -1 c 4 0 c 4 0 c 5 0 c 4 0 c 5 0 c 4 1 c 4 2 c 5 5 c 4 2 c 4 -1 c 5 -1 c 4 -5 c 5 -1 c 4 0 c 4 0 c
5 0 c 4 -1 c 4 0 c 5 1 c 4 1 c 4 1 c 5 2 c 4 8 c 5 50 c 4 142 c 4 137 c 5 15 c 4 -27 c 4 -131 c 5 -149 c 4 -39 c 5 -6 c 4 -2 c
4 -2 c 5 0 c 4 0 c 4 0 c 5 -1 c 4 0 c 5 0 c 4 0 c 4 0 c 5 1 c 4 0 c 4 0 c 5 -1 c 4 0 c 5 0 c 4 0 c 4 1 c 5 4 c 4 25 c 4 46 c 5 23 c
4 15 c 4 1 c 5 -40 c 4 -24 c 5 -19 c 4 -18 c 4 -9 c 5 -2 c 4 0 c 4 1 c 5 0 c 4 0 c 5 -1 c 4 0 c 4 -1 c 5 0 c 4 0 c 4 -1 c 5 0 c
4 2 c 5 12 c 4 8 c 4 0 c 5 -2 c 4 -9 c 4 -10 c
5 -1 c 4 1 c 5 4 c 4 33 c 4 -51 c 4 198 9549 780 l 4 -23 c 5 -85 c 4 -67 c 4 -6 c 5 -1 c 4 -1 c 5 0 c 4 -1 c 4 0 c 5 -1 c 4 -1 c
4 0 c 5 0 c 4 0 c 5 0 c 4 0 c 4 2 c 5 2 c 4 10 c 4 35 c 5 40 c 4 4 c 5 -4 c 4 -31 c 4 -43 c 5 -11 c 4 -1 c 4 -1 c 5 -1 c 4 0 c 5 0 c
4 0 c 4 0 c 5 1 c 4 2 c 4 4 c 5 19 c 4 81 c
0 -126 3030 418 l 54 0 3030 418 l 18 -6 c 6 -6 c 6 -12 c 0 -12 c -6 -12 c -6 -6 c -18 -6 c -54 0 c 42 -66 3072 358 l
-12 -6 3180 376 l -12 -12 c -6 -18 c 0 -12 c 6 -18 c 12 -12 c 12 -6 c 18 0 c 12 6 c 12 12 c 6 18 c 0 12 c -6 18 c -12 12 c -12 6 c
-18 0 c 24 -84 3264 376 l -24 -84 3312 376 l 24 -84 3312 376 l -24 -84 3360 376 l 108 0 3402 364 l 108 0 3402 328 l 66 0 3660 418 l
-36 -48 c 18 0 c 12 -6 c 6 -6 c 6 -18 c 0 -12 c -6 -18 c -12 -12 c -18 -6 c -18 0 c -18 6 c -6 6 c -6 12 c 12 6 3786 394 l 18 18 c
0 -126 c 12 6 4290 394 l 18 18 c 0 -126 c -6 -6 4404 376 l 6 -6 c 6 6 c -6 6 c -6 -6 4404 304 l 6 -6 c 6 6 c -6 6 c
-48 -126 4584 418 l 48 -126 4584 418 l 60 0 4554 334 l 0 -84 4662 376 l 6 18 4662 340 l 12 12 c 12 6 c 18 0 c -12 12 4806 358 l
-12 6 c -18 0 c -12 -6 c -12 -12 c -6 -18 c 0 -12 c 6 -18 c 12 -12 c 12 -6 c 18 0 c 12 6 c 12 12 c 108 0 4848 346 l
-18 -6 5034 418 l -12 -18 c -6 -30 c 0 -18 c 6 -30 c 12 -18 c 18 -6 c 12 0 c 18 6 c 12 18 c 6 30 c 0 18 c -6 30 c -12 18 c -18 6 c
-12 0 c 66 0 5130 418 l -36 -48 c 18 0 c 12 -6 c 6 -6 c 6 -18 c 0 -12 c -6 -18 c -12 -12 c -18 -6 c -18 0 c -18 6 c -6 6 c -6 12 c
-59 0 5309 418 l -6 -54 c 6 6 c 17 6 c 18 0 c 18 -6 c 12 -12 c 6 -18 c 0 -12 c -6 -18 c -12 -12 c -18 -6 c -18 0 c -17 6 c -6 6 c
-6 12 c -6 -6 5369 304 l 6 -6 c 6 6 c -6 6 c -12 0 5459 418 l -12 -6 c -6 -18 c 0 -102 c 42 0 5411 376 l 6 -6 5489 418 l 6 6 c
-6 6 c -6 -6 c 0 -84 5495 376 l 0 -102 5549 418 l 6 -18 c 12 -6 c 12 0 c 42 0 5531 376 l -6 12 5675 358 l -18 6 c -18 0 c -18 -6 c
-6 -12 c 6 -12 c 12 -6 c 30 -6 c 12 -6 c 6 -12 c 0 -6 c -6 -12 c -18 -6 c -18 0 c -18 6 c -6 12 c 0 -192 6005 442 l
0 -192 6011 442 l 42 0 6005 442 l 42 0 6005 250 l 0 6 6089 388 l 6 12 c 6 6 c 12 6 c 24 0 c 12 -6 c 6 -6 c 6 -12 c 0 -12 c -6 -12 c
-12 -18 c -60 -60 c 84 0 c -6 -6 6215 376 l 6 -6 c 6 6 c -6 6 c -6 -6 6215 304 l 6 -6 c 6 6 c -6 6 c -48 -126 6395 418 l
48 -126 6395 418 l 60 0 6365 334 l 0 -84 6473 376 l 6 18 6473 340 l 12 12 c 12 6 c 18 0 c -12 12 6617 358 l -12 6 c -18 0 c -12 -6 c
-12 -12 c -6 -18 c 0 -12 c 6 -18 c 12 -12 c 12 -6 c 18 0 c 12 6 c 12 12 c 108 0 6659 346 l -18 -6 6845 418 l -12 -18 c -6 -30 c
0 -18 c 6 -30 c 12 -18 c 18 -6 c 12 0 c 18 6 c 12 18 c 6 30 c 0 18 c -6 30 c -12 18 c -18 6 c -12 0 c 66 0 6941 418 l -36 -48 c
18 0 c 12 -6 c 6 -6 c 6 -18 c 0 -12 c -6 -18 c -12 -12 c -18 -6 c -18 0 c -18 6 c -6 6 c -6 12 c -6 12 7127 400 l -18 6 c -12 0 c
-18 -6 c -12 -18 c -6 -30 c 0 -30 c 6 -24 c 12 -12 c 18 -6 c 6 0 c 18 6 c 12 12 c 6 18 c 0 6 c -6 18 c -12 12 c -18 6 c -6 0 c
-18 -6 c -12 -12 c -6 -18 c -6 -6 7181 304 l 6 -6 c 6 6 c -6 6 c -12 0 7271 418 l -12 -6 c -6 -18 c 0 -102 c 42 0 7223 376 l
6 -6 7301 418 l 6 6 c -6 6 c -6 -6 c 0 -84 7307 376 l 0 -102 7361 418 l 6 -18 c 12 -6 c 12 0 c 42 0 7343 376 l -6 12 7487 358 l
-18 6 c -18 0 c -18 -6 c -6 -12 c 6 -12 c 12 -6 c 30 -6 c 12 -6 c 6 -12 c 0 -6 c -6 -12 c -18 -6 c -18 0 c -18 6 c -6 12 c
0 -192 7559 442 l 0 -192 7565 442 l 42 0 7523 442 l 42 0 7523 250 l
0 -249 855 1262 l 0 -38 812 1380 l 34 -4 c -4 4 c -4 11 c 0 12 c 4 11 c 8 7 c 11 4 c 7 0 c 12 -4 c 7 -7 c 4 -11 c 0 -12 c -4 -11 c
-3 -4 c -8 -4 c 0 -38 812 1455 l 34 -3 c -4 3 c -4 12 c 0 11 c 4 11 c 8 8 c 11 4 c 7 0 c 12 -4 c 7 -8 c 4 -11 c 0 -11 c -4 -12 c
-3 -3 c -8 -4 c -4 0 831 1489 l -8 4 c -4 4 c -3 7 c 0 15 c 3 8 c 4 4 c 8 4 c 7 0 c 8 -4 c 11 -8 c 38 -38 c 0 53 c -4 8 827 1572 l
-11 11 c 79 0 c 3 -4 884 1644 l 4 4 c -4 4 c -3 -4 c 79 -37 812 1727 l 0 53 812 1674 l 0 -37 812 1795 l 34 -4 c -4 4 c -4 11 c
0 11 c 4 12 c 8 7 c 11 4 c 7 0 c 12 -4 c 7 -7 c 4 -12 c 0 -11 c -4 -11 c -3 -4 c -8 -4 c 0 42 812 1833 l 30 -23 c 0 11 c 4 8 c 4 4 c
11 4 c 7 0 c 12 -4 c 7 -8 c 4 -11 c 0 -11 c -4 -12 c -3 -4 c -8 -3 c 0 -250 1159 1811 l 0 -38 1115 1928 l 34 -4 c -3 4 c -4 11 c
0 12 c 4 11 c 7 7 c 11 4 c 8 0 c 11 -4 c 8 -7 c 4 -11 c 0 -12 c -4 -11 c -4 -4 c -7 -4 c 0 -38 1115 2003 l 34 -3 c -3 3 c -4 12 c
0 11 c 4 12 c 7 7 c 11 4 c 8 0 c 11 -4 c 8 -7 c 4 -12 c 0 -11 c -4 -12 c -4 -3 c -7 -4 c -4 0 1134 2037 l -7 4 c -4 4 c -4 7 c
0 16 c 4 7 c 4 4 c 7 4 c 8 0 c 8 -4 c 11 -8 c 38 -37 c 0 52 c 53 -38 1115 2147 l 0 57 c 80 0 1115 2147 l 4 -4 1187 2192 l 4 4 c
-4 4 c -4 -4 c 0 -38 1115 2268 l 34 -4 c -3 4 c -4 11 c 0 12 c 4 11 c 7 8 c 11 3 c 8 0 c 11 -3 c 8 -8 c 4 -11 c 0 -12 c -4 -11 c
-4 -4 c -7 -4 c 4 -11 1115 2317 l 8 -4 c 7 0 c 8 4 c 4 7 c 3 15 c 4 12 c 8 7 c 7 4 c 12 0 c 7 -4 c 4 -4 c 4 -11 c 0 -15 c -4 -11 c
-4 -4 c -7 -4 c -12 0 c -7 4 c -8 7 c -4 12 c -3 15 c -4 7 c -8 4 c -7 0 c -8 -4 c -4 -11 c 0 -15 c -4 0 1134 2377 l -7 4 c -4 4 c
-4 8 c 0 15 c 4 7 c 4 4 c 7 4 c 8 0 c 8 -4 c 11 -8 c 38 -37 c 0 53 c 0 -249 1439 1312 l 0 -37 1395 1429 l 34 -4 c -3 4 c -4 11 c
0 11 c 4 12 c 7 7 c 12 4 c 7 0 c 12 -4 c 7 -7 c 4 -12 c 0 -11 c -4 -11 c -4 -4 c -7 -4 c 0 -38 1395 1505 l 34 -4 c -3 4 c -4 12 c
0 11 c 4 11 c 7 8 c 12 4 c 7 0 c 12 -4 c 7 -8 c 4 -11 c 0 -11 c -4 -12 c -4 -4 c -7 -3 c -3 0 1414 1539 l -8 4 c -4 4 c -4 7 c
0 15 c 4 8 c 4 4 c 8 3 c 7 0 c 8 -3 c 11 -8 c 38 -38 c 0 53 c 80 -38 1395 1664 l 0 53 1395 1611 l 4 -4 1467 1694 l 4 4 c -4 4 c
-4 -4 c -3 0 1414 1728 l -8 4 c -4 4 c -4 7 c 0 15 c 4 8 c 4 4 c 8 3 c 7 0 c 8 -3 c 11 -8 c 38 -38 c 0 53 c 11 -4 1422 1849 l 8 -7 c
4 -12 c 0 -3 c -4 -12 c -8 -7 c -11 -4 c -4 0 c -11 4 c -8 7 c -4 12 c 0 3 c 4 12 c 8 7 c 15 4 c 19 0 c 19 -4 c 11 -7 c 4 -12 c
0 -7 c -4 -12 c -7 -3 c 0 -38 1395 1921 l 34 -4 c -3 4 c -4 11 c 0 12 c 4 11 c 7 8 c 12 3 c 7 0 c 12 -3 c 7 -8 c 4 -11 c 0 -12 c
-4 -11 c -4 -4 c -7 -4 c 0 -249 1537 1324 l 0 -37 1494 1441 l 34 -4 c -4 4 c -4 11 c 0 11 c 4 12 c 8 7 c 11 4 c 8 0 c 11 -4 c 7 -7 c
4 -12 c 0 -11 c -4 -11 c -3 -4 c -8 -4 c 0 -38 1494 1517 l 34 -4 c -4 4 c -4 12 c 0 11 c 4 11 c 8 8 c 11 4 c 8 0 c 11 -4 c 7 -8 c
4 -11 c 0 -11 c -4 -12 c -3 -4 c -8 -3 c -4 0 1513 1551 l -8 4 c -3 4 c -4 7 c 0 15 c 4 8 c 3 4 c 8 3 c 8 0 c 7 -3 c 11 -8 c
38 -38 c 0 53 c 4 -12 1494 1642 l 7 -3 c 8 0 c 7 3 c 4 8 c 4 15 c 4 11 c 7 8 c 8 4 c 11 0 c 8 -4 c 3 -4 c 4 -11 c 0 -15 c -4 -12 c
-3 -3 c -8 -4 c -11 0 c -8 4 c -7 7 c -4 11 c -4 16 c -4 7 c -7 4 c -8 0 c -7 -4 c -4 -11 c 0 -15 c 3 -4 1566 1706 l 4 4 c -4 4 c
-3 -4 c -4 0 1513 1740 l -8 4 c -3 4 c -4 7 c 0 15 c 4 8 c 3 4 c 8 3 c 8 0 c 7 -3 c 11 -8 c 38 -38 c 0 53 c -4 0 1513 1816 l -8 3 c
-3 4 c -4 8 c 0 15 c 4 7 c 3 4 c 8 4 c 8 0 c 7 -4 c 11 -7 c 38 -38 c 0 53 c 79 -38 1494 1940 l 0 53 1494 1887 l 0 -249 1733 1259 l
0 -37 1690 1376 l 34 -4 c -4 4 c -4 11 c 0 11 c 4 12 c 7 7 c 12 4 c 7 0 c 12 -4 c 7 -7 c 4 -12 c 0 -11 c -4 -11 c -3 -4 c -8 -4 c
0 -38 1690 1452 l 34 -4 c -4 4 c -4 12 c 0 11 c 4 11 c 7 8 c 12 4 c 7 0 c 12 -4 c 7 -8 c 4 -11 c 0 -11 c -4 -12 c -3 -4 c -8 -3 c
0 41 1690 1490 l 30 -22 c 0 11 c 4 8 c 3 3 c 12 4 c 7 0 c 12 -4 c 7 -7 c 4 -12 c 0 -11 c -4 -11 c -3 -4 c -8 -4 c 3 -12 1690 1581 l
12 -7 c 19 -4 c 11 0 c 19 4 c 11 7 c 4 12 c 0 7 c -4 11 c -11 8 c -19 4 c -11 0 c -19 -4 c -12 -8 c -3 -11 c 0 -7 c 3 -4 1762 1641 l
4 4 c -4 4 c -3 -4 c 3 -11 1690 1694 l 12 -8 c 19 -4 c 11 0 c 19 4 c 11 8 c 4 11 c 0 7 c -4 12 c -11 7 c -19 4 c -11 0 c -19 -4 c
-12 -7 c -3 -12 c 0 -7 c 79 -38 1690 1800 l 0 53 1690 1747 l -8 -4 1701 1872 l -3 -12 c 0 -7 c 3 -11 c 12 -8 c 19 -4 c 19 0 c 15 4 c
7 8 c 4 11 c 0 4 c -4 11 c -7 8 c -12 3 c -3 0 c -12 -3 c -7 -8 c -4 -11 c 0 -4 c 4 -11 c 7 -8 c 12 -4 c 0 -249 1799 1585 l
0 -38 1756 1702 l 34 -3 c -4 3 c -4 12 c 0 11 c 4 11 c 8 8 c 11 4 c 7 0 c 12 -4 c 7 -8 c 4 -11 c 0 -11 c -4 -12 c -3 -3 c -8 -4 c
0 -38 1756 1778 l 34 -4 c -4 4 c -4 11 c 0 12 c 4 11 c 8 8 c 11 3 c 7 0 c 12 -3 c 7 -8 c 4 -11 c 0 -12 c -4 -11 c -3 -4 c -8 -4 c
0 41 1756 1816 l 30 -22 c 0 11 c 4 7 c 4 4 c 11 4 c 7 0 c 12 -4 c 7 -7 c 4 -12 c 0 -11 c -4 -11 c -3 -4 c -8 -4 c 4 -11 1756 1906 l
11 -8 c 19 -3 c 11 0 c 19 3 c 11 8 c 4 11 c 0 8 c -4 11 c -11 8 c -19 4 c -11 0 c -19 -4 c -11 -8 c -4 -11 c 0 -8 c 3 -4 1828 1967 l
4 4 c -4 4 c -3 -4 c -7 -4 1767 2046 l -4 -11 c 0 -7 c 4 -12 c 11 -7 c 19 -4 c 19 0 c 15 4 c 7 7 c 4 12 c 0 3 c -4 12 c -7 7 c
-12 4 c -3 0 c -12 -4 c -7 -7 c -4 -12 c 0 -3 c 4 -12 c 7 -7 c 12 -4 c 12 -4 1782 2122 l 7 -8 c 4 -11 c 0 -4 c -4 -11 c -7 -8 c
-12 -3 c -4 0 c -11 3 c -7 8 c -4 11 c 0 4 c 4 11 c 7 8 c 15 4 c 19 0 c 19 -4 c 11 -8 c 4 -11 c 0 -7 c -4 -12 c -7 -4 c
4 -11 1756 2167 l 7 -4 c 8 0 c 7 4 c 4 7 c 4 15 c 4 12 c 7 7 c 8 4 c 11 0 c 8 -4 c 3 -3 c 4 -12 c 0 -15 c -4 -11 c -3 -4 c -8 -4 c
-11 0 c -8 4 c -7 8 c -4 11 c -4 15 c -4 8 c -7 3 c -8 0 c -7 -3 c -4 -12 c 0 -15 c 0 -250 2361 1303 l 0 -38 2318 1420 l 34 -4 c
-4 4 c -4 12 c 0 11 c 4 11 c 7 8 c 12 4 c 7 0 c 12 -4 c 7 -8 c 4 -11 c 0 -11 c -4 -12 c -4 -4 c -7 -3 c 0 -38 2318 1496 l 34 -4 c
-4 4 c -4 11 c 0 11 c 4 12 c 7 7 c 12 4 c 7 0 c 12 -4 c 7 -7 c 4 -12 c 0 -11 c -4 -11 c -4 -4 c -7 -4 c 0 42 2318 1533 l 30 -23 c
0 12 c 4 7 c 3 4 c 12 4 c 7 0 c 12 -4 c 7 -8 c 4 -11 c 0 -11 c -4 -12 c -4 -3 c -7 -4 c 0 -38 2318 1647 l 34 -4 c -4 4 c -4 11 c
0 12 c 4 11 c 7 8 c 12 3 c 7 0 c 12 -3 c 7 -8 c 4 -11 c 0 -12 c -4 -11 c -4 -4 c -7 -4 c 4 -4 2389 1685 l 4 4 c -4 3 c -4 -3 c
11 -4 2344 1764 l 8 -7 c 4 -12 c 0 -4 c -4 -11 c -8 -7 c -11 -4 c -4 0 c -11 4 c -8 7 c -3 11 c 0 4 c 3 12 c 8 7 c 15 4 c 19 0 c
19 -4 c 11 -7 c 4 -12 c 0 -7 c -4 -12 c -7 -3 c 79 -37 2318 1843 l 0 53 2318 1790 l -4 8 2333 1877 l -11 11 c 79 0 c
0 -250 2531 1400 l 0 -38 2487 1517 l 34 -4 c -3 4 c -4 11 c 0 12 c 4 11 c 7 8 c 11 3 c 8 0 c 11 -3 c 8 -8 c 4 -11 c 0 -12 c -4 -11 c
-4 -4 c -7 -4 c 0 -37 2487 1592 l 34 -4 c -3 4 c -4 11 c 0 11 c 4 12 c 7 7 c 11 4 c 8 0 c 11 -4 c 8 -7 c 4 -12 c 0 -11 c -4 -11 c
-4 -4 c -7 -4 c 0 42 2487 1630 l 31 -23 c 0 11 c 3 8 c 4 4 c 11 3 c 8 0 c 11 -3 c 8 -8 c 4 -11 c 0 -12 c -4 -11 c -4 -4 c -7 -3 c
80 -38 2487 1751 l 0 53 2487 1698 l 4 -3 2559 1781 l 4 3 c -4 4 c -4 -4 c 0 -38 2487 1857 l 34 -4 c -3 4 c -4 11 c 0 12 c 4 11 c
7 8 c 11 3 c 8 0 c 11 -3 c 8 -8 c 4 -11 c 0 -12 c -4 -11 c -4 -4 c -7 -3 c 0 -37 2487 1932 l 34 -4 c -3 4 c -4 11 c 0 11 c 4 12 c
7 7 c 11 4 c 8 0 c 11 -4 c 8 -7 c 4 -12 c 0 -11 c -4 -11 c -4 -4 c -7 -4 c -8 -4 2499 2012 l -4 -11 c 0 -8 c 4 -11 c 11 -8 c 19 -3 c
19 0 c 15 3 c 8 8 c 4 11 c 0 4 c -4 11 c -8 8 c -11 4 c -4 0 c -11 -4 c -8 -8 c -3 -11 c 0 -4 c 3 -11 c 8 -8 c 11 -3 c
0 -250 2635 1818 l 0 -38 2591 1935 l 34 -4 c -4 4 c -3 11 c 0 12 c 3 11 c 8 8 c 11 3 c 8 0 c 11 -3 c 8 -8 c 3 -11 c 0 -12 c -3 -11 c
-4 -4 c -8 -4 c 0 -37 2591 2010 l 34 -4 c -4 4 c -3 11 c 0 11 c 3 12 c 8 7 c 11 4 c 8 0 c 11 -4 c 8 -7 c 3 -12 c 0 -11 c -3 -11 c
-4 -4 c -8 -4 c 0 42 2591 2048 l 30 -23 c 0 11 c 4 8 c 4 4 c 11 3 c 8 0 c 11 -3 c 8 -8 c 3 -11 c 0 -12 c -3 -11 c -4 -4 c -8 -3 c
4 -11 2591 2135 l 7 -4 c 8 0 c 8 4 c 3 7 c 4 15 c 4 12 c 7 7 c 8 4 c 11 0 c 8 -4 c 4 -3 c 3 -12 c 0 -15 c -3 -11 c -4 -4 c -8 -4 c
-11 0 c -8 4 c -7 7 c -4 12 c -4 15 c -3 8 c -8 3 c -8 0 c -7 -3 c -4 -12 c 0 -15 c 4 -3 2663 2199 l 3 3 c -3 4 c -4 -4 c
-7 -4 2602 2279 l -4 -11 c 0 -8 c 4 -11 c 11 -8 c 19 -4 c 19 0 c 15 4 c 8 8 c 3 11 c 0 4 c -3 11 c -8 8 c -11 3 c -4 0 c -11 -3 c
-8 -8 c -4 -11 c 0 -4 c 4 -11 c 8 -8 c 11 -4 c 4 -12 2591 2328 l 11 -7 c 19 -4 c 11 0 c 19 4 c 12 7 c 3 12 c 0 7 c -3 12 c -12 7 c
-19 4 c -11 0 c -19 -4 c -11 -7 c -4 -12 c 0 -7 c 11 -4 2618 2430 l 7 -7 c 4 -12 c 0 -4 c -4 -11 c -7 -8 c -11 -3 c -4 0 c -12 3 c
-7 8 c -4 11 c 0 4 c 4 12 c 7 7 c 16 4 c 18 0 c 19 -4 c 12 -7 c 3 -12 c 0 -7 c -3 -12 c -8 -4 c 0 -249 2714 4581 l 0 -37 2670 4698 l
35 -4 c -4 4 c -4 11 c 0 11 c 4 12 c 7 7 c 12 4 c 7 0 c 12 -4 c 7 -7 c 4 -12 c 0 -11 c -4 -11 c -4 -4 c -7 -4 c 0 -38 2670 4774 l
35 -4 c -4 4 c -4 12 c 0 11 c 4 11 c 7 8 c 12 4 c 7 0 c 12 -4 c 7 -8 c 4 -11 c 0 -11 c -4 -12 c -4 -4 c -7 -3 c 0 41 2670 4812 l
31 -22 c 0 11 c 4 8 c 3 3 c 12 4 c 7 0 c 12 -4 c 7 -7 c 4 -12 c 0 -11 c -4 -11 c -4 -4 c -7 -4 c 11 -4 2697 4929 l 8 -7 c 4 -12 c
0 -4 c -4 -11 c -8 -7 c -11 -4 c -4 0 c -11 4 c -8 7 c -4 11 c 0 4 c 4 12 c 8 7 c 15 4 c 19 0 c 19 -4 c 11 -7 c 4 -12 c 0 -7 c
-4 -12 c -7 -3 c 4 -4 2742 4963 l 4 4 c -4 4 c -4 -4 c -3 0 2689 4997 l -8 4 c -4 4 c -4 7 c 0 15 c 4 8 c 4 4 c 8 3 c 7 0 c 8 -3 c
11 -8 c 38 -38 c 0 53 c -8 -4 2682 5118 l -4 -11 c 0 -8 c 4 -11 c 12 -8 c 19 -3 c 18 0 c 16 3 c 7 8 c 4 11 c 0 4 c -4 11 c -7 8 c
-12 4 c -4 0 c -11 -4 c -7 -8 c -4 -11 c 0 -4 c 4 -11 c 7 -8 c 11 -3 c -3 0 2689 5148 l -8 4 c -4 4 c -4 7 c 0 15 c 4 8 c 4 4 c
8 4 c 7 0 c 8 -4 c 11 -8 c 38 -38 c 0 53 c 0 -249 2784 7019 l 0 -38 2740 7136 l 34 -3 c -4 3 c -3 12 c 0 11 c 3 11 c 8 8 c 11 4 c
8 0 c 11 -4 c 8 -8 c 4 -11 c 0 -11 c -4 -12 c -4 -3 c -8 -4 c 0 -38 2740 7212 l 34 -4 c -4 4 c -3 11 c 0 12 c 3 11 c 8 8 c 11 3 c
8 0 c 11 -3 c 8 -8 c 4 -11 c 0 -12 c -4 -11 c -4 -4 c -8 -3 c 0 41 2740 7250 l 30 -22 c 0 11 c 4 7 c 4 4 c 11 4 c 8 0 c 11 -4 c
8 -7 c 4 -12 c 0 -11 c -4 -11 c -4 -4 c -8 -4 c 11 -4 2767 7367 l 8 -8 c 3 -11 c 0 -4 c -3 -11 c -8 -8 c -11 -3 c -4 0 c -12 3 c
-7 8 c -4 11 c 0 4 c 4 11 c 7 8 c 16 4 c 19 0 c 18 -4 c 12 -8 c 4 -11 c 0 -7 c -4 -12 c -8 -4 c 4 -4 2812 7401 l 4 4 c -4 4 c
-4 -4 c 11 -4 2767 7480 l 8 -7 c 3 -11 c 0 -4 c -3 -12 c -8 -7 c -11 -4 c -4 0 c -12 4 c -7 7 c -4 12 c 0 4 c 4 11 c 7 7 c 16 4 c
19 0 c 18 -4 c 12 -7 c 4 -11 c 0 -8 c -4 -11 c -8 -4 c -4 8 2755 7518 l -11 11 c 80 0 c -4 7 2755 7594 l -11 11 c 80 0 c
0 -250 2916 1411 l 0 -38 2872 1528 l 34 -4 c -3 4 c -4 11 c 0 12 c 4 11 c 7 7 c 11 4 c 8 0 c 11 -4 c 8 -7 c 4 -11 c 0 -12 c -4 -11 c
-4 -4 c -7 -4 c 0 -37 2872 1603 l 34 -4 c -3 4 c -4 11 c 0 11 c 4 12 c 7 7 c 11 4 c 8 0 c 11 -4 c 8 -7 c 4 -12 c 0 -11 c -4 -11 c
-4 -4 c -7 -4 c 53 -37 2872 1671 l 0 56 c 80 0 2872 1671 l -3 8 2887 1720 l -12 11 c 80 0 c 4 -4 2944 1792 l 4 4 c -4 4 c -4 -4 c
-3 7 2887 1834 l -12 12 c 80 0 c 53 -38 2872 1936 l 0 57 c 80 0 2872 1936 l 80 -38 2872 2027 l 0 53 2872 1974 l 0 -249 2964 1395 l
0 -38 2920 1513 l 34 -4 c -4 4 c -3 11 c 0 11 c 3 12 c 8 7 c 11 4 c 8 0 c 11 -4 c 8 -7 c 4 -12 c 0 -11 c -4 -11 c -4 -4 c -8 -4 c
0 -38 2920 1588 l 34 -3 c -4 3 c -3 12 c 0 11 c 3 11 c 8 8 c 11 4 c 8 0 c 11 -4 c 8 -8 c 4 -11 c 0 -11 c -4 -12 c -4 -3 c -8 -4 c
53 -38 2920 1656 l 0 57 c 80 0 2920 1656 l -3 8 2935 1705 l -12 11 c 80 0 c 4 -4 2992 1777 l 4 4 c -4 4 c -4 -4 c 0 -38 2920 1853 l
34 -4 c -4 4 c -3 11 c 0 12 c 3 11 c 8 7 c 11 4 c 8 0 c 11 -4 c 8 -7 c 4 -11 c 0 -12 c -4 -11 c -4 -4 c -8 -4 c 4 -12 2920 1902 l
8 -3 c 7 0 c 8 3 c 3 8 c 4 15 c 4 11 c 8 8 c 7 4 c 11 0 c 8 -4 c 4 -4 c 4 -11 c 0 -15 c -4 -12 c -4 -3 c -8 -4 c -11 0 c -7 4 c
-8 7 c -4 12 c -4 15 c -3 7 c -8 4 c -7 0 c -8 -4 c -4 -11 c 0 -15 c -4 0 2939 1962 l -7 4 c -4 4 c -4 7 c 0 16 c 4 7 c 4 4 c 7 4 c
8 0 c 7 -4 c 12 -8 c 38 -37 c 0 52 c 0 -250 3105 1867 l 0 -38 3061 1984 l 34 -3 c -4 3 c -3 12 c 0 11 c 3 11 c 8 8 c 11 4 c 8 0 c
11 -4 c 8 -8 c 4 -11 c 0 -11 c -4 -12 c -4 -3 c -8 -4 c 0 -38 3061 2060 l 34 -4 c -4 4 c -3 11 c 0 12 c 3 11 c 8 7 c 11 4 c 8 0 c
11 -4 c 8 -7 c 4 -11 c 0 -12 c -4 -11 c -4 -4 c -8 -4 c 53 -38 3061 2128 l 0 57 c 80 0 3061 2128 l -4 0 3080 2169 l -7 4 c -4 4 c
-4 7 c 0 16 c 4 7 c 4 4 c 7 4 c 8 0 c 7 -4 c 12 -8 c 38 -37 c 0 52 c 4 -4 3133 2249 l 4 4 c -4 3 c -4 -3 c 4 -12 3061 2298 l 8 -3 c
7 0 c 8 3 c 3 8 c 4 15 c 4 11 c 8 8 c 7 4 c 11 0 c 8 -4 c 4 -4 c 4 -11 c 0 -15 c -4 -12 c -4 -3 c -8 -4 c -11 0 c -7 4 c -8 7 c
-4 12 c -4 15 c -3 7 c -8 4 c -7 0 c -8 -4 c -4 -11 c 0 -15 c 11 -4 3088 2404 l 8 -8 c 3 -11 c 0 -4 c -3 -11 c -8 -8 c -11 -3 c
-4 0 c -11 3 c -8 8 c -4 11 c 0 4 c 4 11 c 8 8 c 15 4 c 19 0 c 18 -4 c 12 -8 c 4 -11 c 0 -8 c -4 -11 c -8 -4 c 4 -12 3061 2453 l
11 -7 c 19 -4 c 12 0 c 18 4 c 12 7 c 4 12 c 0 7 c -4 12 c -12 7 c -18 4 c -12 0 c -19 -4 c -11 -7 c -4 -12 c 0 -7 c
0 -250 3455 2239 l 0 -38 3411 2356 l 34 -4 c -4 4 c -3 11 c 0 12 c 3 11 c 8 8 c 11 3 c 8 0 c 11 -3 c 8 -8 c 4 -11 c 0 -12 c -4 -11 c
-4 -4 c -8 -4 c 0 -37 3411 2431 l 34 -4 c -4 4 c -3 11 c 0 11 c 3 12 c 8 7 c 11 4 c 8 0 c 11 -4 c 8 -7 c 4 -12 c 0 -11 c -4 -11 c
-4 -4 c -8 -4 c 53 -37 3411 2499 l 0 56 c 80 0 3411 2499 l -8 -4 3423 2586 l -4 -11 c 0 -7 c 4 -12 c 11 -7 c 19 -4 c 19 0 c 15 4 c
8 7 c 4 12 c 0 3 c -4 12 c -8 7 c -11 4 c -4 0 c -11 -4 c -8 -7 c -4 -12 c 0 -3 c 4 -12 c 8 -7 c 11 -4 c 4 -3 3483 2620 l 4 3 c
-4 4 c -4 -4 c -3 7 3426 2662 l -12 12 c 80 0 c -4 0 3430 2730 l -7 4 c -4 3 c -4 8 c 0 15 c 4 8 c 4 3 c 7 4 c 8 0 c 7 -4 c 12 -7 c
38 -38 c 0 53 c 4 -11 3411 2824 l 11 -8 c 19 -3 c 12 0 c 18 3 c 12 8 c 4 11 c 0 8 c -4 11 c -12 8 c -18 4 c -12 0 c -19 -4 c
-11 -8 c -4 -11 c 0 -8 c 0 -250 3565 1267 l 0 -38 3522 1384 l 34 -4 c -4 4 c -4 11 c 0 12 c 4 11 c 7 7 c 12 4 c 7 0 c 12 -4 c 7 -7 c
4 -11 c 0 -12 c -4 -11 c -4 -4 c -7 -4 c 0 -38 3522 1459 l 34 -3 c -4 3 c -4 12 c 0 11 c 4 12 c 7 7 c 12 4 c 7 0 c 12 -4 c 7 -7 c
4 -12 c 0 -11 c -4 -12 c -4 -3 c -7 -4 c 52 -37 3522 1527 l 0 56 c 79 0 3522 1527 l 79 -38 3522 1618 l 0 53 3522 1565 l
4 -4 3593 1648 l 4 4 c -4 4 c -4 -4 c -4 7 3537 1690 l -11 12 c 79 0 c 0 41 3522 1762 l 30 -22 c 0 11 c 4 7 c 3 4 c 12 4 c 7 0 c
12 -4 c 7 -7 c 4 -12 c 0 -11 c -4 -11 c -4 -4 c -7 -4 c 52 -37 3522 1867 l 0 56 c 79 0 3522 1867 l 0 -250 3678 3850 l
0 -38 3634 3967 l 34 -4 c -3 4 c -4 12 c 0 11 c 4 11 c 7 8 c 11 4 c 8 0 c 11 -4 c 8 -8 c 4 -11 c 0 -11 c -4 -12 c -4 -4 c -7 -3 c
0 -38 3634 4043 l 34 -4 c -3 4 c -4 11 c 0 11 c 4 12 c 7 7 c 11 4 c 8 0 c 11 -4 c 8 -7 c 4 -12 c 0 -11 c -4 -11 c -4 -4 c -7 -4 c
53 -38 3634 4111 l 0 57 c 80 0 3634 4111 l 4 -11 3634 4167 l 8 -4 c 7 0 c 8 4 c 4 8 c 3 15 c 4 11 c 8 8 c 7 3 c 12 0 c 7 -3 c 4 -4 c
4 -12 c 0 -15 c -4 -11 c -4 -4 c -7 -4 c -12 0 c -7 4 c -8 8 c -4 11 c -3 15 c -4 8 c -8 4 c -7 0 c -8 -4 c -4 -12 c 0 -15 c
4 -4 3706 4232 l 4 4 c -4 3 c -4 -3 c -3 8 3649 4273 l -12 11 c 80 0 c 80 -37 3634 4390 l 0 53 3634 4337 l -8 -4 3646 4462 l
-4 -11 c 0 -8 c 4 -11 c 11 -7 c 19 -4 c 19 0 c 15 4 c 8 7 c 4 11 c 0 4 c -4 12 c -8 7 c -11 4 c -4 0 c -11 -4 c -8 -7 c -3 -12 c
0 -4 c 3 -11 c 8 -7 c 11 -4 c 0 -249 4164 1411 l 0 -37 4120 1528 l 34 -4 c -3 4 c -4 11 c 0 11 c 4 12 c 7 7 c 12 4 c 7 0 c 11 -4 c
8 -7 c 4 -12 c 0 -11 c -4 -11 c -4 -4 c -7 -4 c 0 -38 4120 1604 l 34 -4 c -3 4 c -4 11 c 0 12 c 4 11 c 7 8 c 12 3 c 7 0 c 11 -3 c
8 -8 c 4 -11 c 0 -12 c -4 -11 c -4 -4 c -7 -3 c 0 -38 4120 1680 l 34 -4 c -3 4 c -4 11 c 0 11 c 4 12 c 7 7 c 12 4 c 7 0 c 11 -4 c
8 -7 c 4 -12 c 0 -11 c -4 -11 c -4 -4 c -7 -4 c -3 0 4139 1714 l -8 3 c -4 4 c -4 8 c 0 15 c 4 7 c 4 4 c 8 4 c 7 0 c 8 -4 c 11 -7 c
38 -38 c 0 53 c 4 -4 4192 1793 l 4 4 c -4 4 c -4 -4 c -8 -4 4132 1872 l -4 -11 c 0 -7 c 4 -12 c 12 -7 c 18 -4 c 19 0 c 15 4 c 8 7 c
4 12 c 0 3 c -4 12 c -8 7 c -11 4 c -4 0 c -11 -4 c -8 -7 c -3 -12 c 0 -3 c 3 -12 c 8 -7 c 11 -4 c -3 0 4139 1903 l -8 3 c -4 4 c
-4 8 c 0 15 c 4 7 c 4 4 c 8 4 c 7 0 c 8 -4 c 11 -7 c 38 -38 c 0 53 c 0 41 4120 1982 l 31 -22 c 0 11 c 3 8 c 4 3 c 12 4 c 7 0 c
11 -4 c 8 -7 c 4 -11 c 0 -12 c -4 -11 c -4 -4 c -7 -4 c 0 -250 4484 1323 l 0 -38 4440 1440 l 35 -4 c -4 4 c -4 11 c 0 12 c 4 11 c
7 8 c 12 3 c 7 0 c 12 -3 c 7 -8 c 4 -11 c 0 -12 c -4 -11 c -4 -4 c -7 -4 c 0 -37 4440 1515 l 35 -4 c -4 4 c -4 11 c 0 11 c 4 12 c
7 7 c 12 4 c 7 0 c 12 -4 c 7 -7 c 4 -12 c 0 -11 c -4 -11 c -4 -4 c -7 -4 c 0 -38 4440 1591 l 35 -4 c -4 4 c -4 11 c 0 12 c 4 11 c
7 8 c 12 3 c 7 0 c 12 -3 c 7 -8 c 4 -11 c 0 -12 c -4 -11 c -4 -4 c -7 -3 c 0 -38 4440 1667 l 35 -4 c -4 4 c -4 11 c 0 11 c 4 12 c
7 7 c 12 4 c 7 0 c 12 -4 c 7 -7 c 4 -12 c 0 -11 c -4 -11 c -4 -4 c -7 -4 c 4 -3 4512 1704 l 4 3 c -4 4 c -4 -4 c 0 -38 4440 1780 l
35 -4 c -4 4 c -4 11 c 0 12 c 4 11 c 7 8 c 12 3 c 7 0 c 12 -3 c 7 -8 c 4 -11 c 0 -12 c -4 -11 c -4 -4 c -7 -3 c 0 41 4440 1818 l
31 -22 c 0 11 c 4 7 c 3 4 c 12 4 c 7 0 c 12 -4 c 7 -7 c 4 -12 c 0 -11 c -4 -11 c -4 -4 c -7 -4 c -4 8 4456 1897 l -12 11 c 80 0 c
0 -249 4552 2129 l 0 -37 4509 2246 l 34 -4 c -4 4 c -4 11 c 0 11 c 4 12 c 7 7 c 12 4 c 7 0 c 12 -4 c 7 -7 c 4 -12 c 0 -11 c -4 -11 c
-4 -4 c -7 -4 c 0 -38 4509 2322 l 34 -4 c -4 4 c -4 11 c 0 12 c 4 11 c 7 8 c 12 3 c 7 0 c 12 -3 c 7 -8 c 4 -11 c 0 -12 c -4 -11 c
-4 -4 c -7 -3 c 0 -37 4509 2397 l 34 -4 c -4 4 c -4 11 c 0 11 c 4 12 c 7 7 c 12 4 c 7 0 c 12 -4 c 7 -7 c 4 -12 c 0 -11 c -4 -11 c
-4 -4 c -7 -4 c -8 -4 4520 2477 l -3 -11 c 0 -8 c 3 -11 c 12 -8 c 19 -3 c 19 0 c 15 3 c 7 8 c 4 11 c 0 4 c -4 11 c -7 8 c -12 4 c
-3 0 c -12 -4 c -7 -8 c -4 -11 c 0 -4 c 4 -11 c 7 -8 c 12 -3 c 4 -4 4580 2511 l 4 4 c -4 4 c -4 -4 c -4 8 4524 2552 l -11 11 c
79 0 c 53 -37 4509 2654 l 0 56 c 79 0 4509 2654 l 11 -3 4535 2741 l 8 -8 c 4 -11 c 0 -4 c -4 -11 c -8 -8 c -11 -4 c -4 0 c -11 4 c
-8 8 c -3 11 c 0 4 c 3 11 c 8 8 c 15 3 c 19 0 c 19 -3 c 11 -8 c 4 -11 c 0 -8 c -4 -11 c -7 -4 c 0 -250 4651 2973 l 0 -38 4608 3090 l
34 -4 c -4 4 c -4 11 c 0 12 c 4 11 c 7 7 c 12 4 c 7 0 c 12 -4 c 7 -7 c 4 -11 c 0 -12 c -4 -11 c -4 -4 c -7 -4 c 0 -38 4608 3165 l
34 -3 c -4 3 c -4 12 c 0 11 c 4 11 c 7 8 c 12 4 c 7 0 c 12 -4 c 7 -8 c 4 -11 c 0 -11 c -4 -12 c -4 -3 c -7 -4 c 0 -38 4608 3241 l
34 -4 c -4 4 c -4 11 c 0 12 c 4 11 c 7 8 c 12 3 c 7 0 c 12 -3 c 7 -8 c 4 -11 c 0 -12 c -4 -11 c -4 -4 c -7 -3 c 79 -38 4608 3324 l
0 53 4608 3271 l 4 -4 4679 3354 l 4 4 c -4 4 c -4 -4 c 3 -11 4608 3407 l 12 -8 c 19 -4 c 11 0 c 19 4 c 11 8 c 4 11 c 0 8 c -4 11 c
-11 8 c -19 3 c -11 0 c -19 -3 c -12 -8 c -3 -11 c 0 -8 c 52 -38 4608 3498 l 0 57 c 79 0 4608 3498 l 0 -38 4608 3581 l 34 -4 c
-4 4 c -4 12 c 0 11 c 4 11 c 7 8 c 12 4 c 7 0 c 12 -4 c 7 -8 c 4 -11 c 0 -11 c -4 -12 c -4 -4 c -7 -3 c 0 -249 4795 4007 l
0 -38 4751 4125 l 34 -4 c -4 4 c -3 11 c 0 12 c 3 11 c 8 7 c 11 4 c 8 0 c 11 -4 c 8 -7 c 4 -11 c 0 -12 c -4 -11 c -4 -4 c -8 -4 c
0 -38 4751 4200 l 34 -3 c -4 3 c -3 12 c 0 11 c 3 11 c 8 8 c 11 4 c 8 0 c 11 -4 c 8 -8 c 4 -11 c 0 -11 c -4 -12 c -4 -3 c -8 -4 c
0 -38 4751 4276 l 34 -4 c -4 4 c -3 11 c 0 12 c 3 11 c 8 8 c 11 3 c 8 0 c 11 -3 c 8 -8 c 4 -11 c 0 -12 c -4 -11 c -4 -4 c -8 -4 c
4 -11 4751 4325 l 7 -4 c 8 0 c 8 4 c 3 7 c 4 15 c 4 12 c 8 7 c 7 4 c 11 0 c 8 -4 c 4 -4 c 4 -11 c 0 -15 c -4 -11 c -4 -4 c -8 -4 c
-11 0 c -7 4 c -8 7 c -4 12 c -4 15 c -3 7 c -8 4 c -8 0 c -7 -4 c -4 -11 c 0 -15 c 4 -4 4823 4389 l 4 4 c -4 4 c -4 -4 c
0 42 4751 4427 l 30 -23 c 0 11 c 4 8 c 4 4 c 11 3 c 8 0 c 11 -3 c 8 -8 c 4 -11 c 0 -12 c -4 -11 c -4 -4 c -8 -4 c 53 -38 4751 4533 l
0 57 c 80 0 4751 4533 l -4 0 4770 4574 l -7 4 c -4 4 c -4 8 c 0 15 c 4 7 c 4 4 c 7 4 c 8 0 c 7 -4 c 12 -8 c 38 -37 c 0 53 c
0 -250 4966 2876 l 0 -38 4923 2993 l 34 -4 c -4 4 c -4 11 c 0 12 c 4 11 c 8 8 c 11 3 c 7 0 c 12 -3 c 7 -8 c 4 -11 c 0 -12 c -4 -11 c
-3 -4 c -8 -3 c 0 -38 4923 3069 l 34 -4 c -4 4 c -4 11 c 0 11 c 4 12 c 8 7 c 11 4 c 7 0 c 12 -4 c 7 -7 c 4 -12 c 0 -11 c -4 -11 c
-3 -4 c -8 -4 c 0 -38 4923 3144 l 34 -3 c -4 3 c -4 12 c 0 11 c 4 11 c 8 8 c 11 4 c 7 0 c 12 -4 c 7 -8 c 4 -11 c 0 -11 c -4 -12 c
-3 -3 c -8 -4 c 12 -3 4949 3223 l 7 -8 c 4 -11 c 0 -4 c -4 -11 c -7 -8 c -12 -4 c -4 0 c -11 4 c -7 8 c -4 11 c 0 4 c 4 11 c 7 8 c
15 3 c 19 0 c 19 -3 c 11 -8 c 4 -11 c 0 -8 c -4 -11 c -7 -4 c 3 -4 4995 3258 l 4 4 c -4 3 c -3 -3 c 4 -12 4923 3307 l 7 -3 c 8 0 c
7 3 c 4 8 c 4 15 c 4 11 c 7 8 c 8 4 c 11 0 c 8 -4 c 3 -4 c 4 -11 c 0 -15 c -4 -12 c -3 -3 c -8 -4 c -11 0 c -8 4 c -7 7 c -4 11 c
-4 16 c -4 7 c -7 4 c -8 0 c -7 -4 c -4 -11 c 0 -15 c 12 -3 4949 3412 l 7 -8 c 4 -11 c 0 -4 c -4 -11 c -7 -8 c -12 -4 c -4 0 c
-11 4 c -7 8 c -4 11 c 0 4 c 4 11 c 7 8 c 15 3 c 19 0 c 19 -3 c 11 -8 c 4 -11 c 0 -8 c -4 -11 c -7 -4 c -4 8 4938 3450 l -11 11 c
79 0 c 0 -249 5447 2947 l 0 -37 5403 3064 l 34 -4 c -4 4 c -3 11 c 0 11 c 3 12 c 8 7 c 11 4 c 8 0 c 11 -4 c 8 -7 c 4 -12 c 0 -11 c
-4 -11 c -4 -4 c -8 -4 c 0 -38 5403 3140 l 34 -4 c -4 4 c -3 12 c 0 11 c 3 11 c 8 8 c 11 4 c 8 0 c 11 -4 c 8 -8 c 4 -11 c 0 -11 c
-4 -12 c -4 -4 c -8 -3 c -7 -3 5414 3219 l -4 -12 c 0 -7 c 4 -12 c 11 -7 c 19 -4 c 19 0 c 15 4 c 8 7 c 4 12 c 0 3 c -4 12 c -8 7 c
-11 4 c -4 0 c -11 -4 c -8 -7 c -4 -12 c 0 -3 c 4 -12 c 8 -7 c 11 -4 c 53 -38 5403 3284 l 0 57 c 80 0 5403 3284 l 4 -4 5475 3329 l
4 4 c -4 4 c -4 -4 c -4 0 5422 3363 l -7 4 c -4 4 c -4 7 c 0 15 c 4 8 c 4 4 c 7 3 c 8 0 c 7 -3 c 12 -8 c 38 -38 c 0 53 c
4 -11 5403 3457 l 11 -7 c 19 -4 c 11 0 c 19 4 c 12 7 c 4 11 c 0 8 c -4 11 c -12 8 c -19 4 c -11 0 c -19 -4 c -11 -8 c -4 -11 c
0 -8 c -4 7 5418 3522 l -11 12 c 80 0 c 0 -249 5874 2562 l 0 -38 5831 2680 l 34 -4 c -4 4 c -4 11 c 0 11 c 4 12 c 7 7 c 12 4 c 7 0 c
12 -4 c 7 -7 c 4 -12 c 0 -11 c -4 -11 c -4 -4 c -7 -4 c 0 -38 5831 2755 l 34 -3 c -4 3 c -4 12 c 0 11 c 4 11 c 7 8 c 12 4 c 7 0 c
12 -4 c 7 -8 c 4 -11 c 0 -11 c -4 -12 c -4 -3 c -7 -4 c -8 -4 5842 2835 l -3 -12 c 0 -7 c 3 -11 c 12 -8 c 19 -4 c 18 0 c 16 4 c
7 8 c 4 11 c 0 4 c -4 11 c -7 8 c -12 3 c -4 0 c -11 -3 c -7 -8 c -4 -11 c 0 -4 c 4 -11 c 7 -8 c 11 -4 c 79 -38 5831 2914 l
0 53 5831 2861 l 4 -4 5902 2944 l 4 4 c -4 4 c -4 -4 c 11 -4 5857 3024 l 8 -8 c 4 -11 c 0 -4 c -4 -11 c -8 -8 c -11 -4 c -4 0 c
-11 4 c -8 8 c -3 11 c 0 4 c 3 11 c 8 8 c 15 4 c 19 0 c 19 -4 c 11 -8 c 4 -11 c 0 -8 c -4 -11 c -7 -4 c 11 -4 5857 3099 l 8 -7 c
4 -12 c 0 -3 c -4 -12 c -8 -7 c -11 -4 c -4 0 c -11 4 c -8 7 c -3 12 c 0 3 c 3 12 c 8 7 c 15 4 c 19 0 c 19 -4 c 11 -7 c 4 -12 c
0 -7 c -4 -11 c -7 -4 c 11 -4 5857 3175 l 8 -8 c 4 -11 c 0 -4 c -4 -11 c -8 -8 c -11 -3 c -4 0 c -11 3 c -8 8 c -3 11 c 0 4 c 3 11 c
8 8 c 15 4 c 19 0 c 19 -4 c 11 -8 c 4 -11 c 0 -8 c -4 -11 c -7 -4 c 0 -250 6234 3173 l 0 -38 6190 3290 l 34 -4 c -4 4 c -3 11 c
0 12 c 3 11 c 8 8 c 11 3 c 8 0 c 11 -3 c 8 -8 c 4 -11 c 0 -12 c -4 -11 c -4 -4 c -8 -4 c 0 -37 6190 3365 l 34 -4 c -4 4 c -3 11 c
0 11 c 3 12 c 8 7 c 11 4 c 8 0 c 11 -4 c 8 -7 c 4 -12 c 0 -11 c -4 -11 c -4 -4 c -8 -4 c 80 -38 6190 3449 l 0 53 6190 3396 l
-3 7 6205 3483 l -12 11 c 80 0 c 4 -3 6262 3554 l 4 3 c -4 4 c -4 -4 c -3 8 6205 3596 l -12 11 c 80 0 c 11 -3 6217 3709 l 8 -8 c
3 -11 c 0 -4 c -3 -11 c -8 -8 c -11 -4 c -4 0 c -11 4 c -8 8 c -4 11 c 0 4 c 4 11 c 8 8 c 15 3 c 19 0 c 18 -3 c 12 -8 c 4 -11 c
0 -8 c -4 -11 c -8 -4 c -3 8 6205 3747 l -12 11 c 80 0 c 0 -249 6382 4794 l 0 -37 6339 4911 l 34 -4 c -4 4 c -4 11 c 0 11 c 4 12 c
8 7 c 11 4 c 8 0 c 11 -4 c 7 -7 c 4 -12 c 0 -11 c -4 -11 c -3 -4 c -8 -4 c 0 -38 6339 4987 l 34 -4 c -4 4 c -4 12 c 0 11 c 4 11 c
8 8 c 11 4 c 8 0 c 11 -4 c 7 -8 c 4 -11 c 0 -11 c -4 -12 c -3 -4 c -8 -3 c 79 -38 6339 5070 l 0 53 6339 5017 l -4 0 6358 5097 l
-8 3 c -3 4 c -4 8 c 0 15 c 4 7 c 3 4 c 8 4 c 8 0 c 7 -4 c 11 -7 c 38 -38 c 0 53 c 3 -4 6411 5176 l 4 4 c -4 4 c -3 -4 c
53 -38 6339 5244 l 0 57 c 79 0 6339 5244 l -7 -4 6350 5331 l -4 -11 c 0 -8 c 4 -11 c 11 -8 c 19 -3 c 19 0 c 15 3 c 7 8 c 4 11 c
0 4 c -4 11 c -7 8 c -11 4 c -4 0 c -12 -4 c -7 -8 c -4 -11 c 0 -4 c 4 -11 c 7 -8 c 12 -3 c 0 -38 6339 5403 l 34 -4 c -4 4 c -4 11 c
0 12 c 4 11 c 8 8 c 11 3 c 8 0 c 11 -3 c 7 -8 c 4 -11 c 0 -12 c -4 -11 c -3 -4 c -8 -4 c 0 -250 6479 6075 l 0 -38 6435 6192 l
34 -3 c -4 3 c -3 12 c 0 11 c 3 11 c 8 8 c 11 4 c 8 0 c 11 -4 c 8 -8 c 3 -11 c 0 -11 c -3 -12 c -4 -3 c -8 -4 c 0 -38 6435 6268 l
34 -4 c -4 4 c -3 11 c 0 12 c 3 11 c 8 7 c 11 4 c 8 0 c 11 -4 c 8 -7 c 3 -11 c 0 -12 c -3 -11 c -4 -4 c -8 -4 c 79 -38 6435 6351 l
0 53 6435 6298 l 0 42 6435 6381 l 30 -23 c 0 11 c 4 8 c 4 4 c 11 3 c 8 0 c 11 -3 c 8 -8 c 3 -11 c 0 -12 c -3 -11 c -4 -4 c -8 -4 c
4 -4 6507 6457 l 3 4 c -3 3 c -4 -3 c 0 42 6435 6494 l 30 -23 c 0 12 c 4 7 c 4 4 c 11 4 c 8 0 c 11 -4 c 8 -8 c 3 -11 c 0 -11 c
-3 -12 c -4 -3 c -8 -4 c 0 -38 6435 6608 l 34 -4 c -4 4 c -3 11 c 0 12 c 3 11 c 8 8 c 11 3 c 8 0 c 11 -3 c 8 -8 c 3 -11 c 0 -12 c
-3 -11 c -4 -4 c -8 -4 c 53 -38 6435 6676 l 0 57 c 79 0 6435 6676 l 0 -249 6804 2228 l 0 -38 6760 2346 l 34 -4 c -4 4 c -3 11 c
0 12 c 3 11 c 8 7 c 11 4 c 8 0 c 11 -4 c 8 -7 c 4 -11 c 0 -12 c -4 -11 c -4 -4 c -7 -4 c 0 -38 6760 2421 l 34 -3 c -4 3 c -3 12 c
0 11 c 3 11 c 8 8 c 11 4 c 8 0 c 11 -4 c 8 -8 c 4 -11 c 0 -11 c -4 -12 c -4 -3 c -7 -4 c 80 -37 6760 2504 l 0 53 6760 2451 l
-8 -4 6772 2576 l -4 -11 c 0 -8 c 4 -11 c 11 -7 c 19 -4 c 19 0 c 15 4 c 8 7 c 4 11 c 0 4 c -4 12 c -8 7 c -11 4 c -4 0 c -11 -4 c
-8 -7 c -4 -12 c 0 -4 c 4 -11 c 8 -7 c 11 -4 c 4 -4 6832 2610 l 4 4 c -4 4 c -4 -4 c -4 0 6779 2644 l -7 4 c -4 4 c -4 7 c 0 15 c
4 8 c 4 4 c 7 4 c 8 0 c 7 -4 c 12 -8 c 38 -38 c 0 53 c 4 -12 6760 2739 l 11 -7 c 19 -4 c 12 0 c 19 4 c 11 7 c 4 12 c 0 7 c -4 12 c
-11 7 c -19 4 c -12 0 c -19 -4 c -11 -7 c -4 -12 c 0 -7 c 53 -37 6760 2829 l 0 56 c 80 0 6760 2829 l 0 -250 6974 1777 l
0 -38 6930 1894 l 34 -3 c -4 3 c -4 12 c 0 11 c 4 11 c 8 8 c 11 4 c 8 0 c 11 -4 c 8 -8 c 3 -11 c 0 -11 c -3 -12 c -4 -3 c -8 -4 c
0 -38 6930 1970 l 34 -4 c -4 4 c -4 11 c 0 12 c 4 11 c 8 7 c 11 4 c 8 0 c 11 -4 c 8 -7 c 3 -11 c 0 -12 c -3 -11 c -4 -4 c -8 -4 c
79 -38 6930 2053 l 0 53 6930 2000 l 79 -37 6930 2128 l 0 52 6930 2076 l 4 -4 7002 2159 l 3 4 c -3 3 c -4 -3 c -7 -4 6941 2238 l
-4 -11 c 0 -8 c 4 -11 c 11 -8 c 19 -3 c 19 0 c 15 3 c 8 8 c 3 11 c 0 4 c -3 11 c -8 8 c -11 4 c -4 0 c -11 -4 c -8 -8 c -4 -11 c
0 -4 c 4 -11 c 8 -8 c 11 -3 c 4 -11 6930 2283 l 7 -4 c 8 0 c 7 4 c 4 8 c 4 15 c 4 11 c 7 8 c 8 3 c 11 0 c 8 -3 c 4 -4 c 3 -11 c
0 -16 c -3 -11 c -4 -4 c -8 -3 c -11 0 c -8 3 c -7 8 c -4 11 c -4 15 c -4 8 c -7 4 c -8 0 c -7 -4 c -4 -11 c 0 -16 c
0 -37 6930 2385 l 34 -4 c -4 4 c -4 11 c 0 11 c 4 12 c 8 7 c 11 4 c 8 0 c 11 -4 c 8 -7 c 3 -12 c 0 -11 c -3 -11 c -4 -4 c -8 -4 c
0 -249 7166 4161 l 0 -38 7122 4279 l 34 -4 c -4 4 c -4 11 c 0 11 c 4 12 c 8 7 c 11 4 c 8 0 c 11 -4 c 8 -7 c 3 -12 c 0 -11 c -3 -11 c
-4 -4 c -8 -4 c 0 -38 7122 4354 l 34 -3 c -4 3 c -4 12 c 0 11 c 4 11 c 8 8 c 11 4 c 8 0 c 11 -4 c 8 -8 c 3 -11 c 0 -11 c -3 -12 c
-4 -3 c -8 -4 c 79 -38 7122 4437 l 0 53 7122 4384 l 12 -4 7148 4509 l 7 -7 c 4 -12 c 0 -3 c -4 -12 c -7 -7 c -12 -4 c -3 0 c -12 4 c
-7 7 c -4 12 c 0 3 c 4 12 c 7 7 c 15 4 c 19 0 c 19 -4 c 12 -7 c 3 -12 c 0 -7 c -3 -12 c -8 -3 c 4 -4 7194 4543 l 3 4 c -3 4 c
-4 -4 c 0 41 7122 4581 l 30 -22 c 0 11 c 4 8 c 4 3 c 11 4 c 8 0 c 11 -4 c 8 -7 c 3 -11 c 0 -12 c -3 -11 c -4 -4 c -8 -4 c
0 -38 7122 4694 l 34 -3 c -4 3 c -4 12 c 0 11 c 4 11 c 8 8 c 11 4 c 8 0 c 11 -4 c 8 -8 c 3 -11 c 0 -11 c -3 -12 c -4 -3 c -8 -4 c
4 -11 7122 4743 l 7 -4 c 8 0 c 7 4 c 4 8 c 4 15 c 4 11 c 7 8 c 8 3 c 11 0 c 8 -3 c 4 -4 c 3 -11 c 0 -16 c -3 -11 c -4 -4 c -8 -4 c
-11 0 c -8 4 c -7 8 c -4 11 c -4 15 c -4 8 c -7 4 c -8 0 c -7 -4 c -4 -11 c 0 -16 c 0 -250 7248 1487 l 0 -38 7205 1604 l 34 -4 c
-4 4 c -4 12 c 0 11 c 4 11 c 8 8 c 11 4 c 7 0 c 12 -4 c 7 -8 c 4 -11 c 0 -11 c -4 -12 c -3 -4 c -8 -3 c 0 -38 7205 1680 l 34 -4 c
-4 4 c -4 11 c 0 11 c 4 12 c 8 7 c 11 4 c 7 0 c 12 -4 c 7 -7 c 4 -12 c 0 -11 c -4 -11 c -3 -4 c -8 -4 c 4 -12 7205 1729 l 7 -3 c
8 0 c 7 3 c 4 8 c 4 15 c 4 11 c 7 8 c 8 4 c 11 0 c 8 -4 c 3 -4 c 4 -11 c 0 -15 c -4 -12 c -3 -3 c -8 -4 c -11 0 c -8 4 c -7 7 c
-4 11 c -4 16 c -4 7 c -7 4 c -8 0 c -7 -4 c -4 -11 c 0 -15 c 4 -11 7205 1808 l 11 -8 c 19 -4 c 11 0 c 19 4 c 11 8 c 4 11 c 0 8 c
-4 11 c -11 8 c -19 3 c -11 0 c -19 -3 c -11 -8 c -4 -11 c 0 -8 c 3 -4 7277 1869 l 4 4 c -4 3 c -3 -3 c 4 -11 7205 1921 l 11 -7 c
19 -4 c 11 0 c 19 4 c 11 7 c 4 11 c 0 8 c -4 11 c -11 8 c -19 4 c -11 0 c -19 -4 c -11 -8 c -4 -11 c 0 -8 c 79 -38 7205 2027 l
0 53 7205 1974 l 79 -38 7205 2103 l 0 53 7205 2050 l 0 -250 7326 1345 l 0 -38 7283 1462 l 34 -4 c -4 4 c -4 11 c 0 12 c 4 11 c 8 8 c
11 3 c 7 0 c 12 -3 c 7 -8 c 4 -11 c 0 -12 c -4 -11 c -3 -4 c -8 -4 c 0 -37 7283 1537 l 34 -4 c -4 4 c -4 11 c 0 11 c 4 12 c 8 7 c
11 4 c 7 0 c 12 -4 c 7 -7 c 4 -12 c 0 -11 c -4 -11 c -3 -4 c -8 -4 c 4 -11 7283 1586 l 7 -4 c 8 0 c 7 4 c 4 8 c 4 15 c 4 11 c 7 8 c
8 3 c 11 0 c 8 -3 c 3 -4 c 4 -11 c 0 -16 c -4 -11 c -3 -4 c -8 -3 c -11 0 c -8 3 c -7 8 c -4 11 c -4 15 c -4 8 c -7 4 c -8 0 c
-7 -4 c -4 -11 c 0 -16 c 4 -12 7283 1666 l 11 -7 c 19 -4 c 11 0 c 19 4 c 11 7 c 4 12 c 0 7 c -4 12 c -11 7 c -19 4 c -11 0 c
-19 -4 c -11 -7 c -4 -12 c 0 -7 c 3 -3 7355 1726 l 4 3 c -4 4 c -3 -4 c 79 -37 7283 1809 l 0 52 7283 1757 l 0 -37 7283 1877 l
34 -4 c -4 4 c -4 11 c 0 11 c 4 12 c 8 7 c 11 4 c 7 0 c 12 -4 c 7 -7 c 4 -12 c 0 -11 c -4 -11 c -3 -4 c -8 -4 c 0 -38 7283 1953 l
34 -4 c -4 4 c -4 12 c 0 11 c 4 11 c 8 8 c 11 4 c 7 0 c 12 -4 c 7 -8 c 4 -11 c 0 -11 c -4 -12 c -3 -4 c -8 -3 c 0 -250 7919 1258 l
0 -38 7875 1375 l 34 -4 c -3 4 c -4 11 c 0 12 c 4 11 c 7 8 c 12 3 c 7 0 c 11 -3 c 8 -8 c 4 -11 c 0 -12 c -4 -11 c -4 -4 c -7 -3 c
0 -38 7875 1451 l 34 -4 c -3 4 c -4 11 c 0 11 c 4 12 c 7 7 c 12 4 c 7 0 c 11 -4 c 8 -7 c 4 -12 c 0 -11 c -4 -11 c -4 -4 c -7 -4 c
4 -12 7875 1500 l 8 -3 c 7 0 c 8 3 c 4 8 c 3 15 c 4 11 c 8 8 c 7 4 c 12 0 c 7 -4 c 4 -4 c 4 -11 c 0 -15 c -4 -12 c -4 -3 c -7 -4 c
-12 0 c -7 4 c -8 7 c -4 11 c -3 16 c -4 7 c -8 4 c -7 0 c -8 -4 c -4 -11 c 0 -15 c 0 -38 7875 1602 l 34 -4 c -3 4 c -4 11 c 0 12 c
4 11 c 7 7 c 12 4 c 7 0 c 11 -4 c 8 -7 c 4 -11 c 0 -12 c -4 -11 c -4 -4 c -7 -4 c 4 -3 7947 1639 l 4 3 c -4 4 c -4 -4 c
4 -12 7875 1689 l 8 -4 c 7 0 c 8 4 c 4 8 c 3 15 c 4 11 c 8 8 c 7 4 c 12 0 c 7 -4 c 4 -4 c 4 -11 c 0 -15 c -4 -12 c -4 -4 c -7 -3 c
-12 0 c -7 3 c -8 8 c -4 11 c -3 16 c -4 7 c -8 4 c -7 0 c -8 -4 c -4 -11 c 0 -15 c 53 -38 7875 1783 l 0 57 c 80 0 7875 1783 l
80 -38 7875 1874 l 0 53 7875 1821 l 0 -249 8055 7019 l 0 -38 8011 7136 l 34 -3 c -4 3 c -3 12 c 0 11 c 3 11 c 8 8 c 11 4 c 8 0 c
11 -4 c 8 -8 c 4 -11 c 0 -11 c -4 -12 c -4 -3 c -7 -4 c 0 -38 8011 7212 l 34 -4 c -4 4 c -3 11 c 0 12 c 3 11 c 8 8 c 11 3 c 8 0 c
11 -3 c 8 -8 c 4 -11 c 0 -12 c -4 -11 c -4 -4 c -7 -3 c 4 -11 8011 7261 l 8 -4 c 7 0 c 8 4 c 3 7 c 4 15 c 4 12 c 8 7 c 7 4 c 12 0 c
7 -4 c 4 -4 c 4 -11 c 0 -15 c -4 -11 c -4 -4 c -7 -4 c -12 0 c -7 4 c -8 7 c -4 12 c -4 15 c -3 7 c -8 4 c -7 0 c -8 -4 c -4 -11 c
0 -15 c 80 -38 8011 7371 l 0 53 8011 7318 l 4 -4 8083 7401 l 4 4 c -4 4 c -4 -4 c 4 -12 8011 7454 l 11 -7 c 19 -4 c 12 0 c 19 4 c
11 7 c 4 12 c 0 7 c -4 12 c -11 7 c -19 4 c -12 0 c -19 -4 c -11 -7 c -4 -12 c 0 -7 c -4 0 8030 7510 l -7 4 c -4 4 c -4 8 c 0 15 c
4 7 c 4 4 c 7 4 c 8 0 c 7 -4 c 12 -8 c 38 -37 c 0 53 c -8 -3 8023 7631 l -4 -12 c 0 -7 c 4 -12 c 11 -7 c 19 -4 c 19 0 c 15 4 c 8 7 c
4 12 c 0 3 c -4 12 c -8 7 c -11 4 c -4 0 c -11 -4 c -8 -7 c -4 -12 c 0 -3 c 4 -12 c 8 -7 c 11 -4 c 0 -249 8265 2092 l
0 -38 8221 2210 l 34 -4 c -4 4 c -3 11 c 0 11 c 3 12 c 8 7 c 11 4 c 8 0 c 11 -4 c 8 -7 c 4 -12 c 0 -11 c -4 -11 c -4 -4 c -8 -4 c
0 -38 8221 2285 l 34 -3 c -4 3 c -3 12 c 0 11 c 3 11 c 8 8 c 11 4 c 8 0 c 11 -4 c 8 -8 c 4 -11 c 0 -11 c -4 -12 c -4 -3 c -8 -4 c
4 -11 8221 2334 l 8 -4 c 7 0 c 8 4 c 3 7 c 4 16 c 4 11 c 8 7 c 7 4 c 11 0 c 8 -4 c 4 -3 c 4 -12 c 0 -15 c -4 -11 c -4 -4 c -8 -4 c
-11 0 c -7 4 c -8 8 c -4 11 c -4 15 c -3 8 c -8 3 c -7 0 c -8 -3 c -4 -12 c 0 -15 c 4 -12 8221 2410 l 8 -3 c 7 0 c 8 3 c 3 8 c
4 15 c 4 11 c 8 8 c 7 4 c 11 0 c 8 -4 c 4 -4 c 4 -11 c 0 -15 c -4 -12 c -4 -3 c -8 -4 c -11 0 c -7 4 c -8 7 c -4 12 c -4 15 c -3 7 c
-8 4 c -7 0 c -8 -4 c -4 -11 c 0 -15 c 4 -4 8293 2474 l 4 4 c -4 4 c -4 -4 c 80 -38 8221 2557 l 0 53 8221 2504 l 0 -38 8221 2625 l
34 -3 c -4 3 c -3 12 c 0 11 c 3 11 c 8 8 c 11 4 c 8 0 c 11 -4 c 8 -8 c 4 -11 c 0 -11 c -4 -12 c -4 -3 c -8 -4 c -3 7 8236 2667 l
-12 12 c 80 0 c 0 -250 8831 3185 l 0 -38 8787 3302 l 34 -4 c -4 4 c -4 11 c 0 12 c 4 11 c 8 7 c 11 4 c 8 0 c 11 -4 c 7 -7 c 4 -11 c
0 -12 c -4 -11 c -3 -4 c -8 -4 c 0 -38 8787 3377 l 34 -3 c -4 3 c -4 12 c 0 11 c 4 12 c 8 7 c 11 4 c 8 0 c 11 -4 c 7 -7 c 4 -12 c
0 -11 c -4 -12 c -3 -3 c -8 -4 c 12 -4 8813 3457 l 7 -8 c 4 -11 c 0 -4 c -4 -11 c -7 -8 c -12 -3 c -3 0 c -12 3 c -7 8 c -4 11 c
0 4 c 4 11 c 7 8 c 15 4 c 19 0 c 19 -4 c 11 -8 c 4 -11 c 0 -8 c -4 -11 c -7 -4 c 0 41 8787 3491 l 30 -22 c 0 11 c 4 7 c 4 4 c 11 4 c
8 0 c 11 -4 c 7 -7 c 4 -12 c 0 -11 c -4 -11 c -3 -4 c -8 -4 c 3 -4 8859 3566 l 4 4 c -4 4 c -3 -4 c -7 -4 8798 3646 l -4 -11 c
0 -8 c 4 -11 c 11 -8 c 19 -4 c 19 0 c 15 4 c 7 8 c 4 11 c 0 4 c -4 11 c -7 8 c -11 3 c -4 0 c -12 -3 c -7 -8 c -4 -11 c 0 -4 c
4 -11 c 7 -8 c 12 -4 c -4 8 8802 3683 l -11 11 c 79 0 c 0 42 8787 3755 l 30 -23 c 0 11 c 4 8 c 4 4 c 11 4 c 8 0 c 11 -4 c 7 -8 c
4 -11 c 0 -11 c -4 -12 c -3 -4 c -8 -3 c 0 -250 8932 1369 l 0 -38 8888 1486 l 34 -3 c -4 3 c -3 12 c 0 11 c 3 11 c 8 8 c 11 4 c
8 0 c 11 -4 c 8 -8 c 4 -11 c 0 -11 c -4 -12 c -4 -3 c -8 -4 c 0 -38 8888 1562 l 34 -4 c -4 4 c -3 11 c 0 12 c 3 11 c 8 8 c 11 3 c
8 0 c 11 -3 c 8 -8 c 4 -11 c 0 -12 c -4 -11 c -4 -4 c -8 -4 c 11 -4 8915 1641 l 8 -7 c 3 -12 c 0 -3 c -3 -12 c -8 -7 c -11 -4 c
-4 0 c -11 4 c -8 7 c -4 12 c 0 3 c 4 12 c 8 7 c 15 4 c 19 0 c 18 -4 c 12 -7 c 4 -12 c 0 -7 c -4 -11 c -8 -4 c 53 -37 8888 1705 l
0 56 c 80 0 8888 1705 l 4 -4 8960 1751 l 4 4 c -4 4 c -4 -4 c 53 -38 8888 1819 l 0 57 c 80 0 8888 1819 l -8 -4 8900 1906 l -4 -11 c
0 -8 c 4 -11 c 11 -8 c 19 -4 c 19 0 c 15 4 c 8 8 c 4 11 c 0 4 c -4 11 c -8 8 c -11 3 c -4 0 c -11 -3 c -8 -8 c -4 -11 c 0 -4 c
4 -11 c 8 -8 c 11 -4 c 4 -12 8888 1955 l 11 -7 c 19 -4 c 12 0 c 18 4 c 12 7 c 4 12 c 0 7 c -4 12 c -12 7 c -18 4 c -12 0 c -19 -4 c
-11 -7 c -4 -12 c 0 -7 c 0 -249 9003 3675 l 0 -37 8959 3792 l 34 -4 c -4 4 c -4 11 c 0 11 c 4 12 c 8 7 c 11 4 c 8 0 c 11 -4 c 8 -7 c
3 -12 c 0 -11 c -3 -11 c -4 -4 c -8 -4 c 0 -38 8959 3868 l 34 -4 c -4 4 c -4 11 c 0 12 c 4 11 c 8 8 c 11 3 c 8 0 c 11 -3 c 8 -8 c
3 -11 c 0 -12 c -3 -11 c -4 -4 c -8 -3 c 12 -4 8985 3947 l 7 -7 c 4 -11 c 0 -4 c -4 -12 c -7 -7 c -12 -4 c -3 0 c -12 4 c -7 7 c
-4 12 c 0 4 c 4 11 c 7 7 c 15 4 c 19 0 c 19 -4 c 12 -7 c 3 -11 c 0 -8 c -3 -11 c -8 -4 c 0 -38 8959 4019 l 34 -3 c -4 3 c -4 12 c
0 11 c 4 11 c 8 8 c 11 4 c 8 0 c 11 -4 c 8 -8 c 3 -11 c 0 -11 c -3 -12 c -4 -3 c -8 -4 c 4 -4 9031 4057 l 3 4 c -3 4 c -4 -4 c
4 -12 8959 4110 l 11 -7 c 19 -4 c 11 0 c 19 4 c 12 7 c 3 12 c 0 7 c -3 12 c -12 7 c -19 4 c -11 0 c -19 -4 c -11 -7 c -4 -12 c
0 -7 c -7 -4 8970 4212 l -4 -11 c 0 -8 c 4 -11 c 11 -8 c 19 -4 c 19 0 c 15 4 c 8 8 c 3 11 c 0 4 c -3 11 c -8 8 c -11 4 c -4 0 c
-11 -4 c -8 -8 c -4 -11 c 0 -4 c 4 -11 c 8 -8 c 11 -4 c 53 -38 8959 4276 l 0 57 c 79 0 8959 4276 l 0 -249 9414 1343 l
0 -37 9370 1460 l 34 -4 c -4 4 c -3 11 c 0 11 c 3 12 c 8 7 c 11 4 c 8 0 c 11 -4 c 8 -7 c 4 -12 c 0 -11 c -4 -11 c -4 -4 c -8 -4 c
0 -38 9370 1536 l 34 -4 c -4 4 c -3 12 c 0 11 c 3 11 c 8 8 c 11 4 c 8 0 c 11 -4 c 8 -8 c 4 -11 c 0 -11 c -4 -12 c -4 -4 c -8 -3 c
11 -3 9397 1615 l 8 -8 c 3 -11 c 0 -4 c -3 -11 c -8 -8 c -11 -4 c -4 0 c -11 4 c -8 8 c -4 11 c 0 4 c 4 11 c 8 8 c 15 3 c 19 0 c
18 -3 c 12 -8 c 4 -11 c 0 -8 c -4 -11 c -8 -4 c 4 -12 9370 1661 l 8 -3 c 7 0 c 8 3 c 3 8 c 4 15 c 4 11 c 8 8 c 7 4 c 11 0 c 8 -4 c
4 -4 c 4 -11 c 0 -15 c -4 -12 c -4 -3 c -8 -4 c -11 0 c -7 4 c -8 7 c -4 12 c -4 15 c -3 7 c -8 4 c -7 0 c -8 -4 c -4 -11 c 0 -15 c
4 -4 9442 1725 l 4 4 c -4 4 c -4 -4 c 53 -38 9370 1793 l 0 57 c 80 0 9370 1793 l 80 -38 9370 1884 l 0 53 9370 1831 l
11 -4 9397 1956 l 8 -8 c 3 -11 c 0 -4 c -3 -11 c -8 -8 c -11 -4 c -4 0 c -11 4 c -8 8 c -4 11 c 0 4 c 4 11 c 8 8 c 15 4 c 19 0 c
18 -4 c 12 -8 c 4 -11 c 0 -8 c -4 -11 c -8 -4 c 0 -250 9556 1415 l 0 -38 9512 1532 l 34 -4 c -4 4 c -3 11 c 0 12 c 3 11 c 8 8 c
11 3 c 8 0 c 11 -3 c 8 -8 c 4 -11 c 0 -12 c -4 -11 c -4 -4 c -8 -4 c 0 -37 9512 1607 l 34 -4 c -4 4 c -3 11 c 0 11 c 3 12 c 8 7 c
11 4 c 8 0 c 11 -4 c 8 -7 c 4 -12 c 0 -11 c -4 -11 c -4 -4 c -8 -4 c 11 -4 9539 1687 l 7 -8 c 4 -11 c 0 -4 c -4 -11 c -7 -8 c
-11 -3 c -4 0 c -12 3 c -7 8 c -4 11 c 0 4 c 4 11 c 7 8 c 16 4 c 18 0 c 19 -4 c 12 -8 c 4 -11 c 0 -7 c -4 -12 c -8 -4 c
11 -3 9539 1762 l 7 -8 c 4 -11 c 0 -4 c -4 -11 c -7 -8 c -11 -4 c -4 0 c -12 4 c -7 8 c -4 11 c 0 4 c 4 11 c 7 8 c 16 3 c 18 0 c
19 -3 c 12 -8 c 4 -11 c 0 -8 c -4 -11 c -8 -4 c 4 -3 9584 1796 l 4 3 c -4 4 c -4 -4 c -7 -4 9523 1876 l -4 -11 c 0 -8 c 4 -11 c
11 -8 c 19 -4 c 19 0 c 15 4 c 8 8 c 4 11 c 0 4 c -4 11 c -8 8 c -11 4 c -4 0 c -11 -4 c -8 -8 c -4 -11 c 0 -4 c 4 -11 c 8 -8 c
11 -4 c 0 -38 9512 1948 l 34 -4 c -4 4 c -3 11 c 0 11 c 3 12 c 8 7 c 11 4 c 8 0 c 11 -4 c 8 -7 c 4 -12 c 0 -11 c -4 -11 c -4 -4 c
-8 -4 c 0 -38 9512 2023 l 34 -3 c -4 3 c -3 12 c 0 11 c 3 11 c 8 8 c 11 4 c 8 0 c 11 -4 c 8 -8 c 4 -11 c 0 -11 c -4 -12 c -4 -3 c
-8 -4 c
showpage PGPLOT restore
 
%%Trailer
%%DocumentFonts: 
%%Pages: 1
%%EOF
