%!PS-Adobe-3.0 EPSF-3.0
%%For: tom
%%Title: PGPLOT PostScript plot
%%Creator: PGPLOT
%%CreationDate:  9-Nov-1994 14:00
%%BoundingBox: 25 18 587 774
%%DocumentFonts: (atend)
%%LanguageLevel: 1
%%Orientation: Landscape
%%Pages: (atend)
%%EndComments
%%BeginProlog
/l {moveto rlineto currentpoint stroke moveto} bind def
/c {rlineto currentpoint stroke moveto} bind def
/d {moveto 0 0 rlineto currentpoint stroke moveto} bind def
/SLW {5 mul setlinewidth} bind def
/SCF /pop load def
/BP {newpath moveto} bind def
/LP /rlineto load def
/EP {rlineto closepath eofill} bind def
/MB {gsave translate MFAC dup scale 1 setlinewidth 2 setlinecap 0 setlinejoin newpath} bind def
/ME /grestore load def
/C {0 360 arc stroke} bind def
/FC {0 360 arc fill} bind def
%%EndProlog
 
%%Page: 1 1
%%BeginPageSetup
/PGPLOT save def
0.072 0.072 scale
8150 250 translate 90 rotate
1 setlinejoin 1 setlinecap 1 SLW 1 SCF
%%EndPageSetup
0.00 setgray 1 SLW 8939 0 780 780 l 0 6239 c -8939 0 c 0 -6239 c 0 -45 1116 780 l 0 -45 1554 780 l 0 -45 1991 780 l 0 -45 2428 780 l
0 -90 2865 780 l 0 -45 3302 780 l 0 -45 3739 780 l 0 -45 4176 780 l 0 -45 4613 780 l 0 -90 5051 780 l 0 -45 5488 780 l
0 -45 5925 780 l 0 -45 6362 780 l 0 -45 6799 780 l 0 -90 7236 780 l 0 -45 7673 780 l 0 -45 8110 780 l 0 -45 8548 780 l
0 -45 8985 780 l 0 -90 9422 780 l 0 -45 1116 7064 l 0 -45 1554 7064 l 0 -45 1991 7064 l 0 -45 2428 7064 l 0 -90 2865 7109 l
0 -45 3302 7064 l 0 -45 3739 7064 l 0 -45 4176 7064 l 0 -45 4613 7064 l 0 -90 5051 7109 l 0 -45 5488 7064 l 0 -45 5925 7064 l
0 -45 6362 7064 l 0 -45 6799 7064 l 0 -90 7236 7109 l 0 -45 7673 7064 l 0 -45 8110 7064 l 0 -45 8548 7064 l 0 -45 8985 7064 l
0 -90 9422 7109 l -60 0 2775 672 l -6 -54 c 6 6 c 18 6 c 18 0 c 18 -6 c 12 -12 c 6 -18 c 0 -12 c -6 -18 c -12 -12 c -18 -6 c -18 0 c
-18 6 c -6 6 c -6 12 c -18 -6 2859 672 l -12 -18 c -6 -30 c 0 -18 c 6 -30 c 12 -18 c 18 -6 c 12 0 c 18 6 c 12 18 c 6 30 c 0 18 c
-6 30 c -12 18 c -18 6 c -12 0 c -18 -6 2979 672 l -12 -18 c -6 -30 c 0 -18 c 6 -30 c 12 -18 c 18 -6 c 12 0 c 18 6 c 12 18 c 6 30 c
0 18 c -6 30 c -12 18 c -18 6 c -12 0 c 12 6 4847 648 l 18 18 c 0 -126 c -18 -6 4985 672 l -12 -18 c -6 -30 c 0 -18 c 6 -30 c
12 -18 c 18 -6 c 12 0 c 18 6 c 12 18 c 6 30 c 0 18 c -6 30 c -12 18 c -18 6 c -12 0 c -18 -6 5105 672 l -12 -18 c -6 -30 c 0 -18 c
6 -30 c 12 -18 c 18 -6 c 12 0 c 18 6 c 12 18 c 6 30 c 0 18 c -6 30 c -12 18 c -18 6 c -12 0 c -18 -6 5225 672 l -12 -18 c -6 -30 c
0 -18 c 6 -30 c 12 -18 c 18 -6 c 12 0 c 18 6 c 12 18 c 6 30 c 0 18 c -6 30 c -12 18 c -18 6 c -12 0 c 12 6 7032 648 l 18 18 c
0 -126 c -60 0 7206 672 l -6 -54 c 6 6 c 18 6 c 18 0 c 18 -6 c 12 -12 c 6 -18 c 0 -12 c -6 -18 c -12 -12 c -18 -6 c -18 0 c -18 6 c
-6 6 c -6 12 c -18 -6 7290 672 l -12 -18 c -6 -30 c 0 -18 c 6 -30 c 12 -18 c 18 -6 c 12 0 c 18 6 c 12 18 c 6 30 c 0 18 c -6 30 c
-12 18 c -18 6 c -12 0 c -18 -6 7410 672 l -12 -18 c -6 -30 c 0 -18 c 6 -30 c 12 -18 c 18 -6 c 12 0 c 18 6 c 12 18 c 6 30 c 0 18 c
-6 30 c -12 18 c -18 6 c -12 0 c 0 6 9206 642 l 6 12 c 6 6 c 12 6 c 24 0 c 12 -6 c 6 -6 c 6 -12 c 0 -12 c -6 -12 c -12 -18 c
-60 -60 c 84 0 c -18 -6 9356 672 l -12 -18 c -6 -30 c 0 -18 c 6 -30 c 12 -18 c 18 -6 c 12 0 c 18 6 c 12 18 c 6 30 c 0 18 c -6 30 c
-12 18 c -18 6 c -12 0 c -18 -6 9476 672 l -12 -18 c -6 -30 c 0 -18 c 6 -30 c 12 -18 c 18 -6 c 12 0 c 18 6 c 12 18 c 6 30 c 0 18 c
-6 30 c -12 18 c -18 6 c -12 0 c -18 -6 9596 672 l -12 -18 c -6 -30 c 0 -18 c 6 -30 c 12 -18 c 18 -6 c 12 0 c 18 6 c 12 18 c 6 30 c
0 18 c -6 30 c -12 18 c -18 6 c -12 0 c -90 0 780 780 l -45 0 780 1713 l -90 0 780 2646 l -45 0 780 3580 l -90 0 780 4513 l
-45 0 780 5446 l -90 0 780 6380 l -90 0 9809 780 l -45 0 9764 1713 l -90 0 9809 2646 l -45 0 9764 3580 l -90 0 9809 4513 l
-45 0 9764 5446 l -90 0 9809 6380 l 6 -18 517 774 l 18 -12 c 30 -6 c 18 0 c 30 6 c 18 12 c 6 18 c 0 12 c -6 18 c -18 12 c -30 6 c
-18 0 c -30 -6 c -18 -12 c -6 -18 c 0 -12 c -6 0 547 2389 l -12 6 c -6 6 c -6 12 c 0 24 c 6 12 c 6 6 c 12 6 c 12 0 c 12 -6 c
18 -12 c 60 -60 c 0 84 c 84 83 547 2509 l 84 -83 547 2592 l -6 12 541 2652 l -18 18 c 126 0 c 6 -18 517 2790 l 18 -12 c 30 -6 c
18 0 c 30 6 c 18 12 c 6 18 c 0 12 c -6 18 c -18 12 c -30 6 c -18 0 c -30 -6 c -18 -12 c -6 -18 c 0 -12 c 63 -45 453 2915 l 0 67 c
94 0 453 2915 l 84 -60 517 4309 l 0 90 c 126 0 517 4309 l 84 84 547 4375 l 84 -84 547 4459 l -6 12 541 4519 l -18 18 c 126 0 c
6 -18 517 4657 l 18 -12 c 30 -6 c 18 0 c 30 6 c 18 12 c 6 18 c 0 12 c -6 18 c -18 12 c -30 6 c -18 0 c -30 -6 c -18 -12 c -6 -18 c
0 -12 c 63 -45 453 4782 l 0 67 c 94 0 453 4782 l -12 -6 535 6194 l -6 -18 c 0 -12 c 6 -18 c 18 -12 c 30 -6 c 30 0 c 24 6 c 12 12 c
6 18 c 0 6 c -6 18 c -12 12 c -18 6 c -6 0 c -18 -6 c -12 -12 c -6 -18 c 0 -6 c 6 -18 c 12 -12 c 18 -6 c 84 84 547 6242 l
84 -84 547 6326 l -6 12 541 6386 l -18 18 c 126 0 c 6 -18 517 6524 l 18 -12 c 30 -6 c 18 0 c 30 6 c 18 12 c 6 18 c 0 12 c -6 18 c
-18 12 c -30 6 c -18 0 c -30 -6 c -18 -12 c -6 -18 c 0 -12 c 63 -45 453 6648 l 0 68 c 94 0 453 6648 l
4 2 780 799 l 5 0 c 4 0 c 4 2 c 5 2 c 4 0 c 4 0 c 5 -3 c 4 -3 c 5 -1 c 4 0 c 4 0 c 5 1 c 4 0 c 4 1 c 5 1 c 4 -1 c 5 1 c 4 1 c 4 1 c
5 1 c 4 2 c 4 -1 c 5 0 c 4 1 c 5 4 c 4 19 c 4 57 c 5 227 c 4 566 c 4 277 c 5 -27 c 4 -339 c 5 -411 c 4 245 c 4 523 c 5 193 c 4 56 c
4 64 c 5 2136 c 4 2395 c 4 -5 c 5 1 c 4 -1886 c 5 -3181 c 4 -810 c 4 -76 c 5 -9 c 4 -4 c 4 -4 c 5 -2 c 4 -2 c 5 -1 c 4 -3 c 4 -2 c
5 -1 c 4 -2 c 4 1 c 5 -2 c 4 -1 c 5 -1 c 4 0 c 4 0 c 5 0 c 4 -1 c 4 1 c 5 1 c 4 -1 c 5 0 c 4 -1 c 4 -1 c 5 1 c 4 -1 c 4 0 c 5 1 c
4 -1 c 4 0 c 5 1 c 4 4 c 5 19 c 4 53 c 4 30 c 5 1 c 4 -127 c 5 21 1151 780 l 4 -3 c 5 -1 c 4 0 c 4 0 c 5 0 c 4 1 c 4 3 c 5 11 c
4 50 c 5 66 c 4 20 c 4 -12 c 5 -68 c 4 -58 c 4 -11 c 5 -2 c 4 -1 c 5 1 c 4 0 c 4 -1 c 5 1 c 4 0 c 4 1 c 5 5 c 4 24 c 4 20 c 5 3 c
4 -11 c 5 -26 c 4 -10 c 4 -2 c 5 0 c 4 0 c 4 0 c 5 8 c 4 7 c 5 4 c 4 -4 c 4 -7 c 5 -6 c 4 -2 c 4 -1 c 5 -1 c 4 0 c 5 0 c 4 0 c 4 0 c
5 1 c 4 0 c 4 -1 c 5 1 c 4 0 c 5 -1 c 4 1 c 4 0 c 5 1 c 4 0 c 4 0 c 5 -1 c 4 1 c 4 1 c 5 1 c 4 1 c 5 4 c 4 10 c 4 6 c 5 0 c 4 -6 c
4 -11 c 5 -3 c 4 0 c 5 0 c 4 0 c 4 -2 c 5 0 c 4 1 c 4 1 c 5 1 c 4 0 c 5 -2 c 4 1 c 4 -1 c 5 1 c 4 -1 c 4 3 c 5 2 c 4 -1 c 4 1 c
5 0 c 4 3 c 5 4 c 4 0 c 4 3 c 5 8 c 4 11 c 4 44 c 5 194 c 4 1041 c 5 4653 c 4 50 c 4 -15 c 5 2 c 4 -1947 c 4 -3344 c 5 -625 c
4 -50 c 5 -12 c 4 -7 c 4 -3 c 5 -4 c 4 -4 c 4 -2 c 5 0 c 4 -3 c 5 -2 c 4 -2 c 4 -1 c 5 -1 c 4 -1 c 4 0 c 5 0 c 4 1 c 4 -1 c 5 0 c
4 0 c 5 0 c 4 -1 c 4 -1 c 5 0 c 4 -1 c 4 -1 c 5 1 c 4 0 c 5 3 c 4 9 c 4 20 c 5 16 c 4 0 c 4 -11 c 5 -23 c 4 -12 c 5 -2 c 4 -1 c
4 0 c 5 0 c 4 3 c 4 2 c 5 0 c 4 -1 c 5 -4 c 4 -1 c 4 0 c 5 0 c 4 0 c 4 2 c 5 5 c 4 3 c 4 0 c 5 -4 c 4 -5 c 5 -1 c 4 -1 c 4 0 c 5 0 c
4 0 c 4 -1 c 5 1 c 4 0 c 5 0 c 4 0 c 4 0 c 5 1 c 4 0 c 4 0 c 5 0 c 4 0 c 5 -1 c 4 0 c 4 0 c 5 1 c 4 -1 c 4 0 c 5 0 c 4 0 c 5 0 c
4 0 c 4 -1 c 5 0 c 4 1 c 4 0 c 5 1 c 4 0 c 4 2 c 5 1 c 4 1 c 5 -1 c 4 -2 c 4 -1 c 5 -1 c 4 0 c 4 1 c 5 3 c 4 2 c 5 0 c 4 -2 c 4 -2 c
5 -2 c 4 0 c 4 0 c 5 0 c 4 0 c 5 0 c 4 1 c 4 6 c 5 7 c 4 3 c 4 0 c 5 -8 c 4 -7 c 5 -1 c 4 0 c 4 1 c 5 1 c 4 0 c 4 3 c 5 15 c 4 28 c
4 58 c 5 70 c 4 8 c 5 -30 c 4 -74 c 4 -66 c 5 -12 c 4 -1 c 4 -1 c 5 -1 c 4 0 c 5 1 c 4 1 c 4 -1 c 5 2 c 4 0 c 4 0 c 5 -1 c 4 -1 c
5 -1 c 4 1 c 4 0 c 5 4 c 4 5 c 4 1 c 5 -1 c 4 -5 c 4 -5 c 5 0 c 4 0 c 5 0 c 4 0 c 4 0 c 5 2 c 4 1 c 4 1 c 5 0 c 4 -1 c 5 -2 c 4 -1 c
4 0 c 5 0 c 4 -1 c 4 0 c 5 0 c 4 1 c 5 1 c 4 0 c 4 0 c 5 0 c 4 0 c 4 -1 c 5 0 c 4 1 c 5 3 c 4 11 c 4 7 c 5 2 c 4 -5 c 4 -10 c 5 -5 c
4 -2 c 4 -1 c 5 0 c 4 1 c 5 0 c 4 -1 c 4 1 c 5 0 c 4 13 c 4 58 c 5 38 c 4 7 c 5 -25 c 4 -54 c 4 -11 c 5 5 c 4 -1 c 4 -9 c 5 -15 c
4 -2 c 5 3 c 4 1 c 4 0 c 5 -3 c 4 -2 c 4 -2 c 5 -1 c 4 1 c 5 3 c 4 3 c 4 1 c 5 -1 c 4 -2 c 4 -2 c 5 -1 c 4 -1 c 4 0 c 5 0 c 4 0 c
5 0 c 4 1 c 4 1 c 5 -1 c 4 -1 c 4 -1 c 5 0 c 4 2 c 5 16 c 4 83 c 4 63 c 5 17 c 4 -24 c 4 -90 c 5 -56 c 4 -9 c 5 0 c 4 3 c 4 7 c
5 3 c 4 -1 c 4 -6 c 5 -6 c 4 -2 c 5 0 c 4 1 c 4 3 c 5 1 c 4 1 c 4 -2 c 5 -3 c 4 1 c 4 2 c 5 1 c 4 0 c 5 -2 c 4 -1 c 4 1 c 5 0 c
4 1 c 4 0 c 5 0 c 4 1 c 5 1 c 4 2 c 4 1 c 5 0 c 4 -1 c 4 -2 c 5 0 c 4 2 c 5 0 c 4 1 c 4 -1 c 5 -1 c 4 6 c 4 5 c 5 2 c 4 -1 c 4 -6 c
5 -3 c 4 1 c 5 1 c 4 1 c 4 5 c 5 14 c 4 93 c 4 715 c 5 1341 c 4 513 c 5 -78 c 4 -920 c 4 -1282 c 5 -334 c 4 -30 c 4 4 c 5 7 c 4 22 c
5 55 c 4 272 c 4 2637 c 5 2975 c 4 2 c 4 -4 c 5 -2 c 4 -100 c 5 -5081 c 4 -698 c 4 -58 c 5 -22 c 4 -13 c 4 -9 c 5 -3 c 4 -4 c 4 -4 c
5 -2 c 4 -3 c 5 -4 c 4 -1 c 4 -2 c 5 -2 c 4 1 c 4 1 c 5 -1 c 4 0 c 5 -2 c 4 -2 c 4 -1 c 5 0 c 4 0 c 4 9 c 5 20 c 4 7 c 5 -2 c
4 -12 c 4 -17 c 5 -6 c 4 2 c 4 2 c 5 2 c 4 4 c 5 1 c 4 0 c 4 -6 c 5 -7 c 4 -2 c 4 -1 c 5 0 c 4 -1 c 4 1 c 5 0 c 4 0 c 5 -1 c 4 0 c
4 0 c 5 0 c 4 -1 c 4 1 c 5 0 c 4 2 c 5 0 c 4 0 c 4 -1 c 5 -1 c 4 1 c 4 -1 c 5 1 c 4 2 c 5 4 c 4 1 c 4 -1 c 5 -4 c 4 -3 c 4 0 c 5 1 c
4 0 c 5 -1 c 4 -1 c 4 0 c 5 0 c 4 1 c 4 3 c 5 3 c 4 1 c 4 -1 c 5 -4 c 4 -3 c 5 0 c 4 0 c 4 0 c 5 1 c 4 1 c 4 0 c 5 0 c 4 0 c 5 1 c
4 2 c 4 16 c 5 79 c 4 65 c 4 17 c 5 -15 c 4 -62 c 5 19 c 4 134 c 4 54 c 5 -20 c 4 -102 c 4 -139 c 5 -45 c 4 -2 c 5 0 c 4 0 c 4 1 c
5 2 c 4 14 c 4 133 c 5 372 c 4 197 c 4 -1 c 5 -199 c 4 -362 c 5 -131 c 4 -11 c 4 30 c 5 341 c 4 1037 c 4 539 c 5 52 c 4 -427 c
5 -730 c 4 177 c 4 164 c 5 -62 c 4 -470 c 4 -514 c 5 -137 c 4 -8 c 5 6 c 4 4 c 4 0 c 5 -4 c 4 -8 c 4 -5 c 5 -1 c 4 1 c 4 -1 c 5 -1 c
4 0 c 5 0 c 4 0 c 4 1 c 5 1 c 4 -1 c 4 -1 c 5 -1 c 4 0 c 5 -1 c 4 0 c 4 0 c 5 1 c 4 -1 c 4 1 c 5 1 c 4 1 c 5 7 c 4 4 c 4 0 c 5 -2 c
4 -8 c 4 -3 c 5 0 c 4 0 c 5 0 c 4 -1 c 4 0 c 5 1 c 4 -1 c 4 1 c 5 1 c 4 11 c 4 32 c 5 69 c 4 35 c 5 -4 c 4 -37 c 4 -73 c 5 -28 c
4 -4 c 4 -1 c 5 -2 c 4 1 c 5 0 c 4 -1 c 4 -1 c 5 1 c 4 0 c 4 0 c 5 1 c 4 3 c 5 13 c 4 5 c 4 -1 c 5 -5 c 4 -12 c 4 -4 c 5 -1 c 4 0 c
5 0 c 4 0 c 4 1 c 5 1 c 4 1 c 4 -1 c 5 0 c 4 1 c 4 1 c 5 2 c 4 0 c 5 -1 c 4 -3 c 4 -1 c 5 0 c 4 0 c 4 -1 c 5 0 c 4 0 c 5 0 c 4 1 c
4 1 c 5 1 c 4 0 c 4 1 c 5 0 c 4 0 c 5 0 c 4 4 c 4 14 c 5 8 c 4 0 c 4 -7 c 5 -15 c 4 -6 c 5 2 c 4 1 c 4 1 c 5 0 c 4 -2 c 4 -1 c
5 -1 c 4 0 c 4 0 c 5 0 c 4 -1 c 5 0 c 4 1 c 4 1 c 5 -1 c 4 0 c 4 0 c 5 0 c 4 1 c 5 -1 c 4 0 c 4 0 c 5 0 c 4 0 c 4 0 c 5 0 c 4 2 c
5 0 c 4 0 c 4 1 c 5 4 c 4 2 c 4 2 c 5 5 c 4 1 c 5 -2 c 4 -1 c 4 -9 c 5 -5 c 4 0 c 4 1 c 5 -1 c 4 0 c 4 6 c 5 16 c 4 11 c 5 -1 c
4 -7 c 4 -17 c 5 -5 c 4 0 c 4 0 c 5 0 c 4 -1 c 5 -2 c 4 0 c 4 -1 c 5 1 c 4 0 c 4 1 c 5 5 c 4 2 c 5 2 c 4 0 c 4 1 c 5 29 c 4 322 c
4 626 c 5 266 c 4 3 c 4 -377 c 5 -550 c 4 -174 c 5 -68 c 4 -63 c 4 -17 c 5 -3 c 4 1 c 4 2 c 5 -1 c 4 -2 c 5 -3 c 4 -1 c 4 0 c 5 0 c
4 0 c 4 0 c 5 0 c 4 3 c 5 8 c 4 5 c 4 -1 c 5 -4 c 4 -9 c 4 -3 c 5 2 c 4 5 c 5 3 c 4 -1 c 4 -4 c 5 -4 c 4 -1 c 4 0 c 5 0 c 4 1 c
4 1 c 5 0 c 4 0 c 5 0 c 4 -1 c 4 -1 c 5 1 c 4 0 c 4 1 c 5 0 c 4 -2 c 5 -1 c 4 0 c 4 0 c 5 0 c 4 0 c 4 1 c 5 1 c 4 1 c 5 1 c 4 0 c
4 -1 c 5 -3 c 4 0 c 4 -1 c 5 0 c 4 1 c 5 0 c 4 0 c 4 0 c 5 0 c 4 0 c 4 2 c 5 1 c 4 4 c 4 21 c 5 94 c 4 74 c 5 16 c 4 -21 c 4 -99 c
5 -74 c 4 -9 c 4 -3 c 5 -1 c 4 0 c 5 -1 c 4 -2 c 4 -1 c 5 1 c 4 0 c 4 -1 c 5 0 c 4 -1 c 5 1 c 4 0 c 4 -1 c 5 0 c 4 -1 c 4 0 c 5 0 c
4 0 c 5 0 c 4 0 c 4 1 c 5 0 c 4 1 c 4 0 c 5 0 c 4 1 c 4 0 c 5 0 c 4 0 c 5 -1 c 4 -1 c 4 0 c 5 1 c 4 0 c 4 0 c 5 0 c 4 0 c 5 4 c
4 11 c 4 7 c 5 1 c 4 -4 c 4 -11 c 5 -6 c 4 0 c 5 4 c 4 41 c 4 147 c 5 162 c 4 69 c 4 44 c 5 -105 c 4 -130 c 5 -64 c 4 -88 c 4 -65 c
5 -9 c 4 -1 c 4 -1 c 5 -1 c 4 0 c 4 1 c 5 2 c 4 3 c 5 11 c 4 10 c 4 1 c 5 -5 c 4 -14 c 4 -10 c 5 -2 c 4 2 c 5 2 c 4 2 c 4 2 c 5 8 c
4 41 c 4 289 c 5 755 c 4 412 c 5 23 c 4 -338 c 4 -787 c 5 -333 c 4 -58 c 4 -8 c 5 -2 c 4 -3 c 4 -1 c 5 1 c 4 0 c 5 0 c 4 0 c 4 -3 c
5 -3 c 4 0 c 4 0 c 5 -1 c 4 0 c 5 -1 c 4 0 c 4 0 c 5 0 c 4 1 c 4 -1 c 5 1 c 4 0 c 5 0 c 4 0 c 4 0 c 5 1 c 4 0 c 4 5 c 5 23 c 4 31 c
5 7 c 4 3 c 4 53 c 5 596 c 4 1009 c 4 305 c 5 -68 c 4 -739 c 4 -972 c 5 -210 c 4 -20 c 5 0 c 4 -5 c 4 -8 c 5 -5 c 4 0 c 4 2 c 5 6 c
4 36 c 5 336 c 4 834 c 4 354 c 5 -16 c 4 -380 c 4 -828 c 5 -158 c 4 509 c 5 425 c 4 36 c 4 -172 c 5 -581 c 4 -348 c 4 -51 c 5 -4 c
4 -2 c 5 -1 c 4 0 c 4 0 c 5 1 c 4 13 c 4 68 c 5 64 c 4 10 c 4 -16 c 5 -76 c 4 -61 c 5 -7 c 4 0 c 4 -1 c 5 1 c 4 3 c 4 5 c 5 2 c
4 0 c 5 -3 c 4 2 c 4 7 c 5 3 c 4 -1 c 4 -6 c 5 -8 c 4 -4 c 5 -1 c 4 1 c 4 1 c 5 1 c 4 -1 c 4 -2 c 5 0 c 4 0 c 5 0 c 4 0 c 4 0 c
5 0 c 4 -1 c 4 0 c 5 -1 c 4 0 c 4 0 c 5 0 c 4 1 c 5 0 c 4 0 c 4 0 c 5 0 c 4 -1 c 4 1 c 5 0 c 4 0 c 5 0 c 4 1 c 4 0 c 5 1 c 4 0 c
4 0 c 5 -1 c 4 0 c 5 3 c 4 1 c 4 0 c 5 -1 c 4 -3 c 4 -1 c 5 1 c 4 1 c 4 2 c 5 0 c 4 1 c 5 -1 c 4 -2 c 4 0 c 5 -1 c 4 0 c 4 3 c
5 16 c 4 67 c 5 52 c 4 10 c 4 -19 c 5 -73 c 4 -46 c 4 -7 c 5 0 c 4 0 c 5 -1 c 4 -17 c 4 16 c 5 -1 c 4 -1 c 4 0 c 5 0 c 4 0 c 5 0 c
4 1 c 4 0 c 5 2 c 4 1 c 4 1 c 5 -1 c 4 -1 c 4 1 c 5 -1 c 4 0 c 5 -1 c 4 -1 c 4 -1 c 5 -1 c 4 1 c 4 1 c 5 1 c 4 2 c 5 0 c 4 13 c
4 45 c 5 24 c 4 2 c 4 -15 c 5 -27 c 4 19 c 5 14 c 4 1 c 4 -6 c 5 -26 c 4 -12 c 4 -5 c 5 -14 c 4 -13 c 5 -2 c 4 0 c 4 0 c 5 0 c 4 0 c
4 1 c 5 0 c 4 0 c 4 0 c 5 0 c 4 1 c 5 0 c 4 1 c 4 10 c 5 42 c 4 35 c 4 7 c 5 -11 c 4 -43 c 5 -32 c 4 -4 c 4 3 c 5 7 c 4 67 c 4 499 c
5 917 c 4 270 c 5 -57 c 4 -549 c 4 -917 c 5 -201 c 4 -12 c 4 12 c 5 1 c 4 3 c 5 -6 c 4 -2 c 4 20 c 5 37 c 4 239 c 4 2121 c 5 3573 c
4 -29 c 4 24 c 5 -31 c 4 -3383 c 5 -2296 c 4 -216 c 4 -18 c 5 0 c 4 117 c 4 323 c 5 124 c 4 -25 c 5 -158 c 4 -322 c 4 -120 c 5 -11 c
4 0 c 4 1 c 5 -1 c 4 3 c 5 28 c 4 94 c 4 46 c 5 2 c 4 -33 c 4 -102 c 5 -41 c 4 1 c 5 18 c 4 20 c 4 1 c 5 -3 c 4 -21 c 4 -19 c 5 -4 c
4 0 c 4 0 c 5 0 c 4 -1 c 5 2 c 4 0 c 4 1 c 5 0 c 4 0 c 4 1 c 5 1 c 4 0 c 5 -1 c 4 -3 c 4 0 c 5 4 c 4 4 c 4 1 c 5 1 c 4 1 c 5 0 c
4 0 c 4 -2 c 5 -5 c 4 -4 c 4 -1 c 5 0 c 4 2 c 4 1 c 5 0 c 4 -1 c 5 -1 c 4 -1 c 4 0 c 5 1 c 4 0 c 4 0 c 5 2 c 4 2 c 5 0 c 4 0 c
4 -2 c 5 -1 c 4 5 c 4 17 c 5 11 c 4 -1 c 5 -4 c 4 -18 c 4 -7 c 5 8 c 4 9 c 4 7 c 5 19 c 4 197 c 5 1017 c 4 837 c 4 90 c 5 -196 c
4 -1042 c 4 -828 c 5 -103 c 4 -11 c 4 -3 c 5 -2 c 4 -1 c 5 -1 c 4 1 c 4 0 c 5 1 c 4 -1 c 4 0 c 5 -1 c 4 -2 c 5 -1 c 4 -1 c 4 1 c
5 1 c 4 0 c 4 1 c 5 0 c 4 0 c 5 -1 c 4 -1 c 4 -1 c 5 0 c 4 0 c 4 1 c 5 0 c 4 0 c 5 0 c 4 1 c 4 5 c 5 38 c 4 80 c 4 27 c 5 -5 c
4 -37 c 4 -76 c 5 -19 c 4 1 c 5 1 c 4 -3 c 4 -6 c 5 -3 c 4 -2 c 4 1 c 5 5 c 4 1 c 5 0 c 4 -3 c 4 -4 c 5 -2 c 4 -1 c 4 1 c 5 0 c
4 -1 c 5 1 c 4 0 c 4 0 c 5 1 c 4 1 c 4 1 c 5 3 c 4 3 c 5 0 c 4 0 c 4 -5 c 5 -4 c 4 0 c 4 0 c 5 0 c 4 0 c 4 1 c 5 -1 c 4 0 c 5 1 c
4 1 c 4 1 c 5 0 c 4 0 c 4 0 c 5 0 c 4 0 c 5 3 c 4 8 c 4 11 c 5 5 c 4 -2 c 4 -8 c 5 -13 c 4 -4 c 5 -1 c 4 2 c 4 2 c 5 1 c 4 0 c
4 18 c 5 110 c 4 118 c 5 24 c 4 -22 c 4 -110 c 5 -123 c 4 -19 c 4 -1 c 5 0 c 4 0 c 4 1 c 5 3 c 4 11 c 5 18 c 4 54 c 4 58 c 5 0 c
4 -17 c 4 -54 c 5 -66 c 4 -8 c 5 0 c 4 1 c 4 0 c 5 1 c 4 1 c 4 -1 c 5 0 c 4 0 c 5 0 c 4 0 c 4 0 c 5 -1 c 4 0 c 4 0 c 5 1 c 4 2 c
4 2 c 5 1 c 4 1 c 5 -2 c 4 -1 c 4 -1 c 5 0 c 4 4 c 4 13 c 5 63 c 4 88 c 5 16 c 4 -14 c 4 -56 c 5 -94 c 4 -14 c 4 1 c 5 2 c 4 1 c
5 3 c 4 -1 c 4 -3 c 5 -1 c 4 0 c 4 0 c 5 1 c 4 3 c 5 1 c 4 1 c 4 1 c 5 -1 c 4 0 c 4 2 c 5 2 c 4 4 c 4 5 c 5 4 c 4 4 c 5 5 c 4 3 c
4 12 c 5 13 c 4 7 c 4 11 c 5 14 c 4 18 c 5 28 c 4 60 c 4 162 c 5 5645 c 4 13 c 4 8 c 5 -17 c 4 1 c 5 -10 c 4 2 c 4 11 c 5 15 c
4 -5763 c 4 -78 c 5 -47 c 4 -24 c 5 -17 c 4 16 c 4 21 c 5 -11 c 4 -19 c 4 -37 c 5 -33 c 4 -5 c 4 -4 c 5 -6 c 4 -6 c 5 -2 c 4 -1 c
4 2 c 5 9 c 4 5 c 4 -1 c 5 -2 c 4 -9 c 5 -9 c 4 1 c 4 2 c 5 -1 c 4 0 c 4 -5 c 5 -4 c 4 0 c 5 0 c 4 0 c 4 3 c 5 0 c 4 -1 c 4 0 c
5 -2 c 4 0 c 5 0 c 4 -1 c 4 -1 c 5 -1 c 4 0 c 4 -1 c 5 1 c 4 1 c 4 1 c 5 -1 c 4 1 c 5 17 c 4 41 c 4 13 c 5 -1 c 4 -17 c 4 -37 c
5 -11 c 4 -1 c 5 -2 c 4 -5 c 4 -3 c 5 -1 c 4 1 c 4 1 c 5 1 c 4 1 c 5 5 c 4 11 c 4 109 c 5 787 c 4 1288 c 4 276 c 5 -41 c 4 -710 c
5 -1374 c 4 -298 c 4 -37 c 5 -12 c 4 -5 c 4 -2 c 5 -1 c 4 -1 c 4 0 c 5 -1 c 4 -1 c 5 0 c 4 0 c 4 4 c 5 3 c 4 1 c 4 0 c 5 -3 c 4 -5 c
5 0 c 4 1 c 4 -1 c 5 -1 c 4 -1 c 4 0 c 5 0 c 4 0 c 5 0 c 4 2 c 4 0 c 5 0 c 4 -2 c 4 0 c 5 -1 c 4 0 c 4 0 c 5 0 c 4 0 c 5 1 c 4 -1 c
4 0 c 5 1 c 4 0 c 4 0 c 5 0 c 4 1 c 5 -1 c 4 0 c 4 0 c 5 -1 c 4 -1 c 4 1 c 5 1 c 4 0 c 5 0 c 4 0 c 4 -1 c 5 1 c 4 3 c 4 2 c 5 3 c
4 25 c 5 88 c 4 87 c 4 15 c 5 -25 c 4 -85 c 4 -100 c 5 -13 c 4 0 c 4 0 c 5 2 c 4 3 c 5 4 c 4 2 c 4 0 c 5 -3 c 4 -2 c 4 -2 c 5 1 c
4 0 c 5 -2 c 4 -1 c 4 -2 c 5 -1 c 4 0 c 4 0 c 5 0 c 4 0 c 5 0 c 4 0 c 4 -1 c 5 1 c 4 0 c 4 0 c 5 1 c 4 1 c 5 5 c 4 3 c 4 1 c 5 -1 c
4 -5 c 4 -5 c 5 2 c 4 20 c 4 115 c 5 119 c 4 18 c 5 -15 c 4 -99 c 4 -132 c 5 -24 c 4 -1 c 4 5 c 5 29 c 4 246 c 5 616 c 4 212 c
4 -19 c 5 -210 c 4 -602 c 4 -252 c 5 -23 c 4 -2 c 5 0 c 4 -1 c 4 0 c 5 3 c 4 8 c 4 1 c 5 -1 c 4 -4 c 5 -7 c 4 -1 c 4 1 c 5 -1 c
4 0 c 4 -1 c 5 -1 c 4 1 c 4 -1 c 5 0 c 4 0 c 5 0 c 4 -1 c 4 0 c 5 0 c 4 1 c 4 0 c 5 0 c 4 0 c 5 -1 c 4 1 c 4 7 c 5 39 c 4 36 c 4 6 c
5 -6 c 4 -33 c 5 -39 c 4 -8 c 4 -2 c 5 0 c 4 2 c 4 0 c 5 5 c 4 11 c 4 14 c 5 7 c 4 -1 c 5 -12 c 4 -14 c 4 -12 c 5 -1 c 4 1 c 4 3 c
5 2 c 4 1 c 5 -1 c 4 -3 c 4 -2 c 5 -1 c 4 0 c 4 1 c 5 3 c 4 1 c 5 3 c 4 -1 c 4 -2 c 5 -2 c 4 -2 c 4 -1 c 5 3 c 4 10 c 5 4 c 4 1 c
4 -2 c 5 -10 c 4 -5 c 4 0 c 5 1 c 4 -1 c 4 0 c 5 0 c 4 -1 c 5 0 c 4 0 c 4 3 c 5 17 c 4 64 c 4 37 c 5 2 c 4 -11 c 5 -58 c 4 -38 c
4 6 c 5 7 c 4 44 c 4 172 c 5 210 c 4 58 c 5 -25 c 4 -148 c 4 -208 c 5 -14 c 4 18 c 4 0 c 5 -22 c 4 -60 c 5 -34 c 4 -6 c 4 -3 c
5 -2 c 4 -2 c 4 -2 c 5 -1 c 4 -1 c 4 -1 c 5 -1 c 4 -2 c 5 -1 c 4 1 c 4 0 c 5 0 c 4 1 c 4 0 c 5 1 c 4 3 c 5 2 c 4 -1 c 4 0 c 5 -3 c
4 -1 c 4 -1 c 5 0 c 4 -1 c 5 0 c 4 0 c 4 0 c 5 0 c 4 1 c 4 3 c 5 3 c 4 3 c 5 6 c 4 57 c 4 298 c 5 389 c 4 93 c 4 1 c 5 -247 c
4 -411 c 4 -116 c 5 -58 c 4 -14 c 5 -4 c 4 -1 c 4 0 c 5 -1 c 4 0 c 4 0 c 5 -1 c 4 0 c 5 0 c 4 0 c 4 1 c 5 3 c 4 5 c 4 2 c 5 -1 c
4 -3 c 5 -6 c 4 -2 c 4 0 c 5 3 c 4 2 c 4 3 c 5 2 c 4 -2 c 5 -1 c 4 -4 c 4 -3 c 5 1 c 4 0 c 4 -1 c 5 0 c 4 0 c 4 0 c 5 0 c 4 1 c
5 3 c 4 5 c 4 0 c 5 0 c 4 -4 c 4 -4 c 5 -1 c 4 1 c 5 0 c 4 -1 c 4 -1 c 5 0 c 4 0 c 4 1 c 5 11 c 4 31 c 5 14 c 4 -1 c 4 -6 c 5 -29 c
4 -16 c 4 1 c 5 2 c 4 -1 c 4 -2 c 5 -2 c 4 0 c 5 0 c 4 -1 c 4 -1 c 5 0 c 4 -1 c 4 -1 c 5 1 c 4 0 c 5 -1 c 4 1 c 4 2 c 5 10 c 4 59 c
4 85 c 5 17 c 4 -7 c 5 -42 c 4 -99 c 4 -21 c 5 8 c 4 62 c 4 84 c 5 16 c 4 -3 c 5 -47 c 4 -97 c 4 -24 c 5 -2 c 4 -1 c 4 0 c 5 0 c
4 0 c 4 1 c 5 2 c 4 -1 c 5 2 c 4 0 c 4 -1 c 5 5 c 4 8 c 4 0 c 5 -2 c 4 -3 c 5 -9 c 4 -2 c 4 0 c 5 0 c 4 0 c 4 0 c 5 2 c 4 2 c 5 2 c
4 2 c 4 0 c 5 0 c 4 -2 c 4 -3 c 5 -3 c 4 0 c 5 0 c 4 0 c 4 0 c 5 0 c 4 0 c 4 0 c 5 0 c 4 -1 c 4 1 c 5 0 c 4 0 c 5 1 c 4 0 c 4 0 c
5 2 c 4 5 c 4 2 c 5 0 c 4 -1 c 5 -7 c 4 -2 c 4 0 c 5 0 c 4 2 c 4 4 c 5 10 c 4 32 c 5 25 c 4 -3 c 4 -6 c 5 -29 c 4 -31 c 4 -5 c
5 0 c 4 0 c 5 0 c 4 1 c 4 -11 c 4 11 9549 780 l 4 -1 c 5 0 c 4 0 c 4 0 c 5 0 c 4 1 c 5 -1 c 4 0 c 4 0 c 5 1 c 4 0 c 4 0 c 5 -1 c
4 0 c 5 1 c 4 0 c 4 -1 c 5 1 c 4 -1 c 4 0 c 5 0 c 4 4 c 5 9 c 4 3 c 4 1 c 5 -2 c 4 -7 c 4 -5 c 5 -1 c 4 1 c 5 4 c 4 5 c 4 5 c 5 7 c
4 11 c 4 28 c 5 8 c 4 -6 c
0 -126 3030 418 l 54 0 3030 418 l 18 -6 c 6 -6 c 6 -12 c 0 -12 c -6 -12 c -6 -6 c -18 -6 c -54 0 c 42 -66 3072 358 l
-12 -6 3180 376 l -12 -12 c -6 -18 c 0 -12 c 6 -18 c 12 -12 c 12 -6 c 18 0 c 12 6 c 12 12 c 6 18 c 0 12 c -6 18 c -12 12 c -12 6 c
-18 0 c 24 -84 3264 376 l -24 -84 3312 376 l 24 -84 3312 376 l -24 -84 3360 376 l 108 0 3402 364 l 108 0 3402 328 l 66 0 3660 418 l
-36 -48 c 18 0 c 12 -6 c 6 -6 c 6 -18 c 0 -12 c -6 -18 c -12 -12 c -18 -6 c -18 0 c -18 6 c -6 6 c -6 12 c 66 0 3780 418 l -36 -48 c
18 0 c 12 -6 c 6 -6 c 6 -18 c 0 -12 c -6 -18 c -12 -12 c -18 -6 c -18 0 c -18 6 c -6 6 c -6 12 c 12 6 4290 394 l 18 18 c 0 -126 c
-6 -6 4404 376 l 6 -6 c 6 6 c -6 6 c -6 -6 4404 304 l 6 -6 c 6 6 c -6 6 c -48 -126 4584 418 l 48 -126 4584 418 l 60 0 4554 334 l
0 -84 4662 376 l 6 18 4662 340 l 12 12 c 12 6 c 18 0 c -12 12 4806 358 l -12 6 c -18 0 c -12 -6 c -12 -12 c -6 -18 c 0 -12 c 6 -18 c
12 -12 c 12 -6 c 18 0 c 12 6 c 12 12 c 108 0 4848 346 l -18 -6 5034 418 l -12 -18 c -6 -30 c 0 -18 c 6 -30 c 12 -18 c 18 -6 c 12 0 c
18 6 c 12 18 c 6 30 c 0 18 c -6 30 c -12 18 c -18 6 c -12 0 c 66 0 5130 418 l -36 -48 c 18 0 c 12 -6 c 6 -6 c 6 -18 c 0 -12 c
-6 -18 c -12 -12 c -18 -6 c -18 0 c -18 6 c -6 6 c -6 12 c -59 0 5309 418 l -6 -54 c 6 6 c 17 6 c 18 0 c 18 -6 c 12 -12 c 6 -18 c
0 -12 c -6 -18 c -12 -12 c -18 -6 c -18 0 c -17 6 c -6 6 c -6 12 c -6 -6 5369 304 l 6 -6 c 6 6 c -6 6 c -12 0 5459 418 l -12 -6 c
-6 -18 c 0 -102 c 42 0 5411 376 l 6 -6 5489 418 l 6 6 c -6 6 c -6 -6 c 0 -84 5495 376 l 0 -102 5549 418 l 6 -18 c 12 -6 c 12 0 c
42 0 5531 376 l -6 12 5675 358 l -18 6 c -18 0 c -18 -6 c -6 -12 c 6 -12 c 12 -6 c 30 -6 c 12 -6 c 6 -12 c 0 -6 c -6 -12 c -18 -6 c
-18 0 c -18 6 c -6 12 c 0 -192 6005 442 l 0 -192 6011 442 l 42 0 6005 442 l 42 0 6005 250 l 0 6 6089 388 l 6 12 c 6 6 c 12 6 c
24 0 c 12 -6 c 6 -6 c 6 -12 c 0 -12 c -6 -12 c -12 -18 c -60 -60 c 84 0 c -6 -6 6215 376 l 6 -6 c 6 6 c -6 6 c -6 -6 6215 304 l
6 -6 c 6 6 c -6 6 c -48 -126 6395 418 l 48 -126 6395 418 l 60 0 6365 334 l 0 -84 6473 376 l 6 18 6473 340 l 12 12 c 12 6 c 18 0 c
-12 12 6617 358 l -12 6 c -18 0 c -12 -6 c -12 -12 c -6 -18 c 0 -12 c 6 -18 c 12 -12 c 12 -6 c 18 0 c 12 6 c 12 12 c
108 0 6659 346 l -18 -6 6845 418 l -12 -18 c -6 -30 c 0 -18 c 6 -30 c 12 -18 c 18 -6 c 12 0 c 18 6 c 12 18 c 6 30 c 0 18 c -6 30 c
-12 18 c -18 6 c -12 0 c 66 0 6941 418 l -36 -48 c 18 0 c 12 -6 c 6 -6 c 6 -18 c 0 -12 c -6 -18 c -12 -12 c -18 -6 c -18 0 c -18 6 c
-6 6 c -6 12 c -6 12 7127 400 l -18 6 c -12 0 c -18 -6 c -12 -18 c -6 -30 c 0 -30 c 6 -24 c 12 -12 c 18 -6 c 6 0 c 18 6 c 12 12 c
6 18 c 0 6 c -6 18 c -12 12 c -18 6 c -6 0 c -18 -6 c -12 -12 c -6 -18 c -6 -6 7181 304 l 6 -6 c 6 6 c -6 6 c -12 0 7271 418 l
-12 -6 c -6 -18 c 0 -102 c 42 0 7223 376 l 6 -6 7301 418 l 6 6 c -6 6 c -6 -6 c 0 -84 7307 376 l 0 -102 7361 418 l 6 -18 c 12 -6 c
12 0 c 42 0 7343 376 l -6 12 7487 358 l -18 6 c -18 0 c -18 -6 c -6 -12 c 6 -12 c 12 -6 c 30 -6 c 12 -6 c 6 -12 c 0 -6 c -6 -12 c
-18 -6 c -18 0 c -18 6 c -6 12 c 0 -192 7559 442 l 0 -192 7565 442 l 42 0 7523 442 l 42 0 7523 250 l
0 -249 963 7019 l 0 -38 920 7136 l 34 -3 c -4 3 c -4 12 c 0 11 c 4 11 c 8 8 c 11 4 c 7 0 c 12 -4 c 7 -8 c 4 -11 c 0 -11 c -4 -12 c
-3 -3 c -8 -4 c 79 -37 920 7219 l 0 52 920 7167 l 4 -12 920 7265 l 11 -7 c 19 -4 c 11 0 c 19 4 c 11 7 c 4 12 c 0 7 c -4 12 c -11 7 c
-19 4 c -11 0 c -19 -4 c -11 -7 c -4 -12 c 0 -7 c 4 -11 920 7340 l 11 -8 c 19 -3 c 11 0 c 19 3 c 11 8 c 4 11 c 0 8 c -4 11 c -11 8 c
-19 4 c -11 0 c -19 -4 c -11 -8 c -4 -11 c 0 -8 c 3 -4 992 7401 l 4 4 c -4 4 c -3 -4 c 12 -4 946 7480 l 7 -7 c 4 -11 c 0 -4 c
-4 -12 c -7 -7 c -12 -4 c -4 0 c -11 4 c -7 7 c -4 12 c 0 4 c 4 11 c 7 7 c 15 4 c 19 0 c 19 -4 c 11 -7 c 4 -11 c 0 -8 c -4 -11 c
-7 -4 c -4 8 935 7518 l -11 11 c 79 0 c 4 -11 920 7601 l 7 -4 c 8 0 c 7 4 c 4 7 c 4 15 c 4 12 c 7 7 c 8 4 c 11 0 c 8 -4 c 3 -3 c
4 -12 c 0 -15 c -4 -11 c -3 -4 c -8 -4 c -11 0 c -8 4 c -7 8 c -4 11 c -4 15 c -4 8 c -7 3 c -8 0 c -7 -3 c -4 -12 c 0 -15 c
0 -250 1138 1344 l 0 -38 1095 1461 l 34 -3 c -4 3 c -4 12 c 0 11 c 4 11 c 8 8 c 11 4 c 8 0 c 11 -4 c 7 -8 c 4 -11 c 0 -11 c -4 -12 c
-3 -3 c -8 -4 c 79 -37 1095 1544 l 0 53 1095 1491 l 4 -12 1095 1590 l 11 -7 c 19 -4 c 11 0 c 19 4 c 11 7 c 4 12 c 0 7 c -4 12 c
-11 7 c -19 4 c -11 0 c -19 -4 c -11 -7 c -4 -12 c 0 -7 c -4 0 1114 1646 l -8 4 c -3 4 c -4 8 c 0 15 c 4 7 c 3 4 c 8 4 c 8 0 c
7 -4 c 11 -8 c 38 -37 c 0 53 c 3 -4 1167 1726 l 4 4 c -4 4 c -3 -4 c -7 -4 1106 1805 l -4 -11 c 0 -8 c 4 -11 c 11 -7 c 19 -4 c
19 0 c 15 4 c 7 7 c 4 11 c 0 4 c -4 12 c -7 7 c -11 4 c -4 0 c -12 -4 c -7 -7 c -4 -12 c 0 -4 c 4 -11 c 7 -7 c 12 -4 c
0 -38 1095 1877 l 34 -4 c -4 4 c -4 12 c 0 11 c 4 11 c 8 8 c 11 4 c 8 0 c 11 -4 c 7 -8 c 4 -11 c 0 -11 c -4 -12 c -3 -4 c -8 -3 c
-4 7 1110 1919 l -11 11 c 79 0 c 0 -250 1446 1261 l 0 -38 1403 1378 l 34 -4 c -4 4 c -4 11 c 0 12 c 4 11 c 7 8 c 12 3 c 7 0 c
12 -3 c 7 -8 c 4 -11 c 0 -12 c -4 -11 c -3 -4 c -8 -3 c 79 -38 1403 1461 l 0 53 1403 1408 l 3 -11 1403 1506 l 12 -8 c 19 -3 c 11 0 c
19 3 c 11 8 c 4 11 c 0 8 c -4 11 c -11 8 c -19 4 c -11 0 c -19 -4 c -12 -8 c -3 -11 c 0 -8 c 0 -38 1403 1605 l 34 -4 c -4 4 c
-4 11 c 0 12 c 4 11 c 7 7 c 12 4 c 7 0 c 12 -4 c 7 -7 c 4 -11 c 0 -12 c -4 -11 c -3 -4 c -8 -4 c 3 -3 1475 1642 l 4 3 c -4 4 c
-3 -4 c -8 -4 1414 1722 l -3 -11 c 0 -8 c 3 -11 c 12 -8 c 19 -4 c 19 0 c 15 4 c 7 8 c 4 11 c 0 4 c -4 11 c -7 8 c -12 4 c -3 0 c
-12 -4 c -7 -8 c -4 -11 c 0 -4 c 4 -11 c 7 -8 c 12 -4 c 0 41 1403 1756 l 30 -22 c 0 11 c 4 8 c 3 3 c 12 4 c 7 0 c 12 -4 c 7 -7 c
4 -11 c 0 -12 c -4 -11 c -3 -4 c -8 -4 c 79 -38 1403 1877 l 0 53 1403 1824 l 0 -249 1596 7019 l 0 -38 1553 7136 l 34 -3 c -4 3 c
-4 12 c 0 11 c 4 11 c 7 8 c 12 4 c 7 0 c 12 -4 c 7 -8 c 4 -11 c 0 -11 c -4 -12 c -4 -3 c -7 -4 c 79 -37 1553 7219 l 0 52 1553 7167 l
3 -12 1553 7265 l 12 -7 c 19 -4 c 11 0 c 19 4 c 11 7 c 4 12 c 0 7 c -4 12 c -11 7 c -19 4 c -11 0 c -19 -4 c -12 -7 c -3 -12 c
0 -7 c 79 -38 1553 7371 l 0 53 1553 7318 l 4 -4 1624 7401 l 4 4 c -4 4 c -4 -4 c -4 8 1568 7442 l -11 11 c 79 0 c 3 -11 1553 7529 l
12 -8 c 19 -3 c 11 0 c 19 3 c 11 8 c 4 11 c 0 8 c -4 11 c -11 8 c -19 4 c -11 0 c -19 -4 c -12 -8 c -3 -11 c 0 -8 c 0 41 1553 7590 l
30 -22 c 0 11 c 4 8 c 3 3 c 12 4 c 7 0 c 12 -4 c 7 -7 c 4 -12 c 0 -11 c -4 -11 c -4 -4 c -7 -4 c 0 -249 1757 1280 l
0 -37 1714 1397 l 34 -4 c -4 4 c -4 11 c 0 11 c 4 12 c 7 7 c 12 4 c 7 0 c 12 -4 c 7 -7 c 4 -12 c 0 -11 c -4 -11 c -4 -4 c -7 -4 c
79 -38 1714 1481 l 0 53 1714 1428 l 3 -11 1714 1526 l 12 -8 c 19 -4 c 11 0 c 19 4 c 11 8 c 4 11 c 0 7 c -4 12 c -11 7 c -19 4 c
-11 0 c -19 -4 c -12 -7 c -3 -12 c 0 -7 c 3 -12 1714 1598 l 8 -3 c 8 0 c 7 3 c 4 8 c 4 15 c 3 11 c 8 8 c 8 4 c 11 0 c 7 -4 c 4 -4 c
4 -11 c 0 -15 c -4 -12 c -4 -3 c -7 -4 c -11 0 c -8 4 c -8 7 c -3 11 c -4 16 c -4 7 c -7 4 c -8 0 c -8 -4 c -3 -11 c 0 -15 c
4 -4 1785 1662 l 4 4 c -4 4 c -4 -4 c -8 -3 1725 1741 l -3 -12 c 0 -7 c 3 -12 c 12 -7 c 19 -4 c 19 0 c 15 4 c 7 7 c 4 12 c 0 3 c
-4 12 c -7 7 c -12 4 c -3 0 c -12 -4 c -7 -7 c -4 -12 c 0 -3 c 4 -12 c 7 -7 c 12 -4 c 79 -38 1714 1821 l 0 53 1714 1768 l
11 -4 1740 1893 l 8 -8 c 4 -11 c 0 -4 c -4 -11 c -8 -8 c -11 -4 c -4 0 c -11 4 c -8 8 c -3 11 c 0 4 c 3 11 c 8 8 c 15 4 c 19 0 c
19 -4 c 11 -8 c 4 -11 c 0 -8 c -4 -11 c -7 -4 c 0 -249 2637 1411 l 0 -37 2593 1528 l 34 -4 c -3 4 c -4 11 c 0 11 c 4 12 c 7 7 c
12 4 c 7 0 c 11 -4 c 8 -7 c 4 -12 c 0 -11 c -4 -11 c -4 -4 c -7 -4 c 80 -38 2593 1612 l 0 53 2593 1559 l -4 7 2609 1646 l -12 12 c
80 0 c 80 -38 2593 1763 l 0 53 2593 1710 l 4 -4 2665 1793 l 4 4 c -4 4 c -4 -4 c -4 7 2609 1835 l -12 12 c 80 0 c 80 -38 2593 1952 l
0 53 2593 1899 l -4 7 2609 1986 l -12 12 c 80 0 c 0 -249 2893 3925 l 0 -37 2849 4042 l 34 -4 c -4 4 c -4 11 c 0 11 c 4 12 c 8 7 c
11 4 c 8 0 c 11 -4 c 8 -7 c 3 -12 c 0 -11 c -3 -11 c -4 -4 c -8 -4 c 79 -37 2849 4125 l 0 52 2849 4073 l -4 8 2864 4159 l -11 11 c
79 0 c 12 -4 2875 4273 l 7 -7 c 4 -12 c 0 -4 c -4 -11 c -7 -7 c -12 -4 c -3 0 c -12 4 c -7 7 c -4 11 c 0 4 c 4 12 c 7 7 c 15 4 c
19 0 c 19 -4 c 12 -7 c 3 -12 c 0 -7 c -3 -12 c -8 -3 c 4 -4 2921 4307 l 3 4 c -3 4 c -4 -4 c -7 -4 2860 4386 l -4 -11 c 0 -7 c
4 -12 c 11 -7 c 19 -4 c 19 0 c 15 4 c 8 7 c 3 12 c 0 3 c -3 12 c -8 7 c -11 4 c -4 0 c -11 -4 c -8 -7 c -4 -12 c 0 -3 c 4 -12 c
8 -7 c 11 -4 c -4 0 2868 4416 l -8 4 c -3 4 c -4 8 c 0 15 c 4 7 c 3 4 c 8 4 c 8 0 c 7 -4 c 12 -8 c 37 -37 c 0 53 c 0 41 2849 4496 l
30 -22 c 0 11 c 4 8 c 4 3 c 11 4 c 8 0 c 11 -4 c 8 -7 c 3 -11 c 0 -12 c -3 -11 c -4 -4 c -8 -4 c 0 -249 2952 7019 l
0 -38 2908 7136 l 34 -3 c -4 3 c -3 12 c 0 11 c 3 11 c 8 8 c 11 4 c 8 0 c 11 -4 c 8 -8 c 4 -11 c 0 -11 c -4 -12 c -4 -3 c -8 -4 c
80 -37 2908 7219 l 0 52 2908 7167 l -4 0 2927 7246 l -7 4 c -4 3 c -4 8 c 0 15 c 4 8 c 4 3 c 7 4 c 8 0 c 7 -4 c 12 -7 c 38 -38 c
0 53 c 4 -11 2908 7340 l 11 -8 c 19 -3 c 11 0 c 19 3 c 12 8 c 4 11 c 0 8 c -4 11 c -12 8 c -19 4 c -11 0 c -19 -4 c -11 -8 c
-4 -11 c 0 -8 c 4 -4 2980 7401 l 4 4 c -4 4 c -4 -4 c -4 8 2923 7442 l -11 11 c 80 0 c 4 -12 2908 7526 l 7 -4 c 8 0 c 8 4 c 3 8 c
4 15 c 4 11 c 7 8 c 8 4 c 11 0 c 8 -4 c 4 -4 c 4 -11 c 0 -15 c -4 -12 c -4 -4 c -8 -3 c -11 0 c -8 3 c -7 8 c -4 11 c -4 15 c -3 8 c
-8 4 c -8 0 c -7 -4 c -4 -11 c 0 -15 c 0 41 2908 7590 l 30 -22 c 0 11 c 4 8 c 4 3 c 11 4 c 8 0 c 11 -4 c 8 -7 c 4 -12 c 0 -11 c
-4 -11 c -4 -4 c -8 -4 c 0 -250 3498 3249 l 0 -38 3455 3366 l 34 -4 c -4 4 c -4 11 c 0 12 c 4 11 c 8 8 c 11 3 c 8 0 c 11 -3 c 7 -8 c
4 -11 c 0 -12 c -4 -11 c -3 -4 c -8 -4 c 79 -38 3455 3449 l 0 53 3455 3396 l -4 0 3474 3475 l -8 4 c -3 4 c -4 7 c 0 16 c 4 7 c
3 4 c 8 4 c 8 0 c 7 -4 c 11 -8 c 38 -37 c 0 52 c 0 -38 3455 3593 l 34 -4 c -4 4 c -4 11 c 0 11 c 4 12 c 8 7 c 11 4 c 8 0 c 11 -4 c
7 -7 c 4 -12 c 0 -11 c -4 -11 c -3 -4 c -8 -4 c 3 -3 3527 3630 l 4 3 c -4 4 c -3 -4 c 0 42 3455 3668 l 30 -23 c 0 11 c 4 8 c 4 4 c
11 3 c 8 0 c 11 -3 c 7 -8 c 4 -11 c 0 -12 c -4 -11 c -3 -4 c -8 -3 c 4 -11 3455 3755 l 7 -4 c 8 0 c 7 4 c 4 7 c 4 15 c 4 12 c 7 7 c
8 4 c 11 0 c 8 -4 c 3 -4 c 4 -11 c 0 -15 c -4 -11 c -3 -4 c -8 -4 c -11 0 c -8 4 c -7 7 c -4 12 c -4 15 c -4 7 c -7 4 c -8 0 c
-7 -4 c -4 -11 c 0 -15 c 12 -4 3481 3861 l 7 -7 c 4 -12 c 0 -4 c -4 -11 c -7 -8 c -12 -3 c -3 0 c -12 3 c -7 8 c -4 11 c 0 4 c
4 12 c 7 7 c 15 4 c 19 0 c 19 -4 c 11 -7 c 4 -12 c 0 -7 c -4 -12 c -7 -4 c 0 -250 3741 1380 l 0 -38 3697 1497 l 34 -3 c -3 3 c
-4 12 c 0 11 c 4 11 c 7 8 c 12 4 c 7 0 c 12 -4 c 7 -8 c 4 -11 c 0 -11 c -4 -12 c -4 -3 c -7 -4 c 80 -37 3697 1580 l 0 53 3697 1527 l
-3 0 3716 1607 l -8 4 c -4 3 c -4 8 c 0 15 c 4 8 c 4 3 c 8 4 c 7 0 c 8 -4 c 11 -7 c 38 -38 c 0 53 c 80 -38 3697 1732 l
0 53 3697 1679 l 4 -4 3769 1762 l 4 4 c -4 4 c -4 -4 c 80 -38 3697 1845 l 0 53 3697 1792 l -4 8 3713 1879 l -12 11 c 80 0 c
4 -11 3697 1966 l 12 -8 c 18 -4 c 12 0 c 19 4 c 11 8 c 4 11 c 0 7 c -4 12 c -11 7 c -19 4 c -12 0 c -18 -4 c -12 -7 c -4 -12 c
0 -7 c 0 -249 3982 1260 l 0 -37 3938 1377 l 34 -4 c -3 4 c -4 11 c 0 11 c 4 12 c 7 7 c 12 4 c 7 0 c 11 -4 c 8 -7 c 4 -12 c 0 -11 c
-4 -11 c -4 -4 c -7 -4 c 80 -37 3938 1460 l 0 52 3938 1408 l -4 0 3957 1487 l -7 4 c -4 4 c -4 7 c 0 15 c 4 8 c 4 4 c 7 3 c 8 0 c
8 -3 c 11 -8 c 38 -38 c 0 53 c 11 -4 3965 1608 l 8 -7 c 4 -12 c 0 -4 c -4 -11 c -8 -7 c -11 -4 c -4 0 c -11 4 c -8 7 c -4 11 c 0 4 c
4 12 c 8 7 c 15 4 c 19 0 c 19 -4 c 11 -7 c 4 -12 c 0 -7 c -4 -12 c -8 -3 c 4 -4 4010 1642 l 4 4 c -4 4 c -4 -4 c 11 -4 3965 1721 l
8 -7 c 4 -11 c 0 -4 c -4 -12 c -8 -7 c -11 -4 c -4 0 c -11 4 c -8 7 c -4 12 c 0 4 c 4 11 c 8 7 c 15 4 c 19 0 c 19 -4 c 11 -7 c
4 -11 c 0 -8 c -4 -11 c -8 -4 c 4 -12 3938 1767 l 8 -3 c 7 0 c 8 3 c 4 8 c 3 15 c 4 11 c 8 8 c 7 4 c 12 0 c 7 -4 c 4 -4 c 4 -11 c
0 -15 c -4 -12 c -4 -3 c -7 -4 c -12 0 c -7 4 c -8 7 c -4 11 c -3 16 c -4 7 c -8 4 c -7 0 c -8 -4 c -4 -11 c 0 -15 c
-4 0 3957 1827 l -7 4 c -4 4 c -4 7 c 0 15 c 4 8 c 4 4 c 7 3 c 8 0 c 8 -3 c 11 -8 c 38 -38 c 0 53 c 0 -249 4626 1443 l
0 -38 4582 1560 l 35 -3 c -4 3 c -4 12 c 0 11 c 4 11 c 7 8 c 12 4 c 7 0 c 12 -4 c 7 -8 c 4 -11 c 0 -11 c -4 -12 c -4 -3 c -7 -4 c
80 -37 4582 1643 l 0 52 4582 1591 l 0 41 4582 1674 l 31 -22 c 0 11 c 4 7 c 3 4 c 12 4 c 7 0 c 12 -4 c 7 -7 c 4 -12 c 0 -11 c
-4 -11 c -4 -4 c -7 -4 c -8 -4 4594 1791 l -4 -11 c 0 -8 c 4 -11 c 12 -8 c 19 -4 c 18 0 c 16 4 c 7 8 c 4 11 c 0 4 c -4 11 c -7 8 c
-12 4 c -4 0 c -11 -4 c -7 -8 c -4 -11 c 0 -4 c 4 -11 c 7 -8 c 11 -4 c 4 -4 4654 1825 l 4 4 c -4 4 c -4 -4 c 4 -12 4582 1878 l
12 -7 c 19 -4 c 11 0 c 19 4 c 11 7 c 4 12 c 0 7 c -4 12 c -11 7 c -19 4 c -11 0 c -19 -4 c -12 -7 c -4 -12 c 0 -7 c 0 42 4582 1938 l
31 -23 c 0 11 c 4 8 c 3 4 c 12 4 c 7 0 c 12 -4 c 7 -8 c 4 -11 c 0 -11 c -4 -12 c -4 -4 c -7 -3 c 4 -11 4582 2029 l 12 -8 c 19 -4 c
11 0 c 19 4 c 11 8 c 4 11 c 0 7 c -4 12 c -11 7 c -19 4 c -11 0 c -19 -4 c -12 -7 c -4 -12 c 0 -7 c 0 -250 5001 2770 l
0 -38 4957 2887 l 34 -3 c -4 3 c -4 12 c 0 11 c 4 11 c 8 8 c 11 4 c 8 0 c 11 -4 c 8 -8 c 3 -11 c 0 -11 c -3 -12 c -4 -3 c -8 -4 c
79 -38 4957 2970 l 0 53 4957 2917 l 0 41 4957 3001 l 30 -23 c 0 12 c 4 7 c 4 4 c 11 4 c 8 0 c 11 -4 c 8 -7 c 3 -12 c 0 -11 c
-3 -11 c -4 -4 c -8 -4 c 12 -4 4983 3118 l 7 -8 c 4 -11 c 0 -4 c -4 -11 c -7 -8 c -12 -3 c -3 0 c -12 3 c -7 8 c -4 11 c 0 4 c
4 11 c 7 8 c 15 4 c 19 0 c 19 -4 c 12 -8 c 3 -11 c 0 -8 c -3 -11 c -8 -4 c 4 -4 5029 3152 l 3 4 c -3 3 c -4 -3 c 0 -38 4957 3227 l
34 -3 c -4 3 c -4 12 c 0 11 c 4 12 c 8 7 c 11 4 c 8 0 c 11 -4 c 8 -7 c 3 -12 c 0 -11 c -3 -12 c -4 -3 c -8 -4 c -4 0 4976 3261 l
-7 4 c -4 4 c -4 7 c 0 16 c 4 7 c 4 4 c 7 4 c 8 0 c 7 -4 c 12 -8 c 37 -37 c 0 52 c 4 -12 4957 3356 l 11 -7 c 19 -4 c 11 0 c 19 4 c
12 7 c 3 12 c 0 7 c -3 12 c -12 7 c -19 4 c -11 0 c -19 -4 c -11 -7 c -4 -12 c 0 -7 c 0 -249 5178 3266 l 0 -38 5135 3384 l 34 -4 c
-4 4 c -4 11 c 0 12 c 4 11 c 8 7 c 11 4 c 7 0 c 12 -4 c 7 -7 c 4 -11 c 0 -12 c -4 -11 c -3 -4 c -8 -4 c 79 -38 5135 3467 l
0 53 5135 3414 l 53 -38 5135 3527 l 0 57 c 79 0 5135 3527 l -4 8 5150 3576 l -11 11 c 79 0 c 3 -4 5207 3648 l 4 4 c -4 4 c -3 -4 c
-4 7 5150 3690 l -11 12 c 79 0 c 79 -38 5135 3807 l 0 53 5135 3754 l -4 8 5150 3841 l -11 11 c 79 0 c 0 -250 5249 2808 l
0 -38 5206 2925 l 34 -3 c -4 3 c -4 12 c 0 11 c 4 11 c 8 8 c 11 4 c 7 0 c 12 -4 c 7 -8 c 4 -11 c 0 -11 c -4 -12 c -3 -3 c -8 -4 c
79 -37 5206 3008 l 0 53 5206 2955 l 53 -38 5206 3069 l 0 57 c 79 0 5206 3069 l -4 8 5221 3118 l -11 11 c 79 0 c 3 -4 5278 3190 l
4 4 c -4 4 c -3 -4 c 4 -11 5206 3239 l 7 -4 c 8 0 c 7 4 c 4 7 c 4 15 c 4 12 c 7 7 c 8 4 c 11 0 c 8 -4 c 3 -4 c 4 -11 c 0 -15 c
-4 -11 c -3 -4 c -8 -4 c -11 0 c -8 4 c -7 7 c -4 12 c -4 15 c -4 7 c -7 4 c -8 0 c -7 -4 c -4 -11 c 0 -15 c -4 0 5225 3299 l -8 4 c
-3 4 c -4 7 c 0 16 c 4 7 c 3 4 c 8 4 c 7 0 c 8 -4 c 11 -8 c 38 -37 c 0 52 c 12 -3 5232 3420 l 7 -8 c 4 -11 c 0 -4 c -4 -11 c -7 -8 c
-12 -4 c -4 0 c -11 4 c -7 8 c -4 11 c 0 4 c 4 11 c 7 8 c 15 3 c 19 0 c 19 -3 c 11 -8 c 4 -11 c 0 -8 c -4 -11 c -7 -4 c
0 -250 6000 3003 l 0 -38 5957 3120 l 34 -4 c -4 4 c -4 12 c 0 11 c 4 11 c 8 8 c 11 4 c 7 0 c 12 -4 c 7 -8 c 4 -11 c 0 -11 c -4 -12 c
-3 -4 c -8 -3 c 79 -38 5957 3203 l 0 53 5957 3150 l 53 -38 5957 3264 l 0 57 c 79 0 5957 3264 l 4 -11 5957 3320 l 7 -4 c 8 0 c 7 4 c
4 8 c 4 15 c 4 11 c 7 8 c 8 3 c 11 0 c 8 -3 c 3 -4 c 4 -12 c 0 -15 c -4 -11 c -3 -4 c -8 -4 c -11 0 c -8 4 c -7 8 c -4 11 c -4 15 c
-4 8 c -7 4 c -8 0 c -7 -4 c -4 -12 c 0 -15 c 3 -4 6029 3385 l 4 4 c -4 3 c -3 -3 c 79 -38 5957 3468 l 0 53 5957 3415 l
53 -38 5957 3528 l 0 57 c 79 0 5957 3528 l -4 8 5972 3577 l -11 11 c 79 0 c 0 -249 6071 7019 l 0 -38 6028 7136 l 34 -3 c -4 3 c
-4 12 c 0 11 c 4 11 c 8 8 c 11 4 c 7 0 c 12 -4 c 7 -8 c 4 -11 c 0 -11 c -4 -12 c -3 -3 c -8 -4 c 79 -37 6028 7219 l 0 52 6028 7167 l
53 -38 6028 7280 l 0 57 c 79 0 6028 7280 l 12 -4 6054 7367 l 7 -8 c 4 -11 c 0 -4 c -4 -11 c -7 -8 c -12 -3 c -4 0 c -11 3 c -8 8 c
-3 11 c 0 4 c 3 11 c 8 8 c 15 4 c 19 0 c 19 -4 c 11 -8 c 4 -11 c 0 -7 c -4 -12 c -7 -4 c 3 -4 6100 7401 l 4 4 c -4 4 c -3 -4 c
0 41 6028 7439 l 30 -22 c 0 11 c 4 7 c 4 4 c 11 4 c 7 0 c 12 -4 c 7 -7 c 4 -12 c 0 -11 c -4 -11 c -3 -4 c -8 -4 c 3 -12 6028 7526 l
8 -4 c 8 0 c 7 4 c 4 8 c 4 15 c 4 11 c 7 8 c 8 4 c 11 0 c 8 -4 c 3 -4 c 4 -11 c 0 -15 c -4 -12 c -3 -4 c -8 -3 c -11 0 c -8 3 c
-7 8 c -4 11 c -4 15 c -4 8 c -7 4 c -8 0 c -8 -4 c -3 -11 c 0 -15 c 3 -11 6028 7601 l 8 -4 c 8 0 c 7 4 c 4 7 c 4 15 c 4 12 c 7 7 c
8 4 c 11 0 c 8 -4 c 3 -3 c 4 -12 c 0 -15 c -4 -11 c -3 -4 c -8 -4 c -11 0 c -8 4 c -7 8 c -4 11 c -4 15 c -4 8 c -7 3 c -8 0 c
-8 -3 c -3 -12 c 0 -15 c 0 -250 6114 1880 l 0 -38 6071 1997 l 34 -4 c -4 4 c -4 11 c 0 12 c 4 11 c 8 8 c 11 3 c 8 0 c 11 -3 c 7 -8 c
4 -11 c 0 -12 c -4 -11 c -3 -4 c -8 -3 c 79 -38 6071 2080 l 0 53 6071 2027 l 53 -38 6071 2141 l 0 56 c 79 0 6071 2141 l
12 -3 6097 2227 l 7 -8 c 4 -11 c 0 -4 c -4 -11 c -7 -8 c -12 -4 c -3 0 c -12 4 c -7 8 c -4 11 c 0 4 c 4 11 c 7 8 c 15 3 c 19 0 c
19 -3 c 11 -8 c 4 -11 c 0 -8 c -4 -11 c -7 -4 c 3 -3 6143 2261 l 4 3 c -4 4 c -3 -4 c 79 -38 6071 2345 l 0 53 6071 2292 l
4 -11 6071 2386 l 7 -4 c 8 0 c 7 4 c 4 7 c 4 16 c 4 11 c 7 7 c 8 4 c 11 0 c 8 -4 c 3 -3 c 4 -12 c 0 -15 c -4 -11 c -3 -4 c -8 -4 c
-11 0 c -8 4 c -7 8 c -4 11 c -4 15 c -4 8 c -7 3 c -8 0 c -7 -3 c -4 -12 c 0 -15 c -7 -4 6082 2492 l -4 -11 c 0 -8 c 4 -11 c
11 -8 c 19 -3 c 19 0 c 15 3 c 7 8 c 4 11 c 0 4 c -4 11 c -7 8 c -11 4 c -4 0 c -12 -4 c -7 -8 c -4 -11 c 0 -4 c 4 -11 c 7 -8 c
12 -3 c 0 -250 6471 3422 l 0 -38 6427 3539 l 34 -3 c -4 3 c -3 12 c 0 11 c 3 11 c 8 8 c 11 4 c 8 0 c 11 -4 c 8 -8 c 3 -11 c 0 -11 c
-3 -12 c -4 -3 c -8 -4 c 79 -38 6427 3622 l 0 53 6427 3569 l 0 -37 6427 3690 l 34 -4 c -4 4 c -3 11 c 0 11 c 3 12 c 8 7 c 11 4 c
8 0 c 11 -4 c 8 -7 c 3 -12 c 0 -11 c -3 -11 c -4 -4 c -8 -4 c 0 42 6427 3728 l 30 -23 c 0 11 c 4 8 c 4 4 c 11 3 c 8 0 c 11 -3 c
8 -8 c 3 -11 c 0 -12 c -3 -11 c -4 -4 c -8 -3 c 4 -4 6499 3804 l 3 4 c -3 3 c -4 -3 c 4 -12 6427 3857 l 11 -7 c 19 -4 c 11 0 c
19 4 c 12 7 c 3 12 c 0 7 c -3 12 c -12 7 c -19 4 c -11 0 c -19 -4 c -11 -7 c -4 -12 c 0 -7 c -4 0 6446 3913 l -7 4 c -4 4 c -4 7 c
0 16 c 4 7 c 4 4 c 7 4 c 8 0 c 7 -4 c 12 -8 c 37 -37 c 0 52 c -7 -4 6438 4034 l -4 -11 c 0 -7 c 4 -12 c 11 -7 c 19 -4 c 19 0 c
15 4 c 8 7 c 3 12 c 0 3 c -3 12 c -8 7 c -11 4 c -4 0 c -11 -4 c -8 -7 c -4 -12 c 0 -3 c 4 -12 c 8 -7 c 11 -4 c 0 -249 7304 7019 l
0 -38 7260 7136 l 34 -3 c -3 3 c -4 12 c 0 11 c 4 11 c 7 8 c 11 4 c 8 0 c 11 -4 c 8 -8 c 4 -11 c 0 -11 c -4 -12 c -4 -3 c -7 -4 c
80 -37 7260 7219 l 0 52 7260 7167 l -8 -4 7272 7291 l -4 -11 c 0 -7 c 4 -12 c 11 -7 c 19 -4 c 19 0 c 15 4 c 8 7 c 4 12 c 0 3 c
-4 12 c -8 7 c -11 4 c -4 0 c -11 -4 c -8 -7 c -3 -12 c 0 -3 c 3 -12 c 8 -7 c 11 -4 c 4 -11 7260 7340 l 11 -8 c 19 -3 c 12 0 c
19 3 c 11 8 c 4 11 c 0 8 c -4 11 c -11 8 c -19 4 c -12 0 c -19 -4 c -11 -8 c -4 -11 c 0 -8 c 4 -4 7332 7401 l 4 4 c -4 4 c -4 -4 c
0 -37 7260 7476 l 34 -4 c -3 4 c -4 11 c 0 11 c 4 12 c 7 7 c 11 4 c 8 0 c 11 -4 c 8 -7 c 4 -12 c 0 -11 c -4 -11 c -4 -4 c -7 -4 c
0 -38 7260 7552 l 34 -4 c -3 4 c -4 12 c 0 11 c 4 11 c 7 8 c 11 4 c 8 0 c 11 -4 c 8 -8 c 4 -11 c 0 -11 c -4 -12 c -4 -4 c -7 -3 c
-3 7 7275 7594 l -12 11 c 80 0 c 0 -250 7640 3718 l 0 -38 7596 3835 l 34 -4 c -4 4 c -4 12 c 0 11 c 4 11 c 8 8 c 11 4 c 8 0 c
11 -4 c 8 -8 c 3 -11 c 0 -11 c -3 -12 c -4 -4 c -8 -3 c 79 -38 7596 3918 l 0 53 7596 3865 l -7 -4 7607 3990 l -4 -11 c 0 -8 c
4 -11 c 11 -8 c 19 -3 c 19 0 c 15 3 c 8 8 c 3 11 c 0 4 c -3 11 c -8 8 c -11 4 c -4 0 c -11 -4 c -8 -8 c -4 -11 c 0 -4 c 4 -11 c
8 -8 c 11 -3 c 0 42 7596 4024 l 30 -23 c 0 11 c 4 8 c 4 4 c 11 3 c 8 0 c 11 -3 c 8 -8 c 3 -11 c 0 -12 c -3 -11 c -4 -4 c -8 -4 c
4 -4 7668 4100 l 3 4 c -3 3 c -4 -3 c 0 -38 7596 4175 l 34 -3 c -4 3 c -4 12 c 0 11 c 4 11 c 8 8 c 11 4 c 8 0 c 11 -4 c 8 -8 c
3 -11 c 0 -11 c -3 -12 c -4 -3 c -8 -4 c -4 0 7615 4209 l -7 4 c -4 4 c -4 7 c 0 15 c 4 8 c 4 4 c 7 4 c 8 0 c 7 -4 c 12 -8 c
37 -38 c 0 53 c 12 -4 7622 4330 l 7 -7 c 4 -12 c 0 -3 c -4 -12 c -7 -7 c -12 -4 c -3 0 c -12 4 c -7 7 c -4 12 c 0 3 c 4 12 c 7 7 c
15 4 c 19 0 c 19 -4 c 12 -7 c 3 -12 c 0 -7 c -3 -11 c -8 -4 c 0 -249 8119 1505 l 0 -37 8076 1622 l 34 -4 c -4 4 c -4 11 c 0 11 c
4 12 c 8 7 c 11 4 c 8 0 c 11 -4 c 7 -7 c 4 -12 c 0 -11 c -4 -11 c -3 -4 c -8 -4 c 79 -38 8076 1706 l 0 53 8076 1653 l
-7 -3 8087 1777 l -4 -12 c 0 -7 c 4 -12 c 11 -7 c 19 -4 c 19 0 c 15 4 c 7 7 c 4 12 c 0 4 c -4 11 c -7 7 c -11 4 c -4 0 c -12 -4 c
-7 -7 c -4 -11 c 0 -4 c 4 -12 c 7 -7 c 12 -4 c 79 -38 8076 1857 l 0 53 8076 1804 l 3 -4 8148 1887 l 4 4 c -4 4 c -3 -4 c
79 -38 8076 1970 l 0 53 8076 1917 l 79 -38 8076 2046 l 0 53 8076 1993 l 12 -4 8102 2118 l 7 -8 c 4 -11 c 0 -4 c -4 -11 c -7 -8 c
-12 -4 c -3 0 c -12 4 c -7 8 c -4 11 c 0 4 c 4 11 c 7 8 c 15 4 c 19 0 c 19 -4 c 11 -8 c 4 -11 c 0 -8 c -4 -11 c -7 -4 c
0 -250 8165 2343 l 0 -38 8121 2460 l 34 -4 c -3 4 c -4 12 c 0 11 c 4 11 c 7 8 c 12 4 c 7 0 c 11 -4 c 8 -8 c 4 -11 c 0 -11 c -4 -12 c
-4 -4 c -7 -3 c 80 -38 8121 2543 l 0 53 8121 2490 l -8 -4 8133 2615 l -4 -11 c 0 -8 c 4 -11 c 12 -8 c 18 -3 c 19 0 c 15 3 c 8 8 c
4 11 c 0 4 c -4 11 c -8 8 c -11 4 c -4 0 c -11 -4 c -8 -8 c -3 -11 c 0 -4 c 3 -11 c 8 -8 c 11 -3 c 4 -11 8121 2660 l 8 -4 c 7 0 c
8 4 c 4 8 c 3 15 c 4 11 c 8 8 c 7 3 c 12 0 c 7 -3 c 4 -4 c 4 -12 c 0 -15 c -4 -11 c -4 -4 c -7 -4 c -12 0 c -7 4 c -8 8 c -4 11 c
-3 15 c -4 8 c -8 4 c -7 0 c -8 -4 c -4 -12 c 0 -15 c 4 -4 8193 2725 l 4 4 c -4 3 c -4 -3 c -4 8 8137 2766 l -12 11 c 80 0 c
4 -11 8121 2849 l 8 -4 c 7 0 c 8 4 c 4 8 c 3 15 c 4 11 c 8 8 c 7 3 c 12 0 c 7 -3 c 4 -4 c 4 -12 c 0 -15 c -4 -11 c -4 -4 c -7 -4 c
-12 0 c -7 4 c -8 8 c -4 11 c -3 15 c -4 8 c -8 4 c -7 0 c -8 -4 c -4 -12 c 0 -15 c -4 8 8137 2917 l -12 11 c 80 0 c
0 -250 8573 1353 l 0 -38 8529 1470 l 34 -4 c -3 4 c -4 12 c 0 11 c 4 11 c 7 8 c 11 4 c 8 0 c 11 -4 c 8 -8 c 4 -11 c 0 -11 c -4 -12 c
-4 -4 c -7 -3 c 80 -38 8529 1553 l 0 53 8529 1500 l 80 -38 8529 1629 l 0 53 8529 1576 l -3 7 8544 1663 l -12 12 c 80 0 c
4 -4 8601 1735 l 4 4 c -4 3 c -4 -3 c 80 -38 8529 1818 l 0 53 8529 1765 l -8 -3 8541 1889 l -4 -12 c 0 -7 c 4 -12 c 11 -7 c 19 -4 c
19 0 c 15 4 c 8 7 c 4 12 c 0 4 c -4 11 c -8 7 c -11 4 c -4 0 c -11 -4 c -8 -7 c -3 -11 c 0 -4 c 3 -12 c 8 -7 c 11 -4 c
4 -12 8529 1939 l 11 -7 c 19 -4 c 12 0 c 19 4 c 11 7 c 4 12 c 0 7 c -4 12 c -11 7 c -19 4 c -12 0 c -19 -4 c -11 -7 c -4 -12 c
0 -7 c 0 -249 8824 2082 l 0 -38 8781 2200 l 34 -4 c -4 4 c -4 11 c 0 11 c 4 12 c 7 7 c 12 4 c 7 0 c 12 -4 c 7 -7 c 4 -12 c 0 -11 c
-4 -11 c -4 -4 c -7 -4 c 79 -38 8781 2283 l 0 53 8781 2230 l 79 -38 8781 2358 l 0 53 8781 2305 l 0 42 8781 2388 l 30 -23 c 0 12 c
4 7 c 3 4 c 12 4 c 7 0 c 12 -4 c 7 -7 c 4 -12 c 0 -11 c -4 -12 c -4 -3 c -7 -4 c 4 -4 8852 2464 l 4 4 c -4 4 c -4 -4 c
11 -3 8807 2543 l 8 -8 c 4 -11 c 0 -4 c -4 -11 c -8 -8 c -11 -4 c -4 0 c -11 4 c -8 8 c -3 11 c 0 4 c 3 11 c 8 8 c 15 3 c 19 0 c
19 -3 c 11 -8 c 4 -11 c 0 -8 c -4 -11 c -7 -4 c 53 -38 8781 2608 l 0 57 c 79 0 8781 2608 l -8 -4 8792 2695 l -3 -11 c 0 -8 c 3 -11 c
12 -8 c 19 -4 c 19 0 c 15 4 c 7 8 c 4 11 c 0 4 c -4 11 c -7 8 c -12 3 c -3 0 c -12 -3 c -7 -8 c -4 -11 c 0 -4 c 4 -11 c 7 -8 c
12 -4 c 0 -250 9222 1402 l 0 -38 9178 1519 l 34 -4 c -4 4 c -3 12 c 0 11 c 3 11 c 8 8 c 11 4 c 8 0 c 11 -4 c 8 -8 c 4 -11 c 0 -11 c
-4 -12 c -4 -4 c -8 -3 c 80 -38 9178 1602 l 0 53 9178 1549 l 80 -38 9178 1678 l 0 53 9178 1625 l 80 -37 9178 1753 l 0 53 9178 1700 l
4 -4 9250 1784 l 4 4 c -4 3 c -4 -3 c 53 -38 9178 1852 l 0 56 c 80 0 9178 1852 l 4 -11 9178 1912 l 11 -8 c 19 -4 c 12 0 c 18 4 c
12 8 c 4 11 c 0 8 c -4 11 c -12 7 c -18 4 c -12 0 c -19 -4 c -11 -7 c -4 -11 c 0 -8 c -3 8 9193 1976 l -12 11 c 80 0 c
0 -250 9504 1301 l 0 -38 9460 1418 l 34 -3 c -3 3 c -4 12 c 0 11 c 4 11 c 7 8 c 11 4 c 8 0 c 11 -4 c 8 -8 c 4 -11 c 0 -11 c -4 -12 c
-4 -3 c -7 -4 c 80 -38 9460 1501 l 0 53 9460 1448 l 80 -38 9460 1577 l 0 53 9460 1524 l 11 -4 9487 1649 l 8 -8 c 3 -11 c 0 -4 c
-3 -11 c -8 -8 c -11 -4 c -4 0 c -11 4 c -8 8 c -4 11 c 0 4 c 4 11 c 8 8 c 15 4 c 19 0 c 19 -4 c 11 -8 c 4 -11 c 0 -8 c -4 -11 c
-8 -4 c 4 -4 9532 1683 l 4 4 c -4 3 c -4 -3 c 4 -12 9460 1732 l 8 -3 c 7 0 c 8 3 c 4 8 c 3 15 c 4 11 c 8 8 c 7 4 c 12 0 c 7 -4 c
4 -4 c 4 -11 c 0 -15 c -4 -12 c -4 -3 c -7 -4 c -12 0 c -7 4 c -8 7 c -4 12 c -3 15 c -4 7 c -8 4 c -7 0 c -8 -4 c -4 -11 c 0 -15 c
0 42 9460 1796 l 31 -23 c 0 11 c 3 8 c 4 4 c 11 3 c 8 0 c 11 -3 c 8 -8 c 4 -11 c 0 -12 c -4 -11 c -4 -4 c -7 -4 c 0 -37 9460 1909 l
34 -4 c -3 4 c -4 11 c 0 11 c 4 12 c 7 7 c 11 4 c 8 0 c 11 -4 c 8 -7 c 4 -12 c 0 -11 c -4 -11 c -4 -4 c -7 -4 c
showpage PGPLOT restore
 
%%Trailer
%%DocumentFonts: 
%%Pages: 1
%%EOF
