%!PS-Adobe-3.0 EPSF-3.0
%%For: tom
%%Title: PGPLOT PostScript plot
%%Creator: PGPLOT
%%CreationDate:  9-Nov-1994 13:53
%%BoundingBox: 25 18 587 774
%%DocumentFonts: (atend)
%%LanguageLevel: 1
%%Orientation: Landscape
%%Pages: (atend)
%%EndComments
%%BeginProlog
/l {moveto rlineto currentpoint stroke moveto} bind def
/c {rlineto currentpoint stroke moveto} bind def
/d {moveto 0 0 rlineto currentpoint stroke moveto} bind def
/SLW {5 mul setlinewidth} bind def
/SCF /pop load def
/BP {newpath moveto} bind def
/LP /rlineto load def
/EP {rlineto closepath eofill} bind def
/MB {gsave translate MFAC dup scale 1 setlinewidth 2 setlinecap 0 setlinejoin newpath} bind def
/ME /grestore load def
/C {0 360 arc stroke} bind def
/FC {0 360 arc fill} bind def
%%EndProlog
 
%%Page: 1 1
%%BeginPageSetup
/PGPLOT save def
0.072 0.072 scale
8150 250 translate 90 rotate
1 setlinejoin 1 setlinecap 1 SLW 1 SCF
%%EndPageSetup
0.00 setgray 1 SLW 8939 0 780 780 l 0 6239 c -8939 0 c 0 -6239 c 0 -45 1116 780 l 0 -45 1554 780 l 0 -45 1991 780 l 0 -45 2428 780 l
0 -90 2865 780 l 0 -45 3302 780 l 0 -45 3739 780 l 0 -45 4176 780 l 0 -45 4613 780 l 0 -90 5051 780 l 0 -45 5488 780 l
0 -45 5925 780 l 0 -45 6362 780 l 0 -45 6799 780 l 0 -90 7236 780 l 0 -45 7673 780 l 0 -45 8110 780 l 0 -45 8548 780 l
0 -45 8985 780 l 0 -90 9422 780 l 0 -45 1116 7064 l 0 -45 1554 7064 l 0 -45 1991 7064 l 0 -45 2428 7064 l 0 -90 2865 7109 l
0 -45 3302 7064 l 0 -45 3739 7064 l 0 -45 4176 7064 l 0 -45 4613 7064 l 0 -90 5051 7109 l 0 -45 5488 7064 l 0 -45 5925 7064 l
0 -45 6362 7064 l 0 -45 6799 7064 l 0 -90 7236 7109 l 0 -45 7673 7064 l 0 -45 8110 7064 l 0 -45 8548 7064 l 0 -45 8985 7064 l
0 -90 9422 7109 l -60 0 2775 672 l -6 -54 c 6 6 c 18 6 c 18 0 c 18 -6 c 12 -12 c 6 -18 c 0 -12 c -6 -18 c -12 -12 c -18 -6 c -18 0 c
-18 6 c -6 6 c -6 12 c -18 -6 2859 672 l -12 -18 c -6 -30 c 0 -18 c 6 -30 c 12 -18 c 18 -6 c 12 0 c 18 6 c 12 18 c 6 30 c 0 18 c
-6 30 c -12 18 c -18 6 c -12 0 c -18 -6 2979 672 l -12 -18 c -6 -30 c 0 -18 c 6 -30 c 12 -18 c 18 -6 c 12 0 c 18 6 c 12 18 c 6 30 c
0 18 c -6 30 c -12 18 c -18 6 c -12 0 c 12 6 4847 648 l 18 18 c 0 -126 c -18 -6 4985 672 l -12 -18 c -6 -30 c 0 -18 c 6 -30 c
12 -18 c 18 -6 c 12 0 c 18 6 c 12 18 c 6 30 c 0 18 c -6 30 c -12 18 c -18 6 c -12 0 c -18 -6 5105 672 l -12 -18 c -6 -30 c 0 -18 c
6 -30 c 12 -18 c 18 -6 c 12 0 c 18 6 c 12 18 c 6 30 c 0 18 c -6 30 c -12 18 c -18 6 c -12 0 c -18 -6 5225 672 l -12 -18 c -6 -30 c
0 -18 c 6 -30 c 12 -18 c 18 -6 c 12 0 c 18 6 c 12 18 c 6 30 c 0 18 c -6 30 c -12 18 c -18 6 c -12 0 c 12 6 7032 648 l 18 18 c
0 -126 c -60 0 7206 672 l -6 -54 c 6 6 c 18 6 c 18 0 c 18 -6 c 12 -12 c 6 -18 c 0 -12 c -6 -18 c -12 -12 c -18 -6 c -18 0 c -18 6 c
-6 6 c -6 12 c -18 -6 7290 672 l -12 -18 c -6 -30 c 0 -18 c 6 -30 c 12 -18 c 18 -6 c 12 0 c 18 6 c 12 18 c 6 30 c 0 18 c -6 30 c
-12 18 c -18 6 c -12 0 c -18 -6 7410 672 l -12 -18 c -6 -30 c 0 -18 c 6 -30 c 12 -18 c 18 -6 c 12 0 c 18 6 c 12 18 c 6 30 c 0 18 c
-6 30 c -12 18 c -18 6 c -12 0 c 0 6 9206 642 l 6 12 c 6 6 c 12 6 c 24 0 c 12 -6 c 6 -6 c 6 -12 c 0 -12 c -6 -12 c -12 -18 c
-60 -60 c 84 0 c -18 -6 9356 672 l -12 -18 c -6 -30 c 0 -18 c 6 -30 c 12 -18 c 18 -6 c 12 0 c 18 6 c 12 18 c 6 30 c 0 18 c -6 30 c
-12 18 c -18 6 c -12 0 c -18 -6 9476 672 l -12 -18 c -6 -30 c 0 -18 c 6 -30 c 12 -18 c 18 -6 c 12 0 c 18 6 c 12 18 c 6 30 c 0 18 c
-6 30 c -12 18 c -18 6 c -12 0 c -18 -6 9596 672 l -12 -18 c -6 -30 c 0 -18 c 6 -30 c 12 -18 c 18 -6 c 12 0 c 18 6 c 12 18 c 6 30 c
0 18 c -6 30 c -12 18 c -18 6 c -12 0 c -90 0 780 780 l -45 0 780 1718 l -90 0 780 2657 l -45 0 780 3595 l -90 0 780 4533 l
-45 0 780 5472 l -90 0 780 6410 l -90 0 9809 780 l -45 0 9764 1718 l -90 0 9809 2657 l -45 0 9764 3595 l -90 0 9809 4533 l
-45 0 9764 5472 l -90 0 9809 6410 l 6 -18 517 774 l 18 -12 c 30 -6 c 18 0 c 30 6 c 18 12 c 6 18 c 0 12 c -6 18 c -18 12 c -30 6 c
-18 0 c -30 -6 c -18 -12 c -6 -18 c 0 -12 c -6 0 547 2399 l -12 6 c -6 6 c -6 12 c 0 24 c 6 12 c 6 6 c 12 6 c 12 0 c 12 -6 c
18 -12 c 60 -60 c 0 84 c 84 84 547 2519 l 84 -84 547 2603 l -6 12 541 2663 l -18 18 c 126 0 c 6 -18 517 2801 l 18 -12 c 30 -6 c
18 0 c 30 6 c 18 12 c 6 18 c 0 12 c -6 18 c -18 12 c -30 6 c -18 0 c -30 -6 c -18 -12 c -6 -18 c 0 -12 c 63 -45 453 2925 l 0 68 c
94 0 453 2925 l 84 -60 517 4329 l 0 90 c 126 0 517 4329 l 84 84 547 4395 l 84 -84 547 4479 l -6 12 541 4539 l -18 18 c 126 0 c
6 -18 517 4677 l 18 -12 c 30 -6 c 18 0 c 30 6 c 18 12 c 6 18 c 0 12 c -6 18 c -18 12 c -30 6 c -18 0 c -30 -6 c -18 -12 c -6 -18 c
0 -12 c 63 -45 453 4802 l 0 67 c 94 0 453 4802 l -12 -6 535 6224 l -6 -18 c 0 -12 c 6 -18 c 18 -12 c 30 -6 c 30 0 c 24 6 c 12 12 c
6 18 c 0 6 c -6 18 c -12 12 c -18 6 c -6 0 c -18 -6 c -12 -12 c -6 -18 c 0 -6 c 6 -18 c 12 -12 c 18 -6 c 84 84 547 6272 l
84 -84 547 6356 l -6 12 541 6416 l -18 18 c 126 0 c 6 -18 517 6554 l 18 -12 c 30 -6 c 18 0 c 30 6 c 18 12 c 6 18 c 0 12 c -6 18 c
-18 12 c -30 6 c -18 0 c -30 -6 c -18 -12 c -6 -18 c 0 -12 c 63 -45 453 6679 l 0 67 c 94 0 453 6679 l
4 1 780 793 l 5 3 c 4 2 c 4 -1 c 5 -2 c 4 -3 c 4 -2 c 5 0 c 4 0 c 5 0 c 4 0 c 4 0 c 5 1 c 4 0 c 4 0 c 5 0 c 4 1 c 5 0 c 4 1 c 4 3 c
5 9 c 4 34 c 4 72 c 5 39 c 4 12 c 5 17 c 4 -32 c 4 -25 c 5 -37 c 4 -70 c 4 -19 c 5 -1 c 4 0 c 5 0 c 4 1 c 4 2 c 5 1 c 4 2 c 4 2 c
5 4 c 4 11 c 4 29 c 5 26 c 4 7 c 5 26 c 4 137 c 4 646 c 5 2724 c 4 2415 c 4 8 c 5 -2 c 4 -1441 c 5 -3918 c 4 -574 c 4 -43 c 5 -10 c
4 -12 c 4 -14 c 5 -8 c 4 -6 c 5 -3 c 4 -2 c 4 -1 c 5 -1 c 4 -1 c 4 -2 c 5 -1 c 4 0 c 5 1 c 4 0 c 4 2 c 5 12 c 4 49 c 4 207 c 5 375 c
4 78 c 4 -64 c 5 -329 c 4 -285 c 5 -45 c 4 -2 c 4 2 c 5 3 c 4 -22 c 5 21 1151 780 l 4 -2 c 5 3 c 4 15 c 4 19 c 5 3 c 4 -6 c 4 -25 c
5 -12 c 4 -1 c 5 -1 c 4 -1 c 4 0 c 5 1 c 4 0 c 4 4 c 5 13 c 4 63 c 5 120 c 4 37 c 4 -18 c 5 -87 c 4 -115 c 4 -14 c 5 0 c 4 3 c 4 2 c
5 -2 c 4 0 c 5 0 c 4 -1 c 4 -1 c 5 -2 c 4 -3 c 4 0 c 5 1 c 4 4 c 5 2 c 4 1 c 4 -2 c 5 -4 c 4 -3 c 4 0 c 5 1 c 4 1 c 5 0 c 4 -1 c
4 -2 c 5 0 c 4 0 c 4 1 c 5 0 c 4 0 c 5 1 c 4 1 c 4 9 c 5 10 c 4 3 c 4 -5 c 5 -11 c 4 -7 c 4 1 c 5 0 c 4 -1 c 5 0 c 4 -1 c 4 0 c
5 1 c 4 0 c 4 2 c 5 5 c 4 1 c 5 1 c 4 -2 c 4 -4 c 5 0 c 4 2 c 4 13 c 5 49 c 4 36 c 5 1 c 4 -21 c 4 -59 c 5 -21 c 4 -3 c 4 0 c 5 0 c
4 -1 c 4 1 c 5 3 c 4 9 c 5 3 c 4 0 c 4 -5 c 5 -8 c 4 -1 c 4 1 c 5 0 c 4 0 c 5 1 c 4 1 c 4 1 c 5 0 c 4 2 c 4 3 c 5 12 c 4 34 c 5 86 c
4 429 c 4 1717 c 5 1207 c 4 3 c 4 -753 c 5 -2008 c 4 -669 c 5 -51 c 4 -3 c 4 -3 c 5 2 c 4 2 c 4 -1 c 5 -2 c 4 -6 c 4 -2 c 5 -2 c
4 -2 c 5 0 c 4 0 c 4 0 c 5 0 c 4 0 c 4 1 c 5 3 c 4 1 c 5 1 c 4 1 c 4 -3 c 5 0 c 4 -1 c 4 0 c 5 12 c 4 14 c 5 2 c 4 -3 c 4 -16 c
5 -10 c 4 -2 c 4 2 c 5 0 c 4 2 c 5 2 c 4 -1 c 4 -1 c 5 -4 c 4 -1 c 4 -1 c 5 0 c 4 1 c 4 0 c 5 0 c 4 -1 c 5 0 c 4 0 c 4 0 c 5 0 c
4 0 c 4 1 c 5 0 c 4 0 c 5 2 c 4 0 c 4 0 c 5 0 c 4 0 c 4 1 c 5 7 c 4 5 c 5 4 c 4 18 c 4 85 c 5 55 c 4 3 c 4 -30 c 5 -110 c 4 -37 c
5 -2 c 4 1 c 4 3 c 5 22 c 4 90 c 4 53 c 5 8 c 4 -21 c 4 -65 c 5 139 c 4 310 c 5 117 c 4 -33 c 4 -261 c 5 -272 c 4 -83 c 4 -5 c
5 -1 c 4 0 c 5 1 c 4 0 c 4 0 c 5 -2 c 4 -1 c 4 0 c 5 3 c 4 5 c 5 3 c 4 0 c 4 -5 c 5 -5 c 4 -2 c 4 0 c 5 1 c 4 -1 c 5 0 c 4 0 c 4 0 c
5 1 c 4 1 c 4 1 c 5 5 c 4 10 c 4 64 c 5 243 c 4 143 c 5 4 c 4 -98 c 4 -263 c 5 -47 c 4 106 c 4 93 c 5 4 c 4 -49 c 5 -121 c 4 -71 c
4 -16 c 5 -5 c 4 -2 c 4 -1 c 5 -1 c 4 0 c 5 -1 c 4 1 c 4 0 c 5 0 c 4 0 c 4 -1 c 5 0 c 4 0 c 4 0 c 5 0 c 4 0 c 5 0 c 4 1 c 4 1 c
5 2 c 4 7 c 4 6 c 5 24 c 4 143 c 5 182 c 4 24 c 4 -49 c 5 -193 c 4 -129 c 4 -15 c 5 0 c 4 3 c 5 1 c 4 4 c 4 27 c 5 104 c 4 48 c
4 4 c 5 -45 c 4 -109 c 5 -27 c 4 6 c 4 17 c 5 51 c 4 251 c 4 999 c 5 800 c 4 147 c 4 -366 c 5 -1166 c 4 -578 c 5 -105 c 4 -38 c
4 -13 c 5 -8 c 4 -3 c 4 -2 c 5 2 c 4 3 c 5 -1 c 4 0 c 4 -3 c 5 -1 c 4 8 c 4 10 c 5 3 c 4 0 c 5 -7 c 4 0 c 4 36 c 5 23 c 4 -4 c
4 -14 c 5 -43 c 4 -15 c 5 -1 c 4 0 c 4 -1 c 5 1 c 4 0 c 4 0 c 5 0 c 4 1 c 4 5 c 5 46 c 4 112 c 5 36 c 4 -1 c 4 -63 c 5 -111 c
4 -21 c 4 -2 c 5 -1 c 4 0 c 5 0 c 4 1 c 4 3 c 5 30 c 4 82 c 4 33 c 5 13 c 4 -43 c 5 -81 c 4 -29 c 4 -6 c 5 6 c 4 51 c 4 126 c 5 46 c
4 -1 c 5 -73 c 4 -117 c 4 -9 c 5 179 c 4 685 c 4 320 c 5 8 c 4 -288 c 4 -726 c 5 -183 c 4 -11 c 5 17 c 4 174 c 4 963 c 5 720 c
4 83 c 4 -286 c 5 -1139 c 4 -462 c 5 77 c 4 362 c 4 128 c 5 -5 c 4 -191 c 4 -363 c 5 -85 c 4 -5 c 5 0 c 4 3 c 4 2 c 5 0 c 4 -2 c
4 -5 c 5 -1 c 4 -1 c 4 0 c 5 -1 c 4 1 c 5 -1 c 4 0 c 4 1 c 5 1 c 4 1 c 4 4 c 5 20 c 4 107 c 5 82 c 4 14 c 4 -30 c 5 -126 c 4 -67 c
4 -5 c 5 -1 c 4 0 c 5 0 c 4 0 c 4 0 c 5 0 c 4 1 c 4 0 c 5 1 c 4 5 c 5 37 c 4 59 c 4 24 c 5 4 c 4 -50 c 4 -51 c 5 -17 c 4 -4 c 4 1 c
5 4 c 4 47 c 5 43 c 4 5 c 4 -16 c 5 -60 c 4 -31 c 4 -2 c 5 1 c 4 1 c 5 3 c 4 1 c 4 0 c 5 -1 c 4 -1 c 4 6 c 5 7 c 4 2 c 5 2 c 4 1 c
4 5 c 5 15 c 4 75 c 4 930 c 5 2803 c 4 1117 c 5 -1 c 4 -1416 c 4 -2825 c 5 -659 c 4 -37 c 4 -1 c 5 -4 c 4 -2 c 4 -5 c 5 0 c 4 2 c
5 -2 c 4 -4 c 4 -6 c 5 -3 c 4 -1 c 4 0 c 5 -1 c 4 0 c 5 1 c 4 6 c 4 27 c 5 13 c 4 -1 c 4 -6 c 5 -25 c 4 -4 c 5 -1 c 4 -1 c 4 -3 c
5 -3 c 4 -1 c 4 -3 c 5 0 c 4 14 c 5 26 c 4 9 c 4 -5 c 5 -19 c 4 -24 c 4 -4 c 5 1 c 4 0 c 4 2 c 5 3 c 4 2 c 5 1 c 4 -2 c 4 -2 c 5 0 c
4 0 c 4 0 c 5 -1 c 4 -1 c 5 -1 c 4 -1 c 4 0 c 5 -1 c 4 1 c 4 0 c 5 0 c 4 0 c 5 0 c 4 -1 c 4 2 c 5 4 c 4 2 c 4 -1 c 5 -1 c 4 -4 c
5 -3 c 4 1 c 4 0 c 5 3 c 4 9 c 4 2 c 5 1 c 4 -4 c 4 -4 c 5 12 c 4 15 c 5 7 c 4 -3 c 4 -15 c 5 -15 c 4 -5 c 4 3 c 5 11 c 4 6 c 5 1 c
4 -4 c 4 -14 c 5 -3 c 4 4 c 4 3 c 5 1 c 4 -1 c 5 -5 c 4 -1 c 4 5 c 5 50 c 4 56 c 4 8 c 5 -12 c 4 -59 c 4 -45 c 5 -5 c 4 -1 c 5 0 c
4 -1 c 4 1 c 5 0 c 4 0 c 4 0 c 5 0 c 4 4 c 5 3 c 4 0 c 4 0 c 5 1 c 4 19 c 4 13 c 5 1 c 4 2 c 5 28 c 4 34 c 4 5 c 5 -13 c 4 -63 c
4 -30 c 5 -2 c 4 6 c 5 6 c 4 8 c 4 2 c 5 -1 c 4 29 c 4 48 c 5 10 c 4 -5 c 4 -47 c 5 -44 c 4 -8 c 5 -2 c 4 -3 c 4 0 c 5 0 c 4 1 c
4 0 c 5 1 c 4 3 c 5 7 c 4 3 c 4 -1 c 5 -6 c 4 -6 c 4 -2 c 5 -1 c 4 0 c 5 0 c 4 0 c 4 8 c 5 4 c 4 1 c 4 -4 c 5 -6 c 4 -4 c 5 0 c
4 1 c 4 1 c 5 1 c 4 -1 c 4 -1 c 5 0 c 4 -1 c 4 0 c 5 0 c 4 1 c 5 4 c 4 24 c 4 22 c 5 2 c 4 -5 c 4 -27 c 5 -14 c 4 -1 c 5 0 c 4 -2 c
4 -3 c 5 -1 c 4 0 c 4 1 c 5 -1 c 4 1 c 5 0 c 4 -1 c 4 0 c 5 0 c 4 0 c 4 2 c 5 7 c 4 83 c 5 165 c 4 48 c 4 1 c 5 -115 c 4 -155 c
4 -31 c 5 -3 c 4 0 c 4 0 c 5 -1 c 4 1 c 5 0 c 4 1 c 4 4 c 5 2 c 4 0 c 4 -1 c 5 -1 c 4 19 c 5 25 c 4 5 c 4 3 c 5 -24 c 4 -20 c 4 -6 c
5 -4 c 4 -1 c 5 0 c 4 -1 c 4 -1 c 5 5 c 4 8 c 4 2 c 5 -1 c 4 -6 c 5 -7 c 4 0 c 4 0 c 5 0 c 4 0 c 4 -2 c 5 0 c 4 0 c 4 1 c 5 0 c
4 1 c 5 0 c 4 0 c 4 2 c 5 1 c 4 1 c 4 -1 c 5 -2 c 4 -1 c 5 0 c 4 0 c 4 1 c 5 0 c 4 0 c 4 -1 c 5 -1 c 4 1 c 5 -1 c 4 0 c 4 0 c 5 1 c
4 -1 c 4 0 c 5 0 c 4 6 c 4 21 c 5 16 c 4 4 c 5 -8 c 4 -24 c 4 -13 c 5 -2 c 4 -1 c 4 1 c 5 0 c 4 1 c 5 1 c 4 1 c 4 -1 c 5 -1 c 4 -2 c
4 -1 c 5 0 c 4 0 c 5 1 c 4 0 c 4 1 c 5 3 c 4 3 c 4 2 c 5 -1 c 4 -2 c 5 -2 c 4 2 c 4 5 c 5 50 c 4 71 c 4 18 c 5 -4 c 4 -59 c 4 -67 c
5 -12 c 4 -4 c 5 -2 c 4 -1 c 4 0 c 5 1 c 4 -1 c 4 1 c 5 -1 c 4 -1 c 5 0 c 4 0 c 4 0 c 5 1 c 4 1 c 4 9 c 5 36 c 4 39 c 5 9 c 4 -12 c
4 -40 c 5 -32 c 4 -8 c 4 -2 c 5 0 c 4 -1 c 5 0 c 4 0 c 4 0 c 5 2 c 4 9 c 4 12 c 5 2 c 4 -1 c 4 -10 c 5 -11 c 4 -2 c 5 -1 c 4 -1 c
4 0 c 5 0 c 4 1 c 4 0 c 5 0 c 4 0 c 5 0 c 4 3 c 4 3 c 5 4 c 4 6 c 4 0 c 5 -2 c 4 -5 c 5 -4 c 4 5 c 4 3 c 5 3 c 4 23 c 4 125 c
5 116 c 4 24 c 5 -29 c 4 -144 c 4 -106 c 5 -15 c 4 -1 c 4 -3 c 5 0 c 4 1 c 4 -1 c 5 -1 c 4 -1 c 5 0 c 4 2 c 4 5 c 5 3 c 4 1 c 4 0 c
5 -5 c 4 -5 c 5 -3 c 4 -1 c 4 0 c 5 -1 c 4 0 c 4 0 c 5 0 c 4 0 c 5 0 c 4 1 c 4 6 c 5 16 c 4 10 c 4 2 c 5 1 c 4 -8 c 5 -2 c 4 -4 c
4 -8 c 5 -9 c 4 -5 c 4 -1 c 5 1 c 4 0 c 4 0 c 5 0 c 4 0 c 5 -1 c 4 -1 c 4 -1 c 5 -11 c 5 18 5435 780 l 4 -2 c 4 0 c 5 8 c 4 14 c
5 5 c 4 0 c 4 -11 c 5 -12 c 4 -4 c 4 0 c 5 0 c 4 -1 c 4 1 c 5 -2 c 4 0 c 5 0 c 4 0 c 4 0 c 5 1 c 4 0 c 4 1 c 5 -1 c 4 0 c 5 1 c
4 14 c 4 40 c 5 26 c 4 0 c 4 -19 c 5 -42 c 4 -18 c 5 -3 c 4 0 c 4 1 c 5 1 c 4 4 c 4 5 c 5 4 c 4 -1 c 4 -4 c 5 -5 c 4 -2 c 5 -1 c
4 0 c 4 0 c 5 0 c 4 -1 c 4 0 c 5 0 c 4 1 c 5 12 c 4 37 c 4 22 c 5 0 c 4 -13 c 4 -37 c 5 -18 c 4 -3 c 5 -1 c 4 -15 c 4 14 c 5 1 c
4 0 c 4 0 c 5 0 c 4 0 c 5 0 c 4 0 c 4 1 c 5 1 c 4 1 c 4 1 c 5 5 c 4 8 c 4 29 c 5 29 c 4 5 c 5 -8 c 4 -32 c 4 -25 c 5 -5 c 4 3 c
4 8 c 5 11 c 4 27 c 5 83 c 4 344 c 4 727 c 5 640 c 4 267 c 4 -302 c 5 -739 c 4 -655 c 5 -256 c 4 69 c 4 97 c 5 7 c 4 -60 c 4 -150 c
5 -105 c 4 -17 c 5 -3 c 4 -1 c 4 -1 c 5 -1 c 4 -1 c 4 0 c 5 0 c 4 0 c 4 0 c 5 0 c 4 0 c 5 -1 c 4 -1 c 4 1 c 5 -1 c 4 1 c 4 0 c 5 0 c
4 0 c 5 0 c 4 0 c 4 0 c 5 -1 c 4 0 c 4 0 c 5 0 c 4 0 c 5 1 c 4 1 c 4 0 c 5 -1 c 4 0 c 4 1 c 5 7 c 4 8 c 5 5 c 4 -1 c 4 -6 c 5 -4 c
4 -1 c 4 -1 c 5 -1 c 4 -3 c 4 -4 c 5 -1 c 4 0 c 5 0 c 4 0 c 4 1 c 5 0 c 4 0 c 4 0 c 5 0 c 4 1 c 5 1 c 4 0 c 4 0 c 5 0 c 4 10 c
4 36 c 5 25 c 4 7 c 5 -9 c 4 -34 c 4 -25 c 5 -2 c 4 2 c 4 2 c 5 0 c 4 -4 c 5 -3 c 4 -2 c 4 -2 c 5 -1 c 4 -1 c 4 0 c 5 1 c 4 1 c
4 2 c 5 1 c 4 1 c 5 0 c 4 -1 c 4 9 c 5 21 c 4 15 c 4 20 c 5 196 c 4 555 c 5 286 c 4 48 c 4 -252 c 5 -585 c 4 -269 c 4 -43 c 5 -1 c
4 0 c 5 0 c 4 -1 c 4 0 c 5 2 c 4 2 c 4 2 c 5 2 c 4 5 c 4 4 c 5 3 c 4 -3 c 5 -4 c 4 -3 c 4 1 c 5 0 c 4 -1 c 4 10 c 5 187 c 4 571 c
5 329 c 4 30 c 4 -216 c 5 -586 c 4 -277 c 4 -47 c 5 -5 c 4 -4 c 5 -3 c 4 2 c 4 5 c 5 2 c 4 -1 c 4 -2 c 5 -7 c 4 -2 c 5 1 c 4 1 c
4 0 c 5 1 c 4 1 c 4 12 c 5 18 c 4 8 c 4 -1 c 5 -14 c 4 -19 c 5 -7 c 4 -1 c 4 0 c 5 1 c 4 1 c 4 0 c 5 1 c 4 -1 c 5 1 c 4 2 c 4 8 c
5 72 c 4 548 c 4 730 c 5 212 c 4 -47 c 5 -597 c 4 -717 c 4 -181 c 5 -24 c 4 -3 c 4 -23 c 5 36 c 4 7 c 5 3 c 4 -6 c 4 -11 c 5 -6 c
4 -5 c 4 -1 c 5 0 c 4 0 c 4 0 c 5 0 c 4 0 c 5 -1 c 4 1 c 4 0 c 5 -1 c 4 1 c 4 0 c 5 1 c 4 0 c 5 0 c 4 0 c 4 2 c 5 2 c 4 1 c 4 2 c
5 0 c 4 0 c 5 2 c 4 2 c 4 3 c 5 10 c 4 41 c 4 564 c 5 1856 c 4 1184 c 5 178 c 4 -608 c 4 -1940 c 5 -1133 c 4 -139 c 4 -12 c 5 -5 c
4 -2 c 4 -1 c 5 1 c 4 1 c 5 0 c 4 -2 c 4 0 c 5 4 c 4 11 c 4 18 c 5 1 c 4 -6 c 5 -14 c 4 -16 c 4 -5 c 5 5 c 4 30 c 4 44 c 5 17 c
4 20 c 5 -10 c 4 -36 c 4 -21 c 5 -27 c 4 -20 c 4 -3 c 5 0 c 4 0 c 5 0 c 4 0 c 4 2 c 5 0 c 4 0 c 4 0 c 5 -1 c 4 -2 c 4 1 c 5 1 c
4 3 c 5 1 c 4 0 c 4 -1 c 5 -2 c 4 -1 c 4 -1 c 5 0 c 4 1 c 5 1 c 4 1 c 4 1 c 5 7 c 4 3 c 4 3 c 5 3 c 4 -5 c 5 -3 c 4 -2 c 4 -5 c
5 0 c 4 1 c 4 0 c 5 4 c 4 14 c 4 65 c 5 338 c 4 907 c 5 405 c 4 7 c 4 -288 c 5 -904 c 4 -408 c 4 -60 c 5 -45 c 4 -30 c 5 -6 c 4 0 c
4 2 c 5 5 c 4 15 c 4 116 c 5 148 c 4 50 c 5 -10 c 4 -117 c 4 -159 c 5 -42 c 4 13 c 4 7 c 5 -1 c 4 -8 c 5 -16 c 4 -5 c 4 0 c 5 -1 c
4 -2 c 4 -1 c 5 0 c 4 0 c 4 2 c 5 5 c 4 3 c 5 0 c 4 -3 c 4 -5 c 5 -1 c 4 0 c 4 0 c 5 1 c 4 0 c 5 0 c 4 -1 c 4 -1 c 5 0 c 4 0 c 4 0 c
5 0 c 4 3 c 5 3 c 4 0 c 4 -1 c 5 -2 c 4 -2 c 4 -1 c 5 1 c 4 2 c 5 10 c 4 9 c 4 2 c 5 -3 c 4 -9 c 4 -10 c 5 -2 c 4 1 c 4 -1 c 5 1 c
4 2 c 5 4 c 4 1 c 4 0 c 5 -2 c 4 -3 c 4 -1 c 5 -1 c 4 -1 c 5 -1 c 4 -1 c 4 0 c 5 1 c 4 0 c 4 0 c 5 0 c 4 1 c 5 -1 c 4 1 c 4 3 c
5 20 c 4 34 c 4 11 c 5 0 c 4 -18 c 5 -26 c 4 -4 c 4 -1 c 5 -3 c 4 -7 c 4 -8 c 5 -2 c 4 0 c 4 0 c 5 0 c 4 0 c 5 1 c 4 1 c 4 0 c 5 0 c
4 0 c 4 0 c 5 10 c 4 81 c 5 146 c 4 70 c 4 -1 c 5 -63 c 4 -104 c 4 -37 c 5 2 c 4 -8 c 5 -50 c 4 -26 c 4 -12 c 5 -5 c 4 -2 c 4 -1 c
5 0 c 4 0 c 5 0 c 4 0 c 4 0 c 5 1 c 4 0 c 4 0 c 5 0 c 4 -2 c 4 -1 c 5 -1 c 4 0 c 5 0 c 4 0 c 4 1 c 5 3 c 4 3 c 4 1 c 5 -1 c 4 -2 c
5 2 c 4 1 c 4 -1 c 5 -1 c 4 -2 c 4 1 c 5 3 c 4 0 c 5 0 c 4 -3 c 4 -3 c 5 0 c 4 0 c 4 -1 c 5 0 c 4 5 c 4 11 c 5 4 c 4 1 c 5 -3 c
4 -12 c 4 -6 c 5 -1 c 4 -1 c 4 0 c 5 3 c 4 7 c 5 4 c 4 -1 c 4 -2 c 5 -7 c 4 -3 c 4 0 c 5 0 c 4 1 c 5 -1 c 4 -1 c 4 0 c 5 1 c 4 0 c
4 0 c 5 3 c 4 24 c 5 34 c 4 6 c 4 0 c 5 -23 c 4 -32 c 4 -8 c 5 -1 c 4 0 c 4 0 c 5 -1 c 4 0 c 5 0 c 4 0 c 4 1 c 5 0 c 4 0 c 4 1 c
5 1 c 4 1 c 5 -1 c 4 -2 c 4 0 c 5 -1 c 4 -1 c 4 0 c 5 0 c 4 -1 c 5 0 c 4 1 c 4 3 c 5 2 c 4 1 c 4 0 c 5 0 c 4 -2 c 5 0 c 4 -1 c
4 -2 c 5 2 c 4 2 c 4 1 c 5 0 c 4 -3 c 4 -3 c 5 1 c 4 -1 c 5 0 c 4 2 c 4 0 c 5 0 c 4 2 c 4 4 c 5 1 c 4 -1 c 5 -3 c 4 -4 c 4 -2 c
5 -1 c 4 0 c 4 1 c 5 -1 c 4 1 c 5 0 c 4 0 c 4 3 c 5 4 c 4 2 c 4 2 c 5 -2 c 4 -5 c 5 -2 c 4 0 c 4 17 c 5 25 c 4 6 c 4 -1 c 5 -16 c
4 -26 c 4 -7 c 5 0 c 4 0 c 5 3 c 4 6 c 4 2 c 5 0 c 4 -1 c 4 -6 c 5 2 c 4 2 c 5 2 c 4 0 c 4 -2 c 5 4 c 4 8 c 4 0 c 5 1 c 4 6 c 5 15 c
4 5 c 4 -2 c 5 -11 c 4 -25 c 4 -5 c 5 1 c 4 8 c 4 84 c 5 198 c 4 71 c 5 3 c 4 -62 c 4 -194 c 5 -45 c 4 48 c 4 3 c 5 -5 c 4 -32 c
5 -58 c 4 43 c 4 202 c 5 95 c 4 10 c 4 -44 c 5 -201 c 4 -119 c 5 -8 c 4 0 c 4 3 c 5 3 c 4 2 c 4 1 c 5 1 c 4 -3 c 5 -2 c 4 -1 c
4 -3 c 5 0 c 4 1 c 4 4 c 5 1 c 4 -2 c 4 -1 c 5 0 c 4 0 c 5 0 c 4 0 c 4 -4 c 5 -1 c 4 -1 c 4 0 c 5 0 c 4 -1 c 5 0 c 4 0 c 4 1 c 5 0 c
4 0 c 4 0 c 5 0 c 4 0 c 5 -1 c 4 1 c 4 1 c 5 1 c 4 0 c 4 1 c 5 -1 c 4 -1 c 5 0 c 4 -1 c 4 1 c 5 2 c 4 2 c 4 0 c 5 0 c 4 -1 c 4 -1 c
5 4 c 4 14 c 5 23 c 4 108 c 4 436 c 5 240 c 4 6 c 4 -84 c 5 -418 c 4 -293 c 5 -29 c 4 -3 c 4 -2 c 5 -2 c 4 0 c 4 -1 c 5 0 c 4 0 c
5 -1 c 4 0 c 4 1 c 5 0 c 4 0 c 4 -1 c 5 7 c 4 7 c 5 0 c 4 0 c 4 -7 c 5 -6 c 4 -1 c 4 1 c 5 1 c 4 1 c 4 -1 c 5 -1 c 4 1 c 5 2 c 4 0 c
4 2 c 5 2 c 4 -2 c 4 -1 c 5 0 c 4 -1 c 5 2 c 4 1 c 4 0 c 5 2 c 4 4 c 4 7 c 5 24 c 4 241 c 5 1668 c 4 1515 c 4 251 c 5 -154 c
4 -1373 c 4 -1872 c 5 -280 c 4 -22 c 5 -5 c 4 -3 c 4 -1 c 5 0 c 4 -2 c 4 -1 c 5 0 c 4 1 c 4 1 c 5 0 c 4 -2 c 5 -4 c 4 -2 c 4 -1 c
5 0 c 4 -1 c 4 1 c 5 -1 c 4 1 c 5 0 c 4 0 c 4 1 c 5 4 c 4 1 c 4 1 c 5 -2 c 4 -2 c 5 -2 c 4 0 c 4 9 c 5 11 c 4 2 c 4 -1 c 5 -5 c
4 -12 c 4 -3 c 5 0 c 4 0 c 5 2 c 4 4 c 4 3 c 5 0 c 4 1 c 4 -2 c 5 -1 c 4 0 c 5 2 c 4 0 c 4 -1 c 5 0 c 4 -2 c 4 -1 c 5 4 c 4 6 c
5 5 c 4 -1 c 4 -4 c 5 -6 c 4 -1 c 4 18 c 5 16 c 4 3 c 5 2 c 4 -17 c 4 -19 c 5 -5 c 4 -4 c 4 -2 c 5 1 c 4 0 c 4 0 c 5 1 c 4 -1 c
5 -1 c 4 0 c 4 0 c 5 -1 c 4 0 c 4 0 c 5 1 c 4 0 c 5 0 c 4 1 c 4 -1 c 5 3 c 4 16 c 4 66 c 5 77 c 4 24 c 5 -10 c 4 -47 c 4 -90 c
5 -30 c 4 -5 c 4 -4 c 5 -1 c 4 0 c 5 -1 c 4 1 c 4 -2 c 5 1 c 4 -1 c 4 0 c 5 2 c 4 1 c 4 -1 c 5 0 c 4 -1 c 5 0 c 4 0 c 4 0 c 5 -1 c
4 0 c 4 1 c 5 -1 c 4 2 c 5 -1 c 4 -1 c 4 0 c 5 1 c 4 -1 c 4 -1 c 5 0 c 4 0 c 5 0 c 4 1 c 4 1 c 5 2 c 4 2 c 4 0 c
5 0 c 4 0 c 5 -3 c 4 0 c 4 -15 c 4 17 9549 780 l 4 7 c 5 2 c 4 -1 c 4 -2 c 5 -7 c 4 -1 c 5 0 c 4 -1 c 4 -1 c 5 -1 c 4 0 c 4 0 c
5 1 c 4 0 c 5 0 c 4 -1 c 4 1 c 5 -1 c 4 0 c 4 0 c 5 1 c 4 0 c 5 1 c 4 1 c 4 0 c 5 1 c 4 -1 c 4 -1 c 5 -1 c 4 0 c 5 -1 c 4 1 c 4 2 c
5 0 c 4 -1 c 4 0 c 5 -1 c 4 0 c
0 -126 3030 418 l 54 0 3030 418 l 18 -6 c 6 -6 c 6 -12 c 0 -12 c -6 -12 c -6 -6 c -18 -6 c -54 0 c 42 -66 3072 358 l
-12 -6 3180 376 l -12 -12 c -6 -18 c 0 -12 c 6 -18 c 12 -12 c 12 -6 c 18 0 c 12 6 c 12 12 c 6 18 c 0 12 c -6 18 c -12 12 c -12 6 c
-18 0 c 24 -84 3264 376 l -24 -84 3312 376 l 24 -84 3312 376 l -24 -84 3360 376 l 108 0 3402 364 l 108 0 3402 328 l 0 6 3654 388 l
6 12 c 6 6 c 12 6 c 24 0 c 12 -6 c 6 -6 c 6 -12 c 0 -12 c -6 -12 c -12 -18 c -60 -60 c 84 0 c -60 0 3840 418 l -6 -54 c 6 6 c 18 6 c
18 0 c 18 -6 c 12 -12 c 6 -18 c 0 -12 c -6 -18 c -12 -12 c -18 -6 c -18 0 c -18 6 c -6 6 c -6 12 c 12 6 4290 394 l 18 18 c 0 -126 c
-6 -6 4404 376 l 6 -6 c 6 6 c -6 6 c -6 -6 4404 304 l 6 -6 c 6 6 c -6 6 c -48 -126 4584 418 l 48 -126 4584 418 l 60 0 4554 334 l
0 -84 4662 376 l 6 18 4662 340 l 12 12 c 12 6 c 18 0 c -12 12 4806 358 l -12 6 c -18 0 c -12 -6 c -12 -12 c -6 -18 c 0 -12 c 6 -18 c
12 -12 c 12 -6 c 18 0 c 12 6 c 12 12 c 108 0 4848 346 l -18 -6 5034 418 l -12 -18 c -6 -30 c 0 -18 c 6 -30 c 12 -18 c 18 -6 c 12 0 c
18 6 c 12 18 c 6 30 c 0 18 c -6 30 c -12 18 c -18 6 c -12 0 c 66 0 5130 418 l -36 -48 c 18 0 c 12 -6 c 6 -6 c 6 -18 c 0 -12 c
-6 -18 c -12 -12 c -18 -6 c -18 0 c -18 6 c -6 6 c -6 12 c -59 0 5309 418 l -6 -54 c 6 6 c 17 6 c 18 0 c 18 -6 c 12 -12 c 6 -18 c
0 -12 c -6 -18 c -12 -12 c -18 -6 c -18 0 c -17 6 c -6 6 c -6 12 c -6 -6 5369 304 l 6 -6 c 6 6 c -6 6 c -12 0 5459 418 l -12 -6 c
-6 -18 c 0 -102 c 42 0 5411 376 l 6 -6 5489 418 l 6 6 c -6 6 c -6 -6 c 0 -84 5495 376 l 0 -102 5549 418 l 6 -18 c 12 -6 c 12 0 c
42 0 5531 376 l -6 12 5675 358 l -18 6 c -18 0 c -18 -6 c -6 -12 c 6 -12 c 12 -6 c 30 -6 c 12 -6 c 6 -12 c 0 -6 c -6 -12 c -18 -6 c
-18 0 c -18 6 c -6 12 c 0 -192 6005 442 l 0 -192 6011 442 l 42 0 6005 442 l 42 0 6005 250 l 0 6 6089 388 l 6 12 c 6 6 c 12 6 c
24 0 c 12 -6 c 6 -6 c 6 -12 c 0 -12 c -6 -12 c -12 -18 c -60 -60 c 84 0 c -6 -6 6215 376 l 6 -6 c 6 6 c -6 6 c -6 -6 6215 304 l
6 -6 c 6 6 c -6 6 c -48 -126 6395 418 l 48 -126 6395 418 l 60 0 6365 334 l 0 -84 6473 376 l 6 18 6473 340 l 12 12 c 12 6 c 18 0 c
-12 12 6617 358 l -12 6 c -18 0 c -12 -6 c -12 -12 c -6 -18 c 0 -12 c 6 -18 c 12 -12 c 12 -6 c 18 0 c 12 6 c 12 12 c
108 0 6659 346 l -18 -6 6845 418 l -12 -18 c -6 -30 c 0 -18 c 6 -30 c 12 -18 c 18 -6 c 12 0 c 18 6 c 12 18 c 6 30 c 0 18 c -6 30 c
-12 18 c -18 6 c -12 0 c 66 0 6941 418 l -36 -48 c 18 0 c 12 -6 c 6 -6 c 6 -18 c 0 -12 c -6 -18 c -12 -12 c -18 -6 c -18 0 c -18 6 c
-6 6 c -6 12 c -6 12 7127 400 l -18 6 c -12 0 c -18 -6 c -12 -18 c -6 -30 c 0 -30 c 6 -24 c 12 -12 c 18 -6 c 6 0 c 18 6 c 12 12 c
6 18 c 0 6 c -6 18 c -12 12 c -18 6 c -6 0 c -18 -6 c -12 -12 c -6 -18 c -6 -6 7181 304 l 6 -6 c 6 6 c -6 6 c -12 0 7271 418 l
-12 -6 c -6 -18 c 0 -102 c 42 0 7223 376 l 6 -6 7301 418 l 6 6 c -6 6 c -6 -6 c 0 -84 7307 376 l 0 -102 7361 418 l 6 -18 c 12 -6 c
12 0 c 42 0 7343 376 l -6 12 7487 358 l -18 6 c -18 0 c -18 -6 c -6 -12 c 6 -12 c 12 -6 c 30 -6 c 12 -6 c 6 -12 c 0 -6 c -6 -12 c
-18 -6 c -18 0 c -18 6 c -6 12 c 0 -192 7559 442 l 0 -192 7565 442 l 42 0 7523 442 l 42 0 7523 250 l
0 -249 892 1416 l 0 -38 849 1534 l 34 -4 c -4 4 c -4 11 c 0 11 c 4 12 c 8 7 c 11 4 c 8 0 c 11 -4 c 7 -7 c 4 -12 c 0 -11 c -4 -11 c
-3 -4 c -8 -4 c 4 -12 849 1587 l 11 -7 c 19 -4 c 11 0 c 19 4 c 11 7 c 4 12 c 0 7 c -4 11 c -11 8 c -19 4 c -11 0 c -19 -4 c -11 -8 c
-4 -11 c 0 -7 c 53 -38 849 1677 l 0 57 c 79 0 849 1677 l 4 -11 849 1734 l 7 -4 c 8 0 c 7 4 c 4 7 c 4 15 c 4 12 c 7 7 c 8 4 c 11 0 c
8 -4 c 3 -4 c 4 -11 c 0 -15 c -4 -11 c -3 -4 c -8 -4 c -11 0 c -8 4 c -7 7 c -4 12 c -4 15 c -4 7 c -7 4 c -8 0 c -7 -4 c -4 -11 c
0 -15 c 3 -4 921 1798 l 4 4 c -4 4 c -3 -4 c 12 -4 875 1878 l 7 -8 c 4 -11 c 0 -4 c -4 -11 c -7 -8 c -12 -4 c -3 0 c -12 4 c -7 8 c
-4 11 c 0 4 c 4 11 c 7 8 c 15 4 c 19 0 c 19 -4 c 11 -8 c 4 -11 c 0 -8 c -4 -11 c -7 -4 c 0 41 849 1912 l 30 -23 c 0 12 c 4 7 c 4 4 c
11 4 c 8 0 c 11 -4 c 7 -7 c 4 -12 c 0 -11 c -4 -11 c -3 -4 c -8 -4 c 79 -38 849 2033 l 0 53 849 1980 l 0 -249 999 7019 l
0 -38 955 7136 l 34 -3 c -3 3 c -4 12 c 0 11 c 4 11 c 7 8 c 11 4 c 8 0 c 11 -4 c 8 -8 c 4 -11 c 0 -11 c -4 -12 c -4 -3 c -7 -4 c
4 -11 955 7189 l 11 -8 c 19 -3 c 12 0 c 19 3 c 11 8 c 4 11 c 0 8 c -4 11 c -11 8 c -19 3 c -12 0 c -19 -3 c -11 -8 c -4 -11 c 0 -8 c
53 -38 955 7280 l 0 57 c 80 0 955 7280 l 11 -4 982 7367 l 8 -8 c 3 -11 c 0 -4 c -3 -11 c -8 -8 c -11 -3 c -4 0 c -11 3 c -8 8 c
-4 11 c 0 4 c 4 11 c 8 8 c 15 4 c 19 0 c 19 -4 c 11 -8 c 4 -11 c 0 -7 c -4 -12 c -8 -4 c 4 -4 1027 7401 l 4 4 c -4 4 c -4 -4 c
80 -38 955 7484 l 0 53 955 7431 l 11 -4 982 7556 l 8 -8 c 3 -11 c 0 -4 c -3 -11 c -8 -8 c -11 -3 c -4 0 c -11 3 c -8 8 c -4 11 c
0 4 c 4 11 c 8 8 c 15 4 c 19 0 c 19 -4 c 11 -8 c 4 -11 c 0 -7 c -4 -12 c -8 -4 c -8 -3 967 7631 l -4 -12 c 0 -7 c 4 -12 c 11 -7 c
19 -4 c 19 0 c 15 4 c 8 7 c 4 12 c 0 3 c -4 12 c -8 7 c -11 4 c -4 0 c -11 -4 c -8 -7 c -3 -12 c 0 -3 c 3 -12 c 8 -7 c 11 -4 c
0 -249 1112 1959 l 0 -37 1069 2076 l 34 -4 c -4 4 c -4 11 c 0 11 c 4 12 c 8 7 c 11 4 c 7 0 c 12 -4 c 7 -7 c 4 -12 c 0 -11 c -4 -11 c
-3 -4 c -8 -4 c 4 -11 1069 2129 l 11 -8 c 19 -3 c 11 0 c 19 3 c 11 8 c 4 11 c 0 8 c -4 11 c -11 8 c -19 4 c -11 0 c -19 -4 c
-11 -8 c -4 -11 c 0 -8 c 0 -38 1069 2228 l 34 -4 c -4 4 c -4 11 c 0 11 c 4 12 c 8 7 c 11 4 c 7 0 c 12 -4 c 7 -7 c 4 -12 c 0 -11 c
-4 -11 c -3 -4 c -8 -4 c 4 -11 1069 2280 l 11 -7 c 19 -4 c 11 0 c 19 4 c 11 7 c 4 11 c 0 8 c -4 11 c -11 8 c -19 4 c -11 0 c
-19 -4 c -11 -8 c -4 -11 c 0 -8 c 3 -4 1141 2341 l 4 4 c -4 4 c -3 -4 c 79 -38 1069 2424 l 0 53 1069 2371 l 4 -12 1069 2466 l 7 -3 c
8 0 c 7 3 c 4 8 c 4 15 c 4 11 c 7 8 c 8 4 c 11 0 c 8 -4 c 3 -4 c 4 -11 c 0 -15 c -4 -12 c -3 -3 c -8 -4 c -11 0 c -8 4 c -7 7 c
-4 11 c -4 16 c -4 7 c -7 4 c -8 0 c -7 -4 c -4 -11 c 0 -15 c 53 -38 1069 2560 l 0 57 c 79 0 1069 2560 l 0 -249 1240 1468 l
0 -38 1196 1585 l 34 -3 c -4 3 c -3 12 c 0 11 c 3 11 c 8 8 c 11 4 c 8 0 c 11 -4 c 8 -8 c 3 -11 c 0 -11 c -3 -12 c -4 -3 c -8 -4 c
4 -11 1196 1638 l 11 -8 c 19 -3 c 11 0 c 19 3 c 12 8 c 3 11 c 0 8 c -3 11 c -12 8 c -19 3 c -11 0 c -19 -3 c -11 -8 c -4 -11 c
0 -8 c 0 -37 1196 1736 l 34 -4 c -4 4 c -3 11 c 0 11 c 3 12 c 8 7 c 11 4 c 8 0 c 11 -4 c 8 -7 c 3 -12 c 0 -11 c -3 -11 c -4 -4 c
-8 -4 c -4 8 1211 1778 l -11 11 c 79 0 c 4 -4 1268 1850 l 3 4 c -3 4 c -4 -4 c 4 -11 1196 1899 l 7 -4 c 8 0 c 8 4 c 3 7 c 4 15 c
4 12 c 7 7 c 8 4 c 11 0 c 8 -4 c 4 -4 c 3 -11 c 0 -15 c -3 -11 c -4 -4 c -8 -4 c -11 0 c -8 4 c -7 7 c -4 12 c -4 15 c -3 7 c -8 4 c
-8 0 c -7 -4 c -4 -11 c 0 -15 c 4 -12 1196 1975 l 7 -4 c 8 0 c 8 4 c 3 8 c 4 15 c 4 11 c 7 8 c 8 4 c 11 0 c 8 -4 c 4 -4 c 3 -11 c
0 -15 c -3 -12 c -4 -4 c -8 -3 c -11 0 c -8 3 c -7 8 c -4 11 c -4 15 c -3 8 c -8 4 c -8 0 c -7 -4 c -4 -11 c 0 -15 c
11 -3 1223 2080 l 7 -8 c 4 -11 c 0 -4 c -4 -11 c -7 -8 c -11 -4 c -4 0 c -12 4 c -7 8 c -4 11 c 0 4 c 4 11 c 7 8 c 16 3 c 18 0 c
19 -3 c 12 -8 c 3 -11 c 0 -8 c -3 -11 c -8 -4 c 0 -250 1639 4728 l 0 -38 1596 4845 l 34 -4 c -4 4 c -4 11 c 0 12 c 4 11 c 7 8 c
12 3 c 7 0 c 12 -3 c 7 -8 c 4 -11 c 0 -12 c -4 -11 c -3 -4 c -8 -4 c 3 -12 1596 4898 l 12 -7 c 19 -4 c 11 0 c 19 4 c 11 7 c 4 12 c
0 7 c -4 12 c -11 7 c -19 4 c -11 0 c -19 -4 c -12 -7 c -3 -12 c 0 -7 c 0 -38 1596 4996 l 34 -4 c -4 4 c -4 12 c 0 11 c 4 11 c 7 8 c
12 4 c 7 0 c 12 -4 c 7 -8 c 4 -11 c 0 -11 c -4 -12 c -3 -4 c -8 -3 c 0 -38 1596 5072 l 34 -4 c -4 4 c -4 11 c 0 11 c 4 12 c 7 7 c
12 4 c 7 0 c 12 -4 c 7 -7 c 4 -12 c 0 -11 c -4 -11 c -3 -4 c -8 -4 c 3 -3 1668 5109 l 4 3 c -4 4 c -3 -4 c 0 42 1596 5147 l 30 -23 c
0 11 c 4 8 c 3 4 c 12 4 c 7 0 c 12 -4 c 7 -8 c 4 -11 c 0 -11 c -4 -12 c -3 -4 c -8 -3 c 53 -38 1596 5253 l 0 57 c 79 0 1596 5253 l
79 -38 1596 5344 l 0 53 1596 5291 l 0 -250 1945 1409 l 0 -38 1902 1526 l 34 -3 c -4 3 c -4 12 c 0 11 c 4 11 c 8 8 c 11 4 c 7 0 c
12 -4 c 7 -8 c 4 -11 c 0 -11 c -4 -12 c -3 -3 c -8 -4 c 4 -11 1902 1579 l 11 -8 c 19 -4 c 11 0 c 19 4 c 11 8 c 4 11 c 0 8 c -4 11 c
-11 8 c -19 3 c -11 0 c -19 -3 c -11 -8 c -4 -11 c 0 -8 c 0 -37 1902 1677 l 34 -4 c -4 4 c -4 11 c 0 11 c 4 12 c 8 7 c 11 4 c 7 0 c
12 -4 c 7 -7 c 4 -12 c 0 -11 c -4 -11 c -3 -4 c -8 -4 c 79 -38 1902 1761 l 0 53 1902 1708 l 3 -4 1974 1791 l 4 4 c -4 4 c -3 -4 c
12 -4 1928 1870 l 7 -7 c 4 -12 c 0 -3 c -4 -12 c -7 -7 c -12 -4 c -4 0 c -11 4 c -7 7 c -4 12 c 0 3 c 4 12 c 7 7 c 15 4 c 19 0 c
19 -4 c 11 -7 c 4 -12 c 0 -7 c -4 -11 c -7 -4 c 4 -11 1902 1915 l 7 -4 c 8 0 c 7 4 c 4 8 c 4 15 c 4 11 c 7 8 c 8 3 c 11 0 c 8 -3 c
3 -4 c 4 -11 c 0 -16 c -4 -11 c -3 -4 c -8 -3 c -11 0 c -8 3 c -7 8 c -4 11 c -4 15 c -4 8 c -7 4 c -8 0 c -7 -4 c -4 -11 c 0 -16 c
79 -38 1902 2025 l 0 53 1902 1972 l 0 -249 2164 1701 l 0 -37 2120 1818 l 34 -4 c -3 4 c -4 11 c 0 11 c 4 12 c 7 7 c 11 4 c 8 0 c
11 -4 c 8 -7 c 4 -12 c 0 -11 c -4 -11 c -4 -4 c -7 -4 c 4 -11 2120 1871 l 11 -8 c 19 -3 c 12 0 c 19 3 c 11 8 c 4 11 c 0 8 c -4 11 c
-11 8 c -19 4 c -12 0 c -19 -4 c -11 -8 c -4 -11 c 0 -8 c 0 -38 2120 1970 l 34 -4 c -3 4 c -4 11 c 0 11 c 4 12 c 7 7 c 11 4 c 8 0 c
11 -4 c 8 -7 c 4 -12 c 0 -11 c -4 -11 c -4 -4 c -7 -4 c 11 -4 2147 2049 l 8 -7 c 3 -12 c 0 -4 c -3 -11 c -8 -7 c -11 -4 c -4 0 c
-11 4 c -8 7 c -4 11 c 0 4 c 4 12 c 8 7 c 15 4 c 19 0 c 19 -4 c 11 -7 c 4 -12 c 0 -7 c -4 -12 c -8 -3 c 4 -4 2192 2083 l 4 4 c
-4 4 c -4 -4 c 4 -11 2120 2132 l 8 -4 c 7 0 c 8 4 c 4 7 c 3 15 c 4 12 c 8 7 c 7 4 c 12 0 c 7 -4 c 4 -3 c 4 -12 c 0 -15 c -4 -11 c
-4 -4 c -7 -4 c -12 0 c -7 4 c -8 8 c -4 11 c -3 15 c -4 8 c -8 3 c -7 0 c -8 -3 c -4 -12 c 0 -15 c -8 -4 2132 2238 l -4 -11 c
0 -8 c 4 -11 c 11 -8 c 19 -3 c 19 0 c 15 3 c 8 8 c 4 11 c 0 4 c -4 11 c -8 8 c -11 4 c -4 0 c -11 -4 c -8 -8 c -3 -11 c 0 -4 c
3 -11 c 8 -8 c 11 -3 c -3 7 2135 2276 l -12 12 c 80 0 c 0 -250 2418 3514 l 0 -38 2375 3631 l 34 -4 c -4 4 c -4 12 c 0 11 c 4 11 c
7 8 c 12 4 c 7 0 c 12 -4 c 7 -8 c 4 -11 c 0 -11 c -4 -12 c -4 -4 c -7 -3 c 3 -11 2375 3684 l 12 -8 c 19 -4 c 11 0 c 19 4 c 11 8 c
4 11 c 0 8 c -4 11 c -11 7 c -19 4 c -11 0 c -19 -4 c -12 -7 c -3 -11 c 0 -8 c -8 -4 2386 3786 l -3 -11 c 0 -8 c 3 -11 c 12 -8 c
19 -3 c 18 0 c 16 3 c 7 8 c 4 11 c 0 4 c -4 11 c -7 8 c -12 4 c -4 0 c -11 -4 c -7 -8 c -4 -11 c 0 -4 c 4 -11 c 7 -8 c 11 -3 c
-3 0 2393 3816 l -8 4 c -4 4 c -3 7 c 0 15 c 3 8 c 4 4 c 8 4 c 7 0 c 8 -4 c 11 -8 c 38 -38 c 0 53 c 4 -4 2446 3896 l 4 4 c -4 3 c
-4 -3 c 3 -12 2375 3949 l 12 -7 c 19 -4 c 11 0 c 19 4 c 11 7 c 4 12 c 0 7 c -4 11 c -11 8 c -19 4 c -11 0 c -19 -4 c -12 -8 c
-3 -11 c 0 -7 c 0 42 2375 4009 l 30 -23 c 0 11 c 4 8 c 3 4 c 12 3 c 7 0 c 12 -3 c 7 -8 c 4 -11 c 0 -12 c -4 -11 c -4 -4 c -7 -4 c
79 -38 2375 4130 l 0 53 2375 4077 l 0 -250 2522 1308 l 0 -38 2478 1425 l 34 -4 c -3 4 c -4 11 c 0 12 c 4 11 c 7 8 c 11 3 c 8 0 c
11 -3 c 8 -8 c 4 -11 c 0 -12 c -4 -11 c -4 -4 c -7 -4 c 4 -12 2478 1478 l 11 -7 c 19 -4 c 12 0 c 19 4 c 11 7 c 4 12 c 0 7 c -4 12 c
-11 7 c -19 4 c -12 0 c -19 -4 c -11 -7 c -4 -12 c 0 -7 c -8 -4 2490 1580 l -4 -11 c 0 -8 c 4 -11 c 11 -8 c 19 -4 c 19 0 c 15 4 c
8 8 c 4 11 c 0 4 c -4 11 c -8 8 c -11 3 c -4 0 c -11 -3 c -8 -8 c -3 -11 c 0 -4 c 3 -11 c 8 -8 c 11 -4 c -4 0 2497 1610 l -7 4 c
-4 3 c -4 8 c 0 15 c 4 8 c 4 3 c 7 4 c 8 0 c 8 -4 c 11 -7 c 38 -38 c 0 53 c 4 -3 2550 1689 l 4 3 c -4 4 c -4 -4 c 11 -4 2505 1769 l
8 -8 c 3 -11 c 0 -4 c -3 -11 c -8 -8 c -11 -3 c -4 0 c -11 3 c -8 8 c -4 11 c 0 4 c 4 11 c 8 8 c 15 4 c 19 0 c 19 -4 c 11 -8 c
4 -11 c 0 -8 c -4 -11 c -8 -4 c 0 41 2478 1803 l 31 -22 c 0 11 c 3 7 c 4 4 c 11 4 c 8 0 c 11 -4 c 8 -7 c 4 -12 c 0 -11 c -4 -11 c
-4 -4 c -7 -4 c -4 0 2497 1874 l -7 4 c -4 4 c -4 8 c 0 15 c 4 7 c 4 4 c 7 4 c 8 0 c 8 -4 c 11 -7 c 38 -38 c 0 53 c
0 -250 2591 1431 l 0 -38 2548 1548 l 34 -4 c -4 4 c -4 12 c 0 11 c 4 11 c 7 8 c 12 4 c 7 0 c 12 -4 c 7 -8 c 4 -11 c 0 -11 c -4 -12 c
-4 -4 c -7 -3 c 3 -11 2548 1601 l 12 -8 c 19 -4 c 11 0 c 19 4 c 11 8 c 4 11 c 0 8 c -4 11 c -11 7 c -19 4 c -11 0 c -19 -4 c
-12 -7 c -3 -11 c 0 -8 c -8 -4 2559 1703 l -3 -11 c 0 -8 c 3 -11 c 12 -8 c 19 -3 c 18 0 c 16 3 c 7 8 c 4 11 c 0 4 c -4 11 c -7 8 c
-12 4 c -4 0 c -11 -4 c -7 -8 c -4 -11 c 0 -4 c 4 -11 c 7 -8 c 11 -3 c 0 42 2548 1737 l 30 -23 c 0 11 c 4 8 c 3 4 c 12 3 c 7 0 c
12 -3 c 7 -8 c 4 -11 c 0 -12 c -4 -11 c -4 -4 c -7 -4 c 4 -4 2619 1813 l 4 4 c -4 3 c -4 -3 c 0 -38 2548 1888 l 34 -3 c -4 3 c
-4 12 c 0 11 c 4 11 c 7 8 c 12 4 c 7 0 c 12 -4 c 7 -8 c 4 -11 c 0 -11 c -4 -12 c -4 -3 c -7 -4 c -4 7 2563 1930 l -11 12 c 79 0 c
-8 -4 2559 2043 l -3 -11 c 0 -8 c 3 -11 c 12 -7 c 19 -4 c 18 0 c 16 4 c 7 7 c 4 11 c 0 4 c -4 12 c -7 7 c -12 4 c -4 0 c -11 -4 c
-7 -7 c -4 -12 c 0 -4 c 4 -11 c 7 -7 c 11 -4 c 0 -250 2719 2456 l 0 -38 2675 2573 l 34 -3 c -4 3 c -3 12 c 0 11 c 3 11 c 8 8 c
11 4 c 8 0 c 11 -4 c 8 -8 c 3 -11 c 0 -11 c -3 -12 c -4 -3 c -8 -4 c 4 -11 2675 2626 l 11 -8 c 19 -4 c 11 0 c 19 4 c 12 8 c 3 11 c
0 8 c -3 11 c -12 8 c -19 3 c -11 0 c -19 -3 c -11 -8 c -4 -11 c 0 -8 c -7 -4 2686 2728 l -4 -11 c 0 -8 c 4 -11 c 11 -7 c 19 -4 c
19 0 c 15 4 c 8 7 c 3 11 c 0 4 c -3 12 c -8 7 c -11 4 c -4 0 c -11 -4 c -8 -7 c -4 -12 c 0 -4 c 4 -11 c 8 -7 c 11 -4 c
53 -37 2675 2792 l 0 56 c 79 0 2675 2792 l 4 -4 2747 2838 l 3 4 c -3 4 c -4 -4 c -7 -4 2686 2917 l -4 -11 c 0 -8 c 4 -11 c 11 -7 c
19 -4 c 19 0 c 15 4 c 8 7 c 3 11 c 0 4 c -3 12 c -8 7 c -11 4 c -4 0 c -11 -4 c -8 -7 c -4 -12 c 0 -4 c 4 -11 c 8 -7 c 11 -4 c
4 -11 2675 2966 l 11 -8 c 19 -3 c 11 0 c 19 3 c 12 8 c 3 11 c 0 8 c -3 11 c -12 8 c -19 3 c -11 0 c -19 -3 c -11 -8 c -4 -11 c
0 -8 c -4 0 2694 3023 l -7 4 c -4 4 c -4 7 c 0 15 c 4 8 c 4 4 c 7 3 c 8 0 c 7 -3 c 12 -8 c 37 -38 c 0 53 c 0 -250 2759 3205 l
0 -38 2715 3322 l 34 -3 c -3 3 c -4 12 c 0 11 c 4 11 c 7 8 c 12 4 c 7 0 c 11 -4 c 8 -8 c 4 -11 c 0 -11 c -4 -12 c -4 -3 c -7 -4 c
4 -11 2715 3375 l 12 -8 c 18 -4 c 12 0 c 19 4 c 11 8 c 4 11 c 0 8 c -4 11 c -11 8 c -19 3 c -12 0 c -18 -3 c -12 -8 c -4 -11 c
0 -8 c -8 -4 2727 3477 l -4 -11 c 0 -8 c 4 -11 c 12 -7 c 18 -4 c 19 0 c 15 4 c 8 7 c 4 11 c 0 4 c -4 12 c -8 7 c -11 4 c -4 0 c
-11 -4 c -8 -7 c -3 -12 c 0 -4 c 3 -11 c 8 -7 c 11 -4 c 53 -37 2715 3541 l 0 56 c 80 0 2715 3541 l 4 -4 2787 3587 l 4 4 c -4 3 c
-4 -3 c 11 -4 2742 3666 l 8 -7 c 4 -12 c 0 -3 c -4 -12 c -8 -7 c -11 -4 c -4 0 c -11 4 c -8 7 c -4 12 c 0 3 c 4 12 c 8 7 c 15 4 c
19 0 c 19 -4 c 11 -7 c 4 -12 c 0 -7 c -4 -11 c -8 -4 c 53 -37 2715 3730 l 0 56 c 80 0 2715 3730 l 0 -37 2715 3813 l 34 -4 c -3 4 c
-4 11 c 0 11 c 4 12 c 7 7 c 12 4 c 7 0 c 11 -4 c 8 -7 c 4 -12 c 0 -11 c -4 -11 c -4 -4 c -7 -4 c 0 -249 2899 1461 l
0 -37 2855 1578 l 34 -4 c -3 4 c -4 11 c 0 11 c 4 12 c 7 7 c 12 4 c 7 0 c 11 -4 c 8 -7 c 4 -12 c 0 -11 c -4 -11 c -4 -4 c -7 -4 c
4 -11 2855 1631 l 12 -8 c 18 -3 c 12 0 c 19 3 c 11 8 c 4 11 c 0 8 c -4 11 c -11 8 c -19 4 c -12 0 c -18 -4 c -12 -8 c -4 -11 c
0 -8 c -8 -3 2867 1733 l -4 -12 c 0 -7 c 4 -12 c 12 -7 c 18 -4 c 19 0 c 15 4 c 8 7 c 4 12 c 0 3 c -4 12 c -8 7 c -11 4 c -4 0 c
-11 -4 c -8 -7 c -3 -12 c 0 -3 c 3 -12 c 8 -7 c 11 -4 c -8 -4 2867 1809 l -4 -11 c 0 -8 c 4 -11 c 12 -8 c 18 -3 c 19 0 c 15 3 c
8 8 c 4 11 c 0 4 c -4 11 c -8 8 c -11 4 c -4 0 c -11 -4 c -8 -8 c -3 -11 c 0 -4 c 3 -11 c 8 -8 c 11 -3 c 4 -4 2927 1843 l 4 4 c
-4 4 c -4 -4 c -4 7 2871 1885 l -12 11 c 80 0 c 0 42 2855 1956 l 31 -23 c 0 12 c 3 7 c 4 4 c 12 4 c 7 0 c 11 -4 c 8 -8 c 4 -11 c
0 -11 c -4 -12 c -4 -3 c -7 -4 c -8 -4 2867 2074 l -4 -12 c 0 -7 c 4 -12 c 12 -7 c 18 -4 c 19 0 c 15 4 c 8 7 c 4 12 c 0 4 c -4 11 c
-8 8 c -11 3 c -4 0 c -11 -3 c -8 -8 c -3 -11 c 0 -4 c 3 -12 c 8 -7 c 11 -4 c 0 -250 2976 1363 l 0 -38 2932 1480 l 34 -4 c -4 4 c
-3 11 c 0 12 c 3 11 c 8 8 c 11 3 c 8 0 c 11 -3 c 8 -8 c 4 -11 c 0 -12 c -4 -11 c -4 -4 c -8 -3 c 4 -12 2932 1533 l 11 -7 c 19 -4 c
12 0 c 18 4 c 12 7 c 4 12 c 0 7 c -4 12 c -12 7 c -18 4 c -12 0 c -19 -4 c -11 -7 c -4 -12 c 0 -7 c -7 -4 2943 1635 l -4 -11 c
0 -8 c 4 -11 c 11 -8 c 19 -3 c 19 0 c 15 3 c 8 8 c 4 11 c 0 4 c -4 11 c -8 8 c -11 4 c -4 0 c -11 -4 c -8 -8 c -4 -11 c 0 -4 c
4 -11 c 8 -8 c 11 -3 c -7 -3 2943 1710 l -4 -12 c 0 -7 c 4 -12 c 11 -7 c 19 -4 c 19 0 c 15 4 c 8 7 c 4 12 c 0 4 c -4 11 c -8 7 c
-11 4 c -4 0 c -11 -4 c -8 -7 c -4 -11 c 0 -4 c 4 -12 c 8 -7 c 11 -4 c 4 -3 3004 1744 l 4 3 c -4 4 c -4 -4 c 80 -38 2932 1828 l
0 53 2932 1775 l 80 -38 2932 1903 l 0 53 2932 1850 l 80 -38 2932 1979 l 0 53 2932 1926 l 0 -249 3116 6199 l 0 -37 3072 6316 l
34 -4 c -3 4 c -4 11 c 0 11 c 4 12 c 7 7 c 12 4 c 7 0 c 11 -4 c 8 -7 c 4 -12 c 0 -11 c -4 -11 c -4 -4 c -7 -4 c 4 -11 3072 6369 l
12 -8 c 18 -3 c 12 0 c 19 3 c 11 8 c 4 11 c 0 8 c -4 11 c -11 8 c -19 3 c -12 0 c -18 -3 c -12 -8 c -4 -11 c 0 -8 c
-8 -3 3084 6471 l -4 -12 c 0 -7 c 4 -12 c 12 -7 c 18 -4 c 19 0 c 15 4 c 8 7 c 4 12 c 0 3 c -4 12 c -8 7 c -11 4 c -4 0 c -11 -4 c
-8 -7 c -3 -12 c 0 -3 c 3 -12 c 8 -7 c 11 -4 c 80 -38 3072 6551 l 0 53 3072 6498 l 4 -4 3144 6581 l 4 4 c -4 4 c -4 -4 c
11 -4 3099 6660 l 8 -7 c 4 -11 c 0 -4 c -4 -12 c -8 -7 c -11 -4 c -4 0 c -11 4 c -8 7 c -4 12 c 0 4 c 4 11 c 8 7 c 15 4 c 19 0 c
19 -4 c 11 -7 c 4 -11 c 0 -8 c -4 -11 c -8 -4 c 80 -38 3072 6740 l 0 53 3072 6687 l 53 -38 3072 6800 l 0 57 c 80 0 3072 6800 l
0 -249 3277 1281 l 0 -38 3233 1399 l 34 -4 c -4 4 c -3 11 c 0 11 c 3 12 c 8 7 c 11 4 c 8 0 c 11 -4 c 8 -7 c 3 -12 c 0 -11 c -3 -11 c
-4 -4 c -8 -4 c 4 -11 3233 1451 l 11 -7 c 19 -4 c 11 0 c 19 4 c 12 7 c 3 11 c 0 8 c -3 11 c -12 8 c -19 4 c -11 0 c -19 -4 c
-11 -8 c -4 -11 c 0 -8 c -7 -3 3244 1553 l -4 -12 c 0 -7 c 4 -12 c 11 -7 c 19 -4 c 19 0 c 15 4 c 8 7 c 3 12 c 0 4 c -3 11 c -8 7 c
-11 4 c -4 0 c -11 -4 c -8 -7 c -4 -11 c 0 -4 c 4 -12 c 8 -7 c 11 -4 c 11 -4 3260 1629 l 7 -7 c 4 -12 c 0 -3 c -4 -12 c -7 -7 c
-11 -4 c -4 0 c -12 4 c -7 7 c -4 12 c 0 3 c 4 12 c 7 7 c 16 4 c 18 0 c 19 -4 c 12 -7 c 3 -12 c 0 -7 c -3 -11 c -8 -4 c
4 -4 3305 1663 l 3 4 c -3 4 c -4 -4 c 0 41 3233 1701 l 30 -22 c 0 11 c 4 8 c 4 3 c 11 4 c 8 0 c 11 -4 c 8 -7 c 3 -11 c 0 -12 c
-3 -11 c -4 -4 c -8 -4 c 0 42 3233 1776 l 30 -23 c 0 12 c 4 7 c 4 4 c 11 4 c 8 0 c 11 -4 c 8 -8 c 3 -11 c 0 -11 c -3 -12 c -4 -3 c
-8 -4 c 4 -11 3233 1863 l 7 -4 c 8 0 c 8 4 c 3 8 c 4 15 c 4 11 c 7 8 c 8 3 c 11 0 c 8 -3 c 4 -4 c 3 -11 c 0 -16 c -3 -11 c -4 -4 c
-8 -3 c -11 0 c -8 3 c -7 8 c -4 11 c -4 15 c -3 8 c -8 4 c -8 0 c -7 -4 c -4 -11 c 0 -16 c 0 -250 3909 1283 l 0 -38 3866 1400 l
34 -3 c -4 3 c -4 12 c 0 11 c 4 11 c 7 8 c 12 4 c 7 0 c 12 -4 c 7 -8 c 4 -11 c 0 -11 c -4 -12 c -4 -3 c -7 -4 c 3 -11 3866 1453 l
12 -8 c 19 -4 c 11 0 c 19 4 c 11 8 c 4 11 c 0 8 c -4 11 c -11 8 c -19 3 c -11 0 c -19 -3 c -12 -8 c -3 -11 c 0 -8 c
79 -38 3866 1559 l 0 53 3866 1506 l 52 -37 3866 1619 l 0 56 c 79 0 3866 1619 l 4 -4 3937 1665 l 4 4 c -4 3 c -4 -3 c
-8 -4 3877 1744 l -3 -11 c 0 -8 c 3 -11 c 12 -8 c 19 -3 c 18 0 c 16 3 c 7 8 c 4 11 c 0 4 c -4 12 c -7 7 c -12 4 c -4 0 c -11 -4 c
-7 -7 c -4 -12 c 0 -4 c 4 -11 c 7 -8 c 11 -3 c 52 -37 3866 1808 l 0 56 c 79 0 3866 1808 l -8 -4 3877 1895 l -3 -11 c 0 -7 c 3 -12 c
12 -7 c 19 -4 c 18 0 c 16 4 c 7 7 c 4 12 c 0 3 c -4 12 c -7 7 c -12 4 c -4 0 c -11 -4 c -7 -7 c -4 -12 c 0 -3 c 4 -12 c 7 -7 c
11 -4 c 0 -250 4727 1535 l 0 -38 4683 1652 l 34 -3 c -4 3 c -3 12 c 0 11 c 3 11 c 8 8 c 11 4 c 8 0 c 11 -4 c 8 -8 c 4 -11 c 0 -11 c
-4 -12 c -4 -3 c -8 -4 c 4 -11 4683 1705 l 11 -8 c 19 -4 c 12 0 c 18 4 c 12 8 c 4 11 c 0 8 c -4 11 c -12 8 c -18 3 c -12 0 c
-19 -3 c -11 -8 c -4 -11 c 0 -8 c 4 -11 4683 1777 l 7 -4 c 8 0 c 8 4 c 3 7 c 4 15 c 4 12 c 8 7 c 7 4 c 11 0 c 8 -4 c 4 -4 c 4 -11 c
0 -15 c -4 -11 c -4 -4 c -8 -4 c -11 0 c -7 4 c -8 7 c -4 12 c -4 15 c -3 7 c -8 4 c -8 0 c -7 -4 c -4 -11 c 0 -15 c
-4 8 4698 1845 l -11 11 c 80 0 c 4 -4 4755 1917 l 4 4 c -4 4 c -4 -4 c 53 -38 4683 1985 l 0 57 c 80 0 4683 1985 l 53 -37 4683 2060 l
0 56 c 80 0 4683 2060 l -7 -3 4694 2147 l -4 -12 c 0 -7 c 4 -12 c 11 -7 c 19 -4 c 19 0 c 15 4 c 8 7 c 4 12 c 0 3 c -4 12 c -8 7 c
-11 4 c -4 0 c -11 -4 c -8 -7 c -4 -12 c 0 -3 c 4 -12 c 8 -7 c 11 -4 c 0 -249 5776 1312 l 0 -38 5732 1429 l 34 -3 c -3 3 c -4 12 c
0 11 c 4 11 c 7 8 c 11 4 c 8 0 c 11 -4 c 8 -8 c 4 -11 c 0 -11 c -4 -12 c -4 -3 c -7 -4 c 4 -11 5732 1482 l 11 -8 c 19 -3 c 12 0 c
19 3 c 11 8 c 4 11 c 0 8 c -4 11 c -11 8 c -19 3 c -12 0 c -19 -3 c -11 -8 c -4 -11 c 0 -8 c 11 -4 5759 1584 l 8 -7 c 3 -11 c 0 -4 c
-3 -12 c -8 -7 c -11 -4 c -4 0 c -11 4 c -8 7 c -4 12 c 0 4 c 4 11 c 8 7 c 15 4 c 19 0 c 19 -4 c 11 -7 c 4 -11 c 0 -8 c -4 -11 c
-8 -4 c 4 -11 5732 1633 l 11 -8 c 19 -3 c 12 0 c 19 3 c 11 8 c 4 11 c 0 8 c -4 11 c -11 8 c -19 4 c -12 0 c -19 -4 c -11 -8 c
-4 -11 c 0 -8 c 4 -4 5804 1694 l 4 4 c -4 4 c -4 -4 c 4 -12 5732 1747 l 11 -7 c 19 -4 c 12 0 c 19 4 c 11 7 c 4 12 c 0 7 c -4 12 c
-11 7 c -19 4 c -12 0 c -19 -4 c -11 -7 c -4 -12 c 0 -7 c 0 -38 5732 1845 l 34 -4 c -3 4 c -4 12 c 0 11 c 4 11 c 7 8 c 11 4 c 8 0 c
11 -4 c 8 -8 c 4 -11 c 0 -11 c -4 -12 c -4 -4 c -7 -3 c -3 7 5747 1887 l -12 11 c 80 0 c 0 -250 5833 3352 l 0 -38 5789 3469 l
34 -3 c -4 3 c -3 12 c 0 11 c 3 11 c 8 8 c 11 4 c 8 0 c 11 -4 c 8 -8 c 4 -11 c 0 -11 c -4 -12 c -4 -3 c -8 -4 c 4 -11 5789 3522 l
11 -8 c 19 -4 c 12 0 c 18 4 c 12 8 c 4 11 c 0 8 c -4 11 c -12 7 c -18 4 c -12 0 c -19 -4 c -11 -7 c -4 -11 c 0 -8 c
11 -4 5816 3624 l 8 -7 c 3 -12 c 0 -3 c -3 -12 c -8 -7 c -11 -4 c -4 0 c -11 4 c -8 7 c -4 12 c 0 3 c 4 12 c 8 7 c 15 4 c 19 0 c
18 -4 c 12 -7 c 4 -12 c 0 -7 c -4 -12 c -8 -3 c 4 -11 5789 3673 l 11 -8 c 19 -4 c 12 0 c 18 4 c 12 8 c 4 11 c 0 8 c -4 11 c -12 8 c
-18 3 c -12 0 c -19 -3 c -11 -8 c -4 -11 c 0 -8 c 4 -4 5861 3734 l 4 4 c -4 3 c -4 -3 c 0 -38 5789 3809 l 34 -3 c -4 3 c -3 12 c
0 11 c 3 11 c 8 8 c 11 4 c 8 0 c 11 -4 c 8 -8 c 4 -11 c 0 -11 c -4 -12 c -4 -3 c -8 -4 c 53 -38 5789 3877 l 0 57 c 80 0 5789 3877 l
-8 -4 5801 3964 l -4 -11 c 0 -7 c 4 -12 c 11 -7 c 19 -4 c 19 0 c 15 4 c 8 7 c 4 12 c 0 3 c -4 12 c -8 7 c -11 4 c -4 0 c -11 -4 c
-8 -7 c -4 -12 c 0 -3 c 4 -12 c 8 -7 c 11 -4 c 0 -250 6395 2375 l 0 -38 6352 2492 l 34 -3 c -4 3 c -4 12 c 0 11 c 4 11 c 8 8 c
11 4 c 7 0 c 12 -4 c 7 -8 c 4 -11 c 0 -11 c -4 -12 c -3 -3 c -8 -4 c 4 -11 6352 2545 l 11 -8 c 19 -4 c 11 0 c 19 4 c 11 8 c 4 11 c
0 8 c -4 11 c -11 8 c -19 3 c -11 0 c -19 -3 c -11 -8 c -4 -11 c 0 -8 c 12 -4 6378 2647 l 7 -7 c 4 -11 c 0 -4 c -4 -12 c -7 -7 c
-12 -4 c -4 0 c -11 4 c -7 7 c -4 12 c 0 4 c 4 11 c 7 7 c 15 4 c 19 0 c 19 -4 c 11 -7 c 4 -11 c 0 -8 c -4 -11 c -7 -4 c
0 -38 6352 2719 l 34 -4 c -4 4 c -4 12 c 0 11 c 4 11 c 8 8 c 11 4 c 7 0 c 12 -4 c 7 -8 c 4 -11 c 0 -11 c -4 -12 c -3 -4 c -8 -3 c
3 -4 6424 2757 l 4 4 c -4 4 c -3 -4 c 4 -12 6352 2810 l 11 -7 c 19 -4 c 11 0 c 19 4 c 11 7 c 4 12 c 0 7 c -4 12 c -11 7 c -19 4 c
-11 0 c -19 -4 c -11 -7 c -4 -12 c 0 -7 c -7 -4 6363 2912 l -4 -11 c 0 -8 c 4 -11 c 11 -8 c 19 -4 c 19 0 c 15 4 c 7 8 c 4 11 c 0 4 c
-4 11 c -7 8 c -12 4 c -3 0 c -12 -4 c -7 -8 c -4 -11 c 0 -4 c 4 -11 c 7 -8 c 12 -4 c 53 -38 6352 2976 l 0 57 c 79 0 6352 2976 l
0 -250 6573 2809 l 0 -38 6529 2926 l 34 -4 c -4 4 c -4 11 c 0 12 c 4 11 c 8 8 c 11 3 c 8 0 c 11 -3 c 8 -8 c 3 -11 c 0 -12 c -3 -11 c
-4 -4 c -8 -4 c 4 -12 6529 2979 l 11 -7 c 19 -4 c 11 0 c 19 4 c 12 7 c 3 12 c 0 7 c -3 12 c -12 7 c -19 4 c -11 0 c -19 -4 c
-11 -7 c -4 -12 c 0 -7 c 12 -4 6555 3081 l 7 -8 c 4 -11 c 0 -4 c -4 -11 c -7 -8 c -12 -3 c -3 0 c -12 3 c -7 8 c -4 11 c 0 4 c
4 11 c 7 8 c 15 4 c 19 0 c 19 -4 c 12 -8 c 3 -11 c 0 -7 c -3 -12 c -8 -4 c -7 -3 6540 3156 l -4 -12 c 0 -7 c 4 -12 c 11 -7 c 19 -4 c
19 0 c 15 4 c 8 7 c 3 12 c 0 3 c -3 12 c -8 7 c -11 4 c -4 0 c -11 -4 c -8 -7 c -4 -12 c 0 -3 c 4 -12 c 8 -7 c 11 -4 c
4 -3 6601 3190 l 3 3 c -3 4 c -4 -4 c 53 -37 6529 3258 l 0 56 c 79 0 6529 3258 l 4 -11 6529 3315 l 7 -4 c 8 0 c 7 4 c 4 7 c 4 15 c
4 12 c 7 7 c 8 4 c 11 0 c 8 -4 c 4 -3 c 3 -12 c 0 -15 c -3 -11 c -4 -4 c -8 -4 c -11 0 c -8 4 c -7 8 c -4 11 c -4 15 c -4 8 c -7 3 c
-8 0 c -7 -3 c -4 -12 c 0 -15 c 0 -38 6529 3417 l 34 -3 c -4 3 c -4 12 c 0 11 c 4 11 c 8 8 c 11 4 c 8 0 c 11 -4 c 8 -8 c 3 -11 c
0 -11 c -3 -12 c -4 -3 c -8 -4 c 0 -250 6767 5082 l 0 -38 6724 5199 l 34 -4 c -4 4 c -4 11 c 0 12 c 4 11 c 7 8 c 12 3 c 7 0 c
12 -3 c 7 -8 c 4 -11 c 0 -12 c -4 -11 c -4 -4 c -7 -3 c 3 -11 6724 5252 l 12 -8 c 19 -4 c 11 0 c 19 4 c 11 8 c 4 11 c 0 7 c -4 12 c
-11 7 c -19 4 c -11 0 c -19 -4 c -12 -7 c -3 -12 c 0 -7 c 11 -4 6750 5354 l 8 -7 c 4 -12 c 0 -4 c -4 -11 c -8 -7 c -11 -4 c -4 0 c
-11 4 c -8 7 c -3 11 c 0 4 c 3 12 c 8 7 c 15 4 c 19 0 c 19 -4 c 11 -7 c 4 -12 c 0 -7 c -4 -12 c -7 -3 c 3 -11 6724 5399 l 8 -4 c
8 0 c 7 4 c 4 7 c 4 16 c 3 11 c 8 7 c 8 4 c 11 0 c 7 -4 c 4 -3 c 4 -12 c 0 -15 c -4 -11 c -4 -4 c -7 -4 c -11 0 c -8 4 c -8 8 c
-3 11 c -4 15 c -4 8 c -7 3 c -8 0 c -8 -3 c -3 -12 c 0 -15 c 4 -4 6795 5464 l 4 4 c -4 3 c -4 -3 c 3 -11 6724 5516 l 12 -7 c
19 -4 c 11 0 c 19 4 c 11 7 c 4 11 c 0 8 c -4 11 c -11 8 c -19 4 c -11 0 c -19 -4 c -12 -8 c -3 -11 c 0 -8 c 53 -38 6724 5607 l
0 57 c 79 0 6724 5607 l 0 42 6724 5652 l 30 -23 c 0 12 c 4 7 c 3 4 c 12 4 c 7 0 c 12 -4 c 7 -8 c 4 -11 c 0 -11 c -4 -12 c -4 -3 c
-7 -4 c 0 -250 7090 2980 l 0 -38 7047 3097 l 34 -4 c -4 4 c -4 11 c 0 12 c 4 11 c 7 8 c 12 3 c 7 0 c 12 -3 c 7 -8 c 4 -11 c 0 -12 c
-4 -11 c -4 -4 c -7 -4 c -4 8 7062 3138 l -11 11 c 79 0 c 3 -11 7047 3225 l 12 -8 c 19 -3 c 11 0 c 19 3 c 11 8 c 4 11 c 0 8 c
-4 11 c -11 8 c -19 4 c -11 0 c -19 -4 c -12 -8 c -3 -11 c 0 -8 c 3 -11 7047 3301 l 12 -8 c 19 -4 c 11 0 c 19 4 c 11 8 c 4 11 c
0 7 c -4 12 c -11 7 c -19 4 c -11 0 c -19 -4 c -12 -7 c -3 -12 c 0 -7 c 4 -3 7118 3361 l 4 3 c -4 4 c -4 -4 c -8 -4 7058 3441 l
-3 -11 c 0 -8 c 3 -11 c 12 -8 c 19 -4 c 18 0 c 16 4 c 7 8 c 4 11 c 0 4 c -4 11 c -7 8 c -12 3 c -4 0 c -11 -3 c -7 -8 c -4 -11 c
0 -4 c 4 -11 c 7 -8 c 11 -4 c -3 0 7065 3471 l -8 4 c -4 4 c -3 7 c 0 15 c 3 8 c 4 4 c 8 3 c 7 0 c 8 -3 c 11 -8 c 38 -38 c 0 53 c
-4 8 7062 3554 l -11 11 c 79 0 c 0 -249 7154 1575 l 0 -37 7111 1692 l 34 -4 c -4 4 c -4 11 c 0 11 c 4 12 c 7 7 c 12 4 c 7 0 c
12 -4 c 7 -7 c 4 -12 c 0 -11 c -4 -11 c -4 -4 c -7 -4 c -4 8 7126 1734 l -11 11 c 79 0 c 3 -11 7111 1821 l 12 -8 c 19 -4 c 11 0 c
19 4 c 11 8 c 4 11 c 0 7 c -4 12 c -11 7 c -19 4 c -11 0 c -19 -4 c -12 -7 c -3 -12 c 0 -7 c -4 8 7126 1885 l -11 11 c 79 0 c
4 -4 7182 1957 l 4 4 c -4 4 c -4 -4 c -4 7 7126 1999 l -11 11 c 79 0 c 0 42 7111 2070 l 30 -23 c 0 12 c 4 7 c 3 4 c 12 4 c 7 0 c
12 -4 c 7 -8 c 4 -11 c 0 -11 c -4 -12 c -4 -3 c -7 -4 c 3 -11 7111 2161 l 12 -8 c 19 -4 c 11 0 c 19 4 c 11 8 c 4 11 c 0 8 c -4 11 c
-11 7 c -19 4 c -11 0 c -19 -4 c -12 -7 c -3 -11 c 0 -8 c 0 -250 8247 1281 l 0 -38 8203 1398 l 34 -4 c -3 4 c -4 11 c 0 12 c 4 11 c
7 8 c 12 3 c 7 0 c 11 -3 c 8 -8 c 4 -11 c 0 -12 c -4 -11 c -4 -4 c -7 -4 c -4 8 8219 1439 l -12 11 c 80 0 c 4 -11 8203 1526 l
12 -8 c 18 -3 c 12 0 c 19 3 c 11 8 c 4 11 c 0 8 c -4 11 c -11 8 c -19 4 c -12 0 c -18 -4 c -12 -8 c -4 -11 c 0 -8 c
11 -3 8230 1628 l 8 -8 c 4 -11 c 0 -4 c -4 -11 c -8 -8 c -11 -4 c -4 0 c -11 4 c -8 8 c -4 11 c 0 4 c 4 11 c 8 8 c 15 3 c 19 0 c
19 -3 c 11 -8 c 4 -11 c 0 -8 c -4 -11 c -8 -4 c 4 -3 8275 1662 l 4 3 c -4 4 c -4 -4 c 80 -38 8203 1746 l 0 53 8203 1693 l
0 41 8203 1776 l 31 -22 c 0 11 c 3 8 c 4 3 c 12 4 c 7 0 c 11 -4 c 8 -7 c 4 -12 c 0 -11 c -4 -11 c -4 -4 c -7 -4 c 0 42 8203 1851 l
31 -23 c 0 12 c 3 7 c 4 4 c 12 4 c 7 0 c 11 -4 c 8 -8 c 4 -11 c 0 -11 c -4 -12 c -4 -3 c -7 -4 c 0 -249 8446 1605 l
0 -38 8402 1722 l 34 -3 c -4 3 c -3 12 c 0 11 c 3 11 c 8 8 c 11 4 c 8 0 c 11 -4 c 8 -8 c 3 -11 c 0 -11 c -3 -12 c -4 -3 c -8 -4 c
-4 7 8417 1764 l -11 12 c 79 0 c -4 8 8417 1839 l -11 11 c 79 0 c -4 8 8417 1915 l -11 11 c 79 0 c 4 -4 8474 1987 l 3 4 c -3 4 c
-4 -4 c -4 0 8421 2021 l -7 4 c -4 3 c -4 8 c 0 15 c 4 8 c 4 3 c 7 4 c 8 0 c 7 -4 c 12 -7 c 37 -38 c 0 53 c 79 -38 8402 2146 l
0 53 8402 2093 l 4 -11 8402 2187 l 7 -4 c 8 0 c 8 4 c 3 7 c 4 15 c 4 12 c 7 7 c 8 4 c 11 0 c 8 -4 c 4 -3 c 3 -12 c 0 -15 c -3 -11 c
-4 -4 c -8 -4 c -11 0 c -8 4 c -7 8 c -4 11 c -4 15 c -3 8 c -8 3 c -8 0 c -7 -3 c -4 -12 c 0 -15 c 0 -250 8933 4951 l
0 -38 8889 5068 l 34 -4 c -4 4 c -4 11 c 0 12 c 4 11 c 8 8 c 11 3 c 8 0 c 11 -3 c 8 -8 c 3 -11 c 0 -12 c -3 -11 c -4 -4 c -8 -4 c
-4 8 8904 5109 l -11 11 c 79 0 c -4 7 8904 5185 l -11 12 c 79 0 c 0 -38 8889 5295 l 34 -4 c -4 4 c -4 11 c 0 11 c 4 12 c 8 7 c
11 4 c 8 0 c 11 -4 c 8 -7 c 3 -12 c 0 -11 c -3 -11 c -4 -4 c -8 -4 c 4 -3 8961 5332 l 3 3 c -3 4 c -4 -4 c 4 -11 8889 5385 l 11 -8 c
19 -3 c 11 0 c 19 3 c 12 8 c 3 11 c 0 8 c -3 11 c -12 8 c -19 3 c -11 0 c -19 -3 c -11 -8 c -4 -11 c 0 -8 c 53 -38 8889 5476 l
0 57 c 79 0 8889 5476 l 0 -38 8889 5559 l 34 -3 c -4 3 c -4 12 c 0 11 c 4 11 c 8 8 c 11 4 c 8 0 c 11 -4 c 8 -8 c 3 -11 c 0 -11 c
-3 -12 c -4 -3 c -8 -4 c 0 -249 9226 1279 l 0 -37 9182 1396 l 34 -4 c -4 4 c -3 11 c 0 11 c 3 12 c 8 7 c 11 4 c 8 0 c 11 -4 c 8 -7 c
3 -12 c 0 -11 c -3 -11 c -4 -4 c -8 -4 c -4 8 9197 1438 l -11 11 c 79 0 c -4 7 9197 1514 l -11 11 c 79 0 c 79 -38 9182 1631 l
0 53 9182 1578 l 4 -4 9254 1661 l 3 4 c -3 4 c -4 -4 c -4 0 9201 1695 l -7 4 c -4 4 c -4 7 c 0 15 c 4 8 c 4 4 c 7 3 c 8 0 c 7 -3 c
12 -8 c 37 -38 c 0 53 c 11 -4 9209 1816 l 7 -7 c 4 -12 c 0 -4 c -4 -11 c -7 -7 c -11 -4 c -4 0 c -12 4 c -7 7 c -4 11 c 0 4 c 4 12 c
7 7 c 16 4 c 18 0 c 19 -4 c 12 -7 c 3 -12 c 0 -7 c -3 -12 c -8 -3 c -4 0 9201 1846 l -7 4 c -4 4 c -4 7 c 0 15 c 4 8 c 4 4 c 7 4 c
8 0 c 7 -4 c 12 -8 c 37 -38 c 0 53 c
showpage PGPLOT restore
 
%%Trailer
%%DocumentFonts: 
%%Pages: 1
%%EOF
