%!PS-Adobe-3.0 EPSF-3.0
%%For: tom
%%Title: PGPLOT PostScript plot
%%Creator: PGPLOT
%%CreationDate:  9-Nov-1994 13:59
%%BoundingBox: 25 18 587 774
%%DocumentFonts: (atend)
%%LanguageLevel: 1
%%Orientation: Landscape
%%Pages: (atend)
%%EndComments
%%BeginProlog
/l {moveto rlineto currentpoint stroke moveto} bind def
/c {rlineto currentpoint stroke moveto} bind def
/d {moveto 0 0 rlineto currentpoint stroke moveto} bind def
/SLW {5 mul setlinewidth} bind def
/SCF /pop load def
/BP {newpath moveto} bind def
/LP /rlineto load def
/EP {rlineto closepath eofill} bind def
/MB {gsave translate MFAC dup scale 1 setlinewidth 2 setlinecap 0 setlinejoin newpath} bind def
/ME /grestore load def
/C {0 360 arc stroke} bind def
/FC {0 360 arc fill} bind def
%%EndProlog
 
%%Page: 1 1
%%BeginPageSetup
/PGPLOT save def
0.072 0.072 scale
8150 250 translate 90 rotate
1 setlinejoin 1 setlinecap 1 SLW 1 SCF
%%EndPageSetup
0.00 setgray 1 SLW 8939 0 780 780 l 0 6239 c -8939 0 c 0 -6239 c 0 -45 1116 780 l 0 -45 1554 780 l 0 -45 1991 780 l 0 -45 2428 780 l
0 -90 2865 780 l 0 -45 3302 780 l 0 -45 3739 780 l 0 -45 4176 780 l 0 -45 4613 780 l 0 -90 5051 780 l 0 -45 5488 780 l
0 -45 5925 780 l 0 -45 6362 780 l 0 -45 6799 780 l 0 -90 7236 780 l 0 -45 7673 780 l 0 -45 8110 780 l 0 -45 8548 780 l
0 -45 8985 780 l 0 -90 9422 780 l 0 -45 1116 7064 l 0 -45 1554 7064 l 0 -45 1991 7064 l 0 -45 2428 7064 l 0 -90 2865 7109 l
0 -45 3302 7064 l 0 -45 3739 7064 l 0 -45 4176 7064 l 0 -45 4613 7064 l 0 -90 5051 7109 l 0 -45 5488 7064 l 0 -45 5925 7064 l
0 -45 6362 7064 l 0 -45 6799 7064 l 0 -90 7236 7109 l 0 -45 7673 7064 l 0 -45 8110 7064 l 0 -45 8548 7064 l 0 -45 8985 7064 l
0 -90 9422 7109 l -60 0 2775 672 l -6 -54 c 6 6 c 18 6 c 18 0 c 18 -6 c 12 -12 c 6 -18 c 0 -12 c -6 -18 c -12 -12 c -18 -6 c -18 0 c
-18 6 c -6 6 c -6 12 c -18 -6 2859 672 l -12 -18 c -6 -30 c 0 -18 c 6 -30 c 12 -18 c 18 -6 c 12 0 c 18 6 c 12 18 c 6 30 c 0 18 c
-6 30 c -12 18 c -18 6 c -12 0 c -18 -6 2979 672 l -12 -18 c -6 -30 c 0 -18 c 6 -30 c 12 -18 c 18 -6 c 12 0 c 18 6 c 12 18 c 6 30 c
0 18 c -6 30 c -12 18 c -18 6 c -12 0 c 12 6 4847 648 l 18 18 c 0 -126 c -18 -6 4985 672 l -12 -18 c -6 -30 c 0 -18 c 6 -30 c
12 -18 c 18 -6 c 12 0 c 18 6 c 12 18 c 6 30 c 0 18 c -6 30 c -12 18 c -18 6 c -12 0 c -18 -6 5105 672 l -12 -18 c -6 -30 c 0 -18 c
6 -30 c 12 -18 c 18 -6 c 12 0 c 18 6 c 12 18 c 6 30 c 0 18 c -6 30 c -12 18 c -18 6 c -12 0 c -18 -6 5225 672 l -12 -18 c -6 -30 c
0 -18 c 6 -30 c 12 -18 c 18 -6 c 12 0 c 18 6 c 12 18 c 6 30 c 0 18 c -6 30 c -12 18 c -18 6 c -12 0 c 12 6 7032 648 l 18 18 c
0 -126 c -60 0 7206 672 l -6 -54 c 6 6 c 18 6 c 18 0 c 18 -6 c 12 -12 c 6 -18 c 0 -12 c -6 -18 c -12 -12 c -18 -6 c -18 0 c -18 6 c
-6 6 c -6 12 c -18 -6 7290 672 l -12 -18 c -6 -30 c 0 -18 c 6 -30 c 12 -18 c 18 -6 c 12 0 c 18 6 c 12 18 c 6 30 c 0 18 c -6 30 c
-12 18 c -18 6 c -12 0 c -18 -6 7410 672 l -12 -18 c -6 -30 c 0 -18 c 6 -30 c 12 -18 c 18 -6 c 12 0 c 18 6 c 12 18 c 6 30 c 0 18 c
-6 30 c -12 18 c -18 6 c -12 0 c 0 6 9206 642 l 6 12 c 6 6 c 12 6 c 24 0 c 12 -6 c 6 -6 c 6 -12 c 0 -12 c -6 -12 c -12 -18 c
-60 -60 c 84 0 c -18 -6 9356 672 l -12 -18 c -6 -30 c 0 -18 c 6 -30 c 12 -18 c 18 -6 c 12 0 c 18 6 c 12 18 c 6 30 c 0 18 c -6 30 c
-12 18 c -18 6 c -12 0 c -18 -6 9476 672 l -12 -18 c -6 -30 c 0 -18 c 6 -30 c 12 -18 c 18 -6 c 12 0 c 18 6 c 12 18 c 6 30 c 0 18 c
-6 30 c -12 18 c -18 6 c -12 0 c -18 -6 9596 672 l -12 -18 c -6 -30 c 0 -18 c 6 -30 c 12 -18 c 18 -6 c 12 0 c 18 6 c 12 18 c 6 30 c
0 18 c -6 30 c -12 18 c -18 6 c -12 0 c -90 0 780 780 l -45 0 780 1718 l -90 0 780 2656 l -45 0 780 3594 l -90 0 780 4532 l
-45 0 780 5470 l -90 0 780 6408 l -90 0 9809 780 l -45 0 9764 1718 l -90 0 9809 2656 l -45 0 9764 3594 l -90 0 9809 4532 l
-45 0 9764 5470 l -90 0 9809 6408 l 6 -18 517 774 l 18 -12 c 30 -6 c 18 0 c 30 6 c 18 12 c 6 18 c 0 12 c -6 18 c -18 12 c -30 6 c
-18 0 c -30 -6 c -18 -12 c -6 -18 c 0 -12 c -6 0 547 2398 l -12 6 c -6 6 c -6 12 c 0 24 c 6 12 c 6 6 c 12 6 c 12 0 c 12 -6 c
18 -12 c 60 -60 c 0 84 c 84 84 547 2518 l 84 -84 547 2602 l -6 12 541 2662 l -18 18 c 126 0 c 6 -18 517 2800 l 18 -12 c 30 -6 c
18 0 c 30 6 c 18 12 c 6 18 c 0 12 c -6 18 c -18 12 c -30 6 c -18 0 c -30 -6 c -18 -12 c -6 -18 c 0 -12 c 63 -45 453 2924 l 0 68 c
94 0 453 2924 l 84 -60 517 4328 l 0 90 c 126 0 517 4328 l 84 84 547 4394 l 84 -84 547 4478 l -6 12 541 4538 l -18 18 c 126 0 c
6 -18 517 4676 l 18 -12 c 30 -6 c 18 0 c 30 6 c 18 12 c 6 18 c 0 12 c -6 18 c -18 12 c -30 6 c -18 0 c -30 -6 c -18 -12 c -6 -18 c
0 -12 c 63 -45 453 4801 l 0 67 c 94 0 453 4801 l -12 -6 535 6222 l -6 -18 c 0 -12 c 6 -18 c 18 -12 c 30 -6 c 30 0 c 24 6 c 12 12 c
6 18 c 0 6 c -6 18 c -12 12 c -18 6 c -6 0 c -18 -6 c -12 -12 c -6 -18 c 0 -6 c 6 -18 c 12 -12 c 18 -6 c 84 84 547 6270 l
84 -84 547 6354 l -6 12 541 6414 l -18 18 c 126 0 c 6 -18 517 6552 l 18 -12 c 30 -6 c 18 0 c 30 6 c 18 12 c 6 18 c 0 12 c -6 18 c
-18 12 c -30 6 c -18 0 c -30 -6 c -18 -12 c -6 -18 c 0 -12 c 63 -45 453 6677 l 0 67 c 94 0 453 6677 l
4 1 780 796 l 5 2 c 4 1 c 4 1 c 5 8 c 4 9 c 4 3 c 5 -5 c 4 -12 c 5 -6 c 4 1 c 4 1 c 5 8 c 4 9 c 4 4 c 5 -3 c 4 -12 c 5 -7 c 4 5 c
4 19 c 5 15 c 4 2 c 4 -10 c 5 -23 c 4 -11 c 5 -1 c 4 1 c 4 2 c 5 1 c 4 6 c 4 24 c 5 107 c 4 200 c 5 104 c 4 126 c 4 110 c 5 -59 c
4 -71 c 4 -214 c 5 -219 c 4 -78 c 4 -22 c 5 11 c 4 24 c 5 45 c 4 183 c 4 176 c 5 27 c 4 -74 c 4 -240 c 5 -140 c 4 -29 c 5 -1 c 4 0 c
4 -1 c 5 1 c 4 1 c 4 0 c 5 -1 c 4 -1 c 5 1 c 4 3 c 4 10 c 5 7 c 4 2 c 4 -6 c 5 -11 c 4 -3 c 5 3 c 4 4 c 4 4 c 5 2 c 4 -4 c 4 -4 c
5 -3 c 4 4 c 4 15 c 5 66 c 4 248 c 5 203 c 4 20 c 4 -95 c 5 -294 c 4 -186 c 5 14 1151 780 l 4 2 c 5 2 c 4 1 c 4 0 c 5 3 c 4 15 c
4 14 c 5 2 c 4 -9 c 5 -20 c 4 -9 c 4 -3 c 5 1 c 4 0 c 4 0 c 5 0 c 4 -1 c 5 0 c 4 0 c 4 0 c 5 0 c 4 0 c 4 -1 c 5 0 c 4 1 c 4 0 c
5 1 c 4 0 c 5 0 c 4 0 c 4 0 c 5 1 c 4 0 c 4 -1 c 5 -1 c 4 0 c 5 0 c 4 1 c 4 1 c 5 0 c 4 0 c 4 0 c 5 0 c 4 1 c 5 -1 c 4 2 c 4 3 c
5 1 c 4 1 c 4 -1 c 5 -1 c 4 2 c 5 -1 c 4 -1 c 4 -3 c 5 -2 c 4 0 c 4 1 c 5 1 c 4 2 c 4 4 c 5 2 c 4 5 c 5 1 c 4 1 c 4 0 c 5 7 c 4 56 c
4 215 c 5 1255 c 4 1513 c 5 403 c 4 -306 c 4 -1584 c 5 -1313 c 4 -227 c 4 -18 c 5 5 c 4 24 c 5 110 c 4 97 c 4 10 c 5 -42 c 4 -134 c
4 -69 c 5 -8 c 4 -3 c 4 -4 c 5 -1 c 4 -1 c 5 0 c 4 -1 c 4 0 c 5 0 c 4 1 c 4 1 c 5 1 c 4 1 c 5 2 c 4 0 c 4 -1 c 5 -2 c 4 5 c 4 4 c
5 0 c 4 -3 c 5 -8 c 4 -3 c 4 -1 c 5 0 c 4 1 c 4 -1 c 5 0 c 4 0 c 5 0 c 4 1 c 4 6 c 5 6 c 4 0 c 4 -1 c 5 -6 c 4 -5 c 4 0 c 5 2 c
4 6 c 5 12 c 4 5 c 4 0 c 5 -8 c 4 -12 c 4 -5 c 5 1 c 4 6 c 5 28 c 4 65 c 4 28 c 5 -3 c 4 -33 c 4 -60 c 5 -19 c 4 -6 c 5 -4 c 4 -2 c
4 -1 c 5 0 c 4 0 c 4 1 c 5 1 c 4 0 c 5 0 c 4 0 c 4 -1 c 5 0 c 4 -1 c 4 0 c 5 1 c 4 4 c 4 4 c 5 7 c 4 -1 c 5 -2 c 4 -7 c 4 -5 c 5 0 c
4 -1 c 4 1 c 5 0 c 4 0 c 5 0 c 4 1 c 4 -1 c 5 0 c 4 2 c 4 2 c 5 7 c 4 6 c 5 0 c 4 -2 c 4 -8 c 5 -2 c 4 21 c 4 46 c 5 22 c 4 -1 c
5 -30 c 4 -44 c 4 -16 c 5 -4 c 4 0 c 4 -1 c 5 0 c 4 0 c 4 0 c 5 0 c 4 1 c 5 0 c 4 1 c 4 5 c 5 9 c 4 6 c 4 0 c 5 -5 c 4 -1 c 5 33 c
4 36 c 4 9 c 5 -14 c 4 -44 c 4 -27 c 5 -7 c 4 -1 c 5 0 c 4 4 c 4 2 c 5 0 c 4 0 c 4 -3 c 5 -2 c 4 1 c 5 0 c 4 -1 c 4 0 c 5 -2 c 4 0 c
4 5 c 5 3 c 4 2 c 4 -1 c 5 -5 c 4 -2 c 5 3 c 4 16 c 4 14 c 5 3 c 4 -7 c 4 -19 c 5 -11 c 4 -1 c 5 -1 c 4 1 c 4 -1 c 5 1 c 4 -1 c
4 0 c 5 0 c 4 0 c 5 0 c 4 0 c 4 1 c 5 -1 c 4 0 c 4 0 c 5 0 c 4 0 c 4 0 c 5 1 c 4 0 c 5 0 c 4 0 c 4 0 c 5 0 c 4 -1 c 4 1 c 5 1 c
4 0 c 5 1 c 4 1 c 4 3 c 5 3 c 4 1 c 4 2 c 5 11 c 4 35 c 5 26 c 4 5 c 4 -15 c 5 -32 c 4 -18 c 4 -5 c 5 -2 c 4 -1 c 5 -1 c 4 -2 c
4 -2 c 5 -3 c 4 -4 c 4 -2 c 5 0 c 4 -1 c 4 1 c 5 1 c 4 3 c 5 1 c 4 2 c 4 1 c 5 -1 c 4 2 c 4 -2 c 5 3 c 4 21 c 5 24 c 4 5 c 4 -6 c
5 -32 c 4 -20 c 4 -4 c 5 0 c 4 1 c 5 1 c 4 0 c 4 -1 c 5 0 c 4 0 c 4 0 c 5 0 c 4 1 c 5 4 c 4 14 c 4 28 c 5 19 c 4 2 c 4 -19 c 5 -29 c
4 -13 c 4 -2 c 5 2 c 4 20 c 5 92 c 4 55 c 4 6 c 5 -39 c 4 -91 c 4 -37 c 5 -4 c 4 0 c 5 3 c 4 4 c 4 2 c 5 -2 c 4 -7 c 4 -6 c 5 -2 c
4 5 c 5 31 c 4 47 c 4 8 c 5 -7 c 4 -44 c 4 -33 c 5 -7 c 4 1 c 5 1 c 4 1 c 4 0 c 5 -3 c 4 -1 c 4 -1 c 5 0 c 4 0 c 4 0 c 5 1 c 4 0 c
5 1 c 4 1 c 4 0 c 5 0 c 4 -1 c 4 -1 c 5 0 c 4 0 c 5 0 c 4 0 c 4 -1 c 5 0 c 4 0 c 4 0 c 5 0 c 4 0 c 5 0 c 4 0 c 4 2 c 5 3 c 4 1 c
4 1 c 5 -2 c 4 -2 c 4 -1 c 5 0 c 4 2 c 5 4 c 4 1 c 4 -1 c 5 -2 c 4 -5 c 4 -1 c 5 0 c 4 0 c 5 2 c 4 1 c 4 1 c 5 1 c 4 -1 c 4 1 c
5 2 c 4 1 c 5 2 c 4 7 c 4 2 c 5 0 c 4 -5 c 4 -10 c 5 -2 c 4 0 c 5 -1 c 4 0 c 4 0 c 5 0 c 4 1 c 4 0 c 5 2 c 4 0 c 4 0 c 5 -1 c 4 -1 c
5 -1 c 4 0 c 4 1 c 5 3 c 4 13 c 4 19 c 5 36 c 4 8 c 5 -3 c 4 -15 c 4 -28 c 5 -9 c 4 -8 c 4 -10 c 5 -3 c 4 -1 c 5 -1 c 4 -1 c 4 0 c
5 1 c 4 1 c 4 5 c 5 6 c 4 1 c 5 0 c 4 -5 c 4 5 c 5 15 c 4 6 c 4 -3 c 5 -13 c 4 -14 c 4 -3 c 5 2 c 4 2 c 5 1 c 4 -2 c 4 -3 c 5 -2 c
4 0 c 4 0 c 5 0 c 4 -1 c 5 0 c 4 0 c 4 0 c 5 1 c 4 5 c 4 18 c 5 11 c 4 4 c 5 -6 c 4 -15 c 4 -9 c 5 -4 c 4 -4 c 4 0 c 5 -1 c 4 1 c
5 5 c 4 4 c 4 0 c 5 0 c 4 -5 c 4 -2 c 5 3 c 4 16 c 4 28 c 5 164 c 4 231 c 5 52 c 4 -40 c 4 -218 c 5 -193 c 4 -39 c 4 -2 c 5 -1 c
4 5 c 5 62 c 4 142 c 4 64 c 5 -4 c 4 -79 c 4 -145 c 5 -43 c 4 -3 c 5 4 c 4 29 c 4 40 c 5 8 c 4 -8 c 4 -39 c 5 -31 c 4 -5 c 5 0 c
4 -1 c 4 1 c 5 0 c 4 2 c 4 0 c 5 3 c 4 14 c 4 20 c 5 5 c 4 1 c 5 -16 c 4 -16 c 4 -6 c 5 -4 c 4 -2 c 4 0 c 5 7 c 4 9 c 5 5 c 4 -1 c
4 -7 c 5 -9 c 4 -3 c 4 -1 c 5 0 c 4 0 c 5 -1 c 4 0 c 4 -1 c 5 1 c 4 1 c 4 0 c 5 1 c 4 0 c 4 -1 c 5 0 c 4 2 c 5 1 c 4 6 c 4 36 c
5 68 c 4 27 c 4 1 c 5 -48 c 4 -65 c 5 -20 c 4 11 c 4 54 c 5 34 c 4 8 c 4 -21 c 5 -57 c 4 -28 c 5 -6 c 4 -2 c 4 0 c 5 1 c 4 0 c 4 0 c
5 0 c 4 0 c 5 0 c 4 0 c 4 0 c 5 -1 c 4 0 c 4 0 c 5 -1 c 4 -1 c 4 0 c 5 0 c 4 2 c 5 0 c 4 -1 c 4 0 c 5 0 c 4 1 c 4 1 c 5 0 c 4 1 c
5 0 c 4 2 c 4 20 c 5 48 c 4 34 c 4 14 c 5 -14 c 4 -43 c 5 -30 c 4 -14 c 4 -5 c 5 -2 c 4 0 c 4 -3 c 5 -5 c 4 -2 c 5 -1 c 4 2 c 4 5 c
5 3 c 4 0 c 4 -3 c 5 -5 c 4 -1 c 4 0 c 5 0 c 4 0 c 5 1 c 4 0 c 4 0 c 5 1 c 4 0 c 4 0 c 5 0 c 4 -1 c 5 1 c 4 1 c 4 0 c 5 1 c 4 2 c
4 3 c 5 3 c 4 1 c 5 0 c 4 -4 c 4 2 c 5 16 c 4 40 c 4 29 c 5 4 c 4 -15 c 5 -35 c 4 -12 c 4 2 c 5 6 c 4 5 c 4 8 c 5 15 c 4 31 c 4 73 c
5 225 c 4 5582 c 5 33 c 4 -12 c 4 31 c 5 2 c 4 -7 c 4 -3323 c 5 -2546 c 4 -51 c 5 -9 c 4 0 c 4 -11 c 5 -8 c 4 -28 c 4 -19 c 5 -5 c
4 3 c 5 5 c 4 0 c 4 -4 c 5 -12 c 4 -11 c 4 -4 c 5 2 c 4 3 c 5 10 c 4 6 c 4 1 c 5 -6 c 4 -11 c 4 -5 c 5 -2 c 4 0 c 4 0 c 5 0 c 4 0 c
5 1 c 4 6 c 4 33 c 5 27 c 4 17 c 4 46 c 5 30 c 4 1 c 5 -12 c 4 -42 c 4 -3 c 5 11 c 4 -2 c 4 -16 c 5 14 c 4 38 c 5 11 c 4 -17 c
4 -87 c 5 -55 c 4 -6 c 4 -1 c 5 -1 c 4 0 c 4 0 c 5 0 c 4 0 c 5 0 c 4 0 c 4 -1 c 5 0 c 4 0 c 4 1 c 5 1 c 4 -1 c 5 0 c 4 -2 c 4 0 c
5 0 c 4 0 c 4 0 c 5 1 c 4 1 c 5 0 c 4 1 c 4 -1 c 5 -2 c 4 1 c 4 6 c 5 6 c 4 2 c 5 -2 c 4 -8 c 4 -5 c 5 2 c 4 3 c 4 1 c 5 -1 c 4 -2 c
4 -3 c 5 0 c 4 0 c 5 0 c 4 0 c 4 -1 c 5 0 c 4 0 c 4 0 c 5 1 c 4 2 c 5 0 c 4 0 c 4 0 c 5 -2 c 4 -1 c 4 1 c 5 -1 c 4 0 c 5 0 c 4 0 c
4 0 c 5 0 c 4 0 c 4 0 c 5 0 c 4 0 c 5 0 c 4 0 c 4 0 c 5 0 c 4 0 c 4 0 c 5 0 c 4 0 c 4 0 c 5 1 c 4 1 c 5 0 c 4 1 c 4 0 c 5 0 c 4 0 c
4 -1 c 5 0 c 4 1 c 5 1 c 4 4 c 4 43 c 5 219 c 4 214 c 4 51 c 5 114 c 4 50 c 5 -66 c 4 -40 c 4 -194 c 5 -163 c 4 495 c 4 780 c
5 162 c 4 -138 c 5 -730 c 4 -664 c 4 -124 c 5 -8 c 4 0 c 4 0 c 5 2 c 4 2 c 4 10 c 5 11 c 4 50 c 5 48 c 4 -1 c 4 -16 c 5 -58 c
4 -49 c 4 -7 c 5 -1 c 4 1 c 5 0 c 4 0 c 4 0 c 5 0 c 4 0 c 4 -1 c 5 1 c 4 0 c 5 1 c 4 0 c 4 0 c 5 -1 c 4 0 c 4 -1 c 5 0 c 4 0 c 5 0 c
4 0 c 4 2 c 5 2 c 4 2 c 4 2 c 5 14 c 4 29 c 4 7 c 5 -2 c 4 -20 c 5 -29 c 4 -5 c 4 -1 c 5 0 c 4 0 c 4 0 c 5 0 c 4 -1 c 5 0 c 4 0 c
4 0 c 5 0 c 4 1 c 4 1 c 5 2 c 4 1 c 5 1 c 4 1 c 4 5 c 5 42 c 4 166 c 4 159 c 5 46 c 4 -46 c 4 -127 c 5 -79 c 4 5 c 5 208 c 4 474 c
4 135 c 5 -30 c 4 -271 c 4 -514 c 5 -155 c 4 -12 c 5 0 c 4 2 c 4 -3 c 5 -2 c 4 -3 c 4 -3 c 5 -2 c 4 0 c 5 -1 c 4 0 c 4 0 c 5 2 c
4 1 c 4 0 c 5 -1 c 4 0 c 5 -1 c 4 0 c 4 -1 c 5 3 c 4 -1 c 4 1 c 5 -1 c 4 0 c 4 -1 c 5 5 c 4 29 c 5 59 c 4 27 c 4 1 c 5 -29 c 4 -57 c
4 -15 c 5 13 c 4 96 c 5 668 c 4 1381 c 4 585 c 5 33 c 4 -773 c 4 -1468 c 5 -463 c 4 -60 c 5 -12 c 4 -7 c 4 -4 c 5 -2 c 4 -2 c 4 -1 c
5 -2 c 4 1 c 5 0 c 4 1 c 4 0 c 5 2 c 4 1 c 4 -1 c 5 -2 c 4 -2 c 4 -4 c 5 0 c 4 0 c 5 0 c 4 0 c 4 0 c 5 0 c 4 1 c 4 0 c 5 0 c 4 -1 c
5 0 c 4 0 c 4 2 c 5 3 c 4 2 c 4 -1 c 5 -2 c 4 -2 c 5 -1 c 4 0 c 4 1 c 5 1 c 4 0 c 4 0 c 5 0 c 4 4 c 5 4 c 4 0 c 4 1 c 5 -3 c 4 27 c
4 102 c 5 61 c 4 8 c 4 -40 c 5 -102 c 4 -58 c 5 -6 c 4 0 c 4 3 c 5 0 c 4 0 c 4 -1 c 5 -3 c 4 0 c 5 0 c 4 1 c 4 0 c 5 0 c 4 0 c 4 2 c
5 1 c 4 1 c 5 0 c 4 0 c 4 1 c 5 3 c 4 11 c 4 113 c 5 634 c 4 685 c 4 84 c 5 -155 c 4 -731 c 5 -555 c 4 -84 c 4 -4 c 5 -1 c 4 2 c
4 12 c 5 39 c 4 47 c 5 30 c 4 3 c 4 -47 c 5 -47 c 4 -29 c 4 -10 c 5 -3 c 4 -2 c 5 0 c 4 -16 c 4 15 c 5 -1 c 4 0 c 4 0 c 5 0 c 4 1 c
5 1 c 4 0 c 4 4 c 5 2 c 4 2 c 4 -1 c 5 -3 c 4 -2 c 4 7 c 5 9 c 4 1 c 5 -1 c 4 -9 c 4 -8 c 5 15 c 4 62 c 4 34 c 5 1 c 4 -18 c 5 -62 c
4 -29 c 4 -1 c 5 -1 c 4 1 c 4 3 c 5 -1 c 4 2 c 5 -3 c 4 -4 c 4 2 c 5 1 c 4 1 c 4 2 c 5 -2 c 4 -1 c 5 -2 c 4 -3 c 4 0 c 5 1 c 4 6 c
4 13 c 5 4 c 4 -2 c 4 -6 c 5 -12 c 4 -3 c 5 1 c 4 1 c 4 3 c 5 4 c 4 29 c 4 155 c 5 144 c 4 24 c 5 -37 c 4 -168 c 4 -136 c 5 -15 c
4 -3 c 4 0 c 5 0 c 4 0 c 5 5 c 4 12 c 4 5 c 5 0 c 4 -3 c 4 -9 c 5 3 c 4 65 c 5 295 c 4 237 c 4 27 c 5 -69 c 4 -316 c 4 -209 c
5 -29 c 4 -8 c 4 -5 c 5 -1 c 4 -1 c 5 -1 c 4 -1 c 4 0 c 5 0 c 4 0 c 4 0 c 5 2 c 4 2 c 5 2 c 4 6 c 4 1 c 5 1 c 4 0 c 4 -2 c 5 0 c
4 0 c 5 -2 c 4 -2 c 4 9 c 5 76 c 4 164 c 4 95 c 5 8 c 4 -71 c 5 -177 c 4 -87 c 4 -17 c 5 -3 c 4 -1 c 4 -1 c 5 0 c 4 -1 c 4 0 c
5 -1 c 4 0 c 5 0 c 4 0 c 4 0 c 5 0 c 4 0 c 4 0 c 5 3 c 4 16 c 5 21 c 4 3 c 4 -3 c 5 -17 c 4 -20 c 4 -2 c 5 -1 c 4 -1 c 5 0 c 4 -1 c
4 1 c 5 0 c 4 0 c 4 0 c 5 2 c 4 6 c 4 16 c 5 5 c 4 -3 c 5 -5 c 4 -10 c 4 -1 c 5 -1 c 4 -1 c 4 -6 c 5 -3 c 4 0 c 5 0 c 4 0 c 4 -1 c
5 0 c 4 1 c 4 1 c 5 0 c 4 0 c 5 1 c 4 -1 c 4 1 c 5 0 c 4 0 c 4 -1 c 5 0 c 4 0 c 5 -1 c 4 0 c 4 0 c 5 0 c 4 0 c 4 1 c 5 0 c 4 2 c
4 6 c 5 9 c 4 5 c 5 2 c 4 -3 c 4 -9 c 5 -7 c 4 -3 c 4 0 c 5 3 c 4 3 c 5 0 c 4 -1 c 4 -3 c 5 -2 c 4 -1 c 4 1 c 5 1 c 4 -1 c 5 0 c
4 -2 c 4 0 c 5 1 c 4 2 c 4 5 c 5 64 c 4 166 c 5 71 c 4 2 c 4 -63 c 5 -169 c 4 -74 c 4 -3 c 5 1 c 4 -1 c 4 2 c 5 8 c 4 10 c 5 2 c
4 -3 c 4 -10 c 5 -10 c 4 -1 c 4 0 c 5 1 c 4 -1 c 5 1 c 4 1 c 4 1 c 5 0 c 4 4 c 4 1 c 5 -1 c 4 -1 c 5 -3 c 4 0 c 4 5 c 5 4 c 4 1 c
4 -2 c 5 -5 c 4 -3 c 5 0 c 4 1 c 4 2 c 5 15 c 4 86 c 4 105 c 5 23 c 4 -13 c 4 -84 c 5 -115 c 4 -17 c 5 1 c 4 1 c 4 10 c 5 38 c
4 35 c 4 9 c 5 28 c 4 383 c 5 1198 c 4 464 c 4 23 c 5 -405 c 4 -1264 c 4 -465 c 5 -43 c 4 -1 c 5 6 c 4 18 c 4 156 c 5 1144 c
4 1489 c 4 299 c 5 -162 c 4 -1102 c 5 -1575 c 4 -253 c 4 -14 c 5 -2 c 4 -4 c 4 -2 c 5 -4 c 4 -3 c 4 -1 c 5 -2 c 4 -2 c 5 -1 c 4 -1 c
4 0 c 5 1 c 4 7 c 4 18 c 5 7 c 4 1 c 5 -6 c 4 -19 c 4 -7 c 5 -1 c 4 -1 c 4 1 c 5 -1 c 4 0 c 5 0 c 4 0 c 4 0 c 5 0 c 4 2 c 4 3 c
5 45 c 4 208 c 4 155 c 5 19 c 4 -44 c 5 -206 c 4 -159 c 4 -19 c 5 -2 c 4 0 c 4 0 c 5 0 c 4 -1 c 5 0 c 4 0 c 4 0 c 5 0 c 4 -1 c 4 0 c
5 1 c 4 2 c 5 1 c 4 -1 c 4 -2 c 5 -2 c 4 0 c 4 1 c 5 0 c 4 -1 c 5 0 c 4 1 c 4 2 c 5 23 c 4 36 c 4 8 c 5 0 c 4 -24 c 4 -36 c 5 -9 c
4 -1 c 5 0 c 4 0 c 4 0 c 5 0 c 4 0 c 4 1 c 5 2 c 4 6 c 5 2 c 4 -1 c 4 -1 c 5 -6 c 4 -2 c 4 1 c 5 -1 c 4 1 c 5 -1 c 4 -1 c 4 1 c
5 -1 c 4 0 c 4 0 c 5 -1 c 4 1 c 5 -1 c 4 0 c 4 0 c 5 0 c 4 1 c 4 2 c 5 2 c 4 7 c 4 9 c 5 0 c 4 0 c 5 -5 c 4 -8 c 4 -3 c 5 -1 c
4 -2 c 4 -1 c 5 -1 c 4 0 c 5 1 c 4 0 c 4 0 c 5 0 c 4 1 c 4 1 c 5 0 c 4 1 c 5 -2 c 4 2 c 4 12 c 5 8 c 4 0 c 4 -4 c 5 -9 c 4 -8 c
5 -1 c 4 -1 c 4 -1 c 5 0 c 4 5 c 4 9 c 5 1 c 4 -1 c 4 -3 c 5 -8 c 4 0 c 5 0 c 4 -1 c 4 -2 c 5 -1 c 4 1 c 4 3 c 5 1 c 4 0 c 5 -1 c
4 -3 c 4 -1 c 5 1 c 4 0 c 4 0 c 5 0 c 4 -1 c 5 -1 c 4 1 c 4 0 c 5 0 c 4 1 c 4 1 c 5 -1 c 4 0 c 5 -1 c 4 0 c 4 -1 c 5 1 c 4 1 c 4 0 c
5 1 c 4 -1 c 4 -1 c 5 0 c 4 0 c 5 0 c 4 1 c 4 2 c 5 2 c 4 6 c 4 18 c 5 13 c 4 12 c 5 35 c 4 36 c 4 -4 c 5 -9 c 4 -34 c 4 -53 c
5 -17 c 4 -3 c 5 -1 c 4 -2 c 4 0 c 5 -1 c 4 0 c 4 1 c 5 0 c 4 0 c 4 -1 c 5 0 c 4 0 c 5 0 c 4 0 c 4 3 c 5 27 c 4 91 c 4 31 c 5 3 c
4 -19 c 5 -88 c 4 -43 c 4 -3 c 5 0 c 4 0 c 4 0 c 5 0 c 4 -1 c 5 0 c 4 -1 c 4 0 c 5 1 c 4 3 c 4 2 c 5 1 c 4 -2 c 5 -2 c 4 -2 c 4 1 c
5 2 c 4 1 c 4 2 c 5 0 c 4 1 c 4 5 c 5 49 c 4 260 c 5 544 c 4 373 c 4 -18 c 5 -265 c 4 -541 c 4 -355 c 5 -54 c 4 -2 c 5 -2 c 4 0 c
4 -1 c 5 0 c 4 2 c 4 6 c 5 2 c 4 0 c 5 -1 c 4 -6 c 4 -1 c 5 0 c 4 -1 c 4 0 c 5 -1 c 4 -1 c 5 0 c 4 1 c 4 0 c 5 0 c 4 -1 c 4 0 c
5 -1 c 4 0 c 4 0 c 5 0 c 4 -1 c 5 1 c 4 0 c 4 1 c 5 -1 c 4 0 c 4 -1 c 5 1 c 4 0 c 5 0 c 4 1 c 4 0 c 5 1 c 4 0 c 4 1 c 5 0 c 4 1 c
5 6 c 4 41 c 4 271 c 5 430 c 4 74 c 4 -28 c 5 -235 c 4 -440 c 5 -112 c 4 -6 c 4 -1 c 5 -1 c 4 -1 c 4 -1 c 5 0 c 4 0 c 4 0 c 5 -1 c
4 0 c 5 0 c 4 0 c 4 0 c 5 0 c 4 1 c 4 -2 c 5 0 c 4 0 c 5 0 c 4 0 c 4 0 c 5 0 c 4 1 c 4 0 c 5 1 c 4 -1 c 5 0 c 4 1 c 4 1 c 5 -1 c
4 1 c 4 -1 c 5 -1 c 4 1 c 4 1 c 5 0 c 4 0 c 5 -1 c 4 0 c 4 -1 c 5 0 c 4 1 c 4 6 c 5 30 c 4 25 c 5 49 c 4 29 c 4 -19 c 5 -28 c
4 -49 c 4 -40 c 5 -4 c 4 0 c 5 -1 c 4 0 c 4 0 c 5 3 c 4 4 c 4 -1 c 5 0 c 4 -2 c 5 -3 c 4 -1 c 4 0 c 5 0 c 4 0 c 4 1 c 5 2 c 4 2 c
4 0 c 5 -1 c 4 -2 c 5 -2 c 4 0 c 4 0 c 5 1 c 4 3 c 4 11 c 5 9 c 4 -1 c 5 -1 c 4 -10 c 4 -10 c 5 -1 c 4 -1 c 4 1 c 5 0 c 4 0 c 5 0 c
4 -1 c 4 0 c 5 0 c 4 0 c 4 0 c 5 0 c 4 3 c 5 2 c 4 0 c 4 1 c 5 -2 c 4 -1 c 4 0 c 5 -1 c 4 0 c 4 5 c 5 9 c 4 4 c 5 0 c 4 -3 c 4 -10 c
5 -1 c 4 8 c 4 9 c 5 2 c 4 -4 c 5 -6 c 4 -9 c 4 -4 c 5 0 c 4 3 c 4 8 c 5 46 c 4 161 c 5 173 c 4 38 c 4 -21 c 5 -156 c 4 -181 c
4 -56 c 5 -10 c 4 -1 c 5 -1 c 4 0 c 4 -1 c 5 0 c 4 0 c 4 0 c 5 2 c 4 0 c 4 -1 c 5 -2 c 4 -2 c 5 -1 c 4 0 c 4 0 c 5 0 c 4 0 c 4 2 c
5 3 c 4 1 c 5 -1 c 4 -1 c 4 -4 c 5 0 c 4 -1 c 4 0 c 5 0 c 4 0 c 5 0 c 4 0 c 4 1 c 5 0 c 4 -1 c 4 0 c 5 3 c 4 4 c 5 0 c 4 0 c 4 -1 c
5 -3 c 4 6 c 4 21 c 5 21 c 4 3 c 4 -3 c 5 -20 c 4 -22 c 5 -3 c 4 0 c 4 0 c 5 -2 c 4 -1 c 4 -1 c 5 2 c 4 1 c 5 1 c 4 1 c 4 0 c 5 -2 c
4 -1 c 4 -2 c 5 -2 c 4 0 c 5 0 c 4 -1 c 4 1 c 5 -1 c 4 1 c 4 0 c 5 0 c 4 0 c 4 2 c 5 0 c 4 1 c 5 2 c 4 1 c 4 -1 c 5 1 c 4 2 c 4 28 c
5 153 c 4 163 c 5 17 c 4 -17 c 4 -128 c 5 -183 c 4 -37 c 4 -3 c 5 0 c 4 -1 c 5 0 c 4 0 c 4 0 c 5 0 c 4 1 c 4 1 c 5 2 c 4 -1 c 5 0 c
4 -1 c 4 -2 c 5 0 c 4 -1 c 4 1 c 5 0 c 4 0 c 4 0 c 5 0 c 4 0 c 5 0 c 4 -1 c 4 1 c 5 -1 c 4 1 c 4 -1 c 5 0 c 4 0 c 5 1 c 4 0 c 4 0 c
5 0 c 4 0 c 4 1 c 5 0 c 4 2 c 5 8 c 4 15 c 4 5 c 5 -1 c 4 -5 c 4 -15 c 5 -6 c 4 0 c 5 0 c 4 -1 c 4 -2 c 5 -1 c 4 3 c 4 16 c 5 19 c
4 2 c 4 0 c 5 -10 c 4 -19 c 5 -6 c 4 -1 c 4 -1 c 5 0 c 4 3 c 4 2 c 5 1 c 4 -2 c 5 -3 c 4 -2 c 4 -1 c 5 0 c 4 1 c 4 -1 c 5 0 c 4 0 c
5 -1 c 4 0 c 4 -1 c 5 1 c 4 -1 c 4 0 c
5 0 c 4 1 c 5 0 c 4 0 c 4 -11 c 4 11 9549 780 l 4 0 c 5 0 c 4 1 c 4 0 c 5 -1 c 4 0 c 5 0 c 4 2 c 4 7 c 5 4 c 4 0 c 4 -2 c 5 -5 c
4 -1 c 5 0 c 4 1 c 4 -2 c 5 -3 c 4 -1 c 4 1 c 5 2 c 4 3 c 5 1 c 4 0 c 4 -1 c 5 -1 c 4 15 c 4 56 c 5 49 c 4 10 c 5 -7 c 4 -47 c
4 -58 c 5 -14 c 4 9 c 4 45 c 5 75 c 4 38 c
0 -126 3030 418 l 54 0 3030 418 l 18 -6 c 6 -6 c 6 -12 c 0 -12 c -6 -12 c -6 -6 c -18 -6 c -54 0 c 42 -66 3072 358 l
-12 -6 3180 376 l -12 -12 c -6 -18 c 0 -12 c 6 -18 c 12 -12 c 12 -6 c 18 0 c 12 6 c 12 12 c 6 18 c 0 12 c -6 18 c -12 12 c -12 6 c
-18 0 c 24 -84 3264 376 l -24 -84 3312 376 l 24 -84 3312 376 l -24 -84 3360 376 l 108 0 3402 364 l 108 0 3402 328 l 66 0 3660 418 l
-36 -48 c 18 0 c 12 -6 c 6 -6 c 6 -18 c 0 -12 c -6 -18 c -12 -12 c -18 -6 c -18 0 c -18 6 c -6 6 c -6 12 c 0 6 3774 388 l 6 12 c
6 6 c 12 6 c 24 0 c 12 -6 c 6 -6 c 6 -12 c 0 -12 c -6 -12 c -12 -18 c -60 -60 c 84 0 c 12 6 4290 394 l 18 18 c 0 -126 c
-6 -6 4404 376 l 6 -6 c 6 6 c -6 6 c -6 -6 4404 304 l 6 -6 c 6 6 c -6 6 c -48 -126 4584 418 l 48 -126 4584 418 l 60 0 4554 334 l
0 -84 4662 376 l 6 18 4662 340 l 12 12 c 12 6 c 18 0 c -12 12 4806 358 l -12 6 c -18 0 c -12 -6 c -12 -12 c -6 -18 c 0 -12 c 6 -18 c
12 -12 c 12 -6 c 18 0 c 12 6 c 12 12 c 108 0 4848 346 l -18 -6 5034 418 l -12 -18 c -6 -30 c 0 -18 c 6 -30 c 12 -18 c 18 -6 c 12 0 c
18 6 c 12 18 c 6 30 c 0 18 c -6 30 c -12 18 c -18 6 c -12 0 c 66 0 5130 418 l -36 -48 c 18 0 c 12 -6 c 6 -6 c 6 -18 c 0 -12 c
-6 -18 c -12 -12 c -18 -6 c -18 0 c -18 6 c -6 6 c -6 12 c -59 0 5309 418 l -6 -54 c 6 6 c 17 6 c 18 0 c 18 -6 c 12 -12 c 6 -18 c
0 -12 c -6 -18 c -12 -12 c -18 -6 c -18 0 c -17 6 c -6 6 c -6 12 c -6 -6 5369 304 l 6 -6 c 6 6 c -6 6 c -12 0 5459 418 l -12 -6 c
-6 -18 c 0 -102 c 42 0 5411 376 l 6 -6 5489 418 l 6 6 c -6 6 c -6 -6 c 0 -84 5495 376 l 0 -102 5549 418 l 6 -18 c 12 -6 c 12 0 c
42 0 5531 376 l -6 12 5675 358 l -18 6 c -18 0 c -18 -6 c -6 -12 c 6 -12 c 12 -6 c 30 -6 c 12 -6 c 6 -12 c 0 -6 c -6 -12 c -18 -6 c
-18 0 c -18 6 c -6 12 c 0 -192 6005 442 l 0 -192 6011 442 l 42 0 6005 442 l 42 0 6005 250 l 0 6 6089 388 l 6 12 c 6 6 c 12 6 c
24 0 c 12 -6 c 6 -6 c 6 -12 c 0 -12 c -6 -12 c -12 -18 c -60 -60 c 84 0 c -6 -6 6215 376 l 6 -6 c 6 6 c -6 6 c -6 -6 6215 304 l
6 -6 c 6 6 c -6 6 c -48 -126 6395 418 l 48 -126 6395 418 l 60 0 6365 334 l 0 -84 6473 376 l 6 18 6473 340 l 12 12 c 12 6 c 18 0 c
-12 12 6617 358 l -12 6 c -18 0 c -12 -6 c -12 -12 c -6 -18 c 0 -12 c 6 -18 c 12 -12 c 12 -6 c 18 0 c 12 6 c 12 12 c
108 0 6659 346 l -18 -6 6845 418 l -12 -18 c -6 -30 c 0 -18 c 6 -30 c 12 -18 c 18 -6 c 12 0 c 18 6 c 12 18 c 6 30 c 0 18 c -6 30 c
-12 18 c -18 6 c -12 0 c 66 0 6941 418 l -36 -48 c 18 0 c 12 -6 c 6 -6 c 6 -18 c 0 -12 c -6 -18 c -12 -12 c -18 -6 c -18 0 c -18 6 c
-6 6 c -6 12 c -6 12 7127 400 l -18 6 c -12 0 c -18 -6 c -12 -18 c -6 -30 c 0 -30 c 6 -24 c 12 -12 c 18 -6 c 6 0 c 18 6 c 12 12 c
6 18 c 0 6 c -6 18 c -12 12 c -18 6 c -6 0 c -18 -6 c -12 -12 c -6 -18 c -6 -6 7181 304 l 6 -6 c 6 6 c -6 6 c -12 0 7271 418 l
-12 -6 c -6 -18 c 0 -102 c 42 0 7223 376 l 6 -6 7301 418 l 6 6 c -6 6 c -6 -6 c 0 -84 7307 376 l 0 -102 7361 418 l 6 -18 c 12 -6 c
12 0 c 42 0 7343 376 l -6 12 7487 358 l -18 6 c -18 0 c -18 -6 c -6 -12 c 6 -12 c 12 -6 c 30 -6 c 12 -6 c 6 -12 c 0 -6 c -6 -12 c
-18 -6 c -18 0 c -18 6 c -6 12 c 0 -192 7559 442 l 0 -192 7565 442 l 42 0 7523 442 l 42 0 7523 250 l
0 -250 989 1716 l 0 -38 945 1833 l 34 -4 c -4 4 c -3 11 c 0 12 c 3 11 c 8 8 c 11 3 c 8 0 c 11 -3 c 8 -8 c 3 -11 c 0 -12 c -3 -11 c
-4 -4 c -8 -3 c -7 -3 956 1912 l -4 -12 c 0 -7 c 4 -12 c 11 -7 c 19 -4 c 19 0 c 15 4 c 8 7 c 3 12 c 0 3 c -3 12 c -8 7 c -11 4 c
-4 0 c -11 -4 c -8 -7 c -4 -12 c 0 -3 c 4 -12 c 8 -7 c 11 -4 c -4 8 960 1950 l -11 11 c 79 0 c 4 -11 945 2037 l 11 -8 c 19 -4 c
11 0 c 19 4 c 12 8 c 3 11 c 0 8 c -3 11 c -12 7 c -19 4 c -11 0 c -19 -4 c -11 -7 c -4 -11 c 0 -8 c 4 -4 1017 2098 l 3 4 c -3 3 c
-4 -3 c -7 -4 956 2177 l -4 -11 c 0 -8 c 4 -11 c 11 -8 c 19 -3 c 19 0 c 15 3 c 8 8 c 3 11 c 0 4 c -3 11 c -8 8 c -11 4 c -4 0 c
-11 -4 c -8 -8 c -4 -11 c 0 -4 c 4 -11 c 8 -8 c 11 -3 c 4 -11 945 2222 l 7 -4 c 8 0 c 8 4 c 3 7 c 4 16 c 4 11 c 7 7 c 8 4 c 11 0 c
8 -4 c 4 -3 c 3 -12 c 0 -15 c -3 -11 c -4 -4 c -8 -4 c -11 0 c -8 4 c -7 8 c -4 11 c -4 15 c -3 8 c -8 3 c -8 0 c -7 -3 c -4 -12 c
0 -15 c -4 8 960 2290 l -11 11 c 79 0 c 0 -249 1133 1791 l 0 -38 1089 1909 l 34 -4 c -4 4 c -3 11 c 0 11 c 3 12 c 8 7 c 11 4 c 8 0 c
11 -4 c 8 -7 c 4 -12 c 0 -11 c -4 -11 c -4 -4 c -8 -4 c -7 -4 1100 1988 l -4 -11 c 0 -8 c 4 -11 c 11 -8 c 19 -3 c 19 0 c 15 3 c
8 8 c 4 11 c 0 4 c -4 11 c -8 8 c -11 4 c -4 0 c -11 -4 c -8 -8 c -4 -11 c 0 -4 c 4 -11 c 8 -8 c 11 -3 c -4 7 1104 2026 l -11 12 c
80 0 c -4 0 1108 2094 l -7 3 c -4 4 c -4 8 c 0 15 c 4 7 c 4 4 c 7 4 c 8 0 c 7 -4 c 12 -7 c 38 -38 c 0 53 c 4 -4 1161 2173 l 4 4 c
-4 4 c -4 -4 c 4 -11 1089 2226 l 11 -8 c 19 -4 c 11 0 c 19 4 c 12 8 c 4 11 c 0 8 c -4 11 c -12 7 c -19 4 c -11 0 c -19 -4 c -11 -7 c
-4 -11 c 0 -8 c -7 -4 1100 2328 l -4 -11 c 0 -8 c 4 -11 c 11 -8 c 19 -3 c 19 0 c 15 3 c 8 8 c 4 11 c 0 4 c -4 11 c -8 8 c -11 4 c
-4 0 c -11 -4 c -8 -8 c -4 -11 c 0 -4 c 4 -11 c 8 -8 c 11 -3 c 4 -11 1089 2373 l 7 -4 c 8 0 c 8 4 c 3 8 c 4 15 c 4 11 c 7 8 c 8 3 c
11 0 c 8 -3 c 4 -4 c 4 -11 c 0 -16 c -4 -11 c -4 -4 c -8 -4 c -11 0 c -8 4 c -7 8 c -4 11 c -4 15 c -3 8 c -8 4 c -8 0 c -7 -4 c
-4 -11 c 0 -16 c 0 -250 1189 1270 l 0 -38 1146 1387 l 34 -4 c -4 4 c -4 11 c 0 12 c 4 11 c 8 8 c 11 3 c 7 0 c 12 -3 c 7 -8 c 4 -11 c
0 -12 c -4 -11 c -3 -4 c -8 -3 c -7 -4 1157 1466 l -4 -11 c 0 -7 c 4 -12 c 11 -7 c 19 -4 c 19 0 c 15 4 c 7 7 c 4 12 c 0 3 c -4 12 c
-7 7 c -12 4 c -3 0 c -12 -4 c -7 -7 c -4 -12 c 0 -3 c 4 -12 c 7 -7 c 12 -4 c -4 8 1161 1504 l -11 11 c 79 0 c -4 0 1165 1572 l
-8 4 c -3 4 c -4 7 c 0 15 c 4 8 c 3 4 c 8 3 c 7 0 c 8 -3 c 11 -8 c 38 -38 c 0 53 c 3 -3 1218 1651 l 4 3 c -4 4 c -3 -4 c
-7 -4 1157 1731 l -4 -11 c 0 -8 c 4 -11 c 11 -8 c 19 -4 c 19 0 c 15 4 c 7 8 c 4 11 c 0 4 c -4 11 c -7 8 c -12 4 c -3 0 c -12 -4 c
-7 -8 c -4 -11 c 0 -4 c 4 -11 c 7 -8 c 12 -4 c -4 7 1161 1769 l -11 12 c 79 0 c 79 -38 1146 1886 l 0 53 1146 1833 l
0 -249 1471 4697 l 0 -38 1427 4814 l 34 -3 c -4 3 c -4 12 c 0 11 c 4 11 c 8 8 c 11 4 c 8 0 c 11 -4 c 8 -8 c 3 -11 c 0 -11 c -3 -12 c
-4 -3 c -8 -4 c -7 -4 1438 4894 l -4 -11 c 0 -8 c 4 -11 c 11 -8 c 19 -4 c 19 0 c 15 4 c 8 8 c 3 11 c 0 4 c -3 11 c -8 8 c -11 3 c
-4 0 c -11 -3 c -8 -8 c -4 -11 c 0 -4 c 4 -11 c 8 -8 c 11 -4 c -4 8 1442 4931 l -11 11 c 79 0 c 0 -38 1427 5041 l 34 -4 c -4 4 c
-4 12 c 0 11 c 4 11 c 8 8 c 11 4 c 8 0 c 11 -4 c 8 -8 c 3 -11 c 0 -11 c -3 -12 c -4 -4 c -8 -3 c 4 -4 1499 5079 l 3 4 c -3 4 c
-4 -4 c 0 41 1427 5117 l 30 -22 c 0 11 c 4 7 c 4 4 c 11 4 c 8 0 c 11 -4 c 8 -7 c 3 -12 c 0 -11 c -3 -11 c -4 -4 c -8 -4 c
-4 8 1442 5196 l -11 11 c 79 0 c 12 -3 1453 5309 l 7 -8 c 4 -11 c 0 -4 c -4 -11 c -7 -8 c -12 -4 c -3 0 c -12 4 c -7 8 c -4 11 c
0 4 c 4 11 c 7 8 c 15 3 c 19 0 c 19 -3 c 12 -8 c 3 -11 c 0 -8 c -3 -11 c -8 -4 c 0 -250 1958 1325 l 0 -38 1914 1442 l 34 -4 c -4 4 c
-4 11 c 0 12 c 4 11 c 8 7 c 11 4 c 8 0 c 11 -4 c 7 -7 c 4 -11 c 0 -12 c -4 -11 c -3 -4 c -8 -4 c -7 -4 1925 1521 l -4 -11 c 0 -8 c
4 -11 c 11 -7 c 19 -4 c 19 0 c 15 4 c 7 7 c 4 11 c 0 4 c -4 12 c -7 7 c -11 4 c -4 0 c -12 -4 c -7 -7 c -4 -12 c 0 -4 c 4 -11 c
7 -7 c 12 -4 c -4 7 1929 1559 l -11 12 c 79 0 c 12 -4 1940 1672 l 7 -7 c 4 -11 c 0 -4 c -4 -12 c -7 -7 c -12 -4 c -3 0 c -12 4 c
-7 7 c -4 12 c 0 4 c 4 11 c 7 7 c 15 4 c 19 0 c 19 -4 c 11 -7 c 4 -11 c 0 -8 c -4 -11 c -7 -4 c 3 -4 1986 1706 l 4 4 c -4 4 c
-3 -4 c 12 -4 1940 1786 l 7 -8 c 4 -11 c 0 -4 c -4 -11 c -7 -8 c -12 -3 c -3 0 c -12 3 c -7 8 c -4 11 c 0 4 c 4 11 c 7 8 c 15 4 c
19 0 c 19 -4 c 11 -8 c 4 -11 c 0 -8 c -4 -11 c -7 -4 c 79 -38 1914 1865 l 0 53 1914 1812 l 0 -38 1914 1933 l 34 -4 c -4 4 c -4 12 c
0 11 c 4 11 c 8 8 c 11 4 c 8 0 c 11 -4 c 7 -8 c 4 -11 c 0 -11 c -4 -12 c -3 -4 c -8 -3 c 0 -249 2475 1290 l 0 -37 2432 1407 l
34 -4 c -4 4 c -4 11 c 0 11 c 4 12 c 8 7 c 11 4 c 7 0 c 12 -4 c 7 -7 c 4 -12 c 0 -11 c -4 -11 c -3 -4 c -8 -4 c -7 -4 2443 1487 l
-4 -11 c 0 -8 c 4 -11 c 11 -8 c 19 -4 c 19 0 c 15 4 c 7 8 c 4 11 c 0 4 c -4 11 c -7 8 c -12 4 c -3 0 c -12 -4 c -7 -8 c -4 -11 c
0 -4 c 4 -11 c 7 -8 c 12 -4 c -4 0 2451 1517 l -8 4 c -3 4 c -4 7 c 0 15 c 4 8 c 3 4 c 8 3 c 7 0 c 8 -3 c 11 -8 c 38 -38 c 0 53 c
53 -38 2432 1627 l 0 57 c 79 0 2432 1627 l 3 -4 2504 1672 l 4 4 c -4 4 c -3 -4 c 12 -3 2458 1751 l 7 -8 c 4 -11 c 0 -4 c -4 -11 c
-7 -8 c -12 -4 c -4 0 c -11 4 c -7 8 c -4 11 c 0 4 c 4 11 c 7 8 c 15 3 c 19 0 c 19 -3 c 11 -8 c 4 -11 c 0 -8 c -4 -11 c -7 -4 c
-4 8 2447 1789 l -11 11 c 79 0 c 0 42 2432 1861 l 30 -23 c 0 11 c 4 8 c 4 4 c 11 3 c 7 0 c 12 -3 c 7 -8 c 4 -11 c 0 -12 c -4 -11 c
-3 -4 c -8 -4 c 0 -250 3046 1310 l 0 -38 3002 1427 l 34 -4 c -4 4 c -3 11 c 0 12 c 3 11 c 8 8 c 11 3 c 8 0 c 11 -3 c 8 -8 c 3 -11 c
0 -12 c -3 -11 c -4 -4 c -8 -4 c -7 -4 3013 1506 l -4 -11 c 0 -7 c 4 -12 c 11 -7 c 19 -4 c 19 0 c 15 4 c 8 7 c 3 12 c 0 3 c -3 12 c
-8 7 c -11 4 c -4 0 c -11 -4 c -8 -7 c -4 -12 c 0 -3 c 4 -12 c 8 -7 c 11 -4 c 0 42 3002 1540 l 30 -23 c 0 11 c 4 8 c 4 4 c 11 4 c
8 0 c 11 -4 c 8 -8 c 3 -11 c 0 -11 c -3 -12 c -4 -4 c -8 -3 c 4 -11 3002 1631 l 11 -8 c 19 -4 c 11 0 c 19 4 c 12 8 c 3 11 c 0 7 c
-3 12 c -12 7 c -19 4 c -11 0 c -19 -4 c -11 -7 c -4 -12 c 0 -7 c 4 -3 3074 1691 l 3 3 c -3 4 c -4 -4 c -4 0 3021 1725 l -7 4 c
-4 4 c -4 8 c 0 15 c 4 7 c 4 4 c 7 4 c 8 0 c 7 -4 c 12 -8 c 37 -37 c 0 53 c 11 -3 3029 1846 l 7 -8 c 4 -11 c 0 -4 c -4 -11 c -7 -8 c
-11 -4 c -4 0 c -12 4 c -7 8 c -4 11 c 0 4 c 4 11 c 7 8 c 16 3 c 18 0 c 19 -3 c 12 -8 c 3 -11 c 0 -8 c -3 -11 c -8 -4 c
79 -38 3002 1926 l 0 53 3002 1873 l 0 -250 3642 1347 l 0 -38 3598 1464 l 34 -4 c -4 4 c -3 12 c 0 11 c 3 11 c 8 8 c 11 4 c 8 0 c
11 -4 c 8 -8 c 4 -11 c 0 -11 c -4 -12 c -4 -4 c -8 -3 c -8 -3 3610 1543 l -4 -12 c 0 -7 c 4 -12 c 11 -7 c 19 -4 c 19 0 c 15 4 c
8 7 c 4 12 c 0 3 c -4 12 c -8 7 c -11 4 c -4 0 c -11 -4 c -8 -7 c -4 -12 c 0 -3 c 4 -12 c 8 -7 c 11 -4 c 0 42 3598 1577 l 30 -23 c
0 12 c 4 7 c 4 4 c 11 4 c 8 0 c 11 -4 c 8 -8 c 4 -11 c 0 -11 c -4 -12 c -4 -3 c -8 -4 c 0 -38 3598 1691 l 34 -4 c -4 4 c -3 11 c
0 12 c 3 11 c 8 8 c 11 3 c 8 0 c 11 -3 c 8 -8 c 4 -11 c 0 -12 c -4 -11 c -4 -4 c -8 -4 c 4 -4 3670 1729 l 4 4 c -4 3 c -4 -3 c
4 -12 3598 1778 l 8 -3 c 7 0 c 8 3 c 3 8 c 4 15 c 4 11 c 8 8 c 7 4 c 11 0 c 8 -4 c 4 -4 c 4 -11 c 0 -15 c -4 -12 c -4 -3 c -8 -4 c
-11 0 c -7 4 c -8 7 c -4 11 c -4 16 c -3 7 c -8 4 c -7 0 c -8 -4 c -4 -11 c 0 -15 c 80 -37 3598 1887 l 0 53 3598 1834 l
11 -4 3625 1959 l 8 -7 c 3 -12 c 0 -3 c -3 -12 c -8 -7 c -11 -4 c -4 0 c -11 4 c -8 7 c -4 12 c 0 3 c 4 12 c 8 7 c 15 4 c 19 0 c
18 -4 c 12 -7 c 4 -12 c 0 -7 c -4 -11 c -8 -4 c 0 -249 4057 7019 l 0 -38 4013 7136 l 34 -3 c -4 3 c -3 12 c 0 11 c 3 11 c 8 8 c
11 4 c 8 0 c 11 -4 c 8 -8 c 3 -11 c 0 -11 c -3 -12 c -4 -3 c -8 -4 c -7 -4 4024 7216 l -4 -11 c 0 -8 c 4 -11 c 11 -8 c 19 -4 c
19 0 c 15 4 c 8 8 c 3 11 c 0 4 c -3 11 c -8 8 c -11 3 c -4 0 c -11 -3 c -8 -8 c -4 -11 c 0 -4 c 4 -11 c 8 -8 c 11 -4 c
0 41 4013 7250 l 30 -22 c 0 11 c 4 7 c 4 4 c 11 4 c 8 0 c 11 -4 c 8 -7 c 3 -12 c 0 -11 c -3 -11 c -4 -4 c -8 -4 c 11 -4 4040 7367 l
7 -8 c 4 -11 c 0 -4 c -4 -11 c -7 -8 c -11 -3 c -4 0 c -12 3 c -7 8 c -4 11 c 0 4 c 4 11 c 7 8 c 16 4 c 18 0 c 19 -4 c 12 -8 c
3 -11 c 0 -7 c -3 -12 c -8 -4 c 4 -4 4085 7401 l 3 4 c -3 4 c -4 -4 c 79 -38 4013 7484 l 0 53 4013 7431 l 53 -37 4013 7544 l 0 56 c
79 0 4013 7544 l -7 -3 4024 7631 l -4 -12 c 0 -7 c 4 -12 c 11 -7 c 19 -4 c 19 0 c 15 4 c 8 7 c 3 12 c 0 3 c -3 12 c -8 7 c -11 4 c
-4 0 c -11 -4 c -8 -7 c -4 -12 c 0 -3 c 4 -12 c 8 -7 c 11 -4 c 0 -249 4783 1363 l 0 -38 4739 1481 l 34 -4 c -4 4 c -3 11 c 0 12 c
3 11 c 8 7 c 11 4 c 8 0 c 11 -4 c 8 -7 c 4 -11 c 0 -12 c -4 -11 c -4 -4 c -8 -4 c -8 -4 4751 1560 l -4 -11 c 0 -8 c 4 -11 c 11 -8 c
19 -3 c 19 0 c 15 3 c 8 8 c 4 11 c 0 4 c -4 11 c -8 8 c -11 4 c -4 0 c -11 -4 c -8 -8 c -4 -11 c 0 -4 c 4 -11 c 8 -8 c 11 -3 c
53 -38 4739 1624 l 0 57 c 80 0 4739 1624 l -8 -4 4751 1711 l -4 -11 c 0 -7 c 4 -12 c 11 -7 c 19 -4 c 19 0 c 15 4 c 8 7 c 4 12 c
0 3 c -4 12 c -8 7 c -11 4 c -4 0 c -11 -4 c -8 -7 c -4 -12 c 0 -3 c 4 -12 c 8 -7 c 11 -4 c 4 -4 4811 1745 l 4 4 c -4 4 c -4 -4 c
53 -38 4739 1813 l 0 57 c 80 0 4739 1813 l 0 -37 4739 1896 l 34 -4 c -4 4 c -3 11 c 0 11 c 3 12 c 8 7 c 11 4 c 8 0 c 11 -4 c 8 -7 c
4 -12 c 0 -11 c -4 -11 c -4 -4 c -8 -4 c -3 8 4754 1938 l -12 11 c 80 0 c 0 -250 4920 1290 l 0 -38 4877 1407 l 34 -3 c -4 3 c
-4 12 c 0 11 c 4 11 c 8 8 c 11 4 c 7 0 c 12 -4 c 7 -8 c 4 -11 c 0 -11 c -4 -12 c -3 -3 c -8 -4 c -7 -4 4888 1487 l -4 -12 c 0 -7 c
4 -11 c 11 -8 c 19 -4 c 19 0 c 15 4 c 7 8 c 4 11 c 0 4 c -4 11 c -7 8 c -12 3 c -3 0 c -12 -3 c -7 -8 c -4 -11 c 0 -4 c 4 -11 c
7 -8 c 12 -4 c 53 -38 4877 1551 l 0 57 c 79 0 4877 1551 l 79 -38 4877 1642 l 0 53 4877 1589 l 3 -4 4949 1672 l 4 4 c -4 4 c -3 -4 c
79 -38 4877 1755 l 0 53 4877 1702 l 4 -11 4877 1800 l 11 -8 c 19 -3 c 11 0 c 19 3 c 11 8 c 4 11 c 0 8 c -4 11 c -11 8 c -19 3 c
-11 0 c -19 -3 c -11 -8 c -4 -11 c 0 -8 c 79 -38 4877 1906 l 0 53 4877 1853 l 0 -250 5060 2227 l 0 -38 5017 2344 l 34 -4 c -4 4 c
-4 12 c 0 11 c 4 11 c 8 8 c 11 4 c 8 0 c 11 -4 c 7 -8 c 4 -11 c 0 -11 c -4 -12 c -3 -4 c -8 -3 c -7 -3 5028 2423 l -4 -12 c 0 -7 c
4 -12 c 11 -7 c 19 -4 c 19 0 c 15 4 c 7 7 c 4 12 c 0 3 c -4 12 c -7 7 c -11 4 c -4 0 c -12 -4 c -7 -7 c -4 -12 c 0 -3 c 4 -12 c
7 -7 c 12 -4 c 53 -38 5017 2488 l 0 56 c 79 0 5017 2488 l 4 -11 5017 2544 l 7 -4 c 8 0 c 7 4 c 4 8 c 4 15 c 4 11 c 7 8 c 8 3 c
11 0 c 8 -3 c 3 -4 c 4 -12 c 0 -15 c -4 -11 c -3 -4 c -8 -4 c -11 0 c -8 4 c -7 8 c -4 11 c -4 15 c -4 8 c -7 4 c -8 0 c -7 -4 c
-4 -12 c 0 -15 c 3 -4 5089 2609 l 4 4 c -4 3 c -3 -3 c 12 -4 5043 2688 l 7 -7 c 4 -12 c 0 -4 c -4 -11 c -7 -7 c -12 -4 c -3 0 c
-12 4 c -7 7 c -4 11 c 0 4 c 4 12 c 7 7 c 15 4 c 19 0 c 19 -4 c 11 -7 c 4 -12 c 0 -7 c -4 -12 c -7 -3 c 12 -3 5043 2763 l 7 -8 c
4 -11 c 0 -4 c -4 -11 c -7 -8 c -12 -4 c -3 0 c -12 4 c -7 8 c -4 11 c 0 4 c 4 11 c 7 8 c 15 3 c 19 0 c 19 -3 c 11 -8 c 4 -11 c
0 -8 c -4 -11 c -7 -4 c -4 8 5032 2801 l -11 11 c 79 0 c 0 -249 5249 4029 l 0 -38 5206 4147 l 34 -4 c -4 4 c -4 11 c 0 11 c 4 12 c
7 7 c 12 4 c 7 0 c 12 -4 c 7 -7 c 4 -12 c 0 -11 c -4 -11 c -4 -4 c -7 -4 c -8 -4 5217 4226 l -3 -11 c 0 -8 c 3 -11 c 12 -8 c 19 -3 c
18 0 c 16 3 c 7 8 c 4 11 c 0 4 c -4 11 c -7 8 c -12 4 c -4 0 c -11 -4 c -7 -8 c -4 -11 c 0 -4 c 4 -11 c 7 -8 c 11 -3 c
0 -38 5206 4298 l 34 -4 c -4 4 c -4 11 c 0 12 c 4 11 c 7 7 c 12 4 c 7 0 c 12 -4 c 7 -7 c 4 -11 c 0 -12 c -4 -11 c -4 -4 c -7 -4 c
3 -12 5206 4351 l 12 -7 c 19 -4 c 11 0 c 19 4 c 11 7 c 4 12 c 0 7 c -4 12 c -11 7 c -19 4 c -11 0 c -19 -4 c -12 -7 c -3 -12 c
0 -7 c 4 -4 5277 4411 l 4 4 c -4 4 c -4 -4 c 79 -38 5206 4494 l 0 53 5206 4441 l 3 -12 5206 4540 l 12 -7 c 19 -4 c 11 0 c 19 4 c
11 7 c 4 12 c 0 7 c -4 11 c -11 8 c -19 4 c -11 0 c -19 -4 c -12 -8 c -3 -11 c 0 -7 c 52 -38 5206 4630 l 0 57 c 79 0 5206 4630 l
0 -249 5664 1370 l 0 -38 5621 1488 l 34 -4 c -4 4 c -4 11 c 0 11 c 4 12 c 7 7 c 12 4 c 7 0 c 12 -4 c 7 -7 c 4 -12 c 0 -11 c -4 -11 c
-4 -4 c -7 -4 c -8 -4 5632 1567 l -3 -11 c 0 -8 c 3 -11 c 12 -8 c 19 -3 c 18 0 c 16 3 c 7 8 c 4 11 c 0 4 c -4 11 c -7 8 c -12 4 c
-4 0 c -11 -4 c -7 -8 c -4 -11 c 0 -4 c 4 -11 c 7 -8 c 11 -3 c 0 -38 5621 1639 l 34 -4 c -4 4 c -4 11 c 0 12 c 4 11 c 7 7 c 12 4 c
7 0 c 12 -4 c 7 -7 c 4 -11 c 0 -12 c -4 -11 c -4 -4 c -7 -4 c 52 -38 5621 1707 l 0 57 c 79 0 5621 1707 l 4 -4 5692 1752 l 4 4 c
-4 4 c -4 -4 c 0 -38 5621 1828 l 34 -4 c -4 4 c -4 11 c 0 12 c 4 11 c 7 7 c 12 4 c 7 0 c 12 -4 c 7 -7 c 4 -11 c 0 -12 c -4 -11 c
-4 -4 c -7 -4 c -4 8 5636 1869 l -11 11 c 79 0 c 11 -4 5647 1983 l 8 -8 c 4 -11 c 0 -4 c -4 -11 c -8 -8 c -11 -3 c -4 0 c -11 3 c
-8 8 c -3 11 c 0 4 c 3 11 c 8 8 c 15 4 c 19 0 c 19 -4 c 11 -8 c 4 -11 c 0 -8 c -4 -11 c -7 -4 c 0 -249 5776 1251 l 0 -37 5733 1368 l
34 -4 c -4 4 c -4 11 c 0 11 c 4 12 c 7 7 c 12 4 c 7 0 c 12 -4 c 7 -7 c 4 -12 c 0 -11 c -4 -11 c -4 -4 c -7 -4 c -8 -4 5744 1448 l
-3 -11 c 0 -8 c 3 -11 c 12 -8 c 19 -4 c 19 0 c 15 4 c 7 8 c 4 11 c 0 4 c -4 11 c -7 8 c -12 4 c -3 0 c -12 -4 c -7 -8 c -4 -11 c
0 -4 c 4 -11 c 7 -8 c 12 -4 c 0 -38 5733 1520 l 34 -4 c -4 4 c -4 11 c 0 11 c 4 12 c 7 7 c 12 4 c 7 0 c 12 -4 c 7 -7 c 4 -12 c
0 -11 c -4 -11 c -4 -4 c -7 -4 c 0 -38 5733 1595 l 34 -3 c -4 3 c -4 12 c 0 11 c 4 11 c 7 8 c 12 4 c 7 0 c 12 -4 c 7 -8 c 4 -11 c
0 -11 c -4 -12 c -4 -3 c -7 -4 c 4 -4 5804 1633 l 4 4 c -4 4 c -4 -4 c 53 -38 5733 1701 l 0 57 c 79 0 5733 1701 l 11 -4 5759 1788 l
8 -7 c 4 -12 c 0 -3 c -4 -12 c -8 -7 c -11 -4 c -4 0 c -11 4 c -8 7 c -3 12 c 0 3 c 3 12 c 8 7 c 15 4 c 19 0 c 19 -4 c 11 -7 c
4 -12 c 0 -7 c -4 -12 c -7 -3 c 3 -11 5733 1837 l 12 -8 c 19 -4 c 11 0 c 19 4 c 11 8 c 4 11 c 0 8 c -4 11 c -11 8 c -19 3 c -11 0 c
-19 -3 c -12 -8 c -3 -11 c 0 -8 c 0 -250 6047 1871 l 0 -38 6003 1988 l 34 -4 c -4 4 c -4 11 c 0 12 c 4 11 c 8 8 c 11 4 c 8 0 c
11 -4 c 8 -8 c 3 -11 c 0 -12 c -3 -11 c -4 -4 c -8 -3 c -7 -3 6014 2067 l -4 -12 c 0 -7 c 4 -12 c 11 -7 c 19 -4 c 19 0 c 15 4 c
8 7 c 3 12 c 0 3 c -3 12 c -8 7 c -11 4 c -4 0 c -11 -4 c -8 -7 c -4 -12 c 0 -3 c 4 -12 c 8 -7 c 11 -4 c 0 -38 6003 2139 l 34 -3 c
-4 3 c -4 12 c 0 11 c 4 11 c 8 8 c 11 4 c 8 0 c 11 -4 c 8 -8 c 3 -11 c 0 -11 c -3 -12 c -4 -3 c -8 -4 c 79 -38 6003 2222 l
0 53 6003 2169 l 4 -4 6075 2253 l 3 4 c -3 3 c -4 -3 c 12 -4 6029 2332 l 7 -7 c 4 -12 c 0 -4 c -4 -11 c -7 -7 c -12 -4 c -3 0 c
-12 4 c -7 7 c -4 11 c 0 4 c 4 12 c 7 7 c 15 4 c 19 0 c 19 -4 c 12 -7 c 3 -12 c 0 -7 c -3 -12 c -8 -3 c -4 0 6022 2362 l -8 4 c
-3 4 c -4 7 c 0 15 c 4 8 c 3 4 c 8 3 c 8 0 c 7 -3 c 12 -8 c 37 -38 c 0 53 c -7 -4 6014 2483 l -4 -11 c 0 -8 c 4 -11 c 11 -8 c
19 -3 c 19 0 c 15 3 c 8 8 c 3 11 c 0 4 c -3 12 c -8 7 c -11 4 c -4 0 c -11 -4 c -8 -7 c -4 -12 c 0 -4 c 4 -11 c 8 -8 c 11 -3 c
0 -250 6181 1591 l 0 -38 6137 1708 l 34 -4 c -3 4 c -4 11 c 0 12 c 4 11 c 7 7 c 12 4 c 7 0 c 11 -4 c 8 -7 c 4 -11 c 0 -12 c -4 -11 c
-4 -4 c -7 -4 c -8 -4 6149 1787 l -4 -11 c 0 -8 c 4 -11 c 12 -8 c 18 -3 c 19 0 c 15 3 c 8 8 c 4 11 c 0 4 c -4 12 c -8 7 c -11 4 c
-4 0 c -11 -4 c -8 -7 c -3 -12 c 0 -4 c 3 -11 c 8 -8 c 11 -3 c 0 -38 6137 1859 l 34 -4 c -3 4 c -4 11 c 0 12 c 4 11 c 7 8 c 12 3 c
7 0 c 11 -3 c 8 -8 c 4 -11 c 0 -12 c -4 -11 c -4 -4 c -7 -3 c 11 -4 6164 1938 l 8 -7 c 4 -11 c 0 -4 c -4 -12 c -8 -7 c -11 -4 c
-4 0 c -11 4 c -8 7 c -4 12 c 0 4 c 4 11 c 8 7 c 15 4 c 19 0 c 19 -4 c 11 -7 c 4 -11 c 0 -8 c -4 -11 c -8 -4 c 4 -4 6209 1972 l
4 4 c -4 4 c -4 -4 c -4 7 6153 2014 l -12 12 c 80 0 c -3 0 6156 2082 l -8 4 c -4 3 c -4 8 c 0 15 c 4 8 c 4 3 c 8 4 c 7 0 c 8 -4 c
11 -7 c 38 -38 c 0 53 c 80 -38 6137 2207 l 0 53 6137 2154 l 0 -250 6618 1542 l 0 -38 6574 1659 l 34 -3 c -4 3 c -3 12 c 0 11 c
3 11 c 8 8 c 11 4 c 8 0 c 11 -4 c 8 -8 c 4 -11 c 0 -11 c -4 -12 c -4 -3 c -8 -4 c -8 -4 6586 1739 l -4 -12 c 0 -7 c 4 -11 c 11 -8 c
19 -4 c 19 0 c 15 4 c 8 8 c 4 11 c 0 4 c -4 11 c -8 8 c -11 3 c -4 0 c -11 -3 c -8 -8 c -4 -11 c 0 -4 c 4 -11 c 8 -8 c 11 -4 c
-8 -4 6586 1814 l -4 -11 c 0 -8 c 4 -11 c 11 -7 c 19 -4 c 19 0 c 15 4 c 8 7 c 4 11 c 0 4 c -4 12 c -8 7 c -11 4 c -4 0 c -11 -4 c
-8 -7 c -4 -12 c 0 -4 c 4 -11 c 8 -7 c 11 -4 c 0 42 6574 1848 l 30 -23 c 0 11 c 4 8 c 4 4 c 11 4 c 8 0 c 11 -4 c 8 -8 c 4 -11 c
0 -12 c -4 -11 c -4 -4 c -8 -3 c 4 -4 6646 1924 l 4 4 c -4 4 c -4 -4 c 4 -12 6574 1977 l 11 -7 c 19 -4 c 12 0 c 18 4 c 12 7 c 4 12 c
0 7 c -4 12 c -12 7 c -18 4 c -12 0 c -19 -4 c -11 -7 c -4 -12 c 0 -7 c 53 -37 6574 2067 l 0 56 c 80 0 6574 2067 l -4 0 6593 2109 l
-7 4 c -4 3 c -4 8 c 0 15 c 4 8 c 4 4 c 7 3 c 8 0 c 7 -3 c 12 -8 c 38 -38 c 0 53 c 0 -250 6795 1466 l 0 -38 6752 1583 l 34 -4 c
-4 4 c -4 11 c 0 12 c 4 11 c 7 8 c 12 3 c 7 0 c 12 -3 c 7 -8 c 4 -11 c 0 -12 c -4 -11 c -4 -4 c -7 -3 c -8 -4 6763 1662 l -3 -11 c
0 -7 c 3 -12 c 12 -7 c 19 -4 c 19 0 c 15 4 c 7 7 c 4 12 c 0 3 c -4 12 c -7 7 c -12 4 c -3 0 c -12 -4 c -7 -7 c -4 -12 c 0 -3 c
4 -12 c 7 -7 c 12 -4 c -8 -4 6763 1738 l -3 -11 c 0 -8 c 3 -11 c 12 -8 c 19 -3 c 19 0 c 15 3 c 7 8 c 4 11 c 0 4 c -4 11 c -7 8 c
-12 4 c -3 0 c -12 -4 c -7 -8 c -4 -11 c 0 -4 c 4 -11 c 7 -8 c 12 -3 c 53 -38 6752 1802 l 0 57 c 79 0 6752 1802 l 4 -3 6823 1847 l
4 3 c -4 4 c -4 -4 c -8 -4 6763 1927 l -3 -11 c 0 -8 c 3 -11 c 12 -8 c 19 -4 c 19 0 c 15 4 c 7 8 c 4 11 c 0 4 c -4 11 c -7 8 c
-12 4 c -3 0 c -12 -4 c -7 -8 c -4 -11 c 0 -4 c 4 -11 c 7 -8 c 12 -4 c -3 0 6770 1957 l -8 4 c -4 4 c -3 7 c 0 15 c 3 8 c 4 4 c
8 3 c 7 0 c 8 -3 c 11 -8 c 38 -38 c 0 53 c -4 8 6767 2040 l -11 11 c 79 0 c 0 -249 6858 3427 l 0 -37 6815 3544 l 34 -4 c -4 4 c
-4 11 c 0 11 c 4 12 c 7 7 c 12 4 c 7 0 c 12 -4 c 7 -7 c 4 -12 c 0 -11 c -4 -11 c -4 -4 c -7 -4 c -8 -4 6826 3624 l -3 -11 c 0 -8 c
3 -11 c 12 -8 c 19 -4 c 19 0 c 15 4 c 7 8 c 4 11 c 0 4 c -4 11 c -7 8 c -12 3 c -3 0 c -12 -3 c -7 -8 c -4 -11 c 0 -4 c 4 -11 c
7 -8 c 12 -4 c -8 -4 6826 3699 l -3 -11 c 0 -7 c 3 -12 c 12 -7 c 19 -4 c 19 0 c 15 4 c 7 7 c 4 12 c 0 3 c -4 12 c -7 7 c -12 4 c
-3 0 c -12 -4 c -7 -7 c -4 -12 c 0 -3 c 4 -12 c 7 -7 c 12 -4 c 0 -38 6815 3771 l 34 -3 c -4 3 c -4 12 c 0 11 c 4 11 c 7 8 c 12 4 c
7 0 c 12 -4 c 7 -8 c 4 -11 c 0 -11 c -4 -12 c -4 -3 c -7 -4 c 4 -4 6886 3809 l 4 4 c -4 4 c -4 -4 c -4 8 6830 3850 l -11 11 c 79 0 c
3 -12 6815 3934 l 8 -4 c 8 0 c 7 4 c 4 8 c 4 15 c 3 11 c 8 8 c 8 4 c 11 0 c 7 -4 c 4 -4 c 4 -11 c 0 -15 c -4 -12 c -4 -4 c -7 -3 c
-11 0 c -8 3 c -8 8 c -3 11 c -4 16 c -4 7 c -7 4 c -8 0 c -8 -4 c -3 -11 c 0 -15 c 3 -11 6815 4013 l 12 -8 c 19 -4 c 11 0 c 19 4 c
11 8 c 4 11 c 0 8 c -4 11 c -11 7 c -19 4 c -11 0 c -19 -4 c -12 -7 c -3 -11 c 0 -8 c 0 -249 6909 4361 l 0 -38 6865 4478 l 34 -3 c
-3 3 c -4 12 c 0 11 c 4 11 c 7 8 c 11 4 c 8 0 c 11 -4 c 8 -8 c 4 -11 c 0 -11 c -4 -12 c -4 -3 c -7 -4 c -8 -4 6877 4558 l -4 -11 c
0 -8 c 4 -11 c 11 -8 c 19 -4 c 19 0 c 15 4 c 8 8 c 4 11 c 0 4 c -4 11 c -8 8 c -11 3 c -4 0 c -11 -3 c -8 -8 c -3 -11 c 0 -4 c
3 -11 c 8 -8 c 11 -4 c -8 -4 6877 4633 l -4 -11 c 0 -7 c 4 -12 c 11 -7 c 19 -4 c 19 0 c 15 4 c 8 7 c 4 12 c 0 3 c -4 12 c -8 7 c
-11 4 c -4 0 c -11 -4 c -8 -7 c -3 -12 c 0 -3 c 3 -12 c 8 -7 c 11 -4 c 0 -38 6865 4705 l 34 -4 c -3 4 c -4 12 c 0 11 c 4 11 c 7 8 c
11 4 c 8 0 c 11 -4 c 8 -8 c 4 -11 c 0 -11 c -4 -12 c -4 -4 c -7 -3 c 4 -4 6937 4743 l 4 4 c -4 4 c -4 -4 c -8 -4 6877 4822 l
-4 -11 c 0 -7 c 4 -12 c 11 -7 c 19 -4 c 19 0 c 15 4 c 8 7 c 4 12 c 0 3 c -4 12 c -8 7 c -11 4 c -4 0 c -11 -4 c -8 -7 c -3 -12 c
0 -3 c 3 -12 c 8 -7 c 11 -4 c -4 0 6884 4852 l -7 4 c -4 4 c -4 8 c 0 15 c 4 7 c 4 4 c 7 4 c 8 0 c 8 -4 c 11 -8 c 38 -37 c 0 53 c
4 -11 6865 4943 l 8 -4 c 7 0 c 8 4 c 4 7 c 3 15 c 4 12 c 8 7 c 7 4 c 12 0 c 7 -4 c 4 -3 c 4 -12 c 0 -15 c -4 -11 c -4 -4 c -7 -4 c
-12 0 c -7 4 c -8 8 c -4 11 c -3 15 c -4 8 c -8 3 c -7 0 c -8 -3 c -4 -12 c 0 -15 c 0 -250 7078 1665 l 0 -38 7035 1782 l 34 -4 c
-4 4 c -4 12 c 0 11 c 4 11 c 7 8 c 12 4 c 7 0 c 12 -4 c 7 -8 c 4 -11 c 0 -11 c -4 -12 c -4 -4 c -7 -3 c -8 -3 7046 1861 l -3 -12 c
0 -7 c 3 -12 c 12 -7 c 19 -4 c 19 0 c 15 4 c 7 7 c 4 12 c 0 4 c -4 11 c -7 7 c -12 4 c -3 0 c -12 -4 c -7 -7 c -4 -11 c 0 -4 c
4 -12 c 7 -7 c 12 -4 c -8 -4 7046 1937 l -3 -11 c 0 -8 c 3 -11 c 12 -8 c 19 -3 c 19 0 c 15 3 c 7 8 c 4 11 c 0 4 c -4 11 c -7 8 c
-12 4 c -3 0 c -12 -4 c -7 -8 c -4 -11 c 0 -4 c 4 -11 c 7 -8 c 12 -3 c 79 -37 7035 2016 l 0 53 7035 1963 l 4 -4 7106 2047 l 4 4 c
-4 3 c -4 -3 c -4 8 7050 2088 l -11 11 c 79 0 c -3 0 7053 2156 l -8 4 c -4 4 c -3 7 c 0 15 c 3 8 c 4 4 c 8 4 c 7 0 c 8 -4 c 11 -8 c
38 -38 c 0 53 c 3 -11 7035 2247 l 8 -4 c 7 0 c 8 4 c 4 7 c 4 15 c 3 12 c 8 7 c 8 4 c 11 0 c 7 -4 c 4 -4 c 4 -11 c 0 -15 c -4 -11 c
-4 -4 c -7 -4 c -11 0 c -8 4 c -8 7 c -3 12 c -4 15 c -4 7 c -8 4 c -7 0 c -8 -4 c -3 -11 c 0 -15 c 0 -249 7842 1386 l
0 -38 7799 1503 l 34 -3 c -4 3 c -4 12 c 0 11 c 4 11 c 7 8 c 12 4 c 7 0 c 12 -4 c 7 -8 c 4 -11 c 0 -11 c -4 -12 c -4 -3 c -7 -4 c
-8 -4 7810 1583 l -3 -12 c 0 -7 c 3 -11 c 12 -8 c 19 -4 c 18 0 c 16 4 c 7 8 c 4 11 c 0 4 c -4 11 c -7 8 c -12 3 c -4 0 c -11 -3 c
-7 -8 c -4 -11 c 0 -4 c 4 -11 c 7 -8 c 11 -4 c 79 -38 7799 1662 l 0 53 7799 1609 l 0 42 7799 1692 l 30 -23 c 0 11 c 4 8 c 3 4 c
12 4 c 7 0 c 12 -4 c 7 -8 c 4 -11 c 0 -11 c -4 -12 c -4 -4 c -7 -3 c 4 -4 7870 1768 l 4 4 c -4 4 c -4 -4 c 3 -11 7799 1817 l 8 -4 c
7 0 c 8 4 c 4 7 c 4 15 c 3 12 c 8 7 c 7 4 c 12 0 c 7 -4 c 4 -4 c 4 -11 c 0 -15 c -4 -11 c -4 -4 c -7 -4 c -12 0 c -7 4 c -8 7 c
-3 12 c -4 15 c -4 7 c -8 4 c -7 0 c -8 -4 c -3 -11 c 0 -15 c 0 42 7799 1881 l 30 -23 c 0 11 c 4 8 c 3 4 c 12 4 c 7 0 c 12 -4 c
7 -8 c 4 -11 c 0 -11 c -4 -12 c -4 -4 c -7 -3 c -8 -3 7810 1998 l -3 -12 c 0 -7 c 3 -12 c 12 -7 c 19 -4 c 18 0 c 16 4 c 7 7 c 4 12 c
0 3 c -4 12 c -7 7 c -12 4 c -4 0 c -11 -4 c -7 -7 c -4 -12 c 0 -3 c 4 -12 c 7 -7 c 11 -4 c 0 -250 7978 2470 l 0 -38 7934 2587 l
34 -4 c -4 4 c -4 11 c 0 12 c 4 11 c 8 8 c 11 3 c 8 0 c 11 -3 c 7 -8 c 4 -11 c 0 -12 c -4 -11 c -3 -4 c -8 -4 c -7 -4 7945 2666 l
-4 -11 c 0 -8 c 4 -11 c 11 -7 c 19 -4 c 19 0 c 15 4 c 7 7 c 4 11 c 0 4 c -4 12 c -7 7 c -11 4 c -4 0 c -12 -4 c -7 -7 c -4 -12 c
0 -4 c 4 -11 c 7 -7 c 12 -4 c 79 -38 7934 2746 l 0 53 7934 2693 l 53 -38 7934 2806 l 0 57 c 79 0 7934 2806 l 3 -3 8006 2851 l 4 3 c
-4 4 c -3 -4 c 12 -4 7960 2931 l 7 -8 c 4 -11 c 0 -4 c -4 -11 c -7 -8 c -12 -3 c -3 0 c -12 3 c -7 8 c -4 11 c 0 4 c 4 11 c 7 8 c
15 4 c 19 0 c 19 -4 c 11 -8 c 4 -11 c 0 -7 c -4 -12 c -7 -4 c 4 -11 7934 2976 l 7 -4 c 8 0 c 7 4 c 4 7 c 4 15 c 4 12 c 7 7 c 8 4 c
11 0 c 8 -4 c 3 -3 c 4 -12 c 0 -15 c -4 -11 c -3 -4 c -8 -4 c -11 0 c -8 4 c -7 8 c -4 11 c -4 15 c -4 8 c -7 3 c -8 0 c -7 -3 c
-4 -12 c 0 -15 c -7 -4 7945 3082 l -4 -11 c 0 -8 c 4 -11 c 11 -8 c 19 -3 c 19 0 c 15 3 c 7 8 c 4 11 c 0 4 c -4 11 c -7 8 c -11 4 c
-4 0 c -12 -4 c -7 -8 c -4 -11 c 0 -4 c 4 -11 c 7 -8 c 12 -3 c 0 -249 8212 2055 l 0 -38 8168 2173 l 34 -4 c -3 4 c -4 11 c 0 11 c
4 12 c 7 7 c 12 4 c 7 0 c 11 -4 c 8 -7 c 4 -12 c 0 -11 c -4 -11 c -4 -4 c -7 -4 c -8 -4 8180 2252 l -4 -11 c 0 -8 c 4 -11 c 12 -8 c
18 -3 c 19 0 c 15 3 c 8 8 c 4 11 c 0 4 c -4 11 c -8 8 c -11 4 c -4 0 c -11 -4 c -8 -8 c -3 -11 c 0 -4 c 3 -11 c 8 -8 c 11 -3 c
80 -37 8168 2331 l 0 53 8168 2278 l 80 -38 8168 2407 l 0 53 8168 2354 l 4 -4 8240 2437 l 4 4 c -4 4 c -4 -4 c 4 -11 8168 2490 l
12 -8 c 18 -4 c 12 0 c 19 4 c 11 8 c 4 11 c 0 8 c -4 11 c -11 8 c -19 3 c -12 0 c -18 -3 c -12 -8 c -4 -11 c 0 -8 c
0 -37 8168 2588 l 34 -4 c -3 4 c -4 11 c 0 11 c 4 12 c 7 7 c 12 4 c 7 0 c 11 -4 c 8 -7 c 4 -12 c 0 -11 c -4 -11 c -4 -4 c -7 -4 c
0 42 8168 2626 l 31 -23 c 0 11 c 3 8 c 4 4 c 12 4 c 7 0 c 11 -4 c 8 -8 c 4 -11 c 0 -12 c -4 -11 c -4 -4 c -7 -3 c 0 -250 8435 1370 l
0 -38 8391 1487 l 34 -3 c -3 3 c -4 12 c 0 11 c 4 11 c 7 8 c 11 4 c 8 0 c 11 -4 c 8 -8 c 4 -11 c 0 -11 c -4 -12 c -4 -3 c -7 -4 c
-8 -3 8403 1566 l -4 -12 c 0 -7 c 4 -12 c 11 -7 c 19 -4 c 19 0 c 15 4 c 8 7 c 4 12 c 0 4 c -4 11 c -8 7 c -11 4 c -4 0 c -11 -4 c
-8 -7 c -3 -11 c 0 -4 c 3 -12 c 8 -7 c 11 -4 c 80 -38 8391 1646 l 0 53 8391 1593 l 11 -4 8418 1718 l 8 -8 c 3 -11 c 0 -4 c -3 -11 c
-8 -8 c -11 -3 c -4 0 c -11 3 c -8 8 c -4 11 c 0 4 c 4 11 c 8 8 c 15 4 c 19 0 c 19 -4 c 11 -8 c 4 -11 c 0 -8 c -4 -11 c -8 -4 c
4 -4 8463 1752 l 4 4 c -4 3 c -4 -3 c 4 -12 8391 1805 l 11 -7 c 19 -4 c 12 0 c 19 4 c 11 7 c 4 12 c 0 7 c -4 11 c -11 8 c -19 4 c
-12 0 c -19 -4 c -11 -8 c -4 -11 c 0 -7 c 4 -11 8391 1880 l 11 -8 c 19 -4 c 12 0 c 19 4 c 11 8 c 4 11 c 0 8 c -4 11 c -11 8 c
-19 3 c -12 0 c -19 -3 c -11 -8 c -4 -11 c 0 -8 c 0 -37 8391 1978 l 34 -4 c -3 4 c -4 11 c 0 11 c 4 12 c 7 7 c 11 4 c 8 0 c 11 -4 c
8 -7 c 4 -12 c 0 -11 c -4 -11 c -4 -4 c -7 -4 c 0 -249 9160 1596 l 0 -37 9116 1713 l 34 -4 c -4 4 c -3 11 c 0 11 c 3 12 c 8 7 c
11 4 c 8 0 c 11 -4 c 8 -7 c 4 -12 c 0 -11 c -4 -11 c -4 -4 c -8 -4 c -8 -4 9128 1793 l -4 -11 c 0 -8 c 4 -11 c 11 -8 c 19 -4 c
19 0 c 15 4 c 8 8 c 4 11 c 0 4 c -4 11 c -8 8 c -11 4 c -4 0 c -11 -4 c -8 -8 c -4 -11 c 0 -4 c 4 -11 c 8 -8 c 11 -4 c
4 -11 9116 1838 l 8 -4 c 7 0 c 8 4 c 3 7 c 4 16 c 4 11 c 8 7 c 7 4 c 11 0 c 8 -4 c 4 -3 c 4 -12 c 0 -15 c -4 -11 c -4 -4 c -8 -4 c
-11 0 c -7 4 c -8 8 c -4 11 c -4 15 c -3 8 c -8 3 c -7 0 c -8 -3 c -4 -12 c 0 -15 c 0 -38 9116 1940 l 34 -3 c -4 3 c -3 12 c 0 11 c
3 11 c 8 8 c 11 4 c 8 0 c 11 -4 c 8 -8 c 4 -11 c 0 -11 c -4 -12 c -4 -3 c -8 -4 c 4 -4 9188 1978 l 4 4 c -4 4 c -4 -4 c
-3 7 9131 2020 l -12 11 c 80 0 c 11 -4 9143 2133 l 8 -7 c 3 -12 c 0 -3 c -3 -12 c -8 -7 c -11 -4 c -4 0 c -11 4 c -8 7 c -4 12 c
0 3 c 4 12 c 8 7 c 15 4 c 19 0 c 18 -4 c 12 -7 c 4 -12 c 0 -7 c -4 -12 c -8 -3 c -4 0 9135 2163 l -7 4 c -4 4 c -4 7 c 0 15 c 4 8 c
4 4 c 7 4 c 8 0 c 7 -4 c 12 -8 c 38 -38 c 0 53 c 0 -250 9414 1268 l 0 -38 9371 1385 l 34 -3 c -4 3 c -4 12 c 0 11 c 4 11 c 7 8 c
12 4 c 7 0 c 12 -4 c 7 -8 c 4 -11 c 0 -11 c -4 -12 c -4 -3 c -7 -4 c -8 -4 9382 1465 l -3 -12 c 0 -7 c 3 -11 c 12 -8 c 19 -4 c
19 0 c 15 4 c 7 8 c 4 11 c 0 4 c -4 11 c -7 8 c -12 3 c -3 0 c -12 -3 c -7 -8 c -4 -11 c 0 -4 c 4 -11 c 7 -8 c 12 -4 c
3 -11 9371 1510 l 8 -4 c 7 0 c 8 4 c 4 7 c 4 15 c 3 12 c 8 7 c 8 4 c 11 0 c 7 -4 c 4 -4 c 4 -11 c 0 -15 c -4 -11 c -4 -4 c -7 -4 c
-11 0 c -8 4 c -8 7 c -3 12 c -4 15 c -4 7 c -8 4 c -7 0 c -8 -4 c -3 -11 c 0 -15 c 79 -38 9371 1620 l 0 53 9371 1567 l
4 -4 9442 1650 l 4 4 c -4 4 c -4 -4 c 0 41 9371 1688 l 30 -23 c 0 12 c 4 7 c 3 4 c 12 4 c 7 0 c 12 -4 c 7 -7 c 4 -12 c 0 -11 c
-4 -11 c -4 -4 c -7 -4 c 53 -37 9371 1793 l 0 56 c 79 0 9371 1793 l 11 -3 9397 1880 l 8 -8 c 4 -11 c 0 -4 c -4 -11 c -8 -8 c
-11 -4 c -4 0 c -11 4 c -8 8 c -3 11 c 0 4 c 3 11 c 8 8 c 15 3 c 19 0 c 19 -3 c 11 -8 c 4 -11 c 0 -8 c -4 -11 c -7 -4 c
showpage PGPLOT restore
 
%%Trailer
%%DocumentFonts: 
%%Pages: 1
%%EOF
