%!PS-Adobe-3.0 EPSF-3.0
%%For: tom
%%Title: PGPLOT PostScript plot
%%Creator: PGPLOT
%%CreationDate:  9-Nov-1994 14:04
%%BoundingBox: 25 18 587 774
%%DocumentFonts: (atend)
%%LanguageLevel: 1
%%Orientation: Landscape
%%Pages: (atend)
%%EndComments
%%BeginProlog
/l {moveto rlineto currentpoint stroke moveto} bind def
/c {rlineto currentpoint stroke moveto} bind def
/d {moveto 0 0 rlineto currentpoint stroke moveto} bind def
/SLW {5 mul setlinewidth} bind def
/SCF /pop load def
/BP {newpath moveto} bind def
/LP /rlineto load def
/EP {rlineto closepath eofill} bind def
/MB {gsave translate MFAC dup scale 1 setlinewidth 2 setlinecap 0 setlinejoin newpath} bind def
/ME /grestore load def
/C {0 360 arc stroke} bind def
/FC {0 360 arc fill} bind def
%%EndProlog
 
%%Page: 1 1
%%BeginPageSetup
/PGPLOT save def
0.072 0.072 scale
8150 250 translate 90 rotate
1 setlinejoin 1 setlinecap 1 SLW 1 SCF
%%EndPageSetup
0.00 setgray 1 SLW 8939 0 780 780 l 0 6239 c -8939 0 c 0 -6239 c 0 -45 1116 780 l 0 -45 1554 780 l 0 -45 1991 780 l 0 -45 2428 780 l
0 -90 2865 780 l 0 -45 3302 780 l 0 -45 3739 780 l 0 -45 4176 780 l 0 -45 4613 780 l 0 -90 5051 780 l 0 -45 5488 780 l
0 -45 5925 780 l 0 -45 6362 780 l 0 -45 6799 780 l 0 -90 7236 780 l 0 -45 7673 780 l 0 -45 8110 780 l 0 -45 8548 780 l
0 -45 8985 780 l 0 -90 9422 780 l 0 -45 1116 7064 l 0 -45 1554 7064 l 0 -45 1991 7064 l 0 -45 2428 7064 l 0 -90 2865 7109 l
0 -45 3302 7064 l 0 -45 3739 7064 l 0 -45 4176 7064 l 0 -45 4613 7064 l 0 -90 5051 7109 l 0 -45 5488 7064 l 0 -45 5925 7064 l
0 -45 6362 7064 l 0 -45 6799 7064 l 0 -90 7236 7109 l 0 -45 7673 7064 l 0 -45 8110 7064 l 0 -45 8548 7064 l 0 -45 8985 7064 l
0 -90 9422 7109 l -60 0 2775 672 l -6 -54 c 6 6 c 18 6 c 18 0 c 18 -6 c 12 -12 c 6 -18 c 0 -12 c -6 -18 c -12 -12 c -18 -6 c -18 0 c
-18 6 c -6 6 c -6 12 c -18 -6 2859 672 l -12 -18 c -6 -30 c 0 -18 c 6 -30 c 12 -18 c 18 -6 c 12 0 c 18 6 c 12 18 c 6 30 c 0 18 c
-6 30 c -12 18 c -18 6 c -12 0 c -18 -6 2979 672 l -12 -18 c -6 -30 c 0 -18 c 6 -30 c 12 -18 c 18 -6 c 12 0 c 18 6 c 12 18 c 6 30 c
0 18 c -6 30 c -12 18 c -18 6 c -12 0 c 12 6 4847 648 l 18 18 c 0 -126 c -18 -6 4985 672 l -12 -18 c -6 -30 c 0 -18 c 6 -30 c
12 -18 c 18 -6 c 12 0 c 18 6 c 12 18 c 6 30 c 0 18 c -6 30 c -12 18 c -18 6 c -12 0 c -18 -6 5105 672 l -12 -18 c -6 -30 c 0 -18 c
6 -30 c 12 -18 c 18 -6 c 12 0 c 18 6 c 12 18 c 6 30 c 0 18 c -6 30 c -12 18 c -18 6 c -12 0 c -18 -6 5225 672 l -12 -18 c -6 -30 c
0 -18 c 6 -30 c 12 -18 c 18 -6 c 12 0 c 18 6 c 12 18 c 6 30 c 0 18 c -6 30 c -12 18 c -18 6 c -12 0 c 12 6 7032 648 l 18 18 c
0 -126 c -60 0 7206 672 l -6 -54 c 6 6 c 18 6 c 18 0 c 18 -6 c 12 -12 c 6 -18 c 0 -12 c -6 -18 c -12 -12 c -18 -6 c -18 0 c -18 6 c
-6 6 c -6 12 c -18 -6 7290 672 l -12 -18 c -6 -30 c 0 -18 c 6 -30 c 12 -18 c 18 -6 c 12 0 c 18 6 c 12 18 c 6 30 c 0 18 c -6 30 c
-12 18 c -18 6 c -12 0 c -18 -6 7410 672 l -12 -18 c -6 -30 c 0 -18 c 6 -30 c 12 -18 c 18 -6 c 12 0 c 18 6 c 12 18 c 6 30 c 0 18 c
-6 30 c -12 18 c -18 6 c -12 0 c 0 6 9206 642 l 6 12 c 6 6 c 12 6 c 24 0 c 12 -6 c 6 -6 c 6 -12 c 0 -12 c -6 -12 c -12 -18 c
-60 -60 c 84 0 c -18 -6 9356 672 l -12 -18 c -6 -30 c 0 -18 c 6 -30 c 12 -18 c 18 -6 c 12 0 c 18 6 c 12 18 c 6 30 c 0 18 c -6 30 c
-12 18 c -18 6 c -12 0 c -18 -6 9476 672 l -12 -18 c -6 -30 c 0 -18 c 6 -30 c 12 -18 c 18 -6 c 12 0 c 18 6 c 12 18 c 6 30 c 0 18 c
-6 30 c -12 18 c -18 6 c -12 0 c -18 -6 9596 672 l -12 -18 c -6 -30 c 0 -18 c 6 -30 c 12 -18 c 18 -6 c 12 0 c 18 6 c 12 18 c 6 30 c
0 18 c -6 30 c -12 18 c -18 6 c -12 0 c -90 0 780 780 l -45 0 780 1715 l -90 0 780 2650 l -45 0 780 3585 l -90 0 780 4520 l
-45 0 780 5456 l -90 0 780 6391 l -90 0 9809 780 l -45 0 9764 1715 l -90 0 9809 2650 l -45 0 9764 3585 l -90 0 9809 4520 l
-45 0 9764 5456 l -90 0 9809 6391 l 6 -18 517 774 l 18 -12 c 30 -6 c 18 0 c 30 6 c 18 12 c 6 18 c 0 12 c -6 18 c -18 12 c -30 6 c
-18 0 c -30 -6 c -18 -12 c -6 -18 c 0 -12 c -6 0 547 2392 l -12 6 c -6 6 c -6 12 c 0 24 c 6 12 c 6 6 c 12 6 c 12 0 c 12 -6 c
18 -12 c 60 -60 c 0 84 c 84 84 547 2512 l 84 -84 547 2596 l -6 12 541 2656 l -18 18 c 126 0 c 6 -18 517 2794 l 18 -12 c 30 -6 c
18 0 c 30 6 c 18 12 c 6 18 c 0 12 c -6 18 c -18 12 c -30 6 c -18 0 c -30 -6 c -18 -12 c -6 -18 c 0 -12 c 63 -45 453 2919 l 0 67 c
94 0 453 2919 l 84 -60 517 4317 l 0 90 c 126 0 517 4317 l 84 84 547 4383 l 84 -84 547 4467 l -6 12 541 4526 l -18 18 c 126 0 c
6 -18 517 4664 l 18 -12 c 30 -6 c 18 0 c 30 6 c 18 12 c 6 18 c 0 12 c -6 18 c -18 12 c -30 6 c -18 0 c -30 -6 c -18 -12 c -6 -18 c
0 -12 c 63 -45 453 4789 l 0 67 c 94 0 453 4789 l -12 -6 535 6205 l -6 -18 c 0 -12 c 6 -18 c 18 -12 c 30 -6 c 30 0 c 24 6 c 12 12 c
6 18 c 0 6 c -6 18 c -12 12 c -18 6 c -6 0 c -18 -6 c -12 -12 c -6 -18 c 0 -6 c 6 -18 c 12 -12 c 18 -6 c 84 84 547 6253 l
84 -84 547 6337 l -6 12 541 6397 l -18 18 c 126 0 c 6 -18 517 6535 l 18 -12 c 30 -6 c 18 0 c 30 6 c 18 12 c 6 18 c 0 12 c -6 18 c
-18 12 c -30 6 c -18 0 c -30 -6 c -18 -12 c -6 -18 c 0 -12 c 63 -45 453 6659 l 0 68 c 94 0 453 6659 l
4 -7 780 812 l 5 -5 c 4 -1 c 4 -1 c 5 0 c 4 0 c 4 0 c 5 0 c 4 0 c 5 0 c 4 -1 c 4 0 c 5 0 c 4 0 c 4 0 c 5 0 c 4 1 c 5 2 c 4 3 c 4 0 c
5 -1 c 4 -2 c 4 2 c 5 2 c 4 5 c 5 5 c 4 1 c 4 -4 c 5 -5 c 4 -6 c 4 -2 c 5 -1 c 4 0 c 5 0 c 4 1 c 4 2 c 5 0 c 4 1 c 4 4 c 5 16 c
4 12 c 4 7 c 5 -7 c 4 -18 c 5 -11 c 4 -6 c 4 -2 c 5 1 c 4 0 c 4 0 c 5 0 c 4 0 c 5 0 c 4 1 c 4 -2 c 5 0 c 4 0 c 4 0 c 5 1 c 4 0 c
5 1 c 4 4 c 4 5 c 5 1 c 4 0 c 4 -4 c 5 -3 c 4 -2 c 5 -2 c 4 -1 c 4 0 c 5 2 c 4 4 c 4 -2 c 5 0 c 4 0 c 4 0 c 5 0 c 4 0 c 5 -2 c 4 0 c
4 0 c 5 2 c 4 -20 c 5 18 1151 780 l 4 0 c 5 0 c 4 0 c 4 2 c 5 0 c 4 0 c 4 -1 c 5 0 c 4 0 c 5 0 c 4 1 c 4 -1 c 5 1 c 4 0 c 4 0 c
5 1 c 4 0 c 5 0 c 4 0 c 4 2 c 5 7 c 4 32 c 4 122 c 5 166 c 4 69 c 4 -32 c 5 -156 c 4 -141 c 5 -51 c 4 -4 c 4 -4 c 5 -2 c 4 -1 c
4 -2 c 5 0 c 4 -3 c 5 3 c 4 3 c 4 1 c 5 -2 c 4 -2 c 4 5 c 5 32 c 4 65 c 5 30 c 4 -1 c 4 -38 c 5 -62 c 4 -25 c 4 -4 c 5 0 c 4 -1 c
5 0 c 4 2 c 4 5 c 5 17 c 4 58 c 4 243 c 5 524 c 4 318 c 4 33 c 5 -328 c 4 -396 c 5 261 c 4 1284 c 4 866 c 5 113 c 4 -787 c 4 -1366 c
5 -672 c 4 -150 c 5 -19 c 4 -1 c 4 -3 c 5 0 c 4 -2 c 4 -1 c 5 0 c 4 1 c 5 0 c 4 0 c 4 1 c 5 0 c 4 6 c 4 12 c 5 7 c 4 1 c 4 -10 c
5 -15 c 4 -6 c 5 -1 c 4 -1 c 4 0 c 5 1 c 4 1 c 4 -1 c 5 1 c 4 0 c 5 0 c 4 0 c 4 0 c 5 -1 c 4 -1 c 4 -1 c 5 -1 c 4 2 c 5 1 c 4 3 c
4 14 c 5 54 c 4 94 c 4 52 c 5 5 c 4 -70 c 5 -89 c 4 -48 c 4 -10 c 5 -1 c 4 -1 c 4 4 c 5 18 c 4 101 c 4 305 c 5 243 c 4 61 c 5 -132 c
4 -323 c 4 -199 c 5 -55 c 4 -8 c 4 -7 c 5 -7 c 4 -3 c 5 -1 c 4 0 c 4 1 c 5 0 c 4 2 c 4 5 c 5 28 c 4 167 c 5 630 c 4 644 c 4 190 c
5 -144 c 4 -714 c 4 -505 c 5 -192 c 4 -72 c 5 -28 c 4 -10 c 4 -1 c 5 -1 c 4 1 c 4 0 c 5 -2 c 4 2 c 4 1 c 5 1 c 4 2 c 5 12 c 4 48 c
4 128 c 5 198 c 4 392 c 4 381 c 5 37 c 4 -213 c 5 -473 c 4 -359 c 4 -133 c 5 -18 c 4 -1 c 4 2 c 5 1 c 4 -2 c 5 2 c 4 -1 c 4 0 c
5 0 c 4 3 c 4 5 c 5 13 c 4 65 c 5 447 c 4 1357 c 4 1119 c 5 360 c 4 -601 c 4 -1433 c 5 -1009 c 4 -288 c 4 -32 c 5 -4 c 4 0 c 5 -2 c
4 -2 c 4 -1 c 5 -1 c 4 0 c 4 3 c 5 2 c 4 1 c 5 2 c 4 1 c 4 4 c 5 22 c 4 137 c 4 526 c 5 684 c 4 331 c 5 -97 c 4 -653 c 4 -630 c
5 -259 c 4 -59 c 4 -8 c 5 -3 c 4 -1 c 5 -2 c 4 -3 c 4 0 c 5 0 c 4 -1 c 4 1 c 5 -1 c 4 0 c 4 1 c 5 1 c 4 11 c 5 35 c 4 25 c 4 6 c
5 -17 c 4 -28 c 4 -1 c 5 13 c 4 8 c 5 -7 c 4 -22 c 4 -17 c 5 -7 c 4 -2 c 4 0 c 5 -1 c 4 -1 c 5 1 c 4 0 c 4 3 c 5 25 c 4 109 c
4 143 c 5 79 c 4 -18 c 4 -128 c 5 -132 c 4 -73 c 5 -11 c 4 -2 c 4 0 c 5 0 c 4 0 c 4 1 c 5 -1 c 4 0 c 5 1 c 4 5 c 4 10 c 5 12 c
4 12 c 4 12 c 5 0 c 4 -5 c 5 -15 c 4 -18 c 4 -10 c 5 -4 c 4 -1 c 4 0 c 5 0 c 4 1 c 5 1 c 4 3 c 4 1 c 5 1 c 4 2 c 4 10 c 5 15 c
4 13 c 4 0 c 5 -14 c 4 -14 c 5 -12 c 4 -4 c 4 -2 c 5 -1 c 4 1 c 4 2 c 5 3 c 4 1 c 5 0 c 4 -2 c 4 -2 c 5 -3 c 4 0 c 4 -1 c 5 1 c
4 0 c 5 0 c 4 0 c 4 0 c 5 1 c 4 0 c 4 2 c 5 1 c 4 1 c 5 1 c 4 1 c 4 -1 c 5 -1 c 4 -2 c 4 -1 c 5 -1 c 4 1 c 4 0 c 5 0 c 4 0 c 5 0 c
4 -1 c 4 0 c 5 0 c 4 0 c 4 0 c 5 1 c 4 0 c 5 0 c 4 1 c 4 0 c 5 0 c 4 0 c 4 0 c 5 0 c 4 1 c 5 2 c 4 4 c 4 4 c 5 1 c 4 0 c 4 -5 c
5 -3 c 4 -1 c 5 0 c 4 0 c 4 1 c 5 1 c 4 0 c 4 0 c 5 1 c 4 2 c 4 2 c 5 3 c 4 1 c 5 4 c 4 7 c 4 11 c 5 20 c 4 90 c 4 853 c 5 3086 c
4 1931 c 5 -13 c 4 16 c 4 -51 c 5 -3101 c 4 -2345 c 4 -449 c 5 -36 c 4 -6 c 5 -6 c 4 -4 c 4 0 c 5 14 c 4 48 c 4 69 c 5 53 c 4 0 c
4 -57 c 5 -75 c 4 -48 c 5 -12 c 4 -3 c 4 -1 c 5 9 c 4 42 c 4 68 c 5 42 c 4 5 c 5 -46 c 4 -72 c 4 -41 c 5 -10 c 4 1 c 4 1 c 5 1 c
4 2 c 5 20 c 4 71 c 4 100 c 5 71 c 4 -6 c 4 -65 c 5 -78 c 4 -17 c 5 183 c 4 1009 c 4 2171 c 5 2402 c 4 125 c 4 -42 c 5 -2203 c
4 -2236 c 4 -1162 c 5 -216 c 4 -71 c 5 -29 c 4 -15 c 4 -7 c 5 -3 c 4 -3 c 4 -2 c 5 -2 c 4 0 c 5 -1 c 4 -1 c 4 0 c 5 -1 c 4 0 c
4 -1 c 5 0 c 4 1 c 5 2 c 4 7 c 4 40 c 5 78 c 4 63 c 4 26 c 5 -37 c 4 -84 c 5 -69 c 4 -24 c 4 -3 c 5 -1 c 4 -1 c 4 0 c 5 0 c 4 0 c
4 0 c 5 0 c 4 1 c 5 0 c 4 -1 c 4 1 c 5 0 c 4 1 c 4 3 c 5 -1 c 4 -2 c 5 -2 c 4 0 c 4 -1 c 5 0 c 4 0 c 4 0 c 5 0 c 4 -1 c 5 0 c 4 0 c
4 0 c 5 1 c 4 0 c 4 0 c 5 0 c 4 -2 c 5 1 c 4 0 c 4 1 c 5 2 c 4 1 c 4 0 c 5 -2 c 4 -1 c 4 -1 c 5 0 c 4 0 c 5 -1 c 4 0 c 4 1 c 5 0 c
4 0 c 4 0 c 5 2 c 4 2 c 5 2 c 4 0 c 4 -2 c 5 -2 c 4 -1 c 4 1 c 5 1 c 4 1 c 5 -1 c 4 -1 c 4 0 c 5 0 c 4 1 c 4 4 c 5 31 c 4 76 c
5 72 c 4 35 c 4 -13 c 5 -17 c 4 48 c 4 74 c 5 43 c 4 -55 c 4 -124 c 5 -106 c 4 -59 c 5 -7 c 4 6 c 4 15 c 5 17 c 4 10 c 4 -1 c
5 -14 c 4 -11 c 5 -3 c 4 3 c 4 9 c 5 118 c 4 531 c 4 905 c 5 646 c 4 107 c 5 -597 c 4 -888 c 4 -630 c 5 -184 c 4 -16 c 4 -5 c 5 -8 c
4 -7 c 4 -5 c 5 0 c 4 0 c 5 0 c 4 0 c 4 1 c 5 10 c 4 54 c 4 103 c 5 98 c 4 33 c 5 -46 c 4 -105 c 4 -91 c 5 -39 c 4 -5 c 4 0 c 5 3 c
4 9 c 5 15 c 4 11 c 4 -1 c 5 -9 c 4 -14 c 4 -1 c 5 55 c 4 130 c 5 132 c 4 84 c 4 -26 c 5 -128 c 4 -127 c 4 -90 c 5 -33 c 4 -14 c
4 -6 c 5 0 c 4 1 c 5 1 c 4 0 c 4 -1 c 5 0 c 4 -2 c 4 -1 c 5 0 c 4 0 c 5 0 c 4 1 c 4 2 c 5 3 c 4 9 c 4 40 c 5 90 c 4 79 c 5 36 c
4 -19 c 4 -92 c 5 -87 c 4 -47 c 4 -10 c 5 -2 c 4 10 c 5 53 c 4 86 c 4 71 c 5 16 c 4 -47 c 4 -81 c 5 -44 c 4 -2 c 4 9 c 5 -11 c
4 -24 c 5 -22 c 4 -11 c 4 10 c 5 100 c 4 323 c 4 430 c 5 275 c 4 -44 c 5 -348 c 4 -399 c 4 -272 c 5 -69 c 4 -5 c 4 -4 c 5 -2 c
4 -1 c 5 -1 c 4 0 c 4 -1 c 5 0 c 4 -1 c 4 1 c 5 1 c 4 1 c 5 0 c 4 0 c 4 0 c 5 0 c 4 0 c 4 0 c 5 2 c 4 14 c 4 89 c 5 186 c 4 170 c
5 89 c 4 -99 c 4 -199 c 5 -159 c 4 -82 c 4 5 c 5 19 c 4 15 c 5 3 c 4 -12 c 4 -22 c 5 -14 c 4 -5 c 4 -1 c 5 0 c 4 -1 c 5 -1 c 4 0 c
4 0 c 5 0 c 4 0 c 4 0 c 5 0 c 4 0 c 5 -1 c 4 1 c 4 1 c 5 0 c 4 0 c 4 0 c 5 0 c 4 1 c 4 1 c 5 4 c 4 10 c 5 65 c 4 157 c 4 158 c
5 84 c 4 -34 c 4 -170 c 5 -142 c 4 -90 c 5 -19 c 4 -9 c 4 -8 c 5 -4 c 4 -1 c 4 1 c 5 2 c 4 2 c 5 1 c 4 2 c 4 0 c 5 0 c 4 2 c 4 7 c
5 18 c 4 21 c 4 19 c 5 7 c 4 -9 c 5 -17 c 4 -25 c 4 -9 c 5 24 c 4 68 c 4 55 c 5 32 c 4 -25 c 5 -69 c 4 -65 c 4 -36 c 5 -7 c 4 0 c
4 0 c 5 0 c 4 0 c 5 -1 c 4 1 c 4 2 c 5 2 c 4 5 c 4 14 c 5 31 c 4 40 c 5 21 c 4 -7 c 4 -32 c 5 -40 c 4 -26 c 4 -9 c 5 -1 c 4 -1 c
4 -1 c 5 0 c 4 -1 c 5 2 c 4 3 c 4 2 c 5 0 c 4 -2 c 4 -2 c 5 -2 c 4 5 c 5 17 c 4 22 c 4 14 c 5 -2 c 4 -17 c 4 -22 c 5 -14 c 4 -1 c
5 1 c 4 3 c 4 0 c 5 -2 c 4 -2 c 4 -3 c 5 -1 c 4 -1 c 5 0 c 4 1 c 4 1 c 5 1 c 4 1 c 4 -1 c 5 0 c 4 -1 c 4 0 c 5 0 c 4 1 c 5 4 c 4 5 c
4 4 c 5 1 c 4 -2 c 4 -5 c 5 0 c 4 29 c 5 63 c 4 53 c 4 30 c 5 -26 c 4 -64 c 4 -50 c 5 -12 c 4 8 c 5 3 c 4 -8 c 4 -13 c 5 -10 c
4 -3 c 4 -2 c 5 -3 c 4 -3 c 5 -1 c 4 0 c 4 2 c 5 7 c 4 20 c 4 26 c 5 19 c 4 3 c 4 1 c 5 14 c 4 19 c 5 13 c 4 -16 c 4 -42 c 5 -37 c
4 -22 c 4 -4 c 5 -1 c 4 -1 c 5 0 c 4 0 c 4 2 c 5 1 c 4 0 c 4 1 c 5 6 c 4 22 c 5 27 c 4 21 c 4 -5 c 5 -21 c 4 -29 c 4 -18 c 5 -5 c
4 -1 c 5 -1 c 4 -1 c 4 0 c 5 0 c 4 0 c 4 2 c 5 3 c 4 2 c 4 2 c 5 2 c 4 0 c 5 -1 c 4 -1 c 4 5 c 5 15 c 4 19 c 4 9 c 5 -7 c 4 -21 c
5 -14 c 4 -11 c 4 -3 c 5 0 c 4 0 c 4 0 c 5 0 c 4 0 c 5 1 c 4 1 c 4 -1 c 5 -1 c 4 -1 c 4 0 c 5 2 c 4 1 c 4 0 c 5 0 c 4 0 c 5 0 c
4 0 c 4 2 c 5 4 c 4 4 c 4 3 c 5 -2 c 4 -4 c 5 -6 c 4 -2 c 4 0 c 5 0 c 4 -1 c 4 0 c 5 -1 c 4 -1 c 5 0 c 4 1 c 4 1 c 5 1 c 4 1 c 4 0 c
5 1 c 4 -1 c 5 -2 c 4 0 c 4 -1 c 5 2 c 4 2 c 4 1 c 5 0 c 4 0 c 4 -1 c 5 0 c 4 -1 c 5 -2 c 4 1 c 4 -1 c 5 1 c 4 0 c 4 -1 c 5 1 c
4 0 c 5 1 c 4 1 c 4 0 c 5 0 c 4 11 c 4 41 c 5 45 c 4 35 c 5 -3 c 4 -40 c 4 -50 c 5 -30 c 4 -8 c 4 -1 c 5 -1 c 4 -1 c 5 1 c 4 0 c
4 6 c 5 11 c 4 45 c 4 210 c 5 446 c 4 417 c 4 195 c 5 -197 c 4 -463 c 5 -412 c 4 -205 c 4 -41 c 5 -8 c 4 -3 c 4 -1 c 5 1 c 4 -1 c
5 0 c 4 0 c 4 -1 c 5 0 c 4 0 c 4 -1 c 5 0 c 4 -1 c 5 0 c 4 0 c 4 1 c 5 1 c 4 1 c 4 0 c 5 0 c 4 -2 c 5 -2 c 4 1 c 4 0 c 5 -1 c 4 0 c
4 0 c 5 1 c 4 1 c 4 2 c 5 5 c 4 14 c 5 13 c 4 7 c 4 -7 c 5 -14 c 4 -12 c 4 -4 c 5 0 c 4 1 c 5 3 c 4 6 c 4 5 c 5 5 c 4 2 c 4 -2 c
5 -5 c 4 -5 c 5 -5 c 4 -7 c 4 -3 c 5 0 c 4 0 c 4 1 c 5 0 c 4 0 c 4 -1 c 5 -1 c 4 0 c 5 0 c 4 0 c 4 0 c 5 2 c 4 2 c 4 5 c 5 3 c 4 3 c
5 -2 c 4 -4 c 4 -2 c 5 5 c 4 21 c 4 34 c 5 21 c 4 1 c 5 -19 c 4 -83 c 4 25 c 5 -8 c 4 -2 c 4 1 c 5 -1 c 4 0 c 5 0 c 4 4 c 4 4 c
5 2 c 4 -1 c 4 -4 c 5 -4 c 4 -1 c 4 0 c 5 0 c 4 0 c 5 -1 c 4 0 c 4 0 c 5 0 c 4 0 c 4 0 c 5 0 c 4 0 c 5 0 c 4 0 c 4 1 c 5 0 c 4 1 c
4 0 c 5 0 c 4 0 c 5 -1 c 4 -1 c 4 0 c 5 0 c 4 1 c 4 0 c 5 1 c 4 1 c 5 1 c 4 0 c 4 0 c 5 0 c 4 1 c 4 4 c 5 4 c 4 2 c 4 -1 c 5 -4 c
4 -3 c 5 -2 c 4 1 c 4 0 c 5 1 c 4 13 c 4 37 c 5 39 c 4 15 c 5 -9 c 4 -35 c 4 -40 c 5 -18 c 4 -2 c 4 2 c 5 2 c 4 12 c 5 84 c 4 265 c
4 412 c 5 285 c 4 254 c 4 405 c 5 397 c 4 119 c 5 -158 c 4 -736 c 4 -822 c 5 -391 c 4 -99 c 4 -14 c 5 -7 c 4 -1 c 4 -3 c 5 -2 c
4 -3 c 5 -1 c 4 -1 c 4 -1 c 5 -2 c 4 0 c 4 2 c 5 1 c 4 2 c 5 0 c 4 3 c 4 2 c 5 4 c 4 2 c 4 1 c 5 -2 c 4 -5 c 5 -1 c 4 0 c 4 0 c
5 0 c 4 -2 c 4 -1 c 5 -2 c 4 -1 c 5 0 c 4 -1 c 4 0 c 5 -1 c 4 0 c 4 0 c 5 0 c 4 -1 c 4 1 c 5 1 c 4 1 c 5 1 c 4 1 c 4 -1 c 5 1 c
4 -1 c 4 0 c 5 -2 c 4 -1 c 5 -2 c 4 2 c 4 3 c 5 4 c 4 3 c 4 1 c 5 -1 c 4 -2 c 5 0 c 4 0 c 4 -2 c 5 0 c 4 1 c 4 0 c 5 -1 c 4 -2 c
4 -2 c 5 -2 c 4 0 c 5 0 c 4 0 c 4 0 c 5 0 c 4 0 c 4 0 c 5 1 c 4 0 c 5 -1 c 4 0 c 4 -1 c 5 0 c 4 -1 c 4 0 c 5 0 c 4 0 c 5 0 c 4 0 c
4 0 c 5 1 c 4 0 c 4 0 c 5 -1 c 4 0 c 5 -1 c 4 1 c 4 0 c 5 -1 c 4 0 c 4 1 c 5 -1 c 4 0 c 4 0 c 5 1 c 4 1 c 5 1 c 4 3 c 4 2 c 5 5 c
4 6 c 4 5 c 5 -1 c 4 -4 c 5 -6 c 4 -7 c 4 -1 c 5 16 c 4 59 c 4 89 c 5 54 c 4 -7 c 5 -52 c 4 -94 c 4 -58 c 5 -9 c 4 -1 c 4 -1 c 5 0 c
4 0 c 5 2 c 4 0 c 4 2 c 5 1 c 4 0 c 4 1 c 5 0 c 4 3 c 4 6 c 5 8 c 4 2 c 5 -1 c 4 -4 c 4 -4 c 5 0 c 4 4 c 4 12 c 5 62 c 4 499 c
5 1647 c 4 2677 c 4 1124 c 5 -48 c 4 -1320 c 4 -2714 c 5 -1624 c 4 -269 c 5 -32 c 4 -4 c 4 -5 c 5 -5 c 4 -5 c 4 -1 c 5 -2 c 4 -2 c
5 -2 c 4 -2 c 4 0 c 5 0 c 4 1 c 4 2 c 5 0 c 4 0 c 4 -1 c 5 -1 c 4 -1 c 5 0 c 4 0 c 4 0 c 5 0 c 4 -2 c 4 -2 c 5 1 c 4 1 c 5 1 c 4 0 c
4 0 c 5 -1 c 4 -1 c 4 0 c 5 -2 c 4 1 c 5 1 c 4 0 c 4 2 c 5 0 c 4 4 c 4 33 c 5 129 c 4 262 c 5 199 c 4 23 c 4 -124 c 5 -263 c
4 -200 c 4 -55 c 5 -4 c 4 8 c 4 43 c 5 110 c 4 168 c 5 68 c 4 -21 c 4 -102 c 5 -171 c 4 -90 c 4 -13 c 5 -2 c 4 -1 c 5 0 c 4 -1 c
4 1 c 5 2 c 4 4 c 4 14 c 5 79 c 4 249 c 5 475 c 4 315 c 4 13 c 5 -223 c 4 -473 c 4 -276 c 5 7 c 4 249 c 4 501 c 5 322 c 4 -29 c
5 -252 c 4 -506 c 4 -371 c 5 -91 c 4 -4 c 4 -3 c 5 -2 c 4 -1 c 5 0 c 4 3 c 4 3 c 5 1 c 4 0 c 4 -3 c 5 -4 c 4 -2 c 5 -1 c 4 0 c 4 2 c
5 1 c 4 -1 c 4 0 c 5 -1 c 4 0 c 5 1 c 4 0 c 4 -1 c 5 0 c 4 0 c 4 0 c 5 5 c 4 34 c 4 137 c 5 289 c 4 199 c 5 10 c 4 -129 c 4 -286 c
5 -207 c 4 -49 c 4 -4 c 5 1 c 4 0 c 5 0 c 4 -1 c 4 -1 c 5 -1 c 4 0 c 4 0 c 5 0 c 4 1 c 5 0 c 4 0 c 4 -1 c 5 -1 c 4 0 c 4 1 c 5 0 c
4 0 c 5 0 c 4 0 c 4 0 c 5 0 c 4 -1 c 4 0 c 5 0 c 4 -1 c 4 1 c 5 0 c 4 0 c 5 1 c 4 0 c 4 0 c 5 0 c 4 -1 c 4 0 c 5 0 c 4 0 c 5 0 c
4 0 c 4 3 c 5 2 c 4 1 c 4 -1 c 5 -2 c 4 -3 c 5 -1 c 4 0 c 4 0 c 5 0 c 4 0 c 4 1 c 5 1 c 4 1 c 5 1 c 4 0 c 4 0 c 5 -1 c 4 0 c 4 2 c
5 2 c 4 2 c 4 -1 c 5 -4 c 4 -2 c 5 -1 c 4 0 c 4 -1 c 5 0 c 4 0 c 4 0 c 5 1 c 4 1 c 5 1 c 4 -1 c 4 -1 c 5 -1 c 4 0 c 4 0 c 5 1 c
4 0 c 5 0 c 4 0 c 4 1 c 5 0 c 4 0 c 4 1 c 5 1 c 4 1 c 5 0 c 4 0 c 4 -1 c 5 1 c 4 12 c 4 69 c 5 167 c 4 204 c 4 48 c 5 -60 c 4 -156 c
5 -218 c 4 -65 c 4 -3 c 5 0 c 4 2 c 4 4 c 5 5 c 4 1 c 5 -4 c 4 -4 c 4 -4 c 5 -1 c 4 4 c 4 28 c 5 135 c 4 295 c 5 227 c 4 27 c
4 -117 c 5 -281 c 4 -253 c 4 -57 c 5 -4 c 4 0 c 4 -1 c 5 -1 c 4 0 c 5 -1 c 4 0 c 4 0 c 5 1 c 4 3 c 4 4 c 5 8 c 4 16 c 5 21 c 4 -2 c
4 -7 c 5 -17 c 4 -23 c 4 -2 c 5 5 c 4 6 c 5 1 c 4 -3 c 4 -5 c 5 -7 c 4 0 c 4 0 c 5 0 c 4 0 c 5 2 c 4 9 c 4 15 c 5 8 c 4 0 c 4 -7 c
5 -12 c 4 -7 c 4 1 c 5 0 c 4 -1 c 5 0 c 4 1 c 4 1 c 5 4 c 4 4 c 4 7 c 5 31 c 4 255 c 5 1320 c 4 2765 c 4 1610 c 5 -2 c 4 -785 c
4 -2695 c 5 -2158 c 4 -306 c 5 -34 c 4 -7 c 4 -3 c 5 -2 c 4 -1 c 4 -2 c 5 2 c 4 20 c 5 68 c 4 100 c 4 42 c 5 -10 c 4 -54 c 4 -109 c
5 -55 c 4 -6 c 4 -4 c 5 -1 c 4 -1 c 5 1 c 4 3 c 4 4 c 5 2 c 4 -3 c 4 -3 c 5 -2 c 4 -1 c 5 1 c 4 -1 c 4 -1 c 5 -2 c 4 -1 c 4 0 c
5 0 c 4 0 c 5 -1 c 4 1 c 4 0 c 5 1 c 4 2 c 4 5 c 5 6 c 4 3 c 5 1 c 4 -3 c 4 -6 c 5 -1 c 4 1 c 4 6 c 5 13 c 4 10 c 4 -1 c 5 -8 c
4 -13 c 5 -12 c 4 -4 c 4 -1 c 5 0 c 4 1 c 4 0 c 5 1 c 4 -1 c 5 1 c 4 -1 c 4 0 c 5 0 c 4 0 c 4 1 c 5 4 c 4 9 c 5 12 c 4 7 c 4 -1 c
5 -6 c 4 -15 c 4 -6 c 5 3 c 4 7 c 4 1 c 5 0 c 4 -5 c 5 -7 c 4 -3 c 4 -1 c 5 1 c 4 0 c 4 1 c 5 -1 c 4 0 c 5 0 c 4 1 c 4 1 c 5 2 c
4 0 c 4 0 c 5 -2 c 4 0 c 5 0 c 4 0 c 4 1 c 5 1 c 4 1 c 4 2 c 5 5 c 4 15 c 5 8 c 4 3 c 4 -5 c 5 -12 c 4 -12 c 4 0 c 5 2 c 4 2 c 4 3 c
5 3 c 4 7 c 5 19 c 4 33 c 4 17 c 5 13 c 4 28 c 4 242 c 5 1942 c 4 3697 c 5 -5 c 4 -5 c 4 -1 c 5 12 c 4 -4572 c 4 -1276 c 5 8 c
4 329 c 5 711 c 4 451 c 4 12 c 5 -296 c 4 -723 c 4 -511 c 5 -93 c 4 -22 c 5 -10 c 4 -4 c 4 1 c 5 15 c 4 32 c 4 13 c 5 2 c 4 -14 c
4 -31 c 5 -18 c 4 -10 c 5 -3 c 4 0 c 4 -1 c 5 -1 c 4 -1 c 4 0 c 5 -1 c 4 0 c 5 -1 c 4 0 c 4 0 c 5 -1 c 4 0 c 4 2 c 5 1 c 4 1 c 5 2 c
4 -1 c 4 1 c 5 0 c 4 -1 c 4 0 c 5 2 c 4 1 c 5 1 c 4 3 c 4 11 c 5 24 c 4 23 c 4 31 c 5 84 c 4 474 c 4 1612 c 5 2533 c 4 1011 c
5 -212 c 4 -1287 c 4 -2637 c 5 -1309 c 4 -213 c 4 -76 c 5 -36 c 4 -18 c 5 -8 c 4 -5 c 4 -3 c 5 -1 c 4 1 c 4 2 c 5 5 c 4 21 c 5 115 c
4 495 c 4 974 c 5 470 c 4 -15 c 4 -363 c 5 -976 c 4 -602 c 5 -98 c 4 -19 c 4 -6 c 5 -5 c 4 -3 c 4 -1 c 5 -2 c 4 0 c 4 0 c 5 -2 c
4 -1 c 5 -1 c 4 -1 c 4 0 c 5 0 c 4 0 c 4 0 c 5 -1 c 4 -1 c 5 0 c 4 0 c 4 0 c 5 0 c 4 0 c 4 1 c 5 3 c 4 5 c 5 5 c 4 1 c 4 3 c 5 -6 c
4 -4 c 4 -4 c 5 -2 c 4 -2 c 4 -1 c 5 0 c 4 0 c 5 1 c 4 -1 c 4 -1 c 5 0 c 4 0 c 4 0 c 5 0 c 4 -1 c 5 1 c 4 0 c 4 0 c 5 0 c 4 1 c
4 0 c 5 0 c 4 0 c 5 -1 c 4 -1 c 4 0 c 5 0 c 4 0 c 4 0 c 5 1 c 4 0 c 5 0 c 4 2 c 4 7 c 5 11 c 4 3 c 4 -1 c 5 -7 c 4 -11 c 4 -4 c
5 -1 c 4 1 c 5 -1 c 4 0 c 4 0 c 5 0 c 4 0 c 4 2 c 5 1 c 4 1 c 5 0 c 4 -2 c 4 -2 c 5 0 c 4 0 c 4 0 c 5 0 c 4 0 c 5 -1 c 4 0 c 4 0 c
5 0 c 4 1 c 4 0 c 5 0 c 4 0 c 5 0 c 4 0 c 4 0 c 5 0 c 4 0 c 4 0 c 5 0 c 4 0 c 4 -1 c 5 1 c 4 0 c 5 0 c 4 0 c 4 0 c 5 0 c 4 0 c 4 1 c
5 0 c 4 0 c 5 0 c 4 0 c 4 0 c 5 0 c 4 0 c 4 2 c 5 2 c 4 5 c 5 22 c 4 154 c 4 564 c 5 543 c 4 36 c 4 -122 c
5 -444 c 4 -635 c 5 -107 c 4 -11 c 4 -23 c 4 16 9549 780 l 4 1 c 5 4 c 4 7 c 4 3 c 5 -2 c 4 -3 c 5 -6 c 4 1 c 4 4 c 5 1 c 4 0 c
4 0 c 5 0 c 4 15 c 5 37 c 4 25 c 4 -3 c 5 -8 c 4 -33 c 4 -31 c 5 -5 c 4 -1 c 5 2 c 4 25 c 4 112 c 5 209 c 4 83 c 4 -15 c 5 -88 c
4 -202 c 5 -105 c 4 -6 c 4 0 c 5 -3 c 4 -7 c 4 -5 c 5 0 c 4 0 c
0 -126 3030 418 l 54 0 3030 418 l 18 -6 c 6 -6 c 6 -12 c 0 -12 c -6 -12 c -6 -6 c -18 -6 c -54 0 c 42 -66 3072 358 l
-12 -6 3180 376 l -12 -12 c -6 -18 c 0 -12 c 6 -18 c 12 -12 c 12 -6 c 18 0 c 12 6 c 12 12 c 6 18 c 0 12 c -6 18 c -12 12 c -12 6 c
-18 0 c 24 -84 3264 376 l -24 -84 3312 376 l 24 -84 3312 376 l -24 -84 3360 376 l 108 0 3402 364 l 108 0 3402 328 l 66 0 3660 418 l
-36 -48 c 18 0 c 12 -6 c 6 -6 c 6 -18 c 0 -12 c -6 -18 c -12 -12 c -18 -6 c -18 0 c -18 6 c -6 6 c -6 12 c -60 -126 3852 418 l
84 0 3768 418 l 12 6 4290 394 l 18 18 c 0 -126 c -6 -6 4404 376 l 6 -6 c 6 6 c -6 6 c -6 -6 4404 304 l 6 -6 c 6 6 c -6 6 c
-48 -126 4584 418 l 48 -126 4584 418 l 60 0 4554 334 l 0 -84 4662 376 l 6 18 4662 340 l 12 12 c 12 6 c 18 0 c -12 12 4806 358 l
-12 6 c -18 0 c -12 -6 c -12 -12 c -6 -18 c 0 -12 c 6 -18 c 12 -12 c 12 -6 c 18 0 c 12 6 c 12 12 c 108 0 4848 346 l
-18 -6 5034 418 l -12 -18 c -6 -30 c 0 -18 c 6 -30 c 12 -18 c 18 -6 c 12 0 c 18 6 c 12 18 c 6 30 c 0 18 c -6 30 c -12 18 c -18 6 c
-12 0 c 66 0 5130 418 l -36 -48 c 18 0 c 12 -6 c 6 -6 c 6 -18 c 0 -12 c -6 -18 c -12 -12 c -18 -6 c -18 0 c -18 6 c -6 6 c -6 12 c
-59 0 5309 418 l -6 -54 c 6 6 c 17 6 c 18 0 c 18 -6 c 12 -12 c 6 -18 c 0 -12 c -6 -18 c -12 -12 c -18 -6 c -18 0 c -17 6 c -6 6 c
-6 12 c -6 -6 5369 304 l 6 -6 c 6 6 c -6 6 c -12 0 5459 418 l -12 -6 c -6 -18 c 0 -102 c 42 0 5411 376 l 6 -6 5489 418 l 6 6 c
-6 6 c -6 -6 c 0 -84 5495 376 l 0 -102 5549 418 l 6 -18 c 12 -6 c 12 0 c 42 0 5531 376 l -6 12 5675 358 l -18 6 c -18 0 c -18 -6 c
-6 -12 c 6 -12 c 12 -6 c 30 -6 c 12 -6 c 6 -12 c 0 -6 c -6 -12 c -18 -6 c -18 0 c -18 6 c -6 12 c 0 -192 6005 442 l
0 -192 6011 442 l 42 0 6005 442 l 42 0 6005 250 l 0 6 6089 388 l 6 12 c 6 6 c 12 6 c 24 0 c 12 -6 c 6 -6 c 6 -12 c 0 -12 c -6 -12 c
-12 -18 c -60 -60 c 84 0 c -6 -6 6215 376 l 6 -6 c 6 6 c -6 6 c -6 -6 6215 304 l 6 -6 c 6 6 c -6 6 c -48 -126 6395 418 l
48 -126 6395 418 l 60 0 6365 334 l 0 -84 6473 376 l 6 18 6473 340 l 12 12 c 12 6 c 18 0 c -12 12 6617 358 l -12 6 c -18 0 c -12 -6 c
-12 -12 c -6 -18 c 0 -12 c 6 -18 c 12 -12 c 12 -6 c 18 0 c 12 6 c 12 12 c 108 0 6659 346 l -18 -6 6845 418 l -12 -18 c -6 -30 c
0 -18 c 6 -30 c 12 -18 c 18 -6 c 12 0 c 18 6 c 12 18 c 6 30 c 0 18 c -6 30 c -12 18 c -18 6 c -12 0 c 66 0 6941 418 l -36 -48 c
18 0 c 12 -6 c 6 -6 c 6 -18 c 0 -12 c -6 -18 c -12 -12 c -18 -6 c -18 0 c -18 6 c -6 6 c -6 12 c -6 12 7127 400 l -18 6 c -12 0 c
-18 -6 c -12 -18 c -6 -30 c 0 -30 c 6 -24 c 12 -12 c 18 -6 c 6 0 c 18 6 c 12 12 c 6 18 c 0 6 c -6 18 c -12 12 c -18 6 c -6 0 c
-18 -6 c -12 -12 c -6 -18 c -6 -6 7181 304 l 6 -6 c 6 6 c -6 6 c -12 0 7271 418 l -12 -6 c -6 -18 c 0 -102 c 42 0 7223 376 l
6 -6 7301 418 l 6 6 c -6 6 c -6 -6 c 0 -84 7307 376 l 0 -102 7361 418 l 6 -18 c 12 -6 c 12 0 c 42 0 7343 376 l -6 12 7487 358 l
-18 6 c -18 0 c -18 -6 c -6 -12 c 6 -12 c 12 -6 c 30 -6 c 12 -6 c 6 -12 c 0 -6 c -6 -12 c -18 -6 c -18 0 c -18 6 c -6 12 c
0 -192 7559 442 l 0 -192 7565 442 l 42 0 7523 442 l 42 0 7523 250 l
0 -249 1354 1374 l -7 -4 1322 1495 l -4 -11 c 0 -7 c 4 -12 c 11 -7 c 19 -4 c 19 0 c 15 4 c 7 7 c 4 12 c 0 3 c -4 12 c -7 7 c -12 4 c
-3 0 c -12 -4 c -7 -7 c -4 -12 c 0 -3 c 4 -12 c 7 -7 c 12 -4 c 4 -11 1311 1544 l 11 -8 c 19 -3 c 11 0 c 19 3 c 11 8 c 4 11 c 0 8 c
-4 11 c -11 8 c -19 4 c -11 0 c -19 -4 c -11 -8 c -4 -11 c 0 -8 c 12 -3 1337 1646 l 7 -8 c 4 -11 c 0 -4 c -4 -11 c -7 -8 c -12 -4 c
-4 0 c -11 4 c -7 8 c -4 11 c 0 4 c 4 11 c 7 8 c 15 3 c 19 0 c 19 -3 c 11 -8 c 4 -11 c 0 -8 c -4 -11 c -7 -4 c 4 -12 1311 1692 l
7 -3 c 8 0 c 7 3 c 4 8 c 4 15 c 4 11 c 7 8 c 8 4 c 11 0 c 8 -4 c 3 -4 c 4 -11 c 0 -15 c -4 -12 c -3 -3 c -8 -4 c -11 0 c -8 4 c
-7 7 c -4 12 c -4 15 c -4 7 c -7 4 c -8 0 c -7 -4 c -4 -11 c 0 -15 c 3 -4 1383 1756 l 4 4 c -4 4 c -3 -4 c -4 7 1326 1798 l -11 11 c
79 0 c -4 0 1330 1866 l -8 3 c -3 4 c -4 8 c 0 15 c 4 7 c 3 4 c 8 4 c 7 0 c 8 -4 c 11 -7 c 38 -38 c 0 53 c 4 -11 1311 1960 l 11 -8 c
19 -4 c 11 0 c 19 4 c 11 8 c 4 11 c 0 8 c -4 11 c -11 8 c -19 3 c -11 0 c -19 -3 c -11 -8 c -4 -11 c 0 -8 c 0 -250 1447 4244 l
-8 -4 1415 4365 l -4 -11 c 0 -8 c 4 -11 c 11 -8 c 19 -4 c 19 0 c 15 4 c 8 8 c 4 11 c 0 4 c -4 11 c -8 8 c -11 3 c -4 0 c -11 -3 c
-8 -8 c -4 -11 c 0 -4 c 4 -11 c 8 -8 c 11 -4 c 4 -12 1403 4414 l 11 -7 c 19 -4 c 12 0 c 18 4 c 12 7 c 4 12 c 0 7 c -4 12 c -12 7 c
-18 4 c -12 0 c -19 -4 c -11 -7 c -4 -12 c 0 -7 c 11 -4 1430 4516 l 8 -7 c 3 -12 c 0 -4 c -3 -11 c -8 -8 c -11 -3 c -4 0 c -11 3 c
-8 8 c -4 11 c 0 4 c 4 12 c 8 7 c 15 4 c 19 0 c 18 -4 c 12 -7 c 4 -12 c 0 -7 c -4 -12 c -8 -4 c 11 -3 1430 4591 l 8 -8 c 3 -11 c
0 -4 c -3 -11 c -8 -8 c -11 -4 c -4 0 c -11 4 c -8 8 c -4 11 c 0 4 c 4 11 c 8 8 c 15 3 c 19 0 c 18 -3 c 12 -8 c 4 -11 c 0 -8 c
-4 -11 c -8 -4 c 4 -3 1475 4625 l 4 3 c -4 4 c -4 -4 c 4 -11 1403 4678 l 11 -8 c 19 -3 c 12 0 c 18 3 c 12 8 c 4 11 c 0 8 c -4 11 c
-12 8 c -18 4 c -12 0 c -19 -4 c -11 -8 c -4 -11 c 0 -8 c 4 -11 1403 4750 l 8 -4 c 7 0 c 8 4 c 3 7 c 4 16 c 4 11 c 8 7 c 7 4 c
11 0 c 8 -4 c 4 -3 c 4 -12 c 0 -15 c -4 -11 c -4 -4 c -8 -4 c -11 0 c -7 4 c -8 8 c -4 11 c -4 15 c -3 8 c -8 3 c -7 0 c -8 -3 c
-4 -12 c 0 -15 c 0 42 1403 4814 l 30 -23 c 0 12 c 4 7 c 4 4 c 11 4 c 8 0 c 11 -4 c 8 -8 c 4 -11 c 0 -11 c -4 -12 c -4 -3 c -8 -4 c
0 -249 1701 1973 l -7 -3 1669 2094 l -4 -12 c 0 -7 c 4 -12 c 11 -7 c 19 -4 c 19 0 c 15 4 c 7 7 c 4 12 c 0 3 c -4 12 c -7 7 c -12 4 c
-3 0 c -12 -4 c -7 -7 c -4 -12 c 0 -3 c 4 -12 c 7 -7 c 12 -4 c -4 8 1673 2132 l -11 11 c 79 0 c 4 -11 1658 2219 l 11 -8 c 19 -4 c
11 0 c 19 4 c 11 8 c 4 11 c 0 8 c -4 11 c -11 8 c -19 3 c -11 0 c -19 -3 c -11 -8 c -4 -11 c 0 -8 c -4 8 1673 2283 l -11 11 c 79 0 c
3 -4 1730 2355 l 4 4 c -4 4 c -3 -4 c 79 -37 1658 2438 l 0 53 1658 2385 l -4 0 1677 2465 l -8 4 c -3 3 c -4 8 c 0 15 c 4 8 c 3 3 c
8 4 c 7 0 c 8 -4 c 11 -7 c 38 -38 c 0 53 c 0 -38 1658 2582 l 34 -4 c -4 4 c -4 11 c 0 12 c 4 11 c 8 8 c 11 4 c 7 0 c 12 -4 c 7 -8 c
4 -11 c 0 -12 c -4 -11 c -3 -4 c -8 -3 c 0 -250 2079 2954 l -8 -4 2047 3075 l -4 -12 c 0 -7 c 4 -12 c 12 -7 c 18 -4 c 19 0 c 15 4 c
8 7 c 4 12 c 0 4 c -4 11 c -8 8 c -11 3 c -4 0 c -11 -3 c -8 -8 c -3 -11 c 0 -4 c 3 -12 c 8 -7 c 11 -4 c -4 8 2051 3112 l -12 11 c
80 0 c 4 -11 2035 3199 l 12 -8 c 18 -3 c 12 0 c 19 3 c 11 8 c 4 11 c 0 8 c -4 11 c -11 8 c -19 3 c -12 0 c -18 -3 c -12 -8 c
-4 -11 c 0 -8 c 0 -38 2035 3298 l 34 -4 c -3 4 c -4 11 c 0 11 c 4 12 c 7 7 c 12 4 c 7 0 c 11 -4 c 8 -7 c 4 -12 c 0 -11 c -4 -11 c
-4 -4 c -7 -4 c 4 -3 2107 3335 l 4 3 c -4 4 c -4 -4 c -8 -4 2047 3415 l -4 -11 c 0 -8 c 4 -11 c 12 -8 c 18 -4 c 19 0 c 15 4 c 8 8 c
4 11 c 0 4 c -4 11 c -8 8 c -11 3 c -4 0 c -11 -3 c -8 -8 c -3 -11 c 0 -4 c 3 -11 c 8 -8 c 11 -4 c 0 41 2035 3449 l 31 -22 c 0 11 c
3 7 c 4 4 c 12 4 c 7 0 c 11 -4 c 8 -7 c 4 -12 c 0 -11 c -4 -11 c -4 -4 c -7 -4 c 0 -38 2035 3562 l 34 -4 c -3 4 c -4 12 c 0 11 c
4 11 c 7 8 c 12 4 c 7 0 c 11 -4 c 8 -8 c 4 -11 c 0 -11 c -4 -12 c -4 -4 c -7 -3 c 0 -250 2263 1595 l -8 -4 2231 1716 l -4 -11 c
0 -8 c 4 -11 c 11 -8 c 19 -4 c 19 0 c 15 4 c 8 8 c 4 11 c 0 4 c -4 11 c -8 8 c -11 3 c -4 0 c -11 -3 c -8 -8 c -3 -11 c 0 -4 c
3 -11 c 8 -8 c 11 -4 c -3 8 2234 1753 l -12 11 c 80 0 c 4 -11 2219 1840 l 11 -8 c 19 -3 c 12 0 c 19 3 c 11 8 c 4 11 c 0 8 c -4 11 c
-11 8 c -19 4 c -12 0 c -19 -4 c -11 -8 c -4 -11 c 0 -8 c 80 -38 2219 1946 l 0 53 2219 1893 l 4 -3 2291 1976 l 4 3 c -4 4 c -4 -4 c
0 -38 2219 2052 l 34 -4 c -3 4 c -4 12 c 0 11 c 4 11 c 7 8 c 11 4 c 8 0 c 11 -4 c 8 -8 c 4 -11 c 0 -11 c -4 -12 c -4 -4 c -7 -3 c
0 41 2219 2090 l 31 -22 c 0 11 c 3 8 c 4 3 c 11 4 c 8 0 c 11 -4 c 8 -7 c 4 -11 c 0 -12 c -4 -11 c -4 -4 c -7 -4 c 53 -38 2219 2196 l
0 57 c 80 0 2219 2196 l 0 -249 2779 7019 l -8 -4 2747 7140 l -3 -11 c 0 -8 c 3 -11 c 12 -8 c 19 -3 c 18 0 c 16 3 c 7 8 c 4 11 c
0 4 c -4 11 c -7 8 c -12 4 c -4 0 c -11 -4 c -7 -8 c -4 -11 c 0 -4 c 4 -11 c 7 -8 c 11 -3 c -4 7 2751 7178 l -11 12 c 79 0 c
-4 8 2751 7253 l -11 11 c 79 0 c -3 0 2754 7321 l -8 4 c -4 4 c -3 8 c 0 15 c 3 7 c 4 4 c 8 4 c 7 0 c 8 -4 c 11 -8 c 38 -37 c 0 53 c
4 -4 2807 7401 l 4 4 c -4 4 c -4 -4 c 3 -11 2736 7450 l 8 -4 c 7 0 c 8 4 c 4 7 c 4 15 c 3 12 c 8 7 c 7 4 c 12 0 c 7 -4 c 4 -4 c
4 -11 c 0 -15 c -4 -11 c -4 -4 c -7 -4 c -12 0 c -7 4 c -8 7 c -3 12 c -4 15 c -4 7 c -8 4 c -7 0 c -8 -4 c -3 -11 c 0 -15 c
0 42 2736 7514 l 30 -23 c 0 11 c 4 8 c 3 4 c 12 4 c 7 0 c 12 -4 c 7 -8 c 4 -11 c 0 -11 c -4 -12 c -4 -4 c -7 -3 c 79 -38 2736 7635 l
0 53 2736 7582 l 0 -249 2983 7019 l -8 -4 2951 7140 l -3 -11 c 0 -8 c 3 -11 c 12 -8 c 19 -3 c 19 0 c 15 3 c 7 8 c 4 11 c 0 4 c
-4 11 c -7 8 c -12 4 c -3 0 c -12 -4 c -7 -8 c -4 -11 c 0 -4 c 4 -11 c 7 -8 c 12 -3 c -4 7 2955 7178 l -11 12 c 79 0 c
-4 8 2955 7253 l -11 11 c 79 0 c 53 -37 2940 7355 l 0 56 c 79 0 2940 7355 l 4 -4 3011 7401 l 4 4 c -4 4 c -4 -4 c 11 -4 2966 7480 l
8 -7 c 4 -11 c 0 -4 c -4 -12 c -8 -7 c -11 -4 c -4 0 c -11 4 c -8 7 c -3 12 c 0 4 c 3 11 c 8 7 c 15 4 c 19 0 c 19 -4 c 11 -7 c
4 -11 c 0 -8 c -4 -11 c -7 -4 c -4 0 2959 7510 l -8 4 c -4 4 c -3 8 c 0 15 c 3 7 c 4 4 c 8 4 c 7 0 c 8 -4 c 11 -8 c 38 -37 c 0 53 c
0 41 2940 7590 l 30 -22 c 0 11 c 4 8 c 3 3 c 12 4 c 7 0 c 12 -4 c 7 -7 c 4 -12 c 0 -11 c -4 -11 c -4 -4 c -7 -4 c 0 -250 3105 1452 l
-7 -4 3072 1573 l -4 -12 c 0 -7 c 4 -12 c 11 -7 c 19 -4 c 19 0 c 15 4 c 8 7 c 3 12 c 0 4 c -3 11 c -8 8 c -11 3 c -4 0 c -11 -3 c
-8 -8 c -4 -11 c 0 -4 c 4 -12 c 8 -7 c 11 -4 c -4 8 3076 1610 l -11 11 c 79 0 c -4 7 3076 1686 l -11 12 c 79 0 c -7 -3 3072 1799 l
-4 -12 c 0 -7 c 4 -12 c 11 -7 c 19 -4 c 19 0 c 15 4 c 8 7 c 3 12 c 0 3 c -3 12 c -8 7 c -11 4 c -4 0 c -11 -4 c -8 -7 c -4 -12 c
0 -3 c 4 -12 c 8 -7 c 11 -4 c 4 -3 3133 1833 l 3 3 c -3 4 c -4 -4 c -4 7 3076 1875 l -11 12 c 79 0 c -7 -4 3072 1988 l -4 -11 c
0 -7 c 4 -12 c 11 -7 c 19 -4 c 19 0 c 15 4 c 8 7 c 3 12 c 0 3 c -3 12 c -8 7 c -11 4 c -4 0 c -11 -4 c -8 -7 c -4 -12 c 0 -3 c
4 -12 c 8 -7 c 11 -4 c -7 -4 3072 2064 l -4 -11 c 0 -8 c 4 -11 c 11 -8 c 19 -4 c 19 0 c 15 4 c 8 8 c 3 11 c 0 4 c -3 11 c -8 8 c
-11 4 c -4 0 c -11 -4 c -8 -8 c -4 -11 c 0 -4 c 4 -11 c 8 -8 c 11 -4 c 0 -250 3536 3574 l -7 -4 3504 3695 l -4 -11 c 0 -8 c 4 -11 c
11 -8 c 19 -3 c 19 0 c 15 3 c 7 8 c 4 11 c 0 4 c -4 11 c -7 8 c -11 4 c -4 0 c -12 -4 c -7 -8 c -4 -11 c 0 -4 c 4 -11 c 7 -8 c
12 -3 c -4 7 3508 3733 l -11 12 c 79 0 c -4 0 3512 3801 l -8 3 c -3 4 c -4 8 c 0 15 c 4 8 c 3 3 c 8 4 c 8 0 c 7 -4 c 11 -7 c
38 -38 c 0 53 c 4 -11 3493 3895 l 11 -8 c 19 -3 c 11 0 c 19 3 c 11 8 c 4 11 c 0 8 c -4 11 c -11 8 c -19 3 c -11 0 c -19 -3 c
-11 -8 c -4 -11 c 0 -8 c 3 -4 3565 3956 l 4 4 c -4 3 c -3 -3 c 0 -38 3493 4031 l 34 -3 c -4 3 c -4 12 c 0 11 c 4 11 c 8 8 c 11 4 c
8 0 c 11 -4 c 7 -8 c 4 -11 c 0 -11 c -4 -12 c -3 -3 c -8 -4 c 0 -38 3493 4107 l 34 -4 c -4 4 c -4 11 c 0 12 c 4 11 c 8 8 c 11 3 c
8 0 c 11 -3 c 7 -8 c 4 -11 c 0 -12 c -4 -11 c -3 -4 c -8 -4 c -7 -4 3504 4186 l -4 -11 c 0 -7 c 4 -12 c 11 -7 c 19 -4 c 19 0 c
15 4 c 7 7 c 4 12 c 0 3 c -4 12 c -7 7 c -11 4 c -4 0 c -12 -4 c -7 -7 c -4 -12 c 0 -3 c 4 -12 c 7 -7 c 12 -4 c 0 -250 3621 1533 l
-8 -4 3589 1654 l -4 -11 c 0 -8 c 4 -11 c 11 -8 c 19 -4 c 19 0 c 15 4 c 8 8 c 4 11 c 0 4 c -4 11 c -8 8 c -11 4 c -4 0 c -11 -4 c
-8 -8 c -4 -11 c 0 -4 c 4 -11 c 8 -8 c 11 -4 c -3 7 3592 1692 l -12 11 c 80 0 c -4 0 3596 1760 l -7 3 c -4 4 c -4 8 c 0 15 c 4 7 c
4 4 c 7 4 c 8 0 c 7 -4 c 12 -7 c 38 -38 c 0 53 c -3 7 3592 1843 l -12 12 c 80 0 c 4 -4 3649 1915 l 4 4 c -4 3 c -4 -3 c
53 -38 3577 1983 l 0 56 c 80 0 3577 1983 l 4 -11 3577 2043 l 11 -8 c 19 -4 c 12 0 c 19 4 c 11 8 c 4 11 c 0 8 c -4 11 c -11 7 c
-19 4 c -12 0 c -19 -4 c -11 -7 c -4 -11 c 0 -8 c 4 -11 3577 2115 l 8 -4 c 7 0 c 8 4 c 3 7 c 4 15 c 4 12 c 8 7 c 7 4 c 12 0 c 7 -4 c
4 -4 c 4 -11 c 0 -15 c -4 -11 c -4 -4 c -7 -4 c -12 0 c -7 4 c -8 7 c -4 12 c -4 15 c -3 7 c -8 4 c -7 0 c -8 -4 c -4 -11 c 0 -15 c
0 -249 3701 1660 l -8 -4 3669 1781 l -4 -11 c 0 -7 c 4 -12 c 11 -7 c 19 -4 c 19 0 c 15 4 c 8 7 c 4 12 c 0 3 c -4 12 c -8 7 c -11 4 c
-4 0 c -11 -4 c -8 -7 c -3 -12 c 0 -3 c 3 -12 c 8 -7 c 11 -4 c -3 8 3672 1819 l -12 11 c 80 0 c -4 0 3676 1887 l -7 4 c -4 4 c
-4 7 c 0 15 c 4 8 c 4 4 c 7 3 c 8 0 c 8 -3 c 11 -8 c 38 -38 c 0 53 c -4 0 3676 1963 l -7 3 c -4 4 c -4 8 c 0 15 c 4 7 c 4 4 c 7 4 c
8 0 c 8 -4 c 11 -7 c 38 -38 c 0 53 c 4 -4 3729 2042 l 4 4 c -4 4 c -4 -4 c -4 0 3676 2076 l -7 4 c -4 4 c -4 7 c 0 15 c 4 8 c 4 4 c
7 3 c 8 0 c 8 -3 c 11 -8 c 38 -38 c 0 53 c -3 8 3672 2159 l -12 11 c 80 0 c 53 -38 3657 2261 l 0 57 c 80 0 3657 2261 l
0 -250 3924 2379 l -7 -4 3892 2500 l -4 -12 c 0 -7 c 4 -12 c 11 -7 c 19 -4 c 19 0 c 15 4 c 7 7 c 4 12 c 0 4 c -4 11 c -7 8 c -11 3 c
-4 0 c -12 -3 c -7 -8 c -4 -11 c 0 -4 c 4 -12 c 7 -7 c 12 -4 c -4 8 3896 2537 l -11 11 c 79 0 c -4 0 3900 2605 l -8 4 c -3 4 c
-4 7 c 0 16 c 4 7 c 3 4 c 8 4 c 7 0 c 8 -4 c 11 -8 c 38 -37 c 0 52 c 53 -38 3881 2715 l 0 57 c 79 0 3881 2715 l 3 -3 3953 2760 l
4 3 c -4 4 c -3 -4 c 53 -37 3881 2828 l 0 56 c 79 0 3881 2828 l 4 -11 3881 2885 l 7 -4 c 8 0 c 7 4 c 4 7 c 4 15 c 4 12 c 7 7 c 8 4 c
11 0 c 8 -4 c 3 -4 c 4 -11 c 0 -15 c -4 -11 c -3 -4 c -8 -4 c -11 0 c -8 4 c -7 7 c -4 12 c -4 15 c -4 7 c -7 4 c -8 0 c -7 -4 c
-4 -11 c 0 -15 c 4 -11 3881 2964 l 11 -8 c 19 -3 c 11 0 c 19 3 c 11 8 c 4 11 c 0 8 c -4 11 c -11 8 c -19 4 c -11 0 c -19 -4 c
-11 -8 c -4 -11 c 0 -8 c 0 -250 4049 1785 l -8 -3 4017 1905 l -3 -12 c 0 -7 c 3 -12 c 12 -7 c 19 -4 c 19 0 c 15 4 c 7 7 c 4 12 c
0 4 c -4 11 c -7 7 c -12 4 c -3 0 c -12 -4 c -7 -7 c -4 -11 c 0 -4 c 4 -12 c 7 -7 c 12 -4 c -4 8 4021 1943 l -11 11 c 79 0 c
-4 0 4025 2011 l -8 4 c -4 4 c -3 7 c 0 16 c 3 7 c 4 4 c 8 4 c 7 0 c 8 -4 c 11 -8 c 38 -37 c 0 52 c 0 -37 4006 2128 l 34 -4 c -4 4 c
-4 11 c 0 11 c 4 12 c 7 7 c 12 4 c 7 0 c 12 -4 c 7 -7 c 4 -12 c 0 -11 c -4 -11 c -3 -4 c -8 -4 c 3 -3 4078 2166 l 4 3 c -4 4 c
-3 -4 c 79 -37 4006 2249 l 0 52 4006 2197 l 53 -38 4006 2310 l 0 57 c 79 0 4006 2310 l 3 -11 4006 2370 l 12 -8 c 19 -3 c 11 0 c
19 3 c 11 8 c 4 11 c 0 8 c -4 11 c -11 8 c -19 4 c -11 0 c -19 -4 c -12 -8 c -3 -11 c 0 -8 c 0 -249 4216 1713 l -7 -4 4184 1834 l
-4 -11 c 0 -8 c 4 -11 c 11 -8 c 19 -3 c 19 0 c 15 3 c 7 8 c 4 11 c 0 4 c -4 11 c -7 8 c -12 4 c -3 0 c -12 -4 c -7 -8 c -4 -11 c
0 -4 c 4 -11 c 7 -8 c 12 -3 c -4 7 4188 1872 l -11 12 c 79 0 c -4 0 4192 1940 l -8 4 c -3 3 c -4 8 c 0 15 c 4 8 c 3 3 c 8 4 c 7 0 c
8 -4 c 11 -7 c 38 -38 c 0 53 c 79 -38 4173 2065 l 0 53 4173 2012 l 3 -4 4245 2095 l 4 4 c -4 4 c -3 -4 c 53 -38 4173 2163 l 0 57 c
79 0 4173 2163 l -4 8 4188 2212 l -11 11 c 79 0 c -7 -3 4184 2325 l -4 -12 c 0 -7 c 4 -12 c 11 -7 c 19 -4 c 19 0 c 15 4 c 7 7 c
4 12 c 0 3 c -4 12 c -7 7 c -12 4 c -3 0 c -12 -4 c -7 -7 c -4 -12 c 0 -3 c 4 -12 c 7 -7 c 12 -4 c 0 -250 5343 2564 l
-7 -4 5311 2685 l -4 -11 c 0 -8 c 4 -11 c 11 -8 c 19 -4 c 19 0 c 15 4 c 7 8 c 4 11 c 0 4 c -4 11 c -7 8 c -12 4 c -3 0 c -12 -4 c
-7 -8 c -4 -11 c 0 -4 c 4 -11 c 7 -8 c 12 -4 c -4 7 5315 2723 l -11 11 c 79 0 c 0 42 5300 2794 l 30 -23 c 0 12 c 4 7 c 4 4 c 11 4 c
7 0 c 12 -4 c 7 -8 c 4 -11 c 0 -11 c -4 -12 c -3 -3 c -8 -4 c 4 -11 5300 2881 l 7 -4 c 8 0 c 7 4 c 4 8 c 4 15 c 4 11 c 7 8 c 8 3 c
11 0 c 8 -3 c 3 -4 c 4 -12 c 0 -15 c -4 -11 c -3 -4 c -8 -4 c -11 0 c -8 4 c -7 8 c -4 11 c -4 15 c -4 8 c -7 4 c -8 0 c -7 -4 c
-4 -12 c 0 -15 c 3 -4 5372 2946 l 4 4 c -4 3 c -3 -3 c -7 -4 5311 3025 l -4 -11 c 0 -8 c 4 -11 c 11 -8 c 19 -3 c 19 0 c 15 3 c 7 8 c
4 11 c 0 4 c -4 11 c -7 8 c -12 4 c -3 0 c -12 -4 c -7 -8 c -4 -11 c 0 -4 c 4 -11 c 7 -8 c 12 -3 c 53 -38 5300 3089 l 0 57 c
79 0 5300 3089 l -7 -4 5311 3176 l -4 -11 c 0 -8 c 4 -11 c 11 -7 c 19 -4 c 19 0 c 15 4 c 7 7 c 4 11 c 0 4 c -4 12 c -7 7 c -12 4 c
-3 0 c -12 -4 c -7 -7 c -4 -12 c 0 -4 c 4 -11 c 7 -7 c 12 -4 c 0 -249 6709 7019 l -8 -4 6677 7140 l -3 -11 c 0 -8 c 3 -11 c 12 -8 c
19 -3 c 19 0 c 15 3 c 7 8 c 4 11 c 0 4 c -4 11 c -7 8 c -12 4 c -3 0 c -12 -4 c -7 -8 c -4 -11 c 0 -4 c 4 -11 c 7 -8 c 12 -3 c
-4 7 6681 7178 l -11 12 c 79 0 c 0 -37 6666 7287 l 34 -4 c -4 4 c -4 11 c 0 11 c 4 12 c 7 7 c 12 4 c 7 0 c 12 -4 c 7 -7 c 4 -12 c
0 -11 c -4 -11 c -4 -4 c -7 -4 c -4 8 6681 7329 l -11 11 c 79 0 c 4 -4 6737 7401 l 4 4 c -4 4 c -4 -4 c 11 -4 6692 7480 l 8 -7 c
4 -11 c 0 -4 c -4 -12 c -8 -7 c -11 -4 c -4 0 c -11 4 c -8 7 c -3 12 c 0 4 c 3 11 c 8 7 c 15 4 c 19 0 c 19 -4 c 11 -7 c 4 -11 c
0 -8 c -4 -11 c -7 -4 c 11 -4 6692 7556 l 8 -8 c 4 -11 c 0 -4 c -4 -11 c -8 -8 c -11 -3 c -4 0 c -11 3 c -8 8 c -3 11 c 0 4 c 3 11 c
8 8 c 15 4 c 19 0 c 19 -4 c 11 -8 c 4 -11 c 0 -7 c -4 -12 c -7 -4 c 0 41 6666 7590 l 30 -22 c 0 11 c 4 8 c 3 3 c 12 4 c 7 0 c
12 -4 c 7 -7 c 4 -12 c 0 -11 c -4 -11 c -4 -4 c -7 -4 c 0 -250 6925 1888 l -7 -4 6892 2009 l -4 -11 c 0 -8 c 4 -11 c 11 -8 c 19 -4 c
19 0 c 15 4 c 8 8 c 3 11 c 0 4 c -3 11 c -8 8 c -11 4 c -4 0 c -11 -4 c -8 -8 c -4 -11 c 0 -4 c 4 -11 c 8 -8 c 11 -4 c
-4 7 6896 2047 l -11 12 c 79 0 c 0 -38 6881 2156 l 34 -3 c -4 3 c -4 12 c 0 11 c 4 11 c 8 8 c 11 4 c 8 0 c 11 -4 c 8 -8 c 3 -11 c
0 -11 c -3 -12 c -4 -3 c -8 -4 c 53 -38 6881 2224 l 0 57 c 79 0 6881 2224 l 4 -4 6953 2270 l 3 4 c -3 3 c -4 -3 c 4 -12 6881 2323 l
11 -7 c 19 -4 c 11 0 c 19 4 c 12 7 c 3 12 c 0 7 c -3 11 c -12 8 c -19 4 c -11 0 c -19 -4 c -11 -8 c -4 -11 c 0 -7 c
-7 -4 6892 2425 l -4 -12 c 0 -7 c 4 -11 c 11 -8 c 19 -4 c 19 0 c 15 4 c 8 8 c 3 11 c 0 4 c -3 11 c -8 8 c -11 3 c -4 0 c -11 -3 c
-8 -8 c -4 -11 c 0 -4 c 4 -11 c 8 -8 c 11 -4 c 4 -11 6881 2470 l 7 -4 c 8 0 c 7 4 c 4 7 c 4 15 c 4 12 c 7 7 c 8 4 c 11 0 c 8 -4 c
4 -4 c 3 -11 c 0 -15 c -3 -11 c -4 -4 c -8 -4 c -11 0 c -8 4 c -7 7 c -4 12 c -4 15 c -4 7 c -7 4 c -8 0 c -7 -4 c -4 -11 c 0 -15 c
0 -249 7081 2496 l -8 -3 7049 2617 l -3 -12 c 0 -7 c 3 -12 c 12 -7 c 19 -4 c 19 0 c 15 4 c 7 7 c 4 12 c 0 3 c -4 12 c -7 7 c -12 4 c
-3 0 c -12 -4 c -7 -7 c -4 -12 c 0 -3 c 4 -12 c 7 -7 c 12 -4 c -4 8 7053 2655 l -11 11 c 79 0 c 0 -38 7038 2765 l 34 -4 c -4 4 c
-4 11 c 0 12 c 4 11 c 7 8 c 12 3 c 7 0 c 12 -3 c 7 -8 c 4 -11 c 0 -12 c -4 -11 c -4 -4 c -7 -4 c 0 -37 7038 2840 l 34 -4 c -4 4 c
-4 11 c 0 11 c 4 12 c 7 7 c 12 4 c 7 0 c 12 -4 c 7 -7 c 4 -12 c 0 -11 c -4 -11 c -4 -4 c -7 -4 c 4 -4 7109 2878 l 4 4 c -4 4 c
-4 -4 c 0 -38 7038 2954 l 34 -4 c -4 4 c -4 11 c 0 12 c 4 11 c 7 8 c 12 3 c 7 0 c 12 -3 c 7 -8 c 4 -11 c 0 -12 c -4 -11 c -4 -4 c
-7 -4 c 3 -11 7038 3003 l 8 -4 c 7 0 c 8 4 c 4 7 c 4 15 c 3 12 c 8 7 c 8 4 c 11 0 c 7 -4 c 4 -4 c 4 -11 c 0 -15 c -4 -11 c -4 -4 c
-7 -4 c -11 0 c -8 4 c -8 7 c -3 12 c -4 15 c -4 7 c -8 4 c -7 0 c -8 -4 c -3 -11 c 0 -15 c -4 7 7053 3071 l -11 12 c 79 0 c
0 -249 7239 1909 l -8 -4 7207 2030 l -4 -11 c 0 -7 c 4 -12 c 12 -7 c 18 -4 c 19 0 c 15 4 c 8 7 c 4 12 c 0 3 c -4 12 c -8 7 c -11 4 c
-4 0 c -11 -4 c -8 -7 c -3 -12 c 0 -3 c 3 -12 c 8 -7 c 11 -4 c -4 8 7211 2068 l -12 11 c 80 0 c 0 -38 7195 2178 l 34 -4 c -3 4 c
-4 11 c 0 11 c 4 12 c 7 7 c 12 4 c 7 0 c 11 -4 c 8 -7 c 4 -12 c 0 -11 c -4 -11 c -4 -4 c -7 -4 c 80 -38 7195 2261 l 0 53 7195 2208 l
4 -4 7267 2291 l 4 4 c -4 4 c -4 -4 c 4 -11 7195 2344 l 12 -8 c 18 -4 c 12 0 c 19 4 c 11 8 c 4 11 c 0 7 c -4 12 c -11 7 c -19 4 c
-12 0 c -18 -4 c -12 -7 c -4 -12 c 0 -7 c 4 -12 7195 2416 l 8 -3 c 7 0 c 8 3 c 4 8 c 3 15 c 4 11 c 8 8 c 7 4 c 12 0 c 7 -4 c 4 -4 c
4 -11 c 0 -15 c -4 -12 c -4 -3 c -7 -4 c -12 0 c -7 4 c -8 7 c -4 12 c -3 15 c -4 7 c -8 4 c -7 0 c -8 -4 c -4 -11 c 0 -15 c
4 -11 7195 2491 l 8 -4 c 7 0 c 8 4 c 4 8 c 3 15 c 4 11 c 8 8 c 7 3 c 12 0 c 7 -3 c 4 -4 c 4 -12 c 0 -15 c -4 -11 c -4 -4 c -7 -4 c
-12 0 c -7 4 c -8 8 c -4 11 c -3 15 c -4 8 c -8 4 c -7 0 c -8 -4 c -4 -12 c 0 -15 c 0 -250 7687 1736 l -7 -4 7654 1857 l -4 -11 c
0 -8 c 4 -11 c 11 -8 c 19 -4 c 19 0 c 15 4 c 8 8 c 3 11 c 0 4 c -3 11 c -8 8 c -11 4 c -4 0 c -11 -4 c -8 -8 c -4 -11 c 0 -4 c
4 -11 c 8 -8 c 11 -4 c -4 7 7658 1895 l -11 11 c 79 0 c -7 -4 7654 2008 l -4 -11 c 0 -8 c 4 -11 c 11 -8 c 19 -3 c 19 0 c 15 3 c
8 8 c 3 11 c 0 4 c -3 11 c -8 8 c -11 4 c -4 0 c -11 -4 c -8 -8 c -4 -11 c 0 -4 c 4 -11 c 8 -8 c 11 -3 c -4 7 7658 2046 l -11 12 c
79 0 c 4 -4 7715 2118 l 3 4 c -3 3 c -4 -3 c 0 42 7643 2155 l 30 -23 c 0 12 c 4 7 c 4 4 c 11 4 c 8 0 c 11 -4 c 8 -8 c 3 -11 c
0 -11 c -3 -12 c -4 -3 c -8 -4 c 0 -38 7643 2269 l 34 -4 c -4 4 c -4 11 c 0 12 c 4 11 c 8 8 c 11 3 c 8 0 c 11 -3 c 8 -8 c 3 -11 c
0 -12 c -3 -11 c -4 -4 c -8 -4 c 0 41 7643 2307 l 30 -23 c 0 12 c 4 7 c 4 4 c 11 4 c 8 0 c 11 -4 c 8 -7 c 3 -12 c 0 -11 c -3 -11 c
-4 -4 c -8 -4 c 0 -250 7773 1949 l -8 -4 7741 2070 l -4 -11 c 0 -8 c 4 -11 c 11 -8 c 19 -3 c 19 0 c 15 3 c 8 8 c 4 11 c 0 4 c
-4 11 c -8 8 c -11 4 c -4 0 c -11 -4 c -8 -8 c -4 -11 c 0 -4 c 4 -11 c 8 -8 c 11 -3 c -3 7 7744 2108 l -12 12 c 80 0 c
-8 -4 7741 2221 l -4 -11 c 0 -8 c 4 -11 c 11 -7 c 19 -4 c 19 0 c 15 4 c 8 7 c 4 11 c 0 4 c -4 12 c -8 7 c -11 4 c -4 0 c -11 -4 c
-8 -7 c -4 -12 c 0 -4 c 4 -11 c 8 -7 c 11 -4 c -4 0 7748 2251 l -7 4 c -4 4 c -4 7 c 0 16 c 4 7 c 4 4 c 7 4 c 8 0 c 7 -4 c 12 -8 c
38 -37 c 0 53 c 4 -4 7801 2331 l 4 4 c -4 4 c -4 -4 c -3 8 7744 2372 l -12 11 c 80 0 c 80 -37 7729 2489 l 0 52 7729 2437 l
4 -11 7729 2535 l 11 -8 c 19 -4 c 12 0 c 18 4 c 12 8 c 4 11 c 0 7 c -4 12 c -12 7 c -18 4 c -12 0 c -19 -4 c -11 -7 c -4 -12 c
0 -7 c 0 -249 8017 7019 l -8 -4 7985 7140 l -3 -11 c 0 -8 c 3 -11 c 12 -8 c 19 -3 c 19 0 c 15 3 c 7 8 c 4 11 c 0 4 c -4 11 c -7 8 c
-12 4 c -3 0 c -12 -4 c -7 -8 c -4 -11 c 0 -4 c 4 -11 c 7 -8 c 12 -3 c -4 7 7989 7178 l -11 12 c 79 0 c -8 -4 7985 7291 l -3 -11 c
0 -7 c 3 -12 c 12 -7 c 19 -4 c 19 0 c 15 4 c 7 7 c 4 12 c 0 3 c -4 12 c -7 7 c -12 4 c -3 0 c -12 -4 c -7 -7 c -4 -12 c 0 -3 c
4 -12 c 7 -7 c 12 -4 c 53 -37 7974 7355 l 0 56 c 79 0 7974 7355 l 4 -4 8045 7401 l 4 4 c -4 4 c -4 -4 c 53 -38 7974 7469 l 0 57 c
79 0 7974 7469 l 3 -12 7974 7526 l 8 -4 c 8 0 c 7 4 c 4 8 c 4 15 c 3 11 c 8 8 c 8 4 c 11 0 c 7 -4 c 4 -4 c 4 -11 c 0 -15 c -4 -12 c
-4 -4 c -7 -3 c -11 0 c -8 3 c -8 8 c -3 11 c -4 15 c -4 8 c -7 4 c -8 0 c -8 -4 c -3 -11 c 0 -15 c 3 -11 7974 7605 l 12 -8 c
19 -4 c 11 0 c 19 4 c 11 8 c 4 11 c 0 7 c -4 12 c -11 7 c -19 4 c -11 0 c -19 -4 c -12 -7 c -3 -12 c 0 -7 c 0 -249 8587 7019 l
-7 -4 8554 7140 l -4 -11 c 0 -8 c 4 -11 c 11 -8 c 19 -3 c 19 0 c 15 3 c 8 8 c 3 11 c 0 4 c -3 11 c -8 8 c -11 4 c -4 0 c -11 -4 c
-8 -8 c -4 -11 c 0 -4 c 4 -11 c 8 -8 c 11 -3 c -4 7 8558 7178 l -11 12 c 79 0 c -7 -4 8554 7291 l -4 -11 c 0 -7 c 4 -12 c 11 -7 c
19 -4 c 19 0 c 15 4 c 8 7 c 3 12 c 0 3 c -3 12 c -8 7 c -11 4 c -4 0 c -11 -4 c -8 -7 c -4 -12 c 0 -3 c 4 -12 c 8 -7 c 11 -4 c
11 -4 8570 7367 l 7 -8 c 4 -11 c 0 -4 c -4 -11 c -7 -8 c -11 -3 c -4 0 c -12 3 c -7 8 c -4 11 c 0 4 c 4 11 c 7 8 c 16 4 c 18 0 c
19 -4 c 12 -8 c 3 -11 c 0 -7 c -3 -12 c -8 -4 c 4 -4 8615 7401 l 3 4 c -3 4 c -4 -4 c 4 -11 8543 7450 l 7 -4 c 8 0 c 8 4 c 3 7 c
4 15 c 4 12 c 7 7 c 8 4 c 11 0 c 8 -4 c 4 -4 c 3 -11 c 0 -15 c -3 -11 c -4 -4 c -8 -4 c -11 0 c -8 4 c -7 7 c -4 12 c -4 15 c -3 7 c
-8 4 c -8 0 c -7 -4 c -4 -11 c 0 -15 c -4 0 8562 7510 l -7 4 c -4 4 c -4 8 c 0 15 c 4 7 c 4 4 c 7 4 c 8 0 c 7 -4 c 12 -8 c 37 -37 c
0 53 c -4 0 8562 7586 l -7 4 c -4 4 c -4 7 c 0 15 c 4 8 c 4 4 c 7 3 c 8 0 c 7 -3 c 12 -8 c 37 -38 c 0 53 c 0 -249 8851 7019 l
-8 -4 8819 7140 l -4 -11 c 0 -8 c 4 -11 c 11 -8 c 19 -3 c 19 0 c 15 3 c 8 8 c 4 11 c 0 4 c -4 11 c -8 8 c -11 4 c -4 0 c -11 -4 c
-8 -8 c -4 -11 c 0 -4 c 4 -11 c 8 -8 c 11 -3 c -3 7 8822 7178 l -12 12 c 80 0 c 80 -38 8807 7295 l 0 53 8807 7242 l -4 0 8826 7321 l
-7 4 c -4 4 c -4 8 c 0 15 c 4 7 c 4 4 c 7 4 c 8 0 c 7 -4 c 12 -8 c 38 -37 c 0 53 c 4 -4 8879 7401 l 4 4 c -4 4 c -4 -4 c
-4 0 8826 7435 l -7 4 c -4 3 c -4 8 c 0 15 c 4 8 c 4 3 c 7 4 c 8 0 c 7 -4 c 12 -7 c 38 -38 c 0 53 c 80 -38 8807 7560 l
0 53 8807 7507 l 4 -11 8807 7601 l 8 -4 c 7 0 c 8 4 c 3 7 c 4 15 c 4 12 c 8 7 c 7 4 c 11 0 c 8 -4 c 4 -3 c 4 -12 c 0 -15 c -4 -11 c
-4 -4 c -8 -4 c -11 0 c -7 4 c -8 8 c -4 11 c -4 15 c -3 8 c -8 3 c -7 0 c -8 -3 c -4 -12 c 0 -15 c 0 -250 8939 3330 l
-8 -4 8907 3451 l -4 -11 c 0 -8 c 4 -11 c 12 -8 c 18 -4 c 19 0 c 15 4 c 8 8 c 4 11 c 0 4 c -4 11 c -8 8 c -11 4 c -4 0 c -11 -4 c
-8 -8 c -3 -11 c 0 -4 c 3 -11 c 8 -8 c 11 -4 c -4 7 8911 3489 l -12 12 c 80 0 c 80 -38 8895 3606 l 0 53 8895 3553 l 0 42 8895 3636 l
31 -23 c 0 11 c 3 8 c 4 4 c 12 3 c 7 0 c 11 -3 c 8 -8 c 4 -11 c 0 -12 c -4 -11 c -4 -4 c -7 -4 c 4 -4 8967 3712 l 4 4 c -4 3 c
-4 -3 c 4 -12 8895 3765 l 12 -7 c 18 -4 c 12 0 c 19 4 c 11 7 c 4 12 c 0 7 c -4 11 c -11 8 c -19 4 c -12 0 c -18 -4 c -12 -8 c
-4 -11 c 0 -7 c 11 -4 8922 3867 l 8 -8 c 4 -11 c 0 -4 c -4 -11 c -8 -8 c -11 -4 c -4 0 c -11 4 c -8 8 c -4 11 c 0 4 c 4 11 c 8 8 c
15 4 c 19 0 c 19 -4 c 11 -8 c 4 -11 c 0 -8 c -4 -11 c -8 -4 c -8 -4 8907 3942 l -4 -11 c 0 -8 c 4 -11 c 12 -7 c 18 -4 c 19 0 c
15 4 c 8 7 c 4 11 c 0 4 c -4 12 c -8 7 c -11 4 c -4 0 c -11 -4 c -8 -7 c -3 -12 c 0 -4 c 3 -11 c 8 -7 c 11 -4 c 0 -250 9518 2559 l
-8 -4 9486 2680 l -4 -11 c 0 -8 c 4 -11 c 11 -8 c 19 -4 c 19 0 c 15 4 c 8 8 c 4 11 c 0 4 c -4 11 c -8 8 c -11 3 c -4 0 c -11 -3 c
-8 -8 c -4 -11 c 0 -4 c 4 -11 c 8 -8 c 11 -4 c -3 7 9489 2718 l -12 11 c 80 0 c 80 -38 9474 2835 l 0 53 9474 2782 l
4 -11 9474 2876 l 8 -4 c 7 0 c 8 4 c 3 7 c 4 16 c 4 11 c 8 7 c 7 4 c 11 0 c 8 -4 c 4 -3 c 4 -12 c 0 -15 c -4 -11 c -4 -4 c -8 -4 c
-11 0 c -7 4 c -8 8 c -4 11 c -4 15 c -3 8 c -8 3 c -7 0 c -8 -3 c -4 -12 c 0 -15 c 4 -4 9546 2941 l 4 4 c -4 3 c -4 -3 c
53 -38 9474 3009 l 0 56 c 80 0 9474 3009 l 0 41 9474 3054 l 30 -22 c 0 11 c 4 8 c 4 3 c 11 4 c 8 0 c 11 -4 c 8 -7 c 4 -11 c 0 -12 c
-4 -11 c -4 -4 c -8 -4 c -3 8 9489 3133 l -12 11 c 80 0 c
showpage PGPLOT restore
 
%%Trailer
%%DocumentFonts: 
%%Pages: 1
%%EOF
