%!PS-Adobe-3.0 EPSF-3.0
%%For: tab
%%Title: PGPLOT PostScript plot
%%Creator: PGPLOT
%%CreationDate: 20-Apr-1995 16:40
%%BoundingBox: 25 18 587 774
%%DocumentFonts: (atend)
%%LanguageLevel: 1
%%Orientation: Landscape
%%Pages: (atend)
%%EndComments
%%BeginProlog
/l {moveto rlineto currentpoint stroke moveto} bind def
/c {rlineto currentpoint stroke moveto} bind def
/d {moveto 0 0 rlineto currentpoint stroke moveto} bind def
/SLW {5 mul setlinewidth} bind def
/SCF /pop load def
/BP {newpath moveto} bind def
/LP /rlineto load def
/EP {rlineto closepath eofill} bind def
/MB {gsave translate MFAC dup scale 1 setlinewidth 2 setlinecap 0 setlinejoin newpath} bind def
/ME /grestore load def
/C {0 360 arc stroke} bind def
/FC {0 360 arc fill} bind def
%%EndProlog
 
%%Page: 1 1
%%BeginPageSetup
/PGPLOT save def
0.072 0.072 scale
8150 250 translate 90 rotate
1 setlinejoin 1 setlinecap 1 SLW 1 SCF
%%EndPageSetup
0.000 setgray 1 SLW 8939 0 780 780 l 0 6239 c -8939 0 c 0 -6239 c 0 -45 1116 780 l 0 -45 1554 780 l 0 -45 1991 780 l
0 -45 2428 780 l 0 -90 2865 780 l 0 -45 3302 780 l 0 -45 3739 780 l 0 -45 4176 780 l 0 -45 4613 780 l 0 -90 5051 780 l
0 -45 5488 780 l 0 -45 5925 780 l 0 -45 6362 780 l 0 -45 6799 780 l 0 -90 7236 780 l 0 -45 7673 780 l 0 -45 8110 780 l
0 -45 8548 780 l 0 -45 8985 780 l 0 -90 9422 780 l 0 -45 1116 7064 l 0 -45 1554 7064 l 0 -45 1991 7064 l 0 -45 2428 7064 l
0 -90 2865 7109 l 0 -45 3302 7064 l 0 -45 3739 7064 l 0 -45 4176 7064 l 0 -45 4613 7064 l 0 -90 5051 7109 l 0 -45 5488 7064 l
0 -45 5925 7064 l 0 -45 6362 7064 l 0 -45 6799 7064 l 0 -90 7236 7109 l 0 -45 7673 7064 l 0 -45 8110 7064 l 0 -45 8548 7064 l
0 -45 8985 7064 l 0 -90 9422 7109 l -60 0 2775 672 l -6 -54 c 6 6 c 18 6 c 18 0 c 18 -6 c 12 -12 c 6 -18 c 0 -12 c -6 -18 c
-12 -12 c -18 -6 c -18 0 c -18 6 c -6 6 c -6 12 c -18 -6 2859 672 l -12 -18 c -6 -30 c 0 -18 c 6 -30 c 12 -18 c 18 -6 c 12 0 c
18 6 c 12 18 c 6 30 c 0 18 c -6 30 c -12 18 c -18 6 c -12 0 c -18 -6 2979 672 l -12 -18 c -6 -30 c 0 -18 c 6 -30 c 12 -18 c 18 -6 c
12 0 c 18 6 c 12 18 c 6 30 c 0 18 c -6 30 c -12 18 c -18 6 c -12 0 c 12 6 4847 648 l 18 18 c 0 -126 c -18 -6 4985 672 l -12 -18 c
-6 -30 c 0 -18 c 6 -30 c 12 -18 c 18 -6 c 12 0 c 18 6 c 12 18 c 6 30 c 0 18 c -6 30 c -12 18 c -18 6 c -12 0 c -18 -6 5105 672 l
-12 -18 c -6 -30 c 0 -18 c 6 -30 c 12 -18 c 18 -6 c 12 0 c 18 6 c 12 18 c 6 30 c 0 18 c -6 30 c -12 18 c -18 6 c -12 0 c
-18 -6 5225 672 l -12 -18 c -6 -30 c 0 -18 c 6 -30 c 12 -18 c 18 -6 c 12 0 c 18 6 c 12 18 c 6 30 c 0 18 c -6 30 c -12 18 c -18 6 c
-12 0 c 12 6 7032 648 l 18 18 c 0 -126 c -60 0 7206 672 l -6 -54 c 6 6 c 18 6 c 18 0 c 18 -6 c 12 -12 c 6 -18 c 0 -12 c -6 -18 c
-12 -12 c -18 -6 c -18 0 c -18 6 c -6 6 c -6 12 c -18 -6 7290 672 l -12 -18 c -6 -30 c 0 -18 c 6 -30 c 12 -18 c 18 -6 c 12 0 c
18 6 c 12 18 c 6 30 c 0 18 c -6 30 c -12 18 c -18 6 c -12 0 c -18 -6 7410 672 l -12 -18 c -6 -30 c 0 -18 c 6 -30 c 12 -18 c 18 -6 c
12 0 c 18 6 c 12 18 c 6 30 c 0 18 c -6 30 c -12 18 c -18 6 c -12 0 c 0 6 9206 642 l 6 12 c 6 6 c 12 6 c 24 0 c 12 -6 c 6 -6 c
6 -12 c 0 -12 c -6 -12 c -12 -18 c -60 -60 c 84 0 c -18 -6 9356 672 l -12 -18 c -6 -30 c 0 -18 c 6 -30 c 12 -18 c 18 -6 c 12 0 c
18 6 c 12 18 c 6 30 c 0 18 c -6 30 c -12 18 c -18 6 c -12 0 c -18 -6 9476 672 l -12 -18 c -6 -30 c 0 -18 c 6 -30 c 12 -18 c 18 -6 c
12 0 c 18 6 c 12 18 c 6 30 c 0 18 c -6 30 c -12 18 c -18 6 c -12 0 c -18 -6 9596 672 l -12 -18 c -6 -30 c 0 -18 c 6 -30 c 12 -18 c
18 -6 c 12 0 c 18 6 c 12 18 c 6 30 c 0 18 c -6 30 c -12 18 c -18 6 c -12 0 c -90 0 780 780 l -45 0 780 1710 l -90 0 780 2640 l
-45 0 780 3571 l -90 0 780 4501 l -45 0 780 5431 l -90 0 780 6361 l -90 0 9809 780 l -45 0 9764 1710 l -90 0 9809 2640 l
-45 0 9764 3571 l -90 0 9809 4501 l -45 0 9764 5431 l -90 0 9809 6361 l 6 -18 517 774 l 18 -12 c 30 -6 c 18 0 c 30 6 c 18 12 c
6 18 c 0 12 c -6 18 c -18 12 c -30 6 c -18 0 c -30 -6 c -18 -12 c -6 -18 c 0 -12 c -6 0 547 2382 l -12 6 c -6 6 c -6 12 c 0 24 c
6 12 c 6 6 c 12 6 c 12 0 c 12 -6 c 18 -12 c 60 -60 c 0 84 c 84 84 547 2502 l 84 -84 547 2586 l -6 12 541 2646 l -18 18 c 126 0 c
6 -18 517 2784 l 18 -12 c 30 -6 c 18 0 c 30 6 c 18 12 c 6 18 c 0 12 c -6 18 c -18 12 c -30 6 c -18 0 c -30 -6 c -18 -12 c -6 -18 c
0 -12 c 63 -45 453 2909 l 0 67 c 94 0 453 2909 l 84 -60 517 4297 l 0 90 c 126 0 517 4297 l 84 84 547 4363 l 84 -84 547 4447 l
-6 12 541 4507 l -18 18 c 126 0 c 6 -18 517 4645 l 18 -12 c 30 -6 c 18 0 c 30 6 c 18 12 c 6 18 c 0 12 c -6 18 c -18 12 c -30 6 c
-18 0 c -30 -6 c -18 -12 c -6 -18 c 0 -12 c 63 -45 453 4769 l 0 68 c 94 0 453 4769 l -12 -6 535 6175 l -6 -18 c 0 -12 c 6 -18 c
18 -12 c 30 -6 c 30 0 c 24 6 c 12 12 c 6 18 c 0 6 c -6 18 c -12 12 c -18 6 c -6 0 c -18 -6 c -12 -12 c -6 -18 c 0 -6 c 6 -18 c
12 -12 c 18 -6 c 84 84 547 6223 l 84 -84 547 6307 l -6 12 541 6367 l -18 18 c 126 0 c 6 -18 517 6505 l 18 -12 c 30 -6 c 18 0 c
30 6 c 18 12 c 6 18 c 0 12 c -6 18 c -18 12 c -30 6 c -18 0 c -30 -6 c -18 -12 c -6 -18 c 0 -12 c 63 -45 453 6630 l 0 67 c
94 0 453 6630 l
4 0 780 792 l 5 0 c 4 0 c 4 0 c 5 -1 c 4 1 c 4 0 c 5 -1 c 4 -1 c 5 -1 c 4 0 c 4 0 c 5 1 c 4 1 c 4 1 c 5 1 c 4 -2 c 5 -1 c 4 0 c
4 0 c 5 0 c 4 1 c 4 1 c 5 0 c 4 0 c 5 0 c 4 0 c 4 -1 c 5 0 c 4 1 c 4 5 c 5 10 c 4 7 c 5 -5 c 4 -11 c 4 -2 c 5 3 c 4 0 c 4 -2 c
5 -3 c 4 -1 c 4 -1 c 5 0 c 4 1 c 5 2 c 4 5 c 4 22 c 5 97 c 4 86 c 4 -3 c 5 -104 c 4 -91 c 5 -12 c 4 -1 c 4 1 c 5 1 c 4 1 c 4 0 c
5 0 c 4 -1 c 5 0 c 4 0 c 4 2 c 5 1 c 4 2 c 4 2 c 5 1 c 4 3 c 5 3 c 4 10 c 4 34 c 5 136 c 4 644 c 4 2944 c 5 2221 c 4 -45 c 4 -3430 c
5 -2181 c 4 -297 c 5 -31 c 4 -4 c 4 -4 c 5 -2 c 4 -25 c 4 0 c 5 24 c 4 -1 c 5 -1 c 4 -2 c 4 -1 c 5 -1 c 4 -1 c 4 0 c 5 0 c 4 1 c
5 -1 c 4 -1 c 4 -1 c 5 1 c 4 0 c 4 -1 c 5 0 c 4 -1 c 5 1 c 4 1 c 4 1 c 5 2 c 4 1 c 4 -2 c 5 -3 c 4 0 c 4 -1 c 5 0 c 4 0 c 5 1 c
4 0 c 4 -1 c 5 -1 c 4 0 c 4 0 c 5 0 c 4 1 c 5 0 c 4 0 c 4 0 c 5 2 c 4 -1 c 4 1 c 5 0 c 4 0 c 5 0 c 4 -1 c 4 1 c 5 0 c 4 1 c 4 0 c
5 0 c 4 0 c 5 2 c 4 13 c 4 10 c 5 -3 c 4 -15 c 4 -6 c 5 4 c 4 14 c 4 5 c 5 -8 c 4 -13 c 5 -4 c 4 0 c 4 0 c 5 1 c 4 -1 c 4 -1 c 5 1 c
4 1 c 5 1 c 4 0 c 4 -1 c 5 -1 c 4 0 c 4 0 c 5 3 c 4 6 c 5 28 c 4 100 c 4 48 c 5 -28 c 4 -109 c 4 -44 c 5 -5 c 4 -1 c 4 2 c 5 1 c
4 0 c 5 -1 c 4 0 c 4 0 c 5 2 c 4 1 c 4 0 c 5 0 c 4 -1 c 5 0 c 4 -1 c 4 -1 c 5 0 c 4 0 c 4 1 c 5 1 c 4 0 c 5 0 c 4 0 c 4 -1 c 5 0 c
4 0 c 4 -1 c 5 0 c 4 0 c 5 1 c 4 0 c 4 0 c 5 0 c 4 0 c 4 0 c 5 0 c 4 1 c 4 0 c 5 0 c 4 -1 c 5 -1 c 4 0 c 4 1 c 5 1 c 4 0 c 4 0 c
5 -1 c 4 -1 c 5 0 c 4 1 c 4 0 c 5 0 c 4 0 c 4 -1 c 5 0 c 4 1 c 5 0 c 4 1 c 4 -1 c 5 0 c 4 -1 c 4 0 c 5 1 c 4 1 c 5 -1 c 4 0 c 4 -1 c
5 1 c 4 2 c 4 7 c 5 6 c 4 -1 c 4 -8 c 5 -6 c 4 -1 c 5 1 c 4 0 c 4 1 c 5 0 c 4 -2 c 4 1 c 5 1 c 4 0 c 5 0 c 4 -1 c 4 0 c 5 0 c 4 0 c
4 0 c 5 1 c 4 1 c 5 0 c 4 -1 c 4 0 c 5 0 c 4 2 c 4 3 c 5 1 c 4 -1 c 5 -3 c 4 -2 c 4 0 c 5 0 c 4 1 c 4 1 c 5 0 c 4 -1 c 4 1 c 5 0 c
4 1 c 5 -1 c 4 -1 c 4 -1 c 5 0 c 4 0 c 4 0 c 5 0 c 4 1 c 5 0 c 4 0 c 4 0 c 5 0 c 4 1 c 4 0 c 5 -1 c 4 1 c 5 0 c 4 1 c 4 0 c 5 3 c
4 1 c 4 0 c 5 -3 c 4 1 c 5 3 c 4 2 c 4 -1 c 5 -2 c 4 -2 c 4 0 c 5 -1 c 4 -1 c 4 1 c 5 -1 c 4 -1 c 5 1 c 4 0 c 4 1 c 5 0 c 4 0 c
4 0 c 5 0 c 4 0 c 5 0 c 4 -1 c 4 0 c 5 0 c 4 2 c 4 5 c 5 0 c 4 -3 c 5 -3 c 4 2 c 4 8 c 5 36 c 4 33 c 4 -4 c 5 -43 c 4 -29 c 4 -3 c
5 0 c 4 0 c 5 -1 c 4 2 c 4 1 c 5 2 c 4 1 c 4 -2 c 5 -1 c 4 -2 c 5 -1 c 4 -1 c 4 1 c 5 0 c 4 0 c 4 1 c 5 -1 c 4 0 c 5 0 c 4 1 c
4 -1 c 5 1 c 4 0 c 4 1 c 5 -2 c 4 -1 c 5 1 c 4 0 c 4 0 c 5 0 c 4 1 c 4 -1 c 5 1 c 4 0 c 4 0 c 5 0 c 4 1 c 5 1 c 4 -1 c 4 -2 c 5 1 c
4 -1 c 4 0 c 5 1 c 4 0 c 5 0 c 4 -1 c 4 1 c 5 -1 c 4 1 c 4 0 c 5 1 c 4 1 c 5 0 c 4 0 c 4 0 c 5 -2 c 4 0 c 4 1 c 5 0 c 4 0 c 5 0 c
4 2 c 4 2 c 5 6000 c 4 6 c 4 -2 c 5 6 c 4 9 c 4 -5687 c 5 -317 c 4 -11 c 5 0 c 4 -1 c 4 0 c 5 0 c 4 0 c 4 -1 c 5 -1 c 4 0 c 5 1 c
4 1 c 4 0 c 5 0 c 4 -1 c 4 0 c 5 -1 c 4 -1 c 5 1 c 4 -1 c 4 0 c 5 0 c 4 0 c 4 0 c 5 0 c 4 1 c 5 -1 c 4 0 c 4 0 c 5 0 c 4 0 c 4 -1 c
5 1 c 4 -1 c 4 0 c 5 -1 c 4 0 c 5 1 c 4 0 c 4 0 c 5 -1 c 4 0 c 4 1 c 5 1 c 4 -1 c 5 0 c 4 1 c 4 0 c 5 -1 c 4 -1 c 4 3 c 5 -1 c 4 1 c
5 -2 c 4 1 c 4 -1 c 5 1 c 4 -1 c 4 1 c 5 0 c 4 -1 c 5 1 c 4 1 c 4 2 c 5 -2 c 4 -1 c 4 0 c 5 6 c 4 5 c 4 0 c 5 -7 c 4 -6 c 5 1 c
4 0 c 4 0 c 5 0 c 4 0 c 4 0 c 5 2 c 4 2 c 5 -1 c 4 -3 c 4 0 c 5 -1 c 4 0 c 4 1 c 5 -1 c 4 0 c 5 -2 c 4 0 c 4 0 c 5 1 c 4 0 c 4 -1 c
5 -1 c 4 0 c 4 -1 c 5 1 c 4 1 c 5 0 c 4 0 c 4 11 c 5 26 c 4 16 c 4 -9 c 5 -27 c 4 -14 c 5 0 c 4 1 c 4 -2 c 5 -3 c 4 1 c 4 0 c 5 1 c
4 -1 c 5 -1 c 4 -1 c 4 0 c 5 1 c 4 0 c 4 1 c 5 0 c 4 4 c 5 3 c 4 -1 c 4 -5 c 5 -1 c 4 0 c 4 -1 c 5 0 c 4 -1 c 4 0 c 5 0 c 4 0 c
5 1 c 4 0 c 4 -1 c 5 -1 c 4 0 c 4 1 c 5 3 c 4 2 c 5 0 c 4 -3 c 4 -1 c 5 -1 c 4 1 c 4 2 c 5 14 c 4 24 c 5 3 c 4 -18 c 4 -21 c 5 -4 c
4 0 c 4 1 c 5 5 c 4 10 c 5 2 c 4 -5 c 4 -7 c 5 -1 c 4 2 c 4 3 c 5 4 c 4 9 c 4 33 c 5 307 c 4 1676 c 5 1260 c 4 -82 c 4 -1897 c
5 -1172 c 4 -117 c 4 -14 c 5 -4 c 4 -2 c 5 -3 c 4 -2 c 4 -2 c 5 0 c 4 1 c 4 0 c 5 -1 c 4 0 c 5 -1 c 4 -1 c 4 -2 c 5 0 c 4 1 c 4 0 c
5 -1 c 4 -1 c 5 2 c 4 2 c 4 -1 c 5 -2 c 4 -1 c 4 0 c 5 0 c 4 0 c 4 0 c 5 1 c 4 0 c 5 0 c 4 -1 c 4 -1 c 5 0 c 4 0 c 4 -1 c 5 1 c
4 1 c 5 1 c 4 0 c 4 -1 c 5 -1 c 4 0 c 4 0 c 5 0 c 4 1 c 5 4 c 4 3 c 4 1 c 5 -5 c 4 -2 c 4 -2 c 5 0 c 4 0 c 4 0 c 5 -1 c 4 1 c 5 0 c
4 1 c 4 1 c 5 -1 c 4 0 c 4 -1 c 5 -1 c 4 1 c 5 0 c 4 0 c 4 1 c 5 1 c 4 0 c 4 1 c 5 1 c 4 0 c 5 -2 c 4 -1 c 4 0 c 5 0 c 4 0 c 4 0 c
5 1 c 4 -1 c 5 -1 c 4 1 c 4 0 c 5 1 c 4 0 c 4 -1 c 5 2 c 4 13 c 4 79 c 5 49 c 4 -12 c 5 -90 c 4 -38 c 4 -2 c 5 1 c 4 0 c 4 -1 c
5 0 c 4 1 c 5 1 c 4 0 c 4 0 c 5 0 c 4 2 c 4 1 c 5 3 c 4 6 c 5 25 c 4 269 c 4 1648 c 5 934 c 4 -268 c 4 -1780 c 5 -784 c 4 -45 c
5 -6 c 4 -1 c 4 -2 c 5 0 c 4 0 c 4 -1 c 5 0 c 4 -1 c 4 0 c 5 -1 c 4 2 c 5 4 c 4 4 c 4 0 c 5 -2 c 4 -3 c 4 -1 c 5 0 c 4 0 c 5 -1 c
4 -3 c 4 -2 c 5 0 c 4 0 c 4 0 c 5 0 c 4 1 c 5 1 c 4 0 c 4 5 c 5 52 c 4 188 c 4 78 c 5 -69 c 4 -194 c 5 -58 c 4 -3 c 4 0 c 5 -1 c
4 0 c 4 0 c 5 1 c 4 0 c 4 0 c 5 0 c 4 10 c 5 7 c 4 -2 c 4 -11 c 5 -6 c 4 0 c 4 0 c 5 1 c 4 4 c 5 1 c 4 -1 c 4 -2 c 5 0 c 4 -1 c
4 -1 c 5 -1 c 4 0 c 5 0 c 4 -1 c 4 1 c 5 0 c 4 1 c 4 0 c 5 1 c 4 1 c 5 0 c 4 -2 c 4 -1 c 5 -1 c 4 1 c 4 0 c 5 1 c 4 1 c 4 11 c
5 15 c 4 1 c 5 -9 c 4 -3 c 4 9 c 5 48 c 4 29 c 4 -7 c 5 -49 c 4 -3 c 5 12 c 4 -9 c 4 -35 c 5 -10 c 4 -1 c 4 -1 c 5 0 c 4 -1 c 5 0 c
4 -1 c 4 1 c 5 0 c 4 2 c 4 -1 c 5 -1 c 4 0 c 4 0 c 5 0 c 4 0 c 5 0 c 4 1 c 4 1 c 5 4 c 4 2 c 4 0 c 5 5969 c 4 19 c 5 6 c 4 20 c
4 0 c 5 -5669 c 4 -336 c 4 -10 c 5 -1 c 4 0 c 5 0 c 4 1 c 4 -1 c 5 -1 c 4 0 c 4 0 c 5 0 c 4 0 c 5 -1 c 4 0 c 4 0 c 5 0 c 4 0 c 4 0 c
5 0 c 4 1 c 4 0 c 5 0 c 4 -1 c 5 1 c 4 1 c 4 2 c 5 3 c 4 13 c 4 131 c 5 313 c 4 116 c 5 -145 c 4 -324 c 4 -92 c 5 -8 c 4 -6 c 4 -5 c
5 -1 c 4 1 c 5 0 c 4 0 c 4 0 c 5 -1 c 4 0 c 4 1 c 5 -1 c 4 0 c 5 0 c 4 3 c 4 2 c 5 1 c 4 -2 c 4 -1 c 5 0 c 4 0 c 4 0 c 5 0 c 4 12 c
5 74 c 4 59 c 4 -12 c 5 -69 c 4 -61 c 4 -3 c 5 0 c 4 -1 c 5 -1 c 4 0 c 4 1 c 5 -1 c 4 -1 c 4 1 c 5 1 c 4 -1 c 5 -1 c 4 0 c 4 0 c
5 0 c 4 1 c 4 1 c 5 1 c 4 -1 c 5 -1 c 4 -1 c 4 0 c 5 0 c 4 0 c 4 -1 c 5 1 c 4 0 c 4 4 c 5 45 c 4 90 c 5 15 c 4 -46 c 4 -92 c 5 -16 c
4 -1 c 4 0 c 5 0 c 4 0 c 5 0 c 4 0 c 4 1 c 5 5 c 4 13 c 4 4 c 5 -7 c 4 -9 c 5 1 c 4 1 c 4 -3 c 5 -4 c 4 -1 c 4 -1 c 5 -1 c 4 0 c
5 0 c 4 0 c 4 0 c 5 0 c 4 0 c 4 0 c 5 0 c 4 3 c 4 6 c 5 2 c 4 -3 c 5 -5 c 4 -3 c 4 0 c 5 0 c 4 0 c 4 0 c 5 1 c 4 -1 c 5 1 c 4 0 c
4 0 c 5 0 c 4 -1 c 4 1 c 5 0 c 4 1 c 5 -1 c 4 0 c 4 0 c 5 0 c 4 1 c 4 -1 c 5 0 c 4 0 c 4 0 c 5 1 c 4 0 c 5 0 c 4 0 c 4 1 c 5 0 c
4 1 c 4 -1 c 5 1 c 4 -1 c 5 0 c 4 0 c 4 0 c 5 1 c 4 0 c 4 1 c 5 -1 c 4 0 c 5 1 c 4 -1 c 4 0 c 5 0 c 4 2 c 4 0 c 5 -1 c 4 0 c 5 -1 c
4 2 c 4 0 c 5 1 c 4 -1 c 4 0 c 5 0 c 4 0 c 4 2 c 5 4 c 4 1 c 5 -2 c 4 -1 c 4 0 c 5 -1 c 4 -2 c 4 0 c 5 2 c 4 1 c 5 0 c 4 1 c 4 2 c
5 10 c 4 90 c 4 327 c 5 214 c 4 -74 c 5 -356 c 4 -181 c 4 -24 c 5 -3 c 4 0 c 4 -1 c 5 0 c 4 -1 c 5 -1 c 4 0 c 4 1 c 5 1 c 4 1 c
4 -1 c 5 2 c 4 0 c 4 1 c 5 0 c 4 1 c 5 -1 c 4 0 c 4 1 c 5 2 c 4 0 c 4 1 c 5 -1 c 4 2 c 5 2 c 4 3 c 4 1 c 5 1 c 4 -2 c 4 -1 c 5 2 c
4 3 c 5 2 c 4 1 c 4 2 c 5 17 c 4 15 c 4 1 c 5 -12 c 4 -12 c 5 -2 c 4 1 c 4 3 c 5 5 c 4 4 c 4 3 c 5 6 c 4 7 c 4 2 c 5 -3 c 4 0 c
5 7 c 4 8 c 4 7 c 5 5 c 4 5 c 4 0 c 5 2 c 4 3 c 5 9 c 4 4 c 4 12 c 5 6 c 4 0 c 4 6 c 5 17 c 4 15 c 5 6 c 4 11 c 4 6 c 5 8 c 4 4 c
4 9 c 5 13 c 4 20 c 4 33 c 5 22 c 4 2 c 5 14 c 4 39 c 4 38 c 5 22 c 4 14 c 4 11 c 5 43 c 4 114 c 5 117 c 4 45 c 4 -9 c 5 41 c
4 198 c 4 205 c 5 206 c 4 279 c 5 695 c 4 -2404 c 4 6012 c 5 10 c 4 9 c 4 -3 c 5 -4 c 4 11 c 5 -12 c 4 -30 c 4 64 c 5 -4210 c
4 -400 c 4 -266 c 5 -165 c 4 -88 c 4 -61 c 5 -73 c 4 -51 c 5 -88 c 4 -79 c 4 -77 c 5 -27 c 4 -36 c 4 -31 c 5 -11 c 4 -32 c 5 -30 c
4 -39 c 4 -9 c 5 0 c 4 -7 c 4 -18 c 5 -19 c 4 -2 c 5 -3 c 4 -7 c 4 -13 c 5 -13 c 4 -13 c 4 -3 c 5 -1 c 4 -10 c 5 -16 c 4 -10 c
4 -4 c 5 -2 c 4 1 c 4 0 c 5 -9 c 4 -15 c 4 -7 c 5 -5 c 4 -4 c 5 -5 c 4 -3 c 4 -4 c 5 -3 c 4 0 c 4 -3 c 5 -4 c 4 -2 c 5 -4 c 4 -2 c
4 -3 c 5 -1 c 4 0 c 4 -3 c 5 -4 c 4 -2 c 5 -1 c 4 -2 c 4 -1 c 5 -1 c 4 -1 c 4 0 c 5 -2 c 4 -1 c 5 -1 c 4 -1 c 4 0 c 5 2 c 4 9 c
4 2 c 5 -4 c 4 -9 c 4 -4 c 5 -1 c 4 -1 c 5 0 c 4 0 c 4 -3 c 5 -1 c 4 0 c 4 0 c 5 -1 c 4 -1 c 5 0 c 4 1 c 4 0 c 5 -1 c 4 -1 c 4 -1 c
5 0 c 4 -1 c 5 0 c 4 -1 c 4 0 c 5 0 c 4 0 c 4 0 c 5 -1 c 4 -1 c 5 0 c 4 -1 c 4 1 c 5 -1 c 4 1 c 4 -1 c 5 0 c 4 1 c 4 1 c 5 0 c
4 -1 c 5 -1 c 4 0 c 4 -1 c 5 0 c 4 0 c 4 0 c 5 0 c 4 1 c 5 -1 c 4 0 c 4 0 c 5 0 c 4 0 c 4 -1 c 5 1 c 4 -2 c 5 0 c 4 0 c 4 1 c 5 0 c
4 -1 c 4 0 c 5 -1 c 4 1 c 4 1 c 5 -1 c 4 0 c 5 -2 c 4 0 c 4 0 c 5 1 c 4 2 c 4 3 c 5 16 c 4 26 c 5 2 c 4 -15 c 4 -30 c 5 -5 c 4 0 c
4 -1 c 5 1 c 4 0 c 5 0 c 4 -1 c 4 0 c 5 0 c 4 0 c 4 -1 c 5 1 c 4 -1 c 5 0 c 4 0 c 4 1 c 5 0 c 4 0 c 4 -1 c 5 -1 c 4 0 c 4 0 c 5 0 c
4 0 c 5 0 c 4 1 c 4 0 c 5 0 c 4 0 c 4 -1 c 5 0 c 4 0 c 5 0 c 4 0 c 4 0 c 5 0 c 4 0 c 4 0 c 5 -1 c 4 1 c 5 0 c 4 2 c 4 -1 c 5 -1 c
4 0 c 4 -23 c 5 25 c 4 0 c 5 0 c 4 -2 c 4 0 c 5 0 c 4 0 c 4 1 c 5 0 c 4 0 c 4 0 c 5 -1 c 4 0 c 5 1 c 4 -1 c 4 0 c 5 0 c 4 -1 c 4 1 c
5 1 c 4 0 c 5 1 c 4 0 c 4 -1 c 5 -1 c 4 -1 c 4 0 c 5 0 c 4 1 c 5 -1 c 4 0 c 4 0 c 5 0 c 4 1 c 4 0 c 5 1 c 4 -2 c 5 0 c 4 0 c 4 1 c
5 5 c 4 3 c 4 -1 c 5 -5 c 4 -3 c 4 1 c 5 3 c 4 2 c 5 -1 c 4 -3 c 4 -1 c 5 0 c 4 -1 c 4 0 c 5 0 c 4 2 c 5 8 c 4 2 c 4 -1 c 5 -8 c
4 -3 c 4 0 c 5 0 c 4 1 c 5 -1 c 4 1 c 4 -1 c 5 0 c 4 0 c 4 1 c 5 -1 c 4 0 c 5 0 c 4 -1 c 4 0 c 5 0 c 4 1 c 4 0 c 5 -1 c 4 1 c 4 0 c
5 0 c 4 -1 c 5 1 c 4 -1 c 4 1 c 5 0 c 4 1 c 4 -1 c 5 1 c 4 0 c 5 0 c 4 -1 c 4 0 c 5 0 c 4 3 c 4 1 c 5 0 c 4 -2 c 5 -2 c 4 0 c 4 0 c
5 0 c 4 1 c 4 0 c 5 0 c 4 0 c 4 -1 c 5 0 c 4 0 c 5 0 c 4 1 c 4 -1 c 5 2 c 4 18 c 4 18 c 5 1 c 4 -16 c 5 -19 c 4 -3 c 4 0 c 5 -1 c
4 0 c 4 1 c 5 2 c 4 2 c 5 0 c 4 -2 c 4 0 c 5 0 c 4 3 c 4 4 c 5 2 c 4 -2 c 5 -5 c 4 -3 c 4 -1 c 5 0 c 4 0 c 4 1 c 5 0 c 4 0 c 4 0 c
5 -1 c 4 0 c 5 1 c 4 2 c 4 0 c 5 0 c 4 -2 c 4 -1 c 5 0 c 4 0 c 5 0 c 4 -1 c 4 0 c 5 0 c 4 1 c 4 1 c 5 -1 c 4 0 c 5 0 c 4 -1 c 4 1 c
5 -1 c 4 0 c 4 0 c 5 1 c 4 -1 c 5 1 c 4 0 c 4 0 c 5 0 c 4 0 c 4 1 c 5 1 c 4 -1 c 4 0 c 5 0 c 4 -1 c 5 1 c 4 -1 c 4 -1 c 5 0 c 4 0 c
4 0 c 5 1 c 4 3 c 5 0 c 4 -1 c 4 -1 c 5 1 c 4 0 c 4 -1 c 5 -1 c 4 0 c 5 0 c 4 0 c 4 0 c 5 0 c 4 0 c 4 0 c 5 0 c 4 1 c 5 12 c 4 63 c
4 30 c 5 -11 c 4 -53 c 4 -35 c 5 7 c 4 4 c 4 -1 c 5 -9 c 4 -6 c 5 -1 c 4 14 c 4 23 c 5 2 c 4 -12 c 4 -24 c 5 -4 c 4 -1 c 5 1 c
4 -1 c 4 0 c 5 0 c 4 0 c 4 1 c 5 0 c 4 0 c 5 -1 c 4 0 c 4 0 c 5 1 c 4 6 c 4 10 c 5 2 c 4 -5 c 5 -10 c 4 -3 c 4 0 c 5 0 c 4 0 c 4 1 c
5 0 c 4 0 c 4 0 c 5 1 c 4 -2 c 5 1 c 4 0 c 4 1 c 5 2 c 4 1 c 4 -1 c 5 -1 c 4 -1 c 5 0 c 4 0 c 4 0 c 5 0 c 4 0 c 4 1 c 5 -1 c 4 1 c
5 0 c 4 0 c 4 0 c 5 0 c 4 1 c 4 0 c 5 0 c 4 1 c 4 0 c 5 2 c 4 5 c 5 1 c 4 -1 c 4 -2 c 5 1 c 4 -1 c 4 0 c 5 1 c 4 2 c 5 3 c 4 2 c
4 2 c 5 10 c 4 23 c 4 83 c 5 1196 c 4 4641 c 5 21 c 4 2 c 4 -3121 c 5 -2578 c 4 -234 c 4 -30 c 5 -10 c 4 -4 c 5 2 c 4 3 c 4 -1 c
5 -5 c 4 -6 c 4 -2 c 5 -1 c 4 -1 c 4 -1 c 5 -1 c 4 -1 c 5 0 c 4 0 c 4 -1 c 5 0 c 4 0 c 4 -1 c 5 1 c 4 1 c 5 -1 c 4 0 c 4 -2 c 5 0 c
4 -1 c 4 1 c 5 1 c 4 -1 c 5 0 c 4 0 c 4 1 c 5 -1 c 4 0 c 4 0 c 5 -1 c 4 0 c 5 0 c 4 0 c 4 2 c 5 5 c 4 7 c 4 3 c 5 -5 c 4 -4 c 4 14 c
5 102 c 4 127 c 5 32 c 4 -87 c 4 -148 c 5 -42 c 4 -3 c 4 -2 c 5 1 c 4 7 c 5 65 c 4 122 c 4 22 c 5 -48 c 4 -130 c 4 -30 c 5 23 c
4 265 c 5 686 c 4 202 c 4 -233 c 5 -720 c 4 -205 c 4 -22 c 5 -3 c 4 -1 c 5 0 c 4 -2 c 4 0 c 5 -1 c 4 0 c 4 -1 c 5 1 c 4 0 c 4 0 c
5 0 c 4 0 c 5 5 c 4 13 c 4 2 c 5 -4 c 4 -13 c 4 -3 c 5 -1 c 4 0 c 5 -1 c 4 0 c 4 0 c 5 0 c 4 -1 c 4 1 c 5 0 c 4 1 c 5 3 c 4 5 c
4 0 c 5 -4 c 4 -5 c 4 -1 c 5 0 c 4 1 c 4 0 c 5 2 c 4 0 c 5 0 c 4 -2 c 4 -1 c 5 0 c 4 1 c 4 1 c 5 0 c 4 -1 c 5 -1 c 4 0 c 4 0 c 5 0 c
4 0 c 4 1 c 5 7 c 4 9 c 5 0 c 4 -5 c 4 -11 c 5 -1 c 4 0 c 4 1 c 5 0 c 4 -1 c 5 0 c 4 0 c 4 0 c 5 0 c 4 0 c 4 0 c 5 -1 c 4 2 c 4 7 c
5 4 c 4 -1 c 5 -6 c 4 -4 c 4 -1 c 5 0 c 4 0 c 4 0 c 5 0 c 4 1 c 5 0 c 4 0 c 4 3 c 5 6 c 4 1 c 4 -1 c 5 -7 c 4 -3 c 5 -1 c 4 1 c
4 0 c 5 1 c 4 -1 c 4 1 c 5 1 c 4 0 c 5 -2 c 4 0 c 4 0 c 5 0 c 4 2 c 4 2 c 5 1 c 4 -2 c 4 -3 c 5 -1 c 4 0 c 5 0 c 4 0 c 4 1 c 5 0 c
4 0 c 4 1 c 5 0 c 4 0 c 5 0 c 4 -1 c 4 0 c 5 1 c 4 0 c 4 0 c 5 4 c 4 17 c 5 13 c 4 -2 c 4 -17 c 5 -14 c 4 -2 c 4 1 c 5 8 c 4 8 c
5 0 c 4 -5 c 4 -10 c 5 -1 c 4 0 c 4 0 c 5 -1 c 4 0 c 4 0 c 5 0 c 4 1 c 5 0 c 4 0 c 4 0 c 5 0 c 4 1 c 4 0 c 5 0 c 4 1 c 5 0 c 4 3 c
4 7 c 5 67 c 4 490 c 4 925 c 5 111 c 4 -428 c 5 -949 c 4 -201 c 4 -19 c 5 -4 c 4 -1 c 4 -1 c 5 -1 c 4 0 c 5 0 c 4 0 c 4 4 c 5 6 c
4 1 c 4 -3 c 5 -7 c 4 -3 c 4 1 c 5 0 c 4 0 c 5 -1 c 4 0 c 4 0 c 5 0 c 4 -1 c 4 1 c 5 0 c 4 -1 c 5 0 c 4 0 c 4 0 c 5 0 c 4 0 c 4 0 c
5 1 c 4 0 c 5 -1 c 4 0 c 4 0 c 5 1 c 4 5 c 4 37 c 5 91 c 4 21 c 4 -22 c 5 -92 c 4 -38 c 5 -2 c 4 -1 c 4 -1 c 5 0 c 4 0 c 4 0 c 5 0 c
4 0 c 5 0 c 4 0 c 4 1 c 5 0 c 4 0 c 4 -1 c 5 0 c 4 0 c 5 0 c 4 0 c 4 0 c 5 -1 c 4 0 c 4 0 c 5 1 c 4 0 c 5 0 c 4 0 c 4 0 c 5 0 c
4 0 c 4 -1 c 5 0 c 4 0 c 4 1 c 5 2 c 4 2 c 5 -1 c 4 -2 c 4 -1 c 5 -1 c 4 0 c 4 0 c 5 0 c 4 0 c 5 0 c 4 0 c 4 0 c 5 0 c 4 0 c 4 0 c
5 0 c 4 0 c 5 0 c 4 0 c 4 -1 c 5 0 c 4 0 c 4 1 c 5 0 c 4 0 c 5 0 c 4 0 c 4 -1 c 5 0 c 4 1 c 4 1 c 5 0 c 4 0 c 4 -1 c 5 -1 c 4 0 c
5 0 c 4 0 c 4 0 c 5 0 c 4 0 c 4 0 c 5 0 c 4 0 c 5 1 c 4 0 c 4 0 c 5 1 c 4 1 c 4 1 c 5 1 c 4 6 c 5 2 c 4 -2 c 4 -7 c 5 -3 c 4 -1 c
4 0 c
5 0 c 4 0 c 5 1 c 4 0 c 4 -17 c 5 0 c 4 20 c 4 0 c 5 -1 c 4 -2 c 4 -1 c 5 0 c 4 0 c 5 1 c 4 3 c 4 0 c 5 -2 c 4 -2 c 4 0 c 5 0 c
4 0 c 5 0 c 4 -1 c 4 0 c 5 0 c 4 0 c 4 0 c 5 0 c 4 0 c 5 -1 c 4 1 c 4 -1 c 5 1 c 4 0 c 4 0 c 5 1 c 4 0 c 5 0 c 4 -1 c 4 0 c 5 0 c
4 0 c 4 0 c 5 0 c 4 0 c
0 -126 3303 418 l 54 0 3303 418 l 18 -6 c 6 -6 c 6 -12 c 0 -12 c -6 -12 c -6 -6 c -18 -6 c -54 0 c 42 -66 3345 358 l
-12 -6 3453 376 l -12 -12 c -6 -18 c 0 -12 c 6 -18 c 12 -12 c 12 -6 c 18 0 c 12 6 c 12 12 c 6 18 c 0 12 c -6 18 c -12 12 c -12 6 c
-18 0 c 24 -84 3537 376 l -24 -84 3585 376 l 24 -84 3585 376 l -24 -84 3633 376 l 108 0 3675 364 l 108 0 3675 328 l 12 6 3939 394 l
18 18 c 0 -126 c -60 -84 4101 418 l 90 0 c 0 -126 4101 418 l -12 -6 4287 376 l -12 -12 c -6 -18 c 0 -12 c 6 -18 c 12 -12 c 12 -6 c
18 0 c 12 6 c 12 12 c 6 18 c 0 12 c -6 18 c -12 12 c -12 6 c -18 0 c -12 0 4413 418 l -12 -6 c -6 -18 c 0 -102 c 42 0 4365 376 l
0 6 4545 388 l 6 12 c 6 6 c 12 6 c 24 0 c 12 -6 c 6 -6 c 6 -12 c 0 -12 c -6 -12 c -12 -18 c -60 -60 c 84 0 c -18 -6 4695 418 l
-12 -18 c -6 -30 c 0 -18 c 6 -30 c 12 -18 c 18 -6 c 12 0 c 18 6 c 12 18 c 6 30 c 0 18 c -6 30 c -12 18 c -18 6 c -12 0 c
12 6 5181 394 l 18 18 c 0 -126 c -6 -6 5294 376 l 6 -6 c 6 6 c -6 6 c -6 -6 5294 304 l 6 -6 c 6 6 c -6 6 c -48 -126 5474 418 l
48 -126 5474 418 l 60 0 5444 334 l 0 -84 5552 376 l 6 18 5552 340 l 12 12 c 12 6 c 18 0 c -12 12 5696 358 l -12 6 c -18 0 c -12 -6 c
-12 -12 c -6 -18 c 0 -12 c 6 -18 c 12 -12 c 12 -6 c 18 0 c 12 6 c 12 12 c 108 0 5738 346 l 12 6 5906 394 l 18 18 c 0 -126 c
66 0 6020 418 l -36 -48 c 18 0 c 12 -6 c 6 -6 c 6 -18 c 0 -12 c -6 -18 c -12 -12 c -18 -6 c -18 0 c -18 6 c -6 6 c -6 12 c
-60 -126 6212 418 l 84 0 6128 418 l -6 -6 6260 304 l 6 -6 c 6 6 c -6 6 c -12 0 6350 418 l -12 -6 c -6 -18 c 0 -102 c 42 0 6302 376 l
6 -6 6380 418 l 6 6 c -6 6 c -6 -6 c 0 -84 6386 376 l 0 -102 6440 418 l 6 -18 c 12 -6 c 12 0 c 42 0 6422 376 l -6 12 6566 358 l
-18 6 c -18 0 c -18 -6 c -6 -12 c 6 -12 c 12 -6 c 30 -6 c 12 -6 c 6 -12 c 0 -6 c -6 -12 c -18 -6 c -18 0 c -18 6 c -6 12 c
0 -192 6896 442 l 0 -192 6902 442 l 42 0 6896 442 l 42 0 6896 250 l 0 6 6980 388 l 6 12 c 6 6 c 12 6 c 24 0 c 12 -6 c 6 -6 c 6 -12 c
0 -12 c -6 -12 c -12 -18 c -60 -60 c 84 0 c -6 -6 7106 376 l 6 -6 c 6 6 c -6 6 c -6 -6 7106 304 l 6 -6 c 6 6 c -6 6 c
0 -192 7286 442 l 0 -192 7292 442 l 42 0 7250 442 l 42 0 7250 250 l
0 -250 996 1442 l -8 -4 964 1563 l -4 -12 c 0 -7 c 4 -11 c 11 -8 c 19 -4 c 19 0 c 15 4 c 8 8 c 4 11 c 0 4 c -4 11 c -8 8 c -11 3 c
-4 0 c -11 -3 c -8 -8 c -3 -11 c 0 -4 c 3 -11 c 8 -8 c 11 -4 c 11 -4 979 1638 l 8 -7 c 3 -12 c 0 -3 c -3 -12 c -8 -7 c -11 -4 c
-4 0 c -11 4 c -8 7 c -4 12 c 0 3 c 4 12 c 8 7 c 15 4 c 19 0 c 19 -4 c 11 -7 c 4 -12 c 0 -7 c -4 -11 c -8 -4 c 4 -11 952 1687 l
11 -8 c 19 -3 c 12 0 c 19 3 c 11 8 c 4 11 c 0 8 c -4 11 c -11 8 c -19 3 c -12 0 c -19 -3 c -11 -8 c -4 -11 c 0 -8 c 11 -3 979 1789 l
8 -8 c 3 -11 c 0 -4 c -3 -11 c -8 -8 c -11 -4 c -4 0 c -11 4 c -8 8 c -4 11 c 0 4 c 4 11 c 8 8 c 15 3 c 19 0 c 19 -3 c 11 -8 c
4 -11 c 0 -8 c -4 -11 c -8 -4 c 4 -3 1024 1823 l 4 3 c -4 4 c -4 -4 c 4 -11 952 1872 l 8 -4 c 7 0 c 8 4 c 4 8 c 3 15 c 4 11 c 8 8 c
7 3 c 12 0 c 7 -3 c 4 -4 c 4 -11 c 0 -16 c -4 -11 c -4 -4 c -7 -3 c -12 0 c -7 3 c -8 8 c -4 11 c -3 15 c -4 8 c -8 4 c -7 0 c
-8 -4 c -4 -11 c 0 -16 c 53 -38 952 1967 l 0 57 c 80 0 952 1967 l 11 -4 979 2054 l 8 -7 c 3 -12 c 0 -4 c -3 -11 c -8 -7 c -11 -4 c
-4 0 c -11 4 c -8 7 c -4 11 c 0 4 c 4 12 c 8 7 c 15 4 c 19 0 c 19 -4 c 11 -7 c 4 -12 c 0 -7 c -4 -12 c -8 -3 c 0 -249 1109 7019 l
-8 -4 1077 7140 l -3 -11 c 0 -8 c 3 -11 c 12 -8 c 19 -3 c 19 0 c 15 3 c 7 8 c 4 11 c 0 4 c -4 11 c -7 8 c -12 4 c -3 0 c -12 -4 c
-7 -8 c -4 -11 c 0 -4 c 4 -11 c 7 -8 c 12 -3 c 11 -4 1092 7216 l 8 -8 c 4 -11 c 0 -4 c -4 -11 c -8 -8 c -11 -3 c -4 0 c -11 3 c
-8 8 c -3 11 c 0 4 c 3 11 c 8 8 c 15 4 c 19 0 c 19 -4 c 11 -8 c 4 -11 c 0 -8 c -4 -11 c -7 -4 c -4 8 1081 7253 l -11 11 c 79 0 c
-4 8 1081 7329 l -11 11 c 79 0 c 4 -4 1137 7401 l 4 4 c -4 4 c -4 -4 c -4 0 1085 7435 l -8 4 c -4 3 c -3 8 c 0 15 c 3 8 c 4 3 c
8 4 c 7 0 c 8 -4 c 11 -7 c 38 -38 c 0 53 c -4 0 1085 7510 l -8 4 c -4 4 c -3 8 c 0 15 c 3 7 c 4 4 c 8 4 c 7 0 c 8 -4 c 11 -8 c
38 -37 c 0 53 c -8 -3 1077 7631 l -3 -12 c 0 -7 c 3 -12 c 12 -7 c 19 -4 c 19 0 c 15 4 c 7 7 c 4 12 c 0 3 c -4 12 c -7 7 c -12 4 c
-3 0 c -12 -4 c -7 -7 c -4 -12 c 0 -3 c 4 -12 c 7 -7 c 12 -4 c 0 -250 1515 1418 l -7 -4 1482 1539 l -4 -12 c 0 -7 c 4 -11 c 11 -8 c
19 -4 c 19 0 c 15 4 c 8 8 c 3 11 c 0 4 c -3 11 c -8 8 c -11 3 c -4 0 c -11 -3 c -8 -8 c -4 -11 c 0 -4 c 4 -11 c 8 -8 c 11 -4 c
11 -4 1498 1614 l 7 -7 c 4 -11 c 0 -4 c -4 -12 c -7 -7 c -11 -4 c -4 0 c -12 4 c -7 7 c -4 12 c 0 4 c 4 11 c 7 7 c 16 4 c 18 0 c
19 -4 c 12 -7 c 3 -11 c 0 -8 c -3 -11 c -8 -4 c -4 8 1486 1652 l -11 11 c 79 0 c -7 -3 1482 1765 l -4 -12 c 0 -7 c 4 -12 c 11 -7 c
19 -4 c 19 0 c 15 4 c 8 7 c 3 12 c 0 3 c -3 12 c -8 7 c -11 4 c -4 0 c -11 -4 c -8 -7 c -4 -12 c 0 -3 c 4 -12 c 8 -7 c 11 -4 c
4 -3 1543 1799 l 3 3 c -3 4 c -4 -4 c -4 8 1486 1841 l -11 11 c 79 0 c -4 0 1490 1909 l -7 4 c -4 4 c -4 7 c 0 15 c 4 8 c 4 4 c
7 3 c 8 0 c 7 -3 c 12 -8 c 37 -38 c 0 53 c 11 -4 1498 2030 l 7 -7 c 4 -12 c 0 -4 c -4 -11 c -7 -7 c -11 -4 c -4 0 c -12 4 c -7 7 c
-4 11 c 0 4 c 4 12 c 7 7 c 16 4 c 18 0 c 19 -4 c 12 -7 c 3 -12 c 0 -7 c -3 -12 c -8 -3 c 0 -250 3321 4538 l -8 -4 3289 4659 l
-4 -12 c 0 -7 c 4 -12 c 12 -7 c 19 -4 c 18 0 c 16 4 c 7 7 c 4 12 c 0 4 c -4 11 c -7 8 c -12 3 c -4 0 c -11 -3 c -7 -8 c -4 -11 c
0 -4 c 4 -12 c 7 -7 c 11 -4 c 11 -4 3304 4734 l 8 -7 c 4 -12 c 0 -3 c -4 -12 c -8 -7 c -11 -4 c -4 0 c -11 4 c -8 7 c -4 12 c 0 3 c
4 12 c 8 7 c 15 4 c 19 0 c 19 -4 c 11 -7 c 4 -12 c 0 -7 c -4 -11 c -7 -4 c 0 42 3277 4768 l 31 -23 c 0 11 c 4 8 c 3 4 c 12 3 c 7 0 c
12 -3 c 7 -8 c 4 -11 c 0 -12 c -4 -11 c -4 -4 c -7 -3 c 80 -38 3277 4889 l 0 53 3277 4836 l 4 -3 3349 4919 l 4 3 c -4 4 c -4 -4 c
-8 -4 3289 4999 l -4 -11 c 0 -8 c 4 -11 c 12 -8 c 19 -4 c 18 0 c 16 4 c 7 8 c 4 11 c 0 4 c -4 11 c -7 8 c -12 3 c -4 0 c -11 -3 c
-7 -8 c -4 -11 c 0 -4 c 4 -11 c 7 -8 c 11 -4 c -8 -4 3289 5074 l -4 -11 c 0 -7 c 4 -12 c 12 -7 c 19 -4 c 18 0 c 16 4 c 7 7 c 4 12 c
0 3 c -4 12 c -7 7 c -12 4 c -4 0 c -11 -4 c -7 -7 c -4 -12 c 0 -3 c 4 -12 c 7 -7 c 11 -4 c 53 -38 3277 5139 l 0 56 c
80 0 3277 5139 l 0 -250 3736 1381 l -8 -4 3704 1502 l -4 -12 c 0 -7 c 4 -11 c 11 -8 c 19 -4 c 19 0 c 15 4 c 8 8 c 4 11 c 0 4 c
-4 11 c -8 8 c -11 3 c -4 0 c -11 -3 c -8 -8 c -4 -11 c 0 -4 c 4 -11 c 8 -8 c 11 -4 c 11 -4 3719 1577 l 8 -7 c 3 -11 c 0 -4 c
-3 -12 c -8 -7 c -11 -4 c -4 0 c -11 4 c -8 7 c -4 12 c 0 4 c 4 11 c 8 7 c 15 4 c 19 0 c 19 -4 c 11 -7 c 4 -11 c 0 -8 c -4 -11 c
-8 -4 c 53 -37 3692 1641 l 0 56 c 80 0 3692 1641 l -4 0 3711 1683 l -7 4 c -4 4 c -4 7 c 0 15 c 4 8 c 4 4 c 7 3 c 8 0 c 7 -3 c
12 -8 c 38 -38 c 0 53 c 4 -3 3764 1762 l 4 3 c -4 4 c -4 -4 c 0 -38 3692 1838 l 34 -4 c -4 4 c -3 12 c 0 11 c 3 11 c 8 8 c 11 4 c
8 0 c 11 -4 c 8 -8 c 4 -11 c 0 -11 c -4 -12 c -4 -4 c -7 -3 c 0 41 3692 1876 l 30 -22 c 0 11 c 4 8 c 4 3 c 11 4 c 8 0 c 11 -4 c
8 -7 c 4 -12 c 0 -11 c -4 -11 c -4 -4 c -7 -4 c 4 -12 3692 1963 l 8 -3 c 7 0 c 8 3 c 3 8 c 4 15 c 4 11 c 8 8 c 7 4 c 12 0 c 7 -4 c
4 -4 c 4 -11 c 0 -15 c -4 -12 c -4 -3 c -7 -4 c -12 0 c -7 4 c -8 7 c -4 11 c -4 16 c -3 7 c -8 4 c -7 0 c -8 -4 c -4 -11 c 0 -15 c
0 -250 3828 4129 l -7 -3 3795 4249 l -4 -12 c 0 -7 c 4 -12 c 11 -7 c 19 -4 c 19 0 c 15 4 c 8 7 c 3 12 c 0 4 c -3 11 c -8 7 c -11 4 c
-4 0 c -11 -4 c -8 -7 c -4 -11 c 0 -4 c 4 -12 c 8 -7 c 11 -4 c 12 -4 3810 4325 l 7 -7 c 4 -12 c 0 -3 c -4 -12 c -7 -7 c -12 -4 c
-3 0 c -12 4 c -7 7 c -4 12 c 0 3 c 4 12 c 7 7 c 15 4 c 19 0 c 19 -4 c 12 -7 c 3 -12 c 0 -7 c -3 -12 c -8 -3 c 53 -37 3784 4389 l
0 56 c 79 0 3784 4389 l 0 41 3784 4435 l 30 -22 c 0 11 c 4 7 c 4 4 c 11 4 c 8 0 c 11 -4 c 8 -7 c 3 -12 c 0 -11 c -3 -11 c -4 -4 c
-8 -4 c 4 -4 3856 4510 l 3 4 c -3 4 c -4 -4 c -7 -4 3795 4590 l -4 -12 c 0 -7 c 4 -11 c 11 -8 c 19 -4 c 19 0 c 15 4 c 8 8 c 3 11 c
0 4 c -3 11 c -8 8 c -11 3 c -4 0 c -11 -3 c -8 -8 c -4 -11 c 0 -4 c 4 -11 c 8 -8 c 11 -4 c -4 8 3799 4627 l -11 11 c 79 0 c
4 -11 3784 4714 l 11 -8 c 19 -3 c 11 0 c 19 3 c 12 8 c 3 11 c 0 8 c -3 11 c -12 8 c -19 4 c -11 0 c -19 -4 c -11 -8 c -4 -11 c
0 -8 c 0 -249 3988 1562 l -7 -4 3956 1683 l -4 -11 c 0 -7 c 4 -12 c 11 -7 c 19 -4 c 19 0 c 15 4 c 7 7 c 4 12 c 0 3 c -4 12 c -7 7 c
-11 4 c -4 0 c -12 -4 c -7 -7 c -4 -12 c 0 -3 c 4 -12 c 7 -7 c 12 -4 c 12 -4 3971 1759 l 7 -8 c 4 -11 c 0 -4 c -4 -11 c -7 -8 c
-12 -3 c -3 0 c -12 3 c -7 8 c -4 11 c 0 4 c 4 11 c 7 8 c 15 4 c 19 0 c 19 -4 c 11 -8 c 4 -11 c 0 -7 c -4 -12 c -7 -4 c
53 -38 3945 1823 l 0 57 c 79 0 3945 1823 l 0 -38 3945 1906 l 34 -3 c -4 3 c -4 12 c 0 11 c 4 11 c 8 8 c 11 4 c 8 0 c 11 -4 c 7 -8 c
4 -11 c 0 -11 c -4 -12 c -3 -3 c -8 -4 c 3 -4 4017 1944 l 4 4 c -4 4 c -3 -4 c 53 -38 3945 2012 l 0 57 c 79 0 3945 2012 l
12 -4 3971 2099 l 7 -7 c 4 -12 c 0 -3 c -4 -12 c -7 -7 c -12 -4 c -3 0 c -12 4 c -7 7 c -4 12 c 0 3 c 4 12 c 7 7 c 15 4 c 19 0 c
19 -4 c 11 -7 c 4 -12 c 0 -7 c -4 -12 c -7 -3 c 4 -11 3945 2148 l 11 -8 c 19 -4 c 11 0 c 19 4 c 11 8 c 4 11 c 0 8 c -4 11 c -11 8 c
-19 3 c -11 0 c -19 -3 c -11 -8 c -4 -11 c 0 -8 c 0 -249 4504 1819 l -8 -3 4472 1940 l -4 -12 c 0 -7 c 4 -12 c 11 -7 c 19 -4 c
19 0 c 15 4 c 8 7 c 4 12 c 0 3 c -4 12 c -8 7 c -11 4 c -4 0 c -11 -4 c -8 -7 c -3 -12 c 0 -3 c 3 -12 c 8 -7 c 11 -4 c
11 -4 4487 2016 l 8 -7 c 3 -12 c 0 -4 c -3 -11 c -8 -7 c -11 -4 c -4 0 c -11 4 c -8 7 c -4 11 c 0 4 c 4 12 c 8 7 c 15 4 c 19 0 c
19 -4 c 11 -7 c 4 -12 c 0 -7 c -4 -12 c -8 -3 c 0 -38 4460 2088 l 34 -4 c -3 4 c -4 11 c 0 12 c 4 11 c 7 8 c 11 3 c 8 0 c 11 -3 c
8 -8 c 4 -11 c 0 -12 c -4 -11 c -4 -4 c -7 -4 c -3 8 4475 2129 l -12 11 c 80 0 c 4 -4 4532 2201 l 4 4 c -4 4 c -4 -4 c
53 -38 4460 2269 l 0 57 c 80 0 4460 2269 l 80 -38 4460 2360 l 0 53 4460 2307 l 4 -11 4460 2401 l 8 -4 c 7 0 c 8 4 c 4 8 c 3 15 c
4 11 c 8 8 c 7 3 c 12 0 c 7 -3 c 4 -4 c 4 -11 c 0 -16 c -4 -11 c -4 -4 c -7 -3 c -12 0 c -7 3 c -8 8 c -4 11 c -3 15 c -4 8 c -8 4 c
-7 0 c -8 -4 c -4 -11 c 0 -16 c 0 -250 4633 1387 l -7 -4 4600 1508 l -4 -11 c 0 -8 c 4 -11 c 11 -8 c 19 -4 c 19 0 c 15 4 c 8 8 c
3 11 c 0 4 c -3 11 c -8 8 c -11 4 c -4 0 c -11 -4 c -8 -8 c -4 -11 c 0 -4 c 4 -11 c 8 -8 c 11 -4 c 12 -3 4615 1583 l 7 -8 c 4 -11 c
0 -4 c -4 -11 c -7 -8 c -12 -4 c -3 0 c -12 4 c -7 8 c -4 11 c 0 4 c 4 11 c 7 8 c 15 3 c 19 0 c 19 -3 c 12 -8 c 3 -11 c 0 -8 c
-3 -11 c -8 -4 c 0 -38 4589 1655 l 34 -3 c -4 3 c -4 12 c 0 11 c 4 11 c 8 8 c 11 4 c 8 0 c 11 -4 c 8 -8 c 3 -11 c 0 -11 c -3 -12 c
-4 -3 c -8 -4 c -4 0 4608 1689 l -8 4 c -3 4 c -4 7 c 0 15 c 4 8 c 3 4 c 8 4 c 8 0 c 7 -4 c 12 -8 c 37 -38 c 0 53 c 4 -4 4661 1769 l
3 4 c -3 3 c -4 -3 c 12 -4 4615 1848 l 7 -7 c 4 -12 c 0 -4 c -4 -11 c -7 -7 c -12 -4 c -3 0 c -12 4 c -7 7 c -4 11 c 0 4 c 4 12 c
7 7 c 15 4 c 19 0 c 19 -4 c 12 -7 c 3 -12 c 0 -7 c -3 -12 c -8 -3 c -7 -3 4600 1923 l -4 -12 c 0 -7 c 4 -12 c 11 -7 c 19 -4 c 19 0 c
15 4 c 8 7 c 3 12 c 0 4 c -3 11 c -8 7 c -11 4 c -4 0 c -11 -4 c -8 -7 c -4 -11 c 0 -4 c 4 -12 c 8 -7 c 11 -4 c 79 -38 4589 2003 l
0 53 4589 1950 l 0 -249 4779 1393 l -7 -4 4746 1514 l -4 -11 c 0 -8 c 4 -11 c 11 -7 c 19 -4 c 19 0 c 15 4 c 8 7 c 3 11 c 0 4 c
-3 12 c -8 7 c -11 4 c -4 0 c -11 -4 c -8 -7 c -4 -12 c 0 -4 c 4 -11 c 8 -7 c 11 -4 c 11 -4 4762 1590 l 7 -8 c 4 -11 c 0 -4 c
-4 -11 c -7 -8 c -11 -3 c -4 0 c -12 3 c -7 8 c -4 11 c 0 4 c 4 11 c 7 8 c 16 4 c 18 0 c 19 -4 c 12 -8 c 3 -11 c 0 -8 c -3 -11 c
-8 -4 c 0 -37 4735 1661 l 34 -4 c -4 4 c -3 11 c 0 11 c 3 12 c 8 7 c 11 4 c 8 0 c 11 -4 c 8 -7 c 3 -12 c 0 -11 c -3 -11 c -4 -4 c
-8 -4 c 53 -38 4735 1730 l 0 56 c 79 0 4735 1730 l 4 -4 4807 1775 l 3 4 c -3 4 c -4 -4 c -7 -4 4746 1854 l -4 -11 c 0 -7 c 4 -12 c
11 -7 c 19 -4 c 19 0 c 15 4 c 8 7 c 3 12 c 0 3 c -3 12 c -8 7 c -11 4 c -4 0 c -11 -4 c -8 -7 c -4 -12 c 0 -3 c 4 -12 c 8 -7 c
11 -4 c 0 -38 4735 1926 l 34 -4 c -4 4 c -3 12 c 0 11 c 3 11 c 8 8 c 11 4 c 8 0 c 11 -4 c 8 -8 c 3 -11 c 0 -11 c -3 -12 c -4 -4 c
-8 -3 c -7 -3 4746 2005 l -4 -12 c 0 -7 c 4 -12 c 11 -7 c 19 -4 c 19 0 c 15 4 c 8 7 c 3 12 c 0 4 c -3 11 c -8 7 c -11 4 c -4 0 c
-11 -4 c -8 -7 c -4 -11 c 0 -4 c 4 -12 c 8 -7 c 11 -4 c 0 -250 5266 1891 l -7 -4 5233 2012 l -4 -11 c 0 -8 c 4 -11 c 11 -8 c 19 -3 c
19 0 c 15 3 c 8 8 c 4 11 c 0 4 c -4 11 c -8 8 c -11 4 c -4 0 c -11 -4 c -8 -8 c -4 -11 c 0 -4 c 4 -11 c 8 -8 c 11 -3 c
11 -4 5249 2088 l 7 -8 c 4 -11 c 0 -4 c -4 -11 c -7 -8 c -11 -4 c -4 0 c -12 4 c -7 8 c -4 11 c 0 4 c 4 11 c 7 8 c 16 4 c 18 0 c
19 -4 c 12 -8 c 4 -11 c 0 -8 c -4 -11 c -8 -4 c -7 -4 5233 2163 l -4 -11 c 0 -7 c 4 -12 c 11 -7 c 19 -4 c 19 0 c 15 4 c 8 7 c 4 12 c
0 3 c -4 12 c -8 7 c -11 4 c -4 0 c -11 -4 c -8 -7 c -4 -12 c 0 -3 c 4 -12 c 8 -7 c 11 -4 c 4 -11 5222 2212 l 11 -8 c 19 -3 c 11 0 c
19 3 c 12 8 c 4 11 c 0 8 c -4 11 c -12 8 c -19 4 c -11 0 c -19 -4 c -11 -8 c -4 -11 c 0 -8 c 4 -4 5294 2273 l 4 4 c -4 4 c -4 -4 c
-4 0 5241 2307 l -7 4 c -4 3 c -4 8 c 0 15 c 4 8 c 4 3 c 7 4 c 8 0 c 7 -4 c 12 -7 c 38 -38 c 0 53 c 0 -38 5222 2424 l 34 -4 c -4 4 c
-3 12 c 0 11 c 3 11 c 8 8 c 11 4 c 8 0 c 11 -4 c 8 -8 c 4 -11 c 0 -11 c -4 -12 c -4 -4 c -8 -3 c 4 -11 5222 2477 l 11 -8 c 19 -4 c
11 0 c 19 4 c 12 8 c 4 11 c 0 7 c -4 12 c -12 7 c -19 4 c -11 0 c -19 -4 c -11 -7 c -4 -12 c 0 -7 c 0 -250 7112 1278 l
-8 -4 7080 1399 l -4 -11 c 0 -8 c 4 -11 c 11 -8 c 19 -3 c 19 0 c 15 3 c 8 8 c 4 11 c 0 4 c -4 11 c -8 8 c -11 4 c -4 0 c -11 -4 c
-8 -8 c -3 -11 c 0 -4 c 3 -11 c 8 -8 c 11 -3 c 11 -4 7095 1475 l 8 -8 c 3 -11 c 0 -4 c -3 -11 c -8 -8 c -11 -4 c -4 0 c -11 4 c
-8 8 c -4 11 c 0 4 c 4 11 c 8 8 c 15 4 c 19 0 c 19 -4 c 11 -8 c 4 -11 c 0 -8 c -4 -11 c -8 -4 c 4 -11 7068 1520 l 8 -4 c 7 0 c 8 4 c
4 7 c 3 15 c 4 12 c 8 7 c 7 4 c 12 0 c 7 -4 c 4 -4 c 4 -11 c 0 -15 c -4 -11 c -4 -4 c -7 -4 c -12 0 c -7 4 c -8 7 c -4 12 c -3 15 c
-4 7 c -8 4 c -7 0 c -8 -4 c -4 -11 c 0 -15 c -3 7 7083 1588 l -12 12 c 80 0 c 4 -4 7140 1660 l 4 4 c -4 4 c -4 -4 c
4 -12 7068 1713 l 11 -7 c 19 -4 c 12 0 c 19 4 c 11 7 c 4 12 c 0 7 c -4 12 c -11 7 c -19 4 c -12 0 c -19 -4 c -11 -7 c -4 -12 c
0 -7 c 4 -11 7068 1784 l 8 -4 c 7 0 c 8 4 c 4 8 c 3 15 c 4 11 c 8 8 c 7 3 c 12 0 c 7 -3 c 4 -4 c 4 -11 c 0 -16 c -4 -11 c -4 -4 c
-7 -3 c -12 0 c -7 3 c -8 8 c -4 11 c -3 15 c -4 8 c -8 4 c -7 0 c -8 -4 c -4 -11 c 0 -16 c 0 41 7068 1849 l 31 -22 c 0 11 c 3 8 c
4 3 c 11 4 c 8 0 c 11 -4 c 8 -7 c 4 -12 c 0 -11 c -4 -11 c -4 -4 c -7 -4 c 0 -249 7888 7019 l -8 -4 7856 7140 l -4 -11 c 0 -8 c
4 -11 c 12 -8 c 18 -3 c 19 0 c 15 3 c 8 8 c 4 11 c 0 4 c -4 11 c -8 8 c -11 4 c -4 0 c -11 -4 c -8 -8 c -3 -11 c 0 -4 c 3 -11 c
8 -8 c 11 -3 c 11 -4 7871 7216 l 8 -8 c 4 -11 c 0 -4 c -4 -11 c -8 -8 c -11 -3 c -4 0 c -11 3 c -8 8 c -4 11 c 0 4 c 4 11 c 8 8 c
15 4 c 19 0 c 19 -4 c 11 -8 c 4 -11 c 0 -8 c -4 -11 c -8 -4 c 4 -11 7844 7261 l 8 -4 c 7 0 c 8 4 c 4 7 c 3 15 c 4 12 c 8 7 c 7 4 c
12 0 c 7 -4 c 4 -4 c 4 -11 c 0 -15 c -4 -11 c -4 -4 c -7 -4 c -12 0 c -7 4 c -8 7 c -4 12 c -3 15 c -4 7 c -8 4 c -7 0 c -8 -4 c
-4 -11 c 0 -15 c 11 -4 7871 7367 l 8 -8 c 4 -11 c 0 -4 c -4 -11 c -8 -8 c -11 -3 c -4 0 c -11 3 c -8 8 c -4 11 c 0 4 c 4 11 c 8 8 c
15 4 c 19 0 c 19 -4 c 11 -8 c 4 -11 c 0 -7 c -4 -12 c -8 -4 c 4 -4 7916 7401 l 4 4 c -4 4 c -4 -4 c -8 -4 7856 7480 l -4 -11 c
0 -7 c 4 -12 c 12 -7 c 18 -4 c 19 0 c 15 4 c 8 7 c 4 12 c 0 3 c -4 12 c -8 7 c -11 4 c -4 0 c -11 -4 c -8 -7 c -3 -12 c 0 -3 c
3 -12 c 8 -7 c 11 -4 c 0 -38 7844 7552 l 34 -4 c -3 4 c -4 12 c 0 11 c 4 11 c 7 8 c 12 4 c 7 0 c 11 -4 c 8 -8 c 4 -11 c 0 -11 c
-4 -12 c -4 -4 c -7 -3 c 0 -38 7844 7628 l 34 -4 c -3 4 c -4 11 c 0 11 c 4 12 c 7 7 c 12 4 c 7 0 c 11 -4 c 8 -7 c 4 -12 c 0 -11 c
-4 -11 c -4 -4 c -7 -4 c 0 -249 8198 2426 l -7 -3 8165 2547 l -4 -12 c 0 -7 c 4 -12 c 11 -7 c 19 -4 c 19 0 c 15 4 c 8 7 c 3 12 c
0 4 c -3 11 c -8 7 c -11 4 c -4 0 c -11 -4 c -8 -7 c -4 -11 c 0 -4 c 4 -12 c 8 -7 c 11 -4 c 11 -4 8181 2623 l 7 -7 c 4 -12 c 0 -3 c
-4 -12 c -7 -7 c -11 -4 c -4 0 c -12 4 c -7 7 c -4 12 c 0 3 c 4 12 c 7 7 c 16 4 c 18 0 c 19 -4 c 12 -7 c 3 -12 c 0 -7 c -3 -12 c
-8 -3 c 11 -4 8181 2699 l 7 -8 c 4 -11 c 0 -4 c -4 -11 c -7 -8 c -11 -4 c -4 0 c -12 4 c -7 8 c -4 11 c 0 4 c 4 11 c 7 8 c 16 4 c
18 0 c 19 -4 c 12 -8 c 3 -11 c 0 -8 c -3 -11 c -8 -4 c 0 41 8154 2733 l 30 -22 c 0 11 c 4 7 c 4 4 c 11 4 c 8 0 c 11 -4 c 8 -7 c
3 -12 c 0 -11 c -3 -11 c -4 -4 c -8 -4 c 4 -4 8226 2808 l 3 4 c -3 4 c -4 -4 c 4 -11 8154 2861 l 11 -8 c 19 -4 c 11 0 c 19 4 c
12 8 c 3 11 c 0 8 c -3 11 c -12 8 c -19 3 c -11 0 c -19 -3 c -11 -8 c -4 -11 c 0 -8 c 0 41 8154 2922 l 30 -23 c 0 12 c 4 7 c 4 4 c
11 4 c 8 0 c 11 -4 c 8 -7 c 3 -12 c 0 -11 c -3 -11 c -4 -4 c -8 -4 c 79 -38 8154 3043 l 0 53 8154 2990 l 0 -249 8914 2842 l
80 -38 8870 2967 l 0 53 8870 2914 l 4 -12 8870 3013 l 11 -7 c 19 -4 c 12 0 c 18 4 c 12 7 c 4 12 c 0 7 c -4 11 c -12 8 c -18 4 c
-12 0 c -19 -4 c -11 -8 c -4 -11 c 0 -7 c 4 -11 8870 3088 l 11 -8 c 19 -4 c 12 0 c 18 4 c 12 8 c 4 11 c 0 8 c -4 11 c -12 8 c
-18 3 c -12 0 c -19 -3 c -11 -8 c -4 -11 c 0 -8 c 4 -12 8870 3164 l 11 -7 c 19 -4 c 12 0 c 18 4 c 12 7 c 4 12 c 0 7 c -4 12 c
-12 7 c -18 4 c -12 0 c -19 -4 c -11 -7 c -4 -12 c 0 -7 c 4 -4 8942 3224 l 4 4 c -4 4 c -4 -4 c 4 -11 8870 3273 l 8 -4 c 7 0 c 8 4 c
3 8 c 4 15 c 4 11 c 8 8 c 7 3 c 11 0 c 8 -3 c 4 -4 c 4 -12 c 0 -15 c -4 -11 c -4 -4 c -8 -4 c -11 0 c -7 4 c -8 8 c -4 11 c -4 15 c
-3 8 c -8 4 c -7 0 c -8 -4 c -4 -12 c 0 -15 c 4 -12 8870 3353 l 11 -7 c 19 -4 c 12 0 c 18 4 c 12 7 c 4 12 c 0 7 c -4 12 c -12 7 c
-18 4 c -12 0 c -19 -4 c -11 -7 c -4 -12 c 0 -7 c 53 -37 8870 3443 l 0 56 c 80 0 8870 3443 l 0 -249 9107 1390 l 80 -38 9063 1515 l
0 53 9063 1462 l 4 -11 9063 1560 l 12 -7 c 18 -4 c 12 0 c 19 4 c 11 7 c 4 11 c 0 8 c -4 11 c -11 8 c -19 4 c -12 0 c -18 -4 c
-12 -8 c -4 -11 c 0 -8 c 4 -11 9063 1636 l 12 -8 c 18 -4 c 12 0 c 19 4 c 11 8 c 4 11 c 0 8 c -4 11 c -11 7 c -19 4 c -12 0 c
-18 -4 c -12 -7 c -4 -11 c 0 -8 c -3 0 9082 1693 l -8 4 c -4 3 c -4 8 c 0 15 c 4 8 c 4 3 c 8 4 c 7 0 c 8 -4 c 11 -7 c 38 -38 c
0 53 c 4 -4 9135 1772 l 4 4 c -4 4 c -4 -4 c 4 -11 9063 1821 l 8 -4 c 7 0 c 8 4 c 4 7 c 3 16 c 4 11 c 8 7 c 7 4 c 12 0 c 7 -4 c
4 -3 c 4 -12 c 0 -15 c -4 -11 c -4 -4 c -7 -4 c -12 0 c -7 4 c -8 8 c -4 11 c -3 15 c -4 8 c -8 3 c -7 0 c -8 -3 c -4 -12 c 0 -15 c
4 -12 9063 1897 l 8 -3 c 7 0 c 8 3 c 4 8 c 3 15 c 4 12 c 8 7 c 7 4 c 12 0 c 7 -4 c 4 -4 c 4 -11 c 0 -15 c -4 -12 c -4 -3 c -7 -4 c
-12 0 c -7 4 c -8 7 c -4 12 c -3 15 c -4 7 c -8 4 c -7 0 c -8 -4 c -4 -11 c 0 -15 c 0 42 9063 1961 l 31 -23 c 0 11 c 3 8 c 4 4 c
12 3 c 7 0 c 11 -3 c 8 -8 c 4 -11 c 0 -12 c -4 -11 c -4 -4 c -7 -3 c
showpage PGPLOT restore
 
%%Trailer
%%DocumentFonts: 
%%Pages: 1
%%EOF
