%!PS-Adobe-3.0 EPSF-3.0
%%For: tab
%%Title: PGPLOT PostScript plot
%%Creator: PGPLOT
%%CreationDate: 20-Apr-1995 16:45
%%BoundingBox: 25 18 587 774
%%DocumentFonts: (atend)
%%LanguageLevel: 1
%%Orientation: Landscape
%%Pages: (atend)
%%EndComments
%%BeginProlog
/l {moveto rlineto currentpoint stroke moveto} bind def
/c {rlineto currentpoint stroke moveto} bind def
/d {moveto 0 0 rlineto currentpoint stroke moveto} bind def
/SLW {5 mul setlinewidth} bind def
/SCF /pop load def
/BP {newpath moveto} bind def
/LP /rlineto load def
/EP {rlineto closepath eofill} bind def
/MB {gsave translate MFAC dup scale 1 setlinewidth 2 setlinecap 0 setlinejoin newpath} bind def
/ME /grestore load def
/C {0 360 arc stroke} bind def
/FC {0 360 arc fill} bind def
%%EndProlog
 
%%Page: 1 1
%%BeginPageSetup
/PGPLOT save def
0.072 0.072 scale
8150 250 translate 90 rotate
1 setlinejoin 1 setlinecap 1 SLW 1 SCF
%%EndPageSetup
0.000 setgray 1 SLW 8939 0 780 780 l 0 6239 c -8939 0 c 0 -6239 c 0 -45 1116 780 l 0 -45 1554 780 l 0 -45 1991 780 l
0 -45 2428 780 l 0 -90 2865 780 l 0 -45 3302 780 l 0 -45 3739 780 l 0 -45 4176 780 l 0 -45 4613 780 l 0 -90 5051 780 l
0 -45 5488 780 l 0 -45 5925 780 l 0 -45 6362 780 l 0 -45 6799 780 l 0 -90 7236 780 l 0 -45 7673 780 l 0 -45 8110 780 l
0 -45 8548 780 l 0 -45 8985 780 l 0 -90 9422 780 l 0 -45 1116 7064 l 0 -45 1554 7064 l 0 -45 1991 7064 l 0 -45 2428 7064 l
0 -90 2865 7109 l 0 -45 3302 7064 l 0 -45 3739 7064 l 0 -45 4176 7064 l 0 -45 4613 7064 l 0 -90 5051 7109 l 0 -45 5488 7064 l
0 -45 5925 7064 l 0 -45 6362 7064 l 0 -45 6799 7064 l 0 -90 7236 7109 l 0 -45 7673 7064 l 0 -45 8110 7064 l 0 -45 8548 7064 l
0 -45 8985 7064 l 0 -90 9422 7109 l -60 0 2775 672 l -6 -54 c 6 6 c 18 6 c 18 0 c 18 -6 c 12 -12 c 6 -18 c 0 -12 c -6 -18 c
-12 -12 c -18 -6 c -18 0 c -18 6 c -6 6 c -6 12 c -18 -6 2859 672 l -12 -18 c -6 -30 c 0 -18 c 6 -30 c 12 -18 c 18 -6 c 12 0 c
18 6 c 12 18 c 6 30 c 0 18 c -6 30 c -12 18 c -18 6 c -12 0 c -18 -6 2979 672 l -12 -18 c -6 -30 c 0 -18 c 6 -30 c 12 -18 c 18 -6 c
12 0 c 18 6 c 12 18 c 6 30 c 0 18 c -6 30 c -12 18 c -18 6 c -12 0 c 12 6 4847 648 l 18 18 c 0 -126 c -18 -6 4985 672 l -12 -18 c
-6 -30 c 0 -18 c 6 -30 c 12 -18 c 18 -6 c 12 0 c 18 6 c 12 18 c 6 30 c 0 18 c -6 30 c -12 18 c -18 6 c -12 0 c -18 -6 5105 672 l
-12 -18 c -6 -30 c 0 -18 c 6 -30 c 12 -18 c 18 -6 c 12 0 c 18 6 c 12 18 c 6 30 c 0 18 c -6 30 c -12 18 c -18 6 c -12 0 c
-18 -6 5225 672 l -12 -18 c -6 -30 c 0 -18 c 6 -30 c 12 -18 c 18 -6 c 12 0 c 18 6 c 12 18 c 6 30 c 0 18 c -6 30 c -12 18 c -18 6 c
-12 0 c 12 6 7032 648 l 18 18 c 0 -126 c -60 0 7206 672 l -6 -54 c 6 6 c 18 6 c 18 0 c 18 -6 c 12 -12 c 6 -18 c 0 -12 c -6 -18 c
-12 -12 c -18 -6 c -18 0 c -18 6 c -6 6 c -6 12 c -18 -6 7290 672 l -12 -18 c -6 -30 c 0 -18 c 6 -30 c 12 -18 c 18 -6 c 12 0 c
18 6 c 12 18 c 6 30 c 0 18 c -6 30 c -12 18 c -18 6 c -12 0 c -18 -6 7410 672 l -12 -18 c -6 -30 c 0 -18 c 6 -30 c 12 -18 c 18 -6 c
12 0 c 18 6 c 12 18 c 6 30 c 0 18 c -6 30 c -12 18 c -18 6 c -12 0 c 0 6 9206 642 l 6 12 c 6 6 c 12 6 c 24 0 c 12 -6 c 6 -6 c
6 -12 c 0 -12 c -6 -12 c -12 -18 c -60 -60 c 84 0 c -18 -6 9356 672 l -12 -18 c -6 -30 c 0 -18 c 6 -30 c 12 -18 c 18 -6 c 12 0 c
18 6 c 12 18 c 6 30 c 0 18 c -6 30 c -12 18 c -18 6 c -12 0 c -18 -6 9476 672 l -12 -18 c -6 -30 c 0 -18 c 6 -30 c 12 -18 c 18 -6 c
12 0 c 18 6 c 12 18 c 6 30 c 0 18 c -6 30 c -12 18 c -18 6 c -12 0 c -18 -6 9596 672 l -12 -18 c -6 -30 c 0 -18 c 6 -30 c 12 -18 c
18 -6 c 12 0 c 18 6 c 12 18 c 6 30 c 0 18 c -6 30 c -12 18 c -18 6 c -12 0 c -90 0 780 780 l -45 0 780 1711 l -90 0 780 2642 l
-45 0 780 3574 l -90 0 780 4505 l -45 0 780 5436 l -90 0 780 6367 l -90 0 9809 780 l -45 0 9764 1711 l -90 0 9809 2642 l
-45 0 9764 3574 l -90 0 9809 4505 l -45 0 9764 5436 l -90 0 9809 6367 l 6 -18 517 774 l 18 -12 c 30 -6 c 18 0 c 30 6 c 18 12 c
6 18 c 0 12 c -6 18 c -18 12 c -30 6 c -18 0 c -30 -6 c -18 -12 c -6 -18 c 0 -12 c -6 0 547 2384 l -12 6 c -6 6 c -6 12 c 0 24 c
6 12 c 6 6 c 12 6 c 12 0 c 12 -6 c 18 -12 c 60 -60 c 0 84 c 84 84 547 2504 l 84 -84 547 2588 l -6 12 541 2648 l -18 18 c 126 0 c
6 -18 517 2786 l 18 -12 c 30 -6 c 18 0 c 30 6 c 18 12 c 6 18 c 0 12 c -6 18 c -18 12 c -30 6 c -18 0 c -30 -6 c -18 -12 c -6 -18 c
0 -12 c 63 -45 453 2911 l 0 67 c 94 0 453 2911 l 84 -60 517 4301 l 0 90 c 126 0 517 4301 l 84 84 547 4367 l 84 -84 547 4451 l
-6 12 541 4511 l -18 18 c 126 0 c 6 -18 517 4649 l 18 -12 c 30 -6 c 18 0 c 30 6 c 18 12 c 6 18 c 0 12 c -6 18 c -18 12 c -30 6 c
-18 0 c -30 -6 c -18 -12 c -6 -18 c 0 -12 c 63 -45 453 4773 l 0 68 c 94 0 453 4773 l -12 -6 535 6181 l -6 -18 c 0 -12 c 6 -18 c
18 -12 c 30 -6 c 30 0 c 24 6 c 12 12 c 6 18 c 0 6 c -6 18 c -12 12 c -18 6 c -6 0 c -18 -6 c -12 -12 c -6 -18 c 0 -6 c 6 -18 c
12 -12 c 18 -6 c 84 84 547 6229 l 84 -84 547 6313 l -6 12 541 6373 l -18 18 c 126 0 c 6 -18 517 6511 l 18 -12 c 30 -6 c 18 0 c
30 6 c 18 12 c 6 18 c 0 12 c -6 18 c -18 12 c -30 6 c -18 0 c -30 -6 c -18 -12 c -6 -18 c 0 -12 c 63 -45 453 6636 l 0 67 c
94 0 453 6636 l
4 0 780 793 l 5 0 c 4 0 c 4 0 c 5 0 c 4 0 c 4 0 c 5 1 c 4 1 c 5 -1 c 4 -1 c 4 -1 c 5 0 c 4 1 c 4 0 c 5 -1 c 4 0 c 5 0 c 4 0 c 4 0 c
5 0 c 4 -1 c 4 1 c 5 0 c 4 0 c 5 4 c 4 7 c 4 5 c 5 -2 c 4 -4 c 4 -1 c 5 -1 c 4 -5 c 5 -2 c 4 0 c 4 1 c 5 -1 c 4 1 c 4 1 c 5 -1 c
4 -1 c 4 -1 c 5 -1 c 4 0 c 5 0 c 4 1 c 4 0 c 5 0 c 4 5 c 4 3 c 5 -1 c 4 -5 c 5 -2 c 4 -1 c 4 0 c 5 0 c 4 0 c 4 0 c 5 1 c 4 0 c 5 1 c
4 1 c 4 -1 c 5 -1 c 4 -1 c 4 0 c 5 1 c 4 0 c 5 0 c 4 0 c 4 -1 c 5 1 c 4 0 c 4 0 c 5 0 c 4 0 c 4 0 c 5 0 c 4 0 c 5 0 c 4 0 c 4 0 c
5 1 c 4 -13 c 4 0 c 5 19 c 4 -5 c 5 -2 c 4 0 c 4 1 c 5 5 c 4 2 c 4 -2 c 5 -4 c 4 1 c 5 3 c 4 9 c 4 42 c 5 119 c 4 47 c 4 -68 c
5 -126 c 4 -25 c 5 1 c 4 1 c 4 -1 c 5 -4 c 4 -1 c 4 0 c 5 0 c 4 1 c 4 0 c 5 0 c 4 -1 c 5 0 c 4 1 c 4 -1 c 5 0 c 4 2 c 4 -1 c 5 0 c
4 -1 c 5 0 c 4 0 c 4 -1 c 5 0 c 4 0 c 4 0 c 5 0 c 4 1 c 5 0 c 4 0 c 4 0 c 5 0 c 4 -1 c 4 0 c 5 0 c 4 1 c 5 1 c 4 0 c 4 -1 c 5 0 c
4 0 c 4 0 c 5 1 c 4 0 c 4 4 c 5 4 c 4 0 c 5 -5 c 4 -2 c 4 3 c 5 13 c 4 70 c 4 281 c 5 148 c 4 -115 c 5 -305 c 4 -88 c 4 -6 c 5 -1 c
4 -1 c 4 0 c 5 0 c 4 0 c 5 2 c 4 0 c 4 0 c 5 -1 c 4 1 c 4 1 c 5 -2 c 4 -2 c 4 0 c 5 0 c 4 0 c 5 1 c 4 3 c 4 15 c 5 84 c 4 76 c
4 -7 c 5 -108 c 4 -58 c 5 -4 c 4 2 c 4 8 c 5 2 c 4 -3 c 4 -8 c 5 -3 c 4 0 c 5 0 c 4 0 c 4 0 c 5 0 c 4 0 c 4 -1 c 5 0 c 4 0 c 5 0 c
4 1 c 4 0 c 5 0 c 4 0 c 4 0 c 5 0 c 4 -1 c 4 1 c 5 -1 c 4 0 c 5 0 c 4 0 c 4 1 c 5 0 c 4 0 c 4 0 c 5 0 c 4 0 c 5 0 c 4 0 c 4 0 c
5 0 c 4 3 c 4 14 c 5 40 c 4 8 c 5 -22 c 4 -34 c 4 5 c 5 59 c 4 173 c 4 74 c 5 -95 c 4 -173 c 5 -47 c 4 -3 c 4 0 c 5 -1 c 4 0 c
4 -1 c 5 0 c 4 0 c 4 0 c 5 1 c 4 0 c 5 -1 c 4 0 c 4 0 c 5 0 c 4 1 c 4 0 c 5 0 c 4 -1 c 5 0 c 4 1 c 4 0 c 5 1 c 4 0 c 4 2 c 5 4 c
4 26 c 5 170 c 4 360 c 4 105 c 5 -250 c 4 -326 c 4 -81 c 5 -7 c 4 -3 c 5 0 c 4 0 c 4 1 c 5 -1 c 4 0 c 4 0 c 5 -1 c 4 -1 c 4 0 c
5 -1 c 4 1 c 5 0 c 4 0 c 4 1 c 5 -1 c 4 0 c 4 0 c 5 0 c 4 0 c 5 0 c 4 0 c 4 0 c 5 0 c 4 0 c 4 0 c 5 2 c 4 3 c 5 1 c 4 -2 c 4 -3 c
5 -1 c 4 1 c 4 2 c 5 0 c 4 -2 c 5 -1 c 4 -1 c 4 0 c 5 1 c 4 0 c 4 -1 c 5 0 c 4 1 c 4 0 c 5 0 c 4 0 c 5 0 c 4 0 c 4 -1 c 5 1 c 4 1 c
4 0 c 5 0 c 4 -1 c 5 1 c 4 0 c 4 0 c 5 -2 c 4 0 c 4 0 c 5 1 c 4 -1 c 5 0 c 4 0 c 4 1 c 5 0 c 4 0 c 4 0 c 5 3 c 4 14 c 4 24 c 5 5 c
4 -21 c 5 -21 c 4 -4 c 4 0 c 5 -1 c 4 0 c 4 0 c 5 0 c 4 0 c 5 0 c 4 0 c 4 0 c 5 0 c 4 0 c 4 0 c 5 0 c 4 0 c 5 0 c 4 0 c 4 0 c 5 0 c
4 0 c 4 0 c 5 1 c 4 0 c 5 1 c 4 -1 c 4 -1 c 5 0 c 4 0 c 4 0 c 5 0 c 4 0 c 4 0 c 5 0 c 4 2 c 5 1 c 4 -1 c 4 -1 c 5 -1 c 4 0 c 4 0 c
5 0 c 4 0 c 5 0 c 4 0 c 4 0 c 5 1 c 4 0 c 4 0 c 5 1 c 4 0 c 5 -1 c 4 0 c 4 -1 c 5 0 c 4 0 c 4 0 c 5 0 c 4 1 c 5 0 c 4 0 c 4 -1 c
5 1 c 4 0 c 4 0 c 5 0 c 4 1 c 4 2 c 5 8 c 4 5 c 5 -1 c 4 -10 c 4 -4 c 5 -1 c 4 0 c 4 1 c 5 0 c 4 0 c 5 0 c 4 0 c 4 2 c 5 5 c 4 10 c
4 0 c 5 -6 c 4 -7 c 5 0 c 4 2 c 4 2 c 5 7 c 4 34 c 4 292 c 5 1361 c 4 875 c 5 -282 c 4 -1549 c 4 -647 c 5 -37 c 4 -18 c 4 -24 c
5 -14 c 4 -2 c 4 -1 c 5 0 c 4 2 c 5 13 c 4 90 c 4 61 c 5 -13 c 4 -110 c 4 -42 c 5 -1 c 4 -1 c 5 0 c 4 1 c 4 0 c 5 -1 c 4 0 c 4 1 c
5 18 c 4 44 c 5 6 c 4 -29 c 4 -37 c 5 -5 c 4 0 c 4 0 c 5 0 c 4 0 c 5 0 c 4 0 c 4 1 c 5 0 c 4 0 c 4 0 c 5 0 c 4 0 c 4 0 c 5 -1 c
4 0 c 5 0 c 4 -1 c 4 0 c 5 2 c 4 12 c 4 19 c 5 0 c 4 -19 c 5 -13 c 4 -1 c 4 0 c 5 0 c 4 0 c 4 1 c 5 2 c 4 10 c 5 31 c 4 21 c 4 -10 c
5 -34 c 4 -17 c 4 -3 c 5 0 c 4 0 c 4 0 c 5 0 c 4 1 c 5 0 c 4 2 c 4 1 c 5 -1 c 4 -2 c 4 -2 c 5 0 c 4 0 c 5 1 c 4 0 c 4 0 c 5 0 c
4 0 c 4 0 c 5 5 c 4 5 c 5 -2 c 4 -6 c 4 -2 c 5 0 c 4 0 c 4 2 c 5 5 c 4 1 c 5 -2 c 4 -3 c 4 -1 c 5 1 c 4 0 c 4 -2 c 5 -2 c 4 0 c
4 1 c 5 1 c 4 10 c 5 45 c 4 17 c 4 -20 c 5 -45 c 4 -7 c 4 -1 c 5 0 c 4 0 c 5 -1 c 4 1 c 4 0 c 5 0 c 4 1 c 4 2 c 5 5 c 4 1 c 5 -2 c
4 -5 c 4 -2 c 5 1 c 4 0 c 4 1 c 5 12 c 4 91 c 5 66 c 4 -5 c 4 -110 c 5 -49 c 4 -4 c 4 -2 c 5 0 c 4 -1 c 4 0 c 5 1 c 4 1 c 5 -1 c
4 0 c 4 0 c 5 0 c 4 0 c 4 0 c 5 -1 c 4 2 c 5 5 c 4 1 c 4 -3 c 5 -4 c 4 0 c 4 0 c 5 0 c 4 0 c 5 1 c 4 16 c 4 21 c 5 3 c 4 -23 c
4 -16 c 5 3 c 4 10 c 5 2 c 4 -7 c 4 -9 c 5 -2 c 4 1 c 4 0 c 5 2 c 4 0 c 4 -1 c 5 -1 c 4 -1 c 5 0 c 4 0 c 4 0 c 5 0 c 4 0 c 4 0 c
5 0 c 4 0 c 5 0 c 4 0 c 4 0 c 5 0 c 4 0 c 4 0 c 5 0 c 4 0 c 5 0 c 4 0 c 4 0 c 5 -1 c 4 1 c 4 0 c 5 0 c 4 -1 c 4 1 c 5 -1 c 4 0 c
5 1 c 4 1 c 4 2 c 5 -1 c 4 -2 c 4 -1 c 5 0 c 4 0 c 5 1 c 4 4 c 4 2 c 5 -1 c 4 -4 c 4 -2 c 5 0 c 4 0 c 5 0 c 4 0 c 4 1 c 5 5 c 4 66 c
4 109 c 5 15 c 4 -87 c 5 -99 c 4 -9 c 4 0 c 5 -1 c 4 0 c 4 0 c 5 0 c 4 0 c 4 0 c 5 0 c 4 -1 c 5 0 c 4 1 c 4 -1 c 5 0 c 4 0 c 4 0 c
5 1 c 4 0 c 5 0 c 4 -1 c 4 0 c 5 0 c 4 1 c 4 1 c 5 0 c 4 0 c 5 -1 c 4 -1 c 4 0 c 5 0 c 4 0 c 4 0 c 5 0 c 4 1 c 5 2 c 4 1 c 4 -1 c
5 -2 c 4 0 c 4 -1 c 5 1 c 4 0 c 4 -1 c 5 0 c 4 0 c 5 0 c 4 0 c 4 0 c 5 0 c 4 0 c 4 1 c 5 0 c 4 0 c 5 0 c 4 0 c 4 0 c 5 0 c 4 0 c
4 0 c 5 0 c 4 0 c 5 -1 c 4 1 c 4 0 c 5 0 c 4 0 c 4 0 c 5 0 c 4 0 c 5 0 c 4 1 c 4 0 c 5 0 c 4 0 c 4 0 c 5 5 c 4 15 c 4 4 c 5 -10 c
4 -13 c 5 -1 c 4 -1 c 4 0 c 5 1 c 4 1 c 4 0 c 5 1 c 4 9 c 5 53 c 4 33 c 4 -11 c 5 -63 c 4 -22 c 4 -1 c 5 1 c 4 8 c 5 65 c 4 67 c
4 -1 c 5 -81 c 4 -56 c 4 -3 c 5 0 c 4 4 c 5 1 c 4 0 c 4 -4 c 5 -1 c 4 0 c 4 0 c 5 -1 c 4 0 c 4 -1 c 5 1 c 4 0 c 5 0 c 4 0 c 4 0 c
5 0 c 4 0 c 4 1 c 5 0 c 4 0 c 5 -1 c 4 0 c 4 -1 c 5 1 c 4 0 c 4 0 c 5 0 c 4 0 c 5 0 c 4 0 c 4 0 c 5 1 c 4 0 c 4 1 c 5 0 c 4 -1 c
4 0 c 5 -1 c 4 0 c 5 0 c 4 0 c 4 0 c 5 0 c 4 1 c 4 0 c 5 0 c 4 0 c 5 0 c 4 0 c 4 0 c 5 -1 c 4 1 c 4 0 c 5 0 c 4 -1 c 5 0 c 4 0 c
4 0 c 5 0 c 4 0 c 4 0 c 5 0 c 4 0 c 5 3 c 4 3 c 4 1 c 5 -4 c 4 -3 c 4 0 c 5 0 c 4 0 c 4 0 c 5 0 c 4 0 c 5 0 c 4 0 c 4 0 c 5 0 c
4 0 c 4 0 c 5 1 c 4 0 c 5 1 c 4 0 c 4 -1 c 5 0 c 4 1 c 4 0 c 5 0 c 4 -2 c 5 0 c 4 1 c 4 0 c 5 0 c 4 -1 c 4 0 c 5 0 c 4 1 c 5 0 c
4 -1 c 4 0 c 5 0 c 4 0 c 4 0 c 5 1 c 4 0 c 4 0 c 5 -1 c 4 0 c 5 0 c 4 0 c 4 1 c 5 0 c 4 0 c 4 0 c 5 0 c 4 0 c 5 -1 c 4 1 c 4 -1 c
5 0 c 4 0 c 4 0 c 5 1 c 4 0 c 5 0 c 4 -1 c 4 0 c 5 0 c 4 0 c 4 0 c 5 0 c 4 3 c 5 3 c 4 0 c 4 -4 c 5 -2 c 4 0 c 4 0 c 5 -1 c 4 1 c
4 0 c 5 0 c 4 0 c 5 1 c 4 0 c 4 0 c 5 0 c 4 0 c 4 0 c 5 1 c 4 0 c 5 0 c 4 0 c 4 0 c 5 0 c 4 0 c 4 0 c 5 0 c 4 0 c 5 0 c 4 0 c 4 0 c
5 1 c 4 0 c 4 0 c 5 0 c 4 0 c 5 0 c 4 0 c 4 0 c 5 0 c 4 0 c 4 0 c 5 1 c 4 0 c 4 1 c 5 3 c 4 19 c 5 13 c 4 -4 c 4 -21 c 5 -9 c 4 0 c
4 0 c 5 0 c 4 1 c 5 0 c 4 1 c 4 -20 c 5 22 c 4 2 c 4 0 c 5 1 c 4 0 c 5 2 c 4 2 c 4 4 c 5 0 c 4 0 c 4 1 c 5 7 c 4 6 c 4 5 c 5 11 c
4 25 c 5 51 c 4 298 c 4 2830 c 5 2773 c 4 -15 c 4 26 c 5 -3186 c 4 -2486 c 5 -256 c 4 -41 c 4 -15 c 5 -10 c 4 -9 c 4 -6 c 5 -3 c
4 -2 c 5 -2 c 4 0 c 4 -3 c 5 1 c 4 29 c 4 75 c 5 27 c 4 -37 c 5 -79 c 4 -23 c 4 -1 c 5 -2 c 4 0 c 4 0 c 5 0 c 4 -1 c 4 0 c 5 5 c
4 19 c 5 22 c 4 40 c 4 35 c 5 1 c 4 -56 c 4 -55 c 5 -9 c 4 0 c 5 0 c 4 -2 c 4 -2 c 5 -1 c 4 0 c 4 0 c 5 0 c 4 -1 c 5 0 c 4 0 c 4 0 c
5 0 c 4 0 c 4 0 c 5 0 c 4 0 c 5 0 c 4 2 c 4 2 c 5 0 c 4 -1 c 4 -1 c 5 0 c 4 1 c 4 -1 c 5 0 c 4 1 c 5 2 c 4 1 c 4 1 c 5 4 c 4 20 c
4 115 c 5 202 c 4 76 c 5 -123 c 4 -188 c 4 -4 c 5 711 c 4 2342 c 4 1399 c 5 -413 c 4 -2388 c 5 -1172 c 4 -381 c 4 -148 c 5 -33 c
4 -10 c 4 -4 c 5 -3 c 4 -2 c 5 0 c 4 3 c 4 34 c 5 36 c 4 3 c 4 -44 c 5 -31 c 4 -3 c 4 1 c 5 0 c 4 -3 c 5 -2 c 4 -1 c 4 -1 c 5 0 c
4 1 c 4 -1 c 5 0 c 4 -1 c 5 0 c 4 0 c 4 0 c 5 0 c 4 0 c 4 0 c 5 4 c 4 33 c 5 38 c 4 3 c 4 -39 c 5 -33 c 4 -6 c 4 0 c 5 0 c 4 0 c
4 0 c 5 -1 c 4 0 c 5 0 c 4 0 c 4 0 c 5 0 c 4 0 c 4 0 c 5 0 c 4 -1 c 5 0 c 4 0 c 4 0 c 5 0 c 4 0 c 4 1 c 5 1 c 4 4 c 5 1 c 4 -20 c
4 15 c 5 -1 c 4 -1 c 4 0 c 5 0 c 4 0 c 5 0 c 4 0 c 4 1 c 5 -1 c 4 0 c 4 0 c 5 0 c 4 -1 c 4 0 c 5 0 c 4 0 c 5 0 c 4 0 c 4 0 c 5 0 c
4 0 c 4 0 c 5 0 c 4 2 c 5 6 c 4 2 c 4 -3 c 5 -3 c 4 24 c 4 63 c 5 21 c 4 -30 c 5 -61 c 4 -19 c 4 -2 c 5 1 c 4 0 c 4 -1 c 5 0 c 4 1 c
5 0 c 4 1 c 4 0 c 5 -1 c 4 0 c 4 0 c 5 0 c 4 0 c 4 3 c 5 1 c 4 -1 c 5 -2 c 4 -2 c 4 0 c 5 0 c 4 1 c 4 -1 c 5 0 c 4 0 c 5 0 c 4 0 c
4 0 c 5 0 c 4 1 c 4 1 c 5 1 c 4 0 c 5 -1 c 4 -2 c 4 0 c 5 0 c 4 0 c 4 0 c 5 0 c 4 0 c 5 0 c 4 0 c 4 1 c 5 -1 c 4 0 c 4 0 c 5 0 c
4 1 c 4 2 c 5 1 c 4 -1 c 5 -3 c 4 0 c 4 1 c 5 0 c 4 0 c 4 0 c 5 -1 c 4 0 c 5 0 c 4 1 c 4 -1 c 5 0 c 4 0 c 4 0 c 5 0 c 4 0 c 5 0 c
4 0 c 4 1 c 5 0 c 4 0 c 4 1 c 5 -1 c 4 0 c 5 0 c 4 -1 c 4 0 c 5 0 c 4 0 c 4 0 c 5 0 c 4 0 c 4 0 c 5 0 c 4 0 c 5 1 c 4 -1 c 4 0 c
5 0 c 4 0 c 4 0 c 5 1 c 4 0 c 5 0 c 4 0 c 4 1 c 5 0 c 4 1 c 4 8 c 5 47 c 4 98 c 5 38 c 4 -47 c 4 -105 c 5 -38 c 4 -1 c 4 0 c 5 0 c
4 -1 c 4 0 c 5 -1 c 4 0 c 5 2 c 4 15 c 4 43 c 5 15 c 4 -14 c 4 -38 c 5 12 c 4 223 c 5 461 c 4 218 c 4 -267 c 5 -474 c 4 -165 c
4 -23 c 5 -3 c 4 -2 c 5 -2 c 4 0 c 4 0 c 5 -1 c 4 0 c 4 0 c 5 0 c 4 -1 c 5 0 c 4 1 c 4 -1 c 5 0 c 4 -1 c 4 1 c 5 0 c 4 0 c 4 1 c
5 0 c 4 -1 c 5 0 c 4 1 c 4 5 c 5 5 c 4 1 c 4 -6 c 5 -5 c 4 -1 c 5 1 c 4 0 c 4 0 c 5 -2 c 4 1 c 4 0 c 5 0 c 4 0 c 5 0 c 4 0 c 4 0 c
5 -1 c 4 1 c 4 -12 c 5 11 c 4 1 c 5 0 c 4 0 c 4 0 c 5 0 c 4 2 c 4 11 c 5 9 c 4 -1 c 4 -11 c 5 -7 c 4 3 c 5 6 c 4 3 c 4 -5 c 5 -7 c
4 -2 c 4 0 c 5 0 c 4 0 c 5 0 c 4 0 c 4 0 c 5 0 c 4 0 c 4 1 c 5 2 c 4 38 c 5 138 c 4 66 c 4 -30 c 5 -143 c 4 -67 c 4 -5 c 5 0 c
4 -1 c 5 0 c 4 0 c 4 0 c 5 0 c 4 0 c 4 0 c 5 1 c 4 0 c 4 1 c 5 -1 c 4 0 c 5 6020 c 4 21 c 4 3 c 5 -10 c 4 -5751 c 4 -269 c 5 -8 c
4 -1 c 5 1 c 4 -1 c 4 0 c 5 -1 c 4 -1 c 4 0 c 5 0 c 4 0 c 5 0 c 4 0 c 4 0 c 5 0 c 4 -1 c 4 0 c 5 1 c 4 -1 c 5 0 c 4 1 c 4 3 c 5 25 c
4 31 c 4 14 c 5 -21 c 4 -28 c 4 -18 c 5 -7 c 4 -1 c 5 0 c 4 0 c 4 0 c 5 0 c 4 0 c 4 0 c 5 0 c 4 0 c 5 0 c 4 0 c 4 -1 c 5 1 c 4 1 c
4 9 c 5 7 c 4 -1 c 5 -9 c 4 -7 c 4 -1 c 5 0 c 4 0 c 4 1 c 5 -1 c 4 0 c 4 0 c 5 0 c 4 1 c 5 0 c 4 1 c 4 2 c 5 0 c 4 -2 c 4 0 c 5 0 c
4 -1 c 5 0 c 4 0 c 4 0 c 5 0 c 4 -1 c 4 1 c 5 -1 c 4 0 c 5 1 c 4 0 c 4 -1 c 5 0 c 4 0 c 4 0 c 5 0 c 4 0 c 5 0 c 4 1 c 4 0 c 5 0 c
4 1 c 4 0 c 5 0 c 4 0 c 4 0 c 5 1 c 4 -2 c 5 0 c 4 0 c 4 1 c 5 0 c 4 1 c 4 -1 c 5 -1 c 4 0 c 5 0 c 4 0 c 4 1 c 5 1 c 4 -1 c 4 1 c
5 -1 c 4 -1 c 5 1 c 4 0 c 4 -1 c 5 0 c 4 2 c 4 5 c 5 10 c 4 4 c 5 -6 c 4 -10 c 4 -4 c 5 -1 c 4 1 c 4 0 c 5 0 c 4 0 c 4 0 c 5 0 c
4 -1 c 5 0 c 4 0 c 4 0 c 5 1 c 4 1 c 4 0 c 5 0 c 4 -2 c 5 1 c 4 -1 c 4 1 c 5 -1 c 4 0 c 4 0 c 5 1 c 4 0 c 5 0 c 4 -1 c 4 1 c 5 0 c
4 0 c 4 0 c 5 1 c 4 2 c 5 0 c 4 0 c 4 -1 c 5 0 c 4 0 c 4 2 c 5 1 c 4 1 c 4 4 c 5 55 c 4 476 c 5 525 c 4 29 c 4 -557 c 5 -460 c
4 -68 c 4 -5 c 5 -2 c 4 0 c 5 -1 c 4 -1 c 4 0 c 5 0 c 4 0 c 4 0 c 5 -1 c 4 1 c 5 0 c 4 1 c 4 1 c 5 0 c 4 -1 c 4 0 c 5 8 c 4 10 c
5 1 c 4 -9 c 4 -10 c 5 -1 c 4 0 c 4 -1 c 5 1 c 4 0 c 4 0 c 5 1 c 4 1 c 5 5 c 4 16 c 4 29 c 5 23 c 4 6 c 4 166 c 5 420 c 4 113 c
5 -229 c 4 -430 c 4 -100 c 5 55 c 4 497 c 4 466 c 5 -11 c 4 -561 c 5 -403 c 4 -57 c 4 -3 c 5 -2 c 4 0 c 4 -1 c 5 0 c 4 -1 c 4 0 c
5 0 c 4 0 c 5 0 c 4 0 c 4 0 c 5 -1 c 4 0 c 4 0 c 5 1 c 4 0 c 5 0 c 4 -1 c 4 0 c 5 0 c 4 0 c 4 0 c 5 0 c 4 0 c 5 0 c 4 -1 c 4 1 c
5 -1 c 4 0 c 4 0 c 5 0 c 4 1 c 5 0 c 4 0 c 4 -1 c 5 0 c 4 0 c 4 0 c 5 0 c 4 0 c 4 0 c 5 0 c 4 -1 c 5 1 c 4 0 c 4 -1 c 5 0 c 4 0 c
4 1 c 5 -1 c 4 0 c 5 0 c 4 0 c 4 0 c 5 0 c 4 0 c 4 0 c 5 0 c 4 0 c 5 0 c 4 0 c 4 0 c 5 0 c 4 0 c 4 0 c 5 0 c 4 0 c 5 -1 c 4 1 c
4 0 c 5 0 c 4 0 c 4 0 c 5 0 c 4 0 c 4 0 c 5 0 c 4 0 c 5 0 c 4 0 c 4 1 c 5 0 c 4 0 c 4 -1 c 5 0 c 4 -1 c 5 1 c 4 0 c 4 0 c 5 0 c
4 0 c 4 0 c 5 -1 c 4 1 c 5 3 c 4 0 c 4 0 c 5 -2 c 4 0 c 4 -1 c 5 0 c 4 -1 c 5 0 c 4 0 c 4 0 c 5 1 c 4 0 c 4 0 c 5 0 c 4 0 c 4 0 c
5 0 c 4 0 c 5 0 c 4 1 c 4 -1 c 5 0 c 4 1 c 4 0 c 5 0 c 4 -1 c 5 0 c 4 0 c 4 0 c 5 0 c 4 0 c 4 0 c 5 0 c 4 0 c 5 0 c 4 5 c 4 3 c
5 0 c 4 -6 c 4 -2 c 5 -1 c 4 1 c 4 0 c 5 -1 c 4 0 c 5 0 c 4 0 c 4 0 c 5 0 c 4 0 c 4 0 c 5 0 c 4 0 c 5 0 c 4 0 c 4 0 c 5 0 c 4 0 c
4 0 c 5 0 c 4 0 c 5 2 c 4 5 c 4 3 c 5 -1 c 4 -3 c 4 30 c 5 88 c 4 22 c 5 -32 c 4 -90 c 4 -20 c 5 0 c 4 0 c 4 -2 c 5 -1 c 4 0 c 4 1 c
5 1 c 4 0 c 5 -1 c 4 -1 c 4 1 c 5 -1 c 4 0 c 4 0 c 5 0 c 4 0 c 5 0 c 4 1 c 4 2 c 5 15 c 4 122 c 4 123 c 5 6 c 4 -119 c 5 -132 c
4 -11 c 4 -1 c 5 -4 c 4 -2 c 4 0 c 5 0 c 4 -1 c 5 0 c 4 0 c 4 0 c 5 0 c 4 0 c 4 0 c 5 0 c 4 0 c 4 1 c 5 1 c 4 0 c 5 -2 c 4 0 c 4 0 c
5 0 c 4 0 c 4 0 c 5 -1 c 4 1 c 5 0 c 4 -1 c 4 1 c 5 -1 c 4 0 c 4 0 c 5 0 c 4 0 c 5 0 c 4 0 c 4 1 c 5 0 c 4 -1 c 4 0 c 5 0 c 4 0 c
5 0 c 4 0 c 4 0 c 5 0 c 4 0 c 4 1 c 5 0 c 4 4 c 4 37 c 5 179 c 4 98 c 5 -29 c 4 -179 c 4 -105 c 5 -4 c 4 -1 c 4 0 c 5 0 c 4 -1 c
5 0 c 4 0 c 4 0 c 5 0 c 4 -1 c 4 0 c 5 0 c 4 1 c 5 0 c 4 0 c 4 0 c 5 0 c 4 0 c 4 0 c 5 0 c 4 0 c 5 0 c 4 0 c 4 0 c 5 0 c 4 0 c 4 0 c
5 0 c 4 0 c 4 0 c 5 0 c 4 0 c 5 0 c 4 0 c 4 0 c 5 0 c 4 1 c 4 -1 c 5 -1 c 4 0 c 5 1 c 4 -1 c 4 1 c 5 0 c 4 0 c 4 0 c 5 0 c 4 0 c
5 0 c 4 0 c 4 0 c 5 0 c 4 0 c 4 0 c 5 1 c 4 -1 c 4 0 c 5 -1 c 4 0 c 5 0 c 4 0 c 4 0 c 5 0 c 4 0 c 4 0 c 5 0 c 4 1 c 5 0 c 4 1 c
4 -1 c 5 0 c 4 0 c 4 -1 c 5 0 c 4 0 c 5 0 c 4 0 c 4 0 c 5 0 c 4 1 c 4 0 c 5 0 c 4 0 c 5 1 c 4 3 c 4 2 c 5 -1 c 4 -3 c 4 -2 c 5 -1 c
4 0 c 4 0 c 5 0 c 4 0 c 5 0 c 4 0 c 4 0 c 5 1 c 4 0 c 4 -1 c 5 1 c 4 1 c 5 5 c 4 2 c 4 -1 c 5 -5 c 4 -1 c 4 0 c 5 0 c 4 -1 c 5 0 c
4 -1 c 4 0 c 5 0 c 4 0 c 4 0 c 5 0 c 4 0 c 5 0 c 4 1 c 4 -1 c 5 1 c 4 0 c 4 0 c 5 6 c 4 24 c 4 19 c 5 -5 c 4 -22 c 5 -21 c 4 -1 c
4 -1 c 5 0 c 4 0 c 4 0 c 5 0 c 4 0 c 5 0 c 4 0 c 4 0 c 5 0 c 4 0 c 4 0 c 5 0 c 4 0 c 5 0 c 4 0 c 4 0 c 5 0 c 4 -1 c 4 0 c
5 0 c 4 1 c 5 -1 c 4 0 c 4 -9 c 5 0 c 4 9 c 4 0 c 5 0 c 4 1 c 4 0 c 5 -1 c 4 1 c 5 3 c 4 17 c 4 18 c 5 0 c 4 -17 c 4 -19 c 5 -2 c
4 2 c 5 4 c 4 0 c 4 -2 c 5 -4 c 4 -1 c 4 0 c 5 0 c 4 1 c 5 -1 c 4 1 c 4 0 c 5 1 c 4 3 c 4 5 c 5 0 c 4 -3 c 5 -4 c 4 -2 c 4 0 c 5 0 c
4 0 c 4 0 c 5 0 c 4 0 c
0 -126 3303 418 l 54 0 3303 418 l 18 -6 c 6 -6 c 6 -12 c 0 -12 c -6 -12 c -6 -6 c -18 -6 c -54 0 c 42 -66 3345 358 l
-12 -6 3453 376 l -12 -12 c -6 -18 c 0 -12 c 6 -18 c 12 -12 c 12 -6 c 18 0 c 12 6 c 12 12 c 6 18 c 0 12 c -6 18 c -12 12 c -12 6 c
-18 0 c 24 -84 3537 376 l -24 -84 3585 376 l 24 -84 3585 376 l -24 -84 3633 376 l 108 0 3675 364 l 108 0 3675 328 l 12 6 3939 394 l
18 18 c 0 -126 c 0 6 4047 388 l 6 12 c 6 6 c 12 6 c 24 0 c 12 -6 c 6 -6 c 6 -12 c 0 -12 c -6 -12 c -12 -18 c -60 -60 c 84 0 c
-12 -6 4287 376 l -12 -12 c -6 -18 c 0 -12 c 6 -18 c 12 -12 c 12 -6 c 18 0 c 12 6 c 12 12 c 6 18 c 0 12 c -6 18 c -12 12 c -12 6 c
-18 0 c -12 0 4413 418 l -12 -6 c -6 -18 c 0 -102 c 42 0 4365 376 l 0 6 4545 388 l 6 12 c 6 6 c 12 6 c 24 0 c 12 -6 c 6 -6 c 6 -12 c
0 -12 c -6 -12 c -12 -18 c -60 -60 c 84 0 c -18 -6 4695 418 l -12 -18 c -6 -30 c 0 -18 c 6 -30 c 12 -18 c 18 -6 c 12 0 c 18 6 c
12 18 c 6 30 c 0 18 c -6 30 c -12 18 c -18 6 c -12 0 c 12 6 5181 394 l 18 18 c 0 -126 c -6 -6 5294 376 l 6 -6 c 6 6 c -6 6 c
-6 -6 5294 304 l 6 -6 c 6 6 c -6 6 c -48 -126 5474 418 l 48 -126 5474 418 l 60 0 5444 334 l 0 -84 5552 376 l 6 18 5552 340 l 12 12 c
12 6 c 18 0 c -12 12 5696 358 l -12 6 c -18 0 c -12 -6 c -12 -12 c -6 -18 c 0 -12 c 6 -18 c 12 -12 c 12 -6 c 18 0 c 12 6 c 12 12 c
108 0 5738 346 l 12 6 5906 394 l 18 18 c 0 -126 c 66 0 6020 418 l -36 -48 c 18 0 c 12 -6 c 6 -6 c 6 -18 c 0 -12 c -6 -18 c -12 -12 c
-18 -6 c -18 0 c -18 6 c -6 6 c -6 12 c -6 -18 6206 376 l -12 -12 c -18 -6 c -6 0 c -18 6 c -12 12 c -6 18 c 0 6 c 6 18 c 12 12 c
18 6 c 6 0 c 18 -6 c 12 -12 c 6 -24 c 0 -30 c -6 -30 c -12 -18 c -18 -6 c -12 0 c -18 6 c -6 12 c -6 -6 6260 304 l 6 -6 c 6 6 c
-6 6 c -12 0 6350 418 l -12 -6 c -6 -18 c 0 -102 c 42 0 6302 376 l 6 -6 6380 418 l 6 6 c -6 6 c -6 -6 c 0 -84 6386 376 l
0 -102 6440 418 l 6 -18 c 12 -6 c 12 0 c 42 0 6422 376 l -6 12 6566 358 l -18 6 c -18 0 c -18 -6 c -6 -12 c 6 -12 c 12 -6 c 30 -6 c
12 -6 c 6 -12 c 0 -6 c -6 -12 c -18 -6 c -18 0 c -18 6 c -6 12 c 0 -192 6896 442 l 0 -192 6902 442 l 42 0 6896 442 l 42 0 6896 250 l
0 6 6980 388 l 6 12 c 6 6 c 12 6 c 24 0 c 12 -6 c 6 -6 c 6 -12 c 0 -12 c -6 -12 c -12 -18 c -60 -60 c 84 0 c -6 -6 7106 376 l 6 -6 c
6 6 c -6 6 c -6 -6 7106 304 l 6 -6 c 6 6 c -6 6 c 0 -192 7286 442 l 0 -192 7292 442 l 42 0 7250 442 l 42 0 7250 250 l
0 -249 1217 1452 l -7 -4 1184 1573 l -4 -11 c 0 -8 c 4 -11 c 11 -7 c 19 -4 c 19 0 c 15 4 c 8 7 c 3 11 c 0 4 c -3 12 c -8 7 c -11 4 c
-4 0 c -12 -4 c -7 -7 c -4 -12 c 0 -4 c 4 -11 c 7 -7 c 12 -4 c 79 -37 1173 1652 l 0 52 1173 1600 l -4 7 1188 1687 l -11 11 c 79 0 c
-4 8 1188 1762 l -11 11 c 79 0 c 4 -4 1245 1834 l 3 4 c -3 4 c -4 -4 c -4 0 1192 1868 l -8 4 c -3 3 c -4 8 c 0 15 c 4 8 c 3 3 c
8 4 c 8 0 c 7 -4 c 11 -7 c 38 -38 c 0 53 c 0 -38 1173 1985 l 34 -3 c -4 3 c -4 12 c 0 11 c 4 11 c 8 8 c 11 4 c 8 0 c 11 -4 c 8 -8 c
3 -11 c 0 -11 c -3 -12 c -4 -3 c -8 -4 c -4 0 1192 2019 l -8 4 c -3 4 c -4 7 c 0 15 c 4 8 c 3 4 c 8 3 c 8 0 c 7 -3 c 11 -8 c
38 -38 c 0 53 c 0 -250 1462 1746 l -8 -4 1430 1867 l -4 -11 c 0 -8 c 4 -11 c 12 -8 c 18 -3 c 19 0 c 15 3 c 8 8 c 4 11 c 0 4 c
-4 11 c -8 8 c -11 4 c -4 0 c -11 -4 c -8 -8 c -3 -11 c 0 -4 c 3 -11 c 8 -8 c 11 -3 c 80 -38 1418 1946 l 0 53 1418 1893 l
-4 8 1434 1980 l -12 11 c 80 0 c 0 42 1418 2052 l 31 -23 c 0 11 c 3 8 c 4 4 c 12 3 c 7 0 c 11 -3 c 8 -8 c 4 -11 c 0 -12 c -4 -11 c
-4 -4 c -7 -3 c 4 -4 1490 2128 l 4 4 c -4 3 c -4 -3 c 11 -4 1445 2207 l 8 -7 c 4 -12 c 0 -3 c -4 -12 c -8 -7 c -11 -4 c -4 0 c
-11 4 c -8 7 c -4 12 c 0 3 c 4 12 c 8 7 c 15 4 c 19 0 c 19 -4 c 11 -7 c 4 -12 c 0 -7 c -4 -12 c -8 -3 c 80 -37 1418 2286 l
0 53 1418 2233 l 4 -12 1418 2332 l 12 -7 c 18 -4 c 12 0 c 19 4 c 11 7 c 4 12 c 0 7 c -4 12 c -11 7 c -19 4 c -12 0 c -18 -4 c
-12 -7 c -4 -12 c 0 -7 c 0 -250 2691 3807 l -8 -4 2659 3928 l -4 -11 c 0 -8 c 4 -11 c 12 -8 c 18 -3 c 19 0 c 15 3 c 8 8 c 4 11 c
0 4 c -4 11 c -8 8 c -11 4 c -4 0 c -11 -4 c -8 -8 c -3 -11 c 0 -4 c 3 -11 c 8 -8 c 11 -3 c 80 -37 2647 4007 l 0 53 2647 3954 l
-3 0 2666 4034 l -8 4 c -4 3 c -4 8 c 0 15 c 4 8 c 4 3 c 8 4 c 7 0 c 8 -4 c 11 -7 c 38 -38 c 0 53 c 80 -38 2647 4159 l
0 53 2647 4106 l 4 -4 2719 4189 l 4 4 c -4 4 c -4 -4 c 53 -38 2647 4257 l 0 57 c 80 0 2647 4257 l 0 -38 2647 4340 l 34 -4 c -3 4 c
-4 12 c 0 11 c 4 11 c 7 8 c 12 4 c 7 0 c 11 -4 c 8 -8 c 4 -11 c 0 -11 c -4 -12 c -4 -4 c -7 -3 c 4 -11 2647 4389 l 8 -4 c 7 0 c
8 4 c 4 7 c 3 15 c 4 12 c 8 7 c 7 4 c 12 0 c 7 -4 c 4 -3 c 4 -12 c 0 -15 c -4 -11 c -4 -4 c -7 -4 c -12 0 c -7 4 c -8 8 c -4 11 c
-3 15 c -4 8 c -8 3 c -7 0 c -8 -3 c -4 -12 c 0 -15 c 0 -250 3171 1303 l -8 -4 3139 1424 l -4 -12 c 0 -7 c 4 -11 c 11 -8 c 19 -4 c
19 0 c 15 4 c 8 8 c 4 11 c 0 4 c -4 11 c -8 8 c -11 3 c -4 0 c -11 -3 c -8 -8 c -4 -11 c 0 -4 c 4 -11 c 8 -8 c 11 -4 c
80 -38 3127 1503 l 0 53 3127 1450 l 0 42 3127 1533 l 30 -23 c 0 11 c 4 8 c 4 4 c 11 4 c 8 0 c 11 -4 c 8 -8 c 4 -11 c 0 -11 c
-4 -12 c -4 -4 c -8 -3 c -4 0 3146 1605 l -7 4 c -4 4 c -4 7 c 0 15 c 4 8 c 4 4 c 7 3 c 8 0 c 7 -3 c 12 -8 c 38 -38 c 0 53 c
4 -3 3199 1684 l 4 3 c -4 4 c -4 -4 c -8 -4 3139 1764 l -4 -11 c 0 -8 c 4 -11 c 11 -8 c 19 -4 c 19 0 c 15 4 c 8 8 c 4 11 c 0 4 c
-4 11 c -8 8 c -11 3 c -4 0 c -11 -3 c -8 -8 c -4 -11 c 0 -4 c 4 -11 c 8 -8 c 11 -4 c 53 -38 3127 1828 l 0 57 c 80 0 3127 1828 l
11 -4 3154 1915 l 8 -7 c 3 -12 c 0 -4 c -3 -11 c -8 -7 c -11 -4 c -4 0 c -11 4 c -8 7 c -4 11 c 0 4 c 4 12 c 8 7 c 15 4 c 19 0 c
18 -4 c 12 -7 c 4 -12 c 0 -7 c -4 -12 c -8 -3 c 0 -250 3273 1401 l -8 -4 3241 1522 l -4 -12 c 0 -7 c 4 -11 c 11 -8 c 19 -4 c 19 0 c
15 4 c 8 8 c 4 11 c 0 4 c -4 11 c -8 8 c -11 3 c -4 0 c -11 -3 c -8 -8 c -3 -11 c 0 -4 c 3 -11 c 8 -8 c 11 -4 c 80 -38 3229 1601 l
0 53 3229 1548 l 0 42 3229 1631 l 31 -23 c 0 11 c 3 8 c 4 4 c 11 4 c 8 0 c 11 -4 c 8 -8 c 4 -11 c 0 -11 c -4 -12 c -4 -4 c -7 -3 c
0 41 3229 1707 l 31 -22 c 0 11 c 3 8 c 4 3 c 11 4 c 8 0 c 11 -4 c 8 -7 c 4 -12 c 0 -11 c -4 -11 c -4 -4 c -7 -4 c 4 -3 3301 1782 l
4 3 c -4 4 c -4 -4 c 80 -37 3229 1865 l 0 52 3229 1813 l 53 -38 3229 1926 l 0 57 c 80 0 3229 1926 l 11 -4 3256 2013 l 8 -7 c 3 -12 c
0 -4 c -3 -11 c -8 -7 c -11 -4 c -4 0 c -11 4 c -8 7 c -4 11 c 0 4 c 4 12 c 8 7 c 15 4 c 19 0 c 19 -4 c 11 -7 c 4 -12 c 0 -7 c
-4 -12 c -8 -3 c 0 -249 3685 1425 l -8 -4 3653 1546 l -3 -11 c 0 -8 c 3 -11 c 12 -7 c 19 -4 c 19 0 c 15 4 c 7 7 c 4 11 c 0 4 c
-4 12 c -7 7 c -12 4 c -3 0 c -12 -4 c -7 -7 c -4 -12 c 0 -4 c 4 -11 c 7 -7 c 12 -4 c 79 -37 3642 1625 l 0 52 3642 1573 l
0 41 3642 1656 l 30 -22 c 0 11 c 4 8 c 3 3 c 12 4 c 7 0 c 12 -4 c 7 -7 c 4 -12 c 0 -11 c -4 -11 c -4 -4 c -7 -4 c 3 -12 3642 1743 l
8 -3 c 8 0 c 7 3 c 4 8 c 4 15 c 3 11 c 8 8 c 8 4 c 11 0 c 7 -4 c 4 -4 c 4 -11 c 0 -15 c -4 -12 c -4 -3 c -7 -4 c -11 0 c -8 4 c
-8 7 c -3 11 c -4 16 c -4 7 c -7 4 c -8 0 c -8 -4 c -3 -11 c 0 -15 c 4 -4 3713 1807 l 4 4 c -4 4 c -4 -4 c -4 8 3657 1848 l -11 11 c
79 0 c 3 -12 3642 1932 l 8 -3 c 8 0 c 7 3 c 4 8 c 4 15 c 3 11 c 8 8 c 8 4 c 11 0 c 7 -4 c 4 -4 c 4 -11 c 0 -15 c -4 -12 c -4 -3 c
-7 -4 c -11 0 c -8 4 c -8 7 c -3 11 c -4 16 c -4 7 c -7 4 c -8 0 c -8 -4 c -3 -11 c 0 -15 c 3 -11 3642 2011 l 12 -8 c 19 -4 c 11 0 c
19 4 c 11 8 c 4 11 c 0 8 c -4 11 c -11 7 c -19 4 c -11 0 c -19 -4 c -12 -7 c -3 -11 c 0 -8 c 0 -249 4126 1370 l -8 -4 4094 1491 l
-4 -11 c 0 -7 c 4 -12 c 11 -7 c 19 -4 c 19 0 c 15 4 c 8 7 c 4 12 c 0 3 c -4 12 c -8 7 c -11 4 c -4 0 c -11 -4 c -8 -7 c -4 -12 c
0 -3 c 4 -12 c 8 -7 c 11 -4 c 80 -38 4082 1571 l 0 53 4082 1518 l 53 -38 4082 1631 l 0 57 c 80 0 4082 1631 l -4 0 4101 1673 l -7 3 c
-4 4 c -4 8 c 0 15 c 4 7 c 4 4 c 7 4 c 8 0 c 7 -4 c 12 -7 c 38 -38 c 0 53 c 4 -4 4154 1752 l 4 4 c -4 4 c -4 -4 c 4 -11 4082 1801 l
8 -4 c 7 0 c 8 4 c 3 7 c 4 16 c 4 11 c 8 7 c 7 4 c 11 0 c 8 -4 c 4 -3 c 4 -12 c 0 -15 c -4 -11 c -4 -4 c -8 -4 c -11 0 c -7 4 c
-8 8 c -4 11 c -4 15 c -3 8 c -8 3 c -7 0 c -8 -3 c -4 -12 c 0 -15 c 4 -12 4082 1877 l 8 -3 c 7 0 c 8 3 c 3 8 c 4 15 c 4 11 c 8 8 c
7 4 c 11 0 c 8 -4 c 4 -4 c 4 -11 c 0 -15 c -4 -12 c -4 -3 c -8 -4 c -11 0 c -7 4 c -8 7 c -4 12 c -4 15 c -3 7 c -8 4 c -7 0 c
-8 -4 c -4 -11 c 0 -15 c 0 -38 4082 1979 l 34 -4 c -4 4 c -3 11 c 0 12 c 3 11 c 8 8 c 11 3 c 8 0 c 11 -3 c 8 -8 c 4 -11 c 0 -12 c
-4 -11 c -4 -4 c -8 -4 c 0 -250 4934 1269 l -7 -4 4901 1390 l -4 -12 c 0 -7 c 4 -11 c 11 -8 c 19 -4 c 19 0 c 15 4 c 8 8 c 3 11 c
0 4 c -3 11 c -8 8 c -11 3 c -4 0 c -11 -3 c -8 -8 c -4 -11 c 0 -4 c 4 -11 c 8 -8 c 11 -4 c 79 -38 4890 1469 l 0 53 4890 1416 l
0 -38 4890 1537 l 34 -4 c -4 4 c -4 11 c 0 12 c 4 11 c 8 8 c 11 4 c 8 0 c 11 -4 c 8 -8 c 3 -11 c 0 -12 c -3 -11 c -4 -4 c -8 -3 c
-4 7 4905 1579 l -11 11 c 79 0 c 4 -3 4962 1650 l 3 3 c -3 4 c -4 -4 c 53 -37 4890 1718 l 0 56 c 79 0 4890 1718 l -4 0 4909 1760 l
-7 4 c -4 4 c -4 7 c 0 15 c 4 8 c 4 4 c 7 3 c 8 0 c 7 -3 c 12 -8 c 37 -38 c 0 53 c 79 -38 4890 1885 l 0 53 4890 1832 l
0 -249 5068 7019 l -8 -4 5036 7140 l -4 -11 c 0 -8 c 4 -11 c 11 -8 c 19 -3 c 19 0 c 15 3 c 8 8 c 4 11 c 0 4 c -4 11 c -8 8 c -11 4 c
-4 0 c -11 -4 c -8 -8 c -3 -11 c 0 -4 c 3 -11 c 8 -8 c 11 -3 c 80 -37 5024 7219 l 0 52 5024 7167 l 0 -37 5024 7287 l 34 -4 c -3 4 c
-4 11 c 0 11 c 4 12 c 7 7 c 11 4 c 8 0 c 11 -4 c 8 -7 c 4 -12 c 0 -11 c -4 -11 c -4 -4 c -7 -4 c -4 0 5043 7321 l -7 4 c -4 4 c
-4 8 c 0 15 c 4 7 c 4 4 c 7 4 c 8 0 c 8 -4 c 11 -8 c 38 -37 c 0 53 c 4 -4 5096 7401 l 4 4 c -4 4 c -4 -4 c 4 -11 5024 7450 l 8 -4 c
7 0 c 8 4 c 4 7 c 3 15 c 4 12 c 8 7 c 7 4 c 12 0 c 7 -4 c 4 -4 c 4 -11 c 0 -15 c -4 -11 c -4 -4 c -7 -4 c -12 0 c -7 4 c -8 7 c
-4 12 c -3 15 c -4 7 c -8 4 c -7 0 c -8 -4 c -4 -11 c 0 -15 c 0 42 5024 7514 l 31 -23 c 0 11 c 3 8 c 4 4 c 11 4 c 8 0 c 11 -4 c
8 -8 c 4 -11 c 0 -11 c -4 -12 c -4 -4 c -7 -3 c 0 41 5024 7590 l 31 -22 c 0 11 c 3 8 c 4 3 c 11 4 c 8 0 c 11 -4 c 8 -7 c 4 -12 c
0 -11 c -4 -11 c -4 -4 c -7 -4 c 0 -249 5146 1380 l -7 -3 5114 1501 l -4 -12 c 0 -7 c 4 -12 c 11 -7 c 19 -4 c 19 0 c 15 4 c 7 7 c
4 12 c 0 3 c -4 12 c -7 7 c -12 4 c -3 0 c -12 -4 c -7 -7 c -4 -12 c 0 -3 c 4 -12 c 7 -7 c 12 -4 c 79 -38 5103 1581 l
0 53 5103 1528 l 0 -38 5103 1649 l 34 -4 c -4 4 c -4 11 c 0 12 c 4 11 c 8 7 c 11 4 c 7 0 c 12 -4 c 7 -7 c 4 -11 c 0 -12 c -4 -11 c
-3 -4 c -8 -4 c 0 41 5103 1687 l 30 -23 c 0 12 c 4 7 c 4 4 c 11 4 c 7 0 c 12 -4 c 7 -7 c 4 -12 c 0 -11 c -4 -11 c -3 -4 c -8 -4 c
3 -4 5175 1762 l 4 4 c -4 4 c -3 -4 c -7 -3 5114 1841 l -4 -12 c 0 -7 c 4 -12 c 11 -7 c 19 -4 c 19 0 c 15 4 c 7 7 c 4 12 c 0 4 c
-4 11 c -7 7 c -12 4 c -3 0 c -12 -4 c -7 -7 c -4 -11 c 0 -4 c 4 -12 c 7 -7 c 12 -4 c -7 -4 5114 1917 l -4 -11 c 0 -8 c 4 -11 c
11 -8 c 19 -3 c 19 0 c 15 3 c 7 8 c 4 11 c 0 4 c -4 11 c -7 8 c -12 4 c -3 0 c -12 -4 c -7 -8 c -4 -11 c 0 -4 c 4 -11 c 7 -8 c
12 -3 c 4 -11 5103 1966 l 11 -8 c 19 -3 c 11 0 c 19 3 c 11 8 c 4 11 c 0 8 c -4 11 c -11 8 c -19 3 c -11 0 c -19 -3 c -11 -8 c
-4 -11 c 0 -8 c 0 -250 5415 5795 l -7 -4 5382 5916 l -4 -11 c 0 -8 c 4 -11 c 11 -8 c 19 -4 c 19 0 c 15 4 c 7 8 c 4 11 c 0 4 c
-4 11 c -7 8 c -11 3 c -4 0 c -12 -3 c -7 -8 c -4 -11 c 0 -4 c 4 -11 c 7 -8 c 12 -4 c 79 -38 5371 5995 l 0 53 5371 5942 l
0 -38 5371 6063 l 34 -4 c -4 4 c -4 12 c 0 11 c 4 11 c 8 8 c 11 4 c 8 0 c 11 -4 c 7 -8 c 4 -11 c 0 -11 c -4 -12 c -3 -4 c -8 -3 c
-7 -3 5382 6142 l -4 -12 c 0 -7 c 4 -12 c 11 -7 c 19 -4 c 19 0 c 15 4 c 7 7 c 4 12 c 0 4 c -4 11 c -7 7 c -11 4 c -4 0 c -12 -4 c
-7 -7 c -4 -11 c 0 -4 c 4 -12 c 7 -7 c 12 -4 c 3 -3 5443 6176 l 4 3 c -4 4 c -3 -4 c 53 -37 5371 6244 l 0 56 c 79 0 5371 6244 l
0 -38 5371 6328 l 34 -4 c -4 4 c -4 11 c 0 12 c 4 11 c 8 7 c 11 4 c 8 0 c 11 -4 c 7 -7 c 4 -11 c 0 -12 c -4 -11 c -3 -4 c -8 -4 c
0 42 5371 6365 l 30 -23 c 0 12 c 4 7 c 4 4 c 11 4 c 8 0 c 11 -4 c 7 -8 c 4 -11 c 0 -11 c -4 -12 c -3 -3 c -8 -4 c 0 -250 5582 1310 l
-8 -4 5550 1431 l -4 -11 c 0 -8 c 4 -11 c 11 -8 c 19 -4 c 19 0 c 15 4 c 8 8 c 4 11 c 0 4 c -4 11 c -8 8 c -11 3 c -4 0 c -11 -3 c
-8 -8 c -3 -11 c 0 -4 c 3 -11 c 8 -8 c 11 -4 c 80 -38 5538 1510 l 0 53 5538 1457 l 0 -38 5538 1578 l 34 -4 c -3 4 c -4 12 c 0 11 c
4 11 c 7 8 c 11 4 c 8 0 c 11 -4 c 8 -8 c 4 -11 c 0 -11 c -4 -12 c -4 -4 c -7 -3 c 4 -11 5538 1627 l 8 -4 c 7 0 c 8 4 c 4 7 c 3 16 c
4 11 c 8 7 c 7 4 c 12 0 c 7 -4 c 4 -3 c 4 -12 c 0 -15 c -4 -11 c -4 -4 c -7 -4 c -12 0 c -7 4 c -8 8 c -4 11 c -3 15 c -4 8 c -8 3 c
-7 0 c -8 -3 c -4 -12 c 0 -15 c 4 -3 5610 1691 l 4 3 c -4 4 c -4 -4 c -4 0 5557 1725 l -7 4 c -4 4 c -4 8 c 0 15 c 4 7 c 4 4 c 7 4 c
8 0 c 8 -4 c 11 -8 c 38 -37 c 0 53 c 4 -11 5538 1820 l 11 -8 c 19 -4 c 12 0 c 19 4 c 11 8 c 4 11 c 0 7 c -4 12 c -11 7 c -19 4 c
-12 0 c -19 -4 c -11 -7 c -4 -12 c 0 -7 c 0 42 5538 1880 l 31 -23 c 0 12 c 3 7 c 4 4 c 11 4 c 8 0 c 11 -4 c 8 -8 c 4 -11 c 0 -11 c
-4 -12 c -4 -3 c -7 -4 c 0 -249 6397 2166 l -7 -3 6364 2287 l -4 -12 c 0 -7 c 4 -12 c 11 -7 c 19 -4 c 19 0 c 15 4 c 8 7 c 3 12 c
0 3 c -3 12 c -8 7 c -11 4 c -4 0 c -11 -4 c -8 -7 c -4 -12 c 0 -3 c 4 -12 c 8 -7 c 11 -4 c 79 -38 6353 2367 l 0 53 6353 2314 l
-7 -4 6364 2439 l -4 -12 c 0 -7 c 4 -11 c 11 -8 c 19 -4 c 19 0 c 15 4 c 8 8 c 3 11 c 0 4 c -3 11 c -8 8 c -11 3 c -4 0 c -11 -3 c
-8 -8 c -4 -11 c 0 -4 c 4 -11 c 8 -8 c 11 -4 c -7 -4 6364 2514 l -4 -11 c 0 -8 c 4 -11 c 11 -7 c 19 -4 c 19 0 c 15 4 c 8 7 c 3 11 c
0 4 c -3 12 c -8 7 c -11 4 c -4 0 c -11 -4 c -8 -7 c -4 -12 c 0 -4 c 4 -11 c 8 -7 c 11 -4 c 4 -4 6425 2548 l 3 4 c -3 4 c -4 -4 c
-7 -4 6364 2628 l -4 -12 c 0 -7 c 4 -12 c 11 -7 c 19 -4 c 19 0 c 15 4 c 8 7 c 3 12 c 0 4 c -3 11 c -8 8 c -11 3 c -4 0 c -11 -3 c
-8 -8 c -4 -11 c 0 -4 c 4 -12 c 8 -7 c 11 -4 c -4 8 6368 2665 l -11 11 c 79 0 c -4 0 6372 2733 l -7 4 c -4 4 c -4 7 c 0 16 c 4 7 c
4 4 c 7 4 c 8 0 c 7 -4 c 12 -8 c 37 -37 c 0 52 c 0 -249 6739 1474 l -7 -4 6706 1595 l -4 -11 c 0 -7 c 4 -12 c 11 -7 c 19 -4 c 19 0 c
15 4 c 8 7 c 3 12 c 0 3 c -3 12 c -8 7 c -11 4 c -4 0 c -11 -4 c -8 -7 c -4 -12 c 0 -3 c 4 -12 c 8 -7 c 11 -4 c 79 -38 6695 1675 l
0 53 6695 1622 l 79 -38 6695 1750 l 0 53 6695 1697 l 4 -12 6695 1796 l 11 -7 c 19 -4 c 11 0 c 19 4 c 12 7 c 3 12 c 0 7 c -3 11 c
-12 8 c -19 4 c -11 0 c -19 -4 c -11 -8 c -4 -11 c 0 -7 c 4 -4 6767 1856 l 3 4 c -3 4 c -4 -4 c -4 7 6710 1898 l -11 11 c 79 0 c
4 -11 6695 1984 l 11 -7 c 19 -4 c 11 0 c 19 4 c 12 7 c 3 11 c 0 8 c -3 11 c -12 8 c -19 4 c -11 0 c -19 -4 c -11 -8 c -4 -11 c
0 -8 c 79 -37 6695 2090 l 0 53 6695 2037 l 0 -250 7549 2327 l -8 -4 7517 2448 l -4 -11 c 0 -8 c 4 -11 c 11 -8 c 19 -3 c 19 0 c
15 3 c 8 8 c 4 11 c 0 4 c -4 11 c -8 8 c -11 4 c -4 0 c -11 -4 c -8 -8 c -4 -11 c 0 -4 c 4 -11 c 8 -8 c 11 -3 c 80 -38 7505 2527 l
0 53 7505 2474 l 80 -38 7505 2603 l 0 53 7505 2550 l 4 -11 7505 2644 l 8 -4 c 7 0 c 8 4 c 3 8 c 4 15 c 4 11 c 8 8 c 7 3 c 11 0 c
8 -3 c 4 -4 c 4 -11 c 0 -16 c -4 -11 c -4 -4 c -8 -3 c -11 0 c -7 3 c -8 8 c -4 11 c -4 15 c -3 8 c -8 4 c -7 0 c -8 -4 c -4 -11 c
0 -16 c 4 -4 7577 2709 l 4 4 c -4 3 c -4 -3 c 0 42 7505 2746 l 30 -23 c 0 12 c 4 7 c 4 4 c 11 4 c 8 0 c 11 -4 c 8 -8 c 4 -11 c
0 -11 c -4 -12 c -4 -3 c -8 -4 c -3 7 7520 2826 l -12 12 c 80 0 c -4 0 7524 2894 l -7 4 c -4 3 c -4 8 c 0 15 c 4 8 c 4 3 c 7 4 c
8 0 c 7 -4 c 12 -7 c 38 -38 c 0 53 c 0 -250 8495 1375 l -8 -4 8463 1496 l -4 -11 c 0 -8 c 4 -11 c 11 -8 c 19 -4 c 19 0 c 15 4 c
8 8 c 4 11 c 0 4 c -4 11 c -8 8 c -11 3 c -4 0 c -11 -3 c -8 -8 c -4 -11 c 0 -4 c 4 -11 c 8 -8 c 11 -4 c 80 -38 8451 1575 l
0 53 8451 1522 l 4 -12 8451 1617 l 8 -4 c 7 0 c 8 4 c 3 8 c 4 15 c 4 11 c 8 8 c 7 4 c 11 0 c 8 -4 c 4 -4 c 4 -11 c 0 -15 c -4 -12 c
-4 -4 c -8 -3 c -11 0 c -7 3 c -8 8 c -4 11 c -4 16 c -3 7 c -8 4 c -7 0 c -8 -4 c -4 -11 c 0 -15 c 80 -38 8451 1726 l
0 53 8451 1673 l 4 -3 8523 1756 l 4 3 c -4 4 c -4 -4 c 80 -38 8451 1840 l 0 53 8451 1787 l 0 41 8451 1870 l 30 -22 c 0 11 c 4 8 c
4 3 c 11 4 c 8 0 c 11 -4 c 8 -7 c 4 -11 c 0 -12 c -4 -11 c -4 -4 c -8 -4 c -8 -4 8463 1987 l -4 -11 c 0 -8 c 4 -11 c 11 -8 c 19 -3 c
19 0 c 15 3 c 8 8 c 4 11 c 0 4 c -4 11 c -8 8 c -11 4 c -4 0 c -11 -4 c -8 -8 c -4 -11 c 0 -4 c 4 -11 c 8 -8 c 11 -3 c
0 -250 8607 1499 l -7 -4 8574 1620 l -4 -11 c 0 -8 c 4 -11 c 11 -8 c 19 -3 c 19 0 c 15 3 c 8 8 c 4 11 c 0 4 c -4 11 c -8 8 c -11 4 c
-4 0 c -11 -4 c -8 -8 c -4 -11 c 0 -4 c 4 -11 c 8 -8 c 11 -3 c 80 -38 8563 1699 l 0 53 8563 1646 l 4 -12 8563 1741 l 7 -3 c 8 0 c
8 3 c 3 8 c 4 15 c 4 12 c 8 7 c 7 4 c 11 0 c 8 -4 c 4 -4 c 4 -11 c 0 -15 c -4 -12 c -4 -3 c -8 -4 c -11 0 c -7 4 c -8 7 c -4 12 c
-4 15 c -3 7 c -8 4 c -8 0 c -7 -4 c -4 -11 c 0 -15 c 4 -11 8563 1816 l 7 -4 c 8 0 c 8 4 c 3 8 c 4 15 c 4 11 c 8 8 c 7 3 c 11 0 c
8 -3 c 4 -4 c 4 -11 c 0 -16 c -4 -11 c -4 -4 c -8 -3 c -11 0 c -7 3 c -8 8 c -4 11 c -4 15 c -3 8 c -8 4 c -8 0 c -7 -4 c -4 -11 c
0 -16 c 4 -4 8635 1881 l 4 4 c -4 3 c -4 -3 c 4 -12 8563 1930 l 7 -3 c 8 0 c 8 3 c 3 8 c 4 15 c 4 11 c 8 8 c 7 4 c 11 0 c 8 -4 c
4 -4 c 4 -11 c 0 -15 c -4 -12 c -4 -3 c -8 -4 c -11 0 c -7 4 c -8 7 c -4 12 c -4 15 c -3 7 c -8 4 c -8 0 c -7 -4 c -4 -11 c 0 -15 c
53 -37 8563 2024 l 0 56 c 80 0 8563 2024 l 4 -12 8563 2085 l 11 -7 c 19 -4 c 12 0 c 18 4 c 12 7 c 4 12 c 0 7 c -4 12 c -12 7 c
-18 4 c -12 0 c -19 -4 c -11 -7 c -4 -12 c 0 -7 c 0 -249 8850 1546 l -8 -4 8818 1667 l -3 -11 c 0 -7 c 3 -12 c 12 -7 c 19 -4 c
19 0 c 15 4 c 7 7 c 4 12 c 0 3 c -4 12 c -7 7 c -12 4 c -3 0 c -12 -4 c -7 -7 c -4 -12 c 0 -3 c 4 -12 c 7 -7 c 12 -4 c
79 -38 8807 1747 l 0 53 8807 1694 l 11 -3 8833 1818 l 8 -8 c 4 -11 c 0 -4 c -4 -11 c -8 -8 c -11 -4 c -4 0 c -11 4 c -8 8 c -3 11 c
0 4 c 3 11 c 8 8 c 15 3 c 19 0 c 19 -3 c 11 -8 c 4 -11 c 0 -8 c -4 -11 c -7 -4 c -4 8 8822 1856 l -11 11 c 79 0 c 4 -4 8878 1928 l
4 4 c -4 4 c -4 -4 c -3 0 8825 1962 l -8 4 c -4 4 c -3 7 c 0 15 c 3 8 c 4 4 c 8 3 c 7 0 c 8 -3 c 11 -8 c 38 -38 c 0 53 c
0 42 8807 2041 l 30 -23 c 0 12 c 4 7 c 3 4 c 12 4 c 7 0 c 12 -4 c 7 -8 c 4 -11 c 0 -11 c -4 -12 c -4 -3 c -7 -4 c 0 -38 8807 2155 l
34 -4 c -4 4 c -4 11 c 0 12 c 4 11 c 7 8 c 12 3 c 7 0 c 12 -3 c 7 -8 c 4 -11 c 0 -12 c -4 -11 c -4 -4 c -7 -4 c 0 -249 9595 1265 l
-7 -4 9562 1386 l -4 -11 c 0 -8 c 4 -11 c 11 -7 c 19 -4 c 19 0 c 15 4 c 8 7 c 3 11 c 0 4 c -3 12 c -8 7 c -11 4 c -4 0 c -11 -4 c
-8 -7 c -4 -12 c 0 -4 c 4 -11 c 8 -7 c 11 -4 c 79 -37 9551 1465 l 0 52 9551 1413 l 12 -4 9577 1537 l 7 -7 c 4 -11 c 0 -4 c -4 -12 c
-7 -7 c -12 -4 c -3 0 c -12 4 c -7 7 c -4 12 c 0 4 c 4 11 c 7 7 c 15 4 c 19 0 c 19 -4 c 12 -7 c 3 -11 c 0 -8 c -3 -11 c -8 -4 c
4 -12 9551 1583 l 7 -3 c 8 0 c 7 3 c 4 8 c 4 15 c 4 11 c 7 8 c 8 4 c 11 0 c 8 -4 c 4 -4 c 3 -11 c 0 -15 c -3 -12 c -4 -3 c -8 -4 c
-11 0 c -8 4 c -7 7 c -4 11 c -4 16 c -4 7 c -7 4 c -8 0 c -7 -4 c -4 -11 c 0 -15 c 4 -4 9623 1647 l 3 4 c -3 4 c -4 -4 c
53 -38 9551 1715 l 0 57 c 79 0 9551 1715 l 4 -12 9551 1772 l 7 -4 c 8 0 c 7 4 c 4 8 c 4 15 c 4 11 c 7 8 c 8 4 c 11 0 c 8 -4 c 4 -4 c
3 -11 c 0 -15 c -3 -12 c -4 -4 c -8 -3 c -11 0 c -8 3 c -7 8 c -4 11 c -4 15 c -4 8 c -7 4 c -8 0 c -7 -4 c -4 -11 c 0 -15 c
79 -38 9551 1881 l 0 53 9551 1828 l
showpage PGPLOT restore
 
%%Trailer
%%DocumentFonts: 
%%Pages: 1
%%EOF
