%!PS-Adobe-3.0 EPSF-3.0
%%For: tab
%%Title: PGPLOT PostScript plot
%%Creator: PGPLOT
%%CreationDate: 20-Apr-1995 16:39
%%BoundingBox: 25 18 587 774
%%DocumentFonts: (atend)
%%LanguageLevel: 1
%%Orientation: Landscape
%%Pages: (atend)
%%EndComments
%%BeginProlog
/l {moveto rlineto currentpoint stroke moveto} bind def
/c {rlineto currentpoint stroke moveto} bind def
/d {moveto 0 0 rlineto currentpoint stroke moveto} bind def
/SLW {5 mul setlinewidth} bind def
/SCF /pop load def
/BP {newpath moveto} bind def
/LP /rlineto load def
/EP {rlineto closepath eofill} bind def
/MB {gsave translate MFAC dup scale 1 setlinewidth 2 setlinecap 0 setlinejoin newpath} bind def
/ME /grestore load def
/C {0 360 arc stroke} bind def
/FC {0 360 arc fill} bind def
%%EndProlog
 
%%Page: 1 1
%%BeginPageSetup
/PGPLOT save def
0.072 0.072 scale
8150 250 translate 90 rotate
1 setlinejoin 1 setlinecap 1 SLW 1 SCF
%%EndPageSetup
0.000 setgray 1 SLW 8939 0 780 780 l 0 6239 c -8939 0 c 0 -6239 c 0 -45 1116 780 l 0 -45 1554 780 l 0 -45 1991 780 l
0 -45 2428 780 l 0 -90 2865 780 l 0 -45 3302 780 l 0 -45 3739 780 l 0 -45 4176 780 l 0 -45 4613 780 l 0 -90 5051 780 l
0 -45 5488 780 l 0 -45 5925 780 l 0 -45 6362 780 l 0 -45 6799 780 l 0 -90 7236 780 l 0 -45 7673 780 l 0 -45 8110 780 l
0 -45 8548 780 l 0 -45 8985 780 l 0 -90 9422 780 l 0 -45 1116 7064 l 0 -45 1554 7064 l 0 -45 1991 7064 l 0 -45 2428 7064 l
0 -90 2865 7109 l 0 -45 3302 7064 l 0 -45 3739 7064 l 0 -45 4176 7064 l 0 -45 4613 7064 l 0 -90 5051 7109 l 0 -45 5488 7064 l
0 -45 5925 7064 l 0 -45 6362 7064 l 0 -45 6799 7064 l 0 -90 7236 7109 l 0 -45 7673 7064 l 0 -45 8110 7064 l 0 -45 8548 7064 l
0 -45 8985 7064 l 0 -90 9422 7109 l -60 0 2775 672 l -6 -54 c 6 6 c 18 6 c 18 0 c 18 -6 c 12 -12 c 6 -18 c 0 -12 c -6 -18 c
-12 -12 c -18 -6 c -18 0 c -18 6 c -6 6 c -6 12 c -18 -6 2859 672 l -12 -18 c -6 -30 c 0 -18 c 6 -30 c 12 -18 c 18 -6 c 12 0 c
18 6 c 12 18 c 6 30 c 0 18 c -6 30 c -12 18 c -18 6 c -12 0 c -18 -6 2979 672 l -12 -18 c -6 -30 c 0 -18 c 6 -30 c 12 -18 c 18 -6 c
12 0 c 18 6 c 12 18 c 6 30 c 0 18 c -6 30 c -12 18 c -18 6 c -12 0 c 12 6 4847 648 l 18 18 c 0 -126 c -18 -6 4985 672 l -12 -18 c
-6 -30 c 0 -18 c 6 -30 c 12 -18 c 18 -6 c 12 0 c 18 6 c 12 18 c 6 30 c 0 18 c -6 30 c -12 18 c -18 6 c -12 0 c -18 -6 5105 672 l
-12 -18 c -6 -30 c 0 -18 c 6 -30 c 12 -18 c 18 -6 c 12 0 c 18 6 c 12 18 c 6 30 c 0 18 c -6 30 c -12 18 c -18 6 c -12 0 c
-18 -6 5225 672 l -12 -18 c -6 -30 c 0 -18 c 6 -30 c 12 -18 c 18 -6 c 12 0 c 18 6 c 12 18 c 6 30 c 0 18 c -6 30 c -12 18 c -18 6 c
-12 0 c 12 6 7032 648 l 18 18 c 0 -126 c -60 0 7206 672 l -6 -54 c 6 6 c 18 6 c 18 0 c 18 -6 c 12 -12 c 6 -18 c 0 -12 c -6 -18 c
-12 -12 c -18 -6 c -18 0 c -18 6 c -6 6 c -6 12 c -18 -6 7290 672 l -12 -18 c -6 -30 c 0 -18 c 6 -30 c 12 -18 c 18 -6 c 12 0 c
18 6 c 12 18 c 6 30 c 0 18 c -6 30 c -12 18 c -18 6 c -12 0 c -18 -6 7410 672 l -12 -18 c -6 -30 c 0 -18 c 6 -30 c 12 -18 c 18 -6 c
12 0 c 18 6 c 12 18 c 6 30 c 0 18 c -6 30 c -12 18 c -18 6 c -12 0 c 0 6 9206 642 l 6 12 c 6 6 c 12 6 c 24 0 c 12 -6 c 6 -6 c
6 -12 c 0 -12 c -6 -12 c -12 -18 c -60 -60 c 84 0 c -18 -6 9356 672 l -12 -18 c -6 -30 c 0 -18 c 6 -30 c 12 -18 c 18 -6 c 12 0 c
18 6 c 12 18 c 6 30 c 0 18 c -6 30 c -12 18 c -18 6 c -12 0 c -18 -6 9476 672 l -12 -18 c -6 -30 c 0 -18 c 6 -30 c 12 -18 c 18 -6 c
12 0 c 18 6 c 12 18 c 6 30 c 0 18 c -6 30 c -12 18 c -18 6 c -12 0 c -18 -6 9596 672 l -12 -18 c -6 -30 c 0 -18 c 6 -30 c 12 -18 c
18 -6 c 12 0 c 18 6 c 12 18 c 6 30 c 0 18 c -6 30 c -12 18 c -18 6 c -12 0 c -90 0 780 780 l -45 0 780 1710 l -90 0 780 2641 l
-45 0 780 3571 l -90 0 780 4502 l -45 0 780 5432 l -90 0 780 6363 l -90 0 9809 780 l -45 0 9764 1710 l -90 0 9809 2641 l
-45 0 9764 3571 l -90 0 9809 4502 l -45 0 9764 5432 l -90 0 9809 6363 l 6 -18 517 774 l 18 -12 c 30 -6 c 18 0 c 30 6 c 18 12 c
6 18 c 0 12 c -6 18 c -18 12 c -30 6 c -18 0 c -30 -6 c -18 -12 c -6 -18 c 0 -12 c -6 0 547 2383 l -12 6 c -6 6 c -6 12 c 0 24 c
6 12 c 6 6 c 12 6 c 12 0 c 12 -6 c 18 -12 c 60 -60 c 0 84 c 84 84 547 2503 l 84 -84 547 2587 l -6 12 541 2647 l -18 18 c 126 0 c
6 -18 517 2785 l 18 -12 c 30 -6 c 18 0 c 30 6 c 18 12 c 6 18 c 0 12 c -6 18 c -18 12 c -30 6 c -18 0 c -30 -6 c -18 -12 c -6 -18 c
0 -12 c 63 -45 453 2909 l 0 68 c 94 0 453 2909 l 84 -60 517 4298 l 0 90 c 126 0 517 4298 l 84 84 547 4364 l 84 -84 547 4448 l
-6 12 541 4508 l -18 18 c 126 0 c 6 -18 517 4646 l 18 -12 c 30 -6 c 18 0 c 30 6 c 18 12 c 6 18 c 0 12 c -6 18 c -18 12 c -30 6 c
-18 0 c -30 -6 c -18 -12 c -6 -18 c 0 -12 c 63 -45 453 4770 l 0 68 c 94 0 453 4770 l -12 -6 535 6177 l -6 -18 c 0 -12 c 6 -18 c
18 -12 c 30 -6 c 30 0 c 24 6 c 12 12 c 6 18 c 0 6 c -6 18 c -12 12 c -18 6 c -6 0 c -18 -6 c -12 -12 c -6 -18 c 0 -6 c 6 -18 c
12 -12 c 18 -6 c 84 84 547 6225 l 84 -84 547 6309 l -6 12 541 6369 l -18 18 c 126 0 c 6 -18 517 6507 l 18 -12 c 30 -6 c 18 0 c
30 6 c 18 12 c 6 18 c 0 12 c -6 18 c -18 12 c -30 6 c -18 0 c -30 -6 c -18 -12 c -6 -18 c 0 -12 c 63 -45 453 6631 l 0 68 c
94 0 453 6631 l
4 0 780 791 l 5 2 c 4 6 c 4 3 c 5 -3 c 4 -7 c 4 -2 c 5 -1 c 4 0 c 5 0 c 4 0 c 4 0 c 5 0 c 4 0 c 4 1 c 5 1 c 4 2 c 5 0 c 4 -1 c
4 -3 c 5 0 c 4 0 c 4 0 c 5 0 c 4 0 c 5 0 c 4 0 c 4 0 c 5 0 c 4 0 c 4 0 c 5 0 c 4 0 c 5 0 c 4 0 c 4 0 c 5 1 c 4 0 c 4 0 c 5 0 c 4 0 c
4 0 c 5 -1 c 4 0 c 5 1 c 4 0 c 4 1 c 5 1 c 4 0 c 4 0 c 5 -1 c 4 0 c 5 0 c 4 -1 c 4 1 c 5 0 c 4 1 c 4 1 c 5 0 c 4 0 c 5 -2 c 4 -1 c
4 0 c 5 1 c 4 3 c 4 1 c 5 -1 c 4 -3 c 5 -1 c 4 0 c 4 0 c 5 0 c 4 0 c 4 0 c 5 0 c 4 0 c 4 0 c 5 0 c 4 0 c 5 0 c 4 0 c 4 1 c 5 -1 c
4 -10 c 4 0 c 5 10 c 4 0 c 5 0 c 4 0 c 4 0 c 5 0 c 4 0 c 4 0 c 5 0 c 4 0 c 5 0 c 4 0 c 4 1 c 5 0 c 4 0 c 4 0 c 5 -1 c 4 0 c 5 0 c
4 0 c 4 0 c 5 0 c 4 0 c 4 1 c 5 0 c 4 0 c 4 0 c 5 -1 c 4 0 c 5 0 c 4 0 c 4 1 c 5 1 c 4 1 c 4 0 c 5 -1 c 4 -1 c 5 1 c 4 0 c 4 1 c
5 5 c 4 1 c 4 1 c 5 -1 c 4 4 c 5 2 c 4 -5 c 4 -7 c 5 -1 c 4 0 c 4 1 c 5 0 c 4 3 c 5 1 c 4 0 c 4 -1 c 5 -1 c 4 0 c 4 1 c 5 1 c 4 1 c
4 1 c 5 3 c 4 4 c 5 8 c 4 47 c 4 239 c 5 1427 c 4 2689 c 4 491 c 5 -1951 c 4 -2492 c 5 -416 c 4 -36 c 4 -4 c 5 -2 c 4 2 c 4 2 c
5 -2 c 4 -5 c 5 -4 c 4 -1 c 4 0 c 5 0 c 4 2 c 4 12 c 5 14 c 4 0 c 4 -16 c 5 -14 c 4 0 c 5 0 c 4 0 c 4 0 c 5 -1 c 4 -1 c 4 1 c 5 -1 c
4 1 c 5 2 c 4 2 c 4 1 c 5 -1 c 4 -3 c 4 -2 c 5 0 c 4 0 c 5 1 c 4 -1 c 4 0 c 5 0 c 4 0 c 4 0 c 5 1 c 4 0 c 5 1 c 4 0 c 4 0 c 5 0 c
4 0 c 4 -1 c 5 0 c 4 0 c 4 0 c 5 0 c 4 0 c 5 0 c 4 0 c 4 -1 c 5 0 c 4 0 c 4 1 c 5 2 c 4 5 c 5 4 c 4 -1 c 4 -7 c 5 -4 c 4 0 c 4 0 c
5 1 c 4 0 c 5 0 c 4 0 c 4 0 c 5 -1 c 4 1 c 4 0 c 5 -1 c 4 0 c 5 1 c 4 1 c 4 0 c 5 1 c 4 1 c 4 2 c 5 -1 c 4 -2 c 4 -3 c 5 0 c 4 1 c
5 0 c 4 1 c 4 1 c 5 10 c 4 10 c 4 -2 c 5 -12 c 4 -7 c 5 -1 c 4 0 c 4 0 c 5 0 c 4 -1 c 4 0 c 5 0 c 4 1 c 5 -1 c 4 1 c 4 0 c 5 0 c
4 0 c 4 1 c 5 0 c 4 2 c 5 10 c 4 6 c 4 -3 c 5 -12 c 4 -3 c 4 0 c 5 0 c 4 2 c 4 10 c 5 34 c 4 12 c 5 -12 c 4 -35 c 4 -8 c 5 0 c 4 2 c
4 10 c 5 48 c 4 125 c 5 205 c 4 97 c 4 -135 c 5 -235 c 4 -89 c 4 -6 c 5 -7 c 4 -13 c 5 -4 c 4 0 c 4 -1 c 5 0 c 4 -1 c 4 1 c 5 0 c
4 0 c 5 0 c 4 0 c 4 0 c 5 -1 c 4 0 c 4 0 c 5 0 c 4 0 c 4 0 c 5 0 c 4 -1 c 5 2 c 4 -1 c 4 0 c 5 0 c 4 0 c 4 0 c 5 0 c 4 0 c 5 -1 c
4 1 c 4 0 c 5 0 c 4 0 c 4 1 c 5 0 c 4 1 c 5 -1 c 4 -1 c 4 0 c 5 1 c 4 3 c 4 2 c 5 4 c 4 0 c 4 -1 c 5 -2 c 4 -1 c 5 -1 c 4 -3 c
4 -2 c 5 0 c 4 0 c 4 0 c 5 0 c 4 0 c 5 1 c 4 -1 c 4 0 c 5 -1 c 4 0 c 4 0 c 5 0 c 4 1 c 5 -1 c 4 0 c 4 0 c 5 0 c 4 2 c 4 0 c 5 1 c
4 -1 c 5 0 c 4 7 c 4 22 c 5 5 c 4 -11 c 4 -20 c 5 -4 c 4 0 c 4 0 c 5 1 c 4 0 c 5 6 c 4 4 c 4 -1 c 5 -7 c 4 -4 c 4 1 c 5 0 c 4 0 c
5 0 c 4 0 c 4 0 c 5 0 c 4 -1 c 4 1 c 5 0 c 4 0 c 5 -1 c 4 1 c 4 0 c 5 0 c 4 0 c 4 0 c 5 0 c 4 0 c 5 0 c 4 0 c 4 0 c 5 0 c 4 0 c
4 1 c 5 0 c 4 0 c 4 1 c 5 0 c 4 0 c 5 1 c 4 -1 c 4 0 c 5 0 c 4 1 c 4 0 c 5 0 c 4 3 c 5 6 c 4 1 c 4 -4 c 5 -6 c 4 0 c 4 0 c 5 0 c
4 0 c 5 0 c 4 5 c 4 13 c 5 13 c 4 4 c 4 -9 c 5 -8 c 4 -5 c 5 -4 c 4 -3 c 4 -2 c 5 -2 c 4 -2 c 4 2 c 5 23 c 4 32 c 4 2 c 5 -29 c
4 -29 c 5 -2 c 4 0 c 4 0 c 5 -1 c 4 0 c 4 0 c 5 0 c 4 -1 c 5 0 c 4 0 c 4 0 c 5 1 c 4 0 c 4 0 c 5 0 c 4 1 c 5 1 c 4 4 c 4 2 c 5 0 c
4 -6 c 4 -2 c 5 0 c 4 0 c 5 0 c 4 0 c 4 0 c 5 0 c 4 2 c 4 3 c 5 2 c 4 -1 c 4 -3 c 5 -1 c 4 0 c 5 -1 c 4 0 c 4 0 c 5 0 c 4 1 c 4 2 c
5 0 c 4 -1 c 5 -1 c 4 0 c 4 0 c 5 1 c 4 0 c 4 -1 c 5 1 c 4 0 c 5 0 c 4 4 c 4 2 c 5 0 c 4 0 c 4 -2 c 5 -1 c 4 -2 c 4 -2 c 5 0 c 4 1 c
5 0 c 4 -1 c 4 -1 c 5 0 c 4 0 c 4 -1 c 5 1 c 4 2 c 5 1 c 4 1 c 4 0 c 5 -1 c 4 -1 c 4 1 c 5 0 c 4 -1 c 5 -1 c 4 0 c 4 0 c 5 0 c 4 0 c
4 -1 c 5 1 c 4 -1 c 5 8 c 4 24 c 4 8 c 5 -9 c 4 -24 c 4 -5 c 5 1 c 4 4 c 4 50 c 5 53 c 4 1 c 5 -57 c 4 -49 c 4 -2 c 5 -2 c 4 0 c
4 0 c 5 0 c 4 1 c 5 -1 c 4 1 c 4 0 c 5 -1 c 4 2 c 4 1 c 5 0 c 4 0 c 5 9 c 4 12 c 4 8 c 5 -4 c 4 1 c 4 93 c 5 47 c 4 -14 c 5 -106 c
4 -44 c 4 0 c 5 0 c 4 -2 c 4 -1 c 5 0 c 4 0 c 4 1 c 5 0 c 4 1 c 5 -1 c 4 0 c 4 -1 c 5 0 c 4 0 c 4 0 c 5 0 c 4 2 c 5 2 c 4 -1 c
4 -2 c 5 -1 c 4 1 c 4 0 c 5 -1 c 4 -1 c 5 -1 c 4 1 c 4 0 c 5 1 c 4 0 c 4 0 c 5 1 c 4 0 c 5 0 c 4 0 c 4 0 c 5 0 c 4 0 c 4 1 c 5 1 c
4 1 c 4 2 c 5 2 c 4 5 c 5 45 c 4 641 c 4 1385 c 5 210 c 4 -842 c 4 -1282 c 5 -152 c 4 -11 c 5 -2 c 4 -1 c 4 -1 c 5 -1 c 4 -1 c 4 0 c
5 1 c 4 -1 c 5 -1 c 4 -1 c 4 0 c 5 1 c 4 0 c 4 -1 c 5 0 c 4 0 c 4 0 c 5 0 c 4 0 c 5 -1 c 4 0 c 4 0 c 5 1 c 4 -1 c 4 0 c 5 0 c 4 1 c
5 0 c 4 0 c 4 -1 c 5 -1 c 4 1 c 4 1 c 5 0 c 4 -1 c 5 0 c 4 0 c 4 1 c 5 -1 c 4 0 c 4 0 c 5 1 c 4 0 c 5 0 c 4 0 c 4 -2 c 5 -1 c 4 1 c
4 1 c 5 -1 c 4 0 c 4 0 c 5 1 c 4 1 c 5 -1 c 4 0 c 4 -1 c 5 0 c 4 0 c 4 0 c 5 0 c 4 1 c 5 -1 c 4 -1 c 4 0 c 5 1 c 4 1 c 4 1 c 5 2 c
4 0 c 5 -1 c 4 -2 c 4 -1 c 5 0 c 4 0 c 4 1 c 5 -1 c 4 0 c 5 0 c 4 1 c 4 -1 c 5 0 c 4 0 c 4 0 c 5 0 c 4 4 c 4 1 c 5 -1 c 4 -1 c 5 3 c
4 30 c 4 214 c 5 142 c 4 -21 c 4 -237 c 5 -90 c 4 48 c 5 7 c 4 -20 c 4 -49 c 5 -10 c 4 -14 c 4 -6 c 5 1 c 4 0 c 5 0 c 4 -1 c 4 0 c
5 0 c 4 3 c 4 3 c 5 1 c 4 0 c 5 0 c 4 2 c 4 46 c 5 128 c 4 41 c 4 -56 c 5 -132 c 4 -31 c 4 -1 c 5 -2 c 4 -1 c 5 0 c 4 -1 c 4 0 c
5 0 c 4 0 c 4 0 c 5 1 c 4 2 c 5 9 c 4 8 c 4 -2 c 5 -11 c 4 -6 c 4 -1 c 5 0 c 4 0 c 5 2 c 4 1 c 4 -1 c 5 0 c 4 -1 c 4 2 c 5 2 c 4 6 c
5 -1 c 4 -3 c 4 -6 c 5 -2 c 4 1 c 4 2 c 5 0 c 4 -1 c 4 -1 c 5 1 c 4 12 c 5 11 c 4 -2 c 4 -11 c 5 -9 c 4 -2 c 4 -1 c 5 0 c 4 0 c
5 1 c 4 0 c 4 0 c 5 2 c 4 0 c 4 -1 c 5 0 c 4 0 c 5 -1 c 4 1 c 4 0 c 5 -1 c 4 0 c 4 0 c 5 1 c 4 -1 c 4 -1 c 5 -1 c 4 1 c 5 -1 c 4 0 c
4 0 c 5 0 c 4 0 c 4 -1 c 5 1 c 4 0 c 5 1 c 4 0 c 4 0 c 5 0 c 4 0 c 4 3 c 5 3 c 4 1 c 5 1 c 4 -1 c 4 -1 c 5 -3 c 4 15 c 4 93 c 5 50 c
4 -10 c 5 -99 c 4 -50 c 4 -3 c 5 -1 c 4 0 c 4 0 c 5 0 c 4 0 c 4 3 c 5 16 c 4 60 c 5 33 c 4 -11 c 4 -67 c 5 -29 c 4 -2 c 4 0 c 5 -1 c
4 0 c 5 0 c 4 0 c 4 0 c 5 -1 c 4 0 c 4 0 c 5 0 c 4 0 c 5 7 c 4 8 c 4 1 c 5 -7 c 4 -8 c 4 0 c 5 1 c 4 5 c 5 0 c 4 -2 c 4 -3 c 5 -1 c
4 -1 c 4 0 c 5 4 c 4 3 c 4 1 c 5 -3 c 4 -4 c 5 0 c 4 0 c 4 0 c 5 0 c 4 0 c 4 0 c 5 0 c 4 -1 c 5 0 c 4 0 c 4 1 c 5 1 c 4 -1 c 4 -1 c
5 1 c 4 0 c 5 0 c 4 1 c 4 3 c 5 5 c 4 0 c 4 -3 c 5 -3 c 4 -2 c 5 0 c 4 -1 c 4 -1 c 5 0 c 4 0 c 4 0 c 5 0 c 4 0 c 4 0 c 5 -1 c 4 1 c
5 1 c 4 0 c 4 0 c 5 -1 c 4 1 c 4 0 c 5 0 c 4 -1 c 5 -1 c 4 0 c 4 0 c 5 0 c 4 1 c 4 2 c 5 2 c 4 0 c 5 -2 c 4 -2 c 4 -1 c 5 0 c 4 0 c
4 1 c 5 1 c 4 5 c 5 64 c 4 205 c 4 99 c 5 -61 c 4 -212 c 4 -94 c 5 -6 c 4 -1 c 4 0 c 5 0 c 4 0 c 5 0 c 4 1 c 4 0 c 5 0 c 4 0 c 4 0 c
5 0 c 4 -1 c 5 -1 c 4 0 c 4 -14 c 5 14 c 4 1 c 4 -1 c 5 0 c 4 0 c 5 1 c 4 0 c 4 1 c 5 0 c 4 -1 c 4 0 c 5 -1 c 4 1 c 4 0 c 5 1 c
4 7 c 5 14 c 4 10 c 4 -2 c 5 -14 c 4 -13 c 4 -3 c 5 0 c 4 0 c 5 0 c 4 0 c 4 0 c 5 1 c 4 3 c 4 5 c 5 5 c 4 -2 c 5 -6 c 4 -4 c 4 -2 c
5 0 c 4 0 c 4 0 c 5 0 c 4 -1 c 5 1 c 4 0 c 4 2 c 5 4 c 4 25 c 4 144 c 5 120 c 4 38 c 4 -94 c 5 -111 c 4 -69 c 5 -48 c 4 -9 c 4 -1 c
5 0 c 4 -1 c 4 1 c 5 0 c 4 1 c 5 4 c 4 17 c 4 13 c 5 -6 c 4 -18 c 4 -10 c 5 -1 c 4 -1 c 5 0 c 4 0 c 4 1 c 5 8 c 4 14 c 4 5 c 5 -8 c
4 -15 c 5 -4 c 4 0 c 4 0 c 5 0 c 4 0 c 4 0 c 5 0 c 4 0 c 4 0 c 5 0 c 4 0 c 5 -1 c 4 0 c 4 0 c 5 1 c 4 -1 c 4 1 c 5 0 c 4 0 c 5 -1 c
4 1 c 4 1 c 5 -1 c 4 0 c 4 -1 c 5 1 c 4 0 c 5 0 c 4 0 c 4 1 c 5 -1 c 4 0 c 4 -1 c 5 1 c 4 1 c 5 0 c 4 0 c 4 1 c 5 -1 c 4 1 c 4 12 c
5 69 c 4 37 c 4 -6 c 5 -70 c 4 -40 c 5 -3 c 4 -1 c 4 1 c 5 0 c 4 0 c 4 0 c 5 2 c 4 0 c 5 1 c 4 2 c 4 3 c 5 3 c 4 -1 c 4 -3 c 5 1 c
4 4 c 5 20 c 4 187 c 4 1373 c 5 1159 c 4 124 c 4 -1428 c 5 -1244 c 4 -172 c 4 -16 c 5 0 c 4 15 c 5 165 c 4 381 c 4 144 c 5 -164 c
4 -407 c 4 -133 c 5 -10 c 4 -2 c 5 -1 c 4 0 c 4 -1 c 5 0 c 4 -1 c 4 0 c 5 -1 c 4 0 c 5 0 c 4 -17 c 4 18 c 5 6022 c 4 -17 c 4 7 c
5 0 c 4 -10 c 5 -5511 c 4 -471 c 4 -11 c 5 -1 c 4 0 c 4 -1 c 5 0 c 4 -1 c 4 -1 c 5 1 c 4 -1 c 5 -1 c 4 0 c 4 -1 c 5 1 c 4 7 c 4 12 c
5 2 c 4 -7 c 5 -12 c 4 -3 c 4 -1 c 5 0 c 4 0 c 4 2 c 5 0 c 4 0 c 5 -2 c 4 0 c 4 0 c 5 3 c 4 30 c 4 47 c 5 10 c 4 -32 c 5 -47 c
4 -12 c 4 0 c 5 0 c 4 0 c 4 0 c 5 0 c 4 0 c 4 2 c 5 1 c 4 0 c 5 -3 c 4 -1 c 4 0 c 5 0 c 4 0 c 4 1 c 5 0 c 4 0 c 5 1 c 4 0 c 4 0 c
5 -1 c 4 -1 c 4 0 c 5 1 c 4 2 c 5 1 c 4 0 c 4 -2 c 5 -1 c 4 0 c 4 0 c 5 0 c 4 0 c 5 2 c 4 0 c 4 0 c 5 -1 c 4 0 c 4 0 c 5 1 c 4 -1 c
4 2 c 5 1 c 4 1 c 5 -1 c 4 0 c 4 0 c 5 0 c 4 0 c 4 1 c 5 0 c 4 0 c 5 0 c 4 0 c 4 2 c 5 1 c 4 0 c 4 3 c 5 4 c 4 8 c 5 9 c 4 8 c 4 0 c
5 -8 c 4 -7 c 4 12 c 5 30 c 4 15 c 5 -6 c 4 -17 c 4 18 c 5 86 c 4 980 c 4 4858 c 5 37 c 4 -28 c 4 12 c 5 -4349 c 4 -1515 c 5 -82 c
4 -19 c 4 12 c 5 18 c 4 47 c 4 32 c 5 -7 c 4 -56 c 5 -57 c 4 58 c 4 94 c 5 24 c 4 -71 c 4 -114 c 5 -25 c 4 -1 c 5 -1 c 4 -2 c 4 -1 c
5 -1 c 4 1 c 4 -1 c 5 0 c 4 1 c 4 2 c 5 6 c 4 2 c 5 -4 c 4 -5 c 4 -4 c 5 0 c 4 0 c 4 11 c 5 30 c 4 10 c 5 -8 c 4 -32 c 4 -10 c 5 2 c
4 41 c 4 44 c 5 5 c 4 -40 c 5 -46 c 4 -9 c 4 0 c 5 -1 c 4 -1 c 4 0 c 5 2 c 4 1 c 5 0 c 4 0 c 4 3 c 5 2 c 4 -1 c 4 -4 c 5 -1 c 4 0 c
4 0 c 5 -1 c 4 0 c 5 0 c 4 0 c 4 1 c 5 2 c 4 0 c 4 0 c 5 0 c 4 1 c 5 -1 c 4 -1 c 4 0 c 5 1 c 4 0 c 4 0 c 5 0 c 4 2 c 5 2 c 4 0 c
4 1 c 5 1 c 4 3 c 4 -32 c 5 37 c 4 0 c 5 0 c 4 7 c 4 8 c 5 37 c 4 96 c 4 53 c 5 50 c 4 957 c 4 4796 c 5 8 c 4 -28 c 5 -36 c
4 -4870 c 4 -987 c 5 -53 c 4 -11 c 4 -8 c 5 -8 c 4 -6 c 5 -2 c 4 -2 c 4 -1 c 5 1 c 4 -3 c 4 -4 c 5 -2 c 4 -1 c 5 -1 c 4 0 c 4 0 c
5 0 c 4 -1 c 4 -1 c 5 0 c 4 0 c 5 0 c 4 -1 c 4 -1 c 5 0 c 4 1 c 4 0 c 5 0 c 4 0 c 4 -1 c 5 0 c 4 0 c 5 0 c 4 0 c 4 0 c 5 1 c 4 0 c
4 1 c 5 2 c 4 1 c 5 1 c 4 -1 c 4 -1 c 5 0 c 4 2 c 4 1 c 5 3 c 4 2 c 5 2 c 4 0 c 4 17 c 5 198 c 4 250 c 4 48 c 5 -187 c 4 -210 c
5 22 c 4 1333 c 4 4505 c 5 16 c 4 -20 c 4 -929 c 5 -4442 c 4 -522 c 4 -47 c 5 -8 c 4 -7 c 5 -6 c 4 -6 c 4 3 c 5 2 c 4 -2 c 4 -9 c
5 -5 c 4 -2 c 5 -1 c 4 0 c 4 -1 c 5 -1 c 4 -1 c 4 0 c 5 4 c 4 4 c 5 0 c 4 -3 c 4 -5 c 5 -1 c 4 0 c 4 1 c 5 1 c 4 -1 c 4 -1 c 5 -1 c
4 0 c 5 1 c 4 0 c 4 1 c 5 0 c 4 1 c 4 2 c 5 18 c 4 120 c 5 69 c 4 6 c 4 -79 c 5 -60 c 4 -10 c 4 -25 c 5 -20 c 4 16 c 5 145 c
4 2128 c 4 3209 c 5 495 c 4 -1861 c 4 -3278 c 5 -801 c 4 -55 c 5 -7 c 4 -2 c 4 -1 c 5 -3 c 4 -3 c 4 2 c 5 -1 c 4 -1 c 4 -1 c 5 9 c
4 14 c 5 3 c 4 -10 c 4 -15 c 5 6 c 4 11 c 4 3 c 5 -11 c 4 -15 c 5 -2 c 4 -1 c 4 0 c 5 -1 c 4 0 c 4 0 c 5 0 c 4 2 c 5 5 c 4 3 c
4 -1 c 5 -6 c 4 -3 c 4 0 c 5 0 c 4 0 c 5 -1 c 4 0 c 4 0 c 5 0 c 4 2 c 4 10 c 5 54 c 4 30 c 4 -6 c 5 -50 c 4 -35 c 5 -5 c 4 -1 c
4 1 c 5 -1 c 4 1 c 4 0 c 5 0 c 4 -1 c 5 -1 c 4 2 c 4 0 c 5 0 c 4 -1 c 4 2 c 5 7 c 4 2 c 5 -2 c 4 -6 c 4 -2 c 5 -1 c 4 0 c 4 -1 c
5 2 c 4 5 c 5 2 c 4 -2 c 4 -5 c 5 -1 c 4 1 c 4 -1 c 5 0 c 4 0 c 4 0 c 5 0 c 4 -1 c 5 0 c 4 -1 c 4 1 c 5 0 c 4 0 c 4 1 c 5 -1 c 4 0 c
5 1 c 4 0 c 4 1 c 5 -1 c 4 0 c 4 0 c 5 0 c 4 6 c 5 26 c 4 29 c 4 5 c 5 -26 c 4 -32 c 4 -6 c 5 -1 c 4 1 c 5 -1 c 4 0 c 4 -1 c 5 2 c
4 1 c 4 1 c 5 0 c 4 2 c 4 9 c 5 136 c 4 767 c 5 451 c 4 -87 c 4 -730 c 5 -494 c 4 -50 c 4 -3 c 5 -2 c 4 -1 c 5 -1 c 4 -1 c 4 0 c
5 0 c 4 0 c 4 1 c 5 0 c 4 0 c 5 -1 c 4 1 c 4 0 c 5 -1 c 4 0 c 4 -1 c 5 0 c 4 0 c 4 0 c 5 1 c 4 8 c 5 13 c 4 1 c 4 -6 c 5 -14 c
4 -2 c 4 1 c 5 0 c 4 6 c 5 62 c 4 75 c 4 7 c 5 -53 c 4 -88 c 4 -10 c 5 -1 c 4 1 c 5 1 c 4 2 c 4 2 c 5 0 c 4 0 c 4 -2 c 5 -1 c 4 -2 c
5 -1 c 4 0 c 4 0 c 5 0 c 4 0 c 4 0 c 5 0 c 4 0 c 4 2 c 5 1 c 4 0 c 5 -3 c 4 0 c 4 0 c 5 0 c 4 0 c 4 -1 c 5 1 c 4 0 c 5 1 c 4 16 c
4 18 c 5 2 c 4 -13 c 4 -20 c 5 -2 c 4 3 c 5 5 c 4 0 c 4 -4 c 5 -5 c 4 0 c 4 0 c 5 0 c 4 0 c 5 0 c 4 0 c 4 0 c 5 1 c 4 19 c 4 29 c
5 2 c 4 -18 c 4 -27 c 5 -4 c 4 0 c 5 -1 c 4 -1 c 4 5 c 5 4 c 4 6 c 4 -1 c 5 -3 c 4 -7 c 5 -3 c 4 -1 c 4 0 c 5 1 c 4 0 c 4 0 c 5 1 c
4 1 c 5 1 c 4 2 c 4 4 c 5 23 c 4 226 c 4 654 c 5 267 c 4 -171 c 5 -678 c 4 -283 c 4 -31 c 5 -2 c 4 1 c 4 -1 c 5 0 c 4 10 c 4 107 c
5 920 c 4 1040 c 5 72 c 4 -748 c 4 -1239 c 5 -147 c 4 -18 c 4 -1 c 5 0 c 4 -1 c 5 -4 c 4 -3 c 4 -2 c 5 0 c 4 0 c 4 1 c 5 0 c 4 -1 c
5 -1 c 4 0 c 4 0 c 5 -1 c 4 0 c 4 0 c 5 0 c 4 0 c 4 2 c 5 4 c 4 0 c 5 -2 c 4 -3 c 4 3 c 5 1 c 4 0 c 4 -3 c 5 -2 c 4 -1 c 5 -1 c
4 0 c 4 0 c 5 1 c 4 -1 c 4 0 c 5 0 c 4 1 c 5 1 c 4 0 c 4 -1 c 5 -1 c 4 0 c 4 0 c 5 0 c 4 0 c 5 0 c 4 0 c 4 -1 c 5 0 c 4 1 c 4 0 c
5 1 c 4 0 c 4 -1 c 5 0 c 4 1 c 5 0 c 4 0 c 4 0 c 5 3 c 4 8 c 4 3 c 5 -2 c 4 -9 c 5 -4 c 4 0 c 4 0 c 5 0 c 4 0 c 4 0 c 5 0 c 4 0 c
5 0 c 4 1 c 4 2 c 5 0 c 4 -2 c 4 -1 c 5 0 c 4 0 c 5 0 c 4 1 c 4 -1 c 5 0 c 4 0 c 4 1 c 5 -1 c 4 1 c 4 0 c 5 0 c 4 -1 c 5 0 c 4 0 c
4 -1 c 5 1 c 4 0 c 4 0 c 5 0 c 4 0 c 5 4 c 4 3 c 4 3 c 5 1 c 4 -2 c 4 -3 c 5 -5 c 4 -2 c 5 1 c 4 0 c 4 0 c 5 0 c 4 0 c 4 0 c 5 -1 c
4 1 c 5 1 c 4 1 c 4 -1 c 5 -1 c 4 0 c 4 4 c 5 12 c 4 16 c 4 1 c 5 -9 c 4 -19 c 5 -4 c 4 -1 c 4 -1 c 5 0 c 4 0 c 4 1 c 5 0 c 4 0 c
5 -1 c 4 0 c 4 2 c 5 0 c 4 -1 c 4 0 c 5 -1 c 4 1 c 5 0 c 4 -1 c 4 0 c 5 0 c 4 0 c 4 1 c 5 0 c 4 0 c 5 1 c 4 0 c 4 -1 c 5 0 c 4 0 c
4 -1 c 5 0 c 4 0 c 4 1 c 5 0 c 4 0 c 5 0 c 4 -1 c 4 0 c 5 0 c 4 1 c 4 1 c 5 1 c 4 1 c 5 17 c 4 140 c 4 230 c 5 51 c 4 -108 c
4 -248 c 5 -78 c 4 -3 c 5 0 c 4 0 c 4 -2 c 5 -1 c 4 -1 c 4 0 c 5 -1 c 4 0 c 4 1 c 5 0 c 4 1 c 5 0 c 4 1 c 4 2 c 5 9 c 4 36 c 4 37 c
5 6 c 4 -28 c 5 -45 c 4 -15 c 4 -3 c 5 -2 c 4 0 c 4 0 c 5 0 c 4 1 c 5 0 c 4 -1 c 4 0 c 5 0 c 4 1 c 4 5 c 5 1 c 4 0 c 5 -5 c 4 -1 c
4 1 c 5 5 c 4 2 c 4 -1 c 5 1 c 4 0 c 4 -1 c 5 -5 c 4 -3 c 5 -1 c 4 0 c 4 0 c 5 0 c 4 1 c 4 0 c 5 1 c 4 -1 c 5 -1 c 4 0 c 4 0 c 5 0 c
4 1 c 4 0 c 5 0 c 4 0 c 5 0 c 4 0 c 4 0 c 5 0 c 4 -1 c 4 1 c 5 0 c 4 1 c 5 0 c 4 1 c 4 6 c 5 2 c 4 -1 c 4 5 c 5 86 c 4 213 c 4 84 c
5 -63 c 4 -219 c 5 -106 c 4 -7 c 4 -1 c 5 0 c 4 0 c 4 13 c 5 58 c 4 35 c 5 -4 c 4 -49 c 4 -47 c 5 -4 c 4 -2 c 4 -1 c 5 0 c 4 0 c
5 0 c 4 1 c 4 0 c 5 5 c 4 45 c 4 114 c
5 43 c 4 -27 c 5 -107 c 4 -67 c 4 -20 c 5 0 c 4 17 c 4 -1 c 5 -3 c 4 0 c 4 0 c 5 0 c 4 0 c 5 0 c 4 0 c 4 1 c 5 0 c 4 -1 c 4 0 c
5 0 c 4 0 c 5 0 c 4 0 c 4 0 c 5 1 c 4 0 c 4 1 c 5 1 c 4 4 c 5 0 c 4 -1 c 4 1 c 5 10 c 4 7 c 4 0 c 5 -6 c 4 -3 c 5 14 c 4 160 c
4 1055 c 5 1524 c 4 277 c 4 -810 c 5 -1671 c 4 -506 c
0 -126 3303 418 l 54 0 3303 418 l 18 -6 c 6 -6 c 6 -12 c 0 -12 c -6 -12 c -6 -6 c -18 -6 c -54 0 c 42 -66 3345 358 l
-12 -6 3453 376 l -12 -12 c -6 -18 c 0 -12 c 6 -18 c 12 -12 c 12 -6 c 18 0 c 12 6 c 12 12 c 6 18 c 0 12 c -6 18 c -12 12 c -12 6 c
-18 0 c 24 -84 3537 376 l -24 -84 3585 376 l 24 -84 3585 376 l -24 -84 3633 376 l 108 0 3675 364 l 108 0 3675 328 l 12 6 3939 394 l
18 18 c 0 -126 c 12 6 4059 394 l 18 18 c 0 -126 c -12 -6 4287 376 l -12 -12 c -6 -18 c 0 -12 c 6 -18 c 12 -12 c 12 -6 c 18 0 c
12 6 c 12 12 c 6 18 c 0 12 c -6 18 c -12 12 c -12 6 c -18 0 c -12 0 4413 418 l -12 -6 c -6 -18 c 0 -102 c 42 0 4365 376 l
0 6 4545 388 l 6 12 c 6 6 c 12 6 c 24 0 c 12 -6 c 6 -6 c 6 -12 c 0 -12 c -6 -12 c -12 -18 c -60 -60 c 84 0 c -18 -6 4695 418 l
-12 -18 c -6 -30 c 0 -18 c 6 -30 c 12 -18 c 18 -6 c 12 0 c 18 6 c 12 18 c 6 30 c 0 18 c -6 30 c -12 18 c -18 6 c -12 0 c
12 6 5181 394 l 18 18 c 0 -126 c -6 -6 5294 376 l 6 -6 c 6 6 c -6 6 c -6 -6 5294 304 l 6 -6 c 6 6 c -6 6 c -48 -126 5474 418 l
48 -126 5474 418 l 60 0 5444 334 l 0 -84 5552 376 l 6 18 5552 340 l 12 12 c 12 6 c 18 0 c -12 12 5696 358 l -12 6 c -18 0 c -12 -6 c
-12 -12 c -6 -18 c 0 -12 c 6 -18 c 12 -12 c 12 -6 c 18 0 c 12 6 c 12 12 c 108 0 5738 346 l 12 6 5906 394 l 18 18 c 0 -126 c
66 0 6020 418 l -36 -48 c 18 0 c 12 -6 c 6 -6 c 6 -18 c 0 -12 c -6 -18 c -12 -12 c -18 -6 c -18 0 c -18 6 c -6 6 c -6 12 c
-60 -126 6212 418 l 84 0 6128 418 l -6 -6 6260 304 l 6 -6 c 6 6 c -6 6 c -12 0 6350 418 l -12 -6 c -6 -18 c 0 -102 c 42 0 6302 376 l
6 -6 6380 418 l 6 6 c -6 6 c -6 -6 c 0 -84 6386 376 l 0 -102 6440 418 l 6 -18 c 12 -6 c 12 0 c 42 0 6422 376 l -6 12 6566 358 l
-18 6 c -18 0 c -18 -6 c -6 -12 c 6 -12 c 12 -6 c 30 -6 c 12 -6 c 6 -12 c 0 -6 c -6 -12 c -18 -6 c -18 0 c -18 6 c -6 12 c
0 -192 6896 442 l 0 -192 6902 442 l 42 0 6896 442 l 42 0 6896 250 l 0 6 6980 388 l 6 12 c 6 6 c 12 6 c 24 0 c 12 -6 c 6 -6 c 6 -12 c
0 -12 c -6 -12 c -12 -18 c -60 -60 c 84 0 c -6 -6 7106 376 l 6 -6 c 6 6 c -6 6 c -6 -6 7106 304 l 6 -6 c 6 6 c -6 6 c
0 -192 7286 442 l 0 -192 7292 442 l 42 0 7250 442 l 42 0 7250 250 l
0 -249 1456 6143 l -8 -3 1424 6264 l -3 -12 c 0 -7 c 3 -12 c 12 -7 c 19 -4 c 18 0 c 16 4 c 7 7 c 4 12 c 0 3 c -4 12 c -7 7 c -12 4 c
-4 0 c -11 -4 c -7 -7 c -4 -12 c 0 -3 c 4 -12 c 7 -7 c 11 -4 c 0 -38 1413 6336 l 34 -3 c -4 3 c -4 12 c 0 11 c 4 11 c 7 8 c 12 4 c
7 0 c 12 -4 c 7 -8 c 4 -11 c 0 -11 c -4 -12 c -4 -3 c -7 -4 c 0 41 1413 6374 l 30 -22 c 0 11 c 4 8 c 3 3 c 12 4 c 7 0 c 12 -4 c
7 -7 c 4 -11 c 0 -12 c -4 -11 c -4 -4 c -7 -4 c -4 8 1428 6453 l -11 11 c 79 0 c 4 -4 1484 6525 l 4 4 c -4 4 c -4 -4 c
0 41 1413 6563 l 30 -22 c 0 11 c 4 8 c 3 3 c 12 4 c 7 0 c 12 -4 c 7 -7 c 4 -11 c 0 -12 c -4 -11 c -4 -4 c -7 -4 c 52 -38 1413 6669 l
0 57 c 79 0 1413 6669 l -3 0 1431 6710 l -8 4 c -4 4 c -3 7 c 0 16 c 3 7 c 4 4 c 8 4 c 7 0 c 8 -4 c 11 -8 c 38 -38 c 0 53 c
0 -249 2051 1723 l -7 -4 2019 1844 l -4 -11 c 0 -8 c 4 -11 c 11 -7 c 19 -4 c 19 0 c 15 4 c 7 7 c 4 11 c 0 4 c -4 12 c -7 7 c -12 4 c
-3 0 c -12 -4 c -7 -7 c -4 -12 c 0 -4 c 4 -11 c 7 -7 c 12 -4 c 0 -38 2008 1916 l 34 -4 c -4 4 c -4 11 c 0 12 c 4 11 c 8 8 c 11 3 c
7 0 c 12 -3 c 7 -8 c 4 -11 c 0 -12 c -4 -11 c -3 -4 c -8 -3 c 0 41 2008 1954 l 30 -22 c 0 11 c 4 8 c 4 3 c 11 4 c 7 0 c 12 -4 c
7 -7 c 4 -12 c 0 -11 c -4 -11 c -3 -4 c -8 -4 c 4 -12 2008 2041 l 7 -3 c 8 0 c 7 3 c 4 8 c 4 15 c 4 11 c 7 8 c 8 4 c 11 0 c 8 -4 c
3 -4 c 4 -11 c 0 -15 c -4 -12 c -3 -3 c -8 -4 c -11 0 c -8 4 c -7 7 c -4 11 c -4 16 c -4 7 c -7 4 c -8 0 c -7 -4 c -4 -11 c 0 -15 c
3 -4 2080 2105 l 4 4 c -4 4 c -3 -4 c -4 8 2023 2146 l -11 11 c 79 0 c -4 8 2023 2222 l -11 11 c 79 0 c -4 0 2027 2290 l -8 4 c
-3 4 c -4 7 c 0 15 c 4 8 c 3 4 c 8 3 c 7 0 c 8 -3 c 11 -8 c 38 -38 c 0 53 c 0 -249 2728 1294 l -7 -4 2695 1415 l -4 -11 c 0 -8 c
4 -11 c 11 -7 c 19 -4 c 19 0 c 15 4 c 8 7 c 3 11 c 0 4 c -3 12 c -8 7 c -11 4 c -4 0 c -11 -4 c -8 -7 c -4 -12 c 0 -4 c 4 -11 c
8 -7 c 11 -4 c 0 -38 2684 1487 l 34 -4 c -4 4 c -4 11 c 0 12 c 4 11 c 8 8 c 11 3 c 8 0 c 11 -3 c 8 -8 c 3 -11 c 0 -12 c -3 -11 c
-4 -4 c -8 -3 c 53 -38 2684 1555 l 0 57 c 79 0 2684 1555 l 0 -38 2684 1638 l 34 -3 c -4 3 c -4 12 c 0 11 c 4 11 c 8 8 c 11 4 c 8 0 c
11 -4 c 8 -8 c 3 -11 c 0 -11 c -3 -12 c -4 -3 c -8 -4 c 4 -4 2756 1676 l 3 4 c -3 4 c -4 -4 c 79 -38 2684 1759 l 0 53 2684 1706 l
-4 8 2699 1793 l -11 11 c 79 0 c 12 -3 2710 1906 l 7 -8 c 4 -11 c 0 -4 c -4 -11 c -7 -8 c -12 -4 c -3 0 c -12 4 c -7 8 c -4 11 c
0 4 c 4 11 c 7 8 c 15 3 c 19 0 c 19 -3 c 12 -8 c 3 -11 c 0 -8 c -3 -11 c -8 -4 c 0 -250 3263 1404 l -7 -4 3231 1525 l -4 -11 c
0 -8 c 4 -11 c 11 -8 c 19 -4 c 19 0 c 15 4 c 7 8 c 4 11 c 0 4 c -4 11 c -7 8 c -12 4 c -3 0 c -12 -4 c -7 -8 c -4 -11 c 0 -4 c
4 -11 c 7 -8 c 12 -4 c 0 -38 3220 1597 l 34 -4 c -4 4 c -4 11 c 0 11 c 4 12 c 8 7 c 11 4 c 7 0 c 12 -4 c 7 -7 c 4 -12 c 0 -11 c
-4 -11 c -3 -4 c -8 -4 c 0 -38 3220 1672 l 34 -3 c -4 3 c -4 12 c 0 11 c 4 11 c 8 8 c 11 4 c 7 0 c 12 -4 c 7 -8 c 4 -11 c 0 -11 c
-4 -12 c -3 -3 c -8 -4 c -4 7 3235 1714 l -11 12 c 79 0 c 3 -4 3292 1786 l 4 4 c -4 3 c -3 -3 c 79 -38 3220 1869 l 0 53 3220 1816 l
4 -11 3220 1914 l 11 -8 c 19 -4 c 11 0 c 19 4 c 11 8 c 4 11 c 0 8 c -4 11 c -11 8 c -19 3 c -11 0 c -19 -3 c -11 -8 c -4 -11 c
0 -8 c -7 -4 3231 2016 l -4 -11 c 0 -8 c 4 -11 c 11 -7 c 19 -4 c 19 0 c 15 4 c 7 7 c 4 11 c 0 4 c -4 12 c -7 7 c -12 4 c -3 0 c
-12 -4 c -7 -7 c -4 -12 c 0 -4 c 4 -11 c 7 -7 c 12 -4 c 0 -250 3485 3531 l -7 -4 3452 3652 l -4 -12 c 0 -7 c 4 -11 c 11 -8 c 19 -4 c
19 0 c 15 4 c 8 8 c 3 11 c 0 4 c -3 11 c -8 8 c -11 3 c -4 0 c -11 -3 c -8 -8 c -4 -11 c 0 -4 c 4 -11 c 8 -8 c 11 -4 c
0 -37 3441 3723 l 34 -4 c -4 4 c -4 11 c 0 11 c 4 12 c 8 7 c 11 4 c 8 0 c 11 -4 c 8 -7 c 3 -12 c 0 -11 c -3 -11 c -4 -4 c -8 -4 c
0 -38 3441 3799 l 34 -4 c -4 4 c -4 11 c 0 12 c 4 11 c 8 8 c 11 3 c 8 0 c 11 -3 c 8 -8 c 3 -11 c 0 -12 c -3 -11 c -4 -4 c -8 -3 c
53 -38 3441 3867 l 0 57 c 79 0 3441 3867 l 4 -3 3513 3912 l 3 3 c -3 4 c -4 -4 c -4 7 3456 3954 l -11 12 c 79 0 c -7 -4 3452 4067 l
-4 -11 c 0 -7 c 4 -12 c 11 -7 c 19 -4 c 19 0 c 15 4 c 8 7 c 3 12 c 0 3 c -3 12 c -8 7 c -11 4 c -4 0 c -11 -4 c -8 -7 c -4 -12 c
0 -3 c 4 -12 c 8 -7 c 11 -4 c 4 -11 3441 4116 l 11 -7 c 19 -4 c 11 0 c 19 4 c 12 7 c 3 11 c 0 8 c -3 11 c -12 8 c -19 4 c -11 0 c
-19 -4 c -11 -8 c -4 -11 c 0 -8 c 0 -249 3911 1625 l -8 -4 3879 1746 l -4 -11 c 0 -7 c 4 -12 c 12 -7 c 18 -4 c 19 0 c 15 4 c 8 7 c
4 12 c 0 3 c -4 12 c -8 7 c -11 4 c -4 0 c -11 -4 c -8 -7 c -3 -12 c 0 -3 c 3 -12 c 8 -7 c 11 -4 c 0 -38 3867 1818 l 34 -4 c -3 4 c
-4 12 c 0 11 c 4 11 c 7 8 c 12 4 c 7 0 c 11 -4 c 8 -8 c 4 -11 c 0 -11 c -4 -12 c -4 -4 c -7 -3 c 0 -38 3867 1894 l 34 -4 c -3 4 c
-4 11 c 0 12 c 4 11 c 7 7 c 12 4 c 7 0 c 11 -4 c 8 -7 c 4 -11 c 0 -12 c -4 -11 c -4 -4 c -7 -4 c 4 -12 3867 1943 l 8 -3 c 7 0 c
8 3 c 4 8 c 3 15 c 4 11 c 8 8 c 7 4 c 12 0 c 7 -4 c 4 -4 c 4 -11 c 0 -15 c -4 -12 c -4 -3 c -7 -4 c -12 0 c -7 4 c -8 7 c -4 12 c
-3 15 c -4 7 c -8 4 c -7 0 c -8 -4 c -4 -11 c 0 -15 c 4 -4 3939 2007 l 4 4 c -4 4 c -4 -4 c 4 -11 3867 2056 l 8 -4 c 7 0 c 8 4 c
4 7 c 3 16 c 4 11 c 8 7 c 7 4 c 12 0 c 7 -4 c 4 -3 c 4 -12 c 0 -15 c -4 -11 c -4 -4 c -7 -4 c -12 0 c -7 4 c -8 8 c -4 11 c -3 15 c
-4 8 c -8 3 c -7 0 c -8 -3 c -4 -12 c 0 -15 c 80 -38 3867 2166 l 0 53 3867 2113 l -8 -4 3879 2238 l -4 -12 c 0 -7 c 4 -11 c 12 -8 c
18 -4 c 19 0 c 15 4 c 8 8 c 4 11 c 0 4 c -4 11 c -8 8 c -11 3 c -4 0 c -11 -3 c -8 -8 c -3 -11 c 0 -4 c 3 -11 c 8 -8 c 11 -4 c
0 -250 4418 1394 l -8 -4 4386 1515 l -4 -11 c 0 -8 c 4 -11 c 11 -8 c 19 -4 c 19 0 c 15 4 c 8 8 c 4 11 c 0 4 c -4 11 c -8 8 c -11 3 c
-4 0 c -11 -3 c -8 -8 c -4 -11 c 0 -4 c 4 -11 c 8 -8 c 11 -4 c 0 -37 4374 1586 l 34 -4 c -4 4 c -3 11 c 0 11 c 3 12 c 8 7 c 11 4 c
8 0 c 11 -4 c 8 -7 c 4 -12 c 0 -11 c -4 -11 c -4 -4 c -8 -4 c -8 -4 4386 1666 l -4 -11 c 0 -8 c 4 -11 c 11 -8 c 19 -4 c 19 0 c
15 4 c 8 8 c 4 11 c 0 4 c -4 11 c -8 8 c -11 4 c -4 0 c -11 -4 c -8 -8 c -4 -11 c 0 -4 c 4 -11 c 8 -8 c 11 -4 c 53 -38 4374 1730 l
0 57 c 80 0 4374 1730 l 4 -3 4446 1775 l 4 3 c -4 4 c -4 -4 c 53 -37 4374 1843 l 0 56 c 80 0 4374 1843 l 53 -38 4374 1919 l 0 57 c
80 0 4374 1919 l 53 -38 4374 1995 l 0 57 c 80 0 4374 1995 l 0 -250 4894 1606 l -7 -4 4861 1727 l -4 -11 c 0 -8 c 4 -11 c 11 -8 c
19 -4 c 19 0 c 15 4 c 8 8 c 3 11 c 0 4 c -3 11 c -8 8 c -11 4 c -4 0 c -11 -4 c -8 -8 c -4 -11 c 0 -4 c 4 -11 c 8 -8 c 11 -4 c
0 -38 4850 1799 l 34 -4 c -4 4 c -3 11 c 0 11 c 3 12 c 8 7 c 11 4 c 8 0 c 11 -4 c 8 -7 c 3 -12 c 0 -11 c -3 -11 c -4 -4 c -8 -4 c
-7 -4 4861 1878 l -4 -11 c 0 -8 c 4 -11 c 11 -8 c 19 -3 c 19 0 c 15 3 c 8 8 c 3 11 c 0 4 c -3 11 c -8 8 c -11 4 c -4 0 c -11 -4 c
-8 -8 c -4 -11 c 0 -4 c 4 -11 c 8 -8 c 11 -3 c 11 -4 4877 1954 l 7 -8 c 4 -11 c 0 -4 c -4 -11 c -7 -8 c -11 -4 c -4 0 c -12 4 c
-7 8 c -4 11 c 0 4 c 4 11 c 7 8 c 16 4 c 18 0 c 19 -4 c 12 -8 c 3 -11 c 0 -8 c -3 -11 c -8 -4 c 4 -4 4922 1988 l 3 4 c -3 3 c
-4 -3 c -7 -4 4861 2067 l -4 -11 c 0 -8 c 4 -11 c 11 -8 c 19 -3 c 19 0 c 15 3 c 8 8 c 3 11 c 0 4 c -3 11 c -8 8 c -11 4 c -4 0 c
-11 -4 c -8 -8 c -4 -11 c 0 -4 c 4 -11 c 8 -8 c 11 -3 c 0 42 4850 2101 l 30 -23 c 0 11 c 4 8 c 4 4 c 11 3 c 8 0 c 11 -3 c 8 -8 c
3 -11 c 0 -12 c -3 -11 c -4 -4 c -8 -4 c -4 0 4869 2173 l -7 4 c -4 3 c -4 8 c 0 15 c 4 8 c 4 3 c 7 4 c 8 0 c 7 -4 c 12 -7 c
37 -38 c 0 53 c 0 -250 5493 1353 l -8 -3 5461 1473 l -3 -12 c 0 -7 c 3 -12 c 12 -7 c 19 -4 c 19 0 c 15 4 c 7 7 c 4 12 c 0 4 c
-4 11 c -7 7 c -12 4 c -3 0 c -12 -4 c -7 -7 c -4 -11 c 0 -4 c 4 -12 c 7 -7 c 12 -4 c 0 -38 5450 1545 l 34 -3 c -4 3 c -4 12 c
0 11 c 4 11 c 7 8 c 12 4 c 7 0 c 12 -4 c 7 -8 c 4 -11 c 0 -11 c -4 -12 c -4 -3 c -7 -4 c 79 -37 5450 1628 l 0 52 5450 1576 l
-8 -4 5461 1700 l -3 -11 c 0 -7 c 3 -12 c 12 -7 c 19 -4 c 19 0 c 15 4 c 7 7 c 4 12 c 0 3 c -4 12 c -7 7 c -12 4 c -3 0 c -12 -4 c
-7 -7 c -4 -12 c 0 -3 c 4 -12 c 7 -7 c 12 -4 c 4 -4 5521 1734 l 4 4 c -4 4 c -4 -4 c -4 7 5465 1776 l -11 12 c 79 0 c
-4 0 5469 1844 l -8 4 c -4 3 c -3 8 c 0 15 c 3 8 c 4 3 c 8 4 c 7 0 c 8 -4 c 11 -7 c 38 -38 c 0 53 c -4 0 5469 1919 l -8 4 c -4 4 c
-3 8 c 0 15 c 3 7 c 4 4 c 8 4 c 7 0 c 8 -4 c 11 -8 c 38 -37 c 0 53 c 0 -249 5595 4108 l -7 -3 5562 4229 l -4 -12 c 0 -7 c 4 -12 c
11 -7 c 19 -4 c 19 0 c 15 4 c 8 7 c 4 12 c 0 3 c -4 12 c -8 7 c -11 4 c -4 0 c -11 -4 c -8 -7 c -4 -12 c 0 -3 c 4 -12 c 8 -7 c
11 -4 c 0 -38 5551 4301 l 34 -3 c -4 3 c -3 12 c 0 11 c 3 11 c 8 8 c 11 4 c 8 0 c 11 -4 c 8 -8 c 4 -11 c 0 -11 c -4 -12 c -4 -3 c
-8 -4 c 80 -37 5551 4384 l 0 53 5551 4331 l 80 -38 5551 4460 l 0 53 5551 4407 l 4 -4 5623 4490 l 4 4 c -4 4 c -4 -4 c
-4 0 5570 4524 l -7 4 c -4 4 c -4 7 c 0 15 c 4 8 c 4 4 c 7 3 c 8 0 c 7 -3 c 12 -8 c 38 -38 c 0 53 c -4 8 5566 4607 l -11 11 c 80 0 c
0 -38 5551 4717 l 34 -4 c -4 4 c -3 11 c 0 12 c 3 11 c 8 8 c 11 3 c 8 0 c 11 -3 c 8 -8 c 4 -11 c 0 -12 c -4 -11 c -4 -4 c -8 -3 c
0 -250 5876 1327 l -7 -4 5843 1448 l -4 -11 c 0 -8 c 4 -11 c 11 -8 c 19 -3 c 19 0 c 15 3 c 8 8 c 3 11 c 0 4 c -3 11 c -8 8 c -11 4 c
-4 0 c -11 -4 c -8 -8 c -4 -11 c 0 -4 c 4 -11 c 8 -8 c 11 -3 c 0 -38 5832 1520 l 34 -4 c -4 4 c -4 11 c 0 12 c 4 11 c 8 8 c 11 3 c
8 0 c 11 -3 c 8 -8 c 3 -11 c 0 -12 c -3 -11 c -4 -4 c -8 -4 c 4 -11 5832 1569 l 7 -4 c 8 0 c 7 4 c 4 7 c 4 15 c 4 12 c 7 7 c 8 4 c
11 0 c 8 -4 c 4 -4 c 3 -11 c 0 -15 c -3 -11 c -4 -4 c -8 -4 c -11 0 c -8 4 c -7 7 c -4 12 c -4 15 c -4 7 c -7 4 c -8 0 c -7 -4 c
-4 -11 c 0 -15 c 4 -11 5832 1648 l 11 -8 c 19 -3 c 11 0 c 19 3 c 12 8 c 3 11 c 0 8 c -3 11 c -12 8 c -19 3 c -11 0 c -19 -3 c
-11 -8 c -4 -11 c 0 -8 c 4 -4 5904 1709 l 3 4 c -3 3 c -4 -3 c -4 0 5851 1743 l -7 3 c -4 4 c -4 8 c 0 15 c 4 8 c 4 3 c 7 4 c 8 0 c
7 -4 c 12 -7 c 37 -38 c 0 53 c 0 42 5832 1822 l 30 -23 c 0 11 c 4 8 c 4 4 c 11 3 c 8 0 c 11 -3 c 8 -8 c 3 -11 c 0 -12 c -3 -11 c
-4 -4 c -8 -3 c 4 -12 5832 1913 l 11 -7 c 19 -4 c 11 0 c 19 4 c 12 7 c 3 12 c 0 7 c -3 12 c -12 7 c -19 4 c -11 0 c -19 -4 c
-11 -7 c -4 -12 c 0 -7 c 0 -249 6220 7019 l -8 -4 6188 7140 l -4 -11 c 0 -8 c 4 -11 c 12 -8 c 18 -3 c 19 0 c 15 3 c 8 8 c 4 11 c
0 4 c -4 11 c -8 8 c -11 4 c -4 0 c -11 -4 c -8 -8 c -3 -11 c 0 -4 c 3 -11 c 8 -8 c 11 -3 c 0 -38 6176 7212 l 34 -4 c -3 4 c -4 11 c
0 12 c 4 11 c 7 8 c 12 3 c 7 0 c 11 -3 c 8 -8 c 4 -11 c 0 -12 c -4 -11 c -4 -4 c -7 -3 c 4 -11 6176 7261 l 8 -4 c 7 0 c 8 4 c 4 7 c
3 15 c 4 12 c 8 7 c 7 4 c 12 0 c 7 -4 c 4 -4 c 4 -11 c 0 -15 c -4 -11 c -4 -4 c -7 -4 c -12 0 c -7 4 c -8 7 c -4 12 c -3 15 c -4 7 c
-8 4 c -7 0 c -8 -4 c -4 -11 c 0 -15 c 0 42 6176 7325 l 31 -23 c 0 11 c 3 8 c 4 4 c 12 4 c 7 0 c 11 -4 c 8 -8 c 4 -11 c 0 -11 c
-4 -12 c -4 -4 c -7 -3 c 4 -4 6248 7401 l 4 4 c -4 4 c -4 -4 c 11 -4 6203 7480 l 8 -7 c 4 -11 c 0 -4 c -4 -12 c -8 -7 c -11 -4 c
-4 0 c -11 4 c -8 7 c -4 12 c 0 4 c 4 11 c 8 7 c 15 4 c 19 0 c 19 -4 c 11 -7 c 4 -11 c 0 -8 c -4 -11 c -8 -4 c 4 -11 6176 7529 l
12 -8 c 18 -3 c 12 0 c 19 3 c 11 8 c 4 11 c 0 8 c -4 11 c -11 8 c -19 4 c -12 0 c -18 -4 c -12 -8 c -4 -11 c 0 -8 c
-8 -3 6188 7631 l -4 -12 c 0 -7 c 4 -12 c 12 -7 c 18 -4 c 19 0 c 15 4 c 8 7 c 4 12 c 0 3 c -4 12 c -8 7 c -11 4 c -4 0 c -11 -4 c
-8 -7 c -3 -12 c 0 -3 c 3 -12 c 8 -7 c 11 -4 c 0 -249 6657 7019 l -8 -4 6625 7140 l -4 -11 c 0 -8 c 4 -11 c 11 -8 c 19 -3 c 19 0 c
15 3 c 8 8 c 4 11 c 0 4 c -4 11 c -8 8 c -11 4 c -4 0 c -11 -4 c -8 -8 c -3 -11 c 0 -4 c 3 -11 c 8 -8 c 11 -3 c 0 -38 6613 7212 l
34 -4 c -3 4 c -4 11 c 0 12 c 4 11 c 7 8 c 11 3 c 8 0 c 11 -3 c 8 -8 c 4 -11 c 0 -12 c -4 -11 c -4 -4 c -7 -3 c 4 -11 6613 7261 l
8 -4 c 7 0 c 8 4 c 4 7 c 3 15 c 4 12 c 8 7 c 7 4 c 12 0 c 7 -4 c 4 -4 c 4 -11 c 0 -15 c -4 -11 c -4 -4 c -7 -4 c -12 0 c -7 4 c
-8 7 c -4 12 c -3 15 c -4 7 c -8 4 c -7 0 c -8 -4 c -4 -11 c 0 -15 c 4 -12 6613 7337 l 8 -4 c 7 0 c 8 4 c 4 8 c 3 15 c 4 11 c 8 8 c
7 4 c 12 0 c 7 -4 c 4 -4 c 4 -11 c 0 -15 c -4 -12 c -4 -4 c -7 -3 c -12 0 c -7 3 c -8 8 c -4 11 c -3 15 c -4 8 c -8 4 c -7 0 c
-8 -4 c -4 -11 c 0 -15 c 4 -4 6685 7401 l 4 4 c -4 4 c -4 -4 c 0 -37 6613 7476 l 34 -4 c -3 4 c -4 11 c 0 11 c 4 12 c 7 7 c 11 4 c
8 0 c 11 -4 c 8 -7 c 4 -12 c 0 -11 c -4 -11 c -4 -4 c -7 -4 c 53 -37 6613 7544 l 0 56 c 80 0 6613 7544 l 4 -11 6613 7605 l 11 -8 c
19 -4 c 12 0 c 19 4 c 11 8 c 4 11 c 0 7 c -4 12 c -11 7 c -19 4 c -12 0 c -19 -4 c -11 -7 c -4 -12 c 0 -7 c 0 -249 6936 7019 l
-8 -4 6904 7140 l -3 -11 c 0 -8 c 3 -11 c 12 -8 c 19 -3 c 18 0 c 16 3 c 7 8 c 4 11 c 0 4 c -4 11 c -7 8 c -12 4 c -4 0 c -11 -4 c
-7 -8 c -4 -11 c 0 -4 c 4 -11 c 7 -8 c 11 -3 c 0 -38 6893 7212 l 34 -4 c -4 4 c -4 11 c 0 12 c 4 11 c 7 8 c 12 3 c 7 0 c 12 -3 c
7 -8 c 4 -11 c 0 -12 c -4 -11 c -4 -4 c -7 -3 c 11 -4 6919 7291 l 8 -7 c 4 -11 c 0 -4 c -4 -12 c -8 -7 c -11 -4 c -4 0 c -11 4 c
-8 7 c -3 12 c 0 4 c 3 11 c 8 7 c 15 4 c 19 0 c 19 -4 c 11 -7 c 4 -11 c 0 -8 c -4 -11 c -7 -4 c -4 8 6908 7329 l -11 11 c 79 0 c
4 -4 6964 7401 l 4 4 c -4 4 c -4 -4 c 52 -38 6893 7469 l 0 57 c 79 0 6893 7469 l 3 -12 6893 7526 l 8 -4 c 7 0 c 8 4 c 4 8 c 4 15 c
3 11 c 8 8 c 7 4 c 12 0 c 7 -4 c 4 -4 c 4 -11 c 0 -15 c -4 -12 c -4 -4 c -7 -3 c -12 0 c -7 3 c -8 8 c -3 11 c -4 15 c -4 8 c -8 4 c
-7 0 c -8 -4 c -3 -11 c 0 -15 c 52 -38 6893 7620 l 0 57 c 79 0 6893 7620 l 0 -249 7170 7019 l -7 -4 7137 7140 l -4 -11 c 0 -8 c
4 -11 c 11 -8 c 19 -3 c 19 0 c 15 3 c 8 8 c 3 11 c 0 4 c -3 11 c -8 8 c -11 4 c -4 0 c -11 -4 c -8 -8 c -4 -11 c 0 -4 c 4 -11 c
8 -8 c 11 -3 c 0 -38 7126 7212 l 34 -4 c -4 4 c -4 11 c 0 12 c 4 11 c 8 8 c 11 3 c 8 0 c 11 -3 c 8 -8 c 3 -11 c 0 -12 c -3 -11 c
-4 -4 c -8 -3 c 12 -4 7152 7291 l 7 -7 c 4 -11 c 0 -4 c -4 -12 c -7 -7 c -12 -4 c -3 0 c -12 4 c -7 7 c -4 12 c 0 4 c 4 11 c 7 7 c
15 4 c 19 0 c 19 -4 c 12 -7 c 3 -11 c 0 -8 c -3 -11 c -8 -4 c 0 42 7126 7325 l 30 -23 c 0 11 c 4 8 c 4 4 c 11 4 c 8 0 c 11 -4 c
8 -8 c 3 -11 c 0 -11 c -3 -12 c -4 -4 c -8 -3 c 4 -4 7198 7401 l 3 4 c -3 4 c -4 -4 c 12 -4 7152 7480 l 7 -7 c 4 -11 c 0 -4 c
-4 -12 c -7 -7 c -12 -4 c -3 0 c -12 4 c -7 7 c -4 12 c 0 4 c 4 11 c 7 7 c 15 4 c 19 0 c 19 -4 c 12 -7 c 3 -11 c 0 -8 c -3 -11 c
-8 -4 c 0 42 7126 7514 l 30 -23 c 0 11 c 4 8 c 4 4 c 11 4 c 8 0 c 11 -4 c 8 -8 c 3 -11 c 0 -11 c -3 -12 c -4 -4 c -8 -3 c
12 -3 7152 7631 l 7 -8 c 4 -11 c 0 -4 c -4 -11 c -7 -8 c -12 -4 c -3 0 c -12 4 c -7 8 c -4 11 c 0 4 c 4 11 c 7 8 c 15 3 c 19 0 c
19 -3 c 12 -8 c 3 -11 c 0 -8 c -3 -11 c -8 -4 c 0 -249 7701 2602 l -8 -3 7669 2723 l -4 -12 c 0 -7 c 4 -12 c 11 -7 c 19 -4 c 19 0 c
15 4 c 8 7 c 4 12 c 0 3 c -4 12 c -8 7 c -11 4 c -4 0 c -11 -4 c -8 -7 c -4 -12 c 0 -3 c 4 -12 c 8 -7 c 11 -4 c 0 -38 7657 2795 l
34 -3 c -4 3 c -3 12 c 0 11 c 3 11 c 8 8 c 11 4 c 8 0 c 11 -4 c 8 -8 c 4 -11 c 0 -11 c -4 -12 c -4 -3 c -7 -4 c 11 -3 7684 2874 l
8 -8 c 3 -11 c 0 -4 c -3 -11 c -8 -8 c -11 -4 c -4 0 c -11 4 c -8 8 c -4 11 c 0 4 c 4 11 c 8 8 c 15 3 c 19 0 c 19 -3 c 11 -8 c
4 -11 c 0 -8 c -4 -11 c -8 -4 c 11 -4 7684 2950 l 8 -7 c 3 -12 c 0 -3 c -3 -12 c -8 -7 c -11 -4 c -4 0 c -11 4 c -8 7 c -4 12 c
0 3 c 4 12 c 8 7 c 15 4 c 19 0 c 19 -4 c 11 -7 c 4 -12 c 0 -7 c -4 -12 c -8 -3 c 4 -4 7729 2984 l 4 4 c -4 4 c -4 -4 c
53 -38 7657 3052 l 0 57 c 80 0 7657 3052 l 4 -12 7657 3109 l 8 -3 c 7 0 c 8 3 c 3 8 c 4 15 c 4 11 c 8 8 c 7 4 c 12 0 c 7 -4 c 4 -4 c
4 -11 c 0 -15 c -4 -12 c -4 -3 c -7 -4 c -12 0 c -7 4 c -8 7 c -4 12 c -4 15 c -3 7 c -8 4 c -7 0 c -8 -4 c -4 -11 c 0 -15 c
-4 0 7676 3169 l -7 4 c -4 4 c -4 7 c 0 16 c 4 7 c 4 4 c 7 4 c 8 0 c 7 -4 c 12 -8 c 38 -37 c 0 52 c 0 -249 8220 2414 l
-8 -4 8188 2535 l -4 -11 c 0 -8 c 4 -11 c 12 -8 c 19 -3 c 18 0 c 16 3 c 7 8 c 4 11 c 0 4 c -4 11 c -7 8 c -12 4 c -4 0 c -11 -4 c
-7 -8 c -4 -11 c 0 -4 c 4 -11 c 7 -8 c 11 -3 c -8 -4 8188 2611 l -4 -11 c 0 -8 c 4 -11 c 12 -8 c 19 -4 c 18 0 c 16 4 c 7 8 c 4 11 c
0 4 c -4 11 c -7 8 c -12 3 c -4 0 c -11 -3 c -7 -8 c -4 -11 c 0 -4 c 4 -11 c 7 -8 c 11 -4 c 4 -12 8176 2660 l 12 -7 c 19 -4 c 11 0 c
19 4 c 11 7 c 4 12 c 0 7 c -4 12 c -11 7 c -19 4 c -11 0 c -19 -4 c -12 -7 c -4 -12 c 0 -7 c 53 -37 8176 2750 l 0 56 c
80 0 8176 2750 l 4 -4 8248 2796 l 4 4 c -4 4 c -4 -4 c 4 -11 8176 2845 l 8 -4 c 7 0 c 8 4 c 4 7 c 4 15 c 3 12 c 8 7 c 7 4 c 12 0 c
7 -4 c 4 -4 c 4 -11 c 0 -15 c -4 -11 c -4 -4 c -7 -4 c -12 0 c -7 4 c -8 7 c -3 12 c -4 15 c -4 7 c -8 4 c -7 0 c -8 -4 c -4 -11 c
0 -15 c 0 -38 8176 2947 l 35 -4 c -4 4 c -4 12 c 0 11 c 4 11 c 7 8 c 12 4 c 7 0 c 12 -4 c 7 -8 c 4 -11 c 0 -11 c -4 -12 c -4 -4 c
-7 -3 c 0 41 8176 2985 l 31 -22 c 0 11 c 4 8 c 3 3 c 12 4 c 7 0 c 12 -4 c 7 -7 c 4 -12 c 0 -11 c -4 -11 c -4 -4 c -7 -4 c
0 -249 8275 3397 l -8 -3 8243 3518 l -4 -12 c 0 -7 c 4 -12 c 11 -7 c 19 -4 c 19 0 c 15 4 c 8 7 c 4 12 c 0 3 c -4 12 c -8 7 c -11 4 c
-4 0 c -11 -4 c -8 -7 c -3 -12 c 0 -3 c 3 -12 c 8 -7 c 11 -4 c -8 -4 8243 3594 l -4 -11 c 0 -8 c 4 -11 c 11 -8 c 19 -3 c 19 0 c
15 3 c 8 8 c 4 11 c 0 4 c -4 11 c -8 8 c -11 4 c -4 0 c -11 -4 c -8 -8 c -3 -11 c 0 -4 c 3 -11 c 8 -8 c 11 -3 c 4 -11 8231 3643 l
11 -8 c 19 -4 c 12 0 c 19 4 c 11 8 c 4 11 c 0 8 c -4 11 c -11 8 c -19 3 c -12 0 c -19 -3 c -11 -8 c -4 -11 c 0 -8 c
0 -37 8231 3741 l 34 -4 c -3 4 c -4 11 c 0 11 c 4 12 c 7 7 c 11 4 c 8 0 c 11 -4 c 8 -7 c 4 -12 c 0 -11 c -4 -11 c -4 -4 c -7 -4 c
4 -4 8303 3779 l 4 4 c -4 4 c -4 -4 c 53 -38 8231 3847 l 0 57 c 80 0 8231 3847 l -3 8 8246 3896 l -12 11 c 80 0 c 80 -37 8231 4013 l
0 52 8231 3961 l 0 -250 9527 1438 l -8 -4 9495 1559 l -3 -11 c 0 -8 c 3 -11 c 12 -8 c 19 -4 c 18 0 c 16 4 c 7 8 c 4 11 c 0 4 c
-4 11 c -7 8 c -12 4 c -4 0 c -11 -4 c -7 -8 c -4 -11 c 0 -4 c 4 -11 c 7 -8 c 11 -4 c -8 -3 9495 1634 l -3 -12 c 0 -7 c 3 -12 c
12 -7 c 19 -4 c 18 0 c 16 4 c 7 7 c 4 12 c 0 4 c -4 11 c -7 7 c -12 4 c -4 0 c -11 -4 c -7 -7 c -4 -11 c 0 -4 c 4 -12 c 7 -7 c
11 -4 c -4 8 9499 1672 l -11 11 c 79 0 c 3 -11 9484 1755 l 8 -4 c 7 0 c 8 4 c 4 8 c 4 15 c 3 11 c 8 8 c 7 3 c 12 0 c 7 -3 c 4 -4 c
4 -12 c 0 -15 c -4 -11 c -4 -4 c -7 -4 c -12 0 c -7 4 c -8 8 c -3 11 c -4 15 c -4 8 c -8 4 c -7 0 c -8 -4 c -3 -12 c 0 -15 c
4 -4 9555 1820 l 4 4 c -4 3 c -4 -3 c -4 8 9499 1861 l -11 11 c 79 0 c -8 -4 9495 1975 l -3 -12 c 0 -7 c 3 -11 c 12 -8 c 19 -4 c
18 0 c 16 4 c 7 8 c 4 11 c 0 4 c -4 11 c -7 8 c -12 3 c -4 0 c -11 -3 c -7 -8 c -4 -11 c 0 -4 c 4 -11 c 7 -8 c 11 -4 c
79 -38 9484 2054 l 0 53 9484 2001 l 0 -249 9705 4275 l -8 -4 9673 4396 l -4 -11 c 0 -8 c 4 -11 c 12 -8 c 18 -3 c 19 0 c 15 3 c 8 8 c
4 11 c 0 4 c -4 11 c -8 8 c -11 4 c -4 0 c -11 -4 c -8 -8 c -3 -11 c 0 -4 c 3 -11 c 8 -8 c 11 -3 c -8 -4 9673 4472 l -4 -11 c 0 -8 c
4 -11 c 12 -8 c 18 -4 c 19 0 c 15 4 c 8 8 c 4 11 c 0 4 c -4 11 c -8 8 c -11 3 c -4 0 c -11 -3 c -8 -8 c -3 -11 c 0 -4 c 3 -11 c
8 -8 c 11 -4 c -4 8 9677 4509 l -12 11 c 80 0 c 11 -4 9688 4623 l 8 -8 c 4 -11 c 0 -4 c -4 -11 c -8 -8 c -11 -3 c -4 0 c -11 3 c
-8 8 c -4 11 c 0 4 c 4 11 c 8 8 c 15 4 c 19 0 c 19 -4 c 11 -8 c 4 -11 c 0 -7 c -4 -12 c -8 -4 c 4 -4 9733 4657 l 4 4 c -4 4 c
-4 -4 c 11 -4 9688 4736 l 8 -7 c 4 -11 c 0 -4 c -4 -12 c -8 -7 c -11 -4 c -4 0 c -11 4 c -8 7 c -4 12 c 0 4 c 4 11 c 8 7 c 15 4 c
19 0 c 19 -4 c 11 -7 c 4 -11 c 0 -8 c -4 -11 c -8 -4 c 53 -37 9661 4800 l 0 56 c 80 0 9661 4800 l -8 -3 9673 4887 l -4 -12 c 0 -7 c
4 -12 c 12 -7 c 18 -4 c 19 0 c 15 4 c 8 7 c 4 12 c 0 3 c -4 12 c -8 7 c -11 4 c -4 0 c -11 -4 c -8 -7 c -3 -12 c 0 -3 c 3 -12 c
8 -7 c 11 -4 c
showpage PGPLOT restore
 
%%Trailer
%%DocumentFonts: 
%%Pages: 1
%%EOF
