%!PS-Adobe-3.0 EPSF-3.0
%%For: tab
%%Title: PGPLOT PostScript plot
%%Creator: PGPLOT
%%CreationDate: 20-Apr-1995 16:40
%%BoundingBox: 25 18 587 774
%%DocumentFonts: (atend)
%%LanguageLevel: 1
%%Orientation: Landscape
%%Pages: (atend)
%%EndComments
%%BeginProlog
/l {moveto rlineto currentpoint stroke moveto} bind def
/c {rlineto currentpoint stroke moveto} bind def
/d {moveto 0 0 rlineto currentpoint stroke moveto} bind def
/SLW {5 mul setlinewidth} bind def
/SCF /pop load def
/BP {newpath moveto} bind def
/LP /rlineto load def
/EP {rlineto closepath eofill} bind def
/MB {gsave translate MFAC dup scale 1 setlinewidth 2 setlinecap 0 setlinejoin newpath} bind def
/ME /grestore load def
/C {0 360 arc stroke} bind def
/FC {0 360 arc fill} bind def
%%EndProlog
 
%%Page: 1 1
%%BeginPageSetup
/PGPLOT save def
0.072 0.072 scale
8150 250 translate 90 rotate
1 setlinejoin 1 setlinecap 1 SLW 1 SCF
%%EndPageSetup
0.000 setgray 1 SLW 8939 0 780 780 l 0 6239 c -8939 0 c 0 -6239 c 0 -45 1116 780 l 0 -45 1554 780 l 0 -45 1991 780 l
0 -45 2428 780 l 0 -90 2865 780 l 0 -45 3302 780 l 0 -45 3739 780 l 0 -45 4176 780 l 0 -45 4613 780 l 0 -90 5051 780 l
0 -45 5488 780 l 0 -45 5925 780 l 0 -45 6362 780 l 0 -45 6799 780 l 0 -90 7236 780 l 0 -45 7673 780 l 0 -45 8110 780 l
0 -45 8548 780 l 0 -45 8985 780 l 0 -90 9422 780 l 0 -45 1116 7064 l 0 -45 1554 7064 l 0 -45 1991 7064 l 0 -45 2428 7064 l
0 -90 2865 7109 l 0 -45 3302 7064 l 0 -45 3739 7064 l 0 -45 4176 7064 l 0 -45 4613 7064 l 0 -90 5051 7109 l 0 -45 5488 7064 l
0 -45 5925 7064 l 0 -45 6362 7064 l 0 -45 6799 7064 l 0 -90 7236 7109 l 0 -45 7673 7064 l 0 -45 8110 7064 l 0 -45 8548 7064 l
0 -45 8985 7064 l 0 -90 9422 7109 l -60 0 2775 672 l -6 -54 c 6 6 c 18 6 c 18 0 c 18 -6 c 12 -12 c 6 -18 c 0 -12 c -6 -18 c
-12 -12 c -18 -6 c -18 0 c -18 6 c -6 6 c -6 12 c -18 -6 2859 672 l -12 -18 c -6 -30 c 0 -18 c 6 -30 c 12 -18 c 18 -6 c 12 0 c
18 6 c 12 18 c 6 30 c 0 18 c -6 30 c -12 18 c -18 6 c -12 0 c -18 -6 2979 672 l -12 -18 c -6 -30 c 0 -18 c 6 -30 c 12 -18 c 18 -6 c
12 0 c 18 6 c 12 18 c 6 30 c 0 18 c -6 30 c -12 18 c -18 6 c -12 0 c 12 6 4847 648 l 18 18 c 0 -126 c -18 -6 4985 672 l -12 -18 c
-6 -30 c 0 -18 c 6 -30 c 12 -18 c 18 -6 c 12 0 c 18 6 c 12 18 c 6 30 c 0 18 c -6 30 c -12 18 c -18 6 c -12 0 c -18 -6 5105 672 l
-12 -18 c -6 -30 c 0 -18 c 6 -30 c 12 -18 c 18 -6 c 12 0 c 18 6 c 12 18 c 6 30 c 0 18 c -6 30 c -12 18 c -18 6 c -12 0 c
-18 -6 5225 672 l -12 -18 c -6 -30 c 0 -18 c 6 -30 c 12 -18 c 18 -6 c 12 0 c 18 6 c 12 18 c 6 30 c 0 18 c -6 30 c -12 18 c -18 6 c
-12 0 c 12 6 7032 648 l 18 18 c 0 -126 c -60 0 7206 672 l -6 -54 c 6 6 c 18 6 c 18 0 c 18 -6 c 12 -12 c 6 -18 c 0 -12 c -6 -18 c
-12 -12 c -18 -6 c -18 0 c -18 6 c -6 6 c -6 12 c -18 -6 7290 672 l -12 -18 c -6 -30 c 0 -18 c 6 -30 c 12 -18 c 18 -6 c 12 0 c
18 6 c 12 18 c 6 30 c 0 18 c -6 30 c -12 18 c -18 6 c -12 0 c -18 -6 7410 672 l -12 -18 c -6 -30 c 0 -18 c 6 -30 c 12 -18 c 18 -6 c
12 0 c 18 6 c 12 18 c 6 30 c 0 18 c -6 30 c -12 18 c -18 6 c -12 0 c 0 6 9206 642 l 6 12 c 6 6 c 12 6 c 24 0 c 12 -6 c 6 -6 c
6 -12 c 0 -12 c -6 -12 c -12 -18 c -60 -60 c 84 0 c -18 -6 9356 672 l -12 -18 c -6 -30 c 0 -18 c 6 -30 c 12 -18 c 18 -6 c 12 0 c
18 6 c 12 18 c 6 30 c 0 18 c -6 30 c -12 18 c -18 6 c -12 0 c -18 -6 9476 672 l -12 -18 c -6 -30 c 0 -18 c 6 -30 c 12 -18 c 18 -6 c
12 0 c 18 6 c 12 18 c 6 30 c 0 18 c -6 30 c -12 18 c -18 6 c -12 0 c -18 -6 9596 672 l -12 -18 c -6 -30 c 0 -18 c 6 -30 c 12 -18 c
18 -6 c 12 0 c 18 6 c 12 18 c 6 30 c 0 18 c -6 30 c -12 18 c -18 6 c -12 0 c -90 0 780 804 l -45 0 780 1074 l -45 0 780 1344 l
-45 0 780 1614 l -45 0 780 1884 l -90 0 780 2154 l -45 0 780 2424 l -45 0 780 2694 l -45 0 780 2964 l -45 0 780 3234 l
-90 0 780 3504 l -45 0 780 3773 l -45 0 780 4043 l -45 0 780 4313 l -45 0 780 4583 l -90 0 780 4853 l -45 0 780 5123 l
-45 0 780 5393 l -45 0 780 5663 l -45 0 780 5933 l -90 0 780 6203 l -45 0 780 6473 l -45 0 780 6743 l -45 0 780 7013 l
-90 0 9809 804 l -45 0 9764 1074 l -45 0 9764 1344 l -45 0 9764 1614 l -45 0 9764 1884 l -90 0 9809 2154 l -45 0 9764 2424 l
-45 0 9764 2694 l -45 0 9764 2964 l -45 0 9764 3234 l -90 0 9809 3504 l -45 0 9764 3773 l -45 0 9764 4043 l -45 0 9764 4313 l
-45 0 9764 4583 l -90 0 9809 4853 l -45 0 9764 5123 l -45 0 9764 5393 l -45 0 9764 5663 l -45 0 9764 5933 l -90 0 9809 6203 l
-45 0 9764 6473 l -45 0 9764 6743 l -45 0 9764 7013 l 6 -18 517 798 l 18 -12 c 30 -6 c 18 0 c 30 6 c 18 12 c 6 18 c 0 12 c -6 18 c
-18 12 c -30 6 c -18 0 c -30 -6 c -18 -12 c -6 -18 c 0 -12 c -6 12 541 2034 l -18 18 c 126 0 c 6 -18 517 2172 l 18 -12 c 30 -6 c
18 0 c 30 6 c 18 12 c 6 18 c 0 12 c -6 18 c -18 12 c -30 6 c -18 0 c -30 -6 c -18 -12 c -6 -18 c 0 -12 c 63 -45 453 2296 l 0 68 c
94 0 453 2296 l -6 0 547 3246 l -12 6 c -6 6 c -6 12 c 0 24 c 6 12 c 6 6 c 12 6 c 12 0 c 12 -6 c 18 -12 c 60 -60 c 0 84 c
84 84 547 3366 l 84 -84 547 3450 l -6 12 541 3510 l -18 18 c 126 0 c 6 -18 517 3648 l 18 -12 c 30 -6 c 18 0 c 30 6 c 18 12 c 6 18 c
0 12 c -6 18 c -18 12 c -30 6 c -18 0 c -30 -6 c -18 -12 c -6 -18 c 0 -12 c 63 -45 453 3772 l 0 67 c 94 0 453 3772 l 0 66 517 4601 l
48 -36 c 0 18 c 6 12 c 6 6 c 18 6 c 12 0 c 18 -6 c 12 -12 c 6 -18 c 0 -18 c -6 -18 c -6 -6 c -12 -6 c 84 84 547 4715 l
84 -84 547 4799 l -6 12 541 4859 l -18 18 c 126 0 c 6 -18 517 4997 l 18 -12 c 30 -6 c 18 0 c 30 6 c 18 12 c 6 18 c 0 12 c -6 18 c
-18 12 c -30 6 c -18 0 c -30 -6 c -18 -12 c -6 -18 c 0 -12 c 63 -45 453 5122 l 0 67 c 94 0 453 5122 l 84 -60 517 5999 l 0 90 c
126 0 517 5999 l 84 84 547 6065 l 84 -84 547 6149 l -6 12 541 6209 l -18 18 c 126 0 c 6 -18 517 6347 l 18 -12 c 30 -6 c 18 0 c
30 6 c 18 12 c 6 18 c 0 12 c -6 18 c -18 12 c -30 6 c -18 0 c -30 -6 c -18 -12 c -6 -18 c 0 -12 c 63 -45 453 6471 l 0 68 c
94 0 453 6471 l
4 -67 780 890 l 5 -2 c 4 0 c 4 -1 c 5 0 c 4 -1 c 4 0 c 5 0 c 4 0 c 5 0 c 4 -1 c 4 0 c 5 0 c 4 1 c 4 -1 c 5 1 c 4 1 c 5 1 c 4 9 c
4 10 c 5 0 c 4 -10 c 4 -10 c 5 -1 c 4 1 c 5 0 c 4 0 c 4 -1 c 5 0 c 4 0 c 4 1 c 5 2 c 4 11 c 5 43 c 4 125 c 4 77 c 5 -37 c 4 -148 c
4 -67 c 5 -4 c 4 1 c 4 9 c 5 43 c 4 159 c 5 98 c 4 -39 c 4 -175 c 5 -89 c 4 -8 c 4 -1 c 5 0 c 4 0 c 5 -1 c 4 -1 c 4 1 c 5 -1 c 4 0 c
4 0 c 5 0 c 4 0 c 5 0 c 4 0 c 4 0 c 5 0 c 4 0 c 4 0 c 5 -1 c 4 1 c 5 0 c 4 0 c 4 -1 c 5 1 c 4 0 c 4 1 c 5 4 c 4 6 c 4 0 c 5 -5 c
4 -6 c 5 0 c 4 0 c 4 0 c 5 0 c 4 -14 c 4 0 c 5 19 c 4 0 c 5 1 c 4 0 c 4 -4 c 5 -1 c 4 -1 c 4 1 c 5 -1 c 4 0 c 5 0 c 4 0 c 4 0 c
5 0 c 4 0 c 4 0 c 5 0 c 4 0 c 5 0 c 4 0 c 4 0 c 5 0 c 4 0 c 4 1 c 5 -1 c 4 1 c 4 1 c 5 3 c 4 4 c 5 -2 c 4 -4 c 4 -2 c 5 -1 c 4 0 c
4 0 c 5 0 c 4 0 c 5 0 c 4 0 c 4 0 c 5 0 c 4 0 c 4 0 c 5 0 c 4 0 c 5 1 c 4 0 c 4 0 c 5 1 c 4 5 c 4 5 c 5 0 c 4 -5 c 5 -4 c 4 0 c
4 0 c 5 1 c 4 1 c 4 1 c 5 2 c 4 1 c 4 0 c 5 2 c 4 6 c 5 29 c 4 30 c 4 -5 c 5 -39 c 4 -24 c 4 -2 c 5 -1 c 4 0 c 5 -1 c 4 0 c 4 0 c
5 1 c 4 -1 c 4 0 c 5 2 c 4 1 c 5 0 c 4 -1 c 4 -1 c 5 0 c 4 0 c 4 1 c 5 7 c 4 9 c 4 0 c 5 -9 c 4 -7 c 5 -1 c 4 1 c 4 1 c 5 1 c 4 3 c
4 2 c 5 -2 c 4 -6 c 5 -2 c 4 0 c 4 0 c 5 0 c 4 1 c 4 2 c 5 0 c 4 1 c 5 1 c 4 0 c 4 0 c 5 -1 c 4 1 c 4 1 c 5 5 c 4 18 c 5 36 c 4 28 c
4 -11 c 5 -47 c 4 -25 c 4 -4 c 5 -1 c 4 0 c 4 -1 c 5 1 c 4 -1 c 5 3 c 4 1 c 4 0 c 5 -2 c 4 -1 c 4 0 c 5 0 c 4 1 c 5 0 c 4 0 c 4 -1 c
5 0 c 4 0 c 4 0 c 5 1 c 4 1 c 5 0 c 4 -1 c 4 0 c 5 1 c 4 1 c 4 6 c 5 37 c 4 225 c 5 250 c 4 4 c 4 -280 c 5 -205 c 4 -32 c 4 -5 c
5 0 c 4 0 c 4 2 c 5 1 c 4 -1 c 5 -3 c 4 0 c 4 0 c 5 -1 c 4 0 c 4 0 c 5 0 c 4 0 c 5 0 c 4 0 c 4 0 c 5 0 c 4 -1 c 4 1 c 5 0 c 4 0 c
5 0 c 4 0 c 4 1 c 5 0 c 4 0 c 4 0 c 5 2 c 4 1 c 5 4 c 4 5 c 4 9 c 5 59 c 4 197 c 4 114 c 5 -70 c 4 -217 c 4 -90 c 5 -9 c 4 -2 c
5 0 c 4 0 c 4 0 c 5 2 c 4 -1 c 4 0 c 5 0 c 4 1 c 5 0 c 4 0 c 4 -1 c 5 0 c 4 0 c 4 0 c 5 2 c 4 1 c 5 0 c 4 1 c 4 3 c 5 3 c 4 4 c
4 7 c 5 32 c 4 243 c 5 1935 c 4 3038 c 4 442 c 5 -2476 c 4 -2795 c 4 -390 c 5 -29 c 4 2 c 4 19 c 5 0 c 4 -13 c 5 -21 c 4 -4 c 4 -1 c
5 -1 c 4 0 c 4 -1 c 5 -1 c 4 0 c 5 0 c 4 -1 c 4 -1 c 5 0 c 4 0 c 4 1 c 5 0 c 4 1 c 5 1 c 4 16 c 4 64 c 5 23 c 4 -21 c 4 -65 c
5 -15 c 4 7 c 4 77 c 5 249 c 4 153 c 5 -83 c 4 -278 c 4 -117 c 5 -10 c 4 -1 c 4 -2 c 5 0 c 4 0 c 5 0 c 4 -1 c 4 0 c 5 -1 c 4 0 c
4 1 c 5 0 c 4 2 c 5 11 c 4 8 c 4 -2 c 5 -13 c 4 -6 c 4 0 c 5 -1 c 4 0 c 5 0 c 4 0 c 4 1 c 5 -1 c 4 0 c 4 1 c 5 1 c 4 1 c 4 -1 c
5 -1 c 4 0 c 5 0 c 4 0 c 4 1 c 5 2 c 4 0 c 4 3 c 5 6 c 4 26 c 5 164 c 4 542 c 4 327 c 5 -178 c 4 -613 c 4 -225 c 5 -34 c 4 -8 c
5 -5 c 4 -3 c 4 -1 c 5 -1 c 4 -1 c 4 0 c 5 0 c 4 2 c 5 4 c 4 5 c 4 2 c 5 -5 c 4 -5 c 4 -2 c 5 0 c 4 0 c 4 5 c 5 16 c 4 6 c 5 -8 c
4 -16 c 4 -2 c 5 2 c 4 2 c 4 -2 c 5 -3 c 4 -1 c 5 0 c 4 1 c 4 3 c 5 3 c 4 -1 c 4 -3 c 5 -2 c 4 2 c 5 2 c 4 -2 c 4 -2 c 5 0 c 4 2 c
4 2 c 5 17 c 4 83 c 5 43 c 4 -18 c 4 -80 c 5 -32 c 4 -8 c 4 -8 c 5 -1 c 4 0 c 4 0 c 5 0 c 4 0 c 5 3 c 4 9 c 4 2 c 5 -4 c 4 -8 c
4 -1 c 5 0 c 4 -1 c 5 0 c 4 0 c 4 2 c 5 -1 c 4 -2 c 4 -1 c 5 -1 c 4 1 c 5 1 c 4 2 c 4 0 c 5 -2 c 4 0 c 4 0 c 5 1 c 4 -1 c 5 -1 c
4 1 c 4 0 c 5 1 c 4 -1 c 4 -1 c 5 0 c 4 0 c 4 0 c 5 0 c 4 0 c 5 0 c 4 -1 c 4 0 c 5 2 c 4 -1 c 4 0 c 5 -1 c 4 1 c 5 1 c 4 0 c 4 1 c
5 1 c 4 2 c 4 0 c 5 0 c 4 1 c 5 4 c 4 0 c 4 -1 c 5 7 c 4 5 c 4 -1 c 5 -12 c 4 -5 c 4 0 c 5 3 c 4 2 c 5 0 c 4 -3 c 4 -3 c 5 -1 c
4 -1 c 4 2 c 5 2 c 4 0 c 5 -2 c 4 -1 c 4 -1 c 5 0 c 4 0 c 4 0 c 5 1 c 4 0 c 5 1 c 4 -1 c 4 3 c 5 4 c 4 1 c 4 28 c 5 67 c 4 13 c
5 -38 c 4 -69 c 4 -9 c 5 0 c 4 0 c 4 0 c 5 0 c 4 0 c 4 0 c 5 1 c 4 0 c 5 -1 c 4 0 c 4 2 c 5 1 c 4 1 c 4 0 c 5 3 c 4 9 c 5 120 c
4 760 c 4 556 c 5 -123 c 4 -897 c 4 -384 c 5 -39 c 4 -4 c 5 1 c 4 0 c 4 -1 c 5 -2 c 4 -1 c 4 -1 c 5 1 c 4 1 c 5 1 c 4 3 c 4 2 c
5 -2 c 4 -4 c 4 -1 c 5 0 c 4 0 c 4 0 c 5 0 c 4 0 c 5 1 c 4 0 c 4 0 c 5 1 c 4 0 c 4 0 c 5 0 c 4 0 c 5 1 c 4 0 c 4 2 c 5 0 c 4 0 c
4 0 c 5 2 c 4 2 c 5 1 c 4 0 c 4 2 c 5 3 c 4 6 c 4 5 c 5 10 c 4 19 c 5 58 c 4 576 c 4 4903 c 1 594 c 0 -405 3446 7019 l 5 -5099 c
4 -574 c 4 -58 c 5 -12 c 4 -7 c 5 -5 c 4 -7 c 4 -4 c 5 -1 c 4 0 c 4 1 c 5 1 c 4 -3 c 5 -4 c 4 -2 c 4 0 c 5 -1 c 4 -1 c 4 -1 c 5 -1 c
4 1 c 5 0 c 4 0 c 4 3 c 5 54 c 4 370 c 4 275 c 5 -46 c 4 -418 c 4 -218 c 5 -17 c 4 -2 c 5 -3 c 4 -2 c 4 -1 c 5 0 c 4 5 c 4 1 c
5 -1 c 4 -4 c 5 -1 c 4 -2 c 4 -1 c 5 1 c 4 0 c 4 0 c 5 0 c 4 0 c 5 2 c 4 1 c 4 -2 c 5 -1 c 4 4 c 4 25 c 5 13 c 4 -5 c 5 -27 c
4 -10 c 4 -1 c 5 0 c 4 0 c 4 -1 c 5 0 c 4 0 c 4 1 c 5 0 c 4 0 c 5 -1 c 4 0 c 4 0 c 5 0 c 4 0 c 4 0 c 5 0 c 4 -1 c 5 0 c 4 1 c 4 -1 c
5 1 c 4 0 c 4 -1 c 5 2 c 4 3 c 5 0 c 4 -2 c 4 -3 c 5 1 c 4 0 c 4 2 c 5 1 c 4 1 c 5 -2 c 4 1 c 4 -2 c 5 -1 c 4 0 c 4 1 c 5 -1 c 4 0 c
4 0 c 5 0 c 4 0 c 5 0 c 4 0 c 4 1 c 5 1 c 4 -1 c 4 -1 c 5 1 c 4 6 c 5 3 c 4 0 c 4 -5 c 5 -3 c 4 1 c 4 -1 c 5 0 c 4 2 c 5 7 c 4 98 c
4 338 c 5 129 c 4 -104 c 4 -366 c 5 -98 c 4 -3 c 5 0 c 4 -1 c 4 -1 c 5 2 c 4 4 c 4 3 c 5 6 c 4 21 c 4 51 c 5 13 c 4 -13 c 5 2 c
4 426 c 4 1047 c 5 413 c 4 -466 c 4 -1110 c 5 -310 c 4 -46 c 5 -14 c 4 -9 c 4 -2 c 5 12 c 4 47 c 4 21 c 5 -17 c 4 -57 c 5 -20 c
4 -4 c 4 -1 c 5 0 c 4 -1 c 4 0 c 5 1 c 4 0 c 5 1 c 4 -2 c 4 0 c 5 0 c 4 0 c 4 0 c 5 1 c 4 2 c 4 0 c 5 -2 c 4 -1 c 5 0 c 4 2 c 4 1 c
5 0 c 4 -1 c 4 -2 c 5 2 c 4 2 c 5 -1 c 4 -3 c 4 0 c 5 0 c 4 -1 c 4 1 c 5 1 c 4 0 c 5 1 c 4 -1 c 4 -2 c 5 -1 c 4 -1 c 4 -1 c 5 1 c
4 0 c 4 1 c 5 2 c 4 1 c 5 -2 c 4 -2 c 4 0 c 5 4 c 4 6 c 4 13 c 5 36 c 3 6134 c 1 -700 4359 7019 l 4 -5413 c 5 -74 c 4 -2 c 4 -2 c
5 0 c 4 -1 c 5 1 c 4 0 c 4 0 c 5 1 c 4 1 c 4 -1 c 5 -2 c 4 0 c 5 -1 c 4 1 c 4 -1 c 5 0 c 4 0 c 4 1 c 5 0 c 4 0 c 4 0 c 5 0 c 4 -1 c
5 1 c 4 0 c 4 0 c 5 0 c 4 1 c 4 2 c 5 0 c 4 -1 c 5 -2 c 4 0 c 4 0 c 5 0 c 4 1 c 4 0 c 5 1 c 4 -1 c 5 -1 c 4 1 c 4 1 c 5 1 c 4 6 c
4 16 c 5 7 c 4 -9 c 5 -16 c 4 -6 c 4 0 c 5 -1 c 4 0 c 4 1 c 5 -1 c 4 -1 c 4 0 c 5 0 c 4 0 c 5 0 c 4 -1 c 4 0 c 5 1 c 4 0 c 4 2 c
5 1 c 4 1 c 5 -2 c 4 -2 c 4 -1 c 5 1 c 4 1 c 4 0 c 5 0 c 4 0 c 5 0 c 4 0 c 4 -1 c 5 -1 c 4 0 c 4 1 c 5 1 c 4 -1 c 5 0 c 4 1 c 4 -1 c
5 1 c 4 -1 c 4 -1 c 5 1 c 4 4 c 4 0 c 5 -2 c 4 -2 c 5 0 c 4 0 c 4 1 c 5 -1 c 4 2 c 4 2 c 5 13 c 4 157 c 5 420 c 4 169 c 4 -168 c
5 -452 c 4 -132 c 4 -8 c 5 -2 c 4 0 c 5 1 c 4 3 c 4 9 c 5 1 c 4 -4 c 4 -10 c 5 -2 c 4 0 c 5 -1 c 4 0 c 4 0 c 5 0 c 4 1 c 4 0 c 5 0 c
4 -1 c 4 1 c 5 7 c 4 45 c 5 34 c 4 -5 c 4 -49 c 5 -30 c 4 -2 c 4 0 c 5 0 c 4 0 c 5 4 c 4 34 c 4 -59 c 5 94 c 4 -40 c 4 -28 c 5 -2 c
4 0 c 5 -1 c 4 -2 c 4 -1 c 5 0 c 4 -1 c 4 1 c 5 1 c 4 1 c 4 2 c 5 1 c 4 -3 c 5 -2 c 4 0 c 4 0 c 5 2 c 4 0 c 4 -1 c 5 1 c 4 3 c 5 3 c
4 -1 c 4 -3 c 5 -3 c 4 0 c 4 1 c 5 2 c 4 13 c 5 112 c 4 102 c 4 6 c 5 -97 c 4 -89 c 4 -14 c 5 -12 c 4 -16 c 5 -5 c 4 -2 c 4 0 c
5 -1 c 4 1 c 4 0 c 5 -1 c 4 0 c 4 1 c 5 -1 c 4 1 c 5 0 c 4 1 c 4 1 c 5 0 c 4 0 c 4 -1 c 5 -1 c 4 1 c 5 0 c 4 0 c 4 0 c 5 2 c 4 6 c
4 89 c 5 318 c 4 161 c 5 -68 c 4 -344 c 4 -152 c 5 -8 c 4 17 c 4 39 c 5 20 c 4 -17 c 5 -42 c 4 -19 c 4 -1 c 5 1 c 4 3 c 4 29 c
5 61 c 4 27 c 4 -24 c 5 -58 c 4 -19 c 5 -4 c 4 0 c 4 75 c 5 311 c 4 239 c 4 -30 c 5 -331 c 4 -231 c 5 -41 c 4 -5 c 4 -1 c 5 0 c
4 -1 c 4 3 c 5 4 c 4 1 c 5 -4 c 4 -5 c 4 -1 c 5 0 c 4 0 c 4 0 c 5 0 c 4 0 c 5 0 c 4 -1 c 4 0 c 5 0 c 4 0 c 4 0 c 5 0 c 4 0 c 4 0 c
5 1 c 4 1 c 5 -1 c 4 2 c 4 9 c 5 8 c 4 -1 c 4 -11 c 5 -3 c 4 16 c 5 15 c 4 1 c 4 -19 c 5 -14 c 4 -2 c 4 -1 c 5 -1 c 4 1 c 5 0 c
4 -1 c 4 1 c 5 -1 c 4 2 c 4 3 c 5 0 c 4 -1 c 4 1 c 5 0 c 4 -1 c 5 -3 c 4 -1 c 4 0 c 5 1 c 4 0 c 4 1 c 5 -1 c 4 -1 c 5 -1 c 4 0 c
4 0 c 5 1 c 4 1 c 4 0 c 5 -1 c 4 0 c 5 0 c 4 -22 c 4 26 c 3 6189 c 3 -5460 5730 7019 l 4 -706 c 4 -15 c 5 -2 c 4 -1 c 4 -1 c 5 -1 c
4 0 c 4 1 c 5 0 c 4 4 c 5 9 c 4 1 c 4 -3 c 5 -10 c 4 -3 c 4 1 c 5 0 c 4 0 c 5 1 c 4 1 c 4 32 c 5 125 c 4 68 c 4 11 c 5 20 c 4 63 c
5 2 c 4 -154 c 4 -152 c 5 -17 c 4 -1 c 4 -2 c 5 0 c 4 -1 c 5 0 c 4 0 c 4 0 c 5 -1 c 4 0 c 4 0 c 5 0 c 4 -1 c 4 1 c 5 0 c 4 0 c 5 2 c
4 2 c 4 4 c 5 4 c 4 -1 c 4 -5 c 5 -4 c 4 -1 c 5 1 c 4 0 c 4 1 c 5 -2 c 4 -1 c 4 0 c 5 1 c 4 0 c 5 0 c 4 -1 c 4 0 c 5 -1 c 4 0 c
4 0 c 5 1 c 4 1 c 5 -1 c 4 -1 c 4 1 c 5 -1 c 4 0 c 4 1 c 5 -1 c 4 0 c 4 0 c 5 0 c 4 0 c 5 0 c 4 0 c 4 2 c 5 1 c 4 1 c 4 -1 c 5 -3 c
4 0 c 5 0 c 4 1 c 4 -1 c 5 -1 c 4 1 c 4 0 c 5 0 c 4 -1 c 5 0 c 4 0 c 4 1 c 5 -1 c 4 1 c 4 4 c 5 12 c 4 11 c 5 -1 c 4 -5 c 4 -5 c
5 -1 c 4 -7 c 4 -5 c 5 0 c 4 0 c 4 -1 c 5 0 c 4 2 c 5 0 c 4 -1 c 4 -2 c 5 -1 c 4 -1 c 4 0 c 5 0 c 4 0 c 5 1 c 4 1 c 4 10 c 5 3 c
4 -1 c 4 -8 c 5 -6 c 4 -1 c 5 1 c 4 -1 c 4 1 c 5 0 c 4 0 c 4 1 c 5 2 c 4 1 c 4 -1 c 5 -2 c 4 -2 c 5 0 c 4 1 c 4 1 c 5 0 c 4 0 c
4 -1 c 5 0 c 4 1 c 5 -1 c 4 1 c 4 -1 c 5 0 c 4 0 c 4 0 c 5 0 c 4 2 c 5 -1 c 4 0 c 4 2 c 5 9 c 4 3 c 4 -2 c 5 -9 c 4 -3 c 5 0 c 4 3 c
4 7 c 5 4 c 4 -3 c 4 -8 c 5 -1 c 4 0 c 4 5 c 5 60 c 4 215 c 5 88 c 4 -48 c 4 -221 c 5 -91 c 4 -4 c 4 4 c 5 0 c 4 -6 c 5 -5 c 4 0 c
4 0 c 5 1 c 4 1 c 4 1 c 5 0 c 4 0 c 5 -1 c 4 0 c 4 0 c 5 1 c 4 0 c 4 -25 c 5 24 c 4 0 c 5 0 c 4 -1 c 4 0 c 5 0 c 4 0 c 4 0 c 5 0 c
4 1 c 4 0 c 5 1 c 4 0 c 5 -1 c 4 -1 c 4 0 c 5 1 c 4 0 c 4 1 c 5 0 c 4 0 c 5 -2 c 4 0 c 4 0 c 5 1 c 4 1 c 4 3 c 5 9 c 4 3 c 5 -3 c
4 -9 c 4 -1 c 5 2 c 4 19 c 4 255 c 5 475 c 4 115 c 5 -263 c 4 -468 c 4 -124 c 5 -9 c 4 -3 c 4 -1 c 5 0 c 4 -2 c 4 1 c 5 4 c 4 0 c
5 -1 c 4 -2 c 4 2 c 5 2 c 4 -1 c 4 -4 c 5 -1 c 4 0 c 5 0 c 4 1 c 4 1 c 5 6 c 4 97 c 4 168 c 5 39 c 4 -85 c 5 -182 c 4 -41 c 4 -1 c
5 7 c 4 11 c 4 1 c 5 -8 c 4 -12 c 5 -1 c 4 0 c 4 0 c 5 -1 c 4 0 c 4 0 c 5 -1 c 4 0 c 4 0 c 5 -1 c 4 1 c 5 1 c 4 0 c 4 0 c 5 0 c
4 0 c 4 0 c 5 -1 c 4 1 c 5 0 c 4 -1 c 4 0 c 5 1 c 4 0 c 4 1 c 5 0 c 4 1 c 5 0 c 4 0 c 4 -1 c 5 0 c 4 0 c 4 1 c 5 0 c 4 4 c 4 42 c
5 53 c 4 7 c 5 -41 c 4 -54 c 4 4 c 5 143 c 4 272 c 4 88 c 5 -121 c 4 -289 c 5 -98 c 4 -7 c 4 -2 c 5 0 c 4 0 c 4 -1 c 5 0 c 4 0 c
5 0 c 4 1 c 4 0 c 5 -1 c 4 0 c 4 -1 c 5 1 c 4 2 c 5 0 c 4 -1 c 4 -2 c 5 1 c 4 0 c 4 1 c 5 0 c 4 1 c 4 1 c 5 3 c 4 6 c 5 45 c 4 395 c
4 495 c 5 133 c 4 -379 c 4 -528 c 5 -150 c 4 -13 c 5 -3 c 4 -3 c 4 -1 c 5 1 c 4 0 c 4 0 c 5 -1 c 4 -1 c 5 0 c 4 -2 c 4 -1 c 5 0 c
4 0 c 4 1 c 5 0 c 4 0 c 5 0 c 4 0 c 4 -1 c 5 0 c 4 0 c 4 0 c 5 0 c 4 0 c 4 -1 c 5 1 c 4 1 c 5 3 c 4 5 c 4 0 c 5 -2 c 4 -6 c 4 -1 c
5 1 c 4 4 c 5 0 c 4 -2 c 4 -3 c 5 0 c 4 0 c 4 0 c 5 0 c 4 0 c 5 -1 c 4 1 c 4 0 c 5 0 c 4 1 c 4 -1 c 5 -1 c 4 1 c 5 0 c 4 1 c 4 1 c
5 0 c 4 -1 c 4 -1 c 5 2 c 4 0 c 4 -1 c 5 -2 c 4 0 c 5 0 c 4 0 c 4 0 c 5 1 c 4 0 c 4 0 c 5 0 c 4 0 c 5 0 c 4 2 c 4 20 c 5 39 c 4 13 c
4 -16 c 5 -41 c 4 -15 c 5 -2 c 4 0 c 4 -1 c 5 0 c 4 0 c 4 0 c 5 0 c 4 0 c 5 0 c 4 0 c 4 0 c 5 1 c 4 -1 c 4 0 c 5 0 c 4 0 c 4 0 c
5 0 c 4 0 c 5 0 c 4 0 c 4 2 c 5 0 c 4 1 c 4 -1 c 5 -1 c 4 -2 c 5 1 c 4 0 c 4 0 c 5 0 c 4 -1 c 4 1 c 5 1 c 4 2 c 5 1 c 4 -2 c 4 -1 c
5 -1 c 4 0 c 4 0 c 5 0 c 4 0 c 4 0 c 5 0 c 4 1 c 5 0 c 4 0 c 4 1 c 5 1 c 4 0 c 4 -1 c 5 -1 c 4 0 c 5 -1 c 4 0 c 4 0 c 5 2 c 4 -1 c
4 0 c 5 0 c 4 0 c 5 0 c 4 0 c 4 0 c 5 0 c 4 1 c 4 1 c 5 8 c 4 13 c 5 3 c 4 -6 c 4 -14 c 5 -5 c 4 0 c 4 0 c 5 0 c 4 0 c 4 0 c 5 1 c
4 0 c 5 2 c 4 9 c 4 13 c 5 2 c 4 -7 c 4 -12 c 5 -2 c 4 2 c 5 2 c 4 5 c 4 20 c 5 238 c 4 1635 c 4 1725 c 5 239 c 4 -1369 c 5 -2093 c
4 -293 c 4 -27 c 5 -33 c 4 -39 c 4 -11 c 5 -1 c 4 -1 c 5 0 c 4 2 c 4 41 c 5 153 c 4 49 c 4 -26 c 5 -150 c 4 -68 c 4 -3 c 5 -1 c
4 1 c 5 0 c 4 1 c 4 -1 c 5 -1 c 4 1 c 4 19 c 5 65 c 4 17 c 5 -14 c 4 -65 c 4 -24 c 5 -1 c 4 0 c 4 0 c 5 0 c 4 0 c 5 0 c 4 0 c 4 1 c
5 0 c 4 0 c 4 -1 c 5 1 c 4 0 c 5 0 c 4 -1 c 4 -1 c 5 0 c 4 -1 c 4 1 c 5 2 c 4 20 c 4 25 c 5 1 c 4 -18 c 5 -27 c 4 -4 c 4 0 c 5 -1 c
4 2 c 4 0 c 5 1 c 4 9 c 5 34 c 4 39 c 4 9 c 5 -30 c 4 -44 c 4 -16 c 5 -2 c 4 -1 c 5 0 c 4 0 c 4 1 c 5 0 c 4 1 c 4 3 c 5 1 c 4 -1 c
4 -4 c 5 -2 c 4 -1 c 5 0 c 4 1 c 4 1 c 5 0 c 4 -1 c 4 0 c 5 0 c 4 7 c 5 7 c 4 1 c 4 -6 c 5 -8 c 4 -1 c 4 -1 c 5 2 c 4 5 c 5 4 c
4 1 c 4 -4 c 5 -4 c 4 0 c 4 2 c 5 -1 c 4 -3 c 5 -2 c 4 0 c 4 0 c 5 2 c 4 19 c 4 64 c 5 18 c 4 -13 c 4 -65 c 5 -23 c 4 -1 c 5 0 c
4 0 c 4 -1 c 5 0 c 4 0 c 4 0 c 5 1 c 4 2 c 5 5 c 4 5 c 4 1 c 5 -5 c 4 -7 c 4 0 c 5 -1 c 4 2 c 5 2 c 4 36 c 4 149 c 5 53 c 4 -14 c
4 -138 c 5 -79 c 4 -6 c 5 -3 c 4 -1 c 4 -1 c 5 1 c 4 0 c 4 0 c 5 1 c 4 -1 c 4 0 c 5 -1 c 4 0 c 5 0 c 4 -1 c 4 1 c 5 6 c 4 4 c 4 0 c
5 -5 c 4 -5 c 5 0 c 4 1 c 4 -1 c 5 0 c 4 5 c 4 29 c 5 21 c 4 -1 c 5 -27 c 4 -24 c 4 6 c 5 13 c 4 2 c 4 -7 c 5 -14 c 4 -3 c 5 0 c
4 1 c 4 1 c 5 1 c 4 -1 c 4 -2 c 5 -1 c 4 0 c 4 0 c 5 0 c 4 0 c 5 0 c 4 0 c 4 0 c 5 -1 c 4 0 c 4 1 c 5 0 c 4 -1 c 5 0 c 4 1 c 4 0 c
5 -1 c 4 0 c 4 0 c 5 0 c 4 0 c 5 -1 c 4 1 c 4 1 c 5 -1 c 4 0 c 4 0 c 5 0 c 4 0 c 5 1 c 4 0 c 4 3 c 5 1 c 4 -2 c 4 -3 c 5 -1 c 4 0 c
4 1 c 5 3 c 4 6 c 5 0 c 4 0 c 4 -6 c 5 -2 c 4 -1 c 4 0 c 5 1 c 4 0 c 5 1 c 4 9 c 4 88 c 5 148 c 4 22 c 4 -64 c 5 -164 c 4 -37 c
5 -2 c 4 -1 c 4 0 c 5 -1 c 4 0 c 4 0 c 5 0 c 4 0 c 4 -1 c 5 0 c 4 0 c 5 0 c 4 0 c 4 -1 c 5 0 c 4 0 c 4 1 c 5 1 c 4 -1 c 5 0 c 4 -1 c
4 0 c 5 1 c 4 1 c 4 1 c 5 -1 c 4 0 c 5 -2 c 4 0 c 4 0 c 5 1 c 4 0 c 4 0 c 5 1 c 4 1 c 5 3 c 4 0 c 4 -2 c 5 -2 c 4 -1 c 4 0 c 5 0 c
4 0 c 4 -1 c 5 0 c 4 0 c 5 1 c 4 0 c 4 0 c 5 -1 c 4 1 c 4 0 c 5 0 c 4 1 c 5 -1 c 4 0 c 4 -1 c 5 0 c 4 1 c 4 0 c 5 0 c 4 0 c 5 0 c
4 -1 c 4 1 c 5 0 c 4 0 c 4 0 c 5 0 c 4 -1 c 5 1 c 4 1 c 4 0 c 5 0 c 4 -1 c 4 0 c 5 0 c 4 9 c 4 19 c 5 4 c 4 -6 c 5 -19 c 4 -6 c
4 -1 c 5 0 c 4 1 c 4 1 c 5 0 c 4 1 c 5 6 c 4 41 c 4 75 c 5 2 c 4 -28 c 4 -79 c 5 -18 c 4 0 c 5 3 c 4 28 c 4 105 c 5 56 c 4 -15 c
4 -90 c
5 -81 c 4 -7 c 5 1 c 4 3 c 4 -24 c 5 0 c 4 23 c 4 -3 c 5 0 c 4 -1 c 4 0 c 5 -1 c 4 0 c 5 0 c 4 0 c 4 0 c 5 0 c 4 0 c 4 0 c 5 0 c
4 1 c 5 0 c 4 0 c 4 -1 c 5 0 c 4 0 c 4 0 c 5 -1 c 4 1 c 5 0 c 4 0 c 4 0 c 5 0 c 4 0 c 4 0 c 5 0 c 4 1 c 5 2 c 4 0 c 4 -1 c 5 -1 c
4 -1 c 4 0 c 5 -1 c 4 1 c
0 -126 3303 418 l 54 0 3303 418 l 18 -6 c 6 -6 c 6 -12 c 0 -12 c -6 -12 c -6 -6 c -18 -6 c -54 0 c 42 -66 3345 358 l
-12 -6 3453 376 l -12 -12 c -6 -18 c 0 -12 c 6 -18 c 12 -12 c 12 -6 c 18 0 c 12 6 c 12 12 c 6 18 c 0 12 c -6 18 c -12 12 c -12 6 c
-18 0 c 24 -84 3537 376 l -24 -84 3585 376 l 24 -84 3585 376 l -24 -84 3633 376 l 108 0 3675 364 l 108 0 3675 328 l 12 6 3939 394 l
18 18 c 0 -126 c 0 6 4047 388 l 6 12 c 6 6 c 12 6 c 24 0 c 12 -6 c 6 -6 c 6 -12 c 0 -12 c -6 -12 c -12 -18 c -60 -60 c 84 0 c
-12 -6 4287 376 l -12 -12 c -6 -18 c 0 -12 c 6 -18 c 12 -12 c 12 -6 c 18 0 c 12 6 c 12 12 c 6 18 c 0 12 c -6 18 c -12 12 c -12 6 c
-18 0 c -12 0 4413 418 l -12 -6 c -6 -18 c 0 -102 c 42 0 4365 376 l 0 6 4545 388 l 6 12 c 6 6 c 12 6 c 24 0 c 12 -6 c 6 -6 c 6 -12 c
0 -12 c -6 -12 c -12 -18 c -60 -60 c 84 0 c -18 -6 4695 418 l -12 -18 c -6 -30 c 0 -18 c 6 -30 c 12 -18 c 18 -6 c 12 0 c 18 6 c
12 18 c 6 30 c 0 18 c -6 30 c -12 18 c -18 6 c -12 0 c 12 6 5181 394 l 18 18 c 0 -126 c -6 -6 5294 376 l 6 -6 c 6 6 c -6 6 c
-6 -6 5294 304 l 6 -6 c 6 6 c -6 6 c -48 -126 5474 418 l 48 -126 5474 418 l 60 0 5444 334 l 0 -84 5552 376 l 6 18 5552 340 l 12 12 c
12 6 c 18 0 c -12 12 5696 358 l -12 6 c -18 0 c -12 -6 c -12 -12 c -6 -18 c 0 -12 c 6 -18 c 12 -12 c 12 -6 c 18 0 c 12 6 c 12 12 c
108 0 5738 346 l 12 6 5906 394 l 18 18 c 0 -126 c 66 0 6020 418 l -36 -48 c 18 0 c 12 -6 c 6 -6 c 6 -18 c 0 -12 c -6 -18 c -12 -12 c
-18 -6 c -18 0 c -18 6 c -6 6 c -6 12 c -60 -126 6212 418 l 84 0 6128 418 l -6 -6 6260 304 l 6 -6 c 6 6 c -6 6 c -12 0 6350 418 l
-12 -6 c -6 -18 c 0 -102 c 42 0 6302 376 l 6 -6 6380 418 l 6 6 c -6 6 c -6 -6 c 0 -84 6386 376 l 0 -102 6440 418 l 6 -18 c 12 -6 c
12 0 c 42 0 6422 376 l -6 12 6566 358 l -18 6 c -18 0 c -18 -6 c -6 -12 c 6 -12 c 12 -6 c 30 -6 c 12 -6 c 6 -12 c 0 -6 c -6 -12 c
-18 -6 c -18 0 c -18 6 c -6 12 c 0 -192 6896 442 l 0 -192 6902 442 l 42 0 6896 442 l 42 0 6896 250 l 0 6 6980 388 l 6 12 c 6 6 c
12 6 c 24 0 c 12 -6 c 6 -6 c 6 -12 c 0 -12 c -6 -12 c -12 -18 c -60 -60 c 84 0 c -6 -6 7106 376 l 6 -6 c 6 6 c -6 6 c
-6 -6 7106 304 l 6 -6 c 6 6 c -6 6 c 0 -192 7286 442 l 0 -192 7292 442 l 42 0 7250 442 l 42 0 7250 250 l
0 -249 1441 1330 l -8 -3 1409 1451 l -3 -12 c 0 -7 c 3 -12 c 12 -7 c 19 -4 c 19 0 c 15 4 c 7 7 c 4 12 c 0 3 c -4 12 c -7 7 c -12 4 c
-3 0 c -12 -4 c -7 -7 c -4 -12 c 0 -3 c 4 -12 c 7 -7 c 12 -4 c -8 -4 1409 1527 l -3 -11 c 0 -8 c 3 -11 c 12 -8 c 19 -3 c 19 0 c
15 3 c 7 8 c 4 11 c 0 4 c -4 11 c -7 8 c -12 4 c -3 0 c -12 -4 c -7 -8 c -4 -11 c 0 -4 c 4 -11 c 7 -8 c 12 -3 c 0 -38 1398 1599 l
34 -4 c -4 4 c -4 11 c 0 12 c 4 11 c 8 8 c 11 3 c 7 0 c 12 -3 c 7 -8 c 4 -11 c 0 -12 c -4 -11 c -3 -4 c -8 -4 c 53 -38 1398 1667 l
0 57 c 79 0 1398 1667 l 3 -4 1470 1712 l 4 4 c -4 4 c -3 -4 c 0 42 1398 1750 l 30 -23 c 0 11 c 4 8 c 4 4 c 11 3 c 7 0 c 12 -3 c
7 -8 c 4 -11 c 0 -12 c -4 -11 c -3 -4 c -8 -4 c -8 -4 1409 1867 l -3 -11 c 0 -8 c 3 -11 c 12 -7 c 19 -4 c 19 0 c 15 4 c 7 7 c 4 11 c
0 4 c -4 12 c -7 7 c -12 4 c -3 0 c -12 -4 c -7 -7 c -4 -12 c 0 -4 c 4 -11 c 7 -7 c 12 -4 c 3 -11 1398 1912 l 8 -4 c 8 0 c 7 4 c
4 8 c 4 15 c 4 11 c 7 8 c 8 3 c 11 0 c 8 -3 c 3 -4 c 4 -11 c 0 -16 c -4 -11 c -3 -4 c -8 -3 c -11 0 c -8 3 c -7 8 c -4 11 c -4 15 c
-4 8 c -7 4 c -8 0 c -8 -4 c -3 -11 c 0 -16 c 0 -250 1814 1788 l -7 -4 1781 1909 l -4 -11 c 0 -8 c 4 -11 c 11 -8 c 19 -3 c 19 0 c
15 3 c 8 8 c 3 11 c 0 4 c -3 11 c -8 8 c -11 4 c -4 0 c -11 -4 c -8 -8 c -4 -11 c 0 -4 c 4 -11 c 8 -8 c 11 -3 c -7 -4 1781 1985 l
-4 -12 c 0 -7 c 4 -11 c 11 -8 c 19 -4 c 19 0 c 15 4 c 8 8 c 3 11 c 0 4 c -3 11 c -8 8 c -11 3 c -4 0 c -11 -3 c -8 -8 c -4 -11 c
0 -4 c 4 -11 c 8 -8 c 11 -4 c 0 -37 1770 2056 l 34 -4 c -4 4 c -4 11 c 0 11 c 4 12 c 8 7 c 11 4 c 8 0 c 11 -4 c 8 -7 c 3 -12 c
0 -11 c -3 -11 c -4 -4 c -8 -4 c 4 -11 1770 2105 l 7 -4 c 8 0 c 7 4 c 4 8 c 4 15 c 4 11 c 7 8 c 8 4 c 11 0 c 8 -4 c 4 -4 c 3 -11 c
0 -16 c -3 -11 c -4 -4 c -8 -3 c -11 0 c -8 3 c -7 8 c -4 11 c -4 15 c -4 8 c -7 4 c -8 0 c -7 -4 c -4 -11 c 0 -16 c
4 -4 1842 2170 l 3 4 c -3 4 c -4 -4 c -7 -4 1781 2249 l -4 -11 c 0 -8 c 4 -11 c 11 -7 c 19 -4 c 19 0 c 15 4 c 8 7 c 3 11 c 0 4 c
-3 12 c -8 7 c -11 4 c -4 0 c -11 -4 c -8 -7 c -4 -12 c 0 -4 c 4 -11 c 8 -7 c 11 -4 c 79 -37 1770 2328 l 0 52 1770 2276 l
79 -38 1770 2404 l 0 53 1770 2351 l 0 -249 1987 1655 l -8 -3 1955 1776 l -4 -12 c 0 -7 c 4 -12 c 11 -7 c 19 -4 c 19 0 c 15 4 c 8 7 c
4 12 c 0 3 c -4 12 c -8 7 c -11 4 c -4 0 c -11 -4 c -8 -7 c -4 -12 c 0 -3 c 4 -12 c 8 -7 c 11 -4 c -8 -4 1955 1852 l -4 -11 c 0 -8 c
4 -11 c 11 -8 c 19 -3 c 19 0 c 15 3 c 8 8 c 4 11 c 0 4 c -4 11 c -8 8 c -11 4 c -4 0 c -11 -4 c -8 -8 c -4 -11 c 0 -4 c 4 -11 c
8 -8 c 11 -3 c -8 -3 1955 1927 l -4 -12 c 0 -7 c 4 -12 c 11 -7 c 19 -4 c 19 0 c 15 4 c 8 7 c 4 12 c 0 4 c -4 11 c -8 7 c -11 4 c
-4 0 c -11 -4 c -8 -7 c -4 -11 c 0 -4 c 4 -12 c 8 -7 c 11 -4 c 4 -12 1943 1977 l 11 -7 c 19 -4 c 12 0 c 18 4 c 12 7 c 4 12 c 0 7 c
-4 11 c -12 8 c -18 4 c -12 0 c -19 -4 c -11 -8 c -4 -11 c 0 -7 c 4 -4 2015 2037 l 4 4 c -4 4 c -4 -4 c -8 -3 1955 2116 l -4 -12 c
0 -7 c 4 -12 c 11 -7 c 19 -4 c 19 0 c 15 4 c 8 7 c 4 12 c 0 4 c -4 11 c -8 7 c -11 4 c -4 0 c -11 -4 c -8 -7 c -4 -11 c 0 -4 c
4 -12 c 8 -7 c 11 -4 c 80 -38 1943 2196 l 0 53 1943 2143 l -8 -4 1955 2268 l -4 -11 c 0 -8 c 4 -11 c 11 -8 c 19 -4 c 19 0 c 15 4 c
8 8 c 4 11 c 0 4 c -4 11 c -8 8 c -11 3 c -4 0 c -11 -3 c -8 -8 c -4 -11 c 0 -4 c 4 -11 c 8 -8 c 11 -4 c 0 -249 2125 6979 l
-7 -4 2092 7100 l -4 -11 c 0 -7 c 4 -12 c 11 -7 c 19 -4 c 19 0 c 15 4 c 8 7 c 3 12 c 0 3 c -3 12 c -8 7 c -11 4 c -4 0 c -11 -4 c
-8 -7 c -4 -12 c 0 -3 c 4 -12 c 8 -7 c 11 -4 c -7 -4 2092 7176 l -4 -11 c 0 -8 c 4 -11 c 11 -8 c 19 -4 c 19 0 c 15 4 c 8 8 c 3 11 c
0 4 c -3 11 c -8 8 c -11 4 c -4 0 c -11 -4 c -8 -8 c -4 -11 c 0 -4 c 4 -11 c 8 -8 c 11 -4 c -7 -3 2092 7251 l -4 -12 c 0 -7 c
4 -12 c 11 -7 c 19 -4 c 19 0 c 15 4 c 8 7 c 3 12 c 0 3 c -3 12 c -8 7 c -11 4 c -4 0 c -11 -4 c -8 -7 c -4 -12 c 0 -3 c 4 -12 c
8 -7 c 11 -4 c -4 0 2100 7282 l -7 3 c -4 4 c -4 8 c 0 15 c 4 7 c 4 4 c 7 4 c 8 0 c 7 -4 c 12 -7 c 37 -38 c 0 53 c 4 -4 2153 7361 l
3 4 c -3 4 c -4 -4 c -4 0 2100 7395 l -7 4 c -4 4 c -4 7 c 0 15 c 4 8 c 4 4 c 7 3 c 8 0 c 7 -3 c 12 -8 c 37 -38 c 0 53 c
-7 -4 2092 7516 l -4 -11 c 0 -8 c 4 -11 c 11 -8 c 19 -3 c 19 0 c 15 3 c 8 8 c 3 11 c 0 4 c -3 11 c -8 8 c -11 4 c -4 0 c -11 -4 c
-8 -8 c -4 -11 c 0 -4 c 4 -11 c 8 -8 c 11 -3 c 11 -4 2108 7592 l 7 -8 c 4 -11 c 0 -4 c -4 -11 c -7 -8 c -11 -4 c -4 0 c -12 4 c
-7 8 c -4 11 c 0 4 c 4 11 c 7 8 c 16 4 c 18 0 c 19 -4 c 12 -8 c 3 -11 c 0 -8 c -3 -11 c -8 -4 c 0 -250 2481 2337 l -8 -4 2449 2458 l
-4 -11 c 0 -8 c 4 -11 c 11 -8 c 19 -4 c 19 0 c 15 4 c 8 8 c 4 11 c 0 4 c -4 11 c -8 8 c -11 4 c -4 0 c -11 -4 c -8 -8 c -4 -11 c
0 -4 c 4 -11 c 8 -8 c 11 -4 c -8 -3 2449 2533 l -4 -12 c 0 -7 c 4 -12 c 11 -7 c 19 -4 c 19 0 c 15 4 c 8 7 c 4 12 c 0 4 c -4 11 c
-8 7 c -11 4 c -4 0 c -11 -4 c -8 -7 c -4 -11 c 0 -4 c 4 -12 c 8 -7 c 11 -4 c -8 -4 2449 2609 l -4 -11 c 0 -8 c 4 -11 c 11 -8 c
19 -3 c 19 0 c 15 3 c 8 8 c 4 11 c 0 4 c -4 11 c -8 8 c -11 4 c -4 0 c -11 -4 c -8 -8 c -4 -11 c 0 -4 c 4 -11 c 8 -8 c 11 -3 c
-8 -4 2449 2685 l -4 -12 c 0 -7 c 4 -11 c 11 -8 c 19 -4 c 19 0 c 15 4 c 8 8 c 4 11 c 0 4 c -4 11 c -8 8 c -11 3 c -4 0 c -11 -3 c
-8 -8 c -4 -11 c 0 -4 c 4 -11 c 8 -8 c 11 -4 c 4 -4 2509 2719 l 4 4 c -4 3 c -4 -3 c 0 42 2437 2756 l 30 -23 c 0 12 c 4 7 c 4 4 c
11 4 c 8 0 c 11 -4 c 8 -8 c 4 -11 c 0 -11 c -4 -12 c -4 -3 c -8 -4 c 0 -38 2437 2870 l 34 -4 c -4 4 c -3 11 c 0 12 c 3 11 c 8 8 c
11 3 c 8 0 c 11 -3 c 8 -8 c 4 -11 c 0 -12 c -4 -11 c -4 -4 c -8 -4 c 11 -4 2464 2949 l 8 -7 c 3 -12 c 0 -3 c -3 -12 c -8 -7 c
-11 -4 c -4 0 c -11 4 c -8 7 c -4 12 c 0 3 c 4 12 c 8 7 c 15 4 c 19 0 c 18 -4 c 12 -7 c 4 -12 c 0 -7 c -4 -11 c -8 -4 c
0 -250 2695 1416 l -7 -4 2663 1537 l -4 -11 c 0 -8 c 4 -11 c 11 -8 c 19 -4 c 19 0 c 15 4 c 7 8 c 4 11 c 0 4 c -4 11 c -7 8 c -12 4 c
-3 0 c -12 -4 c -7 -8 c -4 -11 c 0 -4 c 4 -11 c 7 -8 c 12 -4 c -7 -3 2663 1612 l -4 -12 c 0 -7 c 4 -12 c 11 -7 c 19 -4 c 19 0 c
15 4 c 7 7 c 4 12 c 0 3 c -4 12 c -7 7 c -12 4 c -3 0 c -12 -4 c -7 -7 c -4 -12 c 0 -3 c 4 -12 c 7 -7 c 12 -4 c -7 -4 2663 1688 l
-4 -11 c 0 -8 c 4 -11 c 11 -8 c 19 -3 c 19 0 c 15 3 c 7 8 c 4 11 c 0 4 c -4 11 c -7 8 c -12 4 c -3 0 c -12 -4 c -7 -8 c -4 -11 c
0 -4 c 4 -11 c 7 -8 c 12 -3 c 4 -11 2652 1733 l 7 -4 c 8 0 c 7 4 c 4 7 c 4 16 c 4 11 c 7 8 c 8 3 c 11 0 c 8 -3 c 3 -4 c 4 -12 c
0 -15 c -4 -11 c -3 -4 c -8 -4 c -11 0 c -8 4 c -7 8 c -4 11 c -4 15 c -4 8 c -7 4 c -8 0 c -7 -4 c -4 -12 c 0 -15 c
3 -4 2724 1798 l 4 4 c -4 3 c -3 -3 c 4 -12 2652 1847 l 7 -3 c 8 0 c 7 3 c 4 8 c 4 15 c 4 11 c 7 8 c 8 4 c 11 0 c 8 -4 c 3 -4 c
4 -11 c 0 -15 c -4 -12 c -3 -3 c -8 -4 c -11 0 c -8 4 c -7 7 c -4 11 c -4 16 c -4 7 c -7 4 c -8 0 c -7 -4 c -4 -11 c 0 -15 c
-4 7 2667 1915 l -11 12 c 79 0 c -7 -4 2663 2028 l -4 -11 c 0 -8 c 4 -11 c 11 -8 c 19 -3 c 19 0 c 15 3 c 7 8 c 4 11 c 0 4 c -4 12 c
-7 7 c -12 4 c -3 0 c -12 -4 c -7 -7 c -4 -12 c 0 -4 c 4 -11 c 7 -8 c 12 -3 c 0 -250 3113 1384 l -8 -4 3081 1505 l -3 -12 c 0 -7 c
3 -11 c 12 -8 c 19 -4 c 18 0 c 16 4 c 7 8 c 4 11 c 0 4 c -4 11 c -7 8 c -12 3 c -4 0 c -11 -3 c -7 -8 c -4 -11 c 0 -4 c 4 -11 c
7 -8 c 11 -4 c -8 -4 3081 1580 l -3 -11 c 0 -8 c 3 -11 c 12 -7 c 19 -4 c 18 0 c 16 4 c 7 7 c 4 11 c 0 4 c -4 12 c -7 7 c -12 4 c
-4 0 c -11 -4 c -7 -7 c -4 -12 c 0 -4 c 4 -11 c 7 -7 c 11 -4 c 79 -37 3070 1659 l 0 52 3070 1607 l 0 41 3070 1690 l 30 -22 c 0 11 c
4 8 c 3 3 c 12 4 c 7 0 c 12 -4 c 7 -7 c 4 -12 c 0 -11 c -4 -11 c -4 -4 c -7 -4 c 4 -3 3141 1765 l 4 3 c -4 4 c -4 -4 c
0 -38 3070 1841 l 34 -4 c -4 4 c -4 11 c 0 12 c 4 11 c 7 8 c 12 3 c 7 0 c 12 -3 c 7 -8 c 4 -11 c 0 -12 c -4 -11 c -4 -4 c -7 -3 c
3 -11 3070 1890 l 8 -4 c 7 0 c 8 4 c 4 7 c 4 15 c 3 12 c 8 7 c 7 4 c 12 0 c 7 -4 c 4 -3 c 4 -12 c 0 -15 c -4 -11 c -4 -4 c -7 -4 c
-12 0 c -7 4 c -8 7 c -3 12 c -4 15 c -4 8 c -8 3 c -7 0 c -8 -3 c -3 -12 c 0 -15 c 3 -11 3070 1969 l 12 -7 c 19 -4 c 11 0 c 19 4 c
11 7 c 4 11 c 0 8 c -4 11 c -11 8 c -19 4 c -11 0 c -19 -4 c -12 -8 c -3 -11 c 0 -8 c 0 -249 3211 2720 l -7 -4 3179 2841 l -4 -11 c
0 -8 c 4 -11 c 11 -7 c 19 -4 c 19 0 c 15 4 c 7 7 c 4 11 c 0 4 c -4 12 c -7 7 c -11 4 c -4 0 c -12 -4 c -7 -7 c -4 -12 c 0 -4 c
4 -11 c 7 -7 c 12 -4 c -7 -4 3179 2917 l -4 -11 c 0 -8 c 4 -11 c 11 -8 c 19 -4 c 19 0 c 15 4 c 7 8 c 4 11 c 0 4 c -4 11 c -7 8 c
-11 3 c -4 0 c -12 -3 c -7 -8 c -4 -11 c 0 -4 c 4 -11 c 7 -8 c 12 -4 c 79 -38 3168 2996 l 0 53 3168 2943 l 53 -38 3168 3057 l 0 56 c
79 0 3168 3057 l 3 -4 3240 3102 l 4 4 c -4 4 c -3 -4 c -7 -4 3179 3181 l -4 -11 c 0 -7 c 4 -12 c 11 -7 c 19 -4 c 19 0 c 15 4 c 7 7 c
4 12 c 0 3 c -4 12 c -7 7 c -11 4 c -4 0 c -12 -4 c -7 -7 c -4 -12 c 0 -3 c 4 -12 c 7 -7 c 12 -4 c 12 -4 3194 3257 l 7 -8 c 4 -11 c
0 -4 c -4 -11 c -7 -8 c -12 -3 c -3 0 c -12 3 c -7 8 c -4 11 c 0 4 c 4 11 c 7 8 c 15 4 c 19 0 c 19 -4 c 11 -8 c 4 -11 c 0 -7 c
-4 -12 c -7 -4 c 79 -38 3168 3336 l 0 53 3168 3283 l 0 -249 3440 7019 l -8 -4 3408 7140 l -4 -11 c 0 -8 c 4 -11 c 11 -8 c 19 -3 c
19 0 c 15 3 c 8 8 c 4 11 c 0 4 c -4 11 c -8 8 c -11 4 c -4 0 c -11 -4 c -8 -8 c -4 -11 c 0 -4 c 4 -11 c 8 -8 c 11 -3 c
-8 -4 3408 7216 l -4 -11 c 0 -8 c 4 -11 c 11 -8 c 19 -4 c 19 0 c 15 4 c 8 8 c 4 11 c 0 4 c -4 11 c -8 8 c -11 3 c -4 0 c -11 -3 c
-8 -8 c -4 -11 c 0 -4 c 4 -11 c 8 -8 c 11 -4 c 80 -38 3396 7295 l 0 53 3396 7242 l 80 -38 3396 7371 l 0 53 3396 7318 l
4 -4 3468 7401 l 4 4 c -4 4 c -4 -4 c -4 0 3415 7435 l -7 4 c -4 3 c -4 8 c 0 15 c 4 8 c 4 3 c 7 4 c 8 0 c 7 -4 c 12 -7 c 38 -38 c
0 53 c 4 -12 3396 7526 l 8 -4 c 7 0 c 8 4 c 3 8 c 4 15 c 4 11 c 8 8 c 7 4 c 12 0 c 7 -4 c 4 -4 c 4 -11 c 0 -15 c -4 -12 c -4 -4 c
-7 -3 c -12 0 c -7 3 c -8 8 c -4 11 c -4 15 c -3 8 c -8 4 c -7 0 c -8 -4 c -4 -11 c 0 -15 c -4 0 3415 7586 l -7 4 c -4 4 c -4 7 c
0 15 c 4 8 c 4 4 c 7 3 c 8 0 c 7 -3 c 12 -8 c 38 -38 c 0 53 c 0 -250 3566 1976 l -7 -4 3533 2097 l -4 -11 c 0 -8 c 4 -11 c 11 -8 c
19 -3 c 19 0 c 15 3 c 8 8 c 3 11 c 0 4 c -3 11 c -8 8 c -11 4 c -4 0 c -11 -4 c -8 -8 c -4 -11 c 0 -4 c 4 -11 c 8 -8 c 11 -3 c
-7 -4 3533 2173 l -4 -12 c 0 -7 c 4 -11 c 11 -8 c 19 -4 c 19 0 c 15 4 c 8 8 c 3 11 c 0 4 c -3 11 c -8 8 c -11 3 c -4 0 c -11 -3 c
-8 -8 c -4 -11 c 0 -4 c 4 -11 c 8 -8 c 11 -4 c 79 -38 3522 2252 l 0 53 3522 2199 l 4 -12 3522 2294 l 7 -4 c 8 0 c 8 4 c 3 8 c 4 15 c
4 11 c 7 8 c 8 4 c 11 0 c 8 -4 c 4 -4 c 3 -11 c 0 -15 c -3 -12 c -4 -4 c -8 -3 c -11 0 c -8 3 c -7 8 c -4 11 c -4 15 c -3 8 c -8 4 c
-8 0 c -7 -4 c -4 -11 c 0 -15 c 4 -4 3594 2358 l 3 4 c -3 4 c -4 -4 c 79 -38 3522 2441 l 0 53 3522 2388 l 4 -11 3522 2486 l 11 -8 c
19 -3 c 11 0 c 19 3 c 12 8 c 3 11 c 0 8 c -3 11 c -12 8 c -19 4 c -11 0 c -19 -4 c -11 -8 c -4 -11 c 0 -8 c 79 -38 3522 2592 l
0 53 3522 2539 l 0 -250 3688 1309 l -7 -4 3655 1430 l -4 -11 c 0 -8 c 4 -11 c 11 -8 c 19 -3 c 19 0 c 15 3 c 8 8 c 3 11 c 0 4 c
-3 11 c -8 8 c -11 4 c -4 0 c -12 -4 c -7 -8 c -4 -11 c 0 -4 c 4 -11 c 7 -8 c 12 -3 c -7 -4 3655 1506 l -4 -12 c 0 -7 c 4 -11 c
11 -8 c 19 -4 c 19 0 c 15 4 c 8 8 c 3 11 c 0 4 c -3 11 c -8 8 c -11 3 c -4 0 c -12 -3 c -7 -8 c -4 -11 c 0 -4 c 4 -11 c 7 -8 c
12 -4 c 4 -11 3644 1551 l 7 -4 c 8 0 c 7 4 c 4 7 c 4 15 c 4 12 c 7 7 c 8 4 c 11 0 c 8 -4 c 4 -4 c 3 -11 c 0 -15 c -3 -11 c -4 -4 c
-8 -4 c -11 0 c -8 4 c -7 7 c -4 12 c -4 15 c -4 7 c -7 4 c -8 0 c -7 -4 c -4 -11 c 0 -15 c 4 -11 3644 1630 l 11 -8 c 19 -3 c 11 0 c
19 3 c 12 8 c 3 11 c 0 8 c -3 11 c -12 8 c -19 4 c -11 0 c -19 -4 c -11 -8 c -4 -11 c 0 -8 c 4 -4 3716 1691 l 3 4 c -3 4 c -4 -4 c
4 -12 3644 1744 l 11 -7 c 19 -4 c 11 0 c 19 4 c 12 7 c 3 12 c 0 7 c -3 12 c -12 7 c -19 4 c -11 0 c -19 -4 c -11 -7 c -4 -12 c
0 -7 c 4 -12 3644 1816 l 7 -4 c 8 0 c 7 4 c 4 8 c 4 15 c 4 11 c 7 8 c 8 4 c 11 0 c 8 -4 c 4 -4 c 3 -11 c 0 -15 c -3 -12 c -4 -4 c
-8 -3 c -11 0 c -8 3 c -7 8 c -4 11 c -4 15 c -4 8 c -7 4 c -8 0 c -7 -4 c -4 -11 c 0 -15 c -4 7 3659 1884 l -11 11 c 79 0 c
0 -250 3980 1841 l -8 -4 3948 1962 l -4 -11 c 0 -8 c 4 -11 c 11 -8 c 19 -4 c 19 0 c 15 4 c 8 8 c 4 11 c 0 4 c -4 11 c -8 8 c -11 4 c
-4 0 c -11 -4 c -8 -8 c -4 -11 c 0 -4 c 4 -11 c 8 -8 c 11 -4 c -8 -3 3948 2037 l -4 -12 c 0 -7 c 4 -12 c 11 -7 c 19 -4 c 19 0 c
15 4 c 8 7 c 4 12 c 0 3 c -4 12 c -8 7 c -11 4 c -4 0 c -11 -4 c -8 -7 c -4 -12 c 0 -3 c 4 -12 c 8 -7 c 11 -4 c 4 -12 3936 2083 l
8 -3 c 7 0 c 8 3 c 3 8 c 4 15 c 4 11 c 8 8 c 7 4 c 11 0 c 8 -4 c 4 -4 c 4 -11 c 0 -15 c -4 -12 c -4 -3 c -8 -4 c -11 0 c -7 4 c
-8 7 c -4 12 c -4 15 c -3 7 c -8 4 c -7 0 c -8 -4 c -4 -11 c 0 -15 c 0 42 3936 2147 l 30 -23 c 0 11 c 4 8 c 4 4 c 11 3 c 8 0 c
11 -3 c 8 -8 c 4 -11 c 0 -12 c -4 -11 c -4 -4 c -8 -4 c 4 -4 4008 2223 l 4 4 c -4 3 c -4 -3 c 0 42 3936 2260 l 30 -23 c 0 12 c 4 7 c
4 4 c 11 4 c 8 0 c 11 -4 c 8 -8 c 4 -11 c 0 -11 c -4 -12 c -4 -3 c -8 -4 c -8 -4 3948 2378 l -4 -12 c 0 -7 c 4 -11 c 11 -8 c 19 -4 c
19 0 c 15 4 c 8 8 c 4 11 c 0 4 c -4 11 c -8 8 c -11 3 c -4 0 c -11 -3 c -8 -8 c -4 -11 c 0 -4 c 4 -11 c 8 -8 c 11 -4 c
80 -38 3936 2457 l 0 53 3936 2404 l 0 -249 4063 3243 l -7 -4 4030 3364 l -4 -11 c 0 -8 c 4 -11 c 11 -7 c 19 -4 c 19 0 c 15 4 c 8 7 c
3 11 c 0 4 c -3 12 c -8 7 c -11 4 c -4 0 c -12 -4 c -7 -7 c -4 -12 c 0 -4 c 4 -11 c 7 -7 c 12 -4 c -7 -4 4030 3440 l -4 -11 c 0 -8 c
4 -11 c 11 -8 c 19 -4 c 19 0 c 15 4 c 8 8 c 3 11 c 0 4 c -3 11 c -8 8 c -11 3 c -4 0 c -12 -3 c -7 -8 c -4 -11 c 0 -4 c 4 -11 c
7 -8 c 12 -4 c 4 -11 4019 3485 l 7 -4 c 8 0 c 7 4 c 4 7 c 4 15 c 4 12 c 7 7 c 8 4 c 11 0 c 8 -4 c 4 -3 c 3 -12 c 0 -15 c -3 -11 c
-4 -4 c -8 -4 c -11 0 c -8 4 c -7 7 c -4 12 c -4 15 c -4 8 c -7 3 c -8 0 c -7 -3 c -4 -12 c 0 -15 c 53 -38 4019 3580 l 0 56 c
79 0 4019 3580 l 4 -4 4091 3625 l 3 4 c -3 4 c -4 -4 c -4 0 4038 3659 l -8 4 c -3 3 c -4 8 c 0 15 c 4 8 c 3 3 c 8 4 c 8 0 c 7 -4 c
11 -7 c 38 -38 c 0 53 c 12 -4 4045 3780 l 7 -7 c 4 -12 c 0 -4 c -4 -11 c -7 -8 c -12 -3 c -3 0 c -12 3 c -7 8 c -4 11 c 0 4 c 4 12 c
7 7 c 15 4 c 19 0 c 19 -4 c 12 -7 c 3 -12 c 0 -7 c -3 -12 c -8 -4 c 0 41 4019 3814 l 30 -22 c 0 11 c 4 8 c 4 3 c 11 4 c 8 0 c
11 -4 c 8 -7 c 3 -11 c 0 -12 c -3 -11 c -4 -4 c -8 -4 c 0 -250 4819 2026 l -8 -4 4787 2147 l -4 -11 c 0 -8 c 4 -11 c 11 -8 c 19 -4 c
19 0 c 15 4 c 8 8 c 4 11 c 0 4 c -4 11 c -8 8 c -11 3 c -4 0 c -11 -3 c -8 -8 c -4 -11 c 0 -4 c 4 -11 c 8 -8 c 11 -4 c
-8 -4 4787 2222 l -4 -11 c 0 -7 c 4 -12 c 11 -7 c 19 -4 c 19 0 c 15 4 c 8 7 c 4 12 c 0 3 c -4 12 c -8 7 c -11 4 c -4 0 c -11 -4 c
-8 -7 c -4 -12 c 0 -3 c 4 -12 c 8 -7 c 11 -4 c 11 -4 4802 2298 l 8 -8 c 3 -11 c 0 -4 c -3 -11 c -8 -8 c -11 -3 c -4 0 c -11 3 c
-8 8 c -4 11 c 0 4 c 4 11 c 8 8 c 15 4 c 19 0 c 19 -4 c 11 -8 c 4 -11 c 0 -7 c -4 -12 c -8 -4 c -4 0 4794 2328 l -7 4 c -4 4 c
-4 7 c 0 15 c 4 8 c 4 4 c 7 3 c 8 0 c 7 -3 c 12 -8 c 38 -38 c 0 53 c 4 -3 4847 2407 l 4 3 c -4 4 c -4 -4 c 80 -38 4775 2491 l
0 53 4775 2438 l -4 0 4794 2517 l -7 4 c -4 4 c -4 7 c 0 15 c 4 8 c 4 4 c 7 3 c 8 0 c 7 -3 c 12 -8 c 38 -38 c 0 53 c
-8 -4 4787 2638 l -4 -11 c 0 -8 c 4 -11 c 11 -8 c 19 -3 c 19 0 c 15 3 c 8 8 c 4 11 c 0 4 c -4 11 c -8 8 c -11 4 c -4 0 c -11 -4 c
-8 -8 c -4 -11 c 0 -4 c 4 -11 c 8 -8 c 11 -3 c 0 -250 4980 1335 l -8 -4 4948 1456 l -4 -11 c 0 -8 c 4 -11 c 11 -8 c 19 -3 c 19 0 c
15 3 c 8 8 c 4 11 c 0 4 c -4 11 c -8 8 c -11 4 c -4 0 c -11 -4 c -8 -8 c -3 -11 c 0 -4 c 3 -11 c 8 -8 c 11 -3 c -8 -3 4948 1531 l
-4 -12 c 0 -7 c 4 -12 c 11 -7 c 19 -4 c 19 0 c 15 4 c 8 7 c 4 12 c 0 4 c -4 11 c -8 7 c -11 4 c -4 0 c -11 -4 c -8 -7 c -3 -11 c
0 -4 c 3 -12 c 8 -7 c 11 -4 c 11 -4 4963 1607 l 8 -7 c 3 -12 c 0 -3 c -3 -12 c -8 -7 c -11 -4 c -4 0 c -11 4 c -8 7 c -4 12 c 0 3 c
4 12 c 8 7 c 15 4 c 19 0 c 19 -4 c 11 -7 c 4 -12 c 0 -7 c -4 -12 c -8 -3 c 53 -37 4936 1671 l 0 56 c 80 0 4936 1671 l
4 -4 5008 1717 l 4 4 c -4 3 c -4 -3 c 53 -38 4936 1785 l 0 57 c 80 0 4936 1785 l 11 -4 4963 1872 l 8 -8 c 3 -11 c 0 -4 c -3 -11 c
-8 -8 c -11 -4 c -4 0 c -11 4 c -8 8 c -4 11 c 0 4 c 4 11 c 8 8 c 15 4 c 19 0 c 19 -4 c 11 -8 c 4 -11 c 0 -8 c -4 -11 c -8 -4 c
80 -38 4936 1951 l 0 53 4936 1898 l 0 -250 5128 1498 l -7 -4 5095 1619 l -4 -11 c 0 -8 c 4 -11 c 11 -8 c 19 -3 c 19 0 c 15 3 c 8 8 c
3 11 c 0 4 c -3 11 c -8 8 c -11 4 c -4 0 c -11 -4 c -8 -8 c -4 -11 c 0 -4 c 4 -11 c 8 -8 c 11 -3 c -7 -3 5095 1694 l -4 -12 c 0 -7 c
4 -12 c 11 -7 c 19 -4 c 19 0 c 15 4 c 8 7 c 3 12 c 0 4 c -3 11 c -8 7 c -11 4 c -4 0 c -11 -4 c -8 -7 c -4 -11 c 0 -4 c 4 -12 c
8 -7 c 11 -4 c 12 -4 5110 1770 l 7 -7 c 4 -12 c 0 -3 c -4 -12 c -7 -7 c -12 -4 c -3 0 c -12 4 c -7 7 c -4 12 c 0 3 c 4 12 c 7 7 c
15 4 c 19 0 c 19 -4 c 12 -7 c 3 -12 c 0 -7 c -3 -12 c -8 -3 c -7 -4 5095 1846 l -4 -11 c 0 -8 c 4 -11 c 11 -8 c 19 -4 c 19 0 c
15 4 c 8 8 c 3 11 c 0 4 c -3 11 c -8 8 c -11 3 c -4 0 c -11 -3 c -8 -8 c -4 -11 c 0 -4 c 4 -11 c 8 -8 c 11 -4 c 4 -4 5156 1880 l
3 4 c -3 3 c -4 -3 c -4 8 5099 1921 l -11 11 c 79 0 c 53 -38 5084 2023 l 0 57 c 79 0 5084 2023 l 4 -12 5084 2084 l 11 -7 c 19 -4 c
11 0 c 19 4 c 12 7 c 3 12 c 0 7 c -3 12 c -12 7 c -19 4 c -11 0 c -19 -4 c -11 -7 c -4 -12 c 0 -7 c 0 -250 5270 1840 l
-8 -4 5238 1961 l -4 -11 c 0 -8 c 4 -11 c 11 -8 c 19 -3 c 19 0 c 15 3 c 8 8 c 4 11 c 0 4 c -4 11 c -8 8 c -11 4 c -4 0 c -11 -4 c
-8 -8 c -4 -11 c 0 -4 c 4 -11 c 8 -8 c 11 -3 c -8 -3 5238 2036 l -4 -12 c 0 -7 c 4 -12 c 11 -7 c 19 -4 c 19 0 c 15 4 c 8 7 c 4 12 c
0 4 c -4 11 c -8 7 c -11 4 c -4 0 c -11 -4 c -8 -7 c -4 -11 c 0 -4 c 4 -12 c 8 -7 c 11 -4 c 11 -4 5253 2112 l 8 -7 c 3 -12 c 0 -3 c
-3 -12 c -8 -7 c -11 -4 c -4 0 c -11 4 c -8 7 c -4 12 c 0 3 c 4 12 c 8 7 c 15 4 c 19 0 c 18 -4 c 12 -7 c 4 -12 c 0 -7 c -4 -12 c
-8 -3 c 80 -37 5226 2191 l 0 52 5226 2139 l 4 -4 5298 2222 l 4 4 c -4 3 c -4 -3 c 80 -38 5226 2305 l 0 53 5226 2252 l
-3 7 5241 2339 l -12 12 c 80 0 c -4 0 5245 2407 l -7 4 c -4 3 c -4 8 c 0 15 c 4 8 c 4 3 c 7 4 c 8 0 c 7 -4 c 12 -7 c 38 -38 c 0 53 c
0 -250 6511 1634 l -8 -4 6479 1755 l -4 -12 c 0 -7 c 4 -11 c 12 -8 c 18 -4 c 19 0 c 15 4 c 8 8 c 4 11 c 0 4 c -4 11 c -8 8 c -11 3 c
-4 0 c -11 -3 c -8 -8 c -3 -11 c 0 -4 c 3 -11 c 8 -8 c 11 -4 c 80 -38 6467 1834 l 0 53 6467 1781 l -4 8 6483 1868 l -12 11 c 80 0 c
-4 7 6483 1944 l -12 11 c 80 0 c 4 -3 6539 2015 l 4 3 c -4 4 c -4 -4 c -3 0 6486 2049 l -8 4 c -4 4 c -4 8 c 0 15 c 4 7 c 4 4 c
8 4 c 7 0 c 8 -4 c 11 -8 c 38 -37 c 0 53 c 0 -38 6467 2167 l 34 -4 c -3 4 c -4 11 c 0 11 c 4 12 c 7 7 c 12 4 c 7 0 c 11 -4 c 8 -7 c
4 -12 c 0 -11 c -4 -11 c -4 -4 c -7 -4 c -3 0 6486 2201 l -8 3 c -4 4 c -4 8 c 0 15 c 4 7 c 4 4 c 8 4 c 7 0 c 8 -4 c 11 -7 c
38 -38 c 0 53 c 0 -250 6763 2134 l -7 -4 6731 2255 l -4 -11 c 0 -8 c 4 -11 c 11 -8 c 19 -4 c 19 0 c 15 4 c 7 8 c 4 11 c 0 4 c
-4 11 c -7 8 c -12 4 c -3 0 c -12 -4 c -7 -8 c -4 -11 c 0 -4 c 4 -11 c 7 -8 c 12 -4 c 79 -38 6720 2334 l 0 53 6720 2281 l
-4 8 6735 2368 l -11 11 c 79 0 c 0 42 6720 2440 l 30 -23 c 0 11 c 4 8 c 4 4 c 11 3 c 7 0 c 12 -3 c 7 -8 c 4 -11 c 0 -12 c -4 -11 c
-3 -4 c -8 -4 c 3 -4 6792 2516 l 4 4 c -4 3 c -3 -3 c 12 -4 6746 2595 l 7 -7 c 4 -12 c 0 -3 c -4 -12 c -7 -7 c -12 -4 c -4 0 c
-11 4 c -7 7 c -4 12 c 0 3 c 4 12 c 7 7 c 15 4 c 19 0 c 19 -4 c 11 -7 c 4 -12 c 0 -7 c -4 -12 c -7 -3 c 79 -37 6720 2674 l
0 53 6720 2621 l 4 -12 6720 2720 l 11 -7 c 19 -4 c 11 0 c 19 4 c 11 7 c 4 12 c 0 7 c -4 12 c -11 7 c -19 4 c -11 0 c -19 -4 c
-11 -7 c -4 -12 c 0 -7 c 0 -250 7253 2346 l -7 -4 7220 2467 l -4 -11 c 0 -8 c 4 -11 c 11 -8 c 19 -4 c 19 0 c 15 4 c 8 8 c 3 11 c
0 4 c -3 11 c -8 8 c -11 4 c -4 0 c -12 -4 c -7 -8 c -4 -11 c 0 -4 c 4 -11 c 7 -8 c 12 -4 c 79 -38 7209 2546 l 0 53 7209 2493 l
-4 8 7224 2580 l -11 11 c 79 0 c 12 -4 7235 2694 l 7 -8 c 4 -11 c 0 -4 c -4 -11 c -7 -8 c -12 -4 c -3 0 c -12 4 c -7 8 c -4 11 c
0 4 c 4 11 c 7 8 c 15 4 c 19 0 c 19 -4 c 12 -8 c 3 -11 c 0 -8 c -3 -11 c -8 -4 c 4 -4 7281 2728 l 3 4 c -3 3 c -4 -3 c
-4 8 7224 2769 l -11 11 c 79 0 c 12 -4 7235 2883 l 7 -8 c 4 -11 c 0 -4 c -4 -11 c -7 -8 c -12 -4 c -3 0 c -12 4 c -7 8 c -4 11 c
0 4 c 4 11 c 7 8 c 15 4 c 19 0 c 19 -4 c 12 -8 c 3 -11 c 0 -8 c -3 -11 c -8 -4 c 12 -4 7235 2958 l 7 -7 c 4 -12 c 0 -3 c -4 -12 c
-7 -7 c -12 -4 c -3 0 c -12 4 c -7 7 c -4 12 c 0 3 c 4 12 c 7 7 c 15 4 c 19 0 c 19 -4 c 12 -7 c 3 -12 c 0 -7 c -3 -11 c -8 -4 c
0 -250 8030 5138 l -8 -4 7998 5259 l -3 -11 c 0 -8 c 3 -11 c 12 -8 c 19 -3 c 18 0 c 16 3 c 7 8 c 4 11 c 0 4 c -4 11 c -7 8 c -12 4 c
-4 0 c -11 -4 c -7 -8 c -4 -11 c 0 -4 c 4 -11 c 7 -8 c 11 -3 c 79 -38 7987 5338 l 0 53 7987 5285 l -3 0 8005 5365 l -8 3 c -4 4 c
-3 8 c 0 15 c 3 7 c 4 4 c 8 4 c 7 0 c 8 -4 c 11 -7 c 38 -38 c 0 53 c 79 -37 7987 5489 l 0 52 7987 5437 l 4 -4 8058 5520 l 4 4 c
-4 3 c -4 -3 c 52 -38 7987 5588 l 0 57 c 79 0 7987 5588 l 0 -38 7987 5671 l 34 -4 c -4 4 c -4 11 c 0 12 c 4 11 c 7 8 c 12 3 c 7 0 c
12 -3 c 7 -8 c 4 -11 c 0 -12 c -4 -11 c -4 -4 c -7 -4 c 3 -11 7987 5720 l 8 -4 c 7 0 c 8 4 c 4 7 c 4 15 c 3 12 c 8 7 c 7 4 c 12 0 c
7 -4 c 4 -4 c 4 -11 c 0 -15 c -4 -11 c -4 -4 c -7 -4 c -12 0 c -7 4 c -8 7 c -3 12 c -4 15 c -4 7 c -8 4 c -7 0 c -8 -4 c -3 -11 c
0 -15 c 0 -250 8526 1365 l -8 -4 8494 1486 l -4 -11 c 0 -8 c 4 -11 c 11 -8 c 19 -3 c 19 0 c 15 3 c 8 8 c 4 11 c 0 4 c -4 11 c -8 8 c
-11 4 c -4 0 c -11 -4 c -8 -8 c -3 -11 c 0 -4 c 3 -11 c 8 -8 c 11 -3 c 80 -38 8482 1565 l 0 53 8482 1512 l 0 42 8482 1595 l 31 -23 c
0 12 c 3 7 c 4 4 c 11 4 c 8 0 c 11 -4 c 8 -8 c 4 -11 c 0 -11 c -4 -12 c -4 -3 c -7 -4 c -4 0 8501 1667 l -7 4 c -4 4 c -4 7 c 0 16 c
4 7 c 4 4 c 7 4 c 8 0 c 8 -4 c 11 -8 c 38 -38 c 0 53 c 4 -4 8554 1747 l 4 4 c -4 3 c -4 -3 c -8 -4 8494 1826 l -4 -11 c 0 -8 c
4 -11 c 11 -8 c 19 -3 c 19 0 c 15 3 c 8 8 c 4 11 c 0 4 c -4 11 c -8 8 c -11 4 c -4 0 c -11 -4 c -8 -8 c -3 -11 c 0 -4 c 3 -11 c
8 -8 c 11 -3 c 53 -38 8482 1890 l 0 57 c 80 0 8482 1890 l 11 -4 8509 1977 l 8 -7 c 3 -11 c 0 -4 c -3 -12 c -8 -7 c -11 -4 c -4 0 c
-11 4 c -8 7 c -4 12 c 0 4 c 4 11 c 8 7 c 15 4 c 19 0 c 19 -4 c 11 -7 c 4 -11 c 0 -8 c -4 -11 c -8 -4 c 0 -250 8631 1505 l
-7 -4 8599 1626 l -4 -12 c 0 -7 c 4 -12 c 11 -7 c 19 -4 c 19 0 c 15 4 c 7 7 c 4 12 c 0 4 c -4 11 c -7 8 c -11 3 c -4 0 c -12 -3 c
-7 -8 c -4 -11 c 0 -4 c 4 -12 c 7 -7 c 12 -4 c 79 -38 8588 1705 l 0 53 8588 1652 l 0 42 8588 1735 l 30 -23 c 0 11 c 4 8 c 4 4 c
11 3 c 8 0 c 11 -3 c 7 -8 c 4 -11 c 0 -12 c -4 -11 c -3 -4 c -8 -3 c 0 41 8588 1811 l 30 -22 c 0 11 c 4 7 c 4 4 c 11 4 c 8 0 c
11 -4 c 7 -7 c 4 -12 c 0 -11 c -4 -11 c -3 -4 c -8 -4 c 3 -3 8660 1886 l 4 3 c -4 4 c -3 -4 c 79 -37 8588 1969 l 0 52 8588 1917 l
53 -38 8588 2030 l 0 57 c 79 0 8588 2030 l 12 -4 8614 2117 l 7 -7 c 4 -12 c 0 -4 c -4 -11 c -7 -8 c -12 -3 c -3 0 c -12 3 c -7 8 c
-4 11 c 0 4 c 4 12 c 7 7 c 15 4 c 19 0 c 19 -4 c 11 -7 c 4 -12 c 0 -7 c -4 -12 c -7 -4 c 0 -249 9058 1530 l -8 -4 9026 1651 l
-3 -11 c 0 -8 c 3 -11 c 12 -8 c 19 -3 c 19 0 c 15 3 c 7 8 c 4 11 c 0 4 c -4 11 c -7 8 c -12 4 c -3 0 c -12 -4 c -7 -8 c -4 -11 c
0 -4 c 4 -11 c 7 -8 c 12 -3 c 79 -37 9015 1730 l 0 53 9015 1677 l 0 41 9015 1761 l 30 -22 c 0 11 c 4 7 c 3 4 c 12 4 c 7 0 c 12 -4 c
7 -7 c 4 -12 c 0 -11 c -4 -11 c -4 -4 c -7 -4 c 3 -12 9015 1848 l 8 -4 c 8 0 c 7 4 c 4 8 c 4 15 c 3 11 c 8 8 c 8 4 c 11 0 c 7 -4 c
4 -4 c 4 -11 c 0 -15 c -4 -12 c -4 -4 c -7 -3 c -11 0 c -8 3 c -8 8 c -3 11 c -4 15 c -4 8 c -7 4 c -8 0 c -8 -4 c -3 -11 c 0 -15 c
4 -4 9086 1912 l 4 4 c -4 4 c -4 -4 c -4 8 9030 1953 l -11 11 c 79 0 c 3 -12 9015 2037 l 8 -4 c 8 0 c 7 4 c 4 8 c 4 15 c 3 11 c
8 8 c 8 4 c 11 0 c 7 -4 c 4 -4 c 4 -11 c 0 -15 c -4 -12 c -4 -4 c -7 -3 c -11 0 c -8 3 c -8 8 c -3 11 c -4 15 c -4 8 c -7 4 c -8 0 c
-8 -4 c -3 -11 c 0 -15 c 3 -11 9015 2116 l 12 -8 c 19 -4 c 11 0 c 19 4 c 11 8 c 4 11 c 0 7 c -4 12 c -11 7 c -19 4 c -11 0 c
-19 -4 c -12 -7 c -3 -12 c 0 -7 c 0 -250 9515 1454 l -8 -3 9483 1574 l -4 -12 c 0 -7 c 4 -12 c 11 -7 c 19 -4 c 19 0 c 15 4 c 8 7 c
4 12 c 0 4 c -4 11 c -8 7 c -11 4 c -4 0 c -11 -4 c -8 -7 c -4 -11 c 0 -4 c 4 -12 c 8 -7 c 11 -4 c 80 -38 9471 1654 l
0 53 9471 1601 l 53 -37 9471 1714 l 0 56 c 80 0 9471 1714 l -4 0 9490 1756 l -7 4 c -4 3 c -4 8 c 0 15 c 4 8 c 4 3 c 7 4 c 8 0 c
7 -4 c 12 -7 c 38 -38 c 0 53 c 4 -4 9543 1835 l 4 4 c -4 4 c -4 -4 c 4 -11 9471 1884 l 8 -4 c 7 0 c 8 4 c 3 8 c 4 15 c 4 11 c 8 8 c
7 3 c 11 0 c 8 -3 c 4 -4 c 4 -11 c 0 -16 c -4 -11 c -4 -4 c -8 -3 c -11 0 c -7 3 c -8 8 c -4 11 c -4 15 c -3 8 c -8 4 c -7 0 c
-8 -4 c -4 -11 c 0 -16 c 4 -11 9471 1960 l 8 -4 c 7 0 c 8 4 c 3 7 c 4 15 c 4 12 c 8 7 c 7 4 c 11 0 c 8 -4 c 4 -4 c 4 -11 c 0 -15 c
-4 -11 c -4 -4 c -8 -4 c -11 0 c -7 4 c -8 7 c -4 12 c -4 15 c -3 7 c -8 4 c -7 0 c -8 -4 c -4 -11 c 0 -15 c 0 -38 9471 2062 l
34 -4 c -4 4 c -3 12 c 0 11 c 3 11 c 8 8 c 11 4 c 8 0 c 11 -4 c 8 -8 c 4 -11 c 0 -11 c -4 -12 c -4 -4 c -8 -3 c
showpage PGPLOT restore
 
%%Trailer
%%DocumentFonts: 
%%Pages: 1
%%EOF
