%!PS-Adobe-3.0 EPSF-3.0
%%For: tab
%%Title: PGPLOT PostScript plot
%%Creator: PGPLOT
%%CreationDate: 20-Apr-1995 16:46
%%BoundingBox: 25 18 587 774
%%DocumentFonts: (atend)
%%LanguageLevel: 1
%%Orientation: Landscape
%%Pages: (atend)
%%EndComments
%%BeginProlog
/l {moveto rlineto currentpoint stroke moveto} bind def
/c {rlineto currentpoint stroke moveto} bind def
/d {moveto 0 0 rlineto currentpoint stroke moveto} bind def
/SLW {5 mul setlinewidth} bind def
/SCF /pop load def
/BP {newpath moveto} bind def
/LP /rlineto load def
/EP {rlineto closepath eofill} bind def
/MB {gsave translate MFAC dup scale 1 setlinewidth 2 setlinecap 0 setlinejoin newpath} bind def
/ME /grestore load def
/C {0 360 arc stroke} bind def
/FC {0 360 arc fill} bind def
%%EndProlog
 
%%Page: 1 1
%%BeginPageSetup
/PGPLOT save def
0.072 0.072 scale
8150 250 translate 90 rotate
1 setlinejoin 1 setlinecap 1 SLW 1 SCF
%%EndPageSetup
0.000 setgray 1 SLW 8939 0 780 780 l 0 6239 c -8939 0 c 0 -6239 c 0 -45 1116 780 l 0 -45 1554 780 l 0 -45 1991 780 l
0 -45 2428 780 l 0 -90 2865 780 l 0 -45 3302 780 l 0 -45 3739 780 l 0 -45 4176 780 l 0 -45 4613 780 l 0 -90 5051 780 l
0 -45 5488 780 l 0 -45 5925 780 l 0 -45 6362 780 l 0 -45 6799 780 l 0 -90 7236 780 l 0 -45 7673 780 l 0 -45 8110 780 l
0 -45 8548 780 l 0 -45 8985 780 l 0 -90 9422 780 l 0 -45 1116 7064 l 0 -45 1554 7064 l 0 -45 1991 7064 l 0 -45 2428 7064 l
0 -90 2865 7109 l 0 -45 3302 7064 l 0 -45 3739 7064 l 0 -45 4176 7064 l 0 -45 4613 7064 l 0 -90 5051 7109 l 0 -45 5488 7064 l
0 -45 5925 7064 l 0 -45 6362 7064 l 0 -45 6799 7064 l 0 -90 7236 7109 l 0 -45 7673 7064 l 0 -45 8110 7064 l 0 -45 8548 7064 l
0 -45 8985 7064 l 0 -90 9422 7109 l -60 0 2775 672 l -6 -54 c 6 6 c 18 6 c 18 0 c 18 -6 c 12 -12 c 6 -18 c 0 -12 c -6 -18 c
-12 -12 c -18 -6 c -18 0 c -18 6 c -6 6 c -6 12 c -18 -6 2859 672 l -12 -18 c -6 -30 c 0 -18 c 6 -30 c 12 -18 c 18 -6 c 12 0 c
18 6 c 12 18 c 6 30 c 0 18 c -6 30 c -12 18 c -18 6 c -12 0 c -18 -6 2979 672 l -12 -18 c -6 -30 c 0 -18 c 6 -30 c 12 -18 c 18 -6 c
12 0 c 18 6 c 12 18 c 6 30 c 0 18 c -6 30 c -12 18 c -18 6 c -12 0 c 12 6 4847 648 l 18 18 c 0 -126 c -18 -6 4985 672 l -12 -18 c
-6 -30 c 0 -18 c 6 -30 c 12 -18 c 18 -6 c 12 0 c 18 6 c 12 18 c 6 30 c 0 18 c -6 30 c -12 18 c -18 6 c -12 0 c -18 -6 5105 672 l
-12 -18 c -6 -30 c 0 -18 c 6 -30 c 12 -18 c 18 -6 c 12 0 c 18 6 c 12 18 c 6 30 c 0 18 c -6 30 c -12 18 c -18 6 c -12 0 c
-18 -6 5225 672 l -12 -18 c -6 -30 c 0 -18 c 6 -30 c 12 -18 c 18 -6 c 12 0 c 18 6 c 12 18 c 6 30 c 0 18 c -6 30 c -12 18 c -18 6 c
-12 0 c 12 6 7032 648 l 18 18 c 0 -126 c -60 0 7206 672 l -6 -54 c 6 6 c 18 6 c 18 0 c 18 -6 c 12 -12 c 6 -18 c 0 -12 c -6 -18 c
-12 -12 c -18 -6 c -18 0 c -18 6 c -6 6 c -6 12 c -18 -6 7290 672 l -12 -18 c -6 -30 c 0 -18 c 6 -30 c 12 -18 c 18 -6 c 12 0 c
18 6 c 12 18 c 6 30 c 0 18 c -6 30 c -12 18 c -18 6 c -12 0 c -18 -6 7410 672 l -12 -18 c -6 -30 c 0 -18 c 6 -30 c 12 -18 c 18 -6 c
12 0 c 18 6 c 12 18 c 6 30 c 0 18 c -6 30 c -12 18 c -18 6 c -12 0 c 0 6 9206 642 l 6 12 c 6 6 c 12 6 c 24 0 c 12 -6 c 6 -6 c
6 -12 c 0 -12 c -6 -12 c -12 -18 c -60 -60 c 84 0 c -18 -6 9356 672 l -12 -18 c -6 -30 c 0 -18 c 6 -30 c 12 -18 c 18 -6 c 12 0 c
18 6 c 12 18 c 6 30 c 0 18 c -6 30 c -12 18 c -18 6 c -12 0 c -18 -6 9476 672 l -12 -18 c -6 -30 c 0 -18 c 6 -30 c 12 -18 c 18 -6 c
12 0 c 18 6 c 12 18 c 6 30 c 0 18 c -6 30 c -12 18 c -18 6 c -12 0 c -18 -6 9596 672 l -12 -18 c -6 -30 c 0 -18 c 6 -30 c 12 -18 c
18 -6 c 12 0 c 18 6 c 12 18 c 6 30 c 0 18 c -6 30 c -12 18 c -18 6 c -12 0 c -90 0 780 804 l -45 0 780 1221 l -45 0 780 1639 l
-45 0 780 2056 l -45 0 780 2474 l -90 0 780 2891 l -45 0 780 3308 l -45 0 780 3726 l -45 0 780 4143 l -45 0 780 4560 l
-90 0 780 4978 l -45 0 780 5395 l -45 0 780 5813 l -45 0 780 6230 l -45 0 780 6647 l -90 0 9809 804 l -45 0 9764 1221 l
-45 0 9764 1639 l -45 0 9764 2056 l -45 0 9764 2474 l -90 0 9809 2891 l -45 0 9764 3308 l -45 0 9764 3726 l -45 0 9764 4143 l
-45 0 9764 4560 l -90 0 9809 4978 l -45 0 9764 5395 l -45 0 9764 5813 l -45 0 9764 6230 l -45 0 9764 6647 l 6 -18 517 798 l 18 -12 c
30 -6 c 18 0 c 30 6 c 18 12 c 6 18 c 0 12 c -6 18 c -18 12 c -30 6 c -18 0 c -30 -6 c -18 -12 c -6 -18 c 0 -12 c -6 12 541 2771 l
-18 18 c 126 0 c 6 -18 517 2909 l 18 -12 c 30 -6 c 18 0 c 30 6 c 18 12 c 6 18 c 0 12 c -6 18 c -18 12 c -30 6 c -18 0 c -30 -6 c
-18 -12 c -6 -18 c 0 -12 c 63 -45 453 3033 l 0 68 c 94 0 453 3033 l -6 0 547 4720 l -12 6 c -6 6 c -6 12 c 0 24 c 6 12 c 6 6 c
12 6 c 12 0 c 12 -6 c 18 -12 c 60 -60 c 0 84 c 84 84 547 4840 l 84 -84 547 4924 l -6 12 541 4984 l -18 18 c 126 0 c 6 -18 517 5122 l
18 -12 c 30 -6 c 18 0 c 30 6 c 18 12 c 6 18 c 0 12 c -6 18 c -18 12 c -30 6 c -18 0 c -30 -6 c -18 -12 c -6 -18 c 0 -12 c
63 -45 453 5246 l 0 68 c 94 0 453 5246 l
4 -5 780 860 l 5 0 c 4 0 c 4 -1 c 5 7 c 4 4 c 4 0 c 5 -2 c 4 -3 c 5 4 c 4 5 c 4 0 c 5 -13 c 4 -9 c 4 -5 c 5 1 c 4 0 c 5 0 c 4 -1 c
4 -2 c 5 0 c 4 0 c 4 -3 c 5 2 c 4 -1 c 5 0 c 4 -1 c 4 2 c 5 0 c 4 1 c 4 1 c 5 0 c 4 -2 c 5 -1 c 4 2 c 4 -1 c 5 -2 c 4 -4 c 4 1 c
5 -2 c 4 2 c 4 6 c 5 8 c 4 2 c 5 -7 c 4 -9 c 4 -1 c 5 -1 c 4 0 c 4 -1 c 5 0 c 4 0 c 5 -1 c 4 1 c 4 0 c 5 1 c 4 -1 c 4 0 c 5 1 c
4 -2 c 5 0 c 4 -1 c 4 1 c 5 0 c 4 0 c 4 1 c 5 0 c 4 0 c 5 2 c 4 0 c 4 1 c 5 2 c 4 -1 c 4 -1 c 5 -2 c 4 -1 c 4 2 c 5 6 c 4 19 c
5 12 c 4 -12 c 4 -19 c 5 -6 c 4 -29 c 4 0 c 5 44 c 4 -4 c 5 -8 c 4 -4 c 4 0 c 5 0 c 4 -1 c 4 -1 c 5 -1 c 4 0 c 5 0 c 4 -1 c 4 1 c
5 0 c 4 0 c 4 0 c 5 0 c 4 -1 c 5 0 c 4 0 c 4 1 c 5 1 c 4 -1 c 4 -1 c 5 1 c 4 -1 c 4 0 c 5 1 c 4 1 c 5 -1 c 4 0 c 4 -1 c 5 -1 c 4 1 c
4 0 c 5 1 c 4 -1 c 5 0 c 4 0 c 4 0 c 5 -1 c 4 2 c 4 1 c 5 1 c 4 -2 c 5 -1 c 4 0 c 4 2 c 5 1 c 4 -1 c 4 -2 c 5 0 c 4 0 c 5 0 c 4 0 c
4 0 c 5 0 c 4 0 c 4 -1 c 5 2 c 4 0 c 4 3 c 5 8 c 4 19 c 5 4 c 4 -15 c 4 -17 c 5 -3 c 4 0 c 4 -1 c 5 1 c 4 0 c 5 0 c 4 0 c 4 0 c
5 -1 c 4 1 c 4 0 c 5 0 c 4 1 c 5 1 c 4 0 c 4 -1 c 5 -1 c 4 0 c 4 1 c 5 1 c 4 -1 c 4 0 c 5 0 c 4 -1 c 5 0 c 4 1 c 4 -1 c 5 0 c 4 0 c
4 0 c 5 0 c 4 1 c 5 -1 c 4 1 c 4 2 c 5 2 c 4 1 c 4 -3 c 5 -1 c 4 -1 c 5 -1 c 4 1 c 4 1 c 5 -1 c 4 1 c 4 3 c 5 0 c 4 -3 c 5 -1 c
4 1 c 4 2 c 5 -1 c 4 -1 c 4 -1 c 5 -1 c 4 0 c 4 1 c 5 0 c 4 4 c 5 23 c 4 29 c 4 -3 c 5 -31 c 4 -21 c 4 -1 c 5 0 c 4 0 c 5 -1 c 4 1 c
4 1 c 5 6 c 4 38 c 4 101 c 5 27 c 4 -53 c 5 -79 c 4 -21 c 4 -13 c 5 -5 c 4 -1 c 4 0 c 5 0 c 4 0 c 5 -2 c 4 0 c 4 1 c 5 -1 c 4 1 c
4 0 c 5 0 c 4 0 c 4 0 c 5 2 c 4 2 c 5 0 c 4 0 c 4 -1 c 5 -2 c 4 0 c 4 -1 c 5 1 c 4 0 c 5 0 c 4 1 c 4 0 c 5 -1 c 4 0 c 4 0 c 5 0 c
4 1 c 5 0 c 4 0 c 4 0 c 5 -1 c 4 0 c 4 0 c 5 -1 c 4 2 c 5 0 c 4 0 c 4 -1 c 5 0 c 4 0 c 4 0 c 5 1 c 4 1 c 4 0 c 5 -1 c 4 -1 c 5 1 c
4 -1 c 4 0 c 5 0 c 4 1 c 4 0 c 5 0 c 4 2 c 5 3 c 4 0 c 4 -1 c 5 -2 c 4 0 c 4 1 c 5 -1 c 4 -1 c 5 -1 c 4 3 c 4 2 c 5 -1 c 4 -3 c
4 -1 c 5 1 c 4 0 c 5 1 c 4 19 c 4 39 c 5 11 c 4 -24 c 4 -31 c 5 -5 c 4 -2 c 4 -7 c 5 -1 c 4 0 c 5 -2 c 4 1 c 4 1 c 5 1 c 4 1 c 4 5 c
5 0 c 4 -3 c 5 -3 c 4 0 c 4 0 c 5 -1 c 4 1 c 4 1 c 5 0 c 4 0 c 5 3 c 4 20 c 4 89 c 5 90 c 4 -9 c 4 -116 c 5 -63 c 4 -7 c 4 3 c
5 -1 c 4 -2 c 5 5 c 4 34 c 4 12 c 5 -17 c 4 -35 c 4 -6 c 5 0 c 4 -1 c 5 1 c 4 0 c 4 1 c 5 -1 c 4 1 c 4 -2 c 5 0 c 4 0 c 5 0 c 4 -1 c
4 1 c 5 0 c 4 0 c 4 1 c 5 0 c 4 4 c 5 27 c 4 97 c 4 31 c 5 -48 c 4 -89 c 4 -16 c 5 0 c 4 2 c 4 0 c 5 -1 c 4 -2 c 5 8 c 4 86 c
4 301 c 5 123 c 4 -130 c 4 -295 c 5 -78 c 4 -9 c 5 -5 c 4 19 c 4 116 c 5 101 c 4 -24 c 4 -150 c 5 -62 c 4 -2 c 5 1 c 4 0 c 4 0 c
5 -3 c 4 -2 c 4 -1 c 5 0 c 4 1 c 5 0 c 4 4 c 4 30 c 5 86 c 4 17 c 4 -55 c 5 -71 c 4 -10 c 4 -1 c 5 3 c 4 35 c 5 48 c 4 1 c 4 -51 c
5 -34 c 4 -3 c 4 -1 c 5 1 c 4 2 c 5 2 c 4 -1 c 4 -2 c 5 -3 c 4 0 c 4 -1 c 5 1 c 4 0 c 5 -1 c 4 0 c 4 0 c 5 0 c 4 1 c 4 1 c 5 0 c
4 -1 c 5 0 c 4 0 c 4 1 c 5 1 c 4 0 c 4 -3 c 5 1 c 4 0 c 4 -2 c 5 2 c 4 0 c 5 1 c 4 -1 c 4 1 c 5 -1 c 4 -1 c 4 0 c 5 0 c 4 2 c 5 0 c
4 -1 c 4 -1 c 5 1 c 4 0 c 4 0 c 5 -1 c 4 0 c 5 0 c 4 1 c 4 0 c 5 -1 c 4 1 c 4 1 c 5 2 c 4 0 c 5 -2 c 4 -1 c 4 0 c 5 0 c 4 0 c 4 -1 c
5 0 c 4 1 c 4 2 c 5 0 c 4 -1 c 5 0 c 4 0 c 4 3 c 5 0 c 4 -2 c 4 0 c 5 -1 c 4 0 c 5 0 c 4 1 c 4 0 c 5 -1 c 4 0 c 4 0 c 5 1 c 4 0 c
5 0 c 4 -1 c 4 0 c 5 0 c 4 1 c 4 0 c 5 0 c 4 0 c 4 0 c 5 2 c 4 1 c 5 1 c 4 1 c 4 -2 c 5 0 c 4 0 c 4 0 c 5 0 c 4 0 c 5 0 c 4 1 c
4 1 c 5 2 c 4 3 c 4 3 c 5 6 c 4 13 c 5 49 c 4 406 c 4 1244 c 5 611 c 4 -559 c 4 -1352 c 5 -334 c 4 -52 c 5 -17 c 4 -9 c 4 -5 c
5 -4 c 4 -3 c 4 -2 c 5 0 c 4 -2 c 4 1 c 5 -1 c 4 0 c 5 0 c 4 1 c 4 0 c 5 -1 c 4 -1 c 4 0 c 5 -1 c 4 -1 c 5 1 c 4 0 c 4 1 c 5 0 c
4 -1 c 4 1 c 5 1 c 4 3 c 5 18 c 4 11 c 4 -6 c 5 -20 c 4 -6 c 4 1 c 5 0 c 4 1 c 5 0 c 4 2 c 4 1 c 5 3 c 4 7 c 4 72 c 5 271 c 4 163 c
4 -84 c 5 -298 c 4 -118 c 5 -12 c 4 -4 c 4 0 c 5 0 c 4 -3 c 4 -2 c 5 -2 c 4 1 c 5 -1 c 4 0 c 4 2 c 5 0 c 4 0 c 4 -2 c 5 -1 c 4 1 c
5 -1 c 4 0 c 4 0 c 5 0 c 4 0 c 4 1 c 5 -1 c 4 0 c 5 0 c 4 1 c 4 -1 c 5 1 c 4 -1 c 4 0 c 5 1 c 4 -1 c 4 0 c 5 2 c 4 1 c 5 -1 c 4 -1 c
4 0 c 5 0 c 4 0 c 4 1 c 5 0 c 4 0 c 5 0 c 4 0 c 4 0 c 5 1 c 4 1 c 4 5 c 5 45 c 4 127 c 5 27 c 4 -70 c 4 -43 c 5 376 c 4 250 c
4 -110 c 5 -440 c 4 -157 c 4 -5 c 5 2 c 4 29 c 5 288 c 4 357 c 4 12 c 5 -385 c 4 -287 c 4 -18 c 5 -3 c 4 0 c 5 1 c 4 0 c 4 -2 c
5 1 c 4 -2 c 4 1 c 5 0 c 4 -1 c 5 1 c 4 0 c 4 -1 c 5 0 c 4 1 c 4 1 c 5 2 c 4 -1 c 5 -2 c 4 0 c 4 0 c 5 2 c 4 4 c 4 -1 c 5 -2 c
4 -1 c 4 1 c 5 1 c 4 10 c 5 127 c 4 325 c 4 85 c 5 -182 c 4 -281 c 4 19 c 5 20 c 4 -44 c 5 -70 c 4 -10 c 4 0 c 5 -2 c 4 1 c 4 0 c
5 0 c 4 0 c 5 2 c 4 5 c 4 7 c 5 2 c 4 -5 c 4 -8 c 5 -1 c 4 0 c 5 0 c 4 1 c 4 0 c 5 1 c 4 2 c 4 0 c 5 21 c 4 81 c 4 35 c 5 -28 c
4 -86 c 5 -15 c 4 24 c 4 48 c 5 -1 c 4 -31 c 4 -33 c 5 -6 c 4 0 c 5 2 c 4 1 c 4 1 c 5 3 c 4 8 c 4 47 c 5 70 c 4 8 c 5 -51 c 4 -46 c
4 12 c 5 53 c 4 39 c 4 19 c 5 11 c 4 168 c 5 1363 c 1 4458 c 1 -4411 4022 7019 l 5 -1474 c 4 -141 c 4 -42 c 5 -27 c 4 -17 c 5 -11 c
4 -8 c 4 -5 c 5 -4 c 4 -4 c 4 -2 c 5 -3 c 4 -6 c 5 -3 c 4 0 c 4 1 c 5 2 c 4 -2 c 4 -5 c 5 -4 c 4 -2 c 5 0 c 4 0 c 4 -1 c 5 -2 c
4 -1 c 4 0 c 5 -1 c 4 0 c 5 0 c 4 2 c 4 4 c 5 56 c 4 127 c 4 17 c 5 -78 c 4 -118 c 4 -13 c 5 -1 c 4 0 c 5 0 c 4 -2 c 4 0 c 5 0 c
4 -1 c 4 0 c 5 0 c 4 0 c 5 0 c 4 1 c 4 0 c 5 -1 c 4 -1 c 4 2 c 5 14 c 4 23 c 5 5 c 4 -10 c 4 -15 c 5 -6 c 4 -10 c 4 -1 c 5 1 c 4 0 c
4 2 c 5 6 c 4 9 c 5 95 c 4 951 c 4 1423 c 5 98 c 4 -1362 c 4 -1085 c 5 -109 c 4 5 c 5 -3 c 4 -21 c 4 -10 c 5 -2 c 4 1 c 4 -2 c 5 1 c
4 0 c 5 0 c 4 1 c 4 0 c 5 4 c 4 3 c 4 -3 c 5 -5 c 4 -2 c 5 -1 c 4 1 c 4 -1 c 5 0 c 4 0 c 4 -1 c 5 0 c 4 0 c 4 0 c 5 1 c 4 3 c 5 2 c
4 0 c 4 -5 c 5 -1 c 4 -1 c 4 0 c 5 -1 c 4 1 c 5 1 c 4 0 c 4 0 c 5 0 c 4 0 c 4 2 c 5 0 c 4 0 c 5 2 c 4 3 c 4 0 c 5 -3 c 4 -2 c 4 -1 c
5 0 c 4 -1 c 5 0 c 4 0 c 4 0 c 5 -1 c 4 1 c 4 0 c 5 1 c 4 1 c 4 6 c 5 14 c 4 3 c 5 -9 c 4 -3 c 4 6 c 5 -1 c 4 -10 c 4 -6 c 5 -1 c
4 0 c 5 1 c 4 0 c 4 1 c 5 -1 c 4 -2 c 4 -2 c 5 2 c 4 0 c 5 -1 c 4 1 c 4 1 c 5 -1 c 4 1 c 4 0 c 5 1 c 4 0 c 5 0 c 4 -2 c 4 1 c 5 -1 c
4 0 c 4 0 c 5 3 c 4 5 c 4 15 c 5 169 c 4 536 c 5 356 c 4 -168 c 4 -614 c 5 -268 c 4 -23 c 4 -4 c 5 -2 c 4 0 c 5 0 c 4 -1 c 4 0 c
5 -2 c 4 1 c 4 -1 c 5 0 c 4 1 c 5 -1 c 4 1 c 4 -1 c 5 9 c 4 37 c 4 19 c 5 -13 c 4 -37 c 5 -1 c 4 11 c 4 -1 c 5 -12 c 4 -11 c 4 -1 c
5 2 c 4 0 c 4 0 c 5 -3 c 4 -2 c 5 0 c 4 -1 c 4 -2 c 5 0 c 4 -1 c 4 -1 c 5 -1 c 4 0 c 5 1 c 4 1 c 4 0 c 5 0 c 4 0 c 4 -1 c 5 1 c
4 3 c 5 9 c 4 3 c 4 -3 c 5 -10 c 4 -4 c 4 1 c 5 -1 c 4 1 c 4 1 c 5 -1 c 4 0 c 5 1 c 4 0 c 4 1 c 5 1 c 4 1 c 4 16 c 5 105 c 4 75 c
5 -21 c 4 -113 c 4 -60 c 5 -4 c 4 2 c 4 13 c 5 13 c 4 -2 c 5 -3 c 4 43 c 4 27 c 5 -23 c 4 -53 c 4 -17 c 5 -1 c 4 0 c 5 -1 c 4 1 c
4 -1 c 5 2 c 4 4 c 4 3 c 5 0 c 4 -6 c 4 -3 c 5 1 c 4 -1 c 5 1 c 4 0 c 4 0 c 5 -1 c 4 0 c 4 1 c 5 -1 c 4 1 c 5 0 c 4 0 c 4 0 c 5 0 c
4 0 c 4 -1 c 5 0 c 4 1 c 5 -1 c 4 0 c 4 0 c 5 0 c 4 2 c 4 1 c 5 -2 c 4 0 c 5 0 c 4 2 c 4 -1 c 5 -1 c 4 0 c 4 -1 c 5 2 c 4 -1 c 4 0 c
5 1 c 4 0 c 5 0 c 4 1 c 4 0 c 5 0 c 4 0 c 4 2 c 5 0 c 4 0 c 5 0 c 4 1 c 4 2 c 5 6 c 4 46 c 4 372 c 5 444 c 4 19 c 5 -432 c 4 -311 c
4 90 c 5 53 c 4 -96 c 4 -139 c 5 -34 c 4 -5 c 5 0 c 4 2 c 4 19 c 5 185 c 4 428 c 4 219 c 5 -194 c 4 -477 c 4 -171 c 5 -13 c 4 -3 c
5 0 c 4 -2 c 4 -1 c 5 -1 c 4 0 c 4 1 c 5 0 c 4 0 c 5 2 c 4 0 c 4 -1 c 5 2 c 4 4 c 4 4 c 5 17 c 4 161 c 5 771 c 4 707 c 4 -22 c
5 -888 c 4 -628 c 4 -111 c 5 -6 c 4 -1 c 4 -3 c 5 -3 c 4 -3 c 5 0 c 4 4 c 4 5 c 5 19 c 4 27 c 4 3 c 5 -23 c 4 -27 c 5 0 c 4 4 c
4 6 c 5 8 c 4 82 c 4 823 c 5 1845 c 4 442 c 5 -1043 c 4 -2214 c 4 83 c 5 -33 c 4 -7 c 4 -2 c 5 -3 c 4 -1 c 5 -2 c 4 0 c 4 0 c 5 -1 c
4 -1 c 4 1 c 5 1 c 4 -2 c 4 0 c 5 -2 c 4 1 c 5 1 c 4 -2 c 4 0 c 5 0 c 4 0 c 4 0 c 5 -2 c 4 1 c 5 1 c 4 -1 c 4 0 c 5 0 c 4 -1 c 4 1 c
5 -1 c 4 1 c 5 1 c 4 0 c 4 2 c 5 -1 c 4 -1 c 4 -1 c 5 1 c 4 1 c 5 0 c 4 -2 c 4 1 c 5 -1 c 4 1 c 4 0 c 5 0 c 4 0 c 4 0 c 5 0 c 4 0 c
5 0 c 4 0 c 4 1 c 5 0 c 4 -1 c 4 1 c 5 3 c 4 30 c 5 44 c 4 5 c 4 -37 c 5 -37 c 4 -8 c 4 0 c 5 0 c 4 1 c 5 3 c 4 1 c 4 -1 c 5 -4 c
4 -1 c 4 -1 c 5 1 c 4 0 c 5 0 c 4 2 c 4 0 c 5 -1 c 4 -1 c 4 0 c 5 1 c 4 3 c 4 0 c 5 1 c 4 -3 c 5 -2 c 4 0 c 4 3 c 5 1 c 4 -1 c
4 -3 c 5 -1 c 4 0 c 5 0 c 4 1 c 4 -1 c 5 1 c 4 1 c 4 1 c 5 1 c 4 16 c 5 32 c 4 6 c 4 -17 c 5 -29 c 4 8 c 4 17 c 5 8 c 4 -6 c 5 -8 c
4 -6 c 4 -3 c 5 -2 c 4 -1 c 4 -2 c 5 -2 c 4 1 c 4 -1 c 5 0 c 4 -1 c 5 1 c 4 0 c 4 0 c 5 0 c 4 -2 c 4 -1 c 5 -3 c 4 0 c 5 1 c 4 0 c
4 0 c 5 -1 c 4 -1 c 4 2 c 5 1 c 4 -1 c 5 -1 c 4 -1 c 4 -1 c 5 0 c 4 4 c 4 0 c 5 -4 c 4 -2 c 4 2 c 5 0 c 4 -3 c 5 -2 c 4 2 c 4 2 c
5 -2 c 4 -1 c 4 1 c 5 1 c 4 0 c 5 -3 c 4 -1 c 4 1 c 5 1 c 4 0 c 4 -1 c 5 10 c 4 3 c 5 -3 c 4 -10 c 4 -3 c 5 1 c 4 5 c 4 4 c 5 -1 c
4 -7 c 5 -1 c 4 2 c 4 2 c 5 -3 c 4 -2 c 4 -2 c 5 2 c 4 1 c 4 0 c 5 -1 c 4 -2 c 5 0 c 4 2 c 4 4 c 5 5 c 4 8 c 4 -1 c 5 -6 c 4 -7 c
5 -1 c 4 1 c 4 0 c 5 -3 c 4 -1 c 4 -1 c 5 2 c 4 -1 c 5 -1 c 4 0 c 4 -1 c 5 0 c 4 0 c 4 -26 c 5 26 c 4 1 c 5 0 c 4 1 c 4 -1 c 5 0 c
4 1 c 4 0 c 5 -1 c 4 1 c 4 1 c 5 3 c 4 3 c 5 2 c 4 0 c 4 -2 c 5 0 c 4 0 c 4 0 c 5 1 c 4 1 c 5 0 c 4 0 c 4 2 c 5 6 c 4 4 c 4 -2 c
5 -6 c 4 -2 c 5 0 c 4 -1 c 4 1 c 5 0 c 4 0 c 4 2 c 5 0 c 4 -3 c 5 -3 c 4 3 c 4 12 c 5 26 c 4 13 c 4 8 c 5 -4 c 4 -5 c 4 -15 c
5 -18 c 2 6160 c 1 -3668 6833 7019 l 4 -2470 c 5 -19 c 4 -1 c 5 -4 c 4 -7 c 4 2 c 5 4 c 4 0 c 4 -5 c 5 -5 c 4 4 c 5 4 c 4 -1 c
4 -5 c 5 -3 c 4 4 c 4 4 c 5 1 c 4 12 c 5 32 c 4 11 c 4 -16 c 5 -33 c 4 -8 c 4 -4 c 5 -1 c 4 2 c 4 3 c 5 4 c 4 3 c 5 -4 c 4 -6 c
4 0 c 5 3 c 4 3 c 4 0 c 5 -2 c 4 -2 c 5 8 c 4 3 c 4 -3 c 5 -13 c 4 -5 c 4 2 c 5 3 c 4 5 c 5 0 c 4 -5 c 4 -6 c 5 -1 c 4 1 c 4 5 c
5 1 c 4 0 c 4 -5 c 5 -1 c 4 1 c 5 3 c 4 4 c 4 0 c 5 -3 c 4 -5 c 4 -1 c 5 0 c 4 4 c 5 7 c 4 4 c 4 -2 c 5 0 c 4 8 c 4 4 c 5 0 c 4 -5 c
5 -3 c 4 -9 c 4 -7 c 5 -3 c 4 -1 c 4 -2 c 5 3 c 4 6 c 5 1 c 4 -4 c 4 -2 c 5 2 c 4 2 c 4 0 c 5 1 c 4 3 c 4 0 c 5 -4 c 4 -4 c 5 1 c
4 0 c 4 6 c 5 4 c 4 3 c 4 -4 c 5 -8 c 4 4 c 5 8 c 4 1 c 4 -6 c 5 -3 c 4 1 c 4 2 c 5 -3 c 4 -3 c 5 -2 c 4 -2 c 4 0 c 5 3 c 4 5 c
4 2 c 5 -3 c 4 -5 c 5 1 c 4 1 c 4 0 c 5 1 c 4 3 c 4 0 c 5 1 c 4 -3 c 4 -4 c 5 -3 c 4 2 c 5 2 c 4 2 c 4 1 c 5 3 c 4 -2 c 4 -3 c 5 2 c
4 4 c 5 2 c 4 -7 c 4 -4 c 5 4 c 4 4 c 4 1 c 5 -4 c 4 -4 c 5 -2 c 4 0 c 4 0 c 5 0 c 4 2 c 4 3 c 5 4 c 4 1 c 5 -4 c 4 -3 c 4 -1 c
5 0 c 4 0 c 4 0 c 5 3 c 4 2 c 4 1 c 5 -3 c 4 0 c 5 2 c 4 -1 c 4 -3 c 5 -1 c 4 -1 c 4 4 c 5 8 c 4 32 c 5 30 c 4 -3 c 4 -38 c 5 -22 c
4 5 c 4 10 c 5 1 c 4 -8 c 5 -6 c 4 -1 c 4 -3 c 5 -4 c 4 -1 c 4 1 c 5 3 c 4 3 c 5 3 c 4 19 c 4 245 c 5 391 c 4 77 c 4 -241 c 5 -407 c
4 -83 c 4 -4 c 5 -1 c 4 0 c 5 2 c 4 4 c 4 3 c 5 0 c 4 -2 c 4 -4 c 5 0 c 4 1 c 5 3 c 4 5 c 4 4 c 5 1 c 4 1 c 4 6 c 5 5 c 4 2 c 5 2 c
4 8 c 4 19 c 5 35 c 4 87 c 4 858 c 3 5131 c 2 -4567 7811 7019 l 5 -1414 c 4 -121 c 4 -21 c 5 -7 c 4 -7 c 4 -5 c 5 -5 c 4 -5 c 5 2 c
4 1 c 4 -1 c 5 -3 c 4 -2 c 4 -4 c 5 -6 c 4 -3 c 5 0 c 4 0 c 4 -1 c 5 0 c 4 1 c 4 0 c 5 -2 c 4 -3 c 5 0 c 4 2 c 4 -1 c 5 -1 c 4 -1 c
4 -1 c 5 0 c 4 0 c 4 3 c 5 3 c 4 5 c 5 2 c 4 -2 c 4 -8 c 5 -2 c 4 0 c 4 -1 c 5 -4 c 4 -1 c 5 2 c 4 1 c 4 -1 c 5 -2 c 4 -2 c 4 0 c
5 0 c 4 0 c 5 0 c 4 2 c 4 0 c 5 0 c 4 -2 c 4 2 c 5 1 c 4 -1 c 5 -3 c 4 0 c 4 0 c 5 -1 c 4 0 c 4 0 c 5 1 c 4 4 c 4 1 c 5 0 c 4 1 c
5 -1 c 4 -1 c 4 -2 c 5 12 c 4 42 c 4 17 c 5 -15 c 4 -45 c 5 -13 c 4 1 c 4 23 c 5 40 c 4 6 c 4 -30 c 5 -36 c 4 -4 c 5 -1 c 4 0 c
4 0 c 5 1 c 4 -1 c 4 0 c 5 -1 c 4 1 c 5 2 c 4 5 c 4 0 c 5 -2 c 4 -4 c 4 -1 c 5 2 c 4 1 c 4 3 c 5 8 c 4 6 c 5 89 c 4 288 c 4 98 c
5 -81 c 4 -292 c 4 -106 c 5 -8 c 4 -4 c 5 -2 c 4 0 c 4 0 c 5 0 c 4 0 c 4 -1 c 5 0 c 4 0 c 5 1 c 4 3 c 4 2 c 5 1 c 4 0 c 4 -2 c
5 -1 c 4 -3 c 4 -1 c 5 -1 c 4 -1 c 5 1 c 4 1 c 4 0 c 5 1 c 4 2 c 4 1 c 5 -2 c 4 -1 c 5 1 c 4 -1 c 4 -1 c 5 -1 c 4 0 c 4 -1 c 5 1 c
4 1 c 5 -1 c 4 0 c 4 1 c 5 0 c 4 0 c 4 -3 c 5 2 c 4 0 c 5 2 c 4 -1 c 4 -2 c 5 0 c 4 1 c 4 0 c 5 0 c 4 2 c 4 0 c 5 2 c 4 -1 c 5 -2 c
4 0 c 4 -1 c 5 1 c 4 1 c 4 0 c 5 -2 c 4 1 c 5 -1 c 4 0 c 4 4 c 5 0 c 4 -1 c 4 0 c 5 0 c 4 -4 c 5 0 c 4 0 c 4 0 c 5 2 c 4 1 c 4 1 c
5 -3 c 4 -1 c 5 0 c 4 1 c 4 2 c 5 9 c 4 18 c 4 4 c 5 -8 c 4 -21 c 4 -5 c 5 1 c 4 -1 c 5 2 c 4 2 c 4 0 c 5 -2 c 4 -2 c 4 0 c 5 1 c
4 1 c 5 1 c 4 -1 c 4 -2 c 5 0 c 4 -1 c 4 0 c 5 1 c 4 -1 c 5 2 c 4 1 c 4 0 c 5 0 c 4 -2 c 4 -2 c 5 1 c 4 1 c 5 3 c 4 7 c 4 0 c 5 -2 c
4 -7 c 4 -1 c 5 -1 c 4 -1 c 4 1 c 5 0 c 4 2 c 5 0 c 4 -1 c 4 -1 c 5 1 c 4 1 c 4 0 c 5 -1 c 4 -2 c 5 0 c 4 -1 c 4 0 c 5 0 c 4 1 c
4 0 c 5 -1 c 4 2 c 5 1 c 4 0 c 4 -1 c 5 -1 c 4 1 c 4 0 c 5 -1 c 4 0 c 5 -1 c 4 0 c 4 0 c 5 0 c 4 1 c 4 0 c 5 0 c 4 -1 c 4 2 c 5 2 c
4 2 c 5 4 c 4 5 c 4 1 c 5 -1 c 4 -4 c 4 -3 c 5 0 c 4 0 c 5 0 c 4 0 c 4 -2 c 5 1 c 4 0 c 4 1 c 5 4 c 4 2 c 5 -4 c 4 -2 c 4 0 c 5 -2 c
4 -1 c 4 0 c 5 -1 c 4 0 c 4 1 c 5 -2 c 4 1 c 5 0 c 4 5 c 4 8 c 5 1 c 4 -4 c 4 -8 c 5 0 c 4 2 c 5 8 c 4 46 c 4 79 c 5 21 c 4 -48 c
4 -86 c 5 -22 c 4 -1 c 5 -1 c 4 -1 c 4 0 c 5 0 c 4 1 c 4 2 c 5 2 c 4 4 c 5 0 c 4 -3 c 4 -4 c 5 -3 c 4 0 c 4 0 c 5 0 c 4 0 c 4 1 c
5 -1 c 4 0 c 5 2 c 4 -1 c 4 -2 c 5 2 c 4 -1 c 4 0 c 5 0 c 4 1 c 5 1 c 4 -2 c 4 0 c 5 0 c 4 1 c 4 0 c 5 1 c 4 -1 c 5 -1 c 4 -1 c
4 1 c 5 -1 c 4 0 c 4 1 c 5 -1 c 4 1 c 5 0 c 4 2 c 4 0 c 5 -1 c 4 -2 c 4 -1 c 5 0 c 4 1 c 4 0 c 5 0 c 4 0 c 5 -1 c 4 0 c 4 0 c 5 -1 c
4 0 c 4 1 c 5 -1 c 4 1 c 5 1 c 4 2 c 4 -1 c 5 -1 c 4 -1 c 4 0 c 5 -1 c 4 1 c 5 -1 c 4 -1 c 4 1 c 5 0 c 4 2 c 4 -1 c
5 0 c 4 1 c 5 -1 c 4 1 c 4 -28 c 5 0 c 4 31 c 4 0 c 5 -2 c 4 -1 c 4 -1 c 5 0 c 4 -1 c 5 0 c 4 1 c 4 0 c 5 0 c 4 -1 c 4 1 c 5 0 c
4 0 c 5 1 c 4 1 c 4 2 c 5 -1 c 4 0 c 4 1 c 5 -3 c 4 0 c 5 -1 c 4 1 c 4 0 c 5 0 c 4 -1 c 4 0 c 5 1 c 4 1 c 5 -3 c 4 1 c 4 1 c 5 1 c
4 -1 c 4 -1 c 5 2 c 4 -1 c
0 -126 3303 418 l 54 0 3303 418 l 18 -6 c 6 -6 c 6 -12 c 0 -12 c -6 -12 c -6 -6 c -18 -6 c -54 0 c 42 -66 3345 358 l
-12 -6 3453 376 l -12 -12 c -6 -18 c 0 -12 c 6 -18 c 12 -12 c 12 -6 c 18 0 c 12 6 c 12 12 c 6 18 c 0 12 c -6 18 c -12 12 c -12 6 c
-18 0 c 24 -84 3537 376 l -24 -84 3585 376 l 24 -84 3585 376 l -24 -84 3633 376 l 108 0 3675 364 l 108 0 3675 328 l 12 6 3939 394 l
18 18 c 0 -126 c 66 0 4053 418 l -36 -48 c 18 0 c 12 -6 c 6 -6 c 6 -18 c 0 -12 c -6 -18 c -12 -12 c -18 -6 c -18 0 c -18 6 c -6 6 c
-6 12 c -12 -6 4287 376 l -12 -12 c -6 -18 c 0 -12 c 6 -18 c 12 -12 c 12 -6 c 18 0 c 12 6 c 12 12 c 6 18 c 0 12 c -6 18 c -12 12 c
-12 6 c -18 0 c -12 0 4413 418 l -12 -6 c -6 -18 c 0 -102 c 42 0 4365 376 l 0 6 4545 388 l 6 12 c 6 6 c 12 6 c 24 0 c 12 -6 c 6 -6 c
6 -12 c 0 -12 c -6 -12 c -12 -18 c -60 -60 c 84 0 c -18 -6 4695 418 l -12 -18 c -6 -30 c 0 -18 c 6 -30 c 12 -18 c 18 -6 c 12 0 c
18 6 c 12 18 c 6 30 c 0 18 c -6 30 c -12 18 c -18 6 c -12 0 c 12 6 5181 394 l 18 18 c 0 -126 c -6 -6 5294 376 l 6 -6 c 6 6 c -6 6 c
-6 -6 5294 304 l 6 -6 c 6 6 c -6 6 c -48 -126 5474 418 l 48 -126 5474 418 l 60 0 5444 334 l 0 -84 5552 376 l 6 18 5552 340 l 12 12 c
12 6 c 18 0 c -12 12 5696 358 l -12 6 c -18 0 c -12 -6 c -12 -12 c -6 -18 c 0 -12 c 6 -18 c 12 -12 c 12 -6 c 18 0 c 12 6 c 12 12 c
108 0 5738 346 l 12 6 5906 394 l 18 18 c 0 -126 c 66 0 6020 418 l -36 -48 c 18 0 c 12 -6 c 6 -6 c 6 -18 c 0 -12 c -6 -18 c -12 -12 c
-18 -6 c -18 0 c -18 6 c -6 6 c -6 12 c -6 -18 6206 376 l -12 -12 c -18 -6 c -6 0 c -18 6 c -12 12 c -6 18 c 0 6 c 6 18 c 12 12 c
18 6 c 6 0 c 18 -6 c 12 -12 c 6 -24 c 0 -30 c -6 -30 c -12 -18 c -18 -6 c -12 0 c -18 6 c -6 12 c -6 -6 6260 304 l 6 -6 c 6 6 c
-6 6 c -12 0 6350 418 l -12 -6 c -6 -18 c 0 -102 c 42 0 6302 376 l 6 -6 6380 418 l 6 6 c -6 6 c -6 -6 c 0 -84 6386 376 l
0 -102 6440 418 l 6 -18 c 12 -6 c 12 0 c 42 0 6422 376 l -6 12 6566 358 l -18 6 c -18 0 c -18 -6 c -6 -12 c 6 -12 c 12 -6 c 30 -6 c
12 -6 c 6 -12 c 0 -6 c -6 -12 c -18 -6 c -18 0 c -18 6 c -6 12 c 0 -192 6896 442 l 0 -192 6902 442 l 42 0 6896 442 l 42 0 6896 250 l
0 6 6980 388 l 6 12 c 6 6 c 12 6 c 24 0 c 12 -6 c 6 -6 c 6 -12 c 0 -12 c -6 -12 c -12 -18 c -60 -60 c 84 0 c -6 -6 7106 376 l 6 -6 c
6 6 c -6 6 c -6 -6 7106 304 l 6 -6 c 6 6 c -6 6 c 0 -192 7286 442 l 0 -192 7292 442 l 42 0 7250 442 l 42 0 7250 250 l
0 -249 1130 1306 l -7 -4 1097 1427 l -4 -11 c 0 -7 c 4 -12 c 11 -7 c 19 -4 c 19 0 c 15 4 c 8 7 c 3 12 c 0 3 c -3 12 c -8 7 c -11 4 c
-4 0 c -11 -4 c -8 -7 c -4 -12 c 0 -3 c 4 -12 c 8 -7 c 11 -4 c 4 -12 1086 1473 l 7 -3 c 8 0 c 7 3 c 4 8 c 4 15 c 4 11 c 7 8 c 8 4 c
11 0 c 8 -4 c 4 -4 c 3 -11 c 0 -15 c -3 -12 c -4 -3 c -8 -4 c -11 0 c -8 4 c -7 7 c -4 11 c -4 16 c -4 7 c -7 4 c -8 0 c -7 -4 c
-4 -11 c 0 -15 c 0 41 1086 1537 l 30 -22 c 0 11 c 4 8 c 4 3 c 11 4 c 8 0 c 11 -4 c 8 -7 c 3 -11 c 0 -12 c -3 -11 c -4 -4 c -8 -4 c
12 -4 1112 1654 l 7 -7 c 4 -12 c 0 -3 c -4 -12 c -7 -7 c -12 -4 c -3 0 c -12 4 c -7 7 c -4 12 c 0 3 c 4 12 c 7 7 c 15 4 c 19 0 c
19 -4 c 12 -7 c 3 -12 c 0 -7 c -3 -12 c -8 -3 c 4 -4 1158 1688 l 3 4 c -3 4 c -4 -4 c -4 0 1105 1722 l -7 4 c -4 4 c -4 7 c 0 15 c
4 8 c 4 4 c 7 3 c 8 0 c 7 -3 c 12 -8 c 37 -38 c 0 53 c 12 -4 1112 1843 l 7 -7 c 4 -12 c 0 -3 c -4 -12 c -7 -7 c -12 -4 c -3 0 c
-12 4 c -7 7 c -4 12 c 0 3 c 4 12 c 7 7 c 15 4 c 19 0 c 19 -4 c 12 -7 c 3 -12 c 0 -7 c -3 -12 c -8 -3 c 0 -38 1086 1915 l 34 -4 c
-4 4 c -4 11 c 0 12 c 4 11 c 8 8 c 11 3 c 8 0 c 11 -3 c 8 -8 c 3 -11 c 0 -12 c -3 -11 c -4 -4 c -8 -4 c 0 -249 2450 1794 l
-7 -4 2417 1915 l -4 -11 c 0 -8 c 4 -11 c 11 -8 c 19 -3 c 19 0 c 15 3 c 8 8 c 3 11 c 0 4 c -3 12 c -8 7 c -11 4 c -4 0 c -11 -4 c
-8 -7 c -4 -12 c 0 -4 c 4 -11 c 8 -8 c 11 -3 c 4 -11 2406 1960 l 7 -4 c 8 0 c 8 4 c 3 8 c 4 15 c 4 11 c 7 8 c 8 3 c 11 0 c 8 -3 c
4 -4 c 3 -11 c 0 -16 c -3 -11 c -4 -4 c -8 -3 c -11 0 c -8 3 c -7 8 c -4 11 c -4 15 c -3 8 c -8 4 c -8 0 c -7 -4 c -4 -11 c 0 -16 c
0 -37 2406 2062 l 34 -4 c -4 4 c -3 11 c 0 11 c 3 12 c 8 7 c 11 4 c 8 0 c 11 -4 c 8 -7 c 3 -12 c 0 -11 c -3 -11 c -4 -4 c -8 -4 c
53 -37 2406 2130 l 0 56 c 79 0 2406 2130 l 4 -4 2478 2176 l 3 4 c -3 4 c -4 -4 c -4 8 2421 2217 l -11 11 c 79 0 c 4 -11 2406 2304 l
11 -8 c 19 -3 c 11 0 c 19 3 c 12 8 c 3 11 c 0 8 c -3 11 c -12 8 c -19 4 c -11 0 c -19 -4 c -11 -8 c -4 -11 c 0 -8 c
11 -3 2433 2406 l 7 -8 c 4 -11 c 0 -4 c -4 -11 c -7 -8 c -11 -4 c -4 0 c -12 4 c -7 8 c -4 11 c 0 4 c 4 11 c 7 8 c 16 3 c 18 0 c
19 -3 c 12 -8 c 3 -11 c 0 -8 c -3 -11 c -8 -4 c 0 -249 3097 3611 l -7 -3 3064 3732 l -4 -12 c 0 -7 c 4 -12 c 11 -7 c 19 -4 c 19 0 c
15 4 c 8 7 c 3 12 c 0 3 c -3 12 c -8 7 c -11 4 c -4 0 c -11 -4 c -8 -7 c -4 -12 c 0 -3 c 4 -12 c 8 -7 c 11 -4 c 4 -12 3053 3778 l
7 -3 c 8 0 c 8 3 c 3 8 c 4 15 c 4 11 c 7 8 c 8 4 c 11 0 c 8 -4 c 4 -4 c 3 -11 c 0 -15 c -3 -12 c -4 -3 c -8 -4 c -11 0 c -8 4 c
-7 7 c -4 12 c -4 15 c -3 7 c -8 4 c -8 0 c -7 -4 c -4 -11 c 0 -15 c -7 -4 3064 3884 l -4 -12 c 0 -7 c 4 -11 c 11 -8 c 19 -4 c
19 0 c 15 4 c 8 8 c 3 11 c 0 4 c -3 11 c -8 8 c -11 3 c -4 0 c -11 -3 c -8 -8 c -4 -11 c 0 -4 c 4 -11 c 8 -8 c 11 -4 c
-4 8 3068 3921 l -11 11 c 79 0 c 4 -4 3125 3993 l 3 4 c -3 4 c -4 -4 c -4 0 3072 4027 l -7 4 c -4 4 c -4 7 c 0 15 c 4 8 c 4 4 c
7 4 c 8 0 c 7 -4 c 12 -8 c 37 -38 c 0 53 c -7 -4 3064 4148 l -4 -11 c 0 -8 c 4 -11 c 11 -7 c 19 -4 c 19 0 c 15 4 c 8 7 c 3 11 c
0 4 c -3 12 c -8 7 c -11 4 c -4 0 c -11 -4 c -8 -7 c -4 -12 c 0 -4 c 4 -11 c 8 -7 c 11 -4 c 11 -4 3080 4224 l 7 -8 c 4 -11 c 0 -4 c
-4 -11 c -7 -8 c -11 -3 c -4 0 c -12 3 c -7 8 c -4 11 c 0 4 c 4 11 c 7 8 c 16 4 c 18 0 c 19 -4 c 12 -8 c 3 -11 c 0 -8 c -3 -11 c
-8 -4 c 0 -249 3303 1794 l -7 -4 3270 1915 l -4 -11 c 0 -8 c 4 -11 c 11 -7 c 19 -4 c 19 0 c 15 4 c 8 7 c 3 11 c 0 4 c -3 12 c -8 7 c
-11 4 c -4 0 c -11 -4 c -8 -7 c -4 -12 c 0 -4 c 4 -11 c 8 -7 c 11 -4 c 4 -11 3259 1960 l 7 -4 c 8 0 c 8 4 c 3 8 c 4 15 c 4 11 c
7 8 c 8 3 c 11 0 c 8 -3 c 4 -4 c 3 -11 c 0 -16 c -3 -11 c -4 -4 c -8 -3 c -11 0 c -8 3 c -7 8 c -4 11 c -4 15 c -3 8 c -8 4 c -8 0 c
-7 -4 c -4 -11 c 0 -16 c -7 -3 3270 2066 l -4 -12 c 0 -7 c 4 -12 c 11 -7 c 19 -4 c 19 0 c 15 4 c 8 7 c 3 12 c 0 3 c -3 12 c -8 7 c
-11 4 c -4 0 c -11 -4 c -8 -7 c -4 -12 c 0 -3 c 4 -12 c 8 -7 c 11 -4 c 0 42 3259 2100 l 30 -23 c 0 12 c 4 7 c 4 4 c 11 4 c 8 0 c
11 -4 c 8 -8 c 3 -11 c 0 -11 c -3 -12 c -4 -3 c -8 -4 c 4 -4 3331 2176 l 3 4 c -3 4 c -4 -4 c 0 -37 3259 2251 l 34 -4 c -4 4 c
-3 11 c 0 11 c 3 12 c 8 7 c 11 4 c 8 0 c 11 -4 c 8 -7 c 3 -12 c 0 -11 c -3 -11 c -4 -4 c -8 -4 c 0 42 3259 2289 l 30 -23 c 0 12 c
4 7 c 4 4 c 11 4 c 8 0 c 11 -4 c 8 -8 c 3 -11 c 0 -11 c -3 -12 c -4 -3 c -8 -4 c 0 -38 3259 2403 l 34 -4 c -4 4 c -3 11 c 0 12 c
3 11 c 8 7 c 11 4 c 8 0 c 11 -4 c 8 -7 c 3 -11 c 0 -12 c -3 -11 c -4 -4 c -8 -4 c 0 -249 3752 1823 l -8 -3 3720 1944 l -4 -12 c
0 -7 c 4 -12 c 11 -7 c 19 -4 c 19 0 c 15 4 c 8 7 c 4 12 c 0 3 c -4 12 c -8 7 c -11 4 c -4 0 c -11 -4 c -8 -7 c -3 -12 c 0 -3 c
3 -12 c 8 -7 c 11 -4 c 4 -12 3708 1990 l 8 -3 c 7 0 c 8 3 c 4 8 c 3 15 c 4 11 c 8 8 c 7 4 c 12 0 c 7 -4 c 4 -4 c 4 -11 c 0 -15 c
-4 -12 c -4 -3 c -7 -4 c -12 0 c -7 4 c -8 7 c -4 12 c -3 15 c -4 7 c -8 4 c -7 0 c -8 -4 c -4 -11 c 0 -15 c -8 -4 3720 2096 l
-4 -12 c 0 -7 c 4 -11 c 11 -8 c 19 -4 c 19 0 c 15 4 c 8 8 c 4 11 c 0 4 c -4 11 c -8 8 c -11 3 c -4 0 c -11 -3 c -8 -8 c -3 -11 c
0 -4 c 3 -11 c 8 -8 c 11 -4 c 4 -11 3708 2141 l 8 -4 c 7 0 c 8 4 c 4 7 c 3 15 c 4 12 c 8 7 c 7 4 c 12 0 c 7 -4 c 4 -4 c 4 -11 c
0 -15 c -4 -11 c -4 -4 c -7 -4 c -12 0 c -7 4 c -8 7 c -4 12 c -3 15 c -4 7 c -8 4 c -7 0 c -8 -4 c -4 -11 c 0 -15 c
4 -4 3780 2205 l 4 4 c -4 4 c -4 -4 c 53 -38 3708 2273 l 0 57 c 80 0 3708 2273 l 0 -37 3708 2356 l 34 -4 c -3 4 c -4 11 c 0 11 c
4 12 c 7 7 c 11 4 c 8 0 c 11 -4 c 8 -7 c 4 -12 c 0 -11 c -4 -11 c -4 -4 c -7 -4 c -3 7 3723 2398 l -12 12 c 80 0 c
0 -249 4013 7019 l -7 -4 3980 7140 l -4 -11 c 0 -8 c 4 -11 c 11 -8 c 19 -3 c 19 0 c 15 3 c 8 8 c 3 11 c 0 4 c -3 11 c -8 8 c -11 4 c
-4 0 c -11 -4 c -8 -8 c -4 -11 c 0 -4 c 4 -11 c 8 -8 c 11 -3 c 4 -11 3969 7185 l 7 -4 c 8 0 c 8 4 c 3 8 c 4 15 c 4 11 c 7 8 c 8 3 c
11 0 c 8 -3 c 4 -4 c 3 -11 c 0 -16 c -3 -11 c -4 -4 c -8 -3 c -11 0 c -8 3 c -7 8 c -4 11 c -4 15 c -3 8 c -8 4 c -8 0 c -7 -4 c
-4 -11 c 0 -16 c 79 -38 3969 7295 l 0 53 3969 7242 l -4 8 3984 7329 l -11 11 c 79 0 c 4 -4 4041 7401 l 3 4 c -3 4 c -4 -4 c
-4 0 3988 7435 l -7 4 c -4 3 c -4 8 c 0 15 c 4 8 c 4 3 c 7 4 c 8 0 c 7 -4 c 12 -7 c 37 -38 c 0 53 c 4 -12 3969 7526 l 7 -4 c 8 0 c
8 4 c 3 8 c 4 15 c 4 11 c 7 8 c 8 4 c 11 0 c 8 -4 c 4 -4 c 3 -11 c 0 -15 c -3 -12 c -4 -4 c -8 -3 c -11 0 c -8 3 c -7 8 c -4 11 c
-4 15 c -3 8 c -8 4 c -8 0 c -7 -4 c -4 -11 c 0 -15 c 11 -3 3996 7631 l 7 -8 c 4 -11 c 0 -4 c -4 -11 c -7 -8 c -11 -4 c -4 0 c
-12 4 c -7 8 c -4 11 c 0 4 c 4 11 c 7 8 c 16 3 c 18 0 c 19 -3 c 12 -8 c 3 -11 c 0 -8 c -3 -11 c -8 -4 c 0 -249 4332 3861 l
-7 -4 4299 3982 l -4 -11 c 0 -7 c 4 -12 c 11 -7 c 19 -4 c 19 0 c 15 4 c 8 7 c 4 12 c 0 3 c -4 12 c -8 7 c -11 4 c -4 0 c -11 -4 c
-8 -7 c -4 -12 c 0 -3 c 4 -12 c 8 -7 c 11 -4 c 4 -12 4288 4028 l 7 -4 c 8 0 c 8 4 c 3 8 c 4 15 c 4 11 c 8 8 c 7 4 c 11 0 c 8 -4 c
4 -4 c 4 -11 c 0 -15 c -4 -12 c -4 -4 c -8 -3 c -11 0 c -7 3 c -8 8 c -4 11 c -4 15 c -3 8 c -8 4 c -8 0 c -7 -4 c -4 -11 c 0 -15 c
80 -38 4288 4137 l 0 53 4288 4084 l 53 -38 4288 4198 l 0 57 c 80 0 4288 4198 l 4 -4 4360 4243 l 4 4 c -4 4 c -4 -4 c
80 -38 4288 4326 l 0 53 4288 4273 l 0 -38 4288 4394 l 34 -3 c -4 3 c -3 12 c 0 11 c 3 11 c 8 8 c 11 4 c 8 0 c 11 -4 c 8 -8 c 4 -11 c
0 -11 c -4 -12 c -4 -3 c -8 -4 c 0 42 4288 4432 l 30 -23 c 0 11 c 4 8 c 4 4 c 11 3 c 8 0 c 11 -3 c 8 -8 c 4 -11 c 0 -12 c -4 -11 c
-4 -4 c -8 -4 c 0 -250 4780 2355 l -8 -4 4748 2476 l -3 -11 c 0 -8 c 3 -11 c 12 -8 c 19 -4 c 19 0 c 15 4 c 7 8 c 4 11 c 0 4 c
-4 11 c -7 8 c -12 4 c -3 0 c -12 -4 c -7 -8 c -4 -11 c 0 -4 c 4 -11 c 7 -8 c 12 -4 c 3 -11 4737 2521 l 8 -4 c 8 0 c 7 4 c 4 7 c
4 16 c 3 11 c 8 7 c 8 4 c 11 0 c 7 -4 c 4 -3 c 4 -12 c 0 -15 c -4 -11 c -4 -4 c -7 -4 c -11 0 c -8 4 c -8 8 c -3 11 c -4 15 c -4 8 c
-7 3 c -8 0 c -8 -3 c -3 -12 c 0 -15 c 79 -38 4737 2631 l 0 53 4737 2578 l 11 -4 4763 2703 l 8 -8 c 4 -11 c 0 -4 c -4 -11 c -8 -8 c
-11 -4 c -4 0 c -11 4 c -8 8 c -3 11 c 0 4 c 3 11 c 8 8 c 15 4 c 19 0 c 19 -4 c 11 -8 c 4 -11 c 0 -8 c -4 -11 c -7 -4 c
4 -4 4808 2737 l 4 4 c -4 3 c -4 -3 c 0 -38 4737 2812 l 34 -3 c -4 3 c -4 12 c 0 11 c 4 11 c 7 8 c 12 4 c 7 0 c 12 -4 c 7 -8 c
4 -11 c 0 -11 c -4 -12 c -4 -3 c -7 -4 c 3 -11 4737 2861 l 8 -4 c 8 0 c 7 4 c 4 8 c 4 15 c 3 11 c 8 8 c 8 3 c 11 0 c 7 -3 c 4 -4 c
4 -12 c 0 -15 c -4 -11 c -4 -4 c -7 -4 c -11 0 c -8 4 c -8 8 c -3 11 c -4 15 c -4 8 c -7 4 c -8 0 c -8 -4 c -3 -12 c 0 -15 c
-4 0 4756 2922 l -8 4 c -4 3 c -3 8 c 0 15 c 3 8 c 4 3 c 8 4 c 7 0 c 8 -4 c 11 -7 c 38 -38 c 0 53 c 0 -250 5082 1465 l
-7 -4 5050 1586 l -4 -11 c 0 -8 c 4 -11 c 11 -8 c 19 -3 c 19 0 c 15 3 c 7 8 c 4 11 c 0 4 c -4 11 c -7 8 c -12 4 c -3 0 c -12 -4 c
-7 -8 c -4 -11 c 0 -4 c 4 -11 c 7 -8 c 12 -3 c 4 -11 5039 1631 l 7 -4 c 8 0 c 7 4 c 4 7 c 4 16 c 4 11 c 7 7 c 8 4 c 11 0 c 8 -4 c
3 -3 c 4 -12 c 0 -15 c -4 -11 c -3 -4 c -8 -4 c -11 0 c -8 4 c -7 8 c -4 11 c -4 15 c -4 8 c -7 3 c -8 0 c -7 -3 c -4 -12 c 0 -15 c
4 -12 5039 1707 l 7 -3 c 8 0 c 7 3 c 4 8 c 4 15 c 4 11 c 7 8 c 8 4 c 11 0 c 8 -4 c 3 -4 c 4 -11 c 0 -15 c -4 -12 c -3 -3 c -8 -4 c
-11 0 c -8 4 c -7 7 c -4 12 c -4 15 c -4 7 c -7 4 c -8 0 c -7 -4 c -4 -11 c 0 -15 c -4 0 5058 1767 l -8 4 c -3 4 c -4 7 c 0 16 c
4 7 c 3 4 c 8 4 c 7 0 c 8 -4 c 11 -8 c 38 -38 c 0 53 c 3 -4 5111 1847 l 4 4 c -4 3 c -3 -3 c 4 -12 5039 1896 l 7 -3 c 8 0 c 7 3 c
4 8 c 4 15 c 4 11 c 7 8 c 8 4 c 11 0 c 8 -4 c 3 -4 c 4 -11 c 0 -15 c -4 -12 c -3 -3 c -8 -4 c -11 0 c -8 4 c -7 7 c -4 12 c -4 15 c
-4 7 c -7 4 c -8 0 c -7 -4 c -4 -11 c 0 -15 c -4 7 5054 1964 l -11 12 c 79 0 c -4 8 5054 2039 l -11 11 c 79 0 c 0 -249 5421 2159 l
-7 -4 5388 2280 l -4 -11 c 0 -7 c 4 -12 c 11 -7 c 19 -4 c 19 0 c 15 4 c 8 7 c 3 12 c 0 3 c -3 12 c -8 7 c -11 4 c -4 0 c -11 -4 c
-8 -7 c -4 -12 c 0 -3 c 4 -12 c 8 -7 c 11 -4 c 4 -12 5377 2326 l 7 -4 c 8 0 c 7 4 c 4 8 c 4 15 c 4 11 c 7 8 c 8 4 c 11 0 c 8 -4 c
4 -4 c 3 -11 c 0 -15 c -3 -12 c -4 -4 c -8 -3 c -11 0 c -8 3 c -7 8 c -4 11 c -4 16 c -4 7 c -7 4 c -8 0 c -7 -4 c -4 -11 c 0 -15 c
4 -11 5377 2401 l 7 -4 c 8 0 c 7 4 c 4 7 c 4 16 c 4 11 c 7 7 c 8 4 c 11 0 c 8 -4 c 4 -3 c 3 -12 c 0 -15 c -3 -11 c -4 -4 c -8 -4 c
-11 0 c -8 4 c -7 8 c -4 11 c -4 15 c -4 8 c -7 3 c -8 0 c -7 -3 c -4 -12 c 0 -15 c -7 -4 5388 2507 l -4 -11 c 0 -8 c 4 -11 c
11 -8 c 19 -3 c 19 0 c 15 3 c 8 8 c 3 11 c 0 4 c -3 11 c -8 8 c -11 4 c -4 0 c -11 -4 c -8 -8 c -4 -11 c 0 -4 c 4 -11 c 8 -8 c
11 -3 c 4 -4 5449 2541 l 3 4 c -3 4 c -4 -4 c 53 -38 5377 2609 l 0 57 c 79 0 5377 2609 l 4 -12 5377 2670 l 11 -7 c 19 -4 c 11 0 c
19 4 c 12 7 c 3 12 c 0 7 c -3 11 c -12 8 c -19 4 c -11 0 c -19 -4 c -11 -8 c -4 -11 c 0 -7 c 4 -11 5377 2741 l 7 -4 c 8 0 c 7 4 c
4 8 c 4 15 c 4 11 c 7 8 c 8 3 c 11 0 c 8 -3 c 4 -4 c 3 -12 c 0 -15 c -3 -11 c -4 -4 c -8 -4 c -11 0 c -8 4 c -7 8 c -4 11 c -4 15 c
-4 8 c -7 4 c -8 0 c -7 -4 c -4 -12 c 0 -15 c 0 -250 5483 2139 l -7 -4 5451 2260 l -4 -11 c 0 -8 c 4 -11 c 11 -8 c 19 -3 c 19 0 c
15 3 c 7 8 c 4 11 c 0 4 c -4 11 c -7 8 c -12 4 c -3 0 c -12 -4 c -7 -8 c -4 -11 c 0 -4 c 4 -11 c 7 -8 c 12 -3 c 4 -11 5440 2305 l
7 -4 c 8 0 c 7 4 c 4 8 c 4 15 c 4 11 c 7 8 c 8 3 c 11 0 c 8 -3 c 3 -4 c 4 -12 c 0 -15 c -4 -11 c -3 -4 c -8 -4 c -11 0 c -8 4 c
-7 8 c -4 11 c -4 15 c -4 8 c -7 4 c -8 0 c -7 -4 c -4 -12 c 0 -15 c 4 -11 5440 2381 l 7 -4 c 8 0 c 7 4 c 4 7 c 4 15 c 4 12 c 7 7 c
8 4 c 11 0 c 8 -4 c 3 -4 c 4 -11 c 0 -15 c -4 -11 c -3 -4 c -8 -4 c -11 0 c -8 4 c -7 7 c -4 12 c -4 15 c -4 7 c -7 4 c -8 0 c
-7 -4 c -4 -11 c 0 -15 c 79 -37 5440 2490 l 0 52 5440 2438 l 3 -4 5512 2521 l 4 4 c -4 3 c -3 -3 c 4 -12 5440 2574 l 11 -7 c 19 -4 c
11 0 c 19 4 c 11 7 c 4 12 c 0 7 c -4 12 c -11 7 c -19 4 c -11 0 c -19 -4 c -11 -7 c -4 -12 c 0 -7 c 4 -11 5440 2645 l 7 -4 c 8 0 c
7 4 c 4 8 c 4 15 c 4 11 c 7 8 c 8 3 c 11 0 c 8 -3 c 3 -4 c 4 -11 c 0 -16 c -4 -11 c -3 -4 c -8 -3 c -11 0 c -8 3 c -7 8 c -4 11 c
-4 15 c -4 8 c -7 4 c -8 0 c -7 -4 c -4 -11 c 0 -16 c 4 -11 5440 2721 l 7 -4 c 8 0 c 7 4 c 4 7 c 4 15 c 4 12 c 7 7 c 8 4 c 11 0 c
8 -4 c 3 -4 c 4 -11 c 0 -15 c -4 -11 c -3 -4 c -8 -4 c -11 0 c -8 4 c -7 7 c -4 12 c -4 15 c -4 7 c -7 4 c -8 0 c -7 -4 c -4 -11 c
0 -15 c 0 -250 5586 2945 l -7 -3 5553 3065 l -4 -12 c 0 -7 c 4 -12 c 11 -7 c 19 -4 c 19 0 c 15 4 c 8 7 c 3 12 c 0 4 c -3 11 c -8 7 c
-11 4 c -4 0 c -11 -4 c -8 -7 c -4 -11 c 0 -4 c 4 -12 c 8 -7 c 11 -4 c 4 -12 5542 3111 l 7 -3 c 8 0 c 8 3 c 3 8 c 4 15 c 4 11 c
7 8 c 8 4 c 11 0 c 8 -4 c 4 -4 c 3 -11 c 0 -15 c -3 -12 c -4 -3 c -8 -4 c -11 0 c -8 4 c -7 7 c -4 12 c -4 15 c -3 7 c -8 4 c -8 0 c
-7 -4 c -4 -11 c 0 -15 c 4 -11 5542 3186 l 7 -4 c 8 0 c 8 4 c 3 8 c 4 15 c 4 11 c 7 8 c 8 3 c 11 0 c 8 -3 c 4 -4 c 3 -11 c 0 -16 c
-3 -11 c -4 -4 c -8 -4 c -11 0 c -8 4 c -7 8 c -4 11 c -4 15 c -3 8 c -8 4 c -8 0 c -7 -4 c -4 -11 c 0 -16 c 4 -11 5542 3262 l
7 -4 c 8 0 c 8 4 c 3 7 c 4 15 c 4 12 c 7 7 c 8 4 c 11 0 c 8 -4 c 4 -4 c 3 -11 c 0 -15 c -3 -11 c -4 -4 c -8 -4 c -11 0 c -8 4 c
-7 7 c -4 12 c -4 15 c -3 7 c -8 4 c -8 0 c -7 -4 c -4 -11 c 0 -15 c 4 -4 5614 3326 l 3 4 c -3 4 c -4 -4 c -4 7 5557 3368 l -11 12 c
79 0 c 79 -38 5542 3485 l 0 53 5542 3432 l 53 -37 5542 3545 l 0 56 c 79 0 5542 3545 l 0 -249 5692 4497 l -8 -4 5660 4618 l -3 -11 c
0 -7 c 3 -12 c 12 -7 c 19 -4 c 19 0 c 15 4 c 7 7 c 4 12 c 0 3 c -4 12 c -7 7 c -12 4 c -3 0 c -12 -4 c -7 -7 c -4 -12 c 0 -3 c
4 -12 c 7 -7 c 12 -4 c 3 -12 5649 4664 l 8 -4 c 8 0 c 7 4 c 4 8 c 4 15 c 3 11 c 8 8 c 8 4 c 11 0 c 7 -4 c 4 -4 c 4 -11 c 0 -15 c
-4 -12 c -4 -4 c -7 -3 c -11 0 c -8 3 c -8 8 c -3 11 c -4 15 c -4 8 c -7 4 c -8 0 c -8 -4 c -3 -11 c 0 -15 c 3 -11 5649 4739 l
8 -4 c 8 0 c 7 4 c 4 7 c 4 15 c 3 12 c 8 7 c 8 4 c 11 0 c 7 -4 c 4 -3 c 4 -12 c 0 -15 c -4 -11 c -4 -4 c -7 -4 c -11 0 c -8 4 c
-8 8 c -3 11 c -4 15 c -4 8 c -7 3 c -8 0 c -8 -3 c -3 -12 c 0 -15 c 11 -4 5675 4845 l 8 -7 c 4 -12 c 0 -3 c -4 -12 c -8 -7 c
-11 -4 c -4 0 c -11 4 c -8 7 c -3 12 c 0 3 c 3 12 c 8 7 c 15 4 c 19 0 c 19 -4 c 11 -7 c 4 -12 c 0 -7 c -4 -12 c -7 -3 c
4 -4 5720 4879 l 4 4 c -4 4 c -4 -4 c 0 41 5649 4917 l 30 -22 c 0 11 c 4 8 c 3 3 c 12 4 c 7 0 c 12 -4 c 7 -7 c 4 -12 c 0 -11 c
-4 -11 c -4 -4 c -7 -4 c 3 -11 5649 5007 l 12 -7 c 19 -4 c 11 0 c 19 4 c 11 7 c 4 11 c 0 8 c -4 11 c -11 8 c -19 4 c -11 0 c
-19 -4 c -12 -8 c -3 -11 c 0 -8 c 0 42 5649 5068 l 30 -23 c 0 11 c 4 8 c 3 4 c 12 3 c 7 0 c 12 -3 c 7 -8 c 4 -11 c 0 -12 c -4 -11 c
-4 -4 c -7 -4 c 0 -249 5971 1354 l -8 -4 5939 1475 l -3 -11 c 0 -7 c 3 -12 c 12 -7 c 19 -4 c 19 0 c 15 4 c 7 7 c 4 12 c 0 3 c
-4 12 c -7 7 c -12 4 c -3 0 c -12 -4 c -7 -7 c -4 -12 c 0 -3 c 4 -12 c 7 -7 c 12 -4 c 3 -12 5928 1521 l 8 -4 c 8 0 c 7 4 c 4 8 c
4 15 c 3 11 c 8 8 c 8 4 c 11 0 c 7 -4 c 4 -4 c 4 -11 c 0 -15 c -4 -12 c -4 -4 c -7 -3 c -11 0 c -8 3 c -8 8 c -3 11 c -4 15 c -4 8 c
-7 4 c -8 0 c -8 -4 c -3 -11 c 0 -15 c 11 -3 5954 1626 l 8 -8 c 4 -11 c 0 -4 c -4 -11 c -8 -8 c -11 -4 c -4 0 c -11 4 c -8 8 c
-3 11 c 0 4 c 3 11 c 8 8 c 15 3 c 19 0 c 19 -3 c 11 -8 c 4 -11 c 0 -8 c -4 -11 c -7 -4 c -4 0 5947 1657 l -8 3 c -4 4 c -3 8 c
0 15 c 3 7 c 4 4 c 8 4 c 7 0 c 8 -4 c 11 -7 c 38 -38 c 0 53 c 4 -4 5999 1736 l 4 4 c -4 4 c -4 -4 c -4 0 5947 1770 l -8 4 c -4 4 c
-3 7 c 0 15 c 3 8 c 4 4 c 8 3 c 7 0 c 8 -3 c 11 -8 c 38 -38 c 0 53 c 0 -38 5928 1887 l 34 -3 c -4 3 c -4 12 c 0 11 c 4 11 c 7 8 c
12 4 c 7 0 c 12 -4 c 7 -8 c 4 -11 c 0 -11 c -4 -12 c -4 -3 c -7 -4 c 3 -11 5928 1940 l 12 -8 c 19 -4 c 11 0 c 19 4 c 11 8 c 4 11 c
0 8 c -4 11 c -11 8 c -19 3 c -11 0 c -19 -3 c -12 -8 c -3 -11 c 0 -8 c 0 -250 7668 2021 l -8 -4 7636 2142 l -4 -11 c 0 -8 c 4 -11 c
11 -8 c 19 -4 c 19 0 c 15 4 c 8 8 c 4 11 c 0 4 c -4 11 c -8 8 c -11 3 c -4 0 c -11 -3 c -8 -8 c -3 -11 c 0 -4 c 3 -11 c 8 -8 c
11 -4 c 11 -4 7651 2217 l 8 -7 c 3 -11 c 0 -4 c -3 -12 c -8 -7 c -11 -4 c -4 0 c -11 4 c -8 7 c -4 12 c 0 4 c 4 11 c 8 7 c 15 4 c
19 0 c 19 -4 c 11 -7 c 4 -11 c 0 -8 c -4 -11 c -8 -4 c 4 -11 7624 2266 l 11 -8 c 19 -3 c 12 0 c 19 3 c 11 8 c 4 11 c 0 8 c -4 11 c
-11 8 c -19 4 c -12 0 c -19 -4 c -11 -8 c -4 -11 c 0 -8 c 11 -3 7651 2368 l 8 -8 c 3 -11 c 0 -4 c -3 -11 c -8 -8 c -11 -4 c -4 0 c
-11 4 c -8 8 c -4 11 c 0 4 c 4 11 c 8 8 c 15 3 c 19 0 c 19 -3 c 11 -8 c 4 -11 c 0 -8 c -4 -11 c -8 -4 c 4 -3 7696 2402 l 4 3 c
-4 4 c -4 -4 c 4 -12 7624 2452 l 8 -4 c 7 0 c 8 4 c 4 8 c 3 15 c 4 11 c 8 8 c 7 4 c 12 0 c 7 -4 c 4 -4 c 4 -11 c 0 -15 c -4 -12 c
-4 -4 c -7 -3 c -12 0 c -7 3 c -8 8 c -4 11 c -3 15 c -4 8 c -8 4 c -7 0 c -8 -4 c -4 -11 c 0 -15 c 53 -38 7624 2546 l 0 57 c
80 0 7624 2546 l 11 -4 7651 2633 l 8 -7 c 3 -12 c 0 -3 c -3 -12 c -8 -7 c -11 -4 c -4 0 c -11 4 c -8 7 c -4 12 c 0 3 c 4 12 c 8 7 c
15 4 c 19 0 c 19 -4 c 11 -7 c 4 -12 c 0 -7 c -4 -12 c -8 -3 c 0 -249 7803 7019 l -7 -4 7770 7140 l -4 -11 c 0 -8 c 4 -11 c 11 -8 c
19 -3 c 19 0 c 15 3 c 8 8 c 3 11 c 0 4 c -3 11 c -8 8 c -11 4 c -4 0 c -11 -4 c -8 -8 c -4 -11 c 0 -4 c 4 -11 c 8 -8 c 11 -3 c
12 -4 7785 7216 l 7 -8 c 4 -11 c 0 -4 c -4 -11 c -7 -8 c -12 -3 c -3 0 c -12 3 c -7 8 c -4 11 c 0 4 c 4 11 c 7 8 c 15 4 c 19 0 c
19 -4 c 12 -8 c 3 -11 c 0 -8 c -3 -11 c -8 -4 c -4 8 7774 7253 l -11 11 c 79 0 c -4 8 7774 7329 l -11 11 c 79 0 c 4 -4 7831 7401 l
3 4 c -3 4 c -4 -4 c -4 0 7778 7435 l -7 4 c -4 3 c -4 8 c 0 15 c 4 8 c 4 3 c 7 4 c 8 0 c 7 -4 c 12 -7 c 37 -38 c 0 53 c
-4 0 7778 7510 l -7 4 c -4 4 c -4 8 c 0 15 c 4 7 c 4 4 c 7 4 c 8 0 c 7 -4 c 12 -8 c 37 -37 c 0 53 c -7 -3 7770 7631 l -4 -12 c
0 -7 c 4 -12 c 11 -7 c 19 -4 c 19 0 c 15 4 c 8 7 c 3 12 c 0 3 c -3 12 c -8 7 c -11 4 c -4 0 c -11 -4 c -8 -7 c -4 -12 c 0 -3 c
4 -12 c 8 -7 c 11 -4 c 0 -249 8285 1766 l -7 -3 8253 1887 l -4 -12 c 0 -7 c 4 -12 c 11 -7 c 19 -4 c 19 0 c 15 4 c 7 7 c 4 12 c 0 3 c
-4 12 c -7 7 c -11 4 c -4 0 c -12 -4 c -7 -7 c -4 -12 c 0 -3 c 4 -12 c 7 -7 c 12 -4 c 12 -4 8268 1963 l 7 -7 c 4 -12 c 0 -4 c
-4 -11 c -7 -7 c -12 -4 c -3 0 c -12 4 c -7 7 c -4 11 c 0 4 c 4 12 c 7 7 c 15 4 c 19 0 c 19 -4 c 11 -7 c 4 -12 c 0 -7 c -4 -12 c
-7 -3 c -4 7 8257 2001 l -11 12 c 79 0 c -7 -4 8253 2114 l -4 -11 c 0 -8 c 4 -11 c 11 -7 c 19 -4 c 19 0 c 15 4 c 7 7 c 4 11 c 0 4 c
-4 12 c -7 7 c -11 4 c -4 0 c -12 -4 c -7 -7 c -4 -12 c 0 -4 c 4 -11 c 7 -7 c 12 -4 c 3 -4 8314 2148 l 4 4 c -4 4 c -3 -4 c
-4 7 8257 2190 l -11 12 c 79 0 c -4 0 8261 2258 l -8 4 c -3 3 c -4 8 c 0 15 c 4 8 c 3 3 c 8 4 c 8 0 c 7 -4 c 11 -7 c 38 -38 c 0 53 c
12 -4 8268 2379 l 7 -8 c 4 -11 c 0 -4 c -4 -11 c -7 -8 c -12 -3 c -3 0 c -12 3 c -7 8 c -4 11 c 0 4 c 4 11 c 7 8 c 15 4 c 19 0 c
19 -4 c 11 -8 c 4 -11 c 0 -8 c -4 -11 c -7 -4 c
showpage PGPLOT restore
 
%%Trailer
%%DocumentFonts: 
%%Pages: 1
%%EOF
