%!PS-Adobe-3.0 EPSF-3.0
%%For: tab
%%Title: PGPLOT PostScript plot
%%Creator: PGPLOT
%%CreationDate: 20-Apr-1995 16:38
%%BoundingBox: 25 18 587 774
%%DocumentFonts: (atend)
%%LanguageLevel: 1
%%Orientation: Landscape
%%Pages: (atend)
%%EndComments
%%BeginProlog
/l {moveto rlineto currentpoint stroke moveto} bind def
/c {rlineto currentpoint stroke moveto} bind def
/d {moveto 0 0 rlineto currentpoint stroke moveto} bind def
/SLW {5 mul setlinewidth} bind def
/SCF /pop load def
/BP {newpath moveto} bind def
/LP /rlineto load def
/EP {rlineto closepath eofill} bind def
/MB {gsave translate MFAC dup scale 1 setlinewidth 2 setlinecap 0 setlinejoin newpath} bind def
/ME /grestore load def
/C {0 360 arc stroke} bind def
/FC {0 360 arc fill} bind def
%%EndProlog
 
%%Page: 1 1
%%BeginPageSetup
/PGPLOT save def
0.072 0.072 scale
8150 250 translate 90 rotate
1 setlinejoin 1 setlinecap 1 SLW 1 SCF
%%EndPageSetup
0.000 setgray 1 SLW 8939 0 780 780 l 0 6239 c -8939 0 c 0 -6239 c 0 -45 1116 780 l 0 -45 1554 780 l 0 -45 1991 780 l
0 -45 2428 780 l 0 -90 2865 780 l 0 -45 3302 780 l 0 -45 3739 780 l 0 -45 4176 780 l 0 -45 4613 780 l 0 -90 5051 780 l
0 -45 5488 780 l 0 -45 5925 780 l 0 -45 6362 780 l 0 -45 6799 780 l 0 -90 7236 780 l 0 -45 7673 780 l 0 -45 8110 780 l
0 -45 8548 780 l 0 -45 8985 780 l 0 -90 9422 780 l 0 -45 1116 7064 l 0 -45 1554 7064 l 0 -45 1991 7064 l 0 -45 2428 7064 l
0 -90 2865 7109 l 0 -45 3302 7064 l 0 -45 3739 7064 l 0 -45 4176 7064 l 0 -45 4613 7064 l 0 -90 5051 7109 l 0 -45 5488 7064 l
0 -45 5925 7064 l 0 -45 6362 7064 l 0 -45 6799 7064 l 0 -90 7236 7109 l 0 -45 7673 7064 l 0 -45 8110 7064 l 0 -45 8548 7064 l
0 -45 8985 7064 l 0 -90 9422 7109 l -60 0 2775 672 l -6 -54 c 6 6 c 18 6 c 18 0 c 18 -6 c 12 -12 c 6 -18 c 0 -12 c -6 -18 c
-12 -12 c -18 -6 c -18 0 c -18 6 c -6 6 c -6 12 c -18 -6 2859 672 l -12 -18 c -6 -30 c 0 -18 c 6 -30 c 12 -18 c 18 -6 c 12 0 c
18 6 c 12 18 c 6 30 c 0 18 c -6 30 c -12 18 c -18 6 c -12 0 c -18 -6 2979 672 l -12 -18 c -6 -30 c 0 -18 c 6 -30 c 12 -18 c 18 -6 c
12 0 c 18 6 c 12 18 c 6 30 c 0 18 c -6 30 c -12 18 c -18 6 c -12 0 c 12 6 4847 648 l 18 18 c 0 -126 c -18 -6 4985 672 l -12 -18 c
-6 -30 c 0 -18 c 6 -30 c 12 -18 c 18 -6 c 12 0 c 18 6 c 12 18 c 6 30 c 0 18 c -6 30 c -12 18 c -18 6 c -12 0 c -18 -6 5105 672 l
-12 -18 c -6 -30 c 0 -18 c 6 -30 c 12 -18 c 18 -6 c 12 0 c 18 6 c 12 18 c 6 30 c 0 18 c -6 30 c -12 18 c -18 6 c -12 0 c
-18 -6 5225 672 l -12 -18 c -6 -30 c 0 -18 c 6 -30 c 12 -18 c 18 -6 c 12 0 c 18 6 c 12 18 c 6 30 c 0 18 c -6 30 c -12 18 c -18 6 c
-12 0 c 12 6 7032 648 l 18 18 c 0 -126 c -60 0 7206 672 l -6 -54 c 6 6 c 18 6 c 18 0 c 18 -6 c 12 -12 c 6 -18 c 0 -12 c -6 -18 c
-12 -12 c -18 -6 c -18 0 c -18 6 c -6 6 c -6 12 c -18 -6 7290 672 l -12 -18 c -6 -30 c 0 -18 c 6 -30 c 12 -18 c 18 -6 c 12 0 c
18 6 c 12 18 c 6 30 c 0 18 c -6 30 c -12 18 c -18 6 c -12 0 c -18 -6 7410 672 l -12 -18 c -6 -30 c 0 -18 c 6 -30 c 12 -18 c 18 -6 c
12 0 c 18 6 c 12 18 c 6 30 c 0 18 c -6 30 c -12 18 c -18 6 c -12 0 c 0 6 9206 642 l 6 12 c 6 6 c 12 6 c 24 0 c 12 -6 c 6 -6 c
6 -12 c 0 -12 c -6 -12 c -12 -18 c -60 -60 c 84 0 c -18 -6 9356 672 l -12 -18 c -6 -30 c 0 -18 c 6 -30 c 12 -18 c 18 -6 c 12 0 c
18 6 c 12 18 c 6 30 c 0 18 c -6 30 c -12 18 c -18 6 c -12 0 c -18 -6 9476 672 l -12 -18 c -6 -30 c 0 -18 c 6 -30 c 12 -18 c 18 -6 c
12 0 c 18 6 c 12 18 c 6 30 c 0 18 c -6 30 c -12 18 c -18 6 c -12 0 c -18 -6 9596 672 l -12 -18 c -6 -30 c 0 -18 c 6 -30 c 12 -18 c
18 -6 c 12 0 c 18 6 c 12 18 c 6 30 c 0 18 c -6 30 c -12 18 c -18 6 c -12 0 c -90 0 780 780 l -45 0 780 1714 l -90 0 780 2648 l
-45 0 780 3582 l -90 0 780 4516 l -45 0 780 5451 l -90 0 780 6385 l -90 0 9809 780 l -45 0 9764 1714 l -90 0 9809 2648 l
-45 0 9764 3582 l -90 0 9809 4516 l -45 0 9764 5451 l -90 0 9809 6385 l 6 -18 517 774 l 18 -12 c 30 -6 c 18 0 c 30 6 c 18 12 c
6 18 c 0 12 c -6 18 c -18 12 c -30 6 c -18 0 c -30 -6 c -18 -12 c -6 -18 c 0 -12 c -6 0 547 2390 l -12 6 c -6 6 c -6 12 c 0 24 c
6 12 c 6 6 c 12 6 c 12 0 c 12 -6 c 18 -12 c 60 -60 c 0 84 c 84 84 547 2510 l 84 -84 547 2594 l -6 12 541 2654 l -18 18 c 126 0 c
6 -18 517 2792 l 18 -12 c 30 -6 c 18 0 c 30 6 c 18 12 c 6 18 c 0 12 c -6 18 c -18 12 c -30 6 c -18 0 c -30 -6 c -18 -12 c -6 -18 c
0 -12 c 63 -45 453 2917 l 0 67 c 94 0 453 2917 l 84 -60 517 4312 l 0 90 c 126 0 517 4312 l 84 84 547 4378 l 84 -84 547 4462 l
-6 12 541 4522 l -18 18 c 126 0 c 6 -18 517 4660 l 18 -12 c 30 -6 c 18 0 c 30 6 c 18 12 c 6 18 c 0 12 c -6 18 c -18 12 c -30 6 c
-18 0 c -30 -6 c -18 -12 c -6 -18 c 0 -12 c 63 -45 453 4785 l 0 67 c 94 0 453 4785 l -12 -6 535 6199 l -6 -18 c 0 -12 c 6 -18 c
18 -12 c 30 -6 c 30 0 c 24 6 c 12 12 c 6 18 c 0 6 c -6 18 c -12 12 c -18 6 c -6 0 c -18 -6 c -12 -12 c -6 -18 c 0 -6 c 6 -18 c
12 -12 c 18 -6 c 84 84 547 6247 l 84 -84 547 6331 l -6 12 541 6391 l -18 18 c 126 0 c 6 -18 517 6529 l 18 -12 c 30 -6 c 18 0 c
30 6 c 18 12 c 6 18 c 0 12 c -6 18 c -18 12 c -30 6 c -18 0 c -30 -6 c -18 -12 c -6 -18 c 0 -12 c 63 -45 453 6653 l 0 68 c
94 0 453 6653 l
4 0 780 791 l 5 1 c 4 8 c 4 34 c 5 89 c 4 291 c 4 132 c 5 -125 c 4 -326 c 5 -97 c 4 -5 c 4 0 c 5 0 c 4 -1 c 4 0 c 5 0 c 4 0 c 5 0 c
4 0 c 4 1 c 5 1 c 4 0 c 4 1 c 5 1 c 4 0 c 5 -1 c 4 -1 c 4 1 c 5 1 c 4 0 c 4 1 c 5 0 c 4 1 c 5 2 c 4 1 c 4 2 c 5 4 c 4 2 c 4 2 c
5 3 c 4 8 c 4 17 c 5 69 c 4 423 c 5 1313 c 4 4156 c 4 18 c 5 19 c 4 -1003 c 4 -4585 c 5 -368 c 4 -38 c 5 -12 c 4 -9 c 4 -3 c 5 -4 c
4 -3 c 4 -3 c 5 -3 c 4 -3 c 5 -2 c 4 -1 c 4 0 c 5 -1 c 4 -1 c 4 -1 c 5 -1 c 4 0 c 5 -1 c 4 0 c 4 0 c 5 0 c 4 0 c 4 1 c 5 0 c 4 -1 c
4 -1 c 5 -1 c 4 0 c 5 0 c 4 0 c 4 2 c 5 3 c 4 -18 c 4 0 c 5 32 c 4 -8 c 5 -1 c 4 16 c 4 66 c 5 227 c 4 203 c 4 -1 c 5 -285 c
4 -181 c 5 -47 c 4 1 c 4 -1 c 5 -5 c 4 -3 c 4 -1 c 5 0 c 4 -1 c 5 1 c 4 -1 c 4 0 c 5 0 c 4 0 c 4 1 c 5 0 c 4 0 c 4 2 c 5 3 c 4 1 c
5 -2 c 4 -4 c 4 -2 c 5 1 c 4 0 c 4 0 c 5 1 c 4 0 c 5 0 c 4 -1 c 4 1 c 5 5 c 4 1 c 4 -2 c 5 -4 c 4 -1 c 5 0 c 4 0 c 4 0 c 5 1 c
4 -1 c 4 1 c 5 0 c 4 1 c 5 0 c 4 3 c 4 13 c 5 25 c 4 9 c 4 -15 c 5 -28 c 4 -7 c 4 -1 c 5 0 c 4 0 c 5 0 c 4 0 c 4 0 c 5 0 c 4 1 c
4 0 c 5 1 c 4 2 c 5 2 c 4 4 c 4 19 c 5 106 c 4 381 c 4 976 c 5 112 c 4 -533 c 5 -916 c 4 -141 c 4 -8 c 5 -1 c 4 -2 c 4 0 c 5 -2 c
4 0 c 4 -1 c 5 -1 c 4 1 c 5 0 c 4 0 c 4 0 c 5 0 c 4 0 c 4 1 c 5 7 c 4 34 c 5 39 c 4 -3 c 4 -44 c 5 -31 c 4 -1 c 4 7 c 5 5 c 4 0 c
5 -8 c 4 -5 c 4 -1 c 5 0 c 4 0 c 4 0 c 5 0 c 4 1 c 5 0 c 4 0 c 4 0 c 5 -1 c 4 0 c 4 0 c 5 0 c 4 1 c 4 0 c 5 -1 c 4 0 c 5 1 c 4 0 c
4 0 c 5 1 c 4 0 c 4 4 c 5 10 c 4 3 c 5 -6 c 4 -8 c 4 -3 c 5 0 c 4 0 c 4 0 c 5 -1 c 4 0 c 5 0 c 4 0 c 4 1 c 5 0 c 4 0 c 4 1 c 5 1 c
4 0 c 5 2 c 4 1 c 4 1 c 5 0 c 4 8 c 4 43 c 5 236 c 4 1066 c 4 612 c 5 -265 c 4 -1233 c 5 -429 c 4 -34 c 4 -3 c 5 -1 c 4 1 c 4 0 c
5 0 c 4 -2 c 5 -2 c 4 0 c 4 -1 c 5 0 c 4 1 c 4 -1 c 5 0 c 4 0 c 5 -1 c 4 0 c 4 0 c 5 0 c 4 0 c 4 0 c 5 1 c 4 2 c 5 2 c 4 -1 c 4 -2 c
5 -1 c 4 0 c 4 -1 c 5 1 c 4 -1 c 4 1 c 5 0 c 4 0 c 5 3 c 4 17 c 4 110 c 5 288 c 4 85 c 4 -139 c 5 -302 c 4 -57 c 5 -4 c 4 -1 c 4 0 c
5 -1 c 4 1 c 4 2 c 5 1 c 4 -2 c 5 -3 c 4 0 c 4 0 c 5 1 c 4 0 c 4 -1 c 5 1 c 4 0 c 5 0 c 4 0 c 4 0 c 5 0 c 4 -1 c 4 0 c 5 0 c 4 0 c
4 0 c 5 4 c 4 16 c 5 7 c 4 -3 c 4 -18 c 5 -5 c 4 -1 c 4 1 c 5 -2 c 4 1 c 5 -1 c 4 1 c 4 -1 c 5 0 c 4 0 c 4 0 c 5 0 c 4 0 c 5 0 c
4 1 c 4 1 c 5 0 c 4 2 c 4 20 c 5 96 c 4 46 c 4 -14 c 5 -110 c 4 -38 c 5 -4 c 4 -1 c 4 0 c 5 0 c 4 0 c 4 1 c 5 1 c 4 2 c 5 1 c 4 0 c
4 -2 c 5 -2 c 4 0 c 4 0 c 5 0 c 4 1 c 5 0 c 4 0 c 4 0 c 5 0 c 4 0 c 4 0 c 5 0 c 4 1 c 5 1 c 4 0 c 4 0 c 5 0 c 4 3 c 4 1 c 5 3 c
4 8 c 4 38 c 5 310 c 4 1912 c 5 1396 c 4 -249 c 4 -2206 c 5 -1127 c 4 -73 c 4 -8 c 5 -2 c 4 -1 c 5 -2 c 4 0 c 4 -2 c 5 -1 c 4 -1 c
4 0 c 5 0 c 4 0 c 5 2 c 4 17 c 4 14 c 5 -1 c 4 -22 c 4 -11 c 5 0 c 4 0 c 5 -1 c 4 0 c 4 1 c 5 -1 c 4 0 c 4 0 c 5 0 c 4 0 c 4 0 c
5 0 c 4 0 c 5 0 c 4 0 c 4 0 c 5 0 c 4 0 c 4 0 c 5 0 c 4 1 c 5 0 c 4 3 c 4 17 c 5 164 c 4 437 c 4 109 c 5 -196 c 4 -435 c 5 -86 c
4 -6 c 4 -4 c 5 0 c 4 -1 c 4 1 c 5 0 c 4 1 c 5 3 c 4 14 c 4 41 c 5 32 c 4 -7 c 4 -47 c 5 -27 c 4 -6 c 4 -2 c 5 -1 c 4 -1 c 5 -1 c
4 0 c 4 0 c 5 0 c 4 0 c 4 1 c 5 0 c 4 -1 c 5 1 c 4 -1 c 4 0 c 5 -1 c 4 1 c 4 0 c 5 0 c 4 0 c 5 0 c 4 0 c 4 0 c 5 0 c 4 0 c 4 0 c
5 0 c 4 1 c 5 0 c 4 0 c 4 1 c 5 0 c 4 1 c 4 0 c 5 1 c 4 0 c 4 1 c 5 1 c 4 1 c 5 1 c 4 4 c 4 3 c 5 3 c 4 3 c 4 21 c 5 121 c 4 1534 c
5 4170 c 4 168 c 4 -1185 c 5 -4047 c 4 -730 c 4 -47 c 5 -5 c 4 -3 c 5 0 c 4 -1 c 4 -4 c 5 -4 c 4 3 c 4 33 c 5 52 c 4 5 c 4 -40 c
5 -53 c 4 -5 c 5 -1 c 4 0 c 4 0 c 5 0 c 4 0 c 4 0 c 5 0 c 4 1 c 5 6 c 4 9 c 4 0 c 5 -9 c 4 -6 c 4 5 c 5 10 c 4 2 c 5 -5 c 4 -10 c
4 17 c 5 82 c 4 40 c 4 -22 c 5 -94 c 4 -26 c 5 -1 c 4 0 c 4 0 c 5 0 c 4 0 c 4 0 c 5 1 c 4 20 c 4 104 c 5 43 c 4 -19 c 5 -113 c
4 -34 c 4 -1 c 5 0 c 4 1 c 4 0 c 5 -1 c 4 -1 c 5 1 c 4 1 c 4 3 c 5 2 c 4 1 c 4 -2 c 5 -2 c 4 -1 c 5 1 c 4 1 c 4 3 c 5 1 c 4 1 c
4 -2 c 5 2 c 4 5 c 5 16 c 4 131 c 4 1725 c 5 2696 c 4 342 c 4 -2166 c 5 -2445 c 4 -275 c 4 -21 c 5 -2 c 4 -3 c 5 -4 c 4 -2 c 4 4 c
5 27 c 4 12 c 4 -7 c 5 -31 c 4 -9 c 5 -2 c 4 0 c 4 0 c 5 -1 c 4 1 c 4 0 c 5 0 c 4 0 c 5 -1 c 4 0 c 4 0 c 5 0 c 4 0 c 4 1 c 5 8 c
4 82 c 5 101 c 4 8 c 4 -97 c 5 -95 c 4 -4 c 4 6 c 5 26 c 4 10 c 4 -10 c 5 -29 c 4 -7 c 5 0 c 4 -1 c 4 0 c 5 0 c 4 0 c 4 0 c 5 0 c
4 0 c 5 0 c 4 1 c 4 0 c 5 0 c 4 -1 c 4 -1 c 5 0 c 4 3 c 5 10 c 4 4 c 4 -2 c 5 -10 c 4 -3 c 4 -1 c 5 -1 c 4 0 c 4 0 c 5 0 c 4 3 c
5 1 c 4 -1 c 4 -1 c 5 -1 c 4 -1 c 4 0 c 5 1 c 4 0 c 5 0 c 4 0 c 4 0 c 5 0 c 4 0 c 4 0 c 5 -1 c 4 1 c 5 0 c 4 0 c 4 0 c 5 0 c 4 0 c
4 0 c 5 0 c 4 0 c 5 0 c 4 3 c 4 12 c 5 13 c 4 -1 c 4 -12 c 5 -12 c 4 -2 c 4 0 c 5 -1 c 4 1 c 5 0 c 4 1 c 4 1 c 5 1 c 4 0 c 4 1 c
5 1 c 4 6 c 5 22 c 4 193 c 4 473 c 5 173 c 4 -215 c 4 -487 c 5 5 c 4 161 c 5 7 c 4 -167 c 4 -155 c 5 -17 c 4 1 c 4 0 c 5 -1 c 4 -2 c
5 -1 c 4 -1 c 4 0 c 5 1 c 4 1 c 4 0 c 5 -1 c 4 0 c 4 0 c 5 3 c 4 8 c 5 29 c 4 13 c 4 -7 c 5 -36 c 4 -10 c 4 3 c 5 7 c 4 4 c 5 -2 c
4 -9 c 4 -3 c 5 0 c 4 1 c 4 1 c 5 2 c 4 0 c 5 -3 c 4 -2 c 4 0 c 5 3 c 4 4 c 4 -1 c 5 -3 c 4 -3 c 5 0 c 4 0 c 4 0 c 5 0 c 4 0 c 4 0 c
5 0 c 4 0 c 4 0 c 5 3 c 4 2 c 5 0 c 4 -2 c 4 -1 c 5 0 c 4 -1 c 4 0 c 5 1 c 4 9 c 5 6 c 4 0 c 4 -7 c 5 3 c 4 5 c 4 7 c 5 77 c 4 274 c
5 185 c 4 -63 c 4 -316 c 5 -156 c 4 -20 c 4 -3 c 5 0 c 4 1 c 5 0 c 4 -1 c 4 -1 c 5 0 c 4 -2 c 4 -2 c 5 0 c 4 0 c 4 1 c 5 3 c 4 3 c
5 2 c 4 -1 c 4 -4 c 5 -2 c 4 -2 c 4 0 c 5 0 c 4 1 c 5 0 c 4 -1 c 4 0 c 5 0 c 4 0 c 4 1 c 5 0 c 4 4 c 5 12 c 4 6 c 4 -4 c 5 -15 c
4 -5 c 4 0 c 5 1 c 4 0 c 4 -1 c 5 0 c 4 1 c 5 0 c 4 0 c 4 1 c 5 0 c 4 -1 c 4 0 c 5 0 c 4 1 c 5 0 c 4 -2 c 4 1 c 5 1 c 4 0 c 4 0 c
5 -1 c 4 -1 c 5 0 c 4 0 c 4 0 c 5 0 c 4 0 c 4 1 c 5 1 c 4 0 c 5 -1 c 4 0 c 4 0 c 5 1 c 4 1 c 4 0 c 5 -1 c 4 -1 c 4 0 c 5 1 c 4 2 c
5 2 c 4 1 c 4 11 c 5 22 c 4 5 c 4 -15 c 5 -12 c 4 115 c 5 316 c 4 99 c 4 -146 c 5 -307 c 4 -85 c 4 -5 c 5 -1 c 4 0 c 5 0 c 4 -1 c
4 -1 c 5 -1 c 4 1 c 4 -1 c 5 0 c 4 0 c 5 -1 c 4 1 c 4 0 c 5 -1 c 4 1 c 4 0 c 5 9 c 4 30 c 4 14 c 5 -7 c 4 -32 c 5 -5 c 4 73 c
4 154 c 5 46 c 4 -73 c 4 -151 c 5 -39 c 4 3 c 5 11 c 4 1 c 4 -14 c 5 -19 c 4 -2 c 4 0 c 5 1 c 4 1 c 5 0 c 4 -2 c 4 0 c 5 0 c 4 0 c
4 0 c 5 -1 c 4 1 c 5 0 c 4 0 c 4 0 c 5 0 c 4 2 c 4 5 c 5 4 c 4 0 c 4 -3 c 5 -2 c 4 3 c 5 1 c 4 -3 c 4 -3 c 5 -2 c 4 -1 c 4 0 c 5 0 c
4 0 c 5 1 c 4 5 c 4 11 c 5 2 c 4 -6 c 4 -10 c 5 0 c 4 19 c 5 30 c 4 7 c 4 -22 c 5 -32 c 4 -5 c 4 0 c 5 0 c 4 0 c 5 0 c 4 1 c 4 1 c
5 3 c 4 1 c 4 0 c 5 -1 c 4 1 c 4 1 c 5 3 c 4 3 c 5 11 c 4 56 c 4 733 c 5 2491 c 4 1118 c 4 -730 c 5 -2605 c 4 -1000 c 5 -64 c 4 -8 c
4 -31 c 5 23 c 4 -2 c 4 -1 c 5 0 c 4 0 c 5 2 c 4 0 c 4 -1 c 5 -2 c 4 -1 c 4 0 c 5 -1 c 4 0 c 4 0 c 5 0 c 4 0 c 5 0 c 4 -1 c 4 1 c
5 0 c 4 0 c 4 1 c 5 0 c 4 0 c 5 0 c 4 0 c 4 1 c 5 0 c 4 0 c 4 2 c 5 4 c 4 19 c 5 223 c 4 818 c 4 367 c 5 -213 c 4 -865 c 4 -318 c
5 -21 c 4 25 c 5 10 c 4 -14 c 4 -30 c 5 -7 c 4 0 c 4 12 c 5 23 c 4 5 c 4 -15 c 5 -23 c 4 -4 c 5 4 c 4 3 c 4 -1 c 5 -4 c 4 -2 c
4 -1 c 5 0 c 4 0 c 5 1 c 4 -1 c 4 0 c 5 0 c 4 0 c 4 0 c 5 0 c 4 0 c 5 -1 c 4 0 c 4 0 c 5 0 c 4 0 c 4 0 c 5 0 c 4 0 c 5 1 c 4 0 c
4 0 c 5 0 c 4 0 c 4 -1 c 5 0 c 4 -1 c 4 1 c 5 -1 c 4 1 c 5 0 c 4 0 c 4 -1 c 5 1 c 4 1 c 4 4 c 5 3 c 4 -2 c 5 -4 c 4 -3 c 4 0 c 5 0 c
4 0 c 4 0 c 5 1 c 4 -1 c 5 1 c 4 -1 c 4 0 c 5 3 c 4 2 c 4 0 c 5 -3 c 4 -2 c 5 0 c 4 0 c 4 0 c 5 0 c 4 0 c 4 0 c 5 0 c 4 0 c 4 0 c
5 1 c 4 0 c 5 1 c 4 1 c 4 -1 c 5 -1 c 4 -1 c 4 0 c 5 0 c 4 0 c 5 0 c 4 2 c 4 1 c 5 1 c 4 1 c 4 10 c 5 20 c 4 10 c 5 -9 c 4 -10 c
4 85 c 5 102 c 4 15 c 4 -94 c 5 -115 c 4 -6 c 4 62 c 5 47 c 4 -3 c 5 -63 c 4 -49 c 4 -5 c 5 -1 c 4 0 c 4 -1 c 5 0 c 4 0 c 5 0 c
4 0 c 4 0 c 5 1 c 4 6 c 4 11 c 5 9 c 4 0 c 5 -9 c 4 -32 c 4 18 c 5 -2 c 4 -2 c 4 0 c 5 0 c 4 0 c 5 1 c 4 1 c 4 0 c 5 0 c 4 0 c 4 2 c
5 4 c 4 14 c 4 77 c 5 314 c 4 199 c 5 -63 c 4 -338 c 4 -183 c 5 -22 c 4 1 c 4 1 c 5 -1 c 4 -3 c 5 -1 c 4 -1 c 4 1 c 5 0 c 4 0 c
4 -1 c 5 0 c 4 0 c 5 0 c 4 1 c 4 3 c 5 1 c 4 0 c 4 -3 c 5 -2 c 4 2 c 5 4 c 4 16 c 4 24 c 5 9 c 4 2 c 4 -16 c 5 -12 c 4 -18 c 4 -2 c
5 13 c 4 12 c 5 -2 c 4 -7 c 4 -5 c 5 6 c 4 101 c 4 795 c 5 956 c 4 111 c 5 -867 c 4 -898 c 4 -196 c 5 -19 c 4 -2 c 4 -2 c 5 -1 c
4 0 c 5 12 c 4 30 c 4 7 c 5 -12 c 4 -31 c 4 -7 c 5 -1 c 4 0 c 5 1 c 4 0 c 4 2 c 5 7 c 4 3 c 4 -1 c 5 -10 c 4 -3 c 4 0 c 5 1 c 4 1 c
5 -1 c 4 -1 c 4 0 c 5 0 c 4 -1 c 4 0 c 5 -1 c 4 1 c 5 0 c 4 -1 c 4 1 c 5 2 c 4 1 c 4 0 c 5 -1 c 4 0 c 5 0 c 4 -1 c 4 -1 c 5 0 c
4 0 c 4 4 c 5 3 c 4 1 c 5 -4 c 4 -3 c 4 -1 c 5 1 c 4 -1 c 4 0 c 5 0 c 4 0 c 4 0 c 5 -1 c 4 0 c 5 1 c 4 0 c 4 0 c 5 0 c 4 -1 c 4 1 c
5 4 c 4 6 c 5 16 c 4 18 c 4 0 c 5 -15 c 4 -20 c 4 -4 c 5 -1 c 4 -3 c 5 -2 c 4 0 c 4 0 c 5 0 c 4 0 c 4 0 c 5 0 c 4 0 c 4 0 c 5 0 c
4 0 c 5 0 c 4 4 c 4 10 c 5 6 c 4 14 c 4 9 c 5 -4 c 4 -19 c 5 -16 c 4 -2 c 4 0 c 5 0 c 4 0 c 4 -1 c 5 0 c 4 1 c 5 1 c 4 4 c 4 27 c
5 46 c 4 13 c 4 -25 c 5 -50 c 4 -13 c 5 -3 c 4 0 c 4 0 c 5 0 c 4 0 c 4 0 c 5 -1 c 4 3 c 4 10 c 5 5 c 4 -2 c 5 -10 c 4 -4 c 4 -2 c
5 1 c 4 2 c 4 1 c 5 0 c 4 -2 c 5 -1 c 4 3 c 4 14 c 5 115 c 4 346 c 4 133 c 5 -108 c 4 -349 c 5 -138 c 4 -13 c 4 -2 c 5 0 c 4 0 c
4 -18 c 5 50 c 4 38 c 5 6 c 4 -28 c 4 -42 c 5 -6 c 4 6 c 4 17 c 5 5 c 4 -5 c 4 -17 c 5 -2 c 4 1 c 5 0 c 4 -3 c 4 0 c 5 -1 c 4 -1 c
4 -1 c 5 0 c 4 0 c 5 0 c 4 -1 c 4 1 c 5 0 c 4 1 c 4 -1 c 5 0 c 4 0 c 5 1 c 4 0 c 4 0 c 5 2 c 4 3 c 4 21 c 5 180 c 4 181 c 5 36 c
4 -136 c 4 225 c 5 464 c 4 77 c 4 -399 c 5 -495 c 4 -96 c 4 49 c 5 43 c 4 0 c 5 -72 c 4 -63 c 4 -14 c 5 -4 c 4 -1 c 4 0 c 5 -1 c
4 -1 c 5 0 c 4 -1 c 4 2 c 5 1 c 4 1 c 4 0 c 5 5 c 4 8 c 5 1 c 4 -7 c 4 -8 c 5 -2 c 4 3 c 4 2 c 5 -1 c 4 -3 c 5 -2 c 4 1 c 4 2 c
5 0 c 4 1 c 4 5 c 5 2 c 4 -1 c 4 -5 c 5 -2 c 4 8 c 5 125 c 4 158 c 4 25 c 5 -111 c 4 -165 c 4 -37 c 5 -1 c 4 2 c 5 0 c 4 -2 c 4 -2 c
5 -1 c 4 8 c 4 100 c 5 230 c 4 79 c 5 -79 c 4 -252 c 4 -81 c 5 -1 c 4 1 c 4 -1 c 5 -4 c 4 -2 c 4 0 c 5 4 c 4 37 c 5 50 c 4 9 c
4 -36 c 5 -51 c 4 -10 c 4 0 c 5 0 c 4 -1 c 5 -2 c 4 0 c 4 1 c 5 2 c 4 2 c 4 1 c 5 0 c 4 0 c 5 24 c 4 88 c 4 33 c 5 -13 c 4 -79 c
4 4 c 5 56 c 4 3 c 5 -42 c 4 -65 c 4 -8 c 5 -1 c 4 -1 c 4 -1 c 5 0 c 4 -1 c 4 0 c 5 1 c 4 0 c 5 0 c 4 -1 c 4 0 c 5 0 c 4 1 c 4 0 c
5 1 c 4 2 c 5 6 c 4 42 c 4 44 c 5 4 c 4 -40 c 4 -51 c 5 -3 c 4 33 c 5 101 c 4 53 c 4 -11 c 5 -105 c 4 -67 c 4 -7 c 5 -3 c 4 1 c
5 -1 c 4 0 c 4 -1 c 5 0 c 4 0 c 4 1 c 5 0 c 4 1 c 4 0 c 5 3 c 4 2 c 5 1 c 4 -3 c 4 -2 c 5 -1 c 4 -2 c 4 0 c 5 1 c 4 0 c 5 0 c 4 0 c
4 -1 c 5 0 c 4 0 c 4 0 c 5 1 c 4 0 c 5 0 c 4 1 c 4 2 c 5 1 c 4 0 c 4 -2 c 5 0 c 4 0 c 5 -1 c 4 0 c 4 -2 c 5 1 c 4 13 c 4 80 c 5 40 c
4 -8 c 4 -79 c 5 -44 c 4 -3 c 5 0 c 4 0 c 4 -1 c 5 1 c 4 2 c 4 0 c 5 0 c 4 -2 c 5 -1 c 4 -1 c 4 0 c 5 0 c 4 2 c 4 0 c 5 0 c 4 0 c
5 6 c 4 4 c 4 1 c 5 -6 c 4 -4 c 4 -1 c 5 -1 c 4 1 c 5 0 c 4 -1 c 4 1 c 5 0 c 4 3 c 4 1 c 5 0 c 4 -2 c 4 -1 c 5 0 c 4 1 c 5 -1 c
4 2 c 4 4 c 5 0 c 4 -2 c 4 -5 c 5 -1 c 4 0 c 5 1 c 4 0 c 4 -1 c 5 -1 c 4 0 c 4 1 c 5 1 c 4 1 c 5 0 c 4 -1 c 4 -2 c 5 -1 c 4 1 c
4 1 c 5 0 c 4 -1 c 4 -1 c 5 0 c 4 0 c 5 1 c 4 1 c 4 0 c 5 0 c 4 0 c 4 0 c 5 -1 c 4 0 c 5 0 c 4 0 c 4 -1 c 5 -1 c 4 1 c 4 1 c 5 2 c
4 0 c 5 0 c 4 0 c 4 -1 c 5 0 c 4 -1 c 4 0 c 5 1 c 4 -1 c 5 0 c 4 -1 c 4 -1 c 5 0 c 4 0 c 4 0 c 5 1 c 4 2 c 4 7 c 5 1 c 4 -1 c 5 -7 c
4 -3 c 4 2 c 5 3 c 4 1 c 4 -2 c 5 -3 c 4 -1 c 5 1 c 4 1 c 4 2 c 5 0 c 4 -1 c 4 1 c 5 3 c 4 5 c 5 -1 c 4 -4 c 4 -4 c 5 0 c 4 -1 c
4 0 c 5 0 c 4 0 c 5 -1 c 4 0 c 4 0 c 5 1 c 4 1 c 4 1 c 5 0 c 4 -2 c 4 -1 c 5 1 c 4 1 c 5 0 c 4 -1 c 4 -1 c 5 -1 c 4 0 c 4 1 c 5 2 c
4 1 c 5 0 c 4 0 c 4 0 c 5 6 c 4 68 c 4 60 c 5 14 c 4 -58 c 5 -73 c 4 -15 c 4 -2 c 5 1 c 4 1 c 4 4 c 5 18 c 4 247 c 5 882 c 4 292 c
4 -194 c 5 -892 c 4 -317 c 4 -27 c 5 -5 c 4 -6 c 4 0 c 5 2 c 4 3 c 5 -1 c 4 -3 c 4 -4 c 5 0 c 4 0 c 4 1 c 5 0 c 4 -1 c 5 0 c 4 0 c
4 0 c 5 0 c 4 0 c 4 2 c 5 3 c 4 21 c 5 262 c 4 636 c 4 154 c 5 -225 c 4 -663 c 4 -171 c 5 -15 c 4 -3 c 4 0 c 5 -1 c 4 0 c 5 -1 c
4 0 c 4 0 c 5 0 c 4 -1 c 4 -1 c 5 1 c 4 1 c 5 8 c 4 7 c 4 2 c 5 -5 c 4 -8 c 4 -2 c 5 -3 c 4 -1 c 5 0 c 4 1 c 4 1 c 5 0 c 4 0 c 4 0 c
5 1 c 4 0 c 5 0 c 4 -2 c 4 0 c 5 12 c 4 21 c 4 5 c 5 -10 c 4 -21 c 4 -5 c 5 0 c 4 0 c 5 1 c 4 2 c 4 0 c 5 1 c 4 -1 c 4 0 c 5 1 c
4 2 c 5 2 c 4 6 c 4 11 c 5 94 c 4 1129 c 4 2082 c 5 443 c 4 -881 c 5 -2268 c 4 -560 c 4 -32 c 5 33 c 4 540 c 4 2073 c 5 774 c
4 -350 c 5 -1975 c 4 -1048 c 4 -60 c 5 -6 c 4 -3 c 4 -3 c 5 -2 c 4 -2 c 4 -1 c 5 -1 c 4 -1 c 5 0 c 4 0 c 4 0 c 5 -1 c 4 0 c 4 -1 c
5 0 c 4 -1 c 5 0 c 4 1 c 4 0 c 5 0 c 4 -1 c 4 0 c 5 -1 c 4 0 c 5 0 c 4 0 c 4 0 c 5 1 c 4 0 c 4 0 c 5 0 c 4 0 c 5 1 c 4 0 c 4 0 c
5 -1 c 4 -1 c 4 0 c 5 -1 c 4 1 c 4 -1 c 5 1 c 4 -1 c 5 0 c 4 0 c 4 0 c 5 0 c 4 0 c 4 0 c 5 0 c 4 0 c 5 -1 c 4 0 c 4 0 c 5 1 c 4 0 c
4 0 c 5 -1 c 4 0 c 5 0 c 4 0 c 4 0 c 5 1 c 4 1 c 4 1 c 5 -1 c 4 -1 c 5 0 c 4 -1 c 4 0 c 5 1 c 4 4 c 4 21 c 5 11 c 4 -3 c 4 -20 c
5 -12 c 4 -2 c 5 0 c 4 1 c 4 0 c 5 0 c 4 0 c 4 0 c 5 1 c 4 3 c 5 2 c 4 -1 c 4 -4 c 5 -2 c 4 1 c 4 1 c 5 6 c 4 28 c 5 23 c 4 5 c
4 -17 c 5 -21 c 4 -5 c 4 -2 c 5 -1 c 4 -2 c 4 1 c 5 -1 c 4 1 c 5 10 c 4 135 c 4 380 c 5 131 c 4 -98 c 4 -390 c 5 -161 c 4 -12 c
5 -3 c 4 0 c 4 1 c 5 2 c 4 19 c 4 17 c 5 -1 c 4 -19 c 5 -19 c 4 -3 c 4 -1 c 5 -1 c 4 0 c 4 1 c 5 0 c 4 -1 c 5 0 c 4 1 c 4 1 c 5 0 c
4 0 c 4 -1 c 5 -1 c 4 -1 c 4 0 c 5 0 c 4 0 c 5 -1 c 4 0 c 4 2 c 5 -1 c 4 0 c 4 -1 c 5 1 c 4 1 c 5 0 c 4 -1 c 4 -1 c 5 0 c 4 2 c
4 0 c 5 8 c 4 41 c 5 28 c 4 -2 c 4 -39 c 5 -34 c 4 -4 c 4 0 c 5 1 c 4 0 c 5 -1 c 4 -2 c 4 0 c 5 2 c 4 1 c 4 3 c 5 1 c 4 -1 c 4 -1 c
5 0 c 4 -1 c 5 -1 c 4 -2 c 4 0 c 5 2 c 4 2 c 4 0 c 5 -1 c 4 -2 c 5 0 c 4 2 c 4 3 c 5 2 c 4 2 c 4 5 c 5 9 c 4 0 c 5 -4 c 4 -9 c
4 -2 c 5 1 c 4 1 c 4 0 c
5 0 c 4 -2 c 5 -2 c 4 0 c 4 -21 c 5 0 c 4 20 c 4 0 c 5 3 c 4 3 c 4 3 c 5 -1 c 4 -5 c 5 -2 c 4 -1 c 4 1 c 5 3 c 4 0 c 4 -1 c 5 -2 c
4 -1 c 5 0 c 4 1 c 4 0 c 5 0 c 4 0 c 4 0 c 5 0 c 4 1 c 5 0 c 4 0 c 4 0 c 5 -1 c 4 1 c 4 1 c 5 0 c 4 4 c 5 31 c 4 206 c 4 263 c
5 30 c 4 -169 c 4 -294 c 5 -67 c 4 -2 c
0 -126 3315 418 l 54 0 3315 418 l 18 -6 c 6 -6 c 6 -12 c 0 -12 c -6 -12 c -6 -6 c -18 -6 c -54 0 c 42 -66 3357 358 l
-12 -6 3465 376 l -12 -12 c -6 -18 c 0 -12 c 6 -18 c 12 -12 c 12 -6 c 18 0 c 12 6 c 12 12 c 6 18 c 0 12 c -6 18 c -12 12 c -12 6 c
-18 0 c 24 -84 3549 376 l -24 -84 3597 376 l 24 -84 3597 376 l -24 -84 3645 376 l 108 0 3687 364 l 108 0 3687 328 l
-18 -6 4059 418 l -6 -12 c 0 -12 c 6 -12 c 12 -6 c 24 -6 c 18 -6 c 12 -12 c 6 -12 c 0 -18 c -6 -12 c -6 -6 c -18 -6 c -24 0 c
-18 6 c -6 6 c -6 12 c 0 18 c 6 12 c 12 12 c 18 6 c 24 6 c 12 6 c 6 12 c 0 12 c -6 12 c -18 6 c -24 0 c -12 -6 4275 376 l -12 -12 c
-6 -18 c 0 -12 c 6 -18 c 12 -12 c 12 -6 c 18 0 c 12 6 c 12 12 c 6 18 c 0 12 c -6 18 c -12 12 c -12 6 c -18 0 c -12 0 4401 418 l
-12 -6 c -6 -18 c 0 -102 c 42 0 4353 376 l 0 6 4533 388 l 6 12 c 6 6 c 12 6 c 24 0 c 12 -6 c 6 -6 c 6 -12 c 0 -12 c -6 -12 c
-12 -18 c -60 -60 c 84 0 c -18 -6 4683 418 l -12 -18 c -6 -30 c 0 -18 c 6 -30 c 12 -18 c 18 -6 c 12 0 c 18 6 c 12 18 c 6 30 c 0 18 c
-6 30 c -12 18 c -18 6 c -12 0 c 12 6 5169 394 l 18 18 c 0 -126 c -6 -6 5282 376 l 6 -6 c 6 6 c -6 6 c -6 -6 5282 304 l 6 -6 c 6 6 c
-6 6 c -48 -126 5462 418 l 48 -126 5462 418 l 60 0 5432 334 l 0 -84 5540 376 l 6 18 5540 340 l 12 12 c 12 6 c 18 0 c
-12 12 5684 358 l -12 6 c -18 0 c -12 -6 c -12 -12 c -6 -18 c 0 -12 c 6 -18 c 12 -12 c 12 -6 c 18 0 c 12 6 c 12 12 c
108 0 5726 346 l 12 6 5894 394 l 18 18 c 0 -126 c 66 0 6008 418 l -36 -48 c 18 0 c 12 -6 c 6 -6 c 6 -18 c 0 -12 c -6 -18 c -12 -12 c
-18 -6 c -18 0 c -18 6 c -6 6 c -6 12 c -60 -126 6200 418 l 84 0 6116 418 l -6 -6 6248 304 l 6 -6 c 6 6 c -6 6 c -12 0 6338 418 l
-12 -6 c -6 -18 c 0 -102 c 42 0 6290 376 l 6 -6 6368 418 l 6 6 c -6 6 c -6 -6 c 0 -84 6374 376 l 0 -102 6428 418 l 6 -18 c 12 -6 c
12 0 c 42 0 6410 376 l -6 12 6554 358 l -18 6 c -18 0 c -18 -6 c -6 -12 c 6 -12 c 12 -6 c 30 -6 c 12 -6 c 6 -12 c 0 -6 c -6 -12 c
-18 -6 c -18 0 c -18 6 c -6 12 c 0 -192 6884 442 l 0 -192 6890 442 l 42 0 6884 442 l 42 0 6884 250 l 0 6 6968 388 l 6 12 c 6 6 c
12 6 c 24 0 c 12 -6 c 6 -6 c 6 -12 c 0 -12 c -6 -12 c -12 -18 c -60 -60 c 84 0 c -6 -6 7094 376 l 6 -6 c 6 6 c -6 6 c
-6 -6 7094 304 l 6 -6 c 6 6 c -6 6 c 0 -192 7274 442 l 0 -192 7280 442 l 42 0 7238 442 l 42 0 7238 250 l
0 -250 810 1783 l -7 -4 778 1904 l -4 -11 c 0 -8 c 4 -11 c 11 -8 c 19 -4 c 19 0 c 15 4 c 7 8 c 4 11 c 0 4 c -4 11 c -7 8 c -12 4 c
-3 0 c -12 -4 c -7 -8 c -4 -11 c 0 -4 c 4 -11 c 7 -8 c 12 -4 c -4 7 782 1942 l -11 12 c 79 0 c 4 -12 767 2025 l 7 -3 c 8 0 c 7 3 c
4 8 c 4 15 c 4 11 c 7 8 c 8 4 c 11 0 c 8 -4 c 3 -4 c 4 -11 c 0 -15 c -4 -12 c -3 -3 c -8 -4 c -11 0 c -8 4 c -7 7 c -4 12 c -4 15 c
-4 7 c -7 4 c -8 0 c -7 -4 c -4 -11 c 0 -15 c 4 -11 767 2104 l 11 -8 c 19 -4 c 11 0 c 19 4 c 11 8 c 4 11 c 0 8 c -4 11 c -11 8 c
-19 3 c -11 0 c -19 -3 c -11 -8 c -4 -11 c 0 -8 c 3 -4 839 2165 l 4 4 c -4 3 c -3 -3 c 79 -38 767 2248 l 0 53 767 2195 l
4 -11 767 2293 l 11 -8 c 19 -4 c 11 0 c 19 4 c 11 8 c 4 11 c 0 8 c -4 11 c -11 8 c -19 3 c -11 0 c -19 -3 c -11 -8 c -4 -11 c 0 -8 c
0 -37 767 2391 l 34 -4 c -4 4 c -4 11 c 0 11 c 4 12 c 8 7 c 11 4 c 7 0 c 12 -4 c 7 -7 c 4 -12 c 0 -11 c -4 -11 c -3 -4 c -8 -4 c
0 -249 987 7019 l -7 -4 954 7140 l -4 -11 c 0 -8 c 4 -11 c 11 -8 c 19 -3 c 19 0 c 15 3 c 8 8 c 4 11 c 0 4 c -4 11 c -8 8 c -11 4 c
-4 0 c -11 -4 c -8 -8 c -4 -11 c 0 -4 c 4 -11 c 8 -8 c 11 -3 c -4 7 958 7178 l -11 12 c 80 0 c 4 -11 943 7261 l 7 -4 c 8 0 c 8 4 c
3 7 c 4 15 c 4 12 c 7 7 c 8 4 c 11 0 c 8 -4 c 4 -4 c 4 -11 c 0 -15 c -4 -11 c -4 -4 c -8 -4 c -11 0 c -8 4 c -7 7 c -4 12 c -4 15 c
-3 7 c -8 4 c -8 0 c -7 -4 c -4 -11 c 0 -15 c -4 0 962 7321 l -7 4 c -4 4 c -4 8 c 0 15 c 4 7 c 4 4 c 7 4 c 8 0 c 7 -4 c 12 -8 c
38 -37 c 0 53 c 4 -4 1015 7401 l 4 4 c -4 4 c -4 -4 c -7 -4 954 7480 l -4 -11 c 0 -7 c 4 -12 c 11 -7 c 19 -4 c 19 0 c 15 4 c 8 7 c
4 12 c 0 3 c -4 12 c -8 7 c -11 4 c -4 0 c -11 -4 c -8 -7 c -4 -12 c 0 -3 c 4 -12 c 8 -7 c 11 -4 c -4 0 962 7510 l -7 4 c -4 4 c
-4 8 c 0 15 c 4 7 c 4 4 c 7 4 c 8 0 c 7 -4 c 12 -8 c 38 -37 c 0 53 c -4 0 962 7586 l -7 4 c -4 4 c -4 7 c 0 15 c 4 8 c 4 4 c 7 3 c
8 0 c 7 -3 c 12 -8 c 38 -38 c 0 53 c 0 -250 1496 2833 l -7 -4 1463 2954 l -4 -11 c 0 -8 c 4 -11 c 11 -8 c 19 -4 c 19 0 c 15 4 c
8 8 c 3 11 c 0 4 c -3 11 c -8 8 c -11 4 c -4 0 c -11 -4 c -8 -8 c -4 -11 c 0 -4 c 4 -11 c 8 -8 c 11 -4 c -4 7 1467 2992 l -11 11 c
79 0 c 4 -12 1452 3075 l 7 -3 c 8 0 c 8 3 c 3 8 c 4 15 c 4 11 c 7 8 c 8 4 c 11 0 c 8 -4 c 4 -4 c 3 -11 c 0 -15 c -3 -12 c -4 -3 c
-8 -4 c -11 0 c -8 4 c -7 7 c -4 12 c -4 15 c -3 7 c -8 4 c -8 0 c -7 -4 c -4 -11 c 0 -15 c 4 -11 1452 3150 l 7 -4 c 8 0 c 8 4 c
3 8 c 4 15 c 4 11 c 7 8 c 8 3 c 11 0 c 8 -3 c 4 -4 c 3 -12 c 0 -15 c -3 -11 c -4 -4 c -8 -4 c -11 0 c -8 4 c -7 8 c -4 11 c -4 15 c
-3 8 c -8 4 c -8 0 c -7 -4 c -4 -12 c 0 -15 c 4 -4 1524 3215 l 3 4 c -3 3 c -4 -3 c -4 8 1467 3256 l -11 11 c 79 0 c
-4 0 1471 3324 l -7 4 c -4 4 c -4 7 c 0 15 c 4 8 c 4 4 c 7 4 c 8 0 c 7 -4 c 12 -8 c 37 -38 c 0 53 c 0 -37 1452 3441 l 34 -4 c -4 4 c
-3 11 c 0 11 c 3 12 c 8 7 c 11 4 c 8 0 c 11 -4 c 8 -7 c 3 -12 c 0 -11 c -3 -11 c -4 -4 c -8 -4 c 0 -249 1590 1309 l
-7 -3 1558 1430 l -4 -12 c 0 -7 c 4 -12 c 11 -7 c 19 -4 c 19 0 c 15 4 c 7 7 c 4 12 c 0 3 c -4 12 c -7 7 c -12 4 c -3 0 c -12 -4 c
-7 -7 c -4 -12 c 0 -3 c 4 -12 c 7 -7 c 12 -4 c -4 8 1562 1468 l -11 11 c 79 0 c 4 -11 1547 1551 l 7 -4 c 8 0 c 7 4 c 4 7 c 4 16 c
4 11 c 7 7 c 8 4 c 11 0 c 8 -4 c 3 -3 c 4 -12 c 0 -15 c -4 -11 c -3 -4 c -8 -4 c -11 0 c -8 4 c -7 8 c -4 11 c -4 15 c -4 8 c -7 3 c
-8 0 c -7 -3 c -4 -12 c 0 -15 c 12 -4 1573 1657 l 7 -7 c 4 -12 c 0 -3 c -4 -12 c -7 -7 c -12 -4 c -4 0 c -11 4 c -7 7 c -4 12 c
0 3 c 4 12 c 7 7 c 15 4 c 19 0 c 19 -4 c 11 -7 c 4 -12 c 0 -7 c -4 -12 c -7 -3 c 3 -4 1619 1691 l 4 4 c -4 4 c -3 -4 c
-4 7 1562 1733 l -11 12 c 79 0 c 53 -38 1547 1835 l 0 57 c 79 0 1547 1835 l 0 -38 1547 1918 l 34 -4 c -4 4 c -4 11 c 0 12 c 4 11 c
8 8 c 11 3 c 7 0 c 12 -3 c 7 -8 c 4 -11 c 0 -12 c -4 -11 c -3 -4 c -8 -4 c 0 -249 1847 3202 l -8 -4 1815 3323 l -3 -11 c 0 -8 c
3 -11 c 12 -7 c 19 -4 c 18 0 c 16 4 c 7 7 c 4 11 c 0 4 c -4 12 c -7 7 c -12 4 c -4 0 c -11 -4 c -7 -7 c -4 -12 c 0 -4 c 4 -11 c
7 -7 c 11 -4 c -4 7 1819 3361 l -11 12 c 79 0 c 11 -4 1830 3474 l 8 -7 c 4 -11 c 0 -4 c -4 -12 c -8 -7 c -11 -4 c -4 0 c -11 4 c
-8 7 c -3 12 c 0 4 c 3 11 c 8 7 c 15 4 c 19 0 c 19 -4 c 11 -7 c 4 -11 c 0 -8 c -4 -11 c -7 -4 c -4 8 1819 3512 l -11 11 c 79 0 c
4 -4 1875 3584 l 4 4 c -4 4 c -4 -4 c 11 -4 1830 3663 l 8 -7 c 4 -11 c 0 -4 c -4 -12 c -8 -7 c -11 -4 c -4 0 c -11 4 c -8 7 c
-3 12 c 0 4 c 3 11 c 8 7 c 15 4 c 19 0 c 19 -4 c 11 -7 c 4 -11 c 0 -8 c -4 -11 c -7 -4 c 3 -11 1804 3712 l 12 -8 c 19 -3 c 11 0 c
19 3 c 11 8 c 4 11 c 0 8 c -4 11 c -11 8 c -19 4 c -11 0 c -19 -4 c -12 -8 c -3 -11 c 0 -8 c 0 -38 1804 3811 l 34 -4 c -4 4 c
-4 11 c 0 12 c 4 11 c 7 7 c 12 4 c 7 0 c 12 -4 c 7 -7 c 4 -11 c 0 -12 c -4 -11 c -4 -4 c -7 -4 c 0 -250 2030 1736 l
-7 -4 1997 1857 l -4 -11 c 0 -8 c 4 -11 c 11 -8 c 19 -4 c 19 0 c 15 4 c 8 8 c 3 11 c 0 4 c -3 11 c -8 8 c -11 4 c -4 0 c -11 -4 c
-8 -8 c -4 -11 c 0 -4 c 4 -11 c 8 -8 c 11 -4 c -4 7 2001 1895 l -11 11 c 79 0 c 12 -4 2012 2008 l 7 -7 c 4 -12 c 0 -4 c -4 -11 c
-7 -7 c -12 -4 c -3 0 c -12 4 c -7 7 c -4 11 c 0 4 c 4 12 c 7 7 c 15 4 c 19 0 c 19 -4 c 12 -7 c 3 -12 c 0 -7 c -3 -12 c -8 -3 c
0 42 1986 2042 l 30 -23 c 0 11 c 4 8 c 4 4 c 11 3 c 8 0 c 11 -3 c 8 -8 c 3 -11 c 0 -12 c -3 -11 c -4 -4 c -8 -4 c 4 -4 2058 2118 l
3 4 c -3 3 c -4 -3 c 4 -12 1986 2167 l 7 -3 c 8 0 c 7 3 c 4 8 c 4 15 c 4 11 c 7 8 c 8 4 c 11 0 c 8 -4 c 4 -4 c 3 -11 c 0 -15 c
-3 -12 c -4 -3 c -8 -4 c -11 0 c -8 4 c -7 7 c -4 11 c -4 16 c -4 7 c -7 4 c -8 0 c -7 -4 c -4 -11 c 0 -15 c 0 -38 1986 2269 l
34 -4 c -4 4 c -4 11 c 0 12 c 4 11 c 8 7 c 11 4 c 8 0 c 11 -4 c 8 -7 c 3 -11 c 0 -12 c -3 -11 c -4 -4 c -8 -4 c -7 -4 1997 2348 l
-4 -11 c 0 -8 c 4 -11 c 11 -8 c 19 -3 c 19 0 c 15 3 c 8 8 c 3 11 c 0 4 c -3 12 c -8 7 c -11 4 c -4 0 c -11 -4 c -8 -7 c -4 -12 c
0 -4 c 4 -11 c 8 -8 c 11 -3 c 0 -249 2438 4903 l -8 -4 2406 5024 l -4 -11 c 0 -7 c 4 -12 c 11 -7 c 19 -4 c 19 0 c 15 4 c 8 7 c
4 12 c 0 3 c -4 12 c -8 7 c -11 4 c -4 0 c -11 -4 c -8 -7 c -4 -12 c 0 -3 c 4 -12 c 8 -7 c 11 -4 c -3 8 2409 5062 l -12 11 c 80 0 c
11 -3 2421 5175 l 8 -8 c 3 -11 c 0 -4 c -3 -11 c -8 -8 c -11 -4 c -4 0 c -11 4 c -8 8 c -4 11 c 0 4 c 4 11 c 8 8 c 15 3 c 19 0 c
19 -3 c 11 -8 c 4 -11 c 0 -8 c -4 -11 c -8 -4 c 4 -12 2394 5221 l 8 -3 c 7 0 c 8 3 c 3 8 c 4 15 c 4 11 c 8 8 c 7 4 c 12 0 c 7 -4 c
4 -4 c 4 -11 c 0 -15 c -4 -12 c -4 -3 c -7 -4 c -12 0 c -7 4 c -8 7 c -4 12 c -4 15 c -3 7 c -8 4 c -7 0 c -8 -4 c -4 -11 c 0 -15 c
4 -4 2466 5285 l 4 4 c -4 4 c -4 -4 c -4 0 2413 5319 l -7 4 c -4 4 c -4 7 c 0 15 c 4 8 c 4 4 c 7 3 c 8 0 c 7 -3 c 12 -8 c 38 -38 c
0 53 c -4 0 2413 5395 l -7 3 c -4 4 c -4 8 c 0 15 c 4 7 c 4 4 c 7 4 c 8 0 c 7 -4 c 12 -7 c 38 -38 c 0 53 c 0 42 2394 5474 l 30 -23 c
0 11 c 4 8 c 4 4 c 11 3 c 8 0 c 11 -3 c 8 -8 c 4 -11 c 0 -12 c -4 -11 c -4 -4 c -7 -4 c 0 -250 2646 1961 l -8 -4 2614 2082 l
-4 -12 c 0 -7 c 4 -12 c 11 -7 c 19 -4 c 19 0 c 15 4 c 8 7 c 4 12 c 0 4 c -4 11 c -8 8 c -11 3 c -4 0 c -11 -3 c -8 -8 c -3 -11 c
0 -4 c 3 -12 c 8 -7 c 11 -4 c -4 0 2621 2112 l -7 4 c -4 3 c -4 8 c 0 15 c 4 8 c 4 3 c 7 4 c 8 0 c 8 -4 c 11 -7 c 38 -38 c 0 53 c
4 -11 2602 2206 l 11 -8 c 19 -3 c 12 0 c 19 3 c 11 8 c 4 11 c 0 8 c -4 11 c -11 8 c -19 3 c -12 0 c -19 -3 c -11 -8 c -4 -11 c
0 -8 c 4 -12 2602 2282 l 11 -7 c 19 -4 c 12 0 c 19 4 c 11 7 c 4 12 c 0 7 c -4 12 c -11 7 c -19 4 c -12 0 c -19 -4 c -11 -7 c
-4 -12 c 0 -7 c 4 -3 2674 2342 l 4 3 c -4 4 c -4 -4 c 53 -37 2602 2410 l 0 56 c 80 0 2602 2410 l 0 41 2602 2456 l 31 -22 c 0 11 c
3 7 c 4 4 c 11 4 c 8 0 c 11 -4 c 8 -7 c 4 -12 c 0 -11 c -4 -11 c -4 -4 c -7 -4 c -4 0 2621 2527 l -7 4 c -4 4 c -4 8 c 0 15 c 4 7 c
4 4 c 7 4 c 8 0 c 8 -4 c 11 -7 c 38 -38 c 0 53 c 0 -249 2934 7019 l -8 -4 2902 7140 l -3 -11 c 0 -8 c 3 -11 c 12 -8 c 19 -3 c 19 0 c
15 3 c 7 8 c 4 11 c 0 4 c -4 11 c -7 8 c -12 4 c -3 0 c -12 -4 c -7 -8 c -4 -11 c 0 -4 c 4 -11 c 7 -8 c 12 -3 c -4 0 2910 7170 l
-8 4 c -4 4 c -3 7 c 0 16 c 3 7 c 4 4 c 8 4 c 7 0 c 8 -4 c 11 -8 c 38 -37 c 0 52 c 3 -12 2891 7265 l 12 -7 c 19 -4 c 11 0 c 19 4 c
11 7 c 4 12 c 0 7 c -4 12 c -11 7 c -19 4 c -11 0 c -19 -4 c -12 -7 c -3 -12 c 0 -7 c 0 42 2891 7325 l 30 -23 c 0 11 c 4 8 c 3 4 c
12 4 c 7 0 c 12 -4 c 7 -8 c 4 -11 c 0 -11 c -4 -12 c -4 -4 c -7 -3 c 4 -4 2962 7401 l 4 4 c -4 4 c -4 -4 c 53 -38 2891 7469 l 0 57 c
79 0 2891 7469 l 11 -4 2917 7556 l 8 -8 c 4 -11 c 0 -4 c -4 -11 c -8 -8 c -11 -3 c -4 0 c -11 3 c -8 8 c -3 11 c 0 4 c 3 11 c 8 8 c
15 4 c 19 0 c 19 -4 c 11 -8 c 4 -11 c 0 -7 c -4 -12 c -7 -4 c 0 41 2891 7590 l 30 -22 c 0 11 c 4 8 c 3 3 c 12 4 c 7 0 c 12 -4 c
7 -7 c 4 -12 c 0 -11 c -4 -11 c -4 -4 c -7 -4 c 0 -250 3158 1403 l -7 -3 3126 1523 l -4 -12 c 0 -7 c 4 -12 c 11 -7 c 19 -4 c 19 0 c
15 4 c 7 7 c 4 12 c 0 4 c -4 11 c -7 7 c -12 4 c -3 0 c -12 -4 c -7 -7 c -4 -11 c 0 -4 c 4 -12 c 7 -7 c 12 -4 c -4 0 3134 1554 l
-8 4 c -3 3 c -4 8 c 0 15 c 4 8 c 3 3 c 8 4 c 7 0 c 8 -4 c 11 -7 c 38 -38 c 0 53 c 4 -11 3115 1648 l 11 -8 c 19 -3 c 11 0 c 19 3 c
11 8 c 4 11 c 0 8 c -4 11 c -11 8 c -19 3 c -11 0 c -19 -3 c -11 -8 c -4 -11 c 0 -8 c 0 -37 3115 1746 l 34 -4 c -4 4 c -4 11 c
0 11 c 4 12 c 8 7 c 11 4 c 7 0 c 12 -4 c 7 -7 c 4 -12 c 0 -11 c -4 -11 c -3 -4 c -8 -4 c 3 -4 3187 1784 l 4 4 c -4 4 c -3 -4 c
4 -11 3115 1833 l 7 -4 c 8 0 c 7 4 c 4 8 c 4 15 c 4 11 c 7 8 c 8 3 c 11 0 c 8 -3 c 3 -4 c 4 -11 c 0 -16 c -4 -11 c -3 -4 c -8 -3 c
-11 0 c -8 3 c -7 8 c -4 11 c -4 15 c -4 8 c -7 4 c -8 0 c -7 -4 c -4 -11 c 0 -16 c -7 -4 3126 1939 l -4 -11 c 0 -7 c 4 -12 c
11 -7 c 19 -4 c 19 0 c 15 4 c 7 7 c 4 12 c 0 3 c -4 12 c -7 7 c -12 4 c -3 0 c -12 -4 c -7 -7 c -4 -12 c 0 -3 c 4 -12 c 7 -7 c
12 -4 c 4 -11 3115 1988 l 11 -8 c 19 -3 c 11 0 c 19 3 c 11 8 c 4 11 c 0 8 c -4 11 c -11 8 c -19 4 c -11 0 c -19 -4 c -11 -8 c
-4 -11 c 0 -8 c 0 -250 3287 6160 l -7 -4 3255 6281 l -4 -11 c 0 -8 c 4 -11 c 11 -8 c 19 -4 c 19 0 c 15 4 c 7 8 c 4 11 c 0 4 c
-4 11 c -7 8 c -12 3 c -3 0 c -12 -3 c -7 -8 c -4 -11 c 0 -4 c 4 -11 c 7 -8 c 12 -4 c -4 0 3263 6311 l -8 4 c -3 3 c -4 8 c 0 15 c
4 8 c 3 3 c 8 4 c 7 0 c 8 -4 c 11 -7 c 38 -38 c 0 53 c 4 -11 3244 6405 l 11 -8 c 19 -3 c 11 0 c 19 3 c 11 8 c 4 11 c 0 8 c -4 11 c
-11 8 c -19 4 c -11 0 c -19 -4 c -11 -8 c -4 -11 c 0 -8 c 79 -38 3244 6511 l 0 53 3244 6458 l 3 -3 3316 6541 l 4 3 c -4 4 c -3 -4 c
-4 0 3263 6575 l -8 4 c -3 4 c -4 8 c 0 15 c 4 7 c 3 4 c 8 4 c 7 0 c 8 -4 c 11 -8 c 38 -37 c 0 53 c -4 0 3263 6651 l -8 4 c -3 4 c
-4 7 c 0 15 c 4 8 c 3 4 c 8 3 c 7 0 c 8 -3 c 11 -8 c 38 -38 c 0 53 c 4 -12 3244 6746 l 11 -7 c 19 -4 c 11 0 c 19 4 c 11 7 c 4 12 c
0 7 c -4 11 c -11 8 c -19 4 c -11 0 c -19 -4 c -11 -8 c -4 -11 c 0 -7 c 0 -250 3427 1435 l -8 -4 3395 1556 l -4 -11 c 0 -8 c 4 -11 c
11 -8 c 19 -4 c 19 0 c 15 4 c 8 8 c 4 11 c 0 4 c -4 11 c -8 8 c -11 3 c -4 0 c -11 -3 c -8 -8 c -3 -11 c 0 -4 c 3 -11 c 8 -8 c
11 -4 c -4 0 3402 1586 l -7 4 c -4 3 c -4 8 c 0 15 c 4 8 c 4 3 c 7 4 c 8 0 c 8 -4 c 11 -7 c 38 -38 c 0 53 c 4 -11 3383 1680 l
11 -7 c 19 -4 c 12 0 c 19 4 c 11 7 c 4 11 c 0 8 c -4 11 c -11 8 c -19 4 c -12 0 c -19 -4 c -11 -8 c -4 -11 c 0 -8 c
4 -11 3383 1752 l 8 -4 c 7 0 c 8 4 c 4 7 c 3 16 c 4 11 c 8 7 c 7 4 c 12 0 c 7 -4 c 4 -3 c 4 -12 c 0 -15 c -4 -11 c -4 -4 c -7 -4 c
-12 0 c -7 4 c -8 8 c -4 11 c -3 15 c -4 8 c -8 3 c -7 0 c -8 -3 c -4 -12 c 0 -15 c 4 -3 3455 1816 l 4 3 c -4 4 c -4 -4 c
-8 -4 3395 1896 l -4 -11 c 0 -8 c 4 -11 c 11 -8 c 19 -4 c 19 0 c 15 4 c 8 8 c 4 11 c 0 4 c -4 11 c -8 8 c -11 4 c -4 0 c -11 -4 c
-8 -8 c -3 -11 c 0 -4 c 3 -11 c 8 -8 c 11 -4 c 4 -11 3383 1941 l 8 -4 c 7 0 c 8 4 c 4 7 c 3 16 c 4 11 c 8 7 c 7 4 c 12 0 c 7 -4 c
4 -3 c 4 -12 c 0 -15 c -4 -11 c -4 -4 c -7 -4 c -12 0 c -7 4 c -8 8 c -4 11 c -3 15 c -4 8 c -8 3 c -7 0 c -8 -3 c -4 -12 c 0 -15 c
80 -38 3383 2051 l 0 53 3383 1998 l 0 -249 4120 1795 l -7 -3 4088 1916 l -4 -12 c 0 -7 c 4 -12 c 11 -7 c 19 -4 c 19 0 c 15 4 c 7 7 c
4 12 c 0 4 c -4 11 c -7 7 c -11 4 c -4 0 c -12 -4 c -7 -7 c -4 -11 c 0 -4 c 4 -12 c 7 -7 c 12 -4 c -4 0 4096 1947 l -8 3 c -3 4 c
-4 8 c 0 15 c 4 7 c 3 4 c 8 4 c 7 0 c 8 -4 c 11 -7 c 38 -38 c 0 53 c -4 7 4092 2030 l -11 12 c 79 0 c 0 -37 4077 2139 l 34 -4 c
-4 4 c -4 11 c 0 11 c 4 12 c 8 7 c 11 4 c 8 0 c 11 -4 c 7 -7 c 4 -12 c 0 -11 c -4 -11 c -3 -4 c -8 -4 c 3 -4 4149 2177 l 4 4 c
-4 4 c -3 -4 c 12 -4 4103 2257 l 7 -8 c 4 -11 c 0 -4 c -4 -11 c -7 -8 c -12 -4 c -4 0 c -11 4 c -7 8 c -4 11 c 0 4 c 4 11 c 7 8 c
15 4 c 19 0 c 19 -4 c 11 -8 c 4 -11 c 0 -8 c -4 -11 c -7 -4 c 0 41 4077 2291 l 30 -23 c 0 12 c 4 7 c 4 4 c 11 4 c 8 0 c 11 -4 c
7 -7 c 4 -12 c 0 -11 c -4 -11 c -3 -4 c -8 -4 c 4 -12 4077 2378 l 7 -4 c 8 0 c 7 4 c 4 8 c 4 15 c 4 11 c 7 8 c 8 4 c 11 0 c 8 -4 c
3 -4 c 4 -11 c 0 -15 c -4 -12 c -3 -4 c -8 -3 c -11 0 c -8 3 c -7 8 c -4 11 c -4 15 c -4 8 c -7 4 c -8 0 c -7 -4 c -4 -11 c 0 -15 c
0 -250 4513 1780 l -7 -4 4480 1901 l -4 -11 c 0 -8 c 4 -11 c 11 -8 c 19 -4 c 19 0 c 15 4 c 8 8 c 3 11 c 0 4 c -3 11 c -8 8 c -11 4 c
-4 0 c -11 -4 c -8 -8 c -4 -11 c 0 -4 c 4 -11 c 8 -8 c 11 -4 c -4 0 4488 1931 l -7 4 c -4 4 c -4 7 c 0 15 c 4 8 c 4 4 c 7 3 c 8 0 c
7 -3 c 12 -8 c 37 -38 c 0 53 c -4 0 4488 2007 l -7 3 c -4 4 c -4 8 c 0 15 c 4 7 c 4 4 c 7 4 c 8 0 c 7 -4 c 12 -7 c 37 -38 c 0 53 c
4 -11 4469 2101 l 11 -8 c 19 -4 c 11 0 c 19 4 c 12 8 c 3 11 c 0 8 c -3 11 c -12 8 c -19 3 c -11 0 c -19 -3 c -11 -8 c -4 -11 c
0 -8 c 4 -4 4541 2162 l 3 4 c -3 3 c -4 -3 c 4 -11 4469 2214 l 11 -7 c 19 -4 c 11 0 c 19 4 c 12 7 c 3 11 c 0 8 c -3 11 c -12 8 c
-19 4 c -11 0 c -19 -4 c -11 -8 c -4 -11 c 0 -8 c -4 7 4484 2279 l -11 12 c 79 0 c -4 8 4484 2354 l -11 11 c 79 0 c
0 -249 4639 1515 l -8 -4 4607 1636 l -3 -11 c 0 -8 c 3 -11 c 12 -7 c 19 -4 c 19 0 c 15 4 c 7 7 c 4 11 c 0 4 c -4 12 c -7 7 c -12 4 c
-3 0 c -12 -4 c -7 -7 c -4 -12 c 0 -4 c 4 -11 c 7 -7 c 12 -4 c -4 0 4615 1666 l -8 4 c -4 4 c -3 7 c 0 16 c 3 7 c 4 4 c 8 4 c 7 0 c
8 -4 c 11 -8 c 38 -37 c 0 53 c -4 0 4615 1742 l -8 4 c -4 4 c -3 7 c 0 15 c 3 8 c 4 4 c 8 3 c 7 0 c 8 -3 c 11 -8 c 38 -38 c 0 53 c
-4 8 4611 1825 l -11 11 c 79 0 c 4 -4 4667 1897 l 4 4 c -4 4 c -4 -4 c 0 41 4596 1935 l 30 -22 c 0 11 c 4 8 c 3 3 c 12 4 c 7 0 c
12 -4 c 7 -7 c 4 -12 c 0 -11 c -4 -11 c -4 -4 c -7 -4 c -4 8 4611 2014 l -11 11 c 79 0 c 11 -3 4622 2127 l 8 -8 c 4 -11 c 0 -4 c
-4 -11 c -8 -8 c -11 -4 c -4 0 c -11 4 c -8 8 c -3 11 c 0 4 c 3 11 c 8 8 c 15 3 c 19 0 c 19 -3 c 11 -8 c 4 -11 c 0 -8 c -4 -11 c
-7 -4 c 0 -250 4950 5655 l -7 -4 4918 5776 l -4 -11 c 0 -8 c 4 -11 c 11 -8 c 19 -4 c 19 0 c 15 4 c 7 8 c 4 11 c 0 4 c -4 11 c -7 8 c
-11 3 c -4 0 c -12 -3 c -7 -8 c -4 -11 c 0 -4 c 4 -11 c 7 -8 c 12 -4 c -4 0 4926 5806 l -8 4 c -3 3 c -4 8 c 0 15 c 4 8 c 3 4 c
8 3 c 7 0 c 8 -3 c 11 -8 c 38 -38 c 0 53 c -4 0 4926 5882 l -8 3 c -3 4 c -4 8 c 0 15 c 4 7 c 3 4 c 8 4 c 7 0 c 8 -4 c 11 -7 c
38 -38 c 0 53 c 53 -38 4907 5991 l 0 57 c 79 0 4907 5991 l 3 -3 4979 6036 l 4 3 c -4 4 c -3 -4 c 0 -38 4907 6112 l 34 -4 c -4 4 c
-4 12 c 0 11 c 4 11 c 8 8 c 11 4 c 8 0 c 11 -4 c 7 -8 c 4 -11 c 0 -11 c -4 -12 c -3 -4 c -8 -3 c -4 0 4926 6146 l -8 4 c -3 4 c
-4 7 c 0 15 c 4 8 c 3 4 c 8 3 c 7 0 c 8 -3 c 11 -8 c 38 -38 c 0 53 c 79 -38 4907 6271 l 0 53 4907 6218 l 0 -250 5130 2669 l
-7 -4 5097 2790 l -4 -11 c 0 -8 c 4 -11 c 11 -8 c 19 -4 c 19 0 c 15 4 c 8 8 c 3 11 c 0 4 c -3 11 c -8 8 c -11 4 c -4 0 c -11 -4 c
-8 -8 c -4 -11 c 0 -4 c 4 -11 c 8 -8 c 11 -4 c -4 0 5105 2820 l -7 4 c -4 4 c -4 7 c 0 15 c 4 8 c 4 4 c 7 3 c 8 0 c 7 -3 c 12 -8 c
37 -38 c 0 53 c -4 0 5105 2896 l -7 3 c -4 4 c -4 8 c 0 15 c 4 7 c 4 4 c 7 4 c 8 0 c 7 -4 c 12 -7 c 37 -38 c 0 53 c
-7 -4 5097 3017 l -4 -12 c 0 -7 c 4 -11 c 11 -8 c 19 -4 c 19 0 c 15 4 c 8 8 c 3 11 c 0 4 c -3 11 c -8 8 c -11 3 c -4 0 c -11 -3 c
-8 -8 c -4 -11 c 0 -4 c 4 -11 c 8 -8 c 11 -4 c 4 -4 5158 3051 l 3 4 c -3 3 c -4 -3 c 0 42 5086 3088 l 30 -23 c 0 12 c 4 7 c 4 4 c
11 4 c 8 0 c 11 -4 c 8 -8 c 3 -11 c 0 -11 c -3 -12 c -4 -3 c -8 -4 c 79 -37 5086 3209 l 0 53 5086 3156 l 4 -12 5086 3255 l 11 -7 c
19 -4 c 11 0 c 19 4 c 12 7 c 3 12 c 0 7 c -3 12 c -12 7 c -19 4 c -11 0 c -19 -4 c -11 -7 c -4 -12 c 0 -7 c 0 -249 5777 1842 l
-8 -3 5745 1963 l -3 -12 c 0 -7 c 3 -12 c 12 -7 c 19 -4 c 19 0 c 15 4 c 7 7 c 4 12 c 0 3 c -4 12 c -7 7 c -12 4 c -3 0 c -12 -4 c
-7 -7 c -4 -12 c 0 -3 c 4 -12 c 7 -7 c 12 -4 c -3 0 5752 1994 l -8 3 c -4 4 c -3 8 c 0 15 c 3 7 c 4 4 c 8 4 c 7 0 c 8 -4 c 11 -7 c
38 -38 c 0 53 c 0 42 5734 2073 l 30 -23 c 0 11 c 4 8 c 3 4 c 12 3 c 7 0 c 12 -3 c 7 -8 c 4 -11 c 0 -12 c -4 -11 c -4 -4 c -7 -4 c
-3 0 5752 2145 l -8 4 c -4 3 c -3 8 c 0 15 c 3 8 c 4 3 c 8 4 c 7 0 c 8 -4 c 11 -7 c 38 -38 c 0 53 c 4 -4 5805 2224 l 4 4 c -4 4 c
-4 -4 c 11 -4 5760 2304 l 8 -8 c 4 -11 c 0 -4 c -4 -11 c -8 -8 c -11 -4 c -4 0 c -11 4 c -8 8 c -3 11 c 0 4 c 3 11 c 8 8 c 15 4 c
19 0 c 19 -4 c 11 -8 c 4 -11 c 0 -8 c -4 -11 c -7 -4 c 79 -38 5734 2383 l 0 53 5734 2330 l 0 -38 5734 2451 l 34 -4 c -4 4 c -4 11 c
0 12 c 4 11 c 7 8 c 12 3 c 7 0 c 12 -3 c 7 -8 c 4 -11 c 0 -12 c -4 -11 c -4 -4 c -7 -3 c 0 -250 5962 3222 l -7 -4 5930 3343 l
-4 -11 c 0 -8 c 4 -11 c 11 -8 c 19 -4 c 19 0 c 15 4 c 7 8 c 4 11 c 0 4 c -4 11 c -7 8 c -11 3 c -4 0 c -12 -3 c -7 -8 c -4 -11 c
0 -4 c 4 -11 c 7 -8 c 12 -4 c -4 0 5938 3373 l -8 4 c -3 3 c -4 8 c 0 15 c 4 8 c 3 4 c 8 3 c 7 0 c 8 -3 c 11 -8 c 38 -38 c 0 53 c
0 42 5919 3452 l 30 -23 c 0 12 c 4 7 c 4 4 c 11 4 c 8 0 c 11 -4 c 7 -8 c 4 -11 c 0 -11 c -4 -12 c -3 -3 c -8 -4 c 53 -38 5919 3558 l
0 57 c 79 0 5919 3558 l 3 -3 5991 3603 l 4 3 c -4 4 c -3 -4 c 4 -12 5919 3653 l 7 -4 c 8 0 c 7 4 c 4 8 c 4 15 c 4 11 c 7 8 c 8 4 c
11 0 c 8 -4 c 3 -4 c 4 -11 c 0 -15 c -4 -12 c -3 -4 c -8 -3 c -11 0 c -8 3 c -7 8 c -4 11 c -4 16 c -4 7 c -7 4 c -8 0 c -7 -4 c
-4 -11 c 0 -15 c 0 -38 5919 3755 l 34 -4 c -4 4 c -4 11 c 0 12 c 4 11 c 8 7 c 11 4 c 8 0 c 11 -4 c 7 -7 c 4 -11 c 0 -12 c -4 -11 c
-3 -4 c -8 -4 c 0 -38 5919 3830 l 34 -3 c -4 3 c -4 12 c 0 11 c 4 11 c 8 8 c 11 4 c 8 0 c 11 -4 c 7 -8 c 4 -11 c 0 -11 c -4 -12 c
-3 -3 c -8 -4 c 0 -250 6568 1845 l -7 -4 6535 1966 l -4 -11 c 0 -8 c 4 -11 c 11 -8 c 19 -4 c 19 0 c 15 4 c 8 8 c 3 11 c 0 4 c
-3 11 c -8 8 c -11 3 c -4 0 c -11 -3 c -8 -8 c -4 -11 c 0 -4 c 4 -11 c 8 -8 c 11 -4 c -4 0 6543 1996 l -7 4 c -4 3 c -4 8 c 0 15 c
4 8 c 4 3 c 7 4 c 8 0 c 7 -4 c 12 -7 c 37 -38 c 0 53 c 53 -38 6524 2106 l 0 56 c 79 0 6524 2106 l 4 -11 6524 2166 l 11 -8 c 19 -4 c
11 0 c 19 4 c 12 8 c 3 11 c 0 8 c -3 11 c -12 7 c -19 4 c -11 0 c -19 -4 c -11 -7 c -4 -11 c 0 -8 c 4 -3 6596 2226 l 3 3 c -3 4 c
-4 -4 c 12 -4 6550 2306 l 7 -8 c 4 -11 c 0 -4 c -4 -11 c -7 -8 c -12 -3 c -3 0 c -12 3 c -7 8 c -4 11 c 0 4 c 4 11 c 7 8 c 15 4 c
19 0 c 19 -4 c 12 -8 c 3 -11 c 0 -7 c -3 -12 c -8 -4 c 0 -38 6524 2378 l 34 -4 c -4 4 c -4 11 c 0 12 c 4 11 c 8 7 c 11 4 c 8 0 c
11 -4 c 8 -7 c 3 -11 c 0 -12 c -3 -11 c -4 -4 c -8 -4 c 53 -38 6524 2446 l 0 57 c 79 0 6524 2446 l 0 -250 7526 1369 l
-8 -4 7494 1490 l -4 -12 c 0 -7 c 4 -11 c 11 -8 c 19 -4 c 19 0 c 15 4 c 8 8 c 4 11 c 0 4 c -4 11 c -8 8 c -11 3 c -4 0 c -11 -3 c
-8 -8 c -4 -11 c 0 -4 c 4 -11 c 8 -8 c 11 -4 c -4 0 7501 1520 l -7 4 c -4 3 c -4 8 c 0 15 c 4 8 c 4 3 c 7 4 c 8 0 c 7 -4 c 12 -7 c
38 -38 c 0 53 c 0 -38 7482 1637 l 34 -4 c -4 4 c -3 12 c 0 11 c 3 11 c 8 8 c 11 4 c 8 0 c 11 -4 c 8 -8 c 4 -11 c 0 -11 c -4 -12 c
-4 -4 c -8 -3 c 4 -11 7482 1690 l 11 -8 c 19 -4 c 12 0 c 18 4 c 12 8 c 4 11 c 0 7 c -4 12 c -12 7 c -18 4 c -12 0 c -19 -4 c
-11 -7 c -4 -12 c 0 -7 c 4 -3 7554 1750 l 4 3 c -4 4 c -4 -4 c 53 -37 7482 1818 l 0 56 c 80 0 7482 1818 l 4 -11 7482 1875 l 8 -4 c
7 0 c 8 4 c 3 7 c 4 15 c 4 12 c 8 7 c 7 4 c 11 0 c 8 -4 c 4 -3 c 4 -12 c 0 -15 c -4 -11 c -4 -4 c -8 -4 c -11 0 c -7 4 c -8 8 c
-4 11 c -4 15 c -3 8 c -8 3 c -7 0 c -8 -3 c -4 -12 c 0 -15 c -8 -4 7494 1981 l -4 -11 c 0 -8 c 4 -11 c 11 -8 c 19 -3 c 19 0 c
15 3 c 8 8 c 4 11 c 0 4 c -4 11 c -8 8 c -11 4 c -4 0 c -11 -4 c -8 -8 c -4 -11 c 0 -4 c 4 -11 c 8 -8 c 11 -3 c 0 -250 8233 2680 l
-8 -4 8201 2801 l -3 -12 c 0 -7 c 3 -11 c 12 -8 c 19 -4 c 18 0 c 16 4 c 7 8 c 4 11 c 0 4 c -4 11 c -7 8 c -12 3 c -4 0 c -11 -3 c
-7 -8 c -4 -11 c 0 -4 c 4 -11 c 7 -8 c 11 -4 c -3 0 8208 2831 l -8 4 c -4 3 c -3 8 c 0 15 c 3 8 c 4 3 c 8 4 c 7 0 c 8 -4 c 11 -7 c
38 -38 c 0 53 c 0 -38 8190 2948 l 34 -4 c -4 4 c -4 12 c 0 11 c 4 11 c 7 8 c 12 4 c 7 0 c 12 -4 c 7 -8 c 4 -11 c 0 -11 c -4 -12 c
-4 -4 c -7 -3 c 79 -38 8190 3031 l 0 53 8190 2978 l 4 -3 8261 3061 l 4 3 c -4 4 c -4 -4 c 52 -37 8190 3129 l 0 56 c 79 0 8190 3129 l
-3 0 8208 3171 l -8 4 c -4 4 c -3 7 c 0 15 c 3 8 c 4 4 c 8 3 c 7 0 c 8 -3 c 11 -8 c 38 -38 c 0 53 c 52 -38 8190 3281 l 0 56 c
79 0 8190 3281 l 0 -250 8355 2314 l -8 -4 8323 2435 l -4 -11 c 0 -8 c 4 -11 c 11 -8 c 19 -4 c 19 0 c 15 4 c 8 8 c 4 11 c 0 4 c
-4 11 c -8 8 c -11 4 c -4 0 c -11 -4 c -8 -8 c -3 -11 c 0 -4 c 3 -11 c 8 -8 c 11 -4 c -4 0 8330 2465 l -7 4 c -4 4 c -4 7 c 0 15 c
4 8 c 4 4 c 7 3 c 8 0 c 8 -3 c 11 -8 c 38 -38 c 0 53 c 0 -38 8311 2582 l 34 -3 c -3 3 c -4 12 c 0 11 c 4 11 c 7 8 c 11 4 c 8 0 c
11 -4 c 8 -8 c 4 -11 c 0 -11 c -4 -12 c -4 -3 c -7 -4 c 4 -11 8311 2631 l 8 -4 c 7 0 c 8 4 c 4 8 c 3 15 c 4 11 c 8 8 c 7 3 c 12 0 c
7 -3 c 4 -4 c 4 -12 c 0 -15 c -4 -11 c -4 -4 c -7 -4 c -12 0 c -7 4 c -8 8 c -4 11 c -3 15 c -4 8 c -8 4 c -7 0 c -8 -4 c -4 -12 c
0 -15 c 4 -4 8383 2696 l 4 4 c -4 3 c -4 -3 c -8 -4 8323 2775 l -4 -11 c 0 -8 c 4 -11 c 11 -8 c 19 -3 c 19 0 c 15 3 c 8 8 c 4 11 c
0 4 c -4 11 c -8 8 c -11 4 c -4 0 c -11 -4 c -8 -8 c -3 -11 c 0 -4 c 3 -11 c 8 -8 c 11 -3 c 4 -11 8311 2824 l 11 -8 c 19 -4 c 12 0 c
19 4 c 11 8 c 4 11 c 0 8 c -4 11 c -11 8 c -19 3 c -12 0 c -19 -3 c -11 -8 c -4 -11 c 0 -8 c 80 -38 8311 2930 l 0 53 8311 2877 l
0 -250 8644 4688 l -7 -4 8612 4809 l -4 -11 c 0 -8 c 4 -11 c 11 -8 c 19 -4 c 19 0 c 15 4 c 7 8 c 4 11 c 0 4 c -4 11 c -7 8 c -12 4 c
-3 0 c -12 -4 c -7 -8 c -4 -11 c 0 -4 c 4 -11 c 7 -8 c 12 -4 c -4 0 8620 4839 l -8 4 c -3 4 c -4 7 c 0 15 c 4 8 c 3 4 c 8 3 c 7 0 c
8 -3 c 11 -8 c 38 -38 c 0 53 c -7 -4 8612 4960 l -4 -11 c 0 -8 c 4 -11 c 11 -8 c 19 -3 c 19 0 c 15 3 c 7 8 c 4 11 c 0 4 c -4 11 c
-7 8 c -12 4 c -3 0 c -12 -4 c -7 -8 c -4 -11 c 0 -4 c 4 -11 c 7 -8 c 12 -3 c -4 7 8616 4998 l -11 12 c 79 0 c 3 -4 8673 5070 l
4 4 c -4 3 c -3 -3 c 53 -38 8601 5138 l 0 57 c 79 0 8601 5138 l -4 7 8616 5187 l -11 12 c 79 0 c 4 -11 8601 5270 l 7 -4 c 8 0 c
7 4 c 4 7 c 4 15 c 4 12 c 7 7 c 8 4 c 11 0 c 8 -4 c 3 -4 c 4 -11 c 0 -15 c -4 -11 c -3 -4 c -8 -4 c -11 0 c -8 4 c -7 7 c -4 12 c
-4 15 c -4 7 c -7 4 c -8 0 c -7 -4 c -4 -11 c 0 -15 c 0 -249 9138 1903 l -8 -4 9106 2024 l -4 -11 c 0 -8 c 4 -11 c 11 -7 c 19 -4 c
19 0 c 15 4 c 8 7 c 4 11 c 0 4 c -4 12 c -8 7 c -11 4 c -4 0 c -11 -4 c -8 -7 c -3 -12 c 0 -4 c 3 -11 c 8 -7 c 11 -4 c
-4 0 9113 2054 l -7 4 c -4 4 c -4 8 c 0 15 c 4 7 c 4 4 c 7 4 c 8 0 c 8 -4 c 11 -8 c 38 -37 c 0 53 c -8 -3 9106 2175 l -4 -12 c
0 -7 c 4 -12 c 11 -7 c 19 -4 c 19 0 c 15 4 c 8 7 c 4 12 c 0 3 c -4 12 c -8 7 c -11 4 c -4 0 c -11 -4 c -8 -7 c -3 -12 c 0 -3 c
3 -12 c 8 -7 c 11 -4 c -8 -4 9106 2251 l -4 -11 c 0 -8 c 4 -11 c 11 -8 c 19 -3 c 19 0 c 15 3 c 8 8 c 4 11 c 0 4 c -4 11 c -8 8 c
-11 4 c -4 0 c -11 -4 c -8 -8 c -3 -11 c 0 -4 c 3 -11 c 8 -8 c 11 -3 c 4 -4 9166 2285 l 4 4 c -4 4 c -4 -4 c -3 7 9109 2327 l
-12 11 c 80 0 c 80 -38 9094 2444 l 0 53 9094 2391 l 53 -38 9094 2504 l 0 57 c 80 0 9094 2504 l 0 -250 9349 1311 l -8 -4 9317 1432 l
-3 -12 c 0 -7 c 3 -11 c 12 -8 c 19 -4 c 18 0 c 16 4 c 7 8 c 4 11 c 0 4 c -4 11 c -7 8 c -12 3 c -4 0 c -11 -3 c -7 -8 c -4 -11 c
0 -4 c 4 -11 c 7 -8 c 11 -4 c -3 0 9324 1462 l -8 4 c -4 3 c -3 8 c 0 15 c 3 8 c 4 3 c 8 4 c 7 0 c 8 -4 c 11 -7 c 38 -38 c 0 53 c
-8 -4 9317 1583 l -3 -11 c 0 -8 c 3 -11 c 12 -8 c 19 -4 c 18 0 c 16 4 c 7 8 c 4 11 c 0 4 c -4 11 c -7 8 c -12 4 c -4 0 c -11 -4 c
-7 -8 c -4 -11 c 0 -4 c 4 -11 c 7 -8 c 11 -4 c 3 -11 9306 1628 l 8 -4 c 7 0 c 8 4 c 4 7 c 4 15 c 3 12 c 8 7 c 7 4 c 12 0 c 7 -4 c
4 -3 c 4 -12 c 0 -15 c -4 -11 c -4 -4 c -7 -4 c -12 0 c -7 4 c -8 8 c -3 11 c -4 15 c -4 8 c -8 3 c -7 0 c -8 -3 c -3 -12 c 0 -15 c
4 -3 9377 1692 l 4 3 c -4 4 c -4 -4 c -3 0 9324 1726 l -8 4 c -4 4 c -3 7 c 0 16 c 3 7 c 4 4 c 8 4 c 7 0 c 8 -4 c 11 -8 c 38 -37 c
0 52 c 3 -12 9306 1821 l 12 -7 c 19 -4 c 11 0 c 19 4 c 11 7 c 4 12 c 0 7 c -4 12 c -11 7 c -19 4 c -11 0 c -19 -4 c -12 -7 c
-3 -12 c 0 -7 c 3 -11 9306 1896 l 12 -7 c 19 -4 c 11 0 c 19 4 c 11 7 c 4 11 c 0 8 c -4 11 c -11 8 c -19 4 c -11 0 c -19 -4 c
-12 -8 c -3 -11 c 0 -8 c 0 -250 9700 1774 l -8 -4 9668 1895 l -3 -11 c 0 -8 c 3 -11 c 12 -8 c 19 -3 c 19 0 c 15 3 c 7 8 c 4 11 c
0 4 c -4 11 c -7 8 c -12 4 c -3 0 c -12 -4 c -7 -8 c -4 -11 c 0 -4 c 4 -11 c 7 -8 c 12 -3 c -4 0 9676 1925 l -8 4 c -4 4 c -3 7 c
0 15 c 3 8 c 4 4 c 8 3 c 7 0 c 8 -3 c 11 -8 c 38 -38 c 0 53 c 79 -38 9657 2050 l 0 53 9657 1997 l -4 7 9672 2084 l -11 12 c 79 0 c
4 -4 9728 2156 l 4 4 c -4 3 c -4 -3 c 0 -38 9657 2231 l 34 -3 c -4 3 c -4 12 c 0 11 c 4 11 c 7 8 c 12 4 c 7 0 c 12 -4 c 7 -8 c
4 -11 c 0 -11 c -4 -12 c -4 -3 c -7 -4 c 53 -38 9657 2299 l 0 57 c 79 0 9657 2299 l 53 -38 9657 2375 l 0 57 c 79 0 9657 2375 l
showpage PGPLOT restore
 
%%Trailer
%%DocumentFonts: 
%%Pages: 1
%%EOF
