%!PS-Adobe-3.0 EPSF-3.0
%%For: tab
%%Title: PGPLOT PostScript plot
%%Creator: PGPLOT
%%CreationDate: 20-Apr-1995 16:40
%%BoundingBox: 25 18 587 774
%%DocumentFonts: (atend)
%%LanguageLevel: 1
%%Orientation: Landscape
%%Pages: (atend)
%%EndComments
%%BeginProlog
/l {moveto rlineto currentpoint stroke moveto} bind def
/c {rlineto currentpoint stroke moveto} bind def
/d {moveto 0 0 rlineto currentpoint stroke moveto} bind def
/SLW {5 mul setlinewidth} bind def
/SCF /pop load def
/BP {newpath moveto} bind def
/LP /rlineto load def
/EP {rlineto closepath eofill} bind def
/MB {gsave translate MFAC dup scale 1 setlinewidth 2 setlinecap 0 setlinejoin newpath} bind def
/ME /grestore load def
/C {0 360 arc stroke} bind def
/FC {0 360 arc fill} bind def
%%EndProlog
 
%%Page: 1 1
%%BeginPageSetup
/PGPLOT save def
0.072 0.072 scale
8150 250 translate 90 rotate
1 setlinejoin 1 setlinecap 1 SLW 1 SCF
%%EndPageSetup
0.000 setgray 1 SLW 8939 0 780 780 l 0 6239 c -8939 0 c 0 -6239 c 0 -45 1116 780 l 0 -45 1554 780 l 0 -45 1991 780 l
0 -45 2428 780 l 0 -90 2865 780 l 0 -45 3302 780 l 0 -45 3739 780 l 0 -45 4176 780 l 0 -45 4613 780 l 0 -90 5051 780 l
0 -45 5488 780 l 0 -45 5925 780 l 0 -45 6362 780 l 0 -45 6799 780 l 0 -90 7236 780 l 0 -45 7673 780 l 0 -45 8110 780 l
0 -45 8548 780 l 0 -45 8985 780 l 0 -90 9422 780 l 0 -45 1116 7064 l 0 -45 1554 7064 l 0 -45 1991 7064 l 0 -45 2428 7064 l
0 -90 2865 7109 l 0 -45 3302 7064 l 0 -45 3739 7064 l 0 -45 4176 7064 l 0 -45 4613 7064 l 0 -90 5051 7109 l 0 -45 5488 7064 l
0 -45 5925 7064 l 0 -45 6362 7064 l 0 -45 6799 7064 l 0 -90 7236 7109 l 0 -45 7673 7064 l 0 -45 8110 7064 l 0 -45 8548 7064 l
0 -45 8985 7064 l 0 -90 9422 7109 l -60 0 2775 672 l -6 -54 c 6 6 c 18 6 c 18 0 c 18 -6 c 12 -12 c 6 -18 c 0 -12 c -6 -18 c
-12 -12 c -18 -6 c -18 0 c -18 6 c -6 6 c -6 12 c -18 -6 2859 672 l -12 -18 c -6 -30 c 0 -18 c 6 -30 c 12 -18 c 18 -6 c 12 0 c
18 6 c 12 18 c 6 30 c 0 18 c -6 30 c -12 18 c -18 6 c -12 0 c -18 -6 2979 672 l -12 -18 c -6 -30 c 0 -18 c 6 -30 c 12 -18 c 18 -6 c
12 0 c 18 6 c 12 18 c 6 30 c 0 18 c -6 30 c -12 18 c -18 6 c -12 0 c 12 6 4847 648 l 18 18 c 0 -126 c -18 -6 4985 672 l -12 -18 c
-6 -30 c 0 -18 c 6 -30 c 12 -18 c 18 -6 c 12 0 c 18 6 c 12 18 c 6 30 c 0 18 c -6 30 c -12 18 c -18 6 c -12 0 c -18 -6 5105 672 l
-12 -18 c -6 -30 c 0 -18 c 6 -30 c 12 -18 c 18 -6 c 12 0 c 18 6 c 12 18 c 6 30 c 0 18 c -6 30 c -12 18 c -18 6 c -12 0 c
-18 -6 5225 672 l -12 -18 c -6 -30 c 0 -18 c 6 -30 c 12 -18 c 18 -6 c 12 0 c 18 6 c 12 18 c 6 30 c 0 18 c -6 30 c -12 18 c -18 6 c
-12 0 c 12 6 7032 648 l 18 18 c 0 -126 c -60 0 7206 672 l -6 -54 c 6 6 c 18 6 c 18 0 c 18 -6 c 12 -12 c 6 -18 c 0 -12 c -6 -18 c
-12 -12 c -18 -6 c -18 0 c -18 6 c -6 6 c -6 12 c -18 -6 7290 672 l -12 -18 c -6 -30 c 0 -18 c 6 -30 c 12 -18 c 18 -6 c 12 0 c
18 6 c 12 18 c 6 30 c 0 18 c -6 30 c -12 18 c -18 6 c -12 0 c -18 -6 7410 672 l -12 -18 c -6 -30 c 0 -18 c 6 -30 c 12 -18 c 18 -6 c
12 0 c 18 6 c 12 18 c 6 30 c 0 18 c -6 30 c -12 18 c -18 6 c -12 0 c 0 6 9206 642 l 6 12 c 6 6 c 12 6 c 24 0 c 12 -6 c 6 -6 c
6 -12 c 0 -12 c -6 -12 c -12 -18 c -60 -60 c 84 0 c -18 -6 9356 672 l -12 -18 c -6 -30 c 0 -18 c 6 -30 c 12 -18 c 18 -6 c 12 0 c
18 6 c 12 18 c 6 30 c 0 18 c -6 30 c -12 18 c -18 6 c -12 0 c -18 -6 9476 672 l -12 -18 c -6 -30 c 0 -18 c 6 -30 c 12 -18 c 18 -6 c
12 0 c 18 6 c 12 18 c 6 30 c 0 18 c -6 30 c -12 18 c -18 6 c -12 0 c -18 -6 9596 672 l -12 -18 c -6 -30 c 0 -18 c 6 -30 c 12 -18 c
18 -6 c 12 0 c 18 6 c 12 18 c 6 30 c 0 18 c -6 30 c -12 18 c -18 6 c -12 0 c -90 0 780 846 l -45 0 780 1161 l -45 0 780 1476 l
-45 0 780 1791 l -45 0 780 2106 l -90 0 780 2420 l -45 0 780 2735 l -45 0 780 3050 l -45 0 780 3365 l -45 0 780 3680 l
-90 0 780 3994 l -45 0 780 4309 l -45 0 780 4624 l -45 0 780 4939 l -45 0 780 5254 l -90 0 780 5568 l -45 0 780 5883 l
-45 0 780 6198 l -45 0 780 6513 l -45 0 780 6828 l -90 0 9809 846 l -45 0 9764 1161 l -45 0 9764 1476 l -45 0 9764 1791 l
-45 0 9764 2106 l -90 0 9809 2420 l -45 0 9764 2735 l -45 0 9764 3050 l -45 0 9764 3365 l -45 0 9764 3680 l -90 0 9809 3994 l
-45 0 9764 4309 l -45 0 9764 4624 l -45 0 9764 4939 l -45 0 9764 5254 l -90 0 9809 5568 l -45 0 9764 5883 l -45 0 9764 6198 l
-45 0 9764 6513 l -45 0 9764 6828 l 6 -18 517 840 l 18 -12 c 30 -6 c 18 0 c 30 6 c 18 12 c 6 18 c 0 12 c -6 18 c -18 12 c -30 6 c
-18 0 c -30 -6 c -18 -12 c -6 -18 c 0 -12 c -6 12 541 2300 l -18 18 c 126 0 c 6 -18 517 2438 l 18 -12 c 30 -6 c 18 0 c 30 6 c
18 12 c 6 18 c 0 12 c -6 18 c -18 12 c -30 6 c -18 0 c -30 -6 c -18 -12 c -6 -18 c 0 -12 c 63 -45 453 2563 l 0 67 c 94 0 453 2563 l
-6 0 547 3736 l -12 6 c -6 6 c -6 12 c 0 24 c 6 12 c 6 6 c 12 6 c 12 0 c 12 -6 c 18 -12 c 60 -60 c 0 84 c 84 84 547 3856 l
84 -84 547 3940 l -6 12 541 4000 l -18 18 c 126 0 c 6 -18 517 4138 l 18 -12 c 30 -6 c 18 0 c 30 6 c 18 12 c 6 18 c 0 12 c -6 18 c
-18 12 c -30 6 c -18 0 c -30 -6 c -18 -12 c -6 -18 c 0 -12 c 63 -45 453 4263 l 0 67 c 94 0 453 4263 l 0 66 517 5317 l 48 -36 c
0 18 c 6 12 c 6 6 c 18 6 c 12 0 c 18 -6 c 12 -12 c 6 -18 c 0 -18 c -6 -18 c -6 -6 c -12 -6 c 84 84 547 5430 l 84 -84 547 5514 l
-6 12 541 5574 l -18 18 c 126 0 c 6 -18 517 5712 l 18 -12 c 30 -6 c 18 0 c 30 6 c 18 12 c 6 18 c 0 12 c -6 18 c -18 12 c -30 6 c
-18 0 c -30 -6 c -18 -12 c -6 -18 c 0 -12 c 63 -45 453 5837 l 0 67 c 94 0 453 5837 l
4 0 780 862 l 5 -1 c 4 0 c 4 0 c 5 0 c 4 0 c 4 0 c 5 1 c 4 0 c 5 -1 c 4 1 c 4 0 c 5 0 c 4 0 c 4 -1 c 5 1 c 4 0 c 5 0 c 4 0 c 4 0 c
5 -1 c 4 0 c 4 1 c 5 0 c 4 1 c 5 -1 c 4 1 c 4 -1 c 5 -1 c 4 1 c 4 2 c 5 3 c 4 10 c 5 6 c 4 -3 c 4 -10 c 5 -7 c 4 -1 c 4 0 c 5 0 c
4 0 c 4 0 c 5 0 c 4 0 c 5 0 c 4 0 c 4 1 c 5 1 c 4 0 c 4 -1 c 5 -1 c 4 0 c 5 0 c 4 0 c 4 0 c 5 0 c 4 1 c 4 0 c 5 0 c 4 1 c 5 -1 c
4 1 c 4 0 c 5 2 c 4 1 c 4 0 c 5 -1 c 4 1 c 5 2 c 4 5 c 4 21 c 5 99 c 4 472 c 4 613 c 5 30 c 4 -658 c 4 -481 c 5 -96 c 4 -6 c 5 -1 c
4 -2 c 4 -1 c 5 1 c 4 -19 c 4 0 c 5 18 c 4 1 c 5 2 c 4 0 c 4 0 c 5 -1 c 4 4 c 4 15 c 5 5 c 4 -6 c 5 -14 c 4 -5 c 4 0 c 5 0 c 4 0 c
4 1 c 5 2 c 4 5 c 5 14 c 4 39 c 4 47 c 5 70 c 4 346 c 4 387 c 5 -26 c 4 -481 c 4 -283 c 5 166 c 4 721 c 5 310 c 4 -316 c 4 -735 c
5 -241 c 4 -20 c 4 -2 c 5 -1 c 4 -1 c 5 -1 c 4 0 c 4 0 c 5 0 c 4 0 c 4 0 c 5 0 c 4 0 c 5 1 c 4 1 c 4 1 c 5 0 c 4 1 c 4 0 c 5 0 c
4 1 c 5 0 c 4 0 c 4 1 c 5 -1 c 4 -1 c 4 0 c 5 0 c 4 0 c 4 1 c 5 -1 c 4 -1 c 5 1 c 4 1 c 4 0 c 5 0 c 4 -1 c 4 0 c 5 0 c 4 0 c 5 -1 c
4 0 c 4 0 c 5 0 c 4 0 c 4 0 c 5 0 c 4 0 c 5 0 c 4 0 c 4 0 c 5 0 c 4 0 c 4 0 c 5 0 c 4 0 c 4 1 c 5 -2 c 4 -1 c 5 -1 c 4 0 c 4 0 c
5 1 c 4 3 c 4 1 c 5 0 c 4 0 c 5 0 c 4 1 c 4 0 c 5 0 c 4 -1 c 4 0 c 5 -1 c 4 1 c 5 0 c 4 0 c 4 -1 c 5 1 c 4 2 c 4 0 c 5 3 c 4 2 c
5 -2 c 4 -2 c 4 -1 c 5 -2 c 4 1 c 4 -1 c 5 1 c 4 -1 c 4 1 c 5 0 c 4 0 c 5 -1 c 4 0 c 4 0 c 5 0 c 4 0 c 4 1 c 5 0 c 4 0 c 5 0 c
4 -1 c 4 1 c 5 0 c 4 0 c 4 -1 c 5 0 c 4 0 c 5 2 c 4 7 c 4 2 c 5 0 c 4 -8 c 4 -3 c 5 1 c 4 -1 c 5 1 c 4 -1 c 4 0 c 5 0 c 4 0 c 4 0 c
5 0 c 4 -1 c 4 2 c 5 0 c 4 0 c 5 -1 c 4 1 c 4 0 c 5 0 c 4 5 c 4 8 c 5 4 c 4 1 c 5 58 c 4 131 c 4 26 c 5 -89 c 4 -117 c 4 -20 c
5 -1 c 4 -3 c 5 -1 c 4 1 c 4 2 c 5 1 c 4 -1 c 4 -1 c 5 0 c 4 0 c 5 -1 c 4 0 c 4 1 c 5 1 c 4 8 c 4 53 c 5 244 c 4 149 c 4 -53 c
5 -263 c 4 -120 c 5 -9 c 4 -6 c 4 -5 c 5 0 c 4 0 c 4 0 c 5 -2 c 4 1 c 5 -1 c 4 1 c 4 0 c 5 0 c 4 3 c 4 0 c 5 -1 c 4 -2 c 5 -1 c
4 0 c 4 0 c 5 1 c 4 -1 c 4 0 c 5 1 c 4 -1 c 5 1 c 4 0 c 4 0 c 5 0 c 4 -1 c 4 1 c 5 0 c 4 0 c 4 0 c 5 -1 c 4 1 c 5 -1 c 4 1 c 4 0 c
5 0 c 4 3 c 4 16 c 5 139 c 4 337 c 5 97 c 4 -192 c 4 -314 c 5 -80 c 4 -4 c 4 0 c 5 0 c 4 -2 c 5 0 c 4 -1 c 4 0 c 5 0 c 4 0 c 4 0 c
5 0 c 4 1 c 4 2 c 5 -1 c 4 -1 c 5 -1 c 4 0 c 4 0 c 5 0 c 4 1 c 4 0 c 5 -1 c 4 0 c 5 1 c 4 0 c 4 0 c 5 -1 c 4 1 c 4 1 c 5 0 c 4 0 c
5 -2 c 4 1 c 4 -1 c 5 1 c 4 0 c 4 -1 c 5 1 c 4 0 c 5 -1 c 4 1 c 4 0 c 5 0 c 4 2 c 4 0 c 5 0 c 4 -1 c 4 1 c 5 -1 c 4 1 c 5 -1 c 4 0 c
4 1 c 5 1 c 4 -1 c 4 2 c 5 0 c 4 -1 c 5 -1 c 4 0 c 4 -1 c 5 0 c 4 0 c 4 0 c 5 1 c 4 0 c 5 0 c 4 0 c 4 3 c 5 7 c 4 4 c 4 -2 c 5 -7 c
4 -5 c 5 -1 c 4 1 c 4 3 c 3 6140 c 3 -5792 2569 7019 l 4 -332 c 5 -9 c 4 10 c 5 6 c 4 -5 c 4 -12 c 5 -3 c 4 -1 c 4 0 c 5 0 c 4 -1 c
5 0 c 4 -1 c 4 1 c 5 -1 c 4 1 c 4 0 c 5 0 c 4 0 c 5 0 c 4 7 c 4 55 c 5 52 c 4 -5 c 4 -60 c 5 -46 c 4 -4 c 5 0 c 4 0 c 4 0 c 5 1 c
4 0 c 4 -1 c 5 0 c 4 0 c 4 1 c 5 0 c 4 0 c 5 0 c 4 1 c 4 -1 c 5 0 c 4 0 c 4 1 c 5 0 c 4 0 c 5 1 c 4 -1 c 4 -1 c 5 -1 c 4 0 c 4 1 c
5 3 c 4 4 c 5 23 c 4 57 c 4 16 c 5 -28 c 4 -61 c 4 -9 c 5 10 c 4 5 c 5 -7 c 4 -9 c 4 -2 c 5 -1 c 4 0 c 4 0 c 5 0 c 4 1 c 4 10 c
5 10 c 4 3 c 5 -7 c 4 -13 c 4 -6 c 5 -1 c 4 1 c 4 1 c 5 0 c 4 -1 c 5 -1 c 4 0 c 4 0 c 5 -1 c 4 0 c 4 -1 c 5 0 c 4 1 c 5 1 c 4 -1 c
4 -1 c 5 0 c 4 6 c 4 12 c 5 3 c 4 -7 c 4 -12 c 5 -3 c 4 0 c 5 1 c 4 -1 c 4 0 c 5 0 c 4 1 c 4 -1 c 5 1 c 4 -1 c 5 3 c 4 14 c 4 20 c
5 1 c 4 -21 c 4 -15 c 5 -1 c 4 -2 c 5 1 c 4 0 c 4 0 c 5 0 c 4 -1 c 4 0 c 5 0 c 4 0 c 5 0 c 4 0 c 4 0 c 5 0 c 4 1 c 4 0 c 5 -1 c
4 0 c 4 0 c 5 -1 c 4 -1 c 5 0 c 4 1 c 4 1 c 5 0 c 4 8 c 4 12 c 5 1 c 4 -9 c 5 -7 c 4 5 c 4 2 c 5 -5 c 4 -6 c 4 0 c 5 0 c 4 2 c 5 1 c
4 -1 c 4 -3 c 5 0 c 4 0 c 4 0 c 5 -1 c 4 0 c 5 1 c 4 0 c 4 0 c 5 0 c 4 1 c 4 1 c 5 -1 c 4 -2 c 4 0 c 5 0 c 4 1 c 5 0 c 4 0 c 4 -1 c
5 0 c 4 1 c 4 0 c 5 2 c 4 9 c 5 71 c 4 53 c 4 -12 c 5 -75 c 4 -45 c 4 -2 c 5 -1 c 4 -1 c 5 0 c 4 0 c 4 0 c 5 1 c 4 0 c 4 1 c 5 5 c
4 9 c 5 1 c 4 -6 c 4 -8 c 5 0 c 4 11 c 4 6 c 5 -1 c 4 -11 c 4 -7 c 5 0 c 4 0 c 5 -1 c 4 1 c 4 0 c 5 -1 c 4 0 c 4 0 c 5 -1 c 4 1 c
5 1 c 4 0 c 4 1 c 5 -1 c 4 -1 c 4 0 c 5 1 c 4 0 c 5 -1 c 4 0 c 4 2 c 5 6 c 4 4 c 4 -1 c 5 -6 c 4 -1 c 4 16 c 5 20 c 4 0 c 5 -22 c
4 -17 c 4 -1 c 5 -1 c 4 1 c 4 0 c 5 0 c 4 0 c 5 0 c 4 0 c 4 0 c 5 0 c 4 0 c 4 0 c 5 0 c 4 1 c 5 0 c 4 2 c 4 2 c 5 0 c 4 6 c 4 55 c
5 86 c 4 19 c 5 -66 c 4 -84 c 4 -13 c 5 -2 c 4 -1 c 4 -1 c 5 -1 c 4 0 c 4 13 c 5 39 c 4 12 c 5 -15 c 4 -26 c 4 76 c 5 57 c 4 -10 c
4 -91 c 5 -12 c 4 16 c 5 -8 c 4 -29 c 4 -2 c 5 -1 c 4 -11 c 4 -10 c 5 0 c 4 0 c 5 0 c 4 3 c 4 2 c 5 -1 c 4 -3 c 4 0 c 5 0 c 4 0 c
5 1 c 4 4 c 4 69 c 5 195 c 4 61 c 4 -63 c 5 -220 c 4 -47 c 4 -2 c 5 0 c 4 -1 c 5 1 c 4 -1 c 4 0 c 5 1 c 4 0 c 4 0 c 5 1 c 4 0 c
5 0 c 4 -1 c 4 2 c 5 4 c 4 1 c 4 0 c 5 -5 c 4 -2 c 5 2 c 4 -1 c 4 0 c 5 1 c 4 5 c 4 3 c 5 -2 c 4 -5 c 5 -2 c 4 0 c 4 0 c 5 0 c 4 1 c
4 1 c 5 9 c 4 17 c 4 3 c 5 -12 c 4 -13 c 5 19 c 4 174 c 4 147 c 5 -4 c 4 -188 c 4 -140 c 5 -7 c 4 -1 c 5 -2 c 4 -3 c 4 -1 c 5 0 c
4 0 c 4 1 c 5 0 c 4 0 c 5 0 c 4 2 c 4 4 c 5 2 c 4 -2 c 4 -5 c 5 -2 c 4 0 c 5 1 c 4 1 c 4 2 c 5 -1 c 4 -2 c 4 0 c 5 -1 c 4 0 c 4 1 c
5 0 c 4 -1 c 5 0 c 4 0 c 4 0 c 5 1 c 4 0 c 4 -1 c 5 0 c 4 0 c 5 1 c 4 1 c 4 1 c 5 0 c 4 -1 c 4 -1 c 5 1 c 4 -2 c 5 -1 c 4 -1 c
4 -1 c 5 0 c 4 0 c 4 1 c 5 2 c 4 18 c 4 10 c 5 -2 c 4 -19 c 5 -9 c 4 -1 c 4 0 c 5 1 c 4 0 c 4 0 c 3 6147 c 2 -5762 4362 7019 l
5 -360 c 4 -16 c 4 -3 c 5 1 c 4 0 c 5 0 c 4 -3 c 4 -1 c 5 0 c 4 3 c 4 3 c 5 1 c 4 -3 c 5 -4 c 4 0 c 4 1 c 5 0 c 4 0 c 4 -1 c 5 0 c
4 1 c 4 0 c 5 1 c 4 -2 c 5 -1 c 4 0 c 4 0 c 5 1 c 4 -1 c 4 1 c 5 0 c 4 0 c 5 -1 c 4 0 c 4 0 c 5 0 c 4 1 c 4 3 c 5 21 c 4 68 c 5 44 c
4 11 c 4 -54 c 5 -43 c 4 -26 c 4 -10 c 5 -3 c 4 1 c 5 5 c 4 -1 c 4 -9 c 5 -7 c 4 -1 c 4 3 c 5 4 c 4 0 c 4 -2 c 5 -4 c 4 0 c 5 -2 c
4 0 c 4 0 c 5 -1 c 4 1 c 4 2 c 5 2 c 4 0 c 5 -2 c 4 -2 c 4 1 c 5 2 c 4 0 c 4 -1 c 5 -1 c 4 0 c 5 1 c 4 -2 c 4 0 c 5 0 c 4 0 c 4 0 c
5 1 c 4 1 c 5 0 c 4 -1 c 4 -1 c 5 0 c 4 1 c 4 -1 c 5 -1 c 4 0 c 4 0 c 5 0 c 4 1 c 5 0 c 4 0 c 4 -1 c 5 0 c 4 0 c 4 0 c 5 1 c 4 0 c
5 0 c 4 0 c 4 0 c 5 0 c 4 0 c 4 0 c 5 0 c 4 -1 c 5 -1 c 4 1 c 4 0 c 5 -1 c 4 0 c 4 0 c 5 1 c 4 -1 c 5 -1 c 4 1 c 4 1 c 5 0 c 4 0 c
4 -2 c 5 1 c 4 -1 c 4 -1 c 5 0 c 4 -1 c 5 0 c 4 -1 c 4 -1 c 5 0 c 4 -2 c 4 0 c 5 -2 c 4 1 c 5 0 c 4 0 c 4 0 c 5 1 c 4 0 c 4 0 c
5 2 c 4 31 c 5 84 c 4 20 c 4 -30 c 5 -84 c 4 -22 c 4 0 c 5 0 c 4 0 c 4 3 c 5 1 c 4 0 c 5 -2 c 4 0 c 4 2 c 5 -2 c 4 -1 c 4 0 c 5 0 c
4 1 c 5 -1 c 4 1 c 4 2 c 5 21 c 4 218 c 4 357 c 5 52 c 4 -235 c 5 -341 c 4 -71 c 4 -3 c 5 0 c 4 0 c 4 -2 c 5 1 c 4 0 c 5 0 c 4 1 c
4 -1 c 5 1 c 4 0 c 4 -2 c 5 1 c 4 1 c 4 -1 c 5 0 c 4 1 c 5 -1 c 4 -1 c 4 1 c 5 0 c 4 0 c 4 1 c 5 2 c 4 -2 c 5 0 c 4 -2 c 4 1 c 5 4 c
4 0 c 4 0 c 5 -3 c 4 0 c 5 1 c 4 0 c 4 -1 c 5 0 c 4 -2 c 4 2 c 5 1 c 4 -1 c 5 1 c 4 0 c 4 0 c 5 3 c 4 7 c 4 60 c 5 168 c 4 90 c
4 -52 c 5 -175 c 4 -89 c 5 -8 c 4 1 c 4 1 c 5 -2 c 4 -2 c 4 0 c 5 1 c 4 1 c 5 0 c 4 -1 c 4 -1 c 5 1 c 4 -1 c 4 1 c 5 0 c 4 3 c 5 4 c
4 4 c 4 4 c 5 -2 c 4 -4 c 4 -1 c 5 1 c 4 1 c 5 1 c 4 1 c 4 2 c 5 3 c 4 5 c 4 20 c 5 238 c 4 1175 c 4 755 c 5 -189 c 4 -1279 c
5 -647 c 4 -68 c 4 21 c 5 34 c 4 2 c 4 -30 c 5 -34 c 4 -6 c 5 -1 c 4 0 c 4 -1 c 5 0 c 4 0 c 4 1 c 5 0 c 4 1 c 5 -1 c 4 -1 c 4 -2 c
5 1 c 4 0 c 4 1 c 5 3 c 4 6 c 4 -2 c 5 -3 c 4 -3 c 5 1 c 4 -2 c 4 1 c 5 -1 c 4 0 c 4 0 c 5 -1 c 4 0 c 5 1 c 4 0 c 4 1 c 5 1 c 4 -1 c
4 0 c 5 2 c 4 4 c 5 1 c 4 -45 c 3 6173 c 2 -6047 5739 7019 l 5 -65 c 4 -2 c 4 -3 c 5 -3 c 4 -1 c 4 1 c 5 5 c 4 6 c 5 4 c 4 0 c
4 -10 c 5 -4 c 4 -6 c 4 0 c 5 -1 c 4 0 c 5 -2 c 4 1 c 4 0 c 5 2 c 4 9 c 4 62 c 5 50 c 4 2 c 5 -71 c 4 -52 c 4 -4 c 5 0 c 4 -2 c
4 1 c 5 0 c 4 3 c 5 2 c 4 0 c 4 -4 c 5 -3 c 4 -1 c 4 3 c 5 0 c 4 -1 c 4 -1 c 5 -1 c 4 1 c 5 1 c 4 4 c 4 15 c 5 14 c 4 -3 c 4 -17 c
5 -13 c 4 1 c 5 5 c 4 -1 c 4 -2 c 5 -4 c 4 2 c 4 3 c 5 4 c 4 -1 c 5 5 c 4 14 c 4 54 c 5 725 c 4 3115 c 4 1525 c 5 -436 c 4 -3181 c
5 -1600 c 4 -143 c 4 -55 c 5 -19 c 4 -4 c 4 -5 c 5 -3 c 4 0 c 4 -1 c 5 0 c 4 2 c 5 1 c 4 -1 c 4 -3 c 5 -2 c 4 0 c 4 7 c 5 10 c 4 0 c
5 -8 c 4 -11 c 4 -2 c 5 1 c 4 0 c 4 0 c 5 -1 c 4 -1 c 5 0 c 4 0 c 4 0 c 5 0 c 4 0 c 4 0 c 5 0 c 4 -1 c 5 0 c 4 2 c 4 2 c 5 1 c
4 -3 c 4 -1 c 5 1 c 4 1 c 4 -1 c 5 -2 c 4 -1 c 5 -1 c 4 1 c 4 1 c 5 8 c 4 7 c 4 -2 c 5 -8 c 4 -5 c 5 -1 c 4 0 c 4 -1 c 5 1 c 4 -1 c
4 -1 c 5 1 c 4 0 c 5 0 c 4 0 c 4 1 c 5 -1 c 4 1 c 4 0 c 5 -1 c 4 -1 c 4 0 c 5 0 c 4 0 c 5 1 c 4 0 c 4 0 c 5 0 c 4 1 c 4 2 c 5 1 c
4 -1 c 5 0 c 4 -2 c 4 -1 c 5 -1 c 4 2 c 4 14 c 5 16 c 4 1 c 5 -15 c 4 -14 c 4 -2 c 5 6 c 4 7 c 4 1 c 5 -5 c 4 -7 c 5 -2 c 4 0 c
4 -1 c 5 0 c 4 -2 c 4 0 c 5 0 c 4 -1 c 4 0 c 5 0 c 4 0 c 5 0 c 4 1 c 4 0 c 5 -1 c 4 0 c 4 0 c 5 1 c 4 0 c 5 0 c 4 0 c 4 0 c 5 0 c
4 0 c 4 0 c 5 1 c 4 -1 c 5 1 c 4 -2 c 4 1 c 5 -1 c 4 1 c 4 -27 c 5 27 c 4 0 c 5 0 c 4 0 c 4 0 c 5 0 c 4 1 c 4 1 c 5 0 c 4 -1 c
4 -1 c 5 1 c 4 0 c 5 1 c 4 0 c 4 -2 c 5 0 c 4 0 c 4 0 c 5 1 c 4 -1 c 5 0 c 4 -1 c 4 0 c 5 1 c 4 0 c 4 1 c 5 4 c 4 17 c 5 9 c 4 -4 c
4 -20 c 5 -7 c 4 0 c 4 -1 c 5 0 c 4 1 c 5 -1 c 4 1 c 4 -1 c 5 0 c 4 0 c 4 0 c 5 0 c 4 1 c 4 0 c 5 1 c 4 -1 c 5 0 c 4 0 c 4 0 c 5 0 c
4 0 c 4 0 c 5 0 c 4 0 c 5 0 c 4 0 c 4 -1 c 5 1 c 4 -1 c 4 1 c 5 0 c 4 -1 c 5 -1 c 4 1 c 4 1 c 5 1 c 4 2 c 4 1 c 5 -1 c 4 -2 c 5 -1 c
4 -1 c 4 0 c 5 0 c 4 1 c 4 1 c 5 1 c 4 1 c 4 0 c 5 -3 c 4 0 c 5 1 c 4 0 c 4 1 c 5 -2 c 4 -1 c 4 0 c 5 0 c 4 1 c 5 0 c 4 2 c 4 18 c
5 28 c 4 1 c 4 -18 c 5 -26 c 4 -4 c 5 0 c 4 0 c 4 0 c 5 0 c 4 0 c 4 1 c 5 8 c 4 70 c 4 59 c 5 7 c 4 -56 c 5 -59 c 4 -14 c 4 -10 c
5 -5 c 4 0 c 4 0 c 5 1 c 4 -1 c 5 -1 c 4 0 c 4 0 c 5 0 c 4 1 c 4 0 c 5 0 c 4 0 c 5 1 c 4 1 c 4 2 c 5 1 c 4 -1 c 4 0 c 5 -2 c 4 -1 c
5 0 c 4 0 c 4 0 c 5 0 c 4 0 c 4 0 c 5 1 c 4 -1 c 4 0 c 5 0 c 4 1 c 5 1 c 4 -1 c 4 0 c 5 -1 c 4 0 c 4 0 c 5 0 c 4 0 c 5 1 c 4 0 c
4 0 c 5 0 c 4 0 c 4 -1 c 5 -1 c 4 1 c 5 1 c 4 0 c 4 -1 c 5 0 c 4 0 c 4 -1 c 5 1 c 4 -1 c 5 1 c 4 0 c 4 0 c 5 1 c 4 2 c 4 1 c 5 0 c
4 -1 c 4 -2 c 5 0 c 4 1 c 5 0 c 4 -2 c 4 0 c 5 2 c 4 2 c 4 -1 c 5 -2 c 4 0 c 5 -2 c 4 1 c 4 1 c 5 15 c 4 34 c 4 7 c 5 -7 c 4 -33 c
5 -8 c 4 -1 c 4 -5 c 5 -3 c 4 0 c 4 0 c 5 0 c 4 0 c 5 0 c 4 1 c 4 4 c 5 2 c 4 0 c 4 -4 c 5 -2 c 4 0 c 4 0 c 5 0 c 4 0 c 5 1 c 4 0 c
4 0 c 5 2 c 4 18 c 4 82 c 5 65 c 4 -3 c 5 -81 c 4 -69 c 4 -8 c 5 2 c 4 0 c 4 -2 c 5 1 c 4 24 c 5 16 c 4 -3 c 4 -27 c 5 -16 c 4 -1 c
4 0 c 5 0 c 4 0 c 5 1 c 4 -1 c 4 1 c 5 -1 c 4 0 c 4 -1 c 5 0 c 4 0 c 4 1 c 5 0 c 4 0 c 5 0 c 4 1 c 4 0 c 5 2 c 4 23 c 4 76 c 5 25 c
4 -13 c 5 -82 c 4 -27 c 4 1 c 5 1 c 4 0 c 4 0 c 5 -2 c 4 0 c 5 26 c 4 206 c 4 160 c 5 16 c 4 -186 c 4 -190 c 5 -23 c 4 -6 c 4 -3 c
5 36 c 4 118 c 5 37 c 4 -32 c 4 -118 c 5 -42 c 4 0 c 4 1 c 5 0 c 4 -1 c 5 -2 c 4 -1 c 4 -2 c 5 0 c 4 1 c 4 1 c 5 1 c 4 17 c 5 67 c
4 23 c 4 -13 c 5 -68 c 4 -26 c 4 -2 c 5 2 c 4 12 c 5 43 c 4 17 c 4 -13 c 5 -44 c 4 -15 c 4 -1 c 5 -1 c 4 1 c 4 2 c 5 1 c 4 0 c
5 -3 c 4 -1 c 4 0 c 5 -1 c 4 0 c 4 0 c 5 0 c 4 -1 c 5 0 c 4 0 c 4 1 c 5 0 c 4 0 c 4 0 c 5 0 c 4 -1 c 5 1 c 4 1 c 4 1 c 5 -2 c 4 -1 c
4 0 c 5 0 c 4 -1 c 5 1 c 4 0 c 4 1 c 5 -1 c 4 -1 c 4 0 c 5 0 c 4 0 c 4 0 c 5 0 c 4 1 c 5 0 c 4 -1 c 4 1 c 5 -1 c 4 0 c 4 0 c 5 0 c
4 0 c 5 0 c 4 0 c 4 0 c 5 0 c 4 1 c 4 2 c 5 0 c 4 -1 c 5 -1 c 4 -1 c 4 1 c 5 0 c 4 -1 c 4 0 c 5 0 c 4 0 c 5 2 c 4 -1 c 4 -1 c 5 0 c
4 2 c 4 0 c 5 1 c 4 -1 c 4 -1 c 5 -1 c 4 0 c 5 0 c 4 0 c 4 0 c 5 0 c 4 -1 c 4 0 c 5 1 c 4 1 c 5 -1 c 4 0 c 4 -1 c 5 0 c 4 0 c 4 0 c
5 1 c 4 0 c 5 0 c 4 0 c 4 1 c 5 1 c 4 0 c 4 0 c 5 -1 c 4 -1 c 4 1 c 5 0 c 4 0 c 5 0 c 4 0 c 4 1 c 5 1 c 4 1 c 4 1 c 5 1 c 4 5 c
5 9 c 4 23 c 4 200 c 5 832 c 4 621 c 4 -42 c 5 -801 c 4 -697 c 5 -106 c 4 -23 c 4 -10 c 5 -4 c 4 -5 c 4 -3 c 5 -2 c 4 0 c 5 -1 c
4 -1 c 4 -1 c 5 1 c 4 0 c 4 1 c 5 0 c 4 -1 c 4 -1 c 5 0 c 4 -1 c 5 1 c 4 -1 c 4 0 c 5 1 c 4 0 c 4 0 c 5 0 c 4 0 c 5 1 c 4 1 c 4 8 c
5 12 c 4 2 c 4 -6 c 5 -14 c 4 -2 c 5 1 c 4 0 c 4 0 c 5 0 c 4 1 c 4 1 c 5 2 c 4 10 c 5 72 c 4 199 c 4 93 c 5 -36 c 4 -198 c 4 -125 c
5 -13 c 4 -3 c 4 -2 c 5 0 c 4 -2 c 5 -1 c 4 -2 c 4 0 c 5 -1 c 4 1 c 4 0 c 5 2 c 4 0 c 5 -1 c 4 -1 c 4 0 c 5 0 c 4 0 c 4 -1 c 5 0 c
4 0 c 5 0 c 4 0 c 4 0 c 5 -1 c 4 1 c 4 0 c 5 0 c 4 -1 c 5 1 c 4 0 c 4 0 c 5 -1 c 4 1 c 4 0 c 5 1 c 4 0 c 4 0 c 5 -1 c 4 0 c 5 -1 c
4 1 c 4 0 c 5 0 c 4 0 c 4 0 c 5 0 c 4 0 c 5 1 c 4 1 c 4 6 c 5 49 c 4 78 c 4 11 c 5 -39 c 4 -15 c 5 256 c 4 160 c 4 -40 c 5 -266 c
4 -187 c 4 -9 c 5 -1 c 4 14 c 5 148 c 4 286 c 4 58 c 5 -120 c 4 -294 c 4 -90 c 5 -5 c 4 -1 c 4 0 c 5 0 c 4 0 c 5 -1 c 4 0 c 4 0 c
5 0 c 4 0 c 4 0 c 5 0 c 4 0 c 5 0 c 4 0 c 4 -1 c 5 2 c 4 0 c 4 1 c 5 -2 c 4 -1 c 5 1 c 4 1 c 4 2 c 5 -1 c 4 0 c 4 -2 c 5 0 c 4 2 c
4 3 c 5 31 c 4 183 c 5 151 c 4 6 c 4 -147 c 5 -162 c 4 16 c 4 -1 c 5 -25 c 4 -48 c 5 -8 c 4 -1 c 4 0 c 5 0 c 4 -1 c 4 1 c 5 0 c
4 1 c 5 4 c 4 5 c 4 2 c 5 -2 c 4 -5 c 4 -3 c 5 0 c 4 -1 c 5 1 c 4 0 c 4 1 c 5 1 c 4 0 c 4 4 c 5 33 c 4 53 c 4 8 c 5 -26 c 4 -56 c
5 -7 c 4 24 c 4 25 c 5 1 c 4 -19 c 4 -28 c 5 -3 c 4 0 c 5 0 c 4 0 c 4 1 c 5 1 c 4 6 c 4 21 c 5 53 c 4 15 c 5 -10 c 4 -40 c 4 -12 c
5 24 c 4 35 c 4 15 c 5 9 c 4 23 c 5 299 c 4 2799 c 2 2894 c 3 -4488 9406 7019 l 4 -1406 c 4 -117 c 5 -41 c 4 -25 c 5 -17 c 4 -11 c
4 -6 c 5 -3 c 4 -4 c 4 -1 c 5 -1 c 4 -5 c 5 -3 c 4 -3 c 4 -1 c 5 1 c 4 1 c 4 0 c 5 -2 c 4 -4 c 5 -3 c 4 -1 c 4 0 c 5 0 c 4 -1 c
4 -1 c
5 0 c 4 0 c 5 -1 c 4 0 c 4 -30 c 5 0 c 4 35 c 4 36 c 5 77 c 4 24 c 4 -26 c 5 -85 c 4 -32 c 5 -2 c 4 0 c 4 -1 c 5 0 c 4 0 c 4 -1 c
5 -1 c 4 0 c 5 0 c 4 0 c 4 1 c 5 0 c 4 0 c 4 -1 c 5 1 c 4 0 c 5 2 c 4 10 c 4 13 c 5 3 c 4 -2 c 4 -13 c 5 -4 c 4 -6 c 5 -2 c 4 0 c
4 0 c 5 1 c 4 2 c 4 5 c 5 40 c 4 352 c
0 -126 3303 418 l 54 0 3303 418 l 18 -6 c 6 -6 c 6 -12 c 0 -12 c -6 -12 c -6 -6 c -18 -6 c -54 0 c 42 -66 3345 358 l
-12 -6 3453 376 l -12 -12 c -6 -18 c 0 -12 c 6 -18 c 12 -12 c 12 -6 c 18 0 c 12 6 c 12 12 c 6 18 c 0 12 c -6 18 c -12 12 c -12 6 c
-18 0 c 24 -84 3537 376 l -24 -84 3585 376 l 24 -84 3585 376 l -24 -84 3633 376 l 108 0 3675 364 l 108 0 3675 328 l 12 6 3939 394 l
18 18 c 0 -126 c 66 0 4053 418 l -36 -48 c 18 0 c 12 -6 c 6 -6 c 6 -18 c 0 -12 c -6 -18 c -12 -12 c -18 -6 c -18 0 c -18 6 c -6 6 c
-6 12 c -12 -6 4287 376 l -12 -12 c -6 -18 c 0 -12 c 6 -18 c 12 -12 c 12 -6 c 18 0 c 12 6 c 12 12 c 6 18 c 0 12 c -6 18 c -12 12 c
-12 6 c -18 0 c -12 0 4413 418 l -12 -6 c -6 -18 c 0 -102 c 42 0 4365 376 l 0 6 4545 388 l 6 12 c 6 6 c 12 6 c 24 0 c 12 -6 c 6 -6 c
6 -12 c 0 -12 c -6 -12 c -12 -18 c -60 -60 c 84 0 c -18 -6 4695 418 l -12 -18 c -6 -30 c 0 -18 c 6 -30 c 12 -18 c 18 -6 c 12 0 c
18 6 c 12 18 c 6 30 c 0 18 c -6 30 c -12 18 c -18 6 c -12 0 c 12 6 5181 394 l 18 18 c 0 -126 c -6 -6 5294 376 l 6 -6 c 6 6 c -6 6 c
-6 -6 5294 304 l 6 -6 c 6 6 c -6 6 c -48 -126 5474 418 l 48 -126 5474 418 l 60 0 5444 334 l 0 -84 5552 376 l 6 18 5552 340 l 12 12 c
12 6 c 18 0 c -12 12 5696 358 l -12 6 c -18 0 c -12 -6 c -12 -12 c -6 -18 c 0 -12 c 6 -18 c 12 -12 c 12 -6 c 18 0 c 12 6 c 12 12 c
108 0 5738 346 l 12 6 5906 394 l 18 18 c 0 -126 c 66 0 6020 418 l -36 -48 c 18 0 c 12 -6 c 6 -6 c 6 -18 c 0 -12 c -6 -18 c -12 -12 c
-18 -6 c -18 0 c -18 6 c -6 6 c -6 12 c -60 -126 6212 418 l 84 0 6128 418 l -6 -6 6260 304 l 6 -6 c 6 6 c -6 6 c -12 0 6350 418 l
-12 -6 c -6 -18 c 0 -102 c 42 0 6302 376 l 6 -6 6380 418 l 6 6 c -6 6 c -6 -6 c 0 -84 6386 376 l 0 -102 6440 418 l 6 -18 c 12 -6 c
12 0 c 42 0 6422 376 l -6 12 6566 358 l -18 6 c -18 0 c -18 -6 c -6 -12 c 6 -12 c 12 -6 c 30 -6 c 12 -6 c 6 -12 c 0 -6 c -6 -12 c
-18 -6 c -18 0 c -18 6 c -6 12 c 0 -192 6896 442 l 0 -192 6902 442 l 42 0 6896 442 l 42 0 6896 250 l 0 6 6980 388 l 6 12 c 6 6 c
12 6 c 24 0 c 12 -6 c 6 -6 c 6 -12 c 0 -12 c -6 -12 c -12 -18 c -60 -60 c 84 0 c -6 -6 7106 376 l 6 -6 c 6 6 c -6 6 c
-6 -6 7106 304 l 6 -6 c 6 6 c -6 6 c 0 -192 7286 442 l 0 -192 7292 442 l 42 0 7250 442 l 42 0 7250 250 l
0 -250 1106 2546 l -7 -4 1073 2667 l -4 -11 c 0 -8 c 4 -11 c 11 -8 c 19 -4 c 19 0 c 15 4 c 8 8 c 3 11 c 0 4 c -3 11 c -8 8 c -11 4 c
-4 0 c -11 -4 c -8 -8 c -4 -11 c 0 -4 c 4 -11 c 8 -8 c 11 -4 c 79 -38 1062 2746 l 0 53 1062 2693 l 79 -38 1062 2822 l
0 53 1062 2769 l 4 -11 1062 2863 l 7 -4 c 8 0 c 7 4 c 4 7 c 4 16 c 4 11 c 7 7 c 8 4 c 11 0 c 8 -4 c 4 -3 c 3 -12 c 0 -15 c -3 -11 c
-4 -4 c -8 -4 c -11 0 c -8 4 c -7 8 c -4 11 c -4 15 c -4 8 c -7 3 c -8 0 c -7 -3 c -4 -12 c 0 -15 c 4 -4 1134 2928 l 3 4 c -3 3 c
-4 -3 c 0 42 1062 2965 l 30 -23 c 0 12 c 4 7 c 4 4 c 11 4 c 8 0 c 11 -4 c 8 -8 c 3 -11 c 0 -11 c -3 -12 c -4 -3 c -8 -4 c
-4 7 1077 3045 l -11 12 c 79 0 c -4 0 1081 3113 l -8 3 c -3 4 c -4 8 c 0 15 c 4 8 c 3 3 c 8 4 c 8 0 c 7 -4 c 12 -7 c 37 -38 c 0 53 c
0 -249 1902 1542 l -8 -4 1870 1663 l -3 -11 c 0 -8 c 3 -11 c 12 -8 c 19 -3 c 18 0 c 16 3 c 7 8 c 4 11 c 0 4 c -4 11 c -7 8 c -12 4 c
-4 0 c -11 -4 c -7 -8 c -4 -11 c 0 -4 c 4 -11 c 7 -8 c 11 -3 c 79 -37 1859 1742 l 0 53 1859 1689 l 3 -11 1859 1784 l 8 -4 c 7 0 c
8 4 c 4 7 c 4 15 c 3 12 c 8 7 c 7 4 c 12 0 c 7 -4 c 4 -4 c 4 -11 c 0 -15 c -4 -11 c -4 -4 c -7 -4 c -12 0 c -7 4 c -8 7 c -3 12 c
-4 15 c -4 7 c -8 4 c -7 0 c -8 -4 c -3 -11 c 0 -15 c 79 -38 1859 1894 l 0 53 1859 1841 l 4 -4 1930 1924 l 4 4 c -4 4 c -4 -4 c
79 -38 1859 2007 l 0 53 1859 1954 l 0 42 1859 2037 l 30 -23 c 0 11 c 4 8 c 3 4 c 12 4 c 7 0 c 12 -4 c 7 -8 c 4 -11 c 0 -11 c
-4 -12 c -4 -4 c -7 -3 c -8 -3 1870 2154 l -3 -12 c 0 -7 c 3 -12 c 12 -7 c 19 -4 c 18 0 c 16 4 c 7 7 c 4 12 c 0 3 c -4 12 c -7 7 c
-12 4 c -4 0 c -11 -4 c -7 -7 c -4 -12 c 0 -3 c 4 -12 c 7 -7 c 11 -4 c 0 -249 1996 1768 l -8 -4 1964 1889 l -4 -11 c 0 -8 c 4 -11 c
12 -7 c 18 -4 c 19 0 c 15 4 c 8 7 c 4 11 c 0 4 c -4 12 c -8 7 c -11 4 c -4 0 c -11 -4 c -8 -7 c -3 -12 c 0 -4 c 3 -11 c 8 -7 c
11 -4 c 80 -37 1952 1968 l 0 52 1952 1916 l 4 -11 1952 2010 l 8 -4 c 7 0 c 8 4 c 4 7 c 3 15 c 4 12 c 8 7 c 7 4 c 12 0 c 7 -4 c
4 -3 c 4 -12 c 0 -15 c -4 -11 c -4 -4 c -7 -4 c -12 0 c -7 4 c -8 8 c -4 11 c -3 15 c -4 8 c -8 3 c -7 0 c -8 -3 c -4 -12 c 0 -15 c
4 -12 1952 2086 l 8 -3 c 7 0 c 8 3 c 4 8 c 3 15 c 4 11 c 8 8 c 7 4 c 12 0 c 7 -4 c 4 -4 c 4 -11 c 0 -15 c -4 -12 c -4 -3 c -7 -4 c
-12 0 c -7 4 c -8 7 c -4 11 c -3 16 c -4 7 c -8 4 c -7 0 c -8 -4 c -4 -11 c 0 -15 c 4 -4 2024 2150 l 4 4 c -4 4 c -4 -4 c
4 -11 1952 2199 l 8 -4 c 7 0 c 8 4 c 4 7 c 3 15 c 4 12 c 8 7 c 7 4 c 12 0 c 7 -4 c 4 -3 c 4 -12 c 0 -15 c -4 -11 c -4 -4 c -7 -4 c
-12 0 c -7 4 c -8 7 c -4 12 c -3 15 c -4 8 c -8 3 c -7 0 c -8 -3 c -4 -12 c 0 -15 c 53 -38 1952 2294 l 0 56 c 80 0 1952 2294 l
4 -11 1952 2354 l 12 -8 c 18 -4 c 12 0 c 19 4 c 11 8 c 4 11 c 0 8 c -4 11 c -11 7 c -19 4 c -12 0 c -18 -4 c -12 -7 c -4 -11 c
0 -8 c 0 -249 2200 1902 l -8 -4 2168 2023 l -4 -11 c 0 -7 c 4 -12 c 11 -7 c 19 -4 c 19 0 c 15 4 c 8 7 c 4 12 c 0 3 c -4 12 c -8 7 c
-11 4 c -4 0 c -11 -4 c -8 -7 c -3 -12 c 0 -3 c 3 -12 c 8 -7 c 11 -4 c 80 -38 2156 2103 l 0 53 2156 2050 l 11 -3 2183 2174 l 8 -8 c
3 -11 c 0 -4 c -3 -11 c -8 -8 c -11 -4 c -4 0 c -11 4 c -8 8 c -4 11 c 0 4 c 4 11 c 8 8 c 15 3 c 19 0 c 19 -3 c 11 -8 c 4 -11 c
0 -8 c -4 -11 c -8 -4 c -3 8 2171 2212 l -12 11 c 80 0 c 4 -4 2228 2284 l 4 4 c -4 4 c -4 -4 c -4 0 2175 2318 l -7 4 c -4 4 c -4 7 c
0 15 c 4 8 c 4 4 c 7 3 c 8 0 c 8 -3 c 11 -8 c 38 -38 c 0 53 c 0 42 2156 2397 l 31 -23 c 0 12 c 3 7 c 4 4 c 11 4 c 8 0 c 11 -4 c
8 -8 c 4 -11 c 0 -11 c -4 -12 c -4 -3 c -7 -4 c 0 -38 2156 2511 l 34 -4 c -3 4 c -4 11 c 0 12 c 4 11 c 7 8 c 11 3 c 8 0 c 11 -3 c
8 -8 c 4 -11 c 0 -12 c -4 -11 c -4 -4 c -7 -4 c 0 -249 2821 1419 l -7 -4 2788 1540 l -4 -11 c 0 -7 c 4 -12 c 11 -7 c 19 -4 c 19 0 c
15 4 c 8 7 c 3 12 c 0 3 c -3 12 c -8 7 c -11 4 c -4 0 c -11 -4 c -8 -7 c -4 -12 c 0 -3 c 4 -12 c 8 -7 c 11 -4 c 79 -38 2777 1620 l
0 53 2777 1567 l 11 -3 2804 1691 l 7 -8 c 4 -11 c 0 -4 c -4 -11 c -7 -8 c -11 -4 c -4 0 c -12 4 c -7 8 c -4 11 c 0 4 c 4 11 c 7 8 c
16 3 c 18 0 c 19 -3 c 12 -8 c 3 -11 c 0 -8 c -3 -11 c -8 -4 c 4 -12 2777 1737 l 7 -3 c 8 0 c 8 3 c 3 8 c 4 15 c 4 11 c 7 8 c 8 4 c
11 0 c 8 -4 c 4 -4 c 3 -11 c 0 -15 c -3 -12 c -4 -3 c -8 -4 c -11 0 c -8 4 c -7 7 c -4 12 c -4 15 c -3 7 c -8 4 c -8 0 c -7 -4 c
-4 -11 c 0 -15 c 4 -4 2849 1801 l 3 4 c -3 4 c -4 -4 c 53 -38 2777 1869 l 0 57 c 79 0 2777 1869 l 4 -12 2777 1926 l 7 -3 c 8 0 c
8 3 c 3 8 c 4 15 c 4 11 c 7 8 c 8 4 c 11 0 c 8 -4 c 4 -4 c 3 -11 c 0 -15 c -3 -12 c -4 -3 c -8 -4 c -11 0 c -8 4 c -7 7 c -4 12 c
-4 15 c -3 7 c -8 4 c -8 0 c -7 -4 c -4 -11 c 0 -15 c 79 -37 2777 2035 l 0 53 2777 1982 l 0 -249 3866 1642 l -8 -4 3834 1763 l
-4 -11 c 0 -8 c 4 -11 c 11 -7 c 19 -4 c 19 0 c 15 4 c 8 7 c 4 11 c 0 4 c -4 12 c -8 7 c -11 4 c -4 0 c -11 -4 c -8 -7 c -4 -12 c
0 -4 c 4 -11 c 8 -7 c 11 -4 c 4 -11 3822 1808 l 8 -4 c 7 0 c 8 4 c 3 8 c 4 15 c 4 11 c 8 8 c 7 3 c 12 0 c 7 -3 c 4 -4 c 4 -11 c
0 -16 c -4 -11 c -4 -4 c -7 -3 c -12 0 c -7 3 c -8 8 c -4 11 c -4 15 c -3 8 c -8 4 c -7 0 c -8 -4 c -4 -11 c 0 -16 c
-3 7 3837 1877 l -12 11 c 80 0 c 4 -11 3822 1963 l 11 -7 c 19 -4 c 12 0 c 19 4 c 11 7 c 4 11 c 0 8 c -4 11 c -11 8 c -19 4 c -12 0 c
-19 -4 c -11 -8 c -4 -11 c 0 -8 c 4 -4 3894 2024 l 4 4 c -4 4 c -4 -4 c 0 -37 3822 2099 l 34 -4 c -4 4 c -3 11 c 0 11 c 3 12 c 8 7 c
11 4 c 8 0 c 11 -4 c 8 -7 c 4 -12 c 0 -11 c -4 -11 c -4 -4 c -7 -4 c 53 -38 3822 2168 l 0 56 c 80 0 3822 2168 l 11 -3 3849 2254 l
8 -8 c 3 -11 c 0 -4 c -3 -11 c -8 -8 c -11 -4 c -4 0 c -11 4 c -8 8 c -4 11 c 0 4 c 4 11 c 8 8 c 15 3 c 19 0 c 19 -3 c 11 -8 c
4 -11 c 0 -8 c -4 -11 c -8 -4 c 0 -250 5007 1438 l -7 -4 4974 1559 l -4 -11 c 0 -8 c 4 -11 c 11 -8 c 19 -4 c 19 0 c 15 4 c 8 8 c
3 11 c 0 4 c -3 11 c -8 8 c -11 3 c -4 0 c -11 -3 c -8 -8 c -4 -11 c 0 -4 c 4 -11 c 8 -8 c 11 -4 c 4 -11 4963 1604 l 7 -4 c 8 0 c
7 4 c 4 7 c 4 15 c 4 12 c 7 7 c 8 4 c 11 0 c 8 -4 c 4 -4 c 3 -11 c 0 -15 c -3 -11 c -4 -4 c -8 -4 c -11 0 c -8 4 c -7 7 c -4 12 c
-4 15 c -4 7 c -7 4 c -8 0 c -7 -4 c -4 -11 c 0 -15 c -4 0 4982 1664 l -7 4 c -4 4 c -4 8 c 0 15 c 4 7 c 4 4 c 7 4 c 8 0 c 7 -4 c
12 -8 c 37 -37 c 0 53 c 0 41 4963 1744 l 30 -22 c 0 11 c 4 8 c 4 3 c 11 4 c 8 0 c 11 -4 c 8 -7 c 3 -11 c 0 -12 c -3 -11 c -4 -4 c
-8 -4 c 4 -3 5035 1819 l 3 3 c -3 4 c -4 -4 c 0 -38 4963 1895 l 34 -4 c -4 4 c -4 12 c 0 11 c 4 11 c 8 8 c 11 4 c 8 0 c 11 -4 c
8 -8 c 3 -11 c 0 -11 c -3 -12 c -4 -4 c -8 -3 c 4 -11 4963 1948 l 11 -8 c 19 -4 c 11 0 c 19 4 c 12 8 c 3 11 c 0 7 c -3 12 c -12 7 c
-19 4 c -11 0 c -19 -4 c -11 -7 c -4 -12 c 0 -7 c 4 -12 4963 2020 l 7 -3 c 8 0 c 7 3 c 4 8 c 4 15 c 4 11 c 7 8 c 8 4 c 11 0 c 8 -4 c
4 -4 c 3 -11 c 0 -15 c -3 -12 c -4 -3 c -8 -4 c -11 0 c -8 4 c -7 7 c -4 12 c -4 15 c -4 7 c -7 4 c -8 0 c -7 -4 c -4 -11 c 0 -15 c
0 -250 5111 1954 l -7 -4 5078 2075 l -4 -11 c 0 -8 c 4 -11 c 11 -8 c 19 -3 c 19 0 c 15 3 c 8 8 c 3 11 c 0 4 c -3 11 c -8 8 c -11 4 c
-4 0 c -11 -4 c -8 -8 c -4 -11 c 0 -4 c 4 -11 c 8 -8 c 11 -3 c 4 -11 5067 2120 l 7 -4 c 8 0 c 7 4 c 4 7 c 4 16 c 4 11 c 7 7 c 8 4 c
11 0 c 8 -4 c 4 -3 c 3 -12 c 0 -15 c -3 -11 c -4 -4 c -8 -4 c -11 0 c -8 4 c -7 8 c -4 11 c -4 15 c -4 8 c -7 3 c -8 0 c -7 -3 c
-4 -12 c 0 -15 c -4 0 5086 2181 l -8 3 c -3 4 c -4 8 c 0 15 c 4 8 c 3 3 c 8 4 c 8 0 c 7 -4 c 12 -7 c 37 -38 c 0 53 c
53 -37 5067 2290 l 0 56 c 79 0 5067 2290 l 4 -4 5139 2336 l 3 4 c -3 3 c -4 -3 c -7 -4 5078 2415 l -4 -11 c 0 -8 c 4 -11 c 11 -8 c
19 -3 c 19 0 c 15 3 c 8 8 c 3 11 c 0 4 c -3 11 c -8 8 c -11 4 c -4 0 c -11 -4 c -8 -8 c -4 -11 c 0 -4 c 4 -11 c 8 -8 c 11 -3 c
79 -37 5067 2494 l 0 53 5067 2441 l 79 -38 5067 2570 l 0 53 5067 2517 l 0 -249 5340 1632 l -7 -3 5307 1753 l -4 -12 c 0 -7 c 4 -12 c
11 -7 c 19 -4 c 19 0 c 15 4 c 8 7 c 3 12 c 0 3 c -3 12 c -8 7 c -11 4 c -4 0 c -11 -4 c -8 -7 c -4 -12 c 0 -3 c 4 -12 c 8 -7 c
11 -4 c 4 -12 5296 1799 l 7 -3 c 8 0 c 7 3 c 4 8 c 4 15 c 4 11 c 7 8 c 8 4 c 11 0 c 8 -4 c 4 -4 c 3 -11 c 0 -15 c -3 -12 c -4 -3 c
-8 -4 c -11 0 c -8 4 c -7 7 c -4 12 c -4 15 c -4 7 c -7 4 c -8 0 c -7 -4 c -4 -11 c 0 -15 c -4 0 5315 1859 l -7 4 c -4 4 c -4 7 c
0 15 c 4 8 c 4 4 c 7 4 c 8 0 c 7 -4 c 12 -8 c 37 -38 c 0 53 c 79 -38 5296 1984 l 0 53 5296 1931 l 4 -4 5368 2014 l 3 4 c -3 4 c
-4 -4 c -4 0 5315 2048 l -7 4 c -4 4 c -4 7 c 0 15 c 4 8 c 4 4 c 7 4 c 8 0 c 7 -4 c 12 -8 c 37 -38 c 0 53 c 53 -38 5296 2158 l
0 57 c 79 0 5296 2158 l 12 -4 5322 2245 l 7 -8 c 4 -11 c 0 -4 c -4 -11 c -7 -8 c -12 -3 c -3 0 c -12 3 c -7 8 c -4 11 c 0 4 c 4 11 c
7 8 c 15 4 c 19 0 c 19 -4 c 12 -8 c 3 -11 c 0 -8 c -3 -11 c -8 -4 c 0 -250 5498 3518 l -7 -4 5465 3639 l -4 -11 c 0 -8 c 4 -11 c
11 -8 c 19 -4 c 19 0 c 15 4 c 8 8 c 3 11 c 0 4 c -3 11 c -8 8 c -11 4 c -4 0 c -11 -4 c -8 -8 c -4 -11 c 0 -4 c 4 -11 c 8 -8 c
11 -4 c 4 -11 5454 3684 l 7 -4 c 8 0 c 7 4 c 4 7 c 4 15 c 4 12 c 7 7 c 8 4 c 11 0 c 8 -4 c 4 -3 c 3 -12 c 0 -15 c -3 -11 c -4 -4 c
-8 -4 c -11 0 c -8 4 c -7 8 c -4 11 c -4 15 c -4 8 c -7 3 c -8 0 c -7 -3 c -4 -12 c 0 -15 c -4 0 5473 3745 l -7 3 c -4 4 c -4 8 c
0 15 c 4 7 c 4 4 c 7 4 c 8 0 c 7 -4 c 12 -7 c 37 -38 c 0 53 c 12 -4 5480 3866 l 7 -8 c 4 -11 c 0 -4 c -4 -11 c -7 -8 c -12 -4 c
-3 0 c -12 4 c -7 8 c -4 11 c 0 4 c 4 11 c 7 8 c 15 4 c 19 0 c 19 -4 c 12 -8 c 3 -11 c 0 -8 c -3 -11 c -8 -4 c 4 -4 5526 3900 l
3 4 c -3 3 c -4 -3 c 4 -11 5454 3952 l 11 -7 c 19 -4 c 11 0 c 19 4 c 12 7 c 3 11 c 0 8 c -3 11 c -12 8 c -19 4 c -11 0 c -19 -4 c
-11 -8 c -4 -11 c 0 -8 c 0 41 5454 4013 l 30 -22 c 0 11 c 4 8 c 4 3 c 11 4 c 8 0 c 11 -4 c 8 -7 c 3 -11 c 0 -12 c -3 -11 c -4 -4 c
-8 -4 c 0 -37 5454 4126 l 34 -4 c -4 4 c -4 11 c 0 11 c 4 12 c 8 7 c 11 4 c 8 0 c 11 -4 c 8 -7 c 3 -12 c 0 -11 c -3 -11 c -4 -4 c
-8 -4 c 0 -249 6026 6770 l -8 -4 5994 6891 l -3 -11 c 0 -8 c 3 -11 c 12 -7 c 19 -4 c 19 0 c 15 4 c 7 7 c 4 11 c 0 4 c -4 12 c -7 7 c
-12 4 c -3 0 c -12 -4 c -7 -7 c -4 -12 c 0 -4 c 4 -11 c 7 -7 c 12 -4 c 3 -11 5983 6936 l 8 -4 c 8 0 c 7 4 c 4 8 c 4 15 c 3 11 c
8 8 c 8 4 c 11 0 c 7 -4 c 4 -4 c 4 -11 c 0 -16 c -4 -11 c -4 -4 c -7 -3 c -11 0 c -8 3 c -8 8 c -3 11 c -4 15 c -4 8 c -7 4 c -8 0 c
-8 -4 c -3 -11 c 0 -16 c 0 41 5983 7001 l 30 -22 c 0 11 c 4 8 c 3 3 c 12 4 c 7 0 c 12 -4 c 7 -7 c 4 -12 c 0 -11 c -4 -11 c -4 -4 c
-7 -4 c 53 -38 5983 7107 l 0 56 c 79 0 5983 7107 l 4 -4 6054 7152 l 4 4 c -4 4 c -4 -4 c 11 -3 6009 7231 l 8 -8 c 4 -11 c 0 -4 c
-4 -11 c -8 -8 c -11 -4 c -4 0 c -11 4 c -8 8 c -3 11 c 0 4 c 3 11 c 8 8 c 15 3 c 19 0 c 19 -3 c 11 -8 c 4 -11 c 0 -8 c -4 -11 c
-7 -4 c -4 0 6002 7262 l -8 3 c -4 4 c -3 8 c 0 15 c 3 7 c 4 4 c 8 4 c 7 0 c 8 -4 c 11 -7 c 38 -38 c 0 53 c 0 -38 5983 7379 l
34 -4 c -4 4 c -4 11 c 0 12 c 4 11 c 7 7 c 12 4 c 7 0 c 12 -4 c 7 -7 c 4 -11 c 0 -12 c -4 -11 c -4 -4 c -7 -4 c 0 -250 6421 1344 l
-7 -4 6389 1465 l -4 -11 c 0 -8 c 4 -11 c 11 -8 c 19 -3 c 19 0 c 15 3 c 7 8 c 4 11 c 0 4 c -4 11 c -7 8 c -12 4 c -3 0 c -12 -4 c
-7 -8 c -4 -11 c 0 -4 c 4 -11 c 7 -8 c 12 -3 c 4 -11 6378 1510 l 7 -4 c 8 0 c 7 4 c 4 7 c 4 16 c 4 11 c 7 7 c 8 4 c 11 0 c 8 -4 c
3 -3 c 4 -12 c 0 -15 c -4 -11 c -3 -4 c -8 -4 c -11 0 c -8 4 c -7 8 c -4 11 c -4 15 c -4 8 c -7 3 c -8 0 c -7 -3 c -4 -12 c 0 -15 c
0 42 6378 1574 l 30 -23 c 0 12 c 4 7 c 4 4 c 11 4 c 7 0 c 12 -4 c 7 -7 c 4 -12 c 0 -11 c -4 -12 c -3 -3 c -8 -4 c 12 -4 6404 1692 l
7 -8 c 4 -11 c 0 -4 c -4 -11 c -7 -8 c -12 -3 c -4 0 c -11 3 c -7 8 c -4 11 c 0 4 c 4 11 c 7 8 c 15 4 c 19 0 c 19 -4 c 11 -8 c
4 -11 c 0 -8 c -4 -11 c -7 -4 c 3 -4 6450 1726 l 4 4 c -4 3 c -3 -3 c -4 0 6397 1760 l -8 3 c -3 4 c -4 8 c 0 15 c 4 7 c 3 4 c 8 4 c
7 0 c 8 -4 c 11 -7 c 38 -38 c 0 53 c 12 -4 6404 1881 l 7 -8 c 4 -11 c 0 -4 c -4 -11 c -7 -8 c -12 -3 c -4 0 c -11 3 c -7 8 c -4 11 c
0 4 c 4 11 c 7 8 c 15 4 c 19 0 c 19 -4 c 11 -8 c 4 -11 c 0 -8 c -4 -11 c -7 -4 c 0 -37 6378 1952 l 34 -4 c -4 4 c -4 11 c 0 11 c
4 12 c 8 7 c 11 4 c 7 0 c 12 -4 c 7 -7 c 4 -12 c 0 -11 c -4 -11 c -3 -4 c -8 -4 c 0 -250 7780 1728 l -7 -4 7748 1849 l -4 -12 c
0 -7 c 4 -12 c 11 -7 c 19 -4 c 19 0 c 15 4 c 7 7 c 4 12 c 0 4 c -4 11 c -7 8 c -11 3 c -4 0 c -12 -3 c -7 -8 c -4 -11 c 0 -4 c
4 -12 c 7 -7 c 12 -4 c 4 -11 7737 1894 l 7 -4 c 8 0 c 7 4 c 4 7 c 4 15 c 4 12 c 7 7 c 8 4 c 11 0 c 8 -4 c 3 -4 c 4 -11 c 0 -15 c
-4 -11 c -3 -4 c -8 -4 c -11 0 c -8 4 c -7 7 c -4 12 c -4 15 c -4 7 c -7 4 c -8 0 c -7 -4 c -4 -11 c 0 -15 c 0 -38 7737 1996 l
34 -4 c -4 4 c -4 11 c 0 12 c 4 11 c 8 8 c 11 3 c 8 0 c 11 -3 c 7 -8 c 4 -11 c 0 -12 c -4 -11 c -3 -4 c -8 -3 c 53 -38 7737 2064 l
0 57 c 79 0 7737 2064 l 3 -3 7809 2109 l 4 3 c -4 4 c -3 -4 c -4 7 7752 2151 l -11 12 c 79 0 c 4 -12 7737 2238 l 11 -7 c 19 -4 c
11 0 c 19 4 c 11 7 c 4 12 c 0 7 c -4 12 c -11 7 c -19 4 c -11 0 c -19 -4 c -11 -7 c -4 -12 c 0 -7 c 12 -4 7763 2340 l 7 -7 c 4 -12 c
0 -4 c -4 -11 c -7 -8 c -12 -3 c -3 0 c -12 3 c -7 8 c -4 11 c 0 4 c 4 12 c 7 7 c 15 4 c 19 0 c 19 -4 c 11 -7 c 4 -12 c 0 -7 c
-4 -12 c -7 -4 c 0 -250 8449 3008 l -8 -4 8417 3129 l -4 -11 c 0 -8 c 4 -11 c 11 -8 c 19 -3 c 19 0 c 15 3 c 8 8 c 4 11 c 0 4 c
-4 11 c -8 8 c -11 4 c -4 0 c -11 -4 c -8 -8 c -4 -11 c 0 -4 c 4 -11 c 8 -8 c 11 -3 c 4 -11 8405 3174 l 8 -4 c 7 0 c 8 4 c 3 8 c
4 15 c 4 11 c 8 8 c 7 3 c 11 0 c 8 -3 c 4 -4 c 4 -12 c 0 -15 c -4 -11 c -4 -4 c -8 -4 c -11 0 c -7 4 c -8 8 c -4 11 c -4 15 c -3 8 c
-8 4 c -7 0 c -8 -4 c -4 -12 c 0 -15 c -8 -4 8417 3280 l -4 -11 c 0 -7 c 4 -12 c 11 -7 c 19 -4 c 19 0 c 15 4 c 8 7 c 4 12 c 0 3 c
-4 12 c -8 7 c -11 4 c -4 0 c -11 -4 c -8 -7 c -4 -12 c 0 -3 c 4 -12 c 8 -7 c 11 -4 c -3 8 8420 3318 l -12 11 c 80 0 c
4 -4 8477 3390 l 4 4 c -4 4 c -4 -4 c -4 0 8424 3424 l -7 4 c -4 3 c -4 8 c 0 15 c 4 8 c 4 3 c 7 4 c 8 0 c 7 -4 c 12 -7 c 38 -38 c
0 53 c -8 -4 8417 3545 l -4 -11 c 0 -8 c 4 -11 c 11 -8 c 19 -4 c 19 0 c 15 4 c 8 8 c 4 11 c 0 4 c -4 11 c -8 8 c -11 4 c -4 0 c
-11 -4 c -8 -8 c -4 -11 c 0 -4 c 4 -11 c 8 -8 c 11 -4 c 11 -3 8432 3620 l 8 -8 c 3 -11 c 0 -4 c -3 -11 c -8 -8 c -11 -4 c -4 0 c
-11 4 c -8 8 c -4 11 c 0 4 c 4 11 c 8 8 c 15 3 c 19 0 c 18 -3 c 12 -8 c 4 -11 c 0 -8 c -4 -11 c -8 -4 c 0 -249 8662 1692 l
-8 -3 8630 1813 l -4 -12 c 0 -7 c 4 -12 c 12 -7 c 18 -4 c 19 0 c 15 4 c 8 7 c 4 12 c 0 3 c -4 12 c -8 7 c -11 4 c -4 0 c -11 -4 c
-8 -7 c -3 -12 c 0 -3 c 3 -12 c 8 -7 c 11 -4 c 4 -12 8618 1859 l 8 -3 c 7 0 c 8 3 c 4 8 c 3 15 c 4 11 c 8 8 c 7 4 c 12 0 c 7 -4 c
4 -4 c 4 -11 c 0 -15 c -4 -12 c -4 -3 c -7 -4 c -12 0 c -7 4 c -8 7 c -4 12 c -3 15 c -4 7 c -8 4 c -7 0 c -8 -4 c -4 -11 c 0 -15 c
-8 -4 8630 1965 l -4 -12 c 0 -7 c 4 -11 c 12 -8 c 18 -4 c 19 0 c 15 4 c 8 8 c 4 11 c 0 4 c -4 11 c -8 8 c -11 3 c -4 0 c -11 -3 c
-8 -8 c -3 -11 c 0 -4 c 3 -11 c 8 -8 c 11 -4 c 0 41 8618 1999 l 31 -23 c 0 12 c 3 7 c 4 4 c 12 4 c 7 0 c 11 -4 c 8 -7 c 4 -12 c
0 -11 c -4 -11 c -4 -4 c -7 -4 c 4 -4 8690 2074 l 4 4 c -4 4 c -4 -4 c 0 -38 8618 2150 l 34 -4 c -3 4 c -4 11 c 0 12 c 4 11 c 7 8 c
12 3 c 7 0 c 11 -3 c 8 -8 c 4 -11 c 0 -12 c -4 -11 c -4 -4 c -7 -4 c 0 41 8618 2188 l 31 -23 c 0 12 c 3 7 c 4 4 c 12 4 c 7 0 c
11 -4 c 8 -7 c 4 -12 c 0 -11 c -4 -11 c -4 -4 c -7 -4 c 0 -38 8618 2301 l 34 -4 c -3 4 c -4 11 c 0 12 c 4 11 c 7 8 c 12 4 c 7 0 c
11 -4 c 8 -8 c 4 -11 c 0 -12 c -4 -11 c -4 -4 c -7 -3 c 0 -249 9128 1685 l -7 -3 9095 1806 l -4 -12 c 0 -7 c 4 -12 c 11 -7 c 19 -4 c
19 0 c 15 4 c 8 7 c 3 12 c 0 4 c -3 11 c -8 7 c -11 4 c -4 0 c -11 -4 c -8 -7 c -4 -11 c 0 -4 c 4 -12 c 8 -7 c 11 -4 c
4 -12 9084 1852 l 7 -3 c 8 0 c 7 3 c 4 8 c 4 15 c 4 11 c 7 8 c 8 4 c 11 0 c 8 -4 c 4 -4 c 3 -11 c 0 -15 c -3 -12 c -4 -3 c -8 -4 c
-11 0 c -8 4 c -7 7 c -4 12 c -4 15 c -4 7 c -7 4 c -8 0 c -7 -4 c -4 -11 c 0 -15 c -7 -4 9095 1958 l -4 -11 c 0 -8 c 4 -11 c
11 -8 c 19 -4 c 19 0 c 15 4 c 8 8 c 3 11 c 0 4 c -3 11 c -8 8 c -11 3 c -4 0 c -11 -3 c -8 -8 c -4 -11 c 0 -4 c 4 -11 c 8 -8 c
11 -4 c 4 -11 9084 2003 l 7 -4 c 8 0 c 7 4 c 4 7 c 4 15 c 4 12 c 7 7 c 8 4 c 11 0 c 8 -4 c 4 -4 c 3 -11 c 0 -15 c -3 -11 c -4 -4 c
-8 -4 c -11 0 c -8 4 c -7 7 c -4 12 c -4 15 c -4 7 c -7 4 c -8 0 c -7 -4 c -4 -11 c 0 -15 c 4 -4 9156 2067 l 3 4 c -3 4 c -4 -4 c
53 -38 9084 2135 l 0 57 c 79 0 9084 2135 l 0 -37 9084 2218 l 34 -4 c -4 4 c -4 11 c 0 11 c 4 12 c 8 7 c 11 4 c 8 0 c 11 -4 c 8 -7 c
3 -12 c 0 -11 c -3 -11 c -4 -4 c -8 -4 c -4 8 9099 2260 l -11 11 c 79 0 c 0 -249 9398 7019 l -7 -4 9365 7140 l -4 -11 c 0 -8 c
4 -11 c 11 -8 c 19 -3 c 19 0 c 15 3 c 7 8 c 4 11 c 0 4 c -4 11 c -7 8 c -11 4 c -4 0 c -12 -4 c -7 -8 c -4 -11 c 0 -4 c 4 -11 c
7 -8 c 12 -3 c 4 -11 9354 7185 l 7 -4 c 8 0 c 7 4 c 4 8 c 4 15 c 4 11 c 7 8 c 8 3 c 11 0 c 8 -3 c 3 -4 c 4 -11 c 0 -16 c -4 -11 c
-3 -4 c -8 -3 c -11 0 c -8 3 c -7 8 c -4 11 c -4 15 c -4 8 c -7 4 c -8 0 c -7 -4 c -4 -11 c 0 -16 c 79 -38 9354 7295 l
0 53 9354 7242 l -4 8 9369 7329 l -11 11 c 79 0 c 3 -4 9426 7401 l 4 4 c -4 4 c -3 -4 c -4 0 9373 7435 l -8 4 c -3 3 c -4 8 c 0 15 c
4 8 c 3 3 c 8 4 c 8 0 c 7 -4 c 11 -7 c 38 -38 c 0 53 c 4 -12 9354 7526 l 7 -4 c 8 0 c 7 4 c 4 8 c 4 15 c 4 11 c 7 8 c 8 4 c 11 0 c
8 -4 c 3 -4 c 4 -11 c 0 -15 c -4 -12 c -3 -4 c -8 -3 c -11 0 c -8 3 c -7 8 c -4 11 c -4 15 c -4 8 c -7 4 c -8 0 c -7 -4 c -4 -11 c
0 -15 c 12 -3 9380 7631 l 7 -8 c 4 -11 c 0 -4 c -4 -11 c -7 -8 c -12 -4 c -3 0 c -12 4 c -7 8 c -4 11 c 0 4 c 4 11 c 7 8 c 15 3 c
19 0 c 19 -3 c 11 -8 c 4 -11 c 0 -8 c -4 -11 c -7 -4 c
showpage PGPLOT restore
 
%%Trailer
%%DocumentFonts: 
%%Pages: 1
%%EOF
