%!PS-Adobe-3.0 EPSF-3.0
%%For: tab
%%Title: PGPLOT PostScript plot
%%Creator: PGPLOT
%%CreationDate: 20-Apr-1995 16:38
%%BoundingBox: 25 18 587 774
%%DocumentFonts: (atend)
%%LanguageLevel: 1
%%Orientation: Landscape
%%Pages: (atend)
%%EndComments
%%BeginProlog
/l {moveto rlineto currentpoint stroke moveto} bind def
/c {rlineto currentpoint stroke moveto} bind def
/d {moveto 0 0 rlineto currentpoint stroke moveto} bind def
/SLW {5 mul setlinewidth} bind def
/SCF /pop load def
/BP {newpath moveto} bind def
/LP /rlineto load def
/EP {rlineto closepath eofill} bind def
/MB {gsave translate MFAC dup scale 1 setlinewidth 2 setlinecap 0 setlinejoin newpath} bind def
/ME /grestore load def
/C {0 360 arc stroke} bind def
/FC {0 360 arc fill} bind def
%%EndProlog
 
%%Page: 1 1
%%BeginPageSetup
/PGPLOT save def
0.072 0.072 scale
8150 250 translate 90 rotate
1 setlinejoin 1 setlinecap 1 SLW 1 SCF
%%EndPageSetup
0.000 setgray 1 SLW 8939 0 780 780 l 0 6239 c -8939 0 c 0 -6239 c 0 -45 1116 780 l 0 -45 1554 780 l 0 -45 1991 780 l
0 -45 2428 780 l 0 -90 2865 780 l 0 -45 3302 780 l 0 -45 3739 780 l 0 -45 4176 780 l 0 -45 4613 780 l 0 -90 5051 780 l
0 -45 5488 780 l 0 -45 5925 780 l 0 -45 6362 780 l 0 -45 6799 780 l 0 -90 7236 780 l 0 -45 7673 780 l 0 -45 8110 780 l
0 -45 8548 780 l 0 -45 8985 780 l 0 -90 9422 780 l 0 -45 1116 7064 l 0 -45 1554 7064 l 0 -45 1991 7064 l 0 -45 2428 7064 l
0 -90 2865 7109 l 0 -45 3302 7064 l 0 -45 3739 7064 l 0 -45 4176 7064 l 0 -45 4613 7064 l 0 -90 5051 7109 l 0 -45 5488 7064 l
0 -45 5925 7064 l 0 -45 6362 7064 l 0 -45 6799 7064 l 0 -90 7236 7109 l 0 -45 7673 7064 l 0 -45 8110 7064 l 0 -45 8548 7064 l
0 -45 8985 7064 l 0 -90 9422 7109 l -60 0 2775 672 l -6 -54 c 6 6 c 18 6 c 18 0 c 18 -6 c 12 -12 c 6 -18 c 0 -12 c -6 -18 c
-12 -12 c -18 -6 c -18 0 c -18 6 c -6 6 c -6 12 c -18 -6 2859 672 l -12 -18 c -6 -30 c 0 -18 c 6 -30 c 12 -18 c 18 -6 c 12 0 c
18 6 c 12 18 c 6 30 c 0 18 c -6 30 c -12 18 c -18 6 c -12 0 c -18 -6 2979 672 l -12 -18 c -6 -30 c 0 -18 c 6 -30 c 12 -18 c 18 -6 c
12 0 c 18 6 c 12 18 c 6 30 c 0 18 c -6 30 c -12 18 c -18 6 c -12 0 c 12 6 4847 648 l 18 18 c 0 -126 c -18 -6 4985 672 l -12 -18 c
-6 -30 c 0 -18 c 6 -30 c 12 -18 c 18 -6 c 12 0 c 18 6 c 12 18 c 6 30 c 0 18 c -6 30 c -12 18 c -18 6 c -12 0 c -18 -6 5105 672 l
-12 -18 c -6 -30 c 0 -18 c 6 -30 c 12 -18 c 18 -6 c 12 0 c 18 6 c 12 18 c 6 30 c 0 18 c -6 30 c -12 18 c -18 6 c -12 0 c
-18 -6 5225 672 l -12 -18 c -6 -30 c 0 -18 c 6 -30 c 12 -18 c 18 -6 c 12 0 c 18 6 c 12 18 c 6 30 c 0 18 c -6 30 c -12 18 c -18 6 c
-12 0 c 12 6 7032 648 l 18 18 c 0 -126 c -60 0 7206 672 l -6 -54 c 6 6 c 18 6 c 18 0 c 18 -6 c 12 -12 c 6 -18 c 0 -12 c -6 -18 c
-12 -12 c -18 -6 c -18 0 c -18 6 c -6 6 c -6 12 c -18 -6 7290 672 l -12 -18 c -6 -30 c 0 -18 c 6 -30 c 12 -18 c 18 -6 c 12 0 c
18 6 c 12 18 c 6 30 c 0 18 c -6 30 c -12 18 c -18 6 c -12 0 c -18 -6 7410 672 l -12 -18 c -6 -30 c 0 -18 c 6 -30 c 12 -18 c 18 -6 c
12 0 c 18 6 c 12 18 c 6 30 c 0 18 c -6 30 c -12 18 c -18 6 c -12 0 c 0 6 9206 642 l 6 12 c 6 6 c 12 6 c 24 0 c 12 -6 c 6 -6 c
6 -12 c 0 -12 c -6 -12 c -12 -18 c -60 -60 c 84 0 c -18 -6 9356 672 l -12 -18 c -6 -30 c 0 -18 c 6 -30 c 12 -18 c 18 -6 c 12 0 c
18 6 c 12 18 c 6 30 c 0 18 c -6 30 c -12 18 c -18 6 c -12 0 c -18 -6 9476 672 l -12 -18 c -6 -30 c 0 -18 c 6 -30 c 12 -18 c 18 -6 c
12 0 c 18 6 c 12 18 c 6 30 c 0 18 c -6 30 c -12 18 c -18 6 c -12 0 c -18 -6 9596 672 l -12 -18 c -6 -30 c 0 -18 c 6 -30 c 12 -18 c
18 -6 c 12 0 c 18 6 c 12 18 c 6 30 c 0 18 c -6 30 c -12 18 c -18 6 c -12 0 c -90 0 780 796 l -45 0 780 1179 l -45 0 780 1563 l
-45 0 780 1947 l -45 0 780 2330 l -90 0 780 2714 l -45 0 780 3098 l -45 0 780 3481 l -45 0 780 3865 l -45 0 780 4249 l
-90 0 780 4633 l -45 0 780 5016 l -45 0 780 5400 l -45 0 780 5784 l -45 0 780 6167 l -90 0 780 6551 l -45 0 780 6935 l
-90 0 9809 796 l -45 0 9764 1179 l -45 0 9764 1563 l -45 0 9764 1947 l -45 0 9764 2330 l -90 0 9809 2714 l -45 0 9764 3098 l
-45 0 9764 3481 l -45 0 9764 3865 l -45 0 9764 4249 l -90 0 9809 4633 l -45 0 9764 5016 l -45 0 9764 5400 l -45 0 9764 5784 l
-45 0 9764 6167 l -90 0 9809 6551 l -45 0 9764 6935 l 6 -18 517 790 l 18 -12 c 30 -6 c 18 0 c 30 6 c 18 12 c 6 18 c 0 12 c -6 18 c
-18 12 c -30 6 c -18 0 c -30 -6 c -18 -12 c -6 -18 c 0 -12 c -6 12 541 2594 l -18 18 c 126 0 c 6 -18 517 2732 l 18 -12 c 30 -6 c
18 0 c 30 6 c 18 12 c 6 18 c 0 12 c -6 18 c -18 12 c -30 6 c -18 0 c -30 -6 c -18 -12 c -6 -18 c 0 -12 c 63 -45 453 2857 l 0 67 c
94 0 453 2857 l -6 0 547 4375 l -12 6 c -6 6 c -6 12 c 0 24 c 6 12 c 6 6 c 12 6 c 12 0 c 12 -6 c 18 -12 c 60 -60 c 0 84 c
84 84 547 4495 l 84 -84 547 4579 l -6 12 541 4639 l -18 18 c 126 0 c 6 -18 517 4777 l 18 -12 c 30 -6 c 18 0 c 30 6 c 18 12 c 6 18 c
0 12 c -6 18 c -18 12 c -30 6 c -18 0 c -30 -6 c -18 -12 c -6 -18 c 0 -12 c 63 -45 453 4901 l 0 68 c 94 0 453 4901 l 0 66 517 6299 l
48 -36 c 0 18 c 6 12 c 6 6 c 18 6 c 12 0 c 18 -6 c 12 -12 c 6 -18 c 0 -18 c -6 -18 c -6 -6 c -12 -6 c 84 84 547 6413 l
84 -84 547 6497 l -6 12 541 6557 l -18 18 c 126 0 c 6 -18 517 6695 l 18 -12 c 30 -6 c 18 0 c 30 6 c 18 12 c 6 18 c 0 12 c -6 18 c
-18 12 c -30 6 c -18 0 c -30 -6 c -18 -12 c -6 -18 c 0 -12 c 63 -45 453 6820 l 0 67 c 94 0 453 6820 l
4 0 780 817 l 5 -1 c 4 -1 c 4 2 c 5 0 c 4 3 c 4 18 c 5 58 c 4 225 c 5 156 c 4 -35 c 4 -266 c 5 -149 c 4 -9 c 4 -1 c 5 0 c 4 3 c
5 20 c 4 15 c 4 -4 c 5 -20 c 4 -10 c 4 1 c 5 0 c 4 1 c 5 6 c 4 30 c 4 19 c 5 -7 c 4 -33 c 4 -14 c 5 -2 c 4 -2 c 5 1 c 4 0 c 4 1 c
5 0 c 4 -1 c 4 -2 c 5 1 c 4 1 c 4 12 c 5 34 c 4 152 c 5 165 c 4 -6 c 4 -185 c 5 -153 c 4 -5 c 4 38 c 5 136 c 4 277 c 5 40 c 4 -191 c
4 -277 c 5 -32 c 4 -2 c 4 -1 c 5 -2 c 4 -2 c 5 1 c 4 0 c 4 1 c 5 -2 c 4 0 c 4 0 c 5 0 c 4 0 c 5 1 c 4 -2 c 4 0 c 5 0 c 4 -1 c 4 1 c
5 2 c 4 0 c 4 -1 c 5 1 c 4 1 c 5 -1 c 4 -2 c 4 1 c 5 0 c 4 -23 c 4 0 c 5 21 c 4 0 c 5 0 c 4 1 c 4 4 c 5 0 c 4 1 c 4 -1 c 5 1 c 4 0 c
5 5 c 4 23 c 4 16 c 5 -6 c 4 -26 c 4 -11 c 5 -1 c 4 -2 c 5 0 c 4 -1 c 4 4 c 5 4 c 4 0 c 4 -5 c 5 -4 c 4 0 c 4 2 c 5 0 c 4 -2 c 5 0 c
4 0 c 4 0 c 5 0 c 4 -1 c 4 3 c 5 2 c 4 2 c 5 1 c 4 9 c 4 43 c 5 173 c 4 456 c 4 289 c 5 -204 c 4 -510 c 5 -224 c 4 -23 c 4 -9 c
5 -5 c 4 1 c 4 1 c 5 -1 c 4 1 c 5 0 c 4 1 c 4 -1 c 5 -2 c 4 -3 c 4 0 c 5 2 c 4 5 c 4 2 c 5 -3 c 4 -6 c 5 -1 c 4 0 c 4 1 c 5 -1 c
4 1 c 4 0 c 5 1 c 4 0 c 5 -1 c 4 -1 c 4 -1 c 5 -1 c 4 1 c 4 3 c 5 1 c 4 0 c 5 -3 c 4 1 c 4 10 c 5 44 c 4 36 c 4 -8 c 5 -51 c 4 -23 c
4 0 c 5 0 c 4 -2 c 5 -2 c 4 -2 c 4 1 c 5 1 c 4 5 c 4 1 c 5 -2 c 4 -3 c 5 -2 c 4 0 c 4 2 c 5 2 c 4 1 c 4 -1 c 5 -1 c 4 3 c 5 1 c
4 -2 c 4 -3 c 5 -2 c 4 0 c 4 0 c 5 1 c 4 1 c 5 1 c 4 0 c 4 -1 c 5 0 c 4 -1 c 4 1 c 5 0 c 4 2 c 4 7 c 5 41 c 4 214 c 5 172 c 4 -22 c
4 -255 c 5 -148 c 4 -10 c 4 -1 c 5 2 c 4 -1 c 5 3 c 4 21 c 4 42 c 5 6 c 4 -27 c 4 -39 c 5 -5 c 4 2 c 5 2 c 4 -1 c 4 -2 c 5 -2 c
4 2 c 4 0 c 5 0 c 4 0 c 5 0 c 4 -1 c 4 -1 c 5 0 c 4 1 c 4 -1 c 5 3 c 4 5 c 4 6 c 5 -1 c 4 -5 c 5 -7 c 4 -1 c 4 1 c 5 2 c 4 -1 c
4 0 c 5 0 c 4 1 c 5 0 c 4 0 c 4 2 c 5 8 c 4 57 c 4 261 c 5 139 c 4 -50 c 5 -286 c 4 -122 c 4 -6 c 5 -2 c 4 -2 c 4 -1 c 5 0 c 4 0 c
5 1 c 4 0 c 4 1 c 5 1 c 4 0 c 4 0 c 5 2 c 4 3 c 4 13 c 5 102 c 4 312 c 5 132 c 4 -106 c 4 -356 c 5 -100 c 4 -3 c 4 0 c 5 1 c 4 0 c
5 -2 c 4 -1 c 4 -1 c 5 0 c 4 0 c 4 1 c 5 1 c 4 1 c 5 0 c 4 -1 c 4 0 c 5 2 c 4 16 c 4 32 c 5 9 c 4 -14 c 5 -28 c 4 -11 c 4 -5 c 5 1 c
4 2 c 4 0 c 5 -3 c 4 -2 c 4 1 c 5 -1 c 4 0 c 5 -1 c 4 0 c 4 0 c 5 1 c 4 1 c 4 2 c 5 0 c 4 -1 c 5 -1 c 4 -1 c 4 -1 c 5 0 c 4 2 c
4 0 c 5 1 c 4 -1 c 5 0 c 4 0 c 4 0 c 5 0 c 4 -2 c 4 2 c 5 1 c 4 0 c 4 0 c 5 -1 c 4 1 c 5 2 c 4 1 c 4 2 c 5 6 c 4 14 c 4 6 c 5 7 c
4 61 c 5 443 c 4 897 c 4 217 c 5 -554 c 4 -870 c 4 -188 c 5 -13 c 4 -8 c 5 -11 c 4 -6 c 4 -3 c 5 -1 c 4 0 c 4 -1 c 5 -1 c 4 -1 c
5 -1 c 4 -2 c 4 2 c 5 1 c 4 -2 c 4 0 c 5 2 c 4 12 c 4 3 c 5 -5 c 4 -11 c 5 -2 c 4 0 c 4 1 c 5 2 c 4 12 c 4 80 c 5 79 c 4 -1 c
5 -98 c 4 -66 c 4 8 c 5 30 c 4 18 c 4 -13 c 5 -38 c 4 -15 c 5 -2 c 4 3 c 4 7 c 5 1 c 4 -4 c 4 -7 c 5 -1 c 4 0 c 5 1 c 4 0 c 4 1 c
5 -1 c 4 -1 c 4 1 c 5 0 c 4 1 c 4 1 c 5 2 c 4 6 c 5 4 c 4 2 c 4 -4 c 5 3 c 4 55 c 4 321 c 5 204 c 4 -63 c 5 -355 c 4 -160 c 4 -5 c
5 2 c 4 3 c 4 -2 c 5 -2 c 4 3 c 5 2 c 4 -2 c 4 -4 c 5 4 c 4 1 c 4 -3 c 5 -5 c 4 -1 c 5 -1 c 4 -1 c 4 1 c 5 4 c 4 2 c 4 8 c 5 4 c
4 -2 c 4 -11 c 5 -6 c 4 0 c 5 -1 c 4 4 c 4 3 c 5 1 c 4 -4 c 4 -1 c 5 1 c 4 5 c 5 36 c 4 64 c 4 12 c 5 -49 c 4 -55 c 4 -15 c 5 0 c
4 1 c 5 2 c 4 -2 c 4 -1 c 5 -1 c 4 2 c 4 -1 c 5 -1 c 4 -1 c 5 1 c 4 0 c 4 -1 c 5 0 c 4 0 c 4 -1 c 5 -1 c 4 0 c 4 1 c 5 2 c 4 1 c
5 1 c 4 0 c 4 0 c 5 0 c 4 -1 c 4 0 c 5 1 c 4 4 c 5 20 c 4 26 c 4 3 c 5 -28 c 4 -18 c 4 1 c 5 2 c 4 -1 c 5 -5 c 4 0 c 4 -1 c 5 -2 c
4 1 c 4 1 c 5 0 c 4 0 c 4 1 c 5 0 c 4 1 c 5 -1 c 4 1 c 4 -2 c 5 1 c 4 1 c 4 0 c 5 3 c 4 1 c 5 11 c 4 13 c 4 3 c 5 -11 c 4 20 c
4 298 c 5 358 c 4 17 c 5 -370 c 4 -313 c 4 -22 c 5 4 c 4 4 c 4 -6 c 5 -7 c 4 -5 c 5 1 c 4 -1 c 4 0 c 5 1 c 4 -1 c 4 -2 c 5 0 c 4 1 c
4 0 c 5 0 c 4 1 c 5 0 c 4 -1 c 4 1 c 5 0 c 4 0 c 4 -1 c 5 3 c 4 12 c 5 127 c 4 144 c 4 4 c 5 -152 c 4 -123 c 4 -11 c 5 0 c 4 -3 c
5 -2 c 4 2 c 4 3 c 5 0 c 4 -1 c 4 -3 c 5 2 c 4 0 c 5 -1 c 4 -1 c 4 1 c 5 2 c 4 0 c 4 -3 c 5 -3 c 4 4 c 4 4 c 5 2 c 4 0 c 5 -4 c
4 -2 c 4 0 c 5 0 c 4 -1 c 4 7 c 5 17 c 4 6 c 5 -10 c 4 -16 c 4 -3 c 5 -1 c 4 -1 c 4 -1 c 5 1 c 4 19 c 5 38 c 4 10 c 4 -7 c 5 -33 c
4 -10 c 4 -14 c 5 -3 c 4 0 c 5 -1 c 4 2 c 4 1 c 5 -1 c 4 0 c 4 0 c 5 1 c 4 1 c 4 -1 c 5 -2 c 4 0 c 5 0 c 4 2 c 4 2 c 5 -1 c 4 -2 c
4 -2 c 5 2 c 4 1 c 5 2 c 4 0 c 4 -2 c 5 -1 c 4 -1 c 4 1 c 5 1 c 4 0 c 5 2 c 4 2 c 4 -1 c 5 -2 c 4 -1 c 4 0 c 5 4 c 4 50 c 4 64 c
5 12 c 4 42 c 5 59 c 4 1 c 4 -127 c 5 -99 c 4 -6 c 4 1 c 5 0 c 4 4 c 5 12 c 4 10 c 4 83 c 5 128 c 4 4 c 4 -104 c 5 -125 c 4 -12 c
5 1 c 4 4 c 4 8 c 5 32 c 4 8 c 4 -11 c 5 -34 c 4 -5 c 5 -2 c 4 -2 c 4 -1 c 5 1 c 4 2 c 4 1 c 5 1 c 4 0 c 4 0 c 5 6 c 4 3 c 5 -3 c
4 -3 c 4 1 c 5 3 c 4 -4 c 4 -4 c 5 -2 c 4 -1 c 5 2 c 4 0 c 4 1 c 5 -2 c 4 0 c 4 0 c 5 1 c 4 8 c 5 27 c 4 30 c 4 54 c 5 170 c 4 80 c
4 -42 c 5 -231 c 4 -85 c 5 -2 c 4 7 c 4 16 c 5 7 c 4 -4 c 4 -7 c 5 50 c 4 215 c 4 169 c 5 -5 c 4 -227 c 5 -166 c 4 -17 c 4 -7 c
5 -17 c 4 -14 c 4 -5 c 5 -1 c 4 0 c 5 5 c 4 19 c 4 7 c 5 -6 c 4 -21 c 4 -6 c 5 -2 c 4 0 c 5 0 c 4 2 c 4 14 c 5 14 c 4 1 c 4 -6 c
5 14 c 4 10 c 5 -11 c 4 -24 c 4 -11 c 5 3 c 4 3 c 4 0 c 5 -2 c 4 1 c 4 2 c 5 12 c 4 27 c 5 15 c 4 -4 c 4 62 c 5 797 c 4 805 c
4 -25 c 5 -953 c 4 -652 c 5 -73 c 4 -8 c 4 -3 c 5 0 c 4 5 c 4 8 c 5 4 c 4 -4 c 5 -8 c 4 0 c 4 7 c 5 17 c 4 35 c 4 56 c 5 785 c
4 3565 c 5 1420 c 4 -751 c 4 -3773 c 5 -1268 c 4 -80 c 4 -7 c 5 -3 c 4 -2 c 4 -4 c 5 -2 c 4 -3 c 5 -3 c 4 -1 c 4 -1 c 5 -1 c 4 1 c
4 0 c 5 1 c 4 1 c 5 1 c 4 1 c 4 0 c 5 -2 c 4 -4 c 4 0 c 5 4 c 4 5 c 5 2 c 4 -3 c 4 -5 c 5 16 c 4 91 c 4 58 c 5 1 c 4 -99 c 4 -60 c
5 -11 c 4 -2 c 5 0 c 4 3 c 4 1 c 5 -1 c 4 -2 c 4 -1 c 5 1 c 4 -2 c 5 0 c 4 3 c 4 3 c 5 0 c 4 -3 c 4 -2 c 5 -1 c 4 -1 c 5 0 c 4 0 c
4 0 c 5 0 c 4 0 c 4 -1 c 5 2 c 4 0 c 5 0 c 4 0 c 4 -2 c 5 4 c 4 12 c 4 5 c 5 -3 c 4 -12 c 4 -5 c 5 0 c 4 0 c 5 -1 c 4 -1 c 4 3 c
5 2 c 4 1 c 4 -3 c 5 -1 c 4 0 c 5 1 c 4 0 c 4 0 c 5 -1 c 4 0 c 4 1 c 5 13 c 4 130 c 5 185 c 4 36 c 4 -132 c 5 -204 c 4 -29 c 4 0 c
5 1 c 4 0 c 5 0 c 4 -1 c 4 -1 c 5 0 c 4 -1 c 4 0 c 5 0 c 4 0 c 4 2 c 5 1 c 4 0 c 5 1 c 4 3 c 4 11 c 5 60 c 4 293 c 4 276 c 5 24 c
4 -298 c 5 -307 c 4 -46 c 4 -3 c 5 9 c 4 24 c 4 12 c 5 -13 c 4 -26 c 5 -8 c 4 23 c 4 97 c 5 84 c 4 2 c 4 -98 c 5 -88 c 4 -18 c
5 -5 c 4 -3 c 4 -2 c 5 -1 c 4 -1 c 4 0 c 5 0 c 4 -2 c 4 -1 c 5 0 c 4 1 c 5 0 c 4 0 c 4 -2 c 5 0 c 4 0 c 4 1 c 5 0 c 4 -1 c 5 2 c
4 1 c 4 -1 c 5 -2 c 4 1 c 4 -1 c 5 0 c 4 -1 c 5 1 c 4 1 c 4 0 c 5 -1 c 4 -1 c 4 1 c 5 1 c 4 9 c 5 25 c 4 8 c 4 -8 c 5 -25 c 4 -9 c
4 0 c 5 3 c 4 23 c 4 223 c 5 341 c 4 69 c 5 -249 c 4 -329 c 4 -76 c 5 13 c 4 51 c 4 24 c 5 -14 c 4 -58 c 5 -19 c 4 -1 c 4 -32 c
5 34 c 4 17 c 4 16 c 5 6 c 4 -14 c 5 -13 c 4 -7 c 4 -5 c 5 2 c 4 10 c 4 3 c 5 -8 c 4 -10 c 4 -2 c 5 -1 c 4 0 c 5 0 c 4 2 c 4 2 c
5 0 c 4 1 c 4 -1 c 5 2 c 4 -1 c 5 1 c 4 -1 c 4 0 c 5 0 c 4 0 c 4 1 c 5 0 c 4 2 c 5 4 c 4 16 c 4 194 c 5 636 c 4 295 c 4 -185 c
5 -628 c 4 -254 c 5 -46 c 4 -24 c 4 -7 c 5 -2 c 4 -2 c 4 0 c 5 1 c 4 3 c 4 0 c 5 -3 c 4 -2 c 5 0 c 4 1 c 4 -1 c 5 0 c 4 -1 c 4 1 c
5 3 c 4 10 c 5 4 c 4 -4 c 4 -9 c 5 -2 c 4 5 c 4 4 c 5 0 c 4 -7 c 5 -3 c 4 0 c 4 -1 c 5 2 c 4 26 c 4 79 c 5 34 c 4 -21 c 5 -62 c
4 -14 c 4 5 c 5 8 c 4 198 c 4 600 c 5 257 c 4 -213 c 4 -620 c 5 -232 c 4 2 c 5 19 c 4 -9 c 4 -35 c 5 -17 c 4 -3 c 4 -2 c 5 0 c
4 -3 c 5 1 c 4 3 c 4 8 c 5 2 c 4 -2 c 4 -6 c 5 -4 c 4 -2 c 5 -2 c 4 1 c 4 1 c 5 -1 c 4 0 c 4 0 c 5 1 c 4 0 c 5 1 c 4 0 c 4 1 c 5 0 c
4 -1 c 4 0 c 5 -1 c 4 0 c 4 1 c 5 0 c 4 1 c 5 -1 c 4 -1 c 4 2 c 5 0 c 4 0 c 4 1 c 5 2 c 4 2 c 5 3 c 4 1 c 4 -2 c 5 -3 c 4 1 c 4 0 c
5 0 c 4 1 c 5 4 c 4 16 c 4 21 c 5 5 c 4 -10 c 4 -20 c 5 -3 c 4 5 c 4 7 c 5 7 c 4 29 c 5 116 c 4 1267 c 3 4740 c 0 -318 5649 7019 l
5 -5040 c 4 -729 c 5 -55 c 4 -6 c 4 -2 c 5 -7 c 4 -9 c 4 -6 c 5 -3 c 4 1 c 5 -2 c 4 -47 c 4 44 c 5 -4 c 2 6183 c 3 -6010 5725 7019 l
5 -168 c 4 -4 c 4 0 c 5 1 c 4 -1 c 4 -4 c 5 0 c 4 2 c 4 0 c 5 1 c 4 0 c 5 1 c 4 -2 c 4 -2 c 5 -3 c 4 -1 c 4 0 c 5 -1 c 4 0 c 5 0 c
4 0 c 4 1 c 5 1 c 4 0 c 4 -1 c 5 -1 c 4 0 c 5 0 c 4 1 c 4 0 c 5 2 c 4 2 c 4 2 c 5 1 c 4 -1 c 5 -2 c 4 -1 c 4 -3 c 5 -1 c 4 0 c 4 0 c
5 -1 c 4 2 c 4 2 c 5 2 c 4 -1 c 5 -2 c 4 -2 c 4 3 c 5 22 c 4 189 c 4 176 c 5 29 c 4 -180 c 5 -205 c 4 -31 c 4 -2 c 5 0 c 4 -1 c
4 0 c 5 0 c 4 1 c 5 2 c 4 1 c 4 2 c 5 -2 c 4 -3 c 4 -1 c 5 -1 c 4 1 c 5 1 c 4 3 c 4 11 c 5 7 c 4 0 c 4 -12 c 5 -8 c 4 -2 c 4 -1 c
5 1 c 4 1 c 5 0 c 4 -1 c 4 0 c 5 0 c 4 1 c 4 -1 c 5 1 c 4 1 c 5 -1 c 4 2 c 4 3 c 5 3 c 4 2 c 4 2 c 5 16 c 4 32 c 5 117 c 4 98 c
4 6 c 5 -103 c 4 -115 c 4 -8 c 5 9 c 4 35 c 5 32 c 4 31 c 4 50 c 5 793 c 4 1330 c 4 249 c 5 -932 c 4 -1312 c 4 -303 c 5 -23 c 4 -5 c
5 -1 c 4 -2 c 4 8 c 5 28 c 4 12 c 4 -6 c 5 -31 c 4 -12 c 5 -2 c 4 -1 c 4 -2 c 5 -1 c 4 0 c 4 0 c 5 1 c 4 1 c 5 2 c 4 0 c 4 -2 c
5 -2 c 4 1 c 4 -1 c 5 -1 c 4 0 c 4 0 c 5 -1 c 4 0 c 5 0 c 4 1 c 4 1 c 5 1 c 4 1 c 4 0 c 5 0 c 4 -2 c 5 -1 c 4 1 c 4 1 c 5 0 c 4 0 c
4 1 c 5 5 c 4 1 c 5 -1 c 4 -6 c 4 -3 c 5 0 c 4 0 c 4 1 c 5 0 c 4 0 c 5 -1 c 4 1 c 4 0 c 5 1 c 4 0 c 4 0 c 5 -1 c 4 0 c 4 0 c 5 -1 c
4 0 c 5 0 c 4 0 c 4 0 c 5 0 c 4 0 c 4 1 c 5 -1 c 4 1 c 5 0 c 4 0 c 4 -1 c 5 0 c 4 0 c 4 0 c 5 1 c 4 1 c 5 1 c 4 0 c 4 0 c 5 10 c
4 7 c 4 -50 c 5 41 c 4 -8 c 5 -1 c 4 -1 c 4 -1 c 5 1 c 4 2 c 4 1 c 5 0 c 4 0 c 4 11 c 5 16 c 4 6 c 5 -10 c 4 -16 c 4 -6 c 5 -3 c
4 1 c 4 2 c 5 1 c 4 2 c 5 -1 c 4 -1 c 4 -3 c 5 0 c 4 0 c 4 0 c 5 -1 c 4 -1 c 5 0 c 4 0 c 4 0 c 5 0 c 4 1 c 4 0 c 5 0 c 4 -1 c 5 1 c
4 0 c 4 -1 c 5 0 c 4 0 c 4 -1 c 5 1 c 4 0 c 4 0 c 5 1 c 4 -1 c 5 0 c 4 1 c 4 0 c 5 1 c 4 0 c 4 -1 c 5 2 c 4 5 c 5 3 c 4 0 c 4 -5 c
5 -2 c 4 2 c 4 5 c 5 103 c 4 418 c 5 199 c 4 -61 c 4 -417 c 5 -215 c 4 76 c 4 844 c 5 776 c 4 36 c 5 -861 c 4 -754 c 4 -135 c 5 3 c
4 105 c 4 93 c 5 0 c 4 -96 c 4 -104 c 5 -14 c 4 1 c 5 0 c 4 1 c 4 -3 c 5 0 c 4 1 c 4 -1 c 5 1 c 4 -1 c 5 1 c 4 5 c 4 21 c 5 101 c
4 106 c 4 26 c 5 -88 c 4 -124 c 5 -33 c 4 -8 c 4 -4 c 5 -1 c 4 -1 c 4 -1 c 5 -1 c 4 1 c 4 3 c 5 16 c 4 79 c 5 63 c 4 5 c 4 -73 c
5 -66 c 4 -17 c 4 -7 c 5 -3 c 4 -2 c 5 -1 c 4 1 c 4 0 c 5 -1 c 4 -1 c 4 1 c 5 0 c 4 -1 c 5 1 c 4 1 c 4 1 c 5 13 c 4 170 c 4 264 c
5 75 c 4 -130 c 5 -306 c 4 -77 c 4 -9 c 5 0 c 4 -1 c 4 0 c 5 1 c 4 29 c 4 188 c 5 137 c 4 -14 c 5 -162 c 4 -163 c 4 -10 c 5 4 c
4 1 c 4 3 c 5 -2 c 4 -1 c 5 1 c 4 91 c 4 104 c 5 10 c 4 -90 c 4 -112 c 5 -16 c 4 0 c 5 -1 c 4 0 c 4 1 c 5 1 c 4 0 c 4 0 c 5 -1 c
4 0 c 5 -1 c 4 1 c 4 0 c 5 4 c 4 5 c 4 0 c 5 -5 c 4 -5 c 4 -1 c 5 0 c 4 2 c 5 2 c 4 1 c 4 -1 c 5 3 c 4 2 c 4 -1 c 5 -4 c 4 0 c 5 4 c
4 -2 c 4 -2 c 5 -4 c 4 1 c 4 4 c 5 8 c 4 3 c 5 -1 c 4 -10 c 4 -4 c 5 0 c 4 -1 c 4 1 c 5 2 c 4 6 c 5 0 c 4 -4 c 4 -4 c 5 -1 c 4 0 c
4 0 c 5 0 c 4 2 c 4 26 c 5 96 c 4 45 c 5 -8 c 4 -102 c 4 -49 c 5 -9 c 4 -1 c 4 1 c 5 1 c 4 -1 c 5 -2 c 4 0 c 4 1 c 5 2 c 4 0 c 4 0 c
5 0 c 4 4 c 5 3 c 4 0 c 4 -4 c 5 1 c 4 42 c 4 326 c 5 296 c 4 26 c 5 -316 c 4 -330 c 4 -45 c 5 -2 c 4 -2 c 4 0 c 5 -1 c 4 0 c 4 -2 c
5 1 c 4 1 c 5 2 c 4 0 c 4 0 c 5 -1 c 4 -1 c 4 -1 c 5 -1 c 4 0 c 5 2 c 4 6 c 4 1 c 5 -2 c 4 7 c 4 20 c 5 3 c 4 -9 c 5 -21 c 4 5 c
4 13 c 5 6 c 4 -4 c 4 -5 c 5 42 c 4 244 c 4 223 c 5 31 c 4 -226 c 5 -270 c 4 -55 c 4 -4 c 5 -3 c 4 -2 c 4 -1 c 5 0 c 4 0 c 5 3 c
4 2 c 4 1 c 5 -3 c 4 -3 c 4 -1 c 5 -1 c 4 0 c 5 0 c 4 0 c 4 0 c 5 0 c 4 -1 c 4 3 c 5 1 c 4 0 c 5 -1 c 4 0 c 4 1 c 5 1 c 4 -1 c 4 1 c
5 0 c 4 -1 c 4 -2 c 5 0 c 4 -2 c 5 0 c 4 0 c 4 0 c 5 0 c 4 2 c 4 -1 c 5 -1 c 4 0 c 5 -1 c 4 0 c 4 2 c 5 5 c 4 3 c 4 0 c 5 -2 c 4 9 c
5 6 c 4 -3 c 4 -12 c 5 -7 c 4 -1 c 4 1 c 5 -1 c 4 1 c 5 1 c 4 1 c 4 -1 c 5 0 c 4 -2 c 4 0 c 5 -1 c 4 0 c 4 0 c 5 1 c 4 1 c 5 0 c
4 0 c 4 -1 c 5 1 c 4 0 c 4 0 c 5 1 c 4 1 c 5 1 c 4 -2 c 4 -2 c 5 0 c 4 0 c 4 1 c 5 0 c 4 0 c 5 2 c 4 1 c 4 2 c 5 18 c 4 42 c 4 26 c
5 51 c 4 111 c 5 260 c 4 37 c 4 -123 c 5 -307 c 4 -103 c 4 -8 c 5 2 c 4 7 c 4 32 c 5 285 c 4 770 c 5 379 c 4 -215 c 4 -817 c
5 -379 c 4 -51 c 4 -10 c 5 -4 c 4 -3 c 5 -2 c 4 0 c 4 0 c 5 0 c 4 -2 c 4 -1 c 5 -1 c 4 2 c 5 -1 c 4 1 c 4 -1 c 5 0 c 4 -1 c 4 0 c
5 0 c 4 1 c 4 0 c 5 0 c 4 5 c 5 25 c 4 12 c 4 -5 c 5 -24 c 4 -14 c 4 0 c 5 1 c 4 2 c 5 1 c 4 -1 c 4 -2 c 5 -1 c 4 -1 c 4 1 c 5 0 c
4 1 c 5 1 c 4 0 c 4 0 c 5 1 c 4 2 c 4 0 c 5 1 c 4 4 c 5 11 c 4 87 c 4 1061 c 5 1825 c 4 232 c 4 -905 c 5 -1888 c 4 -179 c 4 -1 c
5 -46 c 4 -154 c 5 -44 c 4 -3 c 4 0 c 5 16 c 4 29 c 4 3 c 5 -15 c 4 -32 c 5 -4 c 4 0 c 4 1 c 5 -1 c 4 -1 c 4 -1 c 5 -1 c 4 1 c 5 0 c
4 -1 c 4 1 c 5 -1 c 4 -1 c 4 1 c 5 2 c 4 -2 c 5 -1 c 4 -1 c 4 0 c 5 0 c 4 1 c 4 -1 c 5 0 c 4 1 c 4 0 c 5 1 c 4 -1 c 5 0 c 4 1 c
4 0 c 5 -1 c 4 1 c 4 -1 c 5 0 c 4 0 c 5 2 c 4 0 c 4 2 c 5 3 c 4 -1 c 4 -2 c 5 -3 c 4 -2 c 5 -1 c 4 1 c 4 0 c 5 1 c 4 0 c 4 0 c 5 5 c
4 52 c 5 86 c 4 12 c 4 -43 c 5 -96 c 4 -15 c 4 -2 c 5 0 c 4 0 c 4 1 c 5 -1 c 4 2 c 5 1 c 4 0 c 4 -1 c 5 -1 c 4 -1 c 4 2 c 5 1 c
4 2 c 5 0 c 4 -1 c 4 -2 c 5 -1 c 4 0 c 4 2 c 5 10 c 4 15 c 5 9 c 4 -4 c 4 -16 c 5 -10 c 4 -3 c 4 0 c 5 4 c 4 3 c 5 1 c 4 -2 c 4 -3 c
5 1 c 4 -1 c 4 0 c 5 1 c 4 5 c 4 41 c 5 48 c 4 8 c 5 -18 c 4 112 c 4 1511 c 5 2423 c 4 338 c 4 -1124 c 5 -2782 c 4 -507 c 5 -40 c
4 -6 c 4 -3 c 5 -3 c 4 -3 c 4 -1 c 5 1 c 4 10 c 5 31 c 4 7 c 4 -9 c 5 -31 c 4 -12 c 4 -1 c 5 0 c 4 0 c 4 0 c 5 0 c 4 5 c 5 12 c
4 6 c 4 -3 c 5 -11 c 4 -8 c 4 -3 c 5 0 c 4 0 c 5 0 c 4 2 c 4 1 c 5 1 c 4 6 c 4 9 c 5 0 c 4 -7 c 5 -8 c 4 11 c 4 99 c 5 119 c 4 8 c
4 -81 c 5 -137 c 4 -17 c 5 1 c 4 3 c 4 3 c 5 38 c 4 158 c 4 87 c 5 -13 c 4 -144 c 4 -130 c 5 -8 c 4 -1 c 5 0 c 4 0 c 4 0 c 5 6 c
4 62 c 4 158 c 5 43 c 4 -20 c 5 -118 c 4 -67 c 4 -15 c 5 -37 c 4 -12 c 4 0 c 5 0 c 4 0 c 5 -1 c 4 0 c 4 0 c 5 2 c 4 1 c 4 0 c 5 1 c
4 18 c 5 42 c 4 12 c 4 -18 c 5 -43 c 4 -14 c 4 -1 c 5 -1 c 4 -1 c 4 1 c 5 1 c 4 2 c 5 0 c 4 0 c 4 -1 c 5 0 c 4 0 c 4 -1 c 5 -1 c
4 1 c 5 5 c 4 40 c 4 58 c 5 5 c 4 -36 c 4 -60 c 5 -11 c 4 0 c 5 1 c 4 0 c 4 11 c 5 33 c 4 15 c 4 -9 c
5 -33 c 4 -10 c 5 21 c 4 8 c 4 -63 c 5 0 c 4 25 c 4 -1 c 5 1 c 4 -1 c 4 0 c 5 0 c 4 0 c 5 0 c 4 0 c 4 0 c 5 2 c 4 2 c 4 11 c 5 24 c
4 12 c 5 -1 c 4 -19 c 4 -17 c 5 -6 c 4 -5 c 4 0 c 5 3 c 4 9 c 5 14 c 4 12 c 4 52 c 5 64 c 4 22 c 4 32 c 5 -7 c 4 -20 c 5 -68 c
4 -98 c 4 -11 c 5 -1 c 4 0 c 4 -1 c 5 0 c 4 -2 c
0 -126 3315 418 l 54 0 3315 418 l 18 -6 c 6 -6 c 6 -12 c 0 -12 c -6 -12 c -6 -6 c -18 -6 c -54 0 c 42 -66 3357 358 l
-12 -6 3465 376 l -12 -12 c -6 -18 c 0 -12 c 6 -18 c 12 -12 c 12 -6 c 18 0 c 12 6 c 12 12 c 6 18 c 0 12 c -6 18 c -12 12 c -12 6 c
-18 0 c 24 -84 3549 376 l -24 -84 3597 376 l 24 -84 3597 376 l -24 -84 3645 376 l 108 0 3687 364 l 108 0 3687 328 l
-6 -18 4107 376 l -12 -12 c -18 -6 c -6 0 c -18 6 c -12 12 c -6 18 c 0 6 c 6 18 c 12 12 c 18 6 c 6 0 c 18 -6 c 12 -12 c 6 -24 c
0 -30 c -6 -30 c -12 -18 c -18 -6 c -12 0 c -18 6 c -6 12 c -12 -6 4275 376 l -12 -12 c -6 -18 c 0 -12 c 6 -18 c 12 -12 c 12 -6 c
18 0 c 12 6 c 12 12 c 6 18 c 0 12 c -6 18 c -12 12 c -12 6 c -18 0 c -12 0 4401 418 l -12 -6 c -6 -18 c 0 -102 c 42 0 4353 376 l
0 6 4533 388 l 6 12 c 6 6 c 12 6 c 24 0 c 12 -6 c 6 -6 c 6 -12 c 0 -12 c -6 -12 c -12 -18 c -60 -60 c 84 0 c -18 -6 4683 418 l
-12 -18 c -6 -30 c 0 -18 c 6 -30 c 12 -18 c 18 -6 c 12 0 c 18 6 c 12 18 c 6 30 c 0 18 c -6 30 c -12 18 c -18 6 c -12 0 c
12 6 5169 394 l 18 18 c 0 -126 c -6 -6 5282 376 l 6 -6 c 6 6 c -6 6 c -6 -6 5282 304 l 6 -6 c 6 6 c -6 6 c -48 -126 5462 418 l
48 -126 5462 418 l 60 0 5432 334 l 0 -84 5540 376 l 6 18 5540 340 l 12 12 c 12 6 c 18 0 c -12 12 5684 358 l -12 6 c -18 0 c -12 -6 c
-12 -12 c -6 -18 c 0 -12 c 6 -18 c 12 -12 c 12 -6 c 18 0 c 12 6 c 12 12 c 108 0 5726 346 l 12 6 5894 394 l 18 18 c 0 -126 c
66 0 6008 418 l -36 -48 c 18 0 c 12 -6 c 6 -6 c 6 -18 c 0 -12 c -6 -18 c -12 -12 c -18 -6 c -18 0 c -18 6 c -6 6 c -6 12 c
-60 -126 6200 418 l 84 0 6116 418 l -6 -6 6248 304 l 6 -6 c 6 6 c -6 6 c -12 0 6338 418 l -12 -6 c -6 -18 c 0 -102 c 42 0 6290 376 l
6 -6 6368 418 l 6 6 c -6 6 c -6 -6 c 0 -84 6374 376 l 0 -102 6428 418 l 6 -18 c 12 -6 c 12 0 c 42 0 6410 376 l -6 12 6554 358 l
-18 6 c -18 0 c -18 -6 c -6 -12 c 6 -12 c 12 -6 c 30 -6 c 12 -6 c 6 -12 c 0 -6 c -6 -12 c -18 -6 c -18 0 c -18 6 c -6 12 c
0 -192 6884 442 l 0 -192 6890 442 l 42 0 6884 442 l 42 0 6884 250 l 0 6 6968 388 l 6 12 c 6 6 c 12 6 c 24 0 c 12 -6 c 6 -6 c 6 -12 c
0 -12 c -6 -12 c -12 -18 c -60 -60 c 84 0 c -6 -6 7094 376 l 6 -6 c 6 6 c -6 6 c -6 -6 7094 304 l 6 -6 c 6 6 c -6 6 c
0 -192 7274 442 l 0 -192 7280 442 l 42 0 7238 442 l 42 0 7238 250 l
0 -249 825 1714 l -7 -4 792 1835 l -4 -11 c 0 -8 c 4 -11 c 11 -7 c 19 -4 c 19 0 c 15 4 c 8 7 c 3 11 c 0 4 c -3 12 c -8 7 c -11 4 c
-4 0 c -11 -4 c -8 -7 c -4 -12 c 0 -4 c 4 -11 c 8 -7 c 11 -4 c -4 0 800 1865 l -7 4 c -4 4 c -4 7 c 0 16 c 4 7 c 4 4 c 7 4 c 8 0 c
7 -4 c 12 -8 c 37 -37 c 0 52 c 11 -3 808 1986 l 7 -8 c 4 -11 c 0 -4 c -4 -11 c -7 -8 c -11 -4 c -4 0 c -12 4 c -7 8 c -4 11 c 0 4 c
4 11 c 7 8 c 16 3 c 18 0 c 19 -3 c 12 -8 c 3 -11 c 0 -8 c -3 -11 c -8 -4 c -4 8 796 2024 l -11 11 c 79 0 c 4 -4 853 2096 l 3 4 c
-3 4 c -4 -4 c -4 8 796 2137 l -11 11 c 79 0 c 11 -4 808 2251 l 7 -7 c 4 -12 c 0 -4 c -4 -11 c -7 -7 c -11 -4 c -4 0 c -12 4 c
-7 7 c -4 11 c 0 4 c 4 12 c 7 7 c 16 4 c 18 0 c 19 -4 c 12 -7 c 3 -12 c 0 -7 c -3 -12 c -8 -3 c -4 7 796 2289 l -11 12 c 79 0 c
0 -250 1010 1763 l -8 -4 978 1884 l -3 -11 c 0 -8 c 3 -11 c 12 -8 c 19 -3 c 18 0 c 16 3 c 7 8 c 4 11 c 0 4 c -4 11 c -7 8 c -12 4 c
-4 0 c -11 -4 c -7 -8 c -4 -11 c 0 -4 c 4 -11 c 7 -8 c 11 -3 c -3 0 985 1914 l -8 4 c -4 4 c -3 7 c 0 15 c 3 8 c 4 4 c 8 3 c 7 0 c
8 -3 c 11 -8 c 38 -38 c 0 53 c 11 -4 993 2035 l 8 -7 c 4 -12 c 0 -3 c -4 -12 c -8 -7 c -11 -4 c -4 0 c -11 4 c -8 7 c -3 12 c 0 3 c
3 12 c 8 7 c 15 4 c 19 0 c 19 -4 c 11 -7 c 4 -12 c 0 -7 c -4 -12 c -7 -3 c 0 42 967 2069 l 30 -23 c 0 11 c 4 8 c 3 4 c 12 3 c 7 0 c
12 -3 c 7 -8 c 4 -11 c 0 -12 c -4 -11 c -4 -4 c -7 -3 c 4 -4 1038 2145 l 4 4 c -4 3 c -4 -3 c -3 0 985 2179 l -8 3 c -4 4 c -3 8 c
0 15 c 3 7 c 4 4 c 8 4 c 7 0 c 8 -4 c 11 -7 c 38 -38 c 0 53 c 52 -38 967 2288 l 0 57 c 79 0 967 2288 l -3 0 985 2330 l -8 4 c -4 3 c
-3 8 c 0 15 c 3 8 c 4 3 c 8 4 c 7 0 c 8 -4 c 11 -7 c 38 -38 c 0 53 c 0 -249 1340 2232 l -7 -3 1307 2353 l -4 -12 c 0 -7 c 4 -12 c
11 -7 c 19 -4 c 19 0 c 15 4 c 8 7 c 3 12 c 0 4 c -3 11 c -8 7 c -11 4 c -4 0 c -11 -4 c -8 -7 c -4 -11 c 0 -4 c 4 -12 c 8 -7 c
11 -4 c -4 0 1315 2384 l -7 3 c -4 4 c -4 8 c 0 15 c 4 7 c 4 4 c 7 4 c 8 0 c 7 -4 c 12 -7 c 37 -38 c 0 53 c 11 -4 1323 2505 l 7 -8 c
4 -11 c 0 -4 c -4 -11 c -7 -8 c -11 -4 c -4 0 c -12 4 c -7 8 c -4 11 c 0 4 c 4 11 c 7 8 c 16 4 c 18 0 c 19 -4 c 12 -8 c 3 -11 c
0 -8 c -3 -11 c -8 -4 c -7 -4 1307 2580 l -4 -11 c 0 -8 c 4 -11 c 11 -7 c 19 -4 c 19 0 c 15 4 c 8 7 c 3 11 c 0 4 c -3 12 c -8 7 c
-11 4 c -4 0 c -11 -4 c -8 -7 c -4 -12 c 0 -4 c 4 -11 c 8 -7 c 11 -4 c 4 -4 1368 2614 l 3 4 c -3 4 c -4 -4 c 4 -11 1296 2663 l
7 -4 c 8 0 c 8 4 c 3 8 c 4 15 c 4 11 c 7 8 c 8 3 c 11 0 c 8 -3 c 4 -4 c 3 -12 c 0 -15 c -3 -11 c -4 -4 c -8 -4 c -11 0 c -8 4 c
-7 8 c -4 11 c -4 15 c -3 8 c -8 4 c -8 0 c -7 -4 c -4 -12 c 0 -15 c 79 -38 1296 2773 l 0 53 1296 2720 l -4 0 1315 2799 l -7 4 c
-4 4 c -4 8 c 0 15 c 4 7 c 4 4 c 7 4 c 8 0 c 7 -4 c 12 -8 c 37 -37 c 0 53 c 0 -249 1524 1345 l -8 -4 1492 1466 l -3 -11 c 0 -8 c
3 -11 c 12 -7 c 19 -4 c 19 0 c 15 4 c 7 7 c 4 11 c 0 4 c -4 12 c -7 7 c -12 4 c -3 0 c -12 -4 c -7 -7 c -4 -12 c 0 -4 c 4 -11 c
7 -7 c 12 -4 c -4 0 1500 1496 l -8 4 c -4 4 c -3 8 c 0 15 c 3 7 c 4 4 c 8 4 c 7 0 c 8 -4 c 11 -8 c 38 -37 c 0 53 c 12 -3 1507 1617 l
7 -8 c 4 -11 c 0 -4 c -4 -11 c -7 -8 c -12 -4 c -4 0 c -11 4 c -8 8 c -3 11 c 0 4 c 3 11 c 8 8 c 15 3 c 19 0 c 19 -3 c 11 -8 c
4 -11 c 0 -8 c -4 -11 c -7 -4 c 3 -12 1481 1663 l 8 -3 c 8 0 c 7 3 c 4 8 c 4 15 c 4 11 c 7 8 c 8 4 c 11 0 c 8 -4 c 3 -4 c 4 -11 c
0 -15 c -4 -12 c -3 -3 c -8 -4 c -11 0 c -8 4 c -7 7 c -4 11 c -4 16 c -4 7 c -7 4 c -8 0 c -8 -4 c -3 -11 c 0 -15 c
3 -4 1553 1727 l 4 4 c -4 4 c -3 -4 c 12 -3 1507 1806 l 7 -8 c 4 -11 c 0 -4 c -4 -11 c -7 -8 c -12 -4 c -4 0 c -11 4 c -8 8 c
-3 11 c 0 4 c 3 11 c 8 8 c 15 3 c 19 0 c 19 -3 c 11 -8 c 4 -11 c 0 -8 c -4 -11 c -7 -4 c 3 -11 1481 1855 l 12 -7 c 19 -4 c 11 0 c
19 4 c 11 7 c 4 11 c 0 8 c -4 11 c -11 8 c -19 4 c -11 0 c -19 -4 c -12 -8 c -3 -11 c 0 -8 c 0 42 1481 1916 l 30 -23 c 0 11 c 4 8 c
4 4 c 11 3 c 7 0 c 12 -3 c 7 -8 c 4 -11 c 0 -12 c -4 -11 c -3 -4 c -8 -4 c 0 -250 1708 1696 l -8 -4 1676 1817 l -4 -11 c 0 -8 c
4 -11 c 12 -8 c 18 -3 c 19 0 c 15 3 c 8 8 c 4 11 c 0 4 c -4 11 c -8 8 c -11 4 c -4 0 c -11 -4 c -8 -8 c -3 -11 c 0 -4 c 3 -11 c
8 -8 c 11 -3 c 0 41 1664 1851 l 31 -22 c 0 11 c 3 8 c 4 3 c 12 4 c 7 0 c 11 -4 c 8 -7 c 4 -11 c 0 -12 c -4 -11 c -4 -4 c -7 -4 c
4 -12 1664 1942 l 12 -7 c 18 -4 c 12 0 c 19 4 c 11 7 c 4 12 c 0 7 c -4 11 c -11 8 c -19 4 c -12 0 c -18 -4 c -12 -8 c -4 -11 c
0 -7 c 4 -11 1664 2017 l 12 -8 c 18 -3 c 12 0 c 19 3 c 11 8 c 4 11 c 0 8 c -4 11 c -11 8 c -19 3 c -12 0 c -18 -3 c -12 -8 c
-4 -11 c 0 -8 c 4 -4 1736 2078 l 4 4 c -4 3 c -4 -3 c 11 -4 1691 2157 l 8 -7 c 4 -12 c 0 -3 c -4 -12 c -8 -7 c -11 -4 c -4 0 c
-11 4 c -8 7 c -4 12 c 0 3 c 4 12 c 8 7 c 15 4 c 19 0 c 19 -4 c 11 -7 c 4 -12 c 0 -7 c -4 -12 c -8 -3 c -4 7 1680 2195 l -12 12 c
80 0 c 80 -38 1664 2312 l 0 53 1664 2259 l 0 -249 1922 1731 l -7 -4 1889 1852 l -4 -11 c 0 -8 c 4 -11 c 11 -7 c 19 -4 c 19 0 c
15 4 c 8 7 c 3 11 c 0 4 c -3 12 c -8 7 c -11 4 c -4 0 c -11 -4 c -8 -7 c -4 -12 c 0 -4 c 4 -11 c 8 -7 c 11 -4 c 0 42 1878 1886 l
30 -23 c 0 11 c 4 8 c 4 4 c 11 4 c 8 0 c 11 -4 c 8 -8 c 3 -11 c 0 -12 c -3 -11 c -4 -4 c -8 -3 c 4 -11 1878 1977 l 11 -8 c 19 -4 c
11 0 c 19 4 c 12 8 c 3 11 c 0 7 c -3 12 c -12 7 c -19 4 c -11 0 c -19 -4 c -11 -7 c -4 -12 c 0 -7 c 0 42 1878 2037 l 30 -23 c 0 12 c
4 7 c 4 4 c 11 4 c 8 0 c 11 -4 c 8 -8 c 3 -11 c 0 -11 c -3 -12 c -4 -3 c -8 -4 c 4 -4 1950 2113 l 3 4 c -3 4 c -4 -4 c
-4 0 1897 2147 l -7 4 c -4 3 c -4 8 c 0 15 c 4 8 c 4 4 c 7 3 c 8 0 c 7 -3 c 12 -8 c 37 -38 c 0 53 c 0 -38 1878 2264 l 34 -3 c -4 3 c
-4 12 c 0 11 c 4 11 c 8 8 c 11 4 c 8 0 c 11 -4 c 8 -8 c 3 -11 c 0 -11 c -3 -12 c -4 -3 c -8 -4 c -4 7 1893 2306 l -11 12 c 79 0 c
0 -249 2013 1828 l -7 -3 1980 1949 l -4 -12 c 0 -7 c 4 -12 c 11 -7 c 19 -4 c 19 0 c 15 4 c 8 7 c 3 12 c 0 3 c -3 12 c -8 7 c -11 4 c
-4 0 c -11 -4 c -8 -7 c -4 -12 c 0 -3 c 4 -12 c 8 -7 c 11 -4 c 0 42 1969 1983 l 30 -23 c 0 12 c 4 7 c 4 4 c 11 4 c 8 0 c 11 -4 c
8 -8 c 3 -11 c 0 -11 c -3 -12 c -4 -3 c -8 -4 c 4 -11 1969 2074 l 11 -8 c 19 -4 c 11 0 c 19 4 c 12 8 c 3 11 c 0 8 c -3 11 c -12 7 c
-19 4 c -11 0 c -19 -4 c -11 -7 c -4 -11 c 0 -8 c 53 -38 1969 2165 l 0 57 c 79 0 1969 2165 l 4 -4 2041 2210 l 3 4 c -3 4 c -4 -4 c
-4 0 1988 2244 l -7 4 c -4 4 c -4 7 c 0 15 c 4 8 c 4 4 c 7 3 c 8 0 c 7 -3 c 12 -8 c 37 -38 c 0 53 c 53 -38 1969 2354 l 0 57 c
79 0 1969 2354 l -4 0 1988 2395 l -7 4 c -4 4 c -4 7 c 0 15 c 4 8 c 4 4 c 7 4 c 8 0 c 7 -4 c 12 -8 c 37 -38 c 0 53 c
0 -250 2326 2920 l -7 -4 2294 3041 l -4 -11 c 0 -8 c 4 -11 c 11 -8 c 19 -3 c 19 0 c 15 3 c 7 8 c 4 11 c 0 4 c -4 11 c -7 8 c -12 4 c
-3 0 c -12 -4 c -7 -8 c -4 -11 c 0 -4 c 4 -11 c 7 -8 c 12 -3 c 0 41 2283 3075 l 30 -22 c 0 11 c 4 8 c 4 3 c 11 4 c 7 0 c 12 -4 c
7 -7 c 4 -11 c 0 -12 c -4 -11 c -3 -4 c -8 -4 c 4 -12 2283 3166 l 11 -7 c 19 -4 c 11 0 c 19 4 c 11 7 c 4 12 c 0 7 c -4 11 c -11 8 c
-19 4 c -11 0 c -19 -4 c -11 -8 c -4 -11 c 0 -7 c 79 -37 2283 3271 l 0 53 2283 3218 l 3 -4 2355 3302 l 4 4 c -4 3 c -3 -3 c
-7 -4 2294 3381 l -4 -11 c 0 -8 c 4 -11 c 11 -8 c 19 -3 c 19 0 c 15 3 c 7 8 c 4 11 c 0 4 c -4 11 c -7 8 c -12 4 c -3 0 c -12 -4 c
-7 -8 c -4 -11 c 0 -4 c 4 -11 c 7 -8 c 12 -3 c 0 -38 2283 3453 l 34 -4 c -4 4 c -4 11 c 0 12 c 4 11 c 8 8 c 11 3 c 7 0 c 12 -3 c
7 -8 c 4 -11 c 0 -12 c -4 -11 c -3 -4 c -8 -4 c 79 -38 2283 3536 l 0 53 2283 3483 l 0 -249 2617 1852 l -8 -4 2585 1973 l -4 -11 c
0 -8 c 4 -11 c 11 -8 c 19 -3 c 19 0 c 15 3 c 8 8 c 4 11 c 0 4 c -4 11 c -8 8 c -11 4 c -4 0 c -11 -4 c -8 -8 c -4 -11 c 0 -4 c
4 -11 c 8 -8 c 11 -3 c 0 42 2573 2007 l 30 -23 c 0 11 c 4 8 c 4 4 c 11 3 c 8 0 c 11 -3 c 8 -8 c 4 -11 c 0 -12 c -4 -11 c -4 -4 c
-8 -3 c -3 8 2588 2086 l -12 11 c 80 0 c 4 -11 2573 2173 l 11 -8 c 19 -3 c 12 0 c 18 3 c 12 8 c 4 11 c 0 8 c -4 11 c -12 8 c -18 4 c
-12 0 c -19 -4 c -11 -8 c -4 -11 c 0 -8 c 4 -4 2645 2234 l 4 4 c -4 4 c -4 -4 c 4 -11 2573 2283 l 8 -4 c 7 0 c 8 4 c 3 7 c 4 15 c
4 12 c 8 7 c 7 4 c 11 0 c 8 -4 c 4 -4 c 4 -11 c 0 -15 c -4 -11 c -4 -4 c -8 -4 c -11 0 c -7 4 c -8 7 c -4 12 c -4 15 c -3 7 c -8 4 c
-7 0 c -8 -4 c -4 -11 c 0 -15 c -3 8 2588 2351 l -12 11 c 80 0 c 4 -11 2573 2438 l 11 -8 c 19 -4 c 12 0 c 18 4 c 12 8 c 4 11 c 0 7 c
-4 12 c -12 7 c -18 4 c -12 0 c -19 -4 c -11 -7 c -4 -12 c 0 -7 c 0 -249 2785 1382 l -8 -4 2753 1503 l -4 -11 c 0 -7 c 4 -12 c
11 -7 c 19 -4 c 19 0 c 15 4 c 8 7 c 4 12 c 0 3 c -4 12 c -8 7 c -11 4 c -4 0 c -11 -4 c -8 -7 c -3 -12 c 0 -3 c 3 -12 c 8 -7 c
11 -4 c 0 42 2741 1537 l 31 -23 c 0 11 c 3 8 c 4 4 c 12 4 c 7 0 c 11 -4 c 8 -8 c 4 -11 c 0 -11 c -4 -12 c -4 -4 c -7 -3 c
-3 7 2756 1617 l -12 12 c 80 0 c -4 0 2760 1685 l -7 3 c -4 4 c -4 8 c 0 15 c 4 7 c 4 4 c 7 4 c 8 0 c 8 -4 c 11 -7 c 38 -38 c 0 53 c
4 -4 2813 1764 l 4 4 c -4 4 c -4 -4 c -8 -3 2753 1843 l -4 -12 c 0 -7 c 4 -12 c 11 -7 c 19 -4 c 19 0 c 15 4 c 8 7 c 4 12 c 0 3 c
-4 12 c -8 7 c -11 4 c -4 0 c -11 -4 c -8 -7 c -3 -12 c 0 -3 c 3 -12 c 8 -7 c 11 -4 c -4 0 2760 1874 l -7 3 c -4 4 c -4 8 c 0 15 c
4 7 c 4 4 c 7 4 c 8 0 c 8 -4 c 11 -7 c 38 -38 c 0 53 c -4 0 2760 1949 l -7 4 c -4 4 c -4 7 c 0 15 c 4 8 c 4 4 c 7 4 c 8 0 c 8 -4 c
11 -8 c 38 -38 c 0 53 c 0 -250 3077 1983 l -8 -4 3045 2104 l -4 -11 c 0 -8 c 4 -11 c 12 -8 c 18 -4 c 19 0 c 15 4 c 8 8 c 4 11 c
0 4 c -4 11 c -8 8 c -11 3 c -4 0 c -11 -3 c -8 -8 c -3 -11 c 0 -4 c 3 -11 c 8 -8 c 11 -4 c 0 41 3033 2138 l 31 -22 c 0 11 c 3 7 c
4 4 c 12 4 c 7 0 c 11 -4 c 8 -7 c 4 -12 c 0 -11 c -4 -11 c -4 -4 c -7 -4 c -4 8 3049 2217 l -12 11 c 80 0 c 0 -38 3033 2327 l
34 -4 c -3 4 c -4 11 c 0 12 c 4 11 c 7 7 c 12 4 c 7 0 c 11 -4 c 8 -7 c 4 -11 c 0 -12 c -4 -11 c -4 -4 c -7 -4 c 4 -3 3105 2364 l
4 3 c -4 4 c -4 -4 c 80 -38 3033 2448 l 0 53 3033 2395 l 80 -38 3033 2523 l 0 53 3033 2470 l 0 -38 3033 2591 l 34 -3 c -3 3 c
-4 12 c 0 11 c 4 11 c 7 8 c 12 4 c 7 0 c 11 -4 c 8 -8 c 4 -11 c 0 -11 c -4 -12 c -4 -3 c -7 -4 c 0 -249 3208 1557 l
-8 -4 3176 1678 l -3 -11 c 0 -7 c 3 -12 c 12 -7 c 19 -4 c 18 0 c 16 4 c 7 7 c 4 12 c 0 3 c -4 12 c -7 7 c -12 4 c -4 0 c -11 -4 c
-7 -7 c -4 -12 c 0 -3 c 4 -12 c 7 -7 c 11 -4 c 0 42 3165 1712 l 30 -23 c 0 11 c 4 8 c 3 4 c 12 4 c 7 0 c 12 -4 c 7 -8 c 4 -11 c
0 -11 c -4 -12 c -4 -4 c -7 -3 c -4 7 3180 1792 l -11 11 c 79 0 c 79 -38 3165 1909 l 0 53 3165 1856 l 4 -4 3236 1939 l 4 4 c -4 4 c
-4 -4 c -4 7 3180 1981 l -11 11 c 79 0 c 3 -12 3165 2064 l 8 -3 c 7 0 c 8 3 c 4 8 c 4 15 c 3 11 c 8 8 c 7 4 c 12 0 c 7 -4 c 4 -4 c
4 -11 c 0 -15 c -4 -12 c -4 -3 c -7 -4 c -12 0 c -7 4 c -8 7 c -3 11 c -4 16 c -4 7 c -8 4 c -7 0 c -8 -4 c -3 -11 c 0 -15 c
-3 0 3183 2124 l -8 4 c -4 4 c -3 7 c 0 15 c 3 8 c 4 4 c 8 4 c 7 0 c 8 -4 c 11 -8 c 38 -38 c 0 53 c 0 -250 3641 1510 l
-8 -4 3609 1631 l -3 -11 c 0 -8 c 3 -11 c 12 -8 c 19 -4 c 18 0 c 16 4 c 7 8 c 4 11 c 0 4 c -4 11 c -7 8 c -12 4 c -4 0 c -11 -4 c
-7 -8 c -4 -11 c 0 -4 c 4 -11 c 7 -8 c 11 -4 c 0 41 3598 1665 l 30 -22 c 0 11 c 4 8 c 3 3 c 12 4 c 7 0 c 12 -4 c 7 -7 c 4 -11 c
0 -12 c -4 -11 c -4 -4 c -7 -4 c -3 0 3616 1737 l -8 3 c -4 4 c -3 8 c 0 15 c 3 7 c 4 4 c 8 4 c 7 0 c 8 -4 c 11 -7 c 38 -38 c 0 53 c
-4 7 3613 1820 l -11 12 c 79 0 c 4 -4 3669 1892 l 4 4 c -4 3 c -4 -3 c 3 -12 3598 1941 l 8 -3 c 7 0 c 8 3 c 4 8 c 4 15 c 3 11 c
8 8 c 7 4 c 12 0 c 7 -4 c 4 -4 c 4 -11 c 0 -15 c -4 -12 c -4 -3 c -7 -4 c -12 0 c -7 4 c -8 7 c -3 12 c -4 15 c -4 7 c -8 4 c -7 0 c
-8 -4 c -3 -11 c 0 -15 c -3 0 3616 2001 l -8 4 c -4 4 c -3 7 c 0 15 c 3 8 c 4 4 c 8 4 c 7 0 c 8 -4 c 11 -8 c 38 -38 c 0 53 c
3 -12 3598 2096 l 12 -7 c 19 -4 c 11 0 c 19 4 c 11 7 c 4 12 c 0 7 c -4 12 c -11 7 c -19 4 c -11 0 c -19 -4 c -12 -7 c -3 -12 c
0 -7 c 0 -250 4069 2993 l -8 -4 4037 3114 l -4 -11 c 0 -8 c 4 -11 c 11 -8 c 19 -4 c 19 0 c 15 4 c 8 8 c 4 11 c 0 4 c -4 11 c -8 8 c
-11 4 c -4 0 c -11 -4 c -8 -8 c -3 -11 c 0 -4 c 3 -11 c 8 -8 c 11 -4 c 0 41 4025 3148 l 31 -22 c 0 11 c 3 8 c 4 3 c 11 4 c 8 0 c
11 -4 c 8 -7 c 4 -11 c 0 -12 c -4 -11 c -4 -4 c -7 -4 c -4 0 4044 3220 l -7 3 c -4 4 c -4 8 c 0 15 c 4 7 c 4 4 c 7 4 c 8 0 c 8 -4 c
11 -7 c 38 -38 c 0 53 c -8 -4 4037 3341 l -4 -12 c 0 -7 c 4 -11 c 11 -8 c 19 -4 c 19 0 c 15 4 c 8 8 c 4 11 c 0 4 c -4 11 c -8 8 c
-11 3 c -4 0 c -11 -3 c -8 -8 c -3 -11 c 0 -4 c 3 -11 c 8 -8 c 11 -4 c 4 -4 4097 3375 l 4 4 c -4 3 c -4 -3 c 0 42 4025 3412 l
31 -23 c 0 12 c 3 7 c 4 4 c 11 4 c 8 0 c 11 -4 c 8 -8 c 4 -11 c 0 -11 c -4 -12 c -4 -3 c -7 -4 c -8 -4 4037 3530 l -4 -12 c 0 -7 c
4 -11 c 11 -8 c 19 -4 c 19 0 c 15 4 c 8 8 c 4 11 c 0 4 c -4 11 c -8 8 c -11 3 c -4 0 c -11 -3 c -8 -8 c -3 -11 c 0 -4 c 3 -11 c
8 -8 c 11 -4 c 80 -38 4025 3609 l 0 53 4025 3556 l 0 -249 4155 7019 l -8 -4 4123 7140 l -4 -11 c 0 -8 c 4 -11 c 11 -8 c 19 -3 c
19 0 c 15 3 c 8 8 c 4 11 c 0 4 c -4 11 c -8 8 c -11 4 c -4 0 c -11 -4 c -8 -8 c -3 -11 c 0 -4 c 3 -11 c 8 -8 c 11 -3 c
0 42 4111 7174 l 31 -23 c 0 11 c 3 8 c 4 4 c 11 3 c 8 0 c 11 -3 c 8 -8 c 4 -11 c 0 -12 c -4 -11 c -4 -4 c -7 -3 c -4 0 4130 7246 l
-7 4 c -4 3 c -4 8 c 0 15 c 4 8 c 4 3 c 7 4 c 8 0 c 8 -4 c 11 -7 c 38 -38 c 0 53 c 80 -38 4111 7371 l 0 53 4111 7318 l
4 -4 4183 7401 l 4 4 c -4 4 c -4 -4 c -4 0 4130 7435 l -7 4 c -4 3 c -4 8 c 0 15 c 4 8 c 4 3 c 7 4 c 8 0 c 8 -4 c 11 -7 c 38 -38 c
0 53 c 80 -38 4111 7560 l 0 53 4111 7507 l 4 -11 4111 7601 l 8 -4 c 7 0 c 8 4 c 4 7 c 3 15 c 4 12 c 8 7 c 7 4 c 12 0 c 7 -4 c 4 -3 c
4 -12 c 0 -15 c -4 -11 c -4 -4 c -7 -4 c -12 0 c -7 4 c -8 8 c -4 11 c -3 15 c -4 8 c -8 3 c -7 0 c -8 -3 c -4 -12 c 0 -15 c
0 -249 4547 1628 l -7 -3 4514 1749 l -4 -12 c 0 -7 c 4 -12 c 11 -7 c 19 -4 c 19 0 c 15 4 c 8 7 c 3 12 c 0 4 c -3 11 c -8 7 c -11 4 c
-4 0 c -11 -4 c -8 -7 c -4 -11 c 0 -4 c 4 -12 c 8 -7 c 11 -4 c 0 42 4503 1783 l 30 -23 c 0 12 c 4 7 c 4 4 c 11 4 c 8 0 c 11 -4 c
8 -8 c 3 -11 c 0 -11 c -3 -12 c -4 -3 c -8 -4 c 0 42 4503 1859 l 30 -23 c 0 11 c 4 8 c 4 4 c 11 3 c 8 0 c 11 -3 c 8 -8 c 3 -11 c
0 -12 c -3 -11 c -4 -4 c -8 -4 c -4 8 4518 1938 l -11 11 c 79 0 c 4 -4 4575 2010 l 3 4 c -3 4 c -4 -4 c 53 -38 4503 2078 l 0 57 c
79 0 4503 2078 l -4 8 4518 2127 l -11 11 c 79 0 c 53 -37 4503 2229 l 0 56 c 79 0 4503 2229 l 0 -250 4651 1933 l -7 -3 4618 2053 l
-4 -12 c 0 -7 c 4 -12 c 11 -7 c 19 -4 c 19 0 c 15 4 c 8 7 c 3 12 c 0 4 c -3 11 c -8 7 c -11 4 c -4 0 c -11 -4 c -8 -7 c -4 -11 c
0 -4 c 4 -12 c 8 -7 c 11 -4 c 0 42 4607 2087 l 30 -23 c 0 12 c 4 7 c 4 4 c 11 4 c 8 0 c 11 -4 c 8 -8 c 3 -11 c 0 -11 c -3 -12 c
-4 -3 c -8 -4 c 0 42 4607 2163 l 30 -23 c 0 11 c 4 8 c 4 4 c 11 3 c 8 0 c 11 -3 c 8 -8 c 3 -11 c 0 -12 c -3 -11 c -4 -4 c -8 -4 c
-4 0 4626 2235 l -7 4 c -4 3 c -4 8 c 0 15 c 4 8 c 4 3 c 7 4 c 8 0 c 7 -4 c 12 -7 c 37 -38 c 0 53 c 4 -4 4679 2314 l 3 4 c -3 4 c
-4 -4 c 0 -38 4607 2390 l 34 -4 c -4 4 c -3 11 c 0 12 c 3 11 c 8 8 c 11 3 c 8 0 c 11 -3 c 8 -8 c 3 -11 c 0 -12 c -3 -11 c -4 -4 c
-8 -4 c -4 8 4622 2431 l -11 11 c 79 0 c -4 0 4626 2499 l -7 4 c -4 4 c -4 8 c 0 15 c 4 7 c 4 4 c 7 4 c 8 0 c 7 -4 c 12 -8 c
37 -37 c 0 53 c 0 -249 4927 1922 l -8 -3 4895 2043 l -4 -12 c 0 -7 c 4 -12 c 11 -7 c 19 -4 c 19 0 c 15 4 c 8 7 c 4 12 c 0 3 c
-4 12 c -8 7 c -11 4 c -4 0 c -11 -4 c -8 -7 c -3 -12 c 0 -3 c 3 -12 c 8 -7 c 11 -4 c 0 42 4883 2077 l 31 -23 c 0 12 c 3 7 c 4 4 c
11 4 c 8 0 c 11 -4 c 8 -8 c 4 -11 c 0 -11 c -4 -12 c -4 -3 c -7 -4 c 0 42 4883 2153 l 31 -23 c 0 11 c 3 8 c 4 4 c 11 3 c 8 0 c
11 -3 c 8 -8 c 4 -11 c 0 -12 c -4 -11 c -4 -4 c -7 -4 c 0 -37 4883 2266 l 34 -4 c -3 4 c -4 11 c 0 11 c 4 12 c 7 7 c 11 4 c 8 0 c
11 -4 c 8 -7 c 4 -12 c 0 -11 c -4 -11 c -4 -4 c -7 -4 c 4 -4 4955 2304 l 4 4 c -4 4 c -4 -4 c 53 -38 4883 2372 l 0 57 c
80 0 4883 2372 l 4 -12 4883 2433 l 11 -7 c 19 -4 c 12 0 c 19 4 c 11 7 c 4 12 c 0 7 c -4 12 c -11 7 c -19 4 c -12 0 c -19 -4 c
-11 -7 c -4 -12 c 0 -7 c -8 -4 4895 2535 l -4 -11 c 0 -8 c 4 -11 c 11 -8 c 19 -4 c 19 0 c 15 4 c 8 8 c 4 11 c 0 4 c -4 11 c -8 8 c
-11 3 c -4 0 c -11 -3 c -8 -8 c -3 -11 c 0 -4 c 3 -11 c 8 -8 c 11 -4 c 0 -249 5139 2414 l -7 -4 5106 2535 l -4 -11 c 0 -8 c 4 -11 c
11 -7 c 19 -4 c 19 0 c 15 4 c 7 7 c 4 11 c 0 4 c -4 12 c -7 7 c -11 4 c -4 0 c -12 -4 c -7 -7 c -4 -12 c 0 -4 c 4 -11 c 7 -7 c
12 -4 c 0 42 5095 2569 l 30 -23 c 0 11 c 4 8 c 4 4 c 11 3 c 8 0 c 11 -3 c 7 -8 c 4 -11 c 0 -12 c -4 -11 c -3 -4 c -8 -3 c
0 41 5095 2645 l 30 -22 c 0 11 c 4 7 c 4 4 c 11 4 c 8 0 c 11 -4 c 7 -7 c 4 -12 c 0 -11 c -4 -11 c -3 -4 c -8 -4 c 79 -38 5095 2766 l
0 53 5095 2713 l 3 -4 5167 2796 l 4 4 c -4 4 c -3 -4 c -7 -4 5106 2875 l -4 -11 c 0 -7 c 4 -12 c 11 -7 c 19 -4 c 19 0 c 15 4 c 7 7 c
4 12 c 0 3 c -4 12 c -7 7 c -11 4 c -4 0 c -12 -4 c -7 -7 c -4 -12 c 0 -3 c 4 -12 c 7 -7 c 12 -4 c -4 0 5114 2905 l -8 4 c -3 4 c
-4 8 c 0 15 c 4 7 c 3 4 c 8 4 c 8 0 c 7 -4 c 11 -7 c 38 -38 c 0 53 c 4 -11 5095 3000 l 11 -8 c 19 -4 c 11 0 c 19 4 c 11 8 c 4 11 c
0 8 c -4 11 c -11 7 c -19 4 c -11 0 c -19 -4 c -11 -7 c -4 -11 c 0 -8 c 0 -250 5335 2377 l -8 -4 5303 2498 l -4 -11 c 0 -8 c 4 -11 c
11 -8 c 19 -3 c 19 0 c 15 3 c 8 8 c 4 11 c 0 4 c -4 11 c -8 8 c -11 4 c -4 0 c -11 -4 c -8 -8 c -3 -11 c 0 -4 c 3 -11 c 8 -8 c
11 -3 c 0 42 5291 2532 l 31 -23 c 0 11 c 3 8 c 4 4 c 11 3 c 8 0 c 11 -3 c 8 -8 c 4 -11 c 0 -12 c -4 -11 c -4 -4 c -7 -4 c
0 41 5291 2608 l 31 -23 c 0 12 c 3 7 c 4 4 c 11 4 c 8 0 c 11 -4 c 8 -7 c 4 -12 c 0 -11 c -4 -11 c -4 -4 c -7 -4 c 11 -4 5318 2725 l
8 -8 c 3 -11 c 0 -4 c -3 -11 c -8 -8 c -11 -3 c -4 0 c -11 3 c -8 8 c -4 11 c 0 4 c 4 11 c 8 8 c 15 4 c 19 0 c 19 -4 c 11 -8 c
4 -11 c 0 -8 c -4 -11 c -8 -4 c 4 -4 5363 2759 l 4 4 c -4 4 c -4 -4 c -8 -4 5303 2838 l -4 -11 c 0 -8 c 4 -11 c 11 -7 c 19 -4 c
19 0 c 15 4 c 8 7 c 4 11 c 0 4 c -4 12 c -8 7 c -11 4 c -4 0 c -11 -4 c -8 -7 c -3 -12 c 0 -4 c 3 -11 c 8 -7 c 11 -4 c
-8 -4 5303 2914 l -4 -11 c 0 -8 c 4 -11 c 11 -8 c 19 -4 c 19 0 c 15 4 c 8 8 c 4 11 c 0 4 c -4 11 c -8 8 c -11 3 c -4 0 c -11 -3 c
-8 -8 c -3 -11 c 0 -4 c 3 -11 c 8 -8 c 11 -4 c 4 -11 5291 2959 l 8 -4 c 7 0 c 8 4 c 4 7 c 3 15 c 4 12 c 8 7 c 7 4 c 12 0 c 7 -4 c
4 -3 c 4 -12 c 0 -15 c -4 -11 c -4 -4 c -7 -4 c -12 0 c -7 4 c -8 7 c -4 12 c -3 15 c -4 8 c -8 3 c -7 0 c -8 -3 c -4 -12 c 0 -15 c
0 -249 5642 7019 l -8 -4 5610 7140 l -3 -11 c 0 -8 c 3 -11 c 12 -8 c 19 -3 c 19 0 c 15 3 c 7 8 c 4 11 c 0 4 c -4 11 c -7 8 c -12 4 c
-3 0 c -12 -4 c -7 -8 c -4 -11 c 0 -4 c 4 -11 c 7 -8 c 12 -3 c 0 42 5599 7174 l 30 -23 c 0 11 c 4 8 c 3 4 c 12 3 c 7 0 c 12 -3 c
7 -8 c 4 -11 c 0 -12 c -4 -11 c -4 -4 c -7 -3 c 53 -38 5599 7280 l 0 57 c 79 0 5599 7280 l -4 0 5618 7321 l -8 4 c -4 4 c -3 8 c
0 15 c 3 7 c 4 4 c 8 4 c 7 0 c 8 -4 c 11 -8 c 38 -37 c 0 53 c 4 -4 5670 7401 l 4 4 c -4 4 c -4 -4 c 3 -11 5599 7450 l 8 -4 c 8 0 c
7 4 c 4 7 c 4 15 c 3 12 c 8 7 c 8 4 c 11 0 c 7 -4 c 4 -4 c 4 -11 c 0 -15 c -4 -11 c -4 -4 c -7 -4 c -11 0 c -8 4 c -8 7 c -3 12 c
-4 15 c -4 7 c -7 4 c -8 0 c -8 -4 c -3 -11 c 0 -15 c 0 -38 5599 7552 l 34 -4 c -4 4 c -4 12 c 0 11 c 4 11 c 7 8 c 12 4 c 7 0 c
12 -4 c 7 -8 c 4 -11 c 0 -11 c -4 -12 c -4 -4 c -7 -3 c 11 -3 5625 7631 l 8 -8 c 4 -11 c 0 -4 c -4 -11 c -8 -8 c -11 -4 c -4 0 c
-11 4 c -8 8 c -3 11 c 0 4 c 3 11 c 8 8 c 15 3 c 19 0 c 19 -3 c 11 -8 c 4 -11 c 0 -8 c -4 -11 c -7 -4 c 0 -250 5958 1684 l
-8 -4 5926 1805 l -4 -11 c 0 -8 c 4 -11 c 11 -8 c 19 -3 c 19 0 c 15 3 c 8 8 c 4 11 c 0 4 c -4 11 c -8 8 c -11 4 c -4 0 c -11 -4 c
-8 -8 c -3 -11 c 0 -4 c 3 -11 c 8 -8 c 11 -3 c 0 42 5914 1839 l 31 -23 c 0 11 c 3 8 c 4 4 c 11 3 c 8 0 c 11 -3 c 8 -8 c 4 -11 c
0 -12 c -4 -11 c -4 -4 c -7 -4 c 53 -38 5914 1945 l 0 57 c 80 0 5914 1945 l -8 -4 5926 2032 l -4 -11 c 0 -8 c 4 -11 c 11 -8 c
19 -4 c 19 0 c 15 4 c 8 8 c 4 11 c 0 4 c -4 11 c -8 8 c -11 4 c -4 0 c -11 -4 c -8 -8 c -3 -11 c 0 -4 c 3 -11 c 8 -8 c 11 -4 c
4 -4 5986 2066 l 4 4 c -4 4 c -4 -4 c -3 8 5929 2107 l -12 11 c 80 0 c -4 0 5933 2175 l -7 4 c -4 4 c -4 7 c 0 16 c 4 7 c 4 4 c
7 4 c 8 0 c 8 -4 c 11 -8 c 38 -37 c 0 52 c -3 7 5929 2259 l -12 11 c 80 0 c 0 -250 6212 3850 l -8 -4 6180 3971 l -4 -11 c 0 -8 c
4 -11 c 12 -8 c 18 -4 c 19 0 c 16 4 c 7 8 c 4 11 c 0 4 c -4 11 c -7 8 c -12 4 c -4 0 c -11 -4 c -8 -8 c -3 -11 c 0 -4 c 3 -11 c
8 -8 c 11 -4 c 0 41 6168 4005 l 31 -22 c 0 11 c 3 8 c 4 3 c 12 4 c 7 0 c 12 -4 c 7 -7 c 4 -12 c 0 -11 c -4 -11 c -4 -4 c -7 -4 c
53 -38 6168 4111 l 0 56 c 80 0 6168 4111 l 4 -11 6168 4167 l 8 -4 c 7 0 c 8 4 c 4 8 c 3 15 c 4 11 c 8 8 c 7 3 c 12 0 c 7 -3 c 4 -4 c
4 -12 c 0 -15 c -4 -11 c -4 -4 c -7 -4 c -12 0 c -7 4 c -8 8 c -4 11 c -3 15 c -4 8 c -8 4 c -7 0 c -8 -4 c -4 -12 c 0 -15 c
4 -4 6240 4232 l 4 4 c -4 3 c -4 -3 c 80 -38 6168 4315 l 0 53 6168 4262 l 0 42 6168 4345 l 31 -23 c 0 11 c 3 8 c 4 4 c 12 3 c 7 0 c
12 -3 c 7 -8 c 4 -11 c 0 -12 c -4 -11 c -4 -4 c -7 -4 c 4 -11 6168 4432 l 8 -4 c 7 0 c 8 4 c 4 7 c 3 15 c 4 12 c 8 7 c 7 4 c 12 0 c
7 -4 c 4 -4 c 4 -11 c 0 -15 c -4 -11 c -4 -4 c -7 -4 c -12 0 c -7 4 c -8 7 c -4 12 c -3 15 c -4 7 c -8 4 c -7 0 c -8 -4 c -4 -11 c
0 -15 c 0 -250 6915 3034 l -8 -3 6883 3154 l -4 -12 c 0 -7 c 4 -12 c 11 -7 c 19 -4 c 19 0 c 15 4 c 8 7 c 4 12 c 0 4 c -4 11 c -8 7 c
-11 4 c -4 0 c -11 -4 c -8 -7 c -3 -11 c 0 -4 c 3 -12 c 8 -7 c 11 -4 c 0 41 6871 3189 l 31 -23 c 0 12 c 3 7 c 4 4 c 11 4 c 8 0 c
11 -4 c 8 -7 c 4 -12 c 0 -11 c -4 -11 c -4 -4 c -7 -4 c 0 -38 6871 3302 l 34 -4 c -3 4 c -4 11 c 0 12 c 4 11 c 7 8 c 11 3 c 8 0 c
11 -3 c 8 -8 c 4 -11 c 0 -12 c -4 -11 c -4 -4 c -7 -3 c 0 -37 6871 3377 l 34 -4 c -3 4 c -4 11 c 0 11 c 4 12 c 7 7 c 11 4 c 8 0 c
11 -4 c 8 -7 c 4 -12 c 0 -11 c -4 -11 c -4 -4 c -7 -4 c 4 -3 6943 3415 l 4 3 c -4 4 c -4 -4 c 11 -4 6898 3495 l 8 -8 c 3 -11 c
0 -4 c -3 -11 c -8 -8 c -11 -3 c -4 0 c -11 3 c -8 8 c -4 11 c 0 4 c 4 11 c 8 8 c 15 4 c 19 0 c 19 -4 c 11 -8 c 4 -11 c 0 -8 c
-4 -11 c -8 -4 c -3 8 6886 3532 l -12 11 c 80 0 c -3 8 6886 3608 l -12 11 c 80 0 c 0 -249 7183 1790 l -8 -3 7151 1911 l -3 -12 c
0 -7 c 3 -12 c 12 -7 c 19 -4 c 18 0 c 16 4 c 7 7 c 4 12 c 0 3 c -4 12 c -7 7 c -12 4 c -4 0 c -11 -4 c -7 -7 c -4 -12 c 0 -3 c
4 -12 c 7 -7 c 11 -4 c 0 42 7140 1945 l 30 -23 c 0 12 c 4 7 c 3 4 c 12 4 c 7 0 c 12 -4 c 7 -8 c 4 -11 c 0 -11 c -4 -12 c -4 -3 c
-7 -4 c 0 -38 7140 2059 l 34 -4 c -4 4 c -4 11 c 0 12 c 4 11 c 7 8 c 12 3 c 7 0 c 12 -3 c 7 -8 c 4 -11 c 0 -12 c -4 -11 c -4 -4 c
-7 -4 c 3 -11 7140 2108 l 8 -4 c 7 0 c 8 4 c 4 7 c 4 15 c 3 12 c 8 7 c 7 4 c 12 0 c 7 -4 c 4 -4 c 4 -11 c 0 -15 c -4 -11 c -4 -4 c
-7 -4 c -12 0 c -7 4 c -8 7 c -3 12 c -4 15 c -4 7 c -8 4 c -7 0 c -8 -4 c -3 -11 c 0 -15 c 4 -4 7211 2172 l 4 4 c -4 4 c -4 -4 c
-8 -3 7151 2251 l -3 -12 c 0 -7 c 3 -12 c 12 -7 c 19 -4 c 18 0 c 16 4 c 7 7 c 4 12 c 0 4 c -4 11 c -7 7 c -12 4 c -4 0 c -11 -4 c
-7 -7 c -4 -11 c 0 -4 c 4 -12 c 7 -7 c 11 -4 c -3 0 7158 2282 l -8 4 c -4 3 c -3 8 c 0 15 c 3 8 c 4 3 c 8 4 c 7 0 c 8 -4 c 11 -7 c
38 -38 c 0 53 c -4 7 7155 2365 l -11 12 c 79 0 c 0 -249 7287 1485 l -8 -4 7255 1606 l -4 -11 c 0 -8 c 4 -11 c 11 -7 c 19 -4 c 19 0 c
15 4 c 8 7 c 4 11 c 0 4 c -4 12 c -8 7 c -11 4 c -4 0 c -11 -4 c -8 -7 c -3 -12 c 0 -4 c 3 -11 c 8 -7 c 11 -4 c 0 42 7243 1640 l
31 -23 c 0 11 c 3 8 c 4 4 c 11 4 c 8 0 c 11 -4 c 8 -8 c 4 -11 c 0 -11 c -4 -12 c -4 -4 c -7 -3 c 0 -38 7243 1754 l 34 -4 c -3 4 c
-4 11 c 0 11 c 4 12 c 7 7 c 11 4 c 8 0 c 11 -4 c 8 -7 c 4 -12 c 0 -11 c -4 -11 c -4 -4 c -7 -4 c 11 -4 7270 1833 l 8 -7 c 3 -12 c
0 -4 c -3 -11 c -8 -7 c -11 -4 c -4 0 c -11 4 c -8 7 c -4 11 c 0 4 c 4 12 c 8 7 c 15 4 c 19 0 c 19 -4 c 11 -7 c 4 -12 c 0 -7 c
-4 -12 c -8 -3 c 4 -4 7315 1867 l 4 4 c -4 4 c -4 -4 c -8 -3 7255 1946 l -4 -12 c 0 -7 c 4 -12 c 11 -7 c 19 -4 c 19 0 c 15 4 c 8 7 c
4 12 c 0 3 c -4 12 c -8 7 c -11 4 c -4 0 c -11 -4 c -8 -7 c -3 -12 c 0 -3 c 3 -12 c 8 -7 c 11 -4 c 80 -38 7243 2026 l
0 53 7243 1973 l 53 -38 7243 2086 l 0 57 c 80 0 7243 2086 l 0 -250 7543 1434 l -8 -4 7511 1555 l -3 -11 c 0 -8 c 3 -11 c 12 -8 c
19 -3 c 18 0 c 16 3 c 7 8 c 4 11 c 0 4 c -4 11 c -7 8 c -12 4 c -4 0 c -11 -4 c -7 -8 c -4 -11 c 0 -4 c 4 -11 c 7 -8 c 11 -3 c
0 42 7500 1589 l 30 -23 c 0 11 c 4 8 c 3 4 c 12 3 c 7 0 c 12 -3 c 7 -8 c 4 -11 c 0 -12 c -4 -11 c -4 -4 c -7 -4 c -8 -4 7511 1706 l
-3 -11 c 0 -8 c 3 -11 c 12 -7 c 19 -4 c 18 0 c 16 4 c 7 7 c 4 11 c 0 4 c -4 12 c -7 7 c -12 4 c -4 0 c -11 -4 c -7 -7 c -4 -12 c
0 -4 c 4 -11 c 7 -7 c 11 -4 c -3 0 7518 1736 l -8 4 c -4 4 c -3 7 c 0 16 c 3 7 c 4 4 c 8 4 c 7 0 c 8 -4 c 11 -8 c 38 -37 c 0 52 c
4 -4 7571 1816 l 4 4 c -4 4 c -4 -4 c -3 0 7518 1850 l -8 4 c -4 3 c -3 8 c 0 15 c 3 8 c 4 3 c 8 4 c 7 0 c 8 -4 c 11 -7 c 38 -38 c
0 53 c 0 -38 7500 1967 l 34 -4 c -4 4 c -4 11 c 0 12 c 4 11 c 7 8 c 12 3 c 7 0 c 12 -3 c 7 -8 c 4 -11 c 0 -12 c -4 -11 c -4 -4 c
-7 -3 c -3 0 7518 2001 l -8 4 c -4 3 c -3 8 c 0 15 c 3 8 c 4 3 c 8 4 c 7 0 c 8 -4 c 11 -7 c 38 -38 c 0 53 c 0 -250 8277 2745 l
-8 -4 8245 2866 l -4 -12 c 0 -7 c 4 -11 c 12 -8 c 18 -4 c 19 0 c 15 4 c 8 8 c 4 11 c 0 4 c -4 11 c -8 8 c -11 3 c -4 0 c -11 -3 c
-8 -8 c -3 -11 c 0 -4 c 3 -11 c 8 -8 c 11 -4 c 0 41 8233 2900 l 31 -23 c 0 12 c 3 7 c 4 4 c 12 4 c 7 0 c 11 -4 c 8 -7 c 4 -12 c
0 -11 c -4 -11 c -4 -4 c -7 -4 c -8 -4 8245 3017 l -4 -11 c 0 -8 c 4 -11 c 12 -8 c 18 -4 c 19 0 c 15 4 c 8 8 c 4 11 c 0 4 c -4 11 c
-8 8 c -11 3 c -4 0 c -11 -3 c -8 -8 c -3 -11 c 0 -4 c 3 -11 c 8 -8 c 11 -4 c 11 -3 8260 3092 l 8 -8 c 4 -11 c 0 -4 c -4 -11 c
-8 -8 c -11 -4 c -4 0 c -11 4 c -8 8 c -4 11 c 0 4 c 4 11 c 8 8 c 15 3 c 19 0 c 19 -3 c 11 -8 c 4 -11 c 0 -8 c -4 -11 c -8 -4 c
4 -3 8305 3126 l 4 3 c -4 4 c -4 -4 c 0 -38 8233 3202 l 34 -4 c -3 4 c -4 11 c 0 12 c 4 11 c 7 8 c 12 3 c 7 0 c 11 -3 c 8 -8 c
4 -11 c 0 -12 c -4 -11 c -4 -4 c -7 -3 c 80 -38 8233 3285 l 0 53 8233 3232 l 0 -38 8233 3353 l 34 -3 c -3 3 c -4 12 c 0 11 c 4 11 c
7 8 c 12 4 c 7 0 c 11 -4 c 8 -8 c 4 -11 c 0 -11 c -4 -12 c -4 -3 c -7 -4 c 0 -250 8516 4486 l -8 -4 8484 4607 l -4 -11 c 0 -8 c
4 -11 c 12 -8 c 18 -4 c 19 0 c 15 4 c 8 8 c 4 11 c 0 4 c -4 11 c -8 8 c -11 4 c -4 0 c -11 -4 c -8 -8 c -3 -11 c 0 -4 c 3 -11 c
8 -8 c 11 -4 c 0 41 8472 4641 l 31 -22 c 0 11 c 3 8 c 4 3 c 12 4 c 7 0 c 11 -4 c 8 -7 c 4 -12 c 0 -11 c -4 -11 c -4 -4 c -7 -4 c
80 -38 8472 4762 l 0 53 8472 4709 l -4 7 8488 4796 l -12 12 c 80 0 c 4 -4 8544 4868 l 4 4 c -4 3 c -4 -3 c 11 -4 8499 4947 l 8 -7 c
4 -12 c 0 -4 c -4 -11 c -8 -7 c -11 -4 c -4 0 c -11 4 c -8 7 c -4 11 c 0 4 c 4 12 c 8 7 c 15 4 c 19 0 c 19 -4 c 11 -7 c 4 -12 c
0 -7 c -4 -12 c -8 -3 c 53 -38 8472 5011 l 0 57 c 80 0 8472 5011 l 53 -38 8472 5087 l 0 57 c 80 0 8472 5087 l 0 -250 9023 5734 l
-8 -4 8991 5855 l -3 -12 c 0 -7 c 3 -12 c 12 -7 c 19 -4 c 18 0 c 16 4 c 7 7 c 4 12 c 0 4 c -4 11 c -7 8 c -12 3 c -4 0 c -11 -3 c
-7 -8 c -4 -11 c 0 -4 c 4 -12 c 7 -7 c 11 -4 c 0 41 8980 5889 l 30 -23 c 0 12 c 4 7 c 3 4 c 12 4 c 7 0 c 12 -4 c 7 -7 c 4 -12 c
0 -11 c -4 -11 c -4 -4 c -7 -4 c 79 -37 8980 6009 l 0 52 8980 5957 l -8 -3 8991 6081 l -3 -12 c 0 -7 c 3 -12 c 12 -7 c 19 -4 c
18 0 c 16 4 c 7 7 c 4 12 c 0 3 c -4 12 c -7 7 c -12 4 c -4 0 c -11 -4 c -7 -7 c -4 -12 c 0 -3 c 4 -12 c 7 -7 c 11 -4 c
4 -3 9051 6115 l 4 3 c -4 4 c -4 -4 c 11 -4 9006 6195 l 8 -8 c 4 -11 c 0 -4 c -4 -11 c -8 -8 c -11 -3 c -4 0 c -11 3 c -8 8 c
-3 11 c 0 4 c 3 11 c 8 8 c 15 4 c 19 0 c 19 -4 c 11 -8 c 4 -11 c 0 -8 c -4 -11 c -7 -4 c 0 41 8980 6229 l 30 -22 c 0 11 c 4 7 c
3 4 c 12 4 c 7 0 c 12 -4 c 7 -7 c 4 -12 c 0 -11 c -4 -11 c -4 -4 c -7 -4 c -4 8 8995 6308 l -11 11 c 79 0 c 0 -250 9305 1528 l
-8 -4 9273 1649 l -4 -11 c 0 -8 c 4 -11 c 11 -8 c 19 -4 c 19 0 c 15 4 c 8 8 c 4 11 c 0 4 c -4 11 c -8 8 c -11 4 c -4 0 c -11 -4 c
-8 -8 c -4 -11 c 0 -4 c 4 -11 c 8 -8 c 11 -4 c 0 41 9261 1683 l 30 -22 c 0 11 c 4 8 c 4 3 c 11 4 c 8 0 c 11 -4 c 8 -7 c 4 -12 c
0 -11 c -4 -11 c -4 -4 c -8 -4 c 80 -38 9261 1804 l 0 53 9261 1751 l 11 -3 9288 1875 l 8 -8 c 3 -11 c 0 -4 c -3 -11 c -8 -8 c
-11 -4 c -4 0 c -11 4 c -8 8 c -4 11 c 0 4 c 4 11 c 8 8 c 15 3 c 19 0 c 18 -3 c 12 -8 c 4 -11 c 0 -8 c -4 -11 c -8 -4 c
4 -4 9333 1910 l 4 4 c -4 3 c -4 -3 c -8 -4 9273 1989 l -4 -11 c 0 -8 c 4 -11 c 11 -8 c 19 -3 c 19 0 c 15 3 c 8 8 c 4 11 c 0 4 c
-4 11 c -8 8 c -11 4 c -4 0 c -11 -4 c -8 -8 c -4 -11 c 0 -4 c 4 -11 c 8 -8 c 11 -3 c 80 -38 9261 2068 l 0 53 9261 2015 l
0 42 9261 2098 l 30 -23 c 0 12 c 4 7 c 4 4 c 11 4 c 8 0 c 11 -4 c 8 -7 c 4 -12 c 0 -11 c -4 -12 c -4 -3 c -8 -4 c
showpage PGPLOT restore
 
%%Trailer
%%DocumentFonts: 
%%Pages: 1
%%EOF
