%!PS-Adobe-3.0 EPSF-3.0
%%For: tom
%%Title: PGPLOT PostScript plot
%%Creator: PGPLOT
%%CreationDate:  9-Nov-1994 14:03
%%BoundingBox: 25 18 587 774
%%DocumentFonts: (atend)
%%LanguageLevel: 1
%%Orientation: Landscape
%%Pages: (atend)
%%EndComments
%%BeginProlog
/l {moveto rlineto currentpoint stroke moveto} bind def
/c {rlineto currentpoint stroke moveto} bind def
/d {moveto 0 0 rlineto currentpoint stroke moveto} bind def
/SLW {5 mul setlinewidth} bind def
/SCF /pop load def
/BP {newpath moveto} bind def
/LP /rlineto load def
/EP {rlineto closepath eofill} bind def
/MB {gsave translate MFAC dup scale 1 setlinewidth 2 setlinecap 0 setlinejoin newpath} bind def
/ME /grestore load def
/C {0 360 arc stroke} bind def
/FC {0 360 arc fill} bind def
%%EndProlog
 
%%Page: 1 1
%%BeginPageSetup
/PGPLOT save def
0.072 0.072 scale
8150 250 translate 90 rotate
1 setlinejoin 1 setlinecap 1 SLW 1 SCF
%%EndPageSetup
0.00 setgray 1 SLW 8939 0 780 780 l 0 6239 c -8939 0 c 0 -6239 c 0 -45 1116 780 l 0 -45 1554 780 l 0 -45 1991 780 l 0 -45 2428 780 l
0 -90 2865 780 l 0 -45 3302 780 l 0 -45 3739 780 l 0 -45 4176 780 l 0 -45 4613 780 l 0 -90 5051 780 l 0 -45 5488 780 l
0 -45 5925 780 l 0 -45 6362 780 l 0 -45 6799 780 l 0 -90 7236 780 l 0 -45 7673 780 l 0 -45 8110 780 l 0 -45 8548 780 l
0 -45 8985 780 l 0 -90 9422 780 l 0 -45 1116 7064 l 0 -45 1554 7064 l 0 -45 1991 7064 l 0 -45 2428 7064 l 0 -90 2865 7109 l
0 -45 3302 7064 l 0 -45 3739 7064 l 0 -45 4176 7064 l 0 -45 4613 7064 l 0 -90 5051 7109 l 0 -45 5488 7064 l 0 -45 5925 7064 l
0 -45 6362 7064 l 0 -45 6799 7064 l 0 -90 7236 7109 l 0 -45 7673 7064 l 0 -45 8110 7064 l 0 -45 8548 7064 l 0 -45 8985 7064 l
0 -90 9422 7109 l -60 0 2775 672 l -6 -54 c 6 6 c 18 6 c 18 0 c 18 -6 c 12 -12 c 6 -18 c 0 -12 c -6 -18 c -12 -12 c -18 -6 c -18 0 c
-18 6 c -6 6 c -6 12 c -18 -6 2859 672 l -12 -18 c -6 -30 c 0 -18 c 6 -30 c 12 -18 c 18 -6 c 12 0 c 18 6 c 12 18 c 6 30 c 0 18 c
-6 30 c -12 18 c -18 6 c -12 0 c -18 -6 2979 672 l -12 -18 c -6 -30 c 0 -18 c 6 -30 c 12 -18 c 18 -6 c 12 0 c 18 6 c 12 18 c 6 30 c
0 18 c -6 30 c -12 18 c -18 6 c -12 0 c 12 6 4847 648 l 18 18 c 0 -126 c -18 -6 4985 672 l -12 -18 c -6 -30 c 0 -18 c 6 -30 c
12 -18 c 18 -6 c 12 0 c 18 6 c 12 18 c 6 30 c 0 18 c -6 30 c -12 18 c -18 6 c -12 0 c -18 -6 5105 672 l -12 -18 c -6 -30 c 0 -18 c
6 -30 c 12 -18 c 18 -6 c 12 0 c 18 6 c 12 18 c 6 30 c 0 18 c -6 30 c -12 18 c -18 6 c -12 0 c -18 -6 5225 672 l -12 -18 c -6 -30 c
0 -18 c 6 -30 c 12 -18 c 18 -6 c 12 0 c 18 6 c 12 18 c 6 30 c 0 18 c -6 30 c -12 18 c -18 6 c -12 0 c 12 6 7032 648 l 18 18 c
0 -126 c -60 0 7206 672 l -6 -54 c 6 6 c 18 6 c 18 0 c 18 -6 c 12 -12 c 6 -18 c 0 -12 c -6 -18 c -12 -12 c -18 -6 c -18 0 c -18 6 c
-6 6 c -6 12 c -18 -6 7290 672 l -12 -18 c -6 -30 c 0 -18 c 6 -30 c 12 -18 c 18 -6 c 12 0 c 18 6 c 12 18 c 6 30 c 0 18 c -6 30 c
-12 18 c -18 6 c -12 0 c -18 -6 7410 672 l -12 -18 c -6 -30 c 0 -18 c 6 -30 c 12 -18 c 18 -6 c 12 0 c 18 6 c 12 18 c 6 30 c 0 18 c
-6 30 c -12 18 c -18 6 c -12 0 c 0 6 9206 642 l 6 12 c 6 6 c 12 6 c 24 0 c 12 -6 c 6 -6 c 6 -12 c 0 -12 c -6 -12 c -12 -18 c
-60 -60 c 84 0 c -18 -6 9356 672 l -12 -18 c -6 -30 c 0 -18 c 6 -30 c 12 -18 c 18 -6 c 12 0 c 18 6 c 12 18 c 6 30 c 0 18 c -6 30 c
-12 18 c -18 6 c -12 0 c -18 -6 9476 672 l -12 -18 c -6 -30 c 0 -18 c 6 -30 c 12 -18 c 18 -6 c 12 0 c 18 6 c 12 18 c 6 30 c 0 18 c
-6 30 c -12 18 c -18 6 c -12 0 c -18 -6 9596 672 l -12 -18 c -6 -30 c 0 -18 c 6 -30 c 12 -18 c 18 -6 c 12 0 c 18 6 c 12 18 c 6 30 c
0 18 c -6 30 c -12 18 c -18 6 c -12 0 c -90 0 780 780 l -45 0 780 1714 l -90 0 780 2648 l -45 0 780 3582 l -90 0 780 4516 l
-45 0 780 5450 l -90 0 780 6383 l -90 0 9809 780 l -45 0 9764 1714 l -90 0 9809 2648 l -45 0 9764 3582 l -90 0 9809 4516 l
-45 0 9764 5450 l -90 0 9809 6383 l 6 -18 517 774 l 18 -12 c 30 -6 c 18 0 c 30 6 c 18 12 c 6 18 c 0 12 c -6 18 c -18 12 c -30 6 c
-18 0 c -30 -6 c -18 -12 c -6 -18 c 0 -12 c -6 0 547 2390 l -12 6 c -6 6 c -6 12 c 0 24 c 6 12 c 6 6 c 12 6 c 12 0 c 12 -6 c
18 -12 c 60 -60 c 0 84 c 84 84 547 2510 l 84 -84 547 2594 l -6 12 541 2654 l -18 18 c 126 0 c 6 -18 517 2792 l 18 -12 c 30 -6 c
18 0 c 30 6 c 18 12 c 6 18 c 0 12 c -6 18 c -18 12 c -30 6 c -18 0 c -30 -6 c -18 -12 c -6 -18 c 0 -12 c 63 -45 453 2916 l 0 68 c
94 0 453 2916 l 84 -60 517 4312 l 0 90 c 126 0 517 4312 l 84 84 547 4378 l 84 -84 547 4462 l -6 12 541 4522 l -18 18 c 126 0 c
6 -18 517 4660 l 18 -12 c 30 -6 c 18 0 c 30 6 c 18 12 c 6 18 c 0 12 c -6 18 c -18 12 c -30 6 c -18 0 c -30 -6 c -18 -12 c -6 -18 c
0 -12 c 63 -45 453 4784 l 0 68 c 94 0 453 4784 l -12 -6 535 6197 l -6 -18 c 0 -12 c 6 -18 c 18 -12 c 30 -6 c 30 0 c 24 6 c 12 12 c
6 18 c 0 6 c -6 18 c -12 12 c -18 6 c -6 0 c -18 -6 c -12 -12 c -6 -18 c 0 -6 c 6 -18 c 12 -12 c 18 -6 c 84 84 547 6245 l
84 -84 547 6329 l -6 12 541 6389 l -18 18 c 126 0 c 6 -18 517 6527 l 18 -12 c 30 -6 c 18 0 c 30 6 c 18 12 c 6 18 c 0 12 c -6 18 c
-18 12 c -30 6 c -18 0 c -30 -6 c -18 -12 c -6 -18 c 0 -12 c 63 -45 453 6652 l 0 67 c 94 0 453 6652 l
4 2046 780 1484 l 5 3267 c 4 -14 c 4 7 c 5 -12 c 4 6 c 4 -3188 c 5 -2396 c 4 -220 c 5 -14 c 4 -15 c 4 -31 c 5 -39 c 4 -24 c 4 -13 c
5 -10 c 4 -3 c 5 5 c 4 1 c 4 1 c 5 -1 c 4 -4 c 4 1 c 5 -1 c 4 -6 c 5 -4 c 4 -6 c 4 -2 c 5 11 c 4 19 c 4 5 c 5 -5 c 4 -15 c 5 -16 c
4 -3 c 4 0 c 5 -1 c 4 -1 c 4 1 c 5 1 c 4 6 c 4 9 c 5 26 c 4 93 c 5 379 c 4 1054 c 4 646 c 5 32 c 4 -542 c 4 -1091 c 5 -493 c
4 -112 c 5 -9 c 4 -1 c 4 4 c 5 12 c 4 8 c 4 2 c 5 -6 c 4 -12 c 5 1 c 4 13 c 4 5 c 5 -2 c 4 -14 c 4 -13 c 5 -5 c 4 -1 c 5 1 c 4 -1 c
4 1 c 5 1 c 4 0 c 4 0 c 5 0 c 4 -1 c 4 -1 c 5 -2 c 4 -1 c 5 1 c 4 1 c 4 2 c 5 3 c 4 -24 c 5 23 1151 780 l 4 0 c 5 0 c 4 0 c 4 0 c
5 1 c 4 1 c 4 0 c 5 0 c 4 4 c 5 4 c 4 4 c 4 0 c 5 -1 c 4 3 c 4 28 c 5 29 c 4 7 c 5 -9 c 4 -34 c 4 -21 c 5 -5 c 4 3 c 4 4 c 5 6 c
4 12 c 4 48 c 5 165 c 4 615 c 5 2703 c 4 2440 c 4 -9 c 5 -8 c 4 -1873 c 4 -2999 c 5 -980 c 4 -102 c 5 -12 c 4 -4 c 4 -3 c 5 -1 c
4 5 c 4 19 c 5 9 c 4 2 c 5 -11 c 4 -21 c 4 -11 c 5 -4 c 4 -2 c 4 0 c 5 0 c 4 1 c 5 4 c 4 10 c 4 5 c 5 -2 c 4 -6 c 4 -10 c 5 -4 c
4 -1 c 4 1 c 5 -1 c 4 1 c 5 3 c 4 1 c 4 1 c 5 0 c 4 -3 c 4 -2 c 5 0 c 4 0 c 5 0 c 4 0 c 4 1 c 5 0 c 4 -2 c 4 -1 c 5 -1 c 4 1 c 5 0 c
4 0 c 4 1 c 5 3 c 4 21 c 4 81 c 5 73 c 4 29 c 4 -25 c 5 -94 c 4 -70 c 5 -17 c 4 -2 c 4 0 c 5 1 c 4 1 c 4 1 c 5 1 c 4 0 c 5 0 c
4 -1 c 4 -1 c 5 0 c 4 0 c 4 0 c 5 -1 c 4 0 c 5 -1 c 4 -1 c 4 0 c 5 1 c 4 0 c 4 1 c 5 0 c 4 1 c 5 -1 c 4 0 c 4 -2 c 5 -1 c 4 -1 c
4 0 c 5 1 c 4 0 c 4 0 c 5 0 c 4 0 c 5 1 c 4 0 c 4 2 c 5 8 c 4 41 c 4 70 c 5 33 c 4 -3 c 5 -51 c 4 -64 c 4 -16 c 5 46 c 4 174 c
4 212 c 5 82 c 4 -64 c 5 -211 c 4 -179 c 4 -66 c 5 -8 c 4 -3 c 4 0 c 5 -1 c 4 0 c 5 1 c 4 1 c 4 1 c 5 0 c 4 -1 c 4 2 c 5 3 c 4 1 c
4 -3 c 5 -2 c 4 -3 c 5 -1 c 4 -1 c 4 -1 c 5 0 c 4 1 c 4 -1 c 5 1 c 4 0 c 5 1 c 4 1 c 4 1 c 5 1 c 4 1 c 4 0 c 5 0 c 4 3 c 5 30 c
4 74 c 4 46 c 5 19 c 4 30 c 4 107 c 5 81 c 4 1 c 5 -90 c 4 -151 c 4 87 c 5 389 c 4 222 c 4 17 c 5 -252 c 4 -391 c 4 -184 c 5 -38 c
4 -3 c 5 0 c 4 0 c 4 5 c 5 24 c 4 47 c 4 22 c 5 -1 c 4 -32 c 5 -43 c 4 -19 c 4 -3 c 5 -1 c 4 0 c 4 0 c 5 4 c 4 4 c 5 3 c 4 25 c
4 56 c 5 28 c 4 3 c 4 -39 c 5 -55 c 4 -25 c 5 -5 c 4 -2 c 4 1 c 5 4 c 4 4 c 4 3 c 5 0 c 4 -1 c 4 -3 c 5 -4 c 4 -2 c 5 -1 c 4 1 c
4 0 c 5 0 c 4 -1 c 4 -2 c 5 -2 c 4 1 c 5 -2 c 4 1 c 4 0 c 5 0 c 4 0 c 4 0 c 5 0 c 4 -1 c 5 1 c 4 0 c 4 1 c 5 1 c 4 -1 c 4 0 c 5 -1 c
4 -1 c 4 0 c 5 0 c 4 0 c 5 1 c 4 -1 c 4 0 c 5 0 c 4 1 c 4 0 c 5 0 c 4 0 c 5 1 c 4 0 c 4 0 c 5 0 c 4 0 c 4 0 c 5 1 c 4 1 c 5 2 c
4 16 c 4 142 c 5 435 c 4 368 c 4 88 c 5 -189 c 4 -472 c 5 -291 c 4 -93 c 4 -5 c 5 0 c 4 1 c 4 3 c 5 11 c 4 59 c 4 111 c 5 83 c
4 10 c 5 -72 c 4 -113 c 4 -72 c 5 -19 c 4 -3 c 4 -1 c 5 0 c 4 0 c 5 0 c 4 0 c 4 0 c 5 0 c 4 -1 c 4 0 c 5 -1 c 4 0 c 5 0 c 4 1 c
4 1 c 5 1 c 4 0 c 4 0 c 5 2 c 4 2 c 5 7 c 4 29 c 4 236 c 5 856 c 4 804 c 4 270 c 5 -270 c 4 -954 c 4 -724 c 5 -229 c 4 -21 c 5 -4 c
4 -2 c 4 -2 c 5 0 c 4 1 c 4 1 c 5 0 c 4 -1 c 5 -2 c 4 -1 c 4 -1 c 5 1 c 4 -1 c 4 0 c 5 0 c 4 0 c 5 0 c 4 0 c 4 0 c 5 -1 c 4 0 c
4 0 c 5 1 c 4 1 c 5 2 c 4 0 c 4 -1 c 5 -1 c 4 -2 c 4 0 c 5 -1 c 4 1 c 4 0 c 5 0 c 4 0 c 5 0 c 4 1 c 4 0 c 5 4 c 4 3 c 4 2 c 5 0 c
4 -4 c 5 -3 c 4 -1 c 4 -1 c 5 0 c 4 0 c 4 -1 c 5 0 c 4 0 c 5 1 c 4 1 c 4 1 c 5 0 c 4 0 c 4 1 c 5 0 c 4 5 c 4 10 c 5 28 c 4 202 c
5 738 c 4 781 c 4 303 c 5 -204 c 4 -829 c 4 -712 c 5 -274 c 4 -38 c 5 -7 c 4 0 c 4 3 c 5 5 c 4 2 c 4 -2 c 5 -6 c 4 -6 c 5 -2 c
4 -1 c 4 0 c 5 1 c 4 -1 c 4 0 c 5 1 c 4 2 c 5 7 c 4 3 c 4 9 c 5 28 c 4 31 c 4 15 c 5 3 c 4 19 c 4 37 c 5 19 c 4 -7 c 5 -55 c 4 -74 c
4 -32 c 5 -4 c 4 -1 c 4 0 c 5 0 c 4 0 c 5 0 c 4 0 c 4 0 c 5 0 c 4 -1 c 4 0 c 5 1 c 4 1 c 5 1 c 4 1 c 4 0 c 5 -3 c 4 -1 c 4 -1 c
5 0 c 4 0 c 5 1 c 4 1 c 4 2 c 5 0 c 4 0 c 4 -2 c 5 0 c 4 -1 c 4 -1 c 5 0 c 4 1 c 5 0 c 4 0 c 4 1 c 5 0 c 4 3 c 4 6 c 5 4 c 4 2 c
5 2 c 4 35 c 4 135 c 5 178 c 4 98 c 4 -20 c 5 -164 c 4 -170 c 5 -90 c 4 -13 c 4 -1 c 5 5 c 4 3 c 4 1 c 5 -4 c 4 -4 c 5 -3 c 4 1 c
4 2 c 5 0 c 4 -3 c 4 -1 c 5 -2 c 4 0 c 4 0 c 5 1 c 4 0 c 5 0 c 4 0 c 4 0 c 5 0 c 4 0 c 4 0 c 5 0 c 4 0 c 5 1 c 4 1 c 4 0 c 5 2 c
4 4 c 4 16 c 5 174 c 4 626 c 5 662 c 4 327 c 4 -224 c 5 -693 c 4 -626 c 4 -238 c 5 -28 c 4 -1 c 5 0 c 4 -1 c 4 -1 c 5 -1 c 4 0 c
4 -1 c 5 1 c 4 -1 c 4 0 c 5 0 c 4 0 c 5 1 c 4 7 c 4 13 c 5 8 c 4 2 c 4 -9 c 5 -13 c 4 -8 c 5 -2 c 4 0 c 4 0 c 5 0 c 4 1 c 4 -1 c
5 1 c 4 -1 c 5 1 c 4 -1 c 4 1 c 5 0 c 4 0 c 4 -1 c 5 1 c 4 0 c 4 1 c 5 1 c 4 0 c 5 2 c 4 6 c 4 10 c 5 8 c 4 0 c 4 -9 c 5 -11 c
4 -6 c 5 1 c 4 7 c 4 5 c 5 2 c 4 -4 c 4 -6 c 5 -6 c 4 -1 c 5 0 c 4 0 c 4 0 c 5 1 c 4 0 c 4 0 c 5 -2 c 4 0 c 5 0 c 4 0 c 4 1 c 5 -1 c
4 0 c 4 0 c 5 1 c 4 0 c 4 1 c 5 5 c 4 53 c 5 176 c 4 203 c 4 95 c 5 -59 c 4 -197 c 4 -179 c 5 -86 c 4 -8 c 5 -2 c 4 0 c 4 -1 c 5 1 c
4 3 c 4 3 c 5 4 c 4 8 c 5 6 c 4 1 c 4 -4 c 5 -7 c 4 -5 c 4 0 c 5 -2 c 4 -3 c 5 -5 c 4 -1 c 4 0 c 5 0 c 4 1 c 4 8 c 5 15 c 4 8 c
4 1 c 5 -8 c 4 -11 c 5 -2 c 4 3 c 4 1 c 5 -3 c 4 -5 c 4 -3 c 5 1 c 4 4 c 5 4 c 4 6 c 4 33 c 5 276 c 4 1067 c 4 1133 c 5 570 c
4 -251 c 5 -1137 c 4 -1162 c 4 -470 c 5 -58 c 4 37 c 4 101 c 5 82 c 4 29 c 5 -50 c 4 -103 c 4 -89 c 5 -22 c 4 -3 c 4 -1 c 5 0 c
4 1 c 4 -1 c 5 0 c 4 0 c 5 0 c 4 0 c 4 0 c 5 4 c 4 3 c 4 3 c 5 0 c 4 -3 c 5 -1 c 4 -2 c 4 -2 c 5 -1 c 4 -1 c 4 -2 c 5 0 c 4 3 c
5 2 c 4 3 c 4 -1 c 5 -2 c 4 -3 c 4 -2 c 5 0 c 4 0 c 5 0 c 4 0 c 4 3 c 5 22 c 4 48 c 4 36 c 5 10 c 4 -24 c 4 -49 c 5 -34 c 4 -11 c
5 -1 c 4 -1 c 4 1 c 5 0 c 4 1 c 4 0 c 5 0 c 4 0 c 5 1 c 4 0 c 4 1 c 5 0 c 4 -1 c 4 -1 c 5 0 c 4 0 c 5 0 c 4 0 c 4 0 c 5 0 c 4 0 c
4 0 c 5 0 c 4 1 c 4 -1 c 5 0 c 4 1 c 5 1 c 4 1 c 4 0 c 5 0 c 4 1 c 4 2 c 5 5 c 4 5 c 5 10 c 4 67 c 4 266 c 5 381 c 4 242 c 4 7 c
5 -320 c 4 -369 c 5 -219 c 4 -62 c 4 -10 c 5 -3 c 4 1 c 4 2 c 5 2 c 4 2 c 5 8 c 4 22 c 4 21 c 5 10 c 4 -10 c 4 -24 c 5 -10 c 4 33 c
4 42 c 5 19 c 4 -10 c 5 -47 c 4 -42 c 4 -17 c 5 -3 c 4 -2 c 4 -1 c 5 -2 c 4 0 c 5 0 c 4 0 c 4 0 c 5 0 c 4 -1 c 4 0 c 5 0 c 4 0 c
5 0 c 4 1 c 4 0 c 5 0 c 4 1 c 4 1 c 5 1 c 4 6 c 5 18 c 4 23 c 4 9 c 5 -4 c 4 -17 c 4 -13 c 5 9 c 4 7 c 4 -1 c 5 -12 c 4 -16 c
5 -10 c 4 -2 c 4 0 c 5 1 c 4 3 c 4 12 c 5 20 c 4 15 c 5 -1 c 4 -11 c 4 -14 c 5 18 c 4 93 c 4 117 c 5 69 c 4 -23 c 5 -106 c 4 -112 c
4 -65 c 5 -14 c 4 -1 c 4 0 c 5 2 c 4 0 c 5 1 c 4 4 c 4 45 c 5 92 c 4 76 c 4 31 c 5 -52 c 4 -95 c 4 -80 c 5 -20 c 4 6 c 5 32 c 4 39 c
4 20 c 5 -6 c 4 -37 c 4 -37 c 5 -16 c 4 -4 c 5 0 c 4 10 c 4 35 c 5 38 c 4 17 c 4 -9 c 5 -38 c 4 -36 c 5 -16 c 4 -2 c 4 0 c 5 0 c
4 1 c 4 -1 c 5 1 c 4 3 c 5 2 c 4 2 c 4 2 c 5 29 c 4 198 c 4 412 c 5 316 c 4 62 c 4 -225 c 5 -414 c 4 -284 c 5 -90 c 4 -6 c 4 0 c
5 0 c 4 0 c 4 1 c 5 -2 c 4 -1 c 5 0 c 4 0 c 4 -1 c 5 1 c 4 0 c 4 0 c 5 1 c 4 0 c 5 2 c 4 1 c 4 3 c 5 3 c 4 4 c 4 4 c 5 3 c 4 3 c
4 4 c 5 4 c 4 8 c 5 27 c 4 58 c 4 74 c 5 91 c 4 242 c 4 1783 c 5 3706 c 4 12 c 5 -36 c 4 8 c 4 8 c 5 -732 c 4 -2895 c 4 -607 c
5 -474 c 4 -656 c 5 -426 c 4 -125 c 4 -28 c 5 1 c 4 4 c 4 -2 c 5 -2 c 4 25 c 5 71 c 4 58 c 4 5 c 5 -49 c 4 -88 c 4 -63 c 5 -14 c
4 -2 c 4 -2 c 5 -1 c 4 -1 c 5 14 c 4 62 c 4 78 c 5 51 c 4 -2 c 4 -62 c 5 -87 c 4 -47 c 5 -11 c 4 -4 c 4 0 c 5 -1 c 4 2 c 4 15 c
5 42 c 4 38 c 5 13 c 4 -16 c 4 -45 c 5 -35 c 4 -11 c 4 -1 c 5 0 c 4 -2 c 5 0 c 4 1 c 4 12 c 5 97 c 4 240 c 4 219 c 5 72 c 4 -115 c
4 -255 c 5 -201 c 4 -68 c 5 -5 c 4 0 c 4 0 c 5 -1 c 4 0 c 4 0 c 5 2 c 4 27 c 5 99 c 4 114 c 4 61 c 5 -21 c 4 -100 c 4 -116 c 5 -59 c
4 -7 c 5 -2 c 4 -1 c 4 0 c 5 2 c 4 2 c 4 1 c 5 0 c 4 -1 c 5 -1 c 4 -1 c 4 0 c 5 0 c 4 0 c 4 -1 c 5 1 c 4 1 c 4 0 c 5 -2 c 4 -1 c
5 -1 c 4 0 c 4 0 c 5 0 c 4 0 c 4 0 c 5 0 c 4 0 c 5 1 c 4 5 c 4 19 c 5 25 c 4 12 c 4 -2 c 5 -19 c 4 -24 c 5 -12 c 4 -1 c 4 0 c 5 0 c
4 0 c 4 1 c 5 2 c 4 2 c 4 2 c 5 3 c 4 4 c 5 7 c 4 9 c 4 12 c 5 51 c 4 468 c 4 2246 c 5 3184 c 4 46 c 5 -25 c 4 -285 c 4 -3462 c
5 -1876 c 4 -326 c 4 -34 c 5 -7 c 4 -6 c 5 -5 c 4 -31 c 4 28 c 5 1 c 4 3 c 4 5 c 5 -1 c 4 -2 c 5 -6 c 4 -3 c 4 0 c 5 25 c 4 149 c
4 323 c 5 232 c 4 27 c 4 -142 c 5 -341 c 4 -214 c 5 -59 c 4 -4 c 4 -2 c 5 0 c 4 -1 c 4 0 c 5 1 c 4 3 c 5 2 c 4 -1 c 4 -1 c 5 -3 c
4 -1 c 4 -1 c 5 0 c 4 0 c 5 -1 c 4 1 c 4 0 c 5 1 c 4 0 c 4 -1 c 5 0 c 4 0 c 5 -1 c 4 1 c 4 -1 c 5 1 c 4 0 c 4 1 c 5 2 c 4 -1 c
4 -1 c 5 -1 c 4 0 c 5 0 c 4 0 c 4 1 c 5 1 c 4 0 c 4 -1 c 5 -1 c 4 -2 c 5 0 c 4 0 c 4 1 c 5 2 c 4 3 c 4 1 c 5 0 c 4 -1 c 5 0 c 4 1 c
4 -1 c 5 -1 c 4 -2 c 4 -2 c 5 1 c 4 2 c 5 1 c 4 0 c 4 -2 c 5 0 c 4 3 c 4 10 c 5 8 c 4 3 c 4 -6 c 5 -11 c 4 -7 c 5 -2 c 4 2 c 4 1 c
5 -1 c 4 0 c 4 0 c 5 -2 c 4 1 c 5 1 c 4 0 c 4 0 c 5 0 c 4 2 c 4 1 c 5 2 c 4 9 c 5 47 c 4 101 c 4 76 c 5 13 c 4 -49 c 4 -98 c 5 -76 c
4 -13 c 5 14 c 4 66 c 4 122 c 5 104 c 4 29 c 4 2 c 5 85 c 4 1063 c 4 2725 c 5 1789 c 4 5 c 5 -12 c 4 -2179 c 4 -2635 c 5 -944 c
4 -148 c 4 -36 c 5 -19 c 4 -9 c 5 -7 c 4 -4 c 4 -2 c 5 -2 c 4 -4 c 4 -1 c 5 -2 c 4 2 c 5 -1 c 4 0 c 4 0 c 5 1 c 4 1 c 4 6 c 5 9 c
4 31 c 4 192 c 5 1205 c 4 2921 c 5 1610 c 4 -28 c 4 -23 c 5 -2880 c 4 -2357 c 4 -600 c 5 -62 c 4 -14 c 5 -7 c 4 -4 c 4 -3 c 5 -3 c
4 -1 c 4 -2 c 5 -1 c 4 -2 c 5 -1 c 4 -1 c 4 1 c 5 0 c 4 4 c 4 10 c 5 10 c 4 5 c 5 2 c 4 -6 c 4 -12 c 5 -6 c 4 -6 c 4 -4 c 5 -1 c
4 0 c 4 -1 c 5 1 c 4 0 c 5 0 c 4 1 c 4 -1 c 5 0 c 4 -1 c 4 1 c 5 0 c 4 1 c 5 1 c 4 0 c 4 1 c 5 -1 c 4 0 c 4 1 c 5 1 c 4 3 c 5 1 c
4 4 c 4 2 c 5 1 c 4 1 c 4 7 c 5 30 c 4 79 c 5 74 c 4 26 c 4 -20 c 5 -74 c 4 -85 c 4 -33 c 5 -12 c 4 -4 c 4 -2 c 5 0 c 4 -1 c 5 -1 c
4 -1 c 4 0 c 5 0 c 4 1 c 4 1 c 5 -1 c 4 0 c 5 0 c 4 2 c 4 6 c 5 3 c 4 0 c 4 -1 c 5 -4 c 4 -4 c 5 -3 c 4 0 c 4 -1 c 5 1 c 4 2 c 4 0 c
5 0 c 4 0 c 5 -1 c 4 -1 c 4 1 c 5 0 c 4 1 c 4 1 c 5 1 c 4 1 c 4 0 c 5 1 c 4 1 c 5 1 c 4 6 c 4 14 c 5 96 c 4 643 c 4 1731 c 5 1488 c
4 211 c 5 -559 c 4 -1695 c 4 -1602 c 5 -290 c 4 -34 c 4 -5 c 5 -4 c 4 -2 c 5 -2 c 4 0 c 4 0 c 5 1 c 4 2 c 4 25 c 5 102 c 4 156 c
5 63 c 4 -13 c 4 -96 c 5 -146 c 4 -57 c 4 -7 c 5 -12 c 4 -14 c 4 -5 c 5 -1 c 4 -2 c 5 0 c 4 0 c 4 0 c 5 0 c 4 -1 c 4 1 c 5 1 c 4 0 c
5 0 c 4 -1 c 4 -1 c 5 0 c 4 0 c 4 0 c 5 2 c 4 16 c 5 81 c 4 158 c 4 97 c 5 -7 c 4 -73 c 4 -167 c 5 -94 c 4 -11 c 4 -1 c 5 -1 c 4 1 c
5 0 c 4 0 c 4 -1 c 5 0 c 4 -1 c 4 0 c 5 0 c 4 -1 c 5 1 c 4 0 c 4 0 c 5 0 c 4 0 c 4 0 c 5 1 c 4 2 c 5 3 c 4 3 c 4 1 c 5 -1 c 4 -3 c
4 -2 c 5 -1 c 4 0 c 5 3 c 4 9 c 4 11 c 5 2 c 4 3 c 4 -1 c 5 41 c 4 269 c 4 726 c 5 611 c 4 89 c 5 -261 c 4 -709 c 4 -626 c 5 -138 c
4 -17 c 4 -4 c 5 -2 c 4 0 c 5 0 c 4 0 c 4 5 c 5 32 c 4 209 c 4 600 c 5 479 c 4 48 c 5 -213 c 4 -574 c 4 -482 c 5 -91 c 4 -7 c 4 -4 c
5 -3 c 4 -1 c 5 0 c 4 0 c 4 -1 c 5 -1 c 4 -1 c 4 -1 c 5 -1 c 4 1 c 4 -2 c 5 -1 c 4 0 c 5 -1 c 4 0 c 4 1 c 5 1 c 4 0 c 4 1 c 5 3 c
4 1 c 5 0 c 4 -3 c 4 -3 c 5 -1 c 4 0 c 4 0 c 5 0 c 4 -1 c 5 0 c 4 0 c 4 1 c 5 2 c 4 2 c 4 1 c 5 0 c 4 0 c 5 1 c 4 1 c 4 2 c 5 1 c
4 0 c 4 -3 c 5 1 c 4 20 c 4 63 c 5 48 c 4 2 c 5 -18 c 4 -61 c 4 -55 c 5 -6 c 4 -1 c 4 0 c 5 -1 c 4 1 c 5 0 c 4 1 c 4 0 c 5 0 c
4 -1 c 4 0 c 5 0 c 4 0 c 5 0 c 4 0 c 4 0 c 5 0 c 4 0 c 4 0 c 5 -1 c 4 1 c 5 0 c 4 1 c 4 -1 c 5 1 c 4 1 c 4 3 c 5 1 c 4 0 c 4 -2 c
5 -3 c 4 -1 c 5 1 c 4 0 c 4 0 c 5 1 c 4 0 c 4 -1 c 5 -1 c 4 -1 c 5 0 c 4 0 c 4 0 c 5 0 c 4 0 c 4 1 c 5 0 c 4 2 c 5 0 c 4 0 c 4 1 c
5 -1 c 4 -1 c 4 1 c 5 0 c 4 5 c 4 49 c 5 184 c 4 303 c 5 85 c 4 -37 c 4 -186 c 5 -297 c 4 -94 c 4 -7 c 5 1 c 4 4 c 5 35 c 4 101 c
4 85 c 5 14 c 4 -26 c 4 -94 c 5 -97 c 4 -12 c 5 -5 c 4 -2 c 4 -3 c 5 -2 c 4 1 c 4 5 c 5 12 c 4 9 c 5 8 c 4 23 c 4 158 c 5 815 c
4 1612 c 4 970 c 5 4 c 4 -696 c 4 -1689 c 5 -1072 c 4 -116 c 5 -22 c 4 -9 c 4 -7 c 5 -2 c 4 -1 c 4 1 c 5 2 c 4 2 c 5 2 c 4 -3 c
4 -2 c 5 -4 c 4 -4 c 4 -1 c 5 1 c 4 0 c 5 1 c 4 -1 c 4 -1 c 5 -2 c 4 0 c 4 1 c 5 0 c 4 -1 c 5 -1 c 4 1 c 4 -1 c 5 2 c 4 5 c 4 1 c
5 0 c 4 -1 c 4 -2 c 5 -1 c 4 0 c 5 -1 c 4 -1 c 4 0 c 5 0 c 4 0 c 4 1 c 5 0 c 4 0 c 5 2 c 4 18 c 4 69 c 5 98 c 4 70 c 4 2 c 5 -58 c
4 -103 c 5 -84 c 4 -12 c 4 -3 c 5 -2 c 4 0 c 4 0 c 5 0 c 4 -1 c 5 0 c 4 0 c 4 0 c 5 1 c 4 0 c 4 1 c 5 -1 c 4 -1 c 4 1 c 5 1 c 4 2 c
5 1 c 4 1 c 4 7 c 5 14 c 4 12 c 4 1 c 5 -8 c 4 -18 c 5 -12 c 4 -1 c 4 0 c 5 0 c 4 0 c 4 2 c 5 5 c 4 6 c 5 1 c 4 -2 c 4 -4 c 5 -7 c
4 -2 c 4 0 c 5 1 c 4 0 c 4 0 c 5 -1 c 4 0 c 5 0 c 4 0 c 4 0 c 5 0 c 4 -1 c 4 1 c 5 0 c 4 0 c 5 0 c 4 0 c 4 0 c 5 0 c 4 0 c 4 0 c
5 0 c 4 0 c 5 0 c 4 0 c 4 0 c 5 0 c 4 0 c 4 0 c 5 0 c 4 0 c 5 1 c 4 1 c 4 1 c 5 7 c 4 33 c 4 80 c 5 72 c 4 11 c 4 -26 c 5 -73 c
4 -83 c 5 -19 c 4 -3 c 4 -1 c 5 0 c 4 0 c 4 0 c 5 0 c 4 2 c 5 2 c 4 3 c 4 4 c 5 1 c 4 -3 c 4 -3 c 5 -3 c 4 -3 c 5 1 c 4 1 c 4 4 c
5 16 c 4 33 c 4 8 c 5 -1 c 4 -14 c 5 -32 c 4 -13 c 4 -1 c 5 -1 c 4 0 c 4 -1 c 5 0 c 4 0 c 4 0 c 5 1 c 4 1 c 5 1 c 4 9 c 4 40 c
5 66 c 4 11 c 4 -1 c 5 -37 c 4 -69 c 5 -21 c 4 -1 c 4 -1 c 5 0 c 4 0 c 4 2 c 5 3 c 4 8 c 5 48 c 4 138 c 4 138 c 5 5 c 4 -39 c
4 -118 c 5 -142 c 4 -21 c 5 -3 c 4 -7 c 4 -9 c 5 -2 c 4 0 c 4 0 c 5 0 c 4 0 c 4 -1 c 5 1 c 4 -1 c 5 0 c 4 0 c 4 -1 c 5 0 c 4 0 c
4 1 c 5 0 c 4 1 c 5 1 c 4 0 c 4 -1 c 5 -1 c 4 -1 c 4 0 c 5 1 c 4 -1 c 5 1 c 4 1 c 4 -1 c 5 0 c 4 -1 c 4 1 c 5 0 c 4 1 c 5 0 c 4 0 c
4 1 c 5 0 c 4 2 c 4 20 c 5 107 c 4 237 c 4 88 c 5 -1 c 4 -77 c 5 -234 c 4 -123 c 4 -3 c 5 0 c 4 -1 c 4 -5 c 5 -9 c 4 -2 c 5 -1 c
4 0 c 4 0 c 5 0 c 4 1 c 4 0 c 5 0 c 4 0 c 5 2 c 4 3 c 4 6 c 5 12 c 4 7 c 4 6 c 5 6 c 4 -7 c 4 -8 c 5 -9 c 4 -13 c 5 -4 c 4 7 c
4 24 c 5 14 c 4 0 c 4 -5 c 5 -22 c 4 -18 c 5 -1 c 4 -1 c 4 0 c 5 0 c 4 0 c 4 0 c 5 0 c 4 1 c 5 1 c 4 2 c 4 -1 c 5 0 c 4 -1 c 4 -2 c
5 0 c 4 0 c 5 0 c 4 0 c 4 -1 c 5 0 c 4 1 c 4 0 c 5 1 c 4 0 c 4 1 c 5 3 c 4 0 c 5 -1 c 4 -1 c 4 -2 c 5 -1 c 4 0 c 4 0 c 5 2 c 4 0 c
5 2 c 4 2 c 4 0 c 5 -1 c 4 -1 c 4 -2 c 5 -1 c 4 -1 c 5 0 c 4 1 c 4 0 c 5 1 c 4 2 c 4 0 c 5 1 c 4 0 c 5 -1 c 4 1 c 4 0 c 5 1 c 4 2 c
4 5 c 5 5 c 4 7 c 4 7 c 5 8 c 4 26 c 5 206 c 4 1374 c 4 3198 c 5 1146 c 4 14 c 4 -496 c 5 -3124 c 4 -2146 c 5 -188 c 4 -26 c 4 -4 c
5 -3 c 4 -2 c 4 -1 c 5 -2 c 4 -3 c 5 -1 c 4 -1 c 4 0 c 5 -1 c 4 0 c 4 -1 c
5 -3 c 4 0 c 5 0 c 4 1 c 4 -15 c 4 15 9549 780 l 4 -1 c 5 -1 c 4 1 c 4 0 c 5 0 c 4 -1 c 5 0 c 4 -1 c 4 0 c 5 0 c 4 0 c 4 0 c 5 0 c
4 0 c 5 -1 c 4 0 c 4 0 c 5 0 c 4 1 c 4 0 c 5 0 c 4 0 c 5 0 c 4 0 c 4 0 c 5 0 c 4 1 c 4 -1 c 5 0 c 4 0 c 5 0 c 4 -1 c 4 1 c 5 0 c
4 0 c 4 0 c 5 1 c 4 -1 c
0 -126 3030 418 l 54 0 3030 418 l 18 -6 c 6 -6 c 6 -12 c 0 -12 c -6 -12 c -6 -6 c -18 -6 c -54 0 c 42 -66 3072 358 l
-12 -6 3180 376 l -12 -12 c -6 -18 c 0 -12 c 6 -18 c 12 -12 c 12 -6 c 18 0 c 12 6 c 12 12 c 6 18 c 0 12 c -6 18 c -12 12 c -12 6 c
-18 0 c 24 -84 3264 376 l -24 -84 3312 376 l 24 -84 3312 376 l -24 -84 3360 376 l 108 0 3402 364 l 108 0 3402 328 l 66 0 3660 418 l
-36 -48 c 18 0 c 12 -6 c 6 -6 c 6 -18 c 0 -12 c -6 -18 c -12 -12 c -18 -6 c -18 0 c -18 6 c -6 6 c -6 12 c -6 12 3846 400 l -18 6 c
-12 0 c -18 -6 c -12 -18 c -6 -30 c 0 -30 c 6 -24 c 12 -12 c 18 -6 c 6 0 c 18 6 c 12 12 c 6 18 c 0 6 c -6 18 c -12 12 c -18 6 c
-6 0 c -18 -6 c -12 -12 c -6 -18 c 12 6 4290 394 l 18 18 c 0 -126 c -6 -6 4404 376 l 6 -6 c 6 6 c -6 6 c -6 -6 4404 304 l 6 -6 c
6 6 c -6 6 c -48 -126 4584 418 l 48 -126 4584 418 l 60 0 4554 334 l 0 -84 4662 376 l 6 18 4662 340 l 12 12 c 12 6 c 18 0 c
-12 12 4806 358 l -12 6 c -18 0 c -12 -6 c -12 -12 c -6 -18 c 0 -12 c 6 -18 c 12 -12 c 12 -6 c 18 0 c 12 6 c 12 12 c
108 0 4848 346 l -18 -6 5034 418 l -12 -18 c -6 -30 c 0 -18 c 6 -30 c 12 -18 c 18 -6 c 12 0 c 18 6 c 12 18 c 6 30 c 0 18 c -6 30 c
-12 18 c -18 6 c -12 0 c 66 0 5130 418 l -36 -48 c 18 0 c 12 -6 c 6 -6 c 6 -18 c 0 -12 c -6 -18 c -12 -12 c -18 -6 c -18 0 c -18 6 c
-6 6 c -6 12 c -59 0 5309 418 l -6 -54 c 6 6 c 17 6 c 18 0 c 18 -6 c 12 -12 c 6 -18 c 0 -12 c -6 -18 c -12 -12 c -18 -6 c -18 0 c
-17 6 c -6 6 c -6 12 c -6 -6 5369 304 l 6 -6 c 6 6 c -6 6 c -12 0 5459 418 l -12 -6 c -6 -18 c 0 -102 c 42 0 5411 376 l
6 -6 5489 418 l 6 6 c -6 6 c -6 -6 c 0 -84 5495 376 l 0 -102 5549 418 l 6 -18 c 12 -6 c 12 0 c 42 0 5531 376 l -6 12 5675 358 l
-18 6 c -18 0 c -18 -6 c -6 -12 c 6 -12 c 12 -6 c 30 -6 c 12 -6 c 6 -12 c 0 -6 c -6 -12 c -18 -6 c -18 0 c -18 6 c -6 12 c
0 -192 6005 442 l 0 -192 6011 442 l 42 0 6005 442 l 42 0 6005 250 l 0 6 6089 388 l 6 12 c 6 6 c 12 6 c 24 0 c 12 -6 c 6 -6 c 6 -12 c
0 -12 c -6 -12 c -12 -18 c -60 -60 c 84 0 c -6 -6 6215 376 l 6 -6 c 6 6 c -6 6 c -6 -6 6215 304 l 6 -6 c 6 6 c -6 6 c
-48 -126 6395 418 l 48 -126 6395 418 l 60 0 6365 334 l 0 -84 6473 376 l 6 18 6473 340 l 12 12 c 12 6 c 18 0 c -12 12 6617 358 l
-12 6 c -18 0 c -12 -6 c -12 -12 c -6 -18 c 0 -12 c 6 -18 c 12 -12 c 12 -6 c 18 0 c 12 6 c 12 12 c 108 0 6659 346 l
-18 -6 6845 418 l -12 -18 c -6 -30 c 0 -18 c 6 -30 c 12 -18 c 18 -6 c 12 0 c 18 6 c 12 18 c 6 30 c 0 18 c -6 30 c -12 18 c -18 6 c
-12 0 c 66 0 6941 418 l -36 -48 c 18 0 c 12 -6 c 6 -6 c 6 -18 c 0 -12 c -6 -18 c -12 -12 c -18 -6 c -18 0 c -18 6 c -6 6 c -6 12 c
-6 12 7127 400 l -18 6 c -12 0 c -18 -6 c -12 -18 c -6 -30 c 0 -30 c 6 -24 c 12 -12 c 18 -6 c 6 0 c 18 6 c 12 12 c 6 18 c 0 6 c
-6 18 c -12 12 c -18 6 c -6 0 c -18 -6 c -12 -12 c -6 -18 c -6 -6 7181 304 l 6 -6 c 6 6 c -6 6 c -12 0 7271 418 l -12 -6 c -6 -18 c
0 -102 c 42 0 7223 376 l 6 -6 7301 418 l 6 6 c -6 6 c -6 -6 c 0 -84 7307 376 l 0 -102 7361 418 l 6 -18 c 12 -6 c 12 0 c
42 0 7343 376 l -6 12 7487 358 l -18 6 c -18 0 c -18 -6 c -6 -12 c 6 -12 c 12 -6 c 30 -6 c 12 -6 c 6 -12 c 0 -6 c -6 -12 c -18 -6 c
-18 0 c -18 6 c -6 12 c 0 -192 7559 442 l 0 -192 7565 442 l 42 0 7523 442 l 42 0 7523 250 l
0 -249 797 7019 l 0 -38 754 7136 l 34 -3 c -4 3 c -4 12 c 0 11 c 4 11 c 8 8 c 11 4 c 7 0 c 12 -4 c 7 -8 c 4 -11 c 0 -11 c -4 -12 c
-3 -3 c -8 -4 c 12 -4 780 7216 l 7 -8 c 4 -11 c 0 -4 c -4 -11 c -7 -8 c -12 -3 c -4 0 c -11 3 c -7 8 c -4 11 c 0 4 c 4 11 c 7 8 c
15 4 c 19 0 c 19 -4 c 11 -8 c 4 -11 c 0 -8 c -4 -11 c -7 -4 c 4 -11 754 7261 l 7 -4 c 8 0 c 7 4 c 4 7 c 4 15 c 4 12 c 7 7 c 8 4 c
11 0 c 8 -4 c 3 -4 c 4 -11 c 0 -15 c -4 -11 c -3 -4 c -8 -4 c -11 0 c -8 4 c -7 7 c -4 12 c -4 15 c -4 7 c -7 4 c -8 0 c -7 -4 c
-4 -11 c 0 -15 c 12 -4 780 7367 l 7 -8 c 4 -11 c 0 -4 c -4 -11 c -7 -8 c -12 -3 c -4 0 c -11 3 c -7 8 c -4 11 c 0 4 c 4 11 c 7 8 c
15 4 c 19 0 c 19 -4 c 11 -8 c 4 -11 c 0 -7 c -4 -12 c -7 -4 c 3 -4 826 7401 l 4 4 c -4 4 c -3 -4 c 4 -12 754 7454 l 11 -7 c 19 -4 c
11 0 c 19 4 c 11 7 c 4 12 c 0 7 c -4 12 c -11 7 c -19 4 c -11 0 c -19 -4 c -11 -7 c -4 -12 c 0 -7 c 53 -37 754 7544 l 0 56 c
79 0 754 7544 l 0 -38 754 7628 l 34 -4 c -4 4 c -4 11 c 0 11 c 4 12 c 8 7 c 11 4 c 7 0 c 12 -4 c 7 -7 c 4 -12 c 0 -11 c -4 -11 c
-3 -4 c -8 -4 c 0 -249 988 3493 l 0 -38 944 3610 l 34 -3 c -4 3 c -3 12 c 0 11 c 3 11 c 8 8 c 11 4 c 8 0 c 11 -4 c 8 -8 c 4 -11 c
0 -11 c -4 -12 c -4 -3 c -8 -4 c 11 -4 971 3690 l 8 -8 c 3 -11 c 0 -4 c -3 -11 c -8 -8 c -11 -3 c -4 0 c -11 3 c -8 8 c -4 11 c
0 4 c 4 11 c 8 8 c 15 4 c 19 0 c 18 -4 c 12 -8 c 4 -11 c 0 -8 c -4 -11 c -8 -4 c 11 -4 971 3765 l 8 -7 c 3 -11 c 0 -4 c -3 -12 c
-8 -7 c -11 -4 c -4 0 c -11 4 c -8 7 c -4 12 c 0 4 c 4 11 c 8 7 c 15 4 c 19 0 c 18 -4 c 12 -7 c 4 -11 c 0 -8 c -4 -11 c -8 -4 c
-3 8 959 3803 l -12 11 c 80 0 c 4 -4 1016 3875 l 4 4 c -4 4 c -4 -4 c 4 -12 944 3928 l 11 -7 c 19 -4 c 12 0 c 18 4 c 12 7 c 4 12 c
0 7 c -4 12 c -12 7 c -18 4 c -12 0 c -19 -4 c -11 -7 c -4 -12 c 0 -7 c 4 -11 944 4003 l 11 -8 c 19 -3 c 12 0 c 18 3 c 12 8 c 4 11 c
0 8 c -4 11 c -12 8 c -18 4 c -12 0 c -19 -4 c -11 -8 c -4 -11 c 0 -8 c 80 -38 944 4109 l 0 53 944 4056 l 0 -249 1292 7019 l
0 -38 1248 7136 l 34 -3 c -4 3 c -4 12 c 0 11 c 4 11 c 8 8 c 11 4 c 8 0 c 11 -4 c 8 -8 c 3 -11 c 0 -11 c -3 -12 c -4 -3 c -8 -4 c
12 -4 1274 7216 l 7 -8 c 4 -11 c 0 -4 c -4 -11 c -7 -8 c -12 -3 c -3 0 c -12 3 c -7 8 c -4 11 c 0 4 c 4 11 c 7 8 c 15 4 c 19 0 c
19 -4 c 12 -8 c 3 -11 c 0 -8 c -3 -11 c -8 -4 c 12 -4 1274 7291 l 7 -7 c 4 -11 c 0 -4 c -4 -12 c -7 -7 c -12 -4 c -3 0 c -12 4 c
-7 7 c -4 12 c 0 4 c 4 11 c 7 7 c 15 4 c 19 0 c 19 -4 c 12 -7 c 3 -11 c 0 -8 c -3 -11 c -8 -4 c 53 -37 1248 7355 l 0 56 c
79 0 1248 7355 l 4 -4 1320 7401 l 3 4 c -3 4 c -4 -4 c -4 8 1263 7442 l -11 11 c 79 0 c -4 0 1267 7510 l -7 4 c -4 4 c -4 8 c 0 15 c
4 7 c 4 4 c 7 4 c 8 0 c 7 -4 c 12 -8 c 37 -37 c 0 53 c 12 -3 1274 7631 l 7 -8 c 4 -11 c 0 -4 c -4 -11 c -7 -8 c -12 -4 c -3 0 c
-12 4 c -7 8 c -4 11 c 0 4 c 4 11 c 7 8 c 15 3 c 19 0 c 19 -3 c 12 -8 c 3 -11 c 0 -8 c -3 -11 c -8 -4 c 0 -249 1536 1445 l
0 -38 1492 1563 l 34 -4 c -3 4 c -4 11 c 0 11 c 4 12 c 7 7 c 11 4 c 8 0 c 11 -4 c 8 -7 c 4 -12 c 0 -11 c -4 -11 c -4 -4 c -7 -4 c
11 -4 1519 1642 l 8 -7 c 3 -12 c 0 -3 c -3 -12 c -8 -7 c -11 -4 c -4 0 c -11 4 c -8 7 c -4 12 c 0 3 c 4 12 c 8 7 c 15 4 c 19 0 c
19 -4 c 11 -7 c 4 -12 c 0 -7 c -4 -12 c -8 -3 c 11 -4 1519 1718 l 8 -8 c 3 -11 c 0 -4 c -3 -11 c -8 -8 c -11 -4 c -4 0 c -11 4 c
-8 8 c -4 11 c 0 4 c 4 11 c 8 8 c 15 4 c 19 0 c 19 -4 c 11 -8 c 4 -11 c 0 -8 c -4 -11 c -8 -4 c -8 -4 1504 1793 l -4 -11 c 0 -8 c
4 -11 c 11 -7 c 19 -4 c 19 0 c 15 4 c 8 7 c 4 11 c 0 4 c -4 12 c -8 7 c -11 4 c -4 0 c -11 -4 c -8 -7 c -3 -12 c 0 -4 c 3 -11 c
8 -7 c 11 -4 c 4 -4 1564 1827 l 4 4 c -4 4 c -4 -4 c -8 -4 1504 1907 l -4 -12 c 0 -7 c 4 -11 c 11 -8 c 19 -4 c 19 0 c 15 4 c 8 8 c
4 11 c 0 4 c -4 11 c -8 8 c -11 3 c -4 0 c -11 -3 c -8 -8 c -3 -11 c 0 -4 c 3 -11 c 8 -8 c 11 -4 c 0 41 1492 1941 l 31 -23 c 0 12 c
3 7 c 4 4 c 11 4 c 8 0 c 11 -4 c 8 -7 c 4 -12 c 0 -11 c -4 -11 c -4 -4 c -7 -4 c 4 -11 1492 2031 l 11 -8 c 19 -3 c 12 0 c 19 3 c
11 8 c 4 11 c 0 8 c -4 11 c -11 8 c -19 4 c -12 0 c -19 -4 c -11 -8 c -4 -11 c 0 -8 c 0 -249 1768 1771 l 0 -37 1724 1888 l 34 -4 c
-3 4 c -4 11 c 0 11 c 4 12 c 7 7 c 12 4 c 7 0 c 11 -4 c 8 -7 c 4 -12 c 0 -11 c -4 -11 c -4 -4 c -7 -4 c 11 -4 1751 1968 l 8 -8 c
4 -11 c 0 -4 c -4 -11 c -8 -8 c -11 -3 c -4 0 c -11 3 c -8 8 c -4 11 c 0 4 c 4 11 c 8 8 c 15 4 c 19 0 c 19 -4 c 11 -8 c 4 -11 c
0 -8 c -4 -11 c -8 -4 c 11 -3 1751 2043 l 8 -8 c 4 -11 c 0 -4 c -4 -12 c -8 -7 c -11 -4 c -4 0 c -11 4 c -8 7 c -4 12 c 0 4 c 4 11 c
8 8 c 15 3 c 19 0 c 19 -3 c 11 -8 c 4 -11 c 0 -8 c -4 -11 c -8 -4 c 4 -12 1724 2089 l 8 -3 c 7 0 c 8 3 c 4 8 c 3 15 c 4 11 c 8 8 c
7 4 c 12 0 c 7 -4 c 4 -4 c 4 -11 c 0 -15 c -4 -12 c -4 -3 c -7 -4 c -12 0 c -7 4 c -8 7 c -4 11 c -3 16 c -4 7 c -8 4 c -7 0 c
-8 -4 c -4 -11 c 0 -15 c 4 -4 1796 2153 l 4 4 c -4 4 c -4 -4 c 11 -4 1751 2232 l 8 -7 c 4 -11 c 0 -4 c -4 -12 c -8 -7 c -11 -4 c
-4 0 c -11 4 c -8 7 c -4 12 c 0 4 c 4 11 c 8 7 c 15 4 c 19 0 c 19 -4 c 11 -7 c 4 -11 c 0 -8 c -4 -11 c -8 -4 c 11 -4 1751 2308 l
8 -7 c 4 -12 c 0 -4 c -4 -11 c -8 -7 c -11 -4 c -4 0 c -11 4 c -8 7 c -4 11 c 0 4 c 4 12 c 8 7 c 15 4 c 19 0 c 19 -4 c 11 -7 c
4 -12 c 0 -7 c -4 -12 c -8 -3 c 11 -3 1751 2383 l 8 -8 c 4 -11 c 0 -4 c -4 -11 c -8 -8 c -11 -4 c -4 0 c -11 4 c -8 8 c -4 11 c
0 4 c 4 11 c 8 8 c 15 3 c 19 0 c 19 -3 c 11 -8 c 4 -11 c 0 -8 c -4 -11 c -8 -4 c 0 -249 1984 2107 l -8 -4 1952 2228 l -4 -11 c
0 -8 c 4 -11 c 11 -7 c 19 -4 c 19 0 c 15 4 c 8 7 c 4 11 c 0 4 c -4 12 c -8 7 c -11 4 c -4 0 c -11 -4 c -8 -7 c -3 -12 c 0 -4 c
3 -11 c 8 -7 c 11 -4 c 4 -11 1940 2277 l 11 -8 c 19 -3 c 12 0 c 19 3 c 11 8 c 4 11 c 0 8 c -4 11 c -11 8 c -19 3 c -12 0 c -19 -3 c
-11 -8 c -4 -11 c 0 -8 c 4 -12 1940 2353 l 11 -7 c 19 -4 c 12 0 c 19 4 c 11 7 c 4 12 c 0 7 c -4 12 c -11 7 c -19 4 c -12 0 c
-19 -4 c -11 -7 c -4 -12 c 0 -7 c -3 8 1955 2417 l -12 11 c 80 0 c 4 -4 2012 2489 l 4 4 c -4 4 c -4 -4 c -4 0 1959 2523 l -7 4 c
-4 3 c -4 8 c 0 15 c 4 8 c 4 3 c 7 4 c 8 0 c 8 -4 c 11 -7 c 38 -38 c 0 53 c 4 -11 1940 2617 l 11 -8 c 19 -3 c 12 0 c 19 3 c 11 8 c
4 11 c 0 8 c -4 11 c -11 8 c -19 4 c -12 0 c -19 -4 c -11 -8 c -4 -11 c 0 -8 c 0 41 1940 2678 l 31 -22 c 0 11 c 3 8 c 4 3 c 11 4 c
8 0 c 11 -4 c 8 -7 c 4 -11 c 0 -12 c -4 -11 c -4 -4 c -7 -4 c 0 -250 2375 2286 l -7 -4 2342 2407 l -4 -11 c 0 -8 c 4 -11 c 11 -8 c
19 -4 c 19 0 c 15 4 c 8 8 c 3 11 c 0 4 c -3 11 c -8 8 c -11 4 c -4 0 c -11 -4 c -8 -8 c -4 -11 c 0 -4 c 4 -11 c 8 -8 c 11 -4 c
4 -11 2331 2456 l 11 -8 c 19 -4 c 11 0 c 19 4 c 12 8 c 3 11 c 0 8 c -3 11 c -12 7 c -19 4 c -11 0 c -19 -4 c -11 -7 c -4 -11 c
0 -8 c 4 -12 2331 2532 l 11 -7 c 19 -4 c 11 0 c 19 4 c 12 7 c 3 12 c 0 7 c -3 11 c -12 8 c -19 4 c -11 0 c -19 -4 c -11 -8 c
-4 -11 c 0 -7 c 0 -38 2331 2630 l 34 -4 c -4 4 c -4 11 c 0 12 c 4 11 c 8 8 c 11 3 c 8 0 c 11 -3 c 8 -8 c 3 -11 c 0 -12 c -3 -11 c
-4 -4 c -8 -4 c 4 -4 2403 2668 l 3 4 c -3 3 c -4 -3 c -4 8 2346 2709 l -11 11 c 79 0 c -7 -4 2342 2823 l -4 -12 c 0 -7 c 4 -11 c
11 -8 c 19 -4 c 19 0 c 15 4 c 8 8 c 3 11 c 0 4 c -3 11 c -8 8 c -11 3 c -4 0 c -11 -3 c -8 -8 c -4 -11 c 0 -4 c 4 -11 c 8 -8 c
11 -4 c 0 -37 2331 2894 l 34 -4 c -4 4 c -4 11 c 0 11 c 4 12 c 8 7 c 11 4 c 8 0 c 11 -4 c 8 -7 c 3 -12 c 0 -11 c -3 -11 c -4 -4 c
-8 -4 c 0 -250 2563 3441 l -8 -4 2531 3562 l -3 -11 c 0 -8 c 3 -11 c 12 -8 c 19 -4 c 18 0 c 16 4 c 7 8 c 4 11 c 0 4 c -4 11 c -7 8 c
-12 4 c -4 0 c -11 -4 c -7 -8 c -4 -11 c 0 -4 c 4 -11 c 7 -8 c 11 -4 c 3 -11 2520 3611 l 12 -8 c 19 -4 c 11 0 c 19 4 c 11 8 c 4 11 c
0 7 c -4 12 c -11 7 c -19 4 c -11 0 c -19 -4 c -12 -7 c -3 -12 c 0 -7 c 3 -11 2520 3686 l 12 -7 c 19 -4 c 11 0 c 19 4 c 11 7 c
4 11 c 0 8 c -4 11 c -11 8 c -19 4 c -11 0 c -19 -4 c -12 -8 c -3 -11 c 0 -8 c 79 -37 2520 3792 l 0 53 2520 3739 l 4 -4 2591 3823 l
4 4 c -4 3 c -4 -3 c 3 -11 2520 3875 l 12 -7 c 19 -4 c 11 0 c 19 4 c 11 7 c 4 11 c 0 8 c -4 11 c -11 8 c -19 4 c -11 0 c -19 -4 c
-12 -8 c -3 -11 c 0 -8 c 79 -38 2520 3981 l 0 53 2520 3928 l -3 0 2538 4008 l -8 4 c -4 3 c -3 8 c 0 15 c 3 8 c 4 3 c 8 4 c 7 0 c
8 -4 c 11 -7 c 38 -38 c 0 53 c 0 -250 2870 3302 l -7 -4 2837 3423 l -4 -11 c 0 -8 c 4 -11 c 11 -8 c 19 -4 c 19 0 c 15 4 c 8 8 c
3 11 c 0 4 c -3 11 c -8 8 c -11 3 c -4 0 c -11 -3 c -8 -8 c -4 -11 c 0 -4 c 4 -11 c 8 -8 c 11 -4 c 4 -12 2826 3472 l 11 -7 c 19 -4 c
11 0 c 19 4 c 12 7 c 3 12 c 0 7 c -3 12 c -12 7 c -19 4 c -11 0 c -19 -4 c -11 -7 c -4 -12 c 0 -7 c -4 8 2841 3536 l -11 11 c 79 0 c
4 -11 2826 3623 l 11 -8 c 19 -4 c 11 0 c 19 4 c 12 8 c 3 11 c 0 8 c -3 11 c -12 7 c -19 4 c -11 0 c -19 -4 c -11 -7 c -4 -11 c
0 -8 c 4 -3 2898 3683 l 3 3 c -3 4 c -4 -4 c -4 8 2841 3725 l -11 11 c 79 0 c -7 -3 2837 3838 l -4 -12 c 0 -7 c 4 -12 c 11 -7 c
19 -4 c 19 0 c 15 4 c 8 7 c 3 12 c 0 4 c -3 11 c -8 7 c -11 4 c -4 0 c -11 -4 c -8 -7 c -4 -11 c 0 -4 c 4 -12 c 8 -7 c 11 -4 c
-4 8 2841 3876 l -11 11 c 79 0 c 0 -250 3394 3046 l -8 -4 3362 3167 l -3 -11 c 0 -8 c 3 -11 c 12 -8 c 19 -4 c 19 0 c 15 4 c 7 8 c
4 11 c 0 4 c -4 11 c -7 8 c -12 4 c -3 0 c -12 -4 c -7 -8 c -4 -11 c 0 -4 c 4 -11 c 7 -8 c 12 -4 c 3 -11 3351 3216 l 12 -8 c 19 -4 c
11 0 c 19 4 c 11 8 c 4 11 c 0 7 c -4 12 c -11 7 c -19 4 c -11 0 c -19 -4 c -12 -7 c -3 -12 c 0 -7 c -4 8 3366 3280 l -11 11 c 79 0 c
0 -38 3351 3390 l 34 -4 c -4 4 c -4 11 c 0 12 c 4 11 c 7 8 c 12 3 c 7 0 c 12 -3 c 7 -8 c 4 -11 c 0 -12 c -4 -11 c -4 -4 c -7 -4 c
4 -4 3422 3428 l 4 4 c -4 3 c -4 -3 c 53 -38 3351 3496 l 0 57 c 79 0 3351 3496 l -3 0 3369 3537 l -8 4 c -4 4 c -3 7 c 0 15 c 3 8 c
4 4 c 8 4 c 7 0 c 8 -4 c 11 -8 c 38 -38 c 0 53 c -3 0 3369 3613 l -8 4 c -4 3 c -3 8 c 0 15 c 3 8 c 4 3 c 8 4 c 7 0 c 8 -4 c 11 -7 c
38 -38 c 0 53 c 0 -250 3958 4331 l -7 -4 3926 4452 l -4 -11 c 0 -8 c 4 -11 c 11 -8 c 19 -3 c 19 0 c 15 3 c 7 8 c 4 11 c 0 4 c
-4 11 c -7 8 c -11 4 c -4 0 c -12 -4 c -7 -8 c -4 -11 c 0 -4 c 4 -11 c 7 -8 c 12 -3 c 4 -11 3915 4501 l 11 -8 c 19 -4 c 11 0 c
19 4 c 11 8 c 4 11 c 0 8 c -4 11 c -11 8 c -19 3 c -11 0 c -19 -3 c -11 -8 c -4 -11 c 0 -8 c -4 0 3934 4558 l -8 4 c -3 3 c -4 8 c
0 15 c 4 8 c 3 3 c 8 4 c 7 0 c 8 -4 c 11 -7 c 38 -38 c 0 53 c -4 8 3930 4641 l -11 11 c 79 0 c 3 -4 3987 4713 l 4 4 c -4 4 c -3 -4 c
4 -12 3915 4766 l 11 -7 c 19 -4 c 11 0 c 19 4 c 11 7 c 4 12 c 0 7 c -4 12 c -11 7 c -19 4 c -11 0 c -19 -4 c -11 -7 c -4 -12 c
0 -7 c 0 42 3915 4826 l 30 -23 c 0 11 c 4 8 c 4 4 c 11 4 c 8 0 c 11 -4 c 7 -8 c 4 -11 c 0 -11 c -4 -12 c -3 -4 c -8 -3 c
-7 -3 3926 4943 l -4 -12 c 0 -7 c 4 -12 c 11 -7 c 19 -4 c 19 0 c 15 4 c 7 7 c 4 12 c 0 3 c -4 12 c -7 7 c -11 4 c -4 0 c -12 -4 c
-7 -7 c -4 -12 c 0 -3 c 4 -12 c 7 -7 c 12 -4 c 0 -249 4180 1350 l -7 -3 4147 1471 l -4 -12 c 0 -7 c 4 -12 c 11 -7 c 19 -4 c 19 0 c
15 4 c 8 7 c 3 12 c 0 3 c -3 12 c -8 7 c -11 4 c -4 0 c -11 -4 c -8 -7 c -4 -12 c 0 -3 c 4 -12 c 8 -7 c 11 -4 c 4 -12 4136 1521 l
11 -7 c 19 -4 c 11 0 c 19 4 c 12 7 c 3 12 c 0 7 c -3 11 c -12 8 c -19 4 c -11 0 c -19 -4 c -11 -8 c -4 -11 c 0 -7 c -4 0 4155 1577 l
-7 4 c -4 4 c -4 7 c 0 15 c 4 8 c 4 4 c 7 4 c 8 0 c 7 -4 c 12 -8 c 37 -38 c 0 53 c 0 41 4136 1657 l 30 -23 c 0 12 c 4 7 c 4 4 c
11 4 c 8 0 c 11 -4 c 8 -7 c 3 -12 c 0 -11 c -3 -11 c -4 -4 c -8 -4 c 4 -4 4208 1732 l 3 4 c -3 4 c -4 -4 c -4 0 4155 1766 l -7 4 c
-4 4 c -4 7 c 0 15 c 4 8 c 4 4 c 7 4 c 8 0 c 7 -4 c 12 -8 c 37 -38 c 0 53 c -4 0 4155 1842 l -7 4 c -4 3 c -4 8 c 0 15 c 4 8 c 4 3 c
7 4 c 8 0 c 7 -4 c 12 -7 c 37 -38 c 0 53 c 53 -37 4136 1951 l 0 56 c 79 0 4136 1951 l 0 -249 4375 2221 l -8 -3 4343 2342 l -4 -12 c
0 -7 c 4 -12 c 11 -7 c 19 -4 c 19 0 c 15 4 c 8 7 c 4 12 c 0 3 c -4 12 c -8 7 c -11 4 c -4 0 c -11 -4 c -8 -7 c -3 -12 c 0 -3 c
3 -12 c 8 -7 c 11 -4 c 4 -11 4331 2391 l 11 -7 c 19 -4 c 12 0 c 19 4 c 11 7 c 4 11 c 0 8 c -4 11 c -11 8 c -19 4 c -12 0 c -19 -4 c
-11 -8 c -4 -11 c 0 -8 c -4 0 4350 2448 l -7 4 c -4 4 c -4 7 c 0 15 c 4 8 c 4 4 c 7 4 c 8 0 c 8 -4 c 11 -8 c 38 -38 c 0 53 c
0 -37 4331 2565 l 34 -4 c -3 4 c -4 11 c 0 11 c 4 12 c 7 7 c 11 4 c 8 0 c 11 -4 c 8 -7 c 4 -12 c 0 -11 c -4 -11 c -4 -4 c -7 -4 c
4 -4 4403 2603 l 4 4 c -4 4 c -4 -4 c -3 7 4346 2645 l -12 12 c 80 0 c 0 -37 4331 2754 l 34 -4 c -3 4 c -4 11 c 0 11 c 4 12 c 7 7 c
11 4 c 8 0 c 11 -4 c 8 -7 c 4 -12 c 0 -11 c -4 -11 c -4 -4 c -7 -4 c 4 -11 4331 2807 l 11 -8 c 19 -3 c 12 0 c 19 3 c 11 8 c 4 11 c
0 8 c -4 11 c -11 8 c -19 3 c -12 0 c -19 -3 c -11 -8 c -4 -11 c 0 -8 c 0 -250 4914 2261 l -8 -3 4882 2381 l -4 -12 c 0 -7 c 4 -12 c
11 -7 c 19 -4 c 19 0 c 15 4 c 8 7 c 4 12 c 0 4 c -4 11 c -8 7 c -11 4 c -4 0 c -11 -4 c -8 -7 c -4 -11 c 0 -4 c 4 -12 c 8 -7 c
11 -4 c 4 -12 4870 2431 l 11 -7 c 19 -4 c 12 0 c 18 4 c 12 7 c 4 12 c 0 7 c -4 11 c -12 8 c -18 4 c -12 0 c -19 -4 c -11 -8 c
-4 -11 c 0 -7 c 0 42 4870 2491 l 30 -23 c 0 11 c 4 8 c 4 4 c 11 3 c 8 0 c 11 -3 c 8 -8 c 4 -11 c 0 -12 c -4 -11 c -4 -4 c -8 -4 c
4 -12 4870 2582 l 11 -7 c 19 -4 c 12 0 c 18 4 c 12 7 c 4 12 c 0 7 c -4 12 c -12 7 c -18 4 c -12 0 c -19 -4 c -11 -7 c -4 -12 c
0 -7 c 4 -4 4942 2642 l 4 4 c -4 4 c -4 -4 c 53 -38 4870 2710 l 0 57 c 80 0 4870 2710 l 53 -38 4870 2786 l 0 57 c 80 0 4870 2786 l
0 -38 4870 2869 l 34 -4 c -4 4 c -3 12 c 0 11 c 3 11 c 8 8 c 11 4 c 8 0 c 11 -4 c 8 -8 c 4 -11 c 0 -11 c -4 -12 c -4 -4 c -8 -3 c
0 -249 5087 7019 l -7 -4 5055 7140 l -4 -11 c 0 -8 c 4 -11 c 11 -8 c 19 -3 c 19 0 c 15 3 c 7 8 c 4 11 c 0 4 c -4 11 c -7 8 c -12 4 c
-3 0 c -12 -4 c -7 -8 c -4 -11 c 0 -4 c 4 -11 c 7 -8 c 12 -3 c 4 -11 5044 7189 l 11 -8 c 19 -3 c 11 0 c 19 3 c 11 8 c 4 11 c 0 8 c
-4 11 c -11 8 c -19 3 c -11 0 c -19 -3 c -11 -8 c -4 -11 c 0 -8 c 0 41 5044 7250 l 30 -22 c 0 11 c 4 7 c 4 4 c 11 4 c 7 0 c 12 -4 c
7 -7 c 4 -12 c 0 -11 c -4 -11 c -3 -4 c -8 -4 c -4 0 5063 7321 l -8 4 c -3 4 c -4 8 c 0 15 c 4 7 c 3 4 c 8 4 c 7 0 c 8 -4 c 11 -8 c
38 -37 c 0 53 c 3 -4 5116 7401 l 4 4 c -4 4 c -3 -4 c -4 8 5059 7442 l -11 11 c 79 0 c -4 0 5063 7510 l -8 4 c -3 4 c -4 8 c 0 15 c
4 7 c 3 4 c 8 4 c 7 0 c 8 -4 c 11 -8 c 38 -37 c 0 53 c 79 -38 5044 7635 l 0 53 5044 7582 l 0 -250 5401 1540 l -8 -4 5369 1661 l
-3 -11 c 0 -8 c 3 -11 c 12 -8 c 19 -4 c 19 0 c 15 4 c 7 8 c 4 11 c 0 4 c -4 11 c -7 8 c -12 3 c -3 0 c -12 -3 c -7 -8 c -4 -11 c
0 -4 c 4 -11 c 7 -8 c 12 -4 c 3 -11 5358 1710 l 12 -8 c 19 -4 c 11 0 c 19 4 c 11 8 c 4 11 c 0 7 c -4 12 c -11 7 c -19 4 c -11 0 c
-19 -4 c -12 -7 c -3 -12 c 0 -7 c 0 42 5358 1770 l 30 -23 c 0 12 c 4 7 c 3 4 c 12 4 c 7 0 c 12 -4 c 7 -8 c 4 -11 c 0 -11 c -4 -12 c
-3 -3 c -8 -4 c 0 -38 5358 1884 l 34 -4 c -4 4 c -4 11 c 0 12 c 4 11 c 7 7 c 12 4 c 7 0 c 12 -4 c 7 -7 c 4 -11 c 0 -12 c -4 -11 c
-3 -4 c -8 -4 c 3 -3 5430 1921 l 4 3 c -4 4 c -3 -4 c -4 8 5373 1963 l -11 11 c 79 0 c 11 -3 5384 2076 l 8 -8 c 4 -11 c 0 -4 c
-4 -11 c -8 -8 c -11 -4 c -4 0 c -11 4 c -8 8 c -3 11 c 0 4 c 3 11 c 8 8 c 15 3 c 19 0 c 19 -3 c 11 -8 c 4 -11 c 0 -8 c -4 -11 c
-7 -4 c -4 0 5377 2107 l -8 3 c -4 4 c -3 8 c 0 15 c 3 7 c 4 4 c 8 4 c 7 0 c 8 -4 c 11 -7 c 38 -38 c 0 53 c 0 -249 5660 7019 l
-8 -4 5628 7140 l -4 -11 c 0 -8 c 4 -11 c 12 -8 c 18 -3 c 19 0 c 15 3 c 8 8 c 4 11 c 0 4 c -4 11 c -8 8 c -11 4 c -4 0 c -11 -4 c
-8 -8 c -3 -11 c 0 -4 c 3 -11 c 8 -8 c 11 -3 c 4 -11 5616 7189 l 12 -8 c 18 -3 c 12 0 c 19 3 c 11 8 c 4 11 c 0 8 c -4 11 c -11 8 c
-19 3 c -12 0 c -18 -3 c -12 -8 c -4 -11 c 0 -8 c 0 41 5616 7250 l 31 -22 c 0 11 c 3 7 c 4 4 c 12 4 c 7 0 c 11 -4 c 8 -7 c 4 -12 c
0 -11 c -4 -11 c -4 -4 c -7 -4 c 80 -38 5616 7371 l 0 53 5616 7318 l 4 -4 5688 7401 l 4 4 c -4 4 c -4 -4 c -8 -4 5628 7480 l
-4 -11 c 0 -7 c 4 -12 c 12 -7 c 18 -4 c 19 0 c 15 4 c 8 7 c 4 12 c 0 3 c -4 12 c -8 7 c -11 4 c -4 0 c -11 -4 c -8 -7 c -3 -12 c
0 -3 c 3 -12 c 8 -7 c 11 -4 c 11 -4 5643 7556 l 8 -8 c 4 -11 c 0 -4 c -4 -11 c -8 -8 c -11 -3 c -4 0 c -11 3 c -8 8 c -4 11 c 0 4 c
4 11 c 8 8 c 15 4 c 19 0 c 19 -4 c 11 -8 c 4 -11 c 0 -7 c -4 -12 c -8 -4 c 4 -11 5616 7601 l 8 -4 c 7 0 c 8 4 c 4 7 c 3 15 c 4 12 c
8 7 c 7 4 c 12 0 c 7 -4 c 4 -3 c 4 -12 c 0 -15 c -4 -11 c -4 -4 c -7 -4 c -12 0 c -7 4 c -8 8 c -4 11 c -3 15 c -4 8 c -8 3 c -7 0 c
-8 -3 c -4 -12 c 0 -15 c 0 -250 5762 1998 l -7 -4 5729 2119 l -4 -11 c 0 -8 c 4 -11 c 11 -8 c 19 -3 c 19 0 c 15 3 c 8 8 c 4 11 c
0 4 c -4 11 c -8 8 c -11 4 c -4 0 c -11 -4 c -8 -8 c -4 -11 c 0 -4 c 4 -11 c 8 -8 c 11 -3 c 4 -11 5718 2168 l 11 -8 c 19 -4 c 11 0 c
19 4 c 12 8 c 4 11 c 0 8 c -4 11 c -12 7 c -19 4 c -11 0 c -19 -4 c -11 -7 c -4 -11 c 0 -8 c 0 42 5718 2228 l 30 -23 c 0 12 c 4 7 c
4 4 c 11 4 c 8 0 c 11 -4 c 8 -8 c 4 -11 c 0 -11 c -4 -12 c -4 -3 c -8 -4 c 4 -11 5718 2315 l 7 -4 c 8 0 c 8 4 c 3 8 c 4 15 c 4 11 c
7 8 c 8 3 c 11 0 c 8 -3 c 4 -4 c 4 -11 c 0 -16 c -4 -11 c -4 -4 c -8 -3 c -11 0 c -8 3 c -7 8 c -4 11 c -4 15 c -3 8 c -8 4 c -8 0 c
-7 -4 c -4 -11 c 0 -16 c 4 -4 5790 2380 l 4 4 c -4 3 c -4 -3 c -7 -4 5729 2459 l -4 -11 c 0 -8 c 4 -11 c 11 -8 c 19 -3 c 19 0 c
15 3 c 8 8 c 4 11 c 0 4 c -4 11 c -8 8 c -11 4 c -4 0 c -11 -4 c -8 -8 c -4 -11 c 0 -4 c 4 -11 c 8 -8 c 11 -3 c 4 -11 5718 2504 l
7 -4 c 8 0 c 8 4 c 3 8 c 4 15 c 4 11 c 7 8 c 8 3 c 11 0 c 8 -3 c 4 -4 c 4 -12 c 0 -15 c -4 -11 c -4 -4 c -8 -4 c -11 0 c -8 4 c
-7 8 c -4 11 c -4 15 c -3 8 c -8 4 c -8 0 c -7 -4 c -4 -12 c 0 -15 c -4 8 5733 2572 l -11 11 c 80 0 c 0 -249 6235 7019 l
-8 -4 6203 7140 l -4 -11 c 0 -8 c 4 -11 c 11 -8 c 19 -3 c 19 0 c 15 3 c 8 8 c 4 11 c 0 4 c -4 11 c -8 8 c -11 4 c -4 0 c -11 -4 c
-8 -8 c -3 -11 c 0 -4 c 3 -11 c 8 -8 c 11 -3 c 4 -11 6191 7189 l 11 -8 c 19 -3 c 12 0 c 19 3 c 11 8 c 4 11 c 0 8 c -4 11 c -11 8 c
-19 3 c -12 0 c -19 -3 c -11 -8 c -4 -11 c 0 -8 c 53 -38 6191 7280 l 0 57 c 80 0 6191 7280 l 0 42 6191 7325 l 31 -23 c 0 11 c 3 8 c
4 4 c 11 4 c 8 0 c 11 -4 c 8 -8 c 4 -11 c 0 -11 c -4 -12 c -4 -4 c -7 -3 c 4 -4 6263 7401 l 4 4 c -4 4 c -4 -4 c -4 0 6210 7435 l
-7 4 c -4 3 c -4 8 c 0 15 c 4 8 c 4 3 c 7 4 c 8 0 c 8 -4 c 11 -7 c 38 -38 c 0 53 c -4 0 6210 7510 l -7 4 c -4 4 c -4 8 c 0 15 c
4 7 c 4 4 c 7 4 c 8 0 c 8 -4 c 11 -8 c 38 -37 c 0 53 c 0 41 6191 7590 l 31 -22 c 0 11 c 3 8 c 4 3 c 11 4 c 8 0 c 11 -4 c 8 -7 c
4 -12 c 0 -11 c -4 -11 c -4 -4 c -7 -4 c 0 -249 6361 7019 l -8 -4 6329 7140 l -3 -11 c 0 -8 c 3 -11 c 12 -8 c 19 -3 c 18 0 c 16 3 c
7 8 c 4 11 c 0 4 c -4 11 c -7 8 c -12 4 c -4 0 c -11 -4 c -7 -8 c -4 -11 c 0 -4 c 4 -11 c 7 -8 c 11 -3 c 3 -11 6318 7189 l 12 -8 c
19 -3 c 11 0 c 19 3 c 11 8 c 4 11 c 0 8 c -4 11 c -11 8 c -19 3 c -11 0 c -19 -3 c -12 -8 c -3 -11 c 0 -8 c 52 -38 6318 7280 l
0 57 c 79 0 6318 7280 l 52 -37 6318 7355 l 0 56 c 79 0 6318 7355 l 4 -4 6389 7401 l 4 4 c -4 4 c -4 -4 c 52 -38 6318 7469 l 0 57 c
79 0 6318 7469 l 0 42 6318 7514 l 30 -23 c 0 11 c 4 8 c 3 4 c 12 4 c 7 0 c 12 -4 c 7 -8 c 4 -11 c 0 -11 c -4 -12 c -4 -4 c -7 -3 c
0 41 6318 7590 l 30 -22 c 0 11 c 4 8 c 3 3 c 12 4 c 7 0 c 12 -4 c 7 -7 c 4 -12 c 0 -11 c -4 -11 c -4 -4 c -7 -4 c 0 -250 6620 1467 l
-8 -4 6588 1588 l -4 -11 c 0 -8 c 4 -11 c 12 -8 c 18 -3 c 19 0 c 15 3 c 8 8 c 4 11 c 0 4 c -4 11 c -8 8 c -11 4 c -4 0 c -11 -4 c
-8 -8 c -3 -11 c 0 -4 c 3 -11 c 8 -8 c 11 -3 c 4 -11 6576 1637 l 12 -8 c 18 -4 c 12 0 c 19 4 c 11 8 c 4 11 c 0 8 c -4 11 c -11 8 c
-19 3 c -12 0 c -18 -3 c -12 -8 c -4 -11 c 0 -8 c 53 -38 6576 1728 l 0 57 c 80 0 6576 1728 l -8 -4 6588 1815 l -4 -11 c 0 -8 c
4 -11 c 12 -8 c 18 -4 c 19 0 c 15 4 c 8 8 c 4 11 c 0 4 c -4 11 c -8 8 c -11 3 c -4 0 c -11 -3 c -8 -8 c -3 -11 c 0 -4 c 3 -11 c
8 -8 c 11 -4 c 4 -4 6648 1849 l 4 4 c -4 3 c -4 -3 c 4 -12 6576 1898 l 8 -3 c 7 0 c 8 3 c 4 8 c 3 15 c 4 12 c 8 7 c 7 4 c 12 0 c
7 -4 c 4 -4 c 4 -11 c 0 -15 c -4 -12 c -4 -3 c -7 -4 c -12 0 c -7 4 c -8 7 c -4 12 c -3 15 c -4 7 c -8 4 c -7 0 c -8 -4 c -4 -11 c
0 -15 c 11 -4 6603 2004 l 8 -8 c 4 -11 c 0 -4 c -4 -11 c -8 -8 c -11 -3 c -4 0 c -11 3 c -8 8 c -4 11 c 0 4 c 4 11 c 8 8 c 15 4 c
19 0 c 19 -4 c 11 -8 c 4 -11 c 0 -8 c -4 -11 c -8 -4 c 4 -11 6576 2049 l 8 -4 c 7 0 c 8 4 c 4 7 c 3 15 c 4 12 c 8 7 c 7 4 c 12 0 c
7 -4 c 4 -4 c 4 -11 c 0 -15 c -4 -11 c -4 -4 c -7 -4 c -12 0 c -7 4 c -8 7 c -4 12 c -3 15 c -4 7 c -8 4 c -7 0 c -8 -4 c -4 -11 c
0 -15 c 0 -250 6847 5431 l -7 -4 6814 5552 l -4 -11 c 0 -8 c 4 -11 c 11 -8 c 19 -3 c 19 0 c 15 3 c 7 8 c 4 11 c 0 4 c -4 11 c -7 8 c
-11 4 c -4 0 c -12 -4 c -7 -8 c -4 -11 c 0 -4 c 4 -11 c 7 -8 c 12 -3 c 4 -11 6803 5601 l 11 -8 c 19 -4 c 11 0 c 19 4 c 11 8 c 4 11 c
0 8 c -4 11 c -11 8 c -19 3 c -11 0 c -19 -3 c -11 -8 c -4 -11 c 0 -8 c 53 -38 6803 5692 l 0 57 c 79 0 6803 5692 l 12 -4 6829 5779 l
7 -8 c 4 -11 c 0 -4 c -4 -11 c -7 -8 c -12 -3 c -3 0 c -12 3 c -7 8 c -4 11 c 0 4 c 4 11 c 7 8 c 15 4 c 19 0 c 19 -4 c 11 -8 c
4 -11 c 0 -7 c -4 -12 c -7 -4 c 3 -4 6875 5813 l 4 4 c -4 4 c -3 -4 c 4 -12 6803 5866 l 11 -7 c 19 -4 c 11 0 c 19 4 c 11 7 c 4 12 c
0 7 c -4 12 c -11 7 c -19 4 c -11 0 c -19 -4 c -11 -7 c -4 -12 c 0 -7 c 0 -38 6803 5964 l 34 -4 c -4 4 c -4 11 c 0 12 c 4 11 c 8 8 c
11 4 c 8 0 c 11 -4 c 7 -8 c 4 -11 c 0 -12 c -4 -11 c -3 -4 c -8 -3 c -4 7 6818 6006 l -11 11 c 79 0 c 0 -250 7051 1587 l
-7 -3 7018 1707 l -4 -12 c 0 -7 c 4 -12 c 11 -7 c 19 -4 c 19 0 c 15 4 c 8 7 c 3 12 c 0 4 c -3 11 c -8 7 c -11 4 c -4 0 c -11 -4 c
-8 -7 c -4 -11 c 0 -4 c 4 -12 c 8 -7 c 11 -4 c 4 -12 7007 1757 l 11 -7 c 19 -4 c 11 0 c 19 4 c 12 7 c 3 12 c 0 7 c -3 12 c -12 7 c
-19 4 c -11 0 c -19 -4 c -11 -7 c -4 -12 c 0 -7 c 0 -38 7007 1855 l 34 -4 c -4 4 c -4 11 c 0 12 c 4 11 c 8 8 c 11 3 c 8 0 c 11 -3 c
8 -8 c 3 -11 c 0 -12 c -3 -11 c -4 -4 c -8 -3 c 4 -12 7007 1908 l 11 -7 c 19 -4 c 11 0 c 19 4 c 12 7 c 3 12 c 0 7 c -3 12 c -12 7 c
-19 4 c -11 0 c -19 -4 c -11 -7 c -4 -12 c 0 -7 c 4 -4 7079 1968 l 3 4 c -3 4 c -4 -4 c 12 -4 7033 2048 l 7 -8 c 4 -11 c 0 -4 c
-4 -11 c -7 -8 c -12 -3 c -3 0 c -12 3 c -7 8 c -4 11 c 0 4 c 4 11 c 7 8 c 15 4 c 19 0 c 19 -4 c 12 -8 c 3 -11 c 0 -8 c -3 -11 c
-8 -4 c 4 -11 7007 2093 l 7 -4 c 8 0 c 7 4 c 4 7 c 4 15 c 4 12 c 7 7 c 8 4 c 11 0 c 8 -4 c 4 -4 c 3 -11 c 0 -15 c -3 -11 c -4 -4 c
-8 -4 c -11 0 c -8 4 c -7 7 c -4 12 c -4 15 c -4 7 c -7 4 c -8 0 c -7 -4 c -4 -11 c 0 -15 c -4 0 7026 2153 l -7 4 c -4 4 c -4 8 c
0 15 c 4 7 c 4 4 c 7 4 c 8 0 c 7 -4 c 12 -8 c 37 -37 c 0 53 c 0 -249 7235 2997 l -7 -4 7203 3118 l -4 -11 c 0 -7 c 4 -12 c 11 -7 c
19 -4 c 19 0 c 15 4 c 7 7 c 4 12 c 0 3 c -4 12 c -7 7 c -11 4 c -4 0 c -12 -4 c -7 -7 c -4 -12 c 0 -3 c 4 -12 c 7 -7 c 12 -4 c
4 -11 7192 3167 l 11 -8 c 19 -3 c 11 0 c 19 3 c 11 8 c 4 11 c 0 8 c -4 11 c -11 8 c -19 4 c -11 0 c -19 -4 c -11 -8 c -4 -11 c
0 -8 c 0 -38 7192 3266 l 34 -4 c -4 4 c -4 11 c 0 12 c 4 11 c 8 7 c 11 4 c 8 0 c 11 -4 c 7 -7 c 4 -11 c 0 -12 c -4 -11 c -3 -4 c
-8 -4 c -4 0 7211 3300 l -8 3 c -3 4 c -4 8 c 0 15 c 4 7 c 3 4 c 8 4 c 8 0 c 7 -4 c 11 -7 c 38 -38 c 0 53 c 3 -4 7264 3379 l 4 4 c
-4 4 c -3 -4 c 79 -38 7192 3462 l 0 53 7192 3409 l -4 0 7211 3489 l -8 3 c -3 4 c -4 8 c 0 15 c 4 7 c 3 4 c 8 4 c 8 0 c 7 -4 c
11 -7 c 38 -38 c 0 53 c 0 42 7192 3568 l 30 -23 c 0 11 c 4 8 c 4 4 c 11 3 c 8 0 c 11 -3 c 7 -8 c 4 -11 c 0 -12 c -4 -11 c -3 -4 c
-8 -4 c 0 -250 7305 2614 l -8 -4 7273 2735 l -3 -11 c 0 -8 c 3 -11 c 12 -8 c 19 -4 c 19 0 c 15 4 c 7 8 c 4 11 c 0 4 c -4 11 c -7 8 c
-12 4 c -3 0 c -12 -4 c -7 -8 c -4 -11 c 0 -4 c 4 -11 c 7 -8 c 12 -4 c 3 -11 7262 2784 l 12 -8 c 19 -4 c 11 0 c 19 4 c 11 8 c 4 11 c
0 8 c -4 11 c -11 7 c -19 4 c -11 0 c -19 -4 c -12 -7 c -3 -11 c 0 -8 c 0 -38 7262 2882 l 34 -3 c -4 3 c -4 12 c 0 11 c 4 11 c 7 8 c
12 4 c 7 0 c 12 -4 c 7 -8 c 4 -11 c 0 -11 c -4 -12 c -4 -3 c -7 -4 c 0 42 7262 2920 l 30 -23 c 0 11 c 4 8 c 3 4 c 12 3 c 7 0 c
12 -3 c 7 -8 c 4 -11 c 0 -12 c -4 -11 c -4 -4 c -7 -4 c 4 -4 7333 2996 l 4 4 c -4 3 c -4 -3 c 0 42 7262 3033 l 30 -23 c 0 12 c 4 7 c
3 4 c 12 4 c 7 0 c 12 -4 c 7 -8 c 4 -11 c 0 -11 c -4 -12 c -4 -3 c -7 -4 c 3 -11 7262 3120 l 8 -4 c 8 0 c 7 4 c 4 8 c 4 15 c 3 11 c
8 8 c 8 3 c 11 0 c 7 -3 c 4 -4 c 4 -12 c 0 -15 c -4 -11 c -4 -4 c -7 -4 c -11 0 c -8 4 c -8 8 c -3 11 c -4 15 c -4 8 c -7 4 c -8 0 c
-8 -4 c -3 -12 c 0 -15 c -4 8 7277 3188 l -11 11 c 79 0 c 0 -250 7541 1372 l -8 -4 7509 1493 l -3 -11 c 0 -8 c 3 -11 c 12 -8 c
19 -3 c 19 0 c 15 3 c 7 8 c 4 11 c 0 4 c -4 11 c -7 8 c -12 4 c -3 0 c -12 -4 c -7 -8 c -4 -11 c 0 -4 c 4 -11 c 7 -8 c 12 -3 c
3 -11 7498 1542 l 12 -8 c 19 -4 c 11 0 c 19 4 c 11 8 c 4 11 c 0 8 c -4 11 c -11 7 c -19 4 c -11 0 c -19 -4 c -12 -7 c -3 -11 c
0 -8 c 0 -38 7498 1640 l 34 -3 c -4 3 c -4 12 c 0 11 c 4 12 c 7 7 c 12 4 c 7 0 c 12 -4 c 7 -7 c 4 -12 c 0 -11 c -4 -12 c -4 -3 c
-7 -4 c 0 -38 7498 1716 l 34 -4 c -4 4 c -4 11 c 0 12 c 4 11 c 7 8 c 12 3 c 7 0 c 12 -3 c 7 -8 c 4 -11 c 0 -12 c -4 -11 c -4 -4 c
-7 -3 c 4 -4 7569 1754 l 4 4 c -4 3 c -4 -3 c 0 -38 7498 1829 l 34 -3 c -4 3 c -4 12 c 0 11 c 4 11 c 7 8 c 12 4 c 7 0 c 12 -4 c
7 -8 c 4 -11 c 0 -11 c -4 -12 c -4 -3 c -7 -4 c 11 -4 7524 1909 l 8 -8 c 4 -11 c 0 -4 c -4 -11 c -8 -8 c -11 -3 c -4 0 c -11 3 c
-8 8 c -3 11 c 0 4 c 3 11 c 8 8 c 15 4 c 19 0 c 19 -4 c 11 -8 c 4 -11 c 0 -8 c -4 -11 c -7 -4 c 53 -38 7498 1973 l 0 57 c
79 0 7498 1973 l 0 -250 7947 4854 l -8 -4 7915 4975 l -4 -11 c 0 -8 c 4 -11 c 11 -8 c 19 -4 c 19 0 c 15 4 c 8 8 c 4 11 c 0 4 c
-4 11 c -8 8 c -11 3 c -4 0 c -11 -3 c -8 -8 c -3 -11 c 0 -4 c 3 -11 c 8 -8 c 11 -4 c 4 -12 7903 5024 l 11 -7 c 19 -4 c 12 0 c
19 4 c 11 7 c 4 12 c 0 7 c -4 12 c -11 7 c -19 4 c -12 0 c -19 -4 c -11 -7 c -4 -12 c 0 -7 c 0 -38 7903 5122 l 34 -4 c -3 4 c
-4 12 c 0 11 c 4 11 c 7 8 c 11 4 c 8 0 c 11 -4 c 8 -8 c 4 -11 c 0 -11 c -4 -12 c -4 -4 c -7 -3 c 11 -3 7930 5201 l 8 -8 c 3 -11 c
0 -4 c -3 -11 c -8 -8 c -11 -4 c -4 0 c -11 4 c -8 8 c -4 11 c 0 4 c 4 11 c 8 8 c 15 3 c 19 0 c 19 -3 c 11 -8 c 4 -11 c 0 -8 c
-4 -11 c -8 -4 c 4 -3 7975 5235 l 4 3 c -4 4 c -4 -4 c 0 42 7903 5273 l 31 -23 c 0 11 c 3 8 c 4 4 c 11 4 c 8 0 c 11 -4 c 8 -8 c
4 -11 c 0 -11 c -4 -12 c -4 -4 c -7 -3 c 80 -38 7903 5394 l 0 53 7903 5341 l 0 42 7903 5424 l 31 -23 c 0 12 c 3 7 c 4 4 c 11 4 c
8 0 c 11 -4 c 8 -8 c 4 -11 c 0 -11 c -4 -12 c -4 -3 c -7 -4 c 0 -250 8179 1492 l -7 -4 8146 1613 l -4 -11 c 0 -8 c 4 -11 c 11 -8 c
19 -3 c 19 0 c 15 3 c 7 8 c 4 11 c 0 4 c -4 11 c -7 8 c -11 4 c -4 0 c -12 -4 c -7 -8 c -4 -11 c 0 -4 c 4 -11 c 7 -8 c 12 -3 c
4 -11 8135 1662 l 11 -8 c 19 -4 c 11 0 c 19 4 c 11 8 c 4 11 c 0 8 c -4 11 c -11 8 c -19 3 c -11 0 c -19 -3 c -11 -8 c -4 -11 c
0 -8 c -7 -4 8146 1764 l -4 -11 c 0 -8 c 4 -11 c 11 -7 c 19 -4 c 19 0 c 15 4 c 7 7 c 4 11 c 0 4 c -4 12 c -7 7 c -11 4 c -4 0 c
-12 -4 c -7 -7 c -4 -12 c 0 -4 c 4 -11 c 7 -7 c 12 -4 c -4 8 8150 1802 l -11 11 c 79 0 c 3 -4 8207 1874 l 4 4 c -4 4 c -3 -4 c
0 -37 8135 1949 l 34 -4 c -4 4 c -4 11 c 0 11 c 4 12 c 8 7 c 11 4 c 8 0 c 11 -4 c 7 -7 c 4 -12 c 0 -11 c -4 -11 c -3 -4 c -8 -4 c
0 42 8135 1987 l 30 -23 c 0 11 c 4 8 c 4 4 c 11 4 c 8 0 c 11 -4 c 7 -8 c 4 -11 c 0 -12 c -4 -11 c -3 -4 c -8 -3 c -7 -3 8146 2104 l
-4 -12 c 0 -7 c 4 -12 c 11 -7 c 19 -4 c 19 0 c 15 4 c 7 7 c 4 12 c 0 3 c -4 12 c -7 7 c -11 4 c -4 0 c -12 -4 c -7 -7 c -4 -12 c
0 -3 c 4 -12 c 7 -7 c 12 -4 c 0 -250 8641 1293 l -8 -4 8609 1414 l -4 -11 c 0 -8 c 4 -11 c 11 -8 c 19 -3 c 19 0 c 15 3 c 8 8 c
4 11 c 0 4 c -4 11 c -8 8 c -11 4 c -4 0 c -11 -4 c -8 -8 c -3 -11 c 0 -4 c 3 -11 c 8 -8 c 11 -3 c 4 -11 8597 1463 l 11 -8 c 19 -4 c
12 0 c 19 4 c 11 8 c 4 11 c 0 8 c -4 11 c -11 8 c -19 3 c -12 0 c -19 -3 c -11 -8 c -4 -11 c 0 -8 c -8 -4 8609 1565 l -4 -11 c
0 -8 c 4 -11 c 11 -7 c 19 -4 c 19 0 c 15 4 c 8 7 c 4 11 c 0 4 c -4 12 c -8 7 c -11 4 c -4 0 c -11 -4 c -8 -7 c -3 -12 c 0 -4 c
3 -11 c 8 -7 c 11 -4 c 0 -38 8597 1637 l 34 -4 c -3 4 c -4 11 c 0 12 c 4 11 c 7 8 c 12 4 c 7 0 c 11 -4 c 8 -8 c 4 -11 c 0 -12 c
-4 -11 c -4 -4 c -7 -3 c 4 -4 8669 1675 l 4 4 c -4 4 c -4 -4 c 80 -38 8597 1758 l 0 53 8597 1705 l 4 -11 8597 1799 l 8 -4 c 7 0 c
8 4 c 4 8 c 3 15 c 4 11 c 8 8 c 7 3 c 12 0 c 7 -3 c 4 -4 c 4 -11 c 0 -16 c -4 -11 c -4 -4 c -7 -3 c -12 0 c -7 3 c -8 8 c -4 11 c
-3 15 c -4 8 c -8 4 c -7 0 c -8 -4 c -4 -11 c 0 -16 c 4 -12 8597 1879 l 11 -7 c 19 -4 c 12 0 c 19 4 c 11 7 c 4 12 c 0 7 c -4 12 c
-11 7 c -19 4 c -12 0 c -19 -4 c -11 -7 c -4 -12 c 0 -7 c 0 -250 8996 1685 l -8 -4 8964 1806 l -4 -11 c 0 -8 c 4 -11 c 11 -8 c
19 -3 c 19 0 c 15 3 c 8 8 c 4 11 c 0 4 c -4 11 c -8 8 c -11 4 c -4 0 c -11 -4 c -8 -8 c -4 -11 c 0 -4 c 4 -11 c 8 -8 c 11 -3 c
4 -11 8952 1855 l 11 -8 c 19 -4 c 12 0 c 18 4 c 12 8 c 4 11 c 0 8 c -4 11 c -12 8 c -18 3 c -12 0 c -19 -3 c -11 -8 c -4 -11 c
0 -8 c -8 -4 8964 1957 l -4 -11 c 0 -7 c 4 -12 c 11 -7 c 19 -4 c 19 0 c 15 4 c 8 7 c 4 12 c 0 3 c -4 12 c -8 7 c -11 4 c -4 0 c
-11 -4 c -8 -7 c -4 -12 c 0 -3 c 4 -12 c 8 -7 c 11 -4 c 11 -4 8979 2033 l 8 -8 c 3 -11 c 0 -4 c -3 -11 c -8 -8 c -11 -3 c -4 0 c
-11 3 c -8 8 c -4 11 c 0 4 c 4 11 c 8 8 c 15 4 c 19 0 c 18 -4 c 12 -8 c 4 -11 c 0 -7 c -4 -12 c -8 -4 c 4 -4 9024 2067 l 4 4 c
-4 4 c -4 -4 c 4 -12 8952 2120 l 11 -7 c 19 -4 c 12 0 c 18 4 c 12 7 c 4 12 c 0 7 c -4 12 c -12 7 c -18 4 c -12 0 c -19 -4 c -11 -7 c
-4 -12 c 0 -7 c -4 0 8971 2176 l -7 4 c -4 4 c -4 8 c 0 15 c 4 7 c 4 4 c 7 4 c 8 0 c 7 -4 c 12 -8 c 38 -37 c 0 53 c -3 7 8967 2260 l
-12 11 c 80 0 c 0 -249 9446 7019 l -7 -4 9414 7140 l -4 -11 c 0 -8 c 4 -11 c 11 -8 c 19 -3 c 19 0 c 15 3 c 7 8 c 4 11 c 0 4 c
-4 11 c -7 8 c -11 4 c -4 0 c -12 -4 c -7 -8 c -4 -11 c 0 -4 c 4 -11 c 7 -8 c 12 -3 c 4 -11 9403 7189 l 11 -8 c 19 -3 c 11 0 c
19 3 c 11 8 c 4 11 c 0 8 c -4 11 c -11 8 c -19 3 c -11 0 c -19 -3 c -11 -8 c -4 -11 c 0 -8 c 79 -38 9403 7295 l 0 53 9403 7242 l
0 42 9403 7325 l 30 -23 c 0 11 c 4 8 c 4 4 c 11 4 c 8 0 c 11 -4 c 7 -8 c 4 -11 c 0 -11 c -4 -12 c -3 -4 c -8 -3 c 3 -4 9475 7401 l
4 4 c -4 4 c -3 -4 c -4 8 9418 7442 l -11 11 c 79 0 c 4 -11 9403 7529 l 11 -8 c 19 -3 c 11 0 c 19 3 c 11 8 c 4 11 c 0 8 c -4 11 c
-11 8 c -19 4 c -11 0 c -19 -4 c -11 -8 c -4 -11 c 0 -8 c 53 -38 9403 7620 l 0 57 c 79 0 9403 7620 l
showpage PGPLOT restore
 
%%Trailer
%%DocumentFonts: 
%%Pages: 1
%%EOF
