%!PS-Adobe-3.0 EPSF-3.0
%%For: tab
%%Title: PGPLOT PostScript plot
%%Creator: PGPLOT
%%CreationDate: 20-Apr-1995 16:44
%%BoundingBox: 25 18 587 774
%%DocumentFonts: (atend)
%%LanguageLevel: 1
%%Orientation: Landscape
%%Pages: (atend)
%%EndComments
%%BeginProlog
/l {moveto rlineto currentpoint stroke moveto} bind def
/c {rlineto currentpoint stroke moveto} bind def
/d {moveto 0 0 rlineto currentpoint stroke moveto} bind def
/SLW {5 mul setlinewidth} bind def
/SCF /pop load def
/BP {newpath moveto} bind def
/LP /rlineto load def
/EP {rlineto closepath eofill} bind def
/MB {gsave translate MFAC dup scale 1 setlinewidth 2 setlinecap 0 setlinejoin newpath} bind def
/ME /grestore load def
/C {0 360 arc stroke} bind def
/FC {0 360 arc fill} bind def
%%EndProlog
 
%%Page: 1 1
%%BeginPageSetup
/PGPLOT save def
0.072 0.072 scale
8150 250 translate 90 rotate
1 setlinejoin 1 setlinecap 1 SLW 1 SCF
%%EndPageSetup
0.000 setgray 1 SLW 8939 0 780 780 l 0 6239 c -8939 0 c 0 -6239 c 0 -45 1116 780 l 0 -45 1554 780 l 0 -45 1991 780 l
0 -45 2428 780 l 0 -90 2865 780 l 0 -45 3302 780 l 0 -45 3739 780 l 0 -45 4176 780 l 0 -45 4613 780 l 0 -90 5051 780 l
0 -45 5488 780 l 0 -45 5925 780 l 0 -45 6362 780 l 0 -45 6799 780 l 0 -90 7236 780 l 0 -45 7673 780 l 0 -45 8110 780 l
0 -45 8548 780 l 0 -45 8985 780 l 0 -90 9422 780 l 0 -45 1116 7064 l 0 -45 1554 7064 l 0 -45 1991 7064 l 0 -45 2428 7064 l
0 -90 2865 7109 l 0 -45 3302 7064 l 0 -45 3739 7064 l 0 -45 4176 7064 l 0 -45 4613 7064 l 0 -90 5051 7109 l 0 -45 5488 7064 l
0 -45 5925 7064 l 0 -45 6362 7064 l 0 -45 6799 7064 l 0 -90 7236 7109 l 0 -45 7673 7064 l 0 -45 8110 7064 l 0 -45 8548 7064 l
0 -45 8985 7064 l 0 -90 9422 7109 l -60 0 2775 672 l -6 -54 c 6 6 c 18 6 c 18 0 c 18 -6 c 12 -12 c 6 -18 c 0 -12 c -6 -18 c
-12 -12 c -18 -6 c -18 0 c -18 6 c -6 6 c -6 12 c -18 -6 2859 672 l -12 -18 c -6 -30 c 0 -18 c 6 -30 c 12 -18 c 18 -6 c 12 0 c
18 6 c 12 18 c 6 30 c 0 18 c -6 30 c -12 18 c -18 6 c -12 0 c -18 -6 2979 672 l -12 -18 c -6 -30 c 0 -18 c 6 -30 c 12 -18 c 18 -6 c
12 0 c 18 6 c 12 18 c 6 30 c 0 18 c -6 30 c -12 18 c -18 6 c -12 0 c 12 6 4847 648 l 18 18 c 0 -126 c -18 -6 4985 672 l -12 -18 c
-6 -30 c 0 -18 c 6 -30 c 12 -18 c 18 -6 c 12 0 c 18 6 c 12 18 c 6 30 c 0 18 c -6 30 c -12 18 c -18 6 c -12 0 c -18 -6 5105 672 l
-12 -18 c -6 -30 c 0 -18 c 6 -30 c 12 -18 c 18 -6 c 12 0 c 18 6 c 12 18 c 6 30 c 0 18 c -6 30 c -12 18 c -18 6 c -12 0 c
-18 -6 5225 672 l -12 -18 c -6 -30 c 0 -18 c 6 -30 c 12 -18 c 18 -6 c 12 0 c 18 6 c 12 18 c 6 30 c 0 18 c -6 30 c -12 18 c -18 6 c
-12 0 c 12 6 7032 648 l 18 18 c 0 -126 c -60 0 7206 672 l -6 -54 c 6 6 c 18 6 c 18 0 c 18 -6 c 12 -12 c 6 -18 c 0 -12 c -6 -18 c
-12 -12 c -18 -6 c -18 0 c -18 6 c -6 6 c -6 12 c -18 -6 7290 672 l -12 -18 c -6 -30 c 0 -18 c 6 -30 c 12 -18 c 18 -6 c 12 0 c
18 6 c 12 18 c 6 30 c 0 18 c -6 30 c -12 18 c -18 6 c -12 0 c -18 -6 7410 672 l -12 -18 c -6 -30 c 0 -18 c 6 -30 c 12 -18 c 18 -6 c
12 0 c 18 6 c 12 18 c 6 30 c 0 18 c -6 30 c -12 18 c -18 6 c -12 0 c 0 6 9206 642 l 6 12 c 6 6 c 12 6 c 24 0 c 12 -6 c 6 -6 c
6 -12 c 0 -12 c -6 -12 c -12 -18 c -60 -60 c 84 0 c -18 -6 9356 672 l -12 -18 c -6 -30 c 0 -18 c 6 -30 c 12 -18 c 18 -6 c 12 0 c
18 6 c 12 18 c 6 30 c 0 18 c -6 30 c -12 18 c -18 6 c -12 0 c -18 -6 9476 672 l -12 -18 c -6 -30 c 0 -18 c 6 -30 c 12 -18 c 18 -6 c
12 0 c 18 6 c 12 18 c 6 30 c 0 18 c -6 30 c -12 18 c -18 6 c -12 0 c -18 -6 9596 672 l -12 -18 c -6 -30 c 0 -18 c 6 -30 c 12 -18 c
18 -6 c 12 0 c 18 6 c 12 18 c 6 30 c 0 18 c -6 30 c -12 18 c -18 6 c -12 0 c -90 0 780 786 l -45 0 780 1115 l -45 0 780 1444 l
-45 0 780 1774 l -45 0 780 2103 l -90 0 780 2432 l -45 0 780 2761 l -45 0 780 3091 l -45 0 780 3420 l -45 0 780 3749 l
-90 0 780 4078 l -45 0 780 4408 l -45 0 780 4737 l -45 0 780 5066 l -45 0 780 5396 l -90 0 780 5725 l -45 0 780 6054 l
-45 0 780 6383 l -45 0 780 6713 l -90 0 9809 786 l -45 0 9764 1115 l -45 0 9764 1444 l -45 0 9764 1774 l -45 0 9764 2103 l
-90 0 9809 2432 l -45 0 9764 2761 l -45 0 9764 3091 l -45 0 9764 3420 l -45 0 9764 3749 l -90 0 9809 4078 l -45 0 9764 4408 l
-45 0 9764 4737 l -45 0 9764 5066 l -45 0 9764 5396 l -90 0 9809 5725 l -45 0 9764 6054 l -45 0 9764 6383 l -45 0 9764 6713 l
6 -18 517 780 l 18 -12 c 30 -6 c 18 0 c 30 6 c 18 12 c 6 18 c 0 12 c -6 18 c -18 12 c -30 6 c -18 0 c -30 -6 c -18 -12 c -6 -18 c
0 -12 c -6 12 541 2312 l -18 18 c 126 0 c 6 -18 517 2450 l 18 -12 c 30 -6 c 18 0 c 30 6 c 18 12 c 6 18 c 0 12 c -6 18 c -18 12 c
-30 6 c -18 0 c -30 -6 c -18 -12 c -6 -18 c 0 -12 c 63 -45 453 2575 l 0 67 c 94 0 453 2575 l -6 0 547 3821 l -12 6 c -6 6 c -6 12 c
0 24 c 6 12 c 6 6 c 12 6 c 12 0 c 12 -6 c 18 -12 c 60 -60 c 0 84 c 84 84 547 3941 l 84 -84 547 4025 l -6 12 541 4084 l -18 18 c
126 0 c 6 -18 517 4222 l 18 -12 c 30 -6 c 18 0 c 30 6 c 18 12 c 6 18 c 0 12 c -6 18 c -18 12 c -30 6 c -18 0 c -30 -6 c -18 -12 c
-6 -18 c 0 -12 c 63 -45 453 4347 l 0 67 c 94 0 453 4347 l 0 66 517 5473 l 48 -36 c 0 18 c 6 12 c 6 6 c 18 6 c 12 0 c 18 -6 c
12 -12 c 6 -18 c 0 -18 c -6 -18 c -6 -6 c -12 -6 c 84 84 547 5587 l 84 -84 547 5671 l -6 12 541 5731 l -18 18 c 126 0 c
6 -18 517 5869 l 18 -12 c 30 -6 c 18 0 c 30 6 c 18 12 c 6 18 c 0 12 c -6 18 c -18 12 c -30 6 c -18 0 c -30 -6 c -18 -12 c -6 -18 c
0 -12 c 63 -45 453 5993 l 0 68 c 94 0 453 5993 l
4 -2 780 807 l 5 1 c 4 0 c 4 1 c 5 0 c 4 -1 c 4 0 c 5 1 c 4 0 c 5 0 c 4 -1 c 4 0 c 5 1 c 4 2 c 4 2 c 5 2 c 4 2 c 5 11 c 4 25 c
4 53 c 5 85 c 4 28 c 4 -71 c 5 -94 c 4 -8 c 5 14 c 4 16 c 4 37 c 5 46 c 4 106 c 4 460 c 5 1068 c 4 72 c 5 -861 c 4 -872 c 4 -110 c
5 -6 c 4 -2 c 4 -1 c 5 0 c 4 10 c 4 20 c 5 5 c 4 -15 c 5 -19 c 4 -4 c 4 0 c 5 -1 c 4 -1 c 4 0 c 5 0 c 4 0 c 5 1 c 4 1 c 4 1 c 5 -1 c
4 -2 c 4 -1 c 5 1 c 4 0 c 5 0 c 4 -1 c 4 0 c 5 -1 c 4 1 c 4 0 c 5 1 c 4 1 c 5 0 c 4 1 c 4 -1 c 5 -1 c 4 -1 c 4 0 c 5 1 c 4 0 c 4 0 c
5 2 c 4 4 c 5 0 c 4 -3 c 4 -4 c 5 -1 c 4 -18 c 4 0 c 5 18 c 4 1 c 5 0 c 4 -2 c 4 1 c 5 0 c 4 1 c 4 0 c 5 -1 c 4 0 c 5 0 c 4 0 c
4 0 c 5 0 c 4 0 c 4 0 c 5 0 c 4 1 c 5 -1 c 4 1 c 4 0 c 5 0 c 4 0 c 4 -1 c 5 0 c 4 0 c 4 0 c 5 0 c 4 1 c 5 1 c 4 1 c 4 1 c 5 7 c
4 5 c 4 -3 c 5 -10 c 4 -3 c 5 0 c 4 0 c 4 0 c 5 1 c 4 1 c 4 0 c 5 2 c 4 3 c 5 11 c 4 8 c 4 -3 c 5 -13 c 4 -7 c 4 -1 c 5 1 c 4 0 c
5 2 c 4 2 c 4 0 c 5 -2 c 4 -2 c 4 0 c 5 0 c 4 0 c 4 -1 c 5 -1 c 4 0 c 5 1 c 4 -1 c 4 1 c 5 0 c 4 0 c 4 0 c 5 0 c 4 0 c 5 0 c 4 -1 c
4 0 c 5 0 c 4 0 c 4 0 c 5 0 c 4 1 c 5 -1 c 4 0 c 4 1 c 5 0 c 4 1 c 4 0 c 5 0 c 4 1 c 4 3 c 5 3 c 4 -1 c 5 -3 c 4 -2 c 4 4 c 5 18 c
4 83 c 4 315 c 5 136 c 4 -134 c 5 -325 c 4 -50 c 4 150 c 5 697 c 4 479 c 4 -238 c 5 -857 c 4 -252 c 5 -12 c 4 23 c 4 95 c 5 43 c
4 -41 c 4 -110 c 5 -21 c 4 0 c 5 0 c 4 0 c 4 0 c 5 0 c 4 0 c 4 0 c 5 0 c 4 0 c 4 0 c 5 5 c 4 18 c 5 62 c 4 90 c 4 17 c 5 -85 c
4 -83 c 4 -16 c 5 -5 c 4 -3 c 5 -1 c 4 -1 c 4 1 c 5 -1 c 4 1 c 4 6 c 5 23 c 4 68 c 5 33 c 4 -31 c 4 -69 c 5 -20 c 4 -6 c 4 -4 c
5 -2 c 4 0 c 5 -1 c 4 1 c 4 0 c 5 -1 c 4 -1 c 4 0 c 5 1 c 4 0 c 4 1 c 5 3 c 4 17 c 5 104 c 4 231 c 4 51 c 5 -156 c 4 -222 c 4 -24 c
5 -3 c 4 -1 c 5 -1 c 4 2 c 4 6 c 5 47 c 4 162 c 4 62 c 5 -60 c 4 -181 c 5 -33 c 4 2 c 4 2 c 5 1 c 4 1 c 4 -1 c 5 1 c 4 32 c 5 106 c
4 24 c 4 -64 c 5 -97 c 4 -12 c 4 -1 c 5 1 c 4 0 c 4 1 c 5 2 c 4 0 c 5 0 c 4 -2 c 4 0 c 5 0 c 4 0 c 4 0 c 5 5 c 4 3 c 5 -2 c 4 -5 c
4 -2 c 5 0 c 4 1 c 4 1 c 5 2 c 4 -1 c 5 0 c 4 3 c 4 1 c 5 -2 c 4 -2 c 4 3 c 5 0 c 4 -3 c 5 -3 c 4 0 c 4 2 c 5 7 c 4 4 c 4 -2 c
5 -8 c 4 -3 c 4 1 c 5 0 c 4 0 c 5 2 c 4 4 c 4 0 c 5 -3 c 4 -4 c 4 0 c 5 1 c 4 1 c 5 -1 c 4 5 c 4 41 c 5 77 c 4 15 c 4 -61 c 5 -65 c
4 -11 c 5 -2 c 4 1 c 4 0 c 5 0 c 4 -1 c 4 0 c 5 1 c 4 1 c 4 1 c 5 0 c 4 0 c 5 2 c 4 3 c 4 -1 c 5 -2 c 4 4 c 4 49 c 5 270 c 4 241 c
5 -50 c 4 -359 c 4 -149 c 5 -6 c 4 -2 c 4 0 c 5 0 c 4 0 c 5 -3 c 4 1 c 4 1 c 5 2 c 4 1 c 4 0 c 5 -1 c 4 -1 c 5 -1 c 4 -1 c 4 0 c
5 1 c 4 4 c 4 2 c 5 -1 c 4 3 c 4 18 c 5 4 c 4 -11 c 5 -15 c 4 4 c 4 14 c 5 3 c 4 -5 c 4 1 c 5 55 c 4 223 c 5 158 c 4 -53 c 4 -260 c
5 -128 c 4 -10 c 4 -3 c 5 -2 c 4 0 c 5 0 c 4 0 c 4 0 c 5 3 c 4 1 c 4 -1 c 5 -4 c 4 -2 c 5 0 c 4 0 c 4 0 c 5 -1 c 4 1 c 4 0 c 5 0 c
4 1 c 4 2 c 5 0 c 4 -1 c 5 1 c 4 1 c 4 -1 c 5 -1 c 4 1 c 4 0 c 5 -1 c 4 0 c 5 -1 c 4 -1 c 4 0 c 5 0 c 4 1 c 4 1 c 5 -1 c 4 -1 c
5 0 c 4 0 c 4 0 c 5 0 c 4 3 c 4 4 c 5 0 c 4 -2 c 5 7 c 4 6 c 4 -2 c 5 -12 c 4 -3 c 4 -1 c 5 0 c 4 1 c 4 1 c 5 1 c 4 0 c 5 -1 c 4 0 c
4 -2 c 5 1 c 4 -1 c 4 1 c 5 0 c 4 1 c 5 0 c 4 0 c 4 -2 c 5 1 c 4 0 c 4 0 c 5 1 c 4 1 c 5 0 c 4 -1 c 4 -1 c 5 -1 c 4 1 c 4 0 c 5 1 c
4 0 c 5 1 c 4 1 c 4 3 c 5 18 c 4 36 c 4 24 c 5 46 c 4 140 c 4 193 c 5 -36 c 4 -209 c 5 -193 c 4 -16 c 4 0 c 5 3 c 4 14 c 4 100 c
5 535 c 4 540 c 5 -35 c 4 -693 c 4 -401 c 5 -54 c 4 -8 c 4 -3 c 5 -2 c 4 -1 c 5 -1 c 4 0 c 4 0 c 5 0 c 4 -1 c 4 0 c 5 0 c 4 0 c
4 1 c 5 0 c 4 -1 c 5 -1 c 4 0 c 4 0 c 5 1 c 4 0 c 4 0 c 5 13 c 4 21 c 5 1 c 4 -18 c 4 -16 c 5 -1 c 4 0 c 4 1 c 5 1 c 4 0 c 5 -2 c
4 -1 c 4 0 c 5 1 c 4 -1 c 4 2 c 5 0 c 4 0 c 5 0 c 4 2 c 4 2 c 5 1 c 4 1 c 4 5 c 5 16 c 4 198 c 4 1429 c 5 1155 c 4 -252 c 5 -1829 c
4 -543 c 4 34 c 5 -20 c 4 -127 c 4 -63 c 5 -5 c 4 -1 c 5 9 c 4 27 c 4 8 c 5 -16 c 4 -26 c 4 -3 c 5 0 c 4 0 c 5 0 c 4 -1 c 4 -1 c
5 0 c 4 -1 c 4 0 c 5 1 c 4 0 c 5 -1 c 4 0 c 4 0 c 5 0 c 4 0 c 4 0 c 5 0 c 4 0 c 4 -1 c 5 1 c 4 -1 c 5 0 c 4 0 c 4 0 c 5 1 c 4 0 c
4 -1 c 5 1 c 4 0 c 5 -1 c 4 0 c 4 0 c 5 1 c 4 1 c 4 1 c 5 1 c 4 2 c 5 0 c 4 -4 c 4 -2 c 5 -1 c 4 0 c 4 0 c 5 1 c 4 0 c 5 1 c 4 1 c
4 17 c 5 82 c 4 37 c 4 -27 c 5 -91 c 4 -18 c 4 -2 c 5 0 c 4 0 c 5 1 c 4 -1 c 4 1 c 5 1 c 4 0 c 4 -1 c 5 0 c 4 0 c 5 1 c 4 1 c 4 1 c
5 1 c 4 -3 c 4 -1 c 5 0 c 4 0 c 5 4 c 4 13 c 4 12 c 5 0 c 4 -11 c 4 -12 c 5 -3 c 4 -1 c 4 2 c 5 3 c 4 3 c 5 -3 c 4 -2 c 4 -1 c 5 1 c
4 -1 c 4 1 c 5 3 c 4 41 c 5 43 c 4 5 c 4 -28 c 5 173 c 4 1803 c 4 1898 c 5 2 c 4 -2383 c 5 -1431 c 4 -111 c 4 -8 c 5 -2 c 4 -2 c
4 -1 c 5 -2 c 4 0 c 5 3 c 4 25 c 4 18 c 5 -6 c 4 -31 c 4 -12 c 5 0 c 4 0 c 4 0 c 5 0 c 4 1 c 5 4 c 4 12 c 4 6 c 5 -7 c 4 -11 c
4 -4 c 5 -2 c 4 0 c 5 0 c 4 0 c 4 3 c 5 1 c 4 1 c 4 9 c 5 3 c 4 -4 c 5 -8 c 4 2 c 4 51 c 5 132 c 4 30 c 4 -71 c 5 -129 c 4 -15 c
5 1 c 4 4 c 4 6 c 5 33 c 4 150 c 4 80 c 5 -44 c 4 -172 c 4 -59 c 5 -2 c 4 0 c 5 -1 c 4 0 c 4 1 c 5 14 c 4 111 c 4 111 c 5 4 c
4 -103 c 5 -71 c 4 -16 c 4 -35 c 5 -16 c 4 -1 c 4 1 c 5 0 c 4 0 c 5 -1 c 4 0 c 4 1 c 5 2 c 4 0 c 4 0 c 5 20 c 4 39 c 5 8 c 4 -30 c
4 -35 c 5 -4 c 4 -1 c 4 0 c 5 0 c 4 0 c 4 2 c 5 1 c 4 -1 c 5 0 c 4 0 c 4 -1 c 5 0 c 4 -1 c 4 1 c 5 3 c 4 27 c 5 61 c 4 12 c 4 -46 c
5 -50 c 4 -7 c 4 0 c 5 1 c 4 1 c 5 13 c 4 32 c 4 8 c 5 -21 c 4 -28 c 4 7 c 5 18 c 4 4 c 5 -16 c 4 -16 c 4 -4 c 5 0 c 4 -1 c 4 0 c
5 1 c 4 -1 c 4 0 c 5 0 c 4 1 c 5 1 c 4 1 c 4 10 c 5 22 c 4 14 c 4 -7 c 5 -21 c 4 -11 c 5 -4 c 4 -3 c 4 -1 c 5 4 c 4 12 c 4 11 c
5 17 c 4 64 c 5 46 c 4 14 c 4 13 c 5 -10 c 4 -51 c 4 -99 c 5 -18 c 4 0 c 4 -1 c 5 0 c 4 -1 c 5 0 c 4 0 c 4 0 c 5 0 c 4 0 c 4 0 c
5 0 c 4 1 c 5 6 c 4 3 c 4 -2 c 5 -5 c 4 -2 c 4 0 c 5 0 c 4 2 c 5 3 c 4 4 c 4 5 c 5 13 c 4 51 c 4 473 c 5 1903 c 4 1269 c 5 -358 c
4 -2189 c 4 -1014 c 5 -125 c 4 -15 c 4 -5 c 5 2 c 4 0 c 4 -5 c 5 -8 c 4 -4 c 5 0 c 4 -1 c 4 -1 c 5 0 c 4 3 c 4 2 c 5 -1 c 4 -2 c
5 -2 c 4 -1 c 4 -2 c 5 0 c 4 0 c 4 1 c 5 0 c 4 -1 c 5 -1 c 4 -1 c 4 1 c 5 -1 c 4 1 c 4 4 c 5 4 c 4 1 c 5 -3 c 4 3 c 4 9 c 5 0 c
4 -11 c 4 -8 c 5 0 c 4 0 c 4 1 c 5 -1 c 4 1 c 5 0 c 4 1 c 4 -1 c 5 1 c 4 0 c 4 1 c 5 7 c 4 5 c 5 -1 c 4 -5 c 4 0 c 5 12 c 4 135 c
4 884 c 5 913 c 4 25 c 5 -1068 c 4 -697 c 4 -164 c 5 -37 c 4 -5 c 4 -2 c 5 -1 c 4 3 c 5 18 c 4 13 c 4 -4 c 5 -21 c 4 -11 c 4 0 c
5 3 c 4 5 c 4 2 c 5 1 c 4 23 c 5 73 c 4 73 c 4 47 c 5 -49 c 4 -82 c 4 -74 c 5 -17 c 4 -2 c 5 2 c 4 9 c 4 76 c 5 188 c 4 75 c 4 -80 c
5 -206 c 4 -64 c 5 -3 c 4 0 c 4 1 c 5 0 c 4 0 c 4 -2 c 5 2 c 4 25 c 5 103 c 4 61 c 4 -25 c 5 -105 c 4 -46 c 4 -9 c 5 -4 c 4 -1 c
4 0 c 5 -1 c 4 1 c 5 0 c 4 0 c 4 -2 c 5 0 c 4 1 c 4 12 c 5 54 c 4 33 c 5 -13 c 4 -55 c 4 -55 c 5 24 c 4 2 c 4 2 c 5 1 c 4 -2 c 5 0 c
4 0 c 4 0 c 5 -1 c 4 -1 c 4 0 c 5 2 c 4 -1 c 4 0 c 5 -2 c 4 0 c 5 1 c 4 6 c 4 15 c 5 39 c 4 26 c 4 -14 c 5 -42 c 4 -25 c 5 -5 c
4 0 c 4 -2 c 5 2 c 4 0 c 4 0 c 5 0 c 4 -1 c 5 1 c 4 0 c 4 -1 c 5 -2 c 4 1 c 4 1 c 5 0 c 4 -1 c 5 0 c 4 1 c 4 0 c 5 0 c 4 0 c 4 0 c
5 10 c 4 25 c 4 9 c 5 -14 c 4 -22 c 5 -7 c 4 0 c 4 0 c 5 1 c 4 0 c 4 0 c 5 -1 c 4 0 c 5 -1 c 4 1 c 4 0 c 5 1 c 4 -1 c 4 0 c 5 2 c
4 2 c 5 1 c 4 0 c 4 -2 c 5 -1 c 4 -1 c 4 -1 c 5 5 c 4 5 c 5 3 c 4 -2 c 4 -2 c 5 7 c 4 46 c 4 101 c 5 68 c 4 -33 c 4 -111 c 5 -47 c
4 59 c 5 135 c 4 37 c 4 -100 c 5 -131 c 4 -35 c 4 -2 c 5 -1 c 4 -1 c 5 1 c 4 -1 c 4 0 c 5 -1 c 4 3 c 4 4 c 5 10 c 4 43 c 5 54 c
4 12 c 4 -50 c 5 -51 c 4 -16 c 4 -2 c 5 4 c 4 13 c 5 4 c 4 -7 c 4 -14 c 5 -5 c 4 1 c 4 3 c 5 2 c 4 -1 c 4 -4 c 5 -4 c 4 0 c 5 1 c
4 3 c 4 1 c 5 0 c 4 -2 c 4 -2 c 5 0 c 4 0 c 5 0 c 4 0 c 4 0 c 5 0 c 4 0 c 4 0 c 5 0 c 4 0 c 5 1 c 4 1 c 4 0 c 5 1 c 4 3 c 4 1 c
5 13 c 4 43 c 4 149 c 5 110 c 4 -3 c 5 -136 c 4 -113 c 4 -31 c 5 -14 c 4 10 c 4 91 c 5 53 c 4 -23 c 5 -103 c 4 -42 c 4 4 c 5 19 c
4 7 c 4 -7 c 5 -20 c 4 -6 c 5 10 c 4 -43 c 4 73 c 5 -15 c 4 -24 c 4 -5 c 5 -2 c 4 -1 c 5 -1 c 4 0 c 4 2 c 5 0 c 4 -2 c 4 -2 c 5 1 c
4 1 c 4 1 c 5 0 c 4 -1 c 5 0 c 4 1 c 4 1 c 5 1 c 4 2 c 4 8 c 5 4 c 4 -3 c 5 -7 c 4 -4 c 4 -1 c 5 1 c 4 -1 c 4 0 c 5 0 c 4 1 c 5 1 c
4 -2 c 4 1 c 5 1 c 4 2 c 4 12 c 5 71 c 4 131 c 5 54 c 4 -69 c 4 -139 c 5 -50 c 4 -9 c 4 -1 c 5 3 c 4 11 c 4 11 c 5 0 c 4 -13 c
5 -11 c 4 2 c 4 8 c 5 2 c 4 5 c 4 27 c 5 21 c 4 -5 c 5 -39 c 4 -21 c 4 -5 c 5 -1 c 4 3 c 4 2 c 5 1 c 4 -2 c 5 -2 c 4 0 c 4 0 c 5 2 c
4 0 c 4 14 c 5 146 c 4 216 c 5 75 c 4 -171 c 4 -220 c 5 -58 c 4 -6 c 4 1 c 5 2 c 4 -1 c 4 -1 c 5 -2 c 4 1 c 5 1 c 4 2 c 4 -2 c
5 -2 c 4 0 c 4 1 c 5 2 c 4 -1 c 5 -1 c 4 -1 c 4 0 c 5 4 c 4 11 c 4 5 c 5 -4 c 4 -10 c 5 -5 c 4 0 c 4 1 c 5 -1 c 4 0 c 4 -1 c 5 0 c
4 2 c 5 0 c 4 0 c 4 0 c 5 -2 c 4 -1 c 4 1 c 5 0 c 4 -1 c 4 0 c 5 1 c 4 -1 c 5 1 c 4 1 c 4 1 c 5 3 c 4 14 c 4 64 c 5 108 c 4 128 c
5 18 c 4 -70 c 4 -147 c 5 -90 c 4 -16 c 4 -5 c 5 -2 c 4 -1 c 5 0 c 4 1 c 4 -3 c 5 -2 c 4 -1 c 4 1 c 5 -1 c 4 -1 c 4 -1 c 5 0 c 4 4 c
5 12 c 4 6 c 4 -3 c 5 -11 c 4 -5 c 4 -1 c 5 0 c 4 0 c 5 1 c 4 0 c 4 0 c 5 0 c 4 2 c 4 5 c 5 1 c 4 -3 c 5 -5 c 4 0 c 4 1 c 5 4 c
4 -2 c 4 -3 c 5 -2 c 4 0 c 5 1 c 4 0 c 4 0 c 5 -2 c 4 2 c 4 4 c 5 3 c 4 -1 c 4 -5 c 5 -1 c 4 0 c 5 0 c 4 0 c 4 0 c 5 -1 c 4 -1 c
4 1 c 5 -1 c 4 2 c 5 -1 c 4 1 c 4 0 c 5 0 c 4 2 c 4 9 c 5 12 c 4 10 c 5 2 c 4 1 c 4 0 c 5 6 c 4 6 c 4 -74 c 5 69 c 4 0 c 5 14 c
4 253 c 4 1026 c 5 575 c 4 -253 c 4 -1100 c 5 -466 c 4 -60 c 4 -3 c 5 -2 c 4 -3 c 5 -1 c 4 -2 c 4 -1 c 5 -1 c 4 0 c 4 -1 c 5 -2 c
4 -2 c 5 0 c 4 -1 c 4 1 c 5 -2 c 4 -1 c 4 -1 c 5 0 c 4 1 c 5 6 c 4 8 c 4 6 c 5 0 c 4 -2 c 4 -1 c 5 0 c 4 0 c 5 -2 c 4 -3 c 4 -1 c
5 -1 c 4 1 c 4 1 c 5 1 c 4 -1 c 4 10 c 5 26 c 4 4 c 5 -14 c 4 -25 c 4 -7 c 5 0 c 4 2 c 4 4 c 5 86 c 4 398 c 5 306 c 4 -58 c 4 -426 c
5 -275 c 4 -33 c 4 12 c 5 66 c 4 71 c 5 8 c 4 -65 c 4 -74 c 5 -18 c 4 -1 c 4 2 c 5 -2 c 4 -7 c 5 -5 c 4 -2 c 4 0 c 5 0 c 4 2 c 4 1 c
5 4 c 4 2 c 4 -2 c 5 -6 c 4 -3 c 5 1 c 4 -1 c 4 -1 c 5 0 c 4 0 c 4 1 c 5 1 c 4 0 c 5 -1 c 4 0 c 4 0 c 5 -1 c 4 0 c 4 2 c 5 -1 c
4 0 c 5 0 c 4 1 c 4 1 c 5 0 c 4 1 c 4 -1 c 5 -1 c 4 -1 c 4 1 c 5 0 c 4 4 c 5 3 c 4 0 c 4 -4 c 5 -2 c 4 -1 c 4 2 c 5 0 c 4 0 c 5 0 c
4 -2 c 4 2 c 5 3 c 4 1 c 4 2 c 5 -1 c 4 -1 c 5 3 c 4 4 c 4 5 c 5 4 c 4 8 c 4 22 c 5 129 c 4 1903 c 4 4118 c 0 -170 7201 7019 l
5 -4453 c 4 -1445 c 4 -96 c 5 -9 c 4 -5 c 4 -8 c 5 -5 c 4 -3 c 5 0 c 4 -2 c 4 0 c 5 -1 c 4 -1 c 4 -1 c 5 0 c 4 -1 c 5 0 c 4 3 c
4 1 c 5 0 c 4 -1 c 4 -1 c 5 0 c 4 0 c 5 0 c 4 0 c 4 0 c 5 0 c 4 1 c 4 0 c 5 -2 c 4 2 c 5 1 c 4 0 c 4 1 c 5 2 c 4 15 c 4 250 c
5 715 c 4 279 c 4 -253 c 5 -729 c 4 -258 c 5 -21 c 4 -3 c 4 0 c 5 -1 c 4 0 c 4 -1 c 5 0 c 4 9 c 5 13 c 4 3 c 4 -11 c 5 -13 c 4 -4 c
4 0 c 5 1 c 4 -1 c 5 0 c 4 1 c 4 -1 c 5 0 c 4 4 c 4 15 c 5 7 c 4 -3 c 5 -13 c 4 -6 c 4 -1 c 5 -1 c 4 1 c 4 0 c 5 -1 c 4 0 c 4 0 c
5 -1 c 4 0 c 5 1 c 4 1 c 4 0 c 5 0 c 4 2 c 4 7 c 5 39 c 4 23 c 5 -7 c 4 -40 c 4 -18 c 5 -1 c 4 2 c 4 2 c 5 2 c 4 0 c 5 1 c 4 9 c
4 22 c 5 185 c 4 408 c 4 138 c 5 -139 c 4 -87 c 5 2718 c 2 2934 c 4 -4311 7665 7019 l 4 -1652 c 5 -151 c 4 -32 c 4 -13 c 5 -6 c
4 -5 c 5 -7 c 4 -5 c 4 -2 c 5 -1 c 4 -1 c 4 -2 c 5 -3 c 4 -4 c 5 -3 c 4 -1 c 4 -1 c 5 0 c 4 0 c 4 -1 c 5 0 c 4 -1 c 5 0 c 4 1 c
4 1 c 5 1 c 4 -1 c 4 -2 c 5 -1 c 4 -1 c 4 -1 c 5 0 c 4 0 c 5 1 c 4 4 c 4 4 c 5 0 c 4 -6 c 4 -3 c 5 0 c 4 5 c 5 4 c 4 0 c 4 -1 c
5 15 c 4 73 c 4 90 c 5 21 c 4 -69 c 5 -96 c 4 -27 c 4 -9 c 5 -4 c 4 3 c 4 3 c 5 0 c 4 -5 c 5 -5 c 4 -1 c 4 0 c 5 0 c 4 0 c 4 0 c
5 0 c 4 0 c 4 -1 c 5 0 c 4 0 c 5 0 c 4 0 c 4 0 c 5 0 c 4 -1 c 4 1 c 5 0 c 4 1 c 5 0 c 4 -1 c 4 0 c 5 1 c 4 -1 c 4 2 c 5 1 c 4 0 c
5 -2 c 4 -2 c 4 1 c 5 2 c 4 0 c 4 -1 c 5 -1 c 4 2 c 5 0 c 4 0 c 4 -1 c 5 -1 c 4 -1 c 4 1 c 5 1 c 4 0 c 4 -1 c 5 0 c 4 -1 c 5 1 c
4 1 c 4 -1 c 5 0 c 4 3 c 4 6 c 5 1 c 4 -3 c 5 -6 c 4 -2 c 4 -2 c 5 0 c 4 1 c 4 1 c 5 0 c 4 1 c 5 0 c 4 1 c 4 -1 c 5 0 c 4 -1 c
4 -1 c 5 1 c 4 1 c 5 1 c 4 0 c 4 0 c 5 -1 c 4 0 c 4 -1 c 5 1 c 4 0 c 4 6 c 5 41 c 4 34 c 5 -1 c 4 -46 c 4 -32 c 5 -3 c 4 1 c 4 0 c
5 -1 c 4 -2 c 5 -1 c 4 0 c 4 0 c 5 0 c 4 0 c 4 1 c 5 2 c 4 2 c 5 8 c 4 47 c 4 72 c 5 16 c 4 -41 c 4 -74 c 5 -21 c 4 -6 c 4 -2 c
5 -2 c 4 0 c 5 -2 c 4 0 c 4 1 c 5 0 c 4 0 c 4 -1 c 5 0 c 4 0 c 5 0 c 4 1 c 4 0 c 5 -1 c 4 -1 c 4 0 c 5 0 c 4 0 c 5 0 c 4 1 c 4 0 c
5 0 c 4 -1 c 4 1 c 5 2 c 4 0 c 5 0 c 4 -2 c 4 -1 c 5 1 c 4 0 c 4 -1 c 5 -1 c 4 0 c 4 0 c 5 1 c 4 1 c 5 1 c 4 10 c 4 79 c 5 106 c
4 5 c 4 -77 c 5 -113 c 4 -10 c 5 -1 c 4 0 c 4 0 c 5 0 c 4 0 c 4 1 c 5 0 c 4 0 c 5 1 c 4 -1 c 4 0 c 5 -1 c 4 1 c 4 1 c 5 2 c 4 2 c
5 1 c 4 -2 c 4 -3 c 5 -2 c 4 -1 c 4 0 c 5 3 c 4 1 c 4 1 c 5 -1 c 4 -2 c 5 1 c 4 2 c 4 0 c 5 -2 c 4 -1 c 4 0 c 5 0 c 4 1 c 5 0 c
4 -2 c 4 -1 c 5 0 c 4 0 c 4 0 c 5 0 c 4 1 c 5 0 c 4 0 c 4 0 c 5 -1 c 4 0 c 4 0 c 5 2 c 4 1 c 5 0 c 4 -2 c 4 0 c 5 -1 c 4 0 c 4 1 c
5 0 c 4 3 c 4 3 c 5 7 c 4 8 c 5 -3 c 4 -7 c 4 -9 c 5 -2 c 4 0 c 4 0 c 5 0 c 4 0 c 5 -1 c 4 0 c 4 0 c 5 -1 c 4 0 c 4 0 c 5 1 c 4 1 c
5 0 c 4 0 c 4 0 c 5 -1 c 4 1 c 4 1 c 5 0 c 4 0 c 5 0 c 4 0 c 4 0 c 5 0 c 4 0 c 4 10 c 5 35 c 4 11 c 4 -9 c 5 -36 c 4 -12 c 5 -1 c
4 -1 c 4 1 c 5 0 c 4 0 c 4 0 c 5 0 c 4 0 c 5 1 c 4 0 c 4 0 c 5 -1 c 4 0 c 4 0 c 5 -1 c 4 0 c 5 0 c 4 1 c 4 0 c 5 1 c 4 0 c 4 -1 c
5 -1 c 4 0 c 4 0 c 5 0 c 4 1 c 5 -1 c 4 1 c 4 0 c 5 2 c 4 13 c 4 9 c 5 -2 c 4 -14 c 5 -9 c 4 -1 c 4 1 c 5 2 c 4 1 c 4 -1 c 5 1 c
4 0 c 5 1 c 4 -2 c 4 0 c 5 -1 c 4 1 c 4 -1 c 5 0 c 4 -1 c 5 0 c 4 1 c 4 -1 c 5 0 c 4 0 c 4 0 c 5 1 c 4 -1 c 4 0 c 5 -1 c 4 2 c 5 7 c
4 46 c 4 111 c 5 39 c 4 -41 c 4 -116 c 5 -40 c 4 -4 c 5 -2 c 4 0 c 4 0 c 5 0 c 4 0 c 4 -1 c 5 -1 c 4 -1 c 5 1 c 4 -1 c 4 1 c 5 0 c
4 0 c 4 -1 c 5 0 c 4 0 c 5 1 c 4 0 c 4 0 c 5 0 c 4 -1 c 4 1 c 5 0 c 4 0 c 4 0 c 5 0 c 4 0 c 5 1 c 4 7 c 4 15 c 5 4 c 4 -9 c 4 -15 c
5 -3 c 4 0 c 5 0 c 4 1 c 4 -1 c 5 0 c 4 -1 c 4 2 c 5 0 c 4 0 c 5 0 c 4 -1 c 4 0 c 5 0 c 4 1 c 4 0 c
5 0 c 4 -2 c 5 -1 c 4 1 c 4 -16 c 5 0 c 4 16 c 4 0 c 5 0 c 4 -1 c 4 0 c 5 1 c 4 -1 c 5 0 c 4 0 c 4 0 c 5 0 c 4 1 c 4 0 c 5 -1 c
4 1 c 5 -1 c 4 1 c 4 1 c 5 0 c 4 0 c 4 0 c 5 0 c 4 1 c 5 -2 c 4 1 c 4 0 c 5 1 c 4 6 c 4 16 c 5 8 c 4 -7 c 5 -16 c 4 -7 c 4 -1 c
5 -1 c 4 0 c 4 -1 c 5 0 c 4 0 c
0 -126 3315 418 l 54 0 3315 418 l 18 -6 c 6 -6 c 6 -12 c 0 -12 c -6 -12 c -6 -6 c -18 -6 c -54 0 c 42 -66 3357 358 l
-12 -6 3465 376 l -12 -12 c -6 -18 c 0 -12 c 6 -18 c 12 -12 c 12 -6 c 18 0 c 12 6 c 12 12 c 6 18 c 0 12 c -6 18 c -12 12 c -12 6 c
-18 0 c 24 -84 3549 376 l -24 -84 3597 376 l 24 -84 3597 376 l -24 -84 3645 376 l 108 0 3687 364 l 108 0 3687 328 l
-6 -18 4107 376 l -12 -12 c -18 -6 c -6 0 c -18 6 c -12 12 c -6 18 c 0 6 c 6 18 c 12 12 c 18 6 c 6 0 c 18 -6 c 12 -12 c 6 -24 c
0 -30 c -6 -30 c -12 -18 c -18 -6 c -12 0 c -18 6 c -6 12 c -12 -6 4275 376 l -12 -12 c -6 -18 c 0 -12 c 6 -18 c 12 -12 c 12 -6 c
18 0 c 12 6 c 12 12 c 6 18 c 0 12 c -6 18 c -12 12 c -12 6 c -18 0 c -12 0 4401 418 l -12 -6 c -6 -18 c 0 -102 c 42 0 4353 376 l
0 6 4533 388 l 6 12 c 6 6 c 12 6 c 24 0 c 12 -6 c 6 -6 c 6 -12 c 0 -12 c -6 -12 c -12 -18 c -60 -60 c 84 0 c -18 -6 4683 418 l
-12 -18 c -6 -30 c 0 -18 c 6 -30 c 12 -18 c 18 -6 c 12 0 c 18 6 c 12 18 c 6 30 c 0 18 c -6 30 c -12 18 c -18 6 c -12 0 c
12 6 5169 394 l 18 18 c 0 -126 c -6 -6 5282 376 l 6 -6 c 6 6 c -6 6 c -6 -6 5282 304 l 6 -6 c 6 6 c -6 6 c -48 -126 5462 418 l
48 -126 5462 418 l 60 0 5432 334 l 0 -84 5540 376 l 6 18 5540 340 l 12 12 c 12 6 c 18 0 c -12 12 5684 358 l -12 6 c -18 0 c -12 -6 c
-12 -12 c -6 -18 c 0 -12 c 6 -18 c 12 -12 c 12 -6 c 18 0 c 12 6 c 12 12 c 108 0 5726 346 l 12 6 5894 394 l 18 18 c 0 -126 c
66 0 6008 418 l -36 -48 c 18 0 c 12 -6 c 6 -6 c 6 -18 c 0 -12 c -6 -18 c -12 -12 c -18 -6 c -18 0 c -18 6 c -6 6 c -6 12 c
-6 -18 6194 376 l -12 -12 c -18 -6 c -6 0 c -18 6 c -12 12 c -6 18 c 0 6 c 6 18 c 12 12 c 18 6 c 6 0 c 18 -6 c 12 -12 c 6 -24 c
0 -30 c -6 -30 c -12 -18 c -18 -6 c -12 0 c -18 6 c -6 12 c -6 -6 6248 304 l 6 -6 c 6 6 c -6 6 c -12 0 6338 418 l -12 -6 c -6 -18 c
0 -102 c 42 0 6290 376 l 6 -6 6368 418 l 6 6 c -6 6 c -6 -6 c 0 -84 6374 376 l 0 -102 6428 418 l 6 -18 c 12 -6 c 12 0 c
42 0 6410 376 l -6 12 6554 358 l -18 6 c -18 0 c -18 -6 c -6 -12 c 6 -12 c 12 -6 c 30 -6 c 12 -6 c 6 -12 c 0 -6 c -6 -12 c -18 -6 c
-18 0 c -18 6 c -6 12 c 0 -192 6884 442 l 0 -192 6890 442 l 42 0 6884 442 l 42 0 6884 250 l 0 6 6968 388 l 6 12 c 6 6 c 12 6 c
24 0 c 12 -6 c 6 -6 c 6 -12 c 0 -12 c -6 -12 c -12 -18 c -60 -60 c 84 0 c -6 -6 7094 376 l 6 -6 c 6 6 c -6 6 c -6 -6 7094 304 l
6 -6 c 6 6 c -6 6 c 0 -192 7274 442 l 0 -192 7280 442 l 42 0 7238 442 l 42 0 7238 250 l
0 -249 922 3099 l -7 -4 890 3220 l -4 -11 c 0 -7 c 4 -12 c 11 -7 c 19 -4 c 19 0 c 15 4 c 7 7 c 4 12 c 0 3 c -4 12 c -7 7 c -12 4 c
-3 0 c -12 -4 c -7 -7 c -4 -12 c 0 -3 c 4 -12 c 7 -7 c 12 -4 c 0 42 879 3254 l 30 -23 c 0 12 c 4 7 c 4 4 c 11 4 c 7 0 c 12 -4 c
7 -8 c 4 -11 c 0 -11 c -4 -12 c -3 -3 c -8 -4 c 53 -38 879 3360 l 0 57 c 79 0 879 3360 l 4 -12 879 3417 l 7 -3 c 8 0 c 7 3 c 4 8 c
4 15 c 4 11 c 7 8 c 8 4 c 11 0 c 8 -4 c 3 -4 c 4 -11 c 0 -15 c -4 -12 c -3 -3 c -8 -4 c -11 0 c -8 4 c -7 7 c -4 12 c -4 15 c -4 7 c
-7 4 c -8 0 c -7 -4 c -4 -11 c 0 -15 c 3 -4 951 3481 l 4 4 c -4 4 c -3 -4 c 79 -38 879 3564 l 0 53 879 3511 l 0 42 879 3594 l
30 -23 c 0 12 c 4 7 c 4 4 c 11 4 c 7 0 c 12 -4 c 7 -8 c 4 -11 c 0 -11 c -4 -12 c -3 -3 c -8 -4 c 4 -11 879 3681 l 7 -4 c 8 0 c 7 4 c
4 8 c 4 15 c 4 11 c 7 8 c 8 3 c 11 0 c 8 -3 c 3 -4 c 4 -12 c 0 -15 c -4 -11 c -3 -4 c -8 -4 c -11 0 c -8 4 c -7 8 c -4 11 c -4 15 c
-4 8 c -7 4 c -8 0 c -7 -4 c -4 -12 c 0 -15 c 0 -250 1607 2618 l -7 -4 1574 2739 l -4 -12 c 0 -7 c 4 -11 c 11 -8 c 19 -4 c 19 0 c
15 4 c 8 8 c 3 11 c 0 4 c -3 11 c -8 8 c -11 3 c -4 0 c -11 -3 c -8 -8 c -4 -11 c 0 -4 c 4 -11 c 8 -8 c 11 -4 c 0 41 1563 2773 l
30 -23 c 0 12 c 4 7 c 4 4 c 11 4 c 8 0 c 11 -4 c 8 -7 c 3 -12 c 0 -11 c -3 -11 c -4 -4 c -8 -4 c 0 -38 1563 2886 l 34 -4 c -4 4 c
-3 12 c 0 11 c 3 11 c 8 8 c 11 4 c 8 0 c 11 -4 c 8 -8 c 3 -11 c 0 -11 c -3 -12 c -4 -4 c -8 -3 c 0 -38 1563 2962 l 34 -4 c -4 4 c
-3 11 c 0 11 c 3 12 c 8 7 c 11 4 c 8 0 c 11 -4 c 8 -7 c 3 -12 c 0 -11 c -3 -11 c -4 -4 c -8 -4 c 4 -3 1635 2999 l 3 3 c -3 4 c
-4 -4 c 11 -4 1590 3079 l 7 -8 c 4 -11 c 0 -4 c -4 -11 c -7 -8 c -11 -3 c -4 0 c -12 3 c -7 8 c -4 11 c 0 4 c 4 11 c 7 8 c 16 4 c
18 0 c 19 -4 c 12 -8 c 3 -11 c 0 -8 c -3 -11 c -8 -4 c -4 7 1578 3117 l -11 11 c 79 0 c -4 8 1578 3192 l -11 11 c 79 0 c
0 -250 1867 1651 l -8 -4 1835 1772 l -3 -11 c 0 -8 c 3 -11 c 12 -8 c 19 -3 c 19 0 c 15 3 c 7 8 c 4 11 c 0 4 c -4 11 c -7 8 c -12 4 c
-3 0 c -12 -4 c -7 -8 c -4 -11 c 0 -4 c 4 -11 c 7 -8 c 12 -3 c 0 42 1824 1806 l 30 -23 c 0 11 c 4 8 c 3 4 c 12 3 c 7 0 c 12 -3 c
7 -8 c 4 -11 c 0 -12 c -4 -11 c -4 -4 c -7 -4 c 0 -37 1824 1919 l 34 -4 c -4 4 c -4 11 c 0 11 c 4 12 c 7 7 c 12 4 c 7 0 c 12 -4 c
7 -7 c 4 -12 c 0 -11 c -4 -11 c -4 -4 c -7 -4 c 3 -12 1824 1969 l 8 -4 c 8 0 c 7 4 c 4 8 c 4 15 c 3 11 c 8 8 c 8 4 c 11 0 c 7 -4 c
4 -4 c 4 -11 c 0 -15 c -4 -12 c -4 -4 c -7 -3 c -11 0 c -8 3 c -8 8 c -3 11 c -4 15 c -4 8 c -7 4 c -8 0 c -8 -4 c -3 -11 c 0 -15 c
4 -4 1895 2033 l 4 4 c -4 4 c -4 -4 c -8 -4 1835 2112 l -3 -11 c 0 -8 c 3 -11 c 12 -7 c 19 -4 c 19 0 c 15 4 c 7 7 c 4 11 c 0 4 c
-4 12 c -7 7 c -12 4 c -3 0 c -12 -4 c -7 -7 c -4 -12 c 0 -4 c 4 -11 c 7 -7 c 12 -4 c -4 0 1843 2142 l -8 4 c -4 4 c -3 7 c 0 16 c
3 7 c 4 4 c 8 4 c 7 0 c 8 -4 c 11 -8 c 38 -37 c 0 53 c -4 7 1839 2226 l -11 11 c 79 0 c 0 -249 1968 1416 l -8 -3 1936 1537 l
-4 -12 c 0 -7 c 4 -12 c 11 -7 c 19 -4 c 19 0 c 15 4 c 8 7 c 4 12 c 0 3 c -4 12 c -8 7 c -11 4 c -4 0 c -11 -4 c -8 -7 c -3 -12 c
0 -3 c 3 -12 c 8 -7 c 11 -4 c 0 42 1924 1571 l 31 -23 c 0 12 c 3 7 c 4 4 c 11 4 c 8 0 c 11 -4 c 8 -8 c 4 -11 c 0 -11 c -4 -12 c
-4 -3 c -7 -4 c 0 -38 1924 1685 l 34 -4 c -3 4 c -4 11 c 0 12 c 4 11 c 7 8 c 11 3 c 8 0 c 11 -3 c 8 -8 c 4 -11 c 0 -12 c -4 -11 c
-4 -4 c -7 -4 c 11 -4 1951 1764 l 8 -7 c 3 -12 c 0 -3 c -3 -12 c -8 -7 c -11 -4 c -4 0 c -11 4 c -8 7 c -4 12 c 0 3 c 4 12 c 8 7 c
15 4 c 19 0 c 19 -4 c 11 -7 c 4 -12 c 0 -7 c -4 -11 c -8 -4 c 4 -4 1996 1798 l 4 4 c -4 4 c -4 -4 c -8 -3 1936 1877 l -4 -12 c
0 -7 c 4 -12 c 11 -7 c 19 -4 c 19 0 c 15 4 c 8 7 c 4 12 c 0 4 c -4 11 c -8 7 c -11 4 c -4 0 c -11 -4 c -8 -7 c -3 -11 c 0 -4 c
3 -12 c 8 -7 c 11 -4 c 80 -38 1924 1957 l 0 53 1924 1904 l 53 -37 1924 2017 l 0 56 c 80 0 1924 2017 l 0 -249 2217 1383 l
-7 -4 2184 1504 l -4 -11 c 0 -8 c 4 -11 c 11 -7 c 19 -4 c 19 0 c 15 4 c 8 7 c 3 11 c 0 4 c -3 12 c -8 7 c -11 4 c -4 0 c -11 -4 c
-8 -7 c -4 -12 c 0 -4 c 4 -11 c 8 -7 c 11 -4 c 0 42 2173 1538 l 30 -23 c 0 11 c 4 8 c 4 4 c 11 3 c 8 0 c 11 -3 c 8 -8 c 3 -11 c
0 -12 c -3 -11 c -4 -4 c -8 -3 c -7 -3 2184 1655 l -4 -12 c 0 -7 c 4 -12 c 11 -7 c 19 -4 c 19 0 c 15 4 c 8 7 c 3 12 c 0 3 c -3 12 c
-8 7 c -11 4 c -4 0 c -11 -4 c -8 -7 c -4 -12 c 0 -3 c 4 -12 c 8 -7 c 11 -4 c -4 0 2192 1686 l -7 3 c -4 4 c -4 8 c 0 15 c 4 7 c
4 4 c 7 4 c 8 0 c 7 -4 c 12 -7 c 37 -38 c 0 53 c 4 -4 2245 1765 l 3 4 c -3 4 c -4 -4 c -4 0 2192 1799 l -7 4 c -4 3 c -4 8 c 0 15 c
4 8 c 4 3 c 7 4 c 8 0 c 7 -4 c 12 -7 c 37 -38 c 0 53 c 0 -38 2173 1916 l 34 -4 c -4 4 c -3 12 c 0 11 c 3 11 c 8 8 c 11 4 c 8 0 c
11 -4 c 8 -8 c 3 -11 c 0 -11 c -3 -12 c -4 -4 c -8 -3 c -4 0 2192 1950 l -7 4 c -4 4 c -4 7 c 0 15 c 4 8 c 4 4 c 7 3 c 8 0 c 7 -3 c
12 -8 c 37 -38 c 0 53 c 0 -250 2884 1708 l -7 -4 2851 1829 l -4 -11 c 0 -8 c 4 -11 c 11 -8 c 19 -3 c 19 0 c 15 3 c 8 8 c 3 11 c
0 4 c -3 11 c -8 8 c -11 4 c -4 0 c -11 -4 c -8 -8 c -4 -11 c 0 -4 c 4 -11 c 8 -8 c 11 -3 c 0 41 2840 1863 l 30 -22 c 0 11 c 4 8 c
4 3 c 11 4 c 8 0 c 11 -4 c 8 -7 c 3 -11 c 0 -12 c -3 -11 c -4 -4 c -8 -4 c -7 -4 2851 1980 l -4 -11 c 0 -8 c 4 -11 c 11 -8 c 19 -3 c
19 0 c 15 3 c 8 8 c 3 11 c 0 4 c -3 11 c -8 8 c -11 4 c -4 0 c -11 -4 c -8 -8 c -4 -11 c 0 -4 c 4 -11 c 8 -8 c 11 -3 c
11 -4 2867 2056 l 7 -8 c 4 -11 c 0 -4 c -4 -11 c -7 -8 c -11 -4 c -4 0 c -12 4 c -7 8 c -4 11 c 0 4 c 4 11 c 7 8 c 16 4 c 18 0 c
19 -4 c 12 -8 c 3 -11 c 0 -8 c -3 -11 c -8 -4 c 4 -4 2912 2090 l 3 4 c -3 3 c -4 -3 c -4 8 2855 2131 l -11 11 c 79 0 c
0 42 2840 2203 l 30 -23 c 0 11 c 4 8 c 4 4 c 11 3 c 8 0 c 11 -3 c 8 -8 c 3 -11 c 0 -12 c -3 -11 c -4 -4 c -8 -4 c 11 -4 2867 2320 l
7 -7 c 4 -11 c 0 -4 c -4 -12 c -7 -7 c -11 -4 c -4 0 c -12 4 c -7 7 c -4 12 c 0 4 c 4 11 c 7 7 c 16 4 c 18 0 c 19 -4 c 12 -7 c
3 -11 c 0 -8 c -3 -11 c -8 -4 c 0 -250 2928 2446 l -8 -4 2896 2567 l -4 -12 c 0 -7 c 4 -11 c 11 -8 c 19 -4 c 19 0 c 15 4 c 8 8 c
4 11 c 0 4 c -4 11 c -8 8 c -11 3 c -4 0 c -11 -3 c -8 -8 c -3 -11 c 0 -4 c 3 -11 c 8 -8 c 11 -4 c 0 41 2884 2601 l 31 -23 c 0 12 c
3 7 c 4 4 c 11 4 c 8 0 c 11 -4 c 8 -7 c 4 -12 c 0 -11 c -4 -11 c -4 -4 c -7 -4 c -8 -4 2896 2718 l -4 -11 c 0 -8 c 4 -11 c 11 -8 c
19 -4 c 19 0 c 15 4 c 8 8 c 4 11 c 0 4 c -4 11 c -8 8 c -11 4 c -4 0 c -11 -4 c -8 -8 c -3 -11 c 0 -4 c 3 -11 c 8 -8 c 11 -4 c
11 -3 2911 2793 l 8 -8 c 3 -11 c 0 -4 c -3 -11 c -8 -8 c -11 -4 c -4 0 c -11 4 c -8 8 c -4 11 c 0 4 c 4 11 c 8 8 c 15 3 c 19 0 c
19 -3 c 11 -8 c 4 -11 c 0 -8 c -4 -11 c -8 -4 c 4 -3 2956 2827 l 4 3 c -4 4 c -4 -4 c 0 -38 2884 2903 l 34 -4 c -3 4 c -4 11 c
0 12 c 4 11 c 7 8 c 11 3 c 8 0 c 11 -3 c 8 -8 c 4 -11 c 0 -12 c -4 -11 c -4 -4 c -7 -3 c 80 -38 2884 2986 l 0 53 2884 2933 l
0 -38 2884 3054 l 34 -3 c -3 3 c -4 12 c 0 11 c 4 11 c 7 8 c 11 4 c 8 0 c 11 -4 c 8 -8 c 4 -11 c 0 -11 c -4 -12 c -4 -3 c -7 -4 c
0 -249 3159 4056 l -8 -3 3127 4177 l -4 -12 c 0 -7 c 4 -12 c 12 -7 c 18 -4 c 19 0 c 15 4 c 8 7 c 4 12 c 0 3 c -4 12 c -8 7 c -11 4 c
-4 0 c -11 -4 c -8 -7 c -3 -12 c 0 -3 c 3 -12 c 8 -7 c 11 -4 c 0 42 3115 4211 l 31 -23 c 0 12 c 3 7 c 4 4 c 12 4 c 7 0 c 11 -4 c
8 -8 c 4 -11 c 0 -11 c -4 -12 c -4 -3 c -7 -4 c 80 -38 3115 4332 l 0 53 3115 4279 l -4 8 3131 4366 l -12 11 c 80 0 c
4 -4 3187 4438 l 4 4 c -4 4 c -4 -4 c 11 -3 3142 4517 l 8 -8 c 4 -11 c 0 -4 c -4 -11 c -8 -8 c -11 -4 c -4 0 c -11 4 c -8 8 c
-4 11 c 0 4 c 4 11 c 8 8 c 15 3 c 19 0 c 19 -3 c 11 -8 c 4 -11 c 0 -8 c -4 -11 c -8 -4 c 53 -38 3115 4582 l 0 57 c 80 0 3115 4582 l
53 -37 3115 4657 l 0 56 c 80 0 3115 4657 l 0 -249 3649 5191 l -8 -3 3617 5312 l -3 -12 c 0 -7 c 3 -12 c 12 -7 c 19 -4 c 19 0 c
15 4 c 7 7 c 4 12 c 0 4 c -4 11 c -7 7 c -12 4 c -3 0 c -12 -4 c -7 -7 c -4 -11 c 0 -4 c 4 -12 c 7 -7 c 12 -4 c 0 42 3606 5346 l
30 -23 c 0 12 c 4 7 c 3 4 c 12 4 c 7 0 c 12 -4 c 7 -8 c 4 -11 c 0 -11 c -4 -12 c -3 -3 c -8 -4 c 79 -37 3606 5467 l 0 53 3606 5414 l
-8 -4 3617 5539 l -3 -11 c 0 -7 c 3 -12 c 12 -7 c 19 -4 c 19 0 c 15 4 c 7 7 c 4 12 c 0 3 c -4 12 c -7 7 c -12 4 c -3 0 c -12 -4 c
-7 -7 c -4 -12 c 0 -3 c 4 -12 c 7 -7 c 12 -4 c 3 -4 3678 5573 l 4 4 c -4 4 c -3 -4 c 11 -4 3632 5653 l 8 -8 c 4 -11 c 0 -4 c
-4 -11 c -8 -8 c -11 -4 c -4 0 c -11 4 c -8 8 c -3 11 c 0 4 c 3 11 c 8 8 c 15 4 c 19 0 c 19 -4 c 11 -8 c 4 -11 c 0 -8 c -4 -11 c
-7 -4 c 0 41 3606 5687 l 30 -22 c 0 11 c 4 7 c 3 4 c 12 4 c 7 0 c 12 -4 c 7 -7 c 4 -12 c 0 -11 c -4 -11 c -3 -4 c -8 -4 c
-4 8 3621 5766 l -11 11 c 79 0 c 0 -249 3921 1489 l -7 -3 3889 1610 l -4 -12 c 0 -7 c 4 -12 c 11 -7 c 19 -4 c 19 0 c 15 4 c 7 7 c
4 12 c 0 4 c -4 11 c -7 7 c -12 4 c -3 0 c -12 -4 c -7 -7 c -4 -11 c 0 -4 c 4 -12 c 7 -7 c 12 -4 c 0 42 3878 1644 l 30 -23 c 0 12 c
4 7 c 4 4 c 11 4 c 7 0 c 12 -4 c 7 -8 c 4 -11 c 0 -11 c -4 -12 c -3 -3 c -8 -4 c 79 -37 3878 1765 l 0 53 3878 1712 l
12 -4 3904 1837 l 7 -7 c 4 -11 c 0 -4 c -4 -12 c -7 -7 c -12 -4 c -4 0 c -11 4 c -7 7 c -4 12 c 0 4 c 4 11 c 7 7 c 15 4 c 19 0 c
19 -4 c 11 -7 c 4 -11 c 0 -8 c -4 -11 c -7 -4 c 3 -4 3950 1871 l 4 4 c -4 4 c -3 -4 c -7 -4 3889 1951 l -4 -12 c 0 -7 c 4 -11 c
11 -8 c 19 -4 c 19 0 c 15 4 c 7 8 c 4 11 c 0 4 c -4 11 c -7 8 c -12 3 c -3 0 c -12 -3 c -7 -8 c -4 -11 c 0 -4 c 4 -11 c 7 -8 c
12 -4 c 79 -38 3878 2030 l 0 53 3878 1977 l 0 42 3878 2060 l 30 -23 c 0 11 c 4 8 c 4 4 c 11 4 c 7 0 c 12 -4 c 7 -8 c 4 -11 c 0 -11 c
-4 -12 c -3 -4 c -8 -3 c 0 -250 4422 4974 l -8 -4 4390 5095 l -3 -11 c 0 -8 c 3 -11 c 12 -8 c 19 -4 c 18 0 c 16 4 c 7 8 c 4 11 c
0 4 c -4 11 c -7 8 c -12 3 c -4 0 c -11 -3 c -7 -8 c -4 -11 c 0 -4 c 4 -11 c 7 -8 c 11 -4 c 0 41 4379 5129 l 30 -22 c 0 11 c 4 7 c
3 4 c 12 4 c 7 0 c 12 -4 c 7 -7 c 4 -12 c 0 -11 c -4 -11 c -4 -4 c -7 -4 c 3 -12 4379 5216 l 8 -4 c 7 0 c 8 4 c 4 8 c 4 15 c 3 11 c
8 8 c 7 4 c 12 0 c 7 -4 c 4 -4 c 4 -11 c 0 -15 c -4 -12 c -4 -4 c -7 -3 c -12 0 c -7 3 c -8 8 c -3 11 c -4 16 c -4 7 c -8 4 c -7 0 c
-8 -4 c -3 -11 c 0 -15 c 52 -38 4379 5310 l 0 57 c 79 0 4379 5310 l 4 -3 4450 5355 l 4 3 c -4 4 c -4 -4 c 79 -38 4379 5439 l
0 53 4379 5386 l -4 7 4394 5473 l -11 12 c 79 0 c 79 -38 4379 5590 l 0 53 4379 5537 l 0 -249 4690 3223 l -8 -3 4658 3344 l -4 -12 c
0 -7 c 4 -12 c 11 -7 c 19 -4 c 19 0 c 15 4 c 8 7 c 4 12 c 0 3 c -4 12 c -8 7 c -11 4 c -4 0 c -11 -4 c -8 -7 c -4 -12 c 0 -3 c
4 -12 c 8 -7 c 11 -4 c 0 42 4646 3378 l 30 -23 c 0 12 c 4 7 c 4 4 c 11 4 c 8 0 c 11 -4 c 8 -8 c 4 -11 c 0 -11 c -4 -12 c -4 -3 c
-8 -4 c 4 -11 4646 3465 l 8 -4 c 7 0 c 8 4 c 3 8 c 4 15 c 4 11 c 8 8 c 7 3 c 11 0 c 8 -3 c 4 -4 c 4 -12 c 0 -15 c -4 -11 c -4 -4 c
-8 -4 c -11 0 c -7 4 c -8 8 c -4 11 c -4 15 c -3 8 c -8 4 c -7 0 c -8 -4 c -4 -12 c 0 -15 c 80 -38 4646 3575 l 0 53 4646 3522 l
4 -4 4718 3605 l 4 4 c -4 4 c -4 -4 c 0 41 4646 3643 l 30 -22 c 0 11 c 4 8 c 4 3 c 11 4 c 8 0 c 11 -4 c 8 -7 c 4 -11 c 0 -12 c
-4 -11 c -4 -4 c -8 -4 c 11 -4 4673 3760 l 8 -7 c 3 -12 c 0 -3 c -3 -12 c -8 -7 c -11 -4 c -4 0 c -11 4 c -8 7 c -4 12 c 0 3 c
4 12 c 8 7 c 15 4 c 19 0 c 18 -4 c 12 -7 c 4 -12 c 0 -7 c -4 -11 c -8 -4 c -8 -4 4658 3836 l -4 -11 c 0 -8 c 4 -11 c 11 -8 c 19 -4 c
19 0 c 15 4 c 8 8 c 4 11 c 0 4 c -4 11 c -8 8 c -11 3 c -4 0 c -11 -3 c -8 -8 c -4 -11 c 0 -4 c 4 -11 c 8 -8 c 11 -4 c
0 -249 4832 1600 l -8 -3 4800 1721 l -4 -12 c 0 -7 c 4 -12 c 11 -7 c 19 -4 c 19 0 c 15 4 c 8 7 c 4 12 c 0 3 c -4 12 c -8 7 c -11 4 c
-4 0 c -11 -4 c -8 -7 c -3 -12 c 0 -3 c 3 -12 c 8 -7 c 11 -4 c 0 42 4788 1755 l 31 -23 c 0 12 c 3 7 c 4 4 c 11 4 c 8 0 c 11 -4 c
8 -8 c 4 -11 c 0 -11 c -4 -12 c -4 -3 c -7 -4 c 4 -11 4788 1842 l 8 -4 c 7 0 c 8 4 c 4 7 c 3 16 c 4 11 c 8 7 c 7 4 c 12 0 c 7 -4 c
4 -3 c 4 -12 c 0 -15 c -4 -11 c -4 -4 c -7 -4 c -12 0 c -7 4 c -8 8 c -4 11 c -3 15 c -4 8 c -8 3 c -7 0 c -8 -3 c -4 -12 c 0 -15 c
4 -11 4788 1918 l 8 -4 c 7 0 c 8 4 c 4 7 c 3 15 c 4 12 c 8 7 c 7 4 c 12 0 c 7 -4 c 4 -4 c 4 -11 c 0 -15 c -4 -11 c -4 -4 c -7 -4 c
-12 0 c -7 4 c -8 7 c -4 12 c -3 15 c -4 7 c -8 4 c -7 0 c -8 -4 c -4 -11 c 0 -15 c 4 -4 4860 1982 l 4 4 c -4 4 c -4 -4 c
4 -11 4788 2031 l 8 -4 c 7 0 c 8 4 c 4 7 c 3 16 c 4 11 c 8 7 c 7 4 c 12 0 c 7 -4 c 4 -3 c 4 -12 c 0 -15 c -4 -11 c -4 -4 c -7 -4 c
-12 0 c -7 4 c -8 8 c -4 11 c -3 15 c -4 8 c -8 3 c -7 0 c -8 -3 c -4 -12 c 0 -15 c -3 8 4803 2099 l -12 11 c 80 0 c
0 42 4788 2171 l 31 -23 c 0 11 c 3 8 c 4 4 c 11 3 c 8 0 c 11 -3 c 8 -8 c 4 -11 c 0 -12 c -4 -11 c -4 -4 c -7 -3 c 0 -250 4964 1346 l
-8 -4 4932 1467 l -4 -12 c 0 -7 c 4 -11 c 11 -8 c 19 -4 c 19 0 c 15 4 c 8 8 c 4 11 c 0 4 c -4 11 c -8 8 c -11 3 c -4 0 c -11 -3 c
-8 -8 c -4 -11 c 0 -4 c 4 -11 c 8 -8 c 11 -4 c 0 41 4920 1501 l 30 -22 c 0 11 c 4 7 c 4 4 c 11 4 c 8 0 c 11 -4 c 8 -7 c 4 -12 c
0 -11 c -4 -11 c -4 -4 c -8 -4 c 11 -4 4947 1618 l 8 -8 c 3 -11 c 0 -4 c -3 -11 c -8 -8 c -11 -3 c -4 0 c -11 3 c -8 8 c -4 11 c
0 4 c 4 11 c 8 8 c 15 4 c 19 0 c 18 -4 c 12 -8 c 4 -11 c 0 -7 c -4 -12 c -8 -4 c 4 -11 4920 1667 l 11 -8 c 19 -4 c 12 0 c 18 4 c
12 8 c 4 11 c 0 7 c -4 12 c -12 7 c -18 4 c -12 0 c -19 -4 c -11 -7 c -4 -12 c 0 -7 c 4 -3 4992 1727 l 4 3 c -4 4 c -4 -4 c
-3 8 4935 1769 l -12 11 c 80 0 c -4 0 4939 1837 l -7 4 c -4 4 c -4 7 c 0 15 c 4 8 c 4 4 c 7 3 c 8 0 c 7 -3 c 12 -8 c 38 -38 c 0 53 c
11 -4 4947 1958 l 8 -7 c 3 -12 c 0 -4 c -3 -11 c -8 -7 c -11 -4 c -4 0 c -11 4 c -8 7 c -4 11 c 0 4 c 4 12 c 8 7 c 15 4 c 19 0 c
18 -4 c 12 -7 c 4 -12 c 0 -7 c -4 -12 c -8 -3 c 0 -250 5360 1519 l -8 -3 5328 1639 l -4 -12 c 0 -7 c 4 -12 c 11 -7 c 19 -4 c 19 0 c
15 4 c 8 7 c 4 12 c 0 4 c -4 11 c -8 7 c -11 4 c -4 0 c -11 -4 c -8 -7 c -4 -11 c 0 -4 c 4 -12 c 8 -7 c 11 -4 c 0 42 5316 1673 l
30 -23 c 0 12 c 4 7 c 4 4 c 11 4 c 8 0 c 11 -4 c 8 -8 c 4 -11 c 0 -11 c -4 -12 c -4 -3 c -8 -4 c 11 -4 5343 1791 l 8 -8 c 3 -11 c
0 -4 c -3 -11 c -8 -8 c -11 -4 c -4 0 c -11 4 c -8 8 c -4 11 c 0 4 c 4 11 c 8 8 c 15 4 c 19 0 c 18 -4 c 12 -8 c 4 -11 c 0 -8 c
-4 -11 c -8 -4 c 53 -38 5316 1855 l 0 57 c 80 0 5316 1855 l 4 -4 5388 1900 l 4 4 c -4 4 c -4 -4 c 4 -11 5316 1953 l 11 -8 c 19 -4 c
12 0 c 18 4 c 12 8 c 4 11 c 0 8 c -4 11 c -12 8 c -18 3 c -12 0 c -19 -3 c -11 -8 c -4 -11 c 0 -8 c 0 -37 5316 2051 l 34 -4 c -4 4 c
-3 11 c 0 11 c 3 12 c 8 7 c 11 4 c 8 0 c 11 -4 c 8 -7 c 4 -12 c 0 -11 c -4 -11 c -4 -4 c -8 -4 c 4 -11 5316 2104 l 11 -8 c 19 -3 c
12 0 c 18 3 c 12 8 c 4 11 c 0 8 c -4 11 c -12 8 c -18 4 c -12 0 c -19 -4 c -11 -8 c -4 -11 c 0 -8 c 0 -249 6037 1704 l
-7 -4 6005 1825 l -4 -11 c 0 -7 c 4 -12 c 11 -7 c 19 -4 c 19 0 c 15 4 c 7 7 c 4 12 c 0 3 c -4 12 c -7 7 c -11 4 c -4 0 c -12 -4 c
-7 -7 c -4 -12 c 0 -3 c 4 -12 c 7 -7 c 12 -4 c 53 -37 5994 1889 l 0 56 c 79 0 5994 1889 l 4 -11 5994 1950 l 11 -8 c 19 -4 c 11 0 c
19 4 c 11 8 c 4 11 c 0 7 c -4 12 c -11 7 c -19 4 c -11 0 c -19 -4 c -11 -7 c -4 -12 c 0 -7 c 4 -11 5994 2025 l 11 -7 c 19 -4 c
11 0 c 19 4 c 11 7 c 4 11 c 0 8 c -4 11 c -11 8 c -19 4 c -11 0 c -19 -4 c -11 -8 c -4 -11 c 0 -8 c 3 -4 6066 2086 l 4 4 c -4 4 c
-3 -4 c -7 -3 6005 2165 l -4 -12 c 0 -7 c 4 -12 c 11 -7 c 19 -4 c 19 0 c 15 4 c 7 7 c 4 12 c 0 3 c -4 12 c -7 7 c -11 4 c -4 0 c
-12 -4 c -7 -7 c -4 -12 c 0 -3 c 4 -12 c 7 -7 c 12 -4 c 12 -4 6020 2241 l 7 -7 c 4 -12 c 0 -4 c -4 -11 c -7 -7 c -12 -4 c -3 0 c
-12 4 c -7 7 c -4 11 c 0 4 c 4 12 c 7 7 c 15 4 c 19 0 c 19 -4 c 11 -7 c 4 -12 c 0 -7 c -4 -12 c -7 -3 c -7 -4 6005 2317 l -4 -12 c
0 -7 c 4 -11 c 11 -8 c 19 -4 c 19 0 c 15 4 c 7 8 c 4 11 c 0 4 c -4 11 c -7 8 c -11 3 c -4 0 c -12 -3 c -7 -8 c -4 -11 c 0 -4 c
4 -11 c 7 -8 c 12 -4 c 0 -249 6273 1584 l -7 -4 6241 1705 l -4 -11 c 0 -7 c 4 -12 c 11 -7 c 19 -4 c 19 0 c 15 4 c 7 7 c 4 12 c 0 3 c
-4 12 c -7 7 c -12 4 c -3 0 c -12 -4 c -7 -7 c -4 -12 c 0 -3 c 4 -12 c 7 -7 c 12 -4 c 53 -37 6230 1769 l 0 56 c 79 0 6230 1769 l
4 -11 6230 1830 l 11 -8 c 19 -4 c 11 0 c 19 4 c 11 8 c 4 11 c 0 8 c -4 11 c -11 7 c -19 4 c -11 0 c -19 -4 c -11 -7 c -4 -11 c
0 -8 c 0 42 6230 1890 l 30 -23 c 0 12 c 4 7 c 4 4 c 11 4 c 7 0 c 12 -4 c 7 -8 c 4 -11 c 0 -11 c -4 -12 c -3 -3 c -8 -4 c
3 -4 6302 1966 l 4 4 c -4 4 c -3 -4 c 4 -11 6230 2019 l 11 -8 c 19 -4 c 11 0 c 19 4 c 11 8 c 4 11 c 0 7 c -4 12 c -11 7 c -19 4 c
-11 0 c -19 -4 c -11 -7 c -4 -12 c 0 -7 c -4 8 6245 2083 l -11 11 c 79 0 c 0 42 6230 2155 l 30 -23 c 0 11 c 4 8 c 4 4 c 11 3 c 7 0 c
12 -3 c 7 -8 c 4 -11 c 0 -12 c -4 -11 c -3 -4 c -8 -4 c 0 -249 6629 3159 l -7 -3 6597 3280 l -4 -12 c 0 -7 c 4 -12 c 11 -7 c 19 -4 c
19 0 c 15 4 c 7 7 c 4 12 c 0 3 c -4 12 c -7 7 c -12 4 c -3 0 c -12 -4 c -7 -7 c -4 -12 c 0 -3 c 4 -12 c 7 -7 c 12 -4 c
53 -38 6586 3345 l 0 57 c 79 0 6586 3345 l 4 -11 6586 3405 l 11 -8 c 19 -4 c 11 0 c 19 4 c 11 8 c 4 11 c 0 8 c -4 11 c -11 8 c
-19 3 c -11 0 c -19 -3 c -11 -8 c -4 -11 c 0 -8 c -7 -4 6597 3507 l -4 -11 c 0 -8 c 4 -11 c 11 -7 c 19 -4 c 19 0 c 15 4 c 7 7 c
4 11 c 0 4 c -4 12 c -7 7 c -12 4 c -3 0 c -12 -4 c -7 -7 c -4 -12 c 0 -4 c 4 -11 c 7 -7 c 12 -4 c 3 -4 6658 3541 l 4 4 c -4 4 c
-3 -4 c 53 -38 6586 3609 l 0 57 c 79 0 6586 3609 l 53 -38 6586 3685 l 0 57 c 79 0 6586 3685 l -7 -4 6597 3772 l -4 -11 c 0 -8 c
4 -11 c 11 -8 c 19 -4 c 19 0 c 15 4 c 7 8 c 4 11 c 0 4 c -4 11 c -7 8 c -12 4 c -3 0 c -12 -4 c -7 -8 c -4 -11 c 0 -4 c 4 -11 c
7 -8 c 12 -4 c 0 -249 7197 7019 l -7 -4 7164 7140 l -4 -11 c 0 -8 c 4 -11 c 11 -8 c 19 -3 c 19 0 c 15 3 c 8 8 c 3 11 c 0 4 c -3 11 c
-8 8 c -11 4 c -4 0 c -11 -4 c -8 -8 c -4 -11 c 0 -4 c 4 -11 c 8 -8 c 11 -3 c 53 -37 7153 7204 l 0 56 c 79 0 7153 7204 l
-4 8 7168 7253 l -11 11 c 79 0 c -4 8 7168 7329 l -11 11 c 79 0 c 4 -4 7225 7401 l 3 4 c -3 4 c -4 -4 c 4 -11 7153 7450 l 7 -4 c
8 0 c 7 4 c 4 7 c 4 15 c 4 12 c 7 7 c 8 4 c 11 0 c 8 -4 c 4 -4 c 3 -11 c 0 -15 c -3 -11 c -4 -4 c -8 -4 c -11 0 c -8 4 c -7 7 c
-4 12 c -4 15 c -4 7 c -7 4 c -8 0 c -7 -4 c -4 -11 c 0 -15 c 12 -4 7179 7556 l 7 -8 c 4 -11 c 0 -4 c -4 -11 c -7 -8 c -12 -3 c
-3 0 c -12 3 c -7 8 c -4 11 c 0 4 c 4 11 c 7 8 c 15 4 c 19 0 c 19 -4 c 12 -8 c 3 -11 c 0 -7 c -3 -12 c -8 -4 c 12 -3 7179 7631 l
7 -8 c 4 -11 c 0 -4 c -4 -11 c -7 -8 c -12 -4 c -3 0 c -12 4 c -7 8 c -4 11 c 0 4 c 4 11 c 7 8 c 15 3 c 19 0 c 19 -3 c 12 -8 c
3 -11 c 0 -8 c -3 -11 c -8 -4 c 0 -250 7376 2522 l -8 -4 7344 2643 l -3 -12 c 0 -7 c 3 -11 c 12 -8 c 19 -4 c 18 0 c 16 4 c 7 8 c
4 11 c 0 4 c -4 11 c -7 8 c -12 3 c -4 0 c -11 -3 c -7 -8 c -4 -11 c 0 -4 c 4 -11 c 7 -8 c 11 -4 c 52 -38 7333 2707 l 0 57 c
79 0 7333 2707 l -4 8 7348 2756 l -11 11 c 79 0 c 0 41 7333 2828 l 30 -22 c 0 11 c 4 8 c 3 3 c 12 4 c 7 0 c 12 -4 c 7 -7 c 4 -12 c
0 -11 c -4 -11 c -4 -4 c -7 -4 c 4 -3 7404 2903 l 4 3 c -4 4 c -4 -4 c -8 -4 7344 2983 l -3 -11 c 0 -8 c 3 -11 c 12 -8 c 19 -4 c
18 0 c 16 4 c 7 8 c 4 11 c 0 4 c -4 11 c -7 8 c -12 4 c -4 0 c -11 -4 c -7 -8 c -4 -11 c 0 -4 c 4 -11 c 7 -8 c 11 -4 c
-4 7 7348 3021 l -11 11 c 79 0 c 52 -38 7333 3123 l 0 57 c 79 0 7333 3123 l 0 -249 7660 7019 l -7 -4 7627 7140 l -4 -11 c 0 -8 c
4 -11 c 11 -8 c 19 -3 c 19 0 c 15 3 c 8 8 c 3 11 c 0 4 c -3 11 c -8 8 c -11 4 c -4 0 c -11 -4 c -8 -8 c -4 -11 c 0 -4 c 4 -11 c
8 -8 c 11 -3 c 53 -37 7616 7204 l 0 56 c 79 0 7616 7204 l -4 8 7631 7253 l -11 11 c 79 0 c -7 -4 7627 7367 l -4 -11 c 0 -8 c 4 -11 c
11 -8 c 19 -4 c 19 0 c 15 4 c 8 8 c 3 11 c 0 4 c -3 11 c -8 8 c -11 4 c -4 0 c -11 -4 c -8 -8 c -4 -11 c 0 -4 c 4 -11 c 8 -8 c
11 -4 c 4 -4 7688 7401 l 3 4 c -3 4 c -4 -4 c 0 41 7616 7439 l 30 -22 c 0 11 c 4 7 c 4 4 c 11 4 c 8 0 c 11 -4 c 8 -7 c 3 -12 c
0 -11 c -3 -11 c -4 -4 c -8 -4 c 4 -11 7616 7529 l 11 -8 c 19 -3 c 11 0 c 19 3 c 12 8 c 3 11 c 0 8 c -3 11 c -12 8 c -19 4 c -11 0 c
-19 -4 c -11 -8 c -4 -11 c 0 -8 c 79 -38 7616 7635 l 0 53 7616 7582 l 0 -250 8563 1444 l -7 -4 8531 1565 l -4 -11 c 0 -8 c 4 -11 c
11 -8 c 19 -3 c 19 0 c 15 3 c 7 8 c 4 11 c 0 4 c -4 11 c -7 8 c -12 4 c -3 0 c -12 -4 c -7 -8 c -4 -11 c 0 -4 c 4 -11 c 7 -8 c
12 -3 c 53 -38 8520 1629 l 0 57 c 79 0 8520 1629 l -4 0 8539 1671 l -8 4 c -3 3 c -4 8 c 0 15 c 4 8 c 3 3 c 8 4 c 7 0 c 8 -4 c
11 -7 c 38 -38 c 0 53 c 53 -37 8520 1780 l 0 56 c 79 0 8520 1780 l 3 -4 8592 1826 l 4 4 c -4 3 c -3 -3 c 4 -12 8520 1875 l 7 -3 c
8 0 c 7 3 c 4 8 c 4 15 c 4 12 c 7 7 c 8 4 c 11 0 c 8 -4 c 3 -4 c 4 -11 c 0 -15 c -4 -12 c -3 -3 c -8 -4 c -11 0 c -8 4 c -7 7 c
-4 12 c -4 15 c -4 7 c -7 4 c -8 0 c -7 -4 c -4 -11 c 0 -15 c -4 7 8535 1943 l -11 12 c 79 0 c 0 41 8520 2015 l 30 -22 c 0 11 c
4 7 c 4 4 c 11 4 c 7 0 c 12 -4 c 7 -7 c 4 -12 c 0 -11 c -4 -11 c -3 -4 c -8 -4 c 0 -250 8989 1300 l -8 -4 8957 1421 l -3 -11 c
0 -8 c 3 -11 c 12 -8 c 19 -3 c 19 0 c 15 3 c 7 8 c 4 11 c 0 4 c -4 11 c -7 8 c -12 4 c -3 0 c -12 -4 c -7 -8 c -4 -11 c 0 -4 c
4 -11 c 7 -8 c 12 -3 c 53 -38 8946 1485 l 0 57 c 79 0 8946 1485 l -4 0 8965 1527 l -8 4 c -4 3 c -3 8 c 0 15 c 3 8 c 4 3 c 8 4 c
7 0 c 8 -4 c 11 -7 c 38 -38 c 0 53 c 3 -12 8946 1618 l 8 -4 c 8 0 c 7 4 c 4 8 c 4 15 c 3 11 c 8 8 c 8 4 c 11 0 c 7 -4 c 4 -4 c
4 -11 c 0 -15 c -4 -12 c -4 -4 c -7 -3 c -11 0 c -8 3 c -8 8 c -3 11 c -4 15 c -4 8 c -7 4 c -8 0 c -8 -4 c -3 -11 c 0 -15 c
4 -4 9017 1682 l 4 4 c -4 4 c -4 -4 c 79 -38 8946 1765 l 0 53 8946 1712 l 79 -38 8946 1841 l 0 53 8946 1788 l 0 41 8946 1871 l
30 -22 c 0 11 c 4 8 c 3 3 c 12 4 c 7 0 c 12 -4 c 7 -7 c 4 -12 c 0 -11 c -4 -11 c -4 -4 c -7 -4 c
showpage PGPLOT restore
 
%%Trailer
%%DocumentFonts: 
%%Pages: 1
%%EOF
