%!PS-Adobe-3.0 EPSF-3.0
%%For: tab
%%Title: PGPLOT PostScript plot
%%Creator: PGPLOT
%%CreationDate: 20-Apr-1995 16:44
%%BoundingBox: 25 18 587 774
%%DocumentFonts: (atend)
%%LanguageLevel: 1
%%Orientation: Landscape
%%Pages: (atend)
%%EndComments
%%BeginProlog
/l {moveto rlineto currentpoint stroke moveto} bind def
/c {rlineto currentpoint stroke moveto} bind def
/d {moveto 0 0 rlineto currentpoint stroke moveto} bind def
/SLW {5 mul setlinewidth} bind def
/SCF /pop load def
/BP {newpath moveto} bind def
/LP /rlineto load def
/EP {rlineto closepath eofill} bind def
/MB {gsave translate MFAC dup scale 1 setlinewidth 2 setlinecap 0 setlinejoin newpath} bind def
/ME /grestore load def
/C {0 360 arc stroke} bind def
/FC {0 360 arc fill} bind def
%%EndProlog
 
%%Page: 1 1
%%BeginPageSetup
/PGPLOT save def
0.072 0.072 scale
8150 250 translate 90 rotate
1 setlinejoin 1 setlinecap 1 SLW 1 SCF
%%EndPageSetup
0.000 setgray 1 SLW 8939 0 780 780 l 0 6239 c -8939 0 c 0 -6239 c 0 -45 1116 780 l 0 -45 1554 780 l 0 -45 1991 780 l
0 -45 2428 780 l 0 -90 2865 780 l 0 -45 3302 780 l 0 -45 3739 780 l 0 -45 4176 780 l 0 -45 4613 780 l 0 -90 5051 780 l
0 -45 5488 780 l 0 -45 5925 780 l 0 -45 6362 780 l 0 -45 6799 780 l 0 -90 7236 780 l 0 -45 7673 780 l 0 -45 8110 780 l
0 -45 8548 780 l 0 -45 8985 780 l 0 -90 9422 780 l 0 -45 1116 7064 l 0 -45 1554 7064 l 0 -45 1991 7064 l 0 -45 2428 7064 l
0 -90 2865 7109 l 0 -45 3302 7064 l 0 -45 3739 7064 l 0 -45 4176 7064 l 0 -45 4613 7064 l 0 -90 5051 7109 l 0 -45 5488 7064 l
0 -45 5925 7064 l 0 -45 6362 7064 l 0 -45 6799 7064 l 0 -90 7236 7109 l 0 -45 7673 7064 l 0 -45 8110 7064 l 0 -45 8548 7064 l
0 -45 8985 7064 l 0 -90 9422 7109 l -60 0 2775 672 l -6 -54 c 6 6 c 18 6 c 18 0 c 18 -6 c 12 -12 c 6 -18 c 0 -12 c -6 -18 c
-12 -12 c -18 -6 c -18 0 c -18 6 c -6 6 c -6 12 c -18 -6 2859 672 l -12 -18 c -6 -30 c 0 -18 c 6 -30 c 12 -18 c 18 -6 c 12 0 c
18 6 c 12 18 c 6 30 c 0 18 c -6 30 c -12 18 c -18 6 c -12 0 c -18 -6 2979 672 l -12 -18 c -6 -30 c 0 -18 c 6 -30 c 12 -18 c 18 -6 c
12 0 c 18 6 c 12 18 c 6 30 c 0 18 c -6 30 c -12 18 c -18 6 c -12 0 c 12 6 4847 648 l 18 18 c 0 -126 c -18 -6 4985 672 l -12 -18 c
-6 -30 c 0 -18 c 6 -30 c 12 -18 c 18 -6 c 12 0 c 18 6 c 12 18 c 6 30 c 0 18 c -6 30 c -12 18 c -18 6 c -12 0 c -18 -6 5105 672 l
-12 -18 c -6 -30 c 0 -18 c 6 -30 c 12 -18 c 18 -6 c 12 0 c 18 6 c 12 18 c 6 30 c 0 18 c -6 30 c -12 18 c -18 6 c -12 0 c
-18 -6 5225 672 l -12 -18 c -6 -30 c 0 -18 c 6 -30 c 12 -18 c 18 -6 c 12 0 c 18 6 c 12 18 c 6 30 c 0 18 c -6 30 c -12 18 c -18 6 c
-12 0 c 12 6 7032 648 l 18 18 c 0 -126 c -60 0 7206 672 l -6 -54 c 6 6 c 18 6 c 18 0 c 18 -6 c 12 -12 c 6 -18 c 0 -12 c -6 -18 c
-12 -12 c -18 -6 c -18 0 c -18 6 c -6 6 c -6 12 c -18 -6 7290 672 l -12 -18 c -6 -30 c 0 -18 c 6 -30 c 12 -18 c 18 -6 c 12 0 c
18 6 c 12 18 c 6 30 c 0 18 c -6 30 c -12 18 c -18 6 c -12 0 c -18 -6 7410 672 l -12 -18 c -6 -30 c 0 -18 c 6 -30 c 12 -18 c 18 -6 c
12 0 c 18 6 c 12 18 c 6 30 c 0 18 c -6 30 c -12 18 c -18 6 c -12 0 c 0 6 9206 642 l 6 12 c 6 6 c 12 6 c 24 0 c 12 -6 c 6 -6 c
6 -12 c 0 -12 c -6 -12 c -12 -18 c -60 -60 c 84 0 c -18 -6 9356 672 l -12 -18 c -6 -30 c 0 -18 c 6 -30 c 12 -18 c 18 -6 c 12 0 c
18 6 c 12 18 c 6 30 c 0 18 c -6 30 c -12 18 c -18 6 c -12 0 c -18 -6 9476 672 l -12 -18 c -6 -30 c 0 -18 c 6 -30 c 12 -18 c 18 -6 c
12 0 c 18 6 c 12 18 c 6 30 c 0 18 c -6 30 c -12 18 c -18 6 c -12 0 c -18 -6 9596 672 l -12 -18 c -6 -30 c 0 -18 c 6 -30 c 12 -18 c
18 -6 c 12 0 c 18 6 c 12 18 c 6 30 c 0 18 c -6 30 c -12 18 c -18 6 c -12 0 c -90 0 780 784 l -45 0 780 1151 l -45 0 780 1519 l
-45 0 780 1886 l -45 0 780 2253 l -90 0 780 2621 l -45 0 780 2988 l -45 0 780 3355 l -45 0 780 3723 l -45 0 780 4090 l
-90 0 780 4457 l -45 0 780 4825 l -45 0 780 5192 l -45 0 780 5559 l -45 0 780 5927 l -90 0 780 6294 l -45 0 780 6661 l
-90 0 9809 784 l -45 0 9764 1151 l -45 0 9764 1519 l -45 0 9764 1886 l -45 0 9764 2253 l -90 0 9809 2621 l -45 0 9764 2988 l
-45 0 9764 3355 l -45 0 9764 3723 l -45 0 9764 4090 l -90 0 9809 4457 l -45 0 9764 4825 l -45 0 9764 5192 l -45 0 9764 5559 l
-45 0 9764 5927 l -90 0 9809 6294 l -45 0 9764 6661 l 6 -18 517 778 l 18 -12 c 30 -6 c 18 0 c 30 6 c 18 12 c 6 18 c 0 12 c -6 18 c
-18 12 c -30 6 c -18 0 c -30 -6 c -18 -12 c -6 -18 c 0 -12 c -6 12 541 2501 l -18 18 c 126 0 c 6 -18 517 2639 l 18 -12 c 30 -6 c
18 0 c 30 6 c 18 12 c 6 18 c 0 12 c -6 18 c -18 12 c -30 6 c -18 0 c -30 -6 c -18 -12 c -6 -18 c 0 -12 c 63 -45 453 2763 l 0 68 c
94 0 453 2763 l -6 0 547 4199 l -12 6 c -6 6 c -6 12 c 0 24 c 6 12 c 6 6 c 12 6 c 12 0 c 12 -6 c 18 -12 c 60 -60 c 0 84 c
84 84 547 4319 l 84 -84 547 4403 l -6 12 541 4463 l -18 18 c 126 0 c 6 -18 517 4601 l 18 -12 c 30 -6 c 18 0 c 30 6 c 18 12 c 6 18 c
0 12 c -6 18 c -18 12 c -30 6 c -18 0 c -30 -6 c -18 -12 c -6 -18 c 0 -12 c 63 -45 453 4726 l 0 67 c 94 0 453 4726 l 0 66 517 6042 l
48 -36 c 0 18 c 6 12 c 6 6 c 18 6 c 12 0 c 18 -6 c 12 -12 c 6 -18 c 0 -18 c -6 -18 c -6 -6 c -12 -6 c 84 84 547 6156 l
84 -84 547 6240 l -6 12 541 6300 l -18 18 c 126 0 c 6 -18 517 6438 l 18 -12 c 30 -6 c 18 0 c 30 6 c 18 12 c 6 18 c 0 12 c -6 18 c
-18 12 c -30 6 c -18 0 c -30 -6 c -18 -12 c -6 -18 c 0 -12 c 63 -45 453 6563 l 0 67 c 94 0 453 6563 l
2 -1363 787 7019 l 4 -3845 c 4 -884 c 5 -75 c 4 -11 c 4 -7 c 5 -5 c 4 -3 c 5 -2 c 4 -2 c 4 -1 c 5 0 c 4 -3 c 4 -2 c 5 0 c 4 -1 c
5 0 c 4 -1 c 4 -1 c 5 0 c 4 1 c 4 3 c 5 1 c 4 -2 c 5 -3 c 4 0 c 4 1 c 5 -1 c 4 -2 c 4 -1 c 5 1 c 4 0 c 5 0 c 4 0 c 4 1 c 5 6 c 4 9 c
4 0 c 5 -10 c 4 -7 c 4 0 c 5 6 c 4 5 c 5 -2 c 4 -8 c 4 -3 c 5 1 c 4 -1 c 4 -1 c 5 -1 c 4 0 c 5 1 c 4 0 c 4 1 c 5 -1 c 4 -1 c 4 1 c
5 1 c 4 0 c 5 1 c 4 6 c 4 13 c 5 6 c 4 -5 c 4 -12 c 5 -5 c 4 -4 c 5 -1 c 4 0 c 4 0 c 5 1 c 4 0 c 4 1 c 5 0 c 4 1 c 4 3 c 5 14 c
4 53 c 5 43 c 4 3 c 4 3 c 5 227 c 4 -372 c 4 0 c 5 492 c 4 -162 c 5 -29 c 4 -94 c 4 -154 c 5 -23 c 4 -4 c 4 -1 c 5 0 c 4 2 c 5 11 c
4 6 c 4 -4 c 5 -11 c 4 -5 c 4 -1 c 5 0 c 4 0 c 5 2 c 4 5 c 4 15 c 5 65 c 4 80 c 4 -14 c 5 -95 c 4 -44 c 4 7 c 5 23 c 4 27 c 5 84 c
4 102 c 4 5 c 5 -123 c 4 -103 c 4 -19 c 5 -6 c 4 -4 c 5 -2 c 4 -2 c 4 -1 c 5 -1 c 4 -1 c 4 0 c 5 -1 c 4 1 c 5 0 c 4 0 c 4 0 c 5 0 c
4 0 c 4 1 c 5 1 c 4 -1 c 5 0 c 4 -1 c 4 0 c 5 0 c 4 -1 c 4 0 c 5 1 c 4 0 c 4 0 c 5 -1 c 4 1 c 5 0 c 4 0 c 4 1 c 5 0 c 4 0 c 4 0 c
5 -2 c 4 0 c 5 2 c 4 0 c 4 1 c 5 -2 c 4 0 c 4 3 c 5 4 c 4 1 c 5 -4 c 4 -4 c 4 1 c 5 0 c 4 1 c 4 -1 c 5 0 c 4 -1 c 4 0 c 5 0 c 4 0 c
5 1 c 4 2 c 4 0 c 5 3 c 4 11 c 4 59 c 5 301 c 4 352 c 5 -11 c 4 -447 c 4 -240 c 5 -18 c 4 -4 c 4 6 c 5 32 c 4 160 c 5 492 c 4 170 c
4 -261 c 5 -491 c 4 -107 c 4 -3 c 5 7 c 4 2 c 5 -3 c 4 -8 c 4 2 c 5 2 c 4 0 c 4 -3 c 5 3 c 4 16 c 4 73 c 5 104 c 4 14 c 5 -94 c
4 -91 c 4 -17 c 5 -5 c 4 -3 c 4 -1 c 5 -2 c 4 -1 c 5 0 c 4 4 c 4 2 c 5 -2 c 4 -4 c 4 -2 c 5 -1 c 4 0 c 5 0 c 4 0 c 4 0 c 5 1 c 4 0 c
4 -1 c 5 0 c 4 0 c 5 0 c 4 0 c 4 1 c 5 0 c 4 -1 c 4 0 c 5 2 c 4 3 c 4 3 c 5 1 c 4 -2 c 5 -2 c 4 -1 c 4 0 c 5 -1 c 4 0 c 4 0 c 5 0 c
4 0 c 5 0 c 4 -1 c 4 1 c 5 5 c 4 38 c 4 63 c 5 34 c 4 -42 c 5 -60 c 4 -34 c 4 -4 c 5 0 c 4 0 c 4 1 c 5 0 c 4 4 c 5 13 c 4 22 c
4 12 c 5 -14 c 4 -28 c 4 -9 c 5 -1 c 4 -1 c 4 -1 c 5 1 c 4 1 c 5 1 c 4 2 c 4 6 c 5 12 c 4 1 c 4 -8 c 5 -11 c 4 -2 c 5 -1 c 4 0 c
4 -1 c 5 0 c 4 1 c 4 0 c 5 0 c 4 -1 c 5 0 c 4 2 c 4 -1 c 5 1 c 4 -1 c 4 1 c 5 1 c 4 0 c 5 -1 c 4 -1 c 4 -2 c 5 1 c 4 -1 c 4 1 c
5 1 c 4 -1 c 4 0 c 5 1 c 4 2 c 5 3 c 4 -4 c 4 -2 c 5 -2 c 4 0 c 4 1 c 5 0 c 4 0 c 5 0 c 4 0 c 4 0 c 5 0 c 4 0 c 4 -1 c 5 0 c 4 0 c
5 0 c 4 0 c 4 0 c 5 0 c 4 1 c 4 0 c 5 1 c 4 0 c 4 0 c 5 -1 c 4 2 c 5 2 c 4 1 c 4 -3 c 5 -1 c 4 0 c 4 1 c 5 11 c 4 14 c 5 0 c 4 -17 c
4 -10 c 5 0 c 4 2 c 4 0 c 5 1 c 4 -2 c 5 -1 c 4 1 c 4 3 c 5 3 c 4 3 c 4 0 c 5 -4 c 4 -4 c 5 0 c 4 -1 c 4 0 c 5 2 c 4 3 c 4 3 c 5 3 c
4 9 c 4 11 c 5 -2 c 4 -17 c 5 -10 c 4 -2 c 4 0 c 5 1 c 4 4 c 4 3 c 5 1 c 4 20 c 5 53 c 4 7 c 4 -33 c 5 -52 c 4 -4 c 4 -1 c 5 1 c
4 0 c 5 1 c 4 3 c 4 15 c 5 70 c 4 80 c 4 7 c 5 -52 c 4 39 c 5 5 c 4 -72 c 4 -86 c 5 -8 c 4 0 c 4 0 c 5 -1 c 4 -1 c 4 -1 c 5 1 c
4 3 c 5 4 c 4 1 c 4 -3 c 5 -4 c 4 -2 c 4 1 c 5 0 c 4 0 c 5 0 c 4 0 c 4 0 c 5 0 c 4 0 c 4 2 c 5 2 c 4 0 c 5 0 c 4 -2 c 4 2 c 5 1 c
4 3 c 4 3 c 5 5 c 4 11 c 5 26 c 4 135 c 4 827 c 5 1497 c 4 270 c 4 -1228 c 5 -1274 c 4 -195 c 4 -36 c 5 -16 c 4 -8 c 5 -7 c 4 -3 c
4 -2 c 5 9 c 4 12 c 4 4 c 5 -10 c 4 -12 c 5 -9 c 4 -4 c 4 -1 c 5 1 c 4 4 c 4 21 c 5 13 c 4 -5 c 5 -24 c 4 -8 c 4 -2 c 5 -1 c 4 0 c
4 2 c 5 1 c 4 0 c 5 -2 c 4 -1 c 4 1 c 5 0 c 4 0 c 4 2 c 5 2 c 4 0 c 4 -3 c 5 -2 c 4 1 c 5 -1 c 4 0 c 4 1 c 5 1 c 4 0 c 4 5 c 5 53 c
4 164 c 5 41 c 4 -84 c 4 -163 c 5 -18 c 4 -1 c 4 -1 c 5 0 c 4 1 c 5 1 c 4 0 c 4 -1 c 5 -1 c 4 0 c 4 0 c 5 1 c 4 0 c 4 1 c 5 -1 c
4 1 c 5 0 c 4 -2 c 4 1 c 5 0 c 4 0 c 4 0 c 5 -1 c 4 0 c 5 1 c 4 0 c 4 1 c 5 1 c 4 6 c 4 2 c 5 -1 c 4 -4 c 5 -2 c 4 1 c 4 -1 c 5 -1 c
4 0 c 4 0 c 5 1 c 4 0 c 5 3 c 4 43 c 4 176 c 5 60 c 4 -68 c 4 -180 c 5 -31 c 4 -3 c 4 -1 c 5 -1 c 4 0 c 5 0 c 4 2 c 4 3 c 5 1 c
4 -1 c 4 -1 c 5 -2 c 4 0 c 5 -1 c 4 -1 c 4 0 c 5 1 c 4 1 c 4 0 c 5 -1 c 4 0 c 5 -1 c 4 0 c 4 0 c 5 2 c 4 7 c 4 61 c 5 181 c 4 45 c
5 -95 c 4 -176 c 4 -23 c 5 -2 c 4 0 c 4 0 c 5 1 c 4 1 c 4 1 c 5 0 c 4 -1 c 5 -1 c 4 0 c 4 6 c 5 11 c 4 2 c 4 -9 c 5 -8 c 4 -1 c
5 -1 c 4 0 c 4 0 c 5 1 c 4 0 c 4 3 c 5 1 c 4 0 c 5 -1 c 4 1 c 4 -1 c 5 -2 c 4 1 c 4 2 c 5 4 c 4 15 c 5 107 c 4 103 c 4 54 c 5 869 c
4 2410 c 4 445 c 5 -1584 c 4 -2130 c 4 -266 c 5 -18 c 4 -3 c 5 -3 c 4 -2 c 4 -1 c 5 0 c 4 4 c 4 10 c 5 1 c 4 -4 c 5 -4 c 4 -1 c
4 -5 c 5 -4 c 4 -1 c 4 0 c 5 0 c 4 0 c 5 -1 c 4 0 c 4 1 c 5 1 c 4 0 c 4 0 c 5 0 c 4 -1 c 4 -1 c 5 1 c 4 2 c 5 1 c 4 -1 c 4 -2 c
5 0 c 4 -1 c 4 1 c 5 0 c 4 0 c 5 0 c 4 0 c 4 1 c 5 0 c 4 -1 c 4 1 c 5 0 c 4 1 c 5 1 c 4 2 c 4 7 c 5 92 c 4 564 c 4 408 c 5 -138 c
4 -657 c 5 -261 c 4 -13 c 4 0 c 5 0 c 4 4 c 4 4 c 5 6 c 4 35 c 4 458 c 5 2025 c 4 1080 c 5 -641 c 4 -2242 c 4 -525 c 5 45 c 4 -9 c
4 -138 c 5 -93 c 4 -10 c 5 -2 c 4 1 c 4 -1 c 5 0 c 4 -1 c 4 -1 c 5 -2 c 4 -1 c 5 0 c 4 1 c 4 0 c 5 0 c 4 -1 c 4 0 c 5 0 c 4 1 c
5 1 c 4 5 c 4 2 c 5 -3 c 4 -4 c 4 0 c 5 14 c 4 54 c 4 17 c 5 -22 c 4 -54 c 5 -9 c 4 -1 c 4 1 c 5 1 c 4 2 c 4 2 c 5 -2 c 4 -2 c
5 -2 c 4 14 c 4 28 c 5 14 c 4 -7 c 4 50 c 5 28 c 4 -23 c 5 -80 c 4 -23 c 4 5 c 5 4 c 4 -2 c 4 -6 c 5 -4 c 4 1 c 5 1 c 4 0 c 4 0 c
5 0 c 4 2 c 4 1 c 5 -1 c 4 -3 c 4 -1 c 5 4 c 4 15 c 5 8 c 4 -6 c 4 -15 c 5 -4 c 4 2 c 4 6 c 5 0 c 4 -4 c 5 -5 c 4 2 c 4 33 c 5 66 c
4 12 c 4 -48 c 5 -56 c 4 -8 c 5 -1 c 4 2 c 4 3 c 5 0 c 4 -4 c 4 0 c 5 0 c 4 1 c 5 -1 c 4 0 c 4 0 c 5 1 c 4 0 c 4 -1 c 5 0 c 4 1 c
4 0 c 5 -1 c 4 -1 c 5 0 c 4 0 c 4 1 c 5 0 c 4 8 c 4 5 c 5 -2 c 4 -7 c 5 -1 c 4 1 c 4 4 c 5 28 c 4 81 c 4 45 c 5 -40 c 4 -87 c
5 -29 c 4 -4 c 4 0 c 5 -1 c 4 1 c 4 2 c 5 14 c 4 174 c 4 407 c 5 140 c 4 -239 c 5 -393 c 4 -94 c 4 -4 c 5 2 c 4 1 c 4 0 c 5 -3 c
4 -2 c 5 2 c 4 21 c 4 30 c 5 7 c 4 -27 c 4 -28 c 5 -7 c 4 -2 c 5 -1 c 4 0 c 4 5 c 5 40 c 4 49 c 4 2 c 5 -54 c 4 -39 c 5 -5 c 4 1 c
4 0 c 5 -1 c 4 0 c 4 1 c 5 2 c 4 2 c 4 2 c 5 0 c 4 7 c 5 32 c 4 30 c 4 -2 c 5 -37 c 4 -26 c 4 -5 c 5 0 c 4 1 c 5 0 c 4 -1 c 4 1 c
5 6 c 4 4 c 4 31 c 5 281 c 4 297 c 5 3 c 4 -341 c 4 -226 c 5 -11 c 4 11 c 4 -20 c 5 -25 c 4 -10 c 5 -4 c 4 -2 c 4 -1 c 5 0 c 4 0 c
4 3 c 5 2 c 4 1 c 4 -4 c 5 -3 c 4 -2 c 5 0 c 4 1 c 4 0 c 5 1 c 4 2 c 4 1 c 5 -1 c 4 -1 c 5 -1 c 4 1 c 4 1 c 5 4 c 4 32 c 4 308 c
5 469 c 4 100 c 5 -383 c 4 -441 c 4 -85 c 5 -3 c 4 -2 c 4 0 c 5 4 c 4 4 c 5 5 c 4 1 c 4 -4 c 5 -6 c 4 -4 c 4 5 c 5 12 c 4 4 c 4 -9 c
5 -9 c 4 -2 c 5 7 c 4 2 c 4 -4 c 5 -7 c 4 -3 c 4 0 c 5 -1 c 4 1 c 5 0 c 4 1 c 4 1 c 5 1 c 4 0 c 4 1 c 5 0 c 4 0 c 5 -1 c 4 -1 c
4 0 c 5 0 c 4 0 c 4 -1 c 5 0 c 4 0 c 5 3 c 4 1 c 4 1 c 5 0 c 4 1 c 4 1 c 5 -2 c 4 -1 c 4 -1 c 5 2 c 4 0 c 5 -1 c 4 0 c 4 3 c 5 12 c
4 5 c 4 -3 c 5 -11 c 4 -5 c 5 0 c 4 0 c 4 -29 c 5 28 c 4 0 c 4 -1 c 5 -1 c 4 0 c 5 1 c 4 -1 c 4 1 c 5 2 c 4 7 c 4 115 c 5 375 c
4 204 c 4 -133 c 5 -395 c 4 -164 c 5 -10 c 4 -3 c 4 0 c 5 0 c 4 0 c 4 -1 c 5 1 c 4 3 c 5 10 c 4 5 c 4 -6 c 5 -9 c 4 -3 c 4 -1 c
5 0 c 4 1 c 5 2 c 4 5 c 4 1 c 5 0 c 4 2 c 4 33 c 5 72 c 4 42 c 5 -22 c 4 -45 c 4 94 c 5 71 c 4 -33 c 4 -141 c 5 -67 c 4 -8 c 4 -1 c
5 -1 c 4 0 c 5 -1 c 4 2 c 4 8 c 5 7 c 4 2 c 4 19 c 5 251 c 4 546 c 5 227 c 4 -332 c 4 -524 c 5 -187 c 4 -15 c 4 -1 c 5 -1 c 4 -3 c
5 -2 c 4 2 c 4 1 c 5 -2 c 4 0 c 4 0 c 5 -1 c 4 0 c 5 -1 c 4 1 c 4 1 c 5 0 c 4 0 c 4 -2 c 5 0 c 4 -1 c 4 1 c 5 1 c 4 5 c 5 5 c 4 0 c
4 -4 c 5 -5 c 4 -1 c 4 -1 c 5 1 c 4 2 c 5 0 c 4 2 c 4 2 c 5 1 c 4 0 c 4 -2 c 5 2 c 4 45 c 5 192 c 4 111 c 4 -40 c 5 -188 c 4 -105 c
4 46 c 5 169 c 4 117 c 5 140 c 4 43 c 4 -78 c 5 -234 c 4 -192 c 4 -15 c 5 6 c 4 0 c 4 -12 c 5 -8 c 4 0 c 5 1 c 4 2 c 4 2 c 5 0 c
4 0 c 4 -2 c 5 2 c 4 1 c 5 4 c 4 8 c 4 33 c 5 355 c 4 1899 c 4 1411 c 5 -137 c 4 -2176 c 5 -1200 c 4 -183 c 4 -11 c 5 -1 c 4 -1 c
4 -1 c 5 3 c 4 1 c 4 -2 c 5 -5 c 4 -4 c 5 2 c 4 9 c 4 6 c 5 -5 c 4 -10 c 4 -4 c 5 0 c 4 -1 c 5 -1 c 4 0 c 4 1 c 5 2 c 4 1 c 4 -1 c
5 -1 c 4 0 c 5 -1 c 4 -25 c 4 41 c 5 59 c 4 50 c 4 -9 c 5 -64 c 4 -40 c 5 -11 c 4 -2 c 4 0 c 5 -1 c 4 -1 c 4 0 c 5 0 c 4 1 c 4 0 c
5 1 c 4 0 c 5 -2 c 4 -1 c 4 -1 c 5 4 c 4 6 c 4 1 c 5 -2 c 4 -5 c 5 1 c 4 5 c 4 1 c 5 -3 c 4 -3 c 4 -1 c 5 0 c 4 1 c 5 0 c 4 -1 c
4 1 c 5 2 c 4 1 c 4 -2 c 5 -2 c 4 0 c 5 0 c 4 -1 c 4 0 c 5 2 c 4 0 c 4 0 c 5 1 c 4 3 c 4 4 c 5 -1 c 4 -1 c 5 -4 c 4 -1 c 4 2 c 5 1 c
4 -1 c 4 0 c 5 0 c 4 -1 c 5 0 c 4 -1 c 4 -1 c 5 0 c 4 0 c 4 -1 c 5 0 c 4 1 c 5 1 c 4 1 c 4 0 c 5 -1 c 4 0 c 4 -2 c 5 0 c 4 0 c 5 0 c
4 1 c 4 1 c 5 1 c 4 -1 c 4 0 c 5 1 c 4 1 c 4 -2 c 5 -1 c 4 0 c 5 0 c 4 1 c 4 0 c 5 1 c 4 -1 c 4 -1 c 5 1 c 4 1 c 5 2 c 4 0 c 4 0 c
5 -2 c 4 0 c 4 0 c 5 1 c 4 1 c 5 -1 c 4 -2 c 4 3 c 5 19 c 4 38 c 4 19 c 5 -22 c 4 -41 c 5 -13 c 4 -2 c 4 -1 c 5 0 c 4 0 c 4 -1 c
5 -1 c 4 2 c 4 3 c 5 1 c 4 -2 c 5 -3 c 4 1 c 4 0 c 5 1 c 4 -1 c 4 -1 c 5 0 c 4 0 c 5 0 c 4 0 c 4 0 c 5 0 c 4 0 c 4 1 c 5 -1 c 4 1 c
5 1 c 4 0 c 4 -2 c 5 -1 c 4 0 c 4 1 c 5 1 c 4 0 c 4 0 c 5 0 c 4 -1 c 5 -1 c 4 2 c 4 -1 c 5 0 c 4 -2 c 4 1 c 5 0 c 4 1 c 5 0 c 4 0 c
4 0 c 5 -2 c 4 1 c 4 0 c 5 1 c 4 3 c 5 6 c 4 3 c 4 -3 c 5 -6 c 4 -3 c 4 0 c 5 -1 c 4 0 c 5 0 c 4 0 c 4 1 c 5 1 c 4 0 c 4 1 c 5 3 c
4 2 c 4 1 c 5 -1 c 4 -2 c 5 0 c 4 -1 c 4 0 c 5 2 c 4 6 c 4 93 c 5 347 c 4 214 c 5 -85 c 4 -376 c 4 -185 c 5 -12 c 4 0 c 4 0 c 5 -3 c
4 -2 c 5 20 c 4 36 c 4 10 c 5 -22 c 4 -32 c 4 -40 c 5 26 c 4 -1 c 5 -1 c 4 1 c 4 0 c 5 2 c 4 -1 c 4 0 c 5 1 c 4 -1 c 4 -1 c 5 -1 c
4 0 c 5 1 c 4 1 c 4 -1 c 5 0 c 4 0 c 4 0 c 5 0 c 4 3 c 5 2 c 4 0 c 4 -1 c 5 3 c 4 22 c 4 14 c 5 -5 c 4 -23 c 5 -13 c 4 -1 c 4 -1 c
5 -1 c 4 -1 c 4 1 c 5 1 c 4 0 c 5 -1 c 4 0 c 4 1 c 5 2 c 4 7 c 4 8 c 5 0 c 4 -7 c 4 -9 c 5 -2 c 4 0 c 3 6211 c 3 -5981 6827 7019 l
4 -220 c 4 -2 c 5 -2 c 4 0 c 5 -1 c 4 -1 c 4 -2 c 5 0 c 4 1 c 4 0 c 5 0 c 4 0 c 5 1 c 4 0 c 4 0 c 5 -1 c 4 0 c 4 1 c 5 0 c 4 0 c
5 0 c 4 -1 c 4 1 c 5 -1 c 4 3 c 4 5 c 5 0 c 4 0 c 4 -3 c 5 -1 c 4 0 c 5 -1 c 4 1 c 4 0 c 5 2 c 4 5 c 4 1 c 5 1 c 4 0 c 5 2 c 4 -3 c
4 -6 c 5 -5 c 4 1 c 4 1 c 5 6 c 4 7 c 5 2 c 4 -9 c 4 -7 c 5 0 c 4 -1 c 4 -1 c 5 -1 c 4 1 c 4 0 c 5 0 c 4 0 c 5 0 c 4 1 c 4 0 c
5 -1 c 4 -1 c 4 1 c 5 1 c 4 0 c 5 -1 c 4 -1 c 4 0 c 5 1 c 4 1 c 4 0 c 5 -1 c 4 0 c 5 0 c 4 0 c 4 0 c 5 0 c 4 1 c 4 -2 c 5 1 c 4 2 c
5 -1 c 4 0 c 4 1 c 5 1 c 4 0 c 4 -1 c 5 -2 c 4 -1 c 4 1 c 5 0 c 4 0 c 5 1 c 4 1 c 4 -1 c 5 -1 c 4 1 c 4 0 c 5 2 c 4 -1 c 5 -1 c
4 -2 c 4 -1 c 5 2 c 4 1 c 4 1 c 5 1 c 4 1 c 5 4 c 4 1 c 4 -3 c 5 -4 c 4 1 c 4 1 c 5 1 c 4 2 c 5 11 c 4 6 c 4 0 c 5 -6 c 4 4 c 4 15 c
5 4 c 4 -14 c 4 -17 c 5 -6 c 4 0 c 5 1 c 4 0 c 4 1 c 5 6 c 4 6 c 4 0 c 5 -3 c 4 -4 c 5 1 c 4 2 c 4 1 c 5 -1 c 4 -1 c 4 3 c 5 5 c
4 2 c 5 4 c 4 7 c 4 22 c 5 43 c 4 240 c 4 3468 c 2 2401 c 2 -3924 7501 7019 l 4 -2079 c 5 -141 c 4 -22 c 4 -6 c 5 -5 c 4 0 c 4 10 c
5 1 c 4 -6 c 5 -17 c 4 -5 c 4 -1 c 5 -3 c 4 -1 c 4 -1 c 5 1 c 4 26 c 5 46 c 4 8 c 4 -31 c 5 -45 c 4 -10 c 4 1 c 5 1 c 4 1 c 5 -1 c
4 -2 c 4 -2 c 5 0 c 4 0 c 4 0 c 5 1 c 4 2 c 5 5 c 4 5 c 4 2 c 5 -5 c 4 -7 c 4 -3 c 5 0 c 4 2 c 4 2 c 5 4 c 4 -2 c 5 -5 c 4 -2 c
4 0 c 5 2 c 4 0 c 4 0 c 5 -2 c 4 0 c 5 1 c 4 0 c 4 0 c 5 1 c 4 -1 c 4 -2 c 5 0 c 4 -1 c 5 1 c 4 -1 c 4 1 c 5 0 c 4 1 c 4 -1 c 5 -1 c
4 -1 c 4 -1 c 5 2 c 4 0 c 5 1 c 4 5 c 4 16 c 5 6 c 4 -6 c 4 -16 c 5 -7 c 4 -1 c 5 1 c 4 0 c 4 0 c 5 1 c 4 0 c 4 0 c 5 -1 c 4 -1 c
5 1 c 4 1 c 4 -1 c 5 0 c 4 -1 c 4 1 c 5 0 c 4 2 c 5 1 c 4 0 c 4 0 c 5 6 c 4 2 c 4 -2 c 5 -7 c 4 -3 c 4 0 c 5 1 c 4 0 c 5 1 c 4 0 c
4 -1 c 5 17 c 4 28 c 4 6 c 5 -19 c 4 -27 c 5 -5 c 4 0 c 4 0 c 5 0 c 4 0 c 4 -1 c 5 0 c 4 -1 c 5 0 c 4 0 c 4 1 c 5 0 c 4 -1 c 4 1 c
5 0 c 4 -1 c 5 0 c 4 1 c 4 1 c 5 2 c 4 20 c 4 17 c 5 -1 c 4 -24 c 4 -13 c 5 -2 c 4 1 c 5 1 c 4 1 c 4 4 c 5 36 c 4 68 c 4 12 c
5 -37 c 4 -69 c 5 -13 c 4 -1 c 4 2 c 5 4 c 4 11 c 4 59 c 5 184 c 4 313 c 5 389 c 4 -50 c 4 -334 c 5 -446 c 4 -87 c 4 4 c 5 -8 c
4 -25 c 5 -15 c 4 -2 c 4 -1 c 5 1 c 4 -1 c 4 0 c 5 0 c 4 0 c 4 0 c 5 0 c 4 1 c 5 0 c 4 -1 c 4 -1 c 5 -1 c 4 -1 c 4 0 c 5 0 c 4 0 c
5 0 c 4 0 c 4 -1 c 5 0 c 4 1 c 4 0 c 5 0 c 4 -1 c 5 0 c 4 1 c 4 0 c 5 0 c 4 -1 c 4 -1 c 5 0 c 4 1 c 4 -1 c 5 1 c 4 0 c 5 0 c 4 1 c
4 2 c 5 0 c 4 -1 c 4 -3 c 5 0 c 4 1 c 5 2 c 4 5 c 4 4 c 5 2 c 4 3 c 4 -1 c 5 -4 c 4 -8 c 5 -3 c 4 -1 c 4 0 c 5 0 c 4 -1 c 4 1 c
5 1 c 4 0 c 5 1 c 4 -1 c 4 1 c 5 0 c 4 0 c 4 -1 c 5 -1 c 4 -1 c 4 0 c 5 1 c 4 0 c 5 0 c 4 0 c 4 -1 c 5 0 c 4 0 c 4 1 c 5 1 c 4 1 c
5 1 c 4 -1 c 4 -1 c 5 0 c 4 8 c 4 36 c 5 21 c 4 -6 c 5 -39 c 4 -18 c 4 -2 c 5 0 c 4 1 c 4 1 c 5 0 c 4 1 c 5 9 c 4 8 c 4 -1 c 5 -10 c
4 -8 c 4 -1 c 5 1 c 4 0 c 4 0 c 5 1 c 4 0 c 5 0 c 4 -1 c 4 -1 c 5 0 c 4 1 c 4 1 c 5 -1 c 4 0 c 5 -1 c 4 0 c 4 1 c 5 0 c 4 0 c 4 0 c
5 0 c 4 0 c 5 0 c 4 -1 c 4 0 c 5 0 c 4 0 c 4 0 c 5 0 c 4 1 c 5 -1 c 4 0 c 4 0 c 5 1 c 4 0 c 4 0 c 5 0 c 4 -1 c 4 0 c 5 0 c 4 0 c
5 0 c 4 1 c 4 -1 c 5 1 c 4 5 c 4 10 c 5 2 c 4 -5 c 5 -11 c 4 -2 c 4 1 c 5 1 c 4 -1 c 4 0 c 5 1 c 4 1 c 5 8 c 4 18 c 4 18 c 5 6 c
4 -12 c 4 -12 c 5 -6 c 4 -4 c 5 -4 c 4 -4 c 4 -4 c 5 -1 c 4 -3 c 4 -1 c 5 0 c 4 23 c 4 56 c 5 14 c 4 -22 c 5 -57 c 4 -14 c 4 0 c
5 0 c 4 -1 c 4 0 c 5 0 c 4 0 c 5 0 c 4 0 c 4 0 c 5 -1 c 4 0 c 4 0 c 5 0 c 4 1 c 5 0 c 4 0 c 4 -1 c 5 1 c 4 2 c 4 1 c 5 5 c 4 5 c
4 0 c 5 -5 c 4 -8 c 5 -2 c 4 1 c 4 -1 c 5 1 c 4 0 c 4 -1 c 5 1 c 4 1 c 5 0 c 4 4 c 4 3 c 5 2 c 4 -3 c 4 -5 c 5 0 c 4 -1 c 5 0 c
4 0 c 4 -1 c 5 -1 c 4 0 c 4 2 c 5 1 c 4 1 c 5 0 c 4 0 c 4 -1 c 5 -1 c 4 0 c 4 0 c 5 0 c 4 -1 c 4 0 c 5 -1 c 4 1 c 5 0 c 4 0 c 4 -1 c
5 2 c 4 0 c 4 0 c 5 -1 c 4 0 c 5 0 c 4 -1 c 4 0 c 5 0 c 4 1 c 4 0 c 5 0 c 4 0 c 5 -1 c 4 0 c 4 -1 c 5 0 c 4 0 c 4 1 c 5 1 c 4 2 c
5 1 c 4 -1 c 4 -1 c 5 0 c 4 0 c 4 1 c 5 0 c 4 0 c 4 -1 c 5 0 c 4 -1 c 5 0 c 4 0 c 4 0 c 5 0 c 4 -1 c 4 0 c 5 0 c 4 2 c 5 13 c 4 27 c
4 5 c 5 -12 c 4 -27 c 4 -5 c 5 0 c 4 0 c 5 5 c 4 44 c 4 83 c 5 0 c 4 -41 c 4 -78 c
5 -13 c 4 -1 c 5 -1 c 4 -1 c 4 -19 c 5 0 c 4 20 c 4 0 c 5 1 c 4 -2 c 4 2 c 5 0 c 4 1 c 5 -3 c 4 6 c 4 1 c 5 -7 c 4 7 c 4 10 c 5 25 c
4 13 c 5 -16 c 4 -19 c 4 -39 c 5 0 c 4 0 c 4 0 c 5 0 c 4 0 c 5 0 c 4 0 c 4 0 c 5 0 c 4 0 c 4 0 c 5 0 c 4 0 c 5 0 c 4 0 c 4 0 c 5 0 c
4 0 c 4 0 c 5 0 c 4 0 c
0 -126 3303 418 l 54 0 3303 418 l 18 -6 c 6 -6 c 6 -12 c 0 -12 c -6 -12 c -6 -6 c -18 -6 c -54 0 c 42 -66 3345 358 l
-12 -6 3453 376 l -12 -12 c -6 -18 c 0 -12 c 6 -18 c 12 -12 c 12 -6 c 18 0 c 12 6 c 12 12 c 6 18 c 0 12 c -6 18 c -12 12 c -12 6 c
-18 0 c 24 -84 3537 376 l -24 -84 3585 376 l 24 -84 3585 376 l -24 -84 3633 376 l 108 0 3675 364 l 108 0 3675 328 l 12 6 3939 394 l
18 18 c 0 -126 c -18 -6 4077 418 l -12 -18 c -6 -30 c 0 -18 c 6 -30 c 12 -18 c 18 -6 c 12 0 c 18 6 c 12 18 c 6 30 c 0 18 c -6 30 c
-12 18 c -18 6 c -12 0 c -12 -6 4287 376 l -12 -12 c -6 -18 c 0 -12 c 6 -18 c 12 -12 c 12 -6 c 18 0 c 12 6 c 12 12 c 6 18 c 0 12 c
-6 18 c -12 12 c -12 6 c -18 0 c -12 0 4413 418 l -12 -6 c -6 -18 c 0 -102 c 42 0 4365 376 l 0 6 4545 388 l 6 12 c 6 6 c 12 6 c
24 0 c 12 -6 c 6 -6 c 6 -12 c 0 -12 c -6 -12 c -12 -18 c -60 -60 c 84 0 c -18 -6 4695 418 l -12 -18 c -6 -30 c 0 -18 c 6 -30 c
12 -18 c 18 -6 c 12 0 c 18 6 c 12 18 c 6 30 c 0 18 c -6 30 c -12 18 c -18 6 c -12 0 c 12 6 5181 394 l 18 18 c 0 -126 c
-6 -6 5294 376 l 6 -6 c 6 6 c -6 6 c -6 -6 5294 304 l 6 -6 c 6 6 c -6 6 c -48 -126 5474 418 l 48 -126 5474 418 l 60 0 5444 334 l
0 -84 5552 376 l 6 18 5552 340 l 12 12 c 12 6 c 18 0 c -12 12 5696 358 l -12 6 c -18 0 c -12 -6 c -12 -12 c -6 -18 c 0 -12 c 6 -18 c
12 -12 c 12 -6 c 18 0 c 12 6 c 12 12 c 108 0 5738 346 l 12 6 5906 394 l 18 18 c 0 -126 c 66 0 6020 418 l -36 -48 c 18 0 c 12 -6 c
6 -6 c 6 -18 c 0 -12 c -6 -18 c -12 -12 c -18 -6 c -18 0 c -18 6 c -6 6 c -6 12 c -6 -18 6206 376 l -12 -12 c -18 -6 c -6 0 c
-18 6 c -12 12 c -6 18 c 0 6 c 6 18 c 12 12 c 18 6 c 6 0 c 18 -6 c 12 -12 c 6 -24 c 0 -30 c -6 -30 c -12 -18 c -18 -6 c -12 0 c
-18 6 c -6 12 c -6 -6 6260 304 l 6 -6 c 6 6 c -6 6 c -12 0 6350 418 l -12 -6 c -6 -18 c 0 -102 c 42 0 6302 376 l 6 -6 6380 418 l
6 6 c -6 6 c -6 -6 c 0 -84 6386 376 l 0 -102 6440 418 l 6 -18 c 12 -6 c 12 0 c 42 0 6422 376 l -6 12 6566 358 l -18 6 c -18 0 c
-18 -6 c -6 -12 c 6 -12 c 12 -6 c 30 -6 c 12 -6 c 6 -12 c 0 -6 c -6 -12 c -18 -6 c -18 0 c -18 6 c -6 12 c 0 -192 6896 442 l
0 -192 6902 442 l 42 0 6896 442 l 42 0 6896 250 l 0 6 6980 388 l 6 12 c 6 6 c 12 6 c 24 0 c 12 -6 c 6 -6 c 6 -12 c 0 -12 c -6 -12 c
-12 -18 c -60 -60 c 84 0 c -6 -6 7106 376 l 6 -6 c 6 6 c -6 6 c -6 -6 7106 304 l 6 -6 c 6 6 c -6 6 c 0 -192 7286 442 l
0 -192 7292 442 l 42 0 7250 442 l 42 0 7250 250 l
0 -250 1156 1713 l -8 -4 1124 1834 l -4 -11 c 0 -8 c 4 -11 c 11 -8 c 19 -4 c 19 0 c 15 4 c 8 8 c 4 11 c 0 4 c -4 11 c -8 8 c -11 3 c
-4 0 c -11 -3 c -8 -8 c -4 -11 c 0 -4 c 4 -11 c 8 -8 c 11 -4 c 53 -38 1112 1898 l 0 57 c 80 0 1112 1898 l -8 -4 1124 1985 l -4 -11 c
0 -8 c 4 -11 c 11 -8 c 19 -4 c 19 0 c 15 4 c 8 8 c 4 11 c 0 4 c -4 11 c -8 8 c -11 4 c -4 0 c -11 -4 c -8 -8 c -4 -11 c 0 -4 c
4 -11 c 8 -8 c 11 -4 c -8 -3 1124 2060 l -4 -12 c 0 -7 c 4 -12 c 11 -7 c 19 -4 c 19 0 c 15 4 c 8 7 c 4 12 c 0 4 c -4 11 c -8 7 c
-11 4 c -4 0 c -11 -4 c -8 -7 c -4 -11 c 0 -4 c 4 -12 c 8 -7 c 11 -4 c 4 -3 1184 2094 l 4 3 c -4 4 c -4 -4 c 0 -38 1112 2170 l
34 -4 c -4 4 c -3 12 c 0 11 c 3 11 c 8 8 c 11 4 c 8 0 c 11 -4 c 8 -8 c 4 -11 c 0 -11 c -4 -12 c -4 -4 c -7 -3 c -8 -3 1124 2249 l
-4 -12 c 0 -7 c 4 -12 c 11 -7 c 19 -4 c 19 0 c 15 4 c 8 7 c 4 12 c 0 3 c -4 12 c -8 7 c -11 4 c -4 0 c -11 -4 c -8 -7 c -4 -12 c
0 -3 c 4 -12 c 8 -7 c 11 -4 c 4 -12 1112 2299 l 11 -7 c 19 -4 c 12 0 c 19 4 c 11 7 c 4 12 c 0 7 c -4 11 c -11 8 c -19 4 c -12 0 c
-19 -4 c -11 -8 c -4 -11 c 0 -7 c 0 -249 2711 4026 l -7 -3 2678 4147 l -4 -12 c 0 -7 c 4 -12 c 11 -7 c 19 -4 c 19 0 c 15 4 c 8 7 c
3 12 c 0 3 c -3 12 c -8 7 c -11 4 c -4 0 c -12 -4 c -7 -7 c -4 -12 c 0 -3 c 4 -12 c 7 -7 c 12 -4 c 53 -38 2667 4212 l 0 56 c
79 0 2667 4212 l 4 -11 2667 4268 l 7 -4 c 8 0 c 7 4 c 4 7 c 4 16 c 4 11 c 7 7 c 8 4 c 11 0 c 8 -4 c 4 -3 c 3 -12 c 0 -15 c -3 -11 c
-4 -4 c -8 -4 c -11 0 c -8 4 c -7 8 c -4 11 c -4 15 c -4 8 c -7 3 c -8 0 c -7 -3 c -4 -12 c 0 -15 c 0 42 2667 4332 l 30 -23 c 0 12 c
4 7 c 4 4 c 11 4 c 8 0 c 11 -4 c 8 -7 c 3 -12 c 0 -11 c -3 -12 c -4 -3 c -8 -4 c 4 -4 2739 4408 l 3 4 c -3 4 c -4 -4 c
4 -11 2667 4461 l 11 -8 c 19 -4 c 11 0 c 19 4 c 12 8 c 3 11 c 0 8 c -3 11 c -12 7 c -19 4 c -11 0 c -19 -4 c -11 -7 c -4 -11 c
0 -8 c 4 -12 2667 4533 l 7 -3 c 8 0 c 7 3 c 4 8 c 4 15 c 4 11 c 7 8 c 8 4 c 11 0 c 8 -4 c 4 -4 c 3 -11 c 0 -15 c -3 -12 c -4 -3 c
-8 -4 c -11 0 c -8 4 c -7 7 c -4 12 c -4 15 c -4 7 c -7 4 c -8 0 c -7 -4 c -4 -11 c 0 -15 c 0 42 2667 4597 l 30 -23 c 0 11 c 4 8 c
4 4 c 11 3 c 8 0 c 11 -3 c 8 -8 c 3 -11 c 0 -12 c -3 -11 c -4 -4 c -8 -3 c 0 -250 3131 1530 l -7 -4 3099 1651 l -4 -11 c 0 -8 c
4 -11 c 11 -8 c 19 -3 c 19 0 c 15 3 c 7 8 c 4 11 c 0 4 c -4 11 c -7 8 c -11 4 c -4 0 c -12 -4 c -7 -8 c -4 -11 c 0 -4 c 4 -11 c
7 -8 c 12 -3 c 53 -38 3088 1715 l 0 57 c 79 0 3088 1715 l 4 -11 3088 1772 l 7 -4 c 8 0 c 7 4 c 4 7 c 4 15 c 4 12 c 7 7 c 8 4 c
11 0 c 8 -4 c 3 -4 c 4 -11 c 0 -15 c -4 -11 c -3 -4 c -8 -4 c -11 0 c -8 4 c -7 7 c -4 12 c -4 15 c -4 7 c -7 4 c -8 0 c -7 -4 c
-4 -11 c 0 -15 c 79 -38 3088 1882 l 0 53 3088 1829 l 3 -4 3160 1912 l 4 4 c -4 4 c -3 -4 c 53 -38 3088 1980 l 0 57 c
79 0 3088 1980 l 4 -12 3088 2037 l 7 -4 c 8 0 c 7 4 c 4 8 c 4 15 c 4 11 c 7 8 c 8 4 c 11 0 c 8 -4 c 3 -4 c 4 -11 c 0 -15 c -4 -12 c
-3 -4 c -8 -3 c -11 0 c -8 3 c -7 8 c -4 11 c -4 15 c -4 8 c -7 4 c -8 0 c -7 -4 c -4 -11 c 0 -15 c -4 7 3103 2105 l -11 11 c 79 0 c
0 -250 3266 1542 l -7 -4 3234 1663 l -4 -11 c 0 -8 c 4 -11 c 11 -8 c 19 -4 c 19 0 c 15 4 c 7 8 c 4 11 c 0 4 c -4 11 c -7 8 c -11 3 c
-4 0 c -12 -3 c -7 -8 c -4 -11 c 0 -4 c 4 -11 c 7 -8 c 12 -4 c 53 -38 3223 1727 l 0 57 c 79 0 3223 1727 l 4 -12 3223 1784 l 7 -4 c
8 0 c 7 4 c 4 8 c 4 15 c 4 11 c 7 8 c 8 4 c 11 0 c 8 -4 c 3 -4 c 4 -11 c 0 -15 c -4 -12 c -3 -4 c -8 -3 c -11 0 c -8 3 c -7 8 c
-4 11 c -4 15 c -4 8 c -7 4 c -8 0 c -7 -4 c -4 -11 c 0 -15 c 4 -11 3223 1859 l 7 -4 c 8 0 c 7 4 c 4 7 c 4 16 c 4 11 c 7 7 c 8 4 c
11 0 c 8 -4 c 3 -3 c 4 -12 c 0 -15 c -4 -11 c -3 -4 c -8 -4 c -11 0 c -8 4 c -7 8 c -4 11 c -4 15 c -4 8 c -7 3 c -8 0 c -7 -3 c
-4 -12 c 0 -15 c 3 -3 3295 1923 l 4 3 c -4 4 c -3 -4 c 4 -12 3223 1973 l 7 -4 c 8 0 c 7 4 c 4 8 c 4 15 c 4 11 c 7 8 c 8 4 c 11 0 c
8 -4 c 3 -4 c 4 -11 c 0 -15 c -4 -12 c -3 -4 c -8 -3 c -11 0 c -8 3 c -7 8 c -4 11 c -4 15 c -4 8 c -7 4 c -8 0 c -7 -4 c -4 -11 c
0 -15 c 4 -11 3223 2048 l 7 -4 c 8 0 c 7 4 c 4 7 c 4 16 c 4 11 c 7 7 c 8 4 c 11 0 c 8 -4 c 3 -3 c 4 -12 c 0 -15 c -4 -11 c -3 -4 c
-8 -4 c -11 0 c -8 4 c -7 8 c -4 11 c -4 15 c -4 8 c -7 3 c -8 0 c -7 -3 c -4 -12 c 0 -15 c 0 42 3223 2112 l 30 -23 c 0 12 c 4 7 c
4 4 c 11 4 c 8 0 c 11 -4 c 7 -8 c 4 -11 c 0 -11 c -4 -12 c -3 -3 c -8 -4 c 0 -249 3445 5259 l -8 -4 3413 5380 l -3 -11 c 0 -8 c
3 -11 c 12 -8 c 19 -3 c 19 0 c 15 3 c 7 8 c 4 11 c 0 4 c -4 11 c -7 8 c -12 4 c -3 0 c -12 -4 c -7 -8 c -4 -11 c 0 -4 c 4 -11 c
7 -8 c 12 -3 c 53 -37 3402 5444 l 0 56 c 79 0 3402 5444 l 11 -4 3428 5531 l 8 -7 c 4 -11 c 0 -4 c -4 -12 c -8 -7 c -11 -4 c -4 0 c
-11 4 c -8 7 c -3 12 c 0 4 c 3 11 c 8 7 c 15 4 c 19 0 c 19 -4 c 11 -7 c 4 -11 c 0 -8 c -4 -11 c -7 -4 c 3 -11 3402 5580 l 12 -8 c
19 -3 c 11 0 c 19 3 c 11 8 c 4 11 c 0 8 c -4 11 c -11 8 c -19 4 c -11 0 c -19 -4 c -12 -8 c -3 -11 c 0 -8 c 4 -4 3473 5641 l 4 4 c
-4 4 c -4 -4 c 79 -38 3402 5724 l 0 53 3402 5671 l 0 42 3402 5754 l 30 -23 c 0 11 c 4 8 c 3 4 c 12 4 c 7 0 c 12 -4 c 7 -8 c 4 -11 c
0 -11 c -4 -12 c -4 -4 c -7 -3 c 79 -38 3402 5875 l 0 53 3402 5822 l 0 -249 3683 2323 l -7 -4 3651 2444 l -4 -11 c 0 -7 c 4 -12 c
11 -7 c 19 -4 c 19 0 c 15 4 c 7 7 c 4 12 c 0 3 c -4 12 c -7 7 c -12 4 c -3 0 c -12 -4 c -7 -7 c -4 -12 c 0 -3 c 4 -12 c 7 -7 c
12 -4 c 53 -37 3640 2508 l 0 56 c 79 0 3640 2508 l 12 -3 3666 2595 l 7 -8 c 4 -11 c 0 -4 c -4 -11 c -7 -8 c -12 -4 c -4 0 c -11 4 c
-7 8 c -4 11 c 0 4 c 4 11 c 7 8 c 15 3 c 19 0 c 19 -3 c 11 -8 c 4 -11 c 0 -8 c -4 -11 c -7 -4 c 0 42 3640 2629 l 30 -23 c 0 12 c
4 7 c 4 4 c 11 4 c 7 0 c 12 -4 c 7 -8 c 4 -11 c 0 -11 c -4 -12 c -3 -3 c -8 -4 c 3 -4 3712 2705 l 4 4 c -4 4 c -3 -4 c
-4 7 3655 2747 l -11 11 c 79 0 c 12 -4 3666 2860 l 7 -7 c 4 -12 c 0 -4 c -4 -11 c -7 -7 c -12 -4 c -4 0 c -11 4 c -7 7 c -4 11 c
0 4 c 4 12 c 7 7 c 15 4 c 19 0 c 19 -4 c 11 -7 c 4 -12 c 0 -7 c -4 -12 c -7 -3 c 4 -11 3640 2905 l 7 -4 c 8 0 c 7 4 c 4 8 c 4 15 c
4 11 c 7 8 c 8 3 c 11 0 c 8 -3 c 3 -4 c 4 -12 c 0 -15 c -4 -11 c -3 -4 c -8 -4 c -11 0 c -8 4 c -7 8 c -4 11 c -4 15 c -4 8 c -7 4 c
-8 0 c -7 -4 c -4 -12 c 0 -15 c 0 -250 3740 4867 l -7 -4 3707 4988 l -4 -12 c 0 -7 c 4 -12 c 11 -7 c 19 -4 c 19 0 c 15 4 c 8 7 c
3 12 c 0 4 c -3 11 c -8 8 c -11 3 c -4 0 c -11 -3 c -8 -8 c -4 -11 c 0 -4 c 4 -12 c 8 -7 c 11 -4 c 53 -38 3696 5052 l 0 57 c
79 0 3696 5052 l 11 -4 3723 5139 l 7 -8 c 4 -11 c 0 -4 c -4 -11 c -7 -8 c -11 -3 c -4 0 c -12 3 c -7 8 c -4 11 c 0 4 c 4 11 c 7 8 c
16 4 c 18 0 c 19 -4 c 12 -8 c 3 -11 c 0 -8 c -3 -11 c -8 -4 c 0 41 3696 5173 l 30 -22 c 0 11 c 4 7 c 4 4 c 11 4 c 8 0 c 11 -4 c
8 -7 c 3 -12 c 0 -11 c -3 -11 c -4 -4 c -8 -4 c 4 -3 3768 5248 l 3 3 c -3 4 c -4 -4 c 79 -37 3696 5331 l 0 52 3696 5279 l
79 -38 3696 5407 l 0 53 3696 5354 l 4 -12 3696 5449 l 7 -4 c 8 0 c 8 4 c 3 8 c 4 15 c 4 11 c 7 8 c 8 4 c 11 0 c 8 -4 c 4 -4 c
3 -11 c 0 -15 c -3 -12 c -4 -4 c -8 -3 c -11 0 c -8 3 c -7 8 c -4 11 c -4 15 c -3 8 c -8 4 c -8 0 c -7 -4 c -4 -11 c 0 -15 c
0 -249 4311 1986 l -8 -3 4279 2107 l -3 -12 c 0 -7 c 3 -12 c 12 -7 c 19 -4 c 19 0 c 15 4 c 7 7 c 4 12 c 0 3 c -4 12 c -7 7 c -12 4 c
-3 0 c -12 -4 c -7 -7 c -4 -12 c 0 -3 c 4 -12 c 7 -7 c 12 -4 c 53 -38 4268 2172 l 0 56 c 79 0 4268 2172 l 11 -3 4294 2258 l 8 -8 c
4 -11 c 0 -4 c -4 -11 c -8 -8 c -11 -4 c -4 0 c -11 4 c -8 8 c -3 11 c 0 4 c 3 11 c 8 8 c 15 3 c 19 0 c 19 -3 c 11 -8 c 4 -11 c
0 -8 c -4 -11 c -7 -4 c 11 -4 4294 2334 l 8 -7 c 4 -12 c 0 -3 c -4 -12 c -8 -7 c -11 -4 c -4 0 c -11 4 c -8 7 c -3 12 c 0 3 c 3 12 c
8 7 c 15 4 c 19 0 c 19 -4 c 11 -7 c 4 -12 c 0 -7 c -4 -12 c -7 -3 c 4 -4 4339 2368 l 4 4 c -4 4 c -4 -4 c -8 -3 4279 2447 l -3 -12 c
0 -7 c 3 -12 c 12 -7 c 19 -4 c 19 0 c 15 4 c 7 7 c 4 12 c 0 4 c -4 11 c -7 7 c -12 4 c -3 0 c -12 -4 c -7 -7 c -4 -11 c 0 -4 c
4 -12 c 7 -7 c 12 -4 c 53 -38 4268 2512 l 0 57 c 79 0 4268 2512 l -8 -4 4279 2599 l -3 -11 c 0 -8 c 3 -11 c 12 -8 c 19 -4 c 19 0 c
15 4 c 7 8 c 4 11 c 0 4 c -4 11 c -7 8 c -12 3 c -3 0 c -12 -3 c -7 -8 c -4 -11 c 0 -4 c 4 -11 c 7 -8 c 12 -4 c 0 -250 4541 1877 l
-8 -4 4509 1998 l -3 -12 c 0 -7 c 3 -11 c 12 -8 c 19 -4 c 19 0 c 15 4 c 7 8 c 4 11 c 0 4 c -4 11 c -7 8 c -12 3 c -3 0 c -12 -3 c
-7 -8 c -4 -11 c 0 -4 c 4 -11 c 7 -8 c 12 -4 c 0 -37 4498 2069 l 34 -4 c -4 4 c -4 11 c 0 11 c 4 12 c 7 7 c 12 4 c 7 0 c 12 -4 c
7 -7 c 4 -12 c 0 -11 c -4 -11 c -4 -4 c -7 -4 c 3 -11 4498 2122 l 12 -8 c 19 -3 c 11 0 c 19 3 c 11 8 c 4 11 c 0 8 c -4 11 c -11 8 c
-19 4 c -11 0 c -19 -4 c -12 -8 c -3 -11 c 0 -8 c -4 7 4513 2187 l -11 11 c 79 0 c 4 -3 4569 2258 l 4 3 c -4 4 c -4 -4 c
11 -4 4524 2338 l 8 -8 c 4 -11 c 0 -4 c -4 -11 c -8 -8 c -11 -3 c -4 0 c -11 3 c -8 8 c -3 11 c 0 4 c 3 11 c 8 8 c 15 4 c 19 0 c
19 -4 c 11 -8 c 4 -11 c 0 -7 c -4 -12 c -7 -4 c 11 -3 4524 2413 l 8 -8 c 4 -11 c 0 -4 c -4 -11 c -8 -8 c -11 -4 c -4 0 c -11 4 c
-8 8 c -3 11 c 0 4 c 3 11 c 8 8 c 15 3 c 19 0 c 19 -3 c 11 -8 c 4 -11 c 0 -8 c -4 -11 c -7 -4 c -3 0 4516 2444 l -8 3 c -4 4 c
-3 8 c 0 15 c 3 7 c 4 4 c 8 4 c 7 0 c 8 -4 c 11 -7 c 38 -38 c 0 53 c 0 -249 4691 2161 l -7 -4 4658 2282 l -4 -11 c 0 -7 c 4 -12 c
11 -7 c 19 -4 c 19 0 c 15 4 c 8 7 c 4 12 c 0 3 c -4 12 c -8 7 c -11 4 c -4 0 c -11 -4 c -8 -7 c -4 -12 c 0 -3 c 4 -12 c 8 -7 c
11 -4 c 0 -38 4647 2354 l 34 -4 c -4 4 c -3 12 c 0 11 c 3 11 c 8 8 c 11 4 c 8 0 c 11 -4 c 8 -8 c 4 -11 c 0 -11 c -4 -12 c -4 -4 c
-8 -3 c 4 -11 4647 2407 l 11 -8 c 19 -4 c 12 0 c 18 4 c 12 8 c 4 11 c 0 8 c -4 11 c -12 7 c -18 4 c -12 0 c -19 -4 c -11 -7 c
-4 -11 c 0 -8 c 0 42 4647 2467 l 30 -23 c 0 12 c 4 7 c 4 4 c 11 4 c 8 0 c 11 -4 c 8 -8 c 4 -11 c 0 -11 c -4 -12 c -4 -3 c -8 -4 c
4 -4 4719 2543 l 4 4 c -4 4 c -4 -4 c 0 -38 4647 2619 l 34 -4 c -4 4 c -3 11 c 0 12 c 3 11 c 8 7 c 11 4 c 8 0 c 11 -4 c 8 -7 c
4 -11 c 0 -12 c -4 -11 c -4 -4 c -8 -4 c -4 8 4662 2660 l -11 11 c 80 0 c -4 7 4662 2736 l -11 12 c 80 0 c 0 -249 5034 1951 l
-7 -4 5001 2072 l -4 -11 c 0 -8 c 4 -11 c 11 -7 c 19 -4 c 19 0 c 15 4 c 8 7 c 3 11 c 0 4 c -3 12 c -8 7 c -11 4 c -4 0 c -11 -4 c
-8 -7 c -4 -12 c 0 -4 c 4 -11 c 8 -7 c 11 -4 c 0 -38 4990 2144 l 34 -4 c -4 4 c -4 12 c 0 11 c 4 11 c 8 8 c 11 4 c 8 0 c 11 -4 c
8 -8 c 3 -11 c 0 -11 c -3 -12 c -4 -4 c -8 -3 c 4 -11 4990 2197 l 11 -8 c 19 -4 c 11 0 c 19 4 c 12 8 c 3 11 c 0 7 c -3 12 c -12 7 c
-19 4 c -11 0 c -19 -4 c -11 -7 c -4 -12 c 0 -7 c -7 -4 5001 2299 l -4 -11 c 0 -8 c 4 -11 c 11 -8 c 19 -3 c 19 0 c 15 3 c 8 8 c
3 11 c 0 4 c -3 11 c -8 8 c -11 4 c -4 0 c -11 -4 c -8 -8 c -4 -11 c 0 -4 c 4 -11 c 8 -8 c 11 -3 c 4 -4 5062 2333 l 3 4 c -3 4 c
-4 -4 c 12 -3 5016 2412 l 7 -8 c 4 -11 c 0 -4 c -4 -11 c -7 -8 c -12 -4 c -3 0 c -12 4 c -7 8 c -4 11 c 0 4 c 4 11 c 7 8 c 15 3 c
19 0 c 19 -3 c 12 -8 c 3 -11 c 0 -8 c -3 -11 c -8 -4 c 4 -12 4990 2458 l 7 -3 c 8 0 c 7 3 c 4 8 c 4 15 c 4 11 c 7 8 c 8 4 c 11 0 c
8 -4 c 4 -4 c 3 -11 c 0 -15 c -3 -12 c -4 -3 c -8 -4 c -11 0 c -8 4 c -7 7 c -4 11 c -4 16 c -4 7 c -7 4 c -8 0 c -7 -4 c -4 -11 c
0 -15 c 79 -38 4990 2567 l 0 53 4990 2514 l 0 -249 5238 2311 l -8 -4 5206 2432 l -3 -11 c 0 -8 c 3 -11 c 12 -7 c 19 -4 c 18 0 c
16 4 c 7 7 c 4 11 c 0 4 c -4 12 c -7 7 c -12 4 c -4 0 c -11 -4 c -7 -7 c -4 -12 c 0 -4 c 4 -11 c 7 -7 c 11 -4 c 0 -38 5195 2504 l
34 -4 c -4 4 c -4 12 c 0 11 c 4 11 c 7 8 c 12 4 c 7 0 c 12 -4 c 7 -8 c 4 -11 c 0 -11 c -4 -12 c -4 -4 c -7 -3 c 3 -11 5195 2557 l
12 -8 c 19 -4 c 11 0 c 19 4 c 11 8 c 4 11 c 0 7 c -4 12 c -11 7 c -19 4 c -11 0 c -19 -4 c -12 -7 c -3 -12 c 0 -7 c
11 -4 5221 2659 l 8 -7 c 4 -12 c 0 -4 c -4 -11 c -8 -7 c -11 -4 c -4 0 c -11 4 c -8 7 c -3 11 c 0 4 c 3 12 c 8 7 c 15 4 c 19 0 c
19 -4 c 11 -7 c 4 -12 c 0 -7 c -4 -12 c -7 -3 c 4 -4 5266 2693 l 4 4 c -4 4 c -4 -4 c 3 -11 5195 2746 l 12 -8 c 19 -4 c 11 0 c
19 4 c 11 8 c 4 11 c 0 7 c -4 12 c -11 7 c -19 4 c -11 0 c -19 -4 c -12 -7 c -3 -12 c 0 -7 c 0 -38 5195 2844 l 34 -3 c -4 3 c
-4 12 c 0 11 c 4 11 c 7 8 c 12 4 c 7 0 c 12 -4 c 7 -8 c 4 -11 c 0 -11 c -4 -12 c -4 -3 c -7 -4 c 3 -11 5195 2897 l 12 -8 c 19 -4 c
11 0 c 19 4 c 11 8 c 4 11 c 0 8 c -4 11 c -11 7 c -19 4 c -11 0 c -19 -4 c -12 -7 c -3 -11 c 0 -8 c 0 -250 5568 4966 l
-8 -4 5536 5087 l -4 -11 c 0 -8 c 4 -11 c 11 -8 c 19 -4 c 19 0 c 15 4 c 8 8 c 4 11 c 0 4 c -4 11 c -8 8 c -11 4 c -4 0 c -11 -4 c
-8 -8 c -4 -11 c 0 -4 c 4 -11 c 8 -8 c 11 -4 c 0 -38 5524 5159 l 34 -4 c -4 4 c -3 11 c 0 11 c 3 12 c 8 7 c 11 4 c 8 0 c 11 -4 c
8 -7 c 4 -12 c 0 -11 c -4 -11 c -4 -4 c -8 -4 c -3 8 5539 5200 l -12 11 c 80 0 c -4 0 5543 5268 l -7 4 c -4 4 c -4 7 c 0 15 c 4 8 c
4 4 c 7 4 c 8 0 c 7 -4 c 12 -8 c 38 -38 c 0 53 c 4 -4 5596 5348 l 4 4 c -4 3 c -4 -3 c 0 42 5524 5385 l 30 -23 c 0 12 c 4 7 c 4 4 c
11 4 c 8 0 c 11 -4 c 8 -8 c 4 -11 c 0 -11 c -4 -12 c -4 -3 c -8 -4 c -8 -4 5536 5503 l -4 -12 c 0 -7 c 4 -12 c 11 -7 c 19 -4 c
19 0 c 15 4 c 8 7 c 4 12 c 0 4 c -4 11 c -8 8 c -11 3 c -4 0 c -11 -3 c -8 -8 c -4 -11 c 0 -4 c 4 -12 c 8 -7 c 11 -4 c
53 -38 5524 5567 l 0 57 c 80 0 5524 5567 l 0 -249 6542 1912 l -8 -4 6510 2033 l -4 -11 c 0 -8 c 4 -11 c 12 -8 c 18 -3 c 19 0 c
15 3 c 8 8 c 4 11 c 0 4 c -4 11 c -8 8 c -11 4 c -4 0 c -11 -4 c -8 -8 c -3 -11 c 0 -4 c 3 -11 c 8 -8 c 11 -3 c 0 -38 6498 2105 l
34 -4 c -3 4 c -4 11 c 0 12 c 4 11 c 7 8 c 12 3 c 7 0 c 11 -3 c 8 -8 c 4 -11 c 0 -12 c -4 -11 c -4 -4 c -7 -4 c -3 0 6517 2139 l
-8 4 c -4 3 c -4 8 c 0 15 c 4 8 c 4 3 c 8 4 c 7 0 c 8 -4 c 11 -7 c 38 -38 c 0 53 c -3 0 6517 2214 l -8 4 c -4 4 c -4 8 c 0 15 c
4 7 c 4 4 c 8 4 c 7 0 c 8 -4 c 11 -8 c 38 -37 c 0 53 c 4 -4 6570 2294 l 4 4 c -4 4 c -4 -4 c 4 -12 6498 2347 l 12 -7 c 18 -4 c
12 0 c 19 4 c 11 7 c 4 12 c 0 7 c -4 12 c -11 7 c -19 4 c -12 0 c -18 -4 c -12 -7 c -4 -12 c 0 -7 c 53 -37 6498 2437 l 0 56 c
80 0 6498 2437 l 0 41 6498 2483 l 31 -22 c 0 11 c 3 8 c 4 3 c 12 4 c 7 0 c 11 -4 c 8 -7 c 4 -12 c 0 -11 c -4 -11 c -4 -4 c -7 -4 c
0 -249 7494 7019 l -7 -4 7461 7140 l -4 -11 c 0 -8 c 4 -11 c 11 -8 c 19 -3 c 19 0 c 15 3 c 8 8 c 3 11 c 0 4 c -3 11 c -8 8 c -11 4 c
-4 0 c -12 -4 c -7 -8 c -4 -11 c 0 -4 c 4 -11 c 7 -8 c 12 -3 c 0 -38 7450 7212 l 34 -4 c -4 4 c -4 11 c 0 12 c 4 11 c 8 8 c 11 3 c
8 0 c 11 -3 c 8 -8 c 3 -11 c 0 -12 c -3 -11 c -4 -4 c -8 -3 c 0 41 7450 7250 l 30 -22 c 0 11 c 4 7 c 4 4 c 11 4 c 8 0 c 11 -4 c
8 -7 c 3 -12 c 0 -11 c -3 -11 c -4 -4 c -8 -4 c -4 8 7465 7329 l -11 11 c 79 0 c 4 -4 7522 7401 l 3 4 c -3 4 c -4 -4 c
0 41 7450 7439 l 30 -22 c 0 11 c 4 7 c 4 4 c 11 4 c 8 0 c 11 -4 c 8 -7 c 3 -12 c 0 -11 c -3 -11 c -4 -4 c -8 -4 c 53 -37 7450 7544 l
0 56 c 79 0 7450 7544 l -4 0 7469 7586 l -8 4 c -3 4 c -4 7 c 0 15 c 4 8 c 3 4 c 8 3 c 8 0 c 7 -3 c 11 -8 c 38 -38 c 0 53 c
0 -250 8195 2209 l -7 -4 8163 2330 l -4 -11 c 0 -8 c 4 -11 c 11 -8 c 19 -3 c 19 0 c 15 3 c 7 8 c 4 11 c 0 4 c -4 11 c -7 8 c -12 4 c
-3 0 c -12 -4 c -7 -8 c -4 -11 c 0 -4 c 4 -11 c 7 -8 c 12 -3 c 0 -38 8152 2402 l 34 -4 c -4 4 c -4 11 c 0 12 c 4 11 c 8 7 c 11 4 c
7 0 c 12 -4 c 7 -7 c 4 -11 c 0 -12 c -4 -11 c -3 -4 c -8 -4 c 0 42 8152 2439 l 30 -23 c 0 12 c 4 7 c 4 4 c 11 4 c 7 0 c 12 -4 c
7 -8 c 4 -11 c 0 -11 c -4 -12 c -3 -3 c -8 -4 c 4 -11 8152 2526 l 7 -4 c 8 0 c 7 4 c 4 8 c 4 15 c 4 11 c 7 8 c 8 3 c 11 0 c 8 -3 c
3 -4 c 4 -11 c 0 -16 c -4 -11 c -3 -4 c -8 -3 c -11 0 c -8 3 c -7 8 c -4 11 c -4 15 c -4 8 c -7 4 c -8 0 c -7 -4 c -4 -11 c 0 -16 c
3 -4 8224 2591 l 4 4 c -4 3 c -3 -3 c -4 8 8167 2632 l -11 11 c 79 0 c -4 7 8167 2708 l -11 12 c 79 0 c -4 0 8171 2776 l -8 4 c
-3 3 c -4 8 c 0 15 c 4 8 c 3 3 c 8 4 c 7 0 c 8 -4 c 11 -7 c 38 -38 c 0 53 c 0 -250 8997 1336 l -7 -4 8965 1457 l -4 -11 c 0 -8 c
4 -11 c 11 -8 c 19 -3 c 19 0 c 15 3 c 7 8 c 4 11 c 0 4 c -4 11 c -7 8 c -11 4 c -4 0 c -12 -4 c -7 -8 c -4 -11 c 0 -4 c 4 -11 c
7 -8 c 12 -3 c 0 -38 8954 1529 l 34 -4 c -4 4 c -4 11 c 0 12 c 4 11 c 8 8 c 11 3 c 8 0 c 11 -3 c 7 -8 c 4 -11 c 0 -12 c -4 -11 c
-3 -4 c -8 -4 c 53 -38 8954 1597 l 0 57 c 79 0 8954 1597 l 0 -38 8954 1680 l 34 -4 c -4 4 c -4 11 c 0 12 c 4 11 c 8 8 c 11 4 c 8 0 c
11 -4 c 7 -8 c 4 -11 c 0 -12 c -4 -11 c -3 -4 c -8 -3 c 3 -4 9026 1718 l 4 4 c -4 4 c -3 -4 c 79 -38 8954 1801 l 0 53 8954 1748 l
-4 7 8969 1835 l -11 12 c 79 0 c 12 -3 8980 1948 l 7 -8 c 4 -11 c 0 -4 c -4 -12 c -7 -7 c -12 -4 c -3 0 c -12 4 c -7 7 c -4 12 c
0 4 c 4 11 c 7 8 c 15 3 c 19 0 c 19 -3 c 11 -8 c 4 -11 c 0 -8 c -4 -11 c -7 -4 c
showpage PGPLOT restore
 
%%Trailer
%%DocumentFonts: 
%%Pages: 1
%%EOF
