%!PS-Adobe-3.0 EPSF-3.0
%%For: tab
%%Title: PGPLOT PostScript plot
%%Creator: PGPLOT
%%CreationDate: 20-Apr-1995 16:39
%%BoundingBox: 25 18 587 774
%%DocumentFonts: (atend)
%%LanguageLevel: 1
%%Orientation: Landscape
%%Pages: (atend)
%%EndComments
%%BeginProlog
/l {moveto rlineto currentpoint stroke moveto} bind def
/c {rlineto currentpoint stroke moveto} bind def
/d {moveto 0 0 rlineto currentpoint stroke moveto} bind def
/SLW {5 mul setlinewidth} bind def
/SCF /pop load def
/BP {newpath moveto} bind def
/LP /rlineto load def
/EP {rlineto closepath eofill} bind def
/MB {gsave translate MFAC dup scale 1 setlinewidth 2 setlinecap 0 setlinejoin newpath} bind def
/ME /grestore load def
/C {0 360 arc stroke} bind def
/FC {0 360 arc fill} bind def
%%EndProlog
 
%%Page: 1 1
%%BeginPageSetup
/PGPLOT save def
0.072 0.072 scale
8150 250 translate 90 rotate
1 setlinejoin 1 setlinecap 1 SLW 1 SCF
%%EndPageSetup
0.000 setgray 1 SLW 8939 0 780 780 l 0 6239 c -8939 0 c 0 -6239 c 0 -45 1116 780 l 0 -45 1554 780 l 0 -45 1991 780 l
0 -45 2428 780 l 0 -90 2865 780 l 0 -45 3302 780 l 0 -45 3739 780 l 0 -45 4176 780 l 0 -45 4613 780 l 0 -90 5051 780 l
0 -45 5488 780 l 0 -45 5925 780 l 0 -45 6362 780 l 0 -45 6799 780 l 0 -90 7236 780 l 0 -45 7673 780 l 0 -45 8110 780 l
0 -45 8548 780 l 0 -45 8985 780 l 0 -90 9422 780 l 0 -45 1116 7064 l 0 -45 1554 7064 l 0 -45 1991 7064 l 0 -45 2428 7064 l
0 -90 2865 7109 l 0 -45 3302 7064 l 0 -45 3739 7064 l 0 -45 4176 7064 l 0 -45 4613 7064 l 0 -90 5051 7109 l 0 -45 5488 7064 l
0 -45 5925 7064 l 0 -45 6362 7064 l 0 -45 6799 7064 l 0 -90 7236 7109 l 0 -45 7673 7064 l 0 -45 8110 7064 l 0 -45 8548 7064 l
0 -45 8985 7064 l 0 -90 9422 7109 l -60 0 2775 672 l -6 -54 c 6 6 c 18 6 c 18 0 c 18 -6 c 12 -12 c 6 -18 c 0 -12 c -6 -18 c
-12 -12 c -18 -6 c -18 0 c -18 6 c -6 6 c -6 12 c -18 -6 2859 672 l -12 -18 c -6 -30 c 0 -18 c 6 -30 c 12 -18 c 18 -6 c 12 0 c
18 6 c 12 18 c 6 30 c 0 18 c -6 30 c -12 18 c -18 6 c -12 0 c -18 -6 2979 672 l -12 -18 c -6 -30 c 0 -18 c 6 -30 c 12 -18 c 18 -6 c
12 0 c 18 6 c 12 18 c 6 30 c 0 18 c -6 30 c -12 18 c -18 6 c -12 0 c 12 6 4847 648 l 18 18 c 0 -126 c -18 -6 4985 672 l -12 -18 c
-6 -30 c 0 -18 c 6 -30 c 12 -18 c 18 -6 c 12 0 c 18 6 c 12 18 c 6 30 c 0 18 c -6 30 c -12 18 c -18 6 c -12 0 c -18 -6 5105 672 l
-12 -18 c -6 -30 c 0 -18 c 6 -30 c 12 -18 c 18 -6 c 12 0 c 18 6 c 12 18 c 6 30 c 0 18 c -6 30 c -12 18 c -18 6 c -12 0 c
-18 -6 5225 672 l -12 -18 c -6 -30 c 0 -18 c 6 -30 c 12 -18 c 18 -6 c 12 0 c 18 6 c 12 18 c 6 30 c 0 18 c -6 30 c -12 18 c -18 6 c
-12 0 c 12 6 7032 648 l 18 18 c 0 -126 c -60 0 7206 672 l -6 -54 c 6 6 c 18 6 c 18 0 c 18 -6 c 12 -12 c 6 -18 c 0 -12 c -6 -18 c
-12 -12 c -18 -6 c -18 0 c -18 6 c -6 6 c -6 12 c -18 -6 7290 672 l -12 -18 c -6 -30 c 0 -18 c 6 -30 c 12 -18 c 18 -6 c 12 0 c
18 6 c 12 18 c 6 30 c 0 18 c -6 30 c -12 18 c -18 6 c -12 0 c -18 -6 7410 672 l -12 -18 c -6 -30 c 0 -18 c 6 -30 c 12 -18 c 18 -6 c
12 0 c 18 6 c 12 18 c 6 30 c 0 18 c -6 30 c -12 18 c -18 6 c -12 0 c 0 6 9206 642 l 6 12 c 6 6 c 12 6 c 24 0 c 12 -6 c 6 -6 c
6 -12 c 0 -12 c -6 -12 c -12 -18 c -60 -60 c 84 0 c -18 -6 9356 672 l -12 -18 c -6 -30 c 0 -18 c 6 -30 c 12 -18 c 18 -6 c 12 0 c
18 6 c 12 18 c 6 30 c 0 18 c -6 30 c -12 18 c -18 6 c -12 0 c -18 -6 9476 672 l -12 -18 c -6 -30 c 0 -18 c 6 -30 c 12 -18 c 18 -6 c
12 0 c 18 6 c 12 18 c 6 30 c 0 18 c -6 30 c -12 18 c -18 6 c -12 0 c -18 -6 9596 672 l -12 -18 c -6 -30 c 0 -18 c 6 -30 c 12 -18 c
18 -6 c 12 0 c 18 6 c 12 18 c 6 30 c 0 18 c -6 30 c -12 18 c -18 6 c -12 0 c -90 0 780 801 l -45 0 780 1031 l -45 0 780 1261 l
-45 0 780 1490 l -45 0 780 1720 l -90 0 780 1950 l -45 0 780 2180 l -45 0 780 2410 l -45 0 780 2640 l -45 0 780 2870 l
-90 0 780 3100 l -45 0 780 3330 l -45 0 780 3560 l -45 0 780 3790 l -45 0 780 4020 l -90 0 780 4250 l -45 0 780 4480 l
-45 0 780 4710 l -45 0 780 4939 l -45 0 780 5169 l -90 0 780 5399 l -45 0 780 5629 l -45 0 780 5859 l -45 0 780 6089 l
-45 0 780 6319 l -90 0 780 6549 l -45 0 780 6779 l -45 0 780 7009 l -90 0 9809 801 l -45 0 9764 1031 l -45 0 9764 1261 l
-45 0 9764 1490 l -45 0 9764 1720 l -90 0 9809 1950 l -45 0 9764 2180 l -45 0 9764 2410 l -45 0 9764 2640 l -45 0 9764 2870 l
-90 0 9809 3100 l -45 0 9764 3330 l -45 0 9764 3560 l -45 0 9764 3790 l -45 0 9764 4020 l -90 0 9809 4250 l -45 0 9764 4480 l
-45 0 9764 4710 l -45 0 9764 4939 l -45 0 9764 5169 l -90 0 9809 5399 l -45 0 9764 5629 l -45 0 9764 5859 l -45 0 9764 6089 l
-45 0 9764 6319 l -90 0 9809 6549 l -45 0 9764 6779 l -45 0 9764 7009 l 6 -18 517 795 l 18 -12 c 30 -6 c 18 0 c 30 6 c 18 12 c
6 18 c 0 12 c -6 18 c -18 12 c -30 6 c -18 0 c -30 -6 c -18 -12 c -6 -18 c 0 -12 c -6 12 541 1830 l -18 18 c 126 0 c
6 -18 517 1968 l 18 -12 c 30 -6 c 18 0 c 30 6 c 18 12 c 6 18 c 0 12 c -6 18 c -18 12 c -30 6 c -18 0 c -30 -6 c -18 -12 c -6 -18 c
0 -12 c 63 -45 453 2093 l 0 67 c 94 0 453 2093 l -6 0 547 2842 l -12 6 c -6 6 c -6 12 c 0 24 c 6 12 c 6 6 c 12 6 c 12 0 c 12 -6 c
18 -12 c 60 -60 c 0 84 c 84 84 547 2962 l 84 -84 547 3046 l -6 12 541 3106 l -18 18 c 126 0 c 6 -18 517 3244 l 18 -12 c 30 -6 c
18 0 c 30 6 c 18 12 c 6 18 c 0 12 c -6 18 c -18 12 c -30 6 c -18 0 c -30 -6 c -18 -12 c -6 -18 c 0 -12 c 63 -44 453 3368 l 0 67 c
94 0 453 3368 l 0 66 517 3998 l 48 -36 c 0 18 c 6 12 c 6 6 c 18 6 c 12 0 c 18 -6 c 12 -12 c 6 -18 c 0 -18 c -6 -18 c -6 -6 c
-12 -6 c 84 84 547 4112 l 84 -84 547 4196 l -6 12 541 4256 l -18 18 c 126 0 c 6 -18 517 4394 l 18 -12 c 30 -6 c 18 0 c 30 6 c
18 12 c 6 18 c 0 12 c -6 18 c -18 12 c -30 6 c -18 0 c -30 -6 c -18 -12 c -6 -18 c 0 -12 c 63 -45 453 4518 l 0 68 c 94 0 453 4518 l
84 -60 517 5195 l 0 90 c 126 0 517 5195 l 84 84 547 5261 l 84 -84 547 5345 l -6 12 541 5405 l -18 18 c 126 0 c 6 -18 517 5543 l
18 -12 c 30 -6 c 18 0 c 30 6 c 18 12 c 6 18 c 0 12 c -6 18 c -18 12 c -30 6 c -18 0 c -30 -6 c -18 -12 c -6 -18 c 0 -12 c
63 -45 453 5668 l 0 67 c 94 0 453 5668 l 0 -60 517 6357 l 54 -6 c -6 6 c -6 18 c 0 18 c 6 18 c 12 12 c 18 6 c 12 0 c 18 -6 c
12 -12 c 6 -18 c 0 -18 c -6 -18 c -6 -6 c -12 -6 c 84 84 547 6411 l 84 -84 547 6495 l -6 12 541 6555 l -18 18 c 126 0 c
6 -18 517 6693 l 18 -12 c 30 -6 c 18 0 c 30 6 c 18 12 c 6 18 c 0 12 c -6 18 c -18 12 c -30 6 c -18 0 c -30 -6 c -18 -12 c -6 -18 c
0 -12 c 63 -45 453 6817 l 0 68 c 94 0 453 6817 l
4 1 780 815 l 5 0 c 4 -2 c 4 -1 c 5 0 c 4 0 c 4 0 c 5 -1 c 4 1 c 5 0 c 4 0 c 4 0 c 5 0 c 4 0 c 4 1 c 5 3 c 4 4 c 5 5 c 4 4 c 4 0 c
5 2 c 4 3 c 4 0 c 5 1 c 4 8 c 5 52 c 4 193 c 4 421 c 5 72 c 4 -298 c 4 -383 c 5 -70 c 4 -4 c 5 -2 c 4 -1 c 4 -1 c 5 0 c 4 0 c 4 -1 c
5 -1 c 4 0 c 4 0 c 5 -1 c 4 0 c 5 0 c 4 0 c 4 -1 c 5 1 c 4 3 c 4 3 c 5 3 c 4 0 c 5 -1 c 4 0 c 4 -1 c 5 -1 c 4 0 c 4 -1 c 5 0 c 4 0 c
5 0 c 4 0 c 4 8 c 5 9 c 4 -1 c 4 -10 c 5 -7 c 4 0 c 5 7 c 4 26 c 4 116 c 5 169 c 4 10 c 4 -141 c 5 -168 c 4 -13 c 4 19 c 5 36 c
4 11 c 5 -23 c 4 -38 c 4 -9 c 5 -1 c 4 -24 c 4 0 c 5 18 c 4 -1 c 5 0 c 4 1 c 4 0 c 5 2 c 4 1 c 4 -1 c 5 -3 c 4 0 c 5 -1 c 4 -1 c
4 0 c 5 0 c 4 1 c 4 1 c 5 -1 c 4 0 c 5 0 c 4 -1 c 4 1 c 5 0 c 4 0 c 4 0 c 5 1 c 4 0 c 4 0 c 5 0 c 4 0 c 5 0 c 4 0 c 4 0 c 5 2 c
4 0 c 4 0 c 5 -2 c 4 0 c 5 0 c 4 1 c 4 0 c 5 -1 c 4 1 c 4 1 c 5 1 c 4 0 c 5 0 c 4 1 c 4 2 c 5 4 c 4 7 c 4 32 c 5 179 c 4 895 c
5 2287 c 4 492 c 4 -1294 c 5 -2168 c 4 -390 c 4 -34 c 5 -5 c 4 -3 c 4 -2 c 5 -2 c 4 0 c 5 0 c 4 -1 c 4 0 c 5 0 c 4 -1 c 4 0 c 5 1 c
4 1 c 5 0 c 4 0 c 4 0 c 5 0 c 4 0 c 4 1 c 5 0 c 4 1 c 5 0 c 4 0 c 4 0 c 5 1 c 4 0 c 4 3 c 5 26 c 4 130 c 4 382 c 5 115 c 4 -186 c
5 -377 c 4 -89 c 4 -6 c 5 0 c 4 0 c 4 0 c 5 0 c 4 3 c 5 9 c 4 0 c 4 -5 c 5 -8 c 4 -1 c 4 0 c 5 -1 c 4 1 c 5 0 c 4 0 c 4 1 c 5 6 c
4 6 c 4 -1 c 5 -7 c 4 -4 c 5 0 c 4 0 c 4 0 c 5 -1 c 4 0 c 4 0 c 5 0 c 4 1 c 4 1 c 5 0 c 4 2 c 5 4 c 4 19 c 4 16 c 5 -4 c 4 -21 c
4 -10 c 5 -1 c 4 2 c 5 1 c 4 2 c 4 2 c 5 19 c 4 82 c 4 240 c 5 116 c 4 36 c 5 538 c 4 2704 c 4 1762 c 5 -760 c 4 -3181 c 4 -1382 c
5 -130 c 4 -24 c 5 -5 c 4 -4 c 4 -4 c 5 -4 c 4 -2 c 4 -2 c 5 0 c 4 -2 c 4 -1 c 5 -3 c 4 -1 c 5 0 c 4 0 c 4 -1 c 5 0 c 4 -1 c 4 0 c
5 1 c 4 0 c 5 0 c 4 -2 c 4 0 c 5 -1 c 4 0 c 4 1 c 5 0 c 4 4 c 5 1 c 4 -1 c 4 -4 c 5 0 c 4 4 c 4 1 c 5 3 c 4 8 c 5 45 c 4 56 c 4 9 c
5 -51 c 4 -56 c 4 -14 c 5 -2 c 4 0 c 4 2 c 5 -1 c 4 -5 c 5 -1 c 4 -1 c 4 1 c 5 0 c 4 -1 c 4 0 c 5 0 c 4 0 c 5 0 c 4 0 c 4 0 c 5 0 c
4 0 c 4 1 c 5 0 c 4 0 c 5 -1 c 4 0 c 4 1 c 5 0 c 4 2 c 4 0 c 5 -1 c 4 -1 c 5 -1 c 4 2 c 4 0 c 5 0 c 4 0 c 4 0 c 5 0 c 4 -1 c 4 0 c
5 0 c 4 1 c 5 -1 c 4 0 c 4 -1 c 5 1 c 4 0 c 4 0 c 5 0 c 4 4 c 5 2 c 4 0 c 4 -4 c 5 -2 c 4 -1 c 4 0 c 5 1 c 4 0 c 5 1 c 4 0 c 4 1 c
5 0 c 4 -2 c 4 0 c 5 1 c 4 0 c 4 0 c 5 0 c 4 -1 c 5 -1 c 4 0 c 4 1 c 5 2 c 4 23 c 4 31 c 5 3 c 4 -29 c 5 -27 c 4 -3 c 4 0 c 5 0 c
4 -1 c 4 0 c 5 -1 c 4 0 c 5 1 c 4 0 c 4 2 c 5 5 c 4 22 c 4 58 c 5 26 c 4 -23 c 5 -60 c 4 -22 c 4 -5 c 5 -1 c 4 -1 c 4 -1 c 5 0 c
4 0 c 4 1 c 5 -1 c 4 0 c 5 0 c 4 0 c 4 0 c 5 -1 c 4 0 c 4 0 c 5 -1 c 4 1 c 5 0 c 4 0 c 4 0 c 5 0 c 4 1 c 4 1 c 5 0 c 4 -1 c 5 0 c
4 0 c 4 -1 c 5 0 c 4 -1 c 4 1 c 5 0 c 4 2 c 5 7 c 4 57 c 4 88 c 5 12 c 4 -67 c 4 -90 c 5 -9 c 4 0 c 4 -1 c 5 1 c 4 0 c 5 0 c 4 1 c
4 -1 c 5 1 c 4 0 c 4 0 c 5 1 c 4 2 c 5 2 c 4 -1 c 4 -1 c 5 -3 c 4 -1 c 4 0 c 5 2 c 4 1 c 5 0 c 4 -2 c 4 0 c 5 2 c 4 0 c 4 -2 c
5 -1 c 4 1 c 5 0 c 4 0 c 4 -1 c 5 -2 c 4 1 c 4 0 c 5 0 c 4 0 c 4 0 c 5 0 c 4 0 c 5 0 c 4 0 c 4 2 c 5 0 c 4 -1 c 4 -1 c 5 0 c 4 0 c
5 1 c 4 2 c 4 4 c 5 7 c 4 6 c 4 -2 c 5 -9 c 4 -8 c 5 0 c 4 0 c 4 0 c 5 0 c 4 -1 c 4 -1 c 5 -1 c 4 0 c 5 0 c 4 2 c 4 2 c 5 0 c 4 1 c
4 0 c 5 1 c 4 0 c 4 0 c 5 0 c 4 0 c 5 0 c 4 0 c 4 10 c 5 34 c 4 11 c 4 -16 c 5 -34 c 4 -6 c 5 0 c 4 0 c 4 0 c 5 0 c 4 0 c 4 0 c
5 0 c 4 0 c 5 0 c 4 0 c 4 0 c 5 -1 c 4 0 c 4 0 c 5 1 c 4 1 c 4 0 c 5 -1 c 4 -1 c 5 0 c 4 0 c 4 0 c 5 1 c 4 0 c 4 2 c 5 9 c 4 14 c
5 -1 c 4 -14 c 4 -10 c 5 0 c 4 2 c 4 0 c 5 0 c 4 0 c 5 1 c 4 1 c 4 -1 c 5 -1 c 4 0 c 4 -1 c 5 -1 c 4 0 c 5 -1 c 4 1 c 4 -1 c 5 1 c
4 0 c 4 0 c 5 0 c 4 1 c 4 4 c 5 37 c 4 124 c 5 51 c 4 -36 c 4 -133 c 5 -42 c 4 -4 c 4 -1 c 5 1 c 4 -1 c 5 -1 c 4 0 c 4 -1 c 5 0 c
4 0 c 4 1 c 5 -1 c 4 0 c 5 0 c 4 0 c 4 0 c 5 0 c 4 1 c 4 -1 c 5 0 c 4 1 c 5 0 c 4 0 c 4 0 c 5 2 c 4 17 c 4 13 c 5 -2 c 4 -21 c
4 -9 c 5 0 c 4 1 c 5 0 c 4 -1 c 4 0 c 5 1 c 4 -1 c 4 0 c 5 -1 c 4 1 c 5 1 c 4 1 c 4 0 c 5 -1 c 4 -1 c 4 -1 c 5 0 c 4 1 c 5 0 c 4 0 c
4 0 c 5 0 c 4 -1 c 4 0 c 5 0 c 4 0 c 5 1 c 4 0 c 4 0 c 5 -1 c 4 1 c 4 1 c 5 0 c 4 0 c 4 1 c 5 1 c 4 0 c 5 -2 c 4 1 c 4 1 c 5 9 c
4 20 c 4 10 c 5 -12 c 4 -22 c 5 -6 c 4 -1 c 4 0 c 5 0 c 4 0 c 4 0 c 5 0 c 4 0 c 5 -1 c 4 0 c 4 1 c 5 0 c 4 0 c 4 0 c 5 -1 c 4 0 c
4 0 c 5 1 c 4 -1 c 5 0 c 4 0 c 4 1 c 5 1 c 4 0 c 4 0 c 5 1 c 4 0 c 5 1 c 4 19 c 4 16 c 5 -2 c 4 -21 c 4 -11 c 5 0 c 4 -2 c 5 1 c
4 7 c 4 3 c 5 0 c 4 -5 c 4 -1 c 5 -2 c 4 4 c 5 5 c 4 0 c 4 -7 c 5 0 c 4 29 c 4 85 c 5 39 c 4 -5 c 4 127 c 5 152 c 4 -16 c 5 -256 c
4 -147 c 4 -7 c 5 0 c 4 -1 c 4 -1 c 5 -1 c 4 0 c 5 10 c 4 33 c 4 35 c 5 20 c 4 -27 c 4 -38 c 5 -29 c 4 2 c 5 12 c 4 13 c 4 -3 c
5 -9 c 4 1 c 4 104 c 5 188 c 4 149 c 5 1134 c 4 2981 c 4 1142 c 5 -1391 c 4 -3348 c 4 -905 c 5 -56 c 4 -6 c 4 -3 c 5 -1 c 4 -3 c
5 -2 c 4 -1 c 4 -1 c 5 0 c 4 0 c 4 -1 c 5 0 c 4 -1 c 5 -1 c 4 -1 c 4 0 c 5 0 c 4 0 c 4 0 c 5 1 c 4 2 c 5 0 c 4 4 c 4 -1 c 5 -1 c
4 -5 c 4 -1 c 5 0 c 4 0 c 5 0 c 4 -1 c 4 1 c 5 0 c 4 -1 c 4 0 c 5 -1 c 4 1 c 4 0 c 5 0 c 4 1 c 5 -1 c 4 6 c 4 9 c 5 1 c 4 -6 c
4 -8 c 5 -1 c 4 -1 c 5 1 c 4 1 c 4 2 c 5 1 c 4 2 c 4 11 c 5 65 c 4 117 c 5 53 c 4 -58 c 4 -128 c 5 -49 c 4 -8 c 4 -4 c 5 -2 c 4 -1 c
5 -2 c 4 0 c 4 -1 c 5 0 c 4 -1 c 4 0 c 5 0 c 4 0 c 4 0 c 5 0 c 4 0 c 5 0 c 4 -1 c 4 2 c 5 3 c 4 -1 c 4 -1 c 5 -1 c 4 0 c 5 -1 c
4 -1 c 4 0 c 5 0 c 4 0 c 4 0 c 5 0 c 4 0 c 5 1 c 4 0 c 4 2 c 5 6 c 4 33 c 4 111 c 5 96 c 4 -3 c 4 -108 c 5 -103 c 4 -20 c 5 -7 c
4 -3 c 4 -2 c 5 -1 c 4 -2 c 4 -2 c 5 0 c 4 -1 c 5 0 c 4 -1 c 4 1 c 5 0 c 4 1 c 4 -1 c 5 0 c 4 1 c 5 7 c 4 8 c 4 0 c 5 -8 c 4 -7 c
4 0 c 5 2 c 4 0 c 5 -1 c 4 -1 c 4 -1 c 5 0 c 4 0 c 4 -1 c 5 1 c 4 3 c 4 16 c 5 11 c 4 -2 c 5 -18 c 4 -10 c 4 -1 c 5 0 c 4 0 c 4 1 c
5 0 c 4 8 c 5 18 c 4 5 c 4 -10 c 5 -17 c 4 -4 c 4 0 c 5 0 c 4 0 c 5 0 c 4 0 c 4 1 c 5 1 c 4 20 c 4 141 c 5 108 c 4 4 c 5 -151 c
4 -115 c 4 -8 c 5 1 c 4 -1 c 4 0 c 5 0 c 4 0 c 4 0 c 5 -1 c 4 0 c 5 -1 c 4 1 c 4 1 c 5 0 c 4 0 c 4 0 c 5 -1 c 4 -1 c 5 0 c 4 0 c
4 0 c 5 0 c 4 0 c 4 2 c 5 0 c 4 -1 c 5 -1 c 4 0 c 4 0 c 5 0 c 4 1 c 4 0 c 5 -1 c 4 1 c 5 0 c 4 0 c 4 1 c 5 13 c 4 60 c 4 40 c
5 -12 c 4 -61 c 4 -37 c 5 -4 c 4 0 c 5 -1 c 4 1 c 4 0 c 5 0 c 4 0 c 4 0 c 5 0 c 4 1 c 5 0 c 4 1 c 4 4 c 5 3 c 4 0 c 4 -3 c 5 4 c
4 75 c 5 391 c 4 331 c 4 -24 c 5 -427 c 4 -126 c 4 159 c 5 24 c 4 -179 c 5 -195 c 4 -35 c 4 1 c 5 6 c 4 11 c 4 4 c 5 -4 c 4 -12 c
4 -6 c 5 6 c 4 5 c 5 2 c 4 -4 c 4 -5 c 5 -3 c 4 -1 c 4 28 c 5 70 c 4 23 c 5 -30 c 4 -72 c 4 -40 c 5 17 c 4 2 c 4 3 c 5 0 c 4 -3 c
5 -3 c 4 0 c 4 1 c 5 0 c 4 1 c 4 -1 c 5 0 c 4 -1 c 4 1 c 5 0 c 4 0 c 5 0 c 4 1 c 4 17 c 5 25 c 4 6 c 4 -21 c 5 -23 c 4 -5 c 5 0 c
4 0 c 4 1 c 5 0 c 4 -1 c 4 -1 c 5 0 c 4 0 c 5 0 c 4 0 c 4 0 c 5 0 c 4 2 c 4 5 c 5 9 c 4 1 c 5 -5 c 4 -9 c 4 -2 c 5 -1 c 4 0 c 4 1 c
5 2 c 4 2 c 4 0 c 5 -1 c 4 -2 c 5 1 c 4 0 c 4 -1 c 5 -2 c 4 0 c 4 0 c 5 0 c 4 0 c 5 0 c 4 1 c 4 0 c 5 0 c 4 0 c 4 0 c 5 0 c 4 0 c
5 0 c 4 -1 c 4 1 c 5 0 c 4 0 c 4 0 c 5 0 c 4 1 c 5 1 c 4 0 c 4 -1 c 5 -1 c 4 0 c 4 0 c 5 0 c 4 1 c 4 0 c 5 0 c 4 0 c 5 2 c 4 21 c
4 38 c 5 7 c 4 -23 c 4 -33 c 5 -3 c 4 9 c 5 34 c 4 63 c 4 17 c 5 -35 c 4 -70 c 4 -22 c 5 -1 c 4 0 c 5 0 c 4 0 c 4 1 c 5 2 c 4 0 c
4 -1 c 5 0 c 4 1 c 5 -1 c 4 3 c 4 3 c 5 5 c 4 12 c 4 9 c 5 -1 c 4 -9 c 4 -10 c 5 2 c 4 6 c 5 7 c 4 12 c 4 13 c 5 13 c 4 -2 c 4 -2 c
5 15 c 4 45 c 5 167 c 4 2112 c 3 3794 c 4 -4560 5567 7019 l 4 -1477 c 5 -68 c 4 -20 c 4 -16 c 5 -5 c 4 -7 c 4 -3 c 5 -11 c 4 -2 c
4 -6 c 5 -3 c 4 -5 c 5 -1 c 4 -1 c 4 -2 c 5 1 c 4 -2 c 4 -1 c 5 -2 c 4 6 c 5 11 c 4 6 c 4 -3 c 5 -11 c 4 -7 c 4 -2 c 5 -2 c 4 -1 c
5 -1 c 4 -23 c 4 25 c 4 6193 c 4 -5640 5729 7019 l 4 -531 c 4 -13 c 5 5 c 4 4 c 4 -4 c 5 -8 c 4 -4 c 4 -1 c 5 -1 c 4 -1 c 5 0 c
4 0 c 4 0 c 5 -1 c 4 1 c 4 -1 c 5 1 c 4 -1 c 5 1 c 4 1 c 4 -1 c 5 -1 c 4 0 c 4 0 c 5 0 c 4 0 c 5 4 c 4 43 c 4 59 c 5 9 c 4 -46 c
4 -56 c 5 -12 c 4 1 c 5 0 c 4 -1 c 4 -2 c 5 2 c 4 3 c 4 13 c 5 89 c 4 112 c 4 18 c 5 -83 c 4 -125 c 5 -27 c 4 -1 c 4 -1 c 5 1 c
4 0 c 4 0 c 5 -1 c 4 -1 c 5 0 c 4 1 c 4 0 c 5 1 c 4 0 c 4 1 c 5 0 c 4 1 c 5 1 c 4 3 c 4 1 c 5 0 c 4 1 c 4 3 c 5 2 c 4 4 c 5 5 c
4 13 c 4 59 c 5 659 c 4 2564 c 4 2719 c 1 159 c 3 -2363 6070 7019 l 5 -2679 c 4 -1024 c 5 -94 c 4 -12 c 4 -5 c 5 -4 c 4 -2 c 4 -2 c
5 -2 c 4 -1 c 5 -1 c 4 -2 c 4 -1 c 5 -1 c 4 0 c 4 0 c 5 -1 c 4 -1 c 5 0 c 4 1 c 4 2 c 5 1 c 4 -1 c 4 -2 c 5 0 c 4 0 c 5 1 c 4 -1 c
4 -2 c 5 0 c 4 0 c 4 1 c 5 0 c 4 -1 c 4 2 c 5 5 c 4 6 c 5 0 c 4 -7 c 4 -6 c 5 0 c 4 5 c 4 3 c 5 -1 c 4 -5 c 5 -4 c 4 0 c 4 0 c
5 -1 c 4 -1 c 4 1 c 5 0 c 4 0 c 5 0 c 4 0 c 4 0 c 5 0 c 4 0 c 4 0 c 5 0 c 4 1 c 4 9 c 5 7 c 4 3 c 5 -7 c 4 -7 c 4 -4 c 5 -2 c 4 -1 c
4 1 c 5 0 c 4 0 c 5 0 c 4 1 c 4 0 c 5 0 c 4 1 c 4 10 c 5 44 c 4 25 c 5 0 c 4 -11 c 4 177 c 5 264 c 4 117 c 4 -188 c 5 -180 c 4 -43 c
5 -36 c 4 -121 c 4 -50 c 5 -5 c 4 -2 c 4 -2 c 5 1 c 4 5 c 4 7 c 5 1 c 4 -6 c 5 -7 c 4 -2 c 4 0 c 5 0 c 4 0 c 4 1 c 5 2 c 4 15 c
5 69 c 4 34 c 4 -10 c 5 -70 c 4 -32 c 4 7 c 5 12 c 4 22 c 5 72 c 4 63 c 4 11 c 5 -76 c 4 -85 c 4 -54 c 5 27 c 4 -3 c 5 -1 c 4 -2 c
4 -1 c 5 -1 c 4 0 c 4 0 c 5 -1 c 4 0 c 4 1 c 5 0 c 4 -1 c 5 0 c 4 0 c 4 1 c 5 0 c 4 0 c 4 0 c 5 0 c 4 0 c 5 -1 c 4 0 c 4 0 c 5 -1 c
4 1 c 4 0 c 5 0 c 4 0 c 5 0 c 4 0 c 4 0 c 5 1 c 4 0 c 4 0 c 5 0 c 4 -1 c 5 0 c 4 0 c 4 1 c 5 0 c 4 -1 c 4 -1 c 5 2 c 4 3 c 4 1 c
5 0 c 4 -4 c 5 -1 c 4 0 c 4 1 c 5 0 c 4 0 c 4 -1 c 5 0 c 4 0 c 5 0 c 4 1 c 4 0 c 5 1 c 4 1 c 4 0 c 5 4 c 4 51 c 5 279 c 4 190 c
4 -12 c 5 -275 c 4 -203 c 4 -27 c 5 -3 c 4 0 c 5 7 c 4 105 c 4 333 c 5 165 c 4 -67 c 4 -363 c 5 -167 c 4 -16 c 4 4 c 5 4 c 4 -1 c
5 -5 c 4 -2 c 4 2 c 5 1 c 4 -1 c 4 -2 c 5 3 c 4 23 c 5 75 c 4 48 c 4 -7 c 5 -70 c 4 -56 c 4 -10 c 5 -4 c 4 -1 c 5 -1 c 4 -1 c 4 -1 c
5 1 c 4 1 c 4 1 c 5 0 c 4 -3 c 4 -1 c 5 -2 c 4 0 c 5 1 c 4 0 c 4 1 c 5 -1 c 4 0 c 4 -1 c 5 1 c 4 -1 c 5 1 c 4 0 c 4 0 c 5 0 c 4 0 c
4 -1 c 5 1 c 4 2 c 5 2 c 4 2 c 4 0 c 5 -1 c 4 -1 c 4 -1 c 5 0 c 4 -1 c 5 0 c 4 1 c 4 -1 c 5 0 c 4 0 c 4 0 c 5 0 c 4 2 c 4 26 c
5 42 c 4 28 c 5 -14 c 4 -45 c 4 -33 c 5 -6 c 4 -1 c 4 1 c 5 -1 c 4 1 c 5 1 c 4 2 c 4 15 c 5 14 c 4 1 c 4 -13 c 5 -15 c 4 -4 c 5 -2 c
4 0 c 4 -1 c 5 1 c 4 0 c 4 0 c 5 1 c 4 6 c 5 6 c 4 1 c 4 -5 c 5 -8 c 4 -2 c 4 0 c 5 0 c 4 0 c 4 0 c 5 0 c 4 0 c 5 2 c 4 -2 c 4 0 c
5 0 c 4 1 c 4 0 c 5 -1 c 4 0 c 5 1 c 4 1 c 4 -1 c 5 -1 c 4 0 c 4 0 c 5 0 c 4 0 c 5 1 c 4 -1 c 4 1 c 5 -1 c 4 2 c 4 2 c 5 0 c 4 -1 c
5 -3 c 4 -1 c 4 0 c 5 1 c 4 0 c 4 -1 c 5 0 c 4 0 c 4 0 c 5 0 c 4 0 c 5 0 c 4 0 c 4 0 c 5 0 c 4 0 c 4 0 c 5 0 c 4 1 c 5 0 c 4 0 c
4 1 c 5 0 c 4 -1 c 4 0 c 5 1 c 4 1 c 5 1 c 4 -2 c 4 0 c 5 0 c 4 0 c 4 9 c 5 8 c 4 -1 c 5 -9 c 4 -8 c 4 -1 c 5 0 c 4 1 c 4 0 c 5 -1 c
4 0 c 4 0 c 5 1 c 4 2 c 5 3 c 4 0 c 4 -1 c 5 -3 c 4 -1 c 4 0 c 5 0 c 4 0 c 5 2 c 4 2 c 4 2 c 5 4 c 4 8 c 4 4 c 5 -4 c 4 -11 c 5 -6 c
4 -1 c 4 0 c 5 1 c 4 3 c 4 1 c 5 1 c 4 15 c 4 38 c 5 3 c 4 -13 c 5 -41 c 4 -7 c 4 -1 c 5 0 c 4 0 c 4 2 c 5 0 c 4 4 c 5 31 c 4 58 c
4 23 c 5 -14 c 4 -2 c 4 12 c 5 -9 c 4 -60 c 5 -40 c 4 -3 c 4 0 c 5 0 c 4 0 c 4 -1 c 5 -1 c 4 0 c 5 3 c 4 2 c 4 0 c 5 -1 c 4 -3 c
4 -1 c 5 -1 c 4 1 c 4 0 c 5 0 c 4 0 c 5 0 c 4 0 c 4 0 c 5 0 c 4 1 c 4 1 c 5 1 c 4 -1 c 5 0 c 4 0 c 4 1 c 5 2 c 4 3 c 4 4 c 5 8 c
4 22 c 5 148 c 4 809 c 4 751 c 5 47 c 4 -762 c 4 -837 c 5 -137 c 4 -28 c 5 -10 c 4 -6 c 4 -4 c 5 -3 c 4 -2 c 4 5 c 5 7 c 4 4 c
4 -3 c 5 -8 c 4 -7 c 5 -4 c 4 -1 c 4 1 c 5 0 c 4 8 c 4 13 c 5 1 c 4 -5 c 5 -14 c 4 -4 c 4 -1 c 5 -1 c 4 1 c 4 1 c 5 1 c 4 -1 c
5 -1 c 4 0 c 4 0 c 5 0 c 4 0 c 4 1 c 5 2 c 4 -1 c 5 -1 c 4 -2 c 4 0 c 5 1 c 4 0 c 4 0 c 5 1 c 4 0 c 4 1 c 5 13 c 4 91 c 5 59 c
4 -11 c 4 -81 c 5 -69 c 4 -5 c 4 0 c 5 0 c 4 0 c 5 0 c 4 0 c 4 0 c 5 -1 c 4 0 c 4 0 c 5 -1 c 4 1 c 5 0 c 4 0 c 4 0 c 5 0 c 4 0 c
4 0 c 5 0 c 4 0 c 4 0 c 5 0 c 4 -1 c 5 0 c 4 1 c 4 0 c 5 0 c 4 1 c 4 2 c 5 3 c 4 1 c 5 -3 c 4 -1 c 4 -1 c 5 0 c 4 -1 c 4 0 c 5 0 c
4 0 c 5 0 c 4 0 c 4 4 c 5 32 c 4 107 c 4 30 c 5 -21 c 4 -109 c 5 -40 c 4 -2 c 4 -1 c 5 -1 c 4 0 c 4 0 c 5 2 c 4 0 c 4 1 c 5 0 c
4 1 c 5 -2 c 4 -1 c 4 0 c 5 0 c 4 -1 c 4 0 c 5 1 c 4 0 c 5 0 c 4 -1 c 4 0 c 5 0 c 4 0 c 4 1 c 5 1 c 4 4 c 5 42 c 4 108 c 4 25 c
5 -29 c 4 -111 c 4 -39 c 5 -2 c 4 0 c 5 0 c 4 0 c 4 1 c 5 1 c 4 0 c 4 -1 c 5 0 c 4 -1 c 4 2 c 5 6 c 4 3 c 5 1 c 4 -6 c 4 -5 c 5 0 c
4 0 c 4 -1 c 5 1 c 4 0 c 5 0 c 4 2 c 4 0 c 5 1 c 4 0 c 4 -1 c 5 0 c 4 -1 c 5 1 c 4 1 c 4 1 c 5 5 c 4 46 c 4 75 c 5 28 c 4 235 c
5 1311 c 4 682 c 4 -159 c 5 -1283 c 4 -854 c 4 -72 c 5 -9 c 4 -3 c 4 -2 c 5 -1 c 4 -1 c 5 1 c 4 3 c 4 5 c 5 0 c 4 -1 c 4 -3 c 5 -2 c
4 -2 c 5 -3 c 4 0 c 4 0 c 5 -1 c 4 0 c 4 0 c 5 0 c 4 0 c 5 1 c 4 0 c 4 0 c 5 -1 c 4 0 c 4 0 c 5 1 c 4 0 c 5 1 c 4 0 c 4 -1 c 5 0 c
4 -1 c 4 0 c 5 0 c 4 0 c 4 0 c 5 0 c 4 1 c 5 0 c 4 0 c 4 0 c 5 -1 c 4 1 c 4 1 c 5 0 c 4 1 c 5 3 c 4 30 c 4 252 c 5 312 c 4 21 c
4 -206 c 5 -346 c 4 -62 c 5 -2 c 4 0 c 4 1 c 5 1 c 4 3 c 4 5 c 5 53 c 4 483 c 4 1203 c 5 350 c 4 -369 c 5 -1218 c 4 -368 c 4 10 c
5 -8 c 4 -67 c 4 -69 c 5 -10 c 4 -2 c 5 0 c 4 0 c 4 -1 c 5 -1 c 4 0 c 4 -1 c 5 -1 c 4 0 c 5 1 c 4 -1 c 4 1 c 5 -1 c 4 0 c 4 1 c
5 -1 c 4 1 c 5 1 c 4 3 c 4 -1 c 5 -1 c 4 -2 c 4 0 c 5 11 c 4 30 c 4 7 c 5 -8 c 4 -28 c 5 -12 c 4 0 c 4 0 c 5 0 c 4 2 c 4 1 c 5 0 c
4 -2 c 5 -2 c 4 3 c 4 15 c 5 12 c 4 2 c 4 9 c 5 30 c 4 1 c 5 -19 c 4 -42 c 4 -9 c 5 3 c 4 1 c 4 -1 c 5 -4 c 4 -1 c 5 0 c 4 0 c 4 0 c
5 0 c 4 0 c 4 1 c 5 0 c 4 0 c 4 -1 c 5 -1 c 4 1 c 5 8 c 4 6 c 4 0 c 5 -6 c 4 -7 c 4 -1 c 5 4 c 4 1 c 5 -1 c 4 -3 c 4 -1 c 5 4 c
4 27 c 4 30 c 5 1 c 4 -22 c 5 -34 c 4 -6 c 4 0 c 5 1 c 4 2 c 4 0 c
5 -1 c 4 -2 c 5 0 c 4 1 c 4 -16 c 5 0 c 4 15 c 4 0 c 5 0 c 4 0 c 4 1 c 5 1 c 4 -1 c 5 1 c 4 -1 c 4 -1 c 5 0 c 4 2 c 4 -1 c 5 2 c
4 3 c 5 1 c 4 -2 c 4 -1 c 5 0 c 4 1 c 4 12 c 5 62 c 4 103 c 5 36 c 4 -36 c 4 -118 c 5 -52 c 4 -7 c 4 0 c 5 -2 c 4 0 c 5 0 c 4 2 c
4 29 c 5 131 c 4 96 c 4 -6 c 5 -102 c 4 -126 c
0 -126 3303 418 l 54 0 3303 418 l 18 -6 c 6 -6 c 6 -12 c 0 -12 c -6 -12 c -6 -6 c -18 -6 c -54 0 c 42 -66 3345 358 l
-12 -6 3453 376 l -12 -12 c -6 -18 c 0 -12 c 6 -18 c 12 -12 c 12 -6 c 18 0 c 12 6 c 12 12 c 6 18 c 0 12 c -6 18 c -12 12 c -12 6 c
-18 0 c 24 -84 3537 376 l -24 -84 3585 376 l 24 -84 3585 376 l -24 -84 3633 376 l 108 0 3675 364 l 108 0 3675 328 l 12 6 3939 394 l
18 18 c 0 -126 c -18 -6 4077 418 l -12 -18 c -6 -30 c 0 -18 c 6 -30 c 12 -18 c 18 -6 c 12 0 c 18 6 c 12 18 c 6 30 c 0 18 c -6 30 c
-12 18 c -18 6 c -12 0 c -12 -6 4287 376 l -12 -12 c -6 -18 c 0 -12 c 6 -18 c 12 -12 c 12 -6 c 18 0 c 12 6 c 12 12 c 6 18 c 0 12 c
-6 18 c -12 12 c -12 6 c -18 0 c -12 0 4413 418 l -12 -6 c -6 -18 c 0 -102 c 42 0 4365 376 l 0 6 4545 388 l 6 12 c 6 6 c 12 6 c
24 0 c 12 -6 c 6 -6 c 6 -12 c 0 -12 c -6 -12 c -12 -18 c -60 -60 c 84 0 c -18 -6 4695 418 l -12 -18 c -6 -30 c 0 -18 c 6 -30 c
12 -18 c 18 -6 c 12 0 c 18 6 c 12 18 c 6 30 c 0 18 c -6 30 c -12 18 c -18 6 c -12 0 c 12 6 5181 394 l 18 18 c 0 -126 c
-6 -6 5294 376 l 6 -6 c 6 6 c -6 6 c -6 -6 5294 304 l 6 -6 c 6 6 c -6 6 c -48 -126 5474 418 l 48 -126 5474 418 l 60 0 5444 334 l
0 -84 5552 376 l 6 18 5552 340 l 12 12 c 12 6 c 18 0 c -12 12 5696 358 l -12 6 c -18 0 c -12 -6 c -12 -12 c -6 -18 c 0 -12 c 6 -18 c
12 -12 c 12 -6 c 18 0 c 12 6 c 12 12 c 108 0 5738 346 l 12 6 5906 394 l 18 18 c 0 -126 c 66 0 6020 418 l -36 -48 c 18 0 c 12 -6 c
6 -6 c 6 -18 c 0 -12 c -6 -18 c -12 -12 c -18 -6 c -18 0 c -18 6 c -6 6 c -6 12 c -60 -126 6212 418 l 84 0 6128 418 l
-6 -6 6260 304 l 6 -6 c 6 6 c -6 6 c -12 0 6350 418 l -12 -6 c -6 -18 c 0 -102 c 42 0 6302 376 l 6 -6 6380 418 l 6 6 c -6 6 c
-6 -6 c 0 -84 6386 376 l 0 -102 6440 418 l 6 -18 c 12 -6 c 12 0 c 42 0 6422 376 l -6 12 6566 358 l -18 6 c -18 0 c -18 -6 c -6 -12 c
6 -12 c 12 -6 c 30 -6 c 12 -6 c 6 -12 c 0 -6 c -6 -12 c -18 -6 c -18 0 c -18 6 c -6 12 c 0 -192 6896 442 l 0 -192 6902 442 l
42 0 6896 442 l 42 0 6896 250 l 0 6 6980 388 l 6 12 c 6 6 c 12 6 c 24 0 c 12 -6 c 6 -6 c 6 -12 c 0 -12 c -6 -12 c -12 -18 c
-60 -60 c 84 0 c -6 -6 7106 376 l 6 -6 c 6 6 c -6 6 c -6 -6 7106 304 l 6 -6 c 6 6 c -6 6 c 0 -192 7286 442 l 0 -192 7292 442 l
42 0 7250 442 l 42 0 7250 250 l
0 -249 905 2019 l -7 -4 873 2140 l -4 -11 c 0 -8 c 4 -11 c 11 -8 c 19 -3 c 19 0 c 15 3 c 7 8 c 4 11 c 0 4 c -4 11 c -7 8 c -12 4 c
-3 0 c -12 -4 c -7 -8 c -4 -11 c 0 -4 c 4 -11 c 7 -8 c 12 -3 c 53 -38 862 2204 l 0 57 c 79 0 862 2204 l 4 -12 862 2265 l 11 -7 c
19 -4 c 11 0 c 19 4 c 11 7 c 4 12 c 0 7 c -4 12 c -11 7 c -19 4 c -11 0 c -19 -4 c -11 -7 c -4 -12 c 0 -7 c -7 -4 873 2367 l
-4 -11 c 0 -8 c 4 -11 c 11 -8 c 19 -4 c 19 0 c 15 4 c 7 8 c 4 11 c 0 4 c -4 11 c -7 8 c -12 4 c -3 0 c -12 -4 c -7 -8 c -4 -11 c
0 -4 c 4 -11 c 7 -8 c 12 -4 c 3 -4 934 2401 l 4 4 c -4 4 c -3 -4 c 53 -38 862 2469 l 0 57 c 79 0 862 2469 l 53 -37 862 2544 l 0 56 c
79 0 862 2544 l -7 -3 873 2631 l -4 -12 c 0 -7 c 4 -12 c 11 -7 c 19 -4 c 19 0 c 15 4 c 7 7 c 4 12 c 0 3 c -4 12 c -7 7 c -12 4 c
-3 0 c -12 -4 c -7 -7 c -4 -12 c 0 -3 c 4 -12 c 7 -7 c 12 -4 c 0 -250 1391 5157 l -8 -4 1359 5278 l -4 -11 c 0 -8 c 4 -11 c 11 -8 c
19 -4 c 19 0 c 15 4 c 8 8 c 4 11 c 0 4 c -4 11 c -8 8 c -11 4 c -4 0 c -11 -4 c -8 -8 c -3 -11 c 0 -4 c 3 -11 c 8 -8 c 11 -4 c
53 -38 1347 5342 l 0 57 c 80 0 1347 5342 l -3 8 1362 5391 l -12 11 c 80 0 c -3 7 1362 5467 l -12 12 c 80 0 c 4 -4 1419 5539 l 4 4 c
-4 3 c -4 -3 c 4 -12 1347 5588 l 8 -3 c 7 0 c 8 3 c 4 8 c 3 15 c 4 11 c 8 8 c 7 4 c 12 0 c 7 -4 c 4 -4 c 4 -11 c 0 -15 c -4 -12 c
-4 -3 c -7 -4 c -12 0 c -7 4 c -8 7 c -4 12 c -3 15 c -4 7 c -8 4 c -7 0 c -8 -4 c -4 -11 c 0 -15 c 11 -4 1374 5694 l 8 -8 c 4 -11 c
0 -4 c -4 -11 c -8 -8 c -11 -4 c -4 0 c -11 4 c -8 8 c -4 11 c 0 4 c 4 11 c 8 8 c 15 4 c 19 0 c 19 -4 c 11 -8 c 4 -11 c 0 -8 c
-4 -11 c -8 -4 c 11 -4 1374 5769 l 8 -7 c 4 -12 c 0 -3 c -4 -12 c -8 -7 c -11 -4 c -4 0 c -11 4 c -8 7 c -4 12 c 0 3 c 4 12 c 8 7 c
15 4 c 19 0 c 19 -4 c 11 -7 c 4 -12 c 0 -7 c -4 -11 c -8 -4 c 0 -249 1544 1918 l -7 -4 1512 2039 l -4 -11 c 0 -8 c 4 -11 c 11 -7 c
19 -4 c 19 0 c 15 4 c 7 7 c 4 11 c 0 4 c -4 12 c -7 7 c -12 4 c -3 0 c -12 -4 c -7 -7 c -4 -12 c 0 -4 c 4 -11 c 7 -7 c 12 -4 c
53 -37 1501 2103 l 0 56 c 79 0 1501 2103 l -4 8 1516 2152 l -11 11 c 79 0 c 0 42 1501 2224 l 30 -23 c 0 12 c 4 7 c 4 4 c 11 4 c
7 0 c 12 -4 c 7 -8 c 4 -11 c 0 -11 c -4 -12 c -3 -3 c -8 -4 c 3 -4 1573 2300 l 4 4 c -4 4 c -3 -4 c -7 -4 1512 2379 l -4 -11 c
0 -7 c 4 -12 c 11 -7 c 19 -4 c 19 0 c 15 4 c 7 7 c 4 12 c 0 3 c -4 12 c -7 7 c -12 4 c -3 0 c -12 -4 c -7 -7 c -4 -12 c 0 -3 c
4 -12 c 7 -7 c 12 -4 c -4 8 1516 2417 l -11 11 c 79 0 c 53 -38 1501 2519 l 0 57 c 79 0 1501 2519 l 0 -250 1786 6769 l
-8 -4 1754 6890 l -4 -11 c 0 -8 c 4 -11 c 11 -8 c 19 -4 c 19 0 c 15 4 c 8 8 c 4 11 c 0 4 c -4 11 c -8 8 c -11 4 c -4 0 c -11 -4 c
-8 -8 c -3 -11 c 0 -4 c 3 -11 c 8 -8 c 11 -4 c 53 -38 1742 6954 l 0 57 c 80 0 1742 6954 l -3 8 1757 7003 l -12 11 c 80 0 c
-8 -4 1754 7117 l -4 -12 c 0 -7 c 4 -11 c 11 -8 c 19 -4 c 19 0 c 15 4 c 8 8 c 4 11 c 0 4 c -4 11 c -8 8 c -11 3 c -4 0 c -11 -3 c
-8 -8 c -3 -11 c 0 -4 c 3 -11 c 8 -8 c 11 -4 c 4 -4 1814 7151 l 4 4 c -4 3 c -4 -3 c 0 42 1742 7188 l 31 -23 c 0 12 c 3 7 c 4 4 c
11 4 c 8 0 c 11 -4 c 8 -8 c 4 -11 c 0 -11 c -4 -12 c -4 -3 c -7 -4 c 4 -11 1742 7279 l 11 -8 c 19 -4 c 12 0 c 19 4 c 11 8 c 4 11 c
0 8 c -4 11 c -11 8 c -19 3 c -12 0 c -19 -3 c -11 -8 c -4 -11 c 0 -8 c 80 -38 1742 7385 l 0 53 1742 7332 l 0 -250 2553 1423 l
-8 -4 2521 1544 l -4 -12 c 0 -7 c 4 -11 c 12 -8 c 19 -4 c 18 0 c 16 4 c 7 8 c 4 11 c 0 4 c -4 11 c -7 8 c -12 3 c -4 0 c -11 -3 c
-7 -8 c -4 -11 c 0 -4 c 4 -11 c 7 -8 c 11 -4 c 53 -38 2509 1608 l 0 57 c 80 0 2509 1608 l -3 0 2528 1649 l -8 4 c -4 4 c -4 7 c
0 16 c 4 7 c 4 4 c 8 4 c 7 0 c 8 -4 c 11 -8 c 38 -37 c 0 52 c 53 -38 2509 1759 l 0 57 c 80 0 2509 1759 l 4 -3 2581 1804 l 4 3 c
-4 4 c -4 -4 c 4 -11 2509 1853 l 8 -4 c 7 0 c 8 4 c 4 8 c 4 15 c 3 11 c 8 8 c 7 3 c 12 0 c 7 -3 c 4 -4 c 4 -11 c 0 -16 c -4 -11 c
-4 -4 c -7 -3 c -12 0 c -7 3 c -8 8 c -3 11 c -4 15 c -4 8 c -8 4 c -7 0 c -8 -4 c -4 -11 c 0 -16 c -4 8 2525 1921 l -12 11 c 80 0 c
0 42 2509 1993 l 31 -23 c 0 12 c 4 7 c 3 4 c 12 4 c 7 0 c 12 -4 c 7 -8 c 4 -11 c 0 -11 c -4 -12 c -4 -3 c -7 -4 c 0 -249 2913 1315 l
-7 -4 2880 1436 l -4 -11 c 0 -8 c 4 -11 c 11 -8 c 19 -3 c 19 0 c 15 3 c 8 8 c 3 11 c 0 4 c -3 11 c -8 8 c -11 4 c -4 0 c -11 -4 c
-8 -8 c -4 -11 c 0 -4 c 4 -11 c 8 -8 c 11 -3 c 53 -38 2869 1500 l 0 57 c 79 0 2869 1500 l -4 0 2888 1542 l -7 4 c -4 3 c -4 8 c
0 15 c 4 8 c 4 3 c 7 4 c 8 0 c 7 -4 c 12 -7 c 37 -38 c 0 53 c 4 -12 2869 1633 l 7 -4 c 8 0 c 8 4 c 3 8 c 4 15 c 4 11 c 7 8 c 8 4 c
11 0 c 8 -4 c 4 -4 c 3 -11 c 0 -15 c -3 -12 c -4 -4 c -8 -3 c -11 0 c -8 3 c -7 8 c -4 11 c -4 15 c -3 8 c -8 4 c -8 0 c -7 -4 c
-4 -11 c 0 -15 c 4 -4 2941 1697 l 3 4 c -3 4 c -4 -4 c 79 -38 2869 1780 l 0 53 2869 1727 l 79 -38 2869 1856 l 0 53 2869 1803 l
0 41 2869 1886 l 30 -22 c 0 11 c 4 8 c 4 3 c 11 4 c 8 0 c 11 -4 c 8 -7 c 3 -12 c 0 -11 c -3 -11 c -4 -4 c -8 -4 c 0 -250 3735 1694 l
-8 -4 3703 1815 l -4 -12 c 0 -7 c 4 -11 c 12 -8 c 19 -4 c 18 0 c 16 4 c 7 8 c 4 11 c 0 4 c -4 11 c -7 8 c -12 3 c -4 0 c -11 -3 c
-7 -8 c -4 -11 c 0 -4 c 4 -11 c 7 -8 c 11 -4 c 53 -38 3691 1879 l 0 57 c 80 0 3691 1879 l 0 42 3691 1924 l 31 -23 c 0 11 c 4 8 c
3 4 c 12 3 c 7 0 c 12 -3 c 7 -8 c 4 -11 c 0 -12 c -4 -11 c -4 -4 c -7 -3 c 80 -38 3691 2045 l 0 53 3691 1992 l 4 -3 3763 2075 l
4 3 c -4 4 c -4 -4 c 80 -37 3691 2158 l 0 52 3691 2106 l -8 -4 3703 2230 l -4 -11 c 0 -7 c 4 -12 c 12 -7 c 19 -4 c 18 0 c 16 4 c
7 7 c 4 12 c 0 3 c -4 12 c -7 7 c -12 4 c -4 0 c -11 -4 c -7 -7 c -4 -12 c 0 -3 c 4 -12 c 7 -7 c 11 -4 c -4 8 3707 2268 l -12 11 c
80 0 c 0 -249 3857 6983 l -8 -4 3825 7104 l -4 -11 c 0 -7 c 4 -12 c 11 -7 c 19 -4 c 19 0 c 15 4 c 8 7 c 4 12 c 0 3 c -4 12 c -8 7 c
-11 4 c -4 0 c -11 -4 c -8 -7 c -3 -12 c 0 -3 c 3 -12 c 8 -7 c 11 -4 c 53 -37 3813 7168 l 0 56 c 80 0 3813 7168 l 0 41 3813 7214 l
31 -22 c 0 11 c 3 8 c 4 3 c 11 4 c 8 0 c 11 -4 c 8 -7 c 4 -12 c 0 -11 c -4 -11 c -4 -4 c -7 -4 c 11 -4 3840 7331 l 8 -7 c 3 -12 c
0 -3 c -3 -12 c -8 -7 c -11 -4 c -4 0 c -11 4 c -8 7 c -4 12 c 0 3 c 4 12 c 8 7 c 15 4 c 19 0 c 19 -4 c 11 -7 c 4 -12 c 0 -7 c
-4 -12 c -8 -3 c 4 -4 3885 7365 l 4 4 c -4 4 c -4 -4 c 4 -11 3813 7418 l 11 -8 c 19 -4 c 12 0 c 19 4 c 11 8 c 4 11 c 0 7 c -4 12 c
-11 7 c -19 4 c -12 0 c -19 -4 c -11 -7 c -4 -12 c 0 -7 c 80 -38 3813 7524 l 0 53 3813 7471 l -4 0 3832 7550 l -7 4 c -4 4 c -4 7 c
0 15 c 4 8 c 4 4 c 7 4 c 8 0 c 8 -4 c 11 -8 c 38 -38 c 0 53 c 0 -249 4301 1506 l -7 -3 4268 1627 l -4 -12 c 0 -7 c 4 -12 c 11 -7 c
19 -4 c 19 0 c 15 4 c 8 7 c 3 12 c 0 4 c -3 11 c -8 7 c -11 4 c -4 0 c -11 -4 c -8 -7 c -4 -11 c 0 -4 c 4 -12 c 8 -7 c 11 -4 c
53 -38 4257 1692 l 0 57 c 79 0 4257 1692 l 53 -38 4257 1767 l 0 57 c 79 0 4257 1767 l 0 41 4257 1813 l 30 -22 c 0 11 c 4 7 c 4 4 c
11 4 c 8 0 c 11 -4 c 8 -7 c 3 -12 c 0 -11 c -3 -11 c -4 -4 c -8 -4 c 4 -4 4329 1888 l 3 4 c -3 4 c -4 -4 c 4 -11 4257 1937 l 7 -4 c
8 0 c 8 4 c 3 8 c 4 15 c 4 11 c 7 8 c 8 3 c 11 0 c 8 -3 c 4 -4 c 3 -12 c 0 -15 c -3 -11 c -4 -4 c -8 -4 c -11 0 c -8 4 c -7 8 c
-4 11 c -4 15 c -3 8 c -8 4 c -8 0 c -7 -4 c -4 -12 c 0 -15 c -7 -4 4268 2043 l -4 -11 c 0 -8 c 4 -11 c 11 -7 c 19 -4 c 19 0 c
15 4 c 8 7 c 3 11 c 0 4 c -3 12 c -8 7 c -11 4 c -4 0 c -11 -4 c -8 -7 c -4 -12 c 0 -4 c 4 -11 c 8 -7 c 11 -4 c 4 -11 4257 2092 l
11 -8 c 19 -3 c 11 0 c 19 3 c 12 8 c 3 11 c 0 8 c -3 11 c -12 8 c -19 4 c -11 0 c -19 -4 c -11 -8 c -4 -11 c 0 -8 c
0 -250 4572 1530 l -7 -4 4539 1651 l -4 -11 c 0 -8 c 4 -11 c 11 -8 c 19 -4 c 19 0 c 15 4 c 8 8 c 3 11 c 0 4 c -3 11 c -8 8 c -11 4 c
-4 0 c -11 -4 c -8 -8 c -4 -11 c 0 -4 c 4 -11 c 8 -8 c 11 -4 c 53 -38 4528 1715 l 0 57 c 79 0 4528 1715 l 53 -38 4528 1791 l 0 57 c
79 0 4528 1791 l -7 -4 4539 1878 l -4 -12 c 0 -7 c 4 -11 c 11 -8 c 19 -4 c 19 0 c 15 4 c 8 8 c 3 11 c 0 4 c -3 11 c -8 8 c -11 3 c
-4 0 c -11 -3 c -8 -8 c -4 -11 c 0 -4 c 4 -11 c 8 -8 c 11 -4 c 4 -4 4600 1912 l 3 4 c -3 3 c -4 -3 c 79 -38 4528 1995 l
0 53 4528 1942 l 79 -37 4528 2070 l 0 53 4528 2017 l -4 8 4543 2104 l -11 11 c 79 0 c 0 -249 4963 1379 l -7 -3 4930 1500 l -4 -12 c
0 -7 c 4 -12 c 11 -7 c 19 -4 c 19 0 c 15 4 c 8 7 c 4 12 c 0 3 c -4 12 c -8 7 c -11 4 c -4 0 c -11 -4 c -8 -7 c -4 -12 c 0 -3 c
4 -12 c 8 -7 c 11 -4 c 53 -38 4919 1565 l 0 57 c 80 0 4919 1565 l 0 -38 4919 1648 l 34 -4 c -4 4 c -3 11 c 0 12 c 3 11 c 8 8 c
11 3 c 8 0 c 11 -3 c 8 -8 c 4 -11 c 0 -12 c -4 -11 c -4 -4 c -8 -4 c 4 -12 4919 1701 l 11 -7 c 19 -4 c 12 0 c 18 4 c 12 7 c 4 12 c
0 7 c -4 12 c -12 7 c -18 4 c -12 0 c -19 -4 c -11 -7 c -4 -12 c 0 -7 c 4 -4 4991 1761 l 4 4 c -4 4 c -4 -4 c 11 -4 4946 1841 l
8 -8 c 3 -11 c 0 -4 c -3 -11 c -8 -8 c -11 -4 c -4 0 c -12 4 c -7 8 c -4 11 c 0 4 c 4 11 c 7 8 c 16 4 c 19 0 c 18 -4 c 12 -8 c
4 -11 c 0 -8 c -4 -11 c -8 -4 c 0 -37 4919 1912 l 34 -4 c -4 4 c -3 11 c 0 11 c 3 12 c 8 7 c 11 4 c 8 0 c 11 -4 c 8 -7 c 4 -12 c
0 -11 c -4 -11 c -4 -4 c -8 -4 c -7 -4 4930 1992 l -4 -11 c 0 -8 c 4 -11 c 11 -8 c 19 -4 c 19 0 c 15 4 c 8 8 c 4 11 c 0 4 c -4 11 c
-8 8 c -11 4 c -4 0 c -11 -4 c -8 -8 c -4 -11 c 0 -4 c 4 -11 c 8 -8 c 11 -4 c 0 -249 5560 7019 l -7 -4 5527 7140 l -4 -11 c 0 -8 c
4 -11 c 11 -8 c 19 -3 c 19 0 c 15 3 c 8 8 c 3 11 c 0 4 c -3 11 c -8 8 c -11 4 c -4 0 c -11 -4 c -8 -8 c -4 -11 c 0 -4 c 4 -11 c
8 -8 c 11 -3 c 53 -37 5516 7204 l 0 56 c 79 0 5516 7204 l 0 -37 5516 7287 l 34 -4 c -4 4 c -3 11 c 0 11 c 3 12 c 8 7 c 11 4 c 8 0 c
11 -4 c 8 -7 c 3 -12 c 0 -11 c -3 -11 c -4 -4 c -8 -4 c 79 -38 5516 7371 l 0 53 5516 7318 l 4 -4 5588 7401 l 3 4 c -3 4 c -4 -4 c
-4 0 5535 7435 l -7 4 c -4 3 c -4 8 c 0 15 c 4 8 c 4 3 c 7 4 c 8 0 c 7 -4 c 12 -7 c 37 -38 c 0 53 c 4 -12 5516 7526 l 7 -4 c 8 0 c
8 4 c 3 8 c 4 15 c 4 11 c 7 8 c 8 4 c 11 0 c 8 -4 c 4 -4 c 3 -11 c 0 -15 c -3 -12 c -4 -4 c -8 -3 c -11 0 c -8 3 c -7 8 c -4 11 c
-4 15 c -3 8 c -8 4 c -8 0 c -7 -4 c -4 -11 c 0 -15 c -4 0 5535 7586 l -7 4 c -4 4 c -4 7 c 0 15 c 4 8 c 4 4 c 7 3 c 8 0 c 7 -3 c
12 -8 c 37 -38 c 0 53 c 0 -250 5862 1376 l -8 -3 5830 1496 l -3 -12 c 0 -7 c 3 -12 c 12 -7 c 19 -4 c 18 0 c 16 4 c 7 7 c 4 12 c
0 4 c -4 11 c -7 7 c -12 4 c -4 0 c -11 -4 c -7 -7 c -4 -11 c 0 -4 c 4 -12 c 7 -7 c 11 -4 c 52 -38 5819 1561 l 0 57 c
79 0 5819 1561 l -8 -4 5830 1648 l -3 -11 c 0 -8 c 3 -11 c 12 -8 c 19 -4 c 18 0 c 16 4 c 7 8 c 4 11 c 0 4 c -4 11 c -7 8 c -12 3 c
-4 0 c -11 -3 c -7 -8 c -4 -11 c 0 -4 c 4 -11 c 7 -8 c 11 -4 c 3 -12 5819 1697 l 12 -7 c 19 -4 c 11 0 c 19 4 c 11 7 c 4 12 c 0 7 c
-4 12 c -11 7 c -19 4 c -11 0 c -19 -4 c -12 -7 c -3 -12 c 0 -7 c 4 -4 5890 1757 l 4 4 c -4 4 c -4 -4 c 52 -37 5819 1825 l 0 56 c
79 0 5819 1825 l 79 -38 5819 1916 l 0 53 5819 1863 l 0 -38 5819 1984 l 34 -4 c -4 4 c -4 12 c 0 11 c 4 11 c 7 8 c 12 4 c 7 0 c
12 -4 c 7 -8 c 4 -11 c 0 -11 c -4 -12 c -4 -4 c -7 -3 c 0 -249 6445 1885 l -8 -4 6413 2006 l -3 -11 c 0 -8 c 3 -11 c 12 -8 c 19 -3 c
19 0 c 15 3 c 7 8 c 4 11 c 0 4 c -4 12 c -7 7 c -12 4 c -3 0 c -12 -4 c -7 -7 c -4 -12 c 0 -4 c 4 -11 c 7 -8 c 12 -3 c
53 -37 6402 2070 l 0 56 c 79 0 6402 2070 l -8 -4 6413 2157 l -3 -11 c 0 -7 c 3 -12 c 12 -7 c 19 -4 c 19 0 c 15 4 c 7 7 c 4 12 c
0 3 c -4 12 c -7 7 c -12 4 c -3 0 c -12 -4 c -7 -7 c -4 -12 c 0 -3 c 4 -12 c 7 -7 c 12 -4 c -8 -4 6413 2233 l -3 -11 c 0 -8 c
3 -11 c 12 -8 c 19 -4 c 19 0 c 15 4 c 7 8 c 4 11 c 0 4 c -4 11 c -7 8 c -12 4 c -3 0 c -12 -4 c -7 -8 c -4 -11 c 0 -4 c 4 -11 c
7 -8 c 12 -4 c 3 -4 6474 2267 l 4 4 c -4 4 c -3 -4 c 0 -37 6402 2342 l 34 -4 c -4 4 c -4 11 c 0 11 c 4 12 c 7 7 c 12 4 c 7 0 c
12 -4 c 7 -7 c 4 -12 c 0 -11 c -4 -11 c -3 -4 c -8 -4 c -8 -4 6413 2422 l -3 -11 c 0 -8 c 3 -11 c 12 -8 c 19 -4 c 19 0 c 15 4 c
7 8 c 4 11 c 0 4 c -4 11 c -7 8 c -12 4 c -3 0 c -12 -4 c -7 -8 c -4 -11 c 0 -4 c 4 -11 c 7 -8 c 12 -4 c 3 -11 6402 2471 l 12 -8 c
19 -4 c 11 0 c 19 4 c 11 8 c 4 11 c 0 8 c -4 11 c -11 7 c -19 4 c -11 0 c -19 -4 c -12 -7 c -3 -11 c 0 -8 c 0 -249 6893 1782 l
-7 -4 6860 1903 l -4 -11 c 0 -7 c 4 -12 c 11 -7 c 19 -4 c 19 0 c 15 4 c 7 7 c 4 12 c 0 3 c -4 12 c -7 7 c -11 4 c -4 0 c -12 -4 c
-7 -7 c -4 -12 c 0 -3 c 4 -12 c 7 -7 c 12 -4 c 53 -37 6849 1967 l 0 56 c 79 0 6849 1967 l 79 -38 6849 2058 l 0 53 6849 2005 l
-4 8 6864 2092 l -11 11 c 79 0 c 3 -4 6921 2164 l 4 4 c -4 4 c -3 -4 c -4 0 6868 2198 l -8 4 c -3 4 c -4 7 c 0 15 c 4 8 c 3 4 c
8 3 c 8 0 c 7 -3 c 11 -8 c 38 -38 c 0 53 c -4 8 6864 2281 l -11 11 c 79 0 c 0 42 6849 2353 l 30 -23 c 0 11 c 4 8 c 4 4 c 11 3 c
8 0 c 11 -3 c 7 -8 c 4 -11 c 0 -12 c -4 -11 c -3 -4 c -8 -4 c 0 -249 8052 3052 l -7 -3 8019 3173 l -4 -12 c 0 -7 c 4 -12 c 11 -7 c
19 -4 c 19 0 c 15 4 c 8 7 c 3 12 c 0 3 c -3 12 c -8 7 c -11 4 c -4 0 c -11 -4 c -8 -7 c -4 -12 c 0 -3 c 4 -12 c 8 -7 c 11 -4 c
53 -38 8008 3238 l 0 56 c 79 0 8008 3238 l 4 -11 8008 3294 l 7 -4 c 8 0 c 7 4 c 4 7 c 4 16 c 4 11 c 7 7 c 8 4 c 11 0 c 8 -4 c 4 -3 c
3 -12 c 0 -15 c -3 -11 c -4 -4 c -8 -4 c -11 0 c -8 4 c -7 8 c -4 11 c -4 15 c -4 8 c -7 3 c -8 0 c -7 -3 c -4 -12 c 0 -15 c
0 41 8008 3359 l 30 -23 c 0 12 c 4 7 c 4 4 c 11 4 c 8 0 c 11 -4 c 8 -7 c 3 -12 c 0 -11 c -3 -11 c -4 -4 c -8 -4 c 4 -4 8080 3434 l
3 4 c -3 4 c -4 -4 c 4 -11 8008 3487 l 11 -8 c 19 -4 c 11 0 c 19 4 c 12 8 c 3 11 c 0 8 c -3 11 c -12 7 c -19 4 c -11 0 c -19 -4 c
-11 -7 c -4 -11 c 0 -8 c 4 -12 8008 3559 l 7 -3 c 8 0 c 7 3 c 4 8 c 4 15 c 4 12 c 7 7 c 8 4 c 11 0 c 8 -4 c 4 -4 c 3 -11 c 0 -15 c
-3 -12 c -4 -3 c -8 -4 c -11 0 c -8 4 c -7 7 c -4 12 c -4 15 c -4 7 c -7 4 c -8 0 c -7 -4 c -4 -11 c 0 -15 c 0 42 8008 3623 l
30 -23 c 0 11 c 4 8 c 4 4 c 11 3 c 8 0 c 11 -3 c 8 -8 c 3 -11 c 0 -12 c -3 -11 c -4 -4 c -8 -3 c 0 -250 8487 1428 l
-7 -4 8454 1549 l -4 -12 c 0 -7 c 4 -11 c 11 -8 c 19 -4 c 19 0 c 15 4 c 8 8 c 3 11 c 0 4 c -3 11 c -8 8 c -11 3 c -4 0 c -11 -3 c
-8 -8 c -4 -11 c 0 -4 c 4 -11 c 8 -8 c 11 -4 c 53 -38 8443 1613 l 0 57 c 79 0 8443 1613 l 4 -11 8443 1669 l 7 -4 c 8 0 c 7 4 c 4 8 c
4 15 c 4 11 c 7 8 c 8 3 c 11 0 c 8 -3 c 4 -4 c 3 -11 c 0 -16 c -3 -11 c -4 -4 c -8 -3 c -11 0 c -8 3 c -7 8 c -4 11 c -4 15 c -4 8 c
-7 4 c -8 0 c -7 -4 c -4 -11 c 0 -16 c 79 -38 8443 1779 l 0 53 8443 1726 l 4 -3 8515 1809 l 3 3 c -3 4 c -4 -4 c 53 -37 8443 1877 l
0 56 c 79 0 8443 1877 l 4 -11 8443 1934 l 7 -4 c 8 0 c 7 4 c 4 7 c 4 15 c 4 12 c 7 7 c 8 4 c 11 0 c 8 -4 c 4 -4 c 3 -11 c 0 -15 c
-3 -11 c -4 -4 c -8 -4 c -11 0 c -8 4 c -7 7 c -4 12 c -4 15 c -4 7 c -7 4 c -8 0 c -7 -4 c -4 -11 c 0 -15 c -4 8 8458 2002 l
-11 11 c 79 0 c 0 -250 8626 1435 l -8 -4 8594 1556 l -3 -11 c 0 -8 c 3 -11 c 12 -8 c 19 -4 c 18 0 c 16 4 c 7 8 c 4 11 c 0 4 c
-4 11 c -7 8 c -12 3 c -4 0 c -11 -3 c -7 -8 c -4 -11 c 0 -4 c 4 -11 c 7 -8 c 11 -4 c 52 -38 8583 1620 l 0 57 c 79 0 8583 1620 l
3 -12 8583 1677 l 8 -4 c 7 0 c 8 4 c 4 8 c 4 15 c 3 11 c 8 8 c 7 4 c 12 0 c 7 -4 c 4 -4 c 4 -11 c 0 -15 c -4 -12 c -4 -4 c -7 -3 c
-12 0 c -7 3 c -8 8 c -3 11 c -4 15 c -4 8 c -8 4 c -7 0 c -8 -4 c -3 -11 c 0 -15 c 3 -11 8583 1752 l 8 -4 c 7 0 c 8 4 c 4 7 c
4 16 c 3 11 c 8 7 c 7 4 c 12 0 c 7 -4 c 4 -3 c 4 -12 c 0 -15 c -4 -11 c -4 -4 c -7 -4 c -12 0 c -7 4 c -8 8 c -3 11 c -4 15 c -4 8 c
-8 3 c -7 0 c -8 -3 c -3 -12 c 0 -15 c 4 -3 8654 1816 l 4 3 c -4 4 c -4 -4 c 3 -12 8583 1866 l 8 -4 c 7 0 c 8 4 c 4 8 c 4 15 c
3 11 c 8 8 c 7 4 c 12 0 c 7 -4 c 4 -4 c 4 -11 c 0 -15 c -4 -12 c -4 -4 c -7 -3 c -12 0 c -7 3 c -8 8 c -3 11 c -4 15 c -4 8 c -8 4 c
-7 0 c -8 -4 c -3 -11 c 0 -15 c 3 -11 8583 1941 l 8 -4 c 7 0 c 8 4 c 4 7 c 4 15 c 3 12 c 8 7 c 7 4 c 12 0 c 7 -4 c 4 -3 c 4 -12 c
0 -15 c -4 -11 c -4 -4 c -7 -4 c -12 0 c -7 4 c -8 8 c -3 11 c -4 15 c -4 8 c -8 3 c -7 0 c -8 -3 c -3 -12 c 0 -15 c
0 42 8583 2005 l 30 -23 c 0 12 c 4 7 c 3 4 c 12 4 c 7 0 c 12 -4 c 7 -8 c 4 -11 c 0 -11 c -4 -12 c -4 -3 c -7 -4 c 0 -249 8811 3641 l
-8 -4 8779 3762 l -4 -11 c 0 -8 c 4 -11 c 11 -7 c 19 -4 c 19 0 c 15 4 c 8 7 c 4 11 c 0 4 c -4 12 c -8 7 c -11 4 c -4 0 c -11 -4 c
-8 -7 c -3 -12 c 0 -4 c 3 -11 c 8 -7 c 11 -4 c 53 -37 8767 3826 l 0 56 c 80 0 8767 3826 l 11 -4 8794 3913 l 8 -7 c 3 -11 c 0 -4 c
-3 -12 c -8 -7 c -11 -4 c -4 0 c -11 4 c -8 7 c -4 12 c 0 4 c 4 11 c 8 7 c 15 4 c 19 0 c 19 -4 c 11 -7 c 4 -11 c 0 -8 c -4 -11 c
-8 -4 c 4 -11 8767 3962 l 11 -7 c 19 -4 c 12 0 c 19 4 c 11 7 c 4 11 c 0 8 c -4 11 c -11 8 c -19 4 c -12 0 c -19 -4 c -11 -8 c
-4 -11 c 0 -8 c 4 -4 8839 4023 l 4 4 c -4 4 c -4 -4 c 80 -38 8767 4106 l 0 53 8767 4053 l 0 42 8767 4136 l 31 -23 c 0 12 c 3 7 c
4 4 c 11 4 c 8 0 c 11 -4 c 8 -8 c 4 -11 c 0 -11 c -4 -12 c -4 -4 c -7 -3 c 80 -38 8767 4257 l 0 53 8767 4204 l 0 -250 9058 1875 l
-7 -4 9025 1996 l -4 -11 c 0 -8 c 4 -11 c 11 -8 c 19 -4 c 19 0 c 15 4 c 8 8 c 3 11 c 0 4 c -3 11 c -8 8 c -11 4 c -4 0 c -12 -4 c
-7 -8 c -4 -11 c 0 -4 c 4 -11 c 7 -8 c 12 -4 c 53 -38 9014 2060 l 0 57 c 79 0 9014 2060 l 12 -4 9040 2147 l 7 -7 c 4 -12 c 0 -3 c
-4 -12 c -7 -7 c -12 -4 c -3 0 c -12 4 c -7 7 c -4 12 c 0 3 c 4 12 c 7 7 c 15 4 c 19 0 c 19 -4 c 12 -7 c 3 -12 c 0 -7 c -3 -12 c
-8 -3 c 0 42 9014 2181 l 30 -23 c 0 11 c 4 8 c 4 4 c 11 3 c 8 0 c 11 -3 c 8 -8 c 3 -11 c 0 -12 c -3 -11 c -4 -4 c -8 -4 c
4 -4 9086 2257 l 3 4 c -3 3 c -4 -3 c -4 8 9029 2298 l -11 11 c 79 0 c 12 -4 9040 2412 l 7 -8 c 4 -11 c 0 -4 c -4 -11 c -7 -8 c
-12 -4 c -3 0 c -12 4 c -7 8 c -4 11 c 0 4 c 4 11 c 7 8 c 15 4 c 19 0 c 19 -4 c 12 -8 c 3 -11 c 0 -8 c -3 -11 c -8 -4 c
4 -11 9014 2457 l 7 -4 c 8 0 c 7 4 c 4 7 c 4 15 c 4 12 c 7 7 c 8 4 c 11 0 c 8 -4 c 4 -4 c 3 -11 c 0 -15 c -3 -11 c -4 -4 c -8 -4 c
-11 0 c -8 4 c -7 7 c -4 12 c -4 15 c -4 7 c -7 4 c -8 0 c -7 -4 c -4 -11 c 0 -15 c 0 -249 9116 3358 l -8 -4 9084 3479 l -4 -11 c
0 -8 c 4 -11 c 11 -8 c 19 -3 c 19 0 c 15 3 c 8 8 c 4 11 c 0 4 c -4 11 c -8 8 c -11 4 c -4 0 c -11 -4 c -8 -8 c -4 -11 c 0 -4 c
4 -11 c 8 -8 c 11 -3 c 53 -38 9072 3543 l 0 57 c 80 0 9072 3543 l 11 -4 9099 3630 l 8 -7 c 3 -11 c 0 -4 c -3 -12 c -8 -7 c -11 -4 c
-4 0 c -11 4 c -8 7 c -4 12 c 0 4 c 4 11 c 8 7 c 15 4 c 19 0 c 18 -4 c 12 -7 c 4 -11 c 0 -8 c -4 -11 c -8 -4 c 0 42 9072 3664 l
30 -23 c 0 11 c 4 8 c 4 4 c 11 4 c 8 0 c 11 -4 c 8 -8 c 4 -11 c 0 -11 c -4 -12 c -4 -4 c -8 -3 c 4 -4 9144 3740 l 4 4 c -4 4 c
-4 -4 c 80 -38 9072 3823 l 0 53 9072 3770 l 80 -38 9072 3899 l 0 53 9072 3846 l 4 -11 9072 3940 l 8 -4 c 7 0 c 8 4 c 3 7 c 4 15 c
4 12 c 8 7 c 7 4 c 11 0 c 8 -4 c 4 -3 c 4 -12 c 0 -15 c -4 -11 c -4 -4 c -8 -4 c -11 0 c -7 4 c -8 8 c -4 11 c -4 15 c -3 8 c -8 3 c
-7 0 c -8 -3 c -4 -12 c 0 -15 c
showpage PGPLOT restore
 
%%Trailer
%%DocumentFonts: 
%%Pages: 1
%%EOF
