%!PS-Adobe-3.0 EPSF-3.0
%%For: tab
%%Title: PGPLOT PostScript plot
%%Creator: PGPLOT
%%CreationDate: 20-Apr-1995 16:43
%%BoundingBox: 25 18 587 774
%%DocumentFonts: (atend)
%%LanguageLevel: 1
%%Orientation: Landscape
%%Pages: (atend)
%%EndComments
%%BeginProlog
/l {moveto rlineto currentpoint stroke moveto} bind def
/c {rlineto currentpoint stroke moveto} bind def
/d {moveto 0 0 rlineto currentpoint stroke moveto} bind def
/SLW {5 mul setlinewidth} bind def
/SCF /pop load def
/BP {newpath moveto} bind def
/LP /rlineto load def
/EP {rlineto closepath eofill} bind def
/MB {gsave translate MFAC dup scale 1 setlinewidth 2 setlinecap 0 setlinejoin newpath} bind def
/ME /grestore load def
/C {0 360 arc stroke} bind def
/FC {0 360 arc fill} bind def
%%EndProlog
 
%%Page: 1 1
%%BeginPageSetup
/PGPLOT save def
0.072 0.072 scale
8150 250 translate 90 rotate
1 setlinejoin 1 setlinecap 1 SLW 1 SCF
%%EndPageSetup
0.000 setgray 1 SLW 8939 0 780 780 l 0 6239 c -8939 0 c 0 -6239 c 0 -45 1116 780 l 0 -45 1554 780 l 0 -45 1991 780 l
0 -45 2428 780 l 0 -90 2865 780 l 0 -45 3302 780 l 0 -45 3739 780 l 0 -45 4176 780 l 0 -45 4613 780 l 0 -90 5051 780 l
0 -45 5488 780 l 0 -45 5925 780 l 0 -45 6362 780 l 0 -45 6799 780 l 0 -90 7236 780 l 0 -45 7673 780 l 0 -45 8110 780 l
0 -45 8548 780 l 0 -45 8985 780 l 0 -90 9422 780 l 0 -45 1116 7064 l 0 -45 1554 7064 l 0 -45 1991 7064 l 0 -45 2428 7064 l
0 -90 2865 7109 l 0 -45 3302 7064 l 0 -45 3739 7064 l 0 -45 4176 7064 l 0 -45 4613 7064 l 0 -90 5051 7109 l 0 -45 5488 7064 l
0 -45 5925 7064 l 0 -45 6362 7064 l 0 -45 6799 7064 l 0 -90 7236 7109 l 0 -45 7673 7064 l 0 -45 8110 7064 l 0 -45 8548 7064 l
0 -45 8985 7064 l 0 -90 9422 7109 l -60 0 2775 672 l -6 -54 c 6 6 c 18 6 c 18 0 c 18 -6 c 12 -12 c 6 -18 c 0 -12 c -6 -18 c
-12 -12 c -18 -6 c -18 0 c -18 6 c -6 6 c -6 12 c -18 -6 2859 672 l -12 -18 c -6 -30 c 0 -18 c 6 -30 c 12 -18 c 18 -6 c 12 0 c
18 6 c 12 18 c 6 30 c 0 18 c -6 30 c -12 18 c -18 6 c -12 0 c -18 -6 2979 672 l -12 -18 c -6 -30 c 0 -18 c 6 -30 c 12 -18 c 18 -6 c
12 0 c 18 6 c 12 18 c 6 30 c 0 18 c -6 30 c -12 18 c -18 6 c -12 0 c 12 6 4847 648 l 18 18 c 0 -126 c -18 -6 4985 672 l -12 -18 c
-6 -30 c 0 -18 c 6 -30 c 12 -18 c 18 -6 c 12 0 c 18 6 c 12 18 c 6 30 c 0 18 c -6 30 c -12 18 c -18 6 c -12 0 c -18 -6 5105 672 l
-12 -18 c -6 -30 c 0 -18 c 6 -30 c 12 -18 c 18 -6 c 12 0 c 18 6 c 12 18 c 6 30 c 0 18 c -6 30 c -12 18 c -18 6 c -12 0 c
-18 -6 5225 672 l -12 -18 c -6 -30 c 0 -18 c 6 -30 c 12 -18 c 18 -6 c 12 0 c 18 6 c 12 18 c 6 30 c 0 18 c -6 30 c -12 18 c -18 6 c
-12 0 c 12 6 7032 648 l 18 18 c 0 -126 c -60 0 7206 672 l -6 -54 c 6 6 c 18 6 c 18 0 c 18 -6 c 12 -12 c 6 -18 c 0 -12 c -6 -18 c
-12 -12 c -18 -6 c -18 0 c -18 6 c -6 6 c -6 12 c -18 -6 7290 672 l -12 -18 c -6 -30 c 0 -18 c 6 -30 c 12 -18 c 18 -6 c 12 0 c
18 6 c 12 18 c 6 30 c 0 18 c -6 30 c -12 18 c -18 6 c -12 0 c -18 -6 7410 672 l -12 -18 c -6 -30 c 0 -18 c 6 -30 c 12 -18 c 18 -6 c
12 0 c 18 6 c 12 18 c 6 30 c 0 18 c -6 30 c -12 18 c -18 6 c -12 0 c 0 6 9206 642 l 6 12 c 6 6 c 12 6 c 24 0 c 12 -6 c 6 -6 c
6 -12 c 0 -12 c -6 -12 c -12 -18 c -60 -60 c 84 0 c -18 -6 9356 672 l -12 -18 c -6 -30 c 0 -18 c 6 -30 c 12 -18 c 18 -6 c 12 0 c
18 6 c 12 18 c 6 30 c 0 18 c -6 30 c -12 18 c -18 6 c -12 0 c -18 -6 9476 672 l -12 -18 c -6 -30 c 0 -18 c 6 -30 c 12 -18 c 18 -6 c
12 0 c 18 6 c 12 18 c 6 30 c 0 18 c -6 30 c -12 18 c -18 6 c -12 0 c -18 -6 9596 672 l -12 -18 c -6 -30 c 0 -18 c 6 -30 c 12 -18 c
18 -6 c 12 0 c 18 6 c 12 18 c 6 30 c 0 18 c -6 30 c -12 18 c -18 6 c -12 0 c -90 0 780 780 l -45 0 780 1713 l -90 0 780 2645 l
-45 0 780 3578 l -90 0 780 4511 l -45 0 780 5443 l -90 0 780 6376 l -90 0 9809 780 l -45 0 9764 1713 l -90 0 9809 2645 l
-45 0 9764 3578 l -90 0 9809 4511 l -45 0 9764 5443 l -90 0 9809 6376 l 6 -18 517 774 l 18 -12 c 30 -6 c 18 0 c 30 6 c 18 12 c
6 18 c 0 12 c -6 18 c -18 12 c -30 6 c -18 0 c -30 -6 c -18 -12 c -6 -18 c 0 -12 c -6 0 547 2387 l -12 6 c -6 6 c -6 12 c 0 24 c
6 12 c 6 6 c 12 6 c 12 0 c 12 -6 c 18 -12 c 60 -60 c 0 84 c 84 84 547 2507 l 84 -84 547 2591 l -6 12 541 2651 l -18 18 c 126 0 c
6 -18 517 2789 l 18 -12 c 30 -6 c 18 0 c 30 6 c 18 12 c 6 18 c 0 12 c -6 18 c -18 12 c -30 6 c -18 0 c -30 -6 c -18 -12 c -6 -18 c
0 -12 c 63 -45 453 2914 l 0 67 c 94 0 453 2914 l 84 -60 517 4307 l 0 90 c 126 0 517 4307 l 84 84 547 4373 l 84 -84 547 4457 l
-6 12 541 4517 l -18 18 c 126 0 c 6 -18 517 4655 l 18 -12 c 30 -6 c 18 0 c 30 6 c 18 12 c 6 18 c 0 12 c -6 18 c -18 12 c -30 6 c
-18 0 c -30 -6 c -18 -12 c -6 -18 c 0 -12 c 63 -45 453 4779 l 0 68 c 94 0 453 4779 l -12 -6 535 6190 l -6 -18 c 0 -12 c 6 -18 c
18 -12 c 30 -6 c 30 0 c 24 6 c 12 12 c 6 18 c 0 6 c -6 18 c -12 12 c -18 6 c -6 0 c -18 -6 c -12 -12 c -6 -18 c 0 -6 c 6 -18 c
12 -12 c 18 -6 c 84 84 547 6238 l 84 -84 547 6322 l -6 12 541 6382 l -18 18 c 126 0 c 6 -18 517 6520 l 18 -12 c 30 -6 c 18 0 c
30 6 c 18 12 c 6 18 c 0 12 c -6 18 c -18 12 c -30 6 c -18 0 c -30 -6 c -18 -12 c -6 -18 c 0 -12 c 63 -45 453 6644 l 0 68 c
94 0 453 6644 l
4 -13 780 842 l 5 -28 c 4 -4 c 4 10 c 5 30 c 4 44 c 4 5 c 5 -44 c 4 -41 c 5 -7 c 4 -2 c 4 0 c 5 1 c 4 1 c 4 0 c 5 -1 c 4 -1 c 5 1 c
4 3 c 4 2 c 5 5 c 4 13 c 4 33 c 5 51 c 4 2 c 5 -43 c 4 -58 c 4 -7 c 5 1 c 4 -1 c 4 -1 c 5 -2 c 4 1 c 5 0 c 4 0 c 4 1 c 5 4 c 4 1 c
4 -4 c 5 -2 c 4 -1 c 4 2 c 5 5 c 4 20 c 5 25 c 4 -5 c 4 -30 c 5 -16 c 4 -1 c 4 1 c 5 4 c 4 3 c 5 1 c 4 -4 c 4 -3 c 5 -2 c 4 -1 c
4 0 c 5 0 c 4 1 c 5 1 c 4 2 c 4 0 c 5 -1 c 4 -1 c 4 0 c 5 0 c 4 0 c 5 1 c 4 3 c 4 5 c 5 5 c 4 -1 c 4 -6 c 5 -6 c 4 1 c 4 6 c 5 26 c
4 42 c 5 0 c 4 -43 c 4 -31 c 5 -1 c 4 -13 c 4 0 c 5 28 c 4 -10 c 5 -2 c 4 3 c 4 -1 c 5 -5 c 4 -3 c 4 1 c 5 0 c 4 0 c 5 3 c 4 7 c
4 17 c 5 41 c 4 3 c 4 -24 c 5 -20 c 4 59 c 5 37 c 4 -21 c 4 -79 c 5 -16 c 4 -2 c 4 -3 c 5 -1 c 4 -1 c 4 0 c 5 1 c 4 0 c 5 2 c 4 2 c
4 1 c 5 0 c 4 6 c 4 37 c 5 28 c 4 -10 c 5 -49 c 4 -16 c 4 1 c 5 1 c 4 -2 c 4 -2 c 5 -1 c 4 0 c 5 1 c 4 0 c 4 0 c 5 3 c 4 3 c 4 1 c
5 3 c 4 0 c 5 -3 c 4 -5 c 4 2 c 5 7 c 4 13 c 4 0 c 5 -8 c 4 -10 c 4 -3 c 5 -2 c 4 -1 c 5 0 c 4 1 c 4 0 c 5 0 c 4 1 c 4 3 c 5 0 c
4 -3 c 5 -2 c 4 0 c 4 1 c 5 2 c 4 0 c 4 0 c 5 -1 c 4 2 c 5 1 c 4 -2 c 4 1 c 5 6 c 4 5 c 4 -3 c 5 -7 c 4 -3 c 4 0 c 5 1 c 4 2 c
5 -2 c 4 -2 c 4 -1 c 5 0 c 4 0 c 4 0 c 5 1 c 4 3 c 5 1 c 4 2 c 4 -1 c 5 -3 c 4 -2 c 4 -1 c 5 1 c 4 0 c 5 4 c 4 1 c 4 -2 c 5 -1 c
4 2 c 4 0 c 5 -3 c 4 -2 c 5 1 c 4 1 c 4 0 c 5 -1 c 4 0 c 4 0 c 5 3 c 4 3 c 4 1 c 5 -4 c 4 -1 c 5 7 c 4 39 c 4 62 c 5 8 c 4 -59 c
4 -53 c 5 -3 c 4 2 c 5 0 c 4 -2 c 4 -3 c 5 1 c 4 0 c 4 1 c 5 4 c 4 13 c 5 31 c 4 116 c 4 413 c 5 174 c 4 -168 c 4 -450 c 5 -112 c
4 -12 c 5 -5 c 4 -3 c 4 -1 c 5 0 c 4 0 c 4 1 c 5 2 c 4 0 c 4 -4 c 5 -1 c 4 1 c 5 0 c 4 -1 c 4 0 c 5 -1 c 4 1 c 4 1 c 5 3 c 4 1 c
5 0 c 4 -3 c 4 -1 c 5 -1 c 4 -1 c 4 0 c 5 1 c 4 -1 c 5 0 c 4 2 c 4 3 c 5 0 c 4 0 c 4 7 c 5 11 c 4 1 c 5 -14 c 4 -8 c 4 1 c 5 1 c
4 1 c 4 1 c 5 3 c 4 10 c 4 6 c 5 -3 c 4 -5 c 5 -2 c 4 -2 c 4 -8 c 5 -3 c 4 -2 c 4 0 c 5 2 c 4 2 c 5 1 c 4 -2 c 4 -3 c 5 0 c 4 0 c
4 0 c 5 0 c 4 0 c 5 2 c 4 2 c 4 3 c 5 9 c 4 4 c 4 -5 c 5 -11 c 4 -2 c 5 2 c 4 6 c 4 18 c 5 15 c 4 -5 c 4 -22 c 5 -12 c 4 -1 c 4 2 c
5 0 c 4 -2 c 5 -2 c 4 0 c 4 1 c 5 3 c 4 5 c 4 1 c 5 -5 c 4 -4 c 5 -1 c 4 2 c 4 1 c 5 0 c 4 -2 c 4 -1 c 5 0 c 4 0 c 5 -1 c 4 1 c
4 0 c 5 0 c 4 0 c 4 1 c 5 2 c 4 1 c 4 -1 c 5 -1 c 4 0 c 5 0 c 4 -1 c 4 -1 c 5 0 c 4 0 c 4 0 c 5 2 c 4 2 c 5 2 c 4 -1 c 4 0 c 5 -2 c
4 -1 c 4 0 c 5 3 c 4 7 c 5 0 c 4 -5 c 4 -4 c 5 0 c 4 0 c 4 2 c 5 1 c 4 -1 c 5 2 c 4 31 c 4 61 c 5 3 c 4 -46 c 4 -50 c 5 -4 c 4 1 c
4 0 c 5 1 c 4 2 c 5 5 c 4 12 c 4 82 c 5 190 c 4 61 c 4 -31 c 5 257 c 4 456 c 5 -23 c 4 -587 c 4 -355 c 5 -56 c 4 -7 c 4 0 c 5 0 c
4 -1 c 5 -2 c 4 -1 c 4 -3 c 5 -1 c 4 0 c 4 -1 c 5 0 c 4 0 c 5 0 c 4 2 c 4 2 c 5 1 c 4 0 c 4 4 c 5 7 c 4 6 c 4 -3 c 5 -6 c 4 -3 c
5 -1 c 4 0 c 4 1 c 5 0 c 4 -2 c 4 -2 c 5 1 c 4 1 c 5 -2 c 4 -2 c 4 0 c 5 -1 c 4 0 c 4 0 c 5 0 c 4 0 c 5 0 c 4 1 c 4 2 c 5 0 c 4 1 c
4 -1 c 5 1 c 4 -2 c 5 -1 c 4 -2 c 4 0 c 5 0 c 4 1 c 4 5 c 5 4 c 4 1 c 4 -2 c 5 0 c 4 1 c 5 0 c 4 -1 c 4 -3 c 5 0 c 4 3 c 4 -1 c
5 -3 c 4 -4 c 5 0 c 4 1 c 4 0 c 5 0 c 4 0 c 4 0 c 5 1 c 4 1 c 5 -1 c 4 -1 c 4 -1 c 5 0 c 4 -1 c 4 0 c 5 0 c 4 0 c 5 0 c 4 0 c 4 0 c
5 0 c 4 1 c 4 2 c 5 0 c 4 -2 c 4 -1 c 5 -1 c 4 0 c 5 0 c 4 0 c 4 0 c 5 0 c 4 -1 c 4 1 c 5 -1 c 4 0 c 5 2 c 4 3 c 4 1 c 5 0 c 4 2 c
4 5 c 5 8 c 4 0 c 5 -5 c 4 -11 c 4 -2 c 5 0 c 4 1 c 4 14 c 5 108 c 4 89 c 4 -14 c 5 -133 c 4 -61 c 5 -4 c 4 -1 c 4 0 c 5 0 c 4 0 c
4 0 c 5 1 c 4 1 c 5 1 c 4 0 c 4 2 c 5 0 c 4 2 c 4 2 c 5 6 c 4 11 c 5 1 c 4 -9 c 4 -8 c 5 2 c 4 3 c 4 3 c 5 7 c 4 21 c 5 149 c
4 1835 c 4 3564 c 5 341 c 4 -2658 c 4 -2896 c 5 -308 c 4 -22 c 4 -7 c 5 -12 c 4 -9 c 5 -7 c 4 1 c 4 0 c 5 -1 c 4 -2 c 4 0 c 5 0 c
4 -1 c 5 0 c 4 -3 c 4 2 c 5 3 c 4 3 c 4 -1 c 5 -3 c 4 -8 c 5 -1 c 4 2 c 4 2 c 5 -1 c 4 -3 c 4 -2 c 5 0 c 4 2 c 5 2 c 4 0 c 4 -1 c
5 -1 c 4 -1 c 4 -2 c 5 -1 c 4 1 c 4 2 c 5 0 c 4 -1 c 5 1 c 4 2 c 4 10 c 5 119 c 4 416 c 4 126 c 5 -201 c 4 -385 c 5 -80 c 4 -6 c
4 -1 c 5 2 c 4 9 c 4 25 c 5 194 c 4 170 c 5 -25 c 4 -247 c 4 -119 c 5 -7 c 4 -1 c 4 2 c 5 -1 c 4 -2 c 5 -2 c 4 1 c 4 1 c 5 2 c 4 2 c
4 9 c 5 59 c 4 278 c 4 231 c 5 -46 c 4 -336 c 5 -162 c 4 -5 c 4 35 c 5 119 c 4 673 c 4 386 c 5 -211 c 4 -787 c 5 -229 c 4 -16 c
4 1 c 5 1 c 4 -2 c 4 -2 c 5 0 c 4 3 c 5 4 c 4 2 c 4 -1 c 5 -4 c 4 -3 c 4 -1 c 5 -3 c 4 -1 c 4 1 c 5 1 c 4 0 c 5 -2 c 4 2 c 4 1 c
5 0 c 4 -1 c 4 1 c 5 0 c 4 -1 c 5 0 c 4 2 c 4 4 c 5 37 c 4 285 c 4 283 c 5 -36 c 4 -371 c 5 -187 c 4 -17 c 4 -2 c 5 1 c 4 2 c 4 1 c
5 -1 c 4 -2 c 5 -1 c 4 1 c 4 0 c 5 0 c 4 1 c 4 0 c 5 1 c 4 -2 c 4 -1 c 5 -1 c 4 1 c 5 0 c 4 1 c 4 0 c 5 0 c 4 1 c 4 0 c 5 -1 c
4 -1 c 5 0 c 4 0 c 4 1 c 5 1 c 4 -1 c 4 -1 c 5 1 c 4 0 c 5 -1 c 4 0 c 4 0 c 5 1 c 4 0 c 4 -2 c 5 0 c 4 2 c 5 4 c 4 1 c 4 -2 c 5 -2 c
4 -1 c 4 0 c 5 -2 c 4 0 c 4 -1 c 5 2 c 4 2 c 5 0 c 4 -1 c 4 2 c 5 1 c 4 -2 c 4 -2 c 5 0 c 4 2 c 5 3 c 4 1 c 4 -3 c 5 -1 c 4 -1 c
4 0 c 5 -1 c 4 0 c 5 0 c 4 0 c 4 1 c 5 1 c 4 1 c 4 0 c 5 -1 c 4 -3 c 5 0 c 4 2 c 4 1 c 5 0 c 4 0 c 4 0 c 5 1 c 4 2 c 4 -1 c 5 -2 c
4 1 c 5 0 c 4 0 c 4 0 c 5 2 c 4 2 c 4 19 c 5 75 c 4 229 c 5 224 c 4 -44 c 4 -296 c 5 -190 c 4 -19 c 4 -1 c 5 1 c 4 3 c 5 3 c 4 8 c
4 4 c 5 -2 c 4 -7 c 4 -1 c 5 4 c 4 10 c 5 25 c 4 170 c 4 1797 c 5 3318 c 4 647 c 4 -2381 c 5 -3028 c 4 -508 c 4 -41 c 5 -4 c 4 -3 c
5 -3 c 4 -4 c 4 -2 c 5 -1 c 4 0 c 4 1 c 5 -1 c 4 -1 c 5 5 c 4 4 c 4 18 c 5 25 c 4 0 c 4 -30 c 5 -25 c 4 -3 c 5 3 c 4 5 c 4 1 c
5 -3 c 4 -4 c 4 -2 c 5 1 c 4 0 c 4 0 c 5 -1 c 4 1 c 5 3 c 4 31 c 4 61 c 5 15 c 4 -39 c 4 -56 c 5 -10 c 4 1 c 5 -1 c 4 -2 c 4 0 c
5 0 c 4 3 c 4 3 c 5 2 c 4 3 c 5 8 c 4 39 c 4 440 c 5 2385 c 4 1620 c 4 -439 c 5 -2818 c 4 -1153 c 5 -79 c 4 -4 c 4 -1 c 5 -3 c
4 -1 c 4 -1 c 5 -2 c 4 -2 c 4 0 c 5 9 c 4 48 c 5 52 c 4 7 c 4 -56 c 5 -52 c 4 -7 c 4 -2 c 5 -1 c 4 -2 c 5 -1 c 4 1 c 4 1 c 5 2 c
4 0 c 4 -1 c 5 -2 c 4 0 c 5 2 c 4 1 c 4 -1 c 5 -3 c 4 -1 c 4 -1 c 5 -1 c 4 1 c 5 0 c 4 1 c 4 -1 c 5 1 c 4 2 c 4 7 c 5 47 c 4 53 c
4 4 c 5 -52 c 4 -48 c 5 -7 c 4 -4 c 4 3 c 5 8 c 4 13 c 4 4 c 5 -8 c 4 -14 c 5 -5 c 4 -3 c 4 -1 c 5 -1 c 4 1 c 4 1 c 5 1 c 4 -1 c
5 -1 c 4 0 c 4 2 c 5 1 c 4 0 c 4 -2 c 5 1 c 4 7 c 5 13 c 4 5 c 4 -6 c 5 -12 c 4 -5 c 4 -1 c 5 2 c 4 4 c 4 2 c 5 -3 c 4 -5 c 5 -2 c
4 0 c 4 1 c 5 0 c 4 1 c 4 0 c 5 -1 c 4 0 c 5 1 c 4 2 c 4 2 c 5 1 c 4 -1 c 4 -1 c 5 -2 c 4 -1 c 5 0 c 4 2 c 4 2 c 5 2 c 4 1 c 4 24 c
5 118 c 4 103 c 5 -7 c 4 -131 c 4 -96 c 5 -10 c 4 -1 c 4 3 c 5 3 c 4 2 c 4 3 c 5 17 c 4 140 c 5 249 c 4 76 c 4 -156 c 5 -197 c
4 74 c 4 1695 c 5 4094 c 4 6 c 5 24 c 4 -2863 c 4 -3194 c 5 89 c 4 -16 c 4 45 c 5 295 c 4 425 c 5 84 c 4 -368 c 4 -394 c 5 -99 c
4 -19 c 4 -6 c 5 -4 c 4 -2 c 4 -1 c 5 10 c 4 36 c 5 19 c 4 -7 c 4 -36 c 5 -15 c 4 -9 c 4 -3 c 5 -1 c 4 -1 c 5 0 c 4 0 c 4 -1 c
5 -1 c 4 0 c 4 0 c 5 -1 c 4 0 c 5 -1 c 4 1 c 4 2 c 5 1 c 4 2 c 4 1 c 5 3 c 4 0 c 5 -2 c 4 -1 c 4 0 c 5 2 c 4 2 c 4 -1 c 5 3 c 4 5 c
4 11 c 5 16 c 4 17 c 5 34 c 4 189 c 4 1322 c 5 2562 c 4 1224 c 4 -1353 c 5 -2762 c 4 -1037 c 5 -120 c 4 -44 c 4 -23 c 5 -17 c
4 -10 c 4 -7 c 5 -4 c 4 -3 c 5 -2 c 4 -1 c 4 1 c 5 2 c 4 12 c 4 79 c 5 415 c 4 517 c 5 80 c 4 -503 c 4 -477 c 5 -111 c 4 -13 c
4 -3 c 5 -3 c 4 -1 c 4 -1 c 5 -2 c 4 0 c 5 1 c 4 0 c 4 -1 c 5 -2 c 4 -1 c 4 1 c 5 0 c 4 1 c 5 0 c 4 -1 c 4 -1 c 5 0 c 4 -1 c 4 0 c
5 0 c 4 1 c 5 0 c 4 1 c 4 2 c 5 6 c 4 3 c 4 -2 c 5 -5 c 4 -2 c 5 -1 c 4 0 c 4 -2 c 5 -1 c 4 1 c 4 -1 c 5 0 c 4 0 c 4 0 c 5 -1 c
4 0 c 5 0 c 4 0 c 4 0 c 5 0 c 4 1 c 4 1 c 5 -1 c 4 0 c 5 0 c 4 0 c 4 0 c 5 -1 c 4 0 c 4 0 c 5 0 c 4 0 c 5 0 c 4 1 c 4 0 c 5 1 c
4 3 c 4 12 c 5 8 c 4 -3 c 4 -14 c 5 -8 c 4 1 c 5 1 c 4 -1 c 4 -1 c 5 0 c 4 1 c 4 0 c 5 -1 c 4 3 c 5 2 c 4 0 c 4 -2 c 5 -3 c 4 0 c
4 0 c 5 0 c 4 0 c 5 0 c 4 -15 c 4 14 c 5 -1 c 4 1 c 4 1 c 5 0 c 4 -1 c 5 0 c 4 1 c 4 0 c 5 -1 c 4 0 c 4 0 c 5 0 c 4 0 c 4 -1 c 5 0 c
4 1 c 5 0 c 4 0 c 4 0 c 5 1 c 4 0 c 4 0 c 5 0 c 4 1 c 5 1 c 4 -1 c 4 -1 c 5 -1 c 4 1 c 4 1 c 5 1 c 4 2 c 5 5 c 4 16 c 4 209 c
5 740 c 4 322 c 4 -269 c 5 -736 c 4 -254 c 5 -28 c 4 -5 c 4 -2 c 5 -1 c 4 -1 c 4 1 c 5 3 c 4 9 c 4 4 c 5 -3 c 4 -10 c 5 -3 c 4 3 c
4 6 c 5 2 c 4 -2 c 4 -4 c 5 0 c 4 7 c 5 21 c 4 9 c 4 -8 c 5 -18 c 4 -9 c 4 -2 c 5 -4 c 4 -1 c 5 3 c 4 16 c 4 80 c 5 73 c 4 7 c
4 -86 c 5 -79 c 4 -9 c 5 2 c 4 0 c 4 -4 c 5 -2 c 4 1 c 4 0 c 5 0 c 4 -1 c 4 0 c 5 0 c 4 0 c 5 1 c 4 4 c 4 10 c 5 125 c 4 589 c
4 374 c 5 -126 c 4 -640 c 5 -289 c 4 -41 c 4 -3 c 5 -1 c 4 0 c 4 0 c 5 -1 c 4 1 c 5 -1 c 4 -1 c 4 0 c 5 1 c 4 1 c 4 2 c 5 0 c 4 1 c
5 1 c 4 2 c 4 -1 c 5 -3 c 4 0 c 4 1 c 5 2 c 4 0 c 4 1 c 5 1 c 4 1 c 5 1 c 4 0 c 4 0 c 5 3 c 4 9 c 4 5 c 5 0 c 4 -4 c 5 7 c 4 13 c
4 9 c 5 6 c 4 27 c 4 78 c 5 447 c 4 5392 c 5 23 c 4 -2 c 4 -8 c 5 -27 c 4 -5472 c 4 -391 c 5 -43 c 4 -16 c 4 -16 c 5 -7 c 4 0 c
5 -2 c 4 -8 c 4 -4 c 5 -7 c 4 -2 c 4 -4 c 5 -1 c 4 -1 c 5 -1 c 4 -1 c 4 -2 c 5 -2 c 4 -2 c 4 0 c 5 1 c 4 -2 c 5 -1 c 4 0 c 4 1 c
5 0 c 4 0 c 4 0 c 5 0 c 4 -1 c 5 -2 c 4 0 c 4 -1 c 5 -1 c 4 0 c 4 1 c 5 2 c 4 2 c 4 11 c 5 8 c 4 6 c 5 -4 c 4 -8 c 4 -9 c 5 0 c
4 24 c 4 259 c 5 443 c 4 242 c 5 -224 c 4 -444 c 4 -241 c 5 -58 c 4 4 c 4 1 c 5 -5 c 4 -7 c 5 -3 c 4 -1 c 4 -1 c 5 0 c 4 0 c 4 -17 c
5 17 c 4 0 c 5 0 c 4 0 c 4 0 c 5 0 c 4 0 c 4 0 c 5 3 c 4 7 c 4 2 c 5 -3 c 4 -8 c 5 -2 c 4 0 c 4 0 c 5 1 c 4 -1 c 4 1 c 5 0 c 4 0 c
5 -1 c 4 -1 c 4 3 c 5 7 c 4 3 c 4 -3 c 5 -7 c 4 -2 c 5 0 c 4 0 c 4 0 c 5 0 c 4 0 c 4 0 c 5 0 c 4 0 c 5 0 c 4 2 c 4 0 c 5 1 c 4 8 c
4 34 c 5 33 c 4 2 c 4 -34 c 5 -34 c 4 -9 c 5 -2 c 4 0 c 4 0 c 5 0 c 4 -1 c 4 0 c 5 1 c 4 0 c 5 0 c 4 0 c 4 0 c 5 2 c 4 2 c 4 3 c
5 2 c 4 2 c 5 19 c 4 87 c 4 658 c 5 1421 c 4 361 c 4 -692 c 5 -1479 c 4 -343 c 5 -33 c 4 -3 c 4 -1 c 5 -2 c 4 -1 c 4 -1 c 5 -1 c
4 -1 c 4 -1 c 5 0 c 4 0 c 5 0 c 4 0 c 4 -1 c 5 1 c 4 0 c 4 0 c 5 0 c 4 1 c 5 23 c 4 72 c 4 28 c 5 -27 c 4 -74 c 4 -22 c 5 -1 c 4 5 c
5 11 c 4 4 c 4 -4 c 5 -12 c 4 -5 c 4 -1 c 5 0 c 4 0 c 4 0 c 5 0 c 4 0 c 5 0 c 4 0 c 4 0 c 5 1 c 4 -1 c 4 0 c 5 -1 c 4 0 c 5 0 c
4 1 c 4 0 c 5 0 c 4 -1 c 4 0 c 5 1 c 4 0 c 5 0 c 4 1 c 4 0 c 5 0 c 4 7 c 4 12 c 5 5 c 4 -6 c 5 -12 c 4 -5 c 4 -2 c 5 0 c 4 1 c 4 0 c
5 0 c 4 0 c 4 -1 c 5 1 c 4 0 c 5 0 c 4 0 c 4 0 c 5 1 c 4 1 c 4 0 c 5 1 c 4 1 c 5 1 c 4 0 c 4 -1 c 5 2 c 4 5 c 4 14 c 5 178 c
4 1314 c 5 993 c 4 15 c 4 -1375 c 5 -1036 c 4 -98 c 4 -6 c 5 -3 c 4 -1 c 5 -1 c 4 1 c 4 1 c 5 -1 c 4 -3 c 4 -1 c 5 -1 c 4 0 c 4 -1 c
5 0 c 4 0 c 5 0 c 4 0 c 4 -1 c 5 0 c 4 0 c 4 0 c 5 0 c 4 0 c 5 -1 c 4 1 c 4 0 c 5 1 c 4 3 c 4 1 c 5 -1 c 4 -3 c 5 -1 c 4 0 c 4 0 c
5 0 c 4 0 c 4 0 c 5 0 c 4 1 c 5 0 c 4 0 c 4 2 c 5 9 c 4 126 c 4 363 c 5 131 c 4 -127 c 4 -374 c 5 -120 c 4 -8 c 5 -1 c 4 -2 c 4 0 c
5 -1 c 4 0 c 4 3 c 5 2 c 4 0 c 5 -3 c 4 -2 c 4 -1 c 5 1 c 4 0 c 4 0 c 5 0 c 4 0 c 5 -1 c 4 1 c 4 0 c 5 0 c 4 0 c 4 0 c 5 0 c 4 0 c
5 0 c 4 0 c 4 -1 c 5 0 c 4 0 c 4 2 c 5 14 c 4 14 c 4 0 c 5 -15 c 4 -13 c 5 -1 c 4 0 c 4 0 c 5 0 c 4 -1 c 4 1 c 5 0 c 4 -1 c 5 0 c
4 0 c 4 0 c 5 0 c 4 0 c 4 0 c 5 0 c 4 1 c 5 0 c 4 1 c 4 0 c 5 0 c 4 1 c 4 12 c 5 91 c 4 74 c 4 2 c 5 -92 c 4 -81 c 5 -7 c 4 -1 c
4 -1 c 5 0 c 4 0 c 4 0 c 5 1 c 4 0 c 5 1 c 4 2 c 4 2 c 5 0 c 4 -2 c 4 -2 c 5 -1 c 4 0 c 5 0 c 4 0 c 4 0 c 5 1 c 4 0 c 4 0 c 5 0 c
4 0 c 5 0 c 4 0 c 4 0 c 5 0 c 4 1 c 4 1 c 5 0 c 4 0 c 4 -1 c 5 1 c 4 2 c 5 1 c 4 2 c 4 3 c 5 8 c 4 32 c 4 410 c 5 2104 c 4 1153 c
5 -260 c 4 -2228 c 4 -1133 c 5 -77 c 4 -7 c 4 -3 c 5 -3 c 4 -1 c 5 -1 c 4 0 c 4 -2 c 5 0 c 4 0 c 4 -1 c 5 0 c 4 -1 c 5 0 c 4 0 c
4 2 c 5 19 c 4 11 c 4 -1 c 5 -18 c 4 -13 c 4 -1 c 5 0 c 4 -1 c 5 0 c 4 0 c 4 1 c 5 0 c 4 -1 c 4 0 c 5 0 c 4 0 c 5 0 c 4 0 c 4 0 c
5 0 c 4 1 c 4 0 c 5 0 c 4 -1 c 5 0 c 4 0 c 4 0 c 5 0 c 4 1 c 4 -1 c 5 1 c 4 1 c 5 2 c 4 11 c 4 140 c 5 393 c 4 128 c 4 -141 c
5 -407 c 4 -111 c 4 -9 c 5 -5 c 4 -1 c 5 -1 c 4 0 c 4 0 c 5 0 c 4 0 c 4 1 c 5 2 c 4 6 c 5 23 c 4 36 c 4 13 c 5 -20 c 4 -38 c 4 -16 c
5 -4 c 4 -1 c 5 -1 c 4 -1 c 4 0 c 5 -1 c 4 0 c 4 0 c 5 0 c 4 0 c 4 0 c 5 0 c 4 0 c 5 0 c 4 0 c 4 0 c 5 0 c 4 0 c 4 -1 c 5 0 c 4 1 c
5 0 c 4 0 c 4 0 c 5 0 c 4 0 c 4 -1 c 5 0 c 4 0 c 5 0 c 4 0 c 4 1 c 5 0 c 4 0 c 4 0 c 5 1 c 4 0 c 5 0 c 4 1 c 4 0 c 5 0 c 4 0 c 4 0 c
5 2 c 4 0 c 4 1 c 5 0 c 4 4 c 5 4 c 4 0 c 4 -1 c 5 2 c 4 13 c 4 41 c 5 343 c 4 2660 c 5 2252 c 4 11 c 4 -2881 c 5 -2203 c 4 -207 c
4 -23 c 5 -5 c 4 -3 c 5 -1 c 4 2 c 4 -2 c 5 -2 c 4 -4 c 4 1 c 5 2 c 4 28 c 5 42 c 4 -2 c 4 -29 c 5 -41 c 4 -4 c 4 0 c 5 -1 c 4 -1 c
4 0 c 5 0 c 4 0 c 5 0 c 4 0 c 4 0 c 5 1 c 4 3 c 4 7 c 5 3 c 4 -4 c 5 -7 c 4 -1 c 4 1 c 5 7 c 4 4 c 4 -1 c 5 -8 c 4 -3 c 5 7 c 4 57 c
4 39 c 5 -6 c 4 -55 c 4 -41 c 5 -3 c 4 0 c 5 -1 c 4 0 c 4 0 c 5 0 c 4 1 c 4 0 c 5 0 c 4 3 c 4 44 c 5 66 c 4 7 c 5 -41 c 4 -70 c
4 -8 c 5 -2 c 4 1 c 4 1 c 5 0 c 4 0 c 5 -1 c 4 -1 c 4 1 c 5 0 c 4 1 c 4 2 c 5 1 c 4 1 c 5 -2 c 4 0 c 4 -1 c 5 0 c 4 0 c 4 1 c 5 2 c
4 0 c 5 0 c 4 0 c 4 0 c 5 1 c 4 3 c 4 6 c 5 18 c 4 191 c 4 1545 c 5 1353 c 4 88 c 5 -1493 c 4 -1549 c 4 -144 c 5 -12 c 4 -2 c 4 -1 c
5 -3 c 4 -2 c 5 -1 c 4 0 c 4 4 c 5 18 c 4 6 c 4 -4 c 5 -20 c 4 -6 c 5 -1 c 4 0 c 4 0 c 5 0 c 4 -1 c 4 0 c 5 0 c 4 1 c 4 0 c 5 -1 c
4 0 c 5 0 c 4 0 c 4 0 c 5 0 c 4 -1 c 4 1 c 5 2 c 4 20 c 5 77 c 4 27 c 4 -18 c 5 -77 c 4 -29 c 4 -1 c 5 1 c 4 8 c 5 16 c 4 1 c 4 -8 c
5 -17 c 4 -3 c 4 -1 c 5 1 c 4 0 c 5 0 c 4 0 c 4 0 c 5 0 c 4 0 c 4 0 c 5 0 c 4 0 c 4 0 c 5 0 c 4 0 c 5 0 c 4 0 c 4 0 c 5 0 c 4 0 c
4 4 c 5 5 c 4 0 c 5 -4 c 4 -4 c 4 0 c 5 -1 c 4 0 c 4 -1 c 5 0 c 4 0 c 5 1 c 4 0 c 4 1 c 5 0 c 4 0 c 4 -1 c 5 -1 c 4 0 c 5 0 c 4 0 c
4 0 c 5 0 c 4 0 c 4 0 c 5 1 c 4 0 c 4 0 c 5 -1 c 4 0 c 5 0 c 4 0 c 4 0 c 5 0 c 4 0 c 4 0 c 5 0 c 4 0 c 5 0 c 4 0 c 4 0 c 5 0 c 4 0 c
4 1 c 5 5 c 4 7 c 5 2 c 4 -4 c 4 -8 c 5 -2 c 4 0 c 4 -1 c
5 0 c 4 0 c 5 0 c 4 1 c 4 -10 c 5 0 c 4 10 c 4 0 c 5 0 c 4 1 c 4 1 c 5 2 c 4 5 c 5 33 c 4 164 c 4 197 c 5 41 c 4 -152 c 4 -217 c
5 -33 c 4 97 c 5 39 c 4 -21 c 4 -103 c 5 -49 c 4 -3 c 4 -1 c 5 0 c 4 0 c 5 0 c 4 -1 c 4 -1 c 5 0 c 4 0 c 4 0 c 5 0 c 4 1 c 5 0 c
4 0 c 4 -1 c 5 0 c 4 1 c 4 1 c 5 2 c 4 11 c
0 -126 3315 418 l 54 0 3315 418 l 18 -6 c 6 -6 c 6 -12 c 0 -12 c -6 -12 c -6 -6 c -18 -6 c -54 0 c 42 -66 3357 358 l
-12 -6 3465 376 l -12 -12 c -6 -18 c 0 -12 c 6 -18 c 12 -12 c 12 -6 c 18 0 c 12 6 c 12 12 c 6 18 c 0 12 c -6 18 c -12 12 c -12 6 c
-18 0 c 24 -84 3549 376 l -24 -84 3597 376 l 24 -84 3597 376 l -24 -84 3645 376 l 108 0 3687 364 l 108 0 3687 328 l
-60 -126 4113 418 l 84 0 4029 418 l -12 -6 4275 376 l -12 -12 c -6 -18 c 0 -12 c 6 -18 c 12 -12 c 12 -6 c 18 0 c 12 6 c 12 12 c
6 18 c 0 12 c -6 18 c -12 12 c -12 6 c -18 0 c -12 0 4401 418 l -12 -6 c -6 -18 c 0 -102 c 42 0 4353 376 l 0 6 4533 388 l 6 12 c
6 6 c 12 6 c 24 0 c 12 -6 c 6 -6 c 6 -12 c 0 -12 c -6 -12 c -12 -18 c -60 -60 c 84 0 c -18 -6 4683 418 l -12 -18 c -6 -30 c 0 -18 c
6 -30 c 12 -18 c 18 -6 c 12 0 c 18 6 c 12 18 c 6 30 c 0 18 c -6 30 c -12 18 c -18 6 c -12 0 c 12 6 5169 394 l 18 18 c 0 -126 c
-6 -6 5282 376 l 6 -6 c 6 6 c -6 6 c -6 -6 5282 304 l 6 -6 c 6 6 c -6 6 c -48 -126 5462 418 l 48 -126 5462 418 l 60 0 5432 334 l
0 -84 5540 376 l 6 18 5540 340 l 12 12 c 12 6 c 18 0 c -12 12 5684 358 l -12 6 c -18 0 c -12 -6 c -12 -12 c -6 -18 c 0 -12 c 6 -18 c
12 -12 c 12 -6 c 18 0 c 12 6 c 12 12 c 108 0 5726 346 l 12 6 5894 394 l 18 18 c 0 -126 c 66 0 6008 418 l -36 -48 c 18 0 c 12 -6 c
6 -6 c 6 -18 c 0 -12 c -6 -18 c -12 -12 c -18 -6 c -18 0 c -18 6 c -6 6 c -6 12 c -6 -18 6194 376 l -12 -12 c -18 -6 c -6 0 c
-18 6 c -12 12 c -6 18 c 0 6 c 6 18 c 12 12 c 18 6 c 6 0 c 18 -6 c 12 -12 c 6 -24 c 0 -30 c -6 -30 c -12 -18 c -18 -6 c -12 0 c
-18 6 c -6 12 c -6 -6 6248 304 l 6 -6 c 6 6 c -6 6 c -12 0 6338 418 l -12 -6 c -6 -18 c 0 -102 c 42 0 6290 376 l 6 -6 6368 418 l
6 6 c -6 6 c -6 -6 c 0 -84 6374 376 l 0 -102 6428 418 l 6 -18 c 12 -6 c 12 0 c 42 0 6410 376 l -6 12 6554 358 l -18 6 c -18 0 c
-18 -6 c -6 -12 c 6 -12 c 12 -6 c 30 -6 c 12 -6 c 6 -12 c 0 -6 c -6 -12 c -18 -6 c -18 0 c -18 6 c -6 12 c 0 -192 6884 442 l
0 -192 6890 442 l 42 0 6884 442 l 42 0 6884 250 l 0 6 6968 388 l 6 12 c 6 6 c 12 6 c 24 0 c 12 -6 c 6 -6 c 6 -12 c 0 -12 c -6 -12 c
-12 -18 c -60 -60 c 84 0 c -6 -6 7094 376 l 6 -6 c 6 6 c -6 6 c -6 -6 7094 304 l 6 -6 c 6 6 c -6 6 c 0 -192 7274 442 l
0 -192 7280 442 l 42 0 7238 442 l 42 0 7238 250 l
0 -250 1790 1982 l -7 -4 1757 2103 l -4 -11 c 0 -8 c 4 -11 c 11 -8 c 19 -3 c 19 0 c 15 3 c 8 8 c 3 11 c 0 4 c -3 11 c -8 8 c -11 4 c
-4 0 c -11 -4 c -8 -8 c -4 -11 c 0 -4 c 4 -11 c 8 -8 c 11 -3 c -4 7 1761 2141 l -11 12 c 79 0 c 0 41 1746 2213 l 30 -23 c 0 12 c
4 7 c 4 4 c 11 4 c 8 0 c 11 -4 c 8 -7 c 3 -12 c 0 -11 c -3 -11 c -4 -4 c -8 -4 c 4 -11 1746 2299 l 7 -4 c 8 0 c 7 4 c 4 8 c 4 15 c
4 11 c 7 8 c 8 4 c 11 0 c 8 -4 c 4 -4 c 3 -11 c 0 -16 c -3 -11 c -4 -4 c -8 -3 c -11 0 c -8 3 c -7 8 c -4 11 c -4 15 c -4 8 c -7 4 c
-8 0 c -7 -4 c -4 -11 c 0 -16 c 4 -4 1818 2364 l 3 4 c -3 4 c -4 -4 c -7 -4 1757 2443 l -4 -11 c 0 -8 c 4 -11 c 11 -7 c 19 -4 c
19 0 c 15 4 c 8 7 c 3 11 c 0 4 c -3 12 c -8 7 c -11 4 c -4 0 c -11 -4 c -8 -7 c -4 -12 c 0 -4 c 4 -11 c 8 -7 c 11 -4 c
53 -37 1746 2507 l 0 56 c 79 0 1746 2507 l -7 -3 1757 2594 l -4 -12 c 0 -7 c 4 -12 c 11 -7 c 19 -4 c 19 0 c 15 4 c 8 7 c 3 12 c
0 3 c -3 12 c -8 7 c -11 4 c -4 0 c -11 -4 c -8 -7 c -4 -12 c 0 -3 c 4 -12 c 8 -7 c 11 -4 c 0 -249 3130 7019 l -8 -4 3098 7140 l
-4 -11 c 0 -8 c 4 -11 c 12 -8 c 18 -3 c 19 0 c 16 3 c 7 8 c 4 11 c 0 4 c -4 11 c -7 8 c -12 4 c -4 0 c -11 -4 c -8 -8 c -3 -11 c
0 -4 c 3 -11 c 8 -8 c 11 -3 c -4 7 3102 7178 l -12 12 c 80 0 c 0 -37 3086 7287 l 34 -4 c -3 4 c -4 11 c 0 11 c 4 12 c 7 7 c 12 4 c
7 0 c 12 -4 c 7 -7 c 4 -12 c 0 -11 c -4 -11 c -4 -4 c -7 -4 c -4 8 3102 7329 l -12 11 c 80 0 c 4 -4 3158 7401 l 4 4 c -4 4 c -4 -4 c
11 -4 3113 7480 l 8 -7 c 4 -11 c 0 -4 c -4 -12 c -8 -7 c -11 -4 c -4 0 c -11 4 c -8 7 c -4 12 c 0 4 c 4 11 c 8 7 c 15 4 c 19 0 c
19 -4 c 11 -7 c 4 -11 c 0 -8 c -4 -11 c -7 -4 c 11 -4 3113 7556 l 8 -8 c 4 -11 c 0 -4 c -4 -11 c -8 -8 c -11 -3 c -4 0 c -11 3 c
-8 8 c -4 11 c 0 4 c 4 11 c 8 8 c 15 4 c 19 0 c 19 -4 c 11 -8 c 4 -11 c 0 -7 c -4 -12 c -7 -4 c 0 41 3086 7590 l 31 -22 c 0 11 c
3 8 c 4 3 c 12 4 c 7 0 c 12 -4 c 7 -7 c 4 -12 c 0 -11 c -4 -11 c -4 -4 c -7 -4 c 0 -249 3341 1908 l -8 -3 3309 2029 l -4 -12 c
0 -7 c 4 -12 c 12 -7 c 18 -4 c 19 0 c 15 4 c 8 7 c 4 12 c 0 4 c -4 11 c -8 7 c -11 4 c -4 0 c -11 -4 c -8 -7 c -3 -11 c 0 -4 c
3 -12 c 8 -7 c 11 -4 c -4 8 3313 2067 l -12 11 c 80 0 c 0 -38 3297 2177 l 34 -4 c -3 4 c -4 11 c 0 12 c 4 11 c 7 8 c 12 3 c 7 0 c
11 -3 c 8 -8 c 4 -11 c 0 -12 c -4 -11 c -4 -4 c -7 -4 c 53 -38 3297 2245 l 0 57 c 80 0 3297 2245 l 4 -4 3369 2290 l 4 4 c -4 4 c
-4 -4 c 4 -11 3297 2343 l 12 -8 c 18 -4 c 12 0 c 19 4 c 11 8 c 4 11 c 0 8 c -4 11 c -11 8 c -19 3 c -12 0 c -18 -3 c -12 -8 c
-4 -11 c 0 -8 c -8 -4 3309 2445 l -4 -11 c 0 -8 c 4 -11 c 12 -7 c 18 -4 c 19 0 c 15 4 c 8 7 c 4 11 c 0 4 c -4 12 c -8 7 c -11 4 c
-4 0 c -11 -4 c -8 -7 c -3 -12 c 0 -4 c 3 -11 c 8 -7 c 11 -4 c 4 -12 3297 2491 l 8 -4 c 7 0 c 8 4 c 4 8 c 3 15 c 4 11 c 8 8 c 7 4 c
12 0 c 7 -4 c 4 -4 c 4 -11 c 0 -15 c -4 -12 c -4 -4 c -7 -3 c -12 0 c -7 3 c -8 8 c -4 11 c -3 15 c -4 8 c -8 4 c -7 0 c -8 -4 c
-4 -11 c 0 -15 c 0 -250 3495 2481 l -8 -4 3463 2602 l -4 -11 c 0 -8 c 4 -11 c 11 -8 c 19 -3 c 19 0 c 15 3 c 8 8 c 4 11 c 0 4 c
-4 11 c -8 8 c -11 4 c -4 0 c -11 -4 c -8 -8 c -3 -11 c 0 -4 c 3 -11 c 8 -8 c 11 -3 c -3 7 3466 2640 l -12 12 c 80 0 c
0 -37 3451 2749 l 34 -4 c -3 4 c -4 11 c 0 11 c 4 12 c 7 7 c 11 4 c 8 0 c 11 -4 c 8 -7 c 4 -12 c 0 -11 c -4 -11 c -4 -4 c -7 -4 c
0 -38 3451 2825 l 34 -4 c -3 4 c -4 11 c 0 12 c 4 11 c 7 8 c 11 3 c 8 0 c 11 -3 c 8 -8 c 4 -11 c 0 -12 c -4 -11 c -4 -4 c -7 -3 c
4 -4 3523 2863 l 4 4 c -4 3 c -4 -3 c 0 -38 3451 2938 l 34 -3 c -3 3 c -4 12 c 0 11 c 4 11 c 7 8 c 11 4 c 8 0 c 11 -4 c 8 -8 c
4 -11 c 0 -11 c -4 -12 c -4 -3 c -7 -4 c 4 -11 3451 2987 l 8 -4 c 7 0 c 8 4 c 4 8 c 3 15 c 4 11 c 8 8 c 7 3 c 12 0 c 7 -3 c 4 -4 c
4 -11 c 0 -16 c -4 -11 c -4 -4 c -7 -3 c -12 0 c -7 3 c -8 8 c -4 11 c -3 15 c -4 8 c -8 4 c -7 0 c -8 -4 c -4 -11 c 0 -16 c
-3 8 3466 3055 l -12 11 c 80 0 c 0 -250 3649 1845 l -8 -4 3617 1966 l -4 -11 c 0 -8 c 4 -11 c 11 -8 c 19 -4 c 19 0 c 15 4 c 8 8 c
4 11 c 0 4 c -4 11 c -8 8 c -11 3 c -4 0 c -11 -3 c -8 -8 c -3 -11 c 0 -4 c 3 -11 c 8 -8 c 11 -4 c -3 8 3620 2003 l -12 11 c 80 0 c
0 -38 3605 2113 l 34 -3 c -3 3 c -4 12 c 0 11 c 4 11 c 7 8 c 12 4 c 7 0 c 11 -4 c 8 -8 c 4 -11 c 0 -11 c -4 -12 c -4 -3 c -7 -4 c
80 -38 3605 2196 l 0 53 3605 2143 l 4 -3 3677 2226 l 4 3 c -4 4 c -4 -4 c 4 -11 3605 2279 l 11 -8 c 19 -3 c 12 0 c 19 3 c 11 8 c
4 11 c 0 8 c -4 11 c -11 8 c -19 4 c -12 0 c -19 -4 c -11 -8 c -4 -11 c 0 -8 c 4 -11 3605 2351 l 8 -4 c 7 0 c 8 4 c 4 7 c 3 16 c
4 11 c 8 7 c 7 4 c 12 0 c 7 -4 c 4 -3 c 4 -12 c 0 -15 c -4 -11 c -4 -4 c -7 -4 c -12 0 c -7 4 c -8 8 c -4 11 c -3 15 c -4 8 c -8 3 c
-7 0 c -8 -3 c -4 -12 c 0 -15 c 4 -12 3605 2427 l 8 -3 c 7 0 c 8 3 c 4 8 c 3 15 c 4 11 c 8 8 c 7 4 c 12 0 c 7 -4 c 4 -4 c 4 -11 c
0 -15 c -4 -12 c -4 -3 c -7 -4 c -12 0 c -7 4 c -8 7 c -4 12 c -3 15 c -4 7 c -8 4 c -7 0 c -8 -4 c -4 -11 c 0 -15 c
0 -249 4086 1785 l -8 -3 4054 1906 l -4 -12 c 0 -7 c 4 -12 c 11 -7 c 19 -4 c 19 0 c 15 4 c 8 7 c 4 12 c 0 3 c -4 12 c -8 7 c -11 4 c
-4 0 c -11 -4 c -8 -7 c -3 -12 c 0 -3 c 3 -12 c 8 -7 c 11 -4 c -3 8 4057 1944 l -12 11 c 80 0 c -8 -4 4054 2058 l -4 -12 c 0 -7 c
4 -12 c 11 -7 c 19 -4 c 19 0 c 15 4 c 8 7 c 4 12 c 0 4 c -4 11 c -8 8 c -11 3 c -4 0 c -11 -3 c -8 -8 c -3 -11 c 0 -4 c 3 -12 c
8 -7 c 11 -4 c -3 8 4057 2095 l -12 11 c 80 0 c 4 -4 4114 2167 l 4 4 c -4 4 c -4 -4 c 0 41 4042 2205 l 31 -22 c 0 11 c 3 8 c 4 3 c
11 4 c 8 0 c 11 -4 c 8 -7 c 4 -11 c 0 -12 c -4 -11 c -4 -4 c -7 -4 c 0 -38 4042 2318 l 34 -3 c -3 3 c -4 12 c 0 11 c 4 12 c 7 7 c
11 4 c 8 0 c 11 -4 c 8 -7 c 4 -12 c 0 -11 c -4 -12 c -4 -3 c -7 -4 c 0 42 4042 2356 l 31 -23 c 0 11 c 3 8 c 4 4 c 11 3 c 8 0 c
11 -3 c 8 -8 c 4 -11 c 0 -12 c -4 -11 c -4 -4 c -7 -3 c 0 -249 4171 7019 l -7 -4 4138 7140 l -4 -11 c 0 -8 c 4 -11 c 11 -8 c 19 -3 c
19 0 c 15 3 c 8 8 c 4 11 c 0 4 c -4 11 c -8 8 c -11 4 c -4 0 c -11 -4 c -8 -8 c -4 -11 c 0 -4 c 4 -11 c 8 -8 c 11 -3 c
-4 7 4142 7178 l -11 12 c 80 0 c -7 -4 4138 7291 l -4 -11 c 0 -7 c 4 -12 c 11 -7 c 19 -4 c 19 0 c 15 4 c 8 7 c 4 12 c 0 3 c -4 12 c
-8 7 c -11 4 c -4 0 c -11 -4 c -8 -7 c -4 -12 c 0 -3 c 4 -12 c 8 -7 c 11 -4 c -4 0 4146 7321 l -7 4 c -4 4 c -4 8 c 0 15 c 4 7 c
4 4 c 7 4 c 8 0 c 7 -4 c 12 -8 c 38 -37 c 0 53 c 4 -4 4199 7401 l 4 4 c -4 4 c -4 -4 c -4 8 4142 7442 l -11 11 c 80 0 c
80 -38 4127 7560 l 0 53 4127 7507 l 4 -11 4127 7605 l 11 -8 c 19 -4 c 11 0 c 19 4 c 12 8 c 4 11 c 0 7 c -4 12 c -12 7 c -19 4 c
-11 0 c -19 -4 c -11 -7 c -4 -12 c 0 -7 c 0 -250 4409 5741 l -8 -4 4377 5862 l -4 -11 c 0 -8 c 4 -11 c 12 -8 c 18 -4 c 19 0 c 15 4 c
8 8 c 4 11 c 0 4 c -4 11 c -8 8 c -11 4 c -4 0 c -11 -4 c -8 -8 c -3 -11 c 0 -4 c 3 -11 c 8 -8 c 11 -4 c -4 7 4381 5900 l -12 12 c
80 0 c -8 -4 4377 6013 l -4 -11 c 0 -8 c 4 -11 c 12 -8 c 18 -3 c 19 0 c 15 3 c 8 8 c 4 11 c 0 4 c -4 11 c -8 8 c -11 4 c -4 0 c
-11 -4 c -8 -8 c -3 -11 c 0 -4 c 3 -11 c 8 -8 c 11 -3 c 53 -38 4365 6077 l 0 57 c 80 0 4365 6077 l 4 -4 4437 6123 l 4 4 c -4 3 c
-4 -3 c 53 -38 4365 6191 l 0 57 c 80 0 4365 6191 l 4 -11 4365 6247 l 8 -4 c 7 0 c 8 4 c 4 8 c 3 15 c 4 11 c 8 8 c 7 3 c 12 0 c
7 -3 c 4 -4 c 4 -12 c 0 -15 c -4 -11 c -4 -4 c -7 -4 c -12 0 c -7 4 c -8 8 c -4 11 c -3 15 c -4 8 c -8 4 c -7 0 c -8 -4 c -4 -12 c
0 -15 c 4 -12 4365 6327 l 12 -7 c 18 -4 c 12 0 c 19 4 c 11 7 c 4 12 c 0 7 c -4 12 c -11 7 c -19 4 c -12 0 c -18 -4 c -12 -7 c
-4 -12 c 0 -7 c 0 -249 4964 7019 l -7 -4 4931 7140 l -4 -11 c 0 -8 c 4 -11 c 11 -8 c 19 -3 c 19 0 c 15 3 c 8 8 c 3 11 c 0 4 c
-3 11 c -8 8 c -11 4 c -4 0 c -11 -4 c -8 -8 c -4 -11 c 0 -4 c 4 -11 c 8 -8 c 11 -3 c -4 7 4935 7178 l -11 12 c 79 0 c
-7 -4 4931 7291 l -4 -11 c 0 -7 c 4 -12 c 11 -7 c 19 -4 c 19 0 c 15 4 c 8 7 c 3 12 c 0 3 c -3 12 c -8 7 c -11 4 c -4 0 c -11 -4 c
-8 -7 c -4 -12 c 0 -3 c 4 -12 c 8 -7 c 11 -4 c 12 -4 4946 7367 l 7 -8 c 4 -11 c 0 -4 c -4 -11 c -7 -8 c -12 -3 c -3 0 c -12 3 c
-7 8 c -4 11 c 0 4 c 4 11 c 7 8 c 15 4 c 19 0 c 19 -4 c 12 -8 c 3 -11 c 0 -7 c -3 -12 c -8 -4 c 4 -4 4992 7401 l 3 4 c -3 4 c
-4 -4 c 4 -11 4920 7450 l 7 -4 c 8 0 c 7 4 c 4 7 c 4 15 c 4 12 c 7 7 c 8 4 c 11 0 c 8 -4 c 4 -4 c 3 -11 c 0 -15 c -3 -11 c -4 -4 c
-8 -4 c -11 0 c -8 4 c -7 7 c -4 12 c -4 15 c -4 7 c -7 4 c -8 0 c -7 -4 c -4 -11 c 0 -15 c -4 0 4939 7510 l -7 4 c -4 4 c -4 8 c
0 15 c 4 7 c 4 4 c 7 4 c 8 0 c 7 -4 c 12 -8 c 37 -37 c 0 53 c -4 0 4939 7586 l -7 4 c -4 4 c -4 7 c 0 15 c 4 8 c 4 4 c 7 3 c 8 0 c
7 -3 c 12 -8 c 37 -38 c 0 53 c 0 -250 5221 6628 l -8 -4 5189 6749 l -4 -11 c 0 -8 c 4 -11 c 11 -8 c 19 -4 c 19 0 c 15 4 c 8 8 c
4 11 c 0 4 c -4 11 c -8 8 c -11 4 c -4 0 c -11 -4 c -8 -8 c -3 -11 c 0 -4 c 3 -11 c 8 -8 c 11 -4 c -3 7 5192 6787 l -12 12 c 80 0 c
80 -38 5177 6904 l 0 53 5177 6851 l -4 0 5196 6930 l -7 4 c -4 4 c -4 7 c 0 15 c 4 8 c 4 4 c 7 4 c 8 0 c 8 -4 c 11 -8 c 38 -38 c
0 53 c 4 -4 5249 7010 l 4 4 c -4 3 c -4 -3 c -4 0 5196 7044 l -7 3 c -4 4 c -4 8 c 0 15 c 4 7 c 4 4 c 7 4 c 8 0 c 8 -4 c 11 -7 c
38 -38 c 0 53 c 80 -37 5177 7168 l 0 53 5177 7115 l 4 -11 5177 7210 l 8 -4 c 7 0 c 8 4 c 4 7 c 3 15 c 4 12 c 8 7 c 7 4 c 12 0 c
7 -4 c 4 -4 c 4 -11 c 0 -15 c -4 -11 c -4 -4 c -7 -4 c -12 0 c -7 4 c -8 7 c -4 12 c -3 15 c -4 7 c -8 4 c -7 0 c -8 -4 c -4 -11 c
0 -15 c 0 -250 5307 2351 l -7 -4 5274 2472 l -4 -12 c 0 -7 c 4 -11 c 11 -8 c 19 -4 c 19 0 c 15 4 c 8 8 c 3 11 c 0 4 c -3 11 c -8 8 c
-11 3 c -4 0 c -11 -3 c -8 -8 c -4 -11 c 0 -4 c 4 -11 c 8 -8 c 11 -4 c -4 8 5278 2509 l -11 11 c 79 0 c 79 -38 5263 2627 l
0 53 5263 2574 l 0 41 5263 2657 l 30 -22 c 0 11 c 4 8 c 4 3 c 11 4 c 8 0 c 11 -4 c 8 -7 c 3 -12 c 0 -11 c -3 -11 c -4 -4 c -8 -4 c
4 -3 5335 2732 l 3 3 c -3 4 c -4 -4 c 4 -11 5263 2785 l 11 -8 c 19 -3 c 11 0 c 19 3 c 12 8 c 3 11 c 0 8 c -3 11 c -12 8 c -19 4 c
-11 0 c -19 -4 c -11 -8 c -4 -11 c 0 -8 c 11 -3 5290 2887 l 7 -8 c 4 -11 c 0 -4 c -4 -11 c -7 -8 c -11 -4 c -4 0 c -12 4 c -7 8 c
-4 11 c 0 4 c 4 11 c 7 8 c 16 3 c 18 0 c 19 -3 c 12 -8 c 3 -11 c 0 -8 c -3 -11 c -8 -4 c -7 -4 5274 2963 l -4 -11 c 0 -8 c 4 -11 c
11 -8 c 19 -3 c 19 0 c 15 3 c 8 8 c 3 11 c 0 4 c -3 11 c -8 8 c -11 4 c -4 0 c -11 -4 c -8 -8 c -4 -11 c 0 -4 c 4 -11 c 8 -8 c
11 -3 c 0 -250 5868 2528 l -8 -4 5836 2649 l -3 -11 c 0 -8 c 3 -11 c 12 -8 c 19 -3 c 19 0 c 15 3 c 7 8 c 4 11 c 0 4 c -4 11 c -7 8 c
-12 4 c -3 0 c -12 -4 c -7 -8 c -4 -11 c 0 -4 c 4 -11 c 7 -8 c 12 -3 c -4 7 5840 2687 l -11 12 c 79 0 c 79 -38 5825 2804 l
0 53 5825 2751 l 3 -11 5825 2845 l 8 -4 c 8 0 c 7 4 c 4 8 c 4 15 c 3 11 c 8 8 c 8 3 c 11 0 c 7 -3 c 4 -4 c 4 -11 c 0 -16 c -4 -11 c
-4 -4 c -7 -3 c -11 0 c -8 3 c -8 8 c -3 11 c -4 15 c -4 8 c -7 4 c -8 0 c -8 -4 c -3 -11 c 0 -16 c 4 -4 5896 2910 l 4 4 c -4 3 c
-4 -3 c 53 -38 5825 2978 l 0 57 c 79 0 5825 2978 l 0 42 5825 3023 l 30 -23 c 0 11 c 4 8 c 3 4 c 12 3 c 7 0 c 12 -3 c 7 -8 c 4 -11 c
0 -12 c -4 -11 c -4 -4 c -7 -3 c -4 8 5840 3102 l -11 11 c 79 0 c 0 -249 6109 2337 l -7 -4 6077 2458 l -4 -11 c 0 -8 c 4 -11 c
11 -7 c 19 -4 c 19 0 c 15 4 c 7 7 c 4 11 c 0 4 c -4 12 c -7 7 c -12 4 c -3 0 c -12 -4 c -7 -7 c -4 -12 c 0 -4 c 4 -11 c 7 -7 c
12 -4 c -4 8 6081 2496 l -11 11 c 79 0 c 4 -11 6066 2579 l 7 -4 c 8 0 c 7 4 c 4 7 c 4 15 c 4 12 c 7 7 c 8 4 c 11 0 c 8 -4 c 3 -3 c
4 -12 c 0 -15 c -4 -11 c -3 -4 c -8 -4 c -11 0 c -8 4 c -7 8 c -4 11 c -4 15 c -4 8 c -7 3 c -8 0 c -7 -3 c -4 -12 c 0 -15 c
4 -11 6066 2658 l 11 -7 c 19 -4 c 11 0 c 19 4 c 11 7 c 4 11 c 0 8 c -4 11 c -11 8 c -19 4 c -11 0 c -19 -4 c -11 -8 c -4 -11 c
0 -8 c 3 -4 6138 2719 l 4 4 c -4 4 c -3 -4 c 79 -38 6066 2802 l 0 53 6066 2749 l 4 -11 6066 2847 l 11 -7 c 19 -4 c 11 0 c 19 4 c
11 7 c 4 11 c 0 8 c -4 11 c -11 8 c -19 4 c -11 0 c -19 -4 c -11 -8 c -4 -11 c 0 -8 c 0 -38 6066 2946 l 34 -4 c -4 4 c -4 11 c
0 12 c 4 11 c 8 7 c 11 4 c 7 0 c 12 -4 c 7 -7 c 4 -11 c 0 -12 c -4 -11 c -3 -4 c -8 -4 c 0 -249 6314 7019 l -8 -4 6282 7140 l
-4 -11 c 0 -8 c 4 -11 c 11 -8 c 19 -3 c 19 0 c 15 3 c 8 8 c 4 11 c 0 4 c -4 11 c -8 8 c -11 4 c -4 0 c -11 -4 c -8 -8 c -3 -11 c
0 -4 c 3 -11 c 8 -8 c 11 -3 c -3 7 6285 7178 l -12 12 c 80 0 c 4 -11 6270 7261 l 8 -4 c 7 0 c 8 4 c 4 7 c 3 15 c 4 12 c 8 7 c 7 4 c
12 0 c 7 -4 c 4 -4 c 4 -11 c 0 -15 c -4 -11 c -4 -4 c -7 -4 c -12 0 c -7 4 c -8 7 c -4 12 c -3 15 c -4 7 c -8 4 c -7 0 c -8 -4 c
-4 -11 c 0 -15 c -4 0 6289 7321 l -7 4 c -4 4 c -4 8 c 0 15 c 4 7 c 4 4 c 7 4 c 8 0 c 8 -4 c 11 -8 c 38 -37 c 0 53 c
4 -4 6342 7401 l 4 4 c -4 4 c -4 -4 c -8 -4 6282 7480 l -4 -11 c 0 -7 c 4 -12 c 11 -7 c 19 -4 c 19 0 c 15 4 c 8 7 c 4 12 c 0 3 c
-4 12 c -8 7 c -11 4 c -4 0 c -11 -4 c -8 -7 c -3 -12 c 0 -3 c 3 -12 c 8 -7 c 11 -4 c -4 0 6289 7510 l -7 4 c -4 4 c -4 8 c 0 15 c
4 7 c 4 4 c 7 4 c 8 0 c 8 -4 c 11 -8 c 38 -37 c 0 53 c -4 0 6289 7586 l -7 4 c -4 4 c -4 7 c 0 15 c 4 8 c 4 4 c 7 3 c 8 0 c 8 -3 c
11 -8 c 38 -38 c 0 53 c 0 -249 6903 3790 l -7 -3 6871 3911 l -4 -12 c 0 -7 c 4 -12 c 11 -7 c 19 -4 c 19 0 c 15 4 c 7 7 c 4 12 c
0 4 c -4 11 c -7 7 c -12 4 c -3 0 c -12 -4 c -7 -7 c -4 -11 c 0 -4 c 4 -12 c 7 -7 c 12 -4 c -4 8 6875 3949 l -11 11 c 79 0 c
4 -11 6860 4032 l 7 -4 c 8 0 c 7 4 c 4 8 c 4 15 c 4 11 c 7 8 c 8 3 c 11 0 c 8 -3 c 3 -4 c 4 -12 c 0 -15 c -4 -11 c -3 -4 c -8 -4 c
-11 0 c -8 4 c -7 8 c -4 11 c -4 15 c -4 8 c -7 4 c -8 0 c -7 -4 c -4 -12 c 0 -15 c 4 -11 6860 4108 l 7 -4 c 8 0 c 7 4 c 4 7 c
4 15 c 4 12 c 7 7 c 8 4 c 11 0 c 8 -4 c 3 -4 c 4 -11 c 0 -15 c -4 -11 c -3 -4 c -8 -4 c -11 0 c -8 4 c -7 7 c -4 12 c -4 15 c -4 7 c
-7 4 c -8 0 c -7 -4 c -4 -11 c 0 -15 c 3 -4 6932 4172 l 4 4 c -4 4 c -3 -4 c -4 7 6875 4214 l -11 12 c 79 0 c -4 0 6879 4282 l
-8 4 c -3 3 c -4 8 c 0 15 c 4 8 c 3 3 c 8 4 c 7 0 c 8 -4 c 11 -7 c 38 -38 c 0 53 c 0 -38 6860 4399 l 34 -4 c -4 4 c -4 12 c 0 11 c
4 11 c 8 8 c 11 4 c 7 0 c 12 -4 c 7 -8 c 4 -11 c 0 -11 c -4 -12 c -3 -4 c -8 -3 c 0 -249 7013 1356 l -8 -3 6981 1477 l -3 -12 c
0 -7 c 3 -12 c 12 -7 c 19 -4 c 19 0 c 15 4 c 7 7 c 4 12 c 0 3 c -4 12 c -7 7 c -12 4 c -3 0 c -12 -4 c -7 -7 c -4 -12 c 0 -3 c
4 -12 c 7 -7 c 12 -4 c -4 8 6985 1515 l -11 11 c 79 0 c 3 -11 6970 1598 l 8 -4 c 8 0 c 7 4 c 4 8 c 4 15 c 4 11 c 7 8 c 8 3 c 11 0 c
8 -3 c 3 -4 c 4 -12 c 0 -15 c -4 -11 c -3 -4 c -8 -4 c -11 0 c -8 4 c -7 8 c -4 11 c -4 15 c -4 8 c -7 4 c -8 0 c -8 -4 c -3 -12 c
0 -15 c 12 -4 6996 1704 l 7 -7 c 4 -12 c 0 -3 c -4 -12 c -7 -7 c -12 -4 c -4 0 c -11 4 c -8 7 c -3 12 c 0 3 c 3 12 c 8 7 c 15 4 c
19 0 c 19 -4 c 11 -7 c 4 -12 c 0 -7 c -4 -11 c -7 -4 c 3 -4 7042 1738 l 4 4 c -4 4 c -3 -4 c -4 7 6985 1780 l -11 12 c 79 0 c
53 -38 6970 1882 l 0 57 c 79 0 6970 1882 l 0 -38 6970 1965 l 34 -4 c -4 4 c -4 11 c 0 12 c 4 11 c 8 8 c 11 3 c 7 0 c 12 -3 c 7 -8 c
4 -11 c 0 -12 c -4 -11 c -3 -4 c -8 -3 c 0 -250 7312 3757 l -8 -3 7280 3877 l -3 -12 c 0 -7 c 3 -12 c 12 -7 c 19 -4 c 19 0 c 15 4 c
7 7 c 4 12 c 0 4 c -4 11 c -7 7 c -12 4 c -3 0 c -12 -4 c -7 -7 c -4 -11 c 0 -4 c 4 -12 c 7 -7 c 12 -4 c -4 8 7284 3915 l -11 11 c
79 0 c 12 -4 7295 4029 l 7 -8 c 4 -11 c 0 -4 c -4 -11 c -7 -8 c -12 -3 c -4 0 c -11 3 c -8 8 c -3 11 c 0 4 c 3 11 c 8 8 c 15 4 c
19 0 c 19 -4 c 11 -8 c 4 -11 c 0 -8 c -4 -11 c -7 -4 c -4 8 7284 4066 l -11 11 c 79 0 c 3 -4 7341 4138 l 4 4 c -4 4 c -3 -4 c
12 -4 7295 4218 l 7 -8 c 4 -11 c 0 -4 c -4 -11 c -7 -8 c -12 -4 c -4 0 c -11 4 c -8 8 c -3 11 c 0 4 c 3 11 c 8 8 c 15 4 c 19 0 c
19 -4 c 11 -8 c 4 -11 c 0 -8 c -4 -11 c -7 -4 c 3 -12 7269 4267 l 12 -7 c 19 -4 c 11 0 c 19 4 c 11 7 c 4 12 c 0 7 c -4 12 c -11 7 c
-19 4 c -11 0 c -19 -4 c -12 -7 c -3 -12 c 0 -7 c 0 -38 7269 4365 l 34 -4 c -4 4 c -4 12 c 0 11 c 4 11 c 8 8 c 11 4 c 7 0 c 12 -4 c
7 -8 c 4 -11 c 0 -11 c -4 -12 c -3 -4 c -8 -3 c 0 -249 7525 1863 l -7 -4 7492 1984 l -4 -11 c 0 -8 c 4 -11 c 11 -8 c 19 -3 c 19 0 c
15 3 c 8 8 c 3 11 c 0 4 c -3 11 c -8 8 c -11 4 c -4 0 c -11 -4 c -8 -8 c -4 -11 c 0 -4 c 4 -11 c 8 -8 c 11 -3 c -4 7 7496 2022 l
-11 12 c 79 0 c 11 -4 7508 2135 l 7 -7 c 4 -11 c 0 -4 c -4 -12 c -7 -7 c -11 -4 c -4 0 c -12 4 c -7 7 c -4 12 c 0 4 c 4 11 c 7 7 c
16 4 c 18 0 c 19 -4 c 12 -7 c 3 -11 c 0 -8 c -3 -11 c -8 -4 c 0 42 7481 2169 l 30 -23 c 0 11 c 4 8 c 4 4 c 11 4 c 8 0 c 11 -4 c
8 -8 c 3 -11 c 0 -11 c -3 -12 c -4 -4 c -8 -3 c 4 -4 7553 2245 l 3 4 c -3 4 c -4 -4 c 4 -11 7481 2294 l 7 -4 c 8 0 c 8 4 c 3 7 c
4 15 c 4 12 c 7 7 c 8 4 c 11 0 c 8 -4 c 4 -4 c 3 -11 c 0 -15 c -3 -11 c -4 -4 c -8 -4 c -11 0 c -8 4 c -7 7 c -4 12 c -4 15 c -3 7 c
-8 4 c -8 0 c -7 -4 c -4 -11 c 0 -15 c 0 -38 7481 2396 l 34 -4 c -4 4 c -3 12 c 0 11 c 3 11 c 8 8 c 11 4 c 8 0 c 11 -4 c 8 -8 c
3 -11 c 0 -11 c -3 -12 c -4 -4 c -8 -3 c -7 -3 7492 2475 l -4 -12 c 0 -7 c 4 -12 c 11 -7 c 19 -4 c 19 0 c 15 4 c 8 7 c 3 12 c 0 3 c
-3 12 c -8 7 c -11 4 c -4 0 c -11 -4 c -8 -7 c -4 -12 c 0 -3 c 4 -12 c 8 -7 c 11 -4 c 0 -249 8002 4948 l -8 -4 7970 5069 l -3 -11 c
0 -8 c 3 -11 c 12 -7 c 19 -4 c 19 0 c 15 4 c 7 7 c 4 11 c 0 4 c -4 12 c -7 7 c -12 4 c -3 0 c -12 -4 c -7 -7 c -4 -12 c 0 -4 c
4 -11 c 7 -7 c 12 -4 c -4 7 7974 5107 l -11 12 c 79 0 c 11 -3 7985 5220 l 8 -8 c 4 -11 c 0 -4 c -4 -11 c -8 -8 c -11 -4 c -4 0 c
-11 4 c -8 8 c -3 11 c 0 4 c 3 11 c 8 8 c 15 3 c 19 0 c 19 -3 c 11 -8 c 4 -11 c 0 -8 c -4 -11 c -7 -4 c 3 -12 7959 5266 l 8 -3 c
8 0 c 7 3 c 4 8 c 4 15 c 3 11 c 8 8 c 8 4 c 11 0 c 7 -4 c 4 -4 c 4 -11 c 0 -15 c -4 -12 c -4 -3 c -7 -4 c -11 0 c -8 4 c -8 7 c
-3 11 c -4 16 c -4 7 c -7 4 c -8 0 c -8 -4 c -3 -11 c 0 -15 c 4 -4 8030 5330 l 4 4 c -4 4 c -4 -4 c -4 0 7978 5364 l -8 4 c -4 3 c
-3 8 c 0 15 c 3 8 c 4 4 c 8 3 c 7 0 c 8 -3 c 11 -8 c 38 -38 c 0 53 c -4 0 7978 5440 l -8 3 c -4 4 c -3 8 c 0 15 c 3 7 c 4 4 c 8 4 c
7 0 c 8 -4 c 11 -7 c 38 -38 c 0 53 c 0 41 7959 5519 l 30 -22 c 0 11 c 4 8 c 3 3 c 12 4 c 7 0 c 12 -4 c 7 -7 c 4 -11 c 0 -12 c
-4 -11 c -4 -4 c -7 -4 c 0 -250 8246 1905 l -8 -4 8214 2026 l -4 -11 c 0 -8 c 4 -11 c 11 -8 c 19 -4 c 19 0 c 15 4 c 8 8 c 4 11 c
0 4 c -4 11 c -8 8 c -11 4 c -4 0 c -11 -4 c -8 -8 c -4 -11 c 0 -4 c 4 -11 c 8 -8 c 11 -4 c -4 0 8221 2056 l -7 4 c -4 4 c -4 7 c
0 15 c 4 8 c 4 4 c 7 3 c 8 0 c 7 -3 c 12 -8 c 38 -38 c 0 53 c 4 -11 8202 2150 l 11 -7 c 19 -4 c 12 0 c 19 4 c 11 7 c 4 11 c 0 8 c
-4 11 c -11 8 c -19 4 c -12 0 c -19 -4 c -11 -8 c -4 -11 c 0 -8 c 4 -11 8202 2226 l 11 -8 c 19 -4 c 12 0 c 19 4 c 11 8 c 4 11 c
0 8 c -4 11 c -11 8 c -19 3 c -12 0 c -19 -3 c -11 -8 c -4 -11 c 0 -8 c 4 -4 8274 2287 l 4 4 c -4 3 c -4 -3 c 53 -38 8202 2355 l
0 56 c 80 0 8202 2355 l 0 42 8202 2400 l 30 -23 c 0 11 c 4 8 c 4 4 c 11 3 c 8 0 c 11 -3 c 8 -8 c 4 -11 c 0 -12 c -4 -11 c -4 -4 c
-7 -4 c -4 0 8221 2472 l -7 4 c -4 3 c -4 8 c 0 15 c 4 8 c 4 3 c 7 4 c 8 0 c 7 -4 c 12 -7 c 38 -38 c 0 53 c 0 -250 8584 6563 l
-7 -4 8552 6684 l -4 -12 c 0 -7 c 4 -11 c 11 -8 c 19 -4 c 19 0 c 15 4 c 7 8 c 4 11 c 0 4 c -4 11 c -7 8 c -11 3 c -4 0 c -12 -3 c
-7 -8 c -4 -11 c 0 -4 c 4 -11 c 7 -8 c 12 -4 c -4 0 8560 6714 l -8 4 c -3 3 c -4 8 c 0 15 c 4 8 c 3 3 c 8 4 c 8 0 c 7 -4 c 11 -7 c
38 -38 c 0 53 c 4 -11 8541 6808 l 11 -8 c 19 -3 c 11 0 c 19 3 c 11 8 c 4 11 c 0 8 c -4 11 c -11 8 c -19 4 c -11 0 c -19 -4 c
-11 -8 c -4 -11 c 0 -8 c 0 41 8541 6869 l 30 -22 c 0 11 c 4 8 c 4 3 c 11 4 c 8 0 c 11 -4 c 7 -7 c 4 -12 c 0 -11 c -4 -11 c -3 -4 c
-8 -4 c 3 -3 8613 6944 l 4 3 c -4 4 c -3 -4 c 53 -37 8541 7012 l 0 56 c 79 0 8541 7012 l 12 -3 8567 7099 l 7 -8 c 4 -11 c 0 -4 c
-4 -11 c -7 -8 c -12 -4 c -3 0 c -12 4 c -7 8 c -4 11 c 0 4 c 4 11 c 7 8 c 15 3 c 19 0 c 19 -3 c 11 -8 c 4 -11 c 0 -8 c -4 -11 c
-7 -4 c 0 42 8541 7133 l 30 -23 c 0 12 c 4 7 c 4 4 c 11 4 c 8 0 c 11 -4 c 7 -8 c 4 -11 c 0 -11 c -4 -12 c -3 -3 c -8 -4 c
0 -249 8848 1348 l -8 -3 8816 1469 l -4 -12 c 0 -7 c 4 -12 c 11 -7 c 19 -4 c 19 0 c 15 4 c 8 7 c 4 12 c 0 4 c -4 11 c -8 7 c -11 4 c
-4 0 c -11 -4 c -8 -7 c -3 -11 c 0 -4 c 3 -12 c 8 -7 c 11 -4 c -4 0 8823 1500 l -7 3 c -4 4 c -4 8 c 0 15 c 4 7 c 4 4 c 7 4 c 8 0 c
8 -4 c 11 -7 c 38 -38 c 0 53 c 4 -11 8804 1594 l 11 -8 c 19 -4 c 12 0 c 19 4 c 11 8 c 4 11 c 0 8 c -4 11 c -11 8 c -19 3 c -12 0 c
-19 -3 c -11 -8 c -4 -11 c 0 -8 c 0 -37 8804 1692 l 34 -4 c -3 4 c -4 11 c 0 11 c 4 12 c 7 7 c 11 4 c 8 0 c 11 -4 c 8 -7 c 4 -12 c
0 -11 c -4 -11 c -4 -4 c -7 -4 c 4 -4 8876 1730 l 4 4 c -4 4 c -4 -4 c 4 -11 8804 1779 l 8 -4 c 7 0 c 8 4 c 4 8 c 3 15 c 4 11 c
8 8 c 7 3 c 12 0 c 7 -3 c 4 -4 c 4 -12 c 0 -15 c -4 -11 c -4 -4 c -7 -4 c -12 0 c -7 4 c -8 8 c -4 11 c -3 15 c -4 8 c -8 4 c -7 0 c
-8 -4 c -4 -12 c 0 -15 c -8 -4 8816 1885 l -4 -11 c 0 -8 c 4 -11 c 11 -7 c 19 -4 c 19 0 c 15 4 c 8 7 c 4 11 c 0 4 c -4 12 c -8 7 c
-11 4 c -4 0 c -11 -4 c -8 -7 c -3 -12 c 0 -4 c 3 -11 c 8 -7 c 11 -4 c 4 -11 8804 1934 l 11 -8 c 19 -3 c 12 0 c 19 3 c 11 8 c 4 11 c
0 8 c -4 11 c -11 8 c -19 4 c -12 0 c -19 -4 c -11 -8 c -4 -11 c 0 -8 c 0 -250 9000 4439 l -8 -4 8968 4560 l -4 -12 c 0 -7 c 4 -11 c
12 -8 c 18 -4 c 19 0 c 15 4 c 8 8 c 4 11 c 0 4 c -4 11 c -8 8 c -11 3 c -4 0 c -11 -3 c -8 -8 c -3 -11 c 0 -4 c 3 -11 c 8 -8 c
11 -4 c -3 0 8975 4590 l -8 4 c -4 3 c -4 8 c 0 15 c 4 8 c 4 3 c 8 4 c 7 0 c 8 -4 c 11 -7 c 38 -38 c 0 53 c 4 -11 8956 4684 l
12 -8 c 18 -3 c 12 0 c 19 3 c 11 8 c 4 11 c 0 8 c -4 11 c -11 8 c -19 4 c -12 0 c -18 -4 c -12 -8 c -4 -11 c 0 -8 c
80 -38 8956 4790 l 0 53 8956 4737 l 4 -3 9028 4820 l 4 3 c -4 4 c -4 -4 c -3 0 8975 4854 l -8 4 c -4 4 c -4 8 c 0 15 c 4 7 c 4 4 c
8 4 c 7 0 c 8 -4 c 11 -8 c 38 -37 c 0 53 c -3 0 8975 4930 l -8 4 c -4 4 c -4 7 c 0 15 c 4 8 c 4 4 c 8 3 c 7 0 c 8 -3 c 11 -8 c
38 -38 c 0 53 c 4 -11 8956 5024 l 12 -7 c 18 -4 c 12 0 c 19 4 c 11 7 c 4 11 c 0 8 c -4 11 c -11 8 c -19 4 c -12 0 c -18 -4 c
-12 -8 c -4 -11 c 0 -8 c 0 -249 9164 1353 l -8 -3 9132 1474 l -3 -12 c 0 -7 c 3 -12 c 12 -7 c 19 -4 c 19 0 c 15 4 c 7 7 c 4 12 c
0 3 c -4 12 c -7 7 c -12 4 c -3 0 c -12 -4 c -7 -7 c -4 -12 c 0 -3 c 4 -12 c 7 -7 c 12 -4 c -4 0 9140 1505 l -8 3 c -4 4 c -3 8 c
0 15 c 3 7 c 4 4 c 8 4 c 7 0 c 8 -4 c 11 -7 c 38 -38 c 0 53 c 3 -11 9121 1599 l 12 -8 c 19 -4 c 11 0 c 19 4 c 11 8 c 4 11 c 0 8 c
-4 11 c -11 8 c -19 3 c -11 0 c -19 -3 c -12 -8 c -3 -11 c 0 -8 c 3 -11 9121 1671 l 8 -4 c 8 0 c 7 4 c 4 7 c 4 15 c 3 12 c 8 7 c
8 4 c 11 0 c 7 -4 c 4 -4 c 4 -11 c 0 -15 c -4 -11 c -4 -4 c -7 -4 c -11 0 c -8 4 c -8 7 c -3 12 c -4 15 c -4 7 c -7 4 c -8 0 c
-8 -4 c -3 -11 c 0 -15 c 4 -4 9192 1735 l 4 4 c -4 4 c -4 -4 c -8 -4 9132 1815 l -3 -12 c 0 -7 c 3 -11 c 12 -8 c 19 -4 c 19 0 c
15 4 c 7 8 c 4 11 c 0 4 c -4 11 c -7 8 c -12 3 c -3 0 c -12 -3 c -7 -8 c -4 -11 c 0 -4 c 4 -11 c 7 -8 c 12 -4 c 3 -11 9121 1860 l
8 -4 c 8 0 c 7 4 c 4 7 c 4 15 c 3 12 c 8 7 c 8 4 c 11 0 c 7 -4 c 4 -4 c 4 -11 c 0 -15 c -4 -11 c -4 -4 c -7 -4 c -11 0 c -8 4 c
-8 7 c -3 12 c -4 15 c -4 7 c -7 4 c -8 0 c -8 -4 c -3 -11 c 0 -15 c 79 -37 9121 1969 l 0 52 9121 1917 l
showpage PGPLOT restore
 
%%Trailer
%%DocumentFonts: 
%%Pages: 1
%%EOF
