%!PS-Adobe-3.0 EPSF-3.0
%%For: tab
%%Title: PGPLOT PostScript plot
%%Creator: PGPLOT
%%CreationDate: 20-Apr-1995 16:43
%%BoundingBox: 25 18 587 774
%%DocumentFonts: (atend)
%%LanguageLevel: 1
%%Orientation: Landscape
%%Pages: (atend)
%%EndComments
%%BeginProlog
/l {moveto rlineto currentpoint stroke moveto} bind def
/c {rlineto currentpoint stroke moveto} bind def
/d {moveto 0 0 rlineto currentpoint stroke moveto} bind def
/SLW {5 mul setlinewidth} bind def
/SCF /pop load def
/BP {newpath moveto} bind def
/LP /rlineto load def
/EP {rlineto closepath eofill} bind def
/MB {gsave translate MFAC dup scale 1 setlinewidth 2 setlinecap 0 setlinejoin newpath} bind def
/ME /grestore load def
/C {0 360 arc stroke} bind def
/FC {0 360 arc fill} bind def
%%EndProlog
 
%%Page: 1 1
%%BeginPageSetup
/PGPLOT save def
0.072 0.072 scale
8150 250 translate 90 rotate
1 setlinejoin 1 setlinecap 1 SLW 1 SCF
%%EndPageSetup
0.000 setgray 1 SLW 8939 0 780 780 l 0 6239 c -8939 0 c 0 -6239 c 0 -45 1116 780 l 0 -45 1554 780 l 0 -45 1991 780 l
0 -45 2428 780 l 0 -90 2865 780 l 0 -45 3302 780 l 0 -45 3739 780 l 0 -45 4176 780 l 0 -45 4613 780 l 0 -90 5051 780 l
0 -45 5488 780 l 0 -45 5925 780 l 0 -45 6362 780 l 0 -45 6799 780 l 0 -90 7236 780 l 0 -45 7673 780 l 0 -45 8110 780 l
0 -45 8548 780 l 0 -45 8985 780 l 0 -90 9422 780 l 0 -45 1116 7064 l 0 -45 1554 7064 l 0 -45 1991 7064 l 0 -45 2428 7064 l
0 -90 2865 7109 l 0 -45 3302 7064 l 0 -45 3739 7064 l 0 -45 4176 7064 l 0 -45 4613 7064 l 0 -90 5051 7109 l 0 -45 5488 7064 l
0 -45 5925 7064 l 0 -45 6362 7064 l 0 -45 6799 7064 l 0 -90 7236 7109 l 0 -45 7673 7064 l 0 -45 8110 7064 l 0 -45 8548 7064 l
0 -45 8985 7064 l 0 -90 9422 7109 l -60 0 2775 672 l -6 -54 c 6 6 c 18 6 c 18 0 c 18 -6 c 12 -12 c 6 -18 c 0 -12 c -6 -18 c
-12 -12 c -18 -6 c -18 0 c -18 6 c -6 6 c -6 12 c -18 -6 2859 672 l -12 -18 c -6 -30 c 0 -18 c 6 -30 c 12 -18 c 18 -6 c 12 0 c
18 6 c 12 18 c 6 30 c 0 18 c -6 30 c -12 18 c -18 6 c -12 0 c -18 -6 2979 672 l -12 -18 c -6 -30 c 0 -18 c 6 -30 c 12 -18 c 18 -6 c
12 0 c 18 6 c 12 18 c 6 30 c 0 18 c -6 30 c -12 18 c -18 6 c -12 0 c 12 6 4847 648 l 18 18 c 0 -126 c -18 -6 4985 672 l -12 -18 c
-6 -30 c 0 -18 c 6 -30 c 12 -18 c 18 -6 c 12 0 c 18 6 c 12 18 c 6 30 c 0 18 c -6 30 c -12 18 c -18 6 c -12 0 c -18 -6 5105 672 l
-12 -18 c -6 -30 c 0 -18 c 6 -30 c 12 -18 c 18 -6 c 12 0 c 18 6 c 12 18 c 6 30 c 0 18 c -6 30 c -12 18 c -18 6 c -12 0 c
-18 -6 5225 672 l -12 -18 c -6 -30 c 0 -18 c 6 -30 c 12 -18 c 18 -6 c 12 0 c 18 6 c 12 18 c 6 30 c 0 18 c -6 30 c -12 18 c -18 6 c
-12 0 c 12 6 7032 648 l 18 18 c 0 -126 c -60 0 7206 672 l -6 -54 c 6 6 c 18 6 c 18 0 c 18 -6 c 12 -12 c 6 -18 c 0 -12 c -6 -18 c
-12 -12 c -18 -6 c -18 0 c -18 6 c -6 6 c -6 12 c -18 -6 7290 672 l -12 -18 c -6 -30 c 0 -18 c 6 -30 c 12 -18 c 18 -6 c 12 0 c
18 6 c 12 18 c 6 30 c 0 18 c -6 30 c -12 18 c -18 6 c -12 0 c -18 -6 7410 672 l -12 -18 c -6 -30 c 0 -18 c 6 -30 c 12 -18 c 18 -6 c
12 0 c 18 6 c 12 18 c 6 30 c 0 18 c -6 30 c -12 18 c -18 6 c -12 0 c 0 6 9206 642 l 6 12 c 6 6 c 12 6 c 24 0 c 12 -6 c 6 -6 c
6 -12 c 0 -12 c -6 -12 c -12 -18 c -60 -60 c 84 0 c -18 -6 9356 672 l -12 -18 c -6 -30 c 0 -18 c 6 -30 c 12 -18 c 18 -6 c 12 0 c
18 6 c 12 18 c 6 30 c 0 18 c -6 30 c -12 18 c -18 6 c -12 0 c -18 -6 9476 672 l -12 -18 c -6 -30 c 0 -18 c 6 -30 c 12 -18 c 18 -6 c
12 0 c 18 6 c 12 18 c 6 30 c 0 18 c -6 30 c -12 18 c -18 6 c -12 0 c -18 -6 9596 672 l -12 -18 c -6 -30 c 0 -18 c 6 -30 c 12 -18 c
18 -6 c 12 0 c 18 6 c 12 18 c 6 30 c 0 18 c -6 30 c -12 18 c -18 6 c -12 0 c -90 0 780 805 l -45 0 780 1084 l -45 0 780 1364 l
-45 0 780 1644 l -45 0 780 1924 l -90 0 780 2204 l -45 0 780 2484 l -45 0 780 2763 l -45 0 780 3043 l -45 0 780 3323 l
-90 0 780 3603 l -45 0 780 3883 l -45 0 780 4163 l -45 0 780 4442 l -45 0 780 4722 l -90 0 780 5002 l -45 0 780 5282 l
-45 0 780 5562 l -45 0 780 5842 l -45 0 780 6121 l -90 0 780 6401 l -45 0 780 6681 l -45 0 780 6961 l -90 0 9809 805 l
-45 0 9764 1084 l -45 0 9764 1364 l -45 0 9764 1644 l -45 0 9764 1924 l -90 0 9809 2204 l -45 0 9764 2484 l -45 0 9764 2763 l
-45 0 9764 3043 l -45 0 9764 3323 l -90 0 9809 3603 l -45 0 9764 3883 l -45 0 9764 4163 l -45 0 9764 4442 l -45 0 9764 4722 l
-90 0 9809 5002 l -45 0 9764 5282 l -45 0 9764 5562 l -45 0 9764 5842 l -45 0 9764 6121 l -90 0 9809 6401 l -45 0 9764 6681 l
-45 0 9764 6961 l 6 -18 517 799 l 18 -12 c 30 -6 c 18 0 c 30 6 c 18 12 c 6 18 c 0 12 c -6 18 c -18 12 c -30 6 c -18 0 c -30 -6 c
-18 -12 c -6 -18 c 0 -12 c -6 12 541 2084 l -18 18 c 126 0 c 6 -18 517 2222 l 18 -12 c 30 -6 c 18 0 c 30 6 c 18 12 c 6 18 c 0 12 c
-6 18 c -18 12 c -30 6 c -18 0 c -30 -6 c -18 -12 c -6 -18 c 0 -12 c 63 -45 453 2346 l 0 68 c 94 0 453 2346 l -6 0 547 3345 l
-12 6 c -6 6 c -6 12 c 0 24 c 6 12 c 6 6 c 12 6 c 12 0 c 12 -6 c 18 -12 c 60 -60 c 0 84 c 84 84 547 3465 l 84 -84 547 3549 l
-6 12 541 3609 l -18 18 c 126 0 c 6 -18 517 3747 l 18 -12 c 30 -6 c 18 0 c 30 6 c 18 12 c 6 18 c 0 12 c -6 18 c -18 12 c -30 6 c
-18 0 c -30 -6 c -18 -12 c -6 -18 c 0 -12 c 63 -45 453 3871 l 0 68 c 94 0 453 3871 l 0 66 517 4750 l 48 -36 c 0 18 c 6 12 c 6 6 c
18 6 c 12 0 c 18 -6 c 12 -12 c 6 -18 c 0 -18 c -6 -18 c -6 -6 c -12 -6 c 84 84 547 4864 l 84 -84 547 4948 l -6 12 541 5008 l
-18 18 c 126 0 c 6 -18 517 5146 l 18 -12 c 30 -6 c 18 0 c 30 6 c 18 12 c 6 18 c 0 12 c -6 18 c -18 12 c -30 6 c -18 0 c -30 -6 c
-18 -12 c -6 -18 c 0 -12 c 63 -45 453 5271 l 0 67 c 94 0 453 5271 l 84 -60 517 6197 l 0 90 c 126 0 517 6197 l 84 84 547 6263 l
84 -84 547 6347 l -6 12 541 6407 l -18 18 c 126 0 c 6 -18 517 6545 l 18 -12 c 30 -6 c 18 0 c 30 6 c 18 12 c 6 18 c 0 12 c -6 18 c
-18 12 c -30 6 c -18 0 c -30 -6 c -18 -12 c -6 -18 c 0 -12 c 63 -45 453 6670 l 0 67 c 94 0 453 6670 l
4 -1 780 824 l 5 1 c 4 1 c 4 0 c 5 -1 c 4 0 c 4 -1 c 5 -1 c 4 0 c 5 0 c 4 0 c 4 0 c 5 0 c 4 1 c 4 1 c 5 2 c 4 0 c 5 -2 c 4 0 c 4 0 c
5 -1 c 4 -1 c 4 0 c 5 1 c 4 5 c 5 4 c 4 -1 c 4 -5 c 5 -4 c 4 0 c 4 0 c 5 0 c 4 -1 c 5 0 c 4 0 c 4 0 c 5 0 c 4 0 c 4 0 c 5 1 c 4 -1 c
4 1 c 5 1 c 4 3 c 5 10 c 4 11 c 4 27 c 5 4 c 4 -14 c 4 -32 c 5 -3 c 4 -2 c 5 -3 c 4 -3 c 4 0 c 5 0 c 4 0 c 4 0 c 5 0 c 4 0 c 5 0 c
4 0 c 4 0 c 5 0 c 4 2 c 4 6 c 5 14 c 4 8 c 5 17 c 4 6 c 4 -12 c 5 -32 c 4 -7 c 4 1 c 5 0 c 4 0 c 4 -1 c 5 -1 c 4 1 c 5 2 c 4 7 c
4 17 c 5 59 c 4 -103 c 4 0 c 5 40 c 4 -19 c 5 -2 c 4 -1 c 4 0 c 5 0 c 4 1 c 4 0 c 5 0 c 4 3 c 5 12 c 4 7 c 4 -5 c 5 -13 c 4 -5 c
4 0 c 5 1 c 4 3 c 5 1 c 4 -1 c 4 -2 c 5 3 c 4 20 c 4 67 c 5 230 c 4 425 c 4 2 c 5 -381 c 4 -328 c 5 -33 c 4 -4 c 4 -1 c 5 1 c 4 5 c
4 18 c 5 56 c 4 15 c 5 -26 c 4 -60 c 4 -8 c 5 4 c 4 22 c 4 11 c 5 -9 c 4 -24 c 5 0 c 4 2 c 4 -1 c 5 -3 c 4 -1 c 4 -1 c 5 -1 c 4 -1 c
5 0 c 4 -1 c 4 0 c 5 1 c 4 0 c 4 1 c 5 0 c 4 -1 c 4 0 c 5 1 c 4 1 c 5 0 c 4 1 c 4 7 c 5 30 c 4 109 c 4 313 c 5 91 c 4 -89 c 5 4 c
4 693 c 4 229 c 5 -473 c 4 -711 c 4 -125 c 5 53 c 4 69 c 5 -5 c 4 -103 c 4 -74 c 5 -13 c 4 -4 c 4 -1 c 5 -1 c 4 0 c 4 -1 c 5 -1 c
4 1 c 5 0 c 4 2 c 4 1 c 5 1 c 4 11 c 4 6 c 5 -2 c 4 -15 c 5 -4 c 4 2 c 4 3 c 5 0 c 4 -3 c 4 -4 c 5 1 c 4 3 c 5 0 c 4 1 c 4 6 c 5 5 c
4 -2 c 4 -6 c 5 -1 c 4 23 c 5 118 c 4 234 c 4 35 c 5 -177 c 4 -211 c 4 -22 c 5 0 c 4 2 c 4 1 c 5 -4 c 4 -1 c 5 5 c 4 39 c 4 183 c
5 300 c 4 22 c 4 -292 c 5 -236 c 4 -20 c 5 3 c 4 0 c 4 -4 c 5 -3 c 4 -1 c 4 5 c 5 22 c 4 83 c 5 24 c 4 -38 c 4 -80 c 5 -13 c 4 0 c
4 0 c 5 -2 c 4 -2 c 5 -1 c 4 3 c 4 3 c 5 3 c 4 0 c 4 0 c 5 7 c 4 37 c 4 121 c 5 36 c 4 -51 c 5 -108 c 4 60 c 4 65 c 5 -22 c 4 -107 c
4 -35 c 5 -2 c 4 -1 c 5 -2 c 4 -1 c 4 0 c 5 -1 c 4 1 c 4 0 c 5 0 c 4 -1 c 5 -1 c 4 1 c 4 0 c 5 1 c 4 2 c 4 2 c 5 11 c 4 43 c 5 76 c
4 0 c 4 -70 c 5 -56 c 4 4 c 4 48 c 5 154 c 4 56 c 4 -65 c 5 -160 c 4 -40 c 5 -3 c 4 -2 c 4 1 c 5 -2 c 4 -1 c 4 0 c 5 0 c 4 1 c 5 1 c
4 1 c 4 0 c 5 1 c 4 5 c 4 1 c 5 -2 c 4 -3 c 5 -2 c 4 -2 c 4 -1 c 5 2 c 4 0 c 4 0 c 5 -1 c 4 0 c 5 -1 c 4 1 c 4 0 c 5 1 c 4 0 c 4 0 c
5 2 c 4 4 c 4 0 c 5 -2 c 4 -1 c 5 -1 c 4 1 c 4 -1 c 5 -2 c 4 0 c 4 9 c 5 60 c 4 110 c 5 4 c 4 -86 c 4 -92 c 5 -6 c 4 -1 c 4 0 c
5 0 c 4 0 c 5 4 c 4 1 c 4 -1 c 5 -3 c 4 -1 c 4 -1 c 5 0 c 4 0 c 4 2 c 5 0 c 4 1 c 5 1 c 4 8 c 4 5 c 5 -2 c 4 -9 c 4 -4 c 5 0 c 4 0 c
5 0 c 4 -1 c 4 1 c 5 1 c 4 1 c 4 4 c 5 1 c 4 -3 c 5 -2 c 4 -1 c 4 2 c 5 -1 c 4 1 c 4 6 c 5 2 c 4 -4 c 5 -6 c 4 -2 c 4 1 c 5 0 c
4 -1 c 4 -1 c 5 -1 c 4 1 c 4 2 c 5 1 c 4 2 c 5 -2 c 4 -2 c 4 -2 c 5 1 c 4 1 c 4 0 c 5 -1 c 4 0 c 5 -1 c 4 -1 c 4 2 c 5 2 c 4 0 c
4 -1 c 5 0 c 4 0 c 5 -2 c 4 0 c 4 1 c 5 0 c 4 -1 c 4 -1 c 5 0 c 4 1 c 5 2 c 4 1 c 4 1 c 5 -1 c 4 -1 c 4 -1 c 5 1 c 4 -1 c 4 0 c
5 1 c 4 0 c 5 -2 c 4 -1 c 4 -1 c 5 1 c 4 1 c 4 1 c 5 8 c 4 7 c 5 -2 c 4 -9 c 4 -5 c 5 2 c 4 4 c 4 1 c 5 -3 c 4 -3 c 5 -1 c 4 1 c
4 1 c 5 2 c 4 1 c 4 -1 c 5 0 c 4 6 c 5 6 c 4 -2 c 4 -7 c 5 -4 c 4 0 c 4 -1 c 5 -1 c 4 1 c 4 0 c 5 -1 c 4 0 c 5 1 c 4 1 c 4 3 c 5 1 c
4 -2 c 4 -3 c 5 1 c 4 2 c 5 1 c 4 -2 c 4 -3 c 5 0 c 4 0 c 4 1 c 5 2 c 4 2 c 5 0 c 4 0 c 4 1 c 5 17 c 4 112 c 4 87 c 5 -8 c 4 -134 c
5 -62 c 4 -11 c 4 2 c 5 2 c 4 4 c 4 9 c 5 111 c 4 875 c 4 1088 c 5 -61 c 4 -1244 c 5 -708 c 4 -58 c 4 -5 c 5 -9 c 4 -2 c 4 2 c 5 4 c
4 -1 c 5 -6 c 4 -4 c 4 -1 c 5 1 c 4 1 c 4 0 c 5 0 c 4 -1 c 5 -1 c 4 1 c 4 1 c 5 1 c 4 4 c 4 8 c 5 90 c 4 684 c 4 793 c 5 -70 c
4 -956 c 5 -503 c 4 -46 c 4 -5 c 5 -1 c 4 0 c 4 0 c 5 -1 c 4 1 c 5 0 c 4 0 c 4 -1 c 5 0 c 4 0 c 4 1 c 5 12 c 4 12 c 5 3 c 4 -10 c
4 -10 c 5 -5 c 4 -4 c 4 0 c 5 1 c 4 2 c 5 1 c 4 0 c 4 0 c 5 0 c 4 2 c 4 -1 c 5 -3 c 4 0 c 4 5 c 5 36 c 4 16 c 5 -11 c 4 -34 c
4 -10 c 5 0 c 4 0 c 4 1 c 5 3 c 4 2 c 5 0 c 4 -2 c 4 1 c 5 3 c 4 3 c 4 2 c 5 12 c 4 30 c 5 273 c 4 2437 c 4 2797 c 5 -126 c
4 -3212 c 4 -2062 c 5 -109 c 4 8 c 5 210 c 4 2205 c 4 2684 c 5 30 c 4 -2978 c 4 -2049 c 5 -134 c 4 -12 c 4 -3 c 5 -4 c 4 -4 c 5 -2 c
4 -2 c 4 -1 c 5 -1 c 4 0 c 4 0 c 5 -1 c 4 -1 c 5 0 c 4 -1 c 4 0 c 5 -1 c 4 1 c 4 1 c 5 0 c 4 -1 c 5 -1 c 4 -1 c 4 0 c 5 -1 c 4 1 c
4 0 c 5 1 c 4 0 c 5 1 c 4 0 c 4 1 c 5 -1 c 4 1 c 4 0 c 5 -1 c 4 -1 c 4 -2 c 5 -1 c 4 1 c 5 0 c 4 1 c 4 -1 c 5 -1 c 4 0 c 4 1 c 5 0 c
4 -1 c 5 0 c 4 0 c 4 0 c 5 -1 c 4 0 c 4 1 c 5 1 c 4 0 c 5 -1 c 4 -1 c 4 -1 c 5 1 c 4 0 c 4 1 c 5 2 c 4 1 c 4 -1 c 5 -1 c 4 -1 c
5 0 c 4 0 c 4 1 c 5 9 c 4 35 c 4 14 c 5 -16 c 4 -35 c 5 -8 c 4 0 c 4 0 c 5 1 c 4 0 c 4 -1 c 5 0 c 4 1 c 5 5 c 4 4 c 4 -1 c 5 -6 c
4 -4 c 4 1 c 5 2 c 4 6 c 5 40 c 4 42 c 4 7 c 5 -36 c 4 -26 c 4 -5 c 5 -4 c 4 -1 c 4 -2 c 5 2 c 4 -1 c 5 3 c 4 32 c 4 363 c 5 563 c
4 74 c 4 -535 c 5 -458 c 4 -47 c 5 -4 c 4 -2 c 4 1 c 5 2 c 4 20 c 4 38 c 5 6 c 4 -36 c 5 -30 c 4 -4 c 4 -1 c 5 -2 c 4 0 c 4 1 c
5 -1 c 4 -1 c 5 1 c 4 1 c 4 1 c 5 1 c 4 0 c 4 -2 c 5 -2 c 4 -1 c 4 1 c 5 0 c 4 -2 c 5 0 c 4 2 c 4 1 c 5 -1 c 4 -2 c 4 1 c 5 2 c
4 1 c 5 -2 c 4 -2 c 4 1 c 5 2 c 4 1 c 4 9 c 5 69 c 4 46 c 5 -17 c 4 -79 c 4 -31 c 5 -1 c 4 0 c 4 2 c 5 -1 c 4 -2 c 5 -2 c 4 1 c
4 3 c 5 5 c 4 2 c 4 0 c 5 -2 c 4 -1 c 4 -1 c 5 -1 c 4 -3 c 5 -2 c 4 2 c 4 5 c 5 1 c 4 -2 c 4 -5 c 5 1 c 4 4 c 5 5 c 4 2 c 4 2 c
5 13 c 4 10 c 4 -1 c 5 -12 c 4 -10 c 5 1 c 4 0 c 4 2 c 5 0 c 4 -4 c 4 -2 c 5 -1 c 4 0 c 5 -3 c 4 2 c 4 0 c 5 3 c 4 6 c 4 5 c 5 -2 c
4 -9 c 4 -4 c 5 0 c 4 3 c 5 5 c 4 -1 c 4 -5 c 5 -2 c 4 -1 c 4 0 c 5 2 c 4 0 c 5 -1 c 4 -1 c 4 1 c 5 1 c 4 1 c 4 1 c 5 -2 c 4 -2 c
5 1 c 4 2 c 4 0 c 5 4 c 4 29 c 4 299 c 5 470 c 4 82 c 4 -437 c 5 -394 c 4 -52 c 5 0 c 4 -2 c 4 -3 c 5 2 c 4 0 c 4 -1 c 5 -4 c 4 3 c
5 2 c 4 -2 c 4 -3 c 5 2 c 4 5 c 4 0 c 5 -5 c 4 0 c 5 2 c 4 -1 c 4 -2 c 5 1 c 4 4 c 4 2 c 5 -3 c 4 -5 c 5 2 c 4 3 c 4 1 c 5 -6 c
4 -1 c 4 4 c 5 2 c 4 -2 c 4 -2 c 5 1 c 4 5 c 5 0 c 4 -3 c 4 -3 c 5 3 c 4 5 c 4 0 c 5 -5 c 4 -2 c 5 5 c 4 5 c 4 -1 c 5 -4 c 4 3 c
4 6 c 5 7 c 4 6 c 5 14 c 4 50 c 4 553 c 5 3856 c 1 1685 c 2 -1837 4568 7019 l 4 -3825 c 5 -455 c 4 -38 c 4 -5 c 5 -10 c 4 -6 c
4 -2 c 5 6 c 4 1 c 4 -5 c 5 -7 c 4 -3 c 5 2 c 4 4 c 4 2 c 5 -4 c 4 -4 c 4 -2 c 5 3 c 4 4 c 5 1 c 4 -3 c 4 -3 c 5 -2 c 4 1 c 4 3 c
5 1 c 4 -3 c 5 -3 c 4 -2 c 4 3 c 5 4 c 4 0 c 4 -3 c 5 -5 c 4 1 c 5 4 c 4 5 c 4 1 c 5 -5 c 4 -5 c 4 1 c 5 4 c 4 50 c 4 203 c 5 121 c
4 -53 c 5 -218 c 4 -101 c 4 -5 c 5 3 c 4 1 c 4 -4 c 5 -3 c 4 -1 c 5 1 c 4 5 c 4 3 c 5 -1 c 4 -5 c 4 -3 c 5 1 c 4 2 c 5 4 c 4 2 c
4 0 c 5 1 c 4 11 c 4 116 c 5 687 c 4 631 c 5 -62 c 4 -804 c 4 -509 c 5 -61 c 4 -2 c 4 -4 c 5 -1 c 4 -1 c 4 -3 c 5 -5 c 4 -1 c 5 0 c
4 0 c 4 3 c 5 3 c 4 0 c 4 -3 c 5 -1 c 4 3 c 5 2 c 4 0 c 4 -30 c 5 27 c 4 -2 c 4 -2 c 5 0 c 4 0 c 5 1 c 4 4 c 4 3 c 5 7 c 4 31 c
4 33 c 5 -2 c 4 -43 c 4 -26 c 5 -2 c 4 -1 c 5 -1 c 4 1 c 4 3 c 5 10 c 4 100 c 4 530 c 5 685 c 4 5 c 5 -660 c 4 -566 c 4 -102 c
5 -5 c 4 -1 c 4 1 c 5 2 c 4 -3 c 5 -3 c 4 -1 c 4 0 c 5 0 c 4 0 c 4 0 c 5 0 c 4 2 c 5 14 c 4 19 c 4 3 c 5 -19 c 4 -19 c 4 -2 c 5 2 c
4 1 c 4 -1 c 5 -1 c 4 -1 c 5 0 c 4 2 c 4 2 c 5 2 c 4 0 c 4 0 c 5 -1 c 4 -3 c 5 -2 c 4 -1 c 4 2 c 5 4 c 4 3 c 4 -1 c 5 -2 c 4 -3 c
5 -1 c 4 1 c 4 3 c 5 1 c 4 0 c 4 -1 c 5 -2 c 4 -3 c 5 0 c 4 1 c 4 3 c 5 3 c 4 0 c 4 -4 c 5 -1 c 4 -2 c 4 -1 c 5 0 c 4 1 c 5 0 c
4 3 c 4 3 c 5 1 c 4 -1 c 4 -2 c 5 -2 c 4 0 c 5 0 c 4 -1 c 4 -1 c 5 1 c 4 1 c 4 1 c 5 -1 c 4 -2 c 5 1 c 4 2 c 4 1 c 5 -1 c 4 -1 c
4 0 c 5 2 c 4 -1 c 5 -3 c 4 -1 c 4 -1 c 5 1 c 4 0 c 4 2 c 5 3 c 4 -1 c 4 -2 c 5 -2 c 4 -1 c 5 0 c 4 -1 c 4 0 c 5 1 c 4 0 c 4 1 c
5 1 c 4 2 c 5 0 c 4 -1 c 4 -3 c 5 -1 c 4 0 c 4 1 c 5 0 c 4 1 c 5 0 c 4 -1 c 4 0 c 5 0 c 4 0 c 4 3 c 5 0 c 4 -1 c 4 -1 c 5 0 c 4 1 c
5 1 c 4 0 c 4 -1 c 5 -1 c 4 -1 c 4 1 c 5 0 c 4 2 c 5 1 c 4 1 c 4 -1 c 5 -2 c 4 1 c 4 0 c 5 2 c 4 5 c 5 28 c 4 -57 c 4 969 c 5 230 c
4 -358 c 4 -608 c 5 -190 c 4 -16 c 5 -4 c 4 -2 c 4 0 c 5 0 c 4 -1 c 4 -1 c 5 0 c 4 0 c 4 0 c 5 1 c 4 2 c 5 18 c 4 43 c 4 19 c
5 -20 c 4 -46 c 4 -16 c 5 -3 c 4 1 c 5 1 c 4 1 c 4 0 c 5 -1 c 4 0 c 4 -1 c 5 1 c 4 2 c 5 1 c 4 0 c 4 -1 c 5 -1 c 4 -2 c 4 0 c 5 1 c
4 1 c 5 0 c 4 0 c 4 0 c 5 1 c 4 8 c 4 88 c 5 155 c 4 50 c 4 -97 c 5 -165 c 4 -39 c 5 0 c 4 2 c 4 7 c 5 4 c 4 -1 c 4 -8 c 5 -6 c
4 -1 c 5 0 c 4 1 c 4 2 c 5 2 c 4 7 c 4 10 c 5 8 c 4 0 c 5 -5 c 4 -7 c 4 -4 c 5 -2 c 4 -2 c 4 -1 c 5 3 c 4 5 c 5 1 c 4 -3 c 4 -5 c
5 -2 c 4 0 c 4 -1 c 5 0 c 4 0 c 4 0 c 5 2 c 4 1 c 5 -2 c 4 -1 c 4 -1 c 5 -1 c 4 1 c 4 2 c 5 0 c 4 0 c 5 1 c 4 2 c 4 0 c 5 3 c 4 83 c
4 269 c 5 153 c 4 -53 c 5 -303 c 4 -144 c 4 -9 c 5 1 c 4 0 c 4 -2 c 5 -3 c 4 -1 c 5 -1 c 4 1 c 4 -1 c 5 -1 c 4 0 c 4 0 c 5 -1 c
4 0 c 4 0 c 5 2 c 4 3 c 5 8 c 4 3 c 4 -3 c 5 -8 c 4 -3 c 4 -2 c 5 -1 c 4 2 c 5 2 c 4 1 c 4 -2 c 5 -1 c 4 1 c 4 1 c 5 1 c 4 0 c 5 3 c
4 14 c 4 172 c 5 349 c 4 125 c 4 -194 c 5 -347 c 4 -114 c 4 -6 c 5 -2 c 4 -1 c 5 0 c 4 3 c 4 28 c 5 21 c 4 -1 c 4 -28 c 5 -15 c
4 -1 c 5 -1 c 4 -1 c 4 0 c 5 2 c 4 24 c 4 42 c 5 9 c 4 -33 c 5 -33 c 4 -8 c 4 -1 c 5 -2 c 4 -1 c 4 0 c 5 1 c 4 1 c 5 0 c 4 -1 c
4 -3 c 5 1 c 4 0 c 4 0 c 5 3 c 4 17 c 4 171 c 5 256 c 4 58 c 5 -213 c 4 -232 c 4 -52 c 5 -2 c 4 8 c 4 97 c 5 370 c 4 196 c 5 -99 c
4 -388 c 4 -172 c 5 -12 c 4 0 c 4 -1 c 5 -2 c 4 -3 c 5 -1 c 4 2 c 4 1 c 5 -2 c 4 -1 c 4 -25 c 5 27 c 4 -2 c 5 0 c 4 2 c 4 0 c 5 -3 c
4 0 c 4 1 c 5 -1 c 4 -1 c 4 2 c 5 2 c 4 0 c 5 -3 c 4 1 c 4 4 c 5 1 c 4 -4 c 4 -2 c 5 1 c 4 1 c 5 -1 c 4 -2 c 4 0 c 5 0 c 4 0 c
4 -3 c 5 2 c 4 4 c 5 2 c 4 1 c 4 -2 c 5 1 c 4 0 c 4 -1 c 5 0 c 4 11 c 5 29 c 4 17 c 4 -13 c 5 -29 c 4 -12 c 4 -1 c 5 -1 c 4 -2 c
4 -1 c 5 0 c 4 3 c 5 6 c 4 1 c 4 -3 c 5 -7 c 4 -2 c 4 2 c 5 1 c 4 0 c 5 -2 c 4 -1 c 4 1 c 5 0 c 4 1 c 4 -2 c 5 -2 c 4 1 c 5 4 c
4 3 c 4 0 c 5 0 c 4 5 c 4 9 c 5 53 c 4 303 c 5 531 c 4 191 c 4 -349 c 5 -525 c 4 -181 c 4 -23 c 5 -9 c 4 -8 c 4 -1 c 5 0 c 4 0 c
5 1 c 4 -1 c 4 1 c 5 0 c 4 1 c 4 0 c 5 -2 c 4 -2 c 5 -2 c 4 0 c 4 3 c 5 6 c 4 1 c 4 -4 c 5 -6 c 4 -1 c 5 0 c 4 1 c 4 0 c 5 1 c
4 -1 c 4 0 c 5 1 c 4 1 c 4 0 c 5 -2 c 4 0 c 5 -1 c 4 -1 c 4 1 c 5 1 c 4 3 c 4 0 c 5 -1 c 4 -2 c 5 -1 c 4 1 c 4 17 c 5 54 c 4 24 c
4 -15 c 5 -58 c 4 -18 c 5 -1 c 4 2 c 4 -1 c 5 -2 c 4 -2 c 4 -1 c 5 0 c 4 1 c 5 3 c 4 3 c 4 0 c 5 -3 c 4 -3 c 4 -1 c 5 0 c 4 0 c
4 2 c 5 2 c 4 1 c 5 -2 c 4 -1 c 4 3 c 5 1 c 4 0 c 4 -2 c 5 -2 c 4 -2 c 5 0 c 4 0 c 4 1 c 5 -1 c 4 2 c 4 1 c 5 1 c 4 -1 c 5 -2 c
4 0 c 4 0 c 5 0 c 4 0 c 4 1 c 5 1 c 4 3 c 5 60 c 4 243 c 4 124 c 5 -52 c 4 -254 c 4 -116 c 5 -9 c 4 -1 c 4 2 c 5 0 c 4 -1 c 5 0 c
4 8 c 4 35 c 5 24 c 4 -6 c 4 -39 c 5 -22 c 4 -2 c 5 1 c 4 2 c 4 0 c 5 -1 c 4 -3 c 4 0 c 5 1 c 4 1 c 5 0 c 4 -1 c 4 0 c 5 0 c 4 0 c
4 0 c 5 0 c 4 -1 c 5 0 c 4 1 c 4 2 c 5 3 c 4 4 c 4 2 c 5 -3 c 4 -7 c 4 -3 c 5 0 c 4 1 c 5 1 c 4 0 c 4 -1 c 5 0 c 4 1 c 4 0 c 5 1 c
4 -1 c 5 1 c 4 1 c 4 3 c 5 38 c 4 229 c 4 142 c 5 -27 c 4 -236 c 5 -140 c 4 -8 c 4 -1 c 5 -2 c 4 -1 c 4 -1 c 5 0 c 4 0 c 5 1 c 4 1 c
4 0 c 5 0 c 4 -1 c 4 1 c 5 0 c 4 1 c 4 0 c 5 2 c 4 2 c 5 14 c 4 166 c 4 240 c 5 42 c 4 -170 c 4 -250 c 5 -47 c 4 -2 c 5 2 c 4 -1 c
4 1 c 5 -1 c 4 -1 c 4 0 c 5 -1 c 4 0 c 5 0 c 4 0 c 4 1 c 5 0 c 4 0 c 4 1 c 5 0 c 4 -1 c 4 0 c 5 0 c 4 7 c 5 26 c 4 11 c 4 0 c
5 -24 c 4 -10 c 4 -8 c 5 -2 c 4 0 c 5 2 c 4 1 c 4 -1 c 5 -3 c 4 0 c 4 0 c 5 1 c 4 -1 c 5 -1 c 4 0 c 4 0 c 5 0 c 4 0 c 4 1 c 5 1 c
4 1 c 5 0 c 4 -1 c 4 0 c 5 -1 c 4 -1 c 4 1 c 5 0 c 4 0 c 4 1 c 5 0 c 4 -1 c 5 1 c 4 0 c 4 0 c 5 0 c 4 -1 c 4 0 c 5 0 c 4 1 c 5 1 c
4 -1 c 4 0 c 5 0 c 4 1 c 4 0 c 5 1 c 4 1 c 5 0 c 4 3 c 4 9 c 5 7 c 4 0 c 4 -1 c 5 37 c 4 324 c 5 613 c 4 234 c 4 -329 c 5 -653 c
4 -204 c 4 -20 c 5 -2 c 4 -5 c 4 -7 c 5 -4 c 4 -1 c 5 -2 c 4 0 c 4 0 c 5 0 c 4 -1 c 4 -1 c 5 0 c 4 -1 c 5 0 c 4 0 c 4 1 c 5 0 c
4 -1 c 4 0 c 5 2 c 4 8 c 5 3 c 4 -4 c 4 -8 c 5 -1 c 4 -1 c 4 1 c 5 0 c 4 2 c 5 1 c 4 24 c 4 69 c 5 30 c 4 -19 c 4 -74 c 5 -28 c
4 -2 c 4 16 c 5 20 c 4 3 c 5 -17 c 4 -19 c 4 -6 c 5 -1 c 4 0 c 4 2 c 5 5 c 4 0 c 5 -2 c 4 -5 c 4 0 c 5 -1 c 4 1 c 4 -1 c 5 1 c 4 0 c
5 0 c 4 0 c 4 0 c 5 0 c 4 0 c 4 1 c 5 0 c 4 0 c 4 3 c 5 3 c 4 2 c 5 -1 c 4 -2 c 4 0 c 5 4 c 4 62 c 4 235 c 5 78 c 4 -61 c 5 -235 c
4 -81 c 4 -4 c 5 0 c 4 0 c 4 2 c 5 -1 c 4 -2 c 5 1 c 4 2 c 4 1 c 5 -2 c 4 -3 c 4 3 c 5 1 c 4 0 c 5 -4 c 4 -1 c 4 0 c 5 0 c 4 -1 c
4 0 c 5 2 c 4 2 c 4 0 c 5 5 c 4 2 c 5 0 c 4 -7 c 4 -4 c 5 0 c 4 0 c 4 0 c 5 1 c 4 3 c 5 0 c 4 -2 c 4 -2 c 5 0 c 4 1 c 4 0 c 5 6 c
4 37 c 5 23 c 4 0 c 4 -38 c 5 -22 c 4 -6 c 4 -1 c 5 1 c 4 1 c 5 0 c 4 0 c 4 -2 c 5 0 c 4 0 c 4 1 c 5 -1 c 4 0 c 4 -1 c 5 1 c 4 -1 c
5 0 c 4 0 c 4 0 c 5 1 c 4 -1 c 4 0 c 5 0 c 4 0 c 5 0 c 4 0 c 4 0 c 5 0 c 4 0 c 4 0 c 5 0 c 4 0 c 5 0 c 4 -1 c 4 0 c 5 2 c 4 1 c
4 13 c 5 12 c 4 0 c 5 -12 c 4 -12 c 4 0 c 5 2 c 4 0 c 4 -1 c 5 -2 c 4 -1 c 4 -1 c 5 0 c 4 1 c 5 -1 c 4 1 c 4 0 c 5 -1 c 4 1 c 4 0 c
5 0 c 4 0 c 5 0 c 4 1 c 4 -1 c 5 0 c 4 1 c 4 0 c 5 0 c 4 0 c 5 1 c 4 2 c 4 6 c 5 5 c 4 0 c 4 -6 c 5 -1 c 4 44 c 5 209 c 4 108 c
4 -27 c 5 -221 c 4 -113 c 4 -5 c 5 2 c 4 2 c 4 1 c 5 -2 c 4 -3 c 5 -3 c 4 -1 c 4 1 c 5 0 c 4 -1 c 4 1 c 5 -1 c 4 0 c 5 0 c 4 0 c
4 0 c 5 0 c 4 0 c 4 0 c 5 0 c 4 0 c 5 0 c 4 0 c 4 0 c 5 0 c 4 0 c 4 0 c 5 2 c 4 5 c 4 52 c 5 75 c 4 6 c 5 -49 c 4 -80 c 4 -9 c 5 0 c
4 -1 c 4 -1 c 5 -1 c 4 1 c 5 1 c 4 0 c 4 0 c 5 -1 c 4 -1 c 4 1 c 5 0 c 4 0 c 5 -1 c 4 -1 c 4 1 c 5 1 c 4 1 c 4 -2 c 5 -1 c 4 0 c
5 1 c 4 1 c 4 2 c 5 0 c 4 0 c 4 -3 c 5 0 c 4 1 c 4 -1 c 5 0 c 4 0 c 5 3 c 4 7 c 4 3 c 5 -3 c 4 -8 c 4 -2 c 5 0 c 4 0 c 5 0 c 4 0 c
4 0 c 5 2 c 4 10 c 4 13 c 5 3 c 4 -4 c 5 -11 c 4 -4 c 4 -5 c 5 -3 c 4 -1 c 4 0 c 5 -1 c 4 0 c 5 2 c 4 0 c 4 -1 c 5 -1 c 4 1 c 4 1 c
5 -1 c 4 1 c 4 -1 c 5 0 c 4 0 c 5 0 c 4 0 c 4 1 c 5 -1 c 4 0 c 4 -1 c 5 0 c 4 0 c 5 0 c 4 1 c 4 0 c 5 0 c 4 -1 c 4 0 c 5 0 c 4 0 c
5 1 c 4 0 c 4 0 c 5 0 c 4 1 c 4 0 c
5 -1 c 4 -1 c 5 0 c 4 -1 c 4 -12 c 5 0 c 4 38 c 4 22 c 5 1 c 4 -3 c 4 35 c 5 12 c 4 -18 c 5 -57 c 4 -17 c 4 0 c 5 0 c 4 0 c 4 0 c
5 2 c 4 4 c 5 2 c 4 13 c 4 50 c 5 24 c 4 -13 c 4 -52 c 5 -28 c 4 -2 c 5 0 c 4 1 c 4 1 c 5 3 c 4 10 c 4 4 c 5 -1 c 4 -12 c 5 -5 c
4 0 c 4 0 c 5 -1 c 4 -1 c 4 0 c 5 1 c 4 0 c
0 -126 3315 418 l 54 0 3315 418 l 18 -6 c 6 -6 c 6 -12 c 0 -12 c -6 -12 c -6 -6 c -18 -6 c -54 0 c 42 -66 3357 358 l
-12 -6 3465 376 l -12 -12 c -6 -18 c 0 -12 c 6 -18 c 12 -12 c 12 -6 c 18 0 c 12 6 c 12 12 c 6 18 c 0 12 c -6 18 c -12 12 c -12 6 c
-18 0 c 24 -84 3549 376 l -24 -84 3597 376 l 24 -84 3597 376 l -24 -84 3645 376 l 108 0 3687 364 l 108 0 3687 328 l
-18 -6 4059 418 l -6 -12 c 0 -12 c 6 -12 c 12 -6 c 24 -6 c 18 -6 c 12 -12 c 6 -12 c 0 -18 c -6 -12 c -6 -6 c -18 -6 c -24 0 c
-18 6 c -6 6 c -6 12 c 0 18 c 6 12 c 12 12 c 18 6 c 24 6 c 12 6 c 6 12 c 0 12 c -6 12 c -18 6 c -24 0 c -12 -6 4275 376 l -12 -12 c
-6 -18 c 0 -12 c 6 -18 c 12 -12 c 12 -6 c 18 0 c 12 6 c 12 12 c 6 18 c 0 12 c -6 18 c -12 12 c -12 6 c -18 0 c -12 0 4401 418 l
-12 -6 c -6 -18 c 0 -102 c 42 0 4353 376 l 0 6 4533 388 l 6 12 c 6 6 c 12 6 c 24 0 c 12 -6 c 6 -6 c 6 -12 c 0 -12 c -6 -12 c
-12 -18 c -60 -60 c 84 0 c -18 -6 4683 418 l -12 -18 c -6 -30 c 0 -18 c 6 -30 c 12 -18 c 18 -6 c 12 0 c 18 6 c 12 18 c 6 30 c 0 18 c
-6 30 c -12 18 c -18 6 c -12 0 c 12 6 5169 394 l 18 18 c 0 -126 c -6 -6 5282 376 l 6 -6 c 6 6 c -6 6 c -6 -6 5282 304 l 6 -6 c 6 6 c
-6 6 c -48 -126 5462 418 l 48 -126 5462 418 l 60 0 5432 334 l 0 -84 5540 376 l 6 18 5540 340 l 12 12 c 12 6 c 18 0 c
-12 12 5684 358 l -12 6 c -18 0 c -12 -6 c -12 -12 c -6 -18 c 0 -12 c 6 -18 c 12 -12 c 12 -6 c 18 0 c 12 6 c 12 12 c
108 0 5726 346 l 12 6 5894 394 l 18 18 c 0 -126 c 66 0 6008 418 l -36 -48 c 18 0 c 12 -6 c 6 -6 c 6 -18 c 0 -12 c -6 -18 c -12 -12 c
-18 -6 c -18 0 c -18 6 c -6 6 c -6 12 c -6 -18 6194 376 l -12 -12 c -18 -6 c -6 0 c -18 6 c -12 12 c -6 18 c 0 6 c 6 18 c 12 12 c
18 6 c 6 0 c 18 -6 c 12 -12 c 6 -24 c 0 -30 c -6 -30 c -12 -18 c -18 -6 c -12 0 c -18 6 c -6 12 c -6 -6 6248 304 l 6 -6 c 6 6 c
-6 6 c -12 0 6338 418 l -12 -6 c -6 -18 c 0 -102 c 42 0 6290 376 l 6 -6 6368 418 l 6 6 c -6 6 c -6 -6 c 0 -84 6374 376 l
0 -102 6428 418 l 6 -18 c 12 -6 c 12 0 c 42 0 6410 376 l -6 12 6554 358 l -18 6 c -18 0 c -18 -6 c -6 -12 c 6 -12 c 12 -6 c 30 -6 c
12 -6 c 6 -12 c 0 -6 c -6 -12 c -18 -6 c -18 0 c -18 6 c -6 12 c 0 -192 6884 442 l 0 -192 6890 442 l 42 0 6884 442 l 42 0 6884 250 l
0 6 6968 388 l 6 12 c 6 6 c 12 6 c 24 0 c 12 -6 c 6 -6 c 6 -12 c 0 -12 c -6 -12 c -12 -18 c -60 -60 c 84 0 c -6 -6 7094 376 l 6 -6 c
6 6 c -6 6 c -6 -6 7094 304 l 6 -6 c 6 6 c -6 6 c 0 -192 7274 442 l 0 -192 7280 442 l 42 0 7238 442 l 42 0 7238 250 l
0 -249 1267 2008 l -7 -4 1235 2129 l -4 -11 c 0 -7 c 4 -12 c 11 -7 c 19 -4 c 19 0 c 15 4 c 7 7 c 4 12 c 0 3 c -4 12 c -7 7 c -12 4 c
-3 0 c -12 -4 c -7 -7 c -4 -12 c 0 -3 c 4 -12 c 7 -7 c 12 -4 c -4 0 1243 2159 l -8 4 c -3 4 c -4 8 c 0 15 c 4 7 c 3 4 c 8 4 c 7 0 c
8 -4 c 11 -8 c 38 -37 c 0 53 c 53 -38 1224 2269 l 0 57 c 79 0 1224 2269 l 4 -12 1224 2330 l 11 -7 c 19 -4 c 11 0 c 19 4 c 11 7 c
4 12 c 0 7 c -4 11 c -11 8 c -19 4 c -11 0 c -19 -4 c -11 -8 c -4 -11 c 0 -7 c 3 -4 1296 2390 l 4 4 c -4 4 c -3 -4 c
12 -3 1250 2469 l 7 -8 c 4 -11 c 0 -4 c -4 -11 c -7 -8 c -12 -4 c -4 0 c -11 4 c -7 8 c -4 11 c 0 4 c 4 11 c 7 8 c 15 3 c 19 0 c
19 -3 c 11 -8 c 4 -11 c 0 -8 c -4 -11 c -7 -4 c 0 -38 1224 2541 l 34 -3 c -4 3 c -4 12 c 0 11 c 4 11 c 8 8 c 11 4 c 7 0 c 12 -4 c
7 -8 c 4 -11 c 0 -11 c -4 -12 c -3 -3 c -8 -4 c 53 -38 1224 2609 l 0 57 c 79 0 1224 2609 l 0 -249 2199 1448 l -8 -4 2167 1569 l
-4 -11 c 0 -8 c 4 -11 c 11 -7 c 19 -4 c 19 0 c 15 4 c 8 7 c 4 11 c 0 4 c -4 12 c -8 7 c -11 4 c -4 0 c -11 -4 c -8 -7 c -4 -12 c
0 -4 c 4 -11 c 8 -7 c 11 -4 c -4 0 2174 1599 l -7 4 c -4 4 c -4 7 c 0 16 c 4 7 c 4 4 c 7 4 c 8 0 c 7 -4 c 12 -8 c 38 -37 c 0 52 c
0 -37 2155 1716 l 34 -4 c -4 4 c -3 11 c 0 11 c 3 12 c 8 7 c 11 4 c 8 0 c 11 -4 c 8 -7 c 4 -12 c 0 -11 c -4 -11 c -4 -4 c -8 -4 c
4 -11 2155 1769 l 11 -7 c 19 -4 c 12 0 c 18 4 c 12 7 c 4 11 c 0 8 c -4 11 c -12 8 c -18 4 c -12 0 c -19 -4 c -11 -8 c -4 -11 c
0 -8 c 4 -4 2227 1830 l 4 4 c -4 4 c -4 -4 c 53 -38 2155 1898 l 0 57 c 80 0 2155 1898 l 4 -12 2155 1955 l 8 -4 c 7 0 c 8 4 c 3 8 c
4 15 c 4 11 c 8 8 c 7 4 c 11 0 c 8 -4 c 4 -4 c 4 -11 c 0 -15 c -4 -12 c -4 -4 c -8 -3 c -11 0 c -7 3 c -8 8 c -4 11 c -4 15 c -3 8 c
-8 4 c -7 0 c -8 -4 c -4 -11 c 0 -15 c -8 -3 2167 2060 l -4 -12 c 0 -7 c 4 -12 c 11 -7 c 19 -4 c 19 0 c 15 4 c 8 7 c 4 12 c 0 4 c
-4 11 c -8 7 c -11 4 c -4 0 c -11 -4 c -8 -7 c -4 -11 c 0 -4 c 4 -12 c 8 -7 c 11 -4 c 0 -249 2884 3360 l -7 -4 2852 3481 l -4 -11 c
0 -8 c 4 -11 c 11 -7 c 19 -4 c 19 0 c 15 4 c 7 7 c 4 11 c 0 4 c -4 12 c -7 7 c -12 4 c -3 0 c -12 -4 c -7 -7 c -4 -12 c 0 -4 c
4 -11 c 7 -7 c 12 -4 c -4 0 2860 3511 l -8 4 c -3 4 c -4 7 c 0 16 c 4 7 c 3 4 c 8 4 c 7 0 c 8 -4 c 11 -8 c 38 -37 c 0 53 c
0 -38 2841 3629 l 34 -4 c -4 4 c -4 11 c 0 11 c 4 12 c 8 7 c 11 4 c 7 0 c 12 -4 c 7 -7 c 4 -12 c 0 -11 c -4 -11 c -3 -4 c -8 -4 c
79 -38 2841 3712 l 0 53 2841 3659 l 3 -4 2913 3742 l 4 4 c -4 4 c -3 -4 c 53 -38 2841 3810 l 0 57 c 79 0 2841 3810 l
-4 0 2860 3852 l -8 3 c -3 4 c -4 8 c 0 15 c 4 7 c 3 4 c 8 4 c 7 0 c 8 -4 c 11 -7 c 38 -38 c 0 53 c 53 -38 2841 3961 l 0 57 c
79 0 2841 3961 l 0 -250 3002 2849 l -8 -4 2970 2970 l -3 -11 c 0 -8 c 3 -11 c 12 -8 c 19 -4 c 19 0 c 15 4 c 7 8 c 4 11 c 0 4 c
-4 11 c -7 8 c -12 4 c -3 0 c -12 -4 c -7 -8 c -4 -11 c 0 -4 c 4 -11 c 7 -8 c 12 -4 c -4 0 2978 3000 l -8 4 c -4 4 c -3 7 c 0 15 c
3 8 c 4 4 c 8 3 c 7 0 c 8 -3 c 11 -8 c 38 -38 c 0 53 c 0 -38 2959 3117 l 34 -3 c -4 3 c -4 12 c 0 11 c 4 11 c 7 8 c 12 4 c 7 0 c
12 -4 c 7 -8 c 4 -11 c 0 -11 c -4 -12 c -4 -3 c -7 -4 c 3 -11 2959 3166 l 8 -4 c 8 0 c 7 4 c 4 8 c 4 15 c 3 11 c 8 8 c 8 3 c 11 0 c
7 -3 c 4 -4 c 4 -12 c 0 -15 c -4 -11 c -4 -4 c -7 -4 c -11 0 c -8 4 c -8 8 c -3 11 c -4 15 c -4 8 c -7 4 c -8 0 c -8 -4 c -3 -12 c
0 -15 c 4 -4 3030 3231 l 4 4 c -4 3 c -4 -3 c -8 -4 2970 3310 l -3 -11 c 0 -8 c 3 -11 c 12 -8 c 19 -3 c 19 0 c 15 3 c 7 8 c 4 11 c
0 4 c -4 11 c -7 8 c -12 4 c -3 0 c -12 -4 c -7 -8 c -4 -11 c 0 -4 c 4 -11 c 7 -8 c 12 -3 c 3 -11 2959 3359 l 12 -8 c 19 -4 c 11 0 c
19 4 c 11 8 c 4 11 c 0 8 c -4 11 c -11 8 c -19 3 c -11 0 c -19 -3 c -12 -8 c -3 -11 c 0 -8 c 79 -38 2959 3465 l 0 53 2959 3412 l
0 -250 3282 6460 l -8 -4 3250 6581 l -3 -11 c 0 -8 c 3 -11 c 12 -8 c 19 -4 c 19 0 c 15 4 c 7 8 c 4 11 c 0 4 c -4 11 c -7 8 c -12 3 c
-3 0 c -12 -3 c -7 -8 c -4 -11 c 0 -4 c 4 -11 c 7 -8 c 12 -4 c -4 0 3258 6611 l -8 4 c -4 3 c -3 8 c 0 15 c 3 8 c 4 3 c 8 4 c 7 0 c
8 -4 c 11 -7 c 38 -38 c 0 53 c -8 -4 3250 6732 l -3 -11 c 0 -8 c 3 -11 c 12 -8 c 19 -4 c 19 0 c 15 4 c 7 8 c 4 11 c 0 4 c -4 11 c
-7 8 c -12 4 c -3 0 c -12 -4 c -7 -8 c -4 -11 c 0 -4 c 4 -11 c 7 -8 c 12 -4 c -4 7 3254 6770 l -11 12 c 79 0 c 3 -3 3311 6841 l
4 3 c -4 4 c -3 -4 c 53 -37 3239 6909 l 0 56 c 79 0 3239 6909 l -4 7 3254 6959 l -11 11 c 79 0 c 3 -12 3239 7042 l 8 -3 c 8 0 c
7 3 c 4 8 c 4 15 c 3 11 c 8 8 c 8 4 c 11 0 c 8 -4 c 3 -4 c 4 -11 c 0 -15 c -4 -12 c -3 -3 c -8 -4 c -11 0 c -8 4 c -8 7 c -3 12 c
-4 15 c -4 7 c -7 4 c -8 0 c -8 -4 c -3 -11 c 0 -15 c 0 -249 3759 2321 l -8 -3 3727 2442 l -3 -12 c 0 -7 c 3 -12 c 12 -7 c 19 -4 c
19 0 c 15 4 c 7 7 c 4 12 c 0 3 c -4 12 c -7 7 c -12 4 c -3 0 c -12 -4 c -7 -7 c -4 -12 c 0 -3 c 4 -12 c 7 -7 c 12 -4 c
-4 0 3735 2473 l -8 3 c -4 4 c -3 8 c 0 15 c 3 7 c 4 4 c 8 4 c 7 0 c 8 -4 c 11 -7 c 38 -38 c 0 53 c -8 -3 3727 2593 l -3 -12 c
0 -7 c 3 -12 c 12 -7 c 19 -4 c 19 0 c 15 4 c 7 7 c 4 12 c 0 4 c -4 11 c -7 7 c -12 4 c -3 0 c -12 -4 c -7 -7 c -4 -11 c 0 -4 c
4 -12 c 7 -7 c 12 -4 c -8 -4 3727 2669 l -3 -11 c 0 -8 c 3 -11 c 12 -7 c 19 -4 c 19 0 c 15 4 c 7 7 c 4 11 c 0 4 c -4 12 c -7 7 c
-12 4 c -3 0 c -12 -4 c -7 -7 c -4 -12 c 0 -4 c 4 -11 c 7 -7 c 12 -4 c 4 -4 3787 2703 l 4 4 c -4 4 c -4 -4 c -4 7 3731 2745 l
-11 12 c 79 0 c 79 -38 3716 2862 l 0 53 3716 2809 l 53 -37 3716 2922 l 0 56 c 79 0 3716 2922 l 0 -249 3963 1394 l -8 -3 3931 1515 l
-4 -12 c 0 -7 c 4 -12 c 12 -7 c 18 -4 c 19 0 c 15 4 c 8 7 c 4 12 c 0 3 c -4 12 c -8 7 c -11 4 c -4 0 c -11 -4 c -8 -7 c -3 -12 c
0 -3 c 3 -12 c 8 -7 c 11 -4 c -3 0 3938 1546 l -8 3 c -4 4 c -4 8 c 0 15 c 4 7 c 4 4 c 8 4 c 7 0 c 8 -4 c 11 -7 c 38 -38 c 0 53 c
-8 -4 3931 1667 l -4 -12 c 0 -7 c 4 -12 c 12 -7 c 18 -4 c 19 0 c 15 4 c 8 7 c 4 12 c 0 4 c -4 11 c -8 8 c -11 3 c -4 0 c -11 -3 c
-8 -8 c -3 -11 c 0 -4 c 3 -12 c 8 -7 c 11 -4 c 4 -11 3919 1712 l 8 -4 c 7 0 c 8 4 c 4 7 c 3 15 c 4 12 c 8 7 c 7 4 c 12 0 c 7 -4 c
4 -4 c 4 -11 c 0 -15 c -4 -11 c -4 -4 c -7 -4 c -12 0 c -7 4 c -8 7 c -4 12 c -3 15 c -4 7 c -8 4 c -7 0 c -8 -4 c -4 -11 c 0 -15 c
4 -4 3991 1776 l 4 4 c -4 4 c -4 -4 c -3 0 3938 1810 l -8 4 c -4 4 c -4 7 c 0 15 c 4 8 c 4 4 c 8 3 c 7 0 c 8 -3 c 11 -8 c 38 -38 c
0 53 c 4 -12 3919 1905 l 12 -7 c 18 -4 c 12 0 c 19 4 c 11 7 c 4 12 c 0 7 c -4 12 c -11 7 c -19 4 c -12 0 c -18 -4 c -12 -7 c
-4 -12 c 0 -7 c 4 -11 3919 1980 l 12 -8 c 18 -3 c 12 0 c 19 3 c 11 8 c 4 11 c 0 8 c -4 11 c -11 8 c -19 3 c -12 0 c -18 -3 c
-12 -8 c -4 -11 c 0 -8 c 0 -249 4301 2159 l -7 -3 4269 2280 l -4 -12 c 0 -7 c 4 -12 c 11 -7 c 19 -4 c 19 0 c 15 4 c 7 7 c 4 12 c
0 3 c -4 12 c -7 7 c -11 4 c -4 0 c -12 -4 c -7 -7 c -4 -12 c 0 -3 c 4 -12 c 7 -7 c 12 -4 c -4 0 4277 2311 l -8 3 c -3 4 c -4 8 c
0 15 c 4 7 c 3 4 c 8 4 c 8 0 c 7 -4 c 11 -7 c 38 -38 c 0 53 c 79 -38 4258 2435 l 0 53 4258 2382 l -4 8 4273 2469 l -11 11 c 79 0 c
3 -4 4330 2541 l 4 4 c -4 4 c -3 -4 c 0 -38 4258 2617 l 34 -4 c -4 4 c -4 11 c 0 12 c 4 11 c 8 7 c 11 4 c 8 0 c 11 -4 c 7 -7 c
4 -11 c 0 -12 c -4 -11 c -3 -4 c -8 -4 c 53 -38 4258 2685 l 0 57 c 79 0 4258 2685 l 53 -37 4258 2760 l 0 56 c 79 0 4258 2760 l
0 -249 4563 7019 l -8 -4 4531 7140 l -3 -11 c 0 -8 c 3 -11 c 12 -8 c 19 -3 c 18 0 c 16 3 c 7 8 c 4 11 c 0 4 c -4 11 c -7 8 c -12 4 c
-4 0 c -11 -4 c -7 -8 c -4 -11 c 0 -4 c 4 -11 c 7 -8 c 11 -3 c -3 0 4538 7170 l -8 4 c -4 4 c -3 7 c 0 16 c 3 7 c 4 4 c 8 4 c 7 0 c
8 -4 c 11 -8 c 38 -37 c 0 52 c 79 -38 4520 7295 l 0 53 4520 7242 l 52 -37 4520 7355 l 0 56 c 79 0 4520 7355 l 4 -4 4591 7401 l 4 4 c
-4 4 c -4 -4 c -4 8 4535 7442 l -11 11 c 79 0 c -4 8 4535 7518 l -11 11 c 79 0 c 79 -38 4520 7635 l 0 53 4520 7582 l
0 -250 4772 1644 l -7 -4 4739 1765 l -4 -11 c 0 -8 c 4 -11 c 11 -8 c 19 -4 c 19 0 c 15 4 c 8 8 c 3 11 c 0 4 c -3 11 c -8 8 c -11 3 c
-4 0 c -11 -3 c -8 -8 c -4 -11 c 0 -4 c 4 -11 c 8 -8 c 11 -4 c -4 0 4747 1795 l -7 4 c -4 3 c -4 8 c 0 15 c 4 8 c 4 3 c 7 4 c 8 0 c
7 -4 c 12 -7 c 37 -38 c 0 53 c 79 -38 4728 1920 l 0 53 4728 1867 l -7 -3 4739 1991 l -4 -12 c 0 -7 c 4 -12 c 11 -7 c 19 -4 c 19 0 c
15 4 c 8 7 c 3 12 c 0 4 c -3 11 c -8 7 c -11 4 c -4 0 c -11 -4 c -8 -7 c -4 -11 c 0 -4 c 4 -12 c 8 -7 c 11 -4 c 4 -3 4800 2025 l
3 3 c -3 4 c -4 -4 c -4 8 4743 2067 l -11 11 c 79 0 c -7 -3 4739 2180 l -4 -12 c 0 -7 c 4 -12 c 11 -7 c 19 -4 c 19 0 c 15 4 c 8 7 c
3 12 c 0 4 c -3 11 c -8 7 c -11 4 c -4 0 c -11 -4 c -8 -7 c -4 -11 c 0 -4 c 4 -12 c 8 -7 c 11 -4 c 0 -38 4728 2252 l 34 -3 c -4 3 c
-4 12 c 0 11 c 4 11 c 8 8 c 11 4 c 8 0 c 11 -4 c 8 -8 c 3 -11 c 0 -11 c -3 -12 c -4 -3 c -8 -4 c 0 -250 4882 2718 l
-8 -4 4850 2839 l -4 -11 c 0 -8 c 4 -11 c 11 -8 c 19 -4 c 19 0 c 15 4 c 8 8 c 4 11 c 0 4 c -4 11 c -8 8 c -11 4 c -4 0 c -11 -4 c
-8 -8 c -4 -11 c 0 -4 c 4 -11 c 8 -8 c 11 -4 c -4 0 4857 2869 l -7 4 c -4 4 c -4 7 c 0 15 c 4 8 c 4 4 c 7 3 c 8 0 c 7 -3 c 12 -8 c
38 -38 c 0 53 c 80 -38 4838 2994 l 0 53 4838 2941 l 80 -37 4838 3069 l 0 53 4838 3016 l 4 -4 4910 3100 l 4 4 c -4 3 c -4 -3 c
-4 0 4857 3134 l -7 3 c -4 4 c -4 8 c 0 15 c 4 7 c 4 4 c 7 4 c 8 0 c 7 -4 c 12 -7 c 38 -38 c 0 53 c 0 42 4838 3213 l 30 -23 c 0 11 c
4 8 c 4 4 c 11 3 c 8 0 c 11 -3 c 8 -8 c 4 -11 c 0 -12 c -4 -11 c -4 -4 c -8 -4 c 11 -4 4865 3330 l 8 -7 c 3 -11 c 0 -4 c -3 -12 c
-8 -7 c -11 -4 c -4 0 c -11 4 c -8 7 c -4 12 c 0 4 c 4 11 c 8 7 c 15 4 c 19 0 c 18 -4 c 12 -7 c 4 -11 c 0 -8 c -4 -11 c -8 -4 c
0 -250 5079 2603 l -8 -4 5047 2724 l -4 -11 c 0 -8 c 4 -11 c 12 -8 c 18 -4 c 19 0 c 16 4 c 7 8 c 4 11 c 0 4 c -4 11 c -7 8 c -12 3 c
-4 0 c -11 -3 c -8 -8 c -3 -11 c 0 -4 c 3 -11 c 8 -8 c 11 -4 c -3 0 5054 2754 l -8 4 c -4 3 c -4 8 c 0 15 c 4 8 c 4 3 c 8 4 c 7 0 c
8 -4 c 11 -7 c 38 -38 c 0 53 c 80 -38 5035 2879 l 0 53 5035 2826 l 11 -3 5062 2950 l 8 -8 c 4 -11 c 0 -4 c -4 -11 c -8 -8 c -11 -4 c
-4 0 c -11 4 c -8 8 c -4 11 c 0 4 c 4 11 c 8 8 c 15 3 c 19 0 c 19 -3 c 11 -8 c 4 -11 c 0 -8 c -4 -11 c -7 -4 c 4 -3 5107 2984 l
4 3 c -4 4 c -4 -4 c -4 8 5051 3026 l -12 11 c 80 0 c -8 -3 5047 3139 l -4 -12 c 0 -7 c 4 -12 c 12 -7 c 18 -4 c 19 0 c 16 4 c 7 7 c
4 12 c 0 4 c -4 11 c -7 7 c -12 4 c -4 0 c -11 -4 c -8 -7 c -3 -11 c 0 -4 c 3 -12 c 8 -7 c 11 -4 c -8 -4 5047 3215 l -4 -11 c 0 -8 c
4 -11 c 12 -8 c 18 -3 c 19 0 c 16 3 c 7 8 c 4 11 c 0 4 c -4 11 c -7 8 c -12 4 c -4 0 c -11 -4 c -8 -8 c -3 -11 c 0 -4 c 3 -11 c
8 -8 c 11 -3 c 0 -250 5710 2441 l -7 -4 5678 2562 l -4 -11 c 0 -8 c 4 -11 c 11 -8 c 19 -4 c 19 0 c 15 4 c 7 8 c 4 11 c 0 4 c -4 11 c
-7 8 c -11 4 c -4 0 c -12 -4 c -7 -8 c -4 -11 c 0 -4 c 4 -11 c 7 -8 c 12 -4 c -4 0 5686 2592 l -8 4 c -3 4 c -4 7 c 0 15 c 4 8 c
3 4 c 8 3 c 8 0 c 7 -3 c 11 -8 c 38 -38 c 0 53 c 4 -12 5667 2683 l 7 -3 c 8 0 c 7 3 c 4 8 c 4 15 c 4 11 c 7 8 c 8 4 c 11 0 c 8 -4 c
3 -4 c 4 -11 c 0 -15 c -4 -12 c -3 -3 c -8 -4 c -11 0 c -8 4 c -7 7 c -4 12 c -4 15 c -4 7 c -7 4 c -8 0 c -7 -4 c -4 -11 c 0 -15 c
0 -38 5667 2785 l 34 -4 c -4 4 c -4 11 c 0 12 c 4 11 c 8 8 c 11 3 c 8 0 c 11 -3 c 7 -8 c 4 -11 c 0 -12 c -4 -11 c -3 -4 c -8 -4 c
3 -4 5739 2823 l 4 4 c -4 3 c -3 -3 c -4 0 5686 2857 l -8 3 c -3 4 c -4 8 c 0 15 c 4 7 c 3 4 c 8 4 c 8 0 c 7 -4 c 11 -7 c 38 -38 c
0 53 c 79 -37 5667 2981 l 0 53 5667 2928 l 4 -11 5667 3023 l 7 -4 c 8 0 c 7 4 c 4 7 c 4 15 c 4 12 c 7 7 c 8 4 c 11 0 c 8 -4 c 3 -4 c
4 -11 c 0 -15 c -4 -11 c -3 -4 c -8 -4 c -11 0 c -8 4 c -7 7 c -4 12 c -4 15 c -4 7 c -7 4 c -8 0 c -7 -4 c -4 -11 c 0 -15 c
0 -249 5915 1563 l -8 -4 5883 1684 l -3 -11 c 0 -7 c 3 -12 c 12 -7 c 19 -4 c 19 0 c 15 4 c 7 7 c 4 12 c 0 3 c -4 12 c -7 7 c -12 4 c
-3 0 c -12 -4 c -7 -7 c -4 -12 c 0 -3 c 4 -12 c 7 -7 c 12 -4 c -4 0 5891 1715 l -8 3 c -4 4 c -3 8 c 0 15 c 3 7 c 4 4 c 8 4 c 7 0 c
8 -4 c 11 -7 c 38 -38 c 0 53 c 3 -11 5872 1805 l 8 -4 c 8 0 c 7 4 c 4 7 c 4 16 c 4 11 c 7 7 c 8 4 c 11 0 c 8 -4 c 3 -3 c 4 -12 c
0 -15 c -4 -11 c -3 -4 c -8 -4 c -11 0 c -8 4 c -7 8 c -4 11 c -4 15 c -4 8 c -7 3 c -8 0 c -8 -3 c -3 -12 c 0 -15 c
79 -38 5872 1915 l 0 53 5872 1862 l 3 -4 5944 1945 l 4 4 c -4 4 c -3 -4 c -4 0 5891 1979 l -8 4 c -4 4 c -3 7 c 0 15 c 3 8 c 4 4 c
8 3 c 7 0 c 8 -3 c 11 -8 c 38 -38 c 0 53 c 0 -38 5872 2096 l 34 -3 c -4 3 c -4 12 c 0 11 c 4 11 c 8 8 c 11 4 c 7 0 c 12 -4 c 7 -8 c
4 -11 c 0 -11 c -4 -12 c -3 -3 c -8 -4 c 0 -38 5872 2172 l 34 -4 c -4 4 c -4 11 c 0 12 c 4 11 c 8 8 c 11 3 c 7 0 c 12 -3 c 7 -8 c
4 -11 c 0 -12 c -4 -11 c -3 -4 c -8 -4 c 0 -249 6327 1929 l -7 -4 6294 2050 l -4 -11 c 0 -8 c 4 -11 c 11 -8 c 19 -3 c 19 0 c 15 3 c
8 8 c 3 11 c 0 4 c -3 12 c -8 7 c -11 4 c -4 0 c -12 -4 c -7 -7 c -4 -12 c 0 -4 c 4 -11 c 7 -8 c 12 -3 c -4 0 6302 2080 l -8 4 c
-3 4 c -4 7 c 0 16 c 4 7 c 3 4 c 8 4 c 8 0 c 7 -4 c 11 -8 c 38 -37 c 0 52 c 12 -4 6309 2201 l 7 -7 c 4 -11 c 0 -4 c -4 -12 c -7 -7 c
-12 -4 c -3 0 c -12 4 c -7 7 c -4 12 c 0 4 c 4 11 c 7 7 c 15 4 c 19 0 c 19 -4 c 12 -7 c 3 -11 c 0 -8 c -3 -11 c -8 -4 c
-4 8 6298 2239 l -11 11 c 79 0 c 4 -4 6355 2311 l 3 4 c -3 4 c -4 -4 c -4 8 6298 2352 l -11 11 c 79 0 c 12 -4 6309 2466 l 7 -8 c
4 -11 c 0 -4 c -4 -11 c -7 -8 c -12 -3 c -3 0 c -12 3 c -7 8 c -4 11 c 0 4 c 4 11 c 7 8 c 15 4 c 19 0 c 19 -4 c 12 -8 c 3 -11 c
0 -7 c -3 -12 c -8 -4 c -4 7 6298 2504 l -11 12 c 79 0 c 0 -250 6542 1945 l -8 -4 6510 2066 l -4 -11 c 0 -8 c 4 -11 c 11 -8 c
19 -4 c 19 0 c 15 4 c 8 8 c 4 11 c 0 4 c -4 11 c -8 8 c -11 4 c -4 0 c -11 -4 c -8 -8 c -4 -11 c 0 -4 c 4 -11 c 8 -8 c 11 -4 c
-4 0 6517 2096 l -7 4 c -4 4 c -4 7 c 0 15 c 4 8 c 4 4 c 7 3 c 8 0 c 7 -3 c 12 -8 c 38 -38 c 0 53 c 11 -4 6525 2217 l 8 -7 c 3 -12 c
0 -4 c -3 -11 c -8 -7 c -11 -4 c -4 0 c -11 4 c -8 7 c -4 11 c 0 4 c 4 12 c 8 7 c 15 4 c 19 0 c 18 -4 c 12 -7 c 4 -12 c 0 -7 c
-4 -12 c -8 -3 c 0 42 6498 2251 l 30 -23 c 0 11 c 4 8 c 4 4 c 11 3 c 8 0 c 11 -3 c 8 -8 c 4 -11 c 0 -12 c -4 -11 c -4 -4 c -8 -4 c
4 -4 6570 2327 l 4 4 c -4 3 c -4 -3 c -4 0 6517 2361 l -7 3 c -4 4 c -4 8 c 0 15 c 4 7 c 4 4 c 7 4 c 8 0 c 7 -4 c 12 -7 c 38 -38 c
0 53 c 53 -38 6498 2470 l 0 57 c 80 0 6498 2470 l -4 0 6517 2512 l -7 3 c -4 4 c -4 8 c 0 15 c 4 8 c 4 3 c 7 4 c 8 0 c 7 -4 c
12 -7 c 38 -38 c 0 53 c 0 -250 6925 2363 l -8 -4 6893 2484 l -3 -11 c 0 -8 c 3 -11 c 12 -8 c 19 -3 c 18 0 c 16 3 c 7 8 c 4 11 c
0 4 c -4 11 c -7 8 c -12 4 c -4 0 c -11 -4 c -7 -8 c -4 -11 c 0 -4 c 4 -11 c 7 -8 c 11 -3 c -3 0 6900 2514 l -8 4 c -4 4 c -3 7 c
0 15 c 3 8 c 4 4 c 8 4 c 7 0 c 8 -4 c 11 -8 c 38 -38 c 0 53 c 11 -4 6908 2635 l 8 -7 c 4 -12 c 0 -3 c -4 -12 c -8 -7 c -11 -4 c
-4 0 c -11 4 c -8 7 c -3 12 c 0 3 c 3 12 c 8 7 c 15 4 c 19 0 c 19 -4 c 11 -7 c 4 -12 c 0 -7 c -4 -11 c -7 -4 c -8 -4 6893 2711 l
-3 -11 c 0 -8 c 3 -11 c 12 -8 c 19 -4 c 18 0 c 16 4 c 7 8 c 4 11 c 0 4 c -4 11 c -7 8 c -12 3 c -4 0 c -11 -3 c -7 -8 c -4 -11 c
0 -4 c 4 -11 c 7 -8 c 11 -4 c 4 -4 6953 2745 l 4 4 c -4 3 c -4 -3 c 3 -11 6882 2794 l 8 -4 c 7 0 c 8 4 c 4 7 c 4 15 c 3 12 c 8 7 c
7 4 c 12 0 c 7 -4 c 4 -4 c 4 -11 c 0 -15 c -4 -11 c -4 -4 c -7 -4 c -12 0 c -7 4 c -8 7 c -3 12 c -4 15 c -4 7 c -8 4 c -7 0 c
-8 -4 c -3 -11 c 0 -15 c 79 -37 6882 2903 l 0 52 6882 2851 l -3 0 6900 2930 l -8 4 c -4 3 c -3 8 c 0 15 c 3 8 c 4 3 c 8 4 c 7 0 c
8 -4 c 11 -7 c 38 -38 c 0 53 c 0 -250 7140 1358 l -7 -4 7108 1479 l -4 -11 c 0 -8 c 4 -11 c 11 -8 c 19 -4 c 19 0 c 15 4 c 7 8 c
4 11 c 0 4 c -4 11 c -7 8 c -11 4 c -4 0 c -12 -4 c -7 -8 c -4 -11 c 0 -4 c 4 -11 c 7 -8 c 12 -4 c -4 0 7116 1509 l -8 4 c -3 4 c
-4 7 c 0 15 c 4 8 c 3 4 c 8 3 c 7 0 c 8 -3 c 11 -8 c 38 -38 c 0 53 c 12 -4 7123 1630 l 7 -7 c 4 -12 c 0 -3 c -4 -12 c -7 -7 c
-12 -4 c -4 0 c -11 4 c -7 7 c -4 12 c 0 3 c 4 12 c 7 7 c 15 4 c 19 0 c 19 -4 c 11 -7 c 4 -12 c 0 -7 c -4 -12 c -7 -3 c
4 -11 7097 1675 l 7 -4 c 8 0 c 7 4 c 4 8 c 4 15 c 4 11 c 7 8 c 8 3 c 11 0 c 8 -3 c 3 -4 c 4 -12 c 0 -15 c -4 -11 c -3 -4 c -8 -4 c
-11 0 c -8 4 c -7 8 c -4 11 c -4 15 c -4 8 c -7 4 c -8 0 c -7 -4 c -4 -12 c 0 -15 c 3 -4 7169 1740 l 4 4 c -4 3 c -3 -3 c
12 -4 7123 1819 l 7 -7 c 4 -12 c 0 -4 c -4 -11 c -7 -7 c -12 -4 c -4 0 c -11 4 c -7 7 c -4 11 c 0 4 c 4 12 c 7 7 c 15 4 c 19 0 c
19 -4 c 11 -7 c 4 -12 c 0 -7 c -4 -12 c -7 -3 c 4 -11 7097 1868 l 11 -8 c 19 -4 c 11 0 c 19 4 c 11 8 c 4 11 c 0 8 c -4 11 c -11 8 c
-19 3 c -11 0 c -19 -3 c -11 -8 c -4 -11 c 0 -8 c 0 41 7097 1929 l 30 -23 c 0 12 c 4 7 c 4 4 c 11 4 c 8 0 c 11 -4 c 7 -7 c 4 -12 c
0 -11 c -4 -11 c -3 -4 c -8 -4 c 0 -250 7355 1695 l -8 -4 7323 1816 l -4 -11 c 0 -8 c 4 -11 c 11 -8 c 19 -3 c 19 0 c 15 3 c 8 8 c
4 11 c 0 4 c -4 11 c -8 8 c -11 4 c -4 0 c -11 -4 c -8 -8 c -3 -11 c 0 -4 c 3 -11 c 8 -8 c 11 -3 c 0 42 7311 1850 l 31 -23 c 0 11 c
3 8 c 4 4 c 11 3 c 8 0 c 11 -3 c 8 -8 c 4 -11 c 0 -12 c -4 -11 c -4 -4 c -7 -4 c 4 -12 7311 1941 l 11 -7 c 19 -4 c 12 0 c 19 4 c
11 7 c 4 12 c 0 7 c -4 12 c -11 7 c -19 4 c -12 0 c -19 -4 c -11 -7 c -4 -12 c 0 -7 c 4 -11 7311 2016 l 11 -8 c 19 -3 c 12 0 c
19 3 c 11 8 c 4 11 c 0 8 c -4 11 c -11 8 c -19 4 c -12 0 c -19 -4 c -11 -8 c -4 -11 c 0 -8 c 4 -4 7383 2077 l 4 4 c -4 4 c -4 -4 c
11 -4 7338 2156 l 8 -7 c 3 -12 c 0 -3 c -3 -12 c -8 -7 c -11 -4 c -4 0 c -11 4 c -8 7 c -4 12 c 0 3 c 4 12 c 8 7 c 15 4 c 19 0 c
19 -4 c 11 -7 c 4 -12 c 0 -7 c -4 -11 c -8 -4 c -3 8 7326 2194 l -12 11 c 80 0 c 80 -38 7311 2311 l 0 53 7311 2258 l
0 -249 7605 1676 l -7 -4 7572 1797 l -4 -11 c 0 -8 c 4 -11 c 11 -7 c 19 -4 c 19 0 c 15 4 c 8 7 c 3 11 c 0 4 c -3 12 c -8 7 c -11 4 c
-4 0 c -11 -4 c -8 -7 c -4 -12 c 0 -4 c 4 -11 c 8 -7 c 11 -4 c 0 42 7561 1831 l 30 -23 c 0 11 c 4 8 c 4 4 c 11 4 c 8 0 c 11 -4 c
8 -8 c 3 -11 c 0 -12 c -3 -11 c -4 -4 c -8 -3 c 4 -11 7561 1922 l 11 -8 c 19 -4 c 11 0 c 19 4 c 12 8 c 3 11 c 0 7 c -3 12 c -12 7 c
-19 4 c -11 0 c -19 -4 c -11 -7 c -4 -12 c 0 -7 c 0 42 7561 1982 l 30 -23 c 0 12 c 4 7 c 4 4 c 11 4 c 8 0 c 11 -4 c 8 -8 c 3 -11 c
0 -11 c -3 -12 c -4 -3 c -8 -4 c 4 -4 7633 2058 l 3 4 c -3 4 c -4 -4 c -4 0 7580 2092 l -7 4 c -4 4 c -4 7 c 0 15 c 4 8 c 4 4 c
7 3 c 8 0 c 7 -3 c 12 -8 c 37 -38 c 0 53 c 0 -38 7561 2209 l 34 -3 c -4 3 c -4 12 c 0 11 c 4 11 c 8 8 c 11 4 c 8 0 c 11 -4 c 8 -8 c
3 -11 c 0 -11 c -3 -12 c -4 -3 c -8 -4 c -4 7 7576 2251 l -11 12 c 79 0 c 0 -250 7711 1729 l -7 -4 7679 1850 l -4 -11 c 0 -8 c
4 -11 c 11 -8 c 19 -4 c 19 0 c 15 4 c 7 8 c 4 11 c 0 4 c -4 11 c -7 8 c -12 4 c -3 0 c -12 -4 c -7 -8 c -4 -11 c 0 -4 c 4 -11 c
7 -8 c 12 -4 c 0 41 7668 1884 l 30 -22 c 0 11 c 4 8 c 4 3 c 11 4 c 7 0 c 12 -4 c 7 -7 c 4 -11 c 0 -12 c -4 -11 c -3 -4 c -8 -4 c
4 -12 7668 1975 l 11 -7 c 19 -4 c 11 0 c 19 4 c 11 7 c 4 12 c 0 7 c -4 11 c -11 8 c -19 4 c -11 0 c -19 -4 c -11 -8 c -4 -11 c
0 -7 c 53 -38 7668 2065 l 0 57 c 79 0 7668 2065 l 3 -4 7740 2111 l 4 4 c -4 3 c -3 -3 c -4 0 7687 2145 l -8 3 c -3 4 c -4 8 c 0 15 c
4 7 c 3 4 c 8 4 c 7 0 c 8 -4 c 11 -7 c 38 -38 c 0 53 c 53 -38 7668 2254 l 0 57 c 79 0 7668 2254 l -4 0 7687 2296 l -8 4 c -3 3 c
-4 8 c 0 15 c 4 8 c 3 3 c 8 4 c 7 0 c 8 -4 c 11 -7 c 38 -38 c 0 53 c 0 -250 8079 2489 l -7 -4 8047 2610 l -4 -11 c 0 -8 c 4 -11 c
11 -8 c 19 -4 c 19 0 c 15 4 c 7 8 c 4 11 c 0 4 c -4 11 c -7 8 c -11 4 c -4 0 c -12 -4 c -7 -8 c -4 -11 c 0 -4 c 4 -11 c 7 -8 c
12 -4 c 0 41 8036 2644 l 30 -22 c 0 11 c 4 8 c 4 3 c 11 4 c 8 0 c 11 -4 c 7 -7 c 4 -11 c 0 -12 c -4 -11 c -3 -4 c -8 -4 c
4 -12 8036 2735 l 11 -7 c 19 -4 c 11 0 c 19 4 c 11 7 c 4 12 c 0 7 c -4 11 c -11 8 c -19 4 c -11 0 c -19 -4 c -11 -8 c -4 -11 c
0 -7 c 79 -37 8036 2840 l 0 53 8036 2787 l 3 -4 8108 2871 l 4 4 c -4 3 c -3 -3 c -7 -4 8047 2950 l -4 -11 c 0 -8 c 4 -11 c 11 -8 c
19 -3 c 19 0 c 15 3 c 7 8 c 4 11 c 0 4 c -4 11 c -7 8 c -11 4 c -4 0 c -12 -4 c -7 -8 c -4 -11 c 0 -4 c 4 -11 c 7 -8 c 12 -3 c
0 -38 8036 3022 l 34 -4 c -4 4 c -4 11 c 0 12 c 4 11 c 8 8 c 11 3 c 8 0 c 11 -3 c 7 -8 c 4 -11 c 0 -12 c -4 -11 c -3 -4 c -8 -4 c
79 -38 8036 3105 l 0 53 8036 3052 l 0 -249 8421 1642 l -8 -3 8389 1763 l -4 -12 c 0 -7 c 4 -12 c 12 -7 c 18 -4 c 19 0 c 15 4 c 8 7 c
4 12 c 0 4 c -4 11 c -8 7 c -11 4 c -4 0 c -11 -4 c -8 -7 c -3 -11 c 0 -4 c 3 -12 c 8 -7 c 11 -4 c 0 42 8377 1797 l 31 -23 c 0 12 c
3 7 c 4 4 c 12 4 c 7 0 c 11 -4 c 8 -8 c 4 -11 c 0 -11 c -4 -12 c -4 -3 c -7 -4 c -4 7 8393 1877 l -12 12 c 80 0 c 4 -12 8377 1964 l
12 -7 c 18 -4 c 12 0 c 19 4 c 11 7 c 4 12 c 0 7 c -4 12 c -11 7 c -19 4 c -12 0 c -18 -4 c -12 -7 c -4 -12 c 0 -7 c 4 -4 8449 2024 l
4 4 c -4 4 c -4 -4 c 4 -11 8377 2073 l 8 -4 c 7 0 c 8 4 c 4 8 c 3 15 c 4 11 c 8 8 c 7 3 c 12 0 c 7 -3 c 4 -4 c 4 -12 c 0 -15 c
-4 -11 c -4 -4 c -7 -4 c -12 0 c -7 4 c -8 8 c -4 11 c -3 15 c -4 8 c -8 4 c -7 0 c -8 -4 c -4 -12 c 0 -15 c -4 8 8393 2141 l
-12 11 c 80 0 c 4 -11 8377 2228 l 12 -8 c 18 -3 c 12 0 c 19 3 c 11 8 c 4 11 c 0 8 c -4 11 c -11 8 c -19 4 c -12 0 c -18 -4 c
-12 -8 c -4 -11 c 0 -8 c 0 -250 8619 1325 l -8 -4 8587 1446 l -3 -11 c 0 -8 c 3 -11 c 12 -8 c 19 -3 c 18 0 c 16 3 c 7 8 c 4 11 c
0 4 c -4 11 c -7 8 c -12 4 c -4 0 c -11 -4 c -7 -8 c -4 -11 c 0 -4 c 4 -11 c 7 -8 c 11 -3 c 0 42 8576 1480 l 30 -23 c 0 11 c 4 8 c
3 4 c 12 3 c 7 0 c 12 -3 c 7 -8 c 4 -11 c 0 -12 c -4 -11 c -4 -4 c -7 -4 c -4 8 8591 1559 l -11 11 c 79 0 c -3 0 8594 1627 l -8 4 c
-4 4 c -3 7 c 0 16 c 3 7 c 4 4 c 8 4 c 7 0 c 8 -4 c 11 -8 c 38 -37 c 0 52 c 4 -4 8647 1707 l 4 4 c -4 3 c -4 -3 c -8 -4 8587 1786 l
-3 -11 c 0 -8 c 3 -11 c 12 -8 c 19 -3 c 18 0 c 16 3 c 7 8 c 4 11 c 0 4 c -4 12 c -7 7 c -12 4 c -4 0 c -11 -4 c -7 -7 c -4 -12 c
0 -4 c 4 -11 c 7 -8 c 11 -3 c -3 0 8594 1816 l -8 4 c -4 4 c -3 7 c 0 16 c 3 7 c 4 4 c 8 4 c 7 0 c 8 -4 c 11 -8 c 38 -37 c 0 52 c
-3 0 8594 1892 l -8 4 c -4 3 c -3 8 c 0 15 c 3 8 c 4 3 c 8 4 c 7 0 c 8 -4 c 11 -7 c 38 -38 c 0 53 c 0 -250 8964 1627 l
-8 -4 8932 1748 l -4 -11 c 0 -8 c 4 -11 c 11 -8 c 19 -4 c 19 0 c 15 4 c 8 8 c 4 11 c 0 4 c -4 11 c -8 8 c -11 3 c -4 0 c -11 -3 c
-8 -8 c -4 -11 c 0 -4 c 4 -11 c 8 -8 c 11 -4 c 0 41 8920 1782 l 30 -22 c 0 11 c 4 7 c 4 4 c 11 4 c 8 0 c 11 -4 c 8 -7 c 4 -12 c
0 -11 c -4 -11 c -4 -4 c -8 -4 c -3 8 8935 1861 l -12 11 c 80 0 c 0 -38 8920 1971 l 34 -4 c -4 4 c -3 11 c 0 12 c 3 11 c 8 7 c
11 4 c 8 0 c 11 -4 c 8 -7 c 4 -11 c 0 -12 c -4 -11 c -4 -4 c -8 -4 c 4 -3 8992 2008 l 4 3 c -4 4 c -4 -4 c 80 -38 8920 2092 l
0 53 8920 2039 l 80 -38 8920 2167 l 0 53 8920 2114 l 0 -38 8920 2235 l 34 -3 c -4 3 c -3 12 c 0 11 c 3 11 c 8 8 c 11 4 c 8 0 c
11 -4 c 8 -8 c 4 -11 c 0 -11 c -4 -12 c -4 -3 c -8 -4 c 0 -250 9119 1397 l -8 -4 9087 1518 l -4 -11 c 0 -8 c 4 -11 c 11 -8 c 19 -4 c
19 0 c 15 4 c 8 8 c 4 11 c 0 4 c -4 11 c -8 8 c -11 4 c -4 0 c -11 -4 c -8 -8 c -4 -11 c 0 -4 c 4 -11 c 8 -8 c 11 -4 c
0 41 9075 1552 l 30 -22 c 0 11 c 4 8 c 4 3 c 11 4 c 8 0 c 11 -4 c 8 -7 c 4 -12 c 0 -11 c -4 -11 c -4 -4 c -8 -4 c -3 8 9090 1631 l
-12 11 c 80 0 c 80 -38 9075 1748 l 0 53 9075 1695 l 4 -4 9147 1779 l 4 4 c -4 3 c -4 -3 c -3 8 9090 1820 l -12 11 c 80 0 c
4 -11 9075 1903 l 8 -4 c 7 0 c 8 4 c 3 7 c 4 16 c 4 11 c 8 7 c 7 4 c 11 0 c 8 -4 c 4 -3 c 4 -12 c 0 -15 c -4 -11 c -4 -4 c -8 -4 c
-11 0 c -7 4 c -8 8 c -4 11 c -4 15 c -3 8 c -8 3 c -7 0 c -8 -3 c -4 -12 c 0 -15 c -4 0 9094 1964 l -7 4 c -4 3 c -4 8 c 0 15 c
4 8 c 4 3 c 7 4 c 8 0 c 7 -4 c 12 -7 c 38 -38 c 0 53 c 0 -250 9573 1347 l -8 -4 9541 1468 l -4 -11 c 0 -8 c 4 -11 c 11 -8 c 19 -4 c
19 0 c 15 4 c 8 8 c 4 11 c 0 4 c -4 11 c -8 8 c -11 4 c -4 0 c -11 -4 c -8 -8 c -4 -11 c 0 -4 c 4 -11 c 8 -8 c 11 -4 c
0 41 9529 1502 l 30 -22 c 0 11 c 4 8 c 4 3 c 11 4 c 8 0 c 11 -4 c 8 -7 c 4 -11 c 0 -12 c -4 -11 c -4 -4 c -8 -4 c -4 0 9548 1574 l
-7 3 c -4 4 c -4 8 c 0 15 c 4 7 c 4 4 c 7 4 c 8 0 c 7 -4 c 12 -7 c 38 -38 c 0 53 c -3 7 9544 1657 l -12 12 c 80 0 c 4 -4 9601 1729 l
4 4 c -4 3 c -4 -3 c 0 42 9529 1766 l 30 -23 c 0 12 c 4 7 c 4 4 c 11 4 c 8 0 c 11 -4 c 8 -8 c 4 -11 c 0 -11 c -4 -12 c -4 -3 c
-8 -4 c 4 -11 9529 1857 l 11 -8 c 19 -4 c 12 0 c 18 4 c 12 8 c 4 11 c 0 8 c -4 11 c -12 8 c -18 3 c -12 0 c -19 -3 c -11 -8 c
-4 -11 c 0 -8 c 4 -12 9529 1933 l 11 -7 c 19 -4 c 12 0 c 18 4 c 12 7 c 4 12 c 0 7 c -4 12 c -12 7 c -18 4 c -12 0 c -19 -4 c
-11 -7 c -4 -12 c 0 -7 c 0 -250 9632 1350 l -8 -4 9600 1471 l -3 -11 c 0 -8 c 3 -11 c 12 -8 c 19 -3 c 18 0 c 16 3 c 7 8 c 4 11 c
0 4 c -4 11 c -7 8 c -12 4 c -4 0 c -11 -4 c -7 -8 c -4 -11 c 0 -4 c 4 -11 c 7 -8 c 11 -3 c 0 41 9589 1505 l 30 -22 c 0 11 c 4 8 c
3 3 c 12 4 c 7 0 c 12 -4 c 7 -7 c 4 -11 c 0 -12 c -4 -11 c -4 -4 c -7 -4 c -3 0 9607 1577 l -8 3 c -4 4 c -3 8 c 0 15 c 3 7 c 4 4 c
8 4 c 7 0 c 8 -4 c 11 -7 c 38 -38 c 0 53 c -4 7 9604 1660 l -11 12 c 79 0 c 4 -4 9660 1732 l 4 4 c -4 3 c -4 -3 c 3 -12 9589 1781 l
8 -3 c 7 0 c 8 3 c 4 8 c 4 15 c 3 11 c 8 8 c 7 4 c 12 0 c 7 -4 c 4 -4 c 4 -11 c 0 -15 c -4 -12 c -4 -3 c -7 -4 c -12 0 c -7 4 c
-8 7 c -3 12 c -4 15 c -4 7 c -8 4 c -7 0 c -8 -4 c -3 -11 c 0 -15 c -3 0 9607 1841 l -8 4 c -4 4 c -3 7 c 0 16 c 3 7 c 4 4 c 8 4 c
7 0 c 8 -4 c 11 -8 c 38 -38 c 0 53 c 3 -12 9589 1936 l 12 -7 c 19 -4 c 11 0 c 19 4 c 11 7 c 4 12 c 0 7 c -4 12 c -11 7 c -19 4 c
-11 0 c -19 -4 c -12 -7 c -3 -12 c 0 -7 c
showpage PGPLOT restore
 
%%Trailer
%%DocumentFonts: 
%%Pages: 1
%%EOF
