%!PS-Adobe-3.0 EPSF-3.0
%%For: tab
%%Title: PGPLOT PostScript plot
%%Creator: PGPLOT
%%CreationDate: 20-Apr-1995 16:44
%%BoundingBox: 25 18 587 774
%%DocumentFonts: (atend)
%%LanguageLevel: 1
%%Orientation: Landscape
%%Pages: (atend)
%%EndComments
%%BeginProlog
/l {moveto rlineto currentpoint stroke moveto} bind def
/c {rlineto currentpoint stroke moveto} bind def
/d {moveto 0 0 rlineto currentpoint stroke moveto} bind def
/SLW {5 mul setlinewidth} bind def
/SCF /pop load def
/BP {newpath moveto} bind def
/LP /rlineto load def
/EP {rlineto closepath eofill} bind def
/MB {gsave translate MFAC dup scale 1 setlinewidth 2 setlinecap 0 setlinejoin newpath} bind def
/ME /grestore load def
/C {0 360 arc stroke} bind def
/FC {0 360 arc fill} bind def
%%EndProlog
 
%%Page: 1 1
%%BeginPageSetup
/PGPLOT save def
0.072 0.072 scale
8150 250 translate 90 rotate
1 setlinejoin 1 setlinecap 1 SLW 1 SCF
%%EndPageSetup
0.000 setgray 1 SLW 8939 0 780 780 l 0 6239 c -8939 0 c 0 -6239 c 0 -45 1116 780 l 0 -45 1554 780 l 0 -45 1991 780 l
0 -45 2428 780 l 0 -90 2865 780 l 0 -45 3302 780 l 0 -45 3739 780 l 0 -45 4176 780 l 0 -45 4613 780 l 0 -90 5051 780 l
0 -45 5488 780 l 0 -45 5925 780 l 0 -45 6362 780 l 0 -45 6799 780 l 0 -90 7236 780 l 0 -45 7673 780 l 0 -45 8110 780 l
0 -45 8548 780 l 0 -45 8985 780 l 0 -90 9422 780 l 0 -45 1116 7064 l 0 -45 1554 7064 l 0 -45 1991 7064 l 0 -45 2428 7064 l
0 -90 2865 7109 l 0 -45 3302 7064 l 0 -45 3739 7064 l 0 -45 4176 7064 l 0 -45 4613 7064 l 0 -90 5051 7109 l 0 -45 5488 7064 l
0 -45 5925 7064 l 0 -45 6362 7064 l 0 -45 6799 7064 l 0 -90 7236 7109 l 0 -45 7673 7064 l 0 -45 8110 7064 l 0 -45 8548 7064 l
0 -45 8985 7064 l 0 -90 9422 7109 l -60 0 2775 672 l -6 -54 c 6 6 c 18 6 c 18 0 c 18 -6 c 12 -12 c 6 -18 c 0 -12 c -6 -18 c
-12 -12 c -18 -6 c -18 0 c -18 6 c -6 6 c -6 12 c -18 -6 2859 672 l -12 -18 c -6 -30 c 0 -18 c 6 -30 c 12 -18 c 18 -6 c 12 0 c
18 6 c 12 18 c 6 30 c 0 18 c -6 30 c -12 18 c -18 6 c -12 0 c -18 -6 2979 672 l -12 -18 c -6 -30 c 0 -18 c 6 -30 c 12 -18 c 18 -6 c
12 0 c 18 6 c 12 18 c 6 30 c 0 18 c -6 30 c -12 18 c -18 6 c -12 0 c 12 6 4847 648 l 18 18 c 0 -126 c -18 -6 4985 672 l -12 -18 c
-6 -30 c 0 -18 c 6 -30 c 12 -18 c 18 -6 c 12 0 c 18 6 c 12 18 c 6 30 c 0 18 c -6 30 c -12 18 c -18 6 c -12 0 c -18 -6 5105 672 l
-12 -18 c -6 -30 c 0 -18 c 6 -30 c 12 -18 c 18 -6 c 12 0 c 18 6 c 12 18 c 6 30 c 0 18 c -6 30 c -12 18 c -18 6 c -12 0 c
-18 -6 5225 672 l -12 -18 c -6 -30 c 0 -18 c 6 -30 c 12 -18 c 18 -6 c 12 0 c 18 6 c 12 18 c 6 30 c 0 18 c -6 30 c -12 18 c -18 6 c
-12 0 c 12 6 7032 648 l 18 18 c 0 -126 c -60 0 7206 672 l -6 -54 c 6 6 c 18 6 c 18 0 c 18 -6 c 12 -12 c 6 -18 c 0 -12 c -6 -18 c
-12 -12 c -18 -6 c -18 0 c -18 6 c -6 6 c -6 12 c -18 -6 7290 672 l -12 -18 c -6 -30 c 0 -18 c 6 -30 c 12 -18 c 18 -6 c 12 0 c
18 6 c 12 18 c 6 30 c 0 18 c -6 30 c -12 18 c -18 6 c -12 0 c -18 -6 7410 672 l -12 -18 c -6 -30 c 0 -18 c 6 -30 c 12 -18 c 18 -6 c
12 0 c 18 6 c 12 18 c 6 30 c 0 18 c -6 30 c -12 18 c -18 6 c -12 0 c 0 6 9206 642 l 6 12 c 6 6 c 12 6 c 24 0 c 12 -6 c 6 -6 c
6 -12 c 0 -12 c -6 -12 c -12 -18 c -60 -60 c 84 0 c -18 -6 9356 672 l -12 -18 c -6 -30 c 0 -18 c 6 -30 c 12 -18 c 18 -6 c 12 0 c
18 6 c 12 18 c 6 30 c 0 18 c -6 30 c -12 18 c -18 6 c -12 0 c -18 -6 9476 672 l -12 -18 c -6 -30 c 0 -18 c 6 -30 c 12 -18 c 18 -6 c
12 0 c 18 6 c 12 18 c 6 30 c 0 18 c -6 30 c -12 18 c -18 6 c -12 0 c -18 -6 9596 672 l -12 -18 c -6 -30 c 0 -18 c 6 -30 c 12 -18 c
18 -6 c 12 0 c 18 6 c 12 18 c 6 30 c 0 18 c -6 30 c -12 18 c -18 6 c -12 0 c -90 0 780 780 l -45 0 780 1707 l -90 0 780 2634 l
-45 0 780 3561 l -90 0 780 4488 l -45 0 780 5415 l -90 0 780 6342 l -90 0 9809 780 l -45 0 9764 1707 l -90 0 9809 2634 l
-45 0 9764 3561 l -90 0 9809 4488 l -45 0 9764 5415 l -90 0 9809 6342 l 6 -18 517 774 l 18 -12 c 30 -6 c 18 0 c 30 6 c 18 12 c
6 18 c 0 12 c -6 18 c -18 12 c -30 6 c -18 0 c -30 -6 c -18 -12 c -6 -18 c 0 -12 c -6 0 547 2376 l -12 6 c -6 6 c -6 12 c 0 24 c
6 12 c 6 6 c 12 6 c 12 0 c 12 -6 c 18 -12 c 60 -60 c 0 84 c 84 84 547 2496 l 84 -84 547 2580 l -6 12 541 2640 l -18 18 c 126 0 c
6 -18 517 2778 l 18 -12 c 30 -6 c 18 0 c 30 6 c 18 12 c 6 18 c 0 12 c -6 18 c -18 12 c -30 6 c -18 0 c -30 -6 c -18 -12 c -6 -18 c
0 -12 c 63 -45 453 2903 l 0 67 c 94 0 453 2903 l 84 -60 517 4284 l 0 90 c 126 0 517 4284 l 84 84 547 4350 l 84 -84 547 4434 l
-6 12 541 4494 l -18 18 c 126 0 c 6 -18 517 4632 l 18 -12 c 30 -6 c 18 0 c 30 6 c 18 12 c 6 18 c 0 12 c -6 18 c -18 12 c -30 6 c
-18 0 c -30 -6 c -18 -12 c -6 -18 c 0 -12 c 63 -45 453 4757 l 0 67 c 94 0 453 4757 l -12 -6 535 6156 l -6 -18 c 0 -12 c 6 -18 c
18 -12 c 30 -6 c 30 0 c 24 6 c 12 12 c 6 18 c 0 6 c -6 18 c -12 12 c -18 6 c -6 0 c -18 -6 c -12 -12 c -6 -18 c 0 -6 c 6 -18 c
12 -12 c 18 -6 c 84 84 547 6204 l 84 -84 547 6288 l -6 12 541 6348 l -18 18 c 126 0 c 6 -18 517 6486 l 18 -12 c 30 -6 c 18 0 c
30 6 c 18 12 c 6 18 c 0 12 c -6 18 c -18 12 c -30 6 c -18 0 c -30 -6 c -18 -12 c -6 -18 c 0 -12 c 63 -45 453 6611 l 0 67 c
94 0 453 6611 l
4 1 780 796 l 5 0 c 4 1 c 4 0 c 5 0 c 4 0 c 4 1 c 5 -1 c 4 0 c 5 1 c 4 0 c 4 0 c 5 -1 c 4 1 c 4 1 c 5 1 c 4 0 c 5 3 c 4 5 c 4 7 c
5 6 c 4 5 c 4 -3 c 5 -6 c 4 -1 c 5 14 c 4 24 c 4 8 c 5 -11 c 4 17 c 4 148 c 5 714 c 4 2982 c 5 2071 c 4 -9 c 4 3 c 5 -4229 c
4 -1600 c 4 -90 c 5 -20 c 4 4 c 4 23 c 5 27 c 4 38 c 5 -4 c 4 -48 c 4 -42 c 5 35 c 4 94 c 4 12 c 5 -76 c 4 -88 c 5 -11 c 4 -1 c
4 0 c 5 -1 c 4 -1 c 4 0 c 5 0 c 4 0 c 5 -1 c 4 2 c 4 3 c 5 4 c 4 0 c 4 -4 c 5 -5 c 4 -1 c 5 0 c 4 4 c 4 19 c 5 19 c 4 -1 c 4 -27 c
5 -12 c 4 1 c 4 16 c 5 50 c 4 9 c 5 -25 c 4 -47 c 4 -7 c 5 -2 c 4 -15 c 4 0 c 5 15 c 4 0 c 5 1 c 4 0 c 4 1 c 5 3 c 4 1 c 4 -2 c
5 -3 c 4 0 c 5 -1 c 4 0 c 4 0 c 5 0 c 4 0 c 4 1 c 5 1 c 4 0 c 5 1 c 4 0 c 4 1 c 5 -1 c 4 -1 c 4 -1 c 5 1 c 4 1 c 4 0 c 5 0 c 4 0 c
5 2 c 4 1 c 4 0 c 5 1 c 4 2 c 4 2 c 5 3 c 4 1 c 5 0 c 4 3 c 4 15 c 5 32 c 4 94 c 4 88 c 5 284 c 4 1282 c 5 4153 c 4 9 c 4 -1 c
5 -3108 c 4 -2593 c 4 -206 c 5 -29 c 4 -7 c 5 -6 c 4 -4 c 4 -3 c 5 -2 c 4 0 c 4 -1 c 5 -1 c 4 -2 c 4 -2 c 5 -2 c 4 0 c 5 -1 c 4 0 c
4 0 c 5 0 c 4 -2 c 4 0 c 5 1 c 4 0 c 5 -1 c 4 -1 c 4 0 c 5 0 c 4 1 c 4 0 c 5 -1 c 4 -1 c 5 1 c 4 0 c 4 0 c 5 0 c 4 0 c 4 0 c 5 1 c
4 1 c 4 1 c 5 1 c 4 0 c 5 0 c 4 0 c 4 1 c 5 0 c 4 3 c 4 3 c 5 3 c 4 4 c 5 15 c 4 89 c 4 270 c 5 63 c 4 -125 c 4 -199 c 5 142 c
4 998 c 5 4711 c 4 56 c 4 -75 c 5 -2976 c 4 -2683 c 4 -243 c 5 -27 c 4 -2 c 5 -4 c 4 -6 c 4 -6 c 5 5 c 4 0 c 4 -4 c 5 -8 c 4 -3 c
4 -1 c 5 0 c 4 0 c 5 -1 c 4 -1 c 4 -1 c 5 2 c 4 4 c 4 2 c 5 -3 c 4 -4 c 5 -1 c 4 0 c 4 -1 c 5 1 c 4 1 c 4 0 c 5 0 c 4 0 c 5 0 c
4 0 c 4 -1 c 5 1 c 4 1 c 4 4 c 5 23 c 4 107 c 5 58 c 4 -22 c 4 -90 c 5 -19 c 4 -11 c 4 -29 c 5 3 c 4 85 c 4 540 c 5 2806 c 4 2016 c
5 -757 c 4 -3396 c 4 -1218 c 5 -80 c 4 -10 c 4 -4 c 5 -2 c 4 -2 c 5 -2 c 4 1 c 4 0 c 5 -1 c 4 -2 c 4 8 c 5 13 c 4 4 c 5 -11 c
4 -12 c 4 5 c 5 13 c 4 0 c 4 -13 c 5 -10 c 4 -1 c 5 -1 c 4 -1 c 4 0 c 5 0 c 4 0 c 4 0 c 5 3 c 4 5 c 4 1 c 5 -5 c 4 -4 c 5 -1 c 4 1 c
4 0 c 5 -1 c 4 0 c 4 0 c 5 0 c 4 2 c 5 7 c 4 39 c 4 38 c 5 -5 c 4 -51 c 4 -27 c 5 -3 c 4 -1 c 5 1 c 4 -1 c 4 0 c 5 1 c 4 -1 c 4 0 c
5 0 c 4 1 c 5 0 c 4 0 c 4 0 c 5 4 c 4 5 c 4 0 c 5 -5 c 4 -3 c 4 -1 c 5 -1 c 4 0 c 5 1 c 4 3 c 4 4 c 5 -2 c 4 -5 c 4 -1 c 5 1 c
4 -1 c 5 0 c 4 0 c 4 1 c 5 -1 c 4 -1 c 4 0 c 5 0 c 4 0 c 5 0 c 4 0 c 4 1 c 5 -1 c 4 1 c 4 0 c 5 1 c 4 -1 c 4 0 c 5 -1 c 4 1 c 5 2 c
4 12 c 4 32 c 5 16 c 4 -18 c 4 -33 c 5 -9 c 4 -1 c 5 0 c 4 0 c 4 0 c 5 -1 c 4 1 c 4 2 c 5 0 c 4 1 c 5 2 c 4 18 c 4 146 c 5 725 c
4 421 c 4 -213 c 5 -850 c 4 -226 c 5 -21 c 4 -3 c 4 -1 c 5 0 c 4 -1 c 4 -1 c 5 0 c 4 0 c 4 0 c 5 1 c 4 0 c 5 -1 c 4 0 c 4 1 c 5 -1 c
4 0 c 4 -1 c 5 0 c 4 0 c 5 0 c 4 1 c 4 6 c 5 13 c 4 2 c 4 -9 c 5 -10 c 4 -2 c 5 1 c 4 0 c 4 11 c 5 69 c 4 60 c 4 -8 c 5 -89 c
4 -42 c 5 -3 c 4 0 c 4 1 c 5 1 c 4 3 c 4 1 c 5 0 c 4 -2 c 4 -1 c 5 -1 c 4 -2 c 5 0 c 4 0 c 4 0 c 5 0 c 4 0 c 4 0 c 5 1 c 4 1 c 5 1 c
4 0 c 4 -2 c 5 -1 c 4 0 c 4 1 c 5 -1 c 4 0 c 5 1 c 4 1 c 4 2 c 5 19 c 4 13 c 4 -5 c 5 -21 c 4 -9 c 5 2 c 4 6 c 4 1 c 5 -3 c 4 -5 c
4 -1 c 5 1 c 4 0 c 4 0 c 5 0 c 4 0 c 5 0 c 4 1 c 4 17 c 5 28 c 4 3 c 4 -25 c 5 -20 c 4 -2 c 5 -1 c 4 -1 c 4 1 c 5 6 c 4 4 c 4 4 c
5 -3 c 4 -4 c 5 -6 c 4 -2 c 4 1 c 5 0 c 4 0 c 4 0 c 5 1 c 4 1 c 5 1 c 4 2 c 4 3 c 5 15 c 4 134 c 4 599 c 5 406 c 4 -196 c 4 -699 c
5 -230 c 4 -23 c 5 -1 c 4 1 c 4 -1 c 5 2 c 4 14 c 4 167 c 5 1104 c 4 894 c 5 -219 c 4 -1350 c 4 -571 c 5 -43 c 4 -3 c 4 2 c 5 0 c
4 -3 c 5 -4 c 4 -2 c 4 0 c 5 0 c 4 0 c 4 1 c 5 -1 c 4 0 c 4 -1 c 5 0 c 4 0 c 5 -1 c 4 1 c 4 0 c 5 0 c 4 1 c 4 4 c 5 1 c 4 -3 c
5 -3 c 4 4 c 4 1 c 5 -2 c 4 -3 c 4 -1 c 5 0 c 4 -1 c 5 0 c 4 0 c 4 0 c 5 0 c 4 0 c 4 1 c 5 1 c 4 0 c 5 -1 c 4 -1 c 4 0 c 5 0 c 4 0 c
4 0 c 5 0 c 4 0 c 4 -1 c 5 0 c 4 0 c 5 1 c 4 0 c 4 0 c 5 0 c 4 0 c 4 0 c 5 1 c 4 0 c 5 0 c 4 6 c 4 7 c 5 1 c 4 -9 c 4 -5 c 5 -2 c
4 0 c 5 1 c 4 0 c 4 0 c 5 -1 c 4 0 c 4 0 c 5 2 c 4 1 c 5 0 c 4 -2 c 4 0 c 5 0 c 4 0 c 4 0 c 5 1 c 4 0 c 4 -1 c 5 1 c 4 0 c 5 -1 c
4 1 c 4 1 c 5 -1 c 4 -1 c 4 0 c 5 0 c 4 0 c 5 0 c 4 0 c 4 0 c 5 0 c 4 3 c 4 4 c 5 1 c 4 3 c 5 -1 c 4 -4 c 4 -6 c 5 -1 c 4 1 c 4 0 c
5 0 c 4 0 c 5 0 c 4 0 c 4 0 c 5 0 c 4 1 c 4 1 c 5 -1 c 4 -1 c 4 1 c 5 7 c 4 17 c 5 13 c 4 -7 c 4 -23 c 5 -6 c 4 -1 c 4 -2 c 5 0 c
4 1 c 5 1 c 4 0 c 4 -1 c 5 0 c 4 0 c 4 1 c 5 0 c 4 -1 c 5 0 c 4 0 c 4 0 c 5 0 c 4 0 c 4 0 c 5 0 c 4 0 c 4 0 c 5 0 c 4 0 c 5 1 c
4 0 c 4 0 c 5 -1 c 4 0 c 4 0 c 5 0 c 4 0 c 5 1 c 4 0 c 4 0 c 5 -1 c 4 0 c 4 0 c 5 1 c 4 1 c 5 1 c 4 1 c 4 17 c 5 164 c 4 245 c
4 29 c 5 -227 c 4 -199 c 5 -29 c 4 0 c 4 1 c 5 -1 c 4 -2 c 4 -1 c 5 0 c 4 -1 c 4 0 c 5 0 c 4 1 c 5 0 c 4 1 c 4 0 c 5 2 c 4 7 c
4 33 c 5 44 c 4 9 c 5 -38 c 4 -44 c 4 -11 c 5 -3 c 4 -1 c 4 0 c 5 0 c 4 0 c 5 1 c 4 0 c 4 -1 c 5 0 c 4 -1 c 4 5 c 5 3 c 4 0 c 5 -4 c
4 -3 c 4 0 c 5 5 c 4 4 c 4 -1 c 5 -1 c 4 2 c 4 -1 c 5 -5 c 4 -3 c 5 -2 c 4 1 c 4 0 c 5 0 c 4 0 c 4 1 c 5 0 c 4 0 c 5 -1 c 4 0 c
4 0 c 5 0 c 4 1 c 4 0 c 5 0 c 4 -1 c 5 0 c 4 0 c 4 0 c 5 0 c 4 0 c 4 1 c 5 0 c 4 1 c 5 0 c 4 6 c 4 3 c 5 0 c 4 1 c 4 94 c 5 237 c
4 90 c 4 -138 c 5 -244 c 4 -47 c 5 -2 c 4 0 c 4 0 c 5 1 c 4 30 c 4 71 c 5 15 c 4 -41 c 5 -64 c 4 -9 c 4 -3 c 5 -1 c 4 0 c 4 -1 c
5 1 c 4 0 c 5 1 c 4 2 c 4 37 c 5 130 c 4 60 c 4 -49 c 5 -137 c 4 -42 c 5 1 c 4 1 c 4 -1 c 5 -3 c 4 -1 c 4 0 c 5 0 c 4 1 c 4 -1 c
5 0 c 4 1 c 5 0 c 4 0 c 4 -1 c 5 0 c 4 0 c 4 0 c 5 0 c 4 0 c 5 1 c 4 1 c 4 0 c 5 2 c 4 2 c 4 1 c 5 -1 c 4 1 c 5 12 c 4 5 c 4 -3 c
5 -7 c 4 2 c 4 29 c 5 349 c 4 1599 c 4 954 c 5 -374 c 4 -1798 c 5 -717 c 4 -45 c 4 -3 c 5 -2 c 4 0 c 4 0 c 5 12 c 4 8 c 5 -3 c
4 -14 c 4 -7 c 5 -2 c 4 0 c 4 0 c 5 2 c 4 0 c 5 1 c 4 7 c 4 31 c 5 38 c 4 4 c 4 -35 c 5 -37 c 4 -8 c 5 -1 c 4 -2 c 4 -1 c 5 0 c
4 0 c 4 0 c 5 0 c 4 -1 c 4 0 c 5 0 c 4 0 c 5 0 c 4 -1 c 4 0 c 5 1 c 4 0 c 4 0 c 5 0 c 4 0 c 5 1 c 4 2 c 4 2 c 5 -1 c 4 -1 c 4 2 c
5 0 c 4 -1 c 5 -3 c 4 -1 c 4 -1 c 5 0 c 4 0 c 4 1 c 5 -1 c 4 0 c 5 0 c 4 0 c 4 0 c 5 1 c 4 -1 c 4 0 c 5 0 c 4 1 c 4 0 c 5 0 c 4 0 c
5 0 c 4 0 c 4 -1 c 5 0 c 4 1 c 4 1 c 5 -1 c 4 0 c 5 0 c 4 1 c 4 1 c 5 4 c 4 1 c 4 -3 c 5 -3 c 4 -2 c 5 0 c 4 0 c 4 1 c 5 0 c 4 0 c
4 2 c 5 5 c 4 0 c 5 -3 c 4 -4 c 4 0 c 5 -1 c 4 0 c 4 1 c 5 0 c 4 0 c 4 0 c 5 0 c 4 0 c 5 0 c 4 0 c 4 -1 c 5 0 c 4 1 c 4 0 c 5 -1 c
4 1 c 5 0 c 4 0 c 4 0 c 5 0 c 4 -1 c 4 1 c 5 -1 c 4 0 c 5 0 c 4 1 c 4 0 c 5 1 c 4 -1 c 4 0 c 5 0 c 4 0 c 5 -1 c 4 0 c 4 1 c 5 2 c
4 2 c 4 0 c 5 -2 c 4 -1 c 4 0 c 5 0 c 4 0 c 5 0 c 4 -1 c 4 0 c 5 0 c 4 0 c 4 0 c 5 0 c 4 0 c 5 0 c 4 0 c 4 -12 c 5 11 c 4 1 c 4 0 c
5 0 c 4 0 c 5 -1 c 4 1 c 4 -1 c 5 0 c 4 0 c 4 0 c 5 1 c 4 0 c 4 0 c 5 1 c 4 0 c 5 -1 c 4 1 c 4 -1 c 5 0 c 4 0 c 4 -1 c 5 0 c 4 1 c
5 0 c 4 0 c 4 4 c 5 11 c 4 5 c 4 -7 c 5 -10 c 4 -2 c 5 -1 c 4 -1 c 4 0 c 5 1 c 4 1 c 4 0 c 5 -1 c 4 0 c 5 0 c 4 -1 c 4 0 c 5 0 c
4 0 c 4 0 c 5 1 c 4 0 c 4 0 c 5 0 c 4 0 c 5 1 c 4 0 c 4 0 c 5 -1 c 4 0 c 4 -1 c 5 0 c 4 0 c 5 0 c 4 1 c 4 0 c 5 0 c 4 0 c 4 0 c
5 0 c 4 0 c 5 0 c 4 -1 c 4 0 c 5 0 c 4 0 c 4 1 c 5 -1 c 4 0 c 5 0 c 4 1 c 4 0 c 5 0 c 4 0 c 4 0 c 5 0 c 4 0 c 4 1 c 5 0 c 4 0 c
5 -1 c 4 -1 c 4 0 c 5 0 c 4 0 c 4 1 c 5 0 c 4 0 c 5 0 c 4 0 c 4 1 c 5 0 c 4 -1 c 4 0 c 5 -1 c 4 1 c 5 3 c 4 5 c 4 1 c 5 -3 c 4 -4 c
4 0 c 5 1 c 4 0 c 5 0 c 4 -1 c 4 1 c 5 13 c 4 52 c 4 39 c 5 -8 c 4 -59 c 4 -33 c 5 -6 c 4 -1 c 5 0 c 4 0 c 4 0 c 5 0 c 4 -1 c 4 0 c
5 0 c 4 1 c 5 -1 c 4 0 c 4 2 c 5 0 c 4 0 c 4 -1 c 5 0 c 4 1 c 5 1 c 4 1 c 4 -1 c 5 -1 c 4 0 c 4 0 c 5 3 c 4 26 c 4 84 c 5 42 c
4 -22 c 5 -87 c 4 -35 c 4 -6 c 5 -3 c 4 7 c 4 5 c 5 0 c 4 -8 c 5 -6 c 4 -1 c 4 0 c 5 0 c 4 0 c 4 0 c 5 0 c 4 0 c 5 0 c 4 -12 c
4 12 c 5 0 c 4 -1 c 4 1 c 5 0 c 4 0 c 5 0 c 4 0 c 4 0 c 5 0 c 4 0 c 4 0 c 5 -1 c 4 1 c 4 -1 c 5 0 c 4 0 c 5 0 c 4 -1 c 4 0 c 5 0 c
4 0 c 4 1 c 5 0 c 4 0 c 5 -1 c 4 1 c 4 0 c 5 1 c 4 0 c 4 0 c 5 0 c 4 1 c 5 1 c 4 0 c 4 -1 c 5 -1 c 4 0 c 4 0 c 5 0 c 4 1 c 5 2 c
4 1 c 4 0 c 5 -1 c 4 -3 c 4 -1 c 5 1 c 4 0 c 4 0 c 5 0 c 4 0 c 5 0 c 4 0 c 4 0 c 5 1 c 4 -1 c 4 0 c 5 1 c 4 7 c 5 7 c 4 -1 c 4 -6 c
5 1 c 4 4 c 4 1 c 5 -2 c 4 -2 c 5 -2 c 4 -4 c 4 -3 c 5 0 c 4 0 c 4 1 c 5 0 c 4 0 c 5 1 c 4 0 c 4 0 c 5 1 c 4 1 c 4 2 c 5 3 c 4 6 c
4 19 c 5 125 c 4 484 c 5 437 c 4 -25 c 4 -554 c 5 -376 c 4 -88 c 4 -14 c 5 -7 c 4 -4 c 5 -3 c 4 -2 c 4 -1 c 5 3 c 4 6 c 4 7 c 5 98 c
4 227 c 5 94 c 4 -112 c 4 -233 c 5 -87 c 4 -5 c 4 -1 c 5 -1 c 4 0 c 5 1 c 4 -1 c 4 1 c 5 1 c 4 3 c 4 3 c 5 3 c 4 5 c 4 36 c 5 225 c
4 354 c 5 122 c 4 -239 c 4 -359 c 5 -119 c 4 -19 c 4 -6 c 5 -3 c 4 -2 c 5 -1 c 4 0 c 4 -2 c 5 -2 c 4 -1 c 4 0 c 5 0 c 4 0 c 5 -1 c
4 -1 c 4 0 c 5 1 c 4 0 c 4 -1 c 5 0 c 4 0 c 4 0 c 5 0 c 4 0 c 5 1 c 4 1 c 4 -1 c 5 -1 c 4 -1 c 4 1 c 5 0 c 4 0 c 5 -1 c 4 1 c 4 3 c
5 1 c 4 0 c 4 -2 c 5 -2 c 4 2 c 5 1 c 4 0 c 4 -2 c 5 -1 c 4 0 c 4 0 c 5 0 c 4 0 c 5 1 c 4 -1 c 4 0 c 5 0 c 4 0 c 4 0 c 5 6 c 4 6 c
4 2 c 5 -5 c 4 -5 c 5 -1 c 4 -2 c 4 0 c 5 -1 c 4 0 c 4 0 c 5 0 c 4 1 c 5 0 c 4 0 c 4 0 c 5 0 c 4 0 c 4 2 c 5 2 c 4 1 c 5 -1 c 4 -1 c
4 0 c 5 3 c 4 6 c 4 -26 c 5 34 c 4 5 c 5 13 c 4 88 c 4 566 c 5 876 c 4 312 c 4 -552 c 5 -951 c 4 -279 c 4 -55 c 5 -11 c 4 -1 c
5 -1 c 4 -5 c 4 -11 c 5 -6 c 4 -3 c 4 -1 c 5 0 c 4 0 c 5 -1 c 4 0 c 4 2 c 5 7 c 4 51 c 4 450 c 5 688 c 4 141 c 5 -510 c 4 -667 c
4 -148 c 5 -11 c 4 -3 c 4 -1 c 5 -1 c 4 -1 c 5 1 c 4 0 c 4 0 c 5 0 c 4 -1 c 4 1 c 5 0 c 4 0 c 4 -1 c 5 -1 c 4 0 c 5 6021 c 4 -19 c
4 -3 c 5 -5 c 4 -5714 c 4 -264 c 5 -9 c 4 -1 c 5 -1 c 4 0 c 4 0 c 5 0 c 4 -1 c 4 0 c 5 -1 c 4 0 c 5 1 c 4 2 c 4 1 c 5 0 c 4 5 c
4 107 c 5 219 c 4 67 c 5 -105 c 4 -224 c 4 -69 c 5 -4 c 4 1 c 4 0 c 5 -1 c 4 -1 c 4 -1 c 5 0 c 4 0 c 5 0 c 4 1 c 4 0 c 5 -1 c 4 0 c
4 0 c 5 0 c 4 0 c 5 0 c 4 0 c 4 1 c 5 0 c 4 2 c 4 11 c 5 10 c 4 0 c 5 -13 c 4 -10 c 4 -1 c 5 0 c 4 2 c 4 -1 c 5 0 c 4 -1 c 4 0 c
5 0 c 4 0 c 5 0 c 4 2 c 4 2 c 5 7 c 4 86 c 4 143 c 5 47 c 4 -93 c 5 -151 c 4 -40 c 4 -1 c 5 -1 c 4 1 c 4 1 c 5 24 c 4 158 c 5 153 c
4 -8 c 4 -167 c 5 -143 c 4 -16 c 4 -2 c 5 -1 c 4 0 c 5 0 c 4 0 c 4 -1 c 5 0 c 4 0 c 4 0 c 5 -1 c 4 0 c 4 0 c 5 0 c 4 0 c 5 0 c 4 0 c
4 0 c 5 0 c 4 0 c 4 0 c 5 0 c 4 0 c 5 -1 c 4 0 c 4 1 c 5 0 c 4 0 c 4 0 c 5 -1 c 4 1 c 5 1 c 4 6 c 4 5 c 5 -1 c 4 -7 c 4 -4 c 5 -1 c
4 0 c 5 1 c 4 0 c 4 0 c 5 1 c 4 2 c 4 1 c 5 0 c 4 1 c 4 1 c 5 0 c 4 -4 c 5 -2 c 4 1 c 4 -1 c 5 0 c 4 -1 c 4 1 c 5 0 c 4 0 c 5 -1 c
4 0 c 4 0 c 5 -1 c 4 1 c 4 0 c 5 1 c 4 -1 c 5 0 c 4 1 c 4 0 c 5 0 c 4 0 c 4 0 c 5 0 c 4 0 c 5 0 c 4 1 c 4 2 c 5 3 c 4 2 c 4 -3 c
5 -3 c 4 -2 c 4 0 c 5 0 c 4 0 c 5 0 c 4 -1 c 4 0 c 5 0 c 4 0 c 4 0 c 5 1 c 4 0 c 5 0 c 4 -1 c 4 0 c 5 0 c 4 1 c 4 0 c 5 0 c 4 0 c
5 0 c 4 3 c 4 6 c 5 2 c 4 -3 c 4 -6 c 5 -2 c 4 0 c 5 0 c 4 -1 c 4 1 c 5 -1 c 4 1 c 4 2 c 5 0 c 4 0 c 4 1 c 5 2 c 4 1 c 5 24 c 4 30 c
4 3 c 5 -28 c 4 -31 c 4 -4 c 5 0 c 4 -1 c 5 0 c 4 0 c 4 0 c 5 0 c 4 0 c 4 0 c 5 0 c 4 0 c 5 1 c 4 1 c 4 1 c 5 -1 c 4 -1 c 4 -1 c
5 0 c 4 0 c 4 0 c 5 0 c 4 6 c 5 9 c 4 2 c 4 -7 c 5 -8 c 4 -2 c 4 0 c 5 1 c 4 1 c 5 0 c 4 1 c 4 3 c 5 2 c 4 -2 c 4 -5 c 5 -1 c 4 0 c
5 0 c 4 0 c 4 0 c 5 0 c 4 0 c 4 0 c 5 0 c 4 1 c 5 0 c 4 -1 c 4 0 c 5 0 c 4 0 c 4 0 c 5 1 c 4 2 c 4 9 c 5 21 c 4 34 c 5 5 c 4 -25 c
4 -34 c 5 -11 c 4 -1 c 4 -1 c 5 0 c 4 0 c 5 -1 c 4 1 c 4 0 c 5 1 c 4 1 c 4 1 c 5 -2 c 4 -1 c 5 -1 c 4 0 c 4 0 c 5 0 c 4 1 c 4 0 c
5 0 c 4 0 c 5 -1 c 4 0 c 4 1 c 5 0 c 4 0 c 4 0 c 5 0 c 4 0 c 4 0 c 5 0 c 4 1 c 5 0 c 4 1 c 4 4 c 5 40 c 4 231 c 4 138 c 5 -22 c
4 -229 c 5 -141 c 4 -18 c 4 -3 c 5 -1 c 4 0 c 4 0 c 5 1 c 4 2 c 5 -1 c 4 -2 c 4 -1 c 5 0 c 4 0 c 4 0 c 5 0 c 4 -1 c 5 1 c 4 0 c
4 0 c 5 1 c 4 0 c 4 0 c 5 0 c 4 -1 c 4 0 c 5 1 c 4 0 c 5 0 c 4 0 c 4 0 c 5 0 c 4 -1 c 4 0 c 5 0 c 4 1 c 5 0 c 4 0 c 4 0 c 5 3 c
4 2 c 4 1 c 5 2 c 4 31 c 5 135 c 4 100 c 4 -13 c 5 -145 c 4 -104 c 4 -9 c 5 -2 c 4 -1 c 4 0 c 5 0 c 4 0 c 5 0 c 4 1 c 4 -1 c 5 1 c
4 0 c 4 0 c 5 1 c 4 -1 c 5 0 c 4 0 c 4 -1 c 5 0 c 4 1 c 4 0 c 5 1 c 4 0 c 5 0 c 4 1 c 4 1 c 5 1 c 4 2 c 4 0 c 5 2 c 4 6 c 5 14 c
4 93 c 4 1138 c 5 2222 c 4 479 c 4 -1204 c 5 -2256 c 4 -447 c 4 -36 c 5 -7 c 4 -1 c 5 11 c 4 8 c 4 -3 c 5 -12 c 4 -10 c 4 -2 c 5 0 c
4 0 c 5 0 c 4 -1 c 4 0 c 5 -1 c 4 0 c 4 0 c 5 0 c 4 0 c 5 0 c 4 0 c 4 0 c 5 0 c 4 1 c 4 0 c 5 -1 c 4 1 c 5 3 c 4 29 c 4 33 c 5 1 c
4 -32 c 4 -30 c 5 -3 c 4 1 c 4 8 c 5 75 c 4 157 c 5 72 c 4 -59 c 4 -182 c 5 -66 c 4 -6 c 4 -1 c 5 0 c 4 -1 c 5 0 c 4 -1 c 4 1 c
5 0 c 4 -1 c 4 0 c 5 0 c 4 0 c 5 0 c 4 0 c 4 0 c 5 1 c 4 4 c 4 6 c 5 1 c 4 -5 c 5 -6 c 4 -1 c 4 -1 c 5 1 c 4 -1 c 4 0 c 5 0 c 4 0 c
4 0 c 5 0 c 4 0 c 5 0 c 4 1 c 4 1 c 5 -1 c 4 0 c 4 -1 c 5 1 c 4 0 c 5 -1 c 4 1 c 4 0 c 5 0 c 4 1 c 4 0 c 5 2 c 4 2 c 5 5 c 4 29 c
4 189 c 5 294 c 4 86 c 4 -181 c 5 -319 c 4 -86 c 5 -10 c 4 -5 c 4 -2 c 5 -2 c 4 -1 c 4 -1 c 5 -1 c 4 0 c 4 0 c 5 0 c 4 0 c 5 0 c
4 1 c 4 3 c 5 2 c 4 -1 c 4 -2 c 5 -3 c 4 0 c 5 -1 c 4 0 c 4 0 c 5 2 c 4 8 c 4 4 c 5 -2 c 4 -8 c 5 -4 c 4 0 c 4 1 c 5 1 c 4 0 c
4 -2 c 5 -1 c 4 0 c 4 0 c 5 0 c 4 1 c 5 2 c 4 0 c 4 0 c 5 -2 c 4 -1 c 4 1 c 5 1 c 4 0 c 5 -1 c 4 -1 c 4 0 c 5 0 c 4 1 c 4 1 c 5 6 c
4 38 c 5 28 c 4 -4 c 4 -35 c 5 -25 c 4 -3 c 4 -5 c 5 -2 c 4 -1 c 5 0 c 4 0 c 4 1 c 5 -1 c 4 1 c 4 0 c 5 2 c 4 4 c 4 0 c 5 -3 c
4 -3 c 5 -1 c 4 0 c 4 0 c 5 0 c 4 0 c 4 0 c 5 1 c 4 0 c 5 0 c 4 -1 c 4 0 c 5 1 c 4 0 c 4 -1 c 5 0 c 4 0 c 5 0 c 4 0 c 4 0 c 5 0 c
4 0 c 4 0 c 5 0 c 4 0 c 5 0 c 4 0 c 4 0 c 5 1 c 4 0 c 4 -1 c 5 0 c 4 0 c 4 1 c 5 0 c 4 -1 c 5 0 c 4 -1 c 4 1 c 5 0 c 4 0 c 4 0 c
5 0 c 4 0 c 5 0 c 4 0 c 4 0 c 5 0 c 4 0 c 4 0 c 5 0 c 4 1 c 5 -1 c 4 0 c 4 0 c 5 0 c 4 0 c 4 0 c
5 0 c 4 1 c 5 4 c 4 3 c 4 -17 c 5 0 c 4 9 c 4 -1 c 5 1 c 4 1 c 4 1 c 5 0 c 4 -1 c 5 -1 c 4 0 c 4 0 c 5 -1 c 4 1 c 4 1 c 5 1 c 4 -1 c
5 -1 c 4 0 c 4 0 c 5 0 c 4 0 c 4 0 c 5 0 c 4 0 c 5 0 c 4 0 c 4 0 c 5 0 c 4 1 c 4 2 c 5 0 c 4 1 c 5 11 c 4 27 c 4 8 c 5 -12 c 4 -27 c
4 -10 c 5 -1 c 4 0 c
0 -126 3303 418 l 54 0 3303 418 l 18 -6 c 6 -6 c 6 -12 c 0 -12 c -6 -12 c -6 -6 c -18 -6 c -54 0 c 42 -66 3345 358 l
-12 -6 3453 376 l -12 -12 c -6 -18 c 0 -12 c 6 -18 c 12 -12 c 12 -6 c 18 0 c 12 6 c 12 12 c 6 18 c 0 12 c -6 18 c -12 12 c -12 6 c
-18 0 c 24 -84 3537 376 l -24 -84 3585 376 l 24 -84 3585 376 l -24 -84 3633 376 l 108 0 3675 364 l 108 0 3675 328 l 12 6 3939 394 l
18 18 c 0 -126 c 12 6 4059 394 l 18 18 c 0 -126 c -12 -6 4287 376 l -12 -12 c -6 -18 c 0 -12 c 6 -18 c 12 -12 c 12 -6 c 18 0 c
12 6 c 12 12 c 6 18 c 0 12 c -6 18 c -12 12 c -12 6 c -18 0 c -12 0 4413 418 l -12 -6 c -6 -18 c 0 -102 c 42 0 4365 376 l
0 6 4545 388 l 6 12 c 6 6 c 12 6 c 24 0 c 12 -6 c 6 -6 c 6 -12 c 0 -12 c -6 -12 c -12 -18 c -60 -60 c 84 0 c -18 -6 4695 418 l
-12 -18 c -6 -30 c 0 -18 c 6 -30 c 12 -18 c 18 -6 c 12 0 c 18 6 c 12 18 c 6 30 c 0 18 c -6 30 c -12 18 c -18 6 c -12 0 c
12 6 5181 394 l 18 18 c 0 -126 c -6 -6 5294 376 l 6 -6 c 6 6 c -6 6 c -6 -6 5294 304 l 6 -6 c 6 6 c -6 6 c -48 -126 5474 418 l
48 -126 5474 418 l 60 0 5444 334 l 0 -84 5552 376 l 6 18 5552 340 l 12 12 c 12 6 c 18 0 c -12 12 5696 358 l -12 6 c -18 0 c -12 -6 c
-12 -12 c -6 -18 c 0 -12 c 6 -18 c 12 -12 c 12 -6 c 18 0 c 12 6 c 12 12 c 108 0 5738 346 l 12 6 5906 394 l 18 18 c 0 -126 c
66 0 6020 418 l -36 -48 c 18 0 c 12 -6 c 6 -6 c 6 -18 c 0 -12 c -6 -18 c -12 -12 c -18 -6 c -18 0 c -18 6 c -6 6 c -6 12 c
-6 -18 6206 376 l -12 -12 c -18 -6 c -6 0 c -18 6 c -12 12 c -6 18 c 0 6 c 6 18 c 12 12 c 18 6 c 6 0 c 18 -6 c 12 -12 c 6 -24 c
0 -30 c -6 -30 c -12 -18 c -18 -6 c -12 0 c -18 6 c -6 12 c -6 -6 6260 304 l 6 -6 c 6 6 c -6 6 c -12 0 6350 418 l -12 -6 c -6 -18 c
0 -102 c 42 0 6302 376 l 6 -6 6380 418 l 6 6 c -6 6 c -6 -6 c 0 -84 6386 376 l 0 -102 6440 418 l 6 -18 c 12 -6 c 12 0 c
42 0 6422 376 l -6 12 6566 358 l -18 6 c -18 0 c -18 -6 c -6 -12 c 6 -12 c 12 -6 c 30 -6 c 12 -6 c 6 -12 c 0 -6 c -6 -12 c -18 -6 c
-18 0 c -18 6 c -6 12 c 0 -192 6896 442 l 0 -192 6902 442 l 42 0 6896 442 l 42 0 6896 250 l 0 6 6980 388 l 6 12 c 6 6 c 12 6 c
24 0 c 12 -6 c 6 -6 c 6 -12 c 0 -12 c -6 -12 c -12 -18 c -60 -60 c 84 0 c -6 -6 7106 376 l 6 -6 c 6 6 c -6 6 c -6 -6 7106 304 l
6 -6 c 6 6 c -6 6 c 0 -192 7286 442 l 0 -192 7292 442 l 42 0 7250 442 l 42 0 7250 250 l
0 -249 1357 7019 l -8 -4 1325 7140 l -3 -11 c 0 -8 c 3 -11 c 12 -8 c 19 -3 c 19 0 c 15 3 c 7 8 c 4 11 c 0 4 c -4 11 c -7 8 c -12 4 c
-3 0 c -12 -4 c -7 -8 c -4 -11 c 0 -4 c 4 -11 c 7 -8 c 12 -3 c 0 -38 1314 7212 l 34 -4 c -4 4 c -4 11 c 0 12 c 4 11 c 7 8 c 12 3 c
7 0 c 12 -3 c 7 -8 c 4 -11 c 0 -12 c -4 -11 c -4 -4 c -7 -3 c 3 -11 1314 7261 l 8 -4 c 8 0 c 7 4 c 4 7 c 4 15 c 3 12 c 8 7 c 8 4 c
11 0 c 7 -4 c 4 -4 c 4 -11 c 0 -15 c -4 -11 c -4 -4 c -7 -4 c -11 0 c -8 4 c -8 7 c -3 12 c -4 15 c -4 7 c -7 4 c -8 0 c -8 -4 c
-3 -11 c 0 -15 c 3 -12 1314 7337 l 8 -4 c 8 0 c 7 4 c 4 8 c 4 15 c 3 11 c 8 8 c 8 4 c 11 0 c 7 -4 c 4 -4 c 4 -11 c 0 -15 c -4 -12 c
-4 -4 c -7 -3 c -11 0 c -8 3 c -8 8 c -3 11 c -4 15 c -4 8 c -7 4 c -8 0 c -8 -4 c -3 -11 c 0 -15 c 4 -4 1385 7401 l 4 4 c -4 4 c
-4 -4 c 0 -37 1314 7476 l 34 -4 c -4 4 c -4 11 c 0 11 c 4 12 c 7 7 c 12 4 c 7 0 c 12 -4 c 7 -7 c 4 -12 c 0 -11 c -4 -11 c -4 -4 c
-7 -4 c 53 -37 1314 7544 l 0 56 c 79 0 1314 7544 l 3 -11 1314 7605 l 12 -8 c 19 -4 c 11 0 c 19 4 c 11 8 c 4 11 c 0 7 c -4 12 c
-11 7 c -19 4 c -11 0 c -19 -4 c -12 -7 c -3 -12 c 0 -7 c 0 -249 1628 7019 l -7 -4 1596 7140 l -4 -11 c 0 -8 c 4 -11 c 11 -8 c
19 -3 c 19 0 c 15 3 c 7 8 c 4 11 c 0 4 c -4 11 c -7 8 c -11 4 c -4 0 c -12 -4 c -7 -8 c -4 -11 c 0 -4 c 4 -11 c 7 -8 c 12 -3 c
0 -38 1585 7212 l 34 -4 c -4 4 c -4 11 c 0 12 c 4 11 c 8 8 c 11 3 c 8 0 c 11 -3 c 7 -8 c 4 -11 c 0 -12 c -4 -11 c -3 -4 c -8 -3 c
12 -4 1611 7291 l 7 -7 c 4 -11 c 0 -4 c -4 -12 c -7 -7 c -12 -4 c -3 0 c -12 4 c -7 7 c -4 12 c 0 4 c 4 11 c 7 7 c 15 4 c 19 0 c
19 -4 c 11 -7 c 4 -11 c 0 -8 c -4 -11 c -7 -4 c -4 8 1600 7329 l -11 11 c 79 0 c 3 -4 1657 7401 l 4 4 c -4 4 c -3 -4 c
53 -38 1585 7469 l 0 57 c 79 0 1585 7469 l 4 -12 1585 7526 l 7 -4 c 8 0 c 7 4 c 4 8 c 4 15 c 4 11 c 7 8 c 8 4 c 11 0 c 8 -4 c 3 -4 c
4 -11 c 0 -15 c -4 -12 c -3 -4 c -8 -3 c -11 0 c -8 3 c -7 8 c -4 11 c -4 15 c -4 8 c -7 4 c -8 0 c -7 -4 c -4 -11 c 0 -15 c
53 -38 1585 7620 l 0 57 c 79 0 1585 7620 l 0 -250 1856 6711 l -8 -4 1824 6832 l -4 -11 c 0 -8 c 4 -11 c 12 -8 c 18 -4 c 19 0 c
15 4 c 8 8 c 4 11 c 0 4 c -4 11 c -8 8 c -11 3 c -4 0 c -11 -3 c -8 -8 c -3 -11 c 0 -4 c 3 -11 c 8 -8 c 11 -4 c 0 -37 1812 6903 l
34 -4 c -3 4 c -4 11 c 0 11 c 4 12 c 7 7 c 12 4 c 7 0 c 11 -4 c 8 -7 c 4 -12 c 0 -11 c -4 -11 c -4 -4 c -7 -4 c 11 -4 1839 6983 l
8 -8 c 4 -11 c 0 -4 c -4 -11 c -8 -8 c -11 -3 c -4 0 c -11 3 c -8 8 c -4 11 c 0 4 c 4 11 c 8 8 c 15 4 c 19 0 c 19 -4 c 11 -8 c
4 -11 c 0 -7 c -4 -12 c -8 -4 c 0 41 1812 7017 l 31 -22 c 0 11 c 3 8 c 4 3 c 12 4 c 7 0 c 11 -4 c 8 -7 c 4 -11 c 0 -12 c -4 -11 c
-4 -4 c -7 -4 c 4 -3 1884 7092 l 4 3 c -4 4 c -4 -4 c 11 -4 1839 7172 l 8 -8 c 4 -11 c 0 -4 c -4 -11 c -8 -8 c -11 -3 c -4 0 c
-11 3 c -8 8 c -4 11 c 0 4 c 4 11 c 8 8 c 15 4 c 19 0 c 19 -4 c 11 -8 c 4 -11 c 0 -7 c -4 -12 c -8 -4 c 0 41 1812 7206 l 31 -22 c
0 11 c 3 8 c 4 3 c 12 4 c 7 0 c 11 -4 c 8 -7 c 4 -12 c 0 -11 c -4 -11 c -4 -4 c -7 -4 c 11 -4 1839 7323 l 8 -7 c 4 -12 c 0 -3 c
-4 -12 c -8 -7 c -11 -4 c -4 0 c -11 4 c -8 7 c -4 12 c 0 3 c 4 12 c 8 7 c 15 4 c 19 0 c 19 -4 c 11 -7 c 4 -12 c 0 -7 c -4 -12 c
-8 -3 c 0 -249 2372 2546 l -7 -4 2339 2667 l -4 -11 c 0 -8 c 4 -11 c 11 -8 c 19 -3 c 19 0 c 15 3 c 8 8 c 3 11 c 0 4 c -3 12 c -8 7 c
-11 4 c -4 0 c -11 -4 c -8 -7 c -4 -12 c 0 -4 c 4 -11 c 8 -8 c 11 -3 c 0 -38 2328 2739 l 34 -4 c -4 4 c -4 11 c 0 12 c 4 11 c 8 8 c
11 3 c 8 0 c 11 -3 c 8 -8 c 3 -11 c 0 -12 c -3 -11 c -4 -4 c -8 -3 c 12 -4 2354 2818 l 7 -7 c 4 -11 c 0 -4 c -4 -12 c -7 -7 c
-12 -4 c -3 0 c -12 4 c -7 7 c -4 12 c 0 4 c 4 11 c 7 7 c 15 4 c 19 0 c 19 -4 c 12 -7 c 3 -11 c 0 -8 c -3 -11 c -8 -4 c
12 -4 2354 2894 l 7 -8 c 4 -11 c 0 -4 c -4 -11 c -7 -8 c -12 -3 c -3 0 c -12 3 c -7 8 c -4 11 c 0 4 c 4 11 c 7 8 c 15 4 c 19 0 c
19 -4 c 12 -8 c 3 -11 c 0 -7 c -3 -12 c -8 -4 c 4 -4 2400 2928 l 3 4 c -3 4 c -4 -4 c 53 -38 2328 2996 l 0 57 c 79 0 2328 2996 l
4 -12 2328 3053 l 7 -4 c 8 0 c 7 4 c 4 8 c 4 15 c 4 11 c 7 8 c 8 4 c 11 0 c 8 -4 c 4 -4 c 3 -11 c 0 -15 c -3 -12 c -4 -4 c -8 -3 c
-11 0 c -8 3 c -7 8 c -4 11 c -4 15 c -4 8 c -7 4 c -8 0 c -7 -4 c -4 -11 c 0 -15 c -4 0 2347 3113 l -7 4 c -4 4 c -4 7 c 0 15 c
4 8 c 4 4 c 7 3 c 8 0 c 7 -3 c 12 -8 c 37 -38 c 0 53 c 0 -250 2874 2394 l -7 -4 2842 2515 l -4 -12 c 0 -7 c 4 -11 c 11 -8 c 19 -4 c
19 0 c 15 4 c 7 8 c 4 11 c 0 4 c -4 11 c -7 8 c -12 3 c -3 0 c -12 -3 c -7 -8 c -4 -11 c 0 -4 c 4 -11 c 7 -8 c 12 -4 c
-7 -4 2842 2590 l -4 -11 c 0 -7 c 4 -12 c 11 -7 c 19 -4 c 19 0 c 15 4 c 7 7 c 4 12 c 0 3 c -4 12 c -7 7 c -12 4 c -3 0 c -12 -4 c
-7 -7 c -4 -12 c 0 -3 c 4 -12 c 7 -7 c 12 -4 c 4 -11 2831 2639 l 11 -8 c 19 -3 c 11 0 c 19 3 c 11 8 c 4 11 c 0 8 c -4 11 c -11 8 c
-19 4 c -11 0 c -19 -4 c -11 -8 c -4 -11 c 0 -8 c 53 -38 2831 2730 l 0 57 c 79 0 2831 2730 l 3 -3 2903 2775 l 4 3 c -4 4 c -3 -4 c
4 -12 2831 2825 l 7 -4 c 8 0 c 7 4 c 4 8 c 4 15 c 4 11 c 7 8 c 8 4 c 11 0 c 8 -4 c 3 -4 c 4 -11 c 0 -15 c -4 -12 c -3 -4 c -8 -3 c
-11 0 c -8 3 c -7 8 c -4 11 c -4 15 c -4 8 c -7 4 c -8 0 c -7 -4 c -4 -11 c 0 -15 c 0 -38 2831 2927 l 34 -4 c -4 4 c -4 11 c 0 11 c
4 12 c 8 7 c 11 4 c 7 0 c 12 -4 c 7 -7 c 4 -12 c 0 -11 c -4 -11 c -3 -4 c -8 -4 c 0 42 2831 2964 l 30 -23 c 0 12 c 4 7 c 4 4 c
11 4 c 7 0 c 12 -4 c 7 -8 c 4 -11 c 0 -11 c -4 -12 c -3 -3 c -8 -4 c 0 -250 2927 3426 l -7 -4 2895 3547 l -4 -11 c 0 -8 c 4 -11 c
11 -8 c 19 -4 c 19 0 c 15 4 c 7 8 c 4 11 c 0 4 c -4 11 c -7 8 c -12 4 c -3 0 c -12 -4 c -7 -8 c -4 -11 c 0 -4 c 4 -11 c 7 -8 c
12 -4 c -7 -3 2895 3622 l -4 -12 c 0 -7 c 4 -12 c 11 -7 c 19 -4 c 19 0 c 15 4 c 7 7 c 4 12 c 0 3 c -4 12 c -7 7 c -12 4 c -3 0 c
-12 -4 c -7 -7 c -4 -12 c 0 -3 c 4 -12 c 7 -7 c 12 -4 c 4 -11 2884 3671 l 11 -7 c 19 -4 c 11 0 c 19 4 c 11 7 c 4 11 c 0 8 c -4 11 c
-11 8 c -19 4 c -11 0 c -19 -4 c -11 -8 c -4 -11 c 0 -8 c 0 -38 2884 3770 l 34 -4 c -4 4 c -4 11 c 0 12 c 4 11 c 8 7 c 11 4 c 7 0 c
12 -4 c 7 -7 c 4 -11 c 0 -12 c -4 -11 c -3 -4 c -8 -4 c 3 -4 2956 3808 l 4 4 c -4 3 c -3 -3 c 53 -38 2884 3876 l 0 56 c
79 0 2884 3876 l -4 7 2899 3925 l -11 12 c 79 0 c 79 -38 2884 4042 l 0 53 2884 3989 l 0 -249 4137 1459 l -8 -3 4105 1580 l -3 -12 c
0 -7 c 3 -12 c 12 -7 c 19 -4 c 18 0 c 16 4 c 7 7 c 4 12 c 0 3 c -4 12 c -7 7 c -12 4 c -4 0 c -11 -4 c -7 -7 c -4 -12 c 0 -3 c
4 -12 c 7 -7 c 11 -4 c -8 -4 4105 1656 l -3 -11 c 0 -8 c 3 -11 c 12 -8 c 19 -3 c 18 0 c 16 3 c 7 8 c 4 11 c 0 4 c -4 11 c -7 8 c
-12 4 c -4 0 c -11 -4 c -7 -8 c -4 -11 c 0 -4 c 4 -11 c 7 -8 c 11 -3 c -4 7 4109 1694 l -11 12 c 79 0 c 3 -11 4094 1777 l 8 -4 c
7 0 c 8 4 c 4 7 c 4 15 c 3 12 c 8 7 c 7 4 c 12 0 c 7 -4 c 4 -4 c 4 -11 c 0 -15 c -4 -11 c -4 -4 c -7 -4 c -12 0 c -7 4 c -8 7 c
-3 12 c -4 15 c -4 7 c -8 4 c -7 0 c -8 -4 c -3 -11 c 0 -15 c 4 -4 4165 1841 l 4 4 c -4 4 c -4 -4 c -4 7 4109 1883 l -11 12 c 79 0 c
-8 -4 4105 1996 l -3 -11 c 0 -8 c 3 -11 c 12 -7 c 19 -4 c 18 0 c 16 4 c 7 7 c 4 11 c 0 4 c -4 12 c -7 7 c -12 4 c -4 0 c -11 -4 c
-7 -7 c -4 -12 c 0 -4 c 4 -11 c 7 -7 c 11 -4 c 79 -38 4094 2076 l 0 53 4094 2023 l 0 -249 4308 4176 l -8 -4 4276 4297 l -3 -11 c
0 -8 c 3 -11 c 12 -8 c 19 -3 c 19 0 c 15 3 c 7 8 c 4 11 c 0 4 c -4 11 c -7 8 c -12 4 c -3 0 c -12 -4 c -7 -8 c -4 -11 c 0 -4 c
4 -11 c 7 -8 c 12 -3 c -8 -4 4276 4373 l -3 -12 c 0 -7 c 3 -11 c 12 -8 c 19 -4 c 19 0 c 15 4 c 7 8 c 4 11 c 0 4 c -4 11 c -7 8 c
-12 3 c -3 0 c -12 -3 c -7 -8 c -4 -11 c 0 -4 c 4 -11 c 7 -8 c 12 -4 c -4 8 4280 4410 l -11 11 c 79 0 c 11 -4 4291 4524 l 8 -8 c
4 -11 c 0 -4 c -4 -11 c -8 -8 c -11 -3 c -4 0 c -11 3 c -8 8 c -3 11 c 0 4 c 3 11 c 8 8 c 15 4 c 19 0 c 19 -4 c 11 -8 c 4 -11 c
0 -7 c -4 -12 c -7 -4 c 4 -4 4336 4558 l 4 4 c -4 4 c -4 -4 c 11 -4 4291 4637 l 8 -7 c 4 -12 c 0 -3 c -4 -12 c -8 -7 c -11 -4 c
-4 0 c -11 4 c -8 7 c -3 12 c 0 3 c 3 12 c 8 7 c 15 4 c 19 0 c 19 -4 c 11 -7 c 4 -12 c 0 -7 c -4 -11 c -7 -4 c 53 -37 4265 4701 l
0 56 c 79 0 4265 4701 l -8 -3 4276 4788 l -3 -12 c 0 -7 c 3 -12 c 12 -7 c 19 -4 c 19 0 c 15 4 c 7 7 c 4 12 c 0 3 c -4 12 c -7 7 c
-12 4 c -3 0 c -12 -4 c -7 -7 c -4 -12 c 0 -3 c 4 -12 c 7 -7 c 12 -4 c 0 -250 5485 1336 l -7 -4 5452 1457 l -4 -11 c 0 -8 c 4 -11 c
11 -8 c 19 -3 c 19 0 c 15 3 c 8 8 c 3 11 c 0 4 c -3 11 c -8 8 c -11 4 c -4 0 c -11 -4 c -8 -8 c -4 -11 c 0 -4 c 4 -11 c 8 -8 c
11 -3 c -7 -4 5452 1533 l -4 -12 c 0 -7 c 4 -11 c 11 -8 c 19 -4 c 19 0 c 15 4 c 8 8 c 3 11 c 0 4 c -3 11 c -8 8 c -11 3 c -4 0 c
-11 -3 c -8 -8 c -4 -11 c 0 -4 c 4 -11 c 8 -8 c 11 -4 c 0 41 5441 1567 l 30 -22 c 0 11 c 4 7 c 4 4 c 11 4 c 8 0 c 11 -4 c 8 -7 c
3 -12 c 0 -11 c -3 -11 c -4 -4 c -8 -4 c -4 0 5460 1638 l -7 4 c -4 4 c -4 8 c 0 15 c 4 7 c 4 4 c 7 4 c 8 0 c 7 -4 c 12 -8 c
37 -37 c 0 53 c 4 -4 5513 1718 l 3 4 c -3 4 c -4 -4 c 4 -12 5441 1771 l 11 -7 c 19 -4 c 11 0 c 19 4 c 12 7 c 3 12 c 0 7 c -3 12 c
-12 7 c -19 4 c -11 0 c -19 -4 c -11 -7 c -4 -12 c 0 -7 c 4 -12 5441 1843 l 7 -4 c 8 0 c 7 4 c 4 8 c 4 15 c 4 11 c 7 8 c 8 4 c
11 0 c 8 -4 c 4 -4 c 3 -11 c 0 -15 c -3 -12 c -4 -4 c -8 -3 c -11 0 c -8 3 c -7 8 c -4 11 c -4 15 c -4 8 c -7 4 c -8 0 c -7 -4 c
-4 -11 c 0 -15 c 53 -38 5441 1937 l 0 57 c 79 0 5441 1937 l 0 -250 6088 2310 l -7 -4 6056 2431 l -4 -11 c 0 -8 c 4 -11 c 11 -8 c
19 -4 c 19 0 c 15 4 c 7 8 c 4 11 c 0 4 c -4 11 c -7 8 c -12 4 c -3 0 c -12 -4 c -7 -8 c -4 -11 c 0 -4 c 4 -11 c 7 -8 c 12 -4 c
-7 -3 6056 2506 l -4 -12 c 0 -7 c 4 -12 c 11 -7 c 19 -4 c 19 0 c 15 4 c 7 7 c 4 12 c 0 4 c -4 11 c -7 7 c -12 4 c -3 0 c -12 -4 c
-7 -7 c -4 -11 c 0 -4 c 4 -12 c 7 -7 c 12 -4 c 0 42 6045 2540 l 30 -23 c 0 12 c 4 7 c 4 4 c 11 4 c 7 0 c 12 -4 c 7 -8 c 4 -11 c
0 -11 c -4 -12 c -3 -3 c -8 -4 c 4 -11 6045 2627 l 7 -4 c 8 0 c 7 4 c 4 8 c 4 15 c 4 11 c 7 8 c 8 3 c 11 0 c 8 -3 c 3 -4 c 4 -12 c
0 -15 c -4 -11 c -3 -4 c -8 -4 c -11 0 c -8 4 c -7 8 c -4 11 c -4 15 c -4 8 c -7 4 c -8 0 c -7 -4 c -4 -12 c 0 -15 c
3 -4 6117 2692 l 4 4 c -4 3 c -3 -3 c -4 0 6064 2726 l -8 3 c -3 4 c -4 8 c 0 15 c 4 7 c 3 4 c 8 4 c 7 0 c 8 -4 c 11 -7 c 38 -38 c
0 53 c -4 0 6064 2801 l -8 4 c -3 4 c -4 7 c 0 15 c 4 8 c 3 4 c 8 4 c 7 0 c 8 -4 c 11 -8 c 38 -38 c 0 53 c -4 8 6060 2884 l -11 11 c
79 0 c 0 -250 6156 1671 l -8 -4 6124 1792 l -3 -11 c 0 -8 c 3 -11 c 12 -8 c 19 -4 c 19 0 c 15 4 c 7 8 c 4 11 c 0 4 c -4 11 c -7 8 c
-12 4 c -3 0 c -12 -4 c -7 -8 c -4 -11 c 0 -4 c 4 -11 c 7 -8 c 12 -4 c -8 -3 6124 1867 l -3 -12 c 0 -7 c 3 -12 c 12 -7 c 19 -4 c
19 0 c 15 4 c 7 7 c 4 12 c 0 4 c -4 11 c -7 7 c -12 4 c -3 0 c -12 -4 c -7 -7 c -4 -11 c 0 -4 c 4 -12 c 7 -7 c 12 -4 c
0 42 6113 1901 l 30 -23 c 0 12 c 4 7 c 3 4 c 12 4 c 7 0 c 12 -4 c 7 -8 c 4 -11 c 0 -11 c -4 -12 c -3 -3 c -8 -4 c 3 -11 6113 1988 l
8 -4 c 8 0 c 7 4 c 4 8 c 4 15 c 3 11 c 8 8 c 8 3 c 11 0 c 8 -3 c 3 -4 c 4 -12 c 0 -15 c -4 -11 c -3 -4 c -8 -4 c -11 0 c -8 4 c
-8 8 c -3 11 c -4 15 c -4 8 c -7 4 c -8 0 c -8 -4 c -3 -12 c 0 -15 c 3 -4 6185 2053 l 4 4 c -4 3 c -3 -3 c 11 -4 6139 2132 l 8 -7 c
4 -12 c 0 -3 c -4 -12 c -8 -7 c -11 -4 c -4 0 c -11 4 c -8 7 c -3 12 c 0 3 c 3 12 c 8 7 c 15 4 c 19 0 c 19 -4 c 11 -7 c 4 -12 c
0 -7 c -4 -12 c -7 -3 c -4 7 6128 2170 l -11 12 c 79 0 c -4 0 6132 2238 l -8 4 c -4 3 c -3 8 c 0 15 c 3 8 c 4 3 c 8 4 c 7 0 c 8 -4 c
11 -7 c 38 -38 c 0 53 c 0 -249 6239 1984 l -8 -3 6207 2105 l -4 -12 c 0 -7 c 4 -12 c 11 -7 c 19 -4 c 19 0 c 15 4 c 8 7 c 4 12 c
0 3 c -4 12 c -8 7 c -11 4 c -4 0 c -11 -4 c -8 -7 c -4 -12 c 0 -3 c 4 -12 c 8 -7 c 11 -4 c -8 -4 6207 2181 l -4 -11 c 0 -8 c
4 -11 c 11 -8 c 19 -3 c 19 0 c 15 3 c 8 8 c 4 11 c 0 4 c -4 11 c -8 8 c -11 4 c -4 0 c -11 -4 c -8 -8 c -4 -11 c 0 -4 c 4 -11 c
8 -8 c 11 -3 c 0 42 6195 2215 l 30 -23 c 0 11 c 4 8 c 4 4 c 11 3 c 8 0 c 11 -3 c 8 -8 c 4 -11 c 0 -12 c -4 -11 c -4 -4 c -8 -4 c
11 -4 6222 2332 l 8 -7 c 3 -12 c 0 -3 c -3 -12 c -8 -7 c -11 -4 c -4 0 c -11 4 c -8 7 c -4 12 c 0 3 c 4 12 c 8 7 c 15 4 c 19 0 c
18 -4 c 12 -7 c 4 -12 c 0 -7 c -4 -11 c -8 -4 c 4 -4 6267 2366 l 4 4 c -4 4 c -4 -4 c 80 -37 6195 2449 l 0 53 6195 2396 l
53 -38 6195 2510 l 0 57 c 80 0 6195 2510 l 4 -11 6195 2570 l 11 -8 c 19 -3 c 12 0 c 18 3 c 12 8 c 4 11 c 0 8 c -4 11 c -12 8 c
-18 3 c -12 0 c -19 -3 c -11 -8 c -4 -11 c 0 -8 c 0 -250 6632 3111 l -8 -4 6600 3232 l -3 -12 c 0 -7 c 3 -11 c 12 -8 c 19 -4 c
19 0 c 15 4 c 7 8 c 4 11 c 0 4 c -4 11 c -7 8 c -12 3 c -3 0 c -12 -3 c -7 -8 c -4 -11 c 0 -4 c 4 -11 c 7 -8 c 12 -4 c
-8 -4 6600 3307 l -3 -11 c 0 -8 c 3 -11 c 12 -7 c 19 -4 c 19 0 c 15 4 c 7 7 c 4 11 c 0 4 c -4 12 c -7 7 c -12 4 c -3 0 c -12 -4 c
-7 -7 c -4 -12 c 0 -4 c 4 -11 c 7 -7 c 12 -4 c 53 -37 6589 3371 l 0 56 c 79 0 6589 3371 l 0 41 6589 3417 l 30 -22 c 0 11 c 4 8 c
3 3 c 12 4 c 7 0 c 12 -4 c 7 -7 c 4 -12 c 0 -11 c -4 -11 c -4 -4 c -7 -4 c 4 -3 6660 3492 l 4 3 c -4 4 c -4 -4 c -8 -4 6600 3572 l
-3 -11 c 0 -8 c 3 -11 c 12 -8 c 19 -4 c 19 0 c 15 4 c 7 8 c 4 11 c 0 4 c -4 11 c -7 8 c -12 3 c -3 0 c -12 -3 c -7 -8 c -4 -11 c
0 -4 c 4 -11 c 7 -8 c 12 -4 c 11 -4 6615 3647 l 8 -7 c 4 -11 c 0 -4 c -4 -12 c -8 -7 c -11 -4 c -4 0 c -11 4 c -8 7 c -3 12 c 0 4 c
3 11 c 8 7 c 15 4 c 19 0 c 19 -4 c 11 -7 c 4 -11 c 0 -8 c -4 -11 c -7 -4 c 3 -12 6589 3693 l 8 -3 c 8 0 c 7 3 c 4 8 c 4 15 c 3 11 c
8 8 c 8 4 c 11 0 c 7 -4 c 4 -4 c 4 -11 c 0 -15 c -4 -12 c -4 -3 c -7 -4 c -11 0 c -8 4 c -8 7 c -3 11 c -4 16 c -4 7 c -7 4 c -8 0 c
-8 -4 c -3 -11 c 0 -15 c 0 -250 6728 2573 l -8 -4 6696 2694 l -4 -12 c 0 -7 c 4 -11 c 11 -8 c 19 -4 c 19 0 c 15 4 c 8 8 c 4 11 c
0 4 c -4 11 c -8 8 c -11 3 c -4 0 c -11 -3 c -8 -8 c -3 -11 c 0 -4 c 3 -11 c 8 -8 c 11 -4 c -8 -4 6696 2769 l -4 -11 c 0 -7 c
4 -12 c 11 -7 c 19 -4 c 19 0 c 15 4 c 8 7 c 4 12 c 0 3 c -4 12 c -8 7 c -11 4 c -4 0 c -11 -4 c -8 -7 c -3 -12 c 0 -3 c 3 -12 c
8 -7 c 11 -4 c 53 -37 6684 2833 l 0 56 c 80 0 6684 2833 l 53 -38 6684 2909 l 0 57 c 80 0 6684 2909 l 4 -3 6756 2954 l 4 3 c -4 4 c
-4 -4 c -8 -4 6696 3034 l -4 -11 c 0 -8 c 4 -11 c 11 -8 c 19 -4 c 19 0 c 15 4 c 8 8 c 4 11 c 0 4 c -4 11 c -8 8 c -11 4 c -4 0 c
-11 -4 c -8 -8 c -3 -11 c 0 -4 c 3 -11 c 8 -8 c 11 -4 c -8 -3 6696 3109 l -4 -12 c 0 -7 c 4 -12 c 11 -7 c 19 -4 c 19 0 c 15 4 c
8 7 c 4 12 c 0 3 c -4 12 c -8 7 c -11 4 c -4 0 c -11 -4 c -8 -7 c -3 -12 c 0 -3 c 3 -12 c 8 -7 c 11 -4 c 0 42 6684 3143 l 31 -23 c
0 12 c 3 7 c 4 4 c 11 4 c 8 0 c 11 -4 c 8 -8 c 4 -11 c 0 -11 c -4 -12 c -4 -3 c -7 -4 c 0 -250 6917 1635 l -7 -4 6884 1756 l
-4 -11 c 0 -8 c 4 -11 c 11 -8 c 19 -3 c 19 0 c 15 3 c 8 8 c 3 11 c 0 4 c -3 11 c -8 8 c -11 4 c -4 0 c -11 -4 c -8 -8 c -4 -11 c
0 -4 c 4 -11 c 8 -8 c 11 -3 c -7 -4 6884 1832 l -4 -12 c 0 -7 c 4 -11 c 11 -8 c 19 -4 c 19 0 c 15 4 c 8 8 c 3 11 c 0 4 c -3 11 c
-8 8 c -11 3 c -4 0 c -11 -3 c -8 -8 c -4 -11 c 0 -4 c 4 -11 c 8 -8 c 11 -4 c 53 -38 6873 1896 l 0 57 c 79 0 6873 1896 l
-7 -4 6884 1983 l -4 -11 c 0 -8 c 4 -11 c 11 -8 c 19 -4 c 19 0 c 15 4 c 8 8 c 3 11 c 0 4 c -3 11 c -8 8 c -11 4 c -4 0 c -11 -4 c
-8 -8 c -4 -11 c 0 -4 c 4 -11 c 8 -8 c 11 -4 c 4 -4 6945 2017 l 3 4 c -3 4 c -4 -4 c 0 -37 6873 2092 l 34 -4 c -4 4 c -3 11 c 0 11 c
3 12 c 8 7 c 11 4 c 8 0 c 11 -4 c 8 -7 c 3 -12 c 0 -11 c -3 -11 c -4 -4 c -8 -4 c 53 -37 6873 2160 l 0 56 c 79 0 6873 2160 l
-4 7 6888 2210 l -11 11 c 79 0 c 0 -250 7706 1293 l -7 -4 7674 1414 l -4 -11 c 0 -8 c 4 -11 c 11 -8 c 19 -4 c 19 0 c 15 4 c 7 8 c
4 11 c 0 4 c -4 11 c -7 8 c -12 4 c -3 0 c -12 -4 c -7 -8 c -4 -11 c 0 -4 c 4 -11 c 7 -8 c 12 -4 c -7 -3 7674 1489 l -4 -12 c 0 -7 c
4 -12 c 11 -7 c 19 -4 c 19 0 c 15 4 c 7 7 c 4 12 c 0 3 c -4 12 c -7 7 c -12 4 c -3 0 c -12 -4 c -7 -7 c -4 -12 c 0 -3 c 4 -12 c
7 -7 c 12 -4 c 0 -38 7663 1561 l 34 -3 c -4 3 c -4 12 c 0 11 c 4 11 c 8 8 c 11 4 c 7 0 c 12 -4 c 7 -8 c 4 -11 c 0 -11 c -4 -12 c
-3 -3 c -8 -4 c 53 -38 7663 1629 l 0 57 c 79 0 7663 1629 l 3 -4 7735 1675 l 4 4 c -4 3 c -3 -3 c 0 42 7663 1712 l 30 -23 c 0 12 c
4 7 c 4 4 c 11 4 c 7 0 c 12 -4 c 7 -8 c 4 -11 c 0 -11 c -4 -12 c -3 -3 c -8 -4 c -7 -3 7674 1829 l -4 -12 c 0 -7 c 4 -12 c 11 -7 c
19 -4 c 19 0 c 15 4 c 7 7 c 4 12 c 0 4 c -4 11 c -7 7 c -12 4 c -3 0 c -12 -4 c -7 -7 c -4 -11 c 0 -4 c 4 -12 c 7 -7 c 12 -4 c
4 -11 7663 1875 l 7 -4 c 8 0 c 7 4 c 4 7 c 4 15 c 4 12 c 7 7 c 8 4 c 11 0 c 8 -4 c 3 -4 c 4 -11 c 0 -15 c -4 -11 c -3 -4 c -8 -4 c
-11 0 c -8 4 c -7 7 c -4 12 c -4 15 c -4 7 c -7 4 c -8 0 c -7 -4 c -4 -11 c 0 -15 c 0 -250 8147 1644 l -7 -4 8114 1765 l -4 -12 c
0 -7 c 4 -11 c 11 -8 c 19 -4 c 19 0 c 15 4 c 8 8 c 4 11 c 0 4 c -4 11 c -8 8 c -11 3 c -4 0 c -11 -3 c -8 -8 c -4 -11 c 0 -4 c
4 -11 c 8 -8 c 11 -4 c -7 -4 8114 1840 l -4 -11 c 0 -8 c 4 -11 c 11 -7 c 19 -4 c 19 0 c 15 4 c 8 7 c 4 11 c 0 4 c -4 12 c -8 7 c
-11 4 c -4 0 c -11 -4 c -8 -7 c -4 -12 c 0 -4 c 4 -11 c 8 -7 c 11 -4 c 0 -38 8103 1912 l 34 -4 c -4 4 c -3 12 c 0 11 c 3 11 c 8 8 c
11 4 c 8 0 c 11 -4 c 8 -8 c 4 -11 c 0 -11 c -4 -12 c -4 -4 c -8 -3 c 4 -11 8103 1961 l 7 -4 c 8 0 c 8 4 c 3 7 c 4 15 c 4 12 c 8 7 c
7 4 c 11 0 c 8 -4 c 4 -3 c 4 -12 c 0 -15 c -4 -11 c -4 -4 c -8 -4 c -11 0 c -7 4 c -8 8 c -4 11 c -4 15 c -3 8 c -8 3 c -8 0 c
-7 -3 c -4 -12 c 0 -15 c 4 -3 8175 2025 l 4 3 c -4 4 c -4 -4 c -7 -4 8114 2105 l -4 -11 c 0 -8 c 4 -11 c 11 -8 c 19 -4 c 19 0 c
15 4 c 8 8 c 4 11 c 0 4 c -4 11 c -8 8 c -11 4 c -4 0 c -11 -4 c -8 -8 c -4 -11 c 0 -4 c 4 -11 c 8 -8 c 11 -4 c 80 -38 8103 2184 l
0 53 8103 2131 l 80 -38 8103 2260 l 0 53 8103 2207 l 0 -250 8352 1504 l -7 -4 8320 1625 l -4 -11 c 0 -8 c 4 -11 c 11 -8 c 19 -3 c
19 0 c 15 3 c 7 8 c 4 11 c 0 4 c -4 11 c -7 8 c -12 4 c -3 0 c -12 -4 c -7 -8 c -4 -11 c 0 -4 c 4 -11 c 7 -8 c 12 -3 c
-7 -3 8320 1700 l -4 -12 c 0 -7 c 4 -12 c 11 -7 c 19 -4 c 19 0 c 15 4 c 7 7 c 4 12 c 0 4 c -4 11 c -7 7 c -12 4 c -3 0 c -12 -4 c
-7 -7 c -4 -11 c 0 -4 c 4 -12 c 7 -7 c 12 -4 c -7 -4 8320 1776 l -4 -11 c 0 -8 c 4 -11 c 11 -8 c 19 -3 c 19 0 c 15 3 c 7 8 c 4 11 c
0 4 c -4 11 c -7 8 c -12 4 c -3 0 c -12 -4 c -7 -8 c -4 -11 c 0 -4 c 4 -11 c 7 -8 c 12 -3 c 4 -11 8309 1825 l 11 -8 c 19 -3 c 11 0 c
19 3 c 11 8 c 4 11 c 0 8 c -4 11 c -11 8 c -19 3 c -11 0 c -19 -3 c -11 -8 c -4 -11 c 0 -8 c 3 -4 8381 1886 l 4 4 c -4 3 c -3 -3 c
-7 -4 8320 1965 l -4 -11 c 0 -8 c 4 -11 c 11 -8 c 19 -3 c 19 0 c 15 3 c 7 8 c 4 11 c 0 4 c -4 11 c -7 8 c -12 4 c -3 0 c -12 -4 c
-7 -8 c -4 -11 c 0 -4 c 4 -11 c 7 -8 c 12 -3 c 79 -37 8309 2044 l 0 53 8309 1991 l -7 -4 8320 2116 l -4 -11 c 0 -7 c 4 -12 c 11 -7 c
19 -4 c 19 0 c 15 4 c 7 7 c 4 12 c 0 3 c -4 12 c -7 7 c -12 4 c -3 0 c -12 -4 c -7 -7 c -4 -12 c 0 -3 c 4 -12 c 7 -7 c 12 -4 c
0 -249 8516 5190 l -8 -4 8484 5311 l -3 -11 c 0 -7 c 3 -12 c 12 -7 c 19 -4 c 18 0 c 16 4 c 7 7 c 4 12 c 0 3 c -4 12 c -7 7 c -12 4 c
-4 0 c -11 -4 c -7 -7 c -4 -12 c 0 -3 c 4 -12 c 7 -7 c 11 -4 c -8 -4 8484 5387 l -3 -11 c 0 -8 c 3 -11 c 12 -8 c 19 -4 c 18 0 c
16 4 c 7 8 c 4 11 c 0 4 c -4 11 c -7 8 c -12 4 c -4 0 c -11 -4 c -7 -8 c -4 -11 c 0 -4 c 4 -11 c 7 -8 c 11 -4 c -8 -3 8484 5462 l
-3 -12 c 0 -7 c 3 -12 c 12 -7 c 19 -4 c 18 0 c 16 4 c 7 7 c 4 12 c 0 4 c -4 11 c -7 7 c -12 4 c -4 0 c -11 -4 c -7 -7 c -4 -11 c
0 -4 c 4 -12 c 7 -7 c 11 -4 c -3 0 8491 5493 l -8 3 c -4 4 c -3 8 c 0 15 c 3 7 c 4 4 c 8 4 c 7 0 c 8 -4 c 11 -7 c 38 -38 c 0 53 c
4 -4 8544 5572 l 4 4 c -4 4 c -4 -4 c -3 0 8491 5606 l -8 4 c -4 4 c -3 7 c 0 15 c 3 8 c 4 4 c 8 3 c 7 0 c 8 -3 c 11 -8 c 38 -38 c
0 53 c -8 -4 8484 5727 l -3 -11 c 0 -8 c 3 -11 c 12 -8 c 19 -3 c 18 0 c 16 3 c 7 8 c 4 11 c 0 4 c -4 11 c -7 8 c -12 4 c -4 0 c
-11 -4 c -7 -8 c -4 -11 c 0 -4 c 4 -11 c 7 -8 c 11 -3 c 11 -4 8499 5803 l 8 -8 c 4 -11 c 0 -4 c -4 -11 c -8 -8 c -11 -4 c -4 0 c
-11 4 c -8 8 c -3 11 c 0 4 c 3 11 c 8 8 c 15 4 c 19 0 c 19 -4 c 11 -8 c 4 -11 c 0 -8 c -4 -11 c -7 -4 c 0 -250 8940 1837 l
-8 -3 8908 1957 l -3 -12 c 0 -7 c 3 -12 c 12 -7 c 19 -4 c 18 0 c 16 4 c 7 7 c 4 12 c 0 4 c -4 11 c -7 7 c -12 4 c -4 0 c -11 -4 c
-7 -7 c -4 -11 c 0 -4 c 4 -12 c 7 -7 c 11 -4 c -8 -4 8908 2033 l -3 -11 c 0 -8 c 3 -11 c 12 -8 c 19 -3 c 18 0 c 16 3 c 7 8 c 4 11 c
0 4 c -4 11 c -7 8 c -12 4 c -4 0 c -11 -4 c -7 -8 c -4 -11 c 0 -4 c 4 -11 c 7 -8 c 11 -3 c -8 -4 8908 2109 l -3 -11 c 0 -8 c
3 -11 c 12 -8 c 19 -4 c 18 0 c 16 4 c 7 8 c 4 11 c 0 4 c -4 11 c -7 8 c -12 3 c -4 0 c -11 -3 c -7 -8 c -4 -11 c 0 -4 c 4 -11 c
7 -8 c 11 -4 c -8 -4 8908 2184 l -3 -11 c 0 -7 c 3 -12 c 12 -7 c 19 -4 c 18 0 c 16 4 c 7 7 c 4 12 c 0 3 c -4 12 c -7 7 c -12 4 c
-4 0 c -11 -4 c -7 -7 c -4 -12 c 0 -3 c 4 -12 c 7 -7 c 11 -4 c 4 -4 8968 2218 l 4 4 c -4 4 c -4 -4 c 0 42 8897 2256 l 30 -23 c
0 11 c 4 8 c 3 4 c 12 3 c 7 0 c 12 -3 c 7 -8 c 4 -11 c 0 -12 c -4 -11 c -4 -4 c -7 -4 c 0 -37 8897 2369 l 34 -4 c -4 4 c -4 11 c
0 11 c 4 12 c 7 7 c 12 4 c 7 0 c 12 -4 c 7 -7 c 4 -12 c 0 -11 c -4 -11 c -4 -4 c -7 -4 c 11 -4 8923 2449 l 8 -8 c 4 -11 c 0 -4 c
-4 -11 c -8 -8 c -11 -3 c -4 0 c -11 3 c -8 8 c -3 11 c 0 4 c 3 11 c 8 8 c 15 4 c 19 0 c 19 -4 c 11 -8 c 4 -11 c 0 -7 c -4 -12 c
-7 -4 c 0 -250 9196 1301 l -8 -4 9164 1422 l -3 -11 c 0 -8 c 3 -11 c 12 -8 c 19 -3 c 19 0 c 15 3 c 7 8 c 4 11 c 0 4 c -4 11 c -7 8 c
-12 4 c -3 0 c -12 -4 c -7 -8 c -4 -11 c 0 -4 c 4 -11 c 7 -8 c 12 -3 c -8 -3 9164 1497 l -3 -12 c 0 -7 c 3 -12 c 12 -7 c 19 -4 c
19 0 c 15 4 c 7 7 c 4 12 c 0 4 c -4 11 c -7 7 c -12 4 c -3 0 c -12 -4 c -7 -7 c -4 -11 c 0 -4 c 4 -12 c 7 -7 c 12 -4 c
-8 -4 9164 1573 l -3 -11 c 0 -8 c 3 -11 c 12 -7 c 19 -4 c 19 0 c 15 4 c 7 7 c 4 11 c 0 4 c -4 12 c -7 7 c -12 4 c -3 0 c -12 -4 c
-7 -7 c -4 -12 c 0 -4 c 4 -11 c 7 -7 c 12 -4 c 3 -11 9153 1618 l 8 -4 c 8 0 c 7 4 c 4 8 c 4 15 c 3 11 c 8 8 c 8 3 c 11 0 c 7 -3 c
4 -4 c 4 -11 c 0 -16 c -4 -11 c -4 -4 c -7 -3 c -11 0 c -8 3 c -8 8 c -3 11 c -4 15 c -4 8 c -7 4 c -8 0 c -8 -4 c -3 -11 c 0 -16 c
4 -4 9224 1683 l 4 4 c -4 3 c -4 -3 c 3 -12 9153 1732 l 8 -3 c 8 0 c 7 3 c 4 8 c 4 15 c 3 12 c 8 7 c 8 4 c 11 0 c 7 -4 c 4 -4 c
4 -11 c 0 -15 c -4 -12 c -4 -3 c -7 -4 c -11 0 c -8 4 c -8 7 c -3 12 c -4 15 c -4 7 c -7 4 c -8 0 c -8 -4 c -3 -11 c 0 -15 c
-4 7 9168 1800 l -11 12 c 79 0 c -8 -4 9164 1913 l -3 -11 c 0 -7 c 3 -12 c 12 -7 c 19 -4 c 19 0 c 15 4 c 7 7 c 4 12 c 0 3 c -4 12 c
-7 7 c -12 4 c -3 0 c -12 -4 c -7 -7 c -4 -12 c 0 -3 c 4 -12 c 7 -7 c 12 -4 c 0 -249 9697 1275 l -8 -3 9665 1396 l -4 -12 c 0 -7 c
4 -12 c 11 -7 c 19 -4 c 19 0 c 15 4 c 8 7 c 4 12 c 0 4 c -4 11 c -8 7 c -11 4 c -4 0 c -11 -4 c -8 -7 c -4 -11 c 0 -4 c 4 -12 c
8 -7 c 11 -4 c -8 -4 9665 1472 l -4 -11 c 0 -8 c 4 -11 c 11 -8 c 19 -3 c 19 0 c 15 3 c 8 8 c 4 11 c 0 4 c -4 11 c -8 8 c -11 4 c
-4 0 c -11 -4 c -8 -8 c -4 -11 c 0 -4 c 4 -11 c 8 -8 c 11 -3 c 80 -37 9653 1551 l 0 53 9653 1498 l 0 41 9653 1582 l 30 -22 c 0 11 c
4 7 c 4 4 c 11 4 c 8 0 c 11 -4 c 8 -7 c 4 -12 c 0 -11 c -4 -11 c -4 -4 c -8 -4 c 4 -4 9725 1657 l 4 4 c -4 4 c -4 -4 c
0 -38 9653 1733 l 34 -4 c -4 4 c -3 11 c 0 12 c 3 11 c 8 8 c 11 3 c 8 0 c 11 -3 c 8 -8 c 4 -11 c 0 -12 c -4 -11 c -4 -4 c -8 -4 c
4 -11 9653 1782 l 8 -4 c 7 0 c 8 4 c 3 7 c 4 15 c 4 12 c 8 7 c 7 4 c 11 0 c 8 -4 c 4 -4 c 4 -11 c 0 -15 c -4 -11 c -4 -4 c -8 -4 c
-11 0 c -7 4 c -8 7 c -4 12 c -4 15 c -3 7 c -8 4 c -7 0 c -8 -4 c -4 -11 c 0 -15 c 4 -11 9653 1861 l 11 -8 c 19 -3 c 12 0 c 18 3 c
12 8 c 4 11 c 0 8 c -4 11 c -12 8 c -18 4 c -12 0 c -19 -4 c -11 -8 c -4 -11 c 0 -8 c
showpage PGPLOT restore
 
%%Trailer
%%DocumentFonts: 
%%Pages: 1
%%EOF
