%!PS-Adobe-3.0 EPSF-3.0
%%For: tab
%%Title: PGPLOT PostScript plot
%%Creator: PGPLOT
%%CreationDate: 20-Apr-1995 16:48
%%BoundingBox: 25 18 587 774
%%DocumentFonts: (atend)
%%LanguageLevel: 1
%%Orientation: Landscape
%%Pages: (atend)
%%EndComments
%%BeginProlog
/l {moveto rlineto currentpoint stroke moveto} bind def
/c {rlineto currentpoint stroke moveto} bind def
/d {moveto 0 0 rlineto currentpoint stroke moveto} bind def
/SLW {5 mul setlinewidth} bind def
/SCF /pop load def
/BP {newpath moveto} bind def
/LP /rlineto load def
/EP {rlineto closepath eofill} bind def
/MB {gsave translate MFAC dup scale 1 setlinewidth 2 setlinecap 0 setlinejoin newpath} bind def
/ME /grestore load def
/C {0 360 arc stroke} bind def
/FC {0 360 arc fill} bind def
%%EndProlog
 
%%Page: 1 1
%%BeginPageSetup
/PGPLOT save def
0.072 0.072 scale
8150 250 translate 90 rotate
1 setlinejoin 1 setlinecap 1 SLW 1 SCF
%%EndPageSetup
0.000 setgray 1 SLW 8939 0 780 780 l 0 6239 c -8939 0 c 0 -6239 c 0 -45 1116 780 l 0 -45 1554 780 l 0 -45 1991 780 l
0 -45 2428 780 l 0 -90 2865 780 l 0 -45 3302 780 l 0 -45 3739 780 l 0 -45 4176 780 l 0 -45 4613 780 l 0 -90 5051 780 l
0 -45 5488 780 l 0 -45 5925 780 l 0 -45 6362 780 l 0 -45 6799 780 l 0 -90 7236 780 l 0 -45 7673 780 l 0 -45 8110 780 l
0 -45 8548 780 l 0 -45 8985 780 l 0 -90 9422 780 l 0 -45 1116 7064 l 0 -45 1554 7064 l 0 -45 1991 7064 l 0 -45 2428 7064 l
0 -90 2865 7109 l 0 -45 3302 7064 l 0 -45 3739 7064 l 0 -45 4176 7064 l 0 -45 4613 7064 l 0 -90 5051 7109 l 0 -45 5488 7064 l
0 -45 5925 7064 l 0 -45 6362 7064 l 0 -45 6799 7064 l 0 -90 7236 7109 l 0 -45 7673 7064 l 0 -45 8110 7064 l 0 -45 8548 7064 l
0 -45 8985 7064 l 0 -90 9422 7109 l -60 0 2775 672 l -6 -54 c 6 6 c 18 6 c 18 0 c 18 -6 c 12 -12 c 6 -18 c 0 -12 c -6 -18 c
-12 -12 c -18 -6 c -18 0 c -18 6 c -6 6 c -6 12 c -18 -6 2859 672 l -12 -18 c -6 -30 c 0 -18 c 6 -30 c 12 -18 c 18 -6 c 12 0 c
18 6 c 12 18 c 6 30 c 0 18 c -6 30 c -12 18 c -18 6 c -12 0 c -18 -6 2979 672 l -12 -18 c -6 -30 c 0 -18 c 6 -30 c 12 -18 c 18 -6 c
12 0 c 18 6 c 12 18 c 6 30 c 0 18 c -6 30 c -12 18 c -18 6 c -12 0 c 12 6 4847 648 l 18 18 c 0 -126 c -18 -6 4985 672 l -12 -18 c
-6 -30 c 0 -18 c 6 -30 c 12 -18 c 18 -6 c 12 0 c 18 6 c 12 18 c 6 30 c 0 18 c -6 30 c -12 18 c -18 6 c -12 0 c -18 -6 5105 672 l
-12 -18 c -6 -30 c 0 -18 c 6 -30 c 12 -18 c 18 -6 c 12 0 c 18 6 c 12 18 c 6 30 c 0 18 c -6 30 c -12 18 c -18 6 c -12 0 c
-18 -6 5225 672 l -12 -18 c -6 -30 c 0 -18 c 6 -30 c 12 -18 c 18 -6 c 12 0 c 18 6 c 12 18 c 6 30 c 0 18 c -6 30 c -12 18 c -18 6 c
-12 0 c 12 6 7032 648 l 18 18 c 0 -126 c -60 0 7206 672 l -6 -54 c 6 6 c 18 6 c 18 0 c 18 -6 c 12 -12 c 6 -18 c 0 -12 c -6 -18 c
-12 -12 c -18 -6 c -18 0 c -18 6 c -6 6 c -6 12 c -18 -6 7290 672 l -12 -18 c -6 -30 c 0 -18 c 6 -30 c 12 -18 c 18 -6 c 12 0 c
18 6 c 12 18 c 6 30 c 0 18 c -6 30 c -12 18 c -18 6 c -12 0 c -18 -6 7410 672 l -12 -18 c -6 -30 c 0 -18 c 6 -30 c 12 -18 c 18 -6 c
12 0 c 18 6 c 12 18 c 6 30 c 0 18 c -6 30 c -12 18 c -18 6 c -12 0 c 0 6 9206 642 l 6 12 c 6 6 c 12 6 c 24 0 c 12 -6 c 6 -6 c
6 -12 c 0 -12 c -6 -12 c -12 -18 c -60 -60 c 84 0 c -18 -6 9356 672 l -12 -18 c -6 -30 c 0 -18 c 6 -30 c 12 -18 c 18 -6 c 12 0 c
18 6 c 12 18 c 6 30 c 0 18 c -6 30 c -12 18 c -18 6 c -12 0 c -18 -6 9476 672 l -12 -18 c -6 -30 c 0 -18 c 6 -30 c 12 -18 c 18 -6 c
12 0 c 18 6 c 12 18 c 6 30 c 0 18 c -6 30 c -12 18 c -18 6 c -12 0 c -18 -6 9596 672 l -12 -18 c -6 -30 c 0 -18 c 6 -30 c 12 -18 c
18 -6 c 12 0 c 18 6 c 12 18 c 6 30 c 0 18 c -6 30 c -12 18 c -18 6 c -12 0 c -90 0 780 829 l -45 0 780 1136 l -45 0 780 1443 l
-45 0 780 1750 l -45 0 780 2057 l -90 0 780 2363 l -45 0 780 2670 l -45 0 780 2977 l -45 0 780 3284 l -45 0 780 3591 l
-90 0 780 3898 l -45 0 780 4205 l -45 0 780 4512 l -45 0 780 4819 l -45 0 780 5126 l -90 0 780 5433 l -45 0 780 5740 l
-45 0 780 6046 l -45 0 780 6353 l -45 0 780 6660 l -90 0 780 6967 l -90 0 9809 829 l -45 0 9764 1136 l -45 0 9764 1443 l
-45 0 9764 1750 l -45 0 9764 2057 l -90 0 9809 2363 l -45 0 9764 2670 l -45 0 9764 2977 l -45 0 9764 3284 l -45 0 9764 3591 l
-90 0 9809 3898 l -45 0 9764 4205 l -45 0 9764 4512 l -45 0 9764 4819 l -45 0 9764 5126 l -90 0 9809 5433 l -45 0 9764 5740 l
-45 0 9764 6046 l -45 0 9764 6353 l -45 0 9764 6660 l -90 0 9809 6967 l 6 -18 517 823 l 18 -12 c 30 -6 c 18 0 c 30 6 c 18 12 c
6 18 c 0 12 c -6 18 c -18 12 c -30 6 c -18 0 c -30 -6 c -18 -12 c -6 -18 c 0 -12 c 0 -60 517 2213 l 54 -6 c -6 6 c -6 18 c 0 18 c
6 18 c 12 12 c 18 6 c 12 0 c 18 -6 c 12 -12 c 6 -18 c 0 -18 c -6 -18 c -6 -6 c -12 -6 c 6 -18 517 2297 l 18 -12 c 30 -6 c 18 0 c
30 6 c 18 12 c 6 18 c 0 12 c -6 18 c -18 12 c -30 6 c -18 0 c -30 -6 c -18 -12 c -6 -18 c 0 -12 c 6 -18 517 2417 l 18 -12 c 30 -6 c
18 0 c 30 6 c 18 12 c 6 18 c 0 12 c -6 18 c -18 12 c -30 6 c -18 0 c -30 -6 c -18 -12 c -6 -18 c 0 -12 c 6 -18 517 2537 l 18 -12 c
30 -6 c 18 0 c 30 6 c 18 12 c 6 18 c 0 12 c -6 18 c -18 12 c -30 6 c -18 0 c -30 -6 c -18 -12 c -6 -18 c 0 -12 c -6 12 541 3778 l
-18 18 c 126 0 c 6 -18 517 3916 l 18 -12 c 30 -6 c 18 0 c 30 6 c 18 12 c 6 18 c 0 12 c -6 18 c -18 12 c -30 6 c -18 0 c -30 -6 c
-18 -12 c -6 -18 c 0 -12 c 63 -45 453 4040 l 0 68 c 94 0 453 4040 l -6 12 541 5097 l -18 18 c 126 0 c 6 -6 631 5211 l 6 6 c -6 6 c
-6 -6 c 0 -60 517 5331 l 54 -6 c -6 6 c -6 18 c 0 18 c 6 18 c 12 12 c 18 6 c 12 0 c 18 -6 c 12 -12 c 6 -18 c 0 -18 c -6 -18 c
-6 -6 c -12 -6 c 84 84 547 5385 l 84 -84 547 5469 l -6 12 541 5529 l -18 18 c 126 0 c 6 -18 517 5667 l 18 -12 c 30 -6 c 18 0 c
30 6 c 18 12 c 6 18 c 0 12 c -6 18 c -18 12 c -30 6 c -18 0 c -30 -6 c -18 -12 c -6 -18 c 0 -12 c 63 -45 453 5791 l 0 68 c
94 0 453 5791 l -6 0 547 6709 l -12 6 c -6 6 c -6 12 c 0 24 c 6 12 c 6 6 c 12 6 c 12 0 c 12 -6 c 18 -12 c 60 -60 c 0 84 c
84 84 547 6829 l 84 -84 547 6913 l -6 12 541 6973 l -18 18 c 126 0 c 6 -18 517 7111 l 18 -12 c 30 -6 c 18 0 c 30 6 c 18 12 c 6 18 c
0 12 c -6 18 c -18 12 c -30 6 c -18 0 c -30 -6 c -18 -12 c -6 -18 c 0 -12 c 63 -45 453 7236 l 0 67 c 94 0 453 7236 l
4 -21 780 1470 l 5 -37 c 4 -11 c 4 -17 c 5 -21 c 4 -26 c 4 -22 c 5 -32 c 4 -13 c 5 -18 c 4 -12 c 4 -21 c 5 -14 c 4 -16 c 4 -15 c
5 -13 c 4 -11 c 5 -17 c 4 -6 c 4 -13 c 5 -7 c 4 -15 c 4 -4 c 5 -12 c 4 -12 c 5 -2 c 4 -10 c 4 -8 c 5 -8 c 4 1 c 4 -5 c 5 -9 c 4 -7 c
5 -6 c 4 -4 c 4 5 c 5 18 c 4 118 c 4 266 c 5 166 c 4 -107 c 4 -297 c 5 -166 c 4 -35 c 5 -1 c 4 -8 c 4 -2 c 5 0 c 4 1 c 4 0 c 5 -2 c
4 -2 c 5 -10 c 4 1 c 4 -3 c 5 -3 c 4 -4 c 4 -3 c 5 1 c 4 -2 c 5 0 c 4 -1 c 4 0 c 5 -2 c 4 -4 c 4 1 c 5 3 c 4 -2 c 5 -5 c 4 -3 c
4 2 c 5 -2 c 4 -1 c 4 -1 c 5 1 c 4 -1 c 4 -1 c 5 -4 c 4 1 c 5 -1 c 4 -2 c 4 2 c 5 0 c 4 -88 c 4 0 c 5 95 c 4 22 c 5 117 c 4 276 c
4 124 c 5 -104 c 4 -275 c 4 -149 c 5 -21 c 4 -2 c 5 -2 c 4 -1 c 4 1 c 5 -1 c 4 0 c 4 0 c 5 2 c 4 -1 c 5 -3 c 4 0 c 4 1 c 5 -2 c
4 0 c 4 -1 c 5 1 c 4 1 c 4 -3 c 5 -2 c 4 0 c 5 -2 c 4 1 c 4 -2 c 5 0 c 4 1 c 4 -1 c 5 -1 c 4 0 c 5 -2 c 4 0 c 4 1 c 5 -2 c 4 0 c
4 2 c 5 0 c 4 -1 c 5 -1 c 4 0 c 4 -1 c 5 -1 c 4 2 c 4 0 c 5 1 c 4 2 c 5 0 c 4 0 c 4 1 c 5 2 c 4 -2 c 4 -2 c 5 -3 c 4 -2 c 4 -1 c
5 0 c 4 1 c 5 -2 c 4 2 c 4 2 c 5 0 c 4 -1 c 4 -2 c 5 -1 c 4 -1 c 5 -1 c 4 1 c 4 -1 c 5 3 c 4 -3 c 4 1 c 5 -1 c 4 1 c 5 -1 c 4 1 c
4 -1 c 5 1 c 4 0 c 4 -1 c 5 1 c 4 -1 c 4 1 c 5 -2 c 4 0 c 5 -1 c 4 1 c 4 -1 c 5 0 c 4 -2 c 4 1 c 5 1 c 4 -1 c 5 0 c 4 1 c 4 -2 c
5 0 c 4 0 c 4 1 c 5 0 c 4 2 c 5 0 c 4 0 c 4 -1 c 5 -2 c 4 2 c 4 3 c 5 2 c 4 -2 c 5 -2 c 4 1 c 4 0 c 5 -1 c 4 0 c 4 -1 c 5 -1 c 4 5 c
4 3 c 5 -2 c 4 -3 c 5 -4 c 4 0 c 4 0 c 5 0 c 4 1 c 4 -1 c 5 1 c 4 -1 c 5 1 c 4 0 c 4 1 c 5 -1 c 4 4 c 4 -1 c 5 -2 c 4 -2 c 5 2 c
4 -3 c 4 1 c 5 1 c 4 -1 c 4 -1 c 5 -1 c 4 1 c 5 0 c 4 0 c 4 -2 c 5 2 c 4 0 c 4 0 c 5 0 c 4 -2 c 4 0 c 5 1 c 4 1 c 5 -1 c 4 0 c
4 -1 c 5 1 c 4 1 c 4 -1 c 5 4 c 4 3 c 5 2 c 4 -4 c 4 -3 c 5 -2 c 4 0 c 4 1 c 5 1 c 4 2 c 5 -1 c 4 -1 c 4 -1 c 5 0 c 4 0 c 4 -1 c
5 2 c 4 -2 c 5 0 c 4 1 c 4 0 c 5 0 c 4 -1 c 4 0 c 5 3 c 4 0 c 4 4 c 5 2 c 4 3 c 5 7 c 4 39 c 4 106 c 5 59 c 4 -36 c 4 -112 c 5 -58 c
4 -13 c 5 -3 c 4 1 c 4 0 c 5 1 c 4 -2 c 4 1 c 5 3 c 4 2 c 5 -2 c 4 0 c 4 -1 c 5 -2 c 4 -1 c 4 1 c 5 0 c 4 1 c 5 1 c 4 3 c 4 12 c
5 47 c 4 42 c 4 5 c 5 -52 c 4 -37 c 4 -14 c 5 -5 c 4 -2 c 5 0 c 4 0 c 4 0 c 5 1 c 4 -2 c 4 1 c 5 -1 c 4 3 c 5 5 c 4 0 c 4 -2 c
5 -4 c 4 2 c 4 1 c 5 2 c 4 2 c 5 2 c 4 -2 c 4 -2 c 5 -3 c 4 -2 c 4 1 c 5 0 c 4 -1 c 4 -1 c 5 1 c 4 5 c 5 2 c 4 0 c 4 -4 c 5 -3 c
4 0 c 4 0 c 5 1 c 4 0 c 5 -1 c 4 0 c 4 -2 c 5 1 c 4 1 c 4 -1 c 5 1 c 4 -1 c 5 0 c 4 1 c 4 0 c 5 2 c 4 -2 c 4 0 c 5 1 c 4 -2 c 5 0 c
4 3 c 4 3 c 5 3 c 4 3 c 4 -5 c 5 -1 c 4 -3 c 4 -2 c 5 0 c 4 -1 c 5 -1 c 4 1 c 4 1 c 5 1 c 4 4 c 4 3 c 5 1 c 4 -5 c 5 -5 c 4 0 c
4 13 c 5 24 c 4 5 c 4 -11 c 5 -19 c 4 -10 c 5 -1 c 4 -1 c 4 -1 c 5 2 c 4 2 c 4 2 c 5 -1 c 4 -3 c 5 -2 c 4 -2 c 4 -1 c 5 1 c 4 3 c
4 1 c 5 -3 c 4 -1 c 4 2 c 5 3 c 4 1 c 5 -2 c 4 -3 c 4 0 c 5 0 c 4 0 c 4 -3 c 5 2 c 4 -1 c 5 0 c 4 -1 c 4 1 c 5 -1 c 4 1 c 4 1 c
5 0 c 4 -2 c 5 1 c 4 -1 c 4 1 c 5 -1 c 4 2 c 4 -1 c 5 2 c 4 -2 c 5 -1 c 4 1 c 4 0 c 5 0 c 4 0 c 4 3 c 5 6 c 4 7 c 4 0 c 5 -8 c
4 -4 c 5 -2 c 4 -1 c 4 1 c 5 -2 c 4 2 c 4 -2 c 5 1 c 4 2 c 5 -3 c 4 2 c 4 7 c 5 5 c 4 1 c 4 -7 c 5 -4 c 4 0 c 5 2 c 4 4 c 4 0 c
5 -5 c 4 -4 c 4 1 c 5 0 c 4 2 c 5 1 c 4 0 c 4 1 c 5 -2 c 4 1 c 4 1 c 5 4 c 4 2 c 4 4 c 5 -6 c 4 -2 c 5 -1 c 4 -1 c 4 2 c 5 4 c 4 0 c
4 -2 c 5 -1 c 4 -2 c 5 1 c 4 0 c 4 0 c 5 1 c 4 0 c 4 0 c 5 2 c 4 -1 c 5 1 c 4 -3 c 4 1 c 5 0 c 4 0 c 4 -1 c 5 -1 c 4 1 c 4 1 c
5 -1 c 4 -1 c 5 0 c 4 2 c 4 -1 c 5 -2 c 4 1 c 4 0 c 5 1 c 4 -1 c 5 1 c 4 -2 c 4 1 c 5 0 c 4 2 c 4 -1 c 5 -2 c 4 -1 c 5 1 c 4 0 c
4 1 c 5 -1 c 4 0 c 4 -1 c 5 1 c 4 -1 c 5 0 c 4 1 c 4 1 c 5 -2 c 4 1 c 4 0 c 5 -1 c 4 1 c 4 0 c 5 1 c 4 -1 c 5 5 c 4 17 c 4 27 c
5 20 c 4 -9 c 4 -29 c 5 -21 c 4 -7 c 5 -1 c 4 -2 c 4 1 c 5 -1 c 4 0 c 4 1 c 5 0 c 4 0 c 5 -1 c 4 1 c 4 0 c 5 5 c 4 0 c 4 1 c 5 -3 c
4 -4 c 5 -1 c 4 1 c 4 1 c 5 -1 c 4 0 c 4 0 c 5 1 c 4 -1 c 4 0 c 5 1 c 4 0 c 5 1 c 4 -2 c 4 0 c 5 0 c 4 0 c 4 -1 c 5 1 c 4 -1 c 5 0 c
4 -1 c 4 1 c 5 0 c 4 0 c 4 -1 c 5 0 c 4 1 c 5 -1 c 4 1 c 4 0 c 5 -1 c 4 2 c 4 2 c 5 1 c 4 0 c 5 2 c 4 -4 c 4 -2 c 5 0 c 4 0 c 4 -1 c
5 3 c 4 -2 c 4 3 c 5 -2 c 4 0 c 5 1 c 4 1 c 4 0 c 5 3 c 4 1 c 4 -2 c 5 -2 c 4 0 c 5 -1 c 4 2 c 4 -3 c 5 1 c 4 1 c 4 2 c 5 0 c 4 0 c
5 -2 c 4 2 c 4 12 c 5 17 c 4 6 c 4 -10 c 5 -12 c 4 -10 c 4 -1 c 5 -1 c 4 1 c 5 -1 c 4 0 c 4 3 c 5 -1 c 4 0 c 4 12 c 5 14 c 4 3 c
5 -10 c 4 -8 c 4 9 c 5 11 c 4 3 c 4 -12 c 5 -11 c 4 -6 c 5 0 c 4 -2 c 4 -2 c 5 1 c 4 -2 c 4 1 c 5 1 c 4 0 c 5 0 c 4 -1 c 4 1 c 5 0 c
4 0 c 4 2 c 5 -1 c 4 0 c 4 0 c 5 -2 c 4 -1 c 5 2 c 4 1 c 4 0 c 5 1 c 4 0 c 4 -2 c 5 1 c 4 2 c 5 -2 c 4 -1 c 4 6 c 5 21 c 4 20 c
4 0 c 5 -25 c 4 -18 c 5 -7 c 4 -1 c 4 0 c 5 0 c 4 0 c 4 -1 c 5 -1 c 4 2 c 5 0 c 4 -3 c 4 1 c 5 -1 c 4 2 c 4 0 c 5 0 c 4 0 c 4 -1 c
5 -1 c 4 0 c 5 0 c 4 0 c 4 1 c 5 -2 c 4 1 c 4 1 c 5 -2 c 4 1 c 5 0 c 4 0 c 4 1 c 5 0 c 4 1 c 4 -1 c 5 0 c 4 -2 c 5 1 c 4 0 c 4 3 c
5 2 c 4 1 c 4 -1 c 5 -2 c 4 0 c 5 -1 c 4 0 c 4 -1 c 5 -1 c 4 -2 c 4 0 c 5 3 c 4 1 c 4 1 c 5 -1 c 4 -3 c 5 -1 c 4 1 c 4 1 c 5 1 c
4 0 c 4 0 c 5 0 c 4 -1 c 5 1 c 4 -1 c 4 -1 c 5 1 c 4 1 c 4 4 c 5 2 c 4 1 c 5 0 c 4 -4 c 4 -2 c 5 0 c 4 0 c 4 -1 c 5 -2 c 4 0 c 5 0 c
4 -1 c 4 -1 c 5 1 c 4 0 c 4 0 c 5 -1 c 4 1 c 4 0 c 5 1 c 4 0 c 5 0 c 4 2 c 4 -1 c 5 1 c 4 -1 c 4 0 c 5 -1 c 4 -1 c 5 4 c 4 2 c 4 0 c
5 -2 c 4 -1 c 4 0 c 5 -1 c 4 1 c 5 -1 c 4 2 c 4 -2 c 5 2 c 4 0 c 4 -1 c 5 1 c 4 1 c 4 2 c 5 3 c 4 2 c 5 -4 c 4 2 c 4 -2 c 5 1 c
4 -1 c 4 -2 c 5 1 c 4 -1 c 5 1 c 4 0 c 4 1 c 5 -1 c 4 2 c 4 6 c 5 48 c 4 132 c 5 107 c 4 -5 c 4 -135 c 5 -115 c 4 -35 c 4 -1 c
5 -1 c 4 0 c 5 -1 c 4 -1 c 4 0 c 5 0 c 4 2 c 4 -3 c 5 1 c 4 -1 c 4 1 c 5 1 c 4 -1 c 5 1 c 4 -2 c 4 0 c 5 1 c 4 0 c 4 0 c 5 1 c 4 0 c
5 1 c 4 0 c 4 0 c 5 0 c 4 0 c 4 4 c 5 3 c 4 1 c 5 -3 c 4 -3 c 4 0 c 5 0 c 4 1 c 4 8 c 5 11 c 4 7 c 5 -5 c 4 -14 c 4 -6 c 5 -5 c
4 1 c 4 0 c 5 0 c 4 -1 c 4 1 c 5 -1 c 4 0 c 5 1 c 4 0 c 4 -1 c 5 2 c 4 0 c 4 3 c 5 2 c 4 2 c 4 6114 c 2 -6043 4695 7019 l 4 -31 c
4 -7 c 5 -9 c 4 -5 c 4 -3 c 5 -2 c 4 -1 c 5 6 c 4 4 c 4 3 c 5 -8 c 4 -7 c 4 -3 c 5 0 c 4 -1 c 4 5 c 5 7 c 4 18 c 5 17 c 4 -8 c
4 -21 c 5 -16 c 4 -4 c 4 -3 c 5 -3 c 4 -1 c 5 -2 c 4 -1 c 4 1 c 5 -1 c 4 1 c 4 -1 c 5 -1 c 4 0 c 5 1 c 4 0 c 4 2 c 5 1 c 4 1 c 4 0 c
5 0 c 4 -2 c 5 -1 c 4 0 c 4 2 c 5 -3 c 4 -1 c 4 0 c 5 -1 c 4 1 c 4 9 c 5 31 c 4 28 c 5 2 c 4 -34 c 4 -28 c 5 -9 c 4 -3 c 4 2 c 5 1 c
4 -1 c 5 1 c 4 4 c 4 0 c 5 -1 c 4 -6 c 4 -1 c 5 -1 c 4 1 c 5 -2 c 4 1 c 4 1 c 5 1 c 4 -3 c 4 0 c 5 1 c 4 2 c 4 -3 c 5 0 c 4 0 c
5 0 c 4 0 c 4 -3 c 5 -2 c 4 0 c 4 0 c 5 3 c 4 1 c 5 -1 c 4 1 c 4 0 c 5 0 c 4 0 c 4 -3 c 5 -1 c 4 0 c 5 1 c 4 1 c 4 0 c 5 0 c 4 1 c
4 -1 c 5 -1 c 4 0 c 5 0 c 4 -2 c 4 1 c 5 0 c 4 1 c 4 2 c 5 1 c 4 -2 c 4 -1 c 5 3 c 4 4 c 5 10 c 4 1 c 4 -7 c 5 -6 c 4 -1 c 4 -3 c
5 0 c 4 6 c 5 46 c 4 79 c 4 37 c 5 -44 c 4 -76 c 4 -40 c 5 -8 c 4 -2 c 5 1 c 4 1 c 4 -1 c 5 1 c 4 0 c 4 -1 c 5 0 c 4 -1 c 5 -1 c
4 -2 c 4 2 c 5 2 c 4 0 c 4 1 c 5 2 c 4 0 c 4 -2 c 5 -2 c 4 -3 c 5 2 c 4 -3 c 4 1 c 5 1 c 4 -1 c 4 1 c 5 1 c 4 -1 c 5 1 c 4 2 c 4 4 c
5 5 c 4 0 c 4 -4 c 5 -8 c 4 -2 c 5 4 c 4 9 c 4 11 c 5 0 c 4 -10 c 4 -10 c 5 -5 c 4 -1 c 5 2 c 4 -2 c 4 1 c 5 0 c 4 1 c 4 -1 c 5 0 c
4 0 c 4 -1 c 5 -2 c 4 0 c 5 0 c 4 0 c 4 1 c 5 -1 c 4 4 c 4 0 c 5 3 c 4 -5 c 5 -1 c 4 -2 c 4 1 c 5 1 c 4 2 c 4 -3 c 5 -1 c 4 -2 c
5 2 c 4 2 c 4 1 c 5 1 c 4 -3 c 4 -3 c 5 -1 c 4 0 c 4 -1 c 5 0 c 4 -1 c 5 1 c 4 0 c 4 0 c 5 2 c 4 1 c 4 -1 c 5 0 c 4 1 c 5 -1 c 4 1 c
4 2 c 5 1 c 4 5 c 4 20 c 5 37 c 4 90 c 5 262 c 4 -465 c 4 811 c 5 -273 c 4 -356 c 4 -119 c 5 -11 c 4 1 c 5 1 c 4 -2 c 4 -2 c 5 1 c
4 -2 c 4 0 c 5 2 c 4 1 c 4 1 c 5 2 c 4 6 c 5 12 c 4 52 c 4 410 c 5 1078 c 4 883 c 4 -278 c 5 -1123 c 4 -825 c 5 -197 c 4 -14 c
4 -5 c 5 -2 c 4 0 c 4 -1 c 5 -1 c 4 -2 c 5 -1 c 4 1 c 4 -1 c 5 1 c 4 -1 c 4 1 c 5 1 c 4 2 c 5 -1 c 4 1 c 4 1 c 5 -1 c 4 0 c 4 -2 c
5 -4 c 4 1 c 4 -2 c 5 2 c 4 1 c 5 0 c 4 1 c 4 -1 c 5 -2 c 4 0 c 4 0 c 5 1 c 4 0 c 5 -2 c 4 1 c 4 -1 c 5 1 c 4 0 c 4 1 c 5 -1 c 4 0 c
5 1 c 4 -1 c 4 -1 c 5 0 c 4 1 c 4 -1 c 5 1 c 4 -1 c 5 2 c 4 -2 c 4 1 c 5 -1 c 4 1 c 4 -2 c 5 0 c 4 0 c 4 0 c 5 1 c 4 -1 c 5 0 c
4 0 c 4 1 c 5 -2 c 4 2 c 4 0 c 5 -1 c 4 5 c 5 4 c 4 -3 c 4 -2 c 5 -2 c 4 -1 c 4 5 c 5 6 c 4 5 c 5 -4 c 4 -6 c 4 -5 c 5 -1 c 4 0 c
4 1 c 5 1 c 4 -1 c 5 1 c 4 0 c 4 2 c 5 2 c 4 -1 c 4 -2 c 5 -1 c 4 0 c 4 0 c 5 1 c 4 0 c 5 -1 c 4 -2 c 4 -1 c 5 0 c 4 1 c 4 1 c 5 1 c
4 -2 c 5 0 c 4 1 c 4 0 c 5 1 c 4 0 c 4 1 c 5 0 c 4 1 c 5 0 c 4 2 c 4 -4 c 5 2 c 4 0 c 4 2 c 5 8 c 4 18 c 4 9 c 5 -3 c 4 -18 c
5 -11 c 4 -4 c 4 0 c 5 0 c 4 1 c 4 -1 c 5 0 c 4 -2 c 5 0 c 4 2 c 4 0 c 5 -1 c 4 0 c 4 3 c 5 0 c 4 -2 c 5 0 c 4 2 c 4 -3 c 5 3 c
4 1 c 4 -1 c 5 -1 c 4 1 c 5 0 c 4 0 c 4 0 c 5 0 c 4 1 c 4 -1 c 5 0 c 4 0 c 4 -1 c 5 0 c 4 1 c 5 1 c 4 3 c 4 -1 c 5 -1 c 4 0 c 4 2 c
5 0 c 4 1 c 5 2 c 4 -2 c 4 1 c 5 3 c 4 1 c 4 0 c 5 3 c 4 8 c 5 49 c 4 284 c 4 669 c 5 475 c 4 -204 c 4 -594 c 5 -232 c 4 51 c
5 -69 c 4 -253 c 4 -150 c 5 -29 c 4 -5 c 4 1 c 5 3 c 4 -5 c 4 0 c 5 2 c 4 -2 c 5 2 c 4 -3 c 4 1 c 5 1 c 4 -1 c 4 -2 c 5 0 c 4 1 c
5 3 c 4 0 c 4 0 c 5 -2 c 4 -2 c 4 1 c 5 0 c 4 4 c 5 -1 c 4 5 c 4 -7 c 5 0 c 4 4 c 4 -1 c 5 0 c 4 0 c 5 1 c 4 0 c 4 -5 c 5 2 c 4 3 c
4 0 c 5 3 c 4 -1 c 2 6121 c 1 -5784 6842 7019 l 4 -292 c 5 -2 c 4 -4 c 4 -8 c 5 -1 c 4 -5 c 4 0 c 5 -1 c 4 0 c 5 1 c 4 -4 c 4 -1 c
5 0 c 4 -1 c 4 -4 c 5 0 c 4 2 c 5 2 c 4 2 c 4 -1 c 5 -4 c 4 -4 c 4 -5 c 5 4 c 4 0 c 4 -1 c 5 -4 c 4 3 c 5 2 c 4 4 c 4 -4 c 5 -4 c
4 -2 c 4 0 c 5 1 c 4 -2 c 5 -3 c 4 0 c 4 -1 c 5 1 c 4 -3 c 4 1 c 5 -1 c 4 0 c 5 1 c 4 -2 c 4 -1 c 5 1 c 4 0 c 4 0 c 5 -1 c 4 -3 c
4 2 c 5 1 c 4 14 c 5 5 c 4 -6 c 4 -10 c 5 -6 c 4 -2 c 4 2 c 5 14 c 4 20 c 5 4 c 4 -15 c 4 -23 c 5 -6 c 4 0 c 4 -2 c 5 0 c 4 -1 c
5 0 c 4 1 c 4 -1 c 5 0 c 4 0 c 4 -1 c 5 -1 c 4 1 c 5 0 c 4 -1 c 4 0 c 5 0 c 4 -1 c 4 0 c 5 0 c 4 0 c 4 -2 c 5 2 c 4 0 c 5 1 c 4 1 c
4 3 c 5 1 c 4 -4 c 4 -3 c 5 0 c 4 -1 c 5 -1 c 4 0 c 4 2 c 5 -2 c 4 -1 c 4 1 c 5 -2 c 4 1 c 5 0 c 4 -1 c 4 1 c 5 -1 c 4 2 c 4 0 c
5 0 c 4 1 c 5 -4 c 4 1 c 4 0 c 5 0 c 4 0 c 4 -1 c 5 0 c 4 -1 c 4 2 c 5 -2 c 4 1 c 5 -1 c 4 3 c 4 15 c 5 15 c 4 -1 c 4 -13 c 5 -17 c
4 -2 c 5 -1 c 4 1 c 4 5 c 5 20 c 4 26 c 4 0 c 5 -17 c 4 -22 c 5 4 c 4 1 c 4 -7 c 5 -11 c 4 -1 c 4 0 c 5 1 c 4 -1 c 5 1 c 4 -1 c
4 1 c 5 -1 c 4 1 c 4 3 c 5 2 c 4 1 c 4 -2 c 5 3 c 4 8 c 5 13 c 4 10 c 4 -4 c 5 -19 c 4 -12 c 4 -4 c 5 0 c 4 0 c 5 1 c 4 3 c 4 0 c
5 -1 c 4 -2 c 4 0 c 5 -1 c 4 2 c 5 -1 c 4 -1 c 4 0 c 5 -1 c 4 5 c 4 18 c 5 32 c 4 9 c 5 -19 c 4 -32 c 4 -10 c 5 -1 c 4 -1 c 4 -1 c
5 0 c 4 1 c 4 3 c 5 2 c 4 0 c 5 -4 c 4 0 c 4 -1 c 5 2 c 4 -2 c 4 -1 c 5 1 c 4 0 c 5 0 c 4 0 c 4 0 c 5 -1 c 4 1 c 4 0 c 5 -1 c 4 1 c
5 0 c 4 0 c 4 4 c 5 -2 c 4 1 c 4 -2 c 5 -1 c 4 -1 c 4 0 c 5 0 c 4 0 c 5 1 c 4 -1 c 4 0 c 5 0 c 4 1 c 4 0 c 5 0 c 4 0 c 5 0 c 4 1 c
4 -3 c 5 1 c 4 0 c 4 0 c 5 1 c 4 3 c 5 16 c 4 20 c 4 -3 c 5 -15 c 4 -19 c 4 -3 c 5 -1 c 4 0 c 5 2 c 4 6 c 4 22 c 5 21 c 4 -3 c
4 -21 c 5 -21 c 4 2 c 4 34 c 5 94 c 4 88 c 5 -8 c 4 -109 c 4 -86 c 5 -17 c 4 -1 c 4 -3 c 5 -1 c 4 0 c 5 -2 c 4 1 c 4 1 c 5 0 c
4 -1 c 4 1 c 5 -1 c 4 0 c 5 1 c 4 -1 c 4 -1 c 5 2 c 4 -2 c 4 0 c 5 1 c 4 -1 c 5 0 c 4 1 c 4 -1 c 5 0 c 4 0 c 4 1 c 5 -1 c 4 0 c
4 3 c 5 1 c 4 8 c 5 18 c 4 4 c 4 -10 c 5 -16 c 4 -6 c 4 0 c 5 0 c 4 2 c 5 -3 c 4 3 c 4 -2 c 5 1 c 4 0 c 4 0 c 5 0 c 4 1 c 5 0 c
4 1 c 4 4 c 5 6 c 4 4 c 4 0 c 5 -5 c 4 -3 c 5 -1 c 4 0 c 4 1 c 5 3 c 4 5 c 4 16 c 5 99 c 4 601 c 4 1728 c 5 1389 c 4 -540 c
5 -1806 c 4 -1306 c 4 -158 c 5 -18 c 4 -8 c 4 -4 c 5 -3 c 4 0 c 5 1 c 4 3 c 4 -1 c 5 -3 c 4 -3 c 4 -2 c 5 0 c 4 -1 c 5 1 c 4 -1 c
4 -1 c 5 0 c 4 0 c 4 -1 c 5 -1 c 4 0 c 4 1 c 5 -1 c 4 0 c 5 1 c 4 0 c 4 0 c 5 1 c 4 -1 c 4 -2 c 5 0 c 4 0 c 5 0 c 4 0 c 4 -1 c 5 1 c
4 -1 c 4 0 c 5 1 c 4 -1 c 5 -1 c 4 0 c 4 2 c 5 -1 c 4 -1 c 4 1 c 5 0 c 4 -1 c 5 1 c 4 -1 c 4 1 c 5 -2 c 4 2 c 4 0 c 5 0 c 4 -2 c
4 2 c 5 0 c 4 -1 c 5 -1 c 4 0 c 4 0 c 5 0 c 4 0 c 4 1 c 5 -1 c 4 0 c 5 -1 c 4 0 c 4 1 c 5 2 c 4 2 c 4 -2 c 5 -1 c 4 0 c 5 -1 c
4 -1 c 4 0 c 5 1 c 4 -1 c 4 -1 c 5 1 c 4 -1 c 5 1 c 4 0 c 4 2 c 5 6 c 4 19 c 4 14 c 5 -6 c 4 -18 c 4 -16 c 5 -1 c 4 0 c 5 -1 c 4 0 c
4 1 c 5 0 c 4 0 c 4 2 c 5 0 c 4 1 c 5 -1 c 4 1 c 4 -1 c 5 -1 c 4 1 c 4 -2 c 5 1 c 4 2 c 5 0 c 4 -1 c 4 -3 c 5 -1 c 4 0 c 4 0 c 5 2 c
4 0 c 5 0 c 4 0 c 4 3 c 5 6 c 4 0 c 4 -4 c 5 -6 c 4 -2 c 4 0 c 5 0 c 4 1 c 5 -1 c 4 0 c 4 0 c 5 1 c 4 -1 c 4 1 c 5 0 c 4 -1 c 5 1 c
4 0 c 4 0 c 5 -1 c 4 -1 c 4 1 c 5 1 c 4 -1 c 5 0 c 4 0 c 4 0 c 5 0 c 4 0 c 4 -1 c 5 0 c 4 1 c 5 -1 c 4 1 c 4 -1 c 5 0 c 4 1 c 4 -1 c
5 1 c 4 0 c 4 0 c 5 0 c 4 0 c 5 0 c 4 0 c 4 0 c 5 0 c 4 -1 c 4 0 c 5 1 c 4 -1 c 5 1 c 4 -1 c 4 1 c 5 0 c 4 2 c 4 0 c 5 0 c 4 -2 c
5 -1 c 4 1 c 4 0 c 5 0 c 4 -1 c 4 1 c 5 -1 c 4 1 c 4 -1 c 5 1 c 4 0 c 5 1 c 4 -1 c 4 0 c 5 0 c 4 -1 c 4 1 c 5 0 c 4 1 c 5 -1 c
4 -1 c 4 0 c 5 -1 c 4 1 c 4 0 c 5 1 c 4 -2 c 5 -1 c 4 1 c 4 0 c 5 0 c 4 1 c 4 0 c 5 0 c 4 0 c 5 -1 c 4 0 c 4 0 c 5 0 c 4 0 c 4 1 c
5 0 c 4 -1 c 4 1 c 5 -1 c 4 -1 c 5 0 c 4 3 c 4 -2 c 5 0 c 4 -1 c 4 0 c 5 2 c 4 -2 c 5 2 c 4 1 c 4 1 c 5 -1 c 4 -1 c 4 0 c 5 0 c
1 6163 c 3 -6005 9366 7019 l 5 -58 c 4 -8 c 5 -10 c 4 -1 c 4 -7 c 5 -2 c 4 -3 c 4 -1 c 5 -3 c 4 -4 c 4 -1 c 5 0 c 4 -2 c 5 -1 c
4 -3 c 4 -1 c 5 -1 c 4 0 c 4 -2 c 5 -1 c 4 -2 c 5 1 c 4 -2 c 4 -1 c 5 -1 c 4 -1 c 4 3 c 5 -4 c 4 0 c 5 -3 c 4 2 c 4 -2 c 5 0 c
4 -1 c 4 1 c
5 2 c 4 2 c 5 5 c 4 9 c 4 -84 c 5 0 c 4 65 c 4 -1 c 5 -4 c 4 1 c 4 1 c 5 -3 c 4 -1 c 5 0 c 4 1 c 4 -2 c 5 1 c 4 -2 c 4 0 c 5 0 c
4 0 c 5 -1 c 4 -1 c 4 -1 c 5 -1 c 4 1 c 4 0 c 5 -1 c 4 3 c 5 -2 c 4 1 c 4 -1 c 5 -1 c 4 0 c 4 -1 c 5 4 c 4 6 c 5 13 c 4 0 c 4 -6 c
5 -14 c 4 -3 c 4 -1 c 5 -1 c 4 0 c
0 -126 3303 418 l 54 0 3303 418 l 18 -6 c 6 -6 c 6 -12 c 0 -12 c -6 -12 c -6 -6 c -18 -6 c -54 0 c 42 -66 3345 358 l
-12 -6 3453 376 l -12 -12 c -6 -18 c 0 -12 c 6 -18 c 12 -12 c 12 -6 c 18 0 c 12 6 c 12 12 c 6 18 c 0 12 c -6 18 c -12 12 c -12 6 c
-18 0 c 24 -84 3537 376 l -24 -84 3585 376 l 24 -84 3585 376 l -24 -84 3633 376 l 108 0 3675 364 l 108 0 3675 328 l 12 6 3939 394 l
18 18 c 0 -126 c -6 -18 4119 376 l -12 -12 c -18 -6 c -6 0 c -18 6 c -12 12 c -6 18 c 0 6 c 6 18 c 12 12 c 18 6 c 6 0 c 18 -6 c
12 -12 c 6 -24 c 0 -30 c -6 -30 c -12 -18 c -18 -6 c -12 0 c -18 6 c -6 12 c -12 -6 4287 376 l -12 -12 c -6 -18 c 0 -12 c 6 -18 c
12 -12 c 12 -6 c 18 0 c 12 6 c 12 12 c 6 18 c 0 12 c -6 18 c -12 12 c -12 6 c -18 0 c -12 0 4413 418 l -12 -6 c -6 -18 c 0 -102 c
42 0 4365 376 l 0 6 4545 388 l 6 12 c 6 6 c 12 6 c 24 0 c 12 -6 c 6 -6 c 6 -12 c 0 -12 c -6 -12 c -12 -18 c -60 -60 c 84 0 c
-18 -6 4695 418 l -12 -18 c -6 -30 c 0 -18 c 6 -30 c 12 -18 c 18 -6 c 12 0 c 18 6 c 12 18 c 6 30 c 0 18 c -6 30 c -12 18 c -18 6 c
-12 0 c 12 6 5181 394 l 18 18 c 0 -126 c -6 -6 5294 376 l 6 -6 c 6 6 c -6 6 c -6 -6 5294 304 l 6 -6 c 6 6 c -6 6 c
-48 -126 5474 418 l 48 -126 5474 418 l 60 0 5444 334 l 0 -84 5552 376 l 6 18 5552 340 l 12 12 c 12 6 c 18 0 c -12 12 5696 358 l
-12 6 c -18 0 c -12 -6 c -12 -12 c -6 -18 c 0 -12 c 6 -18 c 12 -12 c 12 -6 c 18 0 c 12 6 c 12 12 c 108 0 5738 346 l 12 6 5906 394 l
18 18 c 0 -126 c 66 0 6020 418 l -36 -48 c 18 0 c 12 -6 c 6 -6 c 6 -18 c 0 -12 c -6 -18 c -12 -12 c -18 -6 c -18 0 c -18 6 c -6 6 c
-6 12 c -6 -18 6206 376 l -12 -12 c -18 -6 c -6 0 c -18 6 c -12 12 c -6 18 c 0 6 c 6 18 c 12 12 c 18 6 c 6 0 c 18 -6 c 12 -12 c
6 -24 c 0 -30 c -6 -30 c -12 -18 c -18 -6 c -12 0 c -18 6 c -6 12 c -6 -6 6260 304 l 6 -6 c 6 6 c -6 6 c -12 0 6350 418 l -12 -6 c
-6 -18 c 0 -102 c 42 0 6302 376 l 6 -6 6380 418 l 6 6 c -6 6 c -6 -6 c 0 -84 6386 376 l 0 -102 6440 418 l 6 -18 c 12 -6 c 12 0 c
42 0 6422 376 l -6 12 6566 358 l -18 6 c -18 0 c -18 -6 c -6 -12 c 6 -12 c 12 -6 c 30 -6 c 12 -6 c 6 -12 c 0 -6 c -6 -12 c -18 -6 c
-18 0 c -18 6 c -6 12 c 0 -192 6896 442 l 0 -192 6902 442 l 42 0 6896 442 l 42 0 6896 250 l 0 6 6980 388 l 6 12 c 6 6 c 12 6 c
24 0 c 12 -6 c 6 -6 c 6 -12 c 0 -12 c -6 -12 c -12 -18 c -60 -60 c 84 0 c -6 -6 7106 376 l 6 -6 c 6 6 c -6 6 c -6 -6 7106 304 l
6 -6 c 6 6 c -6 6 c 0 -192 7286 442 l 0 -192 7292 442 l 42 0 7250 442 l 42 0 7250 250 l
0 -250 955 2016 l 80 -38 911 2141 l 0 53 911 2088 l 80 -37 911 2216 l 0 53 911 2163 l -3 0 930 2243 l -8 4 c -4 3 c -4 8 c 0 15 c
4 8 c 4 3 c 8 4 c 7 0 c 8 -4 c 11 -7 c 38 -38 c 0 53 c 4 -12 911 2334 l 8 -4 c 7 0 c 8 4 c 4 8 c 3 15 c 4 11 c 8 8 c 7 4 c 12 0 c
7 -4 c 4 -4 c 4 -11 c 0 -15 c -4 -12 c -4 -4 c -7 -3 c -12 0 c -7 3 c -8 8 c -4 11 c -3 15 c -4 8 c -8 4 c -7 0 c -8 -4 c -4 -11 c
0 -15 c 4 -4 983 2398 l 4 4 c -4 4 c -4 -4 c 11 -4 938 2477 l 8 -7 c 4 -12 c 0 -3 c -4 -12 c -8 -7 c -11 -4 c -4 0 c -11 4 c -8 7 c
-4 12 c 0 3 c 4 12 c 8 7 c 15 4 c 19 0 c 19 -4 c 11 -7 c 4 -12 c 0 -7 c -4 -11 c -7 -4 c 0 -38 911 2549 l 34 -4 c -3 4 c -4 11 c
0 12 c 4 11 c 7 8 c 12 3 c 7 0 c 12 -3 c 7 -8 c 4 -11 c 0 -12 c -4 -11 c -4 -4 c -7 -3 c -4 7 927 2591 l -12 11 c 80 0 c
0 -250 1173 1900 l 79 -37 1130 2024 l 0 52 1130 1972 l 79 -38 1130 2100 l 0 53 1130 2047 l 0 42 1130 2130 l 30 -23 c 0 12 c 4 7 c
4 4 c 11 4 c 8 0 c 11 -4 c 7 -8 c 4 -11 c 0 -11 c -4 -12 c -3 -3 c -8 -4 c -4 7 1145 2210 l -11 12 c 79 0 c 3 -3 1202 2281 l 4 3 c
-4 4 c -3 -4 c 79 -38 1130 2365 l 0 53 1130 2312 l 0 41 1130 2395 l 30 -22 c 0 11 c 4 8 c 4 3 c 11 4 c 8 0 c 11 -4 c 7 -7 c 4 -11 c
0 -12 c -4 -11 c -3 -4 c -8 -4 c 12 -4 1156 2512 l 7 -7 c 4 -12 c 0 -3 c -4 -12 c -7 -7 c -12 -4 c -3 0 c -12 4 c -7 7 c -4 12 c
0 3 c 4 12 c 7 7 c 15 4 c 19 0 c 19 -4 c 11 -7 c 4 -12 c 0 -7 c -4 -12 c -7 -3 c 0 -250 2026 1542 l 79 -38 1983 1667 l
0 53 1983 1614 l 79 -38 1983 1742 l 0 53 1983 1689 l 52 -38 1983 1803 l 0 57 c 79 0 1983 1803 l -3 0 2001 1844 l -8 4 c -4 4 c
-3 7 c 0 15 c 3 8 c 4 4 c 8 4 c 7 0 c 8 -4 c 11 -8 c 38 -38 c 0 53 c 4 -4 2054 1924 l 4 4 c -4 3 c -4 -3 c 0 -38 1983 1999 l 34 -3 c
-4 3 c -4 12 c 0 11 c 4 11 c 7 8 c 12 4 c 7 0 c 12 -4 c 7 -8 c 4 -11 c 0 -11 c -4 -12 c -4 -3 c -7 -4 c -8 -4 1994 2079 l -3 -12 c
0 -7 c 3 -11 c 12 -8 c 19 -4 c 18 0 c 16 4 c 7 8 c 4 11 c 0 4 c -4 11 c -7 8 c -12 3 c -4 0 c -11 -3 c -7 -8 c -4 -11 c 0 -4 c
4 -11 c 7 -8 c 11 -4 c 0 41 1983 2113 l 30 -23 c 0 12 c 4 7 c 3 4 c 12 4 c 7 0 c 12 -4 c 7 -7 c 4 -12 c 0 -11 c -4 -11 c -4 -4 c
-7 -4 c 0 -250 3560 1363 l 80 -38 3516 1488 l 0 53 3516 1435 l 80 -37 3516 1563 l 0 53 3516 1510 l -8 -4 3528 1635 l -4 -11 c 0 -8 c
4 -11 c 11 -7 c 19 -4 c 19 0 c 15 4 c 8 7 c 4 11 c 0 4 c -4 12 c -8 7 c -11 4 c -4 0 c -11 -4 c -8 -7 c -4 -12 c 0 -4 c 4 -11 c
8 -7 c 11 -4 c -3 7 3531 1673 l -12 12 c 80 0 c 4 -4 3588 1745 l 4 4 c -4 4 c -4 -4 c 80 -38 3516 1828 l 0 53 3516 1775 l
-3 7 3531 1862 l -12 12 c 80 0 c 0 41 3516 1934 l 30 -22 c 0 11 c 4 7 c 4 4 c 11 4 c 8 0 c 11 -4 c 8 -7 c 4 -12 c 0 -11 c -4 -11 c
-4 -4 c -8 -4 c 0 -250 4392 1626 l 79 -37 4349 1750 l 0 53 4349 1697 l 79 -38 4349 1826 l 0 53 4349 1773 l 79 -38 4349 1902 l
0 53 4349 1849 l -4 7 4364 1936 l -11 11 c 79 0 c 3 -3 4421 2007 l 4 3 c -4 4 c -3 -4 c 11 -4 4375 2087 l 8 -8 c 4 -11 c 0 -4 c
-4 -11 c -8 -8 c -11 -3 c -4 0 c -11 3 c -8 8 c -3 11 c 0 4 c 3 11 c 8 8 c 15 4 c 19 0 c 19 -4 c 11 -8 c 4 -11 c 0 -8 c -4 -11 c
-7 -4 c 53 -38 4349 2151 l 0 57 c 79 0 4349 2151 l 79 -38 4349 2242 l 0 53 4349 2189 l 0 -250 4780 1396 l 79 -38 4737 1521 l
0 53 4737 1468 l 79 -38 4737 1596 l 0 53 4737 1543 l 79 -38 4737 1672 l 0 53 4737 1619 l -8 -4 4748 1744 l -3 -11 c 0 -8 c 3 -11 c
12 -8 c 19 -4 c 18 0 c 16 4 c 7 8 c 4 11 c 0 4 c -4 11 c -7 8 c -12 3 c -4 0 c -11 -3 c -7 -8 c -4 -11 c 0 -4 c 4 -11 c 7 -8 c
11 -4 c 4 -4 4808 1778 l 4 4 c -4 3 c -4 -3 c -8 -4 4748 1857 l -3 -11 c 0 -8 c 3 -11 c 12 -8 c 19 -3 c 18 0 c 16 3 c 7 8 c 4 11 c
0 4 c -4 12 c -7 7 c -12 4 c -4 0 c -11 -4 c -7 -7 c -4 -12 c 0 -4 c 4 -11 c 7 -8 c 11 -3 c 79 -37 4737 1936 l 0 52 4737 1884 l
0 41 4737 1967 l 30 -22 c 0 11 c 4 7 c 3 4 c 12 4 c 7 0 c 12 -4 c 7 -7 c 4 -12 c 0 -11 c -4 -11 c -4 -4 c -7 -4 c 0 -250 4930 1406 l
79 -37 4887 1530 l 0 53 4887 1477 l 79 -38 4887 1606 l 0 53 4887 1553 l 79 -38 4887 1682 l 0 53 4887 1629 l 3 -11 4887 1723 l 8 -4 c
8 0 c 7 4 c 4 7 c 4 15 c 3 12 c 8 7 c 8 4 c 11 0 c 7 -4 c 4 -3 c 4 -12 c 0 -15 c -4 -11 c -4 -4 c -7 -4 c -11 0 c -8 4 c -8 8 c
-3 11 c -4 15 c -4 8 c -7 3 c -8 0 c -8 -3 c -3 -12 c 0 -15 c 4 -3 4958 1787 l 4 3 c -4 4 c -4 -4 c 53 -37 4887 1855 l 0 56 c
79 0 4887 1855 l 11 -3 4913 1942 l 8 -8 c 4 -11 c 0 -4 c -4 -11 c -8 -8 c -11 -4 c -4 0 c -11 4 c -8 8 c -3 11 c 0 4 c 3 11 c 8 8 c
15 3 c 19 0 c 19 -3 c 11 -8 c 4 -11 c 0 -8 c -4 -11 c -7 -4 c -4 0 4906 1973 l -8 3 c -4 4 c -3 8 c 0 15 c 3 7 c 4 4 c 8 4 c 7 0 c
8 -4 c 11 -7 c 38 -38 c 0 53 c 0 -250 5247 1494 l 79 -38 5204 1619 l 0 53 5204 1566 l 79 -38 5204 1694 l 0 53 5204 1641 l
3 -12 5204 1736 l 8 -3 c 7 0 c 8 3 c 4 8 c 4 15 c 3 11 c 8 8 c 7 4 c 12 0 c 7 -4 c 4 -4 c 4 -11 c 0 -15 c -4 -12 c -4 -3 c -7 -4 c
-12 0 c -7 4 c -8 7 c -3 12 c -4 15 c -4 7 c -8 4 c -7 0 c -8 -4 c -3 -11 c 0 -15 c -3 0 5222 1796 l -8 4 c -4 4 c -3 7 c 0 15 c
3 8 c 4 4 c 8 4 c 7 0 c 8 -4 c 11 -8 c 38 -38 c 0 53 c 4 -4 5275 1876 l 4 4 c -4 3 c -4 -3 c 0 42 5204 1913 l 30 -23 c 0 12 c 4 7 c
3 4 c 12 4 c 7 0 c 12 -4 c 7 -8 c 4 -11 c 0 -11 c -4 -12 c -4 -3 c -7 -4 c -4 7 5219 1993 l -11 12 c 79 0 c -8 -4 5215 2106 l
-3 -11 c 0 -8 c 3 -11 c 12 -7 c 19 -4 c 18 0 c 16 4 c 7 7 c 4 11 c 0 4 c -4 12 c -7 7 c -12 4 c -4 0 c -11 -4 c -7 -7 c -4 -12 c
0 -4 c 4 -11 c 7 -7 c 11 -4 c 0 -249 5799 3761 l 79 -38 5756 3886 l 0 53 5756 3833 l 79 -38 5756 3962 l 0 53 5756 3909 l
3 -11 5756 4003 l 8 -4 c 8 0 c 7 4 c 4 7 c 4 15 c 4 12 c 7 7 c 8 4 c 11 0 c 8 -4 c 3 -3 c 4 -12 c 0 -15 c -4 -11 c -3 -4 c -8 -4 c
-11 0 c -8 4 c -7 8 c -4 11 c -4 15 c -4 8 c -7 3 c -8 0 c -8 -3 c -3 -12 c 0 -15 c 3 -12 5756 4079 l 8 -3 c 8 0 c 7 3 c 4 8 c
4 15 c 4 11 c 7 8 c 8 4 c 11 0 c 8 -4 c 3 -4 c 4 -11 c 0 -15 c -4 -12 c -3 -3 c -8 -4 c -11 0 c -8 4 c -7 7 c -4 12 c -4 15 c -4 7 c
-7 4 c -8 0 c -8 -4 c -3 -11 c 0 -15 c 3 -4 5828 4143 l 4 4 c -4 4 c -3 -4 c 12 -3 5782 4222 l 7 -8 c 4 -11 c 0 -4 c -4 -11 c
-7 -8 c -12 -4 c -4 0 c -11 4 c -8 8 c -3 11 c 0 4 c 3 11 c 8 8 c 15 3 c 19 0 c 19 -3 c 11 -8 c 4 -11 c 0 -8 c -4 -11 c -7 -4 c
0 42 5756 4256 l 30 -23 c 0 12 c 4 7 c 4 4 c 11 4 c 7 0 c 12 -4 c 7 -8 c 4 -11 c 0 -11 c -4 -12 c -3 -3 c -8 -4 c 53 -38 5756 4362 l
0 57 c 79 0 5756 4362 l 0 -249 6596 2815 l 80 -38 6552 2940 l 0 53 6552 2887 l 80 -37 6552 3015 l 0 52 6552 2963 l 11 -4 6579 3087 l
8 -7 c 3 -11 c 0 -4 c -3 -12 c -8 -7 c -11 -4 c -4 0 c -11 4 c -8 7 c -4 12 c 0 4 c 4 11 c 8 7 c 15 4 c 19 0 c 19 -4 c 11 -7 c
4 -11 c 0 -8 c -4 -11 c -8 -4 c 4 -12 6552 3133 l 8 -4 c 7 0 c 8 4 c 3 8 c 4 15 c 4 11 c 8 8 c 7 4 c 12 0 c 7 -4 c 4 -4 c 4 -11 c
0 -15 c -4 -12 c -4 -4 c -7 -3 c -12 0 c -7 3 c -8 8 c -4 11 c -4 15 c -3 8 c -8 4 c -7 0 c -8 -4 c -4 -11 c 0 -15 c
4 -4 6624 3197 l 4 4 c -4 4 c -4 -4 c 0 41 6552 3235 l 30 -22 c 0 11 c 4 7 c 4 4 c 11 4 c 8 0 c 11 -4 c 8 -7 c 4 -12 c 0 -11 c
-4 -11 c -4 -4 c -7 -4 c 0 -38 6552 3348 l 34 -4 c -4 4 c -3 12 c 0 11 c 3 11 c 8 8 c 11 4 c 8 0 c 11 -4 c 8 -8 c 4 -11 c 0 -11 c
-4 -12 c -4 -4 c -7 -3 c 4 -11 6552 3397 l 8 -4 c 7 0 c 8 4 c 3 7 c 4 15 c 4 12 c 8 7 c 7 4 c 12 0 c 7 -4 c 4 -3 c 4 -12 c 0 -15 c
-4 -11 c -4 -4 c -7 -4 c -12 0 c -7 4 c -8 8 c -4 11 c -4 15 c -3 8 c -8 3 c -7 0 c -8 -3 c -4 -12 c 0 -15 c 0 -249 8269 5153 l
80 -38 8225 5278 l 0 53 8225 5225 l 4 -12 8225 5320 l 8 -3 c 7 0 c 8 3 c 4 8 c 3 15 c 4 11 c 8 8 c 7 4 c 12 0 c 7 -4 c 4 -4 c
4 -11 c 0 -15 c -4 -12 c -4 -3 c -7 -4 c -12 0 c -7 4 c -8 7 c -4 11 c -3 16 c -4 7 c -8 4 c -7 0 c -8 -4 c -4 -11 c 0 -15 c
-3 7 8240 5388 l -12 12 c 80 0 c 80 -38 8225 5505 l 0 53 8225 5452 l 4 -4 8297 5535 l 4 4 c -4 4 c -4 -4 c 80 -38 8225 5618 l
0 53 8225 5565 l -8 -4 8237 5690 l -4 -11 c 0 -8 c 4 -11 c 11 -7 c 19 -4 c 19 0 c 15 4 c 8 7 c 4 11 c 0 4 c -4 12 c -8 7 c -11 4 c
-4 0 c -11 -4 c -8 -7 c -3 -12 c 0 -4 c 3 -11 c 8 -7 c 11 -4 c 80 -37 8225 5769 l 0 52 8225 5717 l 0 -250 8675 1338 l
79 -37 8632 1462 l 0 53 8632 1409 l 4 -11 8632 1504 l 7 -4 c 8 0 c 7 4 c 4 7 c 4 15 c 4 12 c 7 7 c 8 4 c 11 0 c 8 -4 c 3 -4 c
4 -11 c 0 -15 c -4 -11 c -3 -4 c -8 -4 c -11 0 c -8 4 c -7 7 c -4 12 c -4 15 c -4 7 c -7 4 c -8 0 c -7 -4 c -4 -11 c 0 -15 c
-4 0 8651 1564 l -8 4 c -3 4 c -4 8 c 0 15 c 4 7 c 3 4 c 8 4 c 7 0 c 8 -4 c 11 -8 c 38 -37 c 0 53 c -4 0 8651 1640 l -8 4 c -3 4 c
-4 7 c 0 15 c 4 8 c 3 4 c 8 3 c 7 0 c 8 -3 c 11 -8 c 38 -38 c 0 53 c 3 -3 8704 1719 l 4 3 c -4 4 c -3 -4 c 0 42 8632 1757 l 30 -23 c
0 11 c 4 8 c 4 4 c 11 4 c 7 0 c 12 -4 c 7 -8 c 4 -11 c 0 -11 c -4 -12 c -3 -4 c -8 -3 c 4 -11 8632 1844 l 7 -4 c 8 0 c 7 4 c 4 7 c
4 15 c 4 12 c 7 7 c 8 4 c 11 0 c 8 -4 c 3 -3 c 4 -12 c 0 -15 c -4 -11 c -3 -4 c -8 -4 c -11 0 c -8 4 c -7 8 c -4 11 c -4 15 c -4 8 c
-7 3 c -8 0 c -7 -3 c -4 -12 c 0 -15 c 4 -12 8632 1920 l 7 -3 c 8 0 c 7 3 c 4 8 c 4 15 c 4 11 c 7 8 c 8 4 c 11 0 c 8 -4 c 3 -4 c
4 -11 c 0 -15 c -4 -12 c -3 -3 c -8 -4 c -11 0 c -8 4 c -7 7 c -4 12 c -4 15 c -4 7 c -7 4 c -8 0 c -7 -4 c -4 -11 c 0 -15 c
showpage PGPLOT restore
 
%%Trailer
%%DocumentFonts: 
%%Pages: 1
%%EOF
