%!PS-Adobe-3.0 EPSF-3.0
%%For: tab
%%Title: PGPLOT PostScript plot
%%Creator: PGPLOT
%%CreationDate: 20-Apr-1995 16:41
%%BoundingBox: 25 18 587 774
%%DocumentFonts: (atend)
%%LanguageLevel: 1
%%Orientation: Landscape
%%Pages: (atend)
%%EndComments
%%BeginProlog
/l {moveto rlineto currentpoint stroke moveto} bind def
/c {rlineto currentpoint stroke moveto} bind def
/d {moveto 0 0 rlineto currentpoint stroke moveto} bind def
/SLW {5 mul setlinewidth} bind def
/SCF /pop load def
/BP {newpath moveto} bind def
/LP /rlineto load def
/EP {rlineto closepath eofill} bind def
/MB {gsave translate MFAC dup scale 1 setlinewidth 2 setlinecap 0 setlinejoin newpath} bind def
/ME /grestore load def
/C {0 360 arc stroke} bind def
/FC {0 360 arc fill} bind def
%%EndProlog
 
%%Page: 1 1
%%BeginPageSetup
/PGPLOT save def
0.072 0.072 scale
8150 250 translate 90 rotate
1 setlinejoin 1 setlinecap 1 SLW 1 SCF
%%EndPageSetup
0.000 setgray 1 SLW 8939 0 780 780 l 0 6239 c -8939 0 c 0 -6239 c 0 -45 1116 780 l 0 -45 1554 780 l 0 -45 1991 780 l
0 -45 2428 780 l 0 -90 2865 780 l 0 -45 3302 780 l 0 -45 3739 780 l 0 -45 4176 780 l 0 -45 4613 780 l 0 -90 5051 780 l
0 -45 5488 780 l 0 -45 5925 780 l 0 -45 6362 780 l 0 -45 6799 780 l 0 -90 7236 780 l 0 -45 7673 780 l 0 -45 8110 780 l
0 -45 8548 780 l 0 -45 8985 780 l 0 -90 9422 780 l 0 -45 1116 7064 l 0 -45 1554 7064 l 0 -45 1991 7064 l 0 -45 2428 7064 l
0 -90 2865 7109 l 0 -45 3302 7064 l 0 -45 3739 7064 l 0 -45 4176 7064 l 0 -45 4613 7064 l 0 -90 5051 7109 l 0 -45 5488 7064 l
0 -45 5925 7064 l 0 -45 6362 7064 l 0 -45 6799 7064 l 0 -90 7236 7109 l 0 -45 7673 7064 l 0 -45 8110 7064 l 0 -45 8548 7064 l
0 -45 8985 7064 l 0 -90 9422 7109 l -60 0 2775 672 l -6 -54 c 6 6 c 18 6 c 18 0 c 18 -6 c 12 -12 c 6 -18 c 0 -12 c -6 -18 c
-12 -12 c -18 -6 c -18 0 c -18 6 c -6 6 c -6 12 c -18 -6 2859 672 l -12 -18 c -6 -30 c 0 -18 c 6 -30 c 12 -18 c 18 -6 c 12 0 c
18 6 c 12 18 c 6 30 c 0 18 c -6 30 c -12 18 c -18 6 c -12 0 c -18 -6 2979 672 l -12 -18 c -6 -30 c 0 -18 c 6 -30 c 12 -18 c 18 -6 c
12 0 c 18 6 c 12 18 c 6 30 c 0 18 c -6 30 c -12 18 c -18 6 c -12 0 c 12 6 4847 648 l 18 18 c 0 -126 c -18 -6 4985 672 l -12 -18 c
-6 -30 c 0 -18 c 6 -30 c 12 -18 c 18 -6 c 12 0 c 18 6 c 12 18 c 6 30 c 0 18 c -6 30 c -12 18 c -18 6 c -12 0 c -18 -6 5105 672 l
-12 -18 c -6 -30 c 0 -18 c 6 -30 c 12 -18 c 18 -6 c 12 0 c 18 6 c 12 18 c 6 30 c 0 18 c -6 30 c -12 18 c -18 6 c -12 0 c
-18 -6 5225 672 l -12 -18 c -6 -30 c 0 -18 c 6 -30 c 12 -18 c 18 -6 c 12 0 c 18 6 c 12 18 c 6 30 c 0 18 c -6 30 c -12 18 c -18 6 c
-12 0 c 12 6 7032 648 l 18 18 c 0 -126 c -60 0 7206 672 l -6 -54 c 6 6 c 18 6 c 18 0 c 18 -6 c 12 -12 c 6 -18 c 0 -12 c -6 -18 c
-12 -12 c -18 -6 c -18 0 c -18 6 c -6 6 c -6 12 c -18 -6 7290 672 l -12 -18 c -6 -30 c 0 -18 c 6 -30 c 12 -18 c 18 -6 c 12 0 c
18 6 c 12 18 c 6 30 c 0 18 c -6 30 c -12 18 c -18 6 c -12 0 c -18 -6 7410 672 l -12 -18 c -6 -30 c 0 -18 c 6 -30 c 12 -18 c 18 -6 c
12 0 c 18 6 c 12 18 c 6 30 c 0 18 c -6 30 c -12 18 c -18 6 c -12 0 c 0 6 9206 642 l 6 12 c 6 6 c 12 6 c 24 0 c 12 -6 c 6 -6 c
6 -12 c 0 -12 c -6 -12 c -12 -18 c -60 -60 c 84 0 c -18 -6 9356 672 l -12 -18 c -6 -30 c 0 -18 c 6 -30 c 12 -18 c 18 -6 c 12 0 c
18 6 c 12 18 c 6 30 c 0 18 c -6 30 c -12 18 c -18 6 c -12 0 c -18 -6 9476 672 l -12 -18 c -6 -30 c 0 -18 c 6 -30 c 12 -18 c 18 -6 c
12 0 c 18 6 c 12 18 c 6 30 c 0 18 c -6 30 c -12 18 c -18 6 c -12 0 c -18 -6 9596 672 l -12 -18 c -6 -30 c 0 -18 c 6 -30 c 12 -18 c
18 -6 c 12 0 c 18 6 c 12 18 c 6 30 c 0 18 c -6 30 c -12 18 c -18 6 c -12 0 c -90 0 780 780 l -45 0 780 1714 l -90 0 780 2649 l
-45 0 780 3583 l -90 0 780 4517 l -45 0 780 5452 l -90 0 780 6386 l -90 0 9809 780 l -45 0 9764 1714 l -90 0 9809 2649 l
-45 0 9764 3583 l -90 0 9809 4517 l -45 0 9764 5452 l -90 0 9809 6386 l 6 -18 517 774 l 18 -12 c 30 -6 c 18 0 c 30 6 c 18 12 c
6 18 c 0 12 c -6 18 c -18 12 c -30 6 c -18 0 c -30 -6 c -18 -12 c -6 -18 c 0 -12 c -6 0 547 2391 l -12 6 c -6 6 c -6 12 c 0 24 c
6 12 c 6 6 c 12 6 c 12 0 c 12 -6 c 18 -12 c 60 -60 c 0 84 c 84 84 547 2511 l 84 -84 547 2595 l -6 12 541 2655 l -18 18 c 126 0 c
6 -18 517 2793 l 18 -12 c 30 -6 c 18 0 c 30 6 c 18 12 c 6 18 c 0 12 c -6 18 c -18 12 c -30 6 c -18 0 c -30 -6 c -18 -12 c -6 -18 c
0 -12 c 63 -45 453 2917 l 0 68 c 94 0 453 2917 l 84 -60 517 4313 l 0 90 c 126 0 517 4313 l 84 84 547 4379 l 84 -84 547 4463 l
-6 12 541 4523 l -18 18 c 126 0 c 6 -18 517 4661 l 18 -12 c 30 -6 c 18 0 c 30 6 c 18 12 c 6 18 c 0 12 c -6 18 c -18 12 c -30 6 c
-18 0 c -30 -6 c -18 -12 c -6 -18 c 0 -12 c 63 -45 453 4786 l 0 67 c 94 0 453 4786 l -12 -6 535 6200 l -6 -18 c 0 -12 c 6 -18 c
18 -12 c 30 -6 c 30 0 c 24 6 c 12 12 c 6 18 c 0 6 c -6 18 c -12 12 c -18 6 c -6 0 c -18 -6 c -12 -12 c -6 -18 c 0 -6 c 6 -18 c
12 -12 c 18 -6 c 84 84 547 6248 l 84 -84 547 6332 l -6 12 541 6392 l -18 18 c 126 0 c 6 -18 517 6530 l 18 -12 c 30 -6 c 18 0 c
30 6 c 18 12 c 6 18 c 0 12 c -6 18 c -18 12 c -30 6 c -18 0 c -30 -6 c -18 -12 c -6 -18 c 0 -12 c 63 -45 453 6654 l 0 68 c
94 0 453 6654 l
4 1 780 793 l 5 1 c 4 1 c 4 -1 c 5 -1 c 4 -1 c 4 0 c 5 0 c 4 2 c 5 1 c 4 1 c 4 5 c 5 7 c 4 2 c 4 -7 c 5 -9 c 4 -2 c 5 0 c 4 0 c
4 0 c 5 -1 c 4 0 c 4 0 c 5 0 c 4 1 c 5 0 c 4 0 c 4 0 c 5 0 c 4 0 c 4 0 c 5 0 c 4 0 c 5 0 c 4 1 c 4 0 c 5 1 c 4 10 c 4 47 c 5 128 c
4 81 c 4 -36 c 5 -134 c 4 -81 c 5 -14 c 4 -1 c 4 1 c 5 1 c 4 0 c 4 0 c 5 -1 c 4 0 c 5 1 c 4 1 c 4 1 c 5 2 c 4 -1 c 4 -3 c 5 0 c
4 7 c 5 9 c 4 0 c 4 -6 c 5 -6 c 4 8 c 4 11 c 5 2 c 4 -14 c 5 -11 c 4 -2 c 4 -1 c 5 0 c 4 0 c 4 1 c 5 -1 c 4 1 c 4 -1 c 5 1 c 4 1 c
5 0 c 4 0 c 4 0 c 5 0 c 4 -16 c 4 0 c 5 17 c 4 0 c 5 -1 c 4 0 c 4 0 c 5 0 c 4 0 c 4 0 c 5 -1 c 4 1 c 5 0 c 4 0 c 4 0 c 5 0 c 4 -1 c
4 1 c 5 0 c 4 0 c 5 -1 c 4 1 c 4 0 c 5 1 c 4 0 c 4 1 c 5 0 c 4 0 c 4 -1 c 5 1 c 4 2 c 5 10 c 4 17 c 4 4 c 5 -11 c 4 -15 c 4 -7 c
5 0 c 4 0 c 5 -1 c 4 1 c 4 1 c 5 -1 c 4 -1 c 4 1 c 5 -1 c 4 3 c 5 2 c 4 16 c 4 20 c 5 1 c 4 -18 c 4 -17 c 5 -6 c 4 0 c 5 0 c 4 1 c
4 -1 c 5 1 c 4 1 c 4 4 c 5 6 c 4 4 c 4 -3 c 5 -9 c 4 -3 c 5 0 c 4 1 c 4 1180 c 5 4830 c 4 15 c 4 -10 c 5 -10 c 4 8 c 5 -5 c 4 -294 c
4 -5693 c 5 -8 c 4 8 c 4 19 c 5 9 c 4 -8 c 5 -19 c 4 -9 c 4 -2 c 5 -2 c 4 0 c 4 -1 c 5 2 c 4 -2 c 4 -1 c 5 1 c 4 -1 c 5 1 c 4 -1 c
4 2 c 5 -2 c 4 0 c 4 0 c 5 0 c 4 0 c 5 1 c 4 2 c 4 0 c 5 -2 c 4 0 c 4 -2 c 5 1 c 4 -1 c 5 0 c 4 -1 c 4 1 c 5 0 c 4 0 c 4 0 c 5 -1 c
4 1 c 5 0 c 4 -1 c 4 0 c 5 1 c 4 0 c 4 0 c 5 2 c 4 -2 c 4 1 c 5 3 c 4 20 c 5 77 c 4 80 c 4 12 c 5 -85 c 4 -84 c 4 -22 c 5 -2 c
4 -1 c 5 -1 c 4 0 c 4 -1 c 5 2 c 4 0 c 4 0 c 5 -2 c 4 1 c 5 1 c 4 -1 c 4 0 c 5 0 c 4 0 c 4 -1 c 5 0 c 4 0 c 5 1 c 4 0 c 4 0 c 5 0 c
4 0 c 4 0 c 5 0 c 4 1 c 4 0 c 5 1 c 4 1 c 5 0 c 4 1 c 4 0 c 5 4 c 4 11 c 4 27 c 5 25 c 4 60 c 5 141 c 4 558 c 4 1066 c 5 485 c
4 -563 c 4 -1232 c 5 -486 c 4 -79 c 5 -8 c 4 -3 c 4 -1 c 5 -3 c 4 -1 c 4 -1 c 5 -1 c 4 0 c 5 0 c 4 -1 c 4 0 c 5 0 c 4 -1 c 4 -1 c
5 0 c 4 1 c 4 -1 c 5 1 c 4 1 c 5 0 c 4 -1 c 4 -1 c 5 0 c 4 1 c 4 -1 c 5 0 c 4 1 c 5 4 c 4 6 c 4 3 c 5 -3 c 4 -4 c 4 0 c 5 -1 c
4 -3 c 5 -2 c 4 -1 c 4 -1 c 5 1 c 4 0 c 4 -1 c 5 0 c 4 1 c 5 0 c 4 -1 c 4 0 c 5 0 c 4 0 c 4 0 c 5 0 c 4 0 c 4 0 c 5 0 c 4 1 c 5 -1 c
4 0 c 4 1 c 5 -1 c 4 0 c 4 0 c 5 1 c 4 -1 c 5 1 c 4 0 c 4 0 c 5 -1 c 4 0 c 4 1 c 5 -1 c 4 0 c 5 1 c 4 0 c 4 -1 c 5 1 c 4 0 c 4 0 c
5 0 c 4 0 c 4 5691 c 5 289 c 4 41 c 5 5 c 4 2 c 4 -13 c 5 8 c 4 -44 c 4 -3 c 5 -5890 c 4 -62 c 5 -11 c 4 -2 c 4 -1 c 5 -1 c 4 1 c
4 -1 c 5 -1 c 4 0 c 5 2 c 4 2 c 4 1 c 5 -2 c 4 -3 c 4 -1 c 5 0 c 4 0 c 5 -1 c 4 0 c 4 0 c 5 0 c 4 0 c 4 -1 c 5 1 c 4 -1 c 4 1 c
5 -1 c 4 0 c 5 0 c 4 0 c 4 0 c 5 -1 c 4 0 c 4 0 c 5 1 c 4 0 c 5 -1 c 4 0 c 4 -1 c 5 0 c 4 0 c 4 0 c 5 0 c 4 0 c 5 0 c 4 0 c 4 -1 c
5 1 c 4 0 c 4 0 c 5 4 c 4 13 c 5 8 c 4 -6 c 4 -13 c 5 6005 c 4 9 c 4 0 c 5 -3 c 4 -5791 c 4 -210 c 5 -8 c 4 -2 c 5 -1 c 4 1 c 4 0 c
5 2 c 4 1 c 4 -1 c 5 -2 c 4 -2 c 5 0 c 4 -1 c 4 0 c 5 0 c 4 0 c 4 0 c 5 0 c 4 -1 c 5 0 c 4 0 c 4 0 c 5 0 c 4 0 c 4 0 c 5 -1 c 4 1 c
5 -1 c 4 0 c 4 0 c 5 0 c 4 0 c 4 1 c 5 5 c 4 7 c 4 3 c 5 -5 c 4 -7 c 5 -3 c 4 -2 c 4 1 c 5 -1 c 4 0 c 4 0 c 5 0 c 4 0 c 5 0 c 4 0 c
4 0 c 5 0 c 4 -1 c 4 0 c 5 0 c 4 0 c 5 0 c 4 -1 c 4 0 c 5 0 c 4 -1 c 4 1 c 5 1 c 4 3 c 5 1 c 4 0 c 4 0 c 5 3 c 4 2 c 4 -2 c 5 -3 c
4 -2 c 4 0 c 5 -1 c 4 -1 c 5 3 c 4 2 c 4 1 c 5 -2 c 4 -3 c 4 -2 c 5 1 c 4 1 c 5 -1 c 4 -2 c 4 -1 c 5 0 c 4 0 c 4 0 c 5 -1 c 4 1 c
5 0 c 4 0 c 4 1 c 5 2 c 4 8 c 4 18 c 5 24 c 4 7 c 4 -18 c 5 -25 c 4 -12 c 5 -4 c 4 -1 c 4 0 c 5 0 c 4 0 c 4 0 c 5 0 c 4 0 c 5 0 c
4 0 c 4 0 c 5 1 c 4 2 c 4 2 c 5 3 c 4 0 c 5 -1 c 4 -1 c 4 -3 c 5 -1 c 4 0 c 4 -1 c 5 0 c 4 0 c 5 0 c 4 0 c 4 -1 c 5 1 c 4 -1 c 4 0 c
5 0 c 4 0 c 4 1 c 5 0 c 4 0 c 5 -1 c 4 0 c 4 0 c 5 0 c 4 0 c 4 0 c 5 1 c 4 0 c 5 0 c 4 0 c 4 0 c 5 0 c 4 0 c 4 0 c 5 0 c 4 0 c 5 0 c
4 0 c 4 0 c 5 1 c 4 1 c 4 0 c 5 0 c 4 -1 c 5 1 c 4 -1 c 4 0 c 5 2 c 4 9 c 4 8 c 5 -1 c 4 -8 c 4 -6 c 5 0 c 4 1 c 5 1 c 4 -1 c 4 -1 c
5 2 c 4 1 c 4 1 c 5 2 c 4 0 c 5 2 c 4 2 c 4 3 c 5 5 c 4 6 c 4 14 c 5 30 c 4 167 c 5 1413 c 4 3888 c 4 475 c 5 -3 c 4 -3110 c
4 -2415 c 5 -392 c 4 -46 c 5 -12 c 4 -8 c 4 -4 c 5 -5 c 4 -2 c 4 -3 c 5 -1 c 4 -2 c 4 0 c 5 -1 c 4 -2 c 5 0 c 4 0 c 4 -1 c 5 -1 c
4 0 c 4 0 c 5 -1 c 4 0 c 5 0 c 4 -1 c 4 0 c 5 -1 c 4 0 c 4 0 c 5 0 c 4 0 c 5 0 c 4 -1 c 4 1 c 5 -1 c 4 0 c 4 0 c 5 -1 c 4 1 c 4 -1 c
5 0 c 4 0 c 5 1 c 4 0 c 4 -1 c 5 0 c 4 0 c 4 0 c 5 0 c 4 0 c 5 0 c 4 0 c 4 0 c 5 0 c 4 0 c 4 1 c 5 1 c 4 0 c 5 0 c 4 0 c 4 0 c
5 -1 c 4 1 c 4 -1 c 5 1 c 4 0 c 5 -1 c 4 0 c 4 0 c 5 0 c 4 1 c 4 2 c 5 1 c 4 1 c 4 -2 c 5 -2 c 4 0 c 5 -1 c 4 1 c 4 0 c 5 1 c 4 0 c
4 1 c 5 13 c 4 79 c 5 71 c 4 6 c 4 -84 c 5 -73 c 4 -12 c 4 0 c 5 0 c 4 0 c 5 0 c 4 0 c 4 0 c 5 0 c 4 0 c 4 0 c 5 0 c 4 0 c 5 1 c
4 3 c 4 4 c 5 2 c 4 -2 c 4 -4 c 5 -1 c 4 0 c 4 0 c 5 0 c 4 1 c 5 0 c 4 0 c 4 2 c 5 2 c 4 -1 c 4 -1 c 5 1 c 4 -1 c 5 1 c 4 1 c 4 0 c
5 0 c 4 1 c 4 1 c 5 0 c 4 1 c 5 0 c 4 0 c 4 0 c 5 1 c 4 2 c 4 1 c 5 1 c 4 1 c 5 0 c 4 2 c 4 0 c 5 3 c 4 2 c 4 1 c 5 1 c 4 1 c 4 6 c
5 10 c 4 8 c 5 -3 c 4 1 c 4 50 c 5 82 c 4 49 c 4 -46 c 5 -88 c 4 -40 c 5 -5 c 4 -1 c 4 1 c 5 2 c 4 7 c 4 1 c 5 2 c 4 2 c 5 3 c 4 4 c
4 1 c 5 5 c 4 5 c 4 7 c 5 5 c 4 9 c 5 8 c 4 3 c 4 2 c 5 5 c 4 7 c 4 8 c 5 6 c 4 11 c 4 5 c 5 4 c 4 10 c 5 17 c 4 12 c 4 3 c 5 13 c
4 16 c 4 10 c 5 11 c 4 22 c 5 15 c 4 8 c 4 7 c 5 26 c 4 31 c 4 32 c 5 36 c 4 29 c 5 27 c 4 9 c 4 32 c 5 52 c 4 85 c 4 109 c 5 89 c
4 26 c 4 48 c 5 122 c 4 270 c 5 264 c 4 332 c 4 520 c 5 3559 c 4 9 c 4 -3 c 5 9 c 4 -7 c 5 -5 c 4 -3 c 4 1 c 5 6 c 4 0 c 4 2 c
5 -3902 c 4 -433 c 5 -280 c 4 -204 c 4 -124 c 5 -77 c 4 -84 c 4 -77 c 5 -83 c 4 -55 c 5 -63 c 4 -44 c 4 -40 c 5 -38 c 4 -22 c
4 -28 c 5 -28 c 4 -30 c 4 -18 c 5 69 c 4 682 c 5 1365 c 4 533 c 4 -686 c 5 -1462 c 4 -561 c 4 -62 c 5 -11 c 4 -17 c 5 -12 c 4 -8 c
4 -9 c 5 -13 c 4 -17 c 4 -8 c 5 -2 c 4 -3 c 5 5 c 4 -5 c 4 -11 c 5 -20 c 4 -14 c 4 -6 c 5 -8 c 4 -6 c 5 -8 c 4 0 c 4 4 c 5 0 c
4 -6 c 4 -8 c 5 -6 c 4 -6 c 4 -1 c 5 -2 c 4 -1 c 5 -2 c 4 -4 c 4 -5 c 5 -3 c 4 -2 c 4 -3 c 5 -3 c 4 -1 c 5 -2 c 4 -2 c 4 0 c 5 -1 c
4 -3 c 4 -1 c 5 0 c 4 0 c 5 -1 c 4 -2 c 4 -2 c 5 -3 c 4 -1 c 4 -1 c 5 0 c 4 -2 c 5 -1 c 4 0 c 4 -2 c 5 -1 c 4 1 c 4 -1 c 5 -1 c
4 0 c 4 -2 c 5 0 c 4 2 c 5 8 c 4 3 c 4 -3 c 5 -9 c 4 -4 c 4 -1 c 5 0 c 4 -1 c 5 0 c 4 0 c 4 -1 c 5 -1 c 4 -1 c 4 0 c 5 1 c 4 0 c
5 3 c 4 0 c 4 -2 c 5 -3 c 4 -1 c 4 0 c 5 -1 c 4 0 c 5 0 c 4 0 c 4 0 c 5 -1 c 4 0 c 4 0 c 5 0 c 4 -1 c 4 1 c 5 0 c 4 -1 c 5 0 c 4 0 c
4 -1 c 5 1 c 4 0 c 4 0 c 5 0 c 4 -1 c 5 0 c 4 0 c 4 0 c 5 0 c 4 -1 c 4 1 c 5 0 c 4 1 c 5 0 c 4 -1 c 4 -1 c 5 0 c 4 0 c 4 0 c 5 1 c
4 0 c 4 0 c 5 0 c 4 0 c 5 1 c 4 2 c 4 1 c 5 1 c 4 4 c 4 12 c 5 82 c 4 440 c 5 557 c 4 113 c 4 -494 c 5 -554 c 4 -133 c 4 -18 c 5 4 c
4 105 c 5 355 c 4 242 c 4 -108 c 5 -361 c 4 -215 c 4 -31 c 5 -3 c 4 -1 c 5 -1 c 4 -1 c 4 -1 c 5 0 c 4 -1 c 4 0 c 5 0 c 4 0 c 4 0 c
5 0 c 4 -1 c 5 0 c 4 0 c 4 0 c 5 0 c 4 -1 c 4 0 c 5 0 c 4 0 c 5 0 c 4 1 c 4 -1 c 5 0 c 4 0 c 4 0 c 5 0 c 4 -1 c 5 0 c 4 1 c 4 0 c
5 0 c 4 0 c 4 0 c 5 -1 c 4 0 c 5 0 c 4 0 c 4 0 c 5 0 c 4 1 c 4 3 c 5 4 c 4 0 c 4 -4 c 5 -4 c 4 0 c 5 0 c 4 -1 c 4 0 c 5 1 c 4 -1 c
4 1 c 5 0 c 4 -1 c 5 0 c 4 0 c 4 2 c 5 4 c 4 2 c 4 -1 c 5 -3 c 4 -3 c 5 0 c 4 -1 c 4 0 c 5 0 c 4 0 c 4 1 c 5 -1 c 4 0 c 5 1 c 4 0 c
4 0 c 5 0 c 4 0 c 4 0 c 5 0 c 4 0 c 4 0 c 5 0 c 4 0 c 5 -1 c 4 1 c 4 -1 c 5 0 c 4 -1 c 4 1 c 5 0 c 4 1 c 5 3 c 4 1 c 4 -2 c 5 -2 c
4 -2 c 4 0 c 5 0 c 4 0 c 5 0 c 4 0 c 4 -1 c 5 1 c 4 0 c 4 1 c 5 -1 c 4 1 c 4 0 c 5 0 c 4 -1 c 5 0 c 4 1 c 4 1 c 5 1 c 4 1 c 4 -2 c
5 -1 c 4 0 c 5 1 c 4 1 c 4 1 c 5 0 c 4 -2 c 4 -1 c 5 0 c 4 0 c 5 1 c 4 -23 c 4 22 c 5 6011 c 4 24 c 4 -6 c 5 -6 c 4 -3 c 5 -5369 c
4 -631 c 4 -11 c 5 -2 c 4 0 c 4 -1 c 5 0 c 4 0 c 4 -1 c 5 0 c 4 0 c 5 -1 c 4 1 c 4 0 c 5 0 c 4 -1 c 4 -1 c 5 0 c 4 2 c 5 2 c 4 2 c
4 1 c 5 -2 c 4 -1 c 4 1 c 5 33 c 4 156 c 5 147 c 4 1 c 4 -156 c 5 5834 c 4 -3 c 4 10 c 5 -9 c 4 -5767 c 5 -236 c 4 -8 c 4 -2 c 5 0 c
4 -1 c 4 0 c 5 0 c 4 -1 c 4 0 c 5 -1 c 4 1 c 5 1 c 4 1 c 4 -1 c 5 -2 c 4 -1 c 4 0 c 5 1 c 4 0 c 5 -1 c 4 0 c 4 0 c 5 -1 c 4 1 c
4 7 c 5 6 c 4 -1 c 5 -6 c 4 -5 c 4 8 c 5 12 c 4 -1 c 4 -8 c 5 -11 c 4 -2 c 5 0 c 4 0 c 4 1 c 5 0 c 4 0 c 4 -1 c 5 0 c 4 -1 c 4 1 c
5 -1 c 4 0 c 5 0 c 4 1 c 4 0 c 5 0 c 4 -1 c 4 0 c 5 0 c 4 0 c 5 0 c 4 0 c 4 2 c 5 0 c 4 0 c 4 0 c 5 0 c 4 -1 c 5 0 c 4 -1 c 4 1 c
5 0 c 4 -1 c 4 0 c 5 1 c 4 -1 c 5 1 c 4 -1 c 4 0 c 5 0 c 4 0 c 4 1 c 5 -1 c 4 0 c 4 0 c 5 0 c 4 -1 c 5 1 c 4 0 c 4 0 c 5 -1 c 4 1 c
4 0 c 5 -1 c 4 1 c 5 0 c 4 0 c 4 0 c 5 0 c 4 1 c 4 -1 c 5 0 c 4 0 c 5 -1 c 4 0 c 4 1 c 5 -1 c 4 0 c 4 0 c 5 1 c 4 -1 c 4 0 c 5 0 c
4 0 c 5 1 c 4 -1 c 4 0 c 5 0 c 4 0 c 4 0 c 5 0 c 4 0 c 5 0 c 4 0 c 4 0 c 5 0 c 4 0 c 4 0 c 5 0 c 4 2 c 5 6 c 4 3 c 4 -2 c 5 -5 c
4 -3 c 4 0 c 5 -1 c 4 -1 c 5 0 c 4 0 c 4 0 c 5 0 c 4 0 c 4 0 c 5 0 c 4 0 c 4 0 c 5 0 c 4 -1 c 5 1 c 4 -1 c 4 1 c 5 0 c 4 0 c 4 0 c
5 1 c 4 0 c 5 -1 c 4 0 c 4 0 c 5 1 c 4 -1 c 4 1 c 5 3 c 4 6 c 5 1 c 4 -3 c 4 -6 c 5 -1 c 4 0 c 4 1 c 5 4 c 4 0 c 5 -2 c 4 -3 c
4 -1 c 5 1 c 4 2 c 4 14 c 5 20 c 4 1 c 4 -13 c 5 -19 c 4 -1 c 5 3 c 4 2 c 4 0 c 5 0 c 4 15 c 4 123 c 5 383 c 4 283 c 5 -88 c
4 -418 c 4 -256 c 5 -40 c 4 -6 c 4 -1 c 5 -2 c 4 0 c 5 -1 c 4 0 c 4 0 c 5 0 c 4 0 c 4 0 c 5 -1 c 4 0 c 5 0 c 4 0 c 4 1 c 5 -1 c
4 1 c 4 1 c 5 4 c 4 2 c 4 -1 c 5 -4 c 4 -3 c 5 0 c 4 0 c 4 1 c 5 3 c 4 7 c 4 6 c 5 -1 c 4 -10 c 5 -5 c 4 -1 c 4 1 c 5 0 c 4 0 c
4 -1 c 5 -1 c 4 1 c 5 0 c 4 -1 c 4 0 c 5 0 c 4 0 c 4 0 c 5 -1 c 4 0 c 5 0 c 4 1 c 4 0 c 5 -1 c 4 0 c 4 0 c 5 0 c 4 0 c 4 0 c 5 0 c
4 1 c 5 0 c 4 1 c 4 0 c 5 -1 c 4 1 c 4 1 c 5 0 c 4 0 c 5 -1 c 4 -1 c 4 0 c 5 1 c 4 0 c 4 0 c 5 0 c 4 0 c 5 0 c 4 0 c 4 1 c 5 -1 c
4 0 c 4 0 c 5 -1 c 4 0 c 4 0 c 5 0 c 4 0 c 5 1 c 4 1 c 4 0 c 5 -1 c 4 -1 c 4 0 c 5 0 c 4 1 c 5 -1 c 4 1 c 4 0 c 5 0 c 4 0 c 4 9 c
5 46 c 4 49 c 5 0 c 4 -45 c 4 -52 c 5 -7 c 4 0 c 4 0 c 5 0 c 4 1 c 5 0 c 4 -1 c 4 1 c 5 3 c 4 46 c 4 165 c 5 103 c 4 -23 c 4 -169 c
5 -116 c 4 -9 c 5 -1 c 4 0 c 4 1 c 5 -1 c 4 0 c 4 0 c 5 -1 c 4 0 c 5 2 c 4 3 c 4 5 c 5 1 c 4 -4 c 4 -4 c 5 -2 c 4 1 c 5 1 c 4 -1 c
4 0 c 5 -2 c 4 0 c 4 0 c 5 0 c 4 0 c 5 0 c 4 0 c 4 0 c 5 0 c 4 0 c 4 -1 c 5 1 c 4 0 c 4 1 c 5 2 c 4 1 c 5 -2 c 4 -1 c 4 -1 c 5 0 c
4 0 c 4 0 c 5 0 c 4 0 c 5 0 c 4 0 c 4 0 c 5 -1 c 4 1 c 4 1 c 5 -1 c 4 1 c 5 0 c 4 1 c 4 0 c 5 -1 c 4 -1 c 4 1 c 5 1 c 4 2 c 5 1 c
4 0 c 4 0 c 5 3 c 4 0 c 4 -1 c 5 -3 c 4 14 c 4 62 c 5 56 c 4 4 c 5 -55 c 4 -70 c 4 -12 c 5 -2 c 4 0 c 4 0 c 5 -1 c 4 1 c 5 -1 c
4 1 c 4 0 c 5 0 c 4 0 c 4 0 c 5 0 c 4 1 c 5 5 c 4 14 c 4 9 c 5 -3 c 4 -15 c 4 -10 c 5 -1 c 4 0 c 5 1 c 4 0 c 4 3 c 5 4 c 4 0 c
4 -3 c 5 -4 c 4 -1 c 4 0 c 5 1 c 4 -2 c 5 1 c 4 1 c 4 0 c 5 -1 c 4 6000 c 4 1 c 5 -811 c 4 -5059 c 5 -123 c 4 -2 c 4 -2 c 5 -1 c
4 1 c 4 0 c 5 0 c 4 2 c 5 2 c 4 1 c 4 3 c 5 47 c 4 211 c 4 367 c 5 106 c 4 -190 c 4 -396 c 5 -134 c 4 -15 c 5 -3 c 4 -1 c 4 -1 c
5 -1 c 4 0 c 4 0 c 5 -1 c 4 0 c 5 1 c 4 1 c 4 2 c 5 -3 c 4 -1 c 4 -1 c 5 0 c 4 0 c 5 0 c 4 0 c 4 0 c 5 1 c 4 -1 c 4 -1 c 5 1 c 4 0 c
5 0 c 4 -1 c 4 1 c 5 1 c 4 -2 c 4 0 c 5 0 c 4 0 c 4 1 c 5 -1 c 4 0 c 5 0 c 4 0 c 4 1 c 5 0 c 4 -1 c 4 1 c 5 -1 c 4 0 c 5 0 c 4 1 c
4 -1 c 5 0 c 4 0 c 4 1 c 5 0 c 4 0 c 5 1 c 4 0 c 4 0 c 5 1 c 4 1 c 4 1 c 5 -1 c 4 0 c 5 0 c 4 1 c 4 1 c 5 3 c 4 13 c 4 141 c 5 731 c
4 816 c 4 -16 c 5 -710 c 4 -855 c 5 -108 c 4 -11 c 4 -3 c 5 -1 c 4 -2 c 4 0 c 5 -1 c 4 0 c 5 0 c 4 0 c 4 -1 c 5 0 c 4 0 c 4 0 c
5 0 c 4 0 c 5 0 c 4 0 c 4 2 c 5 8 c 4 87 c 4 360 c 5 335 c 4 -38 c 5 -342 c 4 -360 c 4 -46 c 5 -4 c 4 0 c 4 -2 c 5 0 c 4 -1 c 4 -1 c
5 0 c 4 0 c 5 0 c 4 0 c 4 0 c 5 0 c 4 0 c 4 0 c 5 0 c 4 0 c 5 5 c 4 8 c 4 1 c 5 -4 c 4 -7 c 4 -2 c 5 5 c 4 9 c 5 1 c 4 -4 c 4 -10 c
5 -2 c 4 -1 c 4 0 c 5 0 c 4 -1 c 4 0 c 5 0 c 4 1 c 5 0 c 4 0 c 4 -1 c 5 1 c 4 0 c 4 0 c 5 0 c 4 0 c 5 0 c 4 0 c 4 0 c 5 0 c 4 0 c
4 0 c 5 1 c 4 0 c 5 1 c 4 -1 c 4 -1 c 5 0 c 4 0 c 4 1 c 5 1 c 4 -1 c 5 0 c 4 -1 c 4 0 c 5 -1 c 4 0 c 4 1 c 5 0 c 4 -1 c 4 1 c 5 -1 c
4 0 c 5 1 c 4 0 c 4 0 c 5 0 c 4 1 c 4 0 c 5 0 c 4 0 c 5 1 c 4 0 c 4 -1 c 5 0 c 4 1 c 4 0 c 5 1 c 4 0 c 5 0 c 4 1 c 4 1 c 5 2 c 4 2 c
4 2 c 5 5 c 4 11 c 5 103 c 4 547 c 4 1079 c 5 407 c 4 -395 c 4 -1172 c 5 -506 c 4 -62 c 4 -11 c 5 -5 c 4 -3 c 5 -1 c 4 -1 c 4 -1 c
5 0 c 4 0 c 4 2 c 5 2 c 4 9 c 5 87 c 4 301 c 4 276 c 5 -21 c 4 -284 c 4 -308 c 5 -58 c 4 -6 c 5 0 c 4 -2 c 4 -1 c 5 0 c 4 -1 c 4 0 c
5 -1 c 4 1 c 5 0 c 4 0 c 4 -1 c 5 2 c 4 -1 c 4 0 c 5 -1 c 4 -1 c 4 -1 c 5 0 c 4 1 c 5 -1 c 4 1 c 4 1 c 5 1 c 4 -1 c 4 0 c 5 -1 c
4 -1 c 5 0 c 4 0 c 4 0 c 5 0 c 4 0 c 4 0 c 5 0 c 4 -1 c 5 0 c 4 1 c 4 2 c 5 0 c 4 0 c 4 -2 c 5 -1 c 4 0 c 5 0 c 4 0 c 4 0 c 5 1 c
4 0 c 4 6 c 5 10 c 4 6 c 4 -3 c 5 -13 c 4 -7 c 5 0 c 4 -1 c 4 0 c 5 0 c 4 0 c 4 0 c 5 1 c 4 -1 c 5 1 c 4 1 c 4 0 c 5 0 c 4 -2 c
4 0 c 5 0 c 4 0 c 5 -1 c 4 1 c 4 0 c 5 0 c 4 1 c 4 1 c 5 6 c 4 13 c 4 12 c 5 -2 c 4 -14 c 5 -13 c 4 -4 c 4 0 c 5 0 c 4 0 c 4 0 c
5 -1 c 4 0 c 5 1 c 4 0 c 4 0 c 5 0 c 4 0 c 4 -1 c 5 0 c 4 0 c 5 0 c 4 0 c 4 0 c 5 0 c 4 0 c 4 0 c 5 -1 c 4 1 c 5 -1 c 4 1 c 4 0 c
5 2 c 4 0 c 4 0 c 5 -1 c 4 -1 c 4 -1 c 5 1 c 4 0 c 5 0 c 4 0 c 4 0 c 5 1 c 4 0 c 4 0 c 5 0 c 4 0 c 5 -1 c 4 0 c 4 0 c 5 0 c 4 0 c
4 1 c 5 -1 c 4 0 c 5 0 c 4 0 c 4 0 c 5 -1 c 4 0 c 4 1 c 5 0 c 4 -1 c 5 1 c 4 0 c 4 1 c 5 -1 c 4 1 c 4 5 c 5 5 c 4 0 c 4 -5 c 5 -5 c
4 -1 c 5 0 c 4 0 c 4 -1 c 5 1 c 4 2 c 4 1 c 5 0 c 4 -1 c 5 -2 c 4 2 c 4 5 c 5 46 c 4 118 c 4 59 c 5 -32 c 4 -111 c 5 -80 c 4 -6 c
4 -1 c 5 -1 c 4 0 c 4 0 c
5 0 c 4 0 c 5 0 c 4 0 c 4 -16 c 5 0 c 4 16 c 4 0 c 5 -1 c 4 1 c 4 -1 c 5 1 c 4 0 c 5 -1 c 4 0 c 4 0 c 5 0 c 4 0 c 4 0 c 5 0 c 4 0 c
5 0 c 4 0 c 4 0 c 5 1 c 4 0 c 4 -1 c 5 1 c 4 0 c 5 -1 c 4 -1 c 4 1 c 5 0 c 4 0 c 4 0 c 5 0 c 4 0 c 5 0 c 4 0 c 4 0 c 5 1 c 4 -1 c
4 0 c 5 0 c 4 0 c
0 -126 3303 418 l 54 0 3303 418 l 18 -6 c 6 -6 c 6 -12 c 0 -12 c -6 -12 c -6 -6 c -18 -6 c -54 0 c 42 -66 3345 358 l
-12 -6 3453 376 l -12 -12 c -6 -18 c 0 -12 c 6 -18 c 12 -12 c 12 -6 c 18 0 c 12 6 c 12 12 c 6 18 c 0 12 c -6 18 c -12 12 c -12 6 c
-18 0 c 24 -84 3537 376 l -24 -84 3585 376 l 24 -84 3585 376 l -24 -84 3633 376 l 108 0 3675 364 l 108 0 3675 328 l 12 6 3939 394 l
18 18 c 0 -126 c -60 -126 4125 418 l 84 0 4041 418 l -12 -6 4287 376 l -12 -12 c -6 -18 c 0 -12 c 6 -18 c 12 -12 c 12 -6 c 18 0 c
12 6 c 12 12 c 6 18 c 0 12 c -6 18 c -12 12 c -12 6 c -18 0 c -12 0 4413 418 l -12 -6 c -6 -18 c 0 -102 c 42 0 4365 376 l
0 6 4545 388 l 6 12 c 6 6 c 12 6 c 24 0 c 12 -6 c 6 -6 c 6 -12 c 0 -12 c -6 -12 c -12 -18 c -60 -60 c 84 0 c -18 -6 4695 418 l
-12 -18 c -6 -30 c 0 -18 c 6 -30 c 12 -18 c 18 -6 c 12 0 c 18 6 c 12 18 c 6 30 c 0 18 c -6 30 c -12 18 c -18 6 c -12 0 c
12 6 5181 394 l 18 18 c 0 -126 c -6 -6 5294 376 l 6 -6 c 6 6 c -6 6 c -6 -6 5294 304 l 6 -6 c 6 6 c -6 6 c -48 -126 5474 418 l
48 -126 5474 418 l 60 0 5444 334 l 0 -84 5552 376 l 6 18 5552 340 l 12 12 c 12 6 c 18 0 c -12 12 5696 358 l -12 6 c -18 0 c -12 -6 c
-12 -12 c -6 -18 c 0 -12 c 6 -18 c 12 -12 c 12 -6 c 18 0 c 12 6 c 12 12 c 108 0 5738 346 l 12 6 5906 394 l 18 18 c 0 -126 c
66 0 6020 418 l -36 -48 c 18 0 c 12 -6 c 6 -6 c 6 -18 c 0 -12 c -6 -18 c -12 -12 c -18 -6 c -18 0 c -18 6 c -6 6 c -6 12 c
-60 -126 6212 418 l 84 0 6128 418 l -6 -6 6260 304 l 6 -6 c 6 6 c -6 6 c -12 0 6350 418 l -12 -6 c -6 -18 c 0 -102 c 42 0 6302 376 l
6 -6 6380 418 l 6 6 c -6 6 c -6 -6 c 0 -84 6386 376 l 0 -102 6440 418 l 6 -18 c 12 -6 c 12 0 c 42 0 6422 376 l -6 12 6566 358 l
-18 6 c -18 0 c -18 -6 c -6 -12 c 6 -12 c 12 -6 c 30 -6 c 12 -6 c 6 -12 c 0 -6 c -6 -12 c -18 -6 c -18 0 c -18 6 c -6 12 c
0 -192 6896 442 l 0 -192 6902 442 l 42 0 6896 442 l 42 0 6896 250 l 0 6 6980 388 l 6 12 c 6 6 c 12 6 c 24 0 c 12 -6 c 6 -6 c 6 -12 c
0 -12 c -6 -12 c -12 -18 c -60 -60 c 84 0 c -6 -6 7106 376 l 6 -6 c 6 6 c -6 6 c -6 -6 7106 304 l 6 -6 c 6 6 c -6 6 c
0 -192 7286 442 l 0 -192 7292 442 l 42 0 7250 442 l 42 0 7250 250 l
0 -249 960 1498 l 80 -38 916 1623 l 0 53 916 1570 l 0 42 916 1653 l 31 -23 c 0 11 c 3 8 c 4 4 c 11 4 c 8 0 c 11 -4 c 8 -8 c 4 -11 c
0 -11 c -4 -12 c -4 -4 c -7 -3 c 53 -38 916 1759 l 0 57 c 80 0 916 1759 l -3 8 931 1808 l -12 11 c 80 0 c 4 -4 988 1880 l 4 4 c
-4 4 c -4 -4 c -3 7 931 1922 l -12 11 c 80 0 c 0 -38 916 2031 l 34 -3 c -3 3 c -4 12 c 0 11 c 4 11 c 7 8 c 11 4 c 8 0 c 11 -4 c
8 -8 c 4 -11 c 0 -11 c -4 -12 c -4 -3 c -7 -4 c -3 7 931 2073 l -12 12 c 80 0 c 0 -249 1713 1435 l 79 -38 1670 1560 l
0 53 1670 1507 l 0 42 1670 1590 l 30 -23 c 0 11 c 4 8 c 4 4 c 11 4 c 7 0 c 12 -4 c 7 -8 c 4 -11 c 0 -11 c -4 -12 c -3 -4 c -8 -3 c
0 -38 1670 1704 l 34 -4 c -4 4 c -4 11 c 0 12 c 4 11 c 8 7 c 11 4 c 7 0 c 12 -4 c 7 -7 c 4 -11 c 0 -12 c -4 -11 c -3 -4 c -8 -4 c
4 -12 1670 1757 l 11 -7 c 19 -4 c 11 0 c 19 4 c 11 7 c 4 12 c 0 7 c -4 11 c -11 8 c -19 4 c -11 0 c -19 -4 c -11 -8 c -4 -11 c
0 -7 c 3 -4 1742 1817 l 4 4 c -4 4 c -3 -4 c 4 -11 1670 1866 l 7 -4 c 8 0 c 7 4 c 4 7 c 4 15 c 4 12 c 7 7 c 8 4 c 11 0 c 8 -4 c
3 -3 c 4 -12 c 0 -15 c -4 -11 c -3 -4 c -8 -4 c -11 0 c -8 4 c -7 8 c -4 11 c -4 15 c -4 8 c -7 3 c -8 0 c -7 -3 c -4 -12 c 0 -15 c
-4 8 1685 1934 l -11 11 c 79 0 c 53 -38 1670 2036 l 0 57 c 79 0 1670 2036 l 0 -249 1907 3621 l 79 -38 1864 3746 l 0 53 1864 3693 l
0 42 1864 3776 l 30 -23 c 0 11 c 4 8 c 3 4 c 12 4 c 7 0 c 12 -4 c 7 -8 c 4 -11 c 0 -11 c -4 -12 c -3 -4 c -8 -3 c 0 -38 1864 3890 l
34 -4 c -4 4 c -4 11 c 0 11 c 4 12 c 7 7 c 12 4 c 7 0 c 12 -4 c 7 -7 c 4 -12 c 0 -11 c -4 -11 c -3 -4 c -8 -4 c 0 42 1864 3927 l
30 -23 c 0 12 c 4 7 c 3 4 c 12 4 c 7 0 c 12 -4 c 7 -8 c 4 -11 c 0 -11 c -4 -12 c -3 -3 c -8 -4 c 3 -4 1936 4003 l 4 4 c -4 4 c
-3 -4 c -4 0 1883 4037 l -8 4 c -4 4 c -3 7 c 0 15 c 3 8 c 4 4 c 8 3 c 7 0 c 8 -3 c 11 -8 c 38 -38 c 0 53 c 11 -4 1890 4158 l 8 -7 c
4 -12 c 0 -4 c -4 -11 c -8 -7 c -11 -4 c -4 0 c -11 4 c -8 7 c -3 11 c 0 4 c 3 12 c 8 7 c 15 4 c 19 0 c 19 -4 c 11 -7 c 4 -12 c
0 -7 c -4 -12 c -7 -3 c 0 42 1864 4192 l 30 -23 c 0 11 c 4 8 c 3 4 c 12 3 c 7 0 c 12 -3 c 7 -8 c 4 -11 c 0 -12 c -4 -11 c -3 -4 c
-8 -4 c 0 -249 3399 7019 l 80 -38 3355 7144 l 0 53 3355 7091 l 0 42 3355 7174 l 31 -23 c 0 11 c 3 8 c 4 4 c 11 3 c 8 0 c 11 -3 c
8 -8 c 4 -11 c 0 -12 c -4 -11 c -4 -4 c -7 -3 c 80 -38 3355 7295 l 0 53 3355 7242 l -4 0 3374 7321 l -7 4 c -4 4 c -4 8 c 0 15 c
4 7 c 4 4 c 7 4 c 8 0 c 8 -4 c 11 -8 c 38 -37 c 0 53 c 4 -4 3427 7401 l 4 4 c -4 4 c -4 -4 c -3 8 3370 7442 l -12 11 c 80 0 c
-3 8 3370 7518 l -12 11 c 80 0 c 4 -11 3355 7601 l 8 -4 c 7 0 c 8 4 c 4 7 c 3 15 c 4 12 c 8 7 c 7 4 c 12 0 c 7 -4 c 4 -3 c 4 -12 c
0 -15 c -4 -11 c -4 -4 c -7 -4 c -12 0 c -7 4 c -8 8 c -4 11 c -3 15 c -4 8 c -8 3 c -7 0 c -8 -3 c -4 -12 c 0 -15 c
0 -250 3781 1417 l 79 -38 3737 1541 l 0 53 3737 1488 l 0 42 3737 1571 l 30 -23 c 0 12 c 4 7 c 4 4 c 11 4 c 8 0 c 11 -4 c 8 -7 c
3 -12 c 0 -11 c -3 -12 c -4 -3 c -8 -4 c 79 -37 3737 1692 l 0 52 3737 1640 l -7 -4 3748 1764 l -4 -11 c 0 -7 c 4 -12 c 11 -7 c
19 -4 c 19 0 c 15 4 c 8 7 c 3 12 c 0 3 c -3 12 c -8 7 c -11 4 c -4 0 c -11 -4 c -8 -7 c -4 -12 c 0 -3 c 4 -12 c 8 -7 c 11 -4 c
4 -4 3809 1798 l 3 4 c -3 4 c -4 -4 c 4 -11 3737 1847 l 7 -4 c 8 0 c 8 4 c 3 8 c 4 15 c 4 11 c 7 8 c 8 3 c 11 0 c 8 -3 c 4 -4 c
3 -11 c 0 -16 c -3 -11 c -4 -4 c -8 -4 c -11 0 c -8 4 c -7 8 c -4 11 c -4 15 c -3 8 c -8 4 c -8 0 c -7 -4 c -4 -11 c 0 -16 c
79 -38 3737 1957 l 0 53 3737 1904 l 79 -38 3737 2033 l 0 53 3737 1980 l 0 -250 4478 4281 l 79 -38 4434 4406 l 0 53 4434 4353 l
0 41 4434 4436 l 30 -22 c 0 11 c 4 8 c 4 3 c 11 4 c 8 0 c 11 -4 c 8 -7 c 3 -11 c 0 -12 c -3 -11 c -4 -4 c -8 -4 c 4 -12 4434 4523 l
7 -3 c 8 0 c 7 3 c 4 8 c 4 15 c 4 11 c 7 8 c 8 4 c 11 0 c 8 -4 c 4 -4 c 3 -11 c 0 -15 c -3 -12 c -4 -3 c -8 -4 c -11 0 c -8 4 c
-7 7 c -4 12 c -4 15 c -4 7 c -7 4 c -8 0 c -7 -4 c -4 -11 c 0 -15 c 0 -38 4434 4625 l 34 -4 c -4 4 c -4 11 c 0 12 c 4 11 c 8 8 c
11 3 c 8 0 c 11 -3 c 8 -8 c 3 -11 c 0 -12 c -3 -11 c -4 -4 c -8 -4 c 4 -4 4506 4663 l 3 4 c -3 3 c -4 -3 c 0 -38 4434 4738 l 34 -3 c
-4 3 c -4 12 c 0 11 c 4 11 c 8 8 c 11 4 c 8 0 c 11 -4 c 8 -8 c 3 -11 c 0 -11 c -3 -12 c -4 -3 c -8 -4 c 4 -11 4434 4791 l 11 -8 c
19 -4 c 11 0 c 19 4 c 12 8 c 3 11 c 0 8 c -3 11 c -12 8 c -19 3 c -11 0 c -19 -3 c -11 -8 c -4 -11 c 0 -8 c -4 8 4449 4855 l
-11 11 c 79 0 c 0 -249 5088 2458 l 79 -38 5045 2583 l 0 53 5045 2530 l 0 42 5045 2613 l 30 -23 c 0 12 c 4 7 c 4 4 c 11 4 c 7 0 c
12 -4 c 7 -8 c 4 -11 c 0 -11 c -4 -12 c -3 -3 c -8 -4 c 12 -4 5071 2731 l 7 -8 c 4 -11 c 0 -4 c -4 -11 c -7 -8 c -12 -4 c -4 0 c
-11 4 c -7 8 c -4 11 c 0 4 c 4 11 c 7 8 c 15 4 c 19 0 c 19 -4 c 11 -8 c 4 -11 c 0 -8 c -4 -11 c -7 -4 c -4 0 5064 2761 l -8 4 c
-3 3 c -4 8 c 0 15 c 4 8 c 3 3 c 8 4 c 7 0 c 8 -4 c 11 -7 c 38 -38 c 0 53 c 3 -4 5117 2840 l 4 4 c -4 4 c -3 -4 c 12 -4 5071 2920 l
7 -8 c 4 -11 c 0 -4 c -4 -11 c -7 -8 c -12 -4 c -4 0 c -11 4 c -7 8 c -4 11 c 0 4 c 4 11 c 7 8 c 15 4 c 19 0 c 19 -4 c 11 -8 c
4 -11 c 0 -8 c -4 -11 c -7 -4 c 4 -11 5045 2965 l 7 -4 c 8 0 c 7 4 c 4 7 c 4 15 c 4 12 c 7 7 c 8 4 c 11 0 c 8 -4 c 3 -4 c 4 -11 c
0 -15 c -4 -11 c -3 -4 c -8 -4 c -11 0 c -8 4 c -7 7 c -4 12 c -4 15 c -4 7 c -7 4 c -8 0 c -7 -4 c -4 -11 c 0 -15 c
4 -11 5045 3044 l 11 -8 c 19 -3 c 11 0 c 19 3 c 11 8 c 4 11 c 0 8 c -4 11 c -11 8 c -19 3 c -11 0 c -19 -3 c -11 -8 c -4 -11 c
0 -8 c 0 -250 6695 2053 l 79 -38 6652 2177 l 0 53 6652 2124 l 53 -38 6652 2238 l 0 57 c 79 0 6652 2238 l -4 7 6667 2287 l -11 12 c
79 0 c -4 0 6671 2355 l -8 4 c -4 3 c -3 8 c 0 15 c 3 8 c 4 3 c 8 4 c 7 0 c 8 -4 c 11 -7 c 38 -38 c 0 53 c 4 -4 6723 2434 l 4 4 c
-4 4 c -4 -4 c 0 42 6652 2472 l 30 -23 c 0 11 c 4 8 c 3 4 c 12 3 c 7 0 c 12 -3 c 7 -8 c 4 -11 c 0 -12 c -4 -11 c -4 -4 c -7 -4 c
0 41 6652 2548 l 30 -22 c 0 11 c 4 7 c 3 4 c 12 4 c 7 0 c 12 -4 c 7 -7 c 4 -12 c 0 -11 c -4 -11 c -4 -4 c -7 -4 c 79 -38 6652 2669 l
0 53 6652 2616 l 0 -249 7220 1557 l 80 -38 7176 1682 l 0 53 7176 1629 l 53 -38 7176 1743 l 0 56 c 80 0 7176 1743 l -3 7 7191 1792 l
-12 12 c 80 0 c 4 -12 7176 1875 l 8 -3 c 7 0 c 8 3 c 4 8 c 3 15 c 4 11 c 8 8 c 7 4 c 12 0 c 7 -4 c 4 -4 c 4 -11 c 0 -15 c -4 -12 c
-4 -3 c -7 -4 c -12 0 c -7 4 c -8 7 c -4 12 c -3 15 c -4 7 c -8 4 c -7 0 c -8 -4 c -4 -11 c 0 -15 c 4 -4 7248 1939 l 4 4 c -4 4 c
-4 -4 c 0 -38 7176 2015 l 34 -4 c -3 4 c -4 11 c 0 12 c 4 11 c 7 7 c 11 4 c 8 0 c 11 -4 c 8 -7 c 4 -11 c 0 -12 c -4 -11 c -4 -4 c
-7 -4 c 0 -38 7176 2090 l 34 -3 c -3 3 c -4 12 c 0 11 c 4 11 c 7 8 c 11 4 c 8 0 c 11 -4 c 8 -8 c 4 -11 c 0 -11 c -4 -12 c -4 -3 c
-7 -4 c 4 -11 7176 2143 l 11 -8 c 19 -4 c 12 0 c 19 4 c 11 8 c 4 11 c 0 8 c -4 11 c -11 8 c -19 3 c -12 0 c -19 -3 c -11 -8 c
-4 -11 c 0 -8 c 0 -249 7540 1378 l 79 -38 7497 1503 l 0 53 7497 1450 l 52 -37 7497 1563 l 0 56 c 79 0 7497 1563 l -3 0 7515 1605 l
-8 4 c -4 4 c -3 7 c 0 15 c 3 8 c 4 4 c 8 3 c 7 0 c 8 -3 c 11 -8 c 38 -38 c 0 53 c -3 0 7515 1681 l -8 3 c -4 4 c -3 8 c 0 15 c
3 7 c 4 4 c 8 4 c 7 0 c 8 -4 c 11 -7 c 38 -38 c 0 53 c 4 -4 7568 1760 l 4 4 c -4 4 c -4 -4 c 0 41 7497 1798 l 30 -22 c 0 11 c 4 8 c
3 3 c 12 4 c 7 0 c 12 -4 c 7 -7 c 4 -12 c 0 -11 c -4 -11 c -4 -4 c -7 -4 c -4 8 7512 1877 l -11 11 c 79 0 c -3 0 7515 1945 l -8 4 c
-4 4 c -3 7 c 0 15 c 3 8 c 4 4 c 8 4 c 7 0 c 8 -4 c 11 -8 c 38 -38 c 0 53 c 0 -250 7795 1983 l 80 -37 7751 2107 l 0 52 7751 2055 l
53 -38 7751 2168 l 0 57 c 80 0 7751 2168 l -3 0 7770 2210 l -8 3 c -4 4 c -4 8 c 0 15 c 4 7 c 4 4 c 8 4 c 7 0 c 8 -4 c 11 -7 c
38 -38 c 0 53 c 0 -38 7751 2327 l 34 -4 c -3 4 c -4 11 c 0 12 c 4 11 c 7 7 c 12 4 c 7 0 c 12 -4 c 7 -7 c 4 -11 c 0 -12 c -4 -11 c
-4 -4 c -7 -4 c 4 -3 7823 2364 l 4 3 c -4 4 c -4 -4 c -3 0 7770 2398 l -8 4 c -4 4 c -4 8 c 0 15 c 4 7 c 4 4 c 8 4 c 7 0 c 8 -4 c
11 -8 c 38 -37 c 0 53 c 11 -3 7778 2519 l 8 -8 c 4 -11 c 0 -4 c -4 -11 c -8 -8 c -11 -4 c -4 0 c -11 4 c -8 8 c -4 11 c 0 4 c 4 11 c
8 8 c 15 3 c 19 0 c 19 -3 c 11 -8 c 4 -11 c 0 -8 c -4 -11 c -7 -4 c 53 -38 7751 2584 l 0 57 c 80 0 7751 2584 l 0 -249 8108 2948 l
79 -38 8065 3073 l 0 53 8065 3020 l 53 -38 8065 3134 l 0 57 c 79 0 8065 3134 l -4 0 8084 3175 l -8 4 c -3 4 c -4 7 c 0 15 c 4 8 c
3 4 c 8 4 c 7 0 c 8 -4 c 11 -8 c 38 -38 c 0 53 c 4 -11 8065 3266 l 7 -4 c 8 0 c 7 4 c 4 7 c 4 15 c 4 12 c 7 7 c 8 4 c 11 0 c 8 -4 c
3 -4 c 4 -11 c 0 -15 c -4 -11 c -3 -4 c -8 -4 c -11 0 c -8 4 c -7 7 c -4 12 c -4 15 c -4 7 c -7 4 c -8 0 c -7 -4 c -4 -11 c 0 -15 c
3 -4 8137 3330 l 4 4 c -4 4 c -3 -4 c 12 -4 8091 3410 l 7 -8 c 4 -11 c 0 -4 c -4 -11 c -7 -8 c -12 -4 c -4 0 c -11 4 c -7 8 c
-4 11 c 0 4 c 4 11 c 7 8 c 15 4 c 19 0 c 19 -4 c 11 -8 c 4 -11 c 0 -8 c -4 -11 c -7 -4 c 53 -38 8065 3474 l 0 57 c 79 0 8065 3474 l
4 -11 8065 3534 l 11 -8 c 19 -3 c 11 0 c 19 3 c 11 8 c 4 11 c 0 8 c -4 11 c -11 8 c -19 3 c -11 0 c -19 -3 c -11 -8 c -4 -11 c
0 -8 c 0 -250 8222 2033 l 79 -37 8178 2157 l 0 52 8178 2105 l 53 -38 8178 2218 l 0 57 c 79 0 8178 2218 l 0 42 8178 2263 l 30 -23 c
0 12 c 4 7 c 4 4 c 11 4 c 8 0 c 11 -4 c 8 -8 c 3 -11 c 0 -11 c -3 -12 c -4 -3 c -8 -4 c 4 -11 8178 2354 l 11 -8 c 19 -4 c 11 0 c
19 4 c 12 8 c 3 11 c 0 8 c -3 11 c -12 7 c -19 4 c -11 0 c -19 -4 c -11 -7 c -4 -11 c 0 -8 c 4 -3 8250 2414 l 3 3 c -3 4 c -4 -4 c
-4 0 8197 2449 l -7 3 c -4 4 c -4 8 c 0 15 c 4 7 c 4 4 c 7 4 c 8 0 c 7 -4 c 12 -7 c 37 -38 c 0 53 c 0 -38 8178 2566 l 34 -4 c -4 4 c
-4 11 c 0 12 c 4 11 c 8 7 c 11 4 c 8 0 c 11 -4 c 8 -7 c 3 -11 c 0 -12 c -3 -11 c -4 -4 c -8 -4 c 0 42 8178 2603 l 30 -23 c 0 12 c
4 7 c 4 4 c 11 4 c 8 0 c 11 -4 c 8 -8 c 3 -11 c 0 -11 c -3 -12 c -4 -3 c -8 -4 c 0 -250 8666 3401 l 79 -38 8622 3526 l
0 53 8622 3473 l 53 -38 8622 3586 l 0 57 c 79 0 8622 3586 l 0 42 8622 3631 l 30 -23 c 0 12 c 4 7 c 4 4 c 11 4 c 8 0 c 11 -4 c 8 -8 c
3 -11 c 0 -11 c -3 -12 c -4 -3 c -8 -4 c 0 -38 8622 3745 l 34 -4 c -4 4 c -4 11 c 0 12 c 4 11 c 8 8 c 11 3 c 8 0 c 11 -3 c 8 -8 c
3 -11 c 0 -12 c -3 -11 c -4 -4 c -8 -4 c 4 -4 8694 3783 l 3 4 c -3 3 c -4 -3 c 0 42 8622 3820 l 30 -23 c 0 12 c 4 7 c 4 4 c 11 4 c
8 0 c 11 -4 c 8 -8 c 3 -11 c 0 -11 c -3 -12 c -4 -3 c -8 -4 c -7 -4 8633 3938 l -4 -12 c 0 -7 c 4 -11 c 11 -8 c 19 -4 c 19 0 c
15 4 c 8 8 c 3 11 c 0 4 c -3 11 c -8 8 c -11 3 c -4 0 c -11 -3 c -8 -8 c -4 -11 c 0 -4 c 4 -11 c 8 -8 c 11 -4 c 4 -11 8622 3983 l
7 -4 c 8 0 c 7 4 c 4 7 c 4 15 c 4 12 c 7 7 c 8 4 c 11 0 c 8 -4 c 4 -4 c 3 -11 c 0 -15 c -3 -11 c -4 -4 c -8 -4 c -11 0 c -8 4 c
-7 7 c -4 12 c -4 15 c -4 7 c -7 4 c -8 0 c -7 -4 c -4 -11 c 0 -15 c 0 -249 8746 1920 l 79 -38 8703 2045 l 0 53 8703 1992 l
53 -38 8703 2106 l 0 56 c 79 0 8703 2106 l 0 41 8703 2151 l 30 -22 c 0 11 c 4 8 c 3 3 c 12 4 c 7 0 c 12 -4 c 7 -7 c 4 -11 c 0 -12 c
-4 -11 c -4 -4 c -7 -4 c -8 -4 8714 2268 l -3 -11 c 0 -8 c 3 -11 c 12 -8 c 19 -3 c 19 0 c 15 3 c 7 8 c 4 11 c 0 4 c -4 11 c -7 8 c
-12 4 c -3 0 c -12 -4 c -7 -8 c -4 -11 c 0 -4 c 4 -11 c 7 -8 c 12 -3 c 4 -4 8774 2302 l 4 4 c -4 4 c -4 -4 c -4 0 8722 2336 l -8 4 c
-4 4 c -3 7 c 0 15 c 3 8 c 4 4 c 8 3 c 7 0 c 8 -3 c 11 -8 c 38 -38 c 0 53 c 11 -4 8729 2457 l 8 -7 c 4 -12 c 0 -3 c -4 -12 c -8 -7 c
-11 -4 c -4 0 c -11 4 c -8 7 c -3 12 c 0 3 c 3 12 c 8 7 c 15 4 c 19 0 c 19 -4 c 11 -7 c 4 -12 c 0 -7 c -4 -12 c -7 -3 c
79 -37 8703 2536 l 0 53 8703 2483 l 0 -249 9488 1463 l 80 -38 9444 1588 l 0 53 9444 1535 l 53 -37 9444 1648 l 0 56 c
80 0 9444 1648 l 53 -38 9444 1724 l 0 57 c 80 0 9444 1724 l 53 -38 9444 1800 l 0 57 c 80 0 9444 1800 l 4 -4 9516 1845 l 4 4 c -4 4 c
-4 -4 c 80 -38 9444 1928 l 0 53 9444 1875 l 53 -38 9444 1989 l 0 57 c 80 0 9444 1989 l 11 -4 9471 2076 l 8 -8 c 4 -11 c 0 -4 c
-4 -11 c -8 -8 c -11 -4 c -4 0 c -11 4 c -8 8 c -4 11 c 0 4 c 4 11 c 8 8 c 15 4 c 19 0 c 19 -4 c 11 -8 c 4 -11 c 0 -8 c -4 -11 c
-8 -4 c
showpage PGPLOT restore
 
%%Trailer
%%DocumentFonts: 
%%Pages: 1
%%EOF
