%!PS-Adobe-3.0 EPSF-3.0
%%For: tab
%%Title: PGPLOT PostScript plot
%%Creator: PGPLOT
%%CreationDate: 20-Apr-1995 16:48
%%BoundingBox: 25 18 587 774
%%DocumentFonts: (atend)
%%LanguageLevel: 1
%%Orientation: Landscape
%%Pages: (atend)
%%EndComments
%%BeginProlog
/l {moveto rlineto currentpoint stroke moveto} bind def
/c {rlineto currentpoint stroke moveto} bind def
/d {moveto 0 0 rlineto currentpoint stroke moveto} bind def
/SLW {5 mul setlinewidth} bind def
/SCF /pop load def
/BP {newpath moveto} bind def
/LP /rlineto load def
/EP {rlineto closepath eofill} bind def
/MB {gsave translate MFAC dup scale 1 setlinewidth 2 setlinecap 0 setlinejoin newpath} bind def
/ME /grestore load def
/C {0 360 arc stroke} bind def
/FC {0 360 arc fill} bind def
%%EndProlog
 
%%Page: 1 1
%%BeginPageSetup
/PGPLOT save def
0.072 0.072 scale
8150 250 translate 90 rotate
1 setlinejoin 1 setlinecap 1 SLW 1 SCF
%%EndPageSetup
0.000 setgray 1 SLW 8939 0 780 780 l 0 6239 c -8939 0 c 0 -6239 c 0 -45 1116 780 l 0 -45 1554 780 l 0 -45 1991 780 l
0 -45 2428 780 l 0 -90 2865 780 l 0 -45 3302 780 l 0 -45 3739 780 l 0 -45 4176 780 l 0 -45 4613 780 l 0 -90 5051 780 l
0 -45 5488 780 l 0 -45 5925 780 l 0 -45 6362 780 l 0 -45 6799 780 l 0 -90 7236 780 l 0 -45 7673 780 l 0 -45 8110 780 l
0 -45 8548 780 l 0 -45 8985 780 l 0 -90 9422 780 l 0 -45 1116 7064 l 0 -45 1554 7064 l 0 -45 1991 7064 l 0 -45 2428 7064 l
0 -90 2865 7109 l 0 -45 3302 7064 l 0 -45 3739 7064 l 0 -45 4176 7064 l 0 -45 4613 7064 l 0 -90 5051 7109 l 0 -45 5488 7064 l
0 -45 5925 7064 l 0 -45 6362 7064 l 0 -45 6799 7064 l 0 -90 7236 7109 l 0 -45 7673 7064 l 0 -45 8110 7064 l 0 -45 8548 7064 l
0 -45 8985 7064 l 0 -90 9422 7109 l -60 0 2775 672 l -6 -54 c 6 6 c 18 6 c 18 0 c 18 -6 c 12 -12 c 6 -18 c 0 -12 c -6 -18 c
-12 -12 c -18 -6 c -18 0 c -18 6 c -6 6 c -6 12 c -18 -6 2859 672 l -12 -18 c -6 -30 c 0 -18 c 6 -30 c 12 -18 c 18 -6 c 12 0 c
18 6 c 12 18 c 6 30 c 0 18 c -6 30 c -12 18 c -18 6 c -12 0 c -18 -6 2979 672 l -12 -18 c -6 -30 c 0 -18 c 6 -30 c 12 -18 c 18 -6 c
12 0 c 18 6 c 12 18 c 6 30 c 0 18 c -6 30 c -12 18 c -18 6 c -12 0 c 12 6 4847 648 l 18 18 c 0 -126 c -18 -6 4985 672 l -12 -18 c
-6 -30 c 0 -18 c 6 -30 c 12 -18 c 18 -6 c 12 0 c 18 6 c 12 18 c 6 30 c 0 18 c -6 30 c -12 18 c -18 6 c -12 0 c -18 -6 5105 672 l
-12 -18 c -6 -30 c 0 -18 c 6 -30 c 12 -18 c 18 -6 c 12 0 c 18 6 c 12 18 c 6 30 c 0 18 c -6 30 c -12 18 c -18 6 c -12 0 c
-18 -6 5225 672 l -12 -18 c -6 -30 c 0 -18 c 6 -30 c 12 -18 c 18 -6 c 12 0 c 18 6 c 12 18 c 6 30 c 0 18 c -6 30 c -12 18 c -18 6 c
-12 0 c 12 6 7032 648 l 18 18 c 0 -126 c -60 0 7206 672 l -6 -54 c 6 6 c 18 6 c 18 0 c 18 -6 c 12 -12 c 6 -18 c 0 -12 c -6 -18 c
-12 -12 c -18 -6 c -18 0 c -18 6 c -6 6 c -6 12 c -18 -6 7290 672 l -12 -18 c -6 -30 c 0 -18 c 6 -30 c 12 -18 c 18 -6 c 12 0 c
18 6 c 12 18 c 6 30 c 0 18 c -6 30 c -12 18 c -18 6 c -12 0 c -18 -6 7410 672 l -12 -18 c -6 -30 c 0 -18 c 6 -30 c 12 -18 c 18 -6 c
12 0 c 18 6 c 12 18 c 6 30 c 0 18 c -6 30 c -12 18 c -18 6 c -12 0 c 0 6 9206 642 l 6 12 c 6 6 c 12 6 c 24 0 c 12 -6 c 6 -6 c
6 -12 c 0 -12 c -6 -12 c -12 -18 c -60 -60 c 84 0 c -18 -6 9356 672 l -12 -18 c -6 -30 c 0 -18 c 6 -30 c 12 -18 c 18 -6 c 12 0 c
18 6 c 12 18 c 6 30 c 0 18 c -6 30 c -12 18 c -18 6 c -12 0 c -18 -6 9476 672 l -12 -18 c -6 -30 c 0 -18 c 6 -30 c 12 -18 c 18 -6 c
12 0 c 18 6 c 12 18 c 6 30 c 0 18 c -6 30 c -12 18 c -18 6 c -12 0 c -18 -6 9596 672 l -12 -18 c -6 -30 c 0 -18 c 6 -30 c 12 -18 c
18 -6 c 12 0 c 18 6 c 12 18 c 6 30 c 0 18 c -6 30 c -12 18 c -18 6 c -12 0 c -90 0 780 803 l -45 0 780 1166 l -45 0 780 1529 l
-45 0 780 1892 l -45 0 780 2255 l -90 0 780 2619 l -45 0 780 2982 l -45 0 780 3345 l -45 0 780 3708 l -45 0 780 4071 l
-90 0 780 4434 l -45 0 780 4798 l -45 0 780 5161 l -45 0 780 5524 l -45 0 780 5887 l -90 0 780 6250 l -45 0 780 6614 l
-45 0 780 6977 l -90 0 9809 803 l -45 0 9764 1166 l -45 0 9764 1529 l -45 0 9764 1892 l -45 0 9764 2255 l -90 0 9809 2619 l
-45 0 9764 2982 l -45 0 9764 3345 l -45 0 9764 3708 l -45 0 9764 4071 l -90 0 9809 4434 l -45 0 9764 4798 l -45 0 9764 5161 l
-45 0 9764 5524 l -45 0 9764 5887 l -90 0 9809 6250 l -45 0 9764 6614 l -45 0 9764 6977 l 6 -18 517 797 l 18 -12 c 30 -6 c 18 0 c
30 6 c 18 12 c 6 18 c 0 12 c -6 18 c -18 12 c -30 6 c -18 0 c -30 -6 c -18 -12 c -6 -18 c 0 -12 c -6 12 541 2499 l -18 18 c 126 0 c
6 -18 517 2637 l 18 -12 c 30 -6 c 18 0 c 30 6 c 18 12 c 6 18 c 0 12 c -6 18 c -18 12 c -30 6 c -18 0 c -30 -6 c -18 -12 c -6 -18 c
0 -12 c 63 -45 453 2761 l 0 68 c 94 0 453 2761 l -6 0 547 4177 l -12 6 c -6 6 c -6 11 c 0 24 c 6 12 c 6 6 c 12 6 c 12 0 c 12 -6 c
18 -12 c 60 -59 c 0 83 c 84 84 547 4296 l 84 -84 547 4380 l -6 12 541 4440 l -18 18 c 126 0 c 6 -18 517 4578 l 18 -12 c 30 -6 c
18 0 c 30 6 c 18 12 c 6 18 c 0 12 c -6 18 c -18 12 c -30 6 c -18 0 c -30 -6 c -18 -12 c -6 -18 c 0 -12 c 63 -45 453 4703 l 0 67 c
94 0 453 4703 l 0 66 517 5998 l 48 -36 c 0 18 c 6 12 c 6 6 c 18 6 c 12 0 c 18 -6 c 12 -12 c 6 -18 c 0 -18 c -6 -18 c -6 -6 c
-12 -6 c 84 84 547 6112 l 84 -84 547 6196 l -6 12 541 6256 l -18 18 c 126 0 c 6 -18 517 6394 l 18 -12 c 30 -6 c 18 0 c 30 6 c
18 12 c 6 18 c 0 12 c -6 18 c -18 12 c -30 6 c -18 0 c -30 -6 c -18 -12 c -6 -18 c 0 -12 c 63 -45 453 6519 l 0 67 c 94 0 453 6519 l
4 0 780 834 l 5 0 c 4 0 c 4 -1 c 5 1 c 4 0 c 4 -1 c 5 0 c 4 0 c 5 1 c 4 0 c 4 0 c 5 -2 c 4 1 c 4 -1 c 5 0 c 4 1 c 5 2 c 4 8 c 4 27 c
5 28 c 4 -2 c 4 -32 c 5 -23 c 4 -5 c 5 -2 c 4 -1 c 4 -1 c 5 0 c 4 5 c 4 22 c 5 93 c 4 110 c 5 21 c 4 -86 c 4 -102 c 5 -43 c 4 -15 c
4 -5 c 5 2 c 4 3 c 4 0 c 5 -2 c 4 -3 c 5 -1 c 4 -1 c 4 -1 c 5 0 c 4 0 c 4 0 c 5 1 c 4 0 c 5 0 c 4 -1 c 4 0 c 5 0 c 4 -1 c 4 2 c
5 -1 c 4 0 c 5 0 c 4 0 c 4 -1 c 5 0 c 4 -1 c 4 1 c 5 0 c 4 -1 c 5 0 c 4 1 c 4 -1 c 5 0 c 4 0 c 4 1 c 5 0 c 4 -1 c 4 0 c 5 1 c 4 1 c
5 -1 c 4 0 c 4 0 c 5 0 c 4 -25 c 4 0 c 5 29 c 4 1 c 5 -3 c 4 -1 c 4 -1 c 5 0 c 4 -1 c 4 0 c 5 0 c 4 1 c 5 0 c 4 0 c 4 -1 c 5 0 c
4 1 c 4 0 c 5 2 c 4 2 c 5 5 c 4 8 c 4 2 c 5 -6 c 4 -8 c 4 -3 c 5 2 c 4 7 c 4 2 c 5 -2 c 4 -5 c 5 -4 c 4 -3 c 4 0 c 5 0 c 4 0 c 4 0 c
5 0 c 4 0 c 5 1 c 4 0 c 4 -1 c 5 0 c 4 0 c 4 0 c 5 0 c 4 1 c 5 0 c 4 0 c 4 0 c 5 0 c 4 2 c 4 1 c 5 0 c 4 -2 c 5 -2 c 4 0 c 4 1 c
5 1 c 4 1 c 4 1 c 5 -1 c 4 0 c 4 0 c 5 -1 c 4 1 c 5 1 c 4 0 c 4 0 c 5 1 c 4 0 c 4 0 c 5 -1 c 4 0 c 5 -2 c 4 -1 c 4 0 c 5 0 c 4 -1 c
4 0 c 5 1 c 4 0 c 5 2 c 4 0 c 4 -1 c 5 0 c 4 1 c 4 2 c 5 -1 c 4 -1 c 4 -2 c 5 0 c 4 1 c 5 0 c 4 1 c 4 0 c 5 -1 c 4 -1 c 4 0 c 5 -1 c
4 1 c 5 -1 c 4 0 c 4 0 c 5 0 c 4 0 c 4 1 c 5 -1 c 4 1 c 5 0 c 4 0 c 4 0 c 5 0 c 4 1 c 4 0 c 5 0 c 4 0 c 5 1 c 4 1 c 4 0 c 5 3 c
4 5 c 4 7 c 5 9 c 4 6 c 4 -2 c 5 -7 c 4 -7 c 5 -5 c 4 -2 c 4 -2 c 5 -1 c 4 -1 c 4 2 c 5 -1 c 4 -1 c 5 -2 c 4 -2 c 4 0 c 5 -1 c 4 1 c
4 1 c 5 0 c 4 -1 c 5 -1 c 4 0 c 4 0 c 5 1 c 4 0 c 4 -1 c 5 0 c 4 0 c 5 0 c 4 1 c 4 -1 c 5 0 c 4 0 c 4 0 c 5 1 c 4 0 c 4 -1 c 5 0 c
4 -1 c 5 1 c 4 0 c 4 -1 c 5 2 c 4 0 c 4 0 c 5 -1 c 4 0 c 5 0 c 4 1 c 4 -1 c 5 0 c 4 1 c 4 0 c 5 -1 c 4 2 c 5 3 c 4 1 c 4 -3 c 5 -2 c
4 -1 c 4 0 c 5 0 c 4 1 c 5 1 c 4 0 c 4 -1 c 5 -1 c 4 1 c 4 0 c 5 1 c 4 0 c 4 0 c 5 -1 c 4 1 c 5 2 c 4 2 c 4 1 c 5 1 c 4 0 c 4 -1 c
5 -1 c 4 -2 c 5 -2 c 4 1 c 4 -1 c 5 2 c 4 0 c 4 -1 c 5 0 c 4 1 c 5 0 c 4 0 c 4 0 c 5 1 c 4 0 c 4 1 c 5 -1 c 4 3 c 5 5 c 4 1 c 4 0 c
5 -5 c 4 -2 c 4 -1 c 5 2 c 4 -1 c 4 3 c 5 11 c 4 51 c 5 93 c 4 62 c 4 -27 c 5 -98 c 4 -67 c 4 -22 c 5 -3 c 4 1 c 5 -1 c 4 0 c 4 0 c
5 -2 c 4 -1 c 4 1 c 5 1 c 4 1 c 5 -1 c 4 0 c 4 1 c 5 0 c 4 0 c 4 1 c 5 -1 c 4 1 c 4 -1 c 5 0 c 4 0 c 5 0 c 4 -1 c 4 1 c 5 -1 c 4 1 c
4 -1 c 5 2 c 4 0 c 5 0 c 4 3 c 4 -1 c 5 1 c 4 -1 c 4 -1 c 5 0 c 4 -1 c 5 1 c 4 0 c 4 1 c 5 1 c 4 -1 c 4 1 c 5 -1 c 4 2 c 5 -1 c
4 -1 c 4 0 c 5 2 c 4 1 c 4 1 c 5 -1 c 4 -1 c 4 0 c 5 1 c 4 -1 c 5 0 c 4 2 c 4 1 c 5 -1 c 4 1 c 4 0 c 5 0 c 4 2 c 5 2 c 4 1 c 4 -1 c
5 -1 c 4 1 c 4 5 c 5 4 c 4 12 c 5 17 c 4 18 c 4 5 c 5 -21 c 4 -22 c 4 -12 c 5 -4 c 4 1 c 5 2 c 4 0 c 4 -1 c 5 -2 c 4 2 c 4 -1 c
5 -2 c 4 2 c 4 5 c 5 -2 c 4 -1 c 5 1 c 4 -1 c 4 4 c 5 0 c 4 -2 c 4 2 c 5 3 c 4 6 c 5 0 c 4 -4 c 4 2 c 5 -2 c 4 4 c 4 4 c 5 2 c
4 -8 c 5 -2 c 4 0 c 4 2 c 5 4 c 4 1 c 4 -3 c 5 -3 c 4 -1 c 5 0 c 4 -2 c 4 2 c 5 -1 c 4 3 c 4 6 c 5 7 c 4 16 c 4 13 c 5 -15 c 4 -14 c
5 -6 c 4 2 c 4 -5 c 5 2 c 4 -4 c 4 1 c 5 1 c 4 3 c 5 1 c 4 -3 c 4 0 c 5 -1 c 4 -3 c 4 1 c 5 1 c 4 -1 c 5 1 c 4 -3 c 4 0 c 5 5 c
4 15 c 4 6 c 5 6 c 4 -7 c 5 -13 c 4 -4 c 4 -4 c 5 -3 c 4 3 c 4 0 c 5 -2 c 4 2 c 4 3 c 5 -3 c 4 5 c 5 8 c 4 -4 c 4 -1 c 5 -7 c 4 -3 c
4 -4 c 5 2 c 4 -1 c 5 -1 c 4 1 c 4 1 c 5 1 c 4 -1 c 4 -2 c 5 -2 c 4 4 c 5 -3 c 4 3 c 4 -1 c 5 3 c 4 -2 c 4 -3 c 5 2 c 4 3 c 4 -4 c
5 4 c 4 6 c 5 16 c 4 18 c 4 7 c 5 -12 c 4 -20 c 4 -12 c 5 -4 c 4 -2 c 5 0 c 4 -1 c 4 -1 c 5 1 c 4 2 c 4 -2 c 5 1 c 4 -2 c 5 0 c
4 -1 c 4 -1 c 5 -2 c 4 4 c 4 0 c 5 -2 c 4 1 c 5 -1 c 4 0 c 4 1 c 5 1 c 4 0 c 4 5 c 5 9 c 4 6 c 4 -5 c 5 -10 c 4 -7 c 5 0 c 4 -1 c
4 -1 c 5 2 c 4 2 c 4 0 c 5 -2 c 4 0 c 5 -1 c 4 0 c 4 4 c 5 7 c 4 2 c 4 1 c 5 1 c 4 -6 c 5 -2 c 4 -1 c 4 0 c 5 -2 c 4 1 c 4 0 c
5 -1 c 4 1 c 5 0 c 4 1 c 4 -1 c 5 -1 c 4 2 c 4 -1 c 5 1 c 4 1 c 4 -2 c 5 3 c 4 -3 c 5 3 c 4 0 c 4 -2 c 5 2 c 4 0 c 4 2 c 5 2 c
4 -2 c 5 3 c 4 -1 c 4 1 c 5 1 c 4 -2 c 4 7 c 5 -3 c 4 -2 c 5 2 c 4 0 c 4 4 c 5 1 c 4 -4 c 4 6 c 5 0 c 4 -1 c 5 1 c 4 -1 c 4 -2 c
5 1 c 4 8 c 4 -3 c 5 -1 c 4 1 c 4 -1 c 5 7 c 4 -6 c 5 8 c 4 -5 c 4 9 c 5 -5 c 4 4 c 4 -3 c 5 5 c 4 -3 c 5 -2 c 4 -3 c 4 2 c 5 2 c
4 0 c 4 5 c 5 -4 c 4 2 c 5 3 c 4 2 c 4 -2 c 5 3 c 4 5 c 4 -6 c 5 5 c 4 -2 c 4 1 c 5 4 c 4 1 c 5 4 c 4 0 c 4 6 c 5 4 c 4 5 c 4 15 c
5 16 c 4 26 c 5 1 c 4 -29 c 4 -28 c 5 -2 c 4 -13 c 4 -1 c 5 1 c 4 4 c 5 -2 c 4 -4 c 4 -2 c 5 4 c 4 -5 c 4 7 c 5 -2 c 4 -7 c 5 -3 c
4 5 c 4 2 c 5 1 c 4 0 c 4 2 c 5 2 c 4 -9 c 4 2 c 5 7 c 4 0 c 5 -1 c 4 1 c 4 -9 c 5 4 c 4 1 c 4 3 c 5 27 c 4 60 c 5 46 c 4 -16 c
4 -65 c 5 -47 c 4 -15 c 4 -5 c 5 0 c 4 -3 c 5 0 c 4 1 c 4 2 c 5 3 c 4 27 c 4 77 c 5 83 c 4 38 c 5 -51 c 4 -91 c 4 -73 c 5 -17 c
4 1 c 4 -8 c 5 -3 c 4 1 c 4 -3 c 5 1 c 4 -5 c 5 3 c 4 -4 c 4 0 c 5 2 c 4 -1 c 4 -2 c 5 -2 c 4 1 c 5 -1 c 4 -1 c 4 -1 c 5 0 c 4 0 c
4 -3 c 5 3 c 4 2 c 5 0 c 4 -3 c 4 -1 c 5 -3 c 4 1 c 4 -1 c 5 -1 c 4 1 c 5 0 c 4 0 c 4 -1 c 5 -1 c 4 -2 c 4 3 c 5 -1 c 4 -1 c 4 1 c
5 -4 c 4 3 c 5 1 c 4 -2 c 4 -1 c 5 0 c 4 1 c 4 -1 c 5 0 c 4 0 c 5 1 c 4 0 c 4 -4 c 5 5 c 4 -4 c 4 3 c 5 -1 c 4 2 c 5 1 c 4 -3 c
4 -1 c 5 4 c 4 -2 c 4 2 c 5 7 c 4 41 c 5 89 c 4 78 c 4 31 c 5 -69 c 4 -97 c 4 -68 c 5 -9 c 4 1 c 4 1 c 5 4 c 4 3 c 5 1 c 4 0 c 4 1 c
5 0 c 4 0 c 4 2 c 5 -4 c 4 0 c 5 1 c 4 1 c 4 0 c 5 -1 c 4 4 c 4 6 c 5 1 c 4 5 c 5 0 c 4 -3 c 4 1 c 5 0 c 4 5 c 4 2 c 5 5 c 4 3 c
4 1 c 5 0 c 4 0 c 5 1 c 4 3 c 4 5 c 5 3 c 4 3 c 4 4 c 5 3 c 4 4 c 5 6 c 4 9 c 4 9 c 5 6 c 4 4 c 4 2 c 5 2 c 4 5 c 5 8 c 4 15 c 4 9 c
5 8 c 4 6 c 4 5 c 5 7 c 4 15 c 5 27 c 4 26 c 4 15 c 5 -11 c 4 2 c 4 12 c 5 13 c 4 14 c 4 15 c 5 17 c 4 12 c 5 20 c 4 16 c 4 26 c
5 39 c 4 12 c 4 17 c 5 29 c 4 43 c 5 33 c 4 14 c 4 24 c 5 34 c 4 59 c 4 26 c 5 42 c 4 5 c 5 52 c 4 36 c 4 32 c 5 71 c 4 58 c 4 53 c
5 80 c 4 42 c 5 95 c 4 72 c 4 90 c 5 67 c 4 58 c 4 78 c 5 129 c 4 144 c 4 163 c 5 188 c 4 150 c 5 106 c 4 142 c 4 316 c 5 387 c
4 445 c 4 817 c 1 1511 c 1 -2082 4713 7019 l 4 -385 c 5 -389 c 4 -351 c 5 -183 c 4 -147 c 4 -176 c 5 -111 c 4 -125 c 4 -118 c
5 -186 c 4 -128 c 4 -135 c 5 -48 c 4 -78 c 5 -60 c 4 -45 c 4 -96 c 5 -90 c 4 -85 c 4 -56 c 5 -43 c 4 -20 c 5 -60 c 4 -55 c 4 -40 c
5 -49 c 4 -31 c 4 -48 c 5 -31 c 4 -43 c 5 -30 c 4 -33 c 4 -34 c 5 -17 c 4 -25 c 4 -37 c 5 -37 c 4 -16 c 5 -22 c 4 -20 c 4 -19 c
5 -11 c 4 -8 c 4 -11 c 5 -25 c 4 -18 c 4 -14 c 5 -22 c 4 -14 c 5 -13 c 4 -15 c 4 -9 c 5 -8 c 4 -10 c 4 -10 c 5 -8 c 4 -8 c 5 -10 c
4 -8 c 4 -8 c 5 -6 c 4 -7 c 4 -7 c 5 -5 c 4 -7 c 5 -5 c 4 -6 c 4 -4 c 5 -8 c 4 -4 c 4 -4 c 5 -3 c 4 -3 c 4 -2 c 5 -2 c 4 -4 c 5 -4 c
4 -3 c 4 -4 c 5 -2 c 4 -3 c 4 -2 c 5 -2 c 4 -3 c 5 -4 c 4 -1 c 4 0 c 5 0 c 4 -2 c 4 -1 c 5 -3 c 4 -3 c 5 -3 c 4 -1 c 4 -1 c 5 0 c
4 -3 c 4 -2 c 5 1 c 4 -3 c 5 -2 c 4 -1 c 4 -1 c 5 -1 c 4 0 c 4 1 c 5 2 c 4 27 c 4 52 c 5 50 c 4 11 c 5 -54 c 4 -55 c 4 -36 c 5 -7 c
4 1 c 4 -2 c 5 3 c 4 -1 c 5 0 c 4 -2 c 4 -1 c 5 -1 c 4 -1 c 4 1 c 5 -2 c 4 1 c 5 -1 c 4 -2 c 4 0 c 5 0 c 4 0 c 4 0 c 5 -2 c 4 0 c
5 -1 c 4 0 c 4 0 c 5 -1 c 4 0 c 4 0 c 5 -1 c 4 0 c 4 -1 c 5 2 c 4 -2 c 5 1 c 4 -1 c 4 0 c 5 0 c 4 0 c 4 9 c 5 27 c 4 31 c 5 15 c
4 -14 c 4 -36 c 5 -27 c 4 -7 c 4 -2 c 5 1 c 4 0 c 5 -1 c 4 1 c 4 1 c 5 -1 c 4 0 c 4 -1 c 5 -1 c 4 0 c 5 -1 c 4 0 c 4 -1 c 5 1 c
4 0 c 4 0 c 5 -2 c 4 1 c 4 -1 c 5 0 c 4 -3 c 5 2 c 4 0 c 4 1 c 5 1 c 4 5 c 4 2 c 5 4 c 4 -7 c 5 -4 c 4 -3 c 4 1 c 5 -2 c 4 0 c 4 0 c
5 0 c 4 -1 c 5 1 c 4 0 c 4 0 c 5 -1 c 4 0 c 4 -1 c 5 2 c 4 -1 c 4 0 c 5 0 c 4 -1 c 5 -1 c 4 1 c 4 -1 c 5 0 c 4 1 c 4 1 c 5 1 c
4 -1 c 5 -1 c 4 -1 c 4 0 c 5 0 c 4 0 c 4 1 c 5 0 c 4 4 c 5 7 c 4 -47 c 4 59 c 5 -6 c 4 -10 c 4 -3 c 5 7 c 4 14 c 5 9 c 4 -4 c 4 -5 c
5 1 c 4 1 c 4 -8 c 5 -11 c 4 -6 c 4 -2 c 5 -2 c 4 0 c 5 0 c 4 0 c 4 2 c 5 4 c 4 5 c 4 0 c 5 -5 c 4 -3 c 5 -2 c 4 1 c 4 -1 c 5 0 c
4 -2 c 4 0 c 5 1 c 4 -1 c 5 1 c 4 -1 c 4 -1 c 5 1 c 4 0 c 4 0 c 5 0 c 4 -2 c 5 -1 c 4 1 c 4 1 c 5 1 c 4 0 c 4 0 c 5 0 c 4 -1 c 4 0 c
5 -1 c 4 0 c 5 1 c 4 -1 c 4 2 c 5 -1 c 4 -1 c 4 1 c 5 0 c 4 0 c 5 0 c 4 -1 c 4 1 c 5 3 c 4 -1 c 4 -2 c 5 -1 c 4 -1 c 5 1 c 4 -1 c
4 1 c 5 0 c 4 0 c 4 -1 c 5 1 c 4 0 c 5 0 c 4 6 c 4 8 c 5 8 c 4 2 c 4 -9 c 5 -11 c 4 -5 c 4 -1 c 5 0 c 4 0 c 5 0 c 4 1 c 4 1 c 5 3 c
4 0 c 4 1 c 5 -1 c 4 -3 c 5 -1 c 4 -1 c 4 3 c 5 -1 c 4 0 c 4 0 c 5 0 c 4 1 c 5 -1 c 4 0 c 4 -1 c 5 -2 c 4 0 c 4 1 c 5 -1 c 4 0 c
5 1 c 4 -1 c 4 1 c 5 0 c 4 -1 c 4 1 c 5 -1 c 4 0 c 4 -1 c 5 1 c 4 -1 c 5 0 c 4 1 c 4 -1 c 5 0 c 4 0 c 4 0 c 5 0 c 4 0 c 5 0 c 4 1 c
4 -1 c 5 -1 c 4 1 c 4 0 c 5 0 c 4 0 c 5 0 c 4 1 c 4 -1 c 5 1 c 4 0 c 4 0 c 5 0 c 4 -1 c 4 0 c 5 1 c 4 -2 c 5 1 c 4 1 c 4 0 c 5 -1 c
4 0 c 4 -1 c 5 1 c 4 0 c 5 0 c 4 -1 c 4 1 c 5 0 c 4 0 c 4 -1 c 5 0 c 4 0 c 5 1 c 4 1 c 4 2 c 5 2 c 4 1 c 4 -2 c 5 -3 c 4 -1 c 5 1 c
4 0 c 4 1 c 5 7 c 4 6 c 4 1 c 5 -5 c 4 -9 c 4 -4 c 5 0 c 4 0 c 5 0 c 4 0 c 4 0 c 5 0 c 4 0 c 4 0 c 5 1 c 4 -1 c 5 1 c 4 -1 c 4 0 c
5 1 c 4 0 c 4 0 c 5 0 c 4 0 c 5 0 c 4 1 c 4 2 c 5 0 c 4 -1 c 4 -1 c 5 -2 c 4 0 c 5 1 c 4 1 c 4 1 c 5 0 c 4 -1 c 4 0 c 5 0 c 4 0 c
4 1 c 5 2 c 4 5 c 5 31 c 4 104 c 4 179 c 5 112 c 4 -68 c 4 -183 c 5 -149 c 4 -23 c 5 1 c 4 -1 c 4 -4 c 5 -5 c 4 -3 c 4 0 c 5 0 c
4 0 c 5 -1 c 4 0 c 4 0 c 5 1 c 4 2 c 4 1 c 5 -1 c 4 -3 c 5 -1 c 4 2 c 4 -2 c 5 2 c 4 0 c 4 2 c 5 10 c 4 34 c 4 51 c 5 5218 c 0 875 c
2 -6060 6841 7019 l 4 -66 c 5 -4 c 4 0 c 4 -5 c 5 -3 c 4 -2 c 4 -3 c 5 -1 c 4 -2 c 5 0 c 4 -3 c 4 -1 c 5 -1 c 4 -1 c 4 -1 c 5 -1 c
4 -4 c 5 2 c 4 -1 c 4 -2 c 5 1 c 4 0 c 4 -1 c 5 0 c 4 -2 c 4 2 c 5 1 c 4 -1 c 5 2 c 4 -1 c 4 -2 c 5 -1 c 4 -1 c 4 -2 c 5 -2 c 4 0 c
5 -1 c 4 -1 c 4 1 c 5 -1 c 4 -1 c 4 1 c 5 1 c 4 1 c 5 0 c 4 -2 c 4 1 c 5 0 c 4 3 c 4 1 c 5 -1 c 4 -3 c 4 -3 c 5 1 c 4 0 c 5 0 c
4 0 c 4 2 c 5 0 c 4 3 c 4 -2 c 5 -1 c 4 -1 c 5 0 c 4 1 c 4 0 c 5 2 c 4 -1 c 4 1 c 5 -2 c 4 2 c 5 2 c 4 0 c 4 3 c 5 1 c 4 2 c 4 1 c
5 5 c 4 13 c 5 44 c 4 316 c 4 1352 c 5 2318 c 4 1525 c 4 -653 c 5 -2566 c 4 -1959 c 4 -337 c 5 -45 c 4 -9 c 5 -3 c 4 -3 c 4 -5 c
5 -2 c 4 -2 c 4 -2 c 5 -1 c 4 0 c 5 0 c 4 -1 c 4 0 c 5 0 c 4 -2 c 4 1 c 5 -3 c 4 0 c 5 -1 c 4 -1 c 4 -1 c 5 0 c 4 0 c 4 -2 c 5 0 c
4 0 c 5 1 c 4 -1 c 4 0 c 5 -2 c 4 2 c 4 0 c 5 1 c 4 3 c 4 4 c 5 0 c 4 17 c 5 44 c 4 60 c 4 4 c 5 -41 c 4 -69 c 4 -23 c 5 -2 c 4 -1 c
5 7 c 4 16 c 4 14 c 5 -2 c 4 -18 c 4 -15 c 5 -4 c 4 1 c 5 0 c 4 5 c 4 8 c 5 3 c 4 -2 c 4 -4 c 5 0 c 4 -3 c 5 -3 c 4 -2 c 4 -1 c
5 -3 c 4 -1 c 4 0 c 5 0 c 4 0 c 4 -1 c 5 0 c 4 -1 c 5 0 c 4 0 c 4 -1 c 5 0 c 4 0 c 4 1 c 5 0 c 4 0 c 5 0 c 4 1 c 4 2 c 5 2 c 4 2 c
4 0 c 5 -1 c 4 -3 c 5 -3 c 4 -1 c 4 -1 c 5 0 c 4 0 c 4 1 c 5 1 c 4 0 c 5 0 c 4 4 c 4 11 c 5 14 c 4 -1 c 4 -13 c 5 -13 c 4 -3 c
4 -1 c 5 0 c 4 -2 c 5 1 c 4 1 c 4 -1 c 5 1 c 4 -2 c 4 1 c 5 -1 c 4 1 c 5 0 c 4 0 c 4 1 c 5 0 c 4 1 c 4 0 c 5 -2 c 4 -1 c 5 1 c 4 0 c
4 -1 c 5 -1 c 4 -1 c 4 2 c 5 -1 c 4 1 c 4 1 c 5 -1 c 4 -1 c 5 1 c 4 -1 c 4 -1 c 5 1 c 4 0 c 4 0 c 5 0 c 4 1 c 5 0 c 4 2 c 4 -1 c
5 -1 c 4 -1 c 4 0 c 5 1 c 4 0 c 5 0 c 4 -1 c 4 1 c 5 0 c 4 -1 c 4 1 c 5 -2 c 4 1 c 5 0 c 4 1 c 4 1 c 5 -2 c 4 0 c 4 0 c 5 0 c 4 2 c
4 4 c 5 26 c 4 63 c 5 78 c 4 -5 c 4 -63 c 5 -86 c 4 -17 c 4 -1 c 5 -1 c 4 1 c 5 -2 c 4 0 c 4 0 c 5 -1 c 4 0 c 4 2 c 5 0 c 4 -1 c
5 0 c 4 0 c 4 0 c 5 1 c 4 4 c 4 20 c 5 37 c 4 13 c 5 -22 c 4 -38 c 4 -13 c 5 -2 c 4 1 c 4 0 c 5 4 c 4 6 c 4 6 c 5 -4 c 4 -6 c 5 -5 c
4 -2 c 4 -2 c 5 2 c 4 -1 c 4 1 c 5 1 c 4 2 c 5 -1 c 4 -1 c 4 -2 c 5 0 c 4 1 c 4 -2 c 5 1 c 4 -1 c 5 1 c 4 -1 c 4 0 c 5 0 c 4 1 c
4 -1 c 5 0 c 4 0 c 5 1 c 4 0 c 4 0 c 5 0 c 4 0 c 4 2 c 5 9 c 4 17 c 4 4 c 5 -9 c 4 -14 c 5 -7 c 4 -2 c 4 0 c 5 -1 c 4 0 c 4 0 c
5 0 c 4 0 c 5 0 c 4 1 c 4 2 c 5 6 c 4 6 c 4 -1 c 5 -5 c 4 -8 c 5 -1 c 4 1 c 4 -2 c 5 1 c 4 1 c 4 -1 c 5 0 c 4 1 c 4 0 c 5 2 c 4 4 c
5 0 c 4 0 c 4 -5 c 5 -2 c 4 0 c 4 1 c 5 1 c 4 1 c 5 0 c 4 -1 c 4 0 c 5 0 c 4 3 c 4 14 c 5 37 c 4 34 c 5 -11 c 4 -34 c 4 -39 c 5 -6 c
4 2 c 4 -2 c 5 1 c 4 0 c 5 1 c 4 2 c 4 -1 c 5 0 c 4 -2 c 4 -1 c 5 -1 c 4 0 c 4 1 c 5 -1 c 4 0 c 5 1 c 4 1 c 4 0 c 5 -1 c 4 0 c 4 0 c
5 0 c 4 1 c 5 -1 c 4 0 c 4 -1 c 5 -1 c 4 0 c 4 0 c 5 1 c 4 -1 c 5 0 c 4 1 c 4 -1 c 5 2 c 4 2 c 4 0 c 5 0 c 4 -2 c 5 0 c 4 -1 c 4 0 c
5 1 c 4 -2 c 4 2 c 5 -1 c 4 0 c 4 0 c 5 0 c 4 0 c 5 2 c 4 0 c 4 0 c 5 0 c 4 -2 c 4 -1 c 5 0 c 4 1 c 5 3 c 4 2 c 4 3 c 5 -1 c 4 -1 c
4 -1 c 5 -3 c 4 0 c 5 -1 c 4 -1 c 4 0 c 5 1 c 4 1 c 4 0 c 5 -1 c 4 -1 c 5 0 c 4 -1 c 4 1 c 5 0 c 4 1 c 4 -1 c 5 0 c 4 2 c 4 -1 c
5 0 c 4 -1 c 5 1 c 4 0 c 4 0 c 5 2 c 4 -1 c 4 -1 c 5 0 c 4 1 c 5 -1 c 4 0 c 4 1 c 5 -1 c 4 -1 c 4 2 c 5 -1 c 4 2 c 5 0 c 4 -1 c
4 1 c 5 -2 c 4 0 c 4 0 c 5 1 c 4 1 c 5 -1 c 4 0 c 4 1 c 5 0 c 4 1 c 4 -1 c 5 2 c 4 1 c 4 0 c 5 1 c 4 4 c 5 17 c 4 12 c 4 -5 c
5 -11 c 4 -16 c 4 -1 c 5 -1 c 4 0 c 5 1 c 4 0 c 4 0 c 5 2 c 4 -1 c 4 1 c 5 -1 c 4 0 c 5 1 c 4 3 c 4 1 c 5 -1 c 4 -2 c 4 1 c 5 1 c
4 0 c 4 4 c 5 0 c 4 1 c 5 -1 c 4 1 c 4 -1 c 5 2 c 4 3 c 4 -1 c 5 1 c 4 -1 c 5 3 c 4 0 c 4 1 c 5 4 c 4 1 c 4 0 c 5 5 c 4 2 c 5 5 c
4 2 c 4 -1 c 5 -1 c 4 0 c 4 3 c 5 3 c 4 2 c 5 4 c 4 2 c 4 2 c 5 1 c 4 5 c 4 5 c 5 5 c 4 2 c 4 1 c 5 4 c 4 5 c 5 7 c 4 7 c 4 6 c
5 5 c 4 7 c 4 8 c 5 4 c 4 11 c 5 10 c 4 5 c 4 2 c 5 2 c 4 15 c 4 14 c 5 8 c 4 7 c 2 5995 c 3 -5413 9358 7019 l 4 -440 c 4 -8 c 5 4 c
4 15 c 5 12 c 4 16 c 4 19 c 5 30 c 4 19 c 4 32 c 5 11 c 4 21 c 4 17 c 5 33 c 4 34 c 5 31 c 4 52 c 4 54 c 5 36 c 4 16 c 4 44 c 5 26 c
4 65 c 5 53 c 4 94 c 4 91 c 5 74 c 4 22 c 4 -8 c 5 85 c 4 157 c 5 94 c 4 155 c 4 188 c 5 293 c 4 414 c 4 558 c
2 3004 c 2 -6216 9542 7019 l 5 0 c 2 6216 c 2 -3752 9573 7019 l 4 -338 c 5 -250 c 4 -163 c 4 -135 c 5 -139 c 4 -145 c 4 -103 c
5 -49 c 4 -84 c 5 -30 c 4 -35 c 4 -61 c 5 -81 c 4 -65 c 4 -51 c 5 -35 c 4 -24 c 5 -27 c 4 -18 c 4 -30 c 5 -37 c 4 -41 c 4 -41 c
5 -19 c 4 -22 c 5 -7 c 4 -19 c 4 -18 c 5 -21 c 4 -18 c 4 -9 c 5 -10 c 4 -19 c
0 -126 3303 418 l 54 0 3303 418 l 18 -6 c 6 -6 c 6 -12 c 0 -12 c -6 -12 c -6 -6 c -18 -6 c -54 0 c 42 -66 3345 358 l
-12 -6 3453 376 l -12 -12 c -6 -18 c 0 -12 c 6 -18 c 12 -12 c 12 -6 c 18 0 c 12 6 c 12 12 c 6 18 c 0 12 c -6 18 c -12 12 c -12 6 c
-18 0 c 24 -84 3537 376 l -24 -84 3585 376 l 24 -84 3585 376 l -24 -84 3633 376 l 108 0 3675 364 l 108 0 3675 328 l 0 6 3927 388 l
6 12 c 6 6 c 12 6 c 24 0 c 12 -6 c 6 -6 c 6 -12 c 0 -12 c -6 -12 c -12 -18 c -60 -60 c 84 0 c -18 -6 4077 418 l -12 -18 c -6 -30 c
0 -18 c 6 -30 c 12 -18 c 18 -6 c 12 0 c 18 6 c 12 18 c 6 30 c 0 18 c -6 30 c -12 18 c -18 6 c -12 0 c -12 -6 4287 376 l -12 -12 c
-6 -18 c 0 -12 c 6 -18 c 12 -12 c 12 -6 c 18 0 c 12 6 c 12 12 c 6 18 c 0 12 c -6 18 c -12 12 c -12 6 c -18 0 c -12 0 4413 418 l
-12 -6 c -6 -18 c 0 -102 c 42 0 4365 376 l 0 6 4545 388 l 6 12 c 6 6 c 12 6 c 24 0 c 12 -6 c 6 -6 c 6 -12 c 0 -12 c -6 -12 c
-12 -18 c -60 -60 c 84 0 c -18 -6 4695 418 l -12 -18 c -6 -30 c 0 -18 c 6 -30 c 12 -18 c 18 -6 c 12 0 c 18 6 c 12 18 c 6 30 c 0 18 c
-6 30 c -12 18 c -18 6 c -12 0 c 12 6 5181 394 l 18 18 c 0 -126 c -6 -6 5294 376 l 6 -6 c 6 6 c -6 6 c -6 -6 5294 304 l 6 -6 c 6 6 c
-6 6 c -48 -126 5474 418 l 48 -126 5474 418 l 60 0 5444 334 l 0 -84 5552 376 l 6 18 5552 340 l 12 12 c 12 6 c 18 0 c
-12 12 5696 358 l -12 6 c -18 0 c -12 -6 c -12 -12 c -6 -18 c 0 -12 c 6 -18 c 12 -12 c 12 -6 c 18 0 c 12 6 c 12 12 c
108 0 5738 346 l 12 6 5906 394 l 18 18 c 0 -126 c 66 0 6020 418 l -36 -48 c 18 0 c 12 -6 c 6 -6 c 6 -18 c 0 -12 c -6 -18 c -12 -12 c
-18 -6 c -18 0 c -18 6 c -6 6 c -6 12 c -6 -18 6206 376 l -12 -12 c -18 -6 c -6 0 c -18 6 c -12 12 c -6 18 c 0 6 c 6 18 c 12 12 c
18 6 c 6 0 c 18 -6 c 12 -12 c 6 -24 c 0 -30 c -6 -30 c -12 -18 c -18 -6 c -12 0 c -18 6 c -6 12 c -6 -6 6260 304 l 6 -6 c 6 6 c
-6 6 c -12 0 6350 418 l -12 -6 c -6 -18 c 0 -102 c 42 0 6302 376 l 6 -6 6380 418 l 6 6 c -6 6 c -6 -6 c 0 -84 6386 376 l
0 -102 6440 418 l 6 -18 c 12 -6 c 12 0 c 42 0 6422 376 l -6 12 6566 358 l -18 6 c -18 0 c -18 -6 c -6 -12 c 6 -12 c 12 -6 c 30 -6 c
12 -6 c 6 -12 c 0 -6 c -6 -12 c -18 -6 c -18 0 c -18 6 c -6 12 c 0 -192 6896 442 l 0 -192 6902 442 l 42 0 6896 442 l 42 0 6896 250 l
0 6 6980 388 l 6 12 c 6 6 c 12 6 c 24 0 c 12 -6 c 6 -6 c 6 -12 c 0 -12 c -6 -12 c -12 -18 c -60 -60 c 84 0 c -6 -6 7106 376 l 6 -6 c
6 6 c -6 6 c -6 -6 7106 304 l 6 -6 c 6 6 c -6 6 c 0 -192 7286 442 l 0 -192 7292 442 l 42 0 7250 442 l 42 0 7250 250 l
0 -249 927 1519 l 79 -38 884 1644 l 0 53 884 1591 l 11 -4 910 1716 l 8 -7 c 4 -12 c 0 -3 c -4 -12 c -8 -7 c -11 -4 c -4 0 c -11 4 c
-8 7 c -3 12 c 0 3 c 3 12 c 8 7 c 15 4 c 19 0 c 19 -4 c 11 -7 c 4 -12 c 0 -7 c -4 -12 c -7 -3 c 3 -11 884 1765 l 12 -8 c 19 -4 c
11 0 c 19 4 c 11 8 c 4 11 c 0 8 c -4 11 c -11 8 c -19 3 c -11 0 c -19 -3 c -12 -8 c -3 -11 c 0 -8 c 3 -12 884 1841 l 12 -7 c 19 -4 c
11 0 c 19 4 c 11 7 c 4 12 c 0 7 c -4 12 c -11 7 c -19 4 c -11 0 c -19 -4 c -12 -7 c -3 -12 c 0 -7 c 4 -4 955 1901 l 4 4 c -4 4 c
-4 -4 c 0 42 884 1939 l 30 -23 c 0 11 c 4 8 c 3 4 c 12 3 c 7 0 c 12 -3 c 7 -8 c 4 -11 c 0 -12 c -4 -11 c -4 -4 c -7 -4 c
-4 0 903 2011 l -8 4 c -4 3 c -3 8 c 0 15 c 3 8 c 4 3 c 8 4 c 7 0 c 8 -4 c 11 -7 c 38 -38 c 0 53 c 3 -11 884 2105 l 12 -8 c 19 -3 c
11 0 c 19 3 c 11 8 c 4 11 c 0 8 c -4 11 c -11 8 c -19 4 c -11 0 c -19 -4 c -12 -8 c -3 -11 c 0 -8 c 0 -250 2171 1493 l
80 -37 2127 1617 l 0 53 2127 1564 l 11 -4 2154 1689 l 8 -7 c 3 -11 c 0 -4 c -3 -12 c -8 -7 c -11 -4 c -4 0 c -11 4 c -8 7 c -4 12 c
0 4 c 4 11 c 8 7 c 15 4 c 19 0 c 18 -4 c 12 -7 c 4 -11 c 0 -8 c -4 -11 c -8 -4 c -3 8 2142 1727 l -12 11 c 80 0 c -8 -3 2139 1840 l
-4 -12 c 0 -7 c 4 -12 c 11 -7 c 19 -4 c 19 0 c 15 4 c 8 7 c 4 12 c 0 4 c -4 11 c -8 7 c -11 4 c -4 0 c -11 -4 c -8 -7 c -4 -11 c
0 -4 c 4 -12 c 8 -7 c 11 -4 c 4 -3 2199 1874 l 4 3 c -4 4 c -4 -4 c 53 -37 2127 1942 l 0 56 c 80 0 2127 1942 l 53 -38 2127 2018 l
0 57 c 80 0 2127 2018 l -4 0 2146 2060 l -7 3 c -4 4 c -4 8 c 0 15 c 4 7 c 4 4 c 7 4 c 8 0 c 7 -4 c 12 -7 c 38 -38 c 0 53 c
0 -250 2838 1336 l 80 -38 2794 1461 l 0 53 2794 1408 l 11 -3 2821 1532 l 8 -8 c 4 -11 c 0 -4 c -4 -11 c -8 -8 c -11 -4 c -4 0 c
-11 4 c -8 8 c -4 11 c 0 4 c 4 11 c 8 8 c 15 3 c 19 0 c 19 -3 c 11 -8 c 4 -11 c 0 -8 c -4 -11 c -7 -4 c -3 0 2813 1563 l -8 3 c
-4 4 c -4 8 c 0 15 c 4 7 c 4 4 c 8 4 c 7 0 c 8 -4 c 11 -7 c 38 -38 c 0 53 c 53 -38 2794 1672 l 0 57 c 80 0 2794 1672 l
4 -4 2866 1718 l 4 4 c -4 3 c -4 -3 c 11 -4 2821 1797 l 8 -7 c 4 -12 c 0 -3 c -4 -12 c -8 -7 c -11 -4 c -4 0 c -11 4 c -8 7 c
-4 12 c 0 3 c 4 12 c 8 7 c 15 4 c 19 0 c 19 -4 c 11 -7 c 4 -12 c 0 -7 c -4 -12 c -7 -3 c 11 -4 2821 1873 l 8 -8 c 4 -11 c 0 -4 c
-4 -11 c -8 -8 c -11 -4 c -4 0 c -11 4 c -8 8 c -4 11 c 0 4 c 4 11 c 8 8 c 15 4 c 19 0 c 19 -4 c 11 -8 c 4 -11 c 0 -8 c -4 -11 c
-7 -4 c -4 8 2810 1910 l -12 11 c 80 0 c 0 -249 3844 1568 l 79 -38 3800 1693 l 0 53 3800 1640 l 12 -4 3826 1765 l 7 -7 c 4 -12 c
0 -3 c -4 -12 c -7 -7 c -12 -4 c -3 0 c -12 4 c -7 7 c -4 12 c 0 3 c 4 12 c 7 7 c 15 4 c 19 0 c 19 -4 c 12 -7 c 3 -12 c 0 -7 c
-3 -12 c -8 -3 c 0 42 3800 1799 l 30 -23 c 0 11 c 4 8 c 4 4 c 11 3 c 8 0 c 11 -3 c 8 -8 c 3 -11 c 0 -12 c -3 -11 c -4 -4 c -8 -4 c
79 -38 3800 1920 l 0 53 3800 1867 l 4 -4 3872 1950 l 3 4 c -3 4 c -4 -4 c 79 -37 3800 2033 l 0 53 3800 1980 l 0 41 3800 2064 l
30 -23 c 0 12 c 4 7 c 4 4 c 11 4 c 8 0 c 11 -4 c 8 -7 c 3 -12 c 0 -11 c -3 -11 c -4 -4 c -8 -4 c 53 -37 3800 2169 l 0 56 c
79 0 3800 2169 l 0 -249 4162 1553 l 80 -38 4118 1678 l 0 53 4118 1625 l 11 -4 4145 1750 l 8 -7 c 4 -12 c 0 -4 c -4 -11 c -8 -7 c
-11 -4 c -4 0 c -11 4 c -8 7 c -4 11 c 0 4 c 4 12 c 8 7 c 15 4 c 19 0 c 19 -4 c 11 -7 c 4 -12 c 0 -7 c -4 -12 c -8 -3 c
53 -38 4118 1814 l 0 57 c 80 0 4118 1814 l -4 8 4134 1863 l -12 11 c 80 0 c 4 -4 4190 1935 l 4 4 c -4 4 c -4 -4 c 80 -37 4118 2018 l
0 53 4118 1965 l -3 0 4137 2045 l -8 4 c -4 3 c -4 8 c 0 15 c 4 8 c 4 3 c 8 4 c 7 0 c 8 -4 c 11 -7 c 38 -38 c 0 53 c
-8 -4 4130 2166 l -4 -11 c 0 -8 c 4 -11 c 12 -8 c 18 -4 c 19 0 c 15 4 c 8 8 c 4 11 c 0 4 c -4 11 c -8 8 c -11 3 c -4 0 c -11 -3 c
-8 -8 c -3 -11 c 0 -4 c 3 -11 c 8 -8 c 11 -4 c 0 -250 5197 1454 l 79 -38 5154 1579 l 0 53 5154 1526 l 12 -4 5180 1651 l 7 -8 c
4 -11 c 0 -4 c -4 -11 c -7 -8 c -12 -4 c -4 0 c -11 4 c -7 8 c -4 11 c 0 4 c 4 11 c 7 8 c 15 4 c 19 0 c 19 -4 c 11 -8 c 4 -11 c
0 -8 c -4 -11 c -7 -4 c 0 -37 5154 1722 l 34 -4 c -4 4 c -4 11 c 0 11 c 4 12 c 8 7 c 11 4 c 7 0 c 12 -4 c 7 -7 c 4 -12 c 0 -11 c
-4 -11 c -3 -4 c -8 -4 c 53 -37 5154 1790 l 0 56 c 79 0 5154 1790 l 3 -4 5226 1836 l 4 4 c -4 3 c -3 -3 c 0 -37 5154 1911 l 34 -4 c
-4 4 c -4 11 c 0 11 c 4 12 c 8 7 c 11 4 c 7 0 c 12 -4 c 7 -7 c 4 -12 c 0 -11 c -4 -11 c -3 -4 c -8 -4 c 12 -4 5180 1991 l 7 -8 c
4 -11 c 0 -4 c -4 -11 c -7 -8 c -12 -3 c -4 0 c -11 3 c -7 8 c -4 11 c 0 4 c 4 11 c 7 8 c 15 4 c 19 0 c 19 -4 c 11 -8 c 4 -11 c
0 -8 c -4 -11 c -7 -4 c -4 0 5173 2021 l -8 4 c -3 3 c -4 8 c 0 15 c 4 8 c 3 3 c 8 4 c 7 0 c 8 -4 c 11 -7 c 38 -38 c 0 53 c
0 -250 6677 1701 l 79 -37 6634 1825 l 0 52 6634 1773 l 11 -3 6660 1897 l 8 -8 c 4 -11 c 0 -4 c -4 -12 c -8 -7 c -11 -4 c -4 0 c
-11 4 c -8 7 c -3 12 c 0 4 c 3 11 c 8 8 c 15 3 c 19 0 c 19 -3 c 11 -8 c 4 -11 c 0 -8 c -4 -11 c -7 -4 c 79 -38 6634 1977 l
0 53 6634 1924 l -4 0 6653 2003 l -8 4 c -4 4 c -3 7 c 0 15 c 3 8 c 4 4 c 8 3 c 7 0 c 8 -3 c 11 -8 c 38 -38 c 0 53 c
4 -3 6705 2082 l 4 3 c -4 4 c -4 -4 c 0 -38 6634 2158 l 34 -4 c -4 4 c -4 12 c 0 11 c 4 11 c 7 8 c 12 4 c 7 0 c 12 -4 c 7 -8 c
4 -11 c 0 -11 c -4 -12 c -4 -4 c -7 -3 c 11 -3 6660 2237 l 8 -8 c 4 -11 c 0 -4 c -4 -11 c -8 -8 c -11 -4 c -4 0 c -11 4 c -8 8 c
-3 11 c 0 4 c 3 11 c 8 8 c 15 3 c 19 0 c 19 -3 c 11 -8 c 4 -11 c 0 -8 c -4 -11 c -7 -4 c -8 -4 6645 2313 l -3 -11 c 0 -8 c 3 -11 c
12 -8 c 19 -3 c 19 0 c 15 3 c 7 8 c 4 11 c 0 4 c -4 11 c -7 8 c -12 4 c -3 0 c -12 -4 c -7 -8 c -4 -11 c 0 -4 c 4 -11 c 7 -8 c
12 -3 c 0 -250 7211 6873 l 79 -37 7167 6997 l 0 53 7167 6944 l 11 -4 7194 7069 l 7 -7 c 4 -11 c 0 -4 c -4 -12 c -7 -7 c -11 -4 c
-4 0 c -12 4 c -7 7 c -4 12 c 0 4 c 4 11 c 7 7 c 16 4 c 18 0 c 19 -4 c 12 -7 c 3 -11 c 0 -8 c -3 -11 c -8 -4 c 79 -38 7167 7149 l
0 53 7167 7096 l 4 -11 7167 7190 l 7 -4 c 8 0 c 8 4 c 3 7 c 4 16 c 4 11 c 7 7 c 8 4 c 11 0 c 8 -4 c 4 -3 c 3 -12 c 0 -15 c -3 -11 c
-4 -4 c -8 -4 c -11 0 c -8 4 c -7 8 c -4 11 c -4 15 c -3 8 c -8 3 c -8 0 c -7 -3 c -4 -12 c 0 -15 c 4 -3 7239 7254 l 3 3 c -3 4 c
-4 -4 c 11 -4 7194 7334 l 7 -8 c 4 -11 c 0 -4 c -4 -11 c -7 -8 c -11 -3 c -4 0 c -12 3 c -7 8 c -4 11 c 0 4 c 4 11 c 7 8 c 16 4 c
18 0 c 19 -4 c 12 -8 c 3 -11 c 0 -7 c -3 -12 c -8 -4 c 79 -38 7167 7413 l 0 53 7167 7360 l 0 42 7167 7443 l 30 -23 c 0 12 c 4 7 c
4 4 c 11 4 c 8 0 c 11 -4 c 8 -8 c 3 -11 c 0 -11 c -3 -12 c -4 -3 c -8 -4 c
showpage PGPLOT restore
 
%%Trailer
%%DocumentFonts: 
%%Pages: 1
%%EOF
