%!PS-Adobe-3.0 EPSF-3.0
%%For: tab
%%Title: PGPLOT PostScript plot
%%Creator: PGPLOT
%%CreationDate: 20-Apr-1995 16:47
%%BoundingBox: 25 18 587 774
%%DocumentFonts: (atend)
%%LanguageLevel: 1
%%Orientation: Landscape
%%Pages: (atend)
%%EndComments
%%BeginProlog
/l {moveto rlineto currentpoint stroke moveto} bind def
/c {rlineto currentpoint stroke moveto} bind def
/d {moveto 0 0 rlineto currentpoint stroke moveto} bind def
/SLW {5 mul setlinewidth} bind def
/SCF /pop load def
/BP {newpath moveto} bind def
/LP /rlineto load def
/EP {rlineto closepath eofill} bind def
/MB {gsave translate MFAC dup scale 1 setlinewidth 2 setlinecap 0 setlinejoin newpath} bind def
/ME /grestore load def
/C {0 360 arc stroke} bind def
/FC {0 360 arc fill} bind def
%%EndProlog
 
%%Page: 1 1
%%BeginPageSetup
/PGPLOT save def
0.072 0.072 scale
8150 250 translate 90 rotate
1 setlinejoin 1 setlinecap 1 SLW 1 SCF
%%EndPageSetup
0.000 setgray 1 SLW 8939 0 780 780 l 0 6239 c -8939 0 c 0 -6239 c 0 -45 1116 780 l 0 -45 1554 780 l 0 -45 1991 780 l
0 -45 2428 780 l 0 -90 2865 780 l 0 -45 3302 780 l 0 -45 3739 780 l 0 -45 4176 780 l 0 -45 4613 780 l 0 -90 5051 780 l
0 -45 5488 780 l 0 -45 5925 780 l 0 -45 6362 780 l 0 -45 6799 780 l 0 -90 7236 780 l 0 -45 7673 780 l 0 -45 8110 780 l
0 -45 8548 780 l 0 -45 8985 780 l 0 -90 9422 780 l 0 -45 1116 7064 l 0 -45 1554 7064 l 0 -45 1991 7064 l 0 -45 2428 7064 l
0 -90 2865 7109 l 0 -45 3302 7064 l 0 -45 3739 7064 l 0 -45 4176 7064 l 0 -45 4613 7064 l 0 -90 5051 7109 l 0 -45 5488 7064 l
0 -45 5925 7064 l 0 -45 6362 7064 l 0 -45 6799 7064 l 0 -90 7236 7109 l 0 -45 7673 7064 l 0 -45 8110 7064 l 0 -45 8548 7064 l
0 -45 8985 7064 l 0 -90 9422 7109 l -60 0 2775 672 l -6 -54 c 6 6 c 18 6 c 18 0 c 18 -6 c 12 -12 c 6 -18 c 0 -12 c -6 -18 c
-12 -12 c -18 -6 c -18 0 c -18 6 c -6 6 c -6 12 c -18 -6 2859 672 l -12 -18 c -6 -30 c 0 -18 c 6 -30 c 12 -18 c 18 -6 c 12 0 c
18 6 c 12 18 c 6 30 c 0 18 c -6 30 c -12 18 c -18 6 c -12 0 c -18 -6 2979 672 l -12 -18 c -6 -30 c 0 -18 c 6 -30 c 12 -18 c 18 -6 c
12 0 c 18 6 c 12 18 c 6 30 c 0 18 c -6 30 c -12 18 c -18 6 c -12 0 c 12 6 4847 648 l 18 18 c 0 -126 c -18 -6 4985 672 l -12 -18 c
-6 -30 c 0 -18 c 6 -30 c 12 -18 c 18 -6 c 12 0 c 18 6 c 12 18 c 6 30 c 0 18 c -6 30 c -12 18 c -18 6 c -12 0 c -18 -6 5105 672 l
-12 -18 c -6 -30 c 0 -18 c 6 -30 c 12 -18 c 18 -6 c 12 0 c 18 6 c 12 18 c 6 30 c 0 18 c -6 30 c -12 18 c -18 6 c -12 0 c
-18 -6 5225 672 l -12 -18 c -6 -30 c 0 -18 c 6 -30 c 12 -18 c 18 -6 c 12 0 c 18 6 c 12 18 c 6 30 c 0 18 c -6 30 c -12 18 c -18 6 c
-12 0 c 12 6 7032 648 l 18 18 c 0 -126 c -60 0 7206 672 l -6 -54 c 6 6 c 18 6 c 18 0 c 18 -6 c 12 -12 c 6 -18 c 0 -12 c -6 -18 c
-12 -12 c -18 -6 c -18 0 c -18 6 c -6 6 c -6 12 c -18 -6 7290 672 l -12 -18 c -6 -30 c 0 -18 c 6 -30 c 12 -18 c 18 -6 c 12 0 c
18 6 c 12 18 c 6 30 c 0 18 c -6 30 c -12 18 c -18 6 c -12 0 c -18 -6 7410 672 l -12 -18 c -6 -30 c 0 -18 c 6 -30 c 12 -18 c 18 -6 c
12 0 c 18 6 c 12 18 c 6 30 c 0 18 c -6 30 c -12 18 c -18 6 c -12 0 c 0 6 9206 642 l 6 12 c 6 6 c 12 6 c 24 0 c 12 -6 c 6 -6 c
6 -12 c 0 -12 c -6 -12 c -12 -18 c -60 -60 c 84 0 c -18 -6 9356 672 l -12 -18 c -6 -30 c 0 -18 c 6 -30 c 12 -18 c 18 -6 c 12 0 c
18 6 c 12 18 c 6 30 c 0 18 c -6 30 c -12 18 c -18 6 c -12 0 c -18 -6 9476 672 l -12 -18 c -6 -30 c 0 -18 c 6 -30 c 12 -18 c 18 -6 c
12 0 c 18 6 c 12 18 c 6 30 c 0 18 c -6 30 c -12 18 c -18 6 c -12 0 c -18 -6 9596 672 l -12 -18 c -6 -30 c 0 -18 c 6 -30 c 12 -18 c
18 -6 c 12 0 c 18 6 c 12 18 c 6 30 c 0 18 c -6 30 c -12 18 c -18 6 c -12 0 c -90 0 780 801 l -45 0 780 1033 l -45 0 780 1264 l
-45 0 780 1496 l -45 0 780 1728 l -90 0 780 1959 l -45 0 780 2191 l -45 0 780 2423 l -45 0 780 2654 l -45 0 780 2886 l
-90 0 780 3118 l -45 0 780 3349 l -45 0 780 3581 l -45 0 780 3813 l -45 0 780 4044 l -90 0 780 4276 l -45 0 780 4508 l
-45 0 780 4740 l -45 0 780 4971 l -45 0 780 5203 l -90 0 780 5435 l -45 0 780 5666 l -45 0 780 5898 l -45 0 780 6130 l
-45 0 780 6361 l -90 0 780 6593 l -45 0 780 6825 l -90 0 9809 801 l -45 0 9764 1033 l -45 0 9764 1264 l -45 0 9764 1496 l
-45 0 9764 1728 l -90 0 9809 1959 l -45 0 9764 2191 l -45 0 9764 2423 l -45 0 9764 2654 l -45 0 9764 2886 l -90 0 9809 3118 l
-45 0 9764 3349 l -45 0 9764 3581 l -45 0 9764 3813 l -45 0 9764 4044 l -90 0 9809 4276 l -45 0 9764 4508 l -45 0 9764 4740 l
-45 0 9764 4971 l -45 0 9764 5203 l -90 0 9809 5435 l -45 0 9764 5666 l -45 0 9764 5898 l -45 0 9764 6130 l -45 0 9764 6361 l
-90 0 9809 6593 l -45 0 9764 6825 l 6 -18 517 795 l 18 -12 c 30 -6 c 18 0 c 30 6 c 18 12 c 6 18 c 0 12 c -6 18 c -18 12 c -30 6 c
-18 0 c -30 -6 c -18 -12 c -6 -18 c 0 -12 c -6 12 541 1839 l -18 18 c 126 0 c 6 -18 517 1977 l 18 -12 c 30 -6 c 18 0 c 30 6 c
18 12 c 6 18 c 0 12 c -6 18 c -18 12 c -30 6 c -18 0 c -30 -6 c -18 -12 c -6 -18 c 0 -12 c 63 -45 453 2102 l 0 67 c 94 0 453 2102 l
-6 0 547 2860 l -12 6 c -6 6 c -6 12 c 0 24 c 6 12 c 6 6 c 12 6 c 12 0 c 12 -6 c 18 -12 c 60 -60 c 0 84 c 84 84 547 2980 l
84 -84 547 3064 l -6 12 541 3124 l -18 18 c 126 0 c 6 -18 517 3262 l 18 -12 c 30 -6 c 18 0 c 30 6 c 18 12 c 6 18 c 0 12 c -6 18 c
-18 12 c -30 6 c -18 0 c -30 -6 c -18 -12 c -6 -18 c 0 -12 c 63 -45 453 3386 l 0 68 c 94 0 453 3386 l 0 66 517 4024 l 48 -36 c
0 18 c 6 12 c 6 6 c 18 6 c 12 0 c 18 -6 c 12 -12 c 6 -18 c 0 -18 c -6 -18 c -6 -6 c -12 -6 c 84 84 547 4138 l 84 -84 547 4222 l
-6 12 541 4282 l -18 18 c 126 0 c 6 -18 517 4420 l 18 -12 c 30 -6 c 18 0 c 30 6 c 18 12 c 6 18 c 0 12 c -6 18 c -18 12 c -30 6 c
-18 0 c -30 -6 c -18 -12 c -6 -18 c 0 -12 c 63 -45 453 4545 l 0 67 c 94 0 453 4545 l 84 -60 517 5231 l 0 90 c 126 0 517 5231 l
84 84 547 5297 l 84 -84 547 5381 l -6 12 541 5441 l -18 18 c 126 0 c 6 -18 517 5579 l 18 -12 c 30 -6 c 18 0 c 30 6 c 18 12 c 6 18 c
0 12 c -6 18 c -18 12 c -30 6 c -18 0 c -30 -6 c -18 -12 c -6 -18 c 0 -12 c 63 -45 453 5703 l 0 68 c 94 0 453 5703 l
0 -60 517 6401 l 54 -6 c -6 6 c -6 18 c 0 18 c 6 18 c 12 12 c 18 6 c 12 0 c 18 -6 c 12 -12 c 6 -18 c 0 -18 c -6 -18 c -6 -6 c
-12 -6 c 84 84 547 6455 l 84 -84 547 6539 l -6 12 541 6599 l -18 18 c 126 0 c 6 -18 517 6737 l 18 -12 c 30 -6 c 18 0 c 30 6 c
18 12 c 6 18 c 0 12 c -6 18 c -18 12 c -30 6 c -18 0 c -30 -6 c -18 -12 c -6 -18 c 0 -12 c 63 -45 453 6861 l 0 68 c 94 0 453 6861 l
4 1 780 826 l 5 -1 c 4 1 c 4 -2 c 5 2 c 4 0 c 4 4 c 5 10 c 4 20 c 5 5 c 4 -11 c 4 -10 c 5 -2 c 4 -1 c 4 -10 c 5 -2 c 4 0 c 5 -1 c
4 -2 c 4 2 c 5 20 c 4 61 c 4 30 c 5 -25 c 4 -67 c 5 -22 c 4 -3 c 4 -2 c 5 1 c 4 1 c 4 -1 c 5 1 c 4 -1 c 5 -1 c 4 -1 c 4 1 c 5 0 c
4 -1 c 4 0 c 5 0 c 4 0 c 4 1 c 5 -1 c 4 3 c 5 2 c 4 -2 c 4 -1 c 5 -1 c 4 -2 c 4 0 c 5 -1 c 4 3 c 5 3 c 4 1 c 4 -4 c 5 -2 c 4 -1 c
4 0 c 5 0 c 4 0 c 5 0 c 4 0 c 4 0 c 5 0 c 4 0 c 4 0 c 5 0 c 4 0 c 5 0 c 4 0 c 4 0 c 5 0 c 4 0 c 4 0 c 5 -1 c 4 1 c 4 -1 c 5 1 c
4 1 c 5 3 c 4 20 c 4 21 c 5 1 c 4 -63 c 4 0 c 5 17 c 4 -1 c 5 1 c 4 -1 c 4 0 c 5 1 c 4 -1 c 4 1 c 5 0 c 4 0 c 5 0 c 4 1 c 4 1 c
5 2 c 4 3 c 4 10 c 5 50 c 4 33 c 5 -11 c 4 -59 c 4 -25 c 5 -2 c 4 3 c 4 12 c 5 61 c 4 38 c 4 -17 c 5 -68 c 4 -26 c 5 -4 c 4 -1 c
4 0 c 5 0 c 4 0 c 4 0 c 5 -1 c 4 0 c 5 0 c 4 0 c 4 1 c 5 0 c 4 0 c 4 0 c 5 0 c 4 2 c 5 2 c 4 -1 c 4 -3 c 5 0 c 4 -1 c 4 0 c 5 0 c
4 0 c 5 1 c 4 1 c 4 -1 c 5 1 c 4 0 c 4 0 c 5 -1 c 4 -1 c 4 1 c 5 0 c 4 0 c 5 0 c 4 0 c 4 1 c 5 0 c 4 0 c 4 -1 c 5 -1 c 4 0 c 5 0 c
4 0 c 4 1 c 5 1 c 4 1 c 4 -1 c 5 -1 c 4 -1 c 5 0 c 4 0 c 4 0 c 5 0 c 4 -1 c 4 1 c 5 0 c 4 0 c 4 0 c 5 0 c 4 0 c 5 0 c 4 0 c 4 0 c
5 0 c 4 0 c 4 0 c 5 0 c 4 0 c 5 0 c 4 0 c 4 0 c 5 0 c 4 0 c 4 0 c 5 0 c 4 0 c 5 0 c 4 -1 c 4 0 c 5 1 c 4 0 c 4 0 c 5 0 c 4 0 c
5 -1 c 4 1 c 4 -1 c 5 0 c 4 1 c 4 0 c 5 0 c 4 0 c 4 0 c 5 -1 c 4 1 c 5 0 c 4 0 c 4 0 c 5 0 c 4 0 c 4 0 c 5 1 c 4 1 c 5 0 c 4 -1 c
4 0 c 5 -1 c 4 -1 c 4 1 c 5 1 c 4 1 c 5 -1 c 4 -1 c 4 0 c 5 0 c 4 0 c 4 0 c 5 0 c 4 0 c 5 1 c 4 1 c 4 0 c 5 0 c 4 -2 c 4 1 c 5 0 c
4 0 c 4 0 c 5 -1 c 4 0 c 5 0 c 4 1 c 4 0 c 5 0 c 4 1 c 4 2 c 5 12 c 4 23 c 5 6 c 4 -18 c 4 -14 c 5 1 c 4 16 c 4 35 c 5 8 c 4 -30 c
5 -34 c 4 -6 c 4 0 c 5 -2 c 4 0 c 4 1 c 5 -1 c 4 0 c 5 1 c 4 -1 c 4 0 c 5 1 c 4 0 c 4 0 c 5 0 c 4 1 c 4 -1 c 5 0 c 4 -1 c 5 1 c
4 -1 c 4 1 c 5 0 c 4 0 c 4 -1 c 5 1 c 4 1 c 5 -1 c 4 1 c 4 0 c 5 1 c 4 0 c 4 0 c 5 1 c 4 0 c 5 0 c 4 0 c 4 0 c 5 0 c 4 3 c 4 8 c
5 9 c 4 3 c 5 4 c 4 53 c 4 395 c 5 2026 c 4 1210 c 4 -448 c 5 -2276 c 4 -891 c 4 -79 c 5 -7 c 4 -3 c 5 -1 c 4 -1 c 4 -1 c 5 -1 c
4 0 c 4 0 c 5 2 c 4 3 c 5 2 c 4 0 c 4 -1 c 5 16 c 4 9 c 4 -1 c 5 -9 c 4 31 c 5 233 c 4 764 c 4 458 c 5 -360 c 4 -836 c 4 -260 c
5 -37 c 4 -6 c 4 -3 c 5 -2 c 4 -1 c 5 0 c 4 1 c 4 -2 c 5 -2 c 4 -1 c 4 0 c 5 -1 c 4 0 c 5 0 c 4 3 c 4 5 c 5 1 c 4 -4 c 4 -4 c 5 -1 c
4 0 c 5 -1 c 4 0 c 4 0 c 5 0 c 4 0 c 4 1 c 5 1 c 4 4 c 5 0 c 4 -2 c 4 2 c 5 -1 c 4 -3 c 4 0 c 5 1 c 4 0 c 4 -1 c 5 -1 c 4 -1 c
5 -1 c 4 2 c 4 -1 c 5 0 c 4 -1 c 4 0 c 5 1 c 4 2 c 5 0 c 4 0 c 4 -2 c 5 0 c 4 -1 c 4 1 c 5 1 c 4 -1 c 5 0 c 4 1 c 4 -2 c 5 1 c
4 -1 c 4 1 c 5 0 c 4 0 c 5 2 c 4 0 c 4 0 c 5 0 c 4 0 c 4 -2 c 5 -1 c 4 2 c 4 1 c 5 0 c 4 -1 c 5 1 c 4 0 c 4 1 c 5 -2 c 4 0 c 4 7 c
5 44 c 4 36 c 5 0 c 4 -45 c 4 -25 c 5 -14 c 4 -5 c 4 0 c 5 1 c 4 3 c 5 16 c 4 65 c 4 22 c 5 -29 c 4 -62 c 4 -14 c 5 -1 c 4 0 c 5 0 c
4 0 c 4 0 c 5 2 c 4 6 c 4 58 c 5 108 c 4 31 c 4 -64 c 5 -119 c 4 -20 c 5 -1 c 4 0 c 4 1 c 5 0 c 4 -1 c 4 -1 c 5 -1 c 4 0 c 5 1 c
4 0 c 4 0 c 5 0 c 4 0 c 4 -1 c 5 0 c 4 0 c 5 2 c 4 12 c 4 14 c 5 40 c 4 34 c 4 -7 c 5 -55 c 4 -36 c 5 -3 c 4 -1 c 4 0 c 5 1 c 4 0 c
4 0 c 5 2 c 4 5 c 4 0 c 5 -3 c 4 -4 c 5 0 c 4 0 c 4 0 c 5 1 c 4 0 c 4 -1 c 5 0 c 4 0 c 5 0 c 4 -1 c 4 0 c 5 1 c 4 0 c 4 0 c 5 0 c
4 -1 c 5 0 c 4 1 c 4 0 c 5 -1 c 4 0 c 4 0 c 5 3 c 4 1 c 4 -1 c 5 -2 c 4 -1 c 5 0 c 4 1 c 4 0 c 5 1 c 4 0 c 4 -1 c 5 0 c 4 0 c 5 0 c
4 0 c 4 1 c 5 0 c 4 0 c 4 -1 c 5 1 c 4 0 c 5 0 c 4 0 c 4 -1 c 5 0 c 4 0 c 4 0 c 5 2 c 4 0 c 5 -1 c 4 -1 c 4 0 c 5 0 c 4 0 c 4 0 c
5 0 c 4 0 c 4 0 c 5 -1 c 4 1 c 5 0 c 4 0 c 4 0 c 5 1 c 4 0 c 4 0 c 5 0 c 4 -1 c 5 0 c 4 1 c 4 0 c 5 1 c 4 -1 c 4 0 c 5 0 c 4 0 c
5 -1 c 4 0 c 4 1 c 5 0 c 4 1 c 4 1 c 5 0 c 4 -1 c 5 0 c 4 0 c 4 -2 c 5 1 c 4 0 c 4 0 c 5 0 c 4 0 c 4 0 c 5 1 c 4 1 c 5 -1 c 4 -1 c
4 0 c 5 0 c 4 0 c 4 1 c 5 0 c 4 0 c 5 1 c 4 0 c 4 -1 c 5 -1 c 4 0 c 4 1 c 5 0 c 4 0 c 5 -1 c 4 0 c 4 0 c 5 0 c 4 0 c 4 1 c 5 3 c
4 6 c 5 0 c 4 -4 c 4 -4 c 5 -1 c 4 0 c 4 -1 c 5 0 c 4 2 c 4 13 c 5 16 c 4 -2 c 5 -18 c 4 -9 c 4 -1 c 5 0 c 4 1 c 4 -1 c 5 1 c 4 0 c
5 6 c 4 53 c 4 62 c 5 -1 c 4 -65 c 4 -53 c 5 -2 c 4 0 c 5 0 c 4 -1 c 4 1 c 5 0 c 4 -1 c 4 1 c 5 0 c 4 -1 c 4 1 c 5 0 c 4 0 c 5 1 c
4 1 c 4 0 c 5 0 c 4 -1 c 4 -1 c 5 0 c 4 -1 c 5 0 c 4 0 c 4 1 c 5 0 c 4 0 c 4 0 c 5 0 c 4 0 c 5 0 c 4 1 c 4 2 c 5 32 c 4 124 c 4 50 c
5 -43 c 4 -131 c 5 -32 c 4 -2 c 4 -1 c 5 0 c 4 -1 c 4 0 c 5 1 c 4 -1 c 4 0 c 5 0 c 4 1 c 5 0 c 4 0 c 4 -1 c 5 1 c 4 0 c 4 0 c 5 0 c
4 0 c 5 -1 c 4 1 c 4 0 c 5 0 c 4 0 c 4 0 c 5 1 c 4 -1 c 5 1 c 4 1 c 4 -1 c 5 1 c 4 3 c 4 4 c 5 4 c 4 -1 c 5 -5 c 4 -3 c 4 -1 c 5 2 c
4 2 c 4 1 c 5 -1 c 4 -1 c 4 0 c 5 0 c 4 2 c 5 1 c 4 0 c 4 -1 c 5 0 c 4 1 c 4 1 c 5 1 c 4 2 c 5 0 c 4 1 c 4 2 c 5 2 c 4 3 c 4 1 c
5 0 c 4 -1 c 5 0 c 4 1 c 4 2 c 5 8 c 4 28 c 4 13 c 5 -10 c 4 -26 c 5 -2 c 4 4 c 4 4 c 5 4 c 4 -1 c 4 1 c 5 4 c 4 8 c 4 12 c 5 12 c
4 2 c 5 -1 c 4 8 c 4 15 c 5 22 c 4 28 c 4 41 c 5 75 c 4 159 c 5 4459 c 2 1303 c 3 -5700 4112 7019 l 5 -232 c 4 -48 c 4 -29 c 5 -29 c
4 -26 c 4 -19 c 5 -8 c 4 -4 c 5 -8 c 4 -5 c 4 -9 c 5 -5 c 4 -7 c 4 0 c 5 5 c 4 50 c 4 530 c 5 834 c 4 79 c 5 -717 c 4 -688 c 4 -98 c
5 3 c 4 3 c 4 68 c 5 282 c 4 111 c 5 -125 c 4 -293 c 4 -76 c 5 -3 c 4 -5 c 4 0 c 5 1 c 4 3 c 5 1 c 4 -3 c 4 -7 c 5 -3 c 4 1 c 4 2 c
5 -1 c 4 -3 c 4 -3 c 5 -1 c 4 0 c 5 -1 c 4 -1 c 4 1 c 5 0 c 4 -1 c 4 -1 c 5 0 c 4 1 c 5 1 c 4 7 c 4 5 c 5 0 c 4 9 c 4 190 c 5 888 c
4 404 c 5 -302 c 4 -943 c 4 -242 c 5 -17 c 4 -3 c 4 0 c 5 1 c 4 2 c 5 -1 c 4 -3 c 4 -2 c 5 0 c 4 -1 c 4 0 c 5 0 c 4 -1 c 4 -1 c
5 1 c 4 1 c 5 -1 c 4 -2 c 4 0 c 5 0 c 4 2 c 4 1 c 5 0 c 4 -1 c 5 0 c 4 1 c 4 -1 c 5 -2 c 4 0 c 4 0 c 5 -1 c 4 -1 c 5 0 c 4 -1 c
4 1 c 5 1 c 4 0 c 4 -1 c 5 -1 c 4 0 c 5 0 c 4 1 c 4 1 c 5 -1 c 4 -1 c 4 -1 c 5 0 c 4 2 c 4 -1 c 5 0 c 4 -1 c 5 0 c 4 0 c 4 0 c 5 0 c
4 1 c 4 0 c 5 0 c 4 0 c 5 0 c 4 0 c 4 6 c 5 49 c 4 48 c 4 -3 c 5 -60 c 4 -38 c 5 -3 c 4 0 c 4 2 c 5 0 c 4 -1 c 4 -1 c 5 -1 c 4 0 c
5 0 c 4 1 c 4 0 c 5 0 c 4 0 c 4 0 c 5 0 c 4 1 c 4 0 c 5 2 c 4 8 c 5 63 c 4 77 c 4 5 c 5 -52 c 4 96 c 4 165 c 5 -7 c 4 -205 c
5 -140 c 4 -8 c 4 -1 c 5 0 c 4 2 c 4 5 c 5 6 c 4 -1 c 5 -4 c 4 -6 c 4 -3 c 5 -2 c 4 0 c 4 0 c 5 -1 c 4 0 c 5 0 c 4 0 c 4 1 c 5 0 c
4 0 c 4 0 c 5 0 c 4 -1 c 4 1 c 5 -1 c 4 1 c 5 0 c 4 0 c 4 -1 c 5 0 c 4 0 c 4 0 c 5 2 c 4 1 c 5 5 c 4 62 c 4 191 c 5 97 c 4 -86 c
4 -189 c 5 -70 c 4 -8 c 5 -4 c 4 0 c 4 0 c 5 1 c 4 0 c 4 0 c 5 0 c 4 0 c 4 1 c 5 2 c 4 4 c 5 1 c 4 -3 c 4 -4 c 5 -1 c 4 -1 c 4 1 c
5 0 c 4 0 c 5 0 c 4 0 c 4 1 c 5 1 c 4 0 c 4 -1 c 5 1 c 4 0 c 5 1 c 4 1 c 4 0 c 5 5 c 4 17 c 4 113 c 5 482 c 4 420 c 5 -77 c 4 -575 c
4 -318 c 5 -44 c 4 -5 c 4 -7 c 5 -9 c 4 -5 c 4 0 c 5 -1 c 4 -1 c 5 -1 c 4 0 c 4 0 c 5 1 c 4 0 c 4 0 c 5 1 c 4 0 c 5 13 c 4 47 c
4 124 c 5 43 c 4 -48 c 4 -136 c 5 -42 c 4 -3 c 5 -1 c 4 0 c 4 0 c 5 0 c 4 1 c 4 -1 c 5 0 c 4 -1 c 5 1 c 4 -1 c 4 1 c 5 3 c 4 1 c
4 -1 c 5 -2 c 4 -1 c 4 0 c 5 0 c 4 0 c 5 0 c 4 0 c 4 2 c 5 0 c 4 0 c 4 -1 c 5 0 c 4 -1 c 5 0 c 4 0 c 4 0 c 5 0 c 4 1 c 4 2 c 5 0 c
4 -1 c 5 -2 c 4 0 c 4 0 c 5 -1 c 4 1 c 4 0 c 5 1 c 4 1 c 5 0 c 4 -1 c 4 1 c 5 3 c 4 29 c 4 112 c 5 61 c 4 -25 c 4 -122 c 5 -50 c
4 -6 c 5 -3 c 4 1 c 4 0 c 5 1 c 4 0 c 4 -3 c 5 1 c 4 0 c 5 1 c 4 0 c 4 -1 c 5 0 c 4 0 c 4 0 c 5 0 c 4 1 c 5 0 c 4 0 c 4 -1 c 5 0 c
4 0 c 4 0 c 5 0 c 4 -1 c 4 0 c 5 0 c 4 0 c 5 0 c 4 0 c 4 -1 c 5 1 c 4 0 c 4 0 c 5 0 c 4 0 c 5 1 c 4 0 c 4 -1 c 5 0 c 4 -1 c 4 0 c
5 0 c 4 1 c 5 0 c 4 -19 c 4 19 c 5 -1 c 4 0 c 4 1 c 5 1 c 4 0 c 5 -1 c 4 0 c 4 0 c 5 0 c 4 0 c 4 1 c 5 0 c 4 -1 c 4 0 c 5 0 c 4 0 c
5 0 c 4 0 c 4 5 c 5 31 c 4 40 c 4 0 c 5 -37 c 4 -36 c 5 -3 c 4 0 c 4 0 c 5 0 c 4 0 c 4 2 c 5 5 c 4 0 c 5 -1 c 4 -3 c 4 -1 c 5 0 c
4 1 c 4 4 c 5 0 c 4 -1 c 5 -1 c 4 0 c 4 2 c 5 8 c 4 28 c 4 42 c 5 0 c 4 -35 c 4 -41 c 5 -5 c 4 0 c 5 0 c 4 1 c 4 0 c 5 0 c 4 -1 c
4 0 c 5 1 c 4 1 c 5 1 c 4 1 c 4 0 c 5 0 c 4 1 c 4 0 c 5 2 c 4 2 c 5 0 c 4 2 c 4 -2 c 5 2 c 4 3 c 4 5 c 5 3 c 4 4 c 5 6 c 4 16 c
4 34 c 5 160 c 4 1897 c 3 4056 c 3 -3406 6070 7019 l 5 -2578 c 4 -145 c 5 -25 c 4 -7 c 4 -6 c 5 -6 c 4 -4 c 4 -3 c 5 -2 c 4 1 c
5 -2 c 4 1 c 4 -2 c 5 -1 c 4 -3 c 4 -1 c 5 0 c 4 -1 c 5 0 c 4 0 c 4 0 c 5 0 c 4 0 c 4 -1 c 5 0 c 4 2 c 5 12 c 4 25 c 4 5 c 5 -18 c
4 -24 c 4 -4 c 5 -1 c 4 -1 c 4 1 c 5 -1 c 4 0 c 5 0 c 4 0 c 4 0 c 5 0 c 4 -1 c 4 0 c 5 1 c 4 0 c 5 -1 c 4 0 c 4 1 c 5 -1 c 4 0 c
4 1 c 5 -1 c 4 -1 c 5 0 c 4 1 c 4 0 c 5 0 c 4 -1 c 4 -1 c 5 1 c 4 -1 c 4 0 c 5 0 c 4 0 c 5 0 c 4 -1 c 4 0 c 5 0 c 4 0 c 4 0 c 5 1 c
4 0 c 5 0 c 4 -1 c 4 0 c 5 0 c 4 -1 c 4 1 c 5 1 c 4 0 c 5 -1 c 4 1 c 4 0 c 5 0 c 4 1 c 4 1 c 5 0 c 4 -1 c 5 2 c 4 49 c 4 189 c
5 83 c 4 -58 c 4 -196 c 5 -68 c 4 -3 c 4 -1 c 5 0 c 4 -1 c 5 1 c 4 0 c 4 0 c 5 -1 c 4 0 c 4 0 c 5 0 c 4 1 c 5 0 c 4 -1 c 4 0 c 5 0 c
4 0 c 4 0 c 5 0 c 4 0 c 5 0 c 4 0 c 4 0 c 5 0 c 4 0 c 4 -17 c 5 17 c 4 1 c 5 0 c 4 -1 c 4 0 c 5 0 c 4 1 c 4 0 c 5 0 c 4 0 c 4 -1 c
5 0 c 4 1 c 5 -1 c 4 1 c 4 -1 c 5 1 c 4 -1 c 4 1 c 5 0 c 4 0 c 5 0 c 4 0 c 4 0 c 5 0 c 4 1 c 4 2 c 5 10 c 4 94 c 5 108 c 4 12 c
4 -103 c 5 -110 c 4 -8 c 4 0 c 5 0 c 4 0 c 5 0 c 4 4 c 4 56 c 5 138 c 4 36 c 4 -57 c 5 -148 c 4 -30 c 4 -2 c 5 358 c 3 5839 c
4 -6168 6839 7019 l 4 -16 c 5 -3 c 4 -1 c 4 -1 c 5 0 c 4 -1 c 4 0 c 5 0 c 4 -1 c 5 0 c 4 -1 c 4 0 c 5 0 c 4 0 c 4 0 c 5 0 c 4 -1 c
5 1 c 4 0 c 4 0 c 5 0 c 4 0 c 4 -1 c 5 0 c 4 1 c 4 0 c 5 -1 c 4 -1 c 5 -1 c 4 0 c 4 -1 c 5 0 c 4 1 c 4 0 c 5 2 c 4 1 c 5 0 c 4 -2 c
4 -1 c 5 1 c 4 -1 c 4 0 c 5 0 c 4 0 c 5 -1 c 4 0 c 4 1 c 5 1 c 4 5 c 4 6 c 5 -1 c 4 -7 c 4 -5 c 5 0 c 4 1 c 5 -1 c 4 0 c 4 0 c 5 0 c
4 1 c 4 0 c 5 1 c 4 0 c 5 -1 c 4 -1 c 4 -1 c 5 0 c 4 0 c 4 -1 c 5 0 c 4 0 c 5 0 c 4 0 c 4 0 c 5 1 c 4 1 c 4 0 c 5 0 c 4 -1 c 5 0 c
4 1 c 4 1 c 5 0 c 4 -1 c 4 0 c 5 1 c 4 -1 c 4 0 c 5 0 c 4 0 c 5 0 c 4 0 c 4 0 c 5 0 c 4 1 c 4 5 c 5 0 c 4 -1 c 5 -1 c 4 5 c 4 5 c
5 1 c 4 -6 c 4 -6 c 5 -2 c 4 -2 c 5 0 c 4 1 c 4 0 c 5 0 c 4 0 c 4 0 c 5 -1 c 4 0 c 5 1 c 4 0 c 4 0 c 5 -1 c 4 0 c 4 0 c 5 1 c 4 0 c
4 0 c 5 1 c 4 1 c 5 0 c 4 0 c 4 -2 c 5 -1 c 4 0 c 4 0 c 5 1 c 4 -1 c 5 -1 c 4 0 c 4 1 c 5 -1 c 4 1 c 4 0 c 5 0 c 4 0 c 5 0 c 4 1 c
4 1 c 5 0 c 4 -1 c 4 0 c 5 0 c 4 -1 c 5 1 c 4 0 c 4 0 c 5 -1 c 4 -1 c 4 0 c 5 2 c 4 0 c 4 1 c 5 -1 c 4 -1 c 5 0 c 4 0 c 4 0 c 5 0 c
4 0 c 4 -1 c 5 0 c 4 0 c 5 0 c 4 1 c 4 -1 c 5 1 c 4 0 c 4 -1 c 5 0 c 4 1 c 5 0 c 4 1 c 4 0 c 5 -1 c 4 0 c 4 0 c 5 0 c 4 -1 c 5 0 c
4 0 c 4 0 c 5 0 c 4 0 c 4 0 c 5 0 c 4 0 c 4 1 c 5 0 c 4 -1 c 5 0 c 4 0 c 4 0 c 5 0 c 4 0 c 4 0 c 5 0 c 4 0 c 5 0 c 4 0 c 4 1 c
5 -1 c 4 2 c 4 1 c 5 1 c 4 -1 c 5 -2 c 4 0 c 4 4 c 5 5 c 4 0 c 4 -4 c 5 -5 c 4 -1 c 4 0 c 5 -1 c 4 0 c 5 1 c 4 0 c 4 0 c 5 -1 c
4 1 c 4 1 c 5 0 c 4 -1 c 5 0 c 4 1 c 4 -1 c 5 1 c 4 2 c 4 7 c 5 3 c 4 14 c 5 12 c 4 -2 c 4 -19 c 5 -17 c 4 -2 c 4 0 c 5 0 c 4 0 c
5 0 c 4 0 c 4 0 c 5 0 c 4 1 c 4 0 c 5 0 c 4 0 c 4 0 c 5 -1 c 4 1 c 5 0 c 4 0 c 4 0 c 5 0 c 4 -1 c 4 0 c 5 1 c 4 2 c 5 1 c 4 -1 c
4 -3 c 5 0 c 4 0 c 4 0 c 5 1 c 4 0 c 5 0 c 4 -1 c 4 0 c 5 0 c 4 1 c 4 -1 c 5 1 c 4 0 c 5 0 c 4 0 c 4 0 c 5 0 c 4 0 c 4 0 c 5 0 c
4 0 c 4 2 c 5 2 c 4 3 c 5 19 c 4 210 c 4 557 c 5 155 c 4 -218 c 4 -571 c 5 -145 c 4 -10 c 5 -2 c 4 -1 c 4 -1 c 5 0 c 4 0 c 4 0 c
5 -1 c 4 -1 c 5 0 c 4 1 c 4 -1 c 5 1 c 4 0 c 4 6 c 5 3 c 4 -1 c 5 -5 c 4 -3 c 4 0 c 5 0 c 4 0 c 4 0 c 5 0 c 4 0 c 4 0 c 5 0 c 4 -1 c
5 0 c 4 1 c 4 -1 c 5 1 c 4 -1 c 4 0 c 5 0 c 4 1 c 5 0 c 4 -1 c 4 0 c 5 0 c 4 0 c 4 0 c 5 0 c 4 0 c 5 0 c 4 0 c 4 0 c 5 0 c 4 0 c
4 0 c 5 0 c 4 -1 c 4 0 c 5 0 c 4 1 c 5 0 c 4 0 c 4 0 c 5 0 c 4 -1 c 4 0 c 5 1 c 4 0 c 5 0 c 4 0 c 4 -1 c 5 0 c 4 0 c 4 0 c 5 0 c
4 0 c 5 0 c 4 0 c 4 0 c 5 0 c 4 0 c 4 2 c 5 8 c 4 11 c 5 2 c 4 -10 c 4 -12 c 5 0 c 4 0 c 4 -1 c 5 1 c 4 0 c 4 0 c 5 0 c 4 -1 c 5 0 c
4 0 c 4 0 c 5 0 c 4 0 c 4 1 c 5 0 c 4 1 c 5 0 c 4 2 c 4 7 c 5 3 c 4 -3 c 4 -8 c 5 -3 c 4 1 c 5 -1 c 4 0 c 4 0 c 5 1 c 4 0 c 4 0 c
5 0 c 4 0 c 5 0 c 4 1 c 4 -1 c 5 -1 c 4 0 c 4 1 c 5 0 c 4 0 c 4 -1 c 5 1 c 4 -1 c 5 0 c 4 1 c 4 0 c 5 -1 c 4 0 c 4 0 c 5 0 c 4 1 c
5 0 c 4 0 c 4 -1 c 5 1 c 4 0 c 4 1 c 5 0 c 4 -1 c 5 -1 c 4 0 c 4 1 c 5 -1 c 4 0 c 4 1 c 5 4 c 4 1 c 5 -1 c 4 -4 c 4 -1 c 5 1 c 4 0 c
4 -1 c 5 1 c 4 -1 c 4 0 c 5 0 c 4 0 c 5 0 c 4 -1 c 4 0 c 5 0 c 4 1 c 4 0 c 5 0 c 4 0 c 5 0 c 4 0 c 4 0 c 5 0 c 4 0 c 4 0 c 5 0 c
4 0 c 5 0 c 4 -1 c 4 1 c 5 0 c 4 1 c 4 0 c 5 -1 c 4 0 c 5 0 c 4 1 c 4 0 c 5 2 c 4 11 c 4 107 c 5 231 c 4 72 c 4 -106 c 5 -236 c
4 -74 c 5 -4 c 4 -3 c 4 0 c 5 -1 c 4 2 c 4 0 c 5 0 c 4 -1 c 5 -1 c 4 0 c 4 -1 c 5 1 c 4 0 c 4 0 c 5 -1 c 4 0 c 5 1 c 4 3 c 4 1 c
5 -1 c 4 -3 c 4 -1 c 5 0 c 4 0 c 4 0 c 5 0 c 4 0 c 5 0 c 4 1 c 4 0 c 5 -1 c 4 0 c 4 1 c 5 11 c 4 24 c 5 7 c 4 -10 c 4 -26 c 5 -5 c
4 0 c 4 4 c 5 37 c 4 149 c 5 110 c 4 -10 c 4 -146 c 5 -131 c 4 -11 c 4 1 c 5 10 c 4 15 c 5 1 c 4 -12 c 4 -15 c 5 -3 c 4 0 c 4 -1 c
5 0 c 4 1 c 4 -1 c 5 0 c 4 0 c 5 0 c 4 0 c 4 -1 c 5 0 c 4 1 c 4 -1 c 5 1 c 4 -1 c 5 0 c 4 1 c 4 0 c 5 0 c 4 1 c 4 0 c 5 3 c 3 6198 c
3 -4146 9362 7019 l 4 -2021 c 5 -18 c 4 -2 c 5 -1 c 4 -2 c 4 0 c 5 -1 c 4 -1 c 4 0 c 5 0 c 4 -1 c 4 0 c 5 0 c 4 0 c 5 -1 c 4 0 c
4 1 c 5 -1 c 4 1 c 4 -1 c 5 0 c 4 0 c 5 0 c 4 0 c 4 0 c 5 -1 c 4 0 c 4 0 c 5 0 c 4 0 c 5 0 c 4 0 c 4 1 c 5 2 c 4 3 c 4 0 c
5 -2 c 4 -4 c 5 -1 c 4 -1 c 4 -21 c 5 0 c 4 21 c 4 0 c 5 1 c 4 0 c 4 0 c 5 0 c 4 0 c 5 1 c 4 0 c 4 1 c 5 1 c 4 8 c 4 57 c 5 96 c
4 21 c 5 -50 c 4 -105 c 4 -22 c 5 0 c 4 3 c 4 6 c 5 17 c 4 106 c 5 573 c 4 1174 c 4 498 c 5 -468 c 4 -1261 c 4 -549 c 5 -75 c
4 -13 c 5 -6 c 4 -4 c 4 -2 c 5 -1 c 4 -1 c 4 -1 c 5 0 c 4 0 c
0 -126 3303 418 l 54 0 3303 418 l 18 -6 c 6 -6 c 6 -12 c 0 -12 c -6 -12 c -6 -6 c -18 -6 c -54 0 c 42 -66 3345 358 l
-12 -6 3453 376 l -12 -12 c -6 -18 c 0 -12 c 6 -18 c 12 -12 c 12 -6 c 18 0 c 12 6 c 12 12 c 6 18 c 0 12 c -6 18 c -12 12 c -12 6 c
-18 0 c 24 -84 3537 376 l -24 -84 3585 376 l 24 -84 3585 376 l -24 -84 3633 376 l 108 0 3675 364 l 108 0 3675 328 l 12 6 3939 394 l
18 18 c 0 -126 c -60 0 4113 418 l -6 -54 c 6 6 c 18 6 c 18 0 c 18 -6 c 12 -12 c 6 -18 c 0 -12 c -6 -18 c -12 -12 c -18 -6 c -18 0 c
-18 6 c -6 6 c -6 12 c -12 -6 4287 376 l -12 -12 c -6 -18 c 0 -12 c 6 -18 c 12 -12 c 12 -6 c 18 0 c 12 6 c 12 12 c 6 18 c 0 12 c
-6 18 c -12 12 c -12 6 c -18 0 c -12 0 4413 418 l -12 -6 c -6 -18 c 0 -102 c 42 0 4365 376 l 0 6 4545 388 l 6 12 c 6 6 c 12 6 c
24 0 c 12 -6 c 6 -6 c 6 -12 c 0 -12 c -6 -12 c -12 -18 c -60 -60 c 84 0 c -18 -6 4695 418 l -12 -18 c -6 -30 c 0 -18 c 6 -30 c
12 -18 c 18 -6 c 12 0 c 18 6 c 12 18 c 6 30 c 0 18 c -6 30 c -12 18 c -18 6 c -12 0 c 12 6 5181 394 l 18 18 c 0 -126 c
-6 -6 5294 376 l 6 -6 c 6 6 c -6 6 c -6 -6 5294 304 l 6 -6 c 6 6 c -6 6 c -48 -126 5474 418 l 48 -126 5474 418 l 60 0 5444 334 l
0 -84 5552 376 l 6 18 5552 340 l 12 12 c 12 6 c 18 0 c -12 12 5696 358 l -12 6 c -18 0 c -12 -6 c -12 -12 c -6 -18 c 0 -12 c 6 -18 c
12 -12 c 12 -6 c 18 0 c 12 6 c 12 12 c 108 0 5738 346 l 12 6 5906 394 l 18 18 c 0 -126 c 66 0 6020 418 l -36 -48 c 18 0 c 12 -6 c
6 -6 c 6 -18 c 0 -12 c -6 -18 c -12 -12 c -18 -6 c -18 0 c -18 6 c -6 6 c -6 12 c -6 -18 6206 376 l -12 -12 c -18 -6 c -6 0 c
-18 6 c -12 12 c -6 18 c 0 6 c 6 18 c 12 12 c 18 6 c 6 0 c 18 -6 c 12 -12 c 6 -24 c 0 -30 c -6 -30 c -12 -18 c -18 -6 c -12 0 c
-18 6 c -6 12 c -6 -6 6260 304 l 6 -6 c 6 6 c -6 6 c -12 0 6350 418 l -12 -6 c -6 -18 c 0 -102 c 42 0 6302 376 l 6 -6 6380 418 l
6 6 c -6 6 c -6 -6 c 0 -84 6386 376 l 0 -102 6440 418 l 6 -18 c 12 -6 c 12 0 c 42 0 6422 376 l -6 12 6566 358 l -18 6 c -18 0 c
-18 -6 c -6 -12 c 6 -12 c 12 -6 c 30 -6 c 12 -6 c 6 -12 c 0 -6 c -6 -12 c -18 -6 c -18 0 c -18 6 c -6 12 c 0 -192 6896 442 l
0 -192 6902 442 l 42 0 6896 442 l 42 0 6896 250 l 0 6 6980 388 l 6 12 c 6 6 c 12 6 c 24 0 c 12 -6 c 6 -6 c 6 -12 c 0 -12 c -6 -12 c
-12 -18 c -60 -60 c 84 0 c -6 -6 7106 376 l 6 -6 c 6 6 c -6 6 c -6 -6 7106 304 l 6 -6 c 6 6 c -6 6 c 0 -192 7286 442 l
0 -192 7292 442 l 42 0 7250 442 l 42 0 7250 250 l
0 -250 881 1377 l 79 -37 837 1501 l 0 53 837 1448 l -4 8 852 1535 l -11 11 c 79 0 c 4 -11 837 1622 l 11 -8 c 19 -3 c 11 0 c 19 3 c
12 8 c 3 11 c 0 8 c -3 11 c -12 8 c -19 4 c -11 0 c -19 -4 c -11 -8 c -4 -11 c 0 -8 c 12 -3 863 1724 l 7 -8 c 4 -11 c 0 -4 c
-4 -11 c -7 -8 c -12 -4 c -3 0 c -12 4 c -7 8 c -4 11 c 0 4 c 4 11 c 7 8 c 15 3 c 19 0 c 19 -3 c 12 -8 c 3 -11 c 0 -8 c -3 -11 c
-8 -4 c 4 -3 909 1758 l 3 3 c -3 4 c -4 -4 c 4 -11 837 1807 l 7 -4 c 8 0 c 7 4 c 4 8 c 4 15 c 4 11 c 7 8 c 8 3 c 11 0 c 8 -3 c
4 -4 c 3 -11 c 0 -16 c -3 -11 c -4 -4 c -8 -3 c -11 0 c -8 3 c -7 8 c -4 11 c -4 15 c -4 8 c -7 4 c -8 0 c -7 -4 c -4 -11 c 0 -16 c
-7 -3 848 1913 l -4 -12 c 0 -7 c 4 -12 c 11 -7 c 19 -4 c 19 0 c 15 4 c 8 7 c 3 12 c 0 3 c -3 12 c -8 7 c -11 4 c -4 0 c -12 -4 c
-7 -7 c -4 -12 c 0 -3 c 4 -12 c 7 -7 c 12 -4 c 4 -11 837 1962 l 11 -7 c 19 -4 c 11 0 c 19 4 c 12 7 c 3 11 c 0 8 c -3 11 c -12 8 c
-19 4 c -11 0 c -19 -4 c -11 -8 c -4 -11 c 0 -8 c 0 -249 1266 1372 l 80 -38 1222 1497 l 0 53 1222 1444 l -3 7 1237 1531 l -12 12 c
80 0 c -3 8 1237 1606 l -12 11 c 80 0 c 53 -37 1222 1708 l 0 56 c 80 0 1222 1708 l 4 -4 1294 1754 l 4 4 c -4 4 c -4 -4 c
0 41 1222 1792 l 30 -22 c 0 11 c 4 7 c 4 4 c 11 4 c 8 0 c 11 -4 c 8 -7 c 4 -12 c 0 -11 c -4 -11 c -4 -4 c -8 -4 c 11 -4 1249 1909 l
8 -8 c 3 -11 c 0 -4 c -3 -11 c -8 -8 c -11 -3 c -4 0 c -11 3 c -8 8 c -4 11 c 0 4 c 4 11 c 8 8 c 15 4 c 19 0 c 18 -4 c 12 -8 c
4 -11 c 0 -7 c -4 -12 c -8 -4 c 4 -11 1222 1954 l 8 -4 c 7 0 c 8 4 c 3 7 c 4 15 c 4 12 c 8 7 c 7 4 c 11 0 c 8 -4 c 4 -3 c 4 -12 c
0 -15 c -4 -11 c -4 -4 c -8 -4 c -11 0 c -7 4 c -8 8 c -4 11 c -4 15 c -3 8 c -8 3 c -7 0 c -8 -3 c -4 -12 c 0 -15 c
0 -250 2136 4971 l 80 -37 2092 5095 l 0 52 2092 5043 l -3 8 2107 5129 l -12 11 c 80 0 c -4 0 2111 5197 l -7 4 c -4 4 c -4 8 c 0 15 c
4 7 c 4 4 c 7 4 c 8 0 c 7 -4 c 12 -7 c 38 -38 c 0 53 c 53 -38 2092 5307 l 0 57 c 80 0 2092 5307 l 4 -3 2164 5352 l 4 3 c -4 4 c
-4 -4 c 0 -38 2092 5428 l 34 -4 c -4 4 c -3 12 c 0 11 c 3 11 c 8 8 c 11 4 c 8 0 c 11 -4 c 8 -8 c 4 -11 c 0 -11 c -4 -12 c -4 -4 c
-8 -3 c -8 -3 2104 5507 l -4 -12 c 0 -7 c 4 -12 c 11 -7 c 19 -4 c 19 0 c 15 4 c 8 7 c 4 12 c 0 4 c -4 11 c -8 7 c -11 4 c -4 0 c
-11 -4 c -8 -7 c -4 -11 c 0 -4 c 4 -12 c 8 -7 c 11 -4 c -3 8 2107 5545 l -12 11 c 80 0 c 0 -250 2244 2770 l 79 -38 2201 2895 l
0 53 2201 2842 l -4 7 2216 2929 l -11 11 c 79 0 c -4 0 2220 2997 l -8 3 c -3 4 c -4 8 c 0 15 c 4 7 c 3 4 c 8 4 c 8 0 c 7 -4 c
11 -7 c 38 -38 c 0 53 c 0 -38 2201 3114 l 34 -4 c -4 4 c -4 11 c 0 12 c 4 11 c 8 8 c 11 3 c 8 0 c 11 -3 c 7 -8 c 4 -11 c 0 -12 c
-4 -11 c -3 -4 c -8 -4 c 3 -4 2273 3152 l 4 4 c -4 3 c -3 -3 c 4 -12 2201 3201 l 7 -3 c 8 0 c 7 3 c 4 8 c 4 15 c 4 11 c 7 8 c 8 4 c
11 0 c 8 -4 c 3 -4 c 4 -11 c 0 -15 c -4 -12 c -3 -3 c -8 -4 c -11 0 c -8 4 c -7 7 c -4 11 c -4 16 c -4 7 c -7 4 c -8 0 c -7 -4 c
-4 -11 c 0 -15 c -4 0 2220 3261 l -8 4 c -3 4 c -4 7 c 0 15 c 4 8 c 3 4 c 8 3 c 8 0 c 7 -3 c 11 -8 c 38 -38 c 0 53 c
4 -12 2201 3356 l 11 -7 c 19 -4 c 11 0 c 19 4 c 11 7 c 4 12 c 0 7 c -4 12 c -11 7 c -19 4 c -11 0 c -19 -4 c -11 -7 c -4 -12 c
0 -7 c 0 -250 2668 1365 l 80 -37 2624 1489 l 0 53 2624 1436 l -4 8 2640 1523 l -12 11 c 80 0 c 0 42 2624 1595 l 31 -23 c 0 11 c
3 8 c 4 4 c 12 4 c 7 0 c 11 -4 c 8 -8 c 4 -11 c 0 -11 c -4 -12 c -4 -4 c -7 -3 c 4 -11 2624 1686 l 12 -8 c 18 -4 c 12 0 c 19 4 c
11 8 c 4 11 c 0 7 c -4 12 c -11 7 c -19 4 c -12 0 c -18 -4 c -12 -7 c -4 -12 c 0 -7 c 4 -3 2696 1746 l 4 3 c -4 4 c -4 -4 c
80 -38 2624 1830 l 0 53 2624 1777 l -3 0 2643 1856 l -8 4 c -4 4 c -4 7 c 0 15 c 4 8 c 4 4 c 8 3 c 7 0 c 8 -3 c 11 -8 c 38 -38 c
0 53 c 53 -38 2624 1966 l 0 56 c 80 0 2624 1966 l 0 -250 2724 1464 l 79 -37 2681 1588 l 0 52 2681 1536 l -4 8 2696 1622 l -11 11 c
79 0 c 0 42 2681 1694 l 30 -23 c 0 12 c 4 7 c 3 4 c 12 4 c 7 0 c 12 -4 c 7 -8 c 4 -11 c 0 -11 c -4 -12 c -4 -3 c -7 -4 c
-4 7 2696 1774 l -11 12 c 79 0 c 4 -3 2752 1845 l 4 3 c -4 4 c -4 -4 c 0 42 2681 1883 l 30 -23 c 0 12 c 4 7 c 3 4 c 12 4 c 7 0 c
12 -4 c 7 -8 c 4 -11 c 0 -11 c -4 -12 c -4 -3 c -7 -4 c 0 -38 2681 1997 l 34 -4 c -4 4 c -4 11 c 0 12 c 4 11 c 7 7 c 12 4 c 7 0 c
12 -4 c 7 -7 c 4 -11 c 0 -12 c -4 -11 c -4 -4 c -7 -4 c 11 -4 2707 2076 l 8 -7 c 4 -12 c 0 -3 c -4 -12 c -8 -7 c -11 -4 c -4 0 c
-11 4 c -8 7 c -3 12 c 0 3 c 3 12 c 8 7 c 15 4 c 19 0 c 19 -4 c 11 -7 c 4 -12 c 0 -7 c -4 -12 c -7 -3 c 0 -249 2831 1359 l
80 -38 2787 1484 l 0 53 2787 1431 l -3 8 2802 1518 l -12 11 c 80 0 c 0 42 2787 1590 l 31 -23 c 0 11 c 3 8 c 4 4 c 11 3 c 8 0 c
11 -3 c 8 -8 c 4 -11 c 0 -12 c -4 -11 c -4 -4 c -7 -4 c -4 0 2806 1662 l -7 4 c -4 3 c -4 8 c 0 15 c 4 8 c 4 3 c 7 4 c 8 0 c 8 -4 c
11 -7 c 38 -38 c 0 53 c 4 -4 2859 1741 l 4 4 c -4 4 c -4 -4 c -8 -4 2799 1821 l -4 -12 c 0 -7 c 4 -11 c 11 -8 c 19 -4 c 19 0 c
15 4 c 8 8 c 4 11 c 0 4 c -4 11 c -8 8 c -11 3 c -4 0 c -11 -3 c -8 -8 c -3 -11 c 0 -4 c 3 -11 c 8 -8 c 11 -4 c -3 8 2802 1858 l
-12 11 c 80 0 c 4 -11 2787 1945 l 11 -8 c 19 -3 c 12 0 c 19 3 c 11 8 c 4 11 c 0 8 c -4 11 c -11 8 c -19 4 c -12 0 c -19 -4 c
-11 -8 c -4 -11 c 0 -8 c 0 -250 3683 1471 l 79 -37 3639 1595 l 0 52 3639 1543 l -4 7 3654 1630 l -11 11 c 79 0 c 53 -38 3639 1732 l
0 56 c 79 0 3639 1732 l -4 0 3658 1773 l -8 4 c -3 4 c -4 7 c 0 15 c 4 8 c 3 4 c 8 3 c 8 0 c 7 -3 c 11 -8 c 38 -38 c 0 53 c
3 -3 3711 1852 l 4 3 c -4 4 c -3 -4 c 0 42 3639 1890 l 30 -23 c 0 12 c 4 7 c 4 4 c 11 4 c 8 0 c 11 -4 c 7 -8 c 4 -11 c 0 -11 c
-4 -12 c -3 -3 c -8 -4 c 0 41 3639 1966 l 30 -22 c 0 11 c 4 8 c 4 3 c 11 4 c 8 0 c 11 -4 c 7 -7 c 4 -11 c 0 -12 c -4 -11 c -3 -4 c
-8 -4 c -4 8 3654 2045 l -11 11 c 79 0 c 0 -250 4386 2776 l 79 -38 4343 2901 l 0 53 4343 2848 l -4 7 4358 2935 l -11 11 c 79 0 c
0 -38 4343 3044 l 34 -3 c -4 3 c -4 12 c 0 11 c 4 11 c 8 8 c 11 4 c 7 0 c 12 -4 c 7 -8 c 4 -11 c 0 -11 c -4 -12 c -3 -3 c -8 -4 c
4 -11 4343 3097 l 11 -8 c 19 -4 c 11 0 c 19 4 c 11 8 c 4 11 c 0 8 c -4 11 c -11 8 c -19 3 c -11 0 c -19 -3 c -11 -8 c -4 -11 c
0 -8 c 3 -4 4415 3158 l 4 4 c -4 3 c -3 -3 c -4 0 4362 3192 l -8 3 c -3 4 c -4 8 c 0 15 c 4 7 c 3 4 c 8 4 c 7 0 c 8 -4 c 11 -7 c
38 -38 c 0 53 c 4 -11 4343 3282 l 7 -4 c 8 0 c 7 4 c 4 8 c 4 15 c 4 11 c 7 8 c 8 3 c 11 0 c 8 -3 c 3 -4 c 4 -12 c 0 -15 c -4 -11 c
-3 -4 c -8 -4 c -11 0 c -8 4 c -7 8 c -4 11 c -4 15 c -4 8 c -7 4 c -8 0 c -7 -4 c -4 -12 c 0 -15 c 53 -38 4343 3377 l 0 57 c
79 0 4343 3377 l 0 -250 4681 1362 l 80 -37 4637 1486 l 0 53 4637 1433 l -3 8 4652 1520 l -12 11 c 80 0 c 0 -38 4637 1630 l 34 -4 c
-4 4 c -3 12 c 0 11 c 3 11 c 8 8 c 11 4 c 8 0 c 11 -4 c 8 -8 c 4 -11 c 0 -11 c -4 -12 c -4 -4 c -8 -3 c 0 41 4637 1668 l 30 -22 c
0 11 c 4 8 c 4 3 c 11 4 c 8 0 c 11 -4 c 8 -7 c 4 -12 c 0 -11 c -4 -11 c -4 -4 c -8 -4 c 4 -3 4709 1743 l 4 3 c -4 4 c -4 -4 c
0 -38 4637 1819 l 34 -4 c -4 4 c -3 11 c 0 12 c 3 11 c 8 8 c 11 4 c 8 0 c 11 -4 c 8 -8 c 4 -11 c 0 -12 c -4 -11 c -4 -4 c -8 -3 c
4 -11 4637 1868 l 8 -4 c 7 0 c 8 4 c 3 7 c 4 15 c 4 12 c 8 7 c 7 4 c 11 0 c 8 -4 c 4 -3 c 4 -12 c 0 -15 c -4 -11 c -4 -4 c -8 -4 c
-11 0 c -7 4 c -8 8 c -4 11 c -4 15 c -3 8 c -8 3 c -7 0 c -8 -3 c -4 -12 c 0 -15 c 4 -12 4637 1944 l 8 -3 c 7 0 c 8 3 c 3 8 c
4 15 c 4 11 c 8 8 c 7 4 c 11 0 c 8 -4 c 4 -4 c 4 -11 c 0 -15 c -4 -12 c -4 -3 c -8 -4 c -11 0 c -7 4 c -8 7 c -4 11 c -4 16 c -3 7 c
-8 4 c -7 0 c -8 -4 c -4 -11 c 0 -15 c 0 -249 4981 1616 l 80 -38 4937 1741 l 0 53 4937 1688 l -3 7 4952 1775 l -12 12 c 80 0 c
0 -38 4937 1885 l 34 -4 c -4 4 c -3 11 c 0 11 c 3 12 c 8 7 c 11 4 c 8 0 c 11 -4 c 8 -7 c 4 -12 c 0 -11 c -4 -11 c -4 -4 c -8 -4 c
-8 -4 4949 1964 l -4 -11 c 0 -8 c 4 -11 c 11 -8 c 19 -3 c 19 0 c 15 3 c 8 8 c 4 11 c 0 4 c -4 11 c -8 8 c -11 4 c -4 0 c -11 -4 c
-8 -8 c -4 -11 c 0 -4 c 4 -11 c 8 -8 c 11 -3 c 4 -4 5009 1998 l 4 4 c -4 4 c -4 -4 c 11 -3 4964 2077 l 8 -8 c 3 -11 c 0 -4 c
-3 -12 c -8 -7 c -11 -4 c -4 0 c -11 4 c -8 7 c -4 12 c 0 4 c 4 11 c 8 8 c 15 3 c 19 0 c 18 -3 c 12 -8 c 4 -11 c 0 -8 c -4 -11 c
-8 -4 c 53 -38 4937 2142 l 0 56 c 80 0 4937 2142 l -4 0 4956 2183 l -7 4 c -4 4 c -4 7 c 0 15 c 4 8 c 4 4 c 7 3 c 8 0 c 7 -3 c
12 -8 c 38 -38 c 0 53 c 0 -250 5153 2301 l 79 -37 5109 2425 l 0 53 5109 2372 l -4 8 5124 2459 l -11 11 c 79 0 c 0 -38 5109 2569 l
34 -4 c -4 4 c -4 12 c 0 11 c 4 11 c 8 8 c 11 4 c 8 0 c 11 -4 c 8 -8 c 3 -11 c 0 -11 c -3 -12 c -4 -4 c -8 -3 c 4 -11 5109 2618 l
7 -4 c 8 0 c 7 4 c 4 7 c 4 15 c 4 12 c 7 7 c 8 4 c 11 0 c 8 -4 c 4 -3 c 3 -12 c 0 -15 c -3 -11 c -4 -4 c -8 -4 c -11 0 c -8 4 c
-7 8 c -4 11 c -4 15 c -4 8 c -7 3 c -8 0 c -7 -3 c -4 -12 c 0 -15 c 4 -3 5181 2682 l 3 3 c -3 4 c -4 -4 c 4 -11 5109 2731 l 7 -4 c
8 0 c 7 4 c 4 8 c 4 15 c 4 11 c 7 8 c 8 4 c 11 0 c 8 -4 c 4 -4 c 3 -11 c 0 -16 c -3 -11 c -4 -4 c -8 -3 c -11 0 c -8 3 c -7 8 c
-4 11 c -4 15 c -4 8 c -7 4 c -8 0 c -7 -4 c -4 -11 c 0 -16 c 0 41 5109 2796 l 30 -22 c 0 11 c 4 8 c 4 3 c 11 4 c 8 0 c 11 -4 c
8 -7 c 3 -12 c 0 -11 c -3 -11 c -4 -4 c -8 -4 c 12 -4 5135 2913 l 7 -7 c 4 -12 c 0 -4 c -4 -11 c -7 -7 c -12 -4 c -3 0 c -12 4 c
-7 7 c -4 11 c 0 4 c 4 12 c 7 7 c 15 4 c 19 0 c 19 -4 c 12 -7 c 3 -12 c 0 -7 c -3 -12 c -8 -3 c 0 -249 5251 1487 l
79 -38 5208 1612 l 0 53 5208 1559 l -4 7 5223 1646 l -11 12 c 79 0 c 0 -38 5208 1756 l 34 -4 c -4 4 c -4 11 c 0 11 c 4 12 c 8 7 c
11 4 c 8 0 c 11 -4 c 7 -7 c 4 -12 c 0 -11 c -4 -11 c -3 -4 c -8 -4 c 12 -4 5234 1835 l 7 -7 c 4 -12 c 0 -4 c -4 -11 c -7 -7 c
-12 -4 c -3 0 c -12 4 c -7 7 c -4 11 c 0 4 c 4 12 c 7 7 c 15 4 c 19 0 c 19 -4 c 11 -7 c 4 -12 c 0 -7 c -4 -12 c -7 -3 c
3 -4 5280 1869 l 4 4 c -4 4 c -3 -4 c 12 -4 5234 1948 l 7 -7 c 4 -11 c 0 -4 c -4 -12 c -7 -7 c -12 -4 c -3 0 c -12 4 c -7 7 c
-4 12 c 0 4 c 4 11 c 7 7 c 15 4 c 19 0 c 19 -4 c 11 -7 c 4 -11 c 0 -8 c -4 -11 c -7 -4 c 53 -38 5208 2013 l 0 56 c 79 0 5208 2013 l
79 -38 5208 2103 l 0 53 5208 2050 l 0 -250 5488 1464 l 79 -37 5445 1588 l 0 52 5445 1536 l -4 8 5460 1622 l -11 11 c 79 0 c
-7 -4 5456 1736 l -4 -11 c 0 -8 c 4 -11 c 11 -8 c 19 -4 c 19 0 c 15 4 c 7 8 c 4 11 c 0 4 c -4 11 c -7 8 c -11 4 c -4 0 c -12 -4 c
-7 -8 c -4 -11 c 0 -4 c 4 -11 c 7 -8 c 12 -4 c -4 0 5464 1766 l -8 4 c -3 4 c -4 7 c 0 15 c 4 8 c 3 4 c 8 3 c 8 0 c 7 -3 c 11 -8 c
38 -38 c 0 53 c 3 -3 5517 1845 l 4 3 c -4 4 c -3 -4 c 0 -38 5445 1921 l 34 -4 c -4 4 c -4 12 c 0 11 c 4 11 c 8 8 c 11 4 c 8 0 c
11 -4 c 7 -8 c 4 -11 c 0 -11 c -4 -12 c -3 -4 c -8 -3 c 0 -38 5445 1997 l 34 -4 c -4 4 c -4 11 c 0 11 c 4 12 c 8 7 c 11 4 c 8 0 c
11 -4 c 7 -7 c 4 -12 c 0 -11 c -4 -11 c -3 -4 c -8 -4 c 79 -38 5445 2080 l 0 53 5445 2027 l 0 -250 5910 1342 l 80 -38 5866 1467 l
0 53 5866 1414 l -4 7 5881 1501 l -11 12 c 80 0 c -7 -4 5877 1614 l -4 -11 c 0 -8 c 4 -11 c 11 -7 c 19 -4 c 19 0 c 15 4 c 8 7 c
4 11 c 0 4 c -4 12 c -8 7 c -11 4 c -4 0 c -11 -4 c -8 -7 c -4 -12 c 0 -4 c 4 -11 c 8 -7 c 11 -4 c 80 -38 5866 1694 l
0 53 5866 1641 l 4 -4 5938 1724 l 4 4 c -4 4 c -4 -4 c -4 0 5885 1758 l -7 4 c -4 3 c -4 8 c 0 15 c 4 8 c 4 3 c 7 4 c 8 0 c 7 -4 c
12 -7 c 38 -38 c 0 53 c 4 -11 5866 1852 l 11 -8 c 19 -3 c 11 0 c 19 3 c 12 8 c 4 11 c 0 8 c -4 11 c -12 8 c -19 4 c -11 0 c -19 -4 c
-11 -8 c -4 -11 c 0 -8 c 0 41 5866 1913 l 30 -22 c 0 11 c 4 8 c 4 3 c 11 4 c 8 0 c 11 -4 c 8 -7 c 4 -12 c 0 -11 c -4 -11 c -4 -4 c
-8 -4 c 0 -249 6065 7019 l 80 -38 6021 7144 l 0 53 6021 7091 l -3 7 6036 7178 l -12 12 c 80 0 c -8 -4 6033 7291 l -4 -11 c 0 -7 c
4 -12 c 11 -7 c 19 -4 c 19 0 c 15 4 c 8 7 c 4 12 c 0 3 c -4 12 c -8 7 c -11 4 c -4 0 c -11 -4 c -8 -7 c -3 -12 c 0 -3 c 3 -12 c
8 -7 c 11 -4 c 4 -12 6021 7337 l 8 -4 c 7 0 c 8 4 c 4 8 c 3 15 c 4 11 c 8 8 c 7 4 c 12 0 c 7 -4 c 4 -4 c 4 -11 c 0 -15 c -4 -12 c
-4 -4 c -7 -3 c -12 0 c -7 3 c -8 8 c -4 11 c -3 15 c -4 8 c -8 4 c -7 0 c -8 -4 c -4 -11 c 0 -15 c 4 -4 6093 7401 l 4 4 c -4 4 c
-4 -4 c 4 -11 6021 7450 l 8 -4 c 7 0 c 8 4 c 4 7 c 3 15 c 4 12 c 8 7 c 7 4 c 12 0 c 7 -4 c 4 -4 c 4 -11 c 0 -15 c -4 -11 c -4 -4 c
-7 -4 c -12 0 c -7 4 c -8 7 c -4 12 c -3 15 c -4 7 c -8 4 c -7 0 c -8 -4 c -4 -11 c 0 -15 c 11 -4 6048 7556 l 8 -8 c 3 -11 c 0 -4 c
-3 -11 c -8 -8 c -11 -3 c -4 0 c -11 3 c -8 8 c -4 11 c 0 4 c 4 11 c 8 8 c 15 4 c 19 0 c 19 -4 c 11 -8 c 4 -11 c 0 -7 c -4 -12 c
-8 -4 c 0 -38 6021 7628 l 34 -4 c -3 4 c -4 11 c 0 11 c 4 12 c 7 7 c 11 4 c 8 0 c 11 -4 c 8 -7 c 4 -12 c 0 -11 c -4 -11 c -4 -4 c
-7 -4 c 0 -249 6476 1581 l 80 -38 6432 1706 l 0 53 6432 1653 l -3 8 6447 1740 l -12 11 c 80 0 c 80 -38 6432 1857 l 0 53 6432 1804 l
0 42 6432 1887 l 31 -23 c 0 12 c 3 7 c 4 4 c 11 4 c 8 0 c 11 -4 c 8 -8 c 4 -11 c 0 -11 c -4 -12 c -4 -3 c -7 -4 c 4 -4 6504 1963 l
4 4 c -4 4 c -4 -4 c 0 41 6432 2001 l 31 -22 c 0 11 c 3 8 c 4 3 c 11 4 c 8 0 c 11 -4 c 8 -7 c 4 -12 c 0 -11 c -4 -11 c -4 -4 c
-7 -4 c 80 -38 6432 2122 l 0 53 6432 2069 l 0 42 6432 2152 l 31 -23 c 0 11 c 3 8 c 4 4 c 11 3 c 8 0 c 11 -3 c 8 -8 c 4 -11 c 0 -12 c
-4 -11 c -4 -4 c -7 -4 c 0 -250 6786 1496 l 79 -38 6742 1621 l 0 53 6742 1568 l -4 7 6757 1655 l -11 12 c 79 0 c 79 -38 6742 1772 l
0 53 6742 1719 l -7 -4 6753 1844 l -4 -11 c 0 -8 c 4 -11 c 11 -8 c 19 -4 c 19 0 c 15 4 c 8 8 c 3 11 c 0 4 c -3 11 c -8 8 c -11 3 c
-4 0 c -11 -3 c -8 -8 c -4 -11 c 0 -4 c 4 -11 c 8 -8 c 11 -4 c 4 -4 6814 1878 l 3 4 c -3 3 c -4 -3 c 79 -38 6742 1961 l
0 53 6742 1908 l -4 0 6761 1987 l -8 4 c -3 4 c -4 7 c 0 16 c 4 7 c 3 4 c 8 4 c 8 0 c 7 -4 c 12 -8 c 37 -38 c 0 53 c
-4 8 6757 2070 l -11 11 c 79 0 c 0 -250 8136 2206 l 79 -38 8093 2331 l 0 53 8093 2278 l -4 7 8108 2365 l -11 12 c 79 0 c
12 -4 8119 2478 l 7 -7 c 4 -12 c 0 -3 c -4 -12 c -7 -7 c -12 -4 c -4 0 c -11 4 c -7 7 c -4 12 c 0 3 c 4 12 c 7 7 c 15 4 c 19 0 c
19 -4 c 11 -7 c 4 -12 c 0 -7 c -4 -12 c -7 -3 c -4 7 8108 2516 l -11 12 c 79 0 c 3 -4 8165 2588 l 4 4 c -4 3 c -3 -3 c
-4 8 8108 2629 l -11 11 c 79 0 c 0 42 8093 2701 l 30 -23 c 0 11 c 4 8 c 4 4 c 11 3 c 7 0 c 12 -3 c 7 -8 c 4 -11 c 0 -12 c -4 -11 c
-3 -4 c -8 -4 c 0 41 8093 2777 l 30 -23 c 0 12 c 4 7 c 4 4 c 11 4 c 7 0 c 12 -4 c 7 -7 c 4 -12 c 0 -11 c -4 -11 c -3 -4 c -8 -4 c
0 -250 8989 1679 l 79 -38 8945 1804 l 0 53 8945 1751 l -4 0 8964 1830 l -7 4 c -4 4 c -4 7 c 0 15 c 4 8 c 4 4 c 7 3 c 8 0 c 7 -3 c
12 -8 c 37 -38 c 0 53 c 4 -11 8945 1924 l 11 -7 c 19 -4 c 11 0 c 19 4 c 12 7 c 3 11 c 0 8 c -3 11 c -12 8 c -19 4 c -11 0 c -19 -4 c
-11 -8 c -4 -11 c 0 -8 c 4 -11 8945 2000 l 11 -8 c 19 -4 c 11 0 c 19 4 c 12 8 c 3 11 c 0 8 c -3 11 c -12 8 c -19 3 c -11 0 c
-19 -3 c -11 -8 c -4 -11 c 0 -8 c 4 -4 9017 2061 l 3 4 c -3 3 c -4 -3 c 4 -11 8945 2113 l 11 -7 c 19 -4 c 11 0 c 19 4 c 12 7 c
3 11 c 0 8 c -3 11 c -12 8 c -19 4 c -11 0 c -19 -4 c -11 -8 c -4 -11 c 0 -8 c 53 -38 8945 2204 l 0 57 c 79 0 8945 2204 l
0 -37 8945 2287 l 34 -4 c -4 4 c -3 11 c 0 11 c 3 12 c 8 7 c 11 4 c 8 0 c 11 -4 c 8 -7 c 3 -12 c 0 -11 c -3 -11 c -4 -4 c -8 -4 c
0 -250 9196 1556 l 79 -37 9153 1680 l 0 53 9153 1627 l -3 0 9171 1707 l -8 4 c -4 3 c -3 8 c 0 15 c 3 8 c 4 3 c 8 4 c 7 0 c 8 -4 c
11 -7 c 38 -38 c 0 53 c 3 -11 9153 1801 l 12 -8 c 19 -3 c 11 0 c 19 3 c 11 8 c 4 11 c 0 8 c -4 11 c -11 8 c -19 4 c -11 0 c -19 -4 c
-12 -8 c -3 -11 c 0 -8 c -3 0 9171 1858 l -8 4 c -4 4 c -3 7 c 0 15 c 3 8 c 4 4 c 8 3 c 7 0 c 8 -3 c 11 -8 c 38 -38 c 0 53 c
4 -3 9224 1937 l 4 3 c -4 4 c -4 -4 c -4 7 9168 1979 l -11 12 c 79 0 c 11 -3 9179 2092 l 8 -8 c 4 -11 c 0 -4 c -4 -11 c -8 -8 c
-11 -4 c -4 0 c -11 4 c -8 8 c -3 11 c 0 4 c 3 11 c 8 8 c 15 3 c 19 0 c 19 -3 c 11 -8 c 4 -11 c 0 -8 c -4 -11 c -7 -4 c
-4 8 9168 2130 l -11 11 c 79 0 c 0 -250 9662 3645 l 79 -37 9619 3769 l 0 53 9619 3716 l -4 0 9638 3796 l -8 4 c -4 3 c -3 8 c 0 15 c
3 8 c 4 3 c 8 4 c 7 0 c 8 -4 c 11 -7 c 38 -38 c 0 53 c 3 -11 9619 3890 l 12 -8 c 19 -3 c 11 0 c 19 3 c 11 8 c 4 11 c 0 8 c -4 11 c
-11 8 c -19 4 c -11 0 c -19 -4 c -12 -8 c -3 -11 c 0 -8 c -8 -3 9630 3992 l -3 -12 c 0 -7 c 3 -12 c 12 -7 c 19 -4 c 19 0 c 15 4 c
7 7 c 4 12 c 0 3 c -4 12 c -7 7 c -12 4 c -3 0 c -12 -4 c -7 -7 c -4 -12 c 0 -3 c 4 -12 c 7 -7 c 12 -4 c 4 -3 9690 4026 l 4 3 c
-4 4 c -4 -4 c 11 -4 9645 4106 l 8 -8 c 4 -11 c 0 -4 c -4 -11 c -8 -8 c -11 -3 c -4 0 c -11 3 c -8 8 c -3 11 c 0 4 c 3 11 c 8 8 c
15 4 c 19 0 c 19 -4 c 11 -8 c 4 -11 c 0 -7 c -4 -12 c -7 -4 c 3 -11 9619 4151 l 8 -4 c 8 0 c 7 4 c 4 7 c 4 15 c 3 12 c 8 7 c 8 4 c
11 0 c 7 -4 c 4 -3 c 4 -12 c 0 -15 c -4 -11 c -4 -4 c -7 -4 c -11 0 c -8 4 c -8 8 c -3 11 c -4 15 c -4 8 c -7 3 c -8 0 c -8 -3 c
-3 -12 c 0 -15 c 3 -11 9619 4230 l 12 -7 c 19 -4 c 11 0 c 19 4 c 11 7 c 4 11 c 0 8 c -4 11 c -11 8 c -19 4 c -11 0 c -19 -4 c
-12 -8 c -3 -11 c 0 -8 c
showpage PGPLOT restore
 
%%Trailer
%%DocumentFonts: 
%%Pages: 1
%%EOF
