%!PS-Adobe-3.0 EPSF-3.0
%%For: tab
%%Title: PGPLOT PostScript plot
%%Creator: PGPLOT
%%CreationDate: 20-Apr-1995 16:47
%%BoundingBox: 25 18 587 774
%%DocumentFonts: (atend)
%%LanguageLevel: 1
%%Orientation: Landscape
%%Pages: (atend)
%%EndComments
%%BeginProlog
/l {moveto rlineto currentpoint stroke moveto} bind def
/c {rlineto currentpoint stroke moveto} bind def
/d {moveto 0 0 rlineto currentpoint stroke moveto} bind def
/SLW {5 mul setlinewidth} bind def
/SCF /pop load def
/BP {newpath moveto} bind def
/LP /rlineto load def
/EP {rlineto closepath eofill} bind def
/MB {gsave translate MFAC dup scale 1 setlinewidth 2 setlinecap 0 setlinejoin newpath} bind def
/ME /grestore load def
/C {0 360 arc stroke} bind def
/FC {0 360 arc fill} bind def
%%EndProlog
 
%%Page: 1 1
%%BeginPageSetup
/PGPLOT save def
0.072 0.072 scale
8150 250 translate 90 rotate
1 setlinejoin 1 setlinecap 1 SLW 1 SCF
%%EndPageSetup
0.000 setgray 1 SLW 8939 0 780 780 l 0 6239 c -8939 0 c 0 -6239 c 0 -45 1116 780 l 0 -45 1554 780 l 0 -45 1991 780 l
0 -45 2428 780 l 0 -90 2865 780 l 0 -45 3302 780 l 0 -45 3739 780 l 0 -45 4176 780 l 0 -45 4613 780 l 0 -90 5051 780 l
0 -45 5488 780 l 0 -45 5925 780 l 0 -45 6362 780 l 0 -45 6799 780 l 0 -90 7236 780 l 0 -45 7673 780 l 0 -45 8110 780 l
0 -45 8548 780 l 0 -45 8985 780 l 0 -90 9422 780 l 0 -45 1116 7064 l 0 -45 1554 7064 l 0 -45 1991 7064 l 0 -45 2428 7064 l
0 -90 2865 7109 l 0 -45 3302 7064 l 0 -45 3739 7064 l 0 -45 4176 7064 l 0 -45 4613 7064 l 0 -90 5051 7109 l 0 -45 5488 7064 l
0 -45 5925 7064 l 0 -45 6362 7064 l 0 -45 6799 7064 l 0 -90 7236 7109 l 0 -45 7673 7064 l 0 -45 8110 7064 l 0 -45 8548 7064 l
0 -45 8985 7064 l 0 -90 9422 7109 l -60 0 2775 672 l -6 -54 c 6 6 c 18 6 c 18 0 c 18 -6 c 12 -12 c 6 -18 c 0 -12 c -6 -18 c
-12 -12 c -18 -6 c -18 0 c -18 6 c -6 6 c -6 12 c -18 -6 2859 672 l -12 -18 c -6 -30 c 0 -18 c 6 -30 c 12 -18 c 18 -6 c 12 0 c
18 6 c 12 18 c 6 30 c 0 18 c -6 30 c -12 18 c -18 6 c -12 0 c -18 -6 2979 672 l -12 -18 c -6 -30 c 0 -18 c 6 -30 c 12 -18 c 18 -6 c
12 0 c 18 6 c 12 18 c 6 30 c 0 18 c -6 30 c -12 18 c -18 6 c -12 0 c 12 6 4847 648 l 18 18 c 0 -126 c -18 -6 4985 672 l -12 -18 c
-6 -30 c 0 -18 c 6 -30 c 12 -18 c 18 -6 c 12 0 c 18 6 c 12 18 c 6 30 c 0 18 c -6 30 c -12 18 c -18 6 c -12 0 c -18 -6 5105 672 l
-12 -18 c -6 -30 c 0 -18 c 6 -30 c 12 -18 c 18 -6 c 12 0 c 18 6 c 12 18 c 6 30 c 0 18 c -6 30 c -12 18 c -18 6 c -12 0 c
-18 -6 5225 672 l -12 -18 c -6 -30 c 0 -18 c 6 -30 c 12 -18 c 18 -6 c 12 0 c 18 6 c 12 18 c 6 30 c 0 18 c -6 30 c -12 18 c -18 6 c
-12 0 c 12 6 7032 648 l 18 18 c 0 -126 c -60 0 7206 672 l -6 -54 c 6 6 c 18 6 c 18 0 c 18 -6 c 12 -12 c 6 -18 c 0 -12 c -6 -18 c
-12 -12 c -18 -6 c -18 0 c -18 6 c -6 6 c -6 12 c -18 -6 7290 672 l -12 -18 c -6 -30 c 0 -18 c 6 -30 c 12 -18 c 18 -6 c 12 0 c
18 6 c 12 18 c 6 30 c 0 18 c -6 30 c -12 18 c -18 6 c -12 0 c -18 -6 7410 672 l -12 -18 c -6 -30 c 0 -18 c 6 -30 c 12 -18 c 18 -6 c
12 0 c 18 6 c 12 18 c 6 30 c 0 18 c -6 30 c -12 18 c -18 6 c -12 0 c 0 6 9206 642 l 6 12 c 6 6 c 12 6 c 24 0 c 12 -6 c 6 -6 c
6 -12 c 0 -12 c -6 -12 c -12 -18 c -60 -60 c 84 0 c -18 -6 9356 672 l -12 -18 c -6 -30 c 0 -18 c 6 -30 c 12 -18 c 18 -6 c 12 0 c
18 6 c 12 18 c 6 30 c 0 18 c -6 30 c -12 18 c -18 6 c -12 0 c -18 -6 9476 672 l -12 -18 c -6 -30 c 0 -18 c 6 -30 c 12 -18 c 18 -6 c
12 0 c 18 6 c 12 18 c 6 30 c 0 18 c -6 30 c -12 18 c -18 6 c -12 0 c -18 -6 9596 672 l -12 -18 c -6 -30 c 0 -18 c 6 -30 c 12 -18 c
18 -6 c 12 0 c 18 6 c 12 18 c 6 30 c 0 18 c -6 30 c -12 18 c -18 6 c -12 0 c -90 0 780 801 l -45 0 780 1038 l -45 0 780 1275 l
-45 0 780 1512 l -45 0 780 1749 l -90 0 780 1985 l -45 0 780 2222 l -45 0 780 2459 l -45 0 780 2696 l -45 0 780 2933 l
-90 0 780 3170 l -45 0 780 3406 l -45 0 780 3643 l -45 0 780 3880 l -45 0 780 4117 l -90 0 780 4354 l -45 0 780 4590 l
-45 0 780 4827 l -45 0 780 5064 l -45 0 780 5301 l -90 0 780 5538 l -45 0 780 5775 l -45 0 780 6011 l -45 0 780 6248 l
-45 0 780 6485 l -90 0 780 6722 l -45 0 780 6959 l -90 0 9809 801 l -45 0 9764 1038 l -45 0 9764 1275 l -45 0 9764 1512 l
-45 0 9764 1749 l -90 0 9809 1985 l -45 0 9764 2222 l -45 0 9764 2459 l -45 0 9764 2696 l -45 0 9764 2933 l -90 0 9809 3170 l
-45 0 9764 3406 l -45 0 9764 3643 l -45 0 9764 3880 l -45 0 9764 4117 l -90 0 9809 4354 l -45 0 9764 4590 l -45 0 9764 4827 l
-45 0 9764 5064 l -45 0 9764 5301 l -90 0 9809 5538 l -45 0 9764 5775 l -45 0 9764 6011 l -45 0 9764 6248 l -45 0 9764 6485 l
-90 0 9809 6722 l -45 0 9764 6959 l 6 -18 517 795 l 18 -12 c 30 -6 c 18 0 c 30 6 c 18 12 c 6 18 c 0 12 c -6 18 c -18 12 c -30 6 c
-18 0 c -30 -6 c -18 -12 c -6 -18 c 0 -12 c -6 12 541 1865 l -18 18 c 126 0 c 6 -18 517 2003 l 18 -12 c 30 -6 c 18 0 c 30 6 c
18 12 c 6 18 c 0 12 c -6 18 c -18 12 c -30 6 c -18 0 c -30 -6 c -18 -12 c -6 -18 c 0 -12 c 63 -45 453 2128 l 0 67 c 94 0 453 2128 l
-6 0 547 2912 l -12 6 c -6 6 c -6 12 c 0 24 c 6 12 c 6 6 c 12 6 c 12 0 c 12 -6 c 18 -12 c 60 -60 c 0 84 c 84 84 547 3032 l
84 -84 547 3116 l -6 12 541 3176 l -18 18 c 126 0 c 6 -18 517 3314 l 18 -12 c 30 -6 c 18 0 c 30 6 c 18 12 c 6 18 c 0 12 c -6 18 c
-18 12 c -30 6 c -18 0 c -30 -6 c -18 -12 c -6 -18 c 0 -12 c 63 -45 453 3438 l 0 67 c 94 0 453 3438 l 0 66 517 4102 l 48 -36 c
0 18 c 6 12 c 6 6 c 18 6 c 12 0 c 18 -6 c 12 -12 c 6 -18 c 0 -18 c -6 -18 c -6 -6 c -12 -6 c 84 84 547 4216 l 84 -84 547 4300 l
-6 12 541 4360 l -18 18 c 126 0 c 6 -18 517 4498 l 18 -12 c 30 -6 c 18 0 c 30 6 c 18 12 c 6 18 c 0 12 c -6 18 c -18 12 c -30 6 c
-18 0 c -30 -6 c -18 -12 c -6 -18 c 0 -12 c 63 -45 453 4622 l 0 68 c 94 0 453 4622 l 84 -60 517 5334 l 0 90 c 126 0 517 5334 l
84 84 547 5400 l 84 -84 547 5484 l -6 12 541 5544 l -18 18 c 126 0 c 6 -18 517 5682 l 18 -12 c 30 -6 c 18 0 c 30 6 c 18 12 c 6 18 c
0 12 c -6 18 c -18 12 c -30 6 c -18 0 c -30 -6 c -18 -12 c -6 -18 c 0 -12 c 63 -45 453 5806 l 0 68 c 94 0 453 5806 l
0 -60 517 6530 l 54 -6 c -6 6 c -6 18 c 0 18 c 6 18 c 12 12 c 18 6 c 12 0 c 18 -6 c 12 -12 c 6 -18 c 0 -18 c -6 -18 c -6 -6 c
-12 -6 c 84 84 547 6584 l 84 -84 547 6668 l -6 12 541 6728 l -18 18 c 126 0 c 6 -18 517 6866 l 18 -12 c 30 -6 c 18 0 c 30 6 c
18 12 c 6 18 c 0 12 c -6 18 c -18 12 c -30 6 c -18 0 c -30 -6 c -18 -12 c -6 -18 c 0 -12 c 63 -45 453 6990 l 0 68 c 94 0 453 6990 l
4 -10 780 934 l 5 -12 c 4 -6 c 4 -4 c 5 -3 c 4 -4 c 4 -4 c 5 -3 c 4 -4 c 5 -2 c 4 -4 c 4 -2 c 5 -2 c 4 -3 c 4 -2 c 5 -3 c 4 -1 c
5 -2 c 4 -2 c 4 -1 c 5 -2 c 4 -3 c 4 -2 c 5 -1 c 4 -2 c 5 0 c 4 -1 c 4 -2 c 5 -1 c 4 -1 c 4 -1 c 5 0 c 4 -2 c 5 0 c 4 -1 c 4 2 c
5 -1 c 4 -2 c 4 -1 c 5 -1 c 4 -1 c 4 0 c 5 -1 c 4 0 c 5 -1 c 4 0 c 4 0 c 5 0 c 4 -1 c 4 -1 c 5 0 c 4 -1 c 5 0 c 4 0 c 4 -1 c 5 -1 c
4 0 c 4 0 c 5 0 c 4 -1 c 5 0 c 4 0 c 4 1 c 5 -1 c 4 0 c 4 -1 c 5 -1 c 4 0 c 5 2 c 4 3 c 4 7 c 5 20 c 4 24 c 4 -3 c 5 -32 c 4 -18 c
4 -3 c 5 -1 c 4 0 c 5 0 c 4 1 c 4 -1 c 5 -1 c 4 -24 c 4 0 c 5 24 c 4 -1 c 5 1 c 4 -1 c 4 1 c 5 0 c 4 1 c 4 0 c 5 0 c 4 -1 c 5 1 c
4 0 c 4 -2 c 5 1 c 4 0 c 4 2 c 5 0 c 4 0 c 5 -1 c 4 0 c 4 -1 c 5 -1 c 4 0 c 4 0 c 5 -1 c 4 0 c 4 1 c 5 0 c 4 1 c 5 0 c 4 0 c 4 1 c
5 -1 c 4 -1 c 4 0 c 5 1 c 4 2 c 5 -1 c 4 -1 c 4 -1 c 5 -1 c 4 1 c 4 1 c 5 0 c 4 0 c 5 -1 c 4 0 c 4 0 c 5 0 c 4 -1 c 4 0 c 5 0 c
4 -1 c 5 1 c 4 1 c 4 1 c 5 0 c 4 0 c 4 -1 c 5 -1 c 4 -1 c 4 1 c 5 0 c 4 -1 c 5 1 c 4 -1 c 4 1 c 5 0 c 4 0 c 4 1 c 5 0 c 4 -1 c 5 0 c
4 0 c 4 5 c 5 4 c 4 0 c 4 -5 c 5 -4 c 4 0 c 5 4 c 4 2 c 4 -2 c 5 -3 c 4 0 c 4 -1 c 5 -1 c 4 0 c 4 1 c 5 2 c 4 8 c 5 3 c 4 -4 c
4 -9 c 5 -1 c 4 1 c 4 -1 c 5 0 c 4 1 c 5 -1 c 4 0 c 4 0 c 5 0 c 4 0 c 4 1 c 5 -1 c 4 0 c 5 0 c 4 -1 c 4 1 c 5 0 c 4 0 c 4 0 c 5 1 c
4 -1 c 5 -1 c 4 1 c 4 0 c 5 0 c 4 0 c 4 0 c 5 -1 c 4 0 c 4 0 c 5 0 c 4 0 c 5 0 c 4 1 c 4 2 c 5 2 c 4 -2 c 4 -1 c 5 -2 c 4 0 c 5 0 c
4 0 c 4 2 c 5 0 c 4 0 c 4 -2 c 5 0 c 4 1 c 5 -1 c 4 0 c 4 1 c 5 2 c 4 12 c 4 25 c 5 3 c 4 -19 c 5 -20 c 4 -3 c 4 0 c 5 -1 c 4 0 c
4 2 c 5 1 c 4 2 c 4 -1 c 5 -1 c 4 -1 c 5 1 c 4 4 c 4 4 c 5 1 c 4 -4 c 4 -5 c 5 -1 c 4 -1 c 5 0 c 4 -1 c 4 0 c 5 1 c 4 0 c 4 0 c
5 0 c 4 0 c 5 2 c 4 0 c 4 0 c 5 -2 c 4 0 c 4 -1 c 5 1 c 4 -1 c 5 0 c 4 0 c 4 0 c 5 1 c 4 0 c 4 0 c 5 -1 c 4 0 c 4 0 c 5 0 c 4 0 c
5 0 c 4 -1 c 4 1 c 5 0 c 4 0 c 4 0 c 5 0 c 4 0 c 5 1 c 4 0 c 4 1 c 5 0 c 4 -1 c 4 -1 c 5 0 c 4 0 c 5 0 c 4 0 c 4 0 c 5 0 c 4 1 c
4 2 c 5 1 c 4 -1 c 5 -2 c 4 1 c 4 0 c 5 -1 c 4 -1 c 4 0 c 5 1 c 4 -1 c 4 1 c 5 -1 c 4 0 c 5 0 c 4 0 c 4 6 c 5 34 c 4 73 c 4 10 c
5 -45 c 4 -66 c 5 0 c 4 8 c 4 1 c 5 -9 c 4 -8 c 4 -2 c 5 10 c 4 29 c 5 8 c 4 -16 c 4 -26 c 5 -6 c 4 -1 c 4 0 c 5 0 c 4 0 c 4 0 c
5 0 c 4 1 c 5 0 c 4 0 c 4 -1 c 5 1 c 4 0 c 4 2 c 5 10 c 4 10 c 5 -1 c 4 -13 c 4 -7 c 5 -1 c 4 0 c 4 -1 c 5 1 c 4 1 c 5 0 c 4 0 c
4 1 c 5 -1 c 4 -1 c 4 1 c 5 1 c 4 2 c 5 1 c 4 0 c 4 -3 c 5 -1 c 4 2 c 4 -1 c 5 -1 c 4 0 c 4 2 c 5 -1 c 4 0 c 5 0 c 4 1 c 4 -1 c
5 0 c 4 1 c 4 1 c 5 0 c 4 0 c 5 0 c 4 2 c 4 5 c 5 3 c 4 -1 c 4 -3 c 5 1 c 4 1 c 5 -1 c 4 1 c 4 4 c 5 4 c 4 5 c 4 7 c 5 15 c 4 37 c
5 185 c 4 1766 c 3 4162 c 3 -4535 2560 7019 l 5 -1521 c 4 -96 c 4 -14 c 5 -4 c 4 -1 c 5 2 c 4 0 c 4 -4 c 5 -7 c 4 -4 c 4 -2 c 5 -1 c
4 -2 c 5 -2 c 4 0 c 4 0 c 5 0 c 4 0 c 4 -2 c 5 0 c 4 0 c 5 1 c 4 1 c 4 -1 c 5 -1 c 4 -1 c 4 -1 c 5 1 c 4 0 c 5 0 c 4 0 c 4 -1 c
5 1 c 4 1 c 4 -1 c 5 0 c 4 -1 c 4 -1 c 5 0 c 4 0 c 5 2 c 4 4 c 4 9 c 5 6 c 4 -5 c 4 -5 c 5 10 c 4 94 c 5 174 c 4 64 c 4 -130 c
5 -170 c 4 -45 c 4 -3 c 5 -2 c 4 1 c 5 11 c 4 98 c 4 139 c 5 17 c 4 -124 c 4 -125 c 5 -2 c 4 76 c 5 553 c 4 759 c 4 15 c 5 -791 c
4 -561 c 4 -60 c 5 -4 c 4 -1 c 4 0 c 5 -1 c 4 -1 c 5 -1 c 4 1 c 4 -1 c 5 1 c 4 0 c 4 1 c 5 -1 c 4 0 c 5 7 c 4 15 c 4 4 c 5 -10 c
4 -14 c 4 -2 c 5 -1 c 4 0 c 5 -1 c 4 0 c 4 0 c 5 0 c 4 0 c 4 1 c 5 0 c 4 2 c 4 7 c 5 3 c 4 -4 c 5 -8 c 4 -1 c 4 1 c 5 0 c 4 0 c
4 2 c 5 1 c 4 -1 c 5 -3 c 4 0 c 4 0 c 5 2 c 4 1 c 4 -1 c 5 -1 c 4 -1 c 5 0 c 4 0 c 4 0 c 5 0 c 4 3 c 4 11 c 5 8 c 4 -3 c 5 -14 c
4 -5 c 4 0 c 5 2 c 4 0 c 4 0 c 5 -2 c 4 1 c 4 -1 c 5 0 c 4 0 c 5 0 c 4 1 c 4 1 c 5 9 c 4 5 c 4 -1 c 5 -10 c 4 -4 c 5 0 c 4 0 c
4 -1 c 5 1 c 4 0 c 4 0 c 5 0 c 4 1 c 5 6 c 4 7 c 4 -1 c 5 -8 c 4 -5 c 4 -2 c 5 1 c 4 -1 c 5 2 c 4 -1 c 4 2 c 5 1 c 4 -1 c 4 -1 c
5 0 c 4 -1 c 4 1 c 5 2 c 4 3 c 5 0 c 4 -3 c 4 -3 c 5 0 c 4 0 c 4 0 c 5 0 c 4 1 c 5 0 c 4 0 c 4 1 c 5 0 c 4 0 c 4 -1 c 5 0 c 4 0 c
5 1 c 4 0 c 4 2 c 5 16 c 4 27 c 4 -1 c 5 -24 c 4 -19 c 5 -2 c 4 1 c 4 8 c 5 14 c 4 0 c 4 -11 c 5 -10 c 4 -1 c 4 0 c 5 0 c 4 -1 c
5 0 c 4 0 c 4 0 c 5 0 c 4 1 c 4 0 c 5 0 c 4 0 c 5 1 c 4 1 c 4 1 c 5 1 c 4 2 c 4 6 c 5 35 c 4 449 c 5 1343 c 4 330 c 4 -755 c
5 -1216 c 4 -178 c 4 -12 c 5 -3 c 4 -2 c 4 1 c 5 -1 c 4 -1 c 5 0 c 4 1 c 4 7 c 5 7 c 4 -2 c 4 -9 c 5 -5 c 4 -1 c 5 1 c 4 0 c 4 0 c
5 -1 c 4 0 c 4 0 c 5 0 c 4 0 c 5 0 c 4 -1 c 4 0 c 5 0 c 4 0 c 4 0 c 5 0 c 4 0 c 5 1 c 4 0 c 4 -1 c 5 0 c 4 1 c 4 2 c 5 8 c 4 84 c
4 108 c 5 8 c 4 -103 c 5 -100 c 4 -7 c 4 0 c 5 -1 c 4 0 c 4 1 c 5 -1 c 4 -1 c 5 1 c 4 0 c 4 0 c 5 1 c 4 1 c 4 -1 c 5 -1 c 4 0 c
5 0 c 4 0 c 4 0 c 5 0 c 4 -1 c 4 0 c 5 0 c 4 1 c 5 1 c 4 0 c 4 0 c 5 0 c 4 -1 c 4 0 c 5 0 c 4 -1 c 4 1 c 5 3 c 4 3 c 5 0 c 4 -5 c
4 -1 c 5 -1 c 4 0 c 4 1 c 5 0 c 4 0 c 5 0 c 4 0 c 4 0 c 5 -1 c 4 1 c 4 0 c 5 0 c 4 0 c 5 0 c 4 -1 c 4 0 c 5 0 c 4 1 c 4 0 c 5 1 c
4 0 c 5 0 c 4 -1 c 4 0 c 5 0 c 4 2 c 4 0 c 5 -1 c 4 -1 c 4 -1 c 5 0 c 4 0 c 5 0 c 4 0 c 4 0 c 5 0 c 4 0 c 4 1 c 5 0 c 4 0 c 5 -1 c
4 2 c 4 0 c 5 1 c 4 0 c 4 7 c 5 8 c 4 0 c 5 -11 c 4 -6 c 4 -1 c 5 0 c 4 0 c 4 0 c 5 1 c 4 1 c 5 1 c 4 0 c 4 3 c 5 0 c 4 -3 c 4 -3 c
5 0 c 4 0 c 4 0 c 5 5 c 4 2 c 5 -2 c 4 -5 c 4 0 c 5 0 c 4 0 c 4 0 c 5 0 c 4 -1 c 5 1 c 4 0 c 4 -1 c 5 0 c 4 0 c 4 0 c 5 0 c 4 0 c
5 0 c 4 0 c 4 1 c 5 0 c 4 1 c 4 0 c 5 -2 c 4 0 c 4 1 c 5 0 c 4 0 c 5 -1 c 4 0 c 4 1 c 5 -1 c 4 1 c 4 -1 c 5 0 c 4 0 c 5 0 c 4 0 c
4 1 c 5 -1 c 4 1 c 4 0 c 5 0 c 4 0 c 5 0 c 4 0 c 4 0 c 5 -1 c 4 -1 c 4 1 c 5 -1 c 4 1 c 5 0 c 4 1 c 4 0 c 5 0 c 4 1 c 4 -1 c 5 0 c
4 0 c 4 0 c 5 0 c 4 -1 c 5 0 c 4 0 c 4 -1 c 5 0 c 4 0 c 4 0 c 5 0 c 4 0 c 5 0 c 4 0 c 4 0 c 5 0 c 4 0 c 4 -1 c 5 1 c 4 -1 c 5 1 c
4 0 c 4 0 c 5 -1 c 4 1 c 4 0 c 5 0 c 4 1 c 5 -1 c 4 0 c 4 0 c 5 0 c 4 0 c 4 0 c 5 2 c 4 -1 c 4 0 c 5 1 c 4 -1 c 5 0 c 4 -1 c 4 -1 c
5 0 c 4 0 c 4 1 c 5 0 c 4 0 c 5 0 c 4 1 c 4 0 c 5 0 c 4 -1 c 4 0 c 5 -1 c 4 0 c 5 1 c 4 4 c 4 2 c 5 -2 c 4 -4 c 4 -1 c 5 1 c 4 0 c
5 0 c 4 0 c 4 -1 c 5 0 c 4 1 c 4 -1 c 5 0 c 4 0 c 4 1 c 5 1 c 4 0 c 5 1 c 4 0 c 4 -1 c 5 -2 c 4 1 c 4 -1 c 5 1 c 4 1 c 5 6 c 4 11 c
4 31 c 5 14 c 4 -15 c 4 -35 c 5 -10 c 4 -1 c 5 6 c 4 48 c 4 50 c 5 -6 c 4 -61 c 4 -33 c 5 -3 c 4 -1 c 5 1 c 4 2 c 4 0 c 5 0 c 4 -2 c
4 -1 c 5 0 c 4 -1 c 4 1 c 5 -1 c 4 0 c 5 0 c 4 0 c 4 0 c 5 1 c 4 1 c 4 0 c 5 0 c 4 -1 c 5 0 c 4 -1 c 4 0 c 5 1 c 4 1 c 4 0 c 5 0 c
4 -1 c 5 0 c 4 0 c 4 0 c 5 0 c 4 0 c 4 1 c 5 0 c 4 0 c 4 0 c 5 0 c 4 0 c 5 1 c 4 1 c 4 -1 c 5 0 c 4 0 c 4 0 c 5 -1 c 4 0 c 5 0 c
4 1 c 4 1 c 5 2 c 4 -1 c 4 0 c 5 0 c 4 3 c 5 1 c 4 1 c 4 2 c 5 3 c 4 9 c 4 24 c 5 202 c 4 1788 c 5 2446 c 4 306 c 4 -2240 c
5 -2288 c 4 -219 c 4 -22 c 5 -5 c 4 -3 c 4 -3 c 5 -2 c 4 0 c 5 -2 c 4 0 c 4 0 c 5 -1 c 4 0 c 4 1 c 5 1 c 4 -2 c 5 0 c 4 -2 c 4 0 c
5 -1 c 4 0 c 4 0 c 5 1 c 4 3 c 5 2 c 4 -2 c 4 -2 c 5 -1 c 4 0 c 4 -1 c 5 -1 c 4 0 c 5 0 c 4 0 c 4 0 c 5 1 c 4 5 c 4 12 c 5 5 c
4 -5 c 4 -13 c 5 -5 c 4 -1 c 5 0 c 4 0 c 4 0 c 5 0 c 4 0 c 4 0 c 5 1 c 4 0 c 5 0 c 4 1 c 4 17 c 5 39 c 4 8 c 4 -23 c 5 -37 c 4 -5 c
5 0 c 4 -1 c 4 0 c 5 0 c 4 1 c 4 0 c 5 0 c 4 1 c 5 2 c 4 1 c 4 -2 c 5 -2 c 4 -1 c 4 0 c 5 0 c 4 0 c 4 0 c 5 0 c 4 0 c 5 0 c 4 1 c
4 1 c 5 0 c 4 2 c 4 5 c 5 3 c 4 -3 c 5 -4 c 4 -3 c 4 -1 c 5 1 c 4 -2 c 4 0 c 5 1 c 4 8 c 5 5 c 4 -2 c 4 -9 c 5 -3 c 4 0 c 4 1 c
5 5 c 4 32 c 4 21 c 5 -4 c 4 -26 c 5 -15 c 4 -3 c 4 -3 c 5 -1 c 4 -3 c 4 -4 c 5 -1 c 4 1 c 5 -1 c 4 0 c 4 1 c 5 0 c 4 0 c 4 3 c
5 1 c 4 0 c 5 -2 c 4 -23 c 4 20 c 5 0 c 4 0 c 4 1 c 5 -1 c 4 0 c 5 0 c 4 0 c 4 1 c 5 0 c 4 0 c 4 0 c 5 2 c 4 8 c 4 38 c 5 33 c
4 -6 c 5 -47 c 4 -24 c 4 -3 c 5 0 c 4 -1 c 4 0 c 5 0 c 4 0 c 5 0 c 4 -1 c 4 0 c 5 0 c 4 1 c 4 -1 c 5 1 c 4 3 c 5 1 c 4 -2 c 4 -1 c
5 -1 c 4 0 c 4 0 c 5 2 c 4 18 c 5 20 c 4 2 c 4 -21 c 5 -17 c 4 -2 c 4 0 c 5 -1 c 4 -1 c 4 1 c 5 0 c 4 0 c 5 0 c 4 0 c 4 -1 c 5 0 c
4 1 c 4 0 c 5 0 c 4 -1 c 5 0 c 4 1 c 4 0 c 5 0 c 4 0 c 4 0 c 5 -1 c 4 1 c 5 0 c 4 0 c 4 0 c 5 0 c 4 1 c 4 6 c 5 15 c 4 3 c 5 -7 c
4 -14 c 4 -3 c 5 0 c 4 0 c 4 1 c 5 0 c 4 0 c 4 1 c 5 1 c 4 1 c 5 -1 c 4 -1 c 4 0 c 5 -1 c 4 0 c 4 0 c 5 1 c 4 0 c 5 0 c 4 1 c 4 2 c
5 -1 c 4 0 c 4 0 c 5 2 c 4 2 c 5 0 c 4 0 c 4 -1 c 5 1 c 4 2 c 4 3 c 5 3 c 4 0 c 5 -2 c 4 4 c 4 9 c 5 6 c 4 5 c 4 3 c 5 12 c 4 33 c
4 98 c 5 783 c 4 4361 c 2 867 c 2 -1097 6246 7019 l 5 -4170 c 4 -756 c 4 -85 c 5 -26 c 4 -14 c 5 -10 c 4 -7 c 4 -4 c 5 -4 c 4 2 c
4 1 c 5 -1 c 4 -5 c 5 -4 c 4 -2 c 4 -1 c 5 2 c 4 5 c 4 2 c 5 -1 c 4 -4 c 4 -4 c 5 -4 c 4 -1 c 5 -1 c 4 -1 c 4 -2 c 5 -1 c 4 0 c
4 -1 c 5 0 c 4 0 c 5 0 c 4 0 c 4 0 c 5 -1 c 4 0 c 4 1 c 5 1 c 4 1 c 5 -1 c 4 -1 c 4 0 c 5 0 c 4 -1 c 4 -1 c 5 1 c 4 0 c 5 0 c 4 -1 c
4 0 c 5 0 c 4 0 c 4 12 c 5 29 c 4 8 c 4 -13 c 5 -24 c 4 -5 c 5 -2 c 4 -4 c 4 -1 c 5 3 c 4 18 c 4 8 c 5 -4 c 4 -20 c 5 -5 c 4 0 c
4 6 c 5 5 c 4 0 c 4 -8 c 5 -4 c 4 -2 c 5 1 c 4 0 c 4 -1 c 5 1 c 4 1 c 4 -21 c 5 23 c 4 1 c 5 -1 c 4 -1 c 4 -1 c 5 0 c 4 0 c 4 2 c
5 3 c 4 0 c 4 -3 c 5 -2 c 4 -1 c 5 0 c 4 0 c 4 0 c 5 0 c 4 0 c 4 0 c 5 1 c 4 -1 c 5 1 c 4 0 c 4 0 c 5 0 c 4 2 c 4 1 c 5 -1 c 4 0 c
5 -3 c 4 1 c 4 0 c 5 0 c 4 1 c 4 1 c 5 3 c 4 1 c 5 -1 c 4 -3 c 4 0 c 5 0 c 4 -1 c 4 2 c 5 9 c 4 51 c 4 179 c 5 549 c 3 5406 c
4 -6168 6839 7019 l 4 -14 c 5 -2 c 4 -2 c 4 0 c 5 -1 c 4 0 c 4 0 c 5 -1 c 4 0 c 5 -1 c 4 0 c 4 0 c 5 -1 c 4 0 c 4 1 c 5 -1 c 4 0 c
5 -1 c 4 3 c 4 2 c 5 0 c 4 -4 c 4 0 c 5 1 c 4 3 c 4 0 c 5 -3 c 4 -2 c 5 -2 c 4 0 c 4 1 c 5 2 c 4 0 c 4 -2 c 5 -1 c 4 -1 c 5 0 c
4 0 c 4 0 c 5 0 c 4 0 c 4 0 c 5 3 c 4 9 c 5 3 c 4 -4 c 4 -8 c 5 -3 c 4 -1 c 4 0 c 5 0 c 4 0 c 4 0 c 5 0 c 4 0 c 5 0 c 4 0 c 4 0 c
5 -1 c 4 0 c 4 0 c 5 0 c 4 1 c 5 0 c 4 0 c 4 2 c 5 0 c 4 0 c 4 -2 c 5 -1 c 4 0 c 5 -1 c 4 0 c 4 0 c 5 0 c 4 0 c 4 0 c 5 0 c 4 0 c
5 1 c 4 0 c 4 1 c 5 0 c 4 1 c 4 -2 c 5 1 c 4 0 c 4 -1 c 5 1 c 4 0 c 5 0 c 4 0 c 4 0 c 5 0 c 4 -1 c 4 -1 c 5 1 c 4 0 c 5 0 c 4 1 c
4 0 c 5 -1 c 4 0 c 4 0 c 5 0 c 4 1 c 5 1 c 4 0 c 4 0 c 5 0 c 4 -2 c 4 1 c 5 -1 c 4 1 c 5 -1 c 4 1 c 4 0 c 5 0 c 4 -1 c 4 0 c 5 1 c
4 -1 c 4 0 c 5 0 c 4 0 c 5 0 c 4 0 c 4 0 c 5 0 c 4 0 c 4 0 c 5 0 c 4 0 c 5 0 c 4 0 c 4 1 c 5 1 c 4 0 c 4 -2 c 5 0 c 4 0 c 5 2 c
4 0 c 4 0 c 5 -1 c 4 0 c 4 0 c 5 0 c 4 0 c 5 1 c 4 0 c 4 0 c 5 1 c 4 0 c 4 0 c 5 -3 c 4 0 c 4 1 c 5 1 c 4 0 c 5 -1 c 4 0 c 4 -1 c
5 0 c 4 0 c 4 1 c 5 -1 c 4 0 c 5 0 c 4 1 c 4 0 c 5 0 c 4 -1 c 4 0 c 5 0 c 4 1 c 5 0 c 4 0 c 4 1 c 5 3 c 4 3 c 4 0 c 5 -5 c 4 -2 c
5 1 c 4 0 c 4 0 c 5 1 c 4 0 c 4 2 c 5 2 c 4 5 c 4 2 c 5 -1 c 4 -1 c 5 9 c 4 84 c 4 792 c 5 991 c 4 50 c 4 -886 c 5 -928 c 4 -102 c
5 -10 c 4 -4 c 4 -2 c 5 -1 c 4 -1 c 4 -1 c 5 0 c 4 0 c 5 0 c 4 -1 c 4 0 c 5 2 c 4 2 c 4 0 c 5 -3 c 4 -1 c 4 0 c 5 0 c 4 -1 c 5 1 c
4 0 c 4 0 c 5 -2 c 4 -1 c 4 2 c 5 -1 c 4 0 c 5 1 c 4 2 c 4 2 c 5 -1 c 4 -2 c 4 -2 c 5 0 c 4 0 c 5 0 c 4 0 c 4 0 c 5 0 c 4 0 c 4 1 c
5 -1 c 4 0 c 5 -1 c 4 0 c 4 0 c 5 0 c 4 0 c 4 0 c 5 0 c 4 0 c 4 0 c 5 0 c 4 0 c 5 0 c 4 -1 c 4 0 c 5 0 c 4 0 c 4 0 c 5 0 c 4 0 c
5 0 c 4 0 c 4 0 c 5 0 c 4 0 c 4 0 c 5 0 c 4 0 c 5 0 c 4 0 c 4 0 c 5 0 c 4 0 c 4 -1 c 5 1 c 4 0 c 5 0 c 4 0 c 4 1 c 5 -1 c 4 1 c
4 1 c 5 3 c 4 -1 c 4 -2 c 5 -2 c 4 0 c 5 0 c 4 0 c 4 0 c 5 0 c 4 0 c 4 0 c 5 1 c 4 -1 c 5 0 c 4 0 c 4 0 c 5 0 c 4 1 c 4 2 c 5 2 c
4 -1 c 5 -2 c 4 -2 c 4 0 c 5 -1 c 4 1 c 4 0 c 5 1 c 4 -1 c 5 0 c 4 0 c 4 0 c 5 1 c 4 0 c 4 0 c 5 0 c 4 1 c 4 1 c 5 -1 c 4 0 c 5 -1 c
4 0 c 4 2 c 5 2 c 4 0 c 4 -1 c 5 -1 c 4 -1 c 5 -1 c 4 1 c 4 1 c 5 1 c 4 0 c 4 -1 c 5 -2 c 4 0 c 5 1 c 4 -1 c 4 0 c 5 0 c 4 0 c 4 0 c
5 0 c 4 0 c 4 1 c 5 0 c 4 0 c 5 -1 c 4 0 c 4 0 c 5 0 c 4 1 c 4 0 c 5 0 c 4 0 c 5 0 c 4 0 c 4 0 c 5 0 c 4 1 c 4 1 c 5 5 c 4 37 c
5 346 c 4 494 c 4 34 c 5 -331 c 4 -500 c 4 -80 c 5 -4 c 4 -2 c 5 0 c 4 -1 c 4 0 c 5 0 c 4 -1 c 4 0 c 5 1 c 4 0 c 4 0 c 5 4 c 4 25 c
5 19 c 4 -2 c 4 -25 c 5 -20 c 4 -2 c 4 0 c 5 0 c 4 0 c 5 1 c 4 0 c 4 1 c 5 7 c 4 15 c 4 6 c 5 -4 c 4 -15 c 5 -9 c 4 -2 c 4 0 c 5 0 c
4 0 c 4 0 c 5 0 c 4 -1 c 5 1 c 4 -1 c 4 1 c 5 -1 c 4 0 c 4 0 c 5 0 c 4 1 c 4 5 c 5 6 c 4 0 c 5 -5 c 4 -6 c 4 -1 c 5 0 c 4 0 c 4 0 c
5 0 c 4 0 c 5 0 c 4 0 c 4 0 c 5 0 c 4 0 c 4 2 c 5 3 c 4 0 c 5 -2 c 4 -3 c 4 0 c 5 0 c 4 -1 c 4 1 c 5 -1 c 4 0 c 5 0 c 4 0 c 4 0 c
5 0 c 4 1 c 4 -1 c 5 1 c 4 -1 c 4 0 c 5 -1 c 4 1 c 5 0 c 4 1 c 4 -1 c 5 0 c 4 0 c 4 0 c 5 0 c 4 0 c 5 0 c 4 0 c 4 0 c 5 0 c 4 0 c
4 0 c 5 0 c 4 0 c 5 0 c 4 1 c 4 0 c 5 6 c 4 41 c 4 48 c 5 -1 c 4 -39 c 5 -50 c 4 -5 c 4 0 c 5 0 c 4 0 c 4 0 c 5 0 c 4 0 c 4 0 c
5 0 c 4 0 c 5 1 c 4 -1 c 4 0 c 5 0 c 4 0 c 4 0 c 5 1 c 4 0 c 5 7 c 4 15 c 4 3 c 5 -6 c 4 -14 c 4 -4 c 5 -1 c 4 0 c 5 0 c 4 2 c 4 1 c
5 21 c 4 131 c 4 132 c 5 10 c 4 -132 c 4 -148 c 5 -14 c 4 -1 c 5 0 c 4 0 c 4 0 c 5 1 c 4 2 c 4 8 c 5 90 c 4 398 c 5 296 c 4 -41 c
4 -419 c 5 -299 c 4 -30 c 4 -4 c 5 -1 c 4 0 c 5 -1 c 4 -1 c 4 0 c 5 0 c 4 0 c 4 0 c 5 2 c 4 12 c 5 40 c 4 14 c 4 -13 c 5 -38 c
4 -16 c 4 -1 c 5 0 c 4 0 c 4 0 c 5 0 c 4 0 c 5 0 c 4 0 c 4 0 c 5 0 c 4 0 c 4 2 c 5 2 c 4 1 c 5 1 c 4 0 c 4 -2 c 5 -1 c 4 0 c 4 1 c
5 0 c 4 -1 c 4 6193 c 4 -5939 9357 7019 l 4 -238 c 4 -9 c 5 -2 c 4 0 c 5 -2 c 4 -1 c 4 0 c 5 1 c 4 0 c 4 0 c 5 0 c 4 -1 c 4 1 c
5 0 c 4 1 c 5 0 c 4 0 c 4 0 c 5 0 c 4 1 c 4 0 c 5 -1 c 4 1 c 5 -1 c 4 2 c 4 2 c 5 1 c 4 -1 c 4 -3 c 5 0 c 4 0 c 5 2 c 4 1 c 4 -1 c
5 0 c 4 0 c 4 2 c
5 19 c 4 93 c 5 63 c 4 -7 c 4 -202 c 5 0 c 4 34 c 4 0 c 5 0 c 4 1 c 4 2 c 5 2 c 4 2 c 5 2 c 4 1 c 4 0 c 5 0 c 4 1 c 4 -1 c 5 2 c
4 1 c 5 -1 c 4 4 c 4 1 c 5 0 c 4 2 c 4 4 c 5 5 c 4 2 c 5 -2 c 4 0 c 4 2 c 5 4 c 4 0 c 4 1 c 5 2 c 4 2 c 5 1 c 4 3 c 4 7 c 5 8 c
4 4 c 4 12 c 5 23 c 4 19 c
0 -126 3303 418 l 54 0 3303 418 l 18 -6 c 6 -6 c 6 -12 c 0 -12 c -6 -12 c -6 -6 c -18 -6 c -54 0 c 42 -66 3345 358 l
-12 -6 3453 376 l -12 -12 c -6 -18 c 0 -12 c 6 -18 c 12 -12 c 12 -6 c 18 0 c 12 6 c 12 12 c 6 18 c 0 12 c -6 18 c -12 12 c -12 6 c
-18 0 c 24 -84 3537 376 l -24 -84 3585 376 l 24 -84 3585 376 l -24 -84 3633 376 l 108 0 3675 364 l 108 0 3675 328 l 12 6 3939 394 l
18 18 c 0 -126 c -60 -84 4101 418 l 90 0 c 0 -126 4101 418 l -12 -6 4287 376 l -12 -12 c -6 -18 c 0 -12 c 6 -18 c 12 -12 c 12 -6 c
18 0 c 12 6 c 12 12 c 6 18 c 0 12 c -6 18 c -12 12 c -12 6 c -18 0 c -12 0 4413 418 l -12 -6 c -6 -18 c 0 -102 c 42 0 4365 376 l
0 6 4545 388 l 6 12 c 6 6 c 12 6 c 24 0 c 12 -6 c 6 -6 c 6 -12 c 0 -12 c -6 -12 c -12 -18 c -60 -60 c 84 0 c -18 -6 4695 418 l
-12 -18 c -6 -30 c 0 -18 c 6 -30 c 12 -18 c 18 -6 c 12 0 c 18 6 c 12 18 c 6 30 c 0 18 c -6 30 c -12 18 c -18 6 c -12 0 c
12 6 5181 394 l 18 18 c 0 -126 c -6 -6 5294 376 l 6 -6 c 6 6 c -6 6 c -6 -6 5294 304 l 6 -6 c 6 6 c -6 6 c -48 -126 5474 418 l
48 -126 5474 418 l 60 0 5444 334 l 0 -84 5552 376 l 6 18 5552 340 l 12 12 c 12 6 c 18 0 c -12 12 5696 358 l -12 6 c -18 0 c -12 -6 c
-12 -12 c -6 -18 c 0 -12 c 6 -18 c 12 -12 c 12 -6 c 18 0 c 12 6 c 12 12 c 108 0 5738 346 l 12 6 5906 394 l 18 18 c 0 -126 c
66 0 6020 418 l -36 -48 c 18 0 c 12 -6 c 6 -6 c 6 -18 c 0 -12 c -6 -18 c -12 -12 c -18 -6 c -18 0 c -18 6 c -6 6 c -6 12 c
-6 -18 6206 376 l -12 -12 c -18 -6 c -6 0 c -18 6 c -12 12 c -6 18 c 0 6 c 6 18 c 12 12 c 18 6 c 6 0 c 18 -6 c 12 -12 c 6 -24 c
0 -30 c -6 -30 c -12 -18 c -18 -6 c -12 0 c -18 6 c -6 12 c -6 -6 6260 304 l 6 -6 c 6 6 c -6 6 c -12 0 6350 418 l -12 -6 c -6 -18 c
0 -102 c 42 0 6302 376 l 6 -6 6380 418 l 6 6 c -6 6 c -6 -6 c 0 -84 6386 376 l 0 -102 6440 418 l 6 -18 c 12 -6 c 12 0 c
42 0 6422 376 l -6 12 6566 358 l -18 6 c -18 0 c -18 -6 c -6 -12 c 6 -12 c 12 -6 c 30 -6 c 12 -6 c 6 -12 c 0 -6 c -6 -12 c -18 -6 c
-18 0 c -18 6 c -6 12 c 0 -192 6896 442 l 0 -192 6902 442 l 42 0 6896 442 l 42 0 6896 250 l 0 6 6980 388 l 6 12 c 6 6 c 12 6 c
24 0 c 12 -6 c 6 -6 c 6 -12 c 0 -12 c -6 -12 c -12 -18 c -60 -60 c 84 0 c -6 -6 7106 376 l 6 -6 c 6 6 c -6 6 c -6 -6 7106 304 l
6 -6 c 6 6 c -6 6 c 0 -192 7286 442 l 0 -192 7292 442 l 42 0 7250 442 l 42 0 7250 250 l
0 -250 1801 1301 l -7 -4 1769 1422 l -4 -11 c 0 -8 c 4 -11 c 11 -8 c 19 -4 c 19 0 c 15 4 c 7 8 c 4 11 c 0 4 c -4 11 c -7 8 c -12 3 c
-3 0 c -12 -3 c -7 -8 c -4 -11 c 0 -4 c 4 -11 c 7 -8 c 12 -4 c 12 -3 1784 1497 l 7 -8 c 4 -11 c 0 -4 c -4 -12 c -7 -7 c -12 -4 c
-4 0 c -11 4 c -7 7 c -4 12 c 0 4 c 4 11 c 7 8 c 15 3 c 19 0 c 19 -3 c 11 -8 c 4 -11 c 0 -8 c -4 -11 c -7 -4 c 4 -12 1758 1543 l
7 -3 c 8 0 c 7 3 c 4 8 c 4 15 c 4 11 c 7 8 c 8 4 c 11 0 c 8 -4 c 3 -4 c 4 -11 c 0 -15 c -4 -12 c -3 -3 c -8 -4 c -11 0 c -8 4 c
-7 7 c -4 11 c -4 16 c -4 7 c -7 4 c -8 0 c -7 -4 c -4 -11 c 0 -15 c -4 7 1773 1611 l -11 12 c 79 0 c 3 -3 1830 1682 l 4 3 c -4 4 c
-3 -4 c 4 -11 1758 1735 l 11 -8 c 19 -3 c 11 0 c 19 3 c 11 8 c 4 11 c 0 8 c -4 11 c -11 8 c -19 4 c -11 0 c -19 -4 c -11 -8 c
-4 -11 c 0 -8 c 4 -11 1758 1807 l 7 -4 c 8 0 c 7 4 c 4 7 c 4 16 c 4 11 c 7 7 c 8 4 c 11 0 c 8 -4 c 3 -3 c 4 -12 c 0 -15 c -4 -11 c
-3 -4 c -8 -4 c -11 0 c -8 4 c -7 8 c -4 11 c -4 15 c -4 8 c -7 3 c -8 0 c -7 -3 c -4 -12 c 0 -15 c 0 42 1758 1871 l 30 -23 c 0 12 c
4 7 c 4 4 c 11 4 c 7 0 c 12 -4 c 7 -8 c 4 -11 c 0 -11 c -4 -12 c -3 -3 c -8 -4 c 0 -249 2555 7019 l -7 -4 2522 7140 l -4 -11 c
0 -8 c 4 -11 c 11 -8 c 19 -3 c 19 0 c 15 3 c 7 8 c 4 11 c 0 4 c -4 11 c -7 8 c -11 4 c -4 0 c -12 -4 c -7 -8 c -4 -11 c 0 -4 c
4 -11 c 7 -8 c 12 -3 c 12 -4 2537 7216 l 7 -8 c 4 -11 c 0 -4 c -4 -11 c -7 -8 c -12 -3 c -3 0 c -12 3 c -7 8 c -4 11 c 0 4 c 4 11 c
7 8 c 15 4 c 19 0 c 19 -4 c 11 -8 c 4 -11 c 0 -8 c -4 -11 c -7 -4 c 4 -11 2511 7261 l 7 -4 c 8 0 c 7 4 c 4 7 c 4 15 c 4 12 c 7 7 c
8 4 c 11 0 c 8 -4 c 3 -4 c 4 -11 c 0 -15 c -4 -11 c -3 -4 c -8 -4 c -11 0 c -8 4 c -7 7 c -4 12 c -4 15 c -4 7 c -7 4 c -8 0 c
-7 -4 c -4 -11 c 0 -15 c 12 -4 2537 7367 l 7 -8 c 4 -11 c 0 -4 c -4 -11 c -7 -8 c -12 -3 c -3 0 c -12 3 c -7 8 c -4 11 c 0 4 c
4 11 c 7 8 c 15 4 c 19 0 c 19 -4 c 11 -8 c 4 -11 c 0 -7 c -4 -12 c -7 -4 c 3 -4 2583 7401 l 4 4 c -4 4 c -3 -4 c -7 -4 2522 7480 l
-4 -11 c 0 -7 c 4 -12 c 11 -7 c 19 -4 c 19 0 c 15 4 c 7 7 c 4 12 c 0 3 c -4 12 c -7 7 c -11 4 c -4 0 c -12 -4 c -7 -7 c -4 -12 c
0 -3 c 4 -12 c 7 -7 c 12 -4 c 0 -38 2511 7552 l 34 -4 c -4 4 c -4 12 c 0 11 c 4 11 c 8 8 c 11 4 c 8 0 c 11 -4 c 7 -8 c 4 -11 c
0 -11 c -4 -12 c -3 -4 c -8 -3 c 0 -38 2511 7628 l 34 -4 c -4 4 c -4 11 c 0 11 c 4 12 c 8 7 c 11 4 c 8 0 c 11 -4 c 7 -7 c 4 -12 c
0 -11 c -4 -11 c -3 -4 c -8 -4 c 0 -249 2854 2680 l -8 -3 2822 2801 l -4 -12 c 0 -7 c 4 -12 c 12 -7 c 18 -4 c 19 0 c 15 4 c 8 7 c
4 12 c 0 3 c -4 12 c -8 7 c -11 4 c -4 0 c -11 -4 c -8 -7 c -3 -12 c 0 -3 c 3 -12 c 8 -7 c 11 -4 c 11 -4 2837 2877 l 8 -7 c 4 -12 c
0 -4 c -4 -11 c -8 -7 c -11 -4 c -4 0 c -11 4 c -8 7 c -4 11 c 0 4 c 4 12 c 8 7 c 15 4 c 19 0 c 19 -4 c 11 -7 c 4 -12 c 0 -7 c
-4 -12 c -8 -3 c 11 -4 2837 2953 l 8 -8 c 4 -11 c 0 -4 c -4 -11 c -8 -8 c -11 -4 c -4 0 c -11 4 c -8 8 c -4 11 c 0 4 c 4 11 c 8 8 c
15 4 c 19 0 c 19 -4 c 11 -8 c 4 -11 c 0 -8 c -4 -11 c -8 -4 c 0 41 2810 2987 l 31 -23 c 0 12 c 3 7 c 4 4 c 12 4 c 7 0 c 11 -4 c
8 -7 c 4 -12 c 0 -11 c -4 -11 c -4 -4 c -7 -4 c 4 -4 2882 3062 l 4 4 c -4 4 c -4 -4 c 4 -11 2810 3115 l 12 -8 c 18 -4 c 12 0 c
19 4 c 11 8 c 4 11 c 0 8 c -4 11 c -11 7 c -19 4 c -12 0 c -18 -4 c -12 -7 c -4 -11 c 0 -8 c 0 41 2810 3176 l 31 -23 c 0 12 c 3 7 c
4 4 c 12 4 c 7 0 c 11 -4 c 8 -7 c 4 -12 c 0 -11 c -4 -11 c -4 -4 c -7 -4 c 80 -37 2810 3296 l 0 52 2810 3244 l 0 -250 3546 3431 l
79 -37 3503 3555 l 0 53 3503 3502 l 3 -12 3503 3601 l 12 -7 c 19 -4 c 11 0 c 19 4 c 11 7 c 4 12 c 0 7 c -4 12 c -11 7 c -19 4 c
-11 0 c -19 -4 c -12 -7 c -3 -12 c 0 -7 c 3 -11 3503 3676 l 12 -8 c 19 -3 c 11 0 c 19 3 c 11 8 c 4 11 c 0 8 c -4 11 c -11 8 c
-19 3 c -11 0 c -19 -3 c -12 -8 c -3 -11 c 0 -8 c 3 -11 3503 3752 l 12 -8 c 19 -4 c 11 0 c 19 4 c 11 8 c 4 11 c 0 7 c -4 12 c
-11 7 c -19 4 c -11 0 c -19 -4 c -12 -7 c -3 -12 c 0 -7 c 4 -3 3574 3812 l 4 3 c -4 4 c -4 -4 c 3 -11 3503 3861 l 8 -4 c 7 0 c 8 4 c
4 8 c 4 15 c 3 11 c 8 8 c 7 3 c 12 0 c 7 -3 c 4 -4 c 4 -11 c 0 -16 c -4 -11 c -4 -4 c -7 -3 c -12 0 c -7 3 c -8 8 c -3 11 c -4 15 c
-4 8 c -8 4 c -7 0 c -8 -4 c -3 -11 c 0 -16 c 3 -12 3503 3941 l 12 -7 c 19 -4 c 11 0 c 19 4 c 11 7 c 4 12 c 0 7 c -4 12 c -11 7 c
-19 4 c -11 0 c -19 -4 c -12 -7 c -3 -12 c 0 -7 c 52 -38 3503 4032 l 0 56 c 79 0 3503 4032 l 0 -249 3733 1471 l 80 -38 3689 1596 l
0 53 3689 1543 l 4 -11 3689 1641 l 11 -7 c 19 -4 c 12 0 c 19 4 c 11 7 c 4 11 c 0 8 c -4 11 c -11 8 c -19 4 c -12 0 c -19 -4 c
-11 -8 c -4 -11 c 0 -8 c 4 -11 3689 1717 l 11 -8 c 19 -4 c 12 0 c 19 4 c 11 8 c 4 11 c 0 8 c -4 11 c -11 7 c -19 4 c -12 0 c
-19 -4 c -11 -7 c -4 -11 c 0 -8 c -4 0 3708 1774 l -7 4 c -4 3 c -4 8 c 0 15 c 4 8 c 4 3 c 7 4 c 8 0 c 8 -4 c 11 -7 c 38 -38 c
0 53 c 4 -4 3761 1853 l 4 4 c -4 4 c -4 -4 c 4 -11 3689 1902 l 8 -4 c 7 0 c 8 4 c 4 7 c 3 16 c 4 11 c 8 7 c 7 4 c 12 0 c 7 -4 c
4 -3 c 4 -12 c 0 -15 c -4 -11 c -4 -4 c -7 -4 c -12 0 c -7 4 c -8 8 c -4 11 c -3 15 c -4 8 c -8 3 c -7 0 c -8 -3 c -4 -12 c 0 -15 c
4 -12 3689 1978 l 8 -3 c 7 0 c 8 3 c 4 8 c 3 15 c 4 11 c 8 8 c 7 4 c 12 0 c 7 -4 c 4 -4 c 4 -11 c 0 -15 c -4 -12 c -4 -3 c -7 -4 c
-12 0 c -7 4 c -8 7 c -4 12 c -3 15 c -4 7 c -8 4 c -7 0 c -8 -4 c -4 -11 c 0 -15 c 0 42 3689 2042 l 31 -23 c 0 11 c 3 8 c 4 4 c
11 3 c 8 0 c 11 -3 c 8 -8 c 4 -11 c 0 -12 c -4 -11 c -4 -4 c -7 -3 c 0 -250 5158 6049 l 80 -37 5114 6173 l 0 52 5114 6121 l
4 -12 5114 6219 l 12 -7 c 19 -4 c 11 0 c 19 4 c 11 7 c 4 12 c 0 7 c -4 12 c -11 7 c -19 4 c -11 0 c -19 -4 c -12 -7 c -4 -12 c
0 -7 c -4 8 5130 6283 l -12 11 c 80 0 c 4 -11 5114 6366 l 8 -4 c 7 0 c 8 4 c 4 7 c 4 16 c 3 11 c 8 7 c 7 4 c 12 0 c 7 -4 c 4 -3 c
4 -12 c 0 -15 c -4 -11 c -4 -4 c -7 -4 c -12 0 c -7 4 c -8 8 c -3 11 c -4 15 c -4 8 c -8 3 c -7 0 c -8 -3 c -4 -12 c 0 -15 c
4 -3 5186 6430 l 4 3 c -4 4 c -4 -4 c 0 -38 5114 6506 l 35 -4 c -4 4 c -4 12 c 0 11 c 4 11 c 7 8 c 12 4 c 7 0 c 12 -4 c 7 -8 c
4 -11 c 0 -11 c -4 -12 c -4 -4 c -7 -3 c -8 -3 5126 6585 l -4 -12 c 0 -7 c 4 -12 c 12 -7 c 19 -4 c 18 0 c 16 4 c 7 7 c 4 12 c 0 3 c
-4 12 c -7 7 c -12 4 c -4 0 c -11 -4 c -7 -7 c -4 -12 c 0 -3 c 4 -12 c 7 -7 c 11 -4 c 4 -12 5114 6631 l 8 -3 c 7 0 c 8 3 c 4 8 c
4 15 c 3 11 c 8 8 c 7 4 c 12 0 c 7 -4 c 4 -4 c 4 -11 c 0 -15 c -4 -12 c -4 -3 c -7 -4 c -12 0 c -7 4 c -8 7 c -3 12 c -4 15 c -4 7 c
-8 4 c -7 0 c -8 -4 c -4 -11 c 0 -15 c 0 -250 5408 1325 l 80 -38 5364 1449 l 0 53 5364 1396 l 4 -12 5364 1495 l 12 -7 c 19 -4 c
11 0 c 19 4 c 11 7 c 4 12 c 0 7 c -4 12 c -11 7 c -19 4 c -11 0 c -19 -4 c -12 -7 c -4 -12 c 0 -7 c -3 0 5383 1551 l -8 4 c -4 4 c
-4 7 c 0 16 c 4 7 c 4 4 c 8 4 c 7 0 c 8 -4 c 11 -8 c 38 -37 c 0 52 c -4 8 5380 1634 l -12 11 c 80 0 c 4 -4 5436 1706 l 4 4 c -4 4 c
-4 -4 c -3 0 5383 1740 l -8 4 c -4 4 c -4 7 c 0 16 c 4 7 c 4 4 c 8 4 c 7 0 c 8 -4 c 11 -8 c 38 -38 c 0 53 c 4 -11 5364 1831 l 8 -4 c
7 0 c 8 4 c 4 7 c 4 15 c 3 12 c 8 7 c 7 4 c 12 0 c 7 -4 c 4 -4 c 4 -11 c 0 -15 c -4 -11 c -4 -4 c -7 -4 c -12 0 c -7 4 c -8 7 c
-3 12 c -4 15 c -4 7 c -8 4 c -7 0 c -8 -4 c -4 -11 c 0 -15 c 0 42 5364 1895 l 31 -23 c 0 11 c 4 8 c 3 4 c 12 4 c 7 0 c 12 -4 c
7 -8 c 4 -11 c 0 -11 c -4 -12 c -4 -4 c -7 -3 c 0 -250 5888 1301 l 80 -38 5844 1426 l 0 53 5844 1373 l 4 -11 5844 1471 l 11 -8 c
19 -4 c 12 0 c 19 4 c 11 8 c 4 11 c 0 7 c -4 12 c -11 7 c -19 4 c -12 0 c -19 -4 c -11 -7 c -4 -12 c 0 -7 c -4 0 5863 1528 l -7 3 c
-4 4 c -4 8 c 0 15 c 4 7 c 4 4 c 7 4 c 8 0 c 8 -4 c 11 -7 c 38 -38 c 0 53 c -8 -4 5856 1649 l -4 -12 c 0 -7 c 4 -11 c 11 -8 c
19 -4 c 19 0 c 15 4 c 8 8 c 4 11 c 0 4 c -4 11 c -8 8 c -11 3 c -4 0 c -11 -3 c -8 -8 c -3 -11 c 0 -4 c 3 -11 c 8 -8 c 11 -4 c
4 -4 5916 1683 l 4 4 c -4 3 c -4 -3 c 53 -38 5844 1751 l 0 56 c 80 0 5844 1751 l -8 -4 5856 1838 l -4 -12 c 0 -7 c 4 -11 c 11 -8 c
19 -4 c 19 0 c 15 4 c 8 8 c 4 11 c 0 4 c -4 11 c -8 8 c -11 3 c -4 0 c -11 -3 c -8 -8 c -3 -11 c 0 -4 c 3 -11 c 8 -8 c 11 -4 c
-4 0 5863 1868 l -7 4 c -4 3 c -4 8 c 0 15 c 4 8 c 4 3 c 7 4 c 8 0 c 8 -4 c 11 -7 c 38 -38 c 0 53 c 0 -249 6242 7019 l
79 -38 6198 7144 l 0 53 6198 7091 l 4 -11 6198 7189 l 11 -8 c 19 -3 c 11 0 c 19 3 c 12 8 c 3 11 c 0 8 c -3 11 c -12 8 c -19 3 c
-11 0 c -19 -3 c -11 -8 c -4 -11 c 0 -8 c 0 41 6198 7250 l 30 -22 c 0 11 c 4 7 c 4 4 c 11 4 c 8 0 c 11 -4 c 8 -7 c 3 -12 c 0 -11 c
-3 -11 c -4 -4 c -8 -4 c 4 -11 6198 7340 l 11 -8 c 19 -3 c 11 0 c 19 3 c 12 8 c 3 11 c 0 8 c -3 11 c -12 8 c -19 4 c -11 0 c
-19 -4 c -11 -8 c -4 -11 c 0 -8 c 4 -4 6270 7401 l 3 4 c -3 4 c -4 -4 c -4 0 6217 7435 l -7 4 c -4 3 c -4 8 c 0 15 c 4 8 c 4 3 c
7 4 c 8 0 c 7 -4 c 12 -7 c 37 -38 c 0 53 c 0 -38 6198 7552 l 34 -4 c -4 4 c -3 12 c 0 11 c 3 11 c 8 8 c 11 4 c 8 0 c 11 -4 c 8 -8 c
3 -11 c 0 -11 c -3 -12 c -4 -4 c -8 -3 c -4 7 6213 7594 l -11 11 c 79 0 c 0 -249 7715 3197 l 79 -38 7672 3322 l 0 53 7672 3269 l
3 -12 7672 3368 l 12 -7 c 19 -4 c 11 0 c 19 4 c 11 7 c 4 12 c 0 7 c -4 11 c -11 8 c -19 4 c -11 0 c -19 -4 c -12 -8 c -3 -11 c
0 -7 c 52 -38 7672 3458 l 0 57 c 79 0 7672 3458 l 0 -37 7672 3541 l 34 -4 c -4 4 c -4 11 c 0 11 c 4 12 c 7 7 c 12 4 c 7 0 c 12 -4 c
7 -7 c 4 -12 c 0 -11 c -4 -11 c -4 -4 c -7 -4 c 4 -4 7743 3579 l 4 4 c -4 4 c -4 -4 c 79 -37 7672 3662 l 0 53 7672 3609 l
11 -4 7698 3734 l 8 -7 c 4 -11 c 0 -4 c -4 -12 c -8 -7 c -11 -4 c -4 0 c -11 4 c -8 7 c -3 12 c 0 4 c 3 11 c 8 7 c 15 4 c 19 0 c
19 -4 c 11 -7 c 4 -11 c 0 -8 c -4 -11 c -7 -4 c 79 -38 7672 3814 l 0 53 7672 3761 l 0 -249 8472 2178 l 80 -38 8428 2303 l
0 53 8428 2250 l 4 -11 8428 2348 l 11 -8 c 19 -4 c 12 0 c 18 4 c 12 8 c 4 11 c 0 8 c -4 11 c -12 8 c -18 3 c -12 0 c -19 -3 c
-11 -8 c -4 -11 c 0 -8 c 0 -37 8428 2446 l 34 -4 c -4 4 c -3 11 c 0 11 c 3 12 c 8 7 c 11 4 c 8 0 c 11 -4 c 8 -7 c 4 -12 c 0 -11 c
-4 -11 c -4 -4 c -8 -4 c 0 42 8428 2484 l 30 -23 c 0 11 c 4 8 c 4 4 c 11 4 c 8 0 c 11 -4 c 8 -8 c 4 -11 c 0 -11 c -4 -12 c -4 -4 c
-8 -3 c 4 -4 8500 2560 l 4 4 c -4 4 c -4 -4 c -8 -4 8440 2639 l -4 -11 c 0 -7 c 4 -12 c 11 -7 c 19 -4 c 19 0 c 15 4 c 8 7 c 4 12 c
0 3 c -4 12 c -8 7 c -11 4 c -4 0 c -11 -4 c -8 -7 c -4 -12 c 0 -3 c 4 -12 c 8 -7 c 11 -4 c -4 0 8447 2669 l -7 4 c -4 4 c -4 8 c
0 15 c 4 7 c 4 4 c 7 4 c 8 0 c 7 -4 c 12 -8 c 38 -37 c 0 53 c 4 -11 8428 2764 l 11 -8 c 19 -4 c 12 0 c 18 4 c 12 8 c 4 11 c 0 7 c
-4 12 c -12 7 c -18 4 c -12 0 c -19 -4 c -11 -7 c -4 -12 c 0 -7 c 0 -250 8948 1353 l 80 -38 8904 1477 l 0 53 8904 1424 l
4 -12 8904 1523 l 11 -7 c 19 -4 c 12 0 c 18 4 c 12 7 c 4 12 c 0 7 c -4 11 c -12 8 c -18 4 c -12 0 c -19 -4 c -11 -8 c -4 -11 c
0 -7 c 0 -38 8904 1621 l 34 -4 c -4 4 c -3 11 c 0 12 c 3 11 c 8 8 c 11 3 c 8 0 c 11 -3 c 8 -8 c 4 -11 c 0 -12 c -4 -11 c -4 -4 c
-8 -3 c 4 -11 8904 1670 l 8 -4 c 7 0 c 8 4 c 3 7 c 4 15 c 4 12 c 8 7 c 7 4 c 11 0 c 8 -4 c 4 -4 c 4 -11 c 0 -15 c -4 -11 c -4 -4 c
-8 -4 c -11 0 c -7 4 c -8 7 c -4 12 c -4 15 c -3 7 c -8 4 c -7 0 c -8 -4 c -4 -11 c 0 -15 c 4 -4 8976 1734 l 4 4 c -4 4 c -4 -4 c
53 -38 8904 1802 l 0 57 c 80 0 8904 1802 l 4 -11 8904 1859 l 8 -4 c 7 0 c 8 4 c 3 7 c 4 15 c 4 12 c 8 7 c 7 4 c 11 0 c 8 -4 c 4 -4 c
4 -11 c 0 -15 c -4 -11 c -4 -4 c -8 -4 c -11 0 c -7 4 c -8 7 c -4 12 c -4 15 c -3 7 c -8 4 c -7 0 c -8 -4 c -4 -11 c 0 -15 c
11 -4 8931 1965 l 8 -8 c 3 -11 c 0 -4 c -3 -11 c -8 -8 c -11 -3 c -4 0 c -11 3 c -8 8 c -4 11 c 0 4 c 4 11 c 8 8 c 15 4 c 19 0 c
18 -4 c 12 -8 c 4 -11 c 0 -7 c -4 -12 c -8 -4 c 0 -249 9161 2055 l 80 -38 9117 2180 l 0 53 9117 2127 l 4 -11 9117 2225 l 12 -7 c
18 -4 c 12 0 c 19 4 c 11 7 c 4 11 c 0 8 c -4 11 c -11 8 c -19 4 c -12 0 c -18 -4 c -12 -8 c -4 -11 c 0 -8 c -8 -4 9129 2328 l
-4 -12 c 0 -7 c 4 -11 c 12 -8 c 18 -4 c 19 0 c 15 4 c 8 8 c 4 11 c 0 4 c -4 11 c -8 8 c -11 3 c -4 0 c -11 -3 c -8 -8 c -3 -11 c
0 -4 c 3 -11 c 8 -8 c 11 -4 c 4 -12 9117 2377 l 12 -7 c 18 -4 c 12 0 c 19 4 c 11 7 c 4 12 c 0 7 c -4 12 c -11 7 c -19 4 c -12 0 c
-18 -4 c -12 -7 c -4 -12 c 0 -7 c 4 -4 9189 2437 l 4 4 c -4 4 c -4 -4 c -8 -4 9129 2517 l -4 -12 c 0 -7 c 4 -11 c 12 -8 c 18 -4 c
19 0 c 15 4 c 8 8 c 4 11 c 0 4 c -4 11 c -8 8 c -11 3 c -4 0 c -11 -3 c -8 -8 c -3 -11 c 0 -4 c 3 -11 c 8 -8 c 11 -4 c
0 -37 9117 2588 l 34 -4 c -3 4 c -4 11 c 0 11 c 4 12 c 7 7 c 12 4 c 7 0 c 11 -4 c 8 -7 c 4 -12 c 0 -11 c -4 -11 c -4 -4 c -7 -4 c
53 -37 9117 2656 l 0 56 c 80 0 9117 2656 l 0 -249 9536 1447 l 80 -38 9492 1572 l 0 53 9492 1519 l 4 -11 9492 1617 l 11 -8 c 19 -3 c
12 0 c 19 3 c 11 8 c 4 11 c 0 8 c -4 11 c -11 8 c -19 3 c -12 0 c -19 -3 c -11 -8 c -4 -11 c 0 -8 c -8 -4 9504 1719 l -4 -11 c
0 -7 c 4 -12 c 11 -7 c 19 -4 c 19 0 c 15 4 c 8 7 c 4 12 c 0 3 c -4 12 c -8 7 c -11 4 c -4 0 c -11 -4 c -8 -7 c -3 -12 c 0 -3 c
3 -12 c 8 -7 c 11 -4 c 53 -38 9492 1784 l 0 56 c 80 0 9492 1784 l 4 -4 9564 1829 l 4 4 c -4 4 c -4 -4 c 53 -38 9492 1897 l 0 57 c
80 0 9492 1897 l 0 -38 9492 1980 l 34 -4 c -3 4 c -4 12 c 0 11 c 4 11 c 7 8 c 11 4 c 8 0 c 11 -4 c 8 -8 c 4 -11 c 0 -11 c -4 -12 c
-4 -4 c -7 -3 c -4 0 9511 2014 l -7 4 c -4 4 c -4 7 c 0 15 c 4 8 c 4 4 c 7 3 c 8 0 c 8 -3 c 11 -8 c 38 -38 c 0 53 c
showpage PGPLOT restore
 
%%Trailer
%%DocumentFonts: 
%%Pages: 1
%%EOF
