%!PS-Adobe-3.0 EPSF-3.0
%%For: tab
%%Title: PGPLOT PostScript plot
%%Creator: PGPLOT
%%CreationDate: 20-Apr-1995 16:41
%%BoundingBox: 25 18 587 774
%%DocumentFonts: (atend)
%%LanguageLevel: 1
%%Orientation: Landscape
%%Pages: (atend)
%%EndComments
%%BeginProlog
/l {moveto rlineto currentpoint stroke moveto} bind def
/c {rlineto currentpoint stroke moveto} bind def
/d {moveto 0 0 rlineto currentpoint stroke moveto} bind def
/SLW {5 mul setlinewidth} bind def
/SCF /pop load def
/BP {newpath moveto} bind def
/LP /rlineto load def
/EP {rlineto closepath eofill} bind def
/MB {gsave translate MFAC dup scale 1 setlinewidth 2 setlinecap 0 setlinejoin newpath} bind def
/ME /grestore load def
/C {0 360 arc stroke} bind def
/FC {0 360 arc fill} bind def
%%EndProlog
 
%%Page: 1 1
%%BeginPageSetup
/PGPLOT save def
0.072 0.072 scale
8150 250 translate 90 rotate
1 setlinejoin 1 setlinecap 1 SLW 1 SCF
%%EndPageSetup
0.000 setgray 1 SLW 8939 0 780 780 l 0 6239 c -8939 0 c 0 -6239 c 0 -45 1116 780 l 0 -45 1554 780 l 0 -45 1991 780 l
0 -45 2428 780 l 0 -90 2865 780 l 0 -45 3302 780 l 0 -45 3739 780 l 0 -45 4176 780 l 0 -45 4613 780 l 0 -90 5051 780 l
0 -45 5488 780 l 0 -45 5925 780 l 0 -45 6362 780 l 0 -45 6799 780 l 0 -90 7236 780 l 0 -45 7673 780 l 0 -45 8110 780 l
0 -45 8548 780 l 0 -45 8985 780 l 0 -90 9422 780 l 0 -45 1116 7064 l 0 -45 1554 7064 l 0 -45 1991 7064 l 0 -45 2428 7064 l
0 -90 2865 7109 l 0 -45 3302 7064 l 0 -45 3739 7064 l 0 -45 4176 7064 l 0 -45 4613 7064 l 0 -90 5051 7109 l 0 -45 5488 7064 l
0 -45 5925 7064 l 0 -45 6362 7064 l 0 -45 6799 7064 l 0 -90 7236 7109 l 0 -45 7673 7064 l 0 -45 8110 7064 l 0 -45 8548 7064 l
0 -45 8985 7064 l 0 -90 9422 7109 l -60 0 2775 672 l -6 -54 c 6 6 c 18 6 c 18 0 c 18 -6 c 12 -12 c 6 -18 c 0 -12 c -6 -18 c
-12 -12 c -18 -6 c -18 0 c -18 6 c -6 6 c -6 12 c -18 -6 2859 672 l -12 -18 c -6 -30 c 0 -18 c 6 -30 c 12 -18 c 18 -6 c 12 0 c
18 6 c 12 18 c 6 30 c 0 18 c -6 30 c -12 18 c -18 6 c -12 0 c -18 -6 2979 672 l -12 -18 c -6 -30 c 0 -18 c 6 -30 c 12 -18 c 18 -6 c
12 0 c 18 6 c 12 18 c 6 30 c 0 18 c -6 30 c -12 18 c -18 6 c -12 0 c 12 6 4847 648 l 18 18 c 0 -126 c -18 -6 4985 672 l -12 -18 c
-6 -30 c 0 -18 c 6 -30 c 12 -18 c 18 -6 c 12 0 c 18 6 c 12 18 c 6 30 c 0 18 c -6 30 c -12 18 c -18 6 c -12 0 c -18 -6 5105 672 l
-12 -18 c -6 -30 c 0 -18 c 6 -30 c 12 -18 c 18 -6 c 12 0 c 18 6 c 12 18 c 6 30 c 0 18 c -6 30 c -12 18 c -18 6 c -12 0 c
-18 -6 5225 672 l -12 -18 c -6 -30 c 0 -18 c 6 -30 c 12 -18 c 18 -6 c 12 0 c 18 6 c 12 18 c 6 30 c 0 18 c -6 30 c -12 18 c -18 6 c
-12 0 c 12 6 7032 648 l 18 18 c 0 -126 c -60 0 7206 672 l -6 -54 c 6 6 c 18 6 c 18 0 c 18 -6 c 12 -12 c 6 -18 c 0 -12 c -6 -18 c
-12 -12 c -18 -6 c -18 0 c -18 6 c -6 6 c -6 12 c -18 -6 7290 672 l -12 -18 c -6 -30 c 0 -18 c 6 -30 c 12 -18 c 18 -6 c 12 0 c
18 6 c 12 18 c 6 30 c 0 18 c -6 30 c -12 18 c -18 6 c -12 0 c -18 -6 7410 672 l -12 -18 c -6 -30 c 0 -18 c 6 -30 c 12 -18 c 18 -6 c
12 0 c 18 6 c 12 18 c 6 30 c 0 18 c -6 30 c -12 18 c -18 6 c -12 0 c 0 6 9206 642 l 6 12 c 6 6 c 12 6 c 24 0 c 12 -6 c 6 -6 c
6 -12 c 0 -12 c -6 -12 c -12 -18 c -60 -60 c 84 0 c -18 -6 9356 672 l -12 -18 c -6 -30 c 0 -18 c 6 -30 c 12 -18 c 18 -6 c 12 0 c
18 6 c 12 18 c 6 30 c 0 18 c -6 30 c -12 18 c -18 6 c -12 0 c -18 -6 9476 672 l -12 -18 c -6 -30 c 0 -18 c 6 -30 c 12 -18 c 18 -6 c
12 0 c 18 6 c 12 18 c 6 30 c 0 18 c -6 30 c -12 18 c -18 6 c -12 0 c -18 -6 9596 672 l -12 -18 c -6 -30 c 0 -18 c 6 -30 c 12 -18 c
18 -6 c 12 0 c 18 6 c 12 18 c 6 30 c 0 18 c -6 30 c -12 18 c -18 6 c -12 0 c -90 0 780 803 l -45 0 780 1059 l -45 0 780 1314 l
-45 0 780 1570 l -45 0 780 1825 l -90 0 780 2081 l -45 0 780 2336 l -45 0 780 2592 l -45 0 780 2847 l -45 0 780 3103 l
-90 0 780 3359 l -45 0 780 3614 l -45 0 780 3870 l -45 0 780 4125 l -45 0 780 4381 l -90 0 780 4636 l -45 0 780 4892 l
-45 0 780 5148 l -45 0 780 5403 l -45 0 780 5659 l -90 0 780 5914 l -45 0 780 6170 l -45 0 780 6425 l -45 0 780 6681 l
-45 0 780 6937 l -90 0 9809 803 l -45 0 9764 1059 l -45 0 9764 1314 l -45 0 9764 1570 l -45 0 9764 1825 l -90 0 9809 2081 l
-45 0 9764 2336 l -45 0 9764 2592 l -45 0 9764 2847 l -45 0 9764 3103 l -90 0 9809 3359 l -45 0 9764 3614 l -45 0 9764 3870 l
-45 0 9764 4125 l -45 0 9764 4381 l -90 0 9809 4636 l -45 0 9764 4892 l -45 0 9764 5148 l -45 0 9764 5403 l -45 0 9764 5659 l
-90 0 9809 5914 l -45 0 9764 6170 l -45 0 9764 6425 l -45 0 9764 6681 l -45 0 9764 6937 l 6 -18 517 797 l 18 -12 c 30 -6 c 18 0 c
30 6 c 18 12 c 6 18 c 0 12 c -6 18 c -18 12 c -30 6 c -18 0 c -30 -6 c -18 -12 c -6 -18 c 0 -12 c -6 12 541 1961 l -18 18 c 126 0 c
6 -18 517 2099 l 18 -12 c 30 -6 c 18 0 c 30 6 c 18 12 c 6 18 c 0 12 c -6 18 c -18 12 c -30 6 c -18 0 c -30 -6 c -18 -12 c -6 -18 c
0 -12 c 63 -45 453 2223 l 0 68 c 94 0 453 2223 l -6 0 547 3101 l -12 6 c -6 6 c -6 12 c 0 24 c 6 12 c 6 6 c 12 6 c 12 0 c 12 -6 c
18 -12 c 60 -60 c 0 84 c 84 84 547 3221 l 84 -84 547 3305 l -6 12 541 3365 l -18 18 c 126 0 c 6 -18 517 3503 l 18 -12 c 30 -6 c
18 0 c 30 6 c 18 12 c 6 18 c 0 12 c -6 18 c -18 12 c -30 6 c -18 0 c -30 -6 c -18 -12 c -6 -18 c 0 -12 c 63 -45 453 3627 l 0 68 c
94 0 453 3627 l 0 66 517 4384 l 48 -36 c 0 18 c 6 12 c 6 6 c 18 6 c 12 0 c 18 -6 c 12 -12 c 6 -18 c 0 -18 c -6 -18 c -6 -6 c
-12 -6 c 84 84 547 4498 l 84 -84 547 4582 l -6 12 541 4642 l -18 18 c 126 0 c 6 -18 517 4780 l 18 -12 c 30 -6 c 18 0 c 30 6 c
18 12 c 6 18 c 0 12 c -6 18 c -18 12 c -30 6 c -18 0 c -30 -6 c -18 -12 c -6 -18 c 0 -12 c 63 -45 453 4905 l 0 67 c 94 0 453 4905 l
84 -60 517 5710 l 0 90 c 126 0 517 5710 l 84 84 547 5776 l 84 -84 547 5860 l -6 12 541 5920 l -18 18 c 126 0 c 6 -18 517 6058 l
18 -12 c 30 -6 c 18 0 c 30 6 c 18 12 c 6 18 c 0 12 c -6 18 c -18 12 c -30 6 c -18 0 c -30 -6 c -18 -12 c -6 -18 c 0 -12 c
63 -45 453 6183 l 0 67 c 94 0 453 6183 l
4 3 780 822 l 5 3 c 4 3 c 4 3 c 5 24 c 4 122 c 4 538 c 5 656 c 4 21 c 5 -617 c 4 -605 c 4 -140 c 5 -7 c 4 -3 c 4 0 c 5 -1 c 4 -1 c
5 0 c 4 -1 c 4 1 c 5 1 c 4 2 c 4 -1 c 5 -1 c 4 -2 c 5 0 c 4 0 c 4 0 c 5 1 c 4 -1 c 4 -1 c 5 0 c 4 0 c 5 1 c 4 1 c 4 2 c 5 0 c 4 -1 c
4 -2 c 5 0 c 4 0 c 4 -1 c 5 1 c 4 0 c 5 1 c 4 -1 c 4 0 c 5 0 c 4 -1 c 4 1 c 5 0 c 4 -1 c 5 1 c 4 -1 c 4 1 c 5 0 c 4 0 c 4 0 c 5 -1 c
4 1 c 5 0 c 4 -1 c 4 1 c 5 0 c 4 0 c 4 -1 c 5 1 c 4 0 c 5 0 c 4 0 c 4 0 c 5 0 c 4 0 c 4 0 c 5 0 c 4 0 c 4 0 c 5 0 c 4 0 c 5 0 c
4 1 c 4 1 c 5 2 c 4 -21 c 4 0 c 5 17 c 4 0 c 5 0 c 4 0 c 4 0 c 5 0 c 4 1 c 4 0 c 5 -1 c 4 1 c 5 0 c 4 1 c 4 2 c 5 1 c 4 -2 c 4 -2 c
5 0 c 4 -1 c 5 0 c 4 0 c 4 0 c 5 0 c 4 0 c 4 0 c 5 0 c 4 1 c 4 1 c 5 0 c 4 0 c 5 0 c 4 0 c 4 0 c 5 2 c 4 1 c 4 1 c 5 -2 c 4 -1 c
5 0 c 4 2 c 4 2 c 5 0 c 4 -2 c 4 -1 c 5 0 c 4 0 c 5 0 c 4 0 c 4 0 c 5 0 c 4 0 c 4 0 c 5 1 c 4 0 c 5 0 c 4 0 c 4 0 c 5 0 c 4 1 c
4 0 c 5 0 c 4 0 c 4 1 c 5 0 c 4 3 c 5 17 c 4 80 c 4 391 c 5 377 c 3 5324 c 4 -5932 1467 7019 l 4 -245 c 4 -9 c 5 0 c 4 -1 c 4 0 c
5 -1 c 4 0 c 5 6 c 4 25 c 4 15 c 5 -6 c 4 -27 c 4 -12 c 5 -2 c 4 0 c 4 1 c 5 1 c 4 2 c 5 8 c 4 14 c 4 3 c 5 -10 c 4 -13 c 4 -5 c
5 -2 c 4 0 c 5 0 c 4 1 c 4 -1 c 5 0 c 4 0 c 4 1 c 5 -1 c 4 0 c 5 1 c 4 4 c 4 6 c 5 2 c 4 -5 c 4 -7 c 5 -2 c 4 1 c 5 1 c 4 0 c 4 0 c
5 4 c 4 12 c 4 39 c 5 61 c 4 35 c 4 -25 c 5 -65 c 4 -43 c 5 -14 c 4 -3 c 4 -1 c 5 -2 c 4 0 c 4 0 c 5 0 c 4 0 c 5 0 c 4 0 c 4 0 c
5 0 c 4 0 c 4 0 c 5 0 c 4 0 c 5 0 c 4 0 c 4 -1 c 5 1 c 4 -1 c 4 0 c 5 0 c 4 1 c 5 0 c 4 0 c 4 0 c 5 1 c 4 0 c 4 2 c 5 17 c 4 63 c
4 25 c 5 -24 c 4 -62 c 5 -19 c 4 -2 c 4 -1 c 5 0 c 4 1 c 4 0 c 5 0 c 4 0 c 5 -1 c 4 0 c 4 1 c 5 0 c 4 1 c 4 0 c 5 3 c 4 14 c 5 12 c
4 0 c 4 -15 c 5 -10 c 4 -2 c 4 1 c 5 1 c 4 8 c 5 62 c 4 194 c 4 94 c 5 -74 c 4 -202 c 4 -75 c 5 -5 c 4 0 c 4 1 c 5 3 c 4 9 c 5 60 c
4 400 c 4 451 c 5 15 c 4 -503 c 4 -363 c 5 -67 c 4 -3 c 5 -1 c 4 -1 c 4 0 c 5 -1 c 4 0 c 4 1 c 5 8 c 4 41 c 5 31 c 4 -3 c 4 -48 c
5 -26 c 4 -3 c 4 0 c 5 -1 c 4 1 c 5 0 c 4 0 c 4 1 c 5 0 c 4 2 c 4 3 c 5 3 c 4 2 c 4 -2 c 5 -3 c 4 -1 c 5 0 c 4 0 c 4 -1 c 5 0 c
4 0 c 4 1 c 5 0 c 4 0 c 5 0 c 4 1 c 4 1 c 5 0 c 4 1 c 4 -1 c 5 1 c 4 1 c 5 2 c 4 1 c 4 1 c 5 1 c 4 0 c 4 2 c 5 1 c 4 0 c 4 0 c 5 1 c
4 5 c 4 6159 c 3 -5876 2298 7019 l 4 -260 c 5 -11 c 4 1 c 5 1 c 4 13 c 4 82 c 5 133 c 4 30 c 4 -91 c 5 -124 c 4 -28 c 5 2 c 4 2 c
4 4 c 5 6 c 4 7 c 4 6 c 5 2 c 4 -1 c 5 4 c 4 4 c 4 6 c 5 5 c 4 10 c 4 0 c 5 0 c 4 9 c 4 12 c 5 6 c 4 5 c 5 9 c 4 6 c 4 7 c 5 13 c
4 10 c 4 3 c 5 8 c 4 16 c 5 27 c 4 27 c 4 36 c 5 28 c 4 21 c 4 1 c 5 12 c 4 47 c 5 78 c 4 60 c 4 45 c 5 72 c 4 116 c 4 194 c 5 146 c
4 258 c 5 1706 c 2 3095 c 2 -1634 2583 7019 l 5 -3259 c 4 -188 c 4 -169 c 5 -141 c 4 -92 c 4 -48 c 5 -47 c 4 -32 c 5 -65 c 4 -45 c
4 -51 c 5 -24 c 4 -17 c 4 -18 c 5 -18 c 4 -23 c 5 -22 c 4 -9 c 4 17 c 5 70 c 4 399 c 4 2213 c 5 2174 c 4 97 c 5 -2522 c 4 -2122 c
4 -352 c 5 -50 c 4 -22 c 4 -12 c 5 -17 c 4 -10 c 4 -10 c 5 -7 c 4 -6 c 5 0 c 4 -3 c 4 -7 c 5 -10 c 4 -7 c 4 -4 c 5 -2 c 4 -6 c
5 -3 c 4 -6 c 4 -3 c 5 -2 c 4 -3 c 4 -1 c 5 -3 c 4 -2 c 5 -3 c 4 -2 c 4 -2 c 5 -3 c 4 -4 c 4 -1 c 5 -1 c 4 -1 c 5 -4 c 4 0 c 4 -1 c
5 3 c 4 4 c 4 3 c 5 10 c 4 31 c 4 12 c 5 -17 c 4 -40 c 5 -14 c 4 -1 c 4 0 c 5 12 c 4 10 c 4 -4 c 5 -14 c 4 -8 c 5 -1 c 4 1 c 4 -3 c
5 -1 c 4 0 c 4 -2 c 5 -2 c 4 -1 c 5 2 c 4 -1 c 4 2 c 5 10 c 4 79 c 4 106 c 5 10 c 4 -87 c 4 -110 c 5 -14 c 4 -1 c 5 0 c 4 0 c 4 -2 c
5 2 c 4 0 c 4 -1 c 5 0 c 4 0 c 5 0 c 4 -1 c 4 0 c 5 -1 c 4 1 c 4 -1 c 5 1 c 4 -2 c 5 1 c 4 1 c 4 0 c 5 1 c 4 -2 c 4 -1 c 5 0 c
4 -1 c 5 0 c 4 1 c 4 0 c 5 1 c 4 3 c 4 10 c 5 3 c 4 -4 c 4 -11 c 5 -4 c 4 0 c 5 1 c 4 1 c 4 -1 c 5 -1 c 4 -1 c 4 0 c 5 1 c 4 10 c
5 35 c 4 20 c 4 -8 c 5 -38 c 4 -9 c 4 63 c 5 444 c 4 465 c 5 10 c 4 -510 c 4 -424 c 5 -54 c 4 -3 c 4 -1 c 5 0 c 4 0 c 5 -1 c 4 0 c
4 -1 c 5 0 c 4 0 c 4 -1 c 5 1 c 4 -1 c 4 0 c 5 0 c 4 0 c 5 0 c 4 -1 c 4 0 c 5 0 c 4 1 c 4 1 c 5 1 c 4 -2 c 5 -1 c 4 0 c 4 0 c 5 3 c
4 3 c 4 -1 c 5 -2 c 4 -3 c 5 -1 c 4 2 c 4 8 c 5 7 c 4 0 c 4 -8 c 5 -8 c 4 -2 c 5 0 c 4 1 c 4 0 c 5 0 c 4 -1 c 4 0 c 5 0 c 4 1 c
4 -1 c 5 -1 c 4 1 c 5 1 c 4 1 c 4 0 c 5 -2 c 4 0 c 4 0 c 5 0 c 4 0 c 5 0 c 4 0 c 4 0 c 5 0 c 4 0 c 4 0 c 5 -1 c 4 1 c 5 0 c 4 0 c
4 -1 c 5 1 c 4 -1 c 4 1 c 5 0 c 4 0 c 4 -2 c 5 1 c 4 0 c 5 -1 c 4 1 c 4 -1 c 5 0 c 4 0 c 4 1 c 5 -1 c 4 1 c 5 0 c 4 0 c 4 0 c 5 0 c
4 0 c 4 1 c 5 0 c 4 0 c 5 -1 c 4 0 c 4 0 c 5 0 c 4 0 c 4 0 c 5 0 c 4 -1 c 5 1 c 4 0 c 4 0 c 5 0 c 4 0 c 4 1 c 5 -1 c 4 0 c 4 0 c
5 1 c 4 5 c 5 11 c 4 0 c 4 -7 c 5 -9 c 4 -1 c 4 1 c 5 2 c 4 4 c 5 -1 c 4 -3 c 4 -2 c 5 -1 c 4 1 c 4 0 c 5 0 c 4 0 c 5 0 c 4 0 c
4 -1 c 5 0 c 4 0 c 4 1 c 5 -1 c 4 0 c 5 0 c 4 0 c 4 0 c 5 1 c 4 -1 c 4 0 c 5 1 c 4 0 c 4 -1 c 5 1 c 4 0 c 5 0 c 4 1 c 4 0 c 5 0 c
4 1 c 4 0 c 5 0 c 4 0 c 5 0 c 4 1 c 4 1 c 5 1 c 4 3 c 4 7 c 5 19 c 4 214 c 5 1637 c 4 1218 c 4 -106 c 5 -1824 c 4 -1080 c 4 -77 c
5 -7 c 4 -2 c 5 -1 c 4 -2 c 4 0 c 5 -1 c 4 0 c 4 0 c 5 -1 c 4 1 c 4 3 c 5 1 c 4 -2 c 5 -2 c 4 -2 c 4 0 c 5 -1 c 4 0 c 4 0 c 5 0 c
4 0 c 5 0 c 4 0 c 4 0 c 5 0 c 4 -1 c 4 1 c 5 0 c 4 1 c 5 1 c 4 -1 c 4 -1 c 5 -1 c 4 0 c 4 0 c 5 1 c 4 0 c 5 0 c 4 1 c 4 0 c 5 0 c
4 5 c 4 44 c 5 173 c 4 116 c 4 -32 c 5 -195 c 4 -101 c 5 -9 c 4 -1 c 4 -1 c 5 0 c 4 -2 c 4 1 c 5 0 c 4 0 c 5 -1 c 4 0 c 4 1 c 5 1 c
4 0 c 4 0 c 5 0 c 4 -1 c 5 -3 c 4 0 c 4 -1 c 5 1 c 4 0 c 4 1 c 5 0 c 4 -1 c 4 0 c 5 0 c 4 1 c 5 1 c 4 -1 c 4 0 c 5 -2 c 4 1314 c
3 4875 c 3 -6148 4370 7019 l 4 -23 c 5 0 c 4 0 c 5 1 c 4 16 c 4 234 c 5 886 c 4 378 c 4 -261 c 5 -941 c 4 -293 c 5 -25 c 4 2 c
4 22 c 5 9 c 4 -5 c 4 -22 c 5 -12 c 4 -1 c 4 0 c 5 0 c 4 -2 c 5 1 c 4 0 c 4 0 c 5 -1 c 4 0 c 4 0 c 5 -1 c 4 2 c 5 4 c 4 0 c 4 -2 c
5 -3 c 4 -2 c 4 0 c 5 -1 c 4 1 c 5 0 c 4 -1 c 4 0 c 5 0 c 4 0 c 4 -1 c 5 1 c 4 -1 c 5 0 c 4 0 c 4 1 c 5 -1 c 4 0 c 4 1 c 5 -1 c
4 1 c 4 -1 c 5 0 c 4 0 c 5 -1 c 4 1 c 4 -1 c 5 1 c 4 0 c 4 0 c 5 0 c 4 0 c 5 1 c 4 0 c 4 -1 c 5 -1 c 4 1 c 4 0 c 5 0 c 4 -1 c 5 0 c
4 0 c 4 -1 c 5 1 c 4 0 c 4 0 c 5 0 c 4 0 c 5 0 c 4 0 c 4 0 c 5 -1 c 4 0 c 4 0 c 5 0 c 4 1 c 4 1 c 5 -1 c 4 0 c 5 0 c 4 0 c 4 1 c
5 0 c 4 -1 c 4 -1 c 5 0 c 4 0 c 5 0 c 4 0 c 4 1 c 5 -1 c 4 0 c 4 0 c 5 0 c 4 0 c 5 0 c 4 0 c 4 0 c 5 -1 c 4 1 c 4 -1 c 5 1 c 4 0 c
5 0 c 4 0 c 4 -1 c 5 1 c 4 -1 c 4 0 c 5 0 c 4 0 c 4 1 c 5 -1 c 4 0 c 5 0 c 4 1 c 4 0 c 5 0 c 4 -1 c 4 0 c 5 0 c 4 0 c 5 0 c 4 0 c
4 0 c 5 0 c 4 0 c 4 1 c 5 0 c 4 0 c 5 0 c 4 0 c 4 0 c 5 0 c 4 1 c 4 -1 c 5 0 c 4 0 c 4 0 c 5 0 c 4 0 c 5 0 c 4 1 c 4 1 c 5 0 c 4 1 c
4 -2 c 5 1 c 4 -2 c 5 0 c 4 0 c 4 -1 c 5 1 c 4 0 c 4 2 c 5 2 c 4 1 c 5 -2 c 4 -2 c 4 0 c 5 0 c 4 0 c 4 1 c 5 -1 c 4 -1 c 5 0 c 4 0 c
4 -1 c 5 1 c 4 0 c 4 0 c 5 0 c 4 0 c 4 0 c 5 1 c 4 0 c 5 0 c 4 0 c 4 -1 c 5 1 c 4 0 c 4 0 c 5 1 c 4 0 c 5 0 c 4 0 c 4 -1 c 5 0 c
4 0 c 4 0 c 5 0 c 4 1 c 5 -1 c 4 0 c 4 0 c 5 0 c 4 0 c 4 0 c 5 1 c 4 1 c 5 1 c 4 0 c 4 -1 c 5 1 c 4 -1 c 4 1 c 5 -1 c 4 0 c 4 3 c
5 13 c 4 129 c 5 208 c 4 44 c 4 -117 c 5 -234 c 4 -43 c 4 -1 c 5 1 c 4 0 c 5 -1 c 4 -1 c 4 1 c 5 1 c 4 6 c 4 8 c 5 3 c 4 -6 c 5 -9 c
4 -4 c 4 1 c 5 0 c 4 -1 c 4 1 c 5 2 c 4 1 c 5 -1 c 4 -3 c 4 0 c 5 0 c 4 1 c 4 -2 c 5 -1 c 4 2 c 4 1 c 5 -1 c 4 1 c 5 -1 c 4 0 c
4 -1 c 5 1 c 4 0 c 4 6 c 5 6 c 4 -1 c 5 -5 c 4 -1 c 4 4 c 5 0 c 4 -2 c 4 -3 c 5 1 c 4 1 c 5 4 c 4 1 c 4 -3 c 5 -3 c 4 -3 c 4 -1 c
5 0 c 4 0 c 4 0 c 5 2 c 4 -1 c 5 1 c 4 -2 c 4 1 c 5 1 c 4 -2 c 4 0 c 5 0 c 4 1 c 5 0 c 4 0 c 4 -1 c 5 0 c 4 1 c 4 1 c 5 -2 c 4 2 c
5 0 c 4 -32 c 3 6216 c 3 -6110 5738 7019 l 5 -56 c 4 -3 c 4 -1 c 5 -3 c 4 -1 c 4 1 c 5 0 c 4 -2 c 5 -2 c 4 1 c 4 0 c 5 1 c 4 2 c
4 1 c 5 -2 c 4 -3 c 5 2 c 4 1 c 4 0 c 5 -3 c 4 -3 c 4 0 c 5 0 c 4 0 c 5 1 c 4 0 c 4 0 c 5 -2 c 4 0 c 4 2 c 5 -3 c 4 2 c 5 0 c 4 0 c
4 1 c 5 2 c 4 6 c 4 3 c 5 -2 c 4 -5 c 4 -2 c 5 0 c 4 0 c 5 2 c 4 4 c 4 9 c 5 57 c 4 447 c 4 1109 c 5 394 c 4 -423 c 5 -1160 c
4 -378 c 4 -51 c 5 -6 c 4 -4 c 4 -2 c 5 -2 c 4 -2 c 5 -2 c 4 1 c 4 -1 c 5 0 c 4 -1 c 4 0 c 5 -2 c 4 1 c 5 -1 c 4 1 c 4 2 c 5 0 c
4 0 c 4 -1 c 5 0 c 4 -1 c 4 0 c 5 0 c 4 0 c 5 1 c 4 3 c 4 3 c 5 17 c 4 26 c 4 0 c 5 -14 c 4 -13 c 5 1 c 4 -5 c 4 -11 c 5 -1 c 4 1 c
4 -3 c 5 -4 c 4 0 c 5 20 c 4 89 c 4 39 c 5 -16 c 4 -95 c 4 -36 c 5 -3 c 4 -1 c 5 1 c 4 0 c 4 0 c 5 0 c 4 -1 c 4 -1 c 5 0 c 4 1 c
4 0 c 5 0 c 4 0 c 5 -1 c 4 1 c 4 0 c 5 1 c 4 0 c 4 0 c 5 3 c 4 0 c 5 -1 c 4 -1 c 4 -1 c 5 -1 c 4 0 c 4 4 c 5 3 c 4 -1 c 5 -3 c
4 -4 c 4 0 c 5 0 c 4 0 c 4 0 c 5 1 c 4 0 c 4 0 c 5 -1 c 4 0 c 5 -1 c 4 1 c 4 0 c 5 0 c 4 -1 c 4 1 c 5 0 c 4 0 c 5 -1 c 4 1 c 4 -1 c
5 0 c 4 1 c 4 0 c 5 0 c 4 10 c 5 38 c 4 14 c 4 -8 c 5 -39 c 4 -13 c 4 -1 c 5 0 c 4 -1 c 5 0 c 4 -1 c 4 0 c 5 1 c 4 0 c 4 0 c 5 1 c
4 -1 c 4 0 c 5 1 c 4 3 c 5 1 c 4 8 c 4 60 c 5 51 c 4 2 c 4 -61 c 5 -59 c 4 -4 c 5 0 c 4 6 c 4 59 c 5 77 c 4 5 c 4 -61 c 5 -76 c
4 -8 c 5 -3 c 4 -1 c 4 0 c 5 0 c 4 2 c 4 -28 c 5 27 c 4 0 c 5 -1 c 4 0 c 4 1 c 5 0 c 4 0 c 4 1 c 5 0 c 4 3 c 4 2 c 5 -1 c 4 -3 c
5 -2 c 4 0 c 4 -1 c 5 1 c 4 -1 c 4 2 c 5 0 c 4 1 c 5 0 c 4 0 c 4 0 c 5 0 c 4 -1 c 4 0 c 5 -1 c 4 0 c 5 -1 c 4 1 c 4 0 c 5 2 c 4 1 c
4 -1 c 5 -2 c 4 0 c 5 0 c 4 0 c 4 0 c 5 1 c 4 3 c 4 0 c 5 -2 c 4 -2 c 4 0 c 5 -1 c 4 1 c 5 1 c 4 -1 c 4 0 c 5 0 c 4 0 c 4 0 c 5 1 c
4 0 c 5 -1 c 4 0 c 4 0 c 5 0 c 4 1 c 4 0 c 5 0 c 4 -1 c 5 0 c 4 0 c 4 1 c 5 0 c 4 -1 c 4 -1 c 5 0 c 4 0 c 5 0 c 4 0 c 4 0 c 5 0 c
4 0 c 4 0 c 5 0 c 4 1 c 4 1 c 5 0 c 4 -1 c 5 0 c 4 1 c 4 0 c 5 0 c 4 1 c 4 -1 c 5 0 c 4 0 c 5 0 c 4 0 c 4 1 c 5 1 c 4 0 c 4 -1 c
5 0 c 4 0 c 5 1 c 4 1 c 4 1 c 5 0 c 4 0 c 4 -2 c 5 -1 c 4 1 c 4 0 c 5 1 c 4 0 c 5 0 c 4 -1 c 4 0 c 5 0 c 4 0 c 4 -1 c 5 1 c 4 0 c
5 2 c 4 -1 c 4 2 c 5 -2 c 4 -1 c 4 0 c 5 1 c 4 0 c 5 0 c 4 0 c 4 -1 c 5 0 c 4 0 c 4 1 c 5 0 c 4 0 c 5 1 c 4 9 c 4 29 c 5 16 c 4 -5 c
4 -28 c 5 -9 c 4 4 c 4 40 c 5 32 c 4 -2 c 5 -42 c 4 -40 c 4 -3 c 5 -1 c 4 -1 c 4 -1 c 5 0 c 4 1 c 5 0 c 4 0 c 4 1 c 5 -1 c 4 0 c
4 0 c 5 1 c 4 0 c 5 0 c 4 0 c 4 -1 c 5 0 c 4 0 c 4 0 c 5 1 c 4 0 c 5 0 c 4 -1 c 4 1 c 5 0 c 4 1 c 4 1 c 5 0 c 4 0 c 4 0 c 5 1 c
4 0 c 5 1 c 4 0 c 4 0 c 5 0 c 4 0 c 4 2 c 5 2 c 4 9 c 5 8 c 4 5 c 4 2 c 5 23 c 4 375 c 4 2416 c 5 1580 c 4 -42 c 5 -2346 c 4 -1849 c
4 -154 c 5 -16 c 4 -5 c 4 -2 c 5 -3 c 4 0 c 5 -2 c 4 0 c 4 0 c 5 0 c 4 3 c 4 4 c 5 1 c 4 -2 c 4 4 c 5 21 c 4 5 c 5 -4 c 4 -11 c
4 40 c 5 399 c 4 967 c 4 347 c 5 -337 c 4 -1020 c 5 -353 c 4 -47 c 4 -8 c 5 -5 c 4 -3 c 4 -2 c 5 2 c 4 -1 c 5 0 c 4 -3 c 4 -2 c
5 -1 c 4 0 c 4 0 c 5 0 c 4 1 c 5 7 c 4 4 c 4 -1 c 5 -7 c 4 -4 c 4 0 c 5 0 c 4 -1 c 4 1 c 5 0 c 4 0 c 5 -1 c 4 1 c 4 2 c 4 6181 c
4 -6006 7722 7019 l 4 -168 c 5 -2 c 4 -2 c 4 0 c 5 0 c 4 -2 c 4 -2 c 5 0 c 4 -1 c 5 1 c 4 -1 c 4 -1 c 5 0 c 4 0 c 4 0 c 5 1 c 4 2 c
4 0 c 5 -2 c 4 -1 c 5 0 c 4 0 c 4 0 c 5 0 c 4 0 c 4 0 c 5 -1 c 4 0 c 5 1 c 4 -1 c 4 1 c 5 -1 c 4 0 c 4 2 c 5 1 c 4 -1 c 5 0 c 4 0 c
4 0 c 5 -2 c 4 1 c 4 2 c 5 1 c 4 -1 c 5 1 c 4 0 c 4 0 c 5 0 c 4 -3 c 4 0 c 5 22 c 4 62 c 4 20 c 5 -4 c 4 -60 c 5 -23 c 4 -13 c
4 -6 c 5 0 c 4 0 c 4 1 c 5 24 c 4 75 c 5 19 c 4 -18 c 4 -72 c 5 -28 c 4 0 c 4 -2 c 5 0 c 4 0 c 5 1 c 4 1 c 4 2 c 5 31 c 4 127 c
4 76 c 5 -15 c 4 -113 c 5 -102 c 4 -6 c 4 -1 c 5 1 c 4 1 c 4 -1 c 5 -1 c 4 -1 c 4 -1 c 5 1 c 4 0 c 5 0 c 4 -1 c 4 1 c 5 -1 c 4 0 c
4 0 c 5 -1 c 4 3 c 5 11 c 4 14 c 4 40 c 5 47 c 4 -1 c 4 -32 c 5 -69 c 4 -11 c 5 -1 c 4 0 c 4 0 c 5 0 c 4 0 c 4 0 c 5 4 c 4 4 c
5 -1 c 4 -3 c 4 -4 c 5 -1 c 4 1 c 4 -1 c 5 1 c 4 -1 c 4 0 c 5 0 c 4 -1 c 5 0 c 4 0 c 4 0 c 5 1 c 4 0 c 4 0 c 5 -1 c 4 1 c 5 -1 c
4 1 c 4 -1 c 5 0 c 4 0 c 4 0 c 5 3 c 4 1 c 5 0 c 4 -2 c 4 -2 c 5 -1 c 4 0 c 4 1 c 5 0 c 4 1 c 4 -1 c 5 -1 c 4 1 c 5 0 c 4 0 c 4 0 c
5 0 c 4 1 c 4 -1 c 5 0 c 4 0 c 5 0 c 4 1 c 4 0 c 5 0 c 4 -2 c 4 0 c 5 1 c 4 1 c 5 0 c 4 0 c 4 -2 c 5 0 c 4 0 c 4 1 c 5 0 c 4 0 c
5 -1 c 4 1 c 4 0 c 5 0 c 4 -1 c 4 1 c 5 0 c 4 0 c 4 0 c 5 0 c 4 0 c 5 0 c 4 0 c 4 0 c 5 0 c 4 1 c 4 0 c 5 0 c 4 0 c 5 0 c 4 0 c
4 0 c 5 -1 c 4 0 c 4 1 c 5 0 c 4 1 c 5 1 c 4 0 c 4 -1 c 5 0 c 4 -1 c 4 -1 c 5 1 c 4 0 c 5 -1 c 4 1 c 4 0 c 5 0 c 4 1 c 4 0 c 5 0 c
4 -2 c 4 0 c 5 0 c 4 0 c 5 1 c 4 -1 c 4 1 c 5 1 c 4 0 c 4 -1 c 5 0 c 4 -1 c 5 0 c 4 1 c 4 0 c 5 -1 c 4 -1 c 4 1 c 5 -1 c 4 1 c 5 0 c
4 0 c 4 5 c 5 5 c 4 0 c 4 -3 c 5 -5 c 4 -1 c 5 -1 c 4 0 c 4 0 c 5 2 c 4 12 c 4 17 c 5 1 c 4 -10 c 4 -18 c 5 -3 c 4 0 c 5 0 c 4 0 c
4 -1 c 5 1 c 4 2 c 4 20 c 5 72 c 4 35 c 5 -10 c 4 -69 c 4 -48 c 5 -2 c 4 -1 c 4 0 c 5 0 c 4 1 c 5 -1 c 4 0 c 4 0 c 5 0 c 4 0 c 4 0 c
5 1 c 4 0 c 5 1 c 4 0 c 4 1 c 5 0 c 4 0 c 4 -1 c 5 -2 c 4 0 c 4 0 c 5 0 c 4 1 c 5 0 c 4 0 c 4 0 c 5 -1 c 4 1 c 4 -1 c 5 0 c 4 2 c
5 3 c 4 42 c 4 125 c 5 43 c 4 -25 c 4 -119 c 5 -65 c 4 -4 c 5 0 c 4 -2 c 4 0 c 5 0 c 4 0 c 4 0 c 5 0 c 4 0 c 4 0 c 5 0 c 4 0 c 5 0 c
4 0 c 4 0 c 5 0 c 4 0 c 4 0 c 5 0 c 4 0 c 5 0 c 4 1 c 4 0 c 5 -1 c 4 1 c 4 0 c 5 0 c 4 1 c 5 1 c 4 0 c 4 0 c 5 2 c 4 5 c 4 4 c 5 0 c
4 -4 c 5 -4 c 4 -1 c 4 -1 c 5 2 c 4 2 c 4 0 c 5 -1 c 4 0 c 4 1 c 5 0 c 4 2 c 5 0 c 4 0 c 4 1 c 5 0 c 4 1 c 4 1 c 5 1 c 4 1 c 5 0 c
4 1 c 4 1 c 5 4 c 4 4 c 4 1 c 5 1 c 4 0 c 5 0 c 4 2 c 4 1 c 5 4 c 4 18 c 4 24 c 5 4 c 4 -13 c 5 -21 c 4 -2 c 4 2 c 5 4 c 4 3 c 4 4 c
5 1 c 4 6 c 4 8 c 5 12 c 4 9 c 5 2 c 4 1 c 4 12 c 5 21 c 4 12 c 4 11 c 5 21 c 4 51 c 5 123 c 4 390 c 3 5453 c 3 -5537 9502 7019 l
4 -340 c 5 -79 c 4 -49 c 4 -32 c
5 -17 c 4 -18 c 5 -10 c 4 -9 c 4 -125 c 5 0 c 4 109 c 4 -6 c 5 -9 c 4 -3 c 4 0 c 5 44 c 4 337 c 5 802 c 4 349 c 4 -186 c 5 -805 c
4 -477 c 4 -65 c 5 2 c 4 21 c 5 147 c 4 245 c 4 41 c 5 -121 c 4 -268 c 4 -97 c 5 -7 c 4 -4 c 5 0 c 4 1 c 4 2 c 5 1 c 4 -3 c 4 -4 c
5 -4 c 4 0 c 5 0 c 4 2 c 4 -3 c 5 -3 c 4 -2 c 4 -1 c 5 0 c 4 -1 c
0 -126 3303 418 l 54 0 3303 418 l 18 -6 c 6 -6 c 6 -12 c 0 -12 c -6 -12 c -6 -6 c -18 -6 c -54 0 c 42 -66 3345 358 l
-12 -6 3453 376 l -12 -12 c -6 -18 c 0 -12 c 6 -18 c 12 -12 c 12 -6 c 18 0 c 12 6 c 12 12 c 6 18 c 0 12 c -6 18 c -12 12 c -12 6 c
-18 0 c 24 -84 3537 376 l -24 -84 3585 376 l 24 -84 3585 376 l -24 -84 3633 376 l 108 0 3675 364 l 108 0 3675 328 l 12 6 3939 394 l
18 18 c 0 -126 c -60 0 4113 418 l -6 -54 c 6 6 c 18 6 c 18 0 c 18 -6 c 12 -12 c 6 -18 c 0 -12 c -6 -18 c -12 -12 c -18 -6 c -18 0 c
-18 6 c -6 6 c -6 12 c -12 -6 4287 376 l -12 -12 c -6 -18 c 0 -12 c 6 -18 c 12 -12 c 12 -6 c 18 0 c 12 6 c 12 12 c 6 18 c 0 12 c
-6 18 c -12 12 c -12 6 c -18 0 c -12 0 4413 418 l -12 -6 c -6 -18 c 0 -102 c 42 0 4365 376 l 0 6 4545 388 l 6 12 c 6 6 c 12 6 c
24 0 c 12 -6 c 6 -6 c 6 -12 c 0 -12 c -6 -12 c -12 -18 c -60 -60 c 84 0 c -18 -6 4695 418 l -12 -18 c -6 -30 c 0 -18 c 6 -30 c
12 -18 c 18 -6 c 12 0 c 18 6 c 12 18 c 6 30 c 0 18 c -6 30 c -12 18 c -18 6 c -12 0 c 12 6 5181 394 l 18 18 c 0 -126 c
-6 -6 5294 376 l 6 -6 c 6 6 c -6 6 c -6 -6 5294 304 l 6 -6 c 6 6 c -6 6 c -48 -126 5474 418 l 48 -126 5474 418 l 60 0 5444 334 l
0 -84 5552 376 l 6 18 5552 340 l 12 12 c 12 6 c 18 0 c -12 12 5696 358 l -12 6 c -18 0 c -12 -6 c -12 -12 c -6 -18 c 0 -12 c 6 -18 c
12 -12 c 12 -6 c 18 0 c 12 6 c 12 12 c 108 0 5738 346 l 12 6 5906 394 l 18 18 c 0 -126 c 66 0 6020 418 l -36 -48 c 18 0 c 12 -6 c
6 -6 c 6 -18 c 0 -12 c -6 -18 c -12 -12 c -18 -6 c -18 0 c -18 6 c -6 6 c -6 12 c -60 -126 6212 418 l 84 0 6128 418 l
-6 -6 6260 304 l 6 -6 c 6 6 c -6 6 c -12 0 6350 418 l -12 -6 c -6 -18 c 0 -102 c 42 0 6302 376 l 6 -6 6380 418 l 6 6 c -6 6 c
-6 -6 c 0 -84 6386 376 l 0 -102 6440 418 l 6 -18 c 12 -6 c 12 0 c 42 0 6422 376 l -6 12 6566 358 l -18 6 c -18 0 c -18 -6 c -6 -12 c
6 -12 c 12 -6 c 30 -6 c 12 -6 c 6 -12 c 0 -6 c -6 -12 c -18 -6 c -18 0 c -18 6 c -6 12 c 0 -192 6896 442 l 0 -192 6902 442 l
42 0 6896 442 l 42 0 6896 250 l 0 6 6980 388 l 6 12 c 6 6 c 12 6 c 24 0 c 12 -6 c 6 -6 c 6 -12 c 0 -12 c -6 -12 c -12 -18 c
-60 -60 c 84 0 c -6 -6 7106 376 l 6 -6 c 6 6 c -6 6 c -6 -6 7106 304 l 6 -6 c 6 6 c -6 6 c 0 -192 7286 442 l 0 -192 7292 442 l
42 0 7250 442 l 42 0 7250 250 l
0 -249 817 2631 l 79 -38 774 2756 l 0 53 774 2703 l 3 -11 774 2801 l 12 -8 c 19 -3 c 11 0 c 19 3 c 11 8 c 4 11 c 0 8 c -4 11 c
-11 8 c -19 4 c -11 0 c -19 -4 c -12 -8 c -3 -11 c 0 -8 c 52 -38 774 2892 l 0 57 c 79 0 774 2892 l 0 -38 774 2975 l 34 -3 c -4 3 c
-4 12 c 0 11 c 4 11 c 7 8 c 12 4 c 7 0 c 12 -4 c 7 -8 c 4 -11 c 0 -11 c -4 -12 c -4 -3 c -7 -4 c 4 -4 845 3013 l 4 4 c -4 4 c
-4 -4 c 79 -38 774 3096 l 0 53 774 3043 l 11 -4 800 3168 l 8 -7 c 4 -12 c 0 -3 c -4 -12 c -8 -7 c -11 -4 c -4 0 c -11 4 c -8 7 c
-3 12 c 0 3 c 3 12 c 8 7 c 15 4 c 19 0 c 19 -4 c 11 -7 c 4 -12 c 0 -7 c -4 -12 c -7 -3 c 79 -37 774 3247 l 0 53 774 3194 l
0 -250 1847 1373 l 79 -37 1803 1497 l 0 52 1803 1445 l 4 -12 1803 1543 l 11 -7 c 19 -4 c 11 0 c 19 4 c 11 7 c 4 12 c 0 7 c -4 12 c
-11 7 c -19 4 c -11 0 c -19 -4 c -11 -7 c -4 -12 c 0 -7 c 0 -38 1803 1641 l 34 -3 c -4 3 c -4 12 c 0 11 c 4 11 c 8 8 c 11 4 c 8 0 c
11 -4 c 7 -8 c 4 -11 c 0 -11 c -4 -12 c -3 -3 c -8 -4 c 4 -11 1803 1690 l 7 -4 c 8 0 c 7 4 c 4 7 c 4 16 c 4 11 c 7 7 c 8 4 c 11 0 c
8 -4 c 3 -3 c 4 -12 c 0 -15 c -4 -11 c -3 -4 c -8 -4 c -11 0 c -8 4 c -7 8 c -4 11 c -4 15 c -4 8 c -7 3 c -8 0 c -7 -3 c -4 -12 c
0 -15 c 3 -3 1875 1754 l 4 3 c -4 4 c -3 -4 c 53 -37 1803 1822 l 0 56 c 79 0 1803 1822 l 4 -11 1803 1879 l 7 -4 c 8 0 c 7 4 c 4 7 c
4 16 c 4 11 c 7 7 c 8 4 c 11 0 c 8 -4 c 3 -3 c 4 -12 c 0 -15 c -4 -11 c -3 -4 c -8 -4 c -11 0 c -8 4 c -7 8 c -4 11 c -4 15 c -4 8 c
-7 3 c -8 0 c -7 -3 c -4 -12 c 0 -15 c 12 -4 1829 1985 l 7 -7 c 4 -12 c 0 -3 c -4 -12 c -7 -7 c -12 -4 c -3 0 c -12 4 c -7 7 c
-4 12 c 0 3 c 4 12 c 7 7 c 15 4 c 19 0 c 19 -4 c 11 -7 c 4 -12 c 0 -7 c -4 -12 c -7 -3 c 0 -250 2023 2212 l 79 -37 1980 2336 l
0 53 1980 2283 l 4 -12 1980 2382 l 11 -7 c 19 -4 c 11 0 c 19 4 c 11 7 c 4 12 c 0 7 c -4 12 c -11 7 c -19 4 c -11 0 c -19 -4 c
-11 -7 c -4 -12 c 0 -7 c -7 -4 1991 2484 l -4 -11 c 0 -8 c 4 -11 c 11 -8 c 19 -4 c 19 0 c 15 4 c 7 8 c 4 11 c 0 4 c -4 11 c -7 8 c
-11 3 c -4 0 c -12 -3 c -7 -8 c -4 -11 c 0 -4 c 4 -11 c 7 -8 c 12 -4 c 4 -11 1980 2533 l 11 -8 c 19 -4 c 11 0 c 19 4 c 11 8 c 4 11 c
0 7 c -4 12 c -11 7 c -19 4 c -11 0 c -19 -4 c -11 -7 c -4 -12 c 0 -7 c 3 -3 2052 2593 l 4 3 c -4 4 c -3 -4 c -7 -4 1991 2673 l
-4 -11 c 0 -8 c 4 -11 c 11 -8 c 19 -4 c 19 0 c 15 4 c 7 8 c 4 11 c 0 4 c -4 11 c -7 8 c -11 3 c -4 0 c -12 -3 c -7 -8 c -4 -11 c
0 -4 c 4 -11 c 7 -8 c 12 -4 c 0 -38 1980 2745 l 34 -4 c -4 4 c -4 11 c 0 11 c 4 12 c 8 7 c 11 4 c 8 0 c 11 -4 c 7 -7 c 4 -12 c
0 -11 c -4 -11 c -3 -4 c -8 -4 c 53 -38 1980 2813 l 0 56 c 79 0 1980 2813 l 0 -249 2335 1568 l 80 -38 2291 1693 l 0 53 2291 1640 l
4 -11 2291 1738 l 12 -7 c 18 -4 c 12 0 c 19 4 c 11 7 c 4 11 c 0 8 c -4 11 c -11 8 c -19 4 c -12 0 c -18 -4 c -12 -8 c -4 -11 c
0 -8 c -8 -4 2303 1841 l -4 -12 c 0 -7 c 4 -11 c 12 -8 c 18 -4 c 19 0 c 15 4 c 8 8 c 4 11 c 0 4 c -4 11 c -8 8 c -11 3 c -4 0 c
-11 -3 c -8 -8 c -3 -11 c 0 -4 c 3 -11 c 8 -8 c 11 -4 c 53 -38 2291 1905 l 0 57 c 80 0 2291 1905 l 4 -4 2363 1950 l 4 4 c -4 4 c
-4 -4 c 53 -38 2291 2018 l 0 57 c 80 0 2291 2018 l 0 -37 2291 2101 l 34 -4 c -3 4 c -4 11 c 0 11 c 4 12 c 7 7 c 12 4 c 7 0 c 11 -4 c
8 -7 c 4 -12 c 0 -11 c -4 -11 c -4 -4 c -7 -4 c -3 0 2310 2135 l -8 4 c -4 4 c -4 7 c 0 16 c 4 7 c 4 4 c 8 4 c 7 0 c 8 -4 c 11 -8 c
38 -37 c 0 52 c 0 -250 2688 6524 l 80 -38 2644 6649 l 0 53 2644 6596 l 4 -11 2644 6694 l 11 -8 c 19 -4 c 12 0 c 18 4 c 12 8 c 4 11 c
0 8 c -4 11 c -12 8 c -18 3 c -12 0 c -19 -3 c -11 -8 c -4 -11 c 0 -8 c -8 -4 2656 6796 l -4 -11 c 0 -8 c 4 -11 c 11 -7 c 19 -4 c
19 0 c 15 4 c 8 7 c 4 11 c 0 4 c -4 12 c -8 7 c -11 4 c -4 0 c -11 -4 c -8 -7 c -4 -12 c 0 -4 c 4 -11 c 8 -7 c 11 -4 c
4 -12 2644 6842 l 8 -4 c 7 0 c 8 4 c 3 8 c 4 15 c 4 11 c 8 8 c 7 4 c 11 0 c 8 -4 c 4 -4 c 4 -11 c 0 -15 c -4 -12 c -4 -4 c -8 -3 c
-11 0 c -7 3 c -8 8 c -4 11 c -4 15 c -3 8 c -8 4 c -7 0 c -8 -4 c -4 -11 c 0 -15 c 4 -4 2716 6906 l 4 4 c -4 4 c -4 -4 c
80 -38 2644 6989 l 0 53 2644 6936 l 0 42 2644 7019 l 30 -23 c 0 11 c 4 8 c 4 4 c 11 3 c 8 0 c 11 -3 c 8 -8 c 4 -11 c 0 -12 c
-4 -11 c -4 -4 c -8 -3 c -8 -3 2656 7136 l -4 -12 c 0 -7 c 4 -12 c 11 -7 c 19 -4 c 19 0 c 15 4 c 8 7 c 4 12 c 0 3 c -4 12 c -8 7 c
-11 4 c -4 0 c -11 -4 c -8 -7 c -4 -12 c 0 -3 c 4 -12 c 8 -7 c 11 -4 c 0 -249 2990 1495 l 80 -38 2946 1620 l 0 53 2946 1567 l
4 -11 2946 1665 l 12 -8 c 18 -3 c 12 0 c 19 3 c 11 8 c 4 11 c 0 8 c -4 11 c -11 8 c -19 4 c -12 0 c -18 -4 c -12 -8 c -4 -11 c
0 -8 c 80 -38 2946 1771 l 0 53 2946 1718 l -3 0 2965 1798 l -8 3 c -4 4 c -4 8 c 0 15 c 4 7 c 4 4 c 8 4 c 7 0 c 8 -4 c 11 -7 c
38 -38 c 0 53 c 4 -4 3018 1877 l 4 4 c -4 4 c -4 -4 c 0 41 2946 1915 l 31 -22 c 0 11 c 3 8 c 4 3 c 12 4 c 7 0 c 11 -4 c 8 -7 c
4 -12 c 0 -11 c -4 -11 c -4 -4 c -7 -4 c 11 -4 2973 2032 l 8 -7 c 4 -12 c 0 -3 c -4 -12 c -8 -7 c -11 -4 c -4 0 c -11 4 c -8 7 c
-4 12 c 0 3 c 4 12 c 8 7 c 15 4 c 19 0 c 19 -4 c 11 -7 c 4 -12 c 0 -7 c -4 -12 c -8 -3 c 53 -38 2946 2096 l 0 57 c 80 0 2946 2096 l
0 -250 3234 2270 l 79 -37 3191 2394 l 0 53 3191 2341 l 3 -12 3191 2440 l 12 -7 c 19 -4 c 11 0 c 19 4 c 11 7 c 4 12 c 0 7 c -4 12 c
-11 7 c -19 4 c -11 0 c -19 -4 c -12 -7 c -3 -12 c 0 -7 c 79 -37 3191 2545 l 0 52 3191 2493 l 0 -38 3191 2614 l 34 -4 c -4 4 c
-4 11 c 0 11 c 4 12 c 7 7 c 12 4 c 7 0 c 12 -4 c 7 -7 c 4 -12 c 0 -11 c -4 -11 c -4 -4 c -7 -4 c 4 -3 3262 2651 l 4 3 c -4 4 c
-4 -4 c 0 42 3191 2689 l 30 -23 c 0 11 c 4 8 c 3 4 c 12 3 c 7 0 c 12 -3 c 7 -8 c 4 -11 c 0 -12 c -4 -11 c -4 -4 c -7 -3 c
0 41 3191 2765 l 30 -22 c 0 11 c 4 7 c 3 4 c 12 4 c 7 0 c 12 -4 c 7 -7 c 4 -12 c 0 -11 c -4 -11 c -4 -4 c -7 -4 c 53 -38 3191 2871 l
0 56 c 79 0 3191 2871 l 0 -250 3972 4375 l 79 -38 3929 4500 l 0 53 3929 4447 l 4 -11 3929 4545 l 11 -8 c 19 -4 c 11 0 c 19 4 c
11 8 c 4 11 c 0 8 c -4 11 c -11 8 c -19 3 c -11 0 c -19 -3 c -11 -8 c -4 -11 c 0 -8 c 4 -11 3929 4617 l 7 -4 c 8 0 c 7 4 c 4 7 c
4 15 c 4 12 c 7 7 c 8 4 c 11 0 c 8 -4 c 3 -4 c 4 -11 c 0 -15 c -4 -11 c -3 -4 c -8 -4 c -11 0 c -8 4 c -7 7 c -4 12 c -4 15 c -4 7 c
-7 4 c -8 0 c -7 -4 c -4 -11 c 0 -15 c 53 -37 3929 4711 l 0 56 c 79 0 3929 4711 l 3 -4 4001 4757 l 4 4 c -4 4 c -3 -4 c
-4 8 3944 4798 l -11 11 c 79 0 c -7 -4 3940 4912 l -4 -11 c 0 -8 c 4 -11 c 11 -8 c 19 -4 c 19 0 c 15 4 c 7 8 c 4 11 c 0 4 c -4 11 c
-7 8 c -12 4 c -3 0 c -12 -4 c -7 -8 c -4 -11 c 0 -4 c 4 -11 c 7 -8 c 12 -4 c 12 -3 3955 4987 l 7 -8 c 4 -11 c 0 -4 c -4 -11 c
-7 -8 c -12 -4 c -4 0 c -11 4 c -7 8 c -4 11 c 0 4 c 4 11 c 7 8 c 15 3 c 19 0 c 19 -3 c 11 -8 c 4 -11 c 0 -8 c -4 -11 c -7 -4 c
0 -249 4186 1610 l 79 -38 4143 1735 l 0 53 4143 1682 l 3 -11 4143 1780 l 12 -8 c 19 -3 c 11 0 c 19 3 c 11 8 c 4 11 c 0 8 c -4 11 c
-11 8 c -19 4 c -11 0 c -19 -4 c -12 -8 c -3 -11 c 0 -8 c 3 -11 4143 1852 l 8 -4 c 7 0 c 8 4 c 4 7 c 4 16 c 3 11 c 8 7 c 7 4 c
12 0 c 7 -4 c 4 -3 c 4 -12 c 0 -15 c -4 -11 c -4 -4 c -7 -4 c -12 0 c -7 4 c -8 8 c -3 11 c -4 15 c -4 8 c -8 3 c -7 0 c -8 -3 c
-3 -12 c 0 -15 c -8 -4 4154 1958 l -3 -11 c 0 -8 c 3 -11 c 12 -8 c 19 -3 c 18 0 c 16 3 c 7 8 c 4 11 c 0 4 c -4 11 c -7 8 c -12 4 c
-4 0 c -11 -4 c -7 -8 c -4 -11 c 0 -4 c 4 -11 c 7 -8 c 11 -3 c 4 -4 4214 1992 l 4 4 c -4 4 c -4 -4 c 79 -38 4143 2075 l
0 53 4143 2022 l 3 -12 4143 2121 l 12 -7 c 19 -4 c 11 0 c 19 4 c 11 7 c 4 12 c 0 7 c -4 11 c -11 8 c -19 4 c -11 0 c -19 -4 c
-12 -8 c -3 -11 c 0 -7 c 52 -38 4143 2211 l 0 57 c 79 0 4143 2211 l 0 -250 4408 2800 l 79 -38 4365 2925 l 0 53 4365 2872 l
3 -11 4365 2970 l 12 -8 c 19 -4 c 11 0 c 19 4 c 11 8 c 4 11 c 0 7 c -4 12 c -11 7 c -19 4 c -11 0 c -19 -4 c -12 -7 c -3 -12 c
0 -7 c 3 -12 4365 3042 l 8 -3 c 8 0 c 7 3 c 4 8 c 4 15 c 4 11 c 7 8 c 8 4 c 11 0 c 8 -4 c 3 -4 c 4 -11 c 0 -15 c -4 -12 c -3 -3 c
-8 -4 c -11 0 c -8 4 c -7 7 c -4 12 c -4 15 c -4 7 c -7 4 c -8 0 c -8 -4 c -3 -11 c 0 -15 c 12 -4 4391 3148 l 7 -8 c 4 -11 c 0 -4 c
-4 -11 c -7 -8 c -12 -4 c -4 0 c -11 4 c -8 8 c -3 11 c 0 4 c 3 11 c 8 8 c 15 4 c 19 0 c 19 -4 c 11 -8 c 4 -11 c 0 -8 c -4 -11 c
-7 -4 c 3 -4 4437 3182 l 4 4 c -4 3 c -3 -3 c 0 42 4365 3219 l 30 -23 c 0 12 c 4 7 c 4 4 c 11 4 c 7 0 c 12 -4 c 7 -8 c 4 -11 c
0 -11 c -4 -12 c -3 -3 c -8 -4 c 53 -38 4365 3325 l 0 57 c 79 0 4365 3325 l 3 -12 4365 3386 l 12 -7 c 19 -4 c 11 0 c 19 4 c 11 7 c
4 12 c 0 7 c -4 12 c -11 7 c -19 4 c -11 0 c -19 -4 c -12 -7 c -3 -12 c 0 -7 c 0 -250 5360 1665 l 80 -38 5316 1790 l
0 53 5316 1737 l -4 7 5332 1824 l -12 11 c 80 0 c 4 -11 5316 1910 l 12 -7 c 18 -4 c 12 0 c 19 4 c 11 7 c 4 11 c 0 8 c -4 11 c
-11 8 c -19 4 c -12 0 c -18 -4 c -12 -8 c -4 -11 c 0 -8 c 4 -11 5316 1986 l 12 -8 c 18 -4 c 12 0 c 19 4 c 11 8 c 4 11 c 0 8 c
-4 11 c -11 8 c -19 3 c -12 0 c -18 -3 c -12 -8 c -4 -11 c 0 -8 c 4 -4 5388 2047 l 4 4 c -4 3 c -4 -3 c 0 -38 5316 2122 l 34 -3 c
-3 3 c -4 12 c 0 11 c 4 11 c 7 8 c 12 4 c 7 0 c 11 -4 c 8 -8 c 4 -11 c 0 -11 c -4 -12 c -4 -3 c -7 -4 c -4 7 5332 2164 l -12 12 c
80 0 c 53 -38 5316 2266 l 0 57 c 80 0 5316 2266 l 0 -250 5960 3301 l 79 -38 5916 3425 l 0 53 5916 3372 l -4 8 5931 3459 l -11 11 c
79 0 c 4 -11 5916 3546 l 11 -8 c 19 -3 c 11 0 c 19 3 c 12 8 c 3 11 c 0 8 c -3 11 c -12 8 c -19 3 c -11 0 c -19 -3 c -11 -8 c
-4 -11 c 0 -8 c 79 -38 5916 3652 l 0 53 5916 3599 l 4 -4 5988 3682 l 3 4 c -3 4 c -4 -4 c 53 -38 5916 3750 l 0 57 c 79 0 5916 3750 l
79 -38 5916 3841 l 0 53 5916 3788 l 4 -12 5916 3883 l 7 -4 c 8 0 c 8 4 c 3 8 c 4 15 c 4 11 c 7 8 c 8 4 c 11 0 c 8 -4 c 4 -4 c
3 -11 c 0 -15 c -3 -12 c -4 -4 c -8 -3 c -11 0 c -8 3 c -7 8 c -4 11 c -4 15 c -3 8 c -8 4 c -8 0 c -7 -4 c -4 -11 c 0 -15 c
0 -250 6166 1418 l 80 -38 6122 1543 l 0 53 6122 1490 l -3 7 6137 1577 l -12 12 c 80 0 c 4 -12 6122 1664 l 11 -7 c 19 -4 c 12 0 c
19 4 c 11 7 c 4 12 c 0 7 c -4 12 c -11 7 c -19 4 c -12 0 c -19 -4 c -11 -7 c -4 -12 c 0 -7 c 11 -4 6149 1766 l 8 -8 c 3 -11 c 0 -4 c
-3 -11 c -8 -8 c -11 -3 c -4 0 c -11 3 c -8 8 c -4 11 c 0 4 c 4 11 c 8 8 c 15 4 c 19 0 c 19 -4 c 11 -8 c 4 -11 c 0 -7 c -4 -12 c
-8 -4 c 4 -4 6194 1800 l 4 4 c -4 4 c -4 -4 c 4 -11 6122 1849 l 8 -4 c 7 0 c 8 4 c 4 7 c 3 15 c 4 12 c 8 7 c 7 4 c 12 0 c 7 -4 c
4 -4 c 4 -11 c 0 -15 c -4 -11 c -4 -4 c -7 -4 c -12 0 c -7 4 c -8 7 c -4 12 c -3 15 c -4 7 c -8 4 c -7 0 c -8 -4 c -4 -11 c 0 -15 c
-8 -4 6134 1955 l -4 -11 c 0 -8 c 4 -11 c 11 -8 c 19 -4 c 19 0 c 15 4 c 8 8 c 4 11 c 0 4 c -4 11 c -8 8 c -11 4 c -4 0 c -11 -4 c
-8 -8 c -3 -11 c 0 -4 c 3 -11 c 8 -8 c 11 -4 c 4 -11 6122 2004 l 11 -8 c 19 -4 c 12 0 c 19 4 c 11 8 c 4 11 c 0 7 c -4 12 c -11 7 c
-19 4 c -12 0 c -19 -4 c -11 -7 c -4 -12 c 0 -7 c 0 -250 6561 1415 l 79 -37 6518 1539 l 0 53 6518 1486 l -4 8 6533 1573 l -11 11 c
79 0 c -4 7 6533 1649 l -11 12 c 79 0 c 53 -38 6518 1751 l 0 57 c 79 0 6518 1751 l 3 -3 6590 1796 l 4 3 c -4 4 c -3 -4 c
0 42 6518 1834 l 30 -23 c 0 11 c 4 8 c 4 4 c 11 3 c 7 0 c 12 -3 c 7 -8 c 4 -11 c 0 -12 c -4 -11 c -3 -4 c -8 -3 c 12 -4 6544 1951 l
7 -7 c 4 -11 c 0 -4 c -4 -12 c -7 -7 c -12 -4 c -4 0 c -11 4 c -7 7 c -4 12 c 0 4 c 4 11 c 7 7 c 15 4 c 19 0 c 19 -4 c 11 -7 c
4 -11 c 0 -8 c -4 -11 c -7 -4 c 4 -12 6518 1997 l 7 -4 c 8 0 c 7 4 c 4 8 c 4 15 c 4 11 c 7 8 c 8 4 c 11 0 c 8 -4 c 3 -4 c 4 -11 c
0 -15 c -4 -12 c -3 -4 c -8 -3 c -11 0 c -8 3 c -7 8 c -4 11 c -4 16 c -4 7 c -7 4 c -8 0 c -7 -4 c -4 -11 c 0 -15 c
0 -250 7456 5698 l 79 -38 7413 5822 l 0 53 7413 5769 l -4 8 7428 5856 l -11 11 c 79 0 c -4 0 7432 5924 l -8 4 c -3 4 c -4 7 c 0 16 c
4 7 c 3 4 c 8 4 c 7 0 c 8 -4 c 11 -8 c 38 -37 c 0 52 c 53 -38 7413 6034 l 0 57 c 79 0 7413 6034 l 3 -4 7485 6079 l 4 4 c -4 4 c
-3 -4 c 0 -38 7413 6155 l 34 -4 c -4 4 c -4 11 c 0 12 c 4 11 c 8 8 c 11 3 c 8 0 c 11 -3 c 7 -8 c 4 -11 c 0 -12 c -4 -11 c -3 -4 c
-8 -4 c -7 -4 7424 6234 l -4 -11 c 0 -7 c 4 -12 c 11 -7 c 19 -4 c 19 0 c 15 4 c 7 7 c 4 12 c 0 3 c -4 12 c -7 7 c -11 4 c -4 0 c
-12 -4 c -7 -7 c -4 -12 c 0 -3 c 4 -12 c 7 -7 c 12 -4 c -4 8 7428 6272 l -11 11 c 79 0 c 0 -250 7568 3053 l 79 -38 7525 3177 l
0 53 7525 3124 l -4 8 7540 3211 l -11 11 c 79 0 c -4 0 7544 3279 l -8 4 c -3 4 c -4 7 c 0 16 c 4 7 c 3 4 c 8 4 c 7 0 c 8 -4 c
11 -8 c 38 -37 c 0 52 c 0 -37 7525 3396 l 34 -4 c -4 4 c -4 11 c 0 11 c 4 12 c 8 7 c 11 4 c 8 0 c 11 -4 c 7 -7 c 4 -12 c 0 -11 c
-4 -11 c -3 -4 c -8 -4 c 3 -4 7597 3434 l 4 4 c -4 4 c -3 -4 c 4 -11 7525 3483 l 7 -4 c 8 0 c 7 4 c 4 8 c 4 15 c 4 11 c 7 8 c 8 3 c
11 0 c 8 -3 c 3 -4 c 4 -11 c 0 -16 c -4 -11 c -3 -4 c -8 -3 c -11 0 c -8 3 c -7 8 c -4 11 c -4 15 c -4 8 c -7 4 c -8 0 c -7 -4 c
-4 -11 c 0 -16 c -4 0 7544 3544 l -8 4 c -3 3 c -4 8 c 0 15 c 4 8 c 3 3 c 8 4 c 7 0 c 8 -4 c 11 -7 c 38 -38 c 0 53 c
4 -11 7525 3638 l 11 -8 c 19 -3 c 11 0 c 19 3 c 11 8 c 4 11 c 0 8 c -4 11 c -11 8 c -19 4 c -11 0 c -19 -4 c -11 -8 c -4 -11 c
0 -8 c 0 -249 8006 1389 l 79 -38 7962 1514 l 0 53 7962 1461 l -4 7 7977 1548 l -11 12 c 79 0 c 0 41 7962 1620 l 30 -22 c 0 11 c
4 7 c 4 4 c 11 4 c 8 0 c 11 -4 c 8 -7 c 3 -12 c 0 -11 c -3 -11 c -4 -4 c -8 -4 c 4 -11 7962 1710 l 11 -8 c 19 -3 c 11 0 c 19 3 c
12 8 c 3 11 c 0 8 c -3 11 c -12 8 c -19 4 c -11 0 c -19 -4 c -11 -8 c -4 -11 c 0 -8 c 4 -4 8034 1771 l 3 4 c -3 4 c -4 -4 c
79 -38 7962 1854 l 0 53 7962 1801 l -4 0 7981 1880 l -7 4 c -4 4 c -4 8 c 0 15 c 4 7 c 4 4 c 7 4 c 8 0 c 7 -4 c 12 -8 c 37 -37 c
0 53 c 53 -38 7962 1990 l 0 57 c 79 0 7962 1990 l 0 -250 8064 1507 l 80 -38 8020 1632 l 0 53 8020 1579 l -4 7 8035 1666 l -11 11 c
80 0 c 0 42 8020 1737 l 30 -23 c 0 12 c 4 7 c 4 4 c 11 4 c 8 0 c 11 -4 c 8 -8 c 4 -11 c 0 -11 c -4 -12 c -4 -3 c -8 -4 c
-4 7 8035 1817 l -11 12 c 80 0 c 4 -4 8092 1889 l 4 4 c -4 3 c -4 -3 c 0 42 8020 1926 l 30 -23 c 0 12 c 4 7 c 4 4 c 11 4 c 8 0 c
11 -4 c 8 -8 c 4 -11 c 0 -11 c -4 -12 c -4 -3 c -8 -4 c 0 -38 8020 2040 l 34 -4 c -4 4 c -3 11 c 0 12 c 3 11 c 8 8 c 11 3 c 8 0 c
11 -3 c 8 -8 c 4 -11 c 0 -12 c -4 -11 c -4 -4 c -8 -4 c 11 -4 8047 2119 l 7 -7 c 4 -12 c 0 -3 c -4 -12 c -7 -7 c -11 -4 c -4 0 c
-12 4 c -7 7 c -4 12 c 0 3 c 4 12 c 7 7 c 16 4 c 18 0 c 19 -4 c 12 -7 c 4 -12 c 0 -7 c -4 -11 c -8 -4 c 0 -250 8174 1382 l
80 -37 8130 1506 l 0 53 8130 1453 l -4 8 8146 1540 l -12 11 c 80 0 c 0 42 8130 1612 l 31 -23 c 0 11 c 3 8 c 4 4 c 12 4 c 7 0 c
11 -4 c 8 -8 c 4 -11 c 0 -11 c -4 -12 c -4 -4 c -7 -3 c -3 0 8149 1684 l -8 4 c -4 4 c -4 7 c 0 15 c 4 8 c 4 4 c 8 3 c 7 0 c 8 -3 c
11 -8 c 38 -38 c 0 53 c 4 -3 8202 1763 l 4 3 c -4 4 c -4 -4 c -8 -4 8142 1843 l -4 -11 c 0 -8 c 4 -11 c 12 -8 c 18 -4 c 19 0 c
15 4 c 8 8 c 4 11 c 0 4 c -4 11 c -8 8 c -11 4 c -4 0 c -11 -4 c -8 -8 c -3 -11 c 0 -4 c 3 -11 c 8 -8 c 11 -4 c -4 7 8146 1881 l
-12 11 c 80 0 c 4 -11 8130 1967 l 12 -7 c 18 -4 c 12 0 c 19 4 c 11 7 c 4 11 c 0 8 c -4 11 c -11 8 c -19 4 c -12 0 c -18 -4 c
-12 -8 c -4 -11 c 0 -8 c 0 -249 9055 1481 l 80 -38 9011 1606 l 0 53 9011 1553 l -4 8 9027 1640 l -12 11 c 80 0 c 53 -38 9011 1742 l
0 57 c 80 0 9011 1742 l -3 0 9030 1784 l -8 3 c -4 4 c -4 8 c 0 15 c 4 7 c 4 4 c 8 4 c 7 0 c 8 -4 c 11 -7 c 38 -38 c 0 53 c
4 -4 9083 1863 l 4 4 c -4 4 c -4 -4 c 0 41 9011 1901 l 31 -22 c 0 11 c 4 8 c 3 3 c 12 4 c 7 0 c 12 -4 c 7 -7 c 4 -12 c 0 -11 c
-4 -11 c -4 -4 c -7 -4 c 0 42 9011 1976 l 31 -23 c 0 12 c 4 7 c 3 4 c 12 4 c 7 0 c 12 -4 c 7 -8 c 4 -11 c 0 -11 c -4 -12 c -4 -3 c
-7 -4 c -4 7 9027 2056 l -12 12 c 80 0 c
showpage PGPLOT restore
 
%%Trailer
%%DocumentFonts: 
%%Pages: 1
%%EOF
