%!PS-Adobe-3.0 EPSF-3.0
%%For: tab
%%Title: PGPLOT PostScript plot
%%Creator: PGPLOT
%%CreationDate: 20-Apr-1995 16:59
%%BoundingBox: 25 18 587 774
%%DocumentFonts: (atend)
%%LanguageLevel: 1
%%Orientation: Landscape
%%Pages: (atend)
%%EndComments
%%BeginProlog
/l {moveto rlineto currentpoint stroke moveto} bind def
/c {rlineto currentpoint stroke moveto} bind def
/d {moveto 0 0 rlineto currentpoint stroke moveto} bind def
/SLW {5 mul setlinewidth} bind def
/SCF /pop load def
/BP {newpath moveto} bind def
/LP /rlineto load def
/EP {rlineto closepath eofill} bind def
/MB {gsave translate MFAC dup scale 1 setlinewidth 2 setlinecap 0 setlinejoin newpath} bind def
/ME /grestore load def
/C {0 360 arc stroke} bind def
/FC {0 360 arc fill} bind def
%%EndProlog
 
%%Page: 1 1
%%BeginPageSetup
/PGPLOT save def
0.072 0.072 scale
8150 250 translate 90 rotate
1 setlinejoin 1 setlinecap 1 SLW 1 SCF
%%EndPageSetup
0.000 setgray 1 SLW 8939 0 780 780 l 0 6239 c -8939 0 c 0 -6239 c 0 -45 1116 780 l 0 -45 1554 780 l 0 -45 1991 780 l
0 -45 2428 780 l 0 -90 2865 780 l 0 -45 3302 780 l 0 -45 3739 780 l 0 -45 4176 780 l 0 -45 4613 780 l 0 -90 5051 780 l
0 -45 5488 780 l 0 -45 5925 780 l 0 -45 6362 780 l 0 -45 6799 780 l 0 -90 7236 780 l 0 -45 7673 780 l 0 -45 8110 780 l
0 -45 8548 780 l 0 -45 8985 780 l 0 -90 9422 780 l 0 -45 1116 7064 l 0 -45 1554 7064 l 0 -45 1991 7064 l 0 -45 2428 7064 l
0 -90 2865 7109 l 0 -45 3302 7064 l 0 -45 3739 7064 l 0 -45 4176 7064 l 0 -45 4613 7064 l 0 -90 5051 7109 l 0 -45 5488 7064 l
0 -45 5925 7064 l 0 -45 6362 7064 l 0 -45 6799 7064 l 0 -90 7236 7109 l 0 -45 7673 7064 l 0 -45 8110 7064 l 0 -45 8548 7064 l
0 -45 8985 7064 l 0 -90 9422 7109 l -60 0 2775 672 l -6 -54 c 6 6 c 18 6 c 18 0 c 18 -6 c 12 -12 c 6 -18 c 0 -12 c -6 -18 c
-12 -12 c -18 -6 c -18 0 c -18 6 c -6 6 c -6 12 c -18 -6 2859 672 l -12 -18 c -6 -30 c 0 -18 c 6 -30 c 12 -18 c 18 -6 c 12 0 c
18 6 c 12 18 c 6 30 c 0 18 c -6 30 c -12 18 c -18 6 c -12 0 c -18 -6 2979 672 l -12 -18 c -6 -30 c 0 -18 c 6 -30 c 12 -18 c 18 -6 c
12 0 c 18 6 c 12 18 c 6 30 c 0 18 c -6 30 c -12 18 c -18 6 c -12 0 c 12 6 4847 648 l 18 18 c 0 -126 c -18 -6 4985 672 l -12 -18 c
-6 -30 c 0 -18 c 6 -30 c 12 -18 c 18 -6 c 12 0 c 18 6 c 12 18 c 6 30 c 0 18 c -6 30 c -12 18 c -18 6 c -12 0 c -18 -6 5105 672 l
-12 -18 c -6 -30 c 0 -18 c 6 -30 c 12 -18 c 18 -6 c 12 0 c 18 6 c 12 18 c 6 30 c 0 18 c -6 30 c -12 18 c -18 6 c -12 0 c
-18 -6 5225 672 l -12 -18 c -6 -30 c 0 -18 c 6 -30 c 12 -18 c 18 -6 c 12 0 c 18 6 c 12 18 c 6 30 c 0 18 c -6 30 c -12 18 c -18 6 c
-12 0 c 12 6 7032 648 l 18 18 c 0 -126 c -60 0 7206 672 l -6 -54 c 6 6 c 18 6 c 18 0 c 18 -6 c 12 -12 c 6 -18 c 0 -12 c -6 -18 c
-12 -12 c -18 -6 c -18 0 c -18 6 c -6 6 c -6 12 c -18 -6 7290 672 l -12 -18 c -6 -30 c 0 -18 c 6 -30 c 12 -18 c 18 -6 c 12 0 c
18 6 c 12 18 c 6 30 c 0 18 c -6 30 c -12 18 c -18 6 c -12 0 c -18 -6 7410 672 l -12 -18 c -6 -30 c 0 -18 c 6 -30 c 12 -18 c 18 -6 c
12 0 c 18 6 c 12 18 c 6 30 c 0 18 c -6 30 c -12 18 c -18 6 c -12 0 c 0 6 9206 642 l 6 12 c 6 6 c 12 6 c 24 0 c 12 -6 c 6 -6 c
6 -12 c 0 -12 c -6 -12 c -12 -18 c -60 -60 c 84 0 c -18 -6 9356 672 l -12 -18 c -6 -30 c 0 -18 c 6 -30 c 12 -18 c 18 -6 c 12 0 c
18 6 c 12 18 c 6 30 c 0 18 c -6 30 c -12 18 c -18 6 c -12 0 c -18 -6 9476 672 l -12 -18 c -6 -30 c 0 -18 c 6 -30 c 12 -18 c 18 -6 c
12 0 c 18 6 c 12 18 c 6 30 c 0 18 c -6 30 c -12 18 c -18 6 c -12 0 c -18 -6 9596 672 l -12 -18 c -6 -30 c 0 -18 c 6 -30 c 12 -18 c
18 -6 c 12 0 c 18 6 c 12 18 c 6 30 c 0 18 c -6 30 c -12 18 c -18 6 c -12 0 c -90 0 780 948 l -45 0 780 1242 l -45 0 780 1536 l
-45 0 780 1830 l -45 0 780 2124 l -90 0 780 2419 l -45 0 780 2713 l -45 0 780 3007 l -45 0 780 3301 l -45 0 780 3595 l
-90 0 780 3889 l -45 0 780 4183 l -45 0 780 4478 l -45 0 780 4772 l -45 0 780 5066 l -90 0 780 5360 l -45 0 780 5654 l
-45 0 780 5948 l -45 0 780 6243 l -45 0 780 6537 l -90 0 780 6831 l -90 0 9809 948 l -45 0 9764 1242 l -45 0 9764 1536 l
-45 0 9764 1830 l -45 0 9764 2124 l -90 0 9809 2419 l -45 0 9764 2713 l -45 0 9764 3007 l -45 0 9764 3301 l -45 0 9764 3595 l
-90 0 9809 3889 l -45 0 9764 4183 l -45 0 9764 4478 l -45 0 9764 4772 l -45 0 9764 5066 l -90 0 9809 5360 l -45 0 9764 5654 l
-45 0 9764 5948 l -45 0 9764 6243 l -45 0 9764 6537 l -90 0 9809 6831 l 6 -18 517 942 l 18 -12 c 30 -6 c 18 0 c 30 6 c 18 12 c
6 18 c 0 12 c -6 18 c -18 12 c -30 6 c -18 0 c -30 -6 c -18 -12 c -6 -18 c 0 -12 c -6 12 541 2299 l -18 18 c 126 0 c
6 -18 517 2437 l 18 -12 c 30 -6 c 18 0 c 30 6 c 18 12 c 6 18 c 0 12 c -6 18 c -18 12 c -30 6 c -18 0 c -30 -6 c -18 -12 c -6 -18 c
0 -12 c 63 -45 453 2561 l 0 68 c 94 0 453 2561 l -6 0 547 3631 l -12 6 c -6 6 c -6 12 c 0 24 c 6 12 c 6 6 c 12 6 c 12 0 c 12 -6 c
18 -12 c 60 -60 c 0 84 c 84 84 547 3751 l 84 -84 547 3835 l -6 12 541 3895 l -18 18 c 126 0 c 6 -18 517 4033 l 18 -12 c 30 -6 c
18 0 c 30 6 c 18 12 c 6 18 c 0 12 c -6 18 c -18 12 c -30 6 c -18 0 c -30 -6 c -18 -12 c -6 -18 c 0 -12 c 63 -45 453 4158 l 0 67 c
94 0 453 4158 l 0 66 517 5108 l 48 -36 c 0 18 c 6 12 c 6 6 c 18 6 c 12 0 c 18 -6 c 12 -12 c 6 -18 c 0 -18 c -6 -18 c -6 -6 c
-12 -6 c 84 84 547 5222 l 84 -84 547 5306 l -6 12 541 5366 l -18 18 c 126 0 c 6 -18 517 5504 l 18 -12 c 30 -6 c 18 0 c 30 6 c
18 12 c 6 18 c 0 12 c -6 18 c -18 12 c -30 6 c -18 0 c -30 -6 c -18 -12 c -6 -18 c 0 -12 c 63 -45 453 5629 l 0 67 c 94 0 453 5629 l
84 -60 517 6627 l 0 90 c 126 0 517 6627 l 84 84 547 6693 l 84 -84 547 6777 l -6 12 541 6837 l -18 18 c 126 0 c 6 -18 517 6975 l
18 -12 c 30 -6 c 18 0 c 30 6 c 18 12 c 6 18 c 0 12 c -6 18 c -18 12 c -30 6 c -18 0 c -30 -6 c -18 -12 c -6 -18 c 0 -12 c
63 -45 453 7099 l 0 68 c 94 0 453 7099 l
4 -1 780 979 l 5 0 c 4 1 c 4 2 c 5 1 c 4 -2 c 4 -1 c 5 2 c 4 4 c 5 1 c 4 -3 c 4 -4 c 5 0 c 4 0 c 4 2 c 5 2 c 4 -1 c 5 -2 c 4 -1 c
4 -1 c 5 2 c 4 -2 c 4 -1 c 5 0 c 4 0 c 5 1 c 4 0 c 4 0 c 5 0 c 4 1 c 4 0 c 5 -2 c 4 1 c 5 0 c 4 0 c 4 1 c 5 0 c 4 1 c 4 -1 c 5 1 c
4 1 c 4 2 c 5 4 c 4 6 c 5 13 c 4 9 c 4 -2 c 5 -9 c 4 -8 c 4 -6 c 5 -2 c 4 -3 c 5 -1 c 4 1 c 4 3 c 5 1 c 4 -2 c 4 -5 c 5 0 c 4 -1 c
5 1 c 4 0 c 4 0 c 5 0 c 4 -1 c 4 0 c 5 -1 c 4 0 c 5 1 c 4 0 c 4 -1 c 5 0 c 4 0 c 4 0 c 5 1 c 4 0 c 4 -2 c 5 0 c 4 1 c 5 1 c 4 -1 c
4 1 c 5 -2 c 4 -31 c 4 0 c 5 31 c 4 0 c 5 2 c 4 -2 c 4 -1 c 5 0 c 4 1 c 4 0 c 5 0 c 4 0 c 5 0 c 4 -1 c 4 0 c 5 1 c 4 0 c 4 1 c 5 0 c
4 0 c 5 -1 c 4 -1 c 4 1 c 5 0 c 4 0 c 4 0 c 5 0 c 4 -1 c 4 1 c 5 0 c 4 0 c 5 0 c 4 0 c 4 0 c 5 1 c 4 -1 c 4 3 c 5 5 c 4 0 c 5 -1 c
4 -1 c 4 0 c 5 -1 c 4 -4 c 4 -1 c 5 0 c 4 1 c 5 0 c 4 2 c 4 -1 c 5 2 c 4 0 c 4 1 c 5 1 c 4 0 c 5 -1 c 4 0 c 4 1 c 5 1 c 4 3 c 4 3 c
5 2 c 4 -3 c 4 -3 c 5 -1 c 4 0 c 5 0 c 4 0 c 4 4 c 5 9 c 4 51 c 4 132 c 5 65 c 4 -83 c 5 -137 c 4 -34 c 4 -4 c 5 1 c 4 0 c 4 -1 c
5 -2 c 4 -2 c 5 1 c 4 0 c 4 1 c 5 0 c 4 1 c 4 0 c 5 -1 c 4 0 c 4 -2 c 5 1 c 4 0 c 5 -1 c 4 1 c 4 2 c 5 -2 c 4 0 c 4 -1 c 5 0 c 4 0 c
5 0 c 4 0 c 4 0 c 5 0 c 4 1 c 4 0 c 5 1 c 4 1 c 5 -1 c 4 -1 c 4 -2 c 5 1 c 4 -1 c 4 0 c 5 1 c 4 1 c 5 1 c 4 -1 c 4 0 c 5 0 c 4 1 c
4 -1 c 5 1 c 4 -1 c 4 3 c 5 -1 c 4 -1 c 5 -1 c 4 0 c 4 2 c 5 -2 c 4 2 c 4 -1 c 5 0 c 4 0 c 5 0 c 4 1 c 4 -1 c 5 2 c 4 2 c 4 1 c
5 0 c 4 -1 c 5 -2 c 4 2 c 4 7 c 5 16 c 4 10 c 4 38 c 5 26 c 4 -19 c 5 -60 c 4 -15 c 4 -1 c 5 -1 c 4 -1 c 4 1 c 5 -1 c 4 0 c 4 -1 c
5 1 c 4 -1 c 5 1 c 4 1 c 4 0 c 5 0 c 4 0 c 4 0 c 5 0 c 4 1 c 5 0 c 4 2 c 4 2 c 5 7 c 4 2 c 4 -5 c 5 -5 c 4 2 c 5 7 c 4 6 c 4 -2 c
5 -10 c 4 -6 c 4 0 c 5 1 c 4 8 c 5 1 c 4 -2 c 4 -6 c 5 -2 c 4 1 c 4 -1 c 5 -1 c 4 1 c 4 2 c 4 6023 c 3 -5970 2040 7019 l 5 -34 c
4 -3 c 4 1 c 5 4 c 4 1 c 4 -2 c 5 -7 c 4 -1 c 5 -1 c 4 1 c 4 -3 c 5 2 c 4 -2 c 4 1 c 5 0 c 4 1 c 5 16 c 4 30 c 4 2 c 5 -27 c 4 -22 c
4 -2 c 5 0 c 4 -2 c 4 0 c 5 0 c 4 0 c 5 0 c 4 -1 c 4 2 c 5 9 c 4 8 c 4 -2 c 5 -14 c 4 -3 c 5 -1 c 4 1 c 4 -2 c 5 1 c 4 -1 c 4 1 c
5 0 c 4 1 c 5 -2 c 4 0 c 4 1 c 5 -1 c 4 1 c 4 -1 c 5 0 c 4 -2 c 4 1 c 5 0 c 4 0 c 5 1 c 4 2 c 4 4 c 5 4 c 4 15 c 4 20 c 5 1 c
4 -24 c 5 -15 c 4 -3 c 4 -1 c 5 -1 c 4 -1 c 4 -2 c 5 -1 c 4 2 c 5 -1 c 4 1 c 4 0 c 5 0 c 4 -2 c 4 -1 c 5 1 c 4 0 c 5 -2 c 4 1 c
4 0 c 5 -1 c 4 3 c 4 1 c 5 0 c 4 -1 c 4 -1 c 5 16 c 4 23 c 5 1 c 4 -24 c 4 -14 c 5 -2 c 4 0 c 4 0 c 5 0 c 4 2 c 5 0 c 4 -1 c 4 -2 c
5 1 c 4 0 c 4 1 c 5 9 c 4 8 c 5 7 c 4 -6 c 4 -6 c 5 -8 c 4 -1 c 4 0 c 5 -2 c 4 0 c 5 0 c 4 0 c 4 -1 c 5 1 c 4 0 c 4 1 c 5 1 c 4 -1 c
4 0 c 5 -2 c 4 2 c 5 0 c 4 1 c 4 1 c 5 -1 c 4 1 c 4 -2 c 5 0 c 4 0 c 5 -1 c 4 2 c 4 1 c 5 0 c 4 -1 c 4 0 c 5 0 c 4 2 c 5 1 c 4 -2 c
4 0 c 5 -2 c 4 1 c 4 -1 c 5 2 c 4 0 c 5 1 c 4 1 c 4 -3 c 5 2 c 4 0 c 4 1 c 5 -1 c 4 2 c 4 -1 c 5 1 c 4 2 c 5 -1 c 4 -1 c 4 -1 c
5 2 c 4 -1 c 4 3 c 5 2 c 4 6 c 5 -5 c 4 -5 c 4 -2 c 5 -1 c 4 1 c 4 1 c 5 1 c 4 -1 c 5 1 c 4 3 c 4 -2 c 5 1 c 4 -2 c 4 2 c 5 -4 c
4 3 c 5 -1 c 4 1 c 4 -2 c 5 1 c 4 2 c 4 2 c 5 0 c 4 2 c 4 7 c 5 -1 c 3 6001 c 3 -5157 2932 7019 l 4 -812 c 5 -17 c 4 1 c 4 -2 c
5 -4 c 4 -1 c 5 -4 c 4 2 c 4 2 c 5 -2 c 4 0 c 4 0 c 5 0 c 4 -3 c 4 0 c 5 0 c 4 0 c 5 -1 c 4 0 c 4 6 c 5 2 c 4 -6 c 4 -3 c 5 -2 c
4 -2 c 5 2 c 4 -1 c 4 -2 c 5 2 c 4 -3 c 4 0 c 5 1 c 4 0 c 5 0 c 4 -2 c 4 1 c 5 -1 c 4 2 c 4 1 c 5 1 c 4 11 c 5 121 c 4 246 c 4 47 c
5 -208 c 4 -194 c 4 -27 c 5 -1 c 4 -2 c 4 -1 c 5 -2 c 4 2 c 5 0 c 4 0 c 4 1 c 5 -2 c 4 1 c 4 2 c 5 0 c 4 -1 c 5 2 c 4 -2 c 4 0 c
5 -1 c 4 0 c 4 0 c 5 -2 c 4 0 c 5 1 c 4 0 c 4 0 c 5 1 c 4 -2 c 4 1 c 5 -2 c 4 1 c 5 -2 c 4 2 c 4 0 c 5 0 c 4 -2 c 4 0 c 5 0 c 4 2 c
4 -2 c 5 1 c 4 1 c 5 -2 c 4 0 c 4 1 c 5 1 c 4 0 c 4 2 c 5 -2 c 4 0 c 5 0 c 4 1 c 4 0 c 5 -1 c 4 -1 c 4 1 c 5 0 c 4 2 c 5 2 c 4 1 c
4 0 c 5 -1 c 4 -1 c 4 0 c 5 1 c 4 1 c 5 2 c 4 4 c 4 46 c 5 242 c 4 172 c 4 -92 c 5 -274 c 4 -88 c 4 -7 c 5 -1 c 4 1 c 5 -1 c 4 0 c
4 2 c 5 5 c 4 7 c 4 5 c 5 -1 c 4 -7 c 5 -3 c 4 2 c 4 0 c 5 2 c 4 0 c 4 1 c 5 2 c 4 3 c 5 10 c 4 10 c 4 -2 c 5 -9 c 4 -2 c 4 2 c
5 5 c 4 5 c 4 2 c 5 2 c 4 2 c 5 0 c 4 0 c 4 2 c 5 4 c 4 3 c 4 4 c 5 2 c 4 3 c 5 3 c 4 4 c 4 5 c 5 7 c 4 6 c 4 4 c 5 2 c 4 5 c 5 4 c
4 8 c 4 12 c 5 8 c 4 11 c 4 7 c 5 9 c 4 3 c 5 7 c 4 19 c 4 50 c 5 48 c 4 2 c 4 -41 c 5 0 c 4 6 c 4 19 c 5 6 c 4 7 c 5 17 c 4 19 c
4 15 c 5 16 c 4 22 c 4 27 c 5 17 c 4 13 c 5 20 c 4 48 c 4 39 c 5 22 c 4 18 c 4 29 c 5 27 c 4 31 c 5 29 c 4 38 c 4 36 c 5 37 c 4 45 c
4 61 c 5 46 c 4 59 c 5 69 c 4 100 c 4 74 c 5 85 c 4 30 c 4 57 c 5 71 c 4 117 c 4 106 c 5 214 c 4 198 c 5 99 c 4 42 c 4 125 c 5 249 c
4 341 c 4 350 c 5 377 c 4 565 c 5 1065 c 0 656 c 1 -809 3983 7019 l 4 -656 c 5 -489 c 4 -474 c 5 -353 c 4 -259 c 4 -193 c 5 -148 c
4 -130 c 4 -130 c 5 -147 c 4 -153 c 4 -163 c 5 -139 c 4 -78 c 5 -63 c 4 -133 c 4 -47 c 5 -64 c 4 -86 c 4 -65 c 5 -68 c 4 -60 c
5 -32 c 4 -43 c 4 -55 c 5 -67 c 4 -65 c 4 -23 c 5 -27 c 4 -54 c 5 -29 c 4 -28 c 4 -61 c 5 -24 c 4 -22 c 4 -19 c 5 -22 c 4 -40 c
5 -40 c 4 -21 c 4 -14 c 5 -31 c 4 -7 c 4 -5 c 5 -20 c 4 -22 c 4 -20 c 5 -18 c 4 -15 c 5 -18 c 4 -19 c 4 -7 c 5 -14 c 4 -13 c 4 -9 c
5 -8 c 4 -9 c 5 -10 c 4 -9 c 4 -9 c 5 -6 c 4 -5 c 4 -9 c 5 -12 c 4 -6 c 5 -6 c 4 -4 c 4 -7 c 5 -5 c 4 -5 c 4 -3 c 5 -7 c 4 -2 c
4 -5 c 5 -2 c 4 -2 c 5 -5 c 4 -5 c 4 -4 c 5 -3 c 4 -1 c 4 -2 c 5 -2 c 4 -2 c 5 -5 c 4 -4 c 4 0 c 5 -2 c 4 0 c 4 1 c 5 1 c 4 -2 c
5 -3 c 4 -6 c 4 -4 c 5 0 c 4 -2 c 4 -2 c 5 -2 c 4 -1 c 5 0 c 4 -1 c 4 -3 c 5 0 c 4 -1 c 4 0 c 5 -1 c 4 1 c 4 2 c 5 37 c 4 151 c
5 81 c 4 -56 c 4 -166 c 5 -53 c 4 -4 c 4 -2 c 5 2 c 4 2 c 5 2 c 4 0 c 4 -5 c 5 -2 c 4 1 c 4 -1 c 5 0 c 4 -1 c 5 -2 c 4 -1 c 4 -1 c
5 1 c 4 1 c 4 1 c 5 -1 c 4 -3 c 5 0 c 4 -1 c 4 1 c 5 0 c 4 0 c 4 -3 c 5 -1 c 4 0 c 4 -2 c 5 2 c 4 -1 c 5 0 c 4 -1 c 4 0 c 5 0 c
4 1 c 4 1 c 5 0 c 4 15 c 5 57 c 4 48 c 4 -15 c 5 -71 c 4 -32 c 4 -2 c 5 1 c 4 -1 c 5 -1 c 4 2 c 4 -1 c 5 0 c 4 -1 c 4 0 c 5 1 c
4 0 c 5 -3 c 4 -1 c 4 0 c 5 -1 c 4 1 c 4 2 c 5 0 c 4 0 c 4 -1 c 5 0 c 4 -2 c 5 0 c 4 0 c 4 -1 c 5 0 c 4 1 c 4 -1 c 5 1 c 4 2 c
5 -1 c 4 0 c 4 -1 c 5 -1 c 4 0 c 4 -1 c 5 0 c 4 1 c 5 0 c 4 1 c 4 -2 c 5 -1 c 4 0 c 4 1 c 5 -1 c 4 3 c 5 -1 c 4 -1 c 4 -1 c 5 1 c
4 -2 c 4 0 c 5 0 c 4 -1 c 4 1 c 5 0 c 4 1 c 5 1 c 4 0 c 4 -2 c 5 -1 c 4 -1 c 4 1 c 5 0 c 4 1 c 5 3 c 4 10 c 4 15 c 5 2 c 4 -12 c
4 -14 c 5 -3 c 4 9 c 5 37 c 4 16 c 4 -12 c 5 -24 c 4 16 c 4 6 c 5 -18 c 4 -26 c 4 -4 c 5 -2 c 4 0 c 5 1 c 4 0 c 4 1 c 5 0 c 4 10 c
4 12 c 5 -3 c 4 -13 c 5 -8 c 4 0 c 4 0 c 5 1 c 4 -1 c 4 -1 c 5 0 c 4 2 c 5 0 c 4 -2 c 4 0 c 5 0 c 4 1 c 4 0 c 5 -2 c 4 0 c 5 -2 c
4 2 c 4 1 c 5 1 c 4 0 c 4 1 c 5 -2 c 4 0 c 4 -1 c 5 1 c 4 -1 c 5 -1 c 4 0 c 4 0 c 5 1 c 4 1 c 4 1 c 5 -2 c 4 1 c 5 -1 c 4 0 c 4 0 c
5 -1 c 4 1 c 4 0 c 5 0 c 4 -1 c 5 1 c 4 1 c 4 -1 c 5 0 c 4 1 c 4 -1 c 5 0 c 4 0 c 5 0 c 4 1 c 4 7 c 5 16 c 4 9 c 4 -9 c 5 -17 c
4 -6 c 4 -1 c 5 -1 c 4 0 c 5 -1 c 4 1 c 4 2 c 5 2 c 4 4 c 4 2 c 5 -2 c 4 -6 c 5 -2 c 4 0 c 4 1 c 5 -1 c 4 0 c 4 0 c 5 1 c 4 1 c
5 0 c 4 -2 c 4 -1 c 5 0 c 4 0 c 4 -1 c 5 1 c 4 -1 c 5 0 c 4 1 c 4 0 c 5 1 c 4 -1 c 4 -1 c 5 0 c 4 0 c 4 1 c 5 0 c 4 0 c 5 0 c 4 0 c
4 0 c 5 0 c 4 0 c 4 0 c 5 0 c 4 0 c 5 0 c 4 1 c 4 -1 c 5 0 c 4 0 c 4 1 c 5 -1 c 4 0 c 5 -1 c 4 1 c 4 0 c 5 0 c 4 1 c 4 0 c 5 0 c
4 0 c 4 -1 c 5 0 c 4 0 c 5 1 c 4 -1 c 4 1 c 5 -1 c 4 0 c 4 0 c 5 0 c 4 0 c 5 0 c 4 0 c 4 -1 c 5 2 c 4 1 c 4 -1 c 5 0 c 4 0 c 5 1 c
4 -36 c 4 38 c 5 7 c 4 2 c 4 -4 c 5 -6 c 4 -1 c 5 0 c 4 -1 c 4 1 c 5 12 c 4 15 c 4 2 c 5 -16 c 4 -13 c 4 -2 c 5 -1 c 4 1 c 5 -1 c
4 1 c 4 0 c 5 -1 c 4 1 c 4 0 c 5 0 c 4 1 c 5 1 c 4 0 c 4 0 c 5 -1 c 4 1 c 4 0 c 5 0 c 4 0 c 5 0 c 4 3 c 4 3 c 5 1 c 4 -4 c 4 -2 c
5 -1 c 4 1 c 5 0 c 4 1 c 4 0 c 5 2 c 4 -1 c 4 0 c 5 -1 c 4 1 c 4 1 c 5 0 c 4 6 c 5 17 c 4 170 c 4 370 c 5 187 c 4 -253 c 4 -378 c
5 -109 c 4 6 c 5 6 c 4 -2 c 4 -15 c 5 -6 c 4 -1 c 4 -1 c 5 0 c 4 -1 c 5 0 c 4 0 c 4 3 c 5 1 c 4 2 c 4 -2 c 5 -2 c 4 -1 c 5 1 c 4 0 c
4 1 c 5 0 c 4 1 c 4 3 c 5 9 c 4 84 c 4 5728 c 1 207 c 3 -5942 6110 7019 l 4 -67 c 5 -3 c 4 -2 c 4 0 c 5 -2 c 4 -1 c 4 -1 c 5 -1 c
4 0 c 5 -1 c 4 -1 c 4 2 c 5 -1 c 4 -2 c 4 0 c 5 0 c 4 1 c 5 -1 c 4 1 c 4 -1 c 5 0 c 4 -1 c 4 1 c 5 0 c 4 0 c 4 -1 c 5 0 c 4 1 c
5 3 c 4 2 c 4 -2 c 5 -4 c 4 0 c 4 0 c 5 0 c 4 0 c 5 -1 c 4 0 c 4 -1 c 5 2 c 4 0 c 4 2 c 5 0 c 4 1 c 5 -1 c 4 0 c 4 0 c 5 -1 c 4 1 c
4 0 c 5 0 c 4 -1 c 4 2 c 5 1 c 4 0 c 5 0 c 4 0 c 4 0 c 5 1 c 4 1 c 4 0 c 5 1 c 4 2 c 5 -1 c 4 1 c 4 2 c 5 2 c 4 1 c 4 0 c 5 0 c
4 1 c 5 3 c 4 4 c 4 2 c 5 3 c 4 4 c 4 6 c 5 14 c 4 29 c 5 94 c 4 1123 c 4 4726 c 2 -2875 6482 7019 l 5 -2828 c 4 -230 c 4 -39 c
5 -10 c 4 -5 c 5 -5 c 4 -5 c 4 -4 c 5 -3 c 4 -1 c 4 -4 c 5 -1 c 4 0 c 5 0 c 4 -1 c 4 -2 c 5 -2 c 4 -1 c 4 -1 c 5 -1 c 4 -1 c 5 0 c
4 -2 c 4 -1 c 5 1 c 4 -1 c 4 -49 c 5 48 c 4 1 c 5 0 c 4 -1 c 4 0 c 5 -1 c 4 0 c 4 2 c 5 0 c 4 0 c 4 2 c 5 20 c 4 135 c 5 115 c 4 4 c
4 -157 c 5 -109 c 4 -10 c 4 -2 c 5 0 c 4 12 c 5 44 c 4 20 c 4 -12 c 5 -49 c 4 -14 c 4 -3 c 5 -1 c 4 0 c 5 0 c 4 0 c 4 1 c 5 0 c
4 1 c 4 1 c 5 0 c 4 -2 c 5 3 c 4 1 c 4 -2 c 5 -3 c 4 -1 c 4 1 c 5 2 c 4 -1 c 4 -1 c 5 -2 c 4 1 c 5 0 c 4 0 c 4 0 c 5 0 c 4 0 c 4 0 c
5 0 c 4 1 c 5 0 c 4 2 c 4 3 c 5 3 c 4 1 c 4 -1 c 5 -3 c 4 -3 c 5 -3 c 4 0 c 4 0 c 5 0 c 4 0 c 4 1 c 5 0 c 4 0 c 5 18 c 4 35 c 4 8 c
5 -20 c 4 -36 c 4 -8 c 5 -2 c 4 0 c 4 1 c 5 1 c 4 1 c 5 0 c 4 -1 c 4 -1 c 5 1 c 4 2 c 4 1 c 5 2 c 4 -3 c 5 -1 c 4 3 c 4 4 c 5 0 c
4 -3 c 4 -3 c 5 0 c 4 -1 c 5 0 c 4 0 c 4 0 c 5 0 c 4 -1 c 4 3 c 5 1 c 4 1 c 4 -3 c 5 0 c 4 -1 c 5 0 c 4 1 c 4 1 c 5 -1 c 4 1 c 4 1 c
5 -2 c 4 0 c 5 -1 c 4 0 c 4 1 c 5 0 c 4 1 c 4 0 c 5 0 c 4 1 c 5 0 c 4 -1 c 4 1 c 5 0 c 4 -1 c 4 0 c 5 1 c 4 0 c 5 0 c 4 -2 c 4 0 c
5 -2 c 4 3 c 4 1 c 5 2 c 4 23 c 4 145 c 5 115 c 4 3 c 5 -164 c 4 -110 c 4 -13 c 5 -2 c 4 -1 c 4 0 c 5 1 c 4 0 c 5 0 c 4 1 c 4 1 c
5 -1 c 4 -2 c 4 2 c 5 0 c 4 0 c 5 0 c 4 0 c 4 0 c 5 -1 c 4 6 c 4 4 c 5 4 c 4 -6 c 5 -7 c 4 -2 c 4 -1 c 5 1 c 4 0 c 4 -1 c 5 0 c
4 0 c 4 1 c 5 -1 c 4 0 c 5 0 c 4 0 c 4 1 c 5 1 c 4 2 c 4 0 c 5 -1 c 4 -2 c 5 0 c 4 1 c 4 0 c 5 -1 c 4 1 c 4 0 c 5 -1 c 4 2 c 5 -1 c
4 0 c 4 0 c 5 0 c 4 -1 c 4 -1 c 5 0 c 4 0 c 5 1 c 4 0 c 4 0 c 5 5 c 4 32 c 4 18 c 5 -4 c 4 -34 c 4 -13 c 5 -1 c 4 -1 c 5 -1 c 4 0 c
4 -1 c 5 0 c 4 0 c 4 0 c 5 -1 c 4 2 c 5 8 c 4 10 c 4 1 c 5 -9 c 4 -10 c 4 -2 c 5 0 c 4 0 c 5 -1 c 4 1 c 4 1 c 5 0 c 4 1 c 4 0 c
5 1 c 4 5 c 5 3 c 4 0 c 4 -6 c 5 -3 c 4 -1 c 4 0 c 5 3 c 4 2 c 4 0 c 5 -3 c 4 0 c 5 1 c 4 2 c 4 7 c 5 77 c 4 59 c 4 -1 c 5 -88 c
4 -53 c 5 -6 c 4 1 c 4 1 c 5 0 c 4 0 c 4 0 c 5 1 c 4 0 c 5 -2 c 4 -2 c 4 -1 c 5 0 c 4 1 c 4 0 c 5 -1 c 4 1 c 4 0 c 5 2 c 4 0 c
5 -3 c 4 1 c 4 -1 c 5 0 c 4 0 c 4 2 c 5 0 c 4 -1 c 5 -1 c 4 -1 c 4 0 c 5 1 c 4 0 c 4 0 c 5 0 c 4 0 c 5 1 c 4 0 c 4 0 c 5 0 c 4 0 c
4 1 c 5 0 c 4 0 c 5 0 c 4 1 c 4 0 c 5 0 c 4 1 c 4 -1 c 5 0 c 4 1 c 4 -1 c 5 1 c 4 -1 c 5 0 c 4 1 c 4 -1 c 5 -1 c 4 1 c 4 3 c 5 7 c
4 1 c 5 -1 c 4 -6 c 4 -1 c 5 -1 c 4 -1 c 4 -1 c 5 0 c 4 0 c 5 0 c 4 0 c 4 1 c 5 0 c 4 -2 c 4 1 c 5 -1 c 4 0 c 5 1 c 4 -1 c 4 0 c
5 1 c 4 1 c 4 0 c 5 0 c 4 0 c 4 0 c 5 0 c 4 0 c 5 0 c 4 1 c 4 -1 c 5 0 c 4 -1 c 4 0 c 5 -1 c 4 0 c 5 0 c 4 1 c 4 2 c 5 1 c 4 1 c
4 0 c 5 -2 c 4 1 c 5 -1 c 4 0 c 4 0 c 5 0 c 4 0 c 4 1 c 5 -1 c 4 1 c 5 -1 c 4 2 c 4 1 c 5 0 c 4 1 c 4 1 c 5 4 c 4 27 c 4 22 c 5 -1 c
4 -30 c 5 -21 c 4 -1 c 4 -1 c 5 1 c 4 -1 c 4 1 c 5 0 c 4 1 c 5 -1 c 4 2 c 4 -1 c 5 1 c 4 0 c 4 2 c 5 2 c 4 -1 c 5 0 c 4 1 c 4 2 c
5 0 c 4 1 c 4 1 c 5 3 c 4 0 c 4 2 c 5 1 c 4 1 c 5 2 c 4 0 c 4 0 c 5 2 c 4 1 c 4 3 c 5 5 c 4 -1 c 5 2 c 4 2 c 4 1 c 5 5 c 4 4 c 4 4 c
5 1 c 4 -2 c 5 3 c 4 5 c 4 1 c 5 3 c 4 5 c 4 5 c 5 5 c 4 1 c 5 3 c 4 10 c 4 4 c 5 2 c 4 5 c 4 5 c 5 10 c 4 8 c 4 9 c 5 4 c 4 7 c
5 9 c 4 10 c 4 18 c 5 3 c 4 14 c 4 1 c 5 6 c 4 13 c 5 12 c 4 15 c 4 11 c 5 12 c 2 5755 c 3 -4587 8619 7019 l 4 -1025 c 5 7 c 4 25 c
4 27 c 5 19 c 4 21 c 5 20 c 4 34 c 4 31 c 5 24 c 4 32 c 4 44 c 5 50 c 4 49 c 4 36 c 5 67 c 4 20 c 5 41 c 4 68 c 4 55 c 5 75 c
4 105 c 4 91 c 5 72 c 4 3 c 5 65 c 4 94 c 4 148 c 5 200 c 4 129 c 4 148 c 5 236 c 4 412 c 5 690 c 1 2474 c 2 -3374 8821 7019 l
4 -344 c 5 -257 c 4 -188 c 4 -186 c 5 -132 c 4 -151 c 5 -114 c 4 -70 c 4 -39 c 5 -24 c 4 -62 c 4 -76 c 5 -96 c 4 -79 c 5 -44 c
4 -34 c 4 -32 c 5 -37 c 4 -32 c 4 -25 c 5 -42 c 4 -44 c 5 -38 c 4 -18 c 4 -22 c 5 -8 c 4 -24 c 4 -22 c 5 -36 c 4 -22 c 5 -11 c
4 -4 c 4 -19 c 5 -9 c 4 -15 c 4 -12 c 5 -15 c 4 -12 c 4 -9 c 5 -4 c 4 -20 c 5 -14 c 4 -13 c 4 -5 c 5 -12 c 4 -6 c 4 -6 c 5 -3 c
4 1 c 5 -9 c 4 -11 c 4 -4 c 5 -2 c 4 -10 c 4 -7 c 5 -6 c 4 -7 c 5 -2 c 4 -4 c 4 -3 c 5 1 c 4 -1 c 4 -1 c 5 -5 c 4 -5 c 4 -3 c 5 1 c
4 0 c 5 -1 c 4 -1 c 4 -1 c 5 0 c 4 0 c 4 -3 c 5 -3 c 4 2 c 5 0 c 4 3 c 4 0 c 5 1 c 4 1 c 4 0 c 5 3 c 4 4 c 5 6 c 4 4 c 4 -2 c 5 -1 c
4 3 c 4 3 c 5 3 c 4 2 c 5 6 c 4 8 c 4 5 c 5 5 c 4 2 c 4 6 c 5 7 c 4 8 c 4 5 c 5 7 c 4 10 c 5 11 c 4 16 c 4 9 c 5 13 c 4 8 c 4 14 c
5 10 c 4 13 c 5 9 c 4 14 c 4 11 c 5 22 c 4 6 c 4 22 c 5 23 c 4 20 c 5 19 c 4 22 c 4 35 c 5 33 c 4 27 c 4 15 c 5 24 c 4 31 c 5 31 c
4 35 c 4 25 c 5 58 c 4 50 c 4 36 c 5 27 c 4 67 c 4 28 c 5 87 c 4 52 c 5 57 c 4 56 c 4 84 c 5 109 c 4 51 c 4 64 c 5 54 c 4 106 c
5 63 c 4 109 c 4 204 c 5 203 c 4 94 c 4 16 c 5 41 c 4 235 c 5 237 c 4 253 c 4 150 c 5 264 c 4 412 c 4 548 c
5 1143 c 0 370 c 3 -6071 9541 7019 l 5 0 c 2 6071 c 1 -1116 9578 7019 l 5 -745 c 4 -506 c 4 -484 c 5 -393 c 4 -273 c 4 -137 c
3 3654 c 2 -3133 9625 7019 l 5 -1165 c 4 -182 c 4 -177 c 5 -94 c 4 -70 c 5 -73 c 4 -37 c 4 -87 c 5 -38 c 4 -56 c 4 -47 c 5 -81 c
4 -44 c 5 -36 c 4 -18 c 4 -12 c 5 -40 c 4 -54 c 4 -44 c 5 -22 c 4 -4 c
0 -126 3303 418 l 54 0 3303 418 l 18 -6 c 6 -6 c 6 -12 c 0 -12 c -6 -12 c -6 -6 c -18 -6 c -54 0 c 42 -66 3345 358 l
-12 -6 3453 376 l -12 -12 c -6 -18 c 0 -12 c 6 -18 c 12 -12 c 12 -6 c 18 0 c 12 6 c 12 12 c 6 18 c 0 12 c -6 18 c -12 12 c -12 6 c
-18 0 c 24 -84 3537 376 l -24 -84 3585 376 l 24 -84 3585 376 l -24 -84 3633 376 l 108 0 3675 364 l 108 0 3675 328 l 12 6 3939 394 l
18 18 c 0 -126 c -18 -6 4077 418 l -12 -18 c -6 -30 c 0 -18 c 6 -30 c 12 -18 c 18 -6 c 12 0 c 18 6 c 12 18 c 6 30 c 0 18 c -6 30 c
-12 18 c -18 6 c -12 0 c -12 -6 4287 376 l -12 -12 c -6 -18 c 0 -12 c 6 -18 c 12 -12 c 12 -6 c 18 0 c 12 6 c 12 12 c 6 18 c 0 12 c
-6 18 c -12 12 c -12 6 c -18 0 c -12 0 4413 418 l -12 -6 c -6 -18 c 0 -102 c 42 0 4365 376 l 12 6 4557 394 l 18 18 c 0 -126 c
-60 0 4731 418 l -6 -54 c 6 6 c 18 6 c 18 0 c 18 -6 c 12 -12 c 6 -18 c 0 -12 c -6 -18 c -12 -12 c -18 -6 c -18 0 c -18 6 c -6 6 c
-6 12 c 12 6 5181 394 l 18 18 c 0 -126 c -6 -6 5294 376 l 6 -6 c 6 6 c -6 6 c -6 -6 5294 304 l 6 -6 c 6 6 c -6 6 c
-48 -126 5474 418 l 48 -126 5474 418 l 60 0 5444 334 l 0 -84 5552 376 l 6 18 5552 340 l 12 12 c 12 6 c 18 0 c -12 12 5696 358 l
-12 6 c -18 0 c -12 -6 c -12 -12 c -6 -18 c 0 -12 c 6 -18 c 12 -12 c 12 -6 c 18 0 c 12 6 c 12 12 c 108 0 5738 346 l
-18 -6 5924 418 l -12 -18 c -6 -30 c 0 -18 c 6 -30 c 12 -18 c 18 -6 c 12 0 c 18 6 c 12 18 c 6 30 c 0 18 c -6 30 c -12 18 c -18 6 c
-12 0 c -60 -126 6092 418 l 84 0 6008 418 l 0 6 6134 388 l 6 12 c 6 6 c 12 6 c 24 0 c 12 -6 c 6 -6 c 6 -12 c 0 -12 c -6 -12 c
-12 -18 c -60 -60 c 84 0 c -6 -6 6260 304 l 6 -6 c 6 6 c -6 6 c -12 0 6350 418 l -12 -6 c -6 -18 c 0 -102 c 42 0 6302 376 l
6 -6 6380 418 l 6 6 c -6 6 c -6 -6 c 0 -84 6386 376 l 0 -102 6440 418 l 6 -18 c 12 -6 c 12 0 c 42 0 6422 376 l -6 12 6566 358 l
-18 6 c -18 0 c -18 -6 c -6 -12 c 6 -12 c 12 -6 c 30 -6 c 12 -6 c 6 -12 c 0 -6 c -6 -12 c -18 -6 c -18 0 c -18 6 c -6 12 c
0 -192 6896 442 l 0 -192 6902 442 l 42 0 6896 442 l 42 0 6896 250 l 0 6 6980 388 l 6 12 c 6 6 c 12 6 c 24 0 c 12 -6 c 6 -6 c 6 -12 c
0 -12 c -6 -12 c -12 -18 c -60 -60 c 84 0 c -6 -6 7106 376 l 6 -6 c 6 6 c -6 6 c -6 -6 7106 304 l 6 -6 c 6 6 c -6 6 c
0 -192 7286 442 l 0 -192 7292 442 l 42 0 7250 442 l 42 0 7250 250 l
0 -250 1461 1685 l 79 -37 1418 1809 l 0 52 1418 1757 l 12 -4 1444 1881 l 7 -7 c 4 -11 c 0 -4 c -4 -12 c -7 -7 c -12 -4 c -3 0 c
-12 4 c -7 7 c -4 12 c 0 4 c 4 11 c 7 7 c 15 4 c 19 0 c 19 -4 c 11 -7 c 4 -11 c 0 -8 c -4 -11 c -7 -4 c -4 8 1433 1919 l -11 11 c
79 0 c -7 -3 1429 2032 l -4 -12 c 0 -7 c 4 -12 c 11 -7 c 19 -4 c 19 0 c 15 4 c 7 7 c 4 12 c 0 4 c -4 11 c -7 7 c -11 4 c -4 0 c
-12 -4 c -7 -7 c -4 -11 c 0 -4 c 4 -12 c 7 -7 c 12 -4 c 3 -3 1490 2066 l 4 3 c -4 4 c -3 -4 c 53 -37 1418 2134 l 0 56 c
79 0 1418 2134 l 53 -38 1418 2210 l 0 57 c 79 0 1418 2210 l -4 0 1437 2252 l -8 3 c -3 4 c -4 8 c 0 15 c 4 7 c 3 4 c 8 4 c 8 0 c
7 -4 c 11 -7 c 38 -38 c 0 53 c 0 -249 2124 1491 l 79 -38 2081 1616 l 0 53 2081 1563 l 12 -4 2107 1688 l 7 -8 c 4 -11 c 0 -4 c
-4 -11 c -7 -8 c -12 -3 c -4 0 c -11 3 c -7 8 c -4 11 c 0 4 c 4 11 c 7 8 c 15 4 c 19 0 c 19 -4 c 11 -8 c 4 -11 c 0 -7 c -4 -12 c
-7 -4 c -4 0 2100 1718 l -8 4 c -3 4 c -4 7 c 0 15 c 4 8 c 3 4 c 8 3 c 7 0 c 8 -3 c 11 -8 c 38 -38 c 0 53 c 53 -38 2081 1828 l
0 57 c 79 0 2081 1828 l 3 -4 2153 1873 l 4 4 c -4 4 c -3 -4 c 12 -3 2107 1952 l 7 -8 c 4 -11 c 0 -4 c -4 -11 c -7 -8 c -12 -4 c
-4 0 c -11 4 c -7 8 c -4 11 c 0 4 c 4 11 c 7 8 c 15 3 c 19 0 c 19 -3 c 11 -8 c 4 -11 c 0 -8 c -4 -11 c -7 -4 c 12 -4 2107 2028 l
7 -7 c 4 -12 c 0 -3 c -4 -12 c -7 -7 c -12 -4 c -4 0 c -11 4 c -7 7 c -4 12 c 0 3 c 4 12 c 7 7 c 15 4 c 19 0 c 19 -4 c 11 -7 c
4 -12 c 0 -7 c -4 -12 c -7 -3 c -4 7 2096 2066 l -11 12 c 79 0 c 0 -250 3126 1879 l 80 -37 3082 2003 l 0 52 3082 1951 l
11 -3 3109 2075 l 8 -8 c 3 -11 c 0 -4 c -3 -11 c -8 -8 c -11 -4 c -4 0 c -11 4 c -8 8 c -4 11 c 0 4 c 4 11 c 8 8 c 15 3 c 19 0 c
18 -3 c 12 -8 c 4 -11 c 0 -8 c -4 -11 c -8 -4 c 0 42 3082 2109 l 30 -23 c 0 12 c 4 7 c 4 4 c 11 4 c 8 0 c 11 -4 c 8 -8 c 4 -11 c
0 -11 c -4 -12 c -4 -3 c -8 -4 c 80 -38 3082 2230 l 0 53 3082 2177 l 4 -4 3154 2261 l 4 4 c -4 3 c -4 -3 c 80 -38 3082 2344 l
0 53 3082 2291 l 0 41 3082 2374 l 30 -22 c 0 11 c 4 8 c 4 3 c 11 4 c 8 0 c 11 -4 c 8 -7 c 4 -11 c 0 -12 c -4 -11 c -4 -4 c -8 -4 c
53 -38 3082 2480 l 0 57 c 80 0 3082 2480 l 0 -250 3443 1915 l 79 -38 3399 2040 l 0 53 3399 1987 l 12 -4 3425 2112 l 7 -8 c 4 -11 c
0 -4 c -4 -11 c -7 -8 c -12 -4 c -3 0 c -12 4 c -7 8 c -4 11 c 0 4 c 4 11 c 7 8 c 15 4 c 19 0 c 19 -4 c 12 -8 c 3 -11 c 0 -8 c
-3 -11 c -8 -4 c 53 -38 3399 2176 l 0 57 c 79 0 3399 2176 l -4 7 3414 2225 l -11 12 c 79 0 c 4 -4 3471 2297 l 3 4 c -3 3 c -4 -3 c
79 -38 3399 2380 l 0 53 3399 2327 l -4 0 3418 2406 l -7 4 c -4 4 c -4 7 c 0 16 c 4 7 c 4 4 c 7 4 c 8 0 c 7 -4 c 12 -8 c 37 -37 c
0 52 c -7 -4 3410 2527 l -4 -11 c 0 -7 c 4 -12 c 11 -7 c 19 -4 c 19 0 c 15 4 c 8 7 c 3 12 c 0 3 c -3 12 c -8 7 c -11 4 c -4 0 c
-11 -4 c -8 -7 c -4 -12 c 0 -3 c 4 -12 c 8 -7 c 11 -4 c 0 -250 4474 1725 l 80 -38 4430 1850 l 0 53 4430 1797 l 11 -3 4457 1921 l
8 -8 c 3 -11 c 0 -4 c -3 -11 c -8 -8 c -11 -4 c -4 0 c -11 4 c -8 8 c -4 11 c 0 4 c 4 11 c 8 8 c 15 3 c 19 0 c 19 -3 c 11 -8 c
4 -11 c 0 -8 c -4 -11 c -8 -4 c 0 -38 4430 1993 l 34 -3 c -3 3 c -4 12 c 0 11 c 4 11 c 7 8 c 11 4 c 8 0 c 11 -4 c 8 -8 c 4 -11 c
0 -11 c -4 -12 c -4 -3 c -7 -4 c 53 -38 4430 2061 l 0 57 c 80 0 4430 2061 l 4 -4 4502 2107 l 4 4 c -4 3 c -4 -3 c 0 -38 4430 2182 l
34 -3 c -3 3 c -4 12 c 0 11 c 4 11 c 7 8 c 11 4 c 8 0 c 11 -4 c 8 -8 c 4 -11 c 0 -11 c -4 -12 c -4 -3 c -7 -4 c 11 -4 4457 2262 l
8 -8 c 3 -11 c 0 -4 c -3 -11 c -8 -8 c -11 -4 c -4 0 c -11 4 c -8 8 c -4 11 c 0 4 c 4 11 c 8 8 c 15 4 c 19 0 c 19 -4 c 11 -8 c
4 -11 c 0 -8 c -4 -11 c -8 -4 c -4 0 4449 2292 l -7 4 c -4 3 c -4 8 c 0 15 c 4 8 c 4 3 c 7 4 c 8 0 c 8 -4 c 11 -7 c 38 -38 c 0 53 c
0 -249 5946 2174 l 79 -38 5903 2299 l 0 53 5903 2246 l 11 -4 5929 2371 l 8 -8 c 4 -11 c 0 -4 c -4 -11 c -8 -8 c -11 -3 c -4 0 c
-11 3 c -8 8 c -3 11 c 0 4 c 3 11 c 8 8 c 15 4 c 19 0 c 19 -4 c 11 -8 c 4 -11 c 0 -7 c -4 -12 c -7 -4 c 79 -38 5903 2450 l
0 53 5903 2397 l -4 0 5922 2477 l -8 3 c -4 4 c -3 8 c 0 15 c 3 7 c 4 4 c 8 4 c 7 0 c 8 -4 c 11 -7 c 38 -38 c 0 53 c
4 -4 5974 2556 l 4 4 c -4 4 c -4 -4 c 0 -38 5903 2632 l 34 -4 c -4 4 c -4 11 c 0 11 c 4 12 c 7 7 c 12 4 c 7 0 c 12 -4 c 7 -7 c
4 -12 c 0 -11 c -4 -11 c -4 -4 c -7 -4 c 11 -4 5929 2711 l 8 -7 c 4 -12 c 0 -4 c -4 -11 c -8 -7 c -11 -4 c -4 0 c -11 4 c -8 7 c
-3 11 c 0 4 c 3 12 c 8 7 c 15 4 c 19 0 c 19 -4 c 11 -7 c 4 -12 c 0 -7 c -4 -12 c -7 -3 c -8 -4 5914 2787 l -3 -12 c 0 -7 c 3 -11 c
12 -8 c 19 -4 c 19 0 c 15 4 c 7 8 c 4 11 c 0 4 c -4 11 c -7 8 c -12 3 c -3 0 c -12 -3 c -7 -8 c -4 -11 c 0 -4 c 4 -11 c 7 -8 c
12 -4 c 0 -249 6477 7019 l 79 -38 6433 7144 l 0 53 6433 7091 l 11 -4 6460 7216 l 7 -8 c 4 -11 c 0 -4 c -4 -11 c -7 -8 c -11 -3 c
-4 0 c -12 3 c -7 8 c -4 11 c 0 4 c 4 11 c 7 8 c 16 4 c 18 0 c 19 -4 c 12 -8 c 3 -11 c 0 -8 c -3 -11 c -8 -4 c 79 -38 6433 7295 l
0 53 6433 7242 l 4 -12 6433 7337 l 7 -4 c 8 0 c 8 4 c 3 8 c 4 15 c 4 11 c 7 8 c 8 4 c 11 0 c 8 -4 c 4 -4 c 3 -11 c 0 -15 c -3 -12 c
-4 -4 c -8 -3 c -11 0 c -8 3 c -7 8 c -4 11 c -4 15 c -3 8 c -8 4 c -8 0 c -7 -4 c -4 -11 c 0 -15 c 4 -4 6505 7401 l 3 4 c -3 4 c
-4 -4 c 11 -4 6460 7480 l 7 -7 c 4 -11 c 0 -4 c -4 -12 c -7 -7 c -11 -4 c -4 0 c -12 4 c -7 7 c -4 12 c 0 4 c 4 11 c 7 7 c 16 4 c
18 0 c 19 -4 c 12 -7 c 3 -11 c 0 -8 c -3 -11 c -8 -4 c 79 -38 6433 7560 l 0 53 6433 7507 l 0 41 6433 7590 l 30 -22 c 0 11 c 4 8 c
4 3 c 11 4 c 8 0 c 11 -4 c 8 -7 c 3 -12 c 0 -11 c -3 -11 c -4 -4 c -8 -4 c 0 -249 6665 1710 l 79 -38 6622 1835 l 0 53 6622 1782 l
12 -4 6648 1907 l 7 -8 c 4 -11 c 0 -4 c -4 -11 c -7 -8 c -12 -3 c -4 0 c -11 3 c -7 8 c -4 11 c 0 4 c 4 11 c 7 8 c 15 4 c 19 0 c
19 -4 c 11 -8 c 4 -11 c 0 -8 c -4 -11 c -7 -4 c 4 -11 6622 1952 l 7 -4 c 8 0 c 7 4 c 4 7 c 4 15 c 4 12 c 7 7 c 8 4 c 11 0 c 8 -4 c
3 -3 c 4 -12 c 0 -15 c -4 -11 c -3 -4 c -8 -4 c -11 0 c -8 4 c -7 8 c -4 11 c -4 15 c -4 8 c -7 3 c -8 0 c -7 -3 c -4 -12 c 0 -15 c
-4 8 6637 2020 l -11 11 c 79 0 c 3 -4 6694 2092 l 4 4 c -4 4 c -3 -4 c -4 0 6641 2126 l -8 4 c -3 3 c -4 8 c 0 15 c 4 8 c 3 3 c
8 4 c 7 0 c 8 -4 c 11 -7 c 38 -38 c 0 53 c -4 0 6641 2202 l -8 3 c -3 4 c -4 8 c 0 15 c 4 7 c 3 4 c 8 4 c 7 0 c 8 -4 c 11 -7 c
38 -38 c 0 53 c -7 -3 6633 2322 l -4 -12 c 0 -7 c 4 -12 c 11 -7 c 19 -4 c 19 0 c 15 4 c 7 7 c 4 12 c 0 4 c -4 11 c -7 7 c -11 4 c
-4 0 c -12 -4 c -7 -7 c -4 -11 c 0 -4 c 4 -12 c 7 -7 c 12 -4 c 0 -249 7234 1717 l 79 -38 7190 1842 l 0 53 7190 1789 l
12 -4 7216 1914 l 7 -8 c 4 -11 c 0 -4 c -4 -11 c -7 -8 c -12 -3 c -3 0 c -12 3 c -7 8 c -4 11 c 0 4 c 4 11 c 7 8 c 15 4 c 19 0 c
19 -4 c 12 -8 c 3 -11 c 0 -7 c -3 -12 c -8 -4 c 4 -11 7190 1959 l 7 -4 c 8 0 c 7 4 c 4 7 c 4 15 c 4 12 c 7 7 c 8 4 c 11 0 c 8 -4 c
4 -3 c 3 -12 c 0 -15 c -3 -11 c -4 -4 c -8 -4 c -11 0 c -8 4 c -7 8 c -4 11 c -4 15 c -4 8 c -7 3 c -8 0 c -7 -3 c -4 -12 c 0 -15 c
79 -38 7190 2069 l 0 53 7190 2016 l 4 -4 7262 2099 l 3 4 c -3 4 c -4 -4 c 12 -3 7216 2178 l 7 -8 c 4 -11 c 0 -4 c -4 -11 c -7 -8 c
-12 -4 c -3 0 c -12 4 c -7 8 c -4 11 c 0 4 c 4 11 c 7 8 c 15 3 c 19 0 c 19 -3 c 12 -8 c 3 -11 c 0 -8 c -3 -11 c -8 -4 c
79 -38 7190 2258 l 0 53 7190 2205 l 0 42 7190 2288 l 30 -23 c 0 11 c 4 8 c 4 4 c 11 3 c 8 0 c 11 -3 c 8 -8 c 3 -11 c 0 -12 c
-3 -11 c -4 -4 c -8 -4 c 0 -250 7521 1483 l 79 -37 7478 1607 l 0 52 7478 1555 l 12 -4 7504 1679 l 7 -7 c 4 -11 c 0 -4 c -4 -12 c
-7 -7 c -12 -4 c -4 0 c -11 4 c -7 7 c -4 12 c 0 4 c 4 11 c 7 7 c 15 4 c 19 0 c 19 -4 c 11 -7 c 4 -11 c 0 -8 c -4 -11 c -7 -4 c
12 -4 7504 1755 l 7 -7 c 4 -12 c 0 -4 c -4 -11 c -7 -8 c -12 -3 c -4 0 c -11 3 c -7 8 c -4 11 c 0 4 c 4 12 c 7 7 c 15 4 c 19 0 c
19 -4 c 11 -7 c 4 -12 c 0 -7 c -4 -12 c -7 -4 c -4 7 7493 1793 l -11 12 c 79 0 c 3 -3 7550 1864 l 4 3 c -4 4 c -3 -4 c
0 42 7478 1902 l 30 -23 c 0 11 c 4 8 c 4 4 c 11 4 c 8 0 c 11 -4 c 7 -8 c 4 -11 c 0 -11 c -4 -12 c -3 -4 c -8 -3 c -7 -3 7489 2019 l
-4 -12 c 0 -7 c 4 -12 c 11 -7 c 19 -4 c 19 0 c 15 4 c 7 7 c 4 12 c 0 4 c -4 11 c -7 7 c -11 4 c -4 0 c -12 -4 c -7 -7 c -4 -11 c
0 -4 c 4 -12 c 7 -7 c 12 -4 c 0 -38 7478 2091 l 34 -3 c -4 3 c -4 12 c 0 11 c 4 11 c 8 8 c 11 4 c 8 0 c 11 -4 c 7 -8 c 4 -11 c
0 -11 c -4 -12 c -3 -3 c -8 -4 c 0 -250 7719 1576 l 79 -37 7675 1700 l 0 53 7675 1647 l 11 -4 7702 1772 l 7 -7 c 4 -11 c 0 -4 c
-4 -12 c -7 -7 c -11 -4 c -4 0 c -12 4 c -7 7 c -4 12 c 0 4 c 4 11 c 7 7 c 16 4 c 18 0 c 19 -4 c 12 -7 c 3 -11 c 0 -8 c -3 -11 c
-8 -4 c 11 -4 7702 1848 l 7 -8 c 4 -11 c 0 -4 c -4 -11 c -7 -8 c -11 -3 c -4 0 c -12 3 c -7 8 c -4 11 c 0 4 c 4 11 c 7 8 c 16 4 c
18 0 c 19 -4 c 12 -8 c 3 -11 c 0 -7 c -3 -12 c -8 -4 c 0 41 7675 1882 l 30 -22 c 0 11 c 4 8 c 4 3 c 11 4 c 8 0 c 11 -4 c 8 -7 c
3 -12 c 0 -11 c -3 -11 c -4 -4 c -8 -4 c 4 -3 7747 1957 l 3 3 c -3 4 c -4 -4 c -7 -4 7686 2037 l -4 -11 c 0 -8 c 4 -11 c 11 -8 c
19 -4 c 19 0 c 15 4 c 8 8 c 3 11 c 0 4 c -3 11 c -8 8 c -11 4 c -4 0 c -11 -4 c -8 -8 c -4 -11 c 0 -4 c 4 -11 c 8 -8 c 11 -4 c
4 -11 7675 2082 l 7 -4 c 8 0 c 8 4 c 3 7 c 4 15 c 4 12 c 7 7 c 8 4 c 11 0 c 8 -4 c 4 -3 c 3 -12 c 0 -15 c -3 -11 c -4 -4 c -8 -4 c
-11 0 c -8 4 c -7 8 c -4 11 c -4 15 c -3 8 c -8 3 c -8 0 c -7 -3 c -4 -12 c 0 -15 c -4 8 7690 2150 l -11 11 c 79 0 c
0 -249 8265 1488 l 4 -11 8221 1579 l 8 -4 c 7 0 c 8 4 c 4 7 c 3 16 c 4 11 c 8 7 c 7 4 c 12 0 c 7 -4 c 4 -3 c 4 -12 c 0 -15 c
-4 -11 c -4 -4 c -7 -4 c -12 0 c -7 4 c -8 8 c -4 11 c -3 15 c -4 8 c -8 3 c -7 0 c -8 -3 c -4 -12 c 0 -15 c 4 -12 8221 1659 l
12 -7 c 18 -4 c 12 0 c 19 4 c 11 7 c 4 12 c 0 7 c -4 11 c -11 8 c -19 4 c -12 0 c -18 -4 c -12 -8 c -4 -11 c 0 -7 c
4 -11 8221 1734 l 12 -8 c 18 -4 c 12 0 c 19 4 c 11 8 c 4 11 c 0 8 c -4 11 c -11 8 c -19 3 c -12 0 c -18 -3 c -12 -8 c -4 -11 c
0 -8 c 4 -12 8221 1810 l 12 -7 c 18 -4 c 12 0 c 19 4 c 11 7 c 4 12 c 0 7 c -4 12 c -11 7 c -19 4 c -12 0 c -18 -4 c -12 -7 c
-4 -12 c 0 -7 c 4 -4 8293 1870 l 4 4 c -4 4 c -4 -4 c 4 -11 8221 1923 l 12 -8 c 18 -4 c 12 0 c 19 4 c 11 8 c 4 11 c 0 8 c -4 11 c
-11 8 c -19 3 c -12 0 c -18 -3 c -12 -8 c -4 -11 c 0 -8 c 53 -38 8221 2014 l 0 57 c 80 0 8221 2014 l 0 -38 8221 2097 l 34 -4 c
-3 4 c -4 12 c 0 11 c 4 11 c 7 8 c 12 4 c 7 0 c 12 -4 c 7 -8 c 4 -11 c 0 -11 c -4 -12 c -4 -4 c -7 -3 c
showpage PGPLOT restore
 
%%Trailer
%%DocumentFonts: 
%%Pages: 1
%%EOF
