%!PS-Adobe-3.0 EPSF-3.0
%%For: tab
%%Title: PGPLOT PostScript plot
%%Creator: PGPLOT
%%CreationDate: 20-Apr-1995 16:42
%%BoundingBox: 25 18 587 774
%%DocumentFonts: (atend)
%%LanguageLevel: 1
%%Orientation: Landscape
%%Pages: (atend)
%%EndComments
%%BeginProlog
/l {moveto rlineto currentpoint stroke moveto} bind def
/c {rlineto currentpoint stroke moveto} bind def
/d {moveto 0 0 rlineto currentpoint stroke moveto} bind def
/SLW {5 mul setlinewidth} bind def
/SCF /pop load def
/BP {newpath moveto} bind def
/LP /rlineto load def
/EP {rlineto closepath eofill} bind def
/MB {gsave translate MFAC dup scale 1 setlinewidth 2 setlinecap 0 setlinejoin newpath} bind def
/ME /grestore load def
/C {0 360 arc stroke} bind def
/FC {0 360 arc fill} bind def
%%EndProlog
 
%%Page: 1 1
%%BeginPageSetup
/PGPLOT save def
0.072 0.072 scale
8150 250 translate 90 rotate
1 setlinejoin 1 setlinecap 1 SLW 1 SCF
%%EndPageSetup
0.000 setgray 1 SLW 8939 0 780 780 l 0 6239 c -8939 0 c 0 -6239 c 0 -45 1116 780 l 0 -45 1554 780 l 0 -45 1991 780 l
0 -45 2428 780 l 0 -90 2865 780 l 0 -45 3302 780 l 0 -45 3739 780 l 0 -45 4176 780 l 0 -45 4613 780 l 0 -90 5051 780 l
0 -45 5488 780 l 0 -45 5925 780 l 0 -45 6362 780 l 0 -45 6799 780 l 0 -90 7236 780 l 0 -45 7673 780 l 0 -45 8110 780 l
0 -45 8548 780 l 0 -45 8985 780 l 0 -90 9422 780 l 0 -45 1116 7064 l 0 -45 1554 7064 l 0 -45 1991 7064 l 0 -45 2428 7064 l
0 -90 2865 7109 l 0 -45 3302 7064 l 0 -45 3739 7064 l 0 -45 4176 7064 l 0 -45 4613 7064 l 0 -90 5051 7109 l 0 -45 5488 7064 l
0 -45 5925 7064 l 0 -45 6362 7064 l 0 -45 6799 7064 l 0 -90 7236 7109 l 0 -45 7673 7064 l 0 -45 8110 7064 l 0 -45 8548 7064 l
0 -45 8985 7064 l 0 -90 9422 7109 l -60 0 2775 672 l -6 -54 c 6 6 c 18 6 c 18 0 c 18 -6 c 12 -12 c 6 -18 c 0 -12 c -6 -18 c
-12 -12 c -18 -6 c -18 0 c -18 6 c -6 6 c -6 12 c -18 -6 2859 672 l -12 -18 c -6 -30 c 0 -18 c 6 -30 c 12 -18 c 18 -6 c 12 0 c
18 6 c 12 18 c 6 30 c 0 18 c -6 30 c -12 18 c -18 6 c -12 0 c -18 -6 2979 672 l -12 -18 c -6 -30 c 0 -18 c 6 -30 c 12 -18 c 18 -6 c
12 0 c 18 6 c 12 18 c 6 30 c 0 18 c -6 30 c -12 18 c -18 6 c -12 0 c 12 6 4847 648 l 18 18 c 0 -126 c -18 -6 4985 672 l -12 -18 c
-6 -30 c 0 -18 c 6 -30 c 12 -18 c 18 -6 c 12 0 c 18 6 c 12 18 c 6 30 c 0 18 c -6 30 c -12 18 c -18 6 c -12 0 c -18 -6 5105 672 l
-12 -18 c -6 -30 c 0 -18 c 6 -30 c 12 -18 c 18 -6 c 12 0 c 18 6 c 12 18 c 6 30 c 0 18 c -6 30 c -12 18 c -18 6 c -12 0 c
-18 -6 5225 672 l -12 -18 c -6 -30 c 0 -18 c 6 -30 c 12 -18 c 18 -6 c 12 0 c 18 6 c 12 18 c 6 30 c 0 18 c -6 30 c -12 18 c -18 6 c
-12 0 c 12 6 7032 648 l 18 18 c 0 -126 c -60 0 7206 672 l -6 -54 c 6 6 c 18 6 c 18 0 c 18 -6 c 12 -12 c 6 -18 c 0 -12 c -6 -18 c
-12 -12 c -18 -6 c -18 0 c -18 6 c -6 6 c -6 12 c -18 -6 7290 672 l -12 -18 c -6 -30 c 0 -18 c 6 -30 c 12 -18 c 18 -6 c 12 0 c
18 6 c 12 18 c 6 30 c 0 18 c -6 30 c -12 18 c -18 6 c -12 0 c -18 -6 7410 672 l -12 -18 c -6 -30 c 0 -18 c 6 -30 c 12 -18 c 18 -6 c
12 0 c 18 6 c 12 18 c 6 30 c 0 18 c -6 30 c -12 18 c -18 6 c -12 0 c 0 6 9206 642 l 6 12 c 6 6 c 12 6 c 24 0 c 12 -6 c 6 -6 c
6 -12 c 0 -12 c -6 -12 c -12 -18 c -60 -60 c 84 0 c -18 -6 9356 672 l -12 -18 c -6 -30 c 0 -18 c 6 -30 c 12 -18 c 18 -6 c 12 0 c
18 6 c 12 18 c 6 30 c 0 18 c -6 30 c -12 18 c -18 6 c -12 0 c -18 -6 9476 672 l -12 -18 c -6 -30 c 0 -18 c 6 -30 c 12 -18 c 18 -6 c
12 0 c 18 6 c 12 18 c 6 30 c 0 18 c -6 30 c -12 18 c -18 6 c -12 0 c -18 -6 9596 672 l -12 -18 c -6 -30 c 0 -18 c 6 -30 c 12 -18 c
18 -6 c 12 0 c 18 6 c 12 18 c 6 30 c 0 18 c -6 30 c -12 18 c -18 6 c -12 0 c -90 0 780 803 l -45 0 780 1461 l -90 0 780 2120 l
-45 0 780 2779 l -90 0 780 3437 l -45 0 780 4096 l -90 0 780 4754 l -45 0 780 5413 l -90 0 780 6072 l -45 0 780 6730 l
-90 0 9809 803 l -45 0 9764 1461 l -90 0 9809 2120 l -45 0 9764 2779 l -90 0 9809 3437 l -45 0 9764 4096 l -90 0 9809 4754 l
-45 0 9764 5413 l -90 0 9809 6072 l -45 0 9764 6730 l 6 -18 517 797 l 18 -12 c 30 -6 c 18 0 c 30 6 c 18 12 c 6 18 c 0 12 c -6 18 c
-18 12 c -30 6 c -18 0 c -30 -6 c -18 -12 c -6 -18 c 0 -12 c -6 0 547 1904 l -12 6 c -6 6 c -6 12 c 0 24 c 6 12 c 6 6 c 12 6 c
12 0 c 12 -6 c 18 -12 c 60 -60 c 0 84 c 6 -18 517 2054 l 18 -12 c 30 -6 c 18 0 c 30 6 c 18 12 c 6 18 c 0 12 c -6 18 c -18 12 c
-30 6 c -18 0 c -30 -6 c -18 -12 c -6 -18 c 0 -12 c 6 -18 517 2174 l 18 -12 c 30 -6 c 18 0 c 30 6 c 18 12 c 6 18 c 0 12 c -6 18 c
-18 12 c -30 6 c -18 0 c -30 -6 c -18 -12 c -6 -18 c 0 -12 c 6 -18 517 2294 l 18 -12 c 30 -6 c 18 0 c 30 6 c 18 12 c 6 18 c 0 12 c
-6 18 c -18 12 c -30 6 c -18 0 c -30 -6 c -18 -12 c -6 -18 c 0 -12 c 84 -60 517 3275 l 0 90 c 126 0 517 3275 l 6 -18 517 3371 l
18 -12 c 30 -6 c 18 0 c 30 6 c 18 12 c 6 18 c 0 12 c -6 18 c -18 12 c -30 6 c -18 0 c -30 -6 c -18 -12 c -6 -18 c 0 -12 c
6 -18 517 3491 l 18 -12 c 30 -6 c 18 0 c 30 6 c 18 12 c 6 18 c 0 12 c -6 18 c -18 12 c -30 6 c -18 0 c -30 -6 c -18 -12 c -6 -18 c
0 -12 c 6 -18 517 3611 l 18 -12 c 30 -6 c 18 0 c 30 6 c 18 12 c 6 18 c 0 12 c -6 18 c -18 12 c -30 6 c -18 0 c -30 -6 c -18 -12 c
-6 -18 c 0 -12 c -12 -6 535 4610 l -6 -18 c 0 -12 c 6 -18 c 18 -12 c 30 -6 c 30 0 c 24 6 c 12 12 c 6 18 c 0 6 c -6 18 c -12 12 c
-18 6 c -6 0 c -18 -6 c -12 -12 c -6 -18 c 0 -6 c 6 -18 c 12 -12 c 18 -6 c 6 -18 517 4688 l 18 -12 c 30 -6 c 18 0 c 30 6 c 18 12 c
6 18 c 0 12 c -6 18 c -18 12 c -30 6 c -18 0 c -30 -6 c -18 -12 c -6 -18 c 0 -12 c 6 -18 517 4808 l 18 -12 c 30 -6 c 18 0 c 30 6 c
18 12 c 6 18 c 0 12 c -6 18 c -18 12 c -30 6 c -18 0 c -30 -6 c -18 -12 c -6 -18 c 0 -12 c 6 -18 517 4928 l 18 -12 c 30 -6 c 18 0 c
30 6 c 18 12 c 6 18 c 0 12 c -6 18 c -18 12 c -30 6 c -18 0 c -30 -6 c -18 -12 c -6 -18 c 0 -12 c 6 -18 517 5880 l 12 -6 c 12 0 c
12 6 c 6 12 c 6 24 c 6 18 c 12 12 c 12 6 c 18 0 c 12 -6 c 6 -6 c 6 -18 c 0 -24 c -6 -18 c -6 -6 c -12 -6 c -18 0 c -12 6 c -12 12 c
-6 18 c -6 24 c -6 12 c -12 6 c -12 0 c -12 -6 c -6 -18 c 0 -24 c 6 -18 517 6006 l 18 -12 c 30 -6 c 18 0 c 30 6 c 18 12 c 6 18 c
0 12 c -6 18 c -18 12 c -30 6 c -18 0 c -30 -6 c -18 -12 c -6 -18 c 0 -12 c 6 -18 517 6126 l 18 -12 c 30 -6 c 18 0 c 30 6 c 18 12 c
6 18 c 0 12 c -6 18 c -18 12 c -30 6 c -18 0 c -30 -6 c -18 -12 c -6 -18 c 0 -12 c 6 -18 517 6246 l 18 -12 c 30 -6 c 18 0 c 30 6 c
18 12 c 6 18 c 0 12 c -6 18 c -18 12 c -30 6 c -18 0 c -30 -6 c -18 -12 c -6 -18 c 0 -12 c
4 2 780 929 l 5 7 c 4 2 c 4 13 c 5 59 c 4 283 c 4 438 c 5 165 c 4 -263 c 5 -441 c 4 -220 c 4 -40 c 5 -3 c 4 2 c 4 -5 c 5 -2 c 4 1 c
5 -3 c 4 0 c 4 0 c 5 1 c 4 0 c 4 1 c 5 -2 c 4 5 c 5 1 c 4 2 c 4 -5 c 5 0 c 4 0 c 4 3 c 5 2 c 4 7 c 5 9 c 4 39 c 4 53 c 5 23 c
4 -42 c 4 -55 c 5 -24 c 4 -3 c 4 -6 c 5 4 c 4 -4 c 5 3 c 4 -1 c 4 -1 c 5 13 c 4 60 c 4 212 c 5 225 c 4 24 c 5 -220 c 4 -221 c
4 -84 c 5 -9 c 4 -2 c 4 5 c 5 -5 c 4 -1 c 5 2 c 4 -1 c 4 7 c 5 5 c 4 -2 c 4 -2 c 5 -5 c 4 -2 c 5 -1 c 4 3 c 4 -2 c 5 2 c 4 -1 c
4 4 c 5 -1 c 4 5 c 4 8 c 5 6 c 4 -1 c 5 -6 c 4 -5 c 4 -4 c 5 -3 c 4 -134 c 4 0 c 5 135 c 4 1 c 5 -5 c 4 4 c 4 -2 c 5 0 c 4 2 c
4 -2 c 5 4 c 4 -6 c 5 0 c 4 3 c 4 2 c 5 -4 c 4 5 c 4 2 c 5 -3 c 4 5 c 5 -5 c 4 -2 c 4 -1 c 5 4 c 4 0 c 4 5 c 5 1 c 4 -4 c 4 4 c
5 -6 c 4 5 c 5 0 c 4 3 c 4 3 c 5 22 c 4 48 c 4 31 c 5 -20 c 4 -41 c 5 -19 c 4 1 c 4 0 c 5 1 c 4 -7 c 4 7 c 5 1 c 4 -1 c 5 -7 c 4 6 c
4 7 c 5 12 c 4 10 c 4 -9 c 5 -11 c 4 1 c 5 -4 c 4 -3 c 4 8 c 5 16 c 4 8 c 4 3 c 5 -13 c 4 -7 c 4 28 c 5 25 c 4 4 c 5 -26 c 4 -25 c
2 6022 c 0 -5840 1479 7019 l 5 -101 c 4 -12 c 4 -20 c 5 -21 c 4 -7 c 5 -6 c 4 13 c 4 4 c 5 -1 c 4 1 c 4 -3 c 5 14 c 4 -10 c 4 -7 c
5 -8 c 4 6 c 5 7 c 4 -14 c 4 -8 c 5 8 c 4 5 c 4 3 c 5 1 c 4 -2 c 5 -17 c 4 0 c 4 11 c 5 23 c 4 19 c 4 -4 c 5 -26 c 4 -20 c 5 7 c
4 -9 c 4 -10 c 5 4 c 4 7 c 4 -5 c 5 -6 c 4 10 c 5 -6 c 4 3 c 4 2 c 5 13 c 4 41 c 4 192 c 5 654 c 4 610 c 4 67 c 5 -655 c 4 -655 c
5 -234 c 4 -43 c 4 -12 c 5 14 c 4 -2 c 4 -7 c 5 -3 c 4 8 c 5 -6 c 4 -1 c 4 -4 c 5 4 c 4 -5 c 4 -6 c 5 4 c 4 6 c 5 -5 c 4 -4 c 4 4 c
5 -1 c 4 3 c 4 4 c 5 -4 c 4 0 c 5 -1 c 4 0 c 4 6 c 5 -4 c 4 -6 c 4 0 c 5 1 c 4 1 c 4 10 c 5 30 c 4 20 c 5 -6 c 4 -32 c 4 -26 c 5 0 c
4 7 c 4 -6 c 5 0 c 4 -1 c 5 -1 c 4 0 c 4 -4 c 5 -3 c 4 3 c 4 -4 c 5 9 c 4 -3 c 5 7 c 4 -6 c 4 -3 c 5 -1 c 4 0 c 4 -5 c 5 5 c 4 -1 c
5 -1 c 4 2 c 4 0 c 5 -4 c 4 5 c 4 -2 c 5 -1 c 4 4 c 4 -5 c 5 -1 c 4 9 c 5 0 c 4 9 c 4 5 c 5 1 c 4 4 c 4 -6 c 5 -10 c 4 -4 c 5 -1 c
4 -3 c 4 -1 c 5 -2 c 4 8 c 4 -8 c 5 3 c 4 2 c 5 -1 c 4 -2 c 4 -1 c 5 6 c 4 -2 c 4 6 c 5 1 c 4 -3 c 5 0 c 4 -8 c 4 5 c 5 4 c 4 7 c
4 15 c 5 129 c 4 507 c 4 599 c 5 186 c 4 -521 c 5 -600 c 4 -287 c 4 -33 c 5 -1 c 4 -4 c 4 3 c 5 -2 c 4 0 c 5 -3 c 4 -4 c 4 5 c 5 5 c
4 4 c 4 -1 c 5 -5 c 4 -9 c 5 5 c 4 5 c 4 -4 c 5 3 c 4 4 c 4 0 c 5 0 c 4 -3 c 4 9 c 5 55 c 0 5980 c 0 -768 2301 7019 l 4 -4196 c
5 -675 c 4 -308 c 5 -38 c 4 -12 c 4 -7 c 5 -2 c 4 7 c 4 -9 c 5 -5 c 4 -1 c 5 0 c 4 4 c 4 -5 c 5 -11 c 4 8 c 4 -1 c 5 -7 c 4 4 c
5 3 c 4 -4 c 4 -3 c 5 1 c 4 -5 c 4 5 c 5 -1 c 4 -3 c 4 5 c 5 -6 c 4 2 c 5 0 c 4 -7 c 4 5 c 5 2 c 4 -7 c 4 3 c 5 5 c 4 -11 c 5 6 c
4 9 c 4 -17 c 5 0 c 4 4 c 4 -1 c 5 4 c 4 1 c 5 26 c 4 18 c 4 -1 c 5 -16 c 4 -22 c 4 -11 c 5 -1 c 4 -4 c 5 2 c 4 9 c 4 2 c 5 8 c
4 -2 c 4 -11 c 5 -1 c 4 -7 c 4 0 c 5 -3 c 4 2 c 5 20 c 4 22 c 4 -6 c 5 -12 c 4 -25 c 4 -3 c 5 0 c 4 1 c 5 -7 c 4 3 c 4 -1 c 5 -3 c
4 8 c 4 -4 c 5 4 c 4 2 c 5 8 c 4 38 c 4 34 c 5 1 c 4 -23 c 4 -31 c 5 -17 c 4 3 c 5 2 c 4 17 c 4 9 c 5 5 c 4 -19 c 4 -14 c 5 -3 c
4 1 c 4 0 c 5 0 c 4 -3 c 5 3 c 4 -7 c 4 0 c 5 2 c 4 2 c 4 -1 c 5 4 c 4 -4 c 5 -1 c 4 0 c 4 3 c 5 -3 c 4 -3 c 4 4 c 5 -7 c 4 5 c
5 6 c 4 -4 c 4 3 c 5 8 c 4 80 c 4 487 c 5 1184 c 4 1017 c 5 -20 c 4 -1237 c 4 -1074 c 5 -417 c 4 -27 c 4 -5 c 5 1 c 4 -3 c 4 0 c
5 2 c 4 3 c 5 -4 c 4 5 c 4 12 c 5 11 c 4 -6 c 4 -12 c 5 -2 c 4 7 c 5 -8 c 4 -4 c 4 -2 c 5 5 c 4 -4 c 4 -1 c 5 -10 c 4 -12 c 5 -6 c
4 5 c 4 1 c 5 -5 c 4 7 c 4 -6 c 5 2 c 4 -4 c 4 2 c 5 -1 c 4 7 c 5 -1 c 4 -2 c 4 -1 c 5 -5 c 4 3 c 4 7 c 5 -3 c 4 0 c 5 -3 c 4 5 c
4 -3 c 5 1 c 4 -5 c 4 3 c 5 -2 c 4 1 c 5 -1 c 4 0 c 4 3 c 5 -1 c 4 1 c 4 -3 c 5 7 c 4 1 c 5 1 c 4 0 c 4 -3 c 5 -1 c 4 0 c 4 0 c
5 -3 c 4 -1 c 4 -4 c 5 1 c 4 1 c 5 -4 c 4 9 c 4 -7 c 5 2 c 4 2 c 4 3 c 5 2 c 4 6 c 5 6 c 4 5 c 4 4 c 5 -1 c 4 -1 c 4 0 c 5 -6 c
4 -4 c 5 -4 c 4 -3 c 4 0 c 5 -1 c 4 2 c 4 -2 c 5 -7 c 4 0 c 5 -3 c 4 2 c 4 -4 c 5 -1 c 4 3 c 4 2 c 5 -1 c 4 -2 c 4 -1 c 5 -1 c 4 2 c
5 -2 c 4 1 c 4 15 c 5 23 c 4 20 c 4 0 c 5 -27 c 4 -21 c 5 -1 c 4 4 c 4 -2 c 5 -6 c 4 -1 c 4 -3 c 5 3 c 4 5 c 5 -6 c 4 4 c 4 -3 c
5 -2 c 4 1 c 4 -3 c 5 3 c 4 -2 c 5 4 c 4 0 c 4 0 c 5 1 c 4 3 c 4 -3 c 5 2 c 4 -1 c 4 -1 c 5 2 c 4 -1 c 5 1 c 4 3 c 4 3 c 5 26 c
4 30 c 4 19 c 5 -18 c 4 -29 c 5 -23 c 4 -9 c 4 -4 c 5 1 c 4 -2 c 4 4 c 5 5 c 4 -1 c 5 -4 c 4 4 c 4 -6 c 5 1 c 4 5 c 4 -3 c 5 -2 c
4 0 c 4 0 c 5 -2 c 4 0 c 5 4 c 4 0 c 4 1 c 5 -2 c 4 2 c 4 -2 c 5 -1 c 4 0 c 5 0 c 4 1 c 4 1 c 5 -7 c 4 6 c 4 -1 c 5 0 c 4 1 c 5 2 c
4 0 c 4 -3 c 5 -1 c 4 1 c 4 -3 c 5 4 c 4 1 c 5 -4 c 4 1 c 4 2 c 5 1 c 4 -1 c 4 3 c 5 -2 c 4 5 c 4 -6 c 5 4 c 4 2 c 5 0 c 4 2 c
4 -2 c 5 0 c 4 -4 c 4 0 c 5 3 c 4 -3 c 5 1 c 4 -1 c 4 2 c 5 -1 c 4 2 c 4 23 c 5 72 c 4 68 c 5 40 c 4 -39 c 4 -47 c 5 -54 c 4 -32 c
4 -27 c 5 -6 c 4 -4 c 5 1 c 4 7 c 4 -9 c 5 8 c 4 -4 c 4 -1 c 5 0 c 4 9 c 4 23 c 5 35 c 4 3 c 5 -16 c 4 -24 c 4 -25 c 5 -5 c 4 8 c
4 37 c 5 44 c 4 17 c 5 -32 c 4 -38 c 4 -14 c 5 18 c 4 43 c 4 31 c 5 -8 c 4 -43 c 5 -37 c 4 -21 c 4 1 c 5 -2 c 4 -5 c 4 7 c 5 -1 c
4 0 c 5 -2 c 4 -1 c 4 -1 c 5 1 c 4 0 c 4 0 c 5 1 c 4 3 c 4 5 c 5 -1 c 4 25 c 5 119 c 4 162 c 4 99 c 5 -103 c 4 -169 c 4 -117 c
5 -20 c 4 -2 c 5 -1 c 4 -5 c 4 -1 c 5 -3 c 4 -1 c 4 0 c 5 2 c 4 -3 c 5 4 c 4 -1 c 4 -7 c 5 2 c 4 -3 c 4 -2 c 5 5 c 4 -4 c 5 3 c
4 -1 c 4 -1 c 5 0 c 4 -3 c 4 1 c 5 3 c 4 -2 c 4 0 c 5 1 c 4 -1 c 5 -1 c 4 1 c 4 5 c 5 -2 c 4 0 c 4 0 c 5 -2 c 4 0 c 5 -5 c 4 3 c
4 16 c 5 47 c 4 37 c 4 10 c 5 -38 c 4 -40 c 5 -21 c 4 -7 c 4 -7 c 5 7 c 4 0 c 4 -3 c 5 3 c 4 -2 c 4 -2 c 5 5 c 4 -4 c 5 2 c 4 1 c
4 15 c 5 88 c 4 313 c 4 352 c 1 5303 c 4 -5938 4369 7019 l 4 -81 c 5 -3 c 4 -8 c 5 -3 c 4 -1 c 4 -2 c 5 -4 c 4 -1 c 4 3 c 5 0 c
4 15 c 5 38 c 4 16 c 4 -19 c 5 -30 c 4 -26 c 4 -10 c 5 -1 c 4 0 c 4 -5 c 5 3 c 4 6 c 5 1 c 4 -6 c 4 -4 c 5 2 c 4 -2 c 4 2 c 5 0 c
4 0 c 5 1 c 4 -2 c 4 0 c 5 -3 c 4 7 c 4 -6 c 5 1 c 4 1 c 5 -2 c 4 -1 c 4 0 c 5 -1 c 4 2 c 4 -3 c 5 7 c 4 -1 c 5 -4 c 4 -2 c 4 0 c
5 -1 c 4 -1 c 4 4 c 5 -5 c 4 2 c 4 -4 c 5 2 c 4 0 c 5 2 c 4 4 c 4 -1 c 5 3 c 4 -8 c 4 3 c 5 -2 c 4 1 c 5 2 c 4 1 c 4 17 c 5 17 c
4 4 c 4 -14 c 5 -17 c 4 -9 c 5 1 c 4 12 c 4 75 c 5 149 c 4 106 c 4 -33 c 5 -139 c 4 -118 c 5 -11 c 4 40 c 4 27 c 5 -9 c 4 -41 c
4 -27 c 5 89 c 4 420 c 4 561 c 5 328 c 4 -319 c 5 -592 c 4 -419 c 4 -78 c 5 -12 c 4 -7 c 4 -6 c 5 3 c 4 -4 c 5 2 c 4 -1 c 4 2 c
5 10 c 4 21 c 4 14 c 5 -4 c 4 -19 c 5 -16 c 4 -5 c 4 3 c 5 4 c 4 4 c 4 4 c 5 0 c 4 -9 c 5 -6 c 4 -2 c 4 -4 c 5 -2 c 4 0 c 4 5 c
5 0 c 4 -3 c 4 2 c 5 5 c 4 15 c 5 33 c 4 22 c 4 -6 c 5 -32 c 4 -26 c 4 -8 c 5 -3 c 4 0 c 5 1 c 4 3 c 4 -3 c 5 3 c 4 -3 c 4 0 c 5 1 c
4 3 c 5 3 c 4 0 c 4 3 c 5 0 c 4 0 c 4 3 c 5 1 c 4 22 c 4 -1 c 5 -13 c 4 26 c 5 107 c 4 140 c 4 50 c 5 -102 c 4 -136 c 4 -79 c
5 -17 c 4 -2 c 5 3 c 4 0 c 4 -1 c 5 -1 c 4 2 c 4 -4 c 5 5 c 4 1 c 5 3 c 4 -1 c 4 -4 c 5 2 c 4 0 c 4 6 c 5 -1 c 4 5 c 5 -2 c 4 4 c
4 -1 c 5 2 c 4 2 c 4 2 c 5 -1 c 4 3 c 4 0 c 5 0 c 4 5 c 5 -2 c 4 0 c 4 -1 c 5 1 c 4 7 c 4 8 c 5 0 c 4 -7 c 5 -3 c 4 6 c 4 -1 c 5 0 c
4 2 c 4 3 c 5 -7 c 4 5 c 5 1 c 4 3 c 4 4 c 5 -3 c 4 3 c 4 4 c 5 3 c 4 2 c 5 0 c 4 2 c 4 2 c 5 -3 c 4 -2 c 4 9 c 5 4 c 4 4 c 4 2 c
5 3 c 4 5 c 5 3 c 4 2 c 4 3 c 5 4 c 4 8 c 4 -2 c 5 5 c 4 4 c 5 13 c 4 9 c 4 -3 c 5 4 c 4 7 c 4 -3 c 5 4 c 4 1 c 5 10 c 4 6 c 4 12 c
5 11 c 4 4 c 4 0 c 5 10 c 4 7 c 5 10 c 4 41 c 4 24 c 5 4 c 4 -4 c 4 -13 c 5 13 c 4 12 c 4 22 c 5 25 c 4 14 c 5 16 c 4 -4 c 4 11 c
5 8 c 4 11 c 4 7 c 5 8 c 4 47 c 5 28 c 4 9 c 4 18 c 5 4 c 4 44 c 4 56 c 5 16 c 4 31 c 5 21 c 4 16 c 4 30 c 5 24 c 4 54 c 4 62 c
5 48 c 4 41 c 4 50 c 5 89 c 4 145 c 5 202 c 4 120 c 4 -29 c 5 -89 c 4 -25 c 4 67 c 5 118 c 4 59 c 5 27 c 4 133 c 4 93 c 5 82 c
4 54 c 4 142 c 5 133 c 4 150 c 5 60 c 4 -2695 c 4 2988 c 5 158 c 4 66 c 4 187 c 5 236 c 4 201 c 5 109 c 4 193 c 4 244 c 5 298 c
4 212 c 4 249 c 5 233 c 4 242 c 4 600 c 3 -313 5944 7019 l 4 -308 c 4 -51 c 5 -276 c 4 -367 c 5 -295 c 4 -255 c 4 -247 c 5 -207 c
4 -123 c 4 -121 c 5 -115 c 4 -210 c 5 -231 c 4 -56 c 4 -140 c 5 -152 c 4 -151 c 4 -60 c 5 -104 c 4 -151 c 5 -68 c 4 -30 c 4 -87 c
5 -142 c 4 -121 c 4 -110 c 5 -54 c 4 -71 c 4 -70 c 5 -43 c 4 -41 c 5 -70 c 4 -63 c 4 -45 c 5 -72 c 4 -49 c 4 -53 c 5 -47 c 4 -34 c
5 -12 c 4 -29 c 4 -27 c 5 -29 c 4 -47 c 4 -51 c 5 -21 c 4 -25 c 5 -14 c 4 -17 c 4 -21 c 5 -19 c 4 -37 c 4 -7 c 5 -16 c 4 -21 c
5 -15 c 4 -12 c 4 -25 c 5 -20 c 4 -14 c 4 -9 c 5 -14 c 4 -3 c 4 -11 c 5 -10 c 4 75 c 5 330 c 4 590 c 4 325 c 5 -282 c 4 -632 c
4 -406 c 5 -68 c 4 -25 c 5 -4 c 4 -2 c 4 -7 c 5 -4 c 4 7 c 4 -7 c 5 -16 c 4 -6 c 5 -7 c 4 -12 c 4 -12 c 5 -4 c 4 -9 c 4 -5 c 5 5 c
4 2 c 4 -3 c 5 -7 c 4 -5 c 5 -9 c 4 5 c 4 10 c 5 -3 c 4 -13 c 4 -15 c 5 -2 c 4 5 c 5 0 c 4 -2 c 4 -3 c 5 -7 c 4 -3 c 4 -2 c 5 -4 c
4 -4 c 5 2 c 4 -3 c 4 2 c 5 -1 c 4 -3 c 4 2 c 5 -2 c 4 48 c 5 277 c 4 582 c 4 364 c 5 -113 c 4 -596 c 4 -479 c 5 -94 c 4 -11 c
4 -6 c 5 -3 c 4 -2 c 5 3 c 4 -2 c 4 1 c 5 -2 c 4 0 c 4 -3 c 5 -6 c 4 3 c 5 3 c 4 -2 c 4 1 c 5 4 c 4 3 c 4 0 c 5 -6 c 4 -6 c 5 0 c
4 -3 c 4 -5 c 5 2 c 4 -5 c 4 -1 c 5 1 c 4 2 c 5 -4 c 4 -2 c 4 2 c 5 -3 c 4 1 c 4 2 c 5 -5 c 4 0 c 4 -1 c 5 3 c 4 -2 c 5 2 c 4 -4 c
4 1 c 5 3 c 4 1 c 4 5 c 5 1 c 4 0 c 5 0 c 4 4 c 4 6 c 5 -10 c 4 -4 c 4 -10 c 5 3 c 4 -2 c 5 0 c 4 -1 c 4 2 c 5 6 c 4 3 c 4 -2 c
5 -9 c 4 1 c 5 0 c 4 -3 c 4 -6 c 5 2 c 4 1 c 4 3 c 5 -1 c 4 0 c 4 -1 c 5 -4 c 4 0 c 5 4 c 4 6 c 4 -3 c 5 2 c 4 -3 c 4 2 c 5 -2 c
4 0 c 5 -2 c 4 2 c 4 -3 c 5 -2 c 4 1 c 4 0 c 5 -2 c 4 1 c 5 -2 c 4 -2 c 4 2 c 5 -1 c 4 4 c 4 -1 c 5 1 c 4 0 c 5 -1 c 4 3 c 4 5 c
5 -1 c 4 -2 c 4 -3 c 5 0 c 4 5 c 4 9 c 5 2 c 4 -3 c 5 0 c 4 -5 c 4 4 c 5 -4 c 4 -2 c 4 -2 c 5 4 c 4 2 c 5 10 c 4 -3 c 4 -4 c 5 -4 c
4 1 c 4 -3 c 5 1 c 4 -3 c 5 0 c 4 -1 c 4 0 c 5 1 c 4 -2 c 4 3 c 5 -1 c 4 4 c 4 1 c 5 4 c 4 -4 c 5 -6 c 4 -4 c 4 2 c 5 -1 c 4 1 c
4 3 c 5 -2 c 4 -2 c 5 1 c 4 -3 c 4 -3 c 5 2 c 4 -4 c 4 6 c 5 -3 c 4 0 c 5 0 c 4 1 c 4 -3 c 5 -4 c 4 3 c 4 -2 c 5 2 c 4 1 c 5 -2 c
4 0 c 4 2 c 5 8 c 4 11 c 4 -5 c 5 -8 c 4 -9 c 4 -1 c 5 -5 c 4 10 c 5 -1 c 4 5 c 4 -4 c 5 -3 c 4 -2 c 4 0 c 5 1 c 4 -2 c 5 -5 c 4 3 c
4 2 c 5 0 c 4 -2 c 4 3 c 5 -1 c 4 -1 c 5 4 c 4 0 c 4 8 c 5 8 c 4 8 c 4 9 c 5 64 c 4 173 c 5 206 c 4 -3 c 4 -164 c 5 -242 c 4 -66 c
4 -2 c 5 -1 c 4 -3 c 4 4 c 5 -6 c 4 4 c 5 1 c 4 2 c 4 4 c 5 -2 c 4 -5 c 4 1 c 5 -2 c 4 2 c 5 -5 c 4 2 c 4 1 c 5 3 c 4 5 c 4 27 c
5 99 c 4 114 c 5 0 c 4 -69 c 4 -118 c 5 -43 c 4 -11 c 4 -7 c 5 1 c 4 2 c 5 -1 c 4 -1 c 4 4 c 5 -2 c 4 -2 c 4 4 c 5 14 c 4 0 c 4 2 c
5 -6 c 4 -7 c 5 0 c 4 6 c 4 2 c 5 2 c 4 5 c 4 1 c 5 -3 c 4 -4 c 5 -5 c 4 -4 c 4 1 c 5 1 c 4 -3 c 4 3 c 5 10 c 4 7 c 5 -8 c 4 0 c
4 -11 c 5 0 c 4 4 c 4 -1 c 5 -5 c 4 -2 c 5 0 c 4 1 c 4 -1 c 5 -1 c 4 0 c 4 0 c 5 -2 c 4 3 c 4 1 c 5 -1 c 4 -3 c 5 0 c 4 -2 c 4 -1 c
5 2 c 4 -2 c 4 4 c 5 3 c 4 7 c 5 10 c 4 6 c 4 -14 c 5 -4 c 4 -4 c 4 -4 c 5 -3 c 4 4 c 5 -4 c 4 1 c 4 -1 c 5 -1 c 4 9 c 4 10 c 5 8 c
4 -7 c 4 -19 c 5 1 c 4 13 c 5 30 c 4 39 c 4 10 c 5 -32 c 4 -48 c 4 -9 c 5 -4 c 4 -2 c 5 4 c 4 4 c 4 5 c 5 2 c 4 0 c 4 -3 c 5 -6 c
4 -4 c 5 3 c 4 0 c 4 8 c 5 2 c 4 0 c 4 -6 c 5 5 c 4 7 c 5 6 c 4 0 c 4 -7 c 5 -10 c 4 5 c 4 -1 c 5 3 c 4 -1 c 4 2 c 5 -3 c 4 0 c
5 3 c 4 -1 c 4 -1 c 5 2 c 4 1 c 4 1 c 5 0 c 4 -3 c 5 3 c 4 -2 c 4 4 c 5 1 c 4 1 c 4 0 c 5 -3 c 4 1 c 5 -2 c 4 0 c 4 2 c 5 2 c 4 -2 c
4 9 c 5 20 c 4 5 c 5 -4 c 4 -16 c 4 -11 c 5 -4 c 4 -6 c 4 2 c 5 -4 c 4 2 c 4 0 c 5 0 c 4 -2 c 5 3 c 4 1 c 4 19 c 5 11 c 4 1 c
4 -15 c 5 -15 c 4 1 c 5 6 c 4 4 c 4 -4 c 5 -4 c 4 -6 c 4 -7 c 5 3 c 4 1 c 5 -4 c 4 2 c 4 1 c 5 -1 c 4 1 c 4 2 c 5 5 c 4 5 c 5 1 c
4 -4 c 4 -1 c 5 -8 c 4 -1 c 4 0 c 5 5 c 4 10 c 4 -3 c 5 -6 c 4 -6 c 5 0 c 4 -2 c 4 3 c 5 4 c 4 0 c 4 -4 c 5 1 c 4 4 c 5 1 c 4 -1 c
4 -3 c 5 -4 c 4 0 c 4 0 c 5 -1 c 4 2 c 5 -3 c 4 -2 c 4 3 c 5 -3 c 4 2 c 4 -2 c 5 -3 c 4 2 c 4 3 c 5 -5 c 4 3 c 5 -2 c 4 -1 c 4 3 c
5 3 c 4 -3 c 4 0 c 5 2 c 4 2 c 5 -8 c 4 0 c 4 -1 c 5 2 c 4 -1 c 4 2 c 5 1 c 4 2 c 5 -4 c 4 1 c 4 2 c 5 -2 c 4 0 c 4 1 c 5 0 c 4 1 c
5 0 c 4 1 c 4 -1 c 5 4 c 4 -1 c 4 4 c 5 10 c 4 41 c 4 71 c 5 41 c 4 -26 c 5 -71 c 4 -55 c 4 -10 c 5 1 c 4 3 c 4 -1 c 5 -2 c 4 0 c
5 0 c 4 2 c 4 -2 c 5 4 c 4 -4 c 4 4 c 5 2 c 4 9 c 5 -2 c 4 -6 c 4 -10 c 5 -4 c 4 2 c 4 0 c 5 -1 c 4 -2 c 5 -3 c 4 0 c 4 1 c 5 -1 c
4 -1 c 4 -2 c 5 4 c 4 -2 c 4 1 c 5 -4 c 4 0 c 5 -3 c 4 -1 c 4 2 c 5 0 c 4 -2 c 4 -1 c 5 0 c 4 0 c 5 -2 c 4 3 c 4 0 c 5 -3 c 4 -1 c
4 2 c 5 0 c 4 3 c 5 0 c 4 -1 c 4 8 c 5 1 c 4 1 c 4 -6 c 5 -2 c 4 -4 c 5 2 c 4 -2 c 4 -1 c 5 -3 c 4 5 c 4 0 c 5 1 c 4 3 c 4 0 c 5 1 c
4 0 c 5 3 c 4 6 c 4 0 c 5 2 c 4 -8 c 4 -4 c 5 -1 c 4 -1 c 5 2 c 4 -2 c 4 0 c 5 2 c 4 4 c 4 -2 c 5 -2 c 4 3 c 5 23 c 4 42 c 4 11 c
5 -17 c 4 -44 c 4 -22 c 5 -1 c 4 -2 c 5 1 c 4 -1 c 4 2 c 5 -2 c 4 4 c 4 0 c 5 6 c 4 22 c 4 25 c 5 4 c 4 -21 c 5 -21 c 4 22 c 4 30 c
5 -6 c 4 -24 c 4 -39 c 5 -4 c 4 2 c 5 -5 c 4 -3 c 4 2 c 5 -4 c 4 2 c 4 -2 c 5 0 c 4 1 c 5 1 c 4 -2 c 4 2 c 5 4 c 4 1 c 4 -1 c 5 -5 c
4 1 c 4 1 c 5 1 c 4 -2 c 5 4 c 4 5 c 4 0 c 5 0 c 4 -2 c 4 -1 c 5 7 c 4 -1 c 5 5 c 4 -3 c 4 13 c 5 43 c 4 52 c 4 8 c 5 -45 c 4 -57 c
5 -18 c 4 2 c 4 -3 c 5 4 c 4 -1 c 4 0 c 5 0 c 4 -2 c 5 2 c 4 -1 c 4 0 c 5 3 c 4 -2 c 4 2 c 5 -2 c 4 2 c 4 0 c 5 -3 c 4 -1 c 5 1 c
4 -2 c 4 1 c 5 -5 c 4 1 c 4 -3 c 5 1 c 4 -7 c 5 2 c 4 -1 c 4 -1 c 5 2 c 4 1 c 4 0 c 5 -4 c 4 0 c 5 -3 c 4 -5 c 4 3 c 5 1 c 4 3 c
4 7 c 5 1 c 4 0 c 5 -11 c 4 3 c 4 -1 c 5 0 c 4 -2 c 4 -3 c 5 -1 c 4 -4 c 4 3 c 5 6 c 4 3 c 5 -4 c 4 -2 c 4 -4 c 5 -1 c 4 -2 c 4 4 c
5 1 c 4 3 c 5 -1 c 4 -3 c 4 -2 c 5 4 c 4 -1 c 4 -2 c 5 0 c 4 8 c 5 1 c 4 8 c 4 0 c 5 -3 c 4 -3 c 4 -5 c
5 -1 c 4 0 c 5 -2 c 4 -1 c 4 -135 c 5 0 c 4 131 c 4 -2 c 5 2 c 4 1 c 4 5 c 5 -5 c 4 1 c 5 -3 c 4 3 c 4 -1 c 5 3 c 4 5 c 4 0 c 5 -2 c
4 2 c 5 -3 c 4 1 c 4 -2 c 5 1 c 4 3 c 4 5 c 5 0 c 4 2 c 5 -7 c 4 -3 c 4 1 c 5 4 c 4 2 c 4 -5 c 5 1 c 4 0 c 5 6 c 4 -3 c 4 3 c 5 0 c
4 2 c 4 9 c 5 6 c 4 1 c
0 -126 3303 418 l 54 0 3303 418 l 18 -6 c 6 -6 c 6 -12 c 0 -12 c -6 -12 c -6 -6 c -18 -6 c -54 0 c 42 -66 3345 358 l
-12 -6 3453 376 l -12 -12 c -6 -18 c 0 -12 c 6 -18 c 12 -12 c 12 -6 c 18 0 c 12 6 c 12 12 c 6 18 c 0 12 c -6 18 c -12 12 c -12 6 c
-18 0 c 24 -84 3537 376 l -24 -84 3585 376 l 24 -84 3585 376 l -24 -84 3633 376 l 108 0 3675 364 l 108 0 3675 328 l 12 6 3939 394 l
18 18 c 0 -126 c -6 -18 4119 376 l -12 -12 c -18 -6 c -6 0 c -18 6 c -12 12 c -6 18 c 0 6 c 6 18 c 12 12 c 18 6 c 6 0 c 18 -6 c
12 -12 c 6 -24 c 0 -30 c -6 -30 c -12 -18 c -18 -6 c -12 0 c -18 6 c -6 12 c -12 -6 4287 376 l -12 -12 c -6 -18 c 0 -12 c 6 -18 c
12 -12 c 12 -6 c 18 0 c 12 6 c 12 12 c 6 18 c 0 12 c -6 18 c -12 12 c -12 6 c -18 0 c -12 0 4413 418 l -12 -6 c -6 -18 c 0 -102 c
42 0 4365 376 l 0 6 4545 388 l 6 12 c 6 6 c 12 6 c 24 0 c 12 -6 c 6 -6 c 6 -12 c 0 -12 c -6 -12 c -12 -18 c -60 -60 c 84 0 c
-18 -6 4695 418 l -12 -18 c -6 -30 c 0 -18 c 6 -30 c 12 -18 c 18 -6 c 12 0 c 18 6 c 12 18 c 6 30 c 0 18 c -6 30 c -12 18 c -18 6 c
-12 0 c 12 6 5181 394 l 18 18 c 0 -126 c -6 -6 5294 376 l 6 -6 c 6 6 c -6 6 c -6 -6 5294 304 l 6 -6 c 6 6 c -6 6 c
-48 -126 5474 418 l 48 -126 5474 418 l 60 0 5444 334 l 0 -84 5552 376 l 6 18 5552 340 l 12 12 c 12 6 c 18 0 c -12 12 5696 358 l
-12 6 c -18 0 c -12 -6 c -12 -12 c -6 -18 c 0 -12 c 6 -18 c 12 -12 c 12 -6 c 18 0 c 12 6 c 12 12 c 108 0 5738 346 l 12 6 5906 394 l
18 18 c 0 -126 c 66 0 6020 418 l -36 -48 c 18 0 c 12 -6 c 6 -6 c 6 -18 c 0 -12 c -6 -18 c -12 -12 c -18 -6 c -18 0 c -18 6 c -6 6 c
-6 12 c -60 -126 6212 418 l 84 0 6128 418 l -6 -6 6260 304 l 6 -6 c 6 6 c -6 6 c -12 0 6350 418 l -12 -6 c -6 -18 c 0 -102 c
42 0 6302 376 l 6 -6 6380 418 l 6 6 c -6 6 c -6 -6 c 0 -84 6386 376 l 0 -102 6440 418 l 6 -18 c 12 -6 c 12 0 c 42 0 6422 376 l
-6 12 6566 358 l -18 6 c -18 0 c -18 -6 c -6 -12 c 6 -12 c 12 -6 c 30 -6 c 12 -6 c 6 -12 c 0 -6 c -6 -12 c -18 -6 c -18 0 c -18 6 c
-6 12 c 0 -192 6896 442 l 0 -192 6902 442 l 42 0 6896 442 l 42 0 6896 250 l 0 6 6980 388 l 6 12 c 6 6 c 12 6 c 24 0 c 12 -6 c 6 -6 c
6 -12 c 0 -12 c -6 -12 c -12 -18 c -60 -60 c 84 0 c -6 -6 7106 376 l 6 -6 c 6 6 c -6 6 c -6 -6 7106 304 l 6 -6 c 6 6 c -6 6 c
0 -192 7286 442 l 0 -192 7292 442 l 42 0 7250 442 l 42 0 7250 250 l
0 -250 814 2335 l 79 -38 771 2459 l 0 53 771 2406 l -8 -4 782 2531 l -3 -11 c 0 -8 c 3 -11 c 12 -7 c 19 -4 c 19 0 c 15 4 c 7 7 c
4 11 c 0 4 c -4 12 c -7 7 c -12 4 c -3 0 c -12 -4 c -7 -7 c -4 -12 c 0 -4 c 4 -11 c 7 -7 c 12 -4 c 0 -38 771 2603 l 34 -4 c -4 4 c
-4 11 c 0 12 c 4 11 c 8 8 c 11 3 c 7 0 c 12 -3 c 7 -8 c 4 -11 c 0 -12 c -4 -11 c -3 -4 c -8 -3 c 3 -11 771 2652 l 8 -4 c 8 0 c 7 4 c
4 7 c 4 15 c 4 12 c 7 7 c 8 4 c 11 0 c 8 -4 c 3 -4 c 4 -11 c 0 -15 c -4 -11 c -3 -4 c -8 -4 c -11 0 c -8 4 c -7 7 c -4 12 c -4 15 c
-4 7 c -7 4 c -8 0 c -8 -4 c -3 -11 c 0 -15 c 3 -3 843 2716 l 4 3 c -4 4 c -3 -4 c 0 42 771 2754 l 30 -23 c 0 11 c 4 8 c 4 4 c
11 3 c 7 0 c 12 -3 c 7 -8 c 4 -11 c 0 -12 c -4 -11 c -3 -4 c -8 -3 c -4 0 790 2826 l -8 4 c -4 3 c -3 8 c 0 15 c 3 8 c 4 3 c 8 4 c
7 0 c 8 -4 c 11 -7 c 38 -38 c 0 53 c 0 -38 771 2943 l 34 -4 c -4 4 c -4 12 c 0 11 c 4 11 c 8 8 c 11 4 c 7 0 c 12 -4 c 7 -8 c 4 -11 c
0 -11 c -4 -12 c -3 -4 c -8 -3 c 0 -250 941 1500 l 80 -38 897 1624 l 0 53 897 1571 l -8 -4 909 1696 l -4 -11 c 0 -8 c 4 -11 c
11 -7 c 19 -4 c 19 0 c 15 4 c 8 7 c 4 11 c 0 4 c -4 12 c -8 7 c -11 4 c -4 0 c -11 -4 c -8 -7 c -4 -12 c 0 -4 c 4 -11 c 8 -7 c
11 -4 c -8 -4 909 1772 l -4 -11 c 0 -8 c 4 -11 c 11 -8 c 19 -4 c 19 0 c 15 4 c 8 8 c 4 11 c 0 4 c -4 11 c -8 8 c -11 3 c -4 0 c
-11 -3 c -8 -8 c -4 -11 c 0 -4 c 4 -11 c 8 -8 c 11 -4 c 4 -12 897 1821 l 11 -7 c 19 -4 c 12 0 c 18 4 c 12 7 c 4 12 c 0 7 c -4 12 c
-12 7 c -18 4 c -12 0 c -19 -4 c -11 -7 c -4 -12 c 0 -7 c 4 -3 969 1881 l 4 3 c -4 4 c -4 -4 c 4 -11 897 1934 l 11 -8 c 19 -3 c
12 0 c 18 3 c 12 8 c 4 11 c 0 8 c -4 11 c -12 8 c -18 3 c -12 0 c -19 -3 c -11 -8 c -4 -11 c 0 -8 c -4 0 916 1991 l -7 4 c -4 3 c
-4 8 c 0 15 c 4 8 c 4 3 c 7 4 c 8 0 c 7 -4 c 12 -7 c 38 -38 c 0 53 c 0 42 897 2070 l 30 -23 c 0 11 c 4 8 c 4 4 c 11 4 c 8 0 c
11 -4 c 8 -8 c 4 -11 c 0 -11 c -4 -12 c -4 -4 c -8 -3 c 0 -250 1005 1905 l 79 -37 962 2029 l 0 53 962 1976 l -8 -4 973 2101 l
-3 -11 c 0 -8 c 3 -11 c 12 -7 c 19 -4 c 19 0 c 15 4 c 7 7 c 4 11 c 0 4 c -4 12 c -7 7 c -12 4 c -3 0 c -12 -4 c -7 -7 c -4 -12 c
0 -4 c 4 -11 c 7 -7 c 12 -4 c -8 -4 973 2177 l -3 -11 c 0 -8 c 3 -11 c 12 -8 c 19 -4 c 19 0 c 15 4 c 7 8 c 4 11 c 0 4 c -4 11 c
-7 8 c -12 4 c -3 0 c -12 -4 c -7 -8 c -4 -11 c 0 -4 c 4 -11 c 7 -8 c 12 -4 c 3 -11 962 2226 l 12 -8 c 19 -4 c 11 0 c 19 4 c 11 8 c
4 11 c 0 7 c -4 12 c -11 7 c -19 4 c -11 0 c -19 -4 c -12 -7 c -3 -12 c 0 -7 c 4 -3 1033 2286 l 4 3 c -4 4 c -4 -4 c
3 -11 962 2335 l 8 -4 c 8 0 c 7 4 c 4 8 c 4 15 c 3 11 c 8 8 c 8 4 c 11 0 c 7 -4 c 4 -4 c 4 -11 c 0 -16 c -4 -11 c -4 -4 c -7 -3 c
-11 0 c -8 3 c -8 8 c -3 11 c -4 15 c -4 8 c -7 4 c -8 0 c -8 -4 c -3 -11 c 0 -16 c 11 -3 988 2441 l 8 -8 c 4 -11 c 0 -4 c -4 -11 c
-8 -8 c -11 -4 c -4 0 c -11 4 c -8 8 c -3 11 c 0 4 c 3 11 c 8 8 c 15 3 c 19 0 c 19 -3 c 11 -8 c 4 -11 c 0 -8 c -4 -11 c -7 -4 c
3 -11 962 2490 l 12 -7 c 19 -4 c 11 0 c 19 4 c 11 7 c 4 11 c 0 8 c -4 11 c -11 8 c -19 4 c -11 0 c -19 -4 c -12 -8 c -3 -11 c 0 -8 c
0 -250 1691 3018 l 79 -38 1648 3143 l 0 53 1648 3090 l -7 -3 1659 3214 l -4 -12 c 0 -7 c 4 -12 c 11 -7 c 19 -4 c 19 0 c 15 4 c 7 7 c
4 12 c 0 4 c -4 11 c -7 7 c -11 4 c -4 0 c -12 -4 c -7 -7 c -4 -11 c 0 -4 c 4 -12 c 7 -7 c 12 -4 c 79 -38 1648 3294 l
0 53 1648 3241 l 4 -11 1648 3339 l 11 -8 c 19 -4 c 11 0 c 19 4 c 11 8 c 4 11 c 0 8 c -4 11 c -11 8 c -19 3 c -11 0 c -19 -3 c
-11 -8 c -4 -11 c 0 -8 c 3 -4 1720 3400 l 4 4 c -4 3 c -3 -3 c 4 -12 1648 3453 l 11 -7 c 19 -4 c 11 0 c 19 4 c 11 7 c 4 12 c 0 7 c
-4 11 c -11 8 c -19 4 c -11 0 c -19 -4 c -11 -8 c -4 -11 c 0 -7 c 0 -38 1648 3551 l 34 -4 c -4 4 c -4 11 c 0 12 c 4 11 c 8 8 c
11 3 c 8 0 c 11 -3 c 7 -8 c 4 -11 c 0 -12 c -4 -11 c -3 -4 c -8 -4 c 79 -38 1648 3634 l 0 53 1648 3581 l 0 -250 2156 2855 l
79 -37 2112 2979 l 0 53 2112 2926 l -7 -4 2123 3051 l -4 -11 c 0 -8 c 4 -11 c 11 -7 c 19 -4 c 19 0 c 15 4 c 8 7 c 3 11 c 0 4 c
-3 12 c -8 7 c -11 4 c -4 0 c -11 -4 c -8 -7 c -4 -12 c 0 -4 c 4 -11 c 8 -7 c 11 -4 c 79 -38 2112 3131 l 0 53 2112 3078 l
-7 -3 2123 3202 l -4 -12 c 0 -7 c 4 -12 c 11 -7 c 19 -4 c 19 0 c 15 4 c 8 7 c 3 12 c 0 3 c -3 12 c -8 7 c -11 4 c -4 0 c -11 -4 c
-8 -7 c -4 -12 c 0 -3 c 4 -12 c 8 -7 c 11 -4 c 4 -3 2184 3236 l 3 3 c -3 4 c -4 -4 c -4 0 2131 3270 l -7 4 c -4 4 c -4 7 c 0 16 c
4 7 c 4 4 c 7 4 c 8 0 c 7 -4 c 12 -8 c 37 -37 c 0 52 c -4 0 2131 3346 l -7 4 c -4 4 c -4 7 c 0 15 c 4 8 c 4 4 c 7 3 c 8 0 c 7 -3 c
12 -8 c 37 -38 c 0 53 c 4 -11 2112 3440 l 11 -7 c 19 -4 c 11 0 c 19 4 c 12 7 c 3 11 c 0 8 c -3 11 c -12 8 c -19 4 c -11 0 c -19 -4 c
-11 -8 c -4 -11 c 0 -8 c 0 -249 2672 1492 l 79 -38 2628 1617 l 0 53 2628 1564 l -7 -4 2639 1689 l -4 -11 c 0 -8 c 4 -11 c 11 -8 c
19 -4 c 19 0 c 15 4 c 7 8 c 4 11 c 0 4 c -4 11 c -7 8 c -11 3 c -4 0 c -12 -3 c -7 -8 c -4 -11 c 0 -4 c 4 -11 c 7 -8 c 12 -4 c
4 -11 2628 1734 l 7 -4 c 8 0 c 7 4 c 4 7 c 4 15 c 4 12 c 7 7 c 8 4 c 11 0 c 8 -4 c 3 -4 c 4 -11 c 0 -15 c -4 -11 c -3 -4 c -8 -4 c
-11 0 c -8 4 c -7 7 c -4 12 c -4 15 c -4 7 c -7 4 c -8 0 c -7 -4 c -4 -11 c 0 -15 c 0 42 2628 1798 l 30 -23 c 0 11 c 4 8 c 4 4 c
11 4 c 8 0 c 11 -4 c 7 -8 c 4 -11 c 0 -11 c -4 -12 c -3 -4 c -8 -3 c 3 -4 2700 1874 l 4 4 c -4 4 c -3 -4 c 4 -12 2628 1927 l 11 -7 c
19 -4 c 11 0 c 19 4 c 11 7 c 4 12 c 0 7 c -4 12 c -11 7 c -19 4 c -11 0 c -19 -4 c -11 -7 c -4 -12 c 0 -7 c -4 8 2643 1991 l
-11 11 c 79 0 c 12 -3 2654 2104 l 7 -8 c 4 -11 c 0 -4 c -4 -11 c -7 -8 c -12 -4 c -3 0 c -12 4 c -7 8 c -4 11 c 0 4 c 4 11 c 7 8 c
15 3 c 19 0 c 19 -3 c 11 -8 c 4 -11 c 0 -8 c -4 -11 c -7 -4 c 0 -250 2845 4197 l 80 -38 2801 4322 l 0 53 2801 4269 l
-8 -3 2813 4393 l -4 -12 c 0 -7 c 4 -12 c 11 -7 c 19 -4 c 19 0 c 15 4 c 8 7 c 4 12 c 0 3 c -4 12 c -8 7 c -11 4 c -4 0 c -11 -4 c
-8 -7 c -3 -12 c 0 -3 c 3 -12 c 8 -7 c 11 -4 c 4 -12 2801 4439 l 8 -3 c 7 0 c 8 3 c 4 8 c 3 15 c 4 11 c 8 8 c 7 4 c 12 0 c 7 -4 c
4 -4 c 4 -11 c 0 -15 c -4 -12 c -4 -3 c -7 -4 c -12 0 c -7 4 c -8 7 c -4 12 c -3 15 c -4 7 c -8 4 c -7 0 c -8 -4 c -4 -11 c 0 -15 c
0 -38 2801 4541 l 34 -4 c -3 4 c -4 11 c 0 12 c 4 11 c 7 8 c 12 3 c 7 0 c 11 -3 c 8 -8 c 4 -11 c 0 -12 c -4 -11 c -4 -4 c -7 -4 c
4 -4 2873 4579 l 4 4 c -4 3 c -4 -3 c 0 42 2801 4616 l 31 -23 c 0 12 c 3 7 c 4 4 c 12 4 c 7 0 c 11 -4 c 8 -8 c 4 -11 c 0 -11 c
-4 -12 c -4 -3 c -7 -4 c 4 -11 2801 4707 l 11 -8 c 19 -4 c 12 0 c 19 4 c 11 8 c 4 11 c 0 8 c -4 11 c -11 8 c -19 3 c -12 0 c
-19 -3 c -11 -8 c -4 -11 c 0 -8 c 80 -38 2801 4813 l 0 53 2801 4760 l 0 -250 3339 1444 l 80 -38 3295 1569 l 0 53 3295 1516 l
-8 -3 3307 1640 l -4 -12 c 0 -7 c 4 -12 c 11 -7 c 19 -4 c 19 0 c 15 4 c 8 7 c 4 12 c 0 4 c -4 11 c -8 7 c -11 4 c -4 0 c -11 -4 c
-8 -7 c -4 -11 c 0 -4 c 4 -12 c 8 -7 c 11 -4 c 11 -4 3322 1716 l 8 -7 c 3 -12 c 0 -3 c -3 -12 c -8 -7 c -11 -4 c -4 0 c -11 4 c
-8 7 c -4 12 c 0 3 c 4 12 c 8 7 c 15 4 c 19 0 c 18 -4 c 12 -7 c 4 -12 c 0 -7 c -4 -12 c -8 -3 c -3 7 3310 1754 l -12 12 c 80 0 c
4 -4 3367 1826 l 4 4 c -4 3 c -4 -3 c 80 -38 3295 1909 l 0 53 3295 1856 l 80 -37 3295 1984 l 0 53 3295 1931 l -3 8 3310 2018 l
-12 11 c 80 0 c 0 -250 3495 1475 l 79 -37 3451 1599 l 0 53 3451 1546 l -7 -4 3462 1671 l -4 -11 c 0 -7 c 4 -12 c 11 -7 c 19 -4 c
19 0 c 15 4 c 8 7 c 3 12 c 0 3 c -3 12 c -8 7 c -11 4 c -4 0 c -11 -4 c -8 -7 c -4 -12 c 0 -3 c 4 -12 c 8 -7 c 11 -4 c
12 -4 3477 1747 l 7 -8 c 4 -11 c 0 -4 c -4 -11 c -7 -8 c -12 -3 c -3 0 c -12 3 c -7 8 c -4 11 c 0 4 c 4 11 c 7 8 c 15 4 c 19 0 c
19 -4 c 12 -8 c 3 -11 c 0 -7 c -3 -12 c -8 -4 c 0 41 3451 1781 l 30 -22 c 0 11 c 4 8 c 4 3 c 11 4 c 8 0 c 11 -4 c 8 -7 c 3 -12 c
0 -11 c -3 -11 c -4 -4 c -8 -4 c 4 -3 3523 1856 l 3 3 c -3 4 c -4 -4 c 4 -12 3451 1906 l 7 -4 c 8 0 c 7 4 c 4 8 c 4 15 c 4 11 c
7 8 c 8 4 c 11 0 c 8 -4 c 4 -4 c 3 -11 c 0 -15 c -3 -12 c -4 -4 c -8 -3 c -11 0 c -8 3 c -7 8 c -4 11 c -4 15 c -4 8 c -7 4 c -8 0 c
-7 -4 c -4 -11 c 0 -15 c 4 -11 3451 1985 l 11 -8 c 19 -4 c 11 0 c 19 4 c 12 8 c 3 11 c 0 7 c -3 12 c -12 7 c -19 4 c -11 0 c
-19 -4 c -11 -7 c -4 -12 c 0 -7 c -4 0 3470 2042 l -7 3 c -4 4 c -4 8 c 0 15 c 4 7 c 4 4 c 7 4 c 8 0 c 7 -4 c 12 -7 c 37 -38 c
0 53 c 0 -249 4258 1491 l 80 -38 4214 1616 l 0 53 4214 1563 l 80 -37 4214 1691 l 0 52 4214 1639 l 4 -12 4214 1737 l 11 -7 c 19 -4 c
12 0 c 19 4 c 11 7 c 4 12 c 0 7 c -4 12 c -11 7 c -19 4 c -12 0 c -19 -4 c -11 -7 c -4 -12 c 0 -7 c 0 42 4214 1797 l 31 -23 c 0 12 c
3 7 c 4 4 c 11 4 c 8 0 c 11 -4 c 8 -8 c 4 -11 c 0 -11 c -4 -12 c -4 -3 c -7 -4 c 4 -4 4286 1873 l 4 4 c -4 4 c -4 -4 c
-8 -4 4226 1952 l -4 -11 c 0 -7 c 4 -12 c 11 -7 c 19 -4 c 19 0 c 15 4 c 8 7 c 4 12 c 0 3 c -4 12 c -8 7 c -11 4 c -4 0 c -11 -4 c
-8 -7 c -3 -12 c 0 -3 c 3 -12 c 8 -7 c 11 -4 c 4 -12 4214 1998 l 8 -4 c 7 0 c 8 4 c 4 8 c 3 15 c 4 11 c 8 8 c 7 4 c 12 0 c 7 -4 c
4 -4 c 4 -11 c 0 -15 c -4 -12 c -4 -4 c -7 -3 c -12 0 c -7 3 c -8 8 c -4 11 c -3 15 c -4 8 c -8 4 c -7 0 c -8 -4 c -4 -11 c 0 -15 c
0 -38 4214 2100 l 34 -4 c -3 4 c -4 11 c 0 12 c 4 11 c 7 7 c 11 4 c 8 0 c 11 -4 c 8 -7 c 4 -11 c 0 -12 c -4 -11 c -4 -4 c -7 -4 c
0 -249 4771 2821 l 80 -38 4727 2946 l 0 53 4727 2893 l 80 -38 4727 3022 l 0 53 4727 2969 l -3 7 4742 3056 l -12 12 c 80 0 c
4 -12 4727 3143 l 11 -7 c 19 -4 c 12 0 c 18 4 c 12 7 c 4 12 c 0 7 c -4 11 c -12 8 c -18 4 c -12 0 c -19 -4 c -11 -8 c -4 -11 c
0 -7 c 4 -4 4799 3203 l 4 4 c -4 4 c -4 -4 c -4 0 4746 3237 l -7 4 c -4 4 c -4 7 c 0 15 c 4 8 c 4 4 c 7 3 c 8 0 c 7 -3 c 12 -8 c
38 -38 c 0 53 c -8 -4 4739 3358 l -4 -11 c 0 -8 c 4 -11 c 11 -8 c 19 -3 c 19 0 c 15 3 c 8 8 c 4 11 c 0 4 c -4 11 c -8 8 c -11 4 c
-4 0 c -11 -4 c -8 -8 c -4 -11 c 0 -4 c 4 -11 c 8 -8 c 11 -3 c 11 -4 4754 3434 l 8 -8 c 3 -11 c 0 -4 c -3 -11 c -8 -8 c -11 -4 c
-4 0 c -11 4 c -8 8 c -4 11 c 0 4 c 4 11 c 8 8 c 15 4 c 19 0 c 18 -4 c 12 -8 c 4 -11 c 0 -8 c -4 -11 c -8 -4 c 0 -250 5059 1734 l
79 -37 5015 1858 l 0 52 5015 1806 l 79 -38 5015 1934 l 0 53 5015 1881 l -4 8 5030 1968 l -11 11 c 79 0 c 0 41 5015 2040 l 30 -22 c
0 11 c 4 8 c 4 3 c 11 4 c 8 0 c 11 -4 c 7 -7 c 4 -11 c 0 -12 c -4 -11 c -3 -4 c -8 -4 c 3 -3 5087 2115 l 4 3 c -4 4 c -3 -4 c
12 -4 5041 2195 l 7 -8 c 4 -11 c 0 -4 c -4 -11 c -7 -8 c -12 -3 c -3 0 c -12 3 c -7 8 c -4 11 c 0 4 c 4 11 c 7 8 c 15 4 c 19 0 c
19 -4 c 11 -8 c 4 -11 c 0 -7 c -4 -12 c -7 -4 c 0 41 5015 2229 l 30 -22 c 0 11 c 4 8 c 4 3 c 11 4 c 8 0 c 11 -4 c 7 -7 c 4 -11 c
0 -12 c -4 -11 c -3 -4 c -8 -4 c 4 -12 5015 2316 l 7 -3 c 8 0 c 7 3 c 4 8 c 4 15 c 4 11 c 7 8 c 8 4 c 11 0 c 8 -4 c 3 -4 c 4 -11 c
0 -15 c -4 -12 c -3 -3 c -8 -4 c -11 0 c -8 4 c -7 7 c -4 12 c -4 15 c -4 7 c -7 4 c -8 0 c -7 -4 c -4 -11 c 0 -15 c
0 -249 6248 3046 l 79 -38 6205 3171 l 0 53 6205 3118 l 79 -38 6205 3247 l 0 53 6205 3194 l -4 0 6224 3273 l -8 4 c -3 4 c -4 7 c
0 15 c 4 8 c 3 4 c 8 3 c 7 0 c 8 -3 c 11 -8 c 38 -38 c 0 53 c 4 -12 6205 3364 l 7 -3 c 8 0 c 7 3 c 4 8 c 4 15 c 4 11 c 7 8 c 8 4 c
11 0 c 8 -4 c 3 -4 c 4 -11 c 0 -15 c -4 -12 c -3 -3 c -8 -4 c -11 0 c -8 4 c -7 7 c -4 12 c -4 15 c -4 7 c -7 4 c -8 0 c -7 -4 c
-4 -11 c 0 -15 c 3 -4 6277 3428 l 4 4 c -4 4 c -3 -4 c 12 -3 6231 3507 l 7 -8 c 4 -11 c 0 -4 c -4 -11 c -7 -8 c -12 -4 c -4 0 c
-11 4 c -7 8 c -4 11 c 0 4 c 4 11 c 7 8 c 15 3 c 19 0 c 19 -3 c 11 -8 c 4 -11 c 0 -8 c -4 -11 c -7 -4 c 0 -38 6205 3579 l 34 -3 c
-4 3 c -4 12 c 0 11 c 4 11 c 8 8 c 11 4 c 7 0 c 12 -4 c 7 -8 c 4 -11 c 0 -11 c -4 -12 c -3 -3 c -8 -4 c -4 7 6220 3621 l -11 12 c
79 0 c 0 -250 6472 2759 l 79 -37 6429 2883 l 0 52 6429 2831 l 79 -38 6429 2959 l 0 53 6429 2906 l 0 42 6429 2989 l 30 -23 c 0 12 c
4 7 c 3 4 c 12 4 c 7 0 c 12 -4 c 7 -8 c 4 -11 c 0 -11 c -4 -12 c -4 -3 c -7 -4 c -4 7 6444 3069 l -11 12 c 79 0 c 4 -3 6500 3140 l
4 3 c -4 4 c -4 -4 c 79 -38 6429 3224 l 0 53 6429 3171 l 0 41 6429 3254 l 30 -22 c 0 11 c 4 8 c 3 3 c 12 4 c 7 0 c 12 -4 c 7 -7 c
4 -11 c 0 -12 c -4 -11 c -4 -4 c -7 -4 c 11 -4 6455 3371 l 8 -7 c 4 -12 c 0 -3 c -4 -12 c -8 -7 c -11 -4 c -4 0 c -11 4 c -8 7 c
-3 12 c 0 3 c 3 12 c 8 7 c 15 4 c 19 0 c 19 -4 c 11 -7 c 4 -12 c 0 -7 c -4 -12 c -7 -3 c 0 -250 7348 1887 l 80 -38 7304 2012 l
0 53 7304 1959 l 80 -38 7304 2087 l 0 53 7304 2034 l 53 -38 7304 2148 l 0 57 c 80 0 7304 2148 l -4 0 7323 2189 l -7 4 c -4 4 c
-4 7 c 0 15 c 4 8 c 4 4 c 7 4 c 8 0 c 7 -4 c 12 -8 c 38 -38 c 0 53 c 4 -4 7376 2269 l 4 4 c -4 3 c -4 -3 c 0 -38 7304 2344 l 34 -3 c
-4 3 c -3 12 c 0 11 c 3 11 c 8 8 c 11 4 c 8 0 c 11 -4 c 8 -8 c 4 -11 c 0 -11 c -4 -12 c -4 -3 c -8 -4 c -8 -4 7316 2424 l -4 -12 c
0 -7 c 4 -11 c 11 -8 c 19 -4 c 19 0 c 15 4 c 8 8 c 4 11 c 0 4 c -4 11 c -8 8 c -11 3 c -4 0 c -11 -3 c -8 -8 c -4 -11 c 0 -4 c
4 -11 c 8 -8 c 11 -4 c 0 41 7304 2458 l 30 -23 c 0 12 c 4 7 c 4 4 c 11 4 c 8 0 c 11 -4 c 8 -7 c 4 -12 c 0 -11 c -4 -11 c -4 -4 c
-8 -4 c 0 -250 8932 1481 l 80 -37 8888 1605 l 0 52 8888 1553 l 80 -38 8888 1681 l 0 53 8888 1628 l -8 -4 8900 1753 l -4 -11 c 0 -8 c
4 -11 c 11 -8 c 19 -3 c 19 0 c 15 3 c 8 8 c 4 11 c 0 4 c -4 11 c -8 8 c -11 4 c -4 0 c -11 -4 c -8 -8 c -4 -11 c 0 -4 c 4 -11 c
8 -8 c 11 -3 c -3 7 8903 1791 l -12 12 c 80 0 c 4 -4 8960 1863 l 4 4 c -4 3 c -4 -3 c 80 -38 8888 1946 l 0 53 8888 1893 l
-3 7 8903 1980 l -12 12 c 80 0 c 0 42 8888 2051 l 30 -23 c 0 12 c 4 7 c 4 4 c 11 4 c 8 0 c 11 -4 c 8 -8 c 4 -11 c 0 -11 c -4 -12 c
-4 -3 c -8 -4 c
showpage PGPLOT restore
 
%%Trailer
%%DocumentFonts: 
%%Pages: 1
%%EOF
