%!PS-Adobe-3.0 EPSF-3.0
%%For: tab
%%Title: PGPLOT PostScript plot
%%Creator: PGPLOT
%%CreationDate: 20-Apr-1995 16:41
%%BoundingBox: 25 18 587 774
%%DocumentFonts: (atend)
%%LanguageLevel: 1
%%Orientation: Landscape
%%Pages: (atend)
%%EndComments
%%BeginProlog
/l {moveto rlineto currentpoint stroke moveto} bind def
/c {rlineto currentpoint stroke moveto} bind def
/d {moveto 0 0 rlineto currentpoint stroke moveto} bind def
/SLW {5 mul setlinewidth} bind def
/SCF /pop load def
/BP {newpath moveto} bind def
/LP /rlineto load def
/EP {rlineto closepath eofill} bind def
/MB {gsave translate MFAC dup scale 1 setlinewidth 2 setlinecap 0 setlinejoin newpath} bind def
/ME /grestore load def
/C {0 360 arc stroke} bind def
/FC {0 360 arc fill} bind def
%%EndProlog
 
%%Page: 1 1
%%BeginPageSetup
/PGPLOT save def
0.072 0.072 scale
8150 250 translate 90 rotate
1 setlinejoin 1 setlinecap 1 SLW 1 SCF
%%EndPageSetup
0.000 setgray 1 SLW 8939 0 780 780 l 0 6239 c -8939 0 c 0 -6239 c 0 -45 1116 780 l 0 -45 1554 780 l 0 -45 1991 780 l
0 -45 2428 780 l 0 -90 2865 780 l 0 -45 3302 780 l 0 -45 3739 780 l 0 -45 4176 780 l 0 -45 4613 780 l 0 -90 5051 780 l
0 -45 5488 780 l 0 -45 5925 780 l 0 -45 6362 780 l 0 -45 6799 780 l 0 -90 7236 780 l 0 -45 7673 780 l 0 -45 8110 780 l
0 -45 8548 780 l 0 -45 8985 780 l 0 -90 9422 780 l 0 -45 1116 7064 l 0 -45 1554 7064 l 0 -45 1991 7064 l 0 -45 2428 7064 l
0 -90 2865 7109 l 0 -45 3302 7064 l 0 -45 3739 7064 l 0 -45 4176 7064 l 0 -45 4613 7064 l 0 -90 5051 7109 l 0 -45 5488 7064 l
0 -45 5925 7064 l 0 -45 6362 7064 l 0 -45 6799 7064 l 0 -90 7236 7109 l 0 -45 7673 7064 l 0 -45 8110 7064 l 0 -45 8548 7064 l
0 -45 8985 7064 l 0 -90 9422 7109 l -60 0 2775 672 l -6 -54 c 6 6 c 18 6 c 18 0 c 18 -6 c 12 -12 c 6 -18 c 0 -12 c -6 -18 c
-12 -12 c -18 -6 c -18 0 c -18 6 c -6 6 c -6 12 c -18 -6 2859 672 l -12 -18 c -6 -30 c 0 -18 c 6 -30 c 12 -18 c 18 -6 c 12 0 c
18 6 c 12 18 c 6 30 c 0 18 c -6 30 c -12 18 c -18 6 c -12 0 c -18 -6 2979 672 l -12 -18 c -6 -30 c 0 -18 c 6 -30 c 12 -18 c 18 -6 c
12 0 c 18 6 c 12 18 c 6 30 c 0 18 c -6 30 c -12 18 c -18 6 c -12 0 c 12 6 4847 648 l 18 18 c 0 -126 c -18 -6 4985 672 l -12 -18 c
-6 -30 c 0 -18 c 6 -30 c 12 -18 c 18 -6 c 12 0 c 18 6 c 12 18 c 6 30 c 0 18 c -6 30 c -12 18 c -18 6 c -12 0 c -18 -6 5105 672 l
-12 -18 c -6 -30 c 0 -18 c 6 -30 c 12 -18 c 18 -6 c 12 0 c 18 6 c 12 18 c 6 30 c 0 18 c -6 30 c -12 18 c -18 6 c -12 0 c
-18 -6 5225 672 l -12 -18 c -6 -30 c 0 -18 c 6 -30 c 12 -18 c 18 -6 c 12 0 c 18 6 c 12 18 c 6 30 c 0 18 c -6 30 c -12 18 c -18 6 c
-12 0 c 12 6 7032 648 l 18 18 c 0 -126 c -60 0 7206 672 l -6 -54 c 6 6 c 18 6 c 18 0 c 18 -6 c 12 -12 c 6 -18 c 0 -12 c -6 -18 c
-12 -12 c -18 -6 c -18 0 c -18 6 c -6 6 c -6 12 c -18 -6 7290 672 l -12 -18 c -6 -30 c 0 -18 c 6 -30 c 12 -18 c 18 -6 c 12 0 c
18 6 c 12 18 c 6 30 c 0 18 c -6 30 c -12 18 c -18 6 c -12 0 c -18 -6 7410 672 l -12 -18 c -6 -30 c 0 -18 c 6 -30 c 12 -18 c 18 -6 c
12 0 c 18 6 c 12 18 c 6 30 c 0 18 c -6 30 c -12 18 c -18 6 c -12 0 c 0 6 9206 642 l 6 12 c 6 6 c 12 6 c 24 0 c 12 -6 c 6 -6 c
6 -12 c 0 -12 c -6 -12 c -12 -18 c -60 -60 c 84 0 c -18 -6 9356 672 l -12 -18 c -6 -30 c 0 -18 c 6 -30 c 12 -18 c 18 -6 c 12 0 c
18 6 c 12 18 c 6 30 c 0 18 c -6 30 c -12 18 c -18 6 c -12 0 c -18 -6 9476 672 l -12 -18 c -6 -30 c 0 -18 c 6 -30 c 12 -18 c 18 -6 c
12 0 c 18 6 c 12 18 c 6 30 c 0 18 c -6 30 c -12 18 c -18 6 c -12 0 c -18 -6 9596 672 l -12 -18 c -6 -30 c 0 -18 c 6 -30 c 12 -18 c
18 -6 c 12 0 c 18 6 c 12 18 c 6 30 c 0 18 c -6 30 c -12 18 c -18 6 c -12 0 c -90 0 780 832 l -45 0 780 1180 l -45 0 780 1528 l
-45 0 780 1876 l -45 0 780 2225 l -90 0 780 2573 l -45 0 780 2921 l -45 0 780 3269 l -45 0 780 3617 l -45 0 780 3965 l
-90 0 780 4313 l -45 0 780 4661 l -45 0 780 5009 l -45 0 780 5357 l -45 0 780 5705 l -90 0 780 6053 l -45 0 780 6401 l
-45 0 780 6750 l -90 0 9809 832 l -45 0 9764 1180 l -45 0 9764 1528 l -45 0 9764 1876 l -45 0 9764 2225 l -90 0 9809 2573 l
-45 0 9764 2921 l -45 0 9764 3269 l -45 0 9764 3617 l -45 0 9764 3965 l -90 0 9809 4313 l -45 0 9764 4661 l -45 0 9764 5009 l
-45 0 9764 5357 l -45 0 9764 5705 l -90 0 9809 6053 l -45 0 9764 6401 l -45 0 9764 6750 l 6 -18 517 826 l 18 -12 c 30 -6 c 18 0 c
30 6 c 18 12 c 6 18 c 0 12 c -6 18 c -18 12 c -30 6 c -18 0 c -30 -6 c -18 -12 c -6 -18 c 0 -12 c -6 12 541 2453 l -18 18 c 126 0 c
6 -18 517 2591 l 18 -12 c 30 -6 c 18 0 c 30 6 c 18 12 c 6 18 c 0 12 c -6 18 c -18 12 c -30 6 c -18 0 c -30 -6 c -18 -12 c -6 -18 c
0 -12 c 63 -45 453 2715 l 0 68 c 94 0 453 2715 l -6 0 547 4055 l -12 6 c -6 6 c -6 12 c 0 24 c 6 12 c 6 6 c 12 6 c 12 0 c 12 -6 c
18 -12 c 60 -60 c 0 84 c 84 84 547 4175 l 84 -84 547 4259 l -6 12 541 4319 l -18 18 c 126 0 c 6 -18 517 4457 l 18 -12 c 30 -6 c
18 0 c 30 6 c 18 12 c 6 18 c 0 12 c -6 18 c -18 12 c -30 6 c -18 0 c -30 -6 c -18 -12 c -6 -18 c 0 -12 c 63 -45 453 4581 l 0 68 c
94 0 453 4581 l 0 66 517 5801 l 48 -36 c 0 18 c 6 12 c 6 6 c 18 6 c 12 0 c 18 -6 c 12 -12 c 6 -18 c 0 -18 c -6 -18 c -6 -6 c
-12 -6 c 84 84 547 5915 l 84 -84 547 5999 l -6 12 541 6059 l -18 18 c 126 0 c 6 -18 517 6197 l 18 -12 c 30 -6 c 18 0 c 30 6 c
18 12 c 6 18 c 0 12 c -6 18 c -18 12 c -30 6 c -18 0 c -30 -6 c -18 -12 c -6 -18 c 0 -12 c 63 -45 453 6322 l 0 67 c 94 0 453 6322 l
4 1 780 854 l 5 0 c 4 0 c 4 -1 c 5 0 c 4 0 c 4 0 c 5 -1 c 4 0 c 5 1 c 4 1 c 4 1 c 5 -1 c 4 -2 c 4 0 c 5 0 c 4 1 c 5 0 c 4 -1 c 4 0 c
5 0 c 4 0 c 4 0 c 5 1 c 4 0 c 5 0 c 4 0 c 4 0 c 5 0 c 4 1 c 4 0 c 5 3 c 4 9 c 5 41 c 4 198 c 4 531 c 5 298 c 4 -208 c 4 -555 c
5 -274 c 4 -38 c 4 -4 c 5 -1 c 4 0 c 5 0 c 4 -1 c 4 0 c 5 0 c 4 0 c 4 0 c 5 2 c 4 5 c 5 4 c 4 -1 c 4 -6 c 5 -3 c 4 -1 c 4 0 c 5 0 c
4 0 c 5 0 c 4 0 c 4 0 c 5 -1 c 4 0 c 4 1 c 5 0 c 4 -1 c 5 0 c 4 1 c 4 -1 c 5 0 c 4 0 c 4 1 c 5 0 c 4 0 c 4 0 c 5 0 c 4 -1 c 5 1 c
4 -1 c 4 1 c 5 -1 c 4 -21 c 4 0 c 5 21 c 4 0 c 5 0 c 4 0 c 4 0 c 5 1 c 4 0 c 4 0 c 5 1 c 4 0 c 5 0 c 4 0 c 4 0 c 5 -1 c 4 1 c 4 0 c
5 0 c 4 2 c 5 7 c 4 14 c 4 6 c 5 -8 c 4 -16 c 4 -5 c 5 -1 c 4 1 c 4 0 c 5 0 c 4 0 c 5 0 c 4 0 c 4 0 c 5 0 c 4 0 c 4 1 c 5 1 c 4 1 c
5 6 c 4 8 c 4 1 c 5 -7 c 4 -9 c 4 -1 c 5 0 c 4 0 c 5 0 c 4 0 c 4 1 c 5 -1 c 4 1 c 4 0 c 5 0 c 4 0 c 5 0 c 4 1 c 4 1 c 5 2 c 4 1 c
4 1 c 5 -1 c 4 1 c 4 1 c 5 -1 c 4 0 c 5 -1 c 4 2 c 4 0 c 5 6 c 2 6149 c 3 -5794 1468 7019 l 4 -338 c 4 -12 c 5 -3 c 4 2 c 4 3 c
5 1 c 4 -2 c 5 0 c 4 -3 c 4 -2 c 5 1 c 4 0 c 4 -1 c 5 0 c 4 0 c 4 2 c 5 -2 c 4 0 c 5 0 c 4 1 c 4 0 c 5 0 c 4 -2 c 4 1 c 5 1 c 4 -1 c
5 -2 c 4 3 c 4 -1 c 5 0 c 4 -2 c 4 2 c 5 1 c 4 -1 c 5 1 c 4 0 c 4 3 c 5 14 c 4 107 c 4 331 c 5 174 c 4 -110 c 5 -348 c 4 -151 c
4 -19 c 5 -2 c 4 1 c 4 2 c 5 -1 c 4 -1 c 4 -1 c 5 -2 c 4 0 c 5 2 c 4 -2 c 4 -1 c 5 1 c 4 4 c 4 1 c 5 0 c 4 -3 c 5 -2 c 4 -1 c 4 1 c
5 -1 c 4 1 c 4 0 c 5 1 c 4 -1 c 5 1 c 4 7 c 4 33 c 5 25 c 4 -6 c 4 -37 c 5 -18 c 4 5 c 5 53 c 4 239 c 4 176 c 5 -19 c 4 -266 c
4 -166 c 5 -18 c 4 20 c 4 20 c 5 -4 c 4 -27 c 5 -15 c 4 -4 c 4 0 c 5 0 c 4 0 c 4 0 c 5 0 c 4 -1 c 5 0 c 4 1 c 4 0 c 5 0 c 4 0 c
4 -1 c 5 0 c 4 1 c 5 0 c 4 0 c 4 0 c 5 1 c 4 -1 c 4 0 c 5 1 c 4 0 c 5 0 c 4 1 c 4 0 c 5 -1 c 4 0 c 4 0 c 5 0 c 4 0 c 4 1 c 5 0 c
4 0 c 5 0 c 4 1 c 4 -1 c 5 1 c 4 0 c 4 0 c 5 0 c 4 -1 c 5 1 c 4 0 c 4 0 c 5 0 c 4 0 c 4 1 c 5 1 c 4 1 c 5 3 c 4 4 c 4 1 c 5 -4 c
4 -4 c 4 -1 c 5 0 c 4 0 c 5 1 c 4 0 c 4 -1 c 5 2 c 4 1 c 4 1 c 5 0 c 4 2 c 4 8 c 5 69 c 4 179 c 5 84 c 4 -70 c 4 -183 c 5 -66 c
4 0 c 4 16 c 5 83 c 4 595 c 5 2178 c 4 1505 c 4 -437 c 5 -2415 c 4 -1279 c 4 -212 c 5 -28 c 4 -7 c 5 -3 c 4 -1 c 4 -4 c 5 -1 c 4 0 c
4 1 c 5 6 c 4 28 c 4 30 c 5 84 c 2 5980 c 2 -5375 2299 7019 l 4 -706 c 5 -25 c 4 -4 c 5 -9 c 4 -5 c 4 -3 c 5 -1 c 4 -1 c 4 0 c
5 -1 c 4 -1 c 5 0 c 4 -2 c 4 1 c 5 -1 c 4 0 c 4 -1 c 5 0 c 4 1 c 5 -1 c 4 -1 c 4 1 c 5 -1 c 4 0 c 4 0 c 5 0 c 4 4 c 4 3 c 5 0 c
4 -4 c 5 -4 c 4 -1 c 4 -1 c 5 1 c 4 -1 c 4 0 c 5 -1 c 4 -1 c 5 3 c 4 -1 c 4 0 c 5 -1 c 4 1 c 4 0 c 5 -1 c 4 1 c 5 -1 c 4 -1 c 4 2 c
5 -1 c 4 0 c 4 0 c 5 1 c 4 0 c 5 1 c 4 4026 c 1 2111 c 3 -6100 2578 7019 l 4 -18 c 5 -2 c 4 -1 c 4 -2 c 5 -1 c 4 -1 c 4 0 c 5 0 c
4 -1 c 5 0 c 4 0 c 4 2 c 5 -1 c 4 -2 c 4 2 c 5 5 c 4 49 c 5 269 c 4 263 c 4 1 c 5 -312 c 4 -234 c 4 -39 c 5 -3 c 4 2 c 5 4 c 4 -1 c
4 -5 c 5 -4 c 4 -1 c 4 0 c 5 -1 c 4 1 c 4 -2 c 5 1 c 4 4 c 5 0 c 4 -2 c 4 -3 c 5 -1 c 4 0 c 4 -1 c 5 0 c 4 0 c 5 -1 c 4 0 c 4 0 c
5 0 c 4 -2 c 4 -1 c 5 0 c 4 1 c 5 2 c 4 1 c 4 2 c 5 -3 c 4 1 c 4 -1 c 5 0 c 4 -1 c 5 0 c 4 2 c 4 -1 c 5 -2 c 4 0 c 4 -1 c 5 2 c
4 1 c 4 0 c 5 -1 c 4 0 c 5 -1 c 4 2 c 4 2 c 5 0 c 4 -3 c 4 -1 c 5 0 c 4 5 c 5 -1 c 4 -2 c 4 4 c 5 11 c 4 4 c 4 -10 c 5 -13 c 4 -2 c
5 -1 c 4 -2 c 4 0 c 5 2 c 4 4 c 4 2 c 5 -1 c 4 -4 c 4 3 c 5 7 c 4 -2 c 5 -5 c 4 -6 c 4 0 c 5 2 c 4 0 c 4 1 c 5 0 c 4 1 c 5 1 c 4 1 c
4 2 c 5 6 c 4 50 c 4 326 c 5 366 c 4 25 c 5 -321 c 4 -211 c 4 272 c 5 883 c 4 315 c 4 -424 c 5 -946 c 4 -312 c 5 -28 c 4 -2 c 4 -2 c
5 -1 c 4 -1 c 4 0 c 5 0 c 4 0 c 4 -1 c 5 0 c 4 -1 c 5 1 c 4 1 c 4 5 c 5 63 c 4 333 c 4 309 c 5 1 c 4 -406 c 5 -262 c 4 -43 c 4 -2 c
5 0 c 4 -1 c 4 -1 c 5 0 c 4 0 c 5 1 c 4 0 c 4 0 c 5 -1 c 4 -1 c 4 0 c 5 0 c 4 0 c 5 0 c 4 -2 c 4 2 c 5 -1 c 4 0 c 4 0 c 5 0 c 4 1 c
4 1 c 5 0 c 4 -1 c 5 -1 c 4 1 c 4 3 c 5 23 c 4 27 c 4 1 c 5 -28 c 4 -22 c 5 -4 c 4 0 c 4 0 c 5 0 c 4 1 c 4 0 c 5 -1 c 4 0 c 5 0 c
4 0 c 4 0 c 5 0 c 4 -2 c 4 1 c 5 -1 c 4 0 c 5 1 c 4 -1 c 4 0 c 5 0 c 4 1 c 4 1 c 5 -1 c 4 -1 c 4 1 c 5 0 c 4 0 c 5 -1 c 4 1 c 4 0 c
5 0 c 4 0 c 4 2 c 5 6 c 4 13 c 5 3 c 4 -9 c 4 -12 c 5 -2 c 4 0 c 4 1 c 5 0 c 4 -1 c 5 0 c 4 0 c 4 0 c 5 1 c 4 0 c 4 -1 c 5 0 c 4 0 c
4 0 c 5 0 c 4 0 c 5 0 c 4 -1 c 4 1 c 5 -1 c 4 1 c 4 -1 c 5 1 c 4 0 c 5 -1 c 4 1 c 4 0 c 5 -1 c 4 0 c 4 2 c 5 -1 c 4 0 c 5 1 c 4 4 c
4 50 c 5 114 c 4 33 c 4 -63 c 5 -110 c 4 -27 c 5 -1 c 4 0 c 4 0 c 5 -2 c 4 1 c 4 -1 c 5 0 c 4 0 c 4 0 c 5 1 c 4 -1 c 5 0 c 4 1 c
4 0 c 5 -1 c 4 1 c 4 1 c 5 -1 c 4 0 c 5 -1 c 4 -1 c 4 0 c 5 1 c 4 0 c 4 0 c 5 1 c 4 -1 c 5 1 c 4 -1 c 4 1 c 5 0 c 4 1 c 4 0 c 5 -1 c
4 -1 c 5 0 c 4 0 c 4 1 c 5 -1 c 4 0 c 4 0 c 5 1 c 4 0 c 4 1 c 5 -2 c 4 1 c 5 1 c 4 0 c 4 0 c 5 -1 c 4 0 c 4 0 c 5 2 c 4 -1 c 5 0 c
4 1 c 4 -2 c 5 1 c 4 -1 c 4 1 c 5 -1 c 4 0 c 5 1 c 4 2 c 4 7 c 5 3 c 4 -3 c 4 -7 c 5 -2 c 4 0 c 5 0 c 4 -1 c 4 0 c 5 1 c 4 0 c 4 1 c
5 0 c 4 0 c 4 1 c 5 -1 c 4 0 c 5 0 c 4 2 c 4 3 c 5 9 c 4 84 c 4 117 c 5 24 c 4 -99 c 5 -110 c 4 -20 c 4 1 c 5 -2 c 4 -4 c 4 -3 c
5 2 c 4 1 c 5 0 c 4 -1 c 4 -3 c 5 1 c 4 2 c 4 22 c 5 77 c 4 36 c 5 -23 c 4 -83 c 4 -28 c 5 -3 c 4 0 c 4 1 c 5 -1 c 4 -1 c 4 2 c
5 0 c 4 1 c 5 0 c 4 -1 c 4 0 c 5 -1 c 4 1 c 4 0 c 5 1 c 4 1 c 5 0 c 4 2 c 4 0 c 5 -1 c 4 0 c 4 0 c 5 0 c 4 2 c 5 -4 c 4 1 c 4 0 c
5 -2 c 4 -4 c 4 3 c 5 0 c 4 1 c 4 -2 c 5 0 c 4 3 c 5 1 c 4 0 c 4 0 c 5 -1 c 4 2486 c 2 3655 c 2 -5874 4371 7019 l 4 -105 c 5 -117 c
4 -27 c 5 -4 c 4 -3 c 4 -1 c 5 -3 c 4 1 c 4 -1 c 5 -1 c 4 -1 c 5 -1 c 4 -1 c 4 2 c 5 0 c 4 -2 c 4 1 c 5 1 c 4 -2 c 4 1 c 5 0 c 4 1 c
5 -3 c 4 -1 c 4 2 c 5 -1 c 4 -2 c 4 1 c 5 0 c 4 -1 c 5 -1 c 4 0 c 4 0 c 5 1 c 4 -1 c 4 0 c 5 2 c 4 0 c 5 -1 c 4 -3 c 4 1 c 5 0 c
4 3 c 4 1 c 5 0 c 4 -3 c 5 -2 c 4 -1 c 4 -1 c 5 3 c 4 1 c 4 2 c 5 0 c 4 -3 c 4 -1 c 5 -2 c 4 2 c 5 -1 c 4 -1 c 4 -2 c 5 1 c 4 1 c
4 -1 c 5 -1 c 4 1 c 5 -1 c 4 2 c 4 -1 c 5 0 c 4 1 c 4 -1 c 5 0 c 4 -1 c 5 1 c 4 -1 c 4 1 c 5 0 c 4 -1 c 4 0 c 5 -1 c 4 0 c 5 0 c
4 -1 c 4 1 c 5 1 c 4 -1 c 4 -1 c 5 0 c 4 -1 c 4 0 c 5 1 c 4 0 c 5 1 c 4 -2 c 4 0 c 5 0 c 4 0 c 4 -1 c 5 0 c 4 1 c 5 -1 c 4 1 c 4 1 c
5 -1 c 4 0 c 4 3 c 5 23 c 4 25 c 5 -2 c 4 -21 c 4 -25 c 5 -3 c 4 -1 c 4 0 c 5 0 c 4 -1 c 5 0 c 4 -1 c 4 1 c 5 0 c 4 -1 c 4 1 c 5 0 c
4 10 c 4 31 c 5 12 c 4 -8 c 5 -33 c 4 -12 c 4 0 c 5 -1 c 4 0 c 4 1 c 5 0 c 4 -1 c 5 0 c 4 0 c 4 0 c 5 2 c 4 12 c 4 13 c 5 3 c
4 -16 c 5 -13 c 4 -1 c 4 -1 c 5 1 c 4 0 c 4 0 c 5 1 c 4 1 c 4 0 c 5 -1 c 4 -1 c 5 1 c 4 1 c 4 1 c 5 0 c 4 2 c 4 26 c 5 212 c 4 235 c
5 21 c 4 -224 c 4 -233 c 5 -2 c 4 34 c 4 -2 c 5 -33 c 4 -32 c 5 4 c 4 25 c 4 13 c 5 -16 c 4 -24 c 4 -9 c 5 0 c 4 1 c 5 0 c 4 -1 c
4 0 c 5 0 c 4 0 c 4 0 c 5 0 c 4 0 c 4 0 c 5 0 c 4 0 c 5 0 c 4 2 c 4 -1 c 5 1 c 4 4 c 4 0 c 5 -1 c 4 -4 c 5 -1 c 4 0 c 4 0 c 5 0 c
4 0 c 4 0 c 5 1 c 4 0 c 5 0 c 4 1 c 4 1 c 5 4 c 4 46 c 4 321 c 5 324 c 4 4 c 5 -337 c 4 -320 c 4 -41 c 5 -3 c 4 1 c 4 -1 c 5 -1 c
4 0 c 4 0 c 5 2 c 4 3 c 5 1 c 4 -1 c 4 0 c 5 -1 c 4 -1 c 4 -2 c 5 -2 c 4 1 c 5 0 c 4 1 c 4 -1 c 5 1 c 4 3 c 4 38 c 5 116 c 4 38 c
5 -41 c 4 -113 c 4 -37 c 5 -2 c 4 -1 c 4 -1 c 5 -2 c 4 0 c 5 0 c 4 0 c 4 0 c 5 -1 c 4 1 c 4 0 c 5 0 c 4 -1 c 4 0 c 5 0 c 4 0 c 5 0 c
4 -1 c 4 0 c 5 0 c 4 0 c 4 0 c 5 1 c 4 4 c 5 4 c 4 -1 c 4 -4 c 5 -3 c 4 -1 c 4 1 c 5 0 c 4 2 c 5 0 c 4 0 c 4 -2 c 5 0 c 4 0 c 4 0 c
5 -1 c 4 0 c 4 0 c 5 1 c 4 -1 c 5 0 c 4 1 c 4 1 c 5 8 c 4 13 c 4 6 c 5 5 c 4 12 c 5 -2 c 4 -14 c 4 -25 c 5 -4 c 4 -1 c 4 0 c 5 1 c
4 0 c 5 2 c 4 -33 c 4 36 c 3 6151 c 3 -5003 5730 7019 l 4 -1103 c 4 -25 c 5 -9 c 4 -1 c 4 1 c 5 -1 c 4 -2 c 4 -3 c 5 -1 c 4 0 c
5 0 c 4 0 c 4 12 c 5 53 c 4 26 c 4 -8 c 5 -59 c 4 -24 c 5 -1 c 4 0 c 4 -1 c 5 0 c 4 -1 c 4 2 c 5 -1 c 4 0 c 5 0 c 4 0 c 4 1 c 5 -1 c
4 -1 c 4 0 c 5 0 c 4 0 c 5 0 c 4 0 c 4 0 c 5 0 c 4 0 c 4 0 c 5 0 c 4 -1 c 4 0 c 5 1 c 4 -1 c 5 2 c 4 -2 c 4 -1 c 5 0 c 4 0 c 4 0 c
5 0 c 4 0 c 5 -1 c 4 -1 c 4 0 c 5 1 c 4 -1 c 4 1 c 5 0 c 4 -1 c 5 2 c 4 -1 c 4 0 c 5 0 c 4 -1 c 4 -1 c 5 0 c 4 1 c 5 0 c 4 1 c 4 1 c
5 8 c 4 17 c 4 7 c 5 -4 c 4 -16 c 4 -6 c 5 -2 c 4 -3 c 5 -2 c 4 1 c 4 -1 c 5 1 c 4 0 c 4 0 c 5 -1 c 4 0 c 5 0 c 4 0 c 4 0 c 5 0 c
4 0 c 4 1 c 5 2 c 4 3 c 5 1 c 4 -1 c 4 -3 c 5 -3 c 4 0 c 4 1 c 5 0 c 4 2 c 5 12 c 4 112 c 4 153 c 5 10 c 4 -106 c 4 -161 c 5 -20 c
4 -2 c 4 0 c 5 0 c 4 0 c 5 1 c 4 0 c 4 1 c 5 1 c 4 0 c 4 1 c 5 -1 c 4 -1 c 5 0 c 4 0 c 4 0 c 5 0 c 4 1 c 4 -1 c 5 1 c 4 0 c 5 -1 c
4 2 c 4 3 c 5 9 c 4 2 c 4 7 c 5 67 c 4 61 c 4 -1 c 5 -72 c 4 -56 c 5 4 c 4 3 c 4 -10 c 5 -16 c 4 -4 c 4 1 c 5 0 c 4 0 c 5 0 c 4 -1 c
4 0 c 5 0 c 4 1 c 4 0 c 5 1 c 4 1 c 5 0 c 4 8 c 4 76 c 5 124 c 4 17 c 4 -73 c 5 -132 c 4 -18 c 5 -3 c 4 -1 c 4 1 c 5 -1 c 4 1 c
4 0 c 5 0 c 4 -1 c 4 -1 c 5 0 c 4 -1 c 5 1 c 4 1 c 4 1 c 5 0 c 4 0 c 4 -1 c 5 1 c 4 0 c 5 -1 c 4 0 c 4 1 c 5 1 c 4 -1 c 4 1 c 5 -1 c
4 0 c 5 0 c 4 -1 c 4 -1 c 5 0 c 4 1 c 4 -37 c 5 39 c 4 1 c 5 1 c 4 2 c 4 0 c 5 -2 c 4 -3 c 4 0 c 5 1 c 4 -1 c 4 0 c 5 0 c 4 1 c
5 1 c 4 1 c 4 2 c 5 0 c 4 -3 c 4 -2 c 5 0 c 4 2 c 5 2 c 4 2 c 4 0 c 5 -2 c 4 0 c 4 -1 c 5 1 c 4 0 c 5 -1 c 4 -2 c 4 0 c 5 0 c 4 0 c
4 1 c 5 0 c 4 -1 c 5 0 c 4 0 c 4 1 c 5 0 c 4 0 c 4 0 c 5 0 c 4 1 c 4 -1 c 5 0 c 4 -1 c 5 0 c 4 1 c 4 0 c 5 2 c 4 2 c 4 -2 c 5 -1 c
4 -1 c 5 1 c 4 0 c 4 1 c 5 0 c 4 -1 c 4 2 c 5 -1 c 4 -1 c 5 0 c 4 -1 c 4 0 c 5 -1 c 4 -1 c 4 0 c 5 0 c 4 0 c 5 0 c 4 0 c 4 1 c 5 0 c
4 0 c 4 0 c 5 3 c 4 2 c 4 1 c 5 -1 c 4 -2 c 5 -1 c 4 1 c 4 1 c 5 -1 c 4 1 c 4 -1 c 5 0 c 4 0 c 5 1 c 4 2 c 4 1 c 5 3 c 4 3 c 4 4 c
5 19 c 4 189 c 5 734 c 4 597 c 4 -92 c 5 -841 c 4 -521 c 4 -76 c 5 -11 c 4 -3 c 4 -2 c 5 -2 c 4 0 c 5 -2 c 4 0 c 4 0 c 5 0 c 4 2 c
4 -1 c 5 -1 c 4 0 c 5 0 c 4 -1 c 4 0 c 5 0 c 4 -1 c 4 -1 c 5 1 c 4 3 c 5 1 c 4 0 c 4 -2 c 5 0 c 4 0 c 4 0 c 5 0 c 4 0 c 5 1 c 4 0 c
4 2 c 5 5 c 4 10 c 4 9 c 5 -1 c 4 -12 c 4 -11 c 5 -3 c 4 0 c 5 1 c 4 0 c 4 1 c 5 0 c 4 0 c 4 0 c 5 1 c 4 0 c 5 -2 c 4 0 c 4 2 c
5 1 c 4 -1 c 4 0 c 5 -1 c 4 1 c 5 0 c 4 0 c 4 0 c 5 0 c 4 2 c 4 0 c 5 1 c 4 0 c 5 -1 c 4 1 c 4 1 c 5 4 c 4 1 c 4 -1 c 5 -2 c 4 1 c
4 1 c 5 -1 c 4 -1 c 5 0 c 4 1 c 4 1 c 5 1 c 4 1 c 4 0 c 5 0 c 4 1 c 5 0 c 4 1 c 4 0 c 5 1 c 4 2 c 4 0 c 5 3 c 4 1 c 5 2 c 4 2 c
4 -1 c 5 1 c 4 0 c 4 4 c 5 4 c 4 3 c 5 6 c 4 32 c 4 93 c 5 180 c 4 517 c 4 258 c 5 -146 c 4 -550 c 4 -318 c 5 -44 c 4 2 c 5 -1 c
4 2 c 4 -1 c 5 5 c 4 2 c 4 3 c 5 3 c 4 4 c 5 5 c 4 4 c 4 6 c 5 4 c 4 7 c 4 5 c 5 2 c 4 7 c 5 10 c 4 10 c 4 16 c 5 18 c 4 4 c 4 8 c
5 5 c 4 17 c 5 24 c 4 43 c 4 33 c 5 17 c 4 -1 c 4 32 c 5 76 c 4 54 c 4 87 c 5 113 c 4 238 c 5 467 c 2 4747 c 2 -4418 7737 7019 l
4 -820 c 5 -168 c 4 -124 c 4 -106 c 5 -78 c 4 -62 c 5 -29 c 4 -16 c 4 -2 c 5 -19 c 4 -32 c 4 -32 c 5 -36 c 4 -18 c 4 -7 c 5 -10 c
4 -5 c 5 -12 c 4 -13 c 4 -17 c 5 3 c 4 3 c 4 -2 c 5 -11 c 4 -13 c 5 -5 c 4 -2 c 4 0 c 5 -3 c 4 -8 c 4 -6 c 5 -7 c 4 -1 c 5 -1 c
4 -3 c 4 -5 c 5 -4 c 4 -3 c 4 -2 c 5 -2 c 4 0 c 5 0 c 4 -5 c 4 -4 c 5 -3 c 4 -1 c 4 -3 c 5 -2 c 4 -1 c 4 1 c 5 -1 c 4 3 c 5 4 c
4 -1 c 4 -5 c 5 -8 c 4 -2 c 4 1 c 5 -1 c 4 -3 c 5 2 c 4 -1 c 4 -1 c 5 -2 c 4 2 c 4 1 c 5 -2 c 4 -1 c 5 -1 c 4 -1 c 4 1 c 5 0 c 4 0 c
4 0 c 5 -2 c 4 1 c 5 -1 c 4 -2 c 4 -2 c 5 -1 c 4 -1 c 4 1 c 5 1 c 4 0 c 4 0 c 5 -2 c 4 0 c 5 0 c 4 -1 c 4 0 c 5 -2 c 4 1 c 4 -1 c
5 0 c 4 0 c 5 1 c 4 1 c 4 -1 c 5 0 c 4 0 c 4 -1 c 5 0 c 4 -1 c 5 0 c 4 -1 c 4 0 c 5 1 c 4 -1 c 4 0 c 5 0 c 4 0 c 5 0 c 4 0 c 4 -1 c
5 1 c 4 1 c 4 1 c 5 1 c 4 -1 c 4 -1 c 5 -1 c 4 1 c 5 1 c 4 0 c 4 -2 c 5 -2 c 4 0 c 4 -1 c 5 0 c 4 0 c 5 -1 c 4 -1 c 4 2 c 5 0 c
4 -1 c 4 -2 c 5 2 c 4 0 c 5 1 c 4 0 c 4 0 c 5 -1 c 4 2 c 4 4 c 5 15 c 4 19 c 4 4 c 5 -14 c 4 -21 c 5 -7 c 4 -2 c 4 -1 c 5 0 c 4 0 c
4 0 c 5 -1 c 4 2 c 5 -1 c 4 1 c 4 -1 c 5 0 c 4 1 c 4 0 c 5 -1 c 4 -1 c 5 0 c 4 0 c 4 0 c 5 0 c 4 -1 c 4 1 c 5 0 c 4 -1 c 5 1 c 4 0 c
4 0 c 5 0 c 4 0 c 4 -1 c 5 0 c 4 0 c 4 1 c 5 1 c 4 0 c 5 -1 c 4 0 c 4 0 c 5 4 c 4 13 c 4 7 c 5 -1 c 4 -8 c 5 -9 c 4 -3 c 4 -2 c
5 0 c 4 0 c 4 0 c 5 0 c 4 0 c 5 0 c 4 0 c 4 1 c 5 -1 c 4 1 c 4 -1 c 5 0 c 4 0 c 5 0 c 4 1 c 4 0 c 5 0 c 4 0 c 4 0 c 5 1 c 4 -1 c
4 1 c 5 0 c 4 1 c 5 3 c 4 11 c 4 33 c 5 24 c 4 -4 c 4 -31 c 5 -20 c 4 -3 c 5 -2 c 4 -6 c 4 -2 c 5 1 c 4 3 c 4 8 c 5 84 c 4 572 c
5 1291 c 4 286 c 4 -495 c 5 -1302 c 4 -408 c 4 -30 c 5 -6 c 4 -2 c 5 2 c 4 15 c 4 97 c 5 179 c 4 90 c 4 -71 c 5 -210 c 4 -96 c
4 -9 c 5 -2 c 4 -2 c 5 0 c 4 -1 c 4 0 c 5 -1 c 4 0 c 4 0 c 5 1 c 4 0 c 5 -1 c 4 -1 c 4 0 c 5 1 c 4 -1 c 4 1 c 5 -1 c 4 0 c 5 0 c
4 1 c 4 -1 c 5 0 c 4 0 c 4 0 c 5 1 c 4 0 c 5 1 c 4 1 c 4 0 c 5 -1 c 4 1 c 4 1 c 5 1 c 4 -1 c 4 1 c 5 2 c 4 1 c 5 -2 c 4 -3 c 4 0 c
5 -2 c 4 -2 c 4 0 c 5 -1 c 4 0 c 5 0 c 4 -1 c 4 0 c 5 0 c 4 1 c 4 -1 c 5 1 c 4 -1 c 5 -1 c 4 1 c 4 -1 c 5 2 c 4 0 c 4 1 c 5 3 c
4 0 c 4 -2 c 5 -2 c 4 1 c 5 0 c 4 1 c 4 5 c 5 1 c 4 -4 c 4 -4 c 5 0 c 4 2 c 5 -1 c 4 -2 c 4 0 c 5 15 c 4 19 c 4 4 c 5 -13 c 4 -23 c
5 -5 c 4 0 c 4 0 c 5 0 c 4 0 c 4 0 c 5 1 c 4 -1 c 5 0 c 4 3 c 4 2 c 5 1 c 4 -2 c 4 -3 c 5 -1 c 4 0 c 4 -1 c 5 0 c 4 0 c 5 0 c 4 1 c
4 -1 c 5 -1 c 4 1 c 4 0 c 5 0 c 4 1 c 5 8 c 4 23 c 4 8 c 5 -5 c 4 -21 c 4 -13 c 5 1 c 4 2 c 5 1 c 4 -3 c 4 -2 c 5 0 c 4 0 c 4 -2 c
5 1 c 4 0 c 5 0 c 4 0 c 4 0 c 5 0 c 4 1 c 4 0 c 5 0 c 4 -1 c 4 0 c 5 0 c 4 0 c 5 0 c 4 0 c 4 3 c 5 3 c 4 1 c 4 -1 c 5 -2 c 4 12 c
5 32 c 4 12 c 4 -10 c 5 -29 c 4 -17 c 4 0 c 5 0 c 4 -1 c 5 -2 c 4 -1 c 4 0 c 5 0 c 4 0 c 4 0 c
5 2 c 4 1 c 5 0 c 4 -1 c 4 -31 c 5 0 c 4 28 c 4 0 c 5 0 c 4 0 c 4 -1 c 5 0 c 4 0 c 5 -1 c 4 1 c 4 -1 c 5 1 c 4 2 c 4 3 c 5 2 c 4 1 c
5 -2 c 4 -2 c 4 -3 c 5 -1 c 4 0 c 4 -1 c 5 -1 c 4 2 c 5 -1 c 4 0 c 4 0 c 5 1 c 4 0 c 4 0 c 5 0 c 4 -1 c 5 0 c 4 0 c 4 0 c 5 1 c
4 0 c 4 0 c 5 -1 c 4 0 c
0 -126 3303 418 l 54 0 3303 418 l 18 -6 c 6 -6 c 6 -12 c 0 -12 c -6 -12 c -6 -6 c -18 -6 c -54 0 c 42 -66 3345 358 l
-12 -6 3453 376 l -12 -12 c -6 -18 c 0 -12 c 6 -18 c 12 -12 c 12 -6 c 18 0 c 12 6 c 12 12 c 6 18 c 0 12 c -6 18 c -12 12 c -12 6 c
-18 0 c 24 -84 3537 376 l -24 -84 3585 376 l 24 -84 3585 376 l -24 -84 3633 376 l 108 0 3675 364 l 108 0 3675 328 l 12 6 3939 394 l
18 18 c 0 -126 c -6 12 4119 400 l -18 6 c -12 0 c -18 -6 c -12 -18 c -6 -30 c 0 -30 c 6 -24 c 12 -12 c 18 -6 c 6 0 c 18 6 c 12 12 c
6 18 c 0 6 c -6 18 c -12 12 c -18 6 c -6 0 c -18 -6 c -12 -12 c -6 -18 c -12 -6 4287 376 l -12 -12 c -6 -18 c 0 -12 c 6 -18 c
12 -12 c 12 -6 c 18 0 c 12 6 c 12 12 c 6 18 c 0 12 c -6 18 c -12 12 c -12 6 c -18 0 c -12 0 4413 418 l -12 -6 c -6 -18 c 0 -102 c
42 0 4365 376 l 0 6 4545 388 l 6 12 c 6 6 c 12 6 c 24 0 c 12 -6 c 6 -6 c 6 -12 c 0 -12 c -6 -12 c -12 -18 c -60 -60 c 84 0 c
-18 -6 4695 418 l -12 -18 c -6 -30 c 0 -18 c 6 -30 c 12 -18 c 18 -6 c 12 0 c 18 6 c 12 18 c 6 30 c 0 18 c -6 30 c -12 18 c -18 6 c
-12 0 c 12 6 5181 394 l 18 18 c 0 -126 c -6 -6 5294 376 l 6 -6 c 6 6 c -6 6 c -6 -6 5294 304 l 6 -6 c 6 6 c -6 6 c
-48 -126 5474 418 l 48 -126 5474 418 l 60 0 5444 334 l 0 -84 5552 376 l 6 18 5552 340 l 12 12 c 12 6 c 18 0 c -12 12 5696 358 l
-12 6 c -18 0 c -12 -6 c -12 -12 c -6 -18 c 0 -12 c 6 -18 c 12 -12 c 12 -6 c 18 0 c 12 6 c 12 12 c 108 0 5738 346 l 12 6 5906 394 l
18 18 c 0 -126 c 66 0 6020 418 l -36 -48 c 18 0 c 12 -6 c 6 -6 c 6 -18 c 0 -12 c -6 -18 c -12 -12 c -18 -6 c -18 0 c -18 6 c -6 6 c
-6 12 c -60 -126 6212 418 l 84 0 6128 418 l -6 -6 6260 304 l 6 -6 c 6 6 c -6 6 c -12 0 6350 418 l -12 -6 c -6 -18 c 0 -102 c
42 0 6302 376 l 6 -6 6380 418 l 6 6 c -6 6 c -6 -6 c 0 -84 6386 376 l 0 -102 6440 418 l 6 -18 c 12 -6 c 12 0 c 42 0 6422 376 l
-6 12 6566 358 l -18 6 c -18 0 c -18 -6 c -6 -12 c 6 -12 c 12 -6 c 30 -6 c 12 -6 c 6 -12 c 0 -6 c -6 -12 c -18 -6 c -18 0 c -18 6 c
-6 12 c 0 -192 6896 442 l 0 -192 6902 442 l 42 0 6896 442 l 42 0 6896 250 l 0 6 6980 388 l 6 12 c 6 6 c 12 6 c 24 0 c 12 -6 c 6 -6 c
6 -12 c 0 -12 c -6 -12 c -12 -18 c -60 -60 c 84 0 c -6 -6 7106 376 l 6 -6 c 6 6 c -6 6 c -6 -6 7106 304 l 6 -6 c 6 6 c -6 6 c
0 -192 7286 442 l 0 -192 7292 442 l 42 0 7250 442 l 42 0 7250 250 l
0 -250 942 2372 l 80 -37 898 2496 l 0 53 898 2443 l -3 8 913 2530 l -12 11 c 80 0 c 11 -4 925 2644 l 8 -8 c 4 -11 c 0 -4 c -4 -11 c
-8 -8 c -11 -3 c -4 0 c -11 3 c -8 8 c -4 11 c 0 4 c 4 11 c 8 8 c 15 4 c 19 0 c 19 -4 c 11 -8 c 4 -11 c 0 -8 c -4 -11 c -8 -4 c
-3 7 913 2682 l -12 11 c 80 0 c 4 -3 970 2753 l 4 3 c -4 4 c -4 -4 c -3 7 913 2795 l -12 12 c 80 0 c 0 41 898 2867 l 31 -22 c 0 11 c
3 8 c 4 3 c 12 4 c 7 0 c 11 -4 c 8 -7 c 4 -12 c 0 -11 c -4 -11 c -4 -4 c -7 -4 c 0 42 898 2942 l 31 -23 c 0 12 c 3 7 c 4 4 c 12 4 c
7 0 c 11 -4 c 8 -8 c 4 -11 c 0 -11 c -4 -12 c -4 -3 c -7 -4 c 0 -249 1650 1938 l 79 -38 1607 2063 l 0 53 1607 2010 l
-3 0 1625 2089 l -8 4 c -4 4 c -3 7 c 0 15 c 3 8 c 4 4 c 8 4 c 7 0 c 8 -4 c 11 -8 c 38 -38 c 0 53 c 3 -12 1607 2184 l 12 -7 c
19 -4 c 11 0 c 19 4 c 11 7 c 4 12 c 0 7 c -4 12 c -11 7 c -19 4 c -11 0 c -19 -4 c -12 -7 c -3 -12 c 0 -7 c 3 -11 1607 2259 l
12 -8 c 19 -3 c 11 0 c 19 3 c 11 8 c 4 11 c 0 8 c -4 11 c -11 8 c -19 4 c -11 0 c -19 -4 c -12 -8 c -3 -11 c 0 -8 c 4 -4 1678 2320 l
4 4 c -4 4 c -4 -4 c 3 -12 1607 2373 l 12 -7 c 19 -4 c 11 0 c 19 4 c 11 7 c 4 12 c 0 7 c -4 12 c -11 7 c -19 4 c -11 0 c -19 -4 c
-12 -7 c -3 -12 c 0 -7 c 53 -37 1607 2463 l 0 56 c 79 0 1607 2463 l 0 -38 1607 2547 l 34 -4 c -4 4 c -4 11 c 0 11 c 4 12 c 7 7 c
12 4 c 7 0 c 12 -4 c 7 -7 c 4 -12 c 0 -11 c -4 -11 c -4 -4 c -7 -4 c 0 -249 1822 1783 l 79 -38 1778 1908 l 0 53 1778 1855 l
-4 0 1797 1935 l -7 3 c -4 4 c -4 8 c 0 15 c 4 7 c 4 4 c 7 4 c 8 0 c 7 -4 c 12 -7 c 37 -38 c 0 53 c 4 -11 1778 2029 l 11 -8 c
19 -4 c 11 0 c 19 4 c 12 8 c 3 11 c 0 8 c -3 11 c -12 8 c -19 3 c -11 0 c -19 -3 c -11 -8 c -4 -11 c 0 -8 c -4 0 1797 2086 l -7 4 c
-4 3 c -4 8 c 0 15 c 4 8 c 4 3 c 7 4 c 8 0 c 7 -4 c 12 -7 c 37 -38 c 0 53 c 4 -4 1850 2165 l 3 4 c -3 4 c -4 -4 c -4 7 1793 2207 l
-11 12 c 79 0 c 11 -4 1805 2320 l 7 -7 c 4 -11 c 0 -4 c -4 -12 c -7 -7 c -11 -4 c -4 0 c -12 4 c -7 7 c -4 12 c 0 4 c 4 11 c 7 7 c
16 4 c 18 0 c 19 -4 c 12 -7 c 3 -11 c 0 -8 c -3 -11 c -8 -4 c -4 8 1793 2358 l -11 11 c 79 0 c 0 -249 2206 5713 l 80 -38 2162 5838 l
0 53 2162 5785 l -4 0 2181 5865 l -7 3 c -4 4 c -4 8 c 0 15 c 4 7 c 4 4 c 7 4 c 8 0 c 8 -4 c 11 -7 c 38 -38 c 0 53 c
4 -11 2162 5959 l 11 -8 c 19 -4 c 12 0 c 19 4 c 11 8 c 4 11 c 0 8 c -4 11 c -11 7 c -19 4 c -12 0 c -19 -4 c -11 -7 c -4 -11 c
0 -8 c -8 -4 2174 6061 l -4 -11 c 0 -8 c 4 -11 c 11 -8 c 19 -3 c 19 0 c 15 3 c 8 8 c 4 11 c 0 4 c -4 12 c -8 7 c -11 4 c -4 0 c
-11 -4 c -8 -7 c -3 -12 c 0 -4 c 3 -11 c 8 -8 c 11 -3 c 4 -4 2234 6095 l 4 4 c -4 4 c -4 -4 c 11 -3 2189 6174 l 8 -8 c 4 -11 c
0 -4 c -4 -11 c -8 -8 c -11 -4 c -4 0 c -11 4 c -8 8 c -4 11 c 0 4 c 4 11 c 8 8 c 15 3 c 19 0 c 19 -3 c 11 -8 c 4 -11 c 0 -8 c
-4 -11 c -8 -4 c 4 -12 2162 6220 l 8 -3 c 7 0 c 8 3 c 4 8 c 3 15 c 4 11 c 8 8 c 7 4 c 12 0 c 7 -4 c 4 -4 c 4 -11 c 0 -15 c -4 -12 c
-4 -3 c -7 -4 c -12 0 c -7 4 c -8 7 c -4 12 c -3 15 c -4 7 c -8 4 c -7 0 c -8 -4 c -4 -11 c 0 -15 c 4 -11 2162 6299 l 11 -8 c
19 -4 c 12 0 c 19 4 c 11 8 c 4 11 c 0 8 c -4 11 c -11 8 c -19 3 c -12 0 c -19 -3 c -11 -8 c -4 -11 c 0 -8 c 0 -249 2288 7019 l
80 -38 2244 7144 l 0 53 2244 7091 l -4 0 2263 7170 l -7 4 c -4 4 c -4 7 c 0 16 c 4 7 c 4 4 c 7 4 c 8 0 c 8 -4 c 11 -8 c 38 -37 c
0 52 c 4 -12 2244 7265 l 11 -7 c 19 -4 c 12 0 c 19 4 c 11 7 c 4 12 c 0 7 c -4 12 c -11 7 c -19 4 c -12 0 c -19 -4 c -11 -7 c
-4 -12 c 0 -7 c 4 -12 2244 7337 l 8 -4 c 7 0 c 8 4 c 4 8 c 3 15 c 4 11 c 8 8 c 7 4 c 12 0 c 7 -4 c 4 -4 c 4 -11 c 0 -15 c -4 -12 c
-4 -4 c -7 -3 c -12 0 c -7 3 c -8 8 c -4 11 c -3 15 c -4 8 c -8 4 c -7 0 c -8 -4 c -4 -11 c 0 -15 c 4 -4 2316 7401 l 4 4 c -4 4 c
-4 -4 c 4 -12 2244 7454 l 11 -7 c 19 -4 c 12 0 c 19 4 c 11 7 c 4 12 c 0 7 c -4 12 c -11 7 c -19 4 c -12 0 c -19 -4 c -11 -7 c
-4 -12 c 0 -7 c 4 -11 2244 7529 l 11 -8 c 19 -3 c 12 0 c 19 3 c 11 8 c 4 11 c 0 8 c -4 11 c -11 8 c -19 4 c -12 0 c -19 -4 c
-11 -8 c -4 -11 c 0 -8 c -8 -3 2256 7631 l -4 -12 c 0 -7 c 4 -12 c 11 -7 c 19 -4 c 19 0 c 15 4 c 8 7 c 4 12 c 0 3 c -4 12 c -8 7 c
-11 4 c -4 0 c -11 -4 c -8 -7 c -3 -12 c 0 -3 c 3 -12 c 8 -7 c 11 -4 c 0 -250 2666 1918 l 80 -38 2622 2043 l 0 53 2622 1990 l
-4 0 2641 2069 l -7 4 c -4 4 c -4 7 c 0 15 c 4 8 c 4 4 c 7 3 c 8 0 c 7 -3 c 12 -8 c 38 -38 c 0 53 c -3 8 2637 2152 l -12 11 c 80 0 c
-4 0 2641 2220 l -7 4 c -4 4 c -4 7 c 0 15 c 4 8 c 4 4 c 7 4 c 8 0 c 7 -4 c 12 -8 c 38 -38 c 0 53 c 4 -4 2694 2300 l 4 4 c -4 3 c
-4 -3 c -8 -4 2634 2379 l -4 -11 c 0 -8 c 4 -11 c 11 -8 c 19 -3 c 19 0 c 15 3 c 8 8 c 4 11 c 0 4 c -4 11 c -8 8 c -11 4 c -4 0 c
-11 -4 c -8 -8 c -4 -11 c 0 -4 c 4 -11 c 8 -8 c 11 -3 c 11 -4 2649 2455 l 8 -8 c 3 -11 c 0 -4 c -3 -11 c -8 -8 c -11 -4 c -4 0 c
-11 4 c -8 8 c -4 11 c 0 4 c 4 11 c 8 8 c 15 4 c 19 0 c 19 -4 c 11 -8 c 4 -11 c 0 -8 c -4 -11 c -8 -4 c 4 -12 2622 2504 l 11 -7 c
19 -4 c 12 0 c 19 4 c 11 7 c 4 12 c 0 7 c -4 12 c -11 7 c -19 4 c -12 0 c -19 -4 c -11 -7 c -4 -12 c 0 -7 c 0 -249 3101 3030 l
79 -38 3057 3155 l 0 53 3057 3102 l -4 0 3076 3181 l -7 4 c -4 4 c -4 7 c 0 16 c 4 7 c 4 4 c 7 4 c 8 0 c 7 -4 c 12 -8 c 37 -37 c
0 52 c -4 8 3072 3264 l -11 11 c 79 0 c 4 -12 3057 3348 l 7 -3 c 8 0 c 7 3 c 4 8 c 4 15 c 4 11 c 7 8 c 8 4 c 11 0 c 8 -4 c 4 -4 c
3 -11 c 0 -15 c -3 -12 c -4 -3 c -8 -4 c -11 0 c -8 4 c -7 7 c -4 11 c -4 16 c -4 7 c -7 4 c -8 0 c -7 -4 c -4 -11 c 0 -15 c
4 -4 3129 3412 l 3 4 c -3 4 c -4 -4 c 4 -12 3057 3465 l 11 -7 c 19 -4 c 11 0 c 19 4 c 12 7 c 3 12 c 0 7 c -3 12 c -12 7 c -19 4 c
-11 0 c -19 -4 c -11 -7 c -4 -12 c 0 -7 c 0 -38 3057 3563 l 34 -4 c -4 4 c -4 12 c 0 11 c 4 11 c 8 8 c 11 4 c 8 0 c 11 -4 c 8 -8 c
3 -11 c 0 -11 c -3 -12 c -4 -4 c -8 -3 c 53 -38 3057 3631 l 0 57 c 79 0 3057 3631 l 0 -249 3190 2024 l 79 -38 3147 2149 l
0 53 3147 2096 l -4 0 3166 2176 l -8 3 c -4 4 c -3 8 c 0 15 c 3 7 c 4 4 c 8 4 c 7 0 c 8 -4 c 11 -7 c 38 -38 c 0 53 c
-4 7 3162 2259 l -11 12 c 79 0 c 11 -4 3173 2372 l 8 -7 c 4 -11 c 0 -4 c -4 -12 c -8 -7 c -11 -4 c -4 0 c -11 4 c -8 7 c -3 12 c
0 4 c 3 11 c 8 7 c 15 4 c 19 0 c 19 -4 c 11 -7 c 4 -11 c 0 -8 c -4 -11 c -7 -4 c 4 -4 3218 2406 l 4 4 c -4 4 c -4 -4 c
-4 7 3162 2448 l -11 12 c 79 0 c 0 -37 3147 2557 l 34 -4 c -4 4 c -4 11 c 0 11 c 4 12 c 7 7 c 12 4 c 7 0 c 12 -4 c 7 -7 c 4 -12 c
0 -11 c -4 -11 c -4 -4 c -7 -4 c -4 8 3162 2599 l -11 11 c 79 0 c 0 -249 3339 1363 l 79 -38 3296 1488 l 0 53 3296 1435 l
-4 0 3315 1514 l -8 4 c -4 4 c -3 7 c 0 15 c 3 8 c 4 4 c 8 4 c 7 0 c 8 -4 c 11 -8 c 38 -38 c 0 53 c -4 0 3315 1590 l -8 4 c -4 3 c
-3 8 c 0 15 c 3 8 c 4 3 c 8 4 c 7 0 c 8 -4 c 11 -7 c 38 -38 c 0 53 c 3 -11 3296 1684 l 12 -8 c 19 -3 c 11 0 c 19 3 c 11 8 c 4 11 c
0 8 c -4 11 c -11 8 c -19 4 c -11 0 c -19 -4 c -12 -8 c -3 -11 c 0 -8 c 3 -4 3368 1745 l 4 4 c -4 4 c -3 -4 c 11 -4 3322 1824 l
8 -7 c 4 -11 c 0 -4 c -4 -12 c -8 -7 c -11 -4 c -4 0 c -11 4 c -8 7 c -3 12 c 0 4 c 3 11 c 8 7 c 15 4 c 19 0 c 19 -4 c 11 -7 c
4 -11 c 0 -8 c -4 -11 c -7 -4 c 3 -12 3296 1870 l 8 -4 c 8 0 c 7 4 c 4 8 c 4 15 c 3 11 c 8 8 c 8 4 c 11 0 c 8 -4 c 3 -4 c 4 -11 c
0 -15 c -4 -12 c -3 -4 c -8 -3 c -11 0 c -8 3 c -8 8 c -3 11 c -4 15 c -4 8 c -7 4 c -8 0 c -8 -4 c -3 -11 c 0 -15 c
-4 7 3311 1938 l -11 11 c 79 0 c 0 -249 3677 1511 l 79 -38 3634 1636 l 0 53 3634 1583 l -4 0 3653 1662 l -8 4 c -3 4 c -4 7 c 0 16 c
4 7 c 3 4 c 8 4 c 7 0 c 8 -4 c 11 -8 c 38 -37 c 0 52 c -4 0 3653 1738 l -8 4 c -3 4 c -4 7 c 0 15 c 4 8 c 3 4 c 8 3 c 7 0 c 8 -3 c
11 -8 c 38 -38 c 0 53 c 0 -38 3634 1855 l 34 -3 c -4 3 c -4 12 c 0 11 c 4 11 c 8 8 c 11 4 c 7 0 c 12 -4 c 7 -8 c 4 -11 c 0 -11 c
-4 -12 c -3 -3 c -8 -4 c 3 -4 3706 1893 l 4 4 c -4 4 c -3 -4 c -4 8 3649 1934 l -11 11 c 79 0 c -4 8 3649 2010 l -11 11 c 79 0 c
4 -11 3634 2097 l 11 -8 c 19 -4 c 11 0 c 19 4 c 11 8 c 4 11 c 0 8 c -4 11 c -11 7 c -19 4 c -11 0 c -19 -4 c -11 -7 c -4 -11 c
0 -8 c 0 -250 4074 1550 l 79 -38 4031 1675 l 0 53 4031 1622 l -4 0 4050 1701 l -8 4 c -3 4 c -4 7 c 0 15 c 4 8 c 3 4 c 8 4 c 7 0 c
8 -4 c 11 -8 c 38 -38 c 0 53 c -4 0 4050 1777 l -8 4 c -3 3 c -4 8 c 0 15 c 4 8 c 3 3 c 8 4 c 7 0 c 8 -4 c 11 -7 c 38 -38 c 0 53 c
12 -4 4057 1898 l 7 -8 c 4 -11 c 0 -4 c -4 -11 c -7 -8 c -12 -3 c -4 0 c -11 3 c -7 8 c -4 11 c 0 4 c 4 11 c 7 8 c 15 4 c 19 0 c
19 -4 c 11 -8 c 4 -11 c 0 -8 c -4 -11 c -7 -4 c 3 -4 4103 1932 l 4 4 c -4 3 c -3 -3 c 12 -4 4057 2011 l 7 -7 c 4 -12 c 0 -3 c
-4 -12 c -7 -7 c -12 -4 c -4 0 c -11 4 c -7 7 c -4 12 c 0 3 c 4 12 c 7 7 c 15 4 c 19 0 c 19 -4 c 11 -7 c 4 -12 c 0 -7 c -4 -11 c
-7 -4 c 0 42 4031 2045 l 30 -23 c 0 11 c 4 8 c 4 4 c 11 3 c 7 0 c 12 -3 c 7 -8 c 4 -11 c 0 -12 c -4 -11 c -3 -4 c -8 -3 c
4 -11 4031 2132 l 7 -4 c 8 0 c 7 4 c 4 7 c 4 15 c 4 12 c 7 7 c 8 4 c 11 0 c 8 -4 c 3 -4 c 4 -11 c 0 -15 c -4 -11 c -3 -4 c -8 -4 c
-11 0 c -8 4 c -7 7 c -4 12 c -4 15 c -4 7 c -7 4 c -8 0 c -7 -4 c -4 -11 c 0 -15 c 0 -249 4150 1450 l 79 -38 4107 1575 l
0 53 4107 1522 l -4 0 4126 1601 l -8 4 c -3 4 c -4 8 c 0 15 c 4 7 c 3 4 c 8 4 c 8 0 c 7 -4 c 11 -8 c 38 -37 c 0 53 c
0 41 4107 1681 l 30 -22 c 0 11 c 4 8 c 4 3 c 11 4 c 8 0 c 11 -4 c 7 -7 c 4 -12 c 0 -11 c -4 -11 c -3 -4 c -8 -4 c 4 -11 4107 1771 l
11 -7 c 19 -4 c 11 0 c 19 4 c 11 7 c 4 11 c 0 8 c -4 11 c -11 8 c -19 4 c -11 0 c -19 -4 c -11 -8 c -4 -11 c 0 -8 c 3 -4 4179 1832 l
4 4 c -4 4 c -3 -4 c 4 -11 4107 1881 l 7 -4 c 8 0 c 7 4 c 4 7 c 4 15 c 4 12 c 7 7 c 8 4 c 11 0 c 8 -4 c 3 -3 c 4 -12 c 0 -15 c
-4 -11 c -3 -4 c -8 -4 c -11 0 c -8 4 c -7 8 c -4 11 c -4 15 c -4 8 c -7 3 c -8 0 c -7 -3 c -4 -12 c 0 -15 c -7 -4 4118 1987 l
-4 -11 c 0 -8 c 4 -11 c 11 -8 c 19 -3 c 19 0 c 15 3 c 7 8 c 4 11 c 0 4 c -4 11 c -7 8 c -11 4 c -4 0 c -12 -4 c -7 -8 c -4 -11 c
0 -4 c 4 -11 c 7 -8 c 12 -3 c -4 0 4126 2017 l -8 4 c -3 4 c -4 7 c 0 15 c 4 8 c 3 4 c 8 4 c 8 0 c 7 -4 c 11 -8 c 38 -38 c 0 53 c
0 -250 5084 1801 l 79 -37 5040 1925 l 0 52 5040 1873 l -4 0 5059 1952 l -7 4 c -4 4 c -4 7 c 0 15 c 4 8 c 4 4 c 7 3 c 8 0 c 7 -3 c
12 -8 c 37 -38 c 0 53 c 53 -38 5040 2062 l 0 56 c 79 0 5040 2062 l -4 0 5059 2103 l -7 4 c -4 4 c -4 7 c 0 15 c 4 8 c 4 4 c 7 3 c
8 0 c 7 -3 c 12 -8 c 37 -38 c 0 53 c 4 -4 5112 2183 l 3 4 c -3 3 c -4 -3 c 4 -11 5040 2235 l 11 -7 c 19 -4 c 11 0 c 19 4 c 12 7 c
3 11 c 0 8 c -3 11 c -12 8 c -19 4 c -11 0 c -19 -4 c -11 -8 c -4 -11 c 0 -8 c 11 -3 5067 2337 l 7 -8 c 4 -11 c 0 -4 c -4 -11 c
-7 -8 c -11 -4 c -4 0 c -12 4 c -7 8 c -4 11 c 0 4 c 4 11 c 7 8 c 16 3 c 18 0 c 19 -3 c 12 -8 c 3 -11 c 0 -8 c -3 -11 c -8 -4 c
-4 0 5059 2368 l -7 3 c -4 4 c -4 8 c 0 15 c 4 7 c 4 4 c 7 4 c 8 0 c 7 -4 c 12 -7 c 37 -38 c 0 53 c 0 -250 5302 2004 l
80 -37 5258 2128 l 0 52 5258 2076 l -4 0 5277 2155 l -7 4 c -4 4 c -4 7 c 0 15 c 4 8 c 4 4 c 7 3 c 8 0 c 8 -3 c 11 -8 c 38 -38 c
0 53 c 53 -38 5258 2265 l 0 56 c 80 0 5258 2265 l 53 -38 5258 2340 l 0 57 c 80 0 5258 2340 l 4 -4 5330 2386 l 4 4 c -4 3 c -4 -3 c
-8 -4 5270 2465 l -4 -11 c 0 -8 c 4 -11 c 11 -8 c 19 -3 c 19 0 c 15 3 c 8 8 c 4 11 c 0 4 c -4 11 c -8 8 c -11 4 c -4 0 c -11 -4 c
-8 -8 c -3 -11 c 0 -4 c 3 -11 c 8 -8 c 11 -3 c 11 -3 5285 2540 l 8 -8 c 3 -11 c 0 -4 c -3 -11 c -8 -8 c -11 -4 c -4 0 c -11 4 c
-8 8 c -4 11 c 0 4 c 4 11 c 8 8 c 15 3 c 19 0 c 19 -3 c 11 -8 c 4 -11 c 0 -8 c -4 -11 c -8 -4 c 80 -38 5258 2620 l 0 53 5258 2567 l
0 -249 5422 1497 l 80 -38 5378 1622 l 0 53 5378 1569 l -3 0 5397 1648 l -8 4 c -4 4 c -4 8 c 0 15 c 4 7 c 4 4 c 8 4 c 7 0 c 8 -4 c
11 -8 c 38 -37 c 0 53 c 53 -38 5378 1758 l 0 57 c 80 0 5378 1758 l -8 -4 5390 1845 l -4 -11 c 0 -8 c 4 -11 c 12 -8 c 19 -3 c 18 0 c
16 3 c 7 8 c 4 11 c 0 4 c -4 11 c -7 8 c -12 4 c -4 0 c -11 -4 c -7 -8 c -4 -11 c 0 -4 c 4 -11 c 7 -8 c 11 -3 c 4 -4 5450 1879 l
4 4 c -4 4 c -4 -4 c -4 7 5394 1921 l -12 11 c 80 0 c -3 0 5397 1989 l -8 3 c -4 4 c -4 8 c 0 15 c 4 7 c 4 4 c 8 4 c 7 0 c 8 -4 c
11 -7 c 38 -38 c 0 53 c 4 -11 5378 2079 l 8 -4 c 7 0 c 8 4 c 4 8 c 4 15 c 3 11 c 8 8 c 7 3 c 12 0 c 7 -3 c 4 -4 c 4 -12 c 0 -15 c
-4 -11 c -4 -4 c -7 -4 c -12 0 c -7 4 c -8 8 c -3 11 c -4 15 c -4 8 c -8 4 c -7 0 c -8 -4 c -4 -12 c 0 -15 c 0 -250 6203 1593 l
80 -37 6159 1717 l 0 52 6159 1665 l -3 0 6178 1744 l -8 4 c -4 3 c -4 8 c 0 15 c 4 8 c 4 3 c 8 4 c 7 0 c 8 -4 c 11 -7 c 38 -38 c
0 53 c 0 -38 6159 1861 l 34 -3 c -3 3 c -4 12 c 0 11 c 4 11 c 7 8 c 12 4 c 7 0 c 11 -4 c 8 -8 c 4 -11 c 0 -11 c -4 -12 c -4 -3 c
-7 -4 c 0 -38 6159 1937 l 34 -4 c -3 4 c -4 11 c 0 12 c 4 11 c 7 7 c 12 4 c 7 0 c 11 -4 c 8 -7 c 4 -11 c 0 -12 c -4 -11 c -4 -4 c
-7 -4 c 4 -3 6231 1974 l 4 3 c -4 4 c -4 -4 c 0 42 6159 2012 l 31 -23 c 0 11 c 3 8 c 4 4 c 12 4 c 7 0 c 11 -4 c 8 -8 c 4 -11 c
0 -11 c -4 -12 c -4 -4 c -7 -3 c 0 -38 6159 2126 l 34 -4 c -3 4 c -4 11 c 0 12 c 4 11 c 7 7 c 12 4 c 7 0 c 11 -4 c 8 -7 c 4 -11 c
0 -12 c -4 -11 c -4 -4 c -7 -4 c 53 -38 6159 2194 l 0 57 c 80 0 6159 2194 l 0 -249 6342 1456 l 80 -38 6298 1581 l 0 53 6298 1528 l
-3 0 6317 1607 l -8 4 c -4 4 c -4 8 c 0 15 c 4 7 c 4 4 c 8 4 c 7 0 c 8 -4 c 11 -8 c 38 -37 c 0 53 c 0 -38 6298 1725 l 34 -4 c -3 4 c
-4 11 c 0 12 c 4 11 c 7 7 c 12 4 c 7 0 c 11 -4 c 8 -7 c 4 -11 c 0 -12 c -4 -11 c -4 -4 c -7 -4 c -8 -4 6310 1804 l -4 -11 c 0 -8 c
4 -11 c 12 -8 c 18 -3 c 19 0 c 15 3 c 8 8 c 4 11 c 0 4 c -4 11 c -8 8 c -11 4 c -4 0 c -11 -4 c -8 -8 c -3 -11 c 0 -4 c 3 -11 c
8 -8 c 11 -3 c 4 -4 6370 1838 l 4 4 c -4 4 c -4 -4 c 11 -3 6325 1917 l 8 -8 c 4 -11 c 0 -4 c -4 -11 c -8 -8 c -11 -4 c -4 0 c
-11 4 c -8 8 c -4 11 c 0 4 c 4 11 c 8 8 c 15 3 c 19 0 c 19 -3 c 11 -8 c 4 -11 c 0 -8 c -4 -11 c -8 -4 c 4 -12 6298 1963 l 8 -3 c
7 0 c 8 3 c 4 8 c 3 15 c 4 11 c 8 8 c 7 4 c 12 0 c 7 -4 c 4 -4 c 4 -11 c 0 -15 c -4 -12 c -4 -3 c -7 -4 c -12 0 c -7 4 c -8 7 c
-4 12 c -3 15 c -4 7 c -8 4 c -7 0 c -8 -4 c -4 -11 c 0 -15 c -8 -4 6310 2069 l -4 -12 c 0 -7 c 4 -11 c 12 -8 c 18 -4 c 19 0 c
15 4 c 8 8 c 4 11 c 0 4 c -4 11 c -8 8 c -11 3 c -4 0 c -11 -3 c -8 -8 c -3 -11 c 0 -4 c 3 -11 c 8 -8 c 11 -4 c 0 -249 6444 1533 l
80 -38 6400 1658 l 0 53 6400 1605 l -4 0 6419 1684 l -7 4 c -4 4 c -4 7 c 0 16 c 4 7 c 4 4 c 7 4 c 8 0 c 7 -4 c 12 -8 c 38 -37 c
0 53 c 0 -38 6400 1802 l 34 -4 c -4 4 c -3 11 c 0 11 c 3 12 c 8 7 c 11 4 c 8 0 c 11 -4 c 8 -7 c 4 -12 c 0 -11 c -4 -11 c -4 -4 c
-8 -4 c 4 -12 6400 1851 l 8 -3 c 7 0 c 8 3 c 3 8 c 4 15 c 4 11 c 8 8 c 7 4 c 11 0 c 8 -4 c 4 -4 c 4 -11 c 0 -15 c -4 -12 c -4 -3 c
-8 -4 c -11 0 c -7 4 c -8 7 c -4 11 c -4 16 c -3 7 c -8 4 c -7 0 c -8 -4 c -4 -11 c 0 -15 c 4 -4 6472 1915 l 4 4 c -4 4 c -4 -4 c
-3 8 6415 1956 l -12 11 c 80 0 c 80 -38 6400 2074 l 0 53 6400 2021 l 80 -38 6400 2149 l 0 53 6400 2096 l 0 -249 7045 2864 l
79 -38 7002 2989 l 0 53 7002 2936 l -4 0 7021 3015 l -8 4 c -4 4 c -3 8 c 0 15 c 3 7 c 4 4 c 8 4 c 7 0 c 8 -4 c 11 -8 c 38 -37 c
0 53 c -8 -3 7013 3136 l -3 -12 c 0 -7 c 3 -12 c 12 -7 c 19 -4 c 19 0 c 15 4 c 7 7 c 4 12 c 0 3 c -4 12 c -7 7 c -12 4 c -3 0 c
-12 -4 c -7 -7 c -4 -12 c 0 -3 c 4 -12 c 7 -7 c 12 -4 c 0 -38 7002 3208 l 34 -3 c -4 3 c -4 12 c 0 11 c 4 11 c 7 8 c 12 4 c 7 0 c
12 -4 c 7 -8 c 4 -11 c 0 -11 c -4 -12 c -3 -3 c -8 -4 c 3 -4 7074 3246 l 4 4 c -4 4 c -3 -4 c -4 7 7017 3288 l -11 11 c 79 0 c
79 -38 7002 3405 l 0 53 7002 3352 l -4 0 7021 3431 l -8 4 c -4 4 c -3 7 c 0 15 c 3 8 c 4 4 c 8 3 c 7 0 c 8 -3 c 11 -8 c 38 -38 c
0 53 c 0 -250 8774 3559 l 79 -38 8731 3684 l 0 53 8731 3631 l -4 0 8750 3710 l -8 4 c -3 4 c -4 7 c 0 15 c 4 8 c 3 4 c 8 3 c 8 0 c
7 -3 c 11 -8 c 38 -38 c 0 53 c 4 -12 8731 3801 l 7 -3 c 8 0 c 7 3 c 4 8 c 4 15 c 4 11 c 7 8 c 8 4 c 11 0 c 8 -4 c 3 -4 c 4 -11 c
0 -15 c -4 -12 c -3 -3 c -8 -4 c -11 0 c -8 4 c -7 7 c -4 12 c -4 15 c -4 7 c -7 4 c -8 0 c -7 -4 c -4 -11 c 0 -15 c
53 -38 8731 3895 l 0 57 c 79 0 8731 3895 l 3 -4 8803 3941 l 4 4 c -4 3 c -3 -3 c 12 -4 8757 4020 l 7 -7 c 4 -12 c 0 -3 c -4 -12 c
-7 -7 c -12 -4 c -3 0 c -12 4 c -7 7 c -4 12 c 0 3 c 4 12 c 7 7 c 15 4 c 19 0 c 19 -4 c 11 -7 c 4 -12 c 0 -7 c -4 -12 c -7 -3 c
4 -11 8731 4069 l 11 -8 c 19 -4 c 11 0 c 19 4 c 11 8 c 4 11 c 0 8 c -4 11 c -11 8 c -19 3 c -11 0 c -19 -3 c -11 -8 c -4 -11 c
0 -8 c 0 41 8731 4130 l 30 -23 c 0 12 c 4 7 c 4 4 c 11 4 c 8 0 c 11 -4 c 7 -7 c 4 -12 c 0 -11 c -4 -11 c -3 -4 c -8 -4 c
showpage PGPLOT restore
 
%%Trailer
%%DocumentFonts: 
%%Pages: 1
%%EOF
