%!PS-Adobe-3.0 EPSF-3.0
%%For: tab
%%Title: PGPLOT PostScript plot
%%Creator: PGPLOT
%%CreationDate: 20-Apr-1995 16:48
%%BoundingBox: 25 18 587 774
%%DocumentFonts: (atend)
%%LanguageLevel: 1
%%Orientation: Landscape
%%Pages: (atend)
%%EndComments
%%BeginProlog
/l {moveto rlineto currentpoint stroke moveto} bind def
/c {rlineto currentpoint stroke moveto} bind def
/d {moveto 0 0 rlineto currentpoint stroke moveto} bind def
/SLW {5 mul setlinewidth} bind def
/SCF /pop load def
/BP {newpath moveto} bind def
/LP /rlineto load def
/EP {rlineto closepath eofill} bind def
/MB {gsave translate MFAC dup scale 1 setlinewidth 2 setlinecap 0 setlinejoin newpath} bind def
/ME /grestore load def
/C {0 360 arc stroke} bind def
/FC {0 360 arc fill} bind def
%%EndProlog
 
%%Page: 1 1
%%BeginPageSetup
/PGPLOT save def
0.072 0.072 scale
8150 250 translate 90 rotate
1 setlinejoin 1 setlinecap 1 SLW 1 SCF
%%EndPageSetup
0.000 setgray 1 SLW 8939 0 780 780 l 0 6239 c -8939 0 c 0 -6239 c 0 -45 1116 780 l 0 -45 1554 780 l 0 -45 1991 780 l
0 -45 2428 780 l 0 -90 2865 780 l 0 -45 3302 780 l 0 -45 3739 780 l 0 -45 4176 780 l 0 -45 4613 780 l 0 -90 5051 780 l
0 -45 5488 780 l 0 -45 5925 780 l 0 -45 6362 780 l 0 -45 6799 780 l 0 -90 7236 780 l 0 -45 7673 780 l 0 -45 8110 780 l
0 -45 8548 780 l 0 -45 8985 780 l 0 -90 9422 780 l 0 -45 1116 7064 l 0 -45 1554 7064 l 0 -45 1991 7064 l 0 -45 2428 7064 l
0 -90 2865 7109 l 0 -45 3302 7064 l 0 -45 3739 7064 l 0 -45 4176 7064 l 0 -45 4613 7064 l 0 -90 5051 7109 l 0 -45 5488 7064 l
0 -45 5925 7064 l 0 -45 6362 7064 l 0 -45 6799 7064 l 0 -90 7236 7109 l 0 -45 7673 7064 l 0 -45 8110 7064 l 0 -45 8548 7064 l
0 -45 8985 7064 l 0 -90 9422 7109 l -60 0 2775 672 l -6 -54 c 6 6 c 18 6 c 18 0 c 18 -6 c 12 -12 c 6 -18 c 0 -12 c -6 -18 c
-12 -12 c -18 -6 c -18 0 c -18 6 c -6 6 c -6 12 c -18 -6 2859 672 l -12 -18 c -6 -30 c 0 -18 c 6 -30 c 12 -18 c 18 -6 c 12 0 c
18 6 c 12 18 c 6 30 c 0 18 c -6 30 c -12 18 c -18 6 c -12 0 c -18 -6 2979 672 l -12 -18 c -6 -30 c 0 -18 c 6 -30 c 12 -18 c 18 -6 c
12 0 c 18 6 c 12 18 c 6 30 c 0 18 c -6 30 c -12 18 c -18 6 c -12 0 c 12 6 4847 648 l 18 18 c 0 -126 c -18 -6 4985 672 l -12 -18 c
-6 -30 c 0 -18 c 6 -30 c 12 -18 c 18 -6 c 12 0 c 18 6 c 12 18 c 6 30 c 0 18 c -6 30 c -12 18 c -18 6 c -12 0 c -18 -6 5105 672 l
-12 -18 c -6 -30 c 0 -18 c 6 -30 c 12 -18 c 18 -6 c 12 0 c 18 6 c 12 18 c 6 30 c 0 18 c -6 30 c -12 18 c -18 6 c -12 0 c
-18 -6 5225 672 l -12 -18 c -6 -30 c 0 -18 c 6 -30 c 12 -18 c 18 -6 c 12 0 c 18 6 c 12 18 c 6 30 c 0 18 c -6 30 c -12 18 c -18 6 c
-12 0 c 12 6 7032 648 l 18 18 c 0 -126 c -60 0 7206 672 l -6 -54 c 6 6 c 18 6 c 18 0 c 18 -6 c 12 -12 c 6 -18 c 0 -12 c -6 -18 c
-12 -12 c -18 -6 c -18 0 c -18 6 c -6 6 c -6 12 c -18 -6 7290 672 l -12 -18 c -6 -30 c 0 -18 c 6 -30 c 12 -18 c 18 -6 c 12 0 c
18 6 c 12 18 c 6 30 c 0 18 c -6 30 c -12 18 c -18 6 c -12 0 c -18 -6 7410 672 l -12 -18 c -6 -30 c 0 -18 c 6 -30 c 12 -18 c 18 -6 c
12 0 c 18 6 c 12 18 c 6 30 c 0 18 c -6 30 c -12 18 c -18 6 c -12 0 c 0 6 9206 642 l 6 12 c 6 6 c 12 6 c 24 0 c 12 -6 c 6 -6 c
6 -12 c 0 -12 c -6 -12 c -12 -18 c -60 -60 c 84 0 c -18 -6 9356 672 l -12 -18 c -6 -30 c 0 -18 c 6 -30 c 12 -18 c 18 -6 c 12 0 c
18 6 c 12 18 c 6 30 c 0 18 c -6 30 c -12 18 c -18 6 c -12 0 c -18 -6 9476 672 l -12 -18 c -6 -30 c 0 -18 c 6 -30 c 12 -18 c 18 -6 c
12 0 c 18 6 c 12 18 c 6 30 c 0 18 c -6 30 c -12 18 c -18 6 c -12 0 c -18 -6 9596 672 l -12 -18 c -6 -30 c 0 -18 c 6 -30 c 12 -18 c
18 -6 c 12 0 c 18 6 c 12 18 c 6 30 c 0 18 c -6 30 c -12 18 c -18 6 c -12 0 c -90 0 780 781 l -45 0 780 1182 l -45 0 780 1583 l
-45 0 780 1985 l -45 0 780 2386 l -90 0 780 2787 l -45 0 780 3188 l -45 0 780 3589 l -45 0 780 3990 l -45 0 780 4392 l
-90 0 780 4793 l -45 0 780 5194 l -45 0 780 5595 l -45 0 780 5996 l -45 0 780 6398 l -90 0 780 6799 l -90 0 9809 781 l
-45 0 9764 1182 l -45 0 9764 1583 l -45 0 9764 1985 l -45 0 9764 2386 l -90 0 9809 2787 l -45 0 9764 3188 l -45 0 9764 3589 l
-45 0 9764 3990 l -45 0 9764 4392 l -90 0 9809 4793 l -45 0 9764 5194 l -45 0 9764 5595 l -45 0 9764 5996 l -45 0 9764 6398 l
-90 0 9809 6799 l 6 -18 517 775 l 18 -12 c 30 -6 c 18 0 c 30 6 c 18 12 c 6 18 c 0 12 c -6 18 c -18 12 c -30 6 c -18 0 c -30 -6 c
-18 -12 c -6 -18 c 0 -12 c -6 12 541 2667 l -18 18 c 126 0 c 6 -18 517 2805 l 18 -12 c 30 -6 c 18 0 c 30 6 c 18 12 c 6 18 c 0 12 c
-6 18 c -18 12 c -30 6 c -18 0 c -30 -6 c -18 -12 c -6 -18 c 0 -12 c 63 -45 453 2929 l 0 68 c 94 0 453 2929 l -6 0 547 4535 l
-12 6 c -6 6 c -6 12 c 0 24 c 6 12 c 6 6 c 12 6 c 12 0 c 12 -6 c 18 -12 c 60 -60 c 0 84 c 84 84 547 4655 l 84 -84 547 4739 l
-6 12 541 4799 l -18 18 c 126 0 c 6 -18 517 4937 l 18 -12 c 30 -6 c 18 0 c 30 6 c 18 12 c 6 18 c 0 12 c -6 18 c -18 12 c -30 6 c
-18 0 c -30 -6 c -18 -12 c -6 -18 c 0 -12 c 63 -45 453 5061 l 0 68 c 94 0 453 5061 l 0 66 517 6547 l 48 -36 c 0 18 c 6 12 c 6 6 c
18 6 c 12 0 c 18 -6 c 12 -12 c 6 -18 c 0 -18 c -6 -18 c -6 -6 c -12 -6 c 84 84 547 6661 l 84 -84 547 6745 l -6 12 541 6805 l
-18 18 c 126 0 c 6 -18 517 6943 l 18 -12 c 30 -6 c 18 0 c 30 6 c 18 12 c 6 18 c 0 12 c -6 18 c -18 12 c -30 6 c -18 0 c -30 -6 c
-18 -12 c -6 -18 c 0 -12 c 63 -45 453 7067 l 0 68 c 94 0 453 7067 l
4 0 780 815 l 5 -1 c 4 0 c 4 -1 c 5 0 c 4 0 c 4 1 c 5 0 c 4 -1 c 5 -1 c 4 0 c 4 1 c 5 -1 c 4 2 c 4 0 c 5 3 c 4 -1 c 5 -2 c 4 -1 c
4 0 c 5 0 c 4 -1 c 4 1 c 5 0 c 4 0 c 5 -1 c 4 0 c 4 0 c 5 1 c 4 0 c 4 1 c 5 -1 c 4 0 c 5 -2 c 4 1 c 4 1 c 5 -1 c 4 0 c 4 0 c 5 -1 c
4 0 c 4 1 c 5 -1 c 4 1 c 5 -1 c 4 1 c 4 -1 c 5 1 c 4 1 c 4 1 c 5 -1 c 4 -2 c 5 1 c 4 -1 c 4 0 c 5 0 c 4 0 c 4 -1 c 5 2 c 4 -1 c
5 0 c 4 0 c 4 -1 c 5 0 c 4 1 c 4 0 c 5 -1 c 4 0 c 5 0 c 4 -1 c 4 1 c 5 0 c 4 0 c 4 0 c 5 1 c 4 0 c 4 0 c 5 -1 c 4 1 c 5 3 c 4 12 c
4 4 c 5 -3 c 4 -46 c 4 0 c 5 29 c 4 -1 c 5 0 c 4 1 c 4 0 c 5 -1 c 4 1 c 4 0 c 5 0 c 4 1 c 5 -2 c 4 0 c 4 0 c 5 0 c 4 1 c 4 0 c
5 -1 c 4 1 c 5 1 c 4 -1 c 4 1 c 5 0 c 4 0 c 4 -2 c 5 1 c 4 0 c 4 0 c 5 5 c 4 11 c 5 5 c 4 -6 c 4 -10 c 5 -3 c 4 0 c 4 3 c 5 4 c
4 0 c 5 -4 c 4 -4 c 4 0 c 5 2 c 4 8 c 4 31 c 5 28 c 4 -4 c 5 -36 c 4 -20 c 4 2 c 5 4 c 4 5 c 4 1 c 5 22 c 4 94 c 5 469 c 4 722 c
4 168 c 5 -649 c 4 -612 c 4 -201 c 5 -23 c 4 -5 c 4 -1 c 5 -1 c 4 -1 c 5 -1 c 4 1 c 4 0 c 5 0 c 4 0 c 4 0 c 5 -1 c 4 0 c 5 1 c
4 -1 c 4 -1 c 5 1 c 4 2 c 4 8 c 5 3 c 4 -2 c 5 -8 c 4 -4 c 4 0 c 5 -1 c 4 1 c 4 11 c 5 17 c 4 5 c 4 -14 c 5 -15 c 4 -3 c 5 -1 c
4 0 c 4 1 c 5 -1 c 4 -1 c 4 -1 c 5 0 c 4 -1 c 5 1 c 4 0 c 4 1 c 5 -1 c 4 1 c 4 -2 c 5 1 c 4 1 c 5 1 c 4 -1 c 4 0 c 5 -1 c 4 1 c
4 -1 c 5 0 c 4 0 c 5 0 c 4 0 c 4 0 c 5 0 c 4 1 c 4 1 c 5 2 c 4 0 c 4 -2 c 5 -1 c 4 0 c 5 -1 c 4 1 c 4 0 c 5 -1 c 4 0 c 4 1 c 5 0 c
4 1 c 5 -1 c 4 0 c 4 -1 c 5 1 c 4 -1 c 4 1 c 5 -1 c 4 0 c 5 1 c 4 2 c 4 0 c 5 0 c 4 -2 c 4 -1 c 5 0 c 4 0 c 5 0 c 4 1 c 4 1 c 5 0 c
4 6 c 4 33 c 5 113 c 4 58 c 4 -42 c 5 -118 c 4 -45 c 5 -5 c 4 0 c 4 1 c 5 1 c 4 0 c 4 0 c 5 1 c 4 9 c 5 52 c 4 280 c 4 255 c 5 -11 c
4 -334 c 4 -216 c 5 -35 c 4 -2 c 5 0 c 4 0 c 4 0 c 5 0 c 4 -1 c 4 -1 c 5 1 c 4 3 c 5 9 c 4 8 c 4 -1 c 5 -9 c 4 -7 c 4 1 c 5 1 c
4 0 c 4 -1 c 5 -2 c 4 -2 c 5 0 c 4 1 c 4 -1 c 5 0 c 4 0 c 4 2 c 5 -2 c 4 0 c 5 0 c 4 1 c 4 -1 c 5 2 c 4 3 c 4 2 c 5 -2 c 4 -3 c
5 -2 c 4 1 c 4 0 c 5 2 c 4 -1 c 4 1 c 5 -1 c 4 -1 c 5 1 c 4 0 c 4 1 c 5 0 c 4 -1 c 4 3 c 5 1 c 4 -1 c 4 0 c 5 -1 c 4 1 c 5 0 c 4 4 c
4 3 c 5 0 c 4 -1 c 4 8 c 5 2 c 4 -6 c 5 -3 c 4 17 c 4 111 c 5 129 c 4 19 c 4 -137 c 5 -115 c 4 -26 c 5 -5 c 4 0 c 4 -2 c 5 2 c 4 0 c
4 0 c 5 -1 c 4 1 c 4 -1 c 5 1 c 4 0 c 5 1 c 4 3 c 4 21 c 5 31 c 4 5 c 4 -31 c 5 -24 c 4 -5 c 5 1 c 4 -1 c 4 0 c 5 5 c 4 10 c 4 2 c
5 -8 c 4 -9 c 5 -1 c 4 0 c 4 -1 c 5 2 c 4 0 c 4 1 c 5 0 c 4 2 c 5 4 c 4 1 c 4 -3 c 5 -4 c 4 0 c 4 0 c 5 3 c 4 -3 c 4 0 c 5 1 c 4 4 c
5 4 c 4 3 c 4 6 c 5 40 c 4 294 c 4 728 c 5 456 c 4 -337 c 5 -773 c 4 -353 c 4 -62 c 5 -5 c 4 -3 c 4 -1 c 5 1 c 4 -2 c 5 -1 c 4 1 c
4 0 c 5 -1 c 4 3 c 4 3 c 5 -4 c 4 -4 c 5 1 c 4 -1 c 4 -2 c 5 2 c 4 -1 c 4 -1 c 5 0 c 4 0 c 4 -2 c 5 1 c 4 0 c 5 1 c 4 1 c 4 0 c
5 0 c 4 -1 c 4 -1 c 5 1 c 4 1 c 5 1 c 4 -1 c 4 0 c 5 1 c 4 0 c 4 2 c 5 -1 c 4 0 c 5 1 c 4 -1 c 4 0 c 5 1 c 4 0 c 4 0 c 5 0 c 4 0 c
5 0 c 4 2 c 4 -1 c 5 2 c 4 1 c 4 2 c 5 2 c 4 -1 c 4 0 c 5 2 c 4 1 c 5 2 c 4 11 c 4 39 c 5 222 c 4 1493 c 4 1685 c 5 91 c 4 -1992 c
5 -1287 c 4 -241 c 4 -16 c 5 -5 c 4 -2 c 4 -2 c 5 -1 c 4 0 c 5 -1 c 4 0 c 4 0 c 5 -1 c 4 0 c 4 -1 c 5 1 c 4 0 c 5 2 c 4 1 c 4 3 c
5 12 c 4 101 c 4 634 c 5 814 c 4 105 c 4 -866 c 5 -644 c 4 -151 c 5 -6 c 4 -1 c 4 -3 c 5 0 c 4 -1 c 4 0 c 5 0 c 4 -1 c 5 0 c 4 -1 c
4 -1 c 5 -1 c 4 1 c 4 1 c 5 1 c 4 3 c 5 17 c 4 14 c 4 -11 c 5 -15 c 4 -3 c 4 2 c 5 17 c 4 10 c 4 -8 c 5 -20 c 4 -7 c 5 -1 c 4 0 c
4 0 c 5 0 c 4 0 c 4 1 c 5 0 c 4 0 c 5 0 c 4 0 c 4 0 c 5 -1 c 4 1 c 4 0 c 5 -1 c 4 1 c 5 1 c 4 -1 c 4 1 c 5 0 c 4 1 c 4 1 c 5 0 c
4 -1 c 5 -1 c 4 -1 c 4 0 c 5 2 c 4 2 c 4 0 c 5 -3 c 4 -1 c 4 1 c 5 0 c 4 0 c 5 2 c 4 2 c 4 -1 c 5 -3 c 4 0 c 4 -1 c 5 1 c 4 0 c
5 0 c 4 1 c 4 2 c 5 0 c 4 -1 c 4 1 c 5 0 c 4 0 c 5 -1 c 4 0 c 4 1 c 5 2 c 4 1 c 4 0 c 5 1 c 4 3 c 5 5 c 4 4 c 4 9 c 5 9 c 4 38 c
4 262 c 5 1505 c 4 2212 c 4 624 c 5 -1891 c 4 -2124 c 5 -552 c 4 -71 c 4 -10 c 5 -7 c 4 -5 c 4 -2 c 5 -2 c 4 0 c 5 1 c 4 3 c 4 3 c
5 12 c 4 108 c 4 581 c 5 678 c 4 100 c 5 -729 c 4 -597 c 4 -152 c 5 -9 c 4 -4 c 4 -1 c 5 -1 c 4 -2 c 5 0 c 4 0 c 4 0 c 5 2 c 4 0 c
4 -3 c 5 3 c 4 1 c 4 -1 c 5 -6 c 4 0 c 5 -1 c 4 0 c 4 0 c 5 0 c 4 0 c 4 2 c 5 3 c 4 0 c 5 -3 c 4 -2 c 4 0 c 5 1 c 4 0 c 4 0 c 5 1 c
4 -1 c 5 -1 c 4 -1 c 4 1 c 5 0 c 4 2 c 4 4 c 5 1 c 4 -5 c 4 -2 c 5 -1 c 4 0 c 5 -1 c 4 1 c 4 1 c 5 2 c 4 9 c 4 24 c 5 15 c 4 -7 c
5 -30 c 4 -12 c 4 -3 c 5 1 c 4 -2 c 4 1 c 5 -1 c 4 1 c 5 0 c 4 0 c 4 2 c 5 2 c 4 1 c 4 -3 c 5 -2 c 4 -2 c 5 0 c 4 -1 c 4 3 c 5 -1 c
4 0 c 4 2 c 5 1 c 4 9 c 4 25 c 5 33 c 4 1 c 5 -33 c 4 -29 c 4 -10 c 5 0 c 4 0 c 4 -1 c 5 0 c 4 2 c 5 -1 c 4 1 c 4 2 c 5 0 c 4 -2 c
4 -1 c 5 -1 c 4 0 c 5 0 c 4 0 c 4 0 c 5 1 c 4 -1 c 4 0 c 5 -2 c 4 0 c 5 1 c 4 0 c 4 1 c 5 3 c 4 3 c 4 0 c 5 -4 c 4 -1 c 4 -1 c 5 0 c
4 1 c 5 -1 c 4 2 c 4 1 c 5 1 c 4 2 c 4 -1 c 5 0 c 4 0 c 5 -3 c 4 -1 c 4 0 c 5 1 c 4 0 c 4 0 c 5 0 c 4 0 c 5 0 c 4 -1 c 4 0 c 5 -1 c
4 0 c 4 0 c 5 0 c 4 2 c 5 0 c 4 1 c 4 0 c 5 2 c 4 15 c 4 7 c 5 -5 c 4 -14 c 4 -5 c 5 -1 c 4 0 c 5 0 c 4 1 c 4 2 c 5 5 c 4 0 c 4 -4 c
5 -3 c 4 0 c 5 7 c 4 79 c 4 282 c 5 158 c 4 -106 c 4 -293 c 5 -121 c 4 -6 c 5 -1 c 4 0 c 4 -2 c 5 0 c 4 0 c 4 -1 c 5 1 c 4 0 c 5 1 c
4 1 c 4 -2 c 5 -1 c 4 2 c 4 2 c 5 0 c 4 0 c 4 -3 c 5 0 c 4 -1 c 5 1 c 4 0 c 4 -1 c 5 0 c 4 1 c 4 0 c 5 1 c 4 0 c 5 0 c 4 -1 c 4 2 c
5 0 c 4 0 c 4 -2 c 5 0 c 4 0 c 5 -1 c 4 1 c 4 0 c 5 1 c 4 -1 c 4 0 c 5 1 c 4 0 c 4 0 c 5 0 c 4 -1 c 5 1 c 4 1 c 4 0 c 5 0 c 4 0 c
4 1 c 5 1 c 4 19 c 5 171 c 4 195 c 4 16 c 5 -201 c 4 -182 c 4 -20 c 5 1 c 4 1 c 5 0 c 4 0 c 4 -2 c 5 -1 c 4 -1 c 4 0 c 5 0 c 4 0 c
5 0 c 4 0 c 4 0 c 5 0 c 4 -1 c 4 1 c 5 0 c 4 1 c 4 -1 c 5 -1 c 4 1 c 5 -1 c 4 0 c 4 0 c 5 2 c 4 -1 c 4 1 c 5 3 c 4 25 c 5 62 c
4 22 c 4 -38 c 5 -40 c 4 21 c 4 10 c 5 -25 c 4 -33 c 5 -6 c 4 0 c 4 1 c 5 13 c 4 9 c 4 -3 c 5 -13 c 4 -7 c 5 -2 c 4 -1 c 4 0 c 5 0 c
4 0 c 4 0 c 5 -1 c 4 1 c 4 -1 c 5 0 c 4 0 c 5 0 c 4 0 c 4 0 c 5 0 c 4 -1 c 4 0 c 5 -1 c 4 1 c 5 2 c 4 -1 c 4 0 c 5 -1 c 4 0 c 4 1 c
5 -1 c 4 1 c 5 -1 c 4 1 c 4 1 c 5 -3 c 4 0 c 4 0 c 5 0 c 4 1 c 5 -1 c 4 1 c 4 1 c 5 -1 c 4 0 c 4 3 c 5 4 c 4 1 c 4 -2 c 5 -2 c
4 -2 c 5 0 c 4 0 c 4 -1 c 5 0 c 4 -1 c 4 -1 c 5 2 c 4 -1 c 5 1 c 4 0 c 4 0 c 5 0 c 4 -3 c 4 1 c 5 0 c 4 0 c 5 1 c 4 1 c 4 4 c 5 5 c
4 4 c 4 -3 c 5 -6 c 4 -2 c 5 0 c 4 1 c 4 1 c 5 2 c 4 -2 c 4 -1 c 5 -2 c 4 0 c 4 4 c 5 0 c 4 -1 c 5 -2 c 4 -2 c 4 0 c 5 0 c 4 2 c
4 1 c 5 3 c 4 2 c 5 -2 c 4 -4 c 4 0 c 5 1 c 4 17 c 4 53 c 5 23 c 4 -21 c 5 -56 c 4 -17 c 4 1 c 5 -1 c 4 -1 c 4 0 c 5 0 c 4 -1 c
4 0 c 5 3 c 4 2 c 5 5 c 4 11 c 4 16 c 5 4 c 4 -11 c 4 -17 c 5 -7 c 4 0 c 5 -3 c 4 0 c 4 -1 c 5 0 c 4 -1 c 4 1 c 5 -1 c 4 0 c 5 0 c
4 4 c 4 7 c 5 4 c 4 -4 c 4 -9 c 5 -2 c 4 -1 c 5 0 c 4 1 c 4 -2 c 5 1 c 4 0 c 4 1 c 5 0 c 4 0 c 4 -2 c 5 2 c 4 9 c 5 7 c 4 -1 c
4 -9 c 5 -6 c 4 3 c 4 4 c 5 1 c 4 -4 c 5 -2 c 4 -2 c 4 -1 c 5 0 c 4 0 c 4 1 c 5 -2 c 4 -1 c 5 1 c 4 -1 c 4 1 c 5 -1 c 4 3 c 4 8 c
5 8 c 4 -2 c 5 -14 c 4 -2 c 4 0 c 5 0 c 4 -1 c 4 0 c 5 0 c 4 0 c 4 0 c 5 0 c 4 0 c 5 0 c 4 0 c 4 -1 c 5 1 c 4 0 c 4 1 c 5 -2 c 4 0 c
5 2 c 4 0 c 4 -1 c 5 0 c 4 -2 c 4 0 c 5 2 c 4 -1 c 5 1 c 4 0 c 4 3 c 5 -3 c 4 1 c 4 -1 c 5 0 c 4 -1 c 5 -1 c 4 2 c 4 0 c 5 0 c 4 0 c
4 0 c 5 -1 c 4 1 c 4 1 c 5 5 c 4 2 c 5 -2 c 4 -2 c 4 4 c 5 2 c 4 -4 c 4 -4 c 5 2 c 4 0 c 5 -2 c 4 -1 c 4 3 c 5 4 c 4 57 c 4 241 c
5 162 c 4 -42 c 5 -264 c 4 -149 c 4 -9 c 5 -2 c 4 -2 c 4 0 c 5 -2 c 4 1 c 4 1 c 5 0 c 4 1 c 5 -3 c 4 1 c 4 0 c 5 -1 c 4 1 c 4 -2 c
5 2 c 4 1 c 5 8 c 4 10 c 4 1 c 5 -8 c 4 -8 c 4 -1 c 5 -1 c 4 1 c 5 0 c 4 -35 c 4 35 c 5 0 c 4 -1 c 4 0 c 5 1 c 4 -1 c 5 0 c 4 1 c
4 -1 c 5 0 c 4 0 c 4 1 c 5 -1 c 4 0 c 4 1 c 5 -1 c 4 -1 c 5 0 c 4 1 c 4 -1 c 5 1 c 4 0 c 4 -1 c 5 1 c 4 -2 c 5 3 c 4 -1 c 4 -1 c
5 1 c 4 1 c 4 1 c 5 5 c 4 1 c 5 -1 c 4 -3 c 4 5 c 5 4 c 4 -3 c 4 -2 c 5 5 c 4 10 c 5 -2 c 4 -10 c 4 -9 c 5 -2 c 4 2 c 4 -1 c 5 -1 c
4 0 c 4 0 c 5 1 c 4 0 c 5 1 c 4 2 c 4 -1 c 5 2 c 4 -2 c 4 2 c 5 -1 c 4 1 c 5 0 c 4 -1 c 4 0 c 5 0 c 4 1 c 4 4 c 5 2 c 4 -2 c 5 -4 c
4 0 c 4 0 c 5 -2 c 4 -1 c 4 0 c 5 1 c 4 0 c 5 0 c 4 1 c 4 -3 c 5 1 c 4 0 c 4 -1 c 5 2 c 4 0 c 4 0 c 5 -1 c 4 2 c 5 -1 c 4 0 c 4 0 c
5 0 c 4 1 c 4 -1 c 5 -1 c 4 1 c 5 0 c 4 0 c 4 0 c 5 1 c 4 -1 c 4 1 c 5 -2 c 4 1 c 5 1 c 4 0 c 4 1 c 5 0 c 4 0 c 4 0 c 5 -1 c 4 0 c
5 2 c 4 12 c 4 4 c 5 -3 c 4 -11 c 4 -3 c 5 1 c 4 0 c 4 -1 c 5 -1 c 4 -1 c 5 2 c 4 0 c 4 1 c 5 0 c 4 2 c 4 -1 c 5 -1 c 4 -2 c 5 0 c
4 1 c 4 0 c 5 0 c 4 0 c 4 1 c 5 1 c 4 -2 c 5 0 c 4 3 c 4 0 c 5 0 c 4 2 c 4 -1 c 5 1 c 4 2 c 4 1 c 5 1 c 4 0 c 5 1 c 4 5 c 4 7 c
5 22 c 4 193 c 4 1051 c 5 1299 c 4 42 c 5 -1317 c 4 -1122 c 4 -154 c 5 -16 c 4 -6 c 4 -3 c 5 -1 c 4 0 c 5 0 c 4 -1 c 4 2 c 5 4 c
4 -3 c 4 0 c 5 -4 c 4 1 c 5 0 c 4 -2 c 4 1 c 5 0 c 4 -1 c 4 1 c 5 -1 c 4 2 c 4 -1 c 5 -1 c 4 0 c 5 -1 c 4 1 c 4 -1 c 5 1 c 4 0 c
4 0 c 5 0 c 4 2 c 5 2 c 4 -1 c 4 -1 c 5 2 c 4 0 c 4 0 c 5 -1 c 4 4 c 5 0 c 4 0 c 4 0 c 5 -2 c 4 -1 c 4 5 c 5 -6 c 4 2 c 5 1 c 4 -1 c
4 0 c 5 0 c 4 1 c 4 -1 c 5 1 c 4 4 c 4 -3 c 5 1 c 4 1 c 5 -1 c 4 -2 c 4 3 c 5 1 c 4 2 c 4 1 c 5 0 c 4 -2 c 5 1 c 4 1 c 4 -1 c 5 -1 c
4 -1 c 4 1 c 5 1 c 4 -2 c 5 0 c 4 1 c 4 0 c 5 2 c 4 -4 c 4 2 c 5 0 c 4 3 c 5 1 c 4 -2 c 4 1 c 5 3 c 4 0 c 4 0 c 5 -1 c 4 3 c
3 6173 c 2 -6000 6841 7019 l 4 -146 c 5 -6 c 4 -2 c 4 -1 c 5 -3 c 4 -3 c 4 1 c 5 2 c 4 -4 c 5 0 c 4 0 c 4 -1 c 5 1 c 4 0 c 4 0 c
5 -4 c 4 -1 c 5 -4 c 4 0 c 4 6 c 5 -3 c 4 4 c 4 -2 c 5 -3 c 4 -1 c 4 -3 c 5 1 c 4 -1 c 5 -1 c 4 -1 c 4 2 c 5 0 c 4 -1 c 4 -2 c
5 -2 c 4 0 c 5 0 c 4 0 c 4 1 c 5 -2 c 4 1 c 4 0 c 5 0 c 4 -1 c 5 0 c 4 -3 c 4 1 c 5 1 c 4 -2 c 4 -1 c 5 0 c 4 -1 c 4 1 c 5 0 c
4 -2 c 5 2 c 4 -1 c 4 -1 c 5 -1 c 4 -1 c 4 1 c 5 -1 c 4 3 c 5 -3 c 4 0 c 4 1 c 5 0 c 4 -3 c 4 1 c 5 4 c 4 1 c 5 0 c 4 -3 c 4 -3 c
5 0 c 4 -2 c 4 0 c 5 2 c 4 0 c 5 -2 c 4 0 c 4 0 c 5 -2 c 4 2 c 4 0 c 5 0 c 4 7 c 4 4 c 5 1 c 4 -7 c 5 -5 c 4 -2 c 4 1 c 5 0 c 4 -1 c
4 3 c 5 5 c 4 3 c 5 3 c 4 18 c 4 252 c 5 732 c 4 264 c 4 -277 c 5 -749 c 4 -233 c 5 -16 c 4 -4 c 4 -1 c 5 -1 c 4 0 c 4 0 c 5 1 c
4 -2 c 5 0 c 4 -1 c 4 -1 c 5 0 c 4 0 c 4 0 c 5 0 c 4 0 c 4 -1 c 5 -1 c 4 0 c 5 1 c 4 2 c 4 4 c 5 1 c 4 -1 c 4 -4 c 5 -2 c 4 -1 c
5 0 c 4 -1 c 4 2 c 5 -1 c 4 2 c 4 1 c 5 -2 c 4 1 c 5 0 c 4 2 c 4 1 c 5 2 c 4 1 c 4 30 c 5 251 c 4 409 c 5 64 c 4 -284 c 4 -404 c
5 -65 c 4 -5 c 4 -1 c 5 1 c 4 0 c 4 2 c 5 1 c 4 7 c 5 34 c 4 244 c 4 824 c 5 521 c 4 -201 c 4 -898 c 5 -462 c 4 -58 c 5 -9 c 4 -5 c
4 -1 c 5 -1 c 4 -2 c 4 -1 c 5 -1 c 4 0 c 5 0 c 4 0 c 4 2 c 5 1 c 4 -1 c 4 -1 c 5 0 c 4 0 c 5 -2 c 4 -1 c 4 2 c 5 2 c 4 0 c 4 -2 c
5 -2 c 4 0 c 4 1 c 5 1 c 4 -2 c 5 0 c 4 0 c 4 -1 c 5 0 c 4 -1 c 4 1 c 5 0 c 4 -1 c 5 1 c 4 0 c 4 0 c 5 1 c 4 -2 c 4 0 c 5 1 c 4 0 c
5 0 c 4 0 c 4 1 c 5 -1 c 4 1 c 4 -1 c 5 -1 c 4 0 c 4 1 c 5 -1 c 4 0 c 5 0 c 4 1 c 4 0 c 5 -2 c 4 1 c 4 1 c 5 1 c 4 0 c 5 0 c 4 6 c
4 25 c 5 23 c 4 -5 c 4 -25 c 5 -7 c 4 65 c 5 92 c 4 3 c 4 -70 c 5 -90 c 4 -7 c 4 -2 c 5 -3 c 4 -4 c 5 0 c 4 -1 c 4 -1 c 5 1 c 4 0 c
4 0 c 5 0 c 4 0 c 4 0 c 5 -1 c 4 0 c 5 1 c 4 0 c 4 -1 c 5 -1 c 4 1 c 4 -1 c 5 1 c 4 2 c 5 0 c 4 -1 c 4 0 c 5 0 c 4 -1 c 4 3 c 5 18 c
4 32 c 5 19 c 4 11 c 4 -25 c 5 -21 c 4 -29 c 4 -7 c 5 1 c 4 1 c 5 16 c 4 45 c 4 24 c 5 -15 c 4 -53 c 4 -19 c 5 0 c 4 2 c 4 -1 c
5 0 c 4 -2 c 5 1 c 4 0 c 4 0 c 5 1 c 4 -2 c 4 0 c 5 1 c 4 0 c 5 0 c 4 0 c 4 0 c 5 -1 c 4 0 c 4 0 c 5 0 c 4 0 c 5 0 c 4 0 c 4 0 c
5 -1 c 4 0 c 4 0 c 5 2 c 4 3 c 5 5 c 4 12 c 4 14 c 5 3 c 4 -6 c 4 -16 c 5 -8 c 4 -2 c 4 -1 c 5 -1 c 4 0 c 5 0 c 4 -1 c 4 0 c 5 0 c
4 0 c 4 0 c 5 0 c 4 0 c 5 0 c 4 1 c 4 1 c 5 0 c 4 -1 c 4 1 c 5 0 c 4 0 c 5 -1 c 4 0 c 4 -1 c 5 0 c 4 -1 c 4 0 c 5 1 c 4 4 c 4 24 c
5 16 c 4 -4 c 5 -23 c 4 -15 c 4 -2 c 5 -1 c 4 -1 c 4 0 c 5 0 c 4 1 c 5 0 c 4 0 c 4 0 c 5 -1 c 4 1 c 4 1 c 5 4 c 4 7 c 5 1 c 4 -4 c
4 -7 c 5 -1 c 4 -2 c 4 1 c 5 -1 c 4 2 c 5 0 c 4 1 c 4 -1 c 5 -1 c 4 1 c 4 -1 c 5 1 c 4 -1 c 4 1 c 5 2 c 4 -1 c 5 -1 c 4 0 c 4 1 c
5 0 c 4 2 c 4 1 c 5 1 c 4 9 c 5 5 c 4 -2 c 4 -10 c 5 -5 c 4 -1 c 4 2 c 5 1 c 4 1 c 5 -2 c 4 -1 c 4 1 c 5 -1 c 4 1 c 4 -1 c 5 0 c
4 -1 c 5 1 c 4 1 c 4 0 c 5 0 c 4 1 c 4 0 c 5 1 c 4 0 c 4 1 c 5 1 c 4 0 c 5 0 c 4 2 c 4 5 c 5 6 c 4 -1 c 4 -5 c 5 -4 c 4 0 c 5 -1 c
4 -1 c 4 0 c 5 -1 c 4 0 c 4 2 c 5 3 c 4 3 c 5 -1 c 4 -2 c 4 -1 c 5 -1 c 4 2 c 4 1 c 5 1 c 4 1 c 5 -1 c 4 -1 c 4 0 c 5 1 c 4 0 c
4 3 c 5 0 c 4 1 c 4 1 c 5 -2 c 4 0 c 5 0 c 4 -1 c 4 3 c 5 1 c 4 0 c 4 2 c 5 -1 c 4 0 c 5 5 c 4 16 c 4 39 c 5 5 c 4 -21 c 4 -32 c
5 -6 c 4 1 c 5 -1 c 4 -1 c 4 3 c 5 3 c 4 2 c 4 1 c 5 5 c 4 4 c 5 1 c 4 -3 c 4 1 c 5 2 c 4 3 c 4 -1 c 5 1 c 4 -1 c 4 2 c 5 3 c 4 8 c
5 10 c 4 4 c 4 0 c 5 -3 c 4 -2 c 4 4 c 5 6 c 4 2 c 5 25 c 4 100 c 4 153 c 5 44 c 4 -71 c 4 -167 c 5 -55 c 4 4 c 5 7 c 4 3 c 4 4 c
5 2 c 4 4 c 4 11 c 5 18 c 4 9 c 4 4 c 5 8 c 4 13 c 5 3 c 4 6 c 4 8 c 5 19 c 4 11 c 4 10 c 5 13 c 4 18 c 5 10 c 4 11 c 4 16 c 5 34 c
4 25 c 4 18 c 5 14 c 4 9 c 5 22 c 4 17 c 4 15 c 5 41 c 4 26 c 4 29 c 5 19 c 4 23 c 5 29 c 4 49 c 4 58 c 5 42 c 4 71 c 4 74 c 5 24 c
4 40 c 4 46 c 5 65 c 4 98 c 5 162 c 4 192 c 4 109 c 5 52 c 4 40 c 4 174 c 5 372 c 4 334 c 5 374 c 4 423 c 4 733 c 5 1174 c 0 852 c
1 -1594 9382 7019 l 4 -979 c 4 -682 c 5 -457 c 4 -379 c 4 -259 c 5 -162 c 4 -92 c 4 -71 c 5 -99 c 4 -139 c 5 -142 c 4 -122 c 4 -71 c
5 -62 c 4 -28 c 4 -38 c 5 -33 c 4 -53 c 5 -13 c 4 -8 c 4 -40 c 5 -62 c 4 -34 c 4 -29 c 5 -40 c 4 -54 c 5 -33 c 4 -9 c 4 -7 c 5 -19 c
4 -18 c 4 -24 c
5 -14 c 4 -22 c 5 -13 c 4 -14 c 4 -323 c 5 0 c 4 286 c 4 -18 c 5 -9 c 4 -6 c 4 -4 c 5 9 c 4 -5 c 5 -14 c 4 -20 c 4 -12 c 5 -5 c
4 -9 c 4 -9 c 5 -4 c 4 -5 c 5 -6 c 4 -3 c 4 -5 c 5 -2 c 4 -5 c 4 -6 c 5 -5 c 4 -3 c 5 -2 c 4 -4 c 4 -4 c 5 -3 c 4 -2 c 4 0 c 5 0 c
4 -2 c 5 -3 c 4 -6 c 4 -3 c 5 -2 c 4 2 c 4 9 c 5 4 c 4 -5 c
0 -126 3303 418 l 54 0 3303 418 l 18 -6 c 6 -6 c 6 -12 c 0 -12 c -6 -12 c -6 -6 c -18 -6 c -54 0 c 42 -66 3345 358 l
-12 -6 3453 376 l -12 -12 c -6 -18 c 0 -12 c 6 -18 c 12 -12 c 12 -6 c 18 0 c 12 6 c 12 12 c 6 18 c 0 12 c -6 18 c -12 12 c -12 6 c
-18 0 c 24 -84 3537 376 l -24 -84 3585 376 l 24 -84 3585 376 l -24 -84 3633 376 l 108 0 3675 364 l 108 0 3675 328 l 12 6 3939 394 l
18 18 c 0 -126 c -60 -126 4125 418 l 84 0 4041 418 l -12 -6 4287 376 l -12 -12 c -6 -18 c 0 -12 c 6 -18 c 12 -12 c 12 -6 c 18 0 c
12 6 c 12 12 c 6 18 c 0 12 c -6 18 c -12 12 c -12 6 c -18 0 c -12 0 4413 418 l -12 -6 c -6 -18 c 0 -102 c 42 0 4365 376 l
0 6 4545 388 l 6 12 c 6 6 c 12 6 c 24 0 c 12 -6 c 6 -6 c 6 -12 c 0 -12 c -6 -12 c -12 -18 c -60 -60 c 84 0 c -18 -6 4695 418 l
-12 -18 c -6 -30 c 0 -18 c 6 -30 c 12 -18 c 18 -6 c 12 0 c 18 6 c 12 18 c 6 30 c 0 18 c -6 30 c -12 18 c -18 6 c -12 0 c
12 6 5181 394 l 18 18 c 0 -126 c -6 -6 5294 376 l 6 -6 c 6 6 c -6 6 c -6 -6 5294 304 l 6 -6 c 6 6 c -6 6 c -48 -126 5474 418 l
48 -126 5474 418 l 60 0 5444 334 l 0 -84 5552 376 l 6 18 5552 340 l 12 12 c 12 6 c 18 0 c -12 12 5696 358 l -12 6 c -18 0 c -12 -6 c
-12 -12 c -6 -18 c 0 -12 c 6 -18 c 12 -12 c 12 -6 c 18 0 c 12 6 c 12 12 c 108 0 5738 346 l 12 6 5906 394 l 18 18 c 0 -126 c
66 0 6020 418 l -36 -48 c 18 0 c 12 -6 c 6 -6 c 6 -18 c 0 -12 c -6 -18 c -12 -12 c -18 -6 c -18 0 c -18 6 c -6 6 c -6 12 c
-6 -18 6206 376 l -12 -12 c -18 -6 c -6 0 c -18 6 c -12 12 c -6 18 c 0 6 c 6 18 c 12 12 c 18 6 c 6 0 c 18 -6 c 12 -12 c 6 -24 c
0 -30 c -6 -30 c -12 -18 c -18 -6 c -12 0 c -18 6 c -6 12 c -6 -6 6260 304 l 6 -6 c 6 6 c -6 6 c -12 0 6350 418 l -12 -6 c -6 -18 c
0 -102 c 42 0 6302 376 l 6 -6 6380 418 l 6 6 c -6 6 c -6 -6 c 0 -84 6386 376 l 0 -102 6440 418 l 6 -18 c 12 -6 c 12 0 c
42 0 6422 376 l -6 12 6566 358 l -18 6 c -18 0 c -18 -6 c -6 -12 c 6 -12 c 12 -6 c 30 -6 c 12 -6 c 6 -12 c 0 -6 c -6 -12 c -18 -6 c
-18 0 c -18 6 c -6 12 c 0 -192 6896 442 l 0 -192 6902 442 l 42 0 6896 442 l 42 0 6896 250 l 0 6 6980 388 l 6 12 c 6 6 c 12 6 c
24 0 c 12 -6 c 6 -6 c 6 -12 c 0 -12 c -6 -12 c -12 -18 c -60 -60 c 84 0 c -6 -6 7106 376 l 6 -6 c 6 6 c -6 6 c -6 -6 7106 304 l
6 -6 c 6 6 c -6 6 c 0 -192 7286 442 l 0 -192 7292 442 l 42 0 7250 442 l 42 0 7250 250 l
0 -249 1395 2744 l 80 -38 1351 2869 l 0 53 1351 2816 l 53 -37 1351 2929 l 0 56 c 80 0 1351 2929 l -3 7 1366 2979 l -12 11 c 80 0 c
-4 0 1370 3047 l -7 3 c -4 4 c -4 8 c 0 15 c 4 7 c 4 4 c 7 4 c 8 0 c 7 -4 c 12 -7 c 38 -38 c 0 53 c 4 -4 1423 3126 l 4 4 c -4 4 c
-4 -4 c 0 41 1351 3164 l 30 -22 c 0 11 c 4 8 c 4 3 c 11 4 c 8 0 c 11 -4 c 8 -7 c 4 -12 c 0 -11 c -4 -11 c -4 -4 c -8 -4 c
0 42 1351 3239 l 30 -23 c 0 12 c 4 7 c 4 4 c 11 4 c 8 0 c 11 -4 c 8 -8 c 4 -11 c 0 -11 c -4 -12 c -4 -3 c -8 -4 c 80 -38 1351 3360 l
0 53 1351 3307 l 0 -249 1905 1848 l 80 -38 1861 1973 l 0 53 1861 1920 l 53 -37 1861 2033 l 0 56 c 80 0 1861 2033 l -4 7 1877 2083 l
-12 11 c 80 0 c 4 -12 1861 2166 l 8 -3 c 7 0 c 8 3 c 4 8 c 3 15 c 4 11 c 8 8 c 7 4 c 12 0 c 7 -4 c 4 -4 c 4 -11 c 0 -15 c -4 -12 c
-4 -3 c -7 -4 c -12 0 c -7 4 c -8 7 c -4 11 c -3 16 c -4 7 c -8 4 c -7 0 c -8 -4 c -4 -11 c 0 -15 c 4 -4 1933 2230 l 4 4 c -4 4 c
-4 -4 c 0 -38 1861 2306 l 34 -4 c -3 4 c -4 11 c 0 11 c 4 12 c 7 7 c 12 4 c 7 0 c 11 -4 c 8 -7 c 4 -12 c 0 -11 c -4 -11 c -4 -4 c
-7 -4 c 0 -38 1861 2381 l 34 -3 c -3 3 c -4 12 c 0 11 c 4 11 c 7 8 c 12 4 c 7 0 c 11 -4 c 8 -8 c 4 -11 c 0 -11 c -4 -12 c -4 -3 c
-7 -4 c 4 -11 1861 2434 l 12 -8 c 18 -4 c 12 0 c 19 4 c 11 8 c 4 11 c 0 8 c -4 11 c -11 7 c -19 4 c -12 0 c -18 -4 c -12 -7 c
-4 -11 c 0 -8 c 0 -250 2216 1537 l 80 -38 2172 1662 l 0 53 2172 1609 l 53 -38 2172 1722 l 0 57 c 80 0 2172 1722 l -3 0 2191 1764 l
-8 3 c -4 4 c -4 8 c 0 15 c 4 7 c 4 4 c 8 4 c 7 0 c 8 -4 c 11 -7 c 38 -38 c 0 53 c -3 0 2191 1839 l -8 4 c -4 4 c -4 7 c 0 16 c
4 7 c 4 4 c 8 4 c 7 0 c 8 -4 c 11 -8 c 38 -37 c 0 52 c 4 -4 2244 1919 l 4 4 c -4 3 c -4 -3 c 0 42 2172 1956 l 31 -23 c 0 12 c 3 7 c
4 4 c 12 4 c 7 0 c 12 -4 c 7 -8 c 4 -11 c 0 -11 c -4 -12 c -4 -3 c -7 -4 c -4 7 2188 2036 l -12 12 c 80 0 c -3 0 2191 2104 l -8 4 c
-4 3 c -4 8 c 0 15 c 4 8 c 4 3 c 8 4 c 7 0 c 8 -4 c 11 -7 c 38 -38 c 0 53 c 0 -249 2463 2792 l 79 -38 2420 2917 l 0 53 2420 2864 l
52 -37 2420 2977 l 0 56 c 79 0 2420 2977 l -3 0 2438 3019 l -8 4 c -4 4 c -3 7 c 0 15 c 3 8 c 4 4 c 8 3 c 7 0 c 8 -3 c 11 -8 c
38 -38 c 0 53 c 0 -38 2420 3136 l 34 -3 c -4 3 c -4 12 c 0 11 c 4 11 c 7 8 c 12 4 c 7 0 c 12 -4 c 7 -8 c 4 -11 c 0 -11 c -4 -12 c
-4 -3 c -7 -4 c 4 -4 2491 3174 l 4 4 c -4 4 c -4 -4 c -3 0 2438 3208 l -8 4 c -4 4 c -3 7 c 0 15 c 3 8 c 4 4 c 8 3 c 7 0 c 8 -3 c
11 -8 c 38 -38 c 0 53 c 11 -4 2446 3329 l 8 -7 c 4 -12 c 0 -4 c -4 -11 c -8 -7 c -11 -4 c -4 0 c -11 4 c -8 7 c -3 11 c 0 4 c 3 12 c
8 7 c 15 4 c 19 0 c 19 -4 c 11 -7 c 4 -12 c 0 -7 c -4 -12 c -7 -3 c 52 -38 2420 3393 l 0 57 c 79 0 2420 3393 l 0 -250 2767 4809 l
79 -38 2723 4934 l 0 53 2723 4881 l 53 -38 2723 4994 l 0 57 c 79 0 2723 4994 l -4 0 2742 5036 l -8 4 c -3 3 c -4 8 c 0 15 c 4 8 c
3 3 c 8 4 c 8 0 c 7 -4 c 11 -7 c 38 -38 c 0 53 c 4 -12 2723 5127 l 7 -4 c 8 0 c 7 4 c 4 8 c 4 15 c 4 11 c 7 8 c 8 4 c 11 0 c 8 -4 c
3 -4 c 4 -11 c 0 -15 c -4 -12 c -3 -4 c -8 -3 c -11 0 c -8 3 c -7 8 c -4 11 c -4 15 c -4 8 c -7 4 c -8 0 c -7 -4 c -4 -11 c 0 -15 c
3 -4 2795 5191 l 4 4 c -4 4 c -3 -4 c 12 -4 2749 5270 l 7 -7 c 4 -12 c 0 -3 c -4 -12 c -7 -7 c -12 -4 c -3 0 c -12 4 c -7 7 c
-4 12 c 0 3 c 4 12 c 7 7 c 15 4 c 19 0 c 19 -4 c 11 -7 c 4 -12 c 0 -7 c -4 -11 c -7 -4 c 53 -37 2723 5334 l 0 56 c 79 0 2723 5334 l
4 -11 2723 5395 l 11 -8 c 19 -4 c 11 0 c 19 4 c 11 8 c 4 11 c 0 7 c -4 12 c -11 7 c -19 4 c -11 0 c -19 -4 c -11 -7 c -4 -12 c
0 -7 c 0 -250 2876 2933 l 79 -38 2833 3058 l 0 53 2833 3005 l 52 -38 2833 3118 l 0 57 c 79 0 2833 3118 l 0 41 2833 3164 l 30 -23 c
0 12 c 4 7 c 3 4 c 12 4 c 7 0 c 12 -4 c 7 -7 c 4 -12 c 0 -11 c -4 -11 c -4 -4 c -7 -4 c 3 -11 2833 3254 l 12 -8 c 19 -3 c 11 0 c
19 3 c 11 8 c 4 11 c 0 8 c -4 11 c -11 8 c -19 4 c -11 0 c -19 -4 c -12 -8 c -3 -11 c 0 -8 c 4 -4 2904 3315 l 4 4 c -4 4 c -4 -4 c
-3 0 2851 3349 l -8 4 c -4 3 c -3 8 c 0 15 c 3 8 c 4 3 c 8 4 c 7 0 c 8 -4 c 11 -7 c 38 -38 c 0 53 c 0 -38 2833 3466 l 34 -4 c -4 4 c
-4 11 c 0 12 c 4 11 c 7 8 c 12 3 c 7 0 c 12 -3 c 7 -8 c 4 -11 c 0 -12 c -4 -11 c -4 -4 c -7 -3 c 0 41 2833 3504 l 30 -22 c 0 11 c
4 8 c 3 3 c 12 4 c 7 0 c 12 -4 c 7 -7 c 4 -12 c 0 -11 c -4 -11 c -4 -4 c -7 -4 c 0 -249 3305 5937 l 79 -38 3262 6062 l
0 53 3262 6009 l 52 -38 3262 6123 l 0 56 c 79 0 3262 6123 l 0 41 3262 6168 l 30 -22 c 0 11 c 4 8 c 3 3 c 12 4 c 7 0 c 12 -4 c 7 -7 c
4 -11 c 0 -12 c -4 -11 c -4 -4 c -7 -4 c 0 -38 3262 6281 l 34 -3 c -4 3 c -4 12 c 0 11 c 4 12 c 7 7 c 12 4 c 7 0 c 12 -4 c 7 -7 c
4 -12 c 0 -11 c -4 -12 c -4 -3 c -7 -4 c 4 -4 3333 6319 l 4 4 c -4 4 c -4 -4 c 0 41 3262 6357 l 30 -22 c 0 11 c 4 8 c 3 3 c 12 4 c
7 0 c 12 -4 c 7 -7 c 4 -11 c 0 -12 c -4 -11 c -4 -4 c -7 -4 c -8 -4 3273 6474 l -3 -11 c 0 -8 c 3 -11 c 12 -8 c 19 -3 c 18 0 c
16 3 c 7 8 c 4 11 c 0 4 c -4 11 c -7 8 c -12 4 c -4 0 c -11 -4 c -7 -8 c -4 -11 c 0 -4 c 4 -11 c 7 -8 c 11 -3 c 3 -11 3262 6519 l
8 -4 c 7 0 c 8 4 c 4 8 c 4 15 c 3 11 c 8 8 c 7 3 c 12 0 c 7 -3 c 4 -4 c 4 -11 c 0 -16 c -4 -11 c -4 -4 c -7 -4 c -12 0 c -7 4 c
-8 8 c -3 11 c -4 15 c -4 8 c -8 4 c -7 0 c -8 -4 c -3 -11 c 0 -16 c 0 -250 3383 2760 l 79 -38 3340 2884 l 0 53 3340 2831 l
53 -38 3340 2945 l 0 57 c 79 0 3340 2945 l 0 42 3340 2990 l 30 -23 c 0 11 c 4 8 c 3 4 c 12 3 c 7 0 c 12 -3 c 7 -8 c 4 -11 c 0 -12 c
-4 -11 c -4 -4 c -7 -3 c -8 -4 3351 3107 l -3 -11 c 0 -7 c 3 -12 c 12 -7 c 19 -4 c 19 0 c 15 4 c 7 7 c 4 12 c 0 3 c -4 12 c -7 7 c
-12 4 c -3 0 c -12 -4 c -7 -7 c -4 -12 c 0 -3 c 4 -12 c 7 -7 c 12 -4 c 4 -4 3411 3141 l 4 4 c -4 4 c -4 -4 c -3 0 3358 3175 l -8 4 c
-4 4 c -3 7 c 0 16 c 3 7 c 4 4 c 8 4 c 7 0 c 8 -4 c 11 -8 c 38 -37 c 0 52 c 11 -4 3366 3296 l 8 -7 c 4 -11 c 0 -4 c -4 -12 c -8 -7 c
-11 -4 c -4 0 c -11 4 c -8 7 c -3 12 c 0 4 c 3 11 c 8 7 c 15 4 c 19 0 c 19 -4 c 11 -7 c 4 -11 c 0 -8 c -4 -11 c -7 -4 c
79 -38 3340 3376 l 0 53 3340 3323 l 0 -250 4098 1784 l 80 -38 4054 1909 l 0 53 4054 1856 l 53 -38 4054 1969 l 0 57 c
80 0 4054 1969 l 53 -38 4054 2045 l 0 57 c 80 0 4054 2045 l 53 -37 4054 2120 l 0 56 c 80 0 4054 2120 l 4 -4 4126 2166 l 4 4 c -4 3 c
-4 -3 c 80 -38 4054 2249 l 0 53 4054 2196 l 53 -38 4054 2309 l 0 57 c 80 0 4054 2309 l 11 -4 4081 2396 l 8 -7 c 4 -11 c 0 -4 c
-4 -12 c -8 -7 c -11 -4 c -4 0 c -11 4 c -8 7 c -4 12 c 0 4 c 4 11 c 8 7 c 15 4 c 19 0 c 19 -4 c 11 -7 c 4 -11 c 0 -8 c -4 -11 c
-7 -4 c 0 -249 4362 1659 l 79 -38 4319 1784 l 0 53 4319 1731 l 53 -38 4319 1845 l 0 57 c 79 0 4319 1845 l 53 -38 4319 1920 l 0 57 c
79 0 4319 1920 l 79 -38 4319 2011 l 0 53 4319 1958 l 4 -4 4390 2041 l 4 4 c -4 4 c -4 -4 c 3 -11 4319 2090 l 8 -4 c 8 0 c 7 4 c
4 7 c 4 16 c 3 11 c 8 8 c 8 3 c 11 0 c 7 -3 c 4 -4 c 4 -12 c 0 -15 c -4 -11 c -4 -4 c -7 -4 c -11 0 c -8 4 c -8 8 c -3 11 c -4 15 c
-4 8 c -7 4 c -8 0 c -8 -4 c -3 -12 c 0 -15 c 53 -38 4319 2185 l 0 57 c 79 0 4319 2185 l 11 -4 4345 2272 l 8 -8 c 4 -11 c 0 -4 c
-4 -11 c -8 -8 c -11 -3 c -4 0 c -11 3 c -8 8 c -3 11 c 0 4 c 3 11 c 8 8 c 15 4 c 19 0 c 19 -4 c 11 -8 c 4 -11 c 0 -8 c -4 -11 c
-7 -4 c 0 -250 4994 1349 l 80 -38 4950 1474 l 0 53 4950 1421 l 53 -38 4950 1534 l 0 57 c 80 0 4950 1534 l 0 -38 4950 1617 l 34 -3 c
-4 3 c -3 12 c 0 11 c 3 11 c 8 8 c 11 4 c 8 0 c 11 -4 c 8 -8 c 4 -11 c 0 -11 c -4 -12 c -4 -3 c -8 -4 c 0 -38 4950 1693 l 34 -4 c
-4 4 c -3 11 c 0 12 c 3 11 c 8 8 c 11 3 c 8 0 c 11 -3 c 8 -8 c 4 -11 c 0 -12 c -4 -11 c -4 -4 c -8 -4 c 4 -4 5022 1731 l 4 4 c
-4 3 c -4 -3 c -4 0 4969 1765 l -7 3 c -4 4 c -4 8 c 0 15 c 4 7 c 4 4 c 7 4 c 8 0 c 7 -4 c 12 -7 c 38 -38 c 0 53 c 4 -11 4950 1859 l
11 -8 c 19 -4 c 12 0 c 18 4 c 12 8 c 4 11 c 0 8 c -4 11 c -12 8 c -18 3 c -12 0 c -19 -3 c -11 -8 c -4 -11 c 0 -8 c
4 -11 4950 1931 l 8 -4 c 7 0 c 8 4 c 3 7 c 4 15 c 4 12 c 8 7 c 7 4 c 11 0 c 8 -4 c 4 -4 c 4 -11 c 0 -15 c -4 -11 c -4 -4 c -8 -4 c
-11 0 c -7 4 c -8 7 c -4 12 c -4 15 c -3 7 c -8 4 c -7 0 c -8 -4 c -4 -11 c 0 -15 c 0 -250 5572 1719 l 80 -38 5528 1844 l
0 53 5528 1791 l 53 -38 5528 1904 l 0 57 c 80 0 5528 1904 l -8 -4 5540 1991 l -4 -11 c 0 -8 c 4 -11 c 11 -8 c 19 -3 c 19 0 c 15 3 c
8 8 c 4 11 c 0 4 c -4 11 c -8 8 c -11 4 c -4 0 c -11 -4 c -8 -8 c -3 -11 c 0 -4 c 3 -11 c 8 -8 c 11 -3 c -3 7 5543 2029 l -12 12 c
80 0 c 4 -4 5600 2101 l 4 4 c -4 3 c -4 -3 c 4 -12 5528 2150 l 8 -3 c 7 0 c 8 3 c 4 8 c 3 15 c 4 11 c 8 8 c 7 4 c 12 0 c 7 -4 c
4 -4 c 4 -11 c 0 -15 c -4 -12 c -4 -3 c -7 -4 c -12 0 c -7 4 c -8 7 c -4 11 c -3 16 c -4 7 c -8 4 c -7 0 c -8 -4 c -4 -11 c 0 -15 c
80 -37 5528 2259 l 0 53 5528 2206 l 0 -37 5528 2327 l 34 -4 c -3 4 c -4 11 c 0 11 c 4 12 c 7 7 c 11 4 c 8 0 c 11 -4 c 8 -7 c 4 -12 c
0 -11 c -4 -11 c -4 -4 c -7 -4 c 0 -250 6386 3886 l 80 -38 6342 4011 l 0 53 6342 3958 l 53 -38 6342 4071 l 0 57 c 80 0 6342 4071 l
80 -38 6342 4162 l 0 53 6342 4109 l -4 7 6358 4196 l -12 12 c 80 0 c 4 -4 6414 4268 l 4 4 c -4 3 c -4 -3 c -4 8 6358 4309 l -12 11 c
80 0 c -8 -3 6354 4422 l -4 -12 c 0 -7 c 4 -12 c 12 -7 c 18 -4 c 19 0 c 15 4 c 8 7 c 4 12 c 0 4 c -4 11 c -8 7 c -11 4 c -4 0 c
-11 -4 c -8 -7 c -3 -11 c 0 -4 c 3 -12 c 8 -7 c 11 -4 c 53 -38 6342 4487 l 0 57 c 80 0 6342 4487 l 0 -249 7293 2543 l
80 -38 7249 2668 l 0 53 7249 2615 l 53 -37 7249 2728 l 0 56 c 80 0 7249 2728 l 4 -11 7249 2785 l 8 -4 c 7 0 c 8 4 c 4 7 c 3 15 c
4 12 c 8 7 c 7 4 c 12 0 c 7 -4 c 4 -3 c 4 -12 c 0 -15 c -4 -11 c -4 -4 c -7 -4 c -12 0 c -7 4 c -8 7 c -4 12 c -3 15 c -4 8 c -8 3 c
-7 0 c -8 -3 c -4 -12 c 0 -15 c -3 8 7264 2853 l -12 11 c 80 0 c 4 -4 7321 2925 l 4 4 c -4 4 c -4 -4 c 0 41 7249 2963 l 31 -22 c
0 11 c 3 7 c 4 4 c 12 4 c 7 0 c 11 -4 c 8 -7 c 4 -12 c 0 -11 c -4 -11 c -4 -4 c -7 -4 c 0 -38 7249 3076 l 34 -4 c -3 4 c -4 12 c
0 11 c 4 11 c 7 8 c 12 4 c 7 0 c 11 -4 c 8 -8 c 4 -11 c 0 -11 c -4 -12 c -4 -4 c -7 -3 c 0 -38 7249 3152 l 34 -4 c -3 4 c -4 11 c
0 12 c 4 11 c 7 7 c 12 4 c 7 0 c 11 -4 c 8 -7 c 4 -11 c 0 -12 c -4 -11 c -4 -4 c -7 -4 c 0 -249 7497 2019 l 79 -38 7454 2144 l
0 53 7454 2091 l 52 -37 7454 2204 l 0 56 c 79 0 7454 2204 l 3 -11 7454 2261 l 8 -4 c 7 0 c 8 4 c 4 7 c 4 15 c 3 12 c 8 7 c 7 4 c
12 0 c 7 -4 c 4 -4 c 4 -11 c 0 -15 c -4 -11 c -4 -4 c -7 -4 c -12 0 c -7 4 c -8 7 c -3 12 c -4 15 c -4 7 c -8 4 c -7 0 c -8 -4 c
-3 -11 c 0 -15 c 0 42 7454 2325 l 30 -23 c 0 12 c 4 7 c 3 4 c 12 4 c 7 0 c 12 -4 c 7 -8 c 4 -11 c 0 -11 c -4 -12 c -4 -4 c -7 -3 c
4 -4 7525 2401 l 4 4 c -4 4 c -4 -4 c -8 -4 7465 2480 l -3 -11 c 0 -7 c 3 -12 c 12 -7 c 19 -4 c 18 0 c 16 4 c 7 7 c 4 12 c 0 3 c
-4 12 c -7 7 c -12 4 c -4 0 c -11 -4 c -7 -7 c -4 -12 c 0 -3 c 4 -12 c 7 -7 c 11 -4 c -3 0 7472 2510 l -8 4 c -4 4 c -3 8 c 0 15 c
3 7 c 4 4 c 8 4 c 7 0 c 8 -4 c 11 -8 c 38 -37 c 0 53 c -8 -3 7465 2631 l -3 -12 c 0 -7 c 3 -12 c 12 -7 c 19 -4 c 18 0 c 16 4 c 7 7 c
4 12 c 0 4 c -4 11 c -7 7 c -12 4 c -4 0 c -11 -4 c -7 -7 c -4 -11 c 0 -4 c 4 -12 c 7 -7 c 11 -4 c 0 -249 7561 2893 l
79 -38 7517 3018 l 0 53 7517 2965 l 53 -37 7517 3078 l 0 56 c 79 0 7517 3078 l 4 -11 7517 3135 l 7 -4 c 8 0 c 7 4 c 4 7 c 4 15 c
4 12 c 7 7 c 8 4 c 11 0 c 8 -4 c 4 -3 c 3 -12 c 0 -15 c -3 -11 c -4 -4 c -8 -4 c -11 0 c -8 4 c -7 8 c -4 11 c -4 15 c -4 8 c -7 3 c
-8 0 c -7 -3 c -4 -12 c 0 -15 c 53 -38 7517 3230 l 0 57 c 79 0 7517 3230 l 4 -4 7589 3275 l 3 4 c -3 4 c -4 -4 c 0 41 7517 3313 l
30 -22 c 0 11 c 4 8 c 4 3 c 11 4 c 8 0 c 11 -4 c 8 -7 c 3 -12 c 0 -11 c -3 -11 c -4 -4 c -8 -4 c -4 0 7536 3385 l -8 3 c -3 4 c
-4 8 c 0 15 c 4 7 c 3 4 c 8 4 c 8 0 c 7 -4 c 12 -7 c 37 -38 c 0 53 c 79 -37 7517 3509 l 0 53 7517 3456 l 0 -249 7890 1430 l
79 -38 7847 1555 l 0 53 7847 1502 l 52 -37 7847 1615 l 0 56 c 79 0 7847 1615 l 3 -11 7847 1672 l 8 -4 c 7 0 c 8 4 c 4 7 c 4 15 c
3 12 c 8 7 c 7 4 c 12 0 c 7 -4 c 4 -3 c 4 -12 c 0 -15 c -4 -11 c -4 -4 c -7 -4 c -12 0 c -7 4 c -8 8 c -3 11 c -4 15 c -4 8 c -8 3 c
-7 0 c -8 -3 c -3 -12 c 0 -15 c 79 -38 7847 1782 l 0 53 7847 1729 l 4 -4 7918 1812 l 4 4 c -4 4 c -4 -4 c 11 -3 7873 1891 l 8 -8 c
4 -11 c 0 -4 c -4 -11 c -8 -8 c -11 -4 c -4 0 c -11 4 c -8 8 c -3 11 c 0 4 c 3 11 c 8 8 c 15 3 c 19 0 c 19 -3 c 11 -8 c 4 -11 c
0 -8 c -4 -11 c -7 -4 c 79 -38 7847 1971 l 0 53 7847 1918 l 52 -38 7847 2031 l 0 57 c 79 0 7847 2031 l
showpage PGPLOT restore
 
%%Trailer
%%DocumentFonts: 
%%Pages: 1
%%EOF
