%!PS-Adobe-3.0 EPSF-3.0
%%For: tab
%%Title: PGPLOT PostScript plot
%%Creator: PGPLOT
%%CreationDate: 20-Apr-1995 16:42
%%BoundingBox: 25 18 587 774
%%DocumentFonts: (atend)
%%LanguageLevel: 1
%%Orientation: Landscape
%%Pages: (atend)
%%EndComments
%%BeginProlog
/l {moveto rlineto currentpoint stroke moveto} bind def
/c {rlineto currentpoint stroke moveto} bind def
/d {moveto 0 0 rlineto currentpoint stroke moveto} bind def
/SLW {5 mul setlinewidth} bind def
/SCF /pop load def
/BP {newpath moveto} bind def
/LP /rlineto load def
/EP {rlineto closepath eofill} bind def
/MB {gsave translate MFAC dup scale 1 setlinewidth 2 setlinecap 0 setlinejoin newpath} bind def
/ME /grestore load def
/C {0 360 arc stroke} bind def
/FC {0 360 arc fill} bind def
%%EndProlog
 
%%Page: 1 1
%%BeginPageSetup
/PGPLOT save def
0.072 0.072 scale
8150 250 translate 90 rotate
1 setlinejoin 1 setlinecap 1 SLW 1 SCF
%%EndPageSetup
0.000 setgray 1 SLW 8939 0 780 780 l 0 6239 c -8939 0 c 0 -6239 c 0 -45 1116 780 l 0 -45 1554 780 l 0 -45 1991 780 l
0 -45 2428 780 l 0 -90 2865 780 l 0 -45 3302 780 l 0 -45 3739 780 l 0 -45 4176 780 l 0 -45 4613 780 l 0 -90 5051 780 l
0 -45 5488 780 l 0 -45 5925 780 l 0 -45 6362 780 l 0 -45 6799 780 l 0 -90 7236 780 l 0 -45 7673 780 l 0 -45 8110 780 l
0 -45 8548 780 l 0 -45 8985 780 l 0 -90 9422 780 l 0 -45 1116 7064 l 0 -45 1554 7064 l 0 -45 1991 7064 l 0 -45 2428 7064 l
0 -90 2865 7109 l 0 -45 3302 7064 l 0 -45 3739 7064 l 0 -45 4176 7064 l 0 -45 4613 7064 l 0 -90 5051 7109 l 0 -45 5488 7064 l
0 -45 5925 7064 l 0 -45 6362 7064 l 0 -45 6799 7064 l 0 -90 7236 7109 l 0 -45 7673 7064 l 0 -45 8110 7064 l 0 -45 8548 7064 l
0 -45 8985 7064 l 0 -90 9422 7109 l -60 0 2775 672 l -6 -54 c 6 6 c 18 6 c 18 0 c 18 -6 c 12 -12 c 6 -18 c 0 -12 c -6 -18 c
-12 -12 c -18 -6 c -18 0 c -18 6 c -6 6 c -6 12 c -18 -6 2859 672 l -12 -18 c -6 -30 c 0 -18 c 6 -30 c 12 -18 c 18 -6 c 12 0 c
18 6 c 12 18 c 6 30 c 0 18 c -6 30 c -12 18 c -18 6 c -12 0 c -18 -6 2979 672 l -12 -18 c -6 -30 c 0 -18 c 6 -30 c 12 -18 c 18 -6 c
12 0 c 18 6 c 12 18 c 6 30 c 0 18 c -6 30 c -12 18 c -18 6 c -12 0 c 12 6 4847 648 l 18 18 c 0 -126 c -18 -6 4985 672 l -12 -18 c
-6 -30 c 0 -18 c 6 -30 c 12 -18 c 18 -6 c 12 0 c 18 6 c 12 18 c 6 30 c 0 18 c -6 30 c -12 18 c -18 6 c -12 0 c -18 -6 5105 672 l
-12 -18 c -6 -30 c 0 -18 c 6 -30 c 12 -18 c 18 -6 c 12 0 c 18 6 c 12 18 c 6 30 c 0 18 c -6 30 c -12 18 c -18 6 c -12 0 c
-18 -6 5225 672 l -12 -18 c -6 -30 c 0 -18 c 6 -30 c 12 -18 c 18 -6 c 12 0 c 18 6 c 12 18 c 6 30 c 0 18 c -6 30 c -12 18 c -18 6 c
-12 0 c 12 6 7032 648 l 18 18 c 0 -126 c -60 0 7206 672 l -6 -54 c 6 6 c 18 6 c 18 0 c 18 -6 c 12 -12 c 6 -18 c 0 -12 c -6 -18 c
-12 -12 c -18 -6 c -18 0 c -18 6 c -6 6 c -6 12 c -18 -6 7290 672 l -12 -18 c -6 -30 c 0 -18 c 6 -30 c 12 -18 c 18 -6 c 12 0 c
18 6 c 12 18 c 6 30 c 0 18 c -6 30 c -12 18 c -18 6 c -12 0 c -18 -6 7410 672 l -12 -18 c -6 -30 c 0 -18 c 6 -30 c 12 -18 c 18 -6 c
12 0 c 18 6 c 12 18 c 6 30 c 0 18 c -6 30 c -12 18 c -18 6 c -12 0 c 0 6 9206 642 l 6 12 c 6 6 c 12 6 c 24 0 c 12 -6 c 6 -6 c
6 -12 c 0 -12 c -6 -12 c -12 -18 c -60 -60 c 84 0 c -18 -6 9356 672 l -12 -18 c -6 -30 c 0 -18 c 6 -30 c 12 -18 c 18 -6 c 12 0 c
18 6 c 12 18 c 6 30 c 0 18 c -6 30 c -12 18 c -18 6 c -12 0 c -18 -6 9476 672 l -12 -18 c -6 -30 c 0 -18 c 6 -30 c 12 -18 c 18 -6 c
12 0 c 18 6 c 12 18 c 6 30 c 0 18 c -6 30 c -12 18 c -18 6 c -12 0 c -18 -6 9596 672 l -12 -18 c -6 -30 c 0 -18 c 6 -30 c 12 -18 c
18 -6 c 12 0 c 18 6 c 12 18 c 6 30 c 0 18 c -6 30 c -12 18 c -18 6 c -12 0 c -90 0 780 818 l -45 0 780 1067 l -45 0 780 1316 l
-45 0 780 1565 l -45 0 780 1814 l -90 0 780 2063 l -45 0 780 2312 l -45 0 780 2561 l -45 0 780 2810 l -45 0 780 3059 l
-90 0 780 3308 l -45 0 780 3557 l -45 0 780 3807 l -45 0 780 4056 l -45 0 780 4305 l -90 0 780 4554 l -45 0 780 4803 l
-45 0 780 5052 l -45 0 780 5301 l -45 0 780 5550 l -90 0 780 5799 l -45 0 780 6048 l -45 0 780 6297 l -45 0 780 6546 l
-45 0 780 6795 l -90 0 9809 818 l -45 0 9764 1067 l -45 0 9764 1316 l -45 0 9764 1565 l -45 0 9764 1814 l -90 0 9809 2063 l
-45 0 9764 2312 l -45 0 9764 2561 l -45 0 9764 2810 l -45 0 9764 3059 l -90 0 9809 3308 l -45 0 9764 3557 l -45 0 9764 3807 l
-45 0 9764 4056 l -45 0 9764 4305 l -90 0 9809 4554 l -45 0 9764 4803 l -45 0 9764 5052 l -45 0 9764 5301 l -45 0 9764 5550 l
-90 0 9809 5799 l -45 0 9764 6048 l -45 0 9764 6297 l -45 0 9764 6546 l -45 0 9764 6795 l 6 -18 517 812 l 18 -12 c 30 -6 c 18 0 c
30 6 c 18 12 c 6 18 c 0 12 c -6 18 c -18 12 c -30 6 c -18 0 c -30 -6 c -18 -12 c -6 -18 c 0 -12 c 0 -60 517 1913 l 54 -6 c -6 6 c
-6 18 c 0 18 c 6 18 c 12 12 c 18 6 c 12 0 c 18 -6 c 12 -12 c 6 -18 c 0 -18 c -6 -18 c -6 -6 c -12 -6 c 6 -18 517 1997 l 18 -12 c
30 -6 c 18 0 c 30 6 c 18 12 c 6 18 c 0 12 c -6 18 c -18 12 c -30 6 c -18 0 c -30 -6 c -18 -12 c -6 -18 c 0 -12 c 6 -18 517 2117 l
18 -12 c 30 -6 c 18 0 c 30 6 c 18 12 c 6 18 c 0 12 c -6 18 c -18 12 c -30 6 c -18 0 c -30 -6 c -18 -12 c -6 -18 c 0 -12 c
6 -18 517 2237 l 18 -12 c 30 -6 c 18 0 c 30 6 c 18 12 c 6 18 c 0 12 c -6 18 c -18 12 c -30 6 c -18 0 c -30 -6 c -18 -12 c -6 -18 c
0 -12 c -6 12 541 3188 l -18 18 c 126 0 c 6 -18 517 3326 l 18 -12 c 30 -6 c 18 0 c 30 6 c 18 12 c 6 18 c 0 12 c -6 18 c -18 12 c
-30 6 c -18 0 c -30 -6 c -18 -12 c -6 -18 c 0 -12 c 63 -45 453 3451 l 0 67 c 94 0 453 3451 l -6 12 541 4218 l -18 18 c 126 0 c
6 -6 631 4332 l 6 6 c -6 6 c -6 -6 c 0 -60 517 4452 l 54 -6 c -6 6 c -6 18 c 0 18 c 6 18 c 12 12 c 18 6 c 12 0 c 18 -6 c 12 -12 c
6 -18 c 0 -18 c -6 -18 c -6 -6 c -12 -6 c 84 84 547 4506 l 84 -84 547 4590 l -6 12 541 4650 l -18 18 c 126 0 c 6 -18 517 4788 l
18 -12 c 30 -6 c 18 0 c 30 6 c 18 12 c 6 18 c 0 12 c -6 18 c -18 12 c -30 6 c -18 0 c -30 -6 c -18 -12 c -6 -18 c 0 -12 c
63 -45 453 4912 l 0 68 c 94 0 453 4912 l -6 0 547 5541 l -12 6 c -6 6 c -6 12 c 0 24 c 6 12 c 6 6 c 12 6 c 12 0 c 12 -6 c 18 -12 c
60 -60 c 0 84 c 84 84 547 5661 l 84 -84 547 5745 l -6 12 541 5805 l -18 18 c 126 0 c 6 -18 517 5943 l 18 -12 c 30 -6 c 18 0 c 30 6 c
18 12 c 6 18 c 0 12 c -6 18 c -18 12 c -30 6 c -18 0 c -30 -6 c -18 -12 c -6 -18 c 0 -12 c 63 -45 453 6067 l 0 68 c 94 0 453 6067 l
4 0 780 871 l 5 2 c 4 0 c 4 -1 c 5 1 c 4 1 c 4 0 c 5 -1 c 4 6 c 5 8 c 4 2 c 4 -5 c 5 -8 c 4 -1 c 4 2 c 5 -3 c 4 1 c 5 -2 c 4 0 c
4 1 c 5 0 c 4 1 c 4 1 c 5 -1 c 4 0 c 5 1 c 4 0 c 4 1 c 5 2 c 4 1 c 4 0 c 5 0 c 4 2 c 5 7 c 4 7 c 4 2 c 5 -7 c 4 -6 c 4 -1 c 5 0 c
4 1 c 4 2 c 5 1 c 4 3 c 5 3 c 4 0 c 4 -2 c 5 1 c 4 0 c 4 2 c 5 1 c 4 1 c 5 -1 c 4 2 c 4 2 c 5 0 c 4 1 c 4 1 c 5 1 c 4 2 c 5 -2 c
4 0 c 4 2 c 5 2 c 4 2 c 4 3 c 5 2 c 4 7 c 5 28 c 4 29 c 4 3 c 5 -28 c 4 -23 c 4 -5 c 5 -1 c 4 2 c 4 4 c 5 3 c 4 3 c 5 7 c 4 5 c
4 1 c 5 2 c 4 -133 c 4 0 c 5 137 c 4 7 c 5 5 c 4 8 c 4 11 c 5 9 c 4 6 c 4 1 c 5 2 c 4 6 c 5 18 c 4 50 c 4 155 c 5 127 c 4 7 c
4 -151 c 5 -126 c 4 -27 c 5 8 c 4 11 c 4 9 c 5 7 c 4 19 c 4 9 c 5 22 c 4 21 c 4 6 c 5 5 c 4 9 c 5 17 c 4 17 c 4 21 c 5 26 c 4 24 c
4 6 c 5 33 c 4 45 c 5 26 c 4 13 c 4 27 c 5 47 c 4 28 c 4 24 c 5 42 c 4 66 c 5 27 c 4 19 c 4 48 c 5 101 c 4 113 c 4 83 c 5 39 c
4 107 c 5 51 c 4 138 c 4 228 c 5 264 c 4 232 c 4 211 c 5 220 c 4 312 c 4 593 c 5 921 c 4 1267 c 0 394 c 0 -505 1488 7019 l 4 -1144 c
5 -769 c 4 -531 c 5 -295 c 4 -240 c 4 -274 c 5 -197 c 4 -174 c 4 -188 c 5 -143 c 4 -97 c 4 -145 c 5 -66 c 4 -59 c 5 14 c 4 -28 c
4 -96 c 5 -125 c 4 -64 c 4 -66 c 5 -67 c 4 -63 c 5 -34 c 4 -47 c 4 -48 c 5 -19 c 4 -17 c 4 -28 c 5 -32 c 4 -39 c 5 -17 c 4 -30 c
4 -21 c 5 -21 c 4 -14 c 4 -22 c 5 -20 c 4 -23 c 5 -11 c 4 -23 c 4 -25 c 5 -22 c 4 -10 c 4 -12 c 5 -9 c 4 -13 c 4 -13 c 5 -5 c
4 -12 c 5 -7 c 4 -13 c 4 -10 c 5 -4 c 4 -1 c 4 -7 c 5 -9 c 4 -5 c 5 -10 c 4 -6 c 4 1 c 5 3 c 4 5 c 4 2 c 5 14 c 4 -11 c 5 -25 c
4 -20 c 4 -10 c 5 2 c 4 -3 c 4 2 c 5 8 c 4 40 c 5 32 c 4 -13 c 4 -47 c 5 -28 c 4 5 c 4 30 c 5 11 c 4 -18 c 4 -28 c 5 -17 c 4 -7 c
5 2 c 4 -1 c 4 -1 c 5 -4 c 4 -2 c 4 1 c 5 5 c 4 -1 c 5 4 c 4 -1 c 4 -4 c 5 0 c 4 -2 c 4 2 c 5 0 c 4 3 c 5 -2 c 4 3 c 4 3 c 5 9 c
4 26 c 4 162 c 5 422 c 4 316 c 5 -89 c 4 -451 c 4 -289 c 5 -79 c 4 -7 c 4 0 c 5 3 c 4 7 c 4 0 c 5 2 c 4 4 c 5 1 c 4 11 c 4 26 c
5 119 c 4 180 c 4 66 c 5 -113 c 4 -171 c 5 -62 c 4 5 c 4 21 c 5 84 c 4 76 c 4 23 c 5 -73 c 4 -68 c 5 -4 c 4 8 c 4 17 c 5 4 c 4 10 c
4 14 c 5 8 c 4 12 c 5 18 c 4 25 c 4 14 c 5 15 c 4 14 c 4 19 c 5 21 c 4 22 c 4 36 c 5 35 c 4 12 c 5 17 c 4 26 c 4 30 c 5 24 c 4 53 c
4 43 c 5 71 c 4 37 c 5 62 c 4 74 c 4 76 c 5 39 c 4 36 c 4 114 c 5 166 c 4 246 c 5 237 c 4 170 c 4 124 c 5 305 c 4 641 c 4 763 c
5 1077 c 0 1156 c 2 -2261 2317 7019 l 4 -695 c 4 -570 c 5 -291 c 4 -181 c 4 -102 c 5 -180 c 4 -130 c 5 -162 c 4 -107 c 4 -111 c
5 -103 c 4 -45 c 4 -87 c 5 -54 c 4 -49 c 5 -66 c 4 -66 c 4 -31 c 5 -35 c 4 -33 c 4 -46 c 5 -42 c 4 -24 c 4 -22 c 5 -26 c 4 -34 c
5 -26 c 4 -25 c 4 -9 c 5 -26 c 4 -27 c 4 -33 c 5 -21 c 4 -16 c 5 -22 c 4 -18 c 4 -12 c 5 -5 c 4 -17 c 4 -25 c 5 -19 c 4 -16 c
5 -16 c 4 -12 c 4 -6 c 5 -9 c 4 -9 c 4 -2 c 5 -8 c 4 -4 c 5 -8 c 4 -6 c 4 -11 c 5 -9 c 4 -6 c 4 -11 c 5 -5 c 4 -5 c 4 -4 c 5 -8 c
4 -6 c 5 -3 c 4 -4 c 4 9 c 5 33 c 4 13 c 4 -14 c 5 -33 c 4 -22 c 5 -6 c 4 -1 c 4 -1 c 5 -4 c 4 -7 c 4 -2 c 5 -1 c 4 -1 c 5 -5 c
4 -3 c 4 -4 c 5 1 c 4 2 c 4 -2 c 5 0 c 4 -2 c 5 1 c 4 -4 c 4 -2 c 5 -3 c 4 3 c 4 -2 c 5 -5 c 4 -1 c 4 0 c 5 1 c 4 -5 c 5 -2 c 4 0 c
4 2 c 5 0 c 4 -2 c 4 -5 c 5 -2 c 4 -1 c 5 -2 c 4 1 c 4 -1 c 5 -1 c 4 0 c 4 -2 c 5 -1 c 4 -1 c 5 1 c 4 0 c 4 1 c 5 -1 c 4 1 c 4 -2 c
5 -3 c 4 0 c 5 0 c 4 -2 c 4 -2 c 5 0 c 4 -1 c 4 2 c 5 1 c 4 2 c 4 0 c 5 -1 c 4 1 c 5 0 c 4 6 c 4 15 c 5 10 c 4 -5 c 4 -10 c 5 -11 c
4 -6 c 5 3 c 4 12 c 4 49 c 5 54 c 4 3 c 4 -58 c 5 -57 c 4 -16 c 5 -3 c 4 -2 c 4 0 c 5 0 c 4 3 c 4 -3 c 5 0 c 4 -3 c 4 1 c 5 2 c
4 1 c 5 0 c 4 -1 c 4 -1 c 5 0 c 4 0 c 4 3 c 5 -2 c 4 -1 c 5 1 c 4 -2 c 4 2 c 5 0 c 4 1 c 4 -1 c 5 0 c 4 -1 c 5 -1 c 4 2 c 4 2 c
5 1 c 4 2 c 4 15 c 5 81 c 4 116 c 5 131 c 4 628 c 4 1265 c 5 573 c 4 -732 c 4 -1325 c 5 -657 c 4 -92 c 4 -2 c 5 -1 c 4 -1 c 5 -1 c
4 -1 c 4 0 c 5 3 c 4 -1 c 4 -3 c 5 -4 c 4 -2 c 5 0 c 4 1 c 4 -3 c 5 0 c 4 2 c 4 -1 c 5 -3 c 4 2 c 5 -1 c 4 0 c 4 2 c 5 0 c 4 -1 c
4 0 c 5 1 c 4 2 c 5 5 c 4 1 c 4 -4 c 5 -6 c 4 0 c 4 -1 c 5 1 c 4 3 c 4 3 c 5 3 c 4 -4 c 5 -5 c 4 -2 c 4 -2 c 5 1 c 4 -1 c 4 -1 c
5 3 c 4 6 c 5 37 c 4 111 c 4 71 c 5 -22 c 4 -110 c 4 -79 c 5 -13 c 4 -1 c 5 0 c 4 3 c 4 0 c 5 0 c 4 -2 c 4 1 c 5 -1 c 4 -1 c 5 1 c
4 0 c 4 1 c 5 -2 c 4 0 c 4 0 c 5 -2 c 4 0 c 4 2 c 5 0 c 4 0 c 5 0 c 4 -1 c 4 -1 c 5 3 c 4 -1 c 4 -1 c 5 1 c 4 2 c 5 1 c 4 1 c 4 0 c
5 -2 c 4 -1 c 4 -2 c 5 0 c 4 0 c 5 1 c 4 1 c 4 0 c 5 -1 c 4 5 c 4 30 c 5 51 c 4 22 c 4 -32 c 5 -49 c 4 -24 c 5 -3 c 4 0 c 4 1 c
5 0 c 4 -1 c 4 0 c 5 8 c 4 9 c 5 5 c 4 -6 c 4 -11 c 5 -6 c 4 0 c 4 -2 c 5 3 c 4 0 c 5 0 c 4 0 c 4 -1 c 5 0 c 4 -1 c 4 -1 c 5 1 c
4 0 c 5 0 c 4 1 c 4 -1 c 5 1 c 4 1 c 4 -1 c 5 0 c 4 -1 c 4 1 c 5 0 c 4 1 c 5 -1 c 4 0 c 4 -1 c 5 -1 c 4 2 c 4 -1 c 5 1 c 4 -2 c
5 2 c 4 0 c 4 -1 c 5 0 c 4 -1 c 4 2 c 5 4 c 4 23 c 5 23 c 4 3 c 4 -26 c 5 -20 c 4 -6 c 4 4 c 5 3 c 4 0 c 5 -1 c 4 -6 c 4 0 c 5 -2 c
4 1 c 4 0 c 5 0 c 4 1 c 4 0 c 5 -1 c 4 1 c 5 1 c 4 1 c 4 -1 c 5 0 c 4 0 c 4 0 c 5 0 c 4 -1 c 5 1 c 4 1 c 4 1 c 5 5 c 4 7 c 4 1 c
5 -1 c 4 -9 c 5 -4 c 4 0 c 4 7 c 5 36 c 4 96 c 4 66 c 5 -15 c 4 -101 c 5 -73 c 4 -13 c 4 -2 c 5 2 c 4 -2 c 4 -1 c 5 0 c 4 0 c 4 0 c
5 1 c 4 -1 c 5 2 c 4 2 c 4 11 c 5 32 c 4 19 c 4 -11 c 5 -31 c 4 -18 c 5 -3 c 4 -1 c 4 -2 c 5 1 c 4 3 c 4 -1 c 5 -1 c 4 -1 c 5 1 c
4 4 c 4 -2 c 5 0 c 4 1 c 4 -1 c 5 1 c 4 2 c 5 -2 c 4 2 c 4 -2 c 5 2 c 4 -1 c 4 -2 c 5 0 c 4 3 c 4 -2 c 5 0 c 4 1 c 5 -5 c 4 3 c
4 -1 c 5 2 c 4 -1 c 4 0 c 5 0 c 4 -2 c 5 1 c 4 1 c 4 2 c 5 -3 c 4 0 c 4 0 c 5 0 c 4 2 c 5 -2 c 4 4 c 4 0 c 5 2 c 4 -1 c 4 -3 c 5 0 c
4 1 c 4 3 c 5 2 c 4 5 c 5 -1 c 4 -4 c 4 -5 c 5 -2 c 4 4848 c 1 1281 c 2 -6070 4371 7019 l 4 -30 c 5 -4 c 4 -3 c 5 -3 c 4 0 c 4 -4 c
5 1 c 4 1 c 4 1 c 5 -1 c 4 -2 c 5 -1 c 4 -3 c 4 -3 c 5 0 c 4 -1 c 4 2 c 5 -3 c 4 0 c 4 -3 c 5 2 c 4 0 c 5 0 c 4 0 c 4 -1 c 5 1 c
4 2 c 4 -2 c 5 -2 c 4 -1 c 5 -1 c 4 -1 c 4 0 c 5 0 c 4 -1 c 4 4 c 5 -3 c 4 -1 c 5 3 c 4 -3 c 4 1 c 5 -1 c 4 2 c 4 -1 c 5 6 c 4 4 c
5 6 c 4 4 c 4 1 c 5 -6 c 4 -5 c 4 -5 c 5 -1 c 4 5 c 4 1 c 5 -3 c 4 -5 c 5 -5 c 4 0 c 4 1 c 5 -3 c 4 1 c 4 -2 c 5 2 c 4 -3 c 5 0 c
4 0 c 4 -2 c 5 1 c 4 0 c 4 1 c 5 -1 c 4 1 c 5 -1 c 4 1 c 4 -1 c 5 -1 c 4 3 c 4 3 c 5 1 c 4 1 c 5 1 c 4 0 c 4 -4 c 5 -6 c 4 -1 c
4 1 c 5 0 c 4 3 c 4 0 c 5 -2 c 4 -1 c 5 1 c 4 1 c 4 1 c 5 3 c 4 -1 c 4 -1 c 5 0 c 4 1 c 5 2 c 4 1 c 4 -6 c 5 -1 c 4 -3 c 4 0 c 5 2 c
4 7 c 5 7 c 4 0 c 4 -6 c 5 -7 c 4 -2 c 4 0 c 5 -3 c 4 1 c 5 0 c 4 -1 c 4 1 c 5 -1 c 4 0 c 4 -1 c 5 1 c 4 -1 c 4 -2 c 5 1 c 4 1 c
5 -1 c 4 4 c 4 -2 c 5 -2 c 4 1 c 4 1 c 5 0 c 4 1 c 5 -2 c 4 1 c 4 1 c 5 0 c 4 3 c 4 -1 c 5 5 c 4 6 c 5 93 c 4 521 c 4 686 c 5 173 c
4 -539 c 4 -656 c 5 -264 c 4 -20 c 4 -5 c 5 -1 c 4 -1 c 5 -2 c 4 1 c 4 0 c 5 -1 c 4 1 c 4 -1 c 5 -1 c 4 2 c 5 -1 c 4 -2 c 4 1 c
5 2 c 4 -2 c 4 0 c 5 0 c 4 3 c 5 5 c 4 -1 c 4 -2 c 5 -3 c 4 1 c 4 -1 c 5 0 c 4 -2 c 5 0 c 4 -2 c 4 2 c 5 1 c 4 -2 c 4 0 c 5 0 c
4 0 c 4 1 c 5 0 c 4 -2 c 5 1 c 4 -1 c 4 2 c 5 0 c 4 1 c 4 5 c 5 2 c 4 -3 c 5 -3 c 4 -2 c 4 -1 c 5 0 c 4 0 c 4 -1 c 5 -1 c 4 1 c
5 1 c 4 3 c 4 2 c 5 -2 c 4 -4 c 4 1 c 5 -1 c 4 2 c 5 2 c 4 -1 c 4 1 c 5 -1 c 4 1 c 4 -1 c 5 -1 c 4 4 c 4 -4 c 5 0 c 4 0 c 5 -1 c
4 1 c 4 1 c 5 1 c 4 1 c 4 1 c 5 4 c 4 5 c 5 0 c 4 -4 c 4 -6 c 5 -1 c 4 1 c 4 -2 c 5 1 c 4 -1 c 5 1 c 4 0 c 4 1 c 5 -1 c 4 1 c 4 0 c
5 0 c 4 0 c 5 1 c 4 0 c 4 0 c 5 0 c 4 -1 c 4 1 c 5 3 c 4 12 c 4 11 c 5 -1 c 4 -13 c 5 -9 c 4 -2 c 4 0 c 5 1 c 4 0 c 4 -1 c 5 0 c
4 2 c 5 0 c 4 -1 c 4 1 c 5 1 c 4 6 c 4 6 c 5 5 c 4 -3 c 5 -9 c 4 -5 c 4 -2 c 5 0 c 4 0 c 4 1 c 5 0 c 4 1 c 4 3 c 5 10 c 4 6 c 5 -1 c
4 -12 c 4 -5 c 5 -1 c 4 1 c 4 0 c 5 -1 c 4 1 c 5 1 c 4 2 c 4 1 c 5 0 c 4 0 c 4 4 c 5 11 c 4 8 c 5 -3 c 4 -89 c 4 69 c 5 -1 c
1 6133 c 2 -5900 5726 7019 l 5 -218 c 4 -3 c 4 2 c 5 0 c 4 -1 c 4 -5 c 5 -2 c 4 -2 c 4 1 c 5 -2 c 4 3 c 5 -2 c 4 7 c 4 17 c 5 -9 c
4 11 c 4 -8 c 5 -16 c 4 -2 c 5 0 c 4 1950 c 1 4179 c 1 -4271 5854 7019 l 1 4271 c 2 -6046 5888 7019 l 4 -36 c 5 -4 c 4 -4 c 4 0 c
5 -3 c 4 -3 c 4 -1 c 5 -1 c 4 0 c 5 -1 c 4 -3 c 4 -2 c 5 0 c 4 -2 c 4 -1 c 5 0 c 4 0 c 5 -1 c 4 -1 c 4 -1 c 5 1 c 4 0 c 4 -1 c 5 0 c
4 -1 c 5 -2 c 4 -1 c 4 -1 c 5 0 c 4 -1 c 4 2 c 5 1 c 4 -3 c 5 3 c 4 3 c 4 0 c 5 -3 c 4 -6 c 4 -1 c 5 -1 c 4 0 c 4 0 c 5 -1 c 4 0 c
5 -1 c 4 -1 c 4 -2 c 5 2 c 4 0 c 4 0 c 5 -1 c 4 0 c 5 0 c 4 -1 c 4 -1 c 5 -1 c 4 1 c 4 0 c 5 -1 c 4 -2 c 5 2 c 4 -1 c 4 0 c 5 1 c
4 1 c 4 3 c 5 -2 c 4 -2 c 5 -4 c 4 1 c 4 1 c 5 4 c 4 4 c 4 2 c 5 -1 c 4 -6 c 4 -4 c 5 -1 c 4 -1 c 5 1 c 4 -1 c 4 2 c 5 -1 c 4 1 c
4 1 c 5 0 c 4 -4 c 5 -1 c 4 -1 c 4 2 c 5 0 c 4 -2 c 4 0 c 5 2 c 4 0 c 5 -2 c 4 0 c 4 2 c 5 -1 c 4 0 c 4 -1 c 5 1 c 4 2 c 4 13 c
5 47 c 4 38 c 5 -10 c 4 -51 c 4 -36 c 5 -4 c 4 1 c 4 -2 c 5 0 c 4 -1 c 5 3 c 4 8 c 4 67 c 5 144 c 4 77 c 4 -59 c 5 -149 c 4 -80 c
5 -6 c 4 0 c 4 -1 c 5 1 c 4 -2 c 4 1 c 5 2 c 4 0 c 5 -1 c 4 -2 c 4 -1 c 5 3 c 4 2 c 4 10 c 5 64 c 4 158 c 4 262 c 5 1093 c 4 1683 c
5 267 c 4 -1146 c 4 -1801 c 5 -502 c 4 -74 c 4 -11 c 5 -2 c 4 -3 c 5 -1 c 4 1 c 4 -1 c 5 -3 c 4 1 c 4 0 c 5 -1 c 4 -1 c 5 0 c 4 -1 c
4 -1 c 5 1 c 4 0 c 4 -2 c 5 1 c 4 0 c 5 2 c 4 -2 c 4 2 c 5 -1 c 4 2 c 4 1 c 5 14 c 4 90 c 4 196 c 5 71 c 4 -66 c 5 -178 c 4 -76 c
4 -17 c 5 -20 c 4 -11 c 4 -1 c 5 -2 c 4 -1 c 5 -3 c 4 0 c 4 0 c 5 -1 c 4 0 c 4 -3 c 5 3 c 4 4 c 5 12 c 4 13 c 4 2 c 5 -12 c 4 -14 c
4 -5 c 5 -1 c 4 -3 c 5 2 c 4 8 c 4 11 c 5 0 c 4 -5 c 4 -13 c 5 -2 c 4 -1 c 4 0 c 5 0 c 4 2 c 5 0 c 4 0 c 4 -1 c 5 -1 c 4 1 c 4 -1 c
5 3 c 4 0 c 5 0 c 4 -1 c 4 -1 c 5 -1 c 4 -1 c 4 0 c 5 0 c 4 0 c 5 -1 c 4 4 c 4 3 c 5 1 c 4 -2 c 4 -4 c 5 -2 c 4 0 c 5 3 c 4 -3 c
4 1 c 5 4 c 4 2 c 4 0 c 5 -1 c 4 5 c 4 2 c 5 10 c 4 38 c 5 29 c 4 -8 c 4 -42 c 5 -33 c 4 -4 c 4 1 c 5 -2 c 4 1 c 5 1 c 4 0 c 4 0 c
5 0 c 4 0 c 4 2 c 5 1 c 4 -1 c 5 -1 c 4 5 c 4 4 c 5 0 c 4 1 c 4 -2 c 5 -5 c 4 -2 c 4 -2 c 5 0 c 4 2 c 5 0 c 4 -1 c 4 -1 c 5 -2 c
4 1 c 4 1 c 5 0 c 4 2 c 5 -1 c 4 -3 c 4 0 c 5 -1 c 4 1 c 4 3 c 5 2 c 4 0 c 5 -1 c 4 -1 c 4 0 c 5 -3 c 4 -1 c 4 2 c 5 0 c 4 0 c 5 2 c
4 -3 c 4 1 c 5 0 c 4 -1 c 4 0 c 5 0 c 4 0 c 4 -1 c 5 1 c 4 1 c 5 1 c 4 -1 c 4 -1 c 5 0 c 4 1 c 4 -1 c 5 -1 c 4 0 c 5 3 c 4 0 c
4 -2 c 5 4 c 4 2 c 4 0 c 5 0 c 4 -5 c 5 2 c 4 4 c 4 2 c 5 0 c 4 -4 c 4 -1 c 5 0 c 4 -2 c 5 0 c 4 -1 c 4 0 c 5 1 c 4 -3 c 4 3 c
5 -1 c 4 0 c 4 0 c 5 2 c 4 -3 c 5 2 c 4 3 c 4 3 c 5 -1 c 4 -4 c 4 -3 c 5 -1 c 4 2 c 5 -1 c 4 1 c 4 1 c 5 -1 c 4 1 c 4 0 c 5 -2 c
4 2 c 5 -1 c 4 2 c 4 0 c 5 5 c 4 -2 c 4 0 c 5 -1 c 4 8 c 5 13 c 4 16 c 4 3 c 5 -6 c 4 -19 c 4 -9 c 5 -4 c 4 -1 c 4 0 c 5 -2 c 4 3 c
5 15 c 4 20 c 4 -1 c 5 -16 c 4 -18 c 4 -4 c 5 5 c 4 15 c 5 3 c 4 -2 c 4 -9 c 5 -6 c 4 0 c 4 -5 c 5 -1 c 4 2 c 5 -1 c 4 -1 c 4 -2 c
5 1 c 4 1 c 4 0 c 5 -1 c 4 0 c 5 2 c 4 0 c 4 0 c 5 -1 c 4 0 c 4 3 c 5 0 c 4 1 c 4 0 c 5 -3 c 4 1 c 5 -1 c 4 0 c 4 3 c 5 -3 c 4 1 c
4 2 c 5 0 c 4 -1 c 5 0 c 4 -1 c 4 0 c 5 0 c 4 -1 c 4 0 c 5 5 c 4 -1 c 5 -1 c 4 -1 c 4 -1 c 5 2 c 4 -2 c 4 0 c 5 0 c 4 2 c 4 7 c
5 8 c 4 2 c 5 -6 c 4 -10 c 4 -2 c 5 -1 c 4 0 c 4 0 c 5 0 c 4 0 c 5 2 c 4 -2 c 4 1 c 5 0 c 4 -1 c 4 1 c 5 1 c 4 0 c 5 -2 c 4 1 c
4 -1 c 5 0 c 4 1 c 4 1 c 5 3 c 4 0 c 5 0 c 4 0 c 4 1 c 5 0 c 4 -1 c 4 2 c 5 -1 c 4 2 c 4 8 c 5 4 c 4 1 c 5 -5 c 4 -4 c 4 6 c 5 6 c
4 24 c 4 179 c 5 626 c 4 1267 c 5 2516 c 4 819 c 4 -1054 c 5 -2720 c 4 -1492 c 4 -143 c 5 -20 c 4 3 c 5 17 c 4 13 c 4 -8 c 5 -22 c
4 -18 c 4 1 c 5 -3 c 4 1 c 5 -3 c 4 -1 c 4 -3 c 5 2 c 4 -2 c 4 2 c 5 2 c 4 8 c 4 4 c 5 -3 c 4 -7 c 5 -8 c 4 -2 c 4 2 c 5 -1 c 4 0 c
4 0 c 5 1 c 4 -2 c 5 1 c 4 -1 c 4 1 c 5 -2 c 4 2 c 4 0 c 5 -1 c 4 0 c 5 1 c 4 0 c 4 0 c 5 0 c 4 -1 c 4 0 c 5 0 c 4 0 c 5 -2 c 4 1 c
4 1 c 5 4 c 4 6 c 4 4 c 5 0 c 4 -9 c 4 -3 c 5 -1 c 4 1 c 5 2 c 4 1 c 4 0 c 5 9 c 4 25 c 4 129 c 5 315 c 4 276 c 5 -55 c 4 -320 c
4 -299 c 5 -61 c 4 -9 c 4 -5 c 5 -6 c 4 1 c 5 -4 c 4 1 c 4 -1 c 5 -1 c 4 -3 c 4 0 c 5 0 c 4 1 c 4 0 c 5 2 c 4 -2 c 5 0 c 4 -1 c
4 1 c 5 0 c 4 -2 c 4 6 c 5 5 c 4 -2 c 5 -3 c 4 -4 c 4 -2 c 5 2 c 4 0 c 4 0 c 5 1 c 4 0 c 5 0 c 4 -1 c 4 0 c 5 0 c 4 1 c 4 0 c 5 2 c
4 -1 c 5 0 c 4 -2 c 4 2 c 5 0 c 4 -4 c 4 0 c 5 0 c 4 4 c 4 1 c 5 0 c 4 -1 c 5 -3 c 4 -3 c 4 4 c 5 -1 c 4 -2 c 4 0 c 5 1 c 4 -1 c
5 1 c 4 -2 c 4 2 c 5 -1 c 4 0 c 4 0 c 5 0 c 4 0 c 5 0 c 4 -1 c 4 -1 c 5 1 c 4 2 c 4 1 c 5 -2 c 4 1 c 5 0 c 4 1 c 4 -3 c 5 1 c 4 0 c
4 -1 c 5 1 c 4 -1 c 4 1 c 5 -2 c 4 1 c 5 -2 c 4 2 c 4 1 c 5 -1 c 4 0 c 4 2 c 5 -4 c 4 3 c 5 -1 c 4 1 c 4 -1 c 5 -1 c 4 1 c 4 -1 c
5 2 c 4 -1 c 5 1 c 4 0 c 4 -1 c 5 2 c 4 -1 c 4 2 c 5 -1 c 4 -1 c 5 1 c 4 1 c 4 -2 c 5 1 c 4 -1 c 4 -1 c 5 -1 c 4 2 c 4 -2 c 5 2 c
4 -2 c 5 -1 c 4 1 c 4 -1 c 5 0 c 4 1 c 4 1 c 5 -1 c 4 -1 c 5 2 c 4 -1 c 4 2 c 5 0 c 4 -1 c 4 3 c 5 6 c 4 8 c 5 -7 c 4 -4 c 4 -7 c
5 1 c 4 1 c 4 0 c 5 -3 c 4 1 c 5 -1 c 4 2 c 4 -2 c 5 1 c 4 -1 c 4 3 c 5 0 c 4 1 c 4 1 c 5 1 c 4 -4 c 5 0 c 4 -3 c 4 1 c 5 0 c 4 1 c
4 -1 c 5 1 c 4 -2 c 5 1 c 4 1 c 4 0 c 5 17 c 4 89 c 4 138 c 5 21 c 4 -75 c 5 -148 c 4 -39 c 4 -1 c 5 -1 c 4 1 c 4 0 c 5 0 c 4 8 c
4 6 c 5 -1 c 4 -4 c 5 -7 c 4 -2 c 4 -4 c 5 2 c 4 -3 c 4 2 c 5 0 c 4 0 c 5 1 c 4 0 c 4 1 c 5 -2 c 4 2 c 4 0 c 5 4 c 4 -1 c 5 1 c
4 -2 c 4 0 c 5 1 c 4 0 c 4 -4 c 5 1 c 4 3 c 5 -1 c 4 -2 c 4 -2 c 5 2 c 4 -1 c 4 0 c 5 3 c 4 0 c 4 -1 c 5 1 c 4 -2 c 5 -1 c 4 3 c
4 -4 c 5 3 c 4 1 c 4 -1 c 5 2 c 4 -1 c 5 1 c 4 -1 c 4 -1 c 5 -1 c 4 0 c 4 0 c 5 0 c 4 0 c 5 -2 c 4 1 c 4 -1 c 5 3 c 4 0 c 4 1 c
5 -2 c 4 2 c 5 -3 c 4 0 c 4 -1 c 5 0 c 4 0 c 4 -1 c 5 -2 c 4 2 c 4 -1 c 5 4 c 4 1 c 5 -3 c 4 -1 c 4 -1 c 5 0 c 4 -1 c 4 2 c 5 3 c
4 2 c 5 3 c 4 -5 c 4 -4 c 5 0 c 4 -1 c 4 0 c 5 3 c 4 4 c 5 2 c 4 -1 c 4 -3 c 5 -4 c 4 -1 c 4 4 c
5 13 c 4 17 c 5 -1 c 4 -10 c 4 -72 c 5 0 c 4 47 c 4 -1 c 5 2 c 4 1 c 4 0 c 5 1 c 4 0 c 5 2 c 4 -2 c 4 -2 c 5 -1 c 4 2 c 4 1 c 5 3 c
4 -3 c 5 -2 c 4 0 c 4 0 c 5 0 c 4 2 c 4 -1 c 5 0 c 4 2 c 5 3 c 4 5 c 4 0 c 5 -2 c 4 -3 c 4 -2 c 5 0 c 4 0 c 5 1 c 4 0 c 4 -2 c 5 0 c
4 2 c 4 0 c 5 -3 c 4 -3 c
0 -126 3303 418 l 54 0 3303 418 l 18 -6 c 6 -6 c 6 -12 c 0 -12 c -6 -12 c -6 -6 c -18 -6 c -54 0 c 42 -66 3345 358 l
-12 -6 3453 376 l -12 -12 c -6 -18 c 0 -12 c 6 -18 c 12 -12 c 12 -6 c 18 0 c 12 6 c 12 12 c 6 18 c 0 12 c -6 18 c -12 12 c -12 6 c
-18 0 c 24 -84 3537 376 l -24 -84 3585 376 l 24 -84 3585 376 l -24 -84 3633 376 l 108 0 3675 364 l 108 0 3675 328 l 12 6 3939 394 l
18 18 c 0 -126 c -18 -6 4071 418 l -6 -12 c 0 -12 c 6 -12 c 12 -6 c 24 -6 c 18 -6 c 12 -12 c 6 -12 c 0 -18 c -6 -12 c -6 -6 c
-18 -6 c -24 0 c -18 6 c -6 6 c -6 12 c 0 18 c 6 12 c 12 12 c 18 6 c 24 6 c 12 6 c 6 12 c 0 12 c -6 12 c -18 6 c -24 0 c
-12 -6 4287 376 l -12 -12 c -6 -18 c 0 -12 c 6 -18 c 12 -12 c 12 -6 c 18 0 c 12 6 c 12 12 c 6 18 c 0 12 c -6 18 c -12 12 c -12 6 c
-18 0 c -12 0 4413 418 l -12 -6 c -6 -18 c 0 -102 c 42 0 4365 376 l 0 6 4545 388 l 6 12 c 6 6 c 12 6 c 24 0 c 12 -6 c 6 -6 c 6 -12 c
0 -12 c -6 -12 c -12 -18 c -60 -60 c 84 0 c -18 -6 4695 418 l -12 -18 c -6 -30 c 0 -18 c 6 -30 c 12 -18 c 18 -6 c 12 0 c 18 6 c
12 18 c 6 30 c 0 18 c -6 30 c -12 18 c -18 6 c -12 0 c 12 6 5181 394 l 18 18 c 0 -126 c -6 -6 5294 376 l 6 -6 c 6 6 c -6 6 c
-6 -6 5294 304 l 6 -6 c 6 6 c -6 6 c -48 -126 5474 418 l 48 -126 5474 418 l 60 0 5444 334 l 0 -84 5552 376 l 6 18 5552 340 l 12 12 c
12 6 c 18 0 c -12 12 5696 358 l -12 6 c -18 0 c -12 -6 c -12 -12 c -6 -18 c 0 -12 c 6 -18 c 12 -12 c 12 -6 c 18 0 c 12 6 c 12 12 c
108 0 5738 346 l 12 6 5906 394 l 18 18 c 0 -126 c 66 0 6020 418 l -36 -48 c 18 0 c 12 -6 c 6 -6 c 6 -18 c 0 -12 c -6 -18 c -12 -12 c
-18 -6 c -18 0 c -18 6 c -6 6 c -6 12 c -60 -126 6212 418 l 84 0 6128 418 l -6 -6 6260 304 l 6 -6 c 6 6 c -6 6 c -12 0 6350 418 l
-12 -6 c -6 -18 c 0 -102 c 42 0 6302 376 l 6 -6 6380 418 l 6 6 c -6 6 c -6 -6 c 0 -84 6386 376 l 0 -102 6440 418 l 6 -18 c 12 -6 c
12 0 c 42 0 6422 376 l -6 12 6566 358 l -18 6 c -18 0 c -18 -6 c -6 -12 c 6 -12 c 12 -6 c 30 -6 c 12 -6 c 6 -12 c 0 -6 c -6 -12 c
-18 -6 c -18 0 c -18 6 c -6 12 c 0 -192 6896 442 l 0 -192 6902 442 l 42 0 6896 442 l 42 0 6896 250 l 0 6 6980 388 l 6 12 c 6 6 c
12 6 c 24 0 c 12 -6 c 6 -6 c 6 -12 c 0 -12 c -6 -12 c -12 -18 c -60 -60 c 84 0 c -6 -6 7106 376 l 6 -6 c 6 6 c -6 6 c
-6 -6 7106 304 l 6 -6 c 6 6 c -6 6 c 0 -192 7286 442 l 0 -192 7292 442 l 42 0 7250 442 l 42 0 7250 250 l
0 -250 1961 2343 l 79 -38 1918 2468 l 0 53 1918 2415 l 0 -38 1918 2536 l 34 -4 c -4 4 c -4 11 c 0 11 c 4 12 c 8 7 c 11 4 c 7 0 c
12 -4 c 7 -7 c 4 -12 c 0 -11 c -4 -11 c -3 -4 c -8 -4 c -4 8 1933 2577 l -11 11 c 79 0 c 4 -11 1918 2664 l 11 -8 c 19 -4 c 11 0 c
19 4 c 11 8 c 4 11 c 0 8 c -4 11 c -11 8 c -19 3 c -11 0 c -19 -3 c -11 -8 c -4 -11 c 0 -8 c 3 -4 1990 2725 l 4 4 c -4 3 c -3 -3 c
53 -38 1918 2793 l 0 56 c 79 0 1918 2793 l 4 -11 1918 2853 l 11 -8 c 19 -4 c 11 0 c 19 4 c 11 8 c 4 11 c 0 8 c -4 11 c -11 7 c
-19 4 c -11 0 c -19 -4 c -11 -7 c -4 -11 c 0 -8 c 4 -12 1918 2925 l 7 -3 c 8 0 c 7 3 c 4 8 c 4 15 c 4 12 c 7 7 c 8 4 c 11 0 c 8 -4 c
3 -4 c 4 -11 c 0 -15 c -4 -12 c -3 -3 c -8 -4 c -11 0 c -8 4 c -7 7 c -4 12 c -4 15 c -4 7 c -7 4 c -8 0 c -7 -4 c -4 -11 c 0 -15 c
0 -250 2607 1489 l 79 -37 2563 1613 l 0 52 2563 1561 l 0 -37 2563 1681 l 34 -4 c -4 4 c -4 11 c 0 11 c 4 12 c 8 7 c 11 4 c 8 0 c
11 -4 c 8 -7 c 3 -12 c 0 -11 c -3 -11 c -4 -4 c -8 -4 c -4 8 2578 1723 l -11 11 c 79 0 c 4 -11 2563 1806 l 7 -4 c 8 0 c 7 4 c 4 7 c
4 16 c 4 11 c 7 7 c 8 4 c 11 0 c 8 -4 c 4 -3 c 3 -12 c 0 -15 c -3 -11 c -4 -4 c -8 -4 c -11 0 c -8 4 c -7 8 c -4 11 c -4 15 c -4 8 c
-7 3 c -8 0 c -7 -3 c -4 -12 c 0 -15 c 4 -3 2635 1870 l 3 3 c -3 4 c -4 -4 c 79 -38 2563 1954 l 0 53 2563 1901 l 4 -11 2563 1995 l
7 -4 c 8 0 c 7 4 c 4 7 c 4 16 c 4 11 c 7 7 c 8 4 c 11 0 c 8 -4 c 4 -3 c 3 -12 c 0 -15 c -3 -11 c -4 -4 c -8 -4 c -11 0 c -8 4 c
-7 8 c -4 11 c -4 15 c -4 8 c -7 3 c -8 0 c -7 -3 c -4 -12 c 0 -15 c -4 0 2582 2056 l -7 3 c -4 4 c -4 8 c 0 15 c 4 7 c 4 4 c 7 4 c
8 0 c 7 -4 c 12 -7 c 37 -38 c 0 53 c 0 -249 2946 1466 l 79 -38 2902 1591 l 0 53 2902 1538 l 0 -38 2902 1659 l 34 -3 c -4 3 c -4 12 c
0 11 c 4 11 c 8 8 c 11 4 c 8 0 c 11 -4 c 8 -8 c 3 -11 c 0 -11 c -3 -12 c -4 -3 c -8 -4 c -4 0 2921 1693 l -7 4 c -4 4 c -4 7 c
0 15 c 4 8 c 4 4 c 7 4 c 8 0 c 7 -4 c 12 -8 c 37 -38 c 0 53 c 0 41 2902 1773 l 30 -23 c 0 12 c 4 7 c 4 4 c 11 4 c 8 0 c 11 -4 c
8 -7 c 3 -12 c 0 -11 c -3 -11 c -4 -4 c -8 -4 c 4 -4 2974 1848 l 3 4 c -3 4 c -4 -4 c -4 7 2917 1890 l -11 12 c 79 0 c
0 41 2902 1962 l 30 -23 c 0 12 c 4 7 c 4 4 c 11 4 c 8 0 c 11 -4 c 8 -7 c 3 -12 c 0 -11 c -3 -11 c -4 -4 c -8 -4 c 0 -38 2902 2075 l
34 -4 c -4 4 c -4 11 c 0 12 c 4 11 c 8 8 c 11 3 c 8 0 c 11 -3 c 8 -8 c 3 -11 c 0 -12 c -3 -11 c -4 -4 c -8 -3 c 0 -250 3131 4145 l
79 -38 3088 4269 l 0 53 3088 4216 l 0 -38 3088 4337 l 34 -3 c -4 3 c -4 12 c 0 11 c 4 12 c 7 7 c 12 4 c 7 0 c 12 -4 c 7 -7 c 4 -12 c
0 -11 c -4 -12 c -4 -3 c -7 -4 c -4 0 3107 4371 l -8 4 c -4 4 c -3 7 c 0 16 c 3 7 c 4 4 c 8 4 c 7 0 c 8 -4 c 11 -8 c 38 -37 c 0 52 c
0 -37 3088 4488 l 34 -4 c -4 4 c -4 11 c 0 11 c 4 12 c 7 7 c 12 4 c 7 0 c 12 -4 c 7 -7 c 4 -12 c 0 -11 c -4 -11 c -4 -4 c -7 -4 c
4 -4 3159 4526 l 4 4 c -4 4 c -4 -4 c 0 -38 3088 4602 l 34 -4 c -4 4 c -4 11 c 0 12 c 4 11 c 7 8 c 12 3 c 7 0 c 12 -3 c 7 -8 c
4 -11 c 0 -12 c -4 -11 c -4 -4 c -7 -4 c 3 -12 3088 4655 l 12 -7 c 19 -4 c 11 0 c 19 4 c 11 7 c 4 12 c 0 7 c -4 12 c -11 7 c -19 4 c
-11 0 c -19 -4 c -12 -7 c -3 -12 c 0 -7 c 3 -12 3088 4727 l 8 -4 c 8 0 c 7 4 c 4 8 c 4 15 c 3 11 c 8 8 c 8 4 c 11 0 c 7 -4 c 4 -4 c
4 -11 c 0 -15 c -4 -12 c -4 -4 c -7 -3 c -11 0 c -8 3 c -8 8 c -3 11 c -4 15 c -4 8 c -7 4 c -8 0 c -8 -4 c -3 -11 c 0 -15 c
0 -249 3364 1545 l 79 -38 3321 1670 l 0 53 3321 1617 l 0 -38 3321 1738 l 34 -3 c -4 3 c -4 12 c 0 11 c 4 11 c 8 8 c 11 4 c 7 0 c
12 -4 c 7 -8 c 4 -11 c 0 -11 c -4 -12 c -3 -3 c -8 -4 c -4 0 3340 1772 l -8 4 c -3 4 c -4 7 c 0 15 c 4 8 c 3 4 c 8 3 c 7 0 c 8 -3 c
11 -8 c 38 -38 c 0 53 c 4 -11 3321 1863 l 7 -4 c 8 0 c 7 4 c 4 7 c 4 15 c 4 12 c 7 7 c 8 4 c 11 0 c 8 -4 c 3 -4 c 4 -11 c 0 -15 c
-4 -11 c -3 -4 c -8 -4 c -11 0 c -8 4 c -7 7 c -4 12 c -4 15 c -4 7 c -7 4 c -8 0 c -7 -4 c -4 -11 c 0 -15 c 3 -4 3393 1927 l 4 4 c
-4 4 c -3 -4 c 53 -38 3321 1995 l 0 57 c 79 0 3321 1995 l 4 -12 3321 2052 l 7 -3 c 8 0 c 7 3 c 4 8 c 4 15 c 4 12 c 7 7 c 8 4 c
11 0 c 8 -4 c 3 -4 c 4 -11 c 0 -15 c -4 -12 c -3 -3 c -8 -4 c -11 0 c -8 4 c -7 7 c -4 12 c -4 15 c -4 7 c -7 4 c -8 0 c -7 -4 c
-4 -11 c 0 -15 c 12 -4 3347 2158 l 7 -8 c 4 -11 c 0 -4 c -4 -11 c -7 -8 c -12 -3 c -4 0 c -11 3 c -7 8 c -4 11 c 0 4 c 4 11 c 7 8 c
15 4 c 19 0 c 19 -4 c 11 -8 c 4 -11 c 0 -8 c -4 -11 c -7 -4 c 0 -249 3573 1428 l 79 -38 3529 1553 l 0 53 3529 1500 l
0 -38 3529 1621 l 34 -3 c -4 3 c -3 12 c 0 11 c 3 11 c 8 8 c 11 4 c 8 0 c 11 -4 c 8 -8 c 3 -11 c 0 -11 c -3 -12 c -4 -3 c -8 -4 c
0 41 3529 1659 l 30 -22 c 0 11 c 4 8 c 4 3 c 11 4 c 8 0 c 11 -4 c 8 -7 c 3 -11 c 0 -12 c -3 -11 c -4 -4 c -8 -4 c -4 8 3544 1738 l
-11 11 c 79 0 c 4 -4 3601 1810 l 3 4 c -3 4 c -4 -4 c -4 7 3544 1852 l -11 12 c 79 0 c 53 -38 3529 1954 l 0 57 c 79 0 3529 1954 l
53 -38 3529 2029 l 0 57 c 79 0 3529 2029 l 0 -250 3990 1528 l 79 -37 3946 1652 l 0 53 3946 1599 l 0 -37 3946 1720 l 34 -4 c -4 4 c
-4 11 c 0 11 c 4 12 c 8 7 c 11 4 c 8 0 c 11 -4 c 8 -7 c 3 -12 c 0 -11 c -3 -11 c -4 -4 c -8 -4 c 0 42 3946 1758 l 30 -23 c 0 11 c
4 8 c 4 4 c 11 4 c 8 0 c 11 -4 c 8 -8 c 3 -11 c 0 -11 c -3 -12 c -4 -4 c -8 -3 c -7 -3 3957 1875 l -4 -12 c 0 -7 c 4 -12 c 11 -7 c
19 -4 c 19 0 c 15 4 c 8 7 c 3 12 c 0 4 c -3 11 c -8 7 c -11 4 c -4 0 c -11 -4 c -8 -7 c -4 -11 c 0 -4 c 4 -12 c 8 -7 c 11 -4 c
4 -3 4018 1909 l 3 3 c -3 4 c -4 -4 c 53 -37 3946 1977 l 0 56 c 79 0 3946 1977 l 0 41 3946 2023 l 30 -22 c 0 11 c 4 8 c 4 3 c 11 4 c
8 0 c 11 -4 c 8 -7 c 3 -12 c 0 -11 c -3 -11 c -4 -4 c -8 -4 c -7 -4 3957 2140 l -4 -11 c 0 -8 c 4 -11 c 11 -8 c 19 -3 c 19 0 c
15 3 c 8 8 c 3 11 c 0 4 c -3 11 c -8 8 c -11 4 c -4 0 c -11 -4 c -8 -8 c -4 -11 c 0 -4 c 4 -11 c 8 -8 c 11 -3 c 0 -250 4068 1389 l
79 -38 4024 1513 l 0 53 4024 1460 l 0 -38 4024 1581 l 34 -3 c -4 3 c -3 12 c 0 11 c 3 12 c 8 7 c 11 4 c 8 0 c 11 -4 c 8 -7 c 3 -12 c
0 -11 c -3 -12 c -4 -3 c -8 -4 c 0 42 4024 1619 l 30 -23 c 0 11 c 4 8 c 4 4 c 11 3 c 8 0 c 11 -3 c 8 -8 c 3 -11 c 0 -12 c -3 -11 c
-4 -4 c -8 -3 c 79 -38 4024 1740 l 0 53 4024 1687 l 4 -4 4096 1770 l 3 4 c -3 4 c -4 -4 c 53 -37 4024 1838 l 0 56 c 79 0 4024 1838 l
-4 0 4043 1880 l -7 4 c -4 3 c -4 8 c 0 15 c 4 8 c 4 3 c 7 4 c 8 0 c 7 -4 c 12 -7 c 37 -38 c 0 53 c 11 -4 4051 2001 l 7 -8 c 4 -11 c
0 -4 c -4 -11 c -7 -8 c -11 -3 c -4 0 c -12 3 c -7 8 c -4 11 c 0 4 c 4 11 c 7 8 c 16 4 c 18 0 c 19 -4 c 12 -8 c 3 -11 c 0 -7 c
-3 -12 c -8 -4 c 0 -249 5014 2800 l 79 -38 4971 2925 l 0 53 4971 2872 l 0 -38 4971 2993 l 34 -4 c -4 4 c -4 11 c 0 12 c 4 11 c 8 8 c
11 3 c 8 0 c 11 -3 c 7 -8 c 4 -11 c 0 -12 c -4 -11 c -3 -4 c -8 -3 c 53 -38 4971 3061 l 0 57 c 79 0 4971 3061 l 12 -4 4997 3148 l
7 -7 c 4 -12 c 0 -4 c -4 -11 c -7 -8 c -12 -3 c -4 0 c -11 3 c -7 8 c -4 11 c 0 4 c 4 12 c 7 7 c 15 4 c 19 0 c 19 -4 c 11 -7 c
4 -12 c 0 -7 c -4 -12 c -7 -4 c 3 -4 5043 3182 l 4 4 c -4 4 c -3 -4 c 0 41 4971 3220 l 30 -22 c 0 11 c 4 7 c 4 4 c 11 4 c 8 0 c
11 -4 c 7 -7 c 4 -12 c 0 -11 c -4 -11 c -3 -4 c -8 -4 c -4 8 4986 3299 l -11 11 c 79 0 c 53 -38 4971 3401 l 0 57 c 79 0 4971 3401 l
0 -250 5498 1341 l 79 -37 5455 1465 l 0 53 5455 1412 l 0 -37 5455 1533 l 34 -4 c -4 4 c -4 11 c 0 11 c 4 12 c 7 7 c 12 4 c 7 0 c
12 -4 c 7 -7 c 4 -12 c 0 -11 c -4 -11 c -3 -4 c -8 -4 c 0 -38 5455 1609 l 34 -4 c -4 4 c -4 12 c 0 11 c 4 11 c 7 8 c 12 4 c 7 0 c
12 -4 c 7 -8 c 4 -11 c 0 -11 c -4 -12 c -3 -4 c -8 -3 c 0 -38 5455 1685 l 34 -4 c -4 4 c -4 11 c 0 11 c 4 12 c 7 7 c 12 4 c 7 0 c
12 -4 c 7 -7 c 4 -12 c 0 -11 c -4 -11 c -3 -4 c -8 -4 c 3 -3 5527 1722 l 4 3 c -4 4 c -3 -4 c 0 42 5455 1760 l 30 -23 c 0 11 c 4 8 c
3 4 c 12 3 c 7 0 c 12 -3 c 7 -8 c 4 -11 c 0 -12 c -4 -11 c -3 -4 c -8 -3 c -4 0 5474 1832 l -8 4 c -4 4 c -3 7 c 0 15 c 3 8 c 4 4 c
8 3 c 7 0 c 8 -3 c 11 -8 c 38 -38 c 0 53 c 0 -38 5455 1949 l 34 -3 c -4 3 c -4 12 c 0 11 c 4 11 c 7 8 c 12 4 c 7 0 c 12 -4 c 7 -8 c
4 -11 c 0 -11 c -4 -12 c -3 -3 c -8 -4 c 0 -250 6354 1421 l 79 -38 6311 1546 l 0 53 6311 1493 l 0 -38 6311 1614 l 34 -4 c -4 4 c
-4 11 c 0 12 c 4 11 c 8 7 c 11 4 c 8 0 c 11 -4 c 7 -7 c 4 -11 c 0 -12 c -4 -11 c -3 -4 c -8 -4 c -7 -4 6322 1693 l -4 -11 c 0 -8 c
4 -11 c 11 -8 c 19 -3 c 19 0 c 15 3 c 7 8 c 4 11 c 0 4 c -4 12 c -7 7 c -11 4 c -4 0 c -12 -4 c -7 -7 c -4 -12 c 0 -4 c 4 -11 c
7 -8 c 12 -3 c 0 -38 6311 1765 l 34 -4 c -4 4 c -4 11 c 0 12 c 4 11 c 8 8 c 11 3 c 8 0 c 11 -3 c 7 -8 c 4 -11 c 0 -12 c -4 -11 c
-3 -4 c -8 -3 c 3 -4 6383 1803 l 4 4 c -4 3 c -3 -3 c 4 -12 6311 1852 l 7 -3 c 8 0 c 7 3 c 4 8 c 4 15 c 4 11 c 7 8 c 8 4 c 11 0 c
8 -4 c 3 -4 c 4 -11 c 0 -15 c -4 -12 c -3 -3 c -8 -4 c -11 0 c -8 4 c -7 7 c -4 12 c -4 15 c -4 7 c -7 4 c -8 0 c -7 -4 c -4 -11 c
0 -15 c 0 -38 6311 1954 l 34 -4 c -4 4 c -4 11 c 0 12 c 4 11 c 8 8 c 11 3 c 8 0 c 11 -3 c 7 -8 c 4 -11 c 0 -12 c -4 -11 c -3 -4 c
-8 -4 c -4 8 6326 1995 l -11 11 c 79 0 c 0 -250 6410 1617 l 79 -38 6367 1742 l 0 53 6367 1689 l 0 -38 6367 1810 l 34 -4 c -4 4 c
-4 11 c 0 11 c 4 12 c 8 7 c 11 4 c 7 0 c 12 -4 c 7 -7 c 4 -12 c 0 -11 c -4 -11 c -3 -4 c -8 -4 c -8 -4 6378 1889 l -3 -11 c 0 -8 c
3 -11 c 12 -8 c 19 -3 c 19 0 c 15 3 c 7 8 c 4 11 c 0 4 c -4 11 c -7 8 c -12 4 c -3 0 c -12 -4 c -7 -8 c -4 -11 c 0 -4 c 4 -11 c
7 -8 c 12 -3 c -8 -4 6378 1965 l -3 -12 c 0 -7 c 3 -11 c 12 -8 c 19 -4 c 19 0 c 15 4 c 7 8 c 4 11 c 0 4 c -4 11 c -7 8 c -12 3 c
-3 0 c -12 -3 c -7 -8 c -4 -11 c 0 -4 c 4 -11 c 7 -8 c 12 -4 c 3 -4 6439 1999 l 4 4 c -4 3 c -3 -3 c 0 -38 6367 2074 l 34 -3 c
-4 3 c -4 12 c 0 11 c 4 11 c 8 8 c 11 4 c 7 0 c 12 -4 c 7 -8 c 4 -11 c 0 -11 c -4 -12 c -3 -3 c -8 -4 c 0 42 6367 2112 l 30 -23 c
0 11 c 4 8 c 4 4 c 11 3 c 7 0 c 12 -3 c 7 -8 c 4 -11 c 0 -12 c -4 -11 c -3 -4 c -8 -4 c 3 -12 6367 2203 l 12 -7 c 19 -4 c 11 0 c
19 4 c 11 7 c 4 12 c 0 7 c -4 12 c -11 7 c -19 4 c -11 0 c -19 -4 c -12 -7 c -3 -12 c 0 -7 c 0 -250 6509 4862 l 79 -38 6466 4987 l
0 53 6466 4934 l 0 -38 6466 5055 l 34 -4 c -4 4 c -4 11 c 0 12 c 4 11 c 7 7 c 12 4 c 7 0 c 12 -4 c 7 -7 c 4 -11 c 0 -12 c -4 -11 c
-4 -4 c -7 -4 c -8 -4 6477 5134 l -3 -11 c 0 -8 c 3 -11 c 12 -8 c 19 -3 c 19 0 c 15 3 c 7 8 c 4 11 c 0 4 c -4 11 c -7 8 c -12 4 c
-3 0 c -12 -4 c -7 -8 c -4 -11 c 0 -4 c 4 -11 c 7 -8 c 12 -3 c 79 -37 6466 5213 l 0 53 6466 5160 l 4 -4 6537 5244 l 4 4 c -4 3 c
-4 -3 c 79 -38 6466 5327 l 0 53 6466 5274 l 53 -38 6466 5387 l 0 57 c 79 0 6466 5387 l -4 0 6485 5429 l -8 4 c -4 3 c -3 8 c 0 15 c
3 8 c 4 3 c 8 4 c 7 0 c 8 -4 c 11 -7 c 38 -38 c 0 53 c 0 -250 6971 1399 l 79 -38 6927 1523 l 0 53 6927 1470 l 0 -38 6927 1591 l
34 -3 c -4 3 c -4 12 c 0 11 c 4 12 c 8 7 c 11 4 c 8 0 c 11 -4 c 8 -7 c 3 -12 c 0 -11 c -3 -12 c -4 -3 c -8 -4 c 79 -37 6927 1674 l
0 52 6927 1622 l 0 41 6927 1705 l 30 -22 c 0 11 c 4 7 c 4 4 c 11 4 c 8 0 c 11 -4 c 8 -7 c 3 -12 c 0 -11 c -3 -11 c -4 -4 c -8 -4 c
4 -4 6999 1780 l 3 4 c -3 4 c -4 -4 c 0 42 6927 1818 l 30 -23 c 0 11 c 4 8 c 4 4 c 11 3 c 8 0 c 11 -3 c 8 -8 c 3 -11 c 0 -12 c
-3 -11 c -4 -4 c -8 -3 c 53 -38 6927 1924 l 0 57 c 79 0 6927 1924 l 53 -37 6927 1999 l 0 56 c 79 0 6927 1999 l 0 -249 8309 2074 l
79 -38 8265 2199 l 0 53 8265 2146 l 0 -38 8265 2267 l 34 -4 c -4 4 c -3 12 c 0 11 c 3 11 c 8 8 c 11 4 c 8 0 c 11 -4 c 8 -8 c 3 -11 c
0 -11 c -3 -12 c -4 -4 c -8 -3 c 4 -11 8265 2316 l 7 -4 c 8 0 c 8 4 c 3 7 c 4 15 c 4 12 c 7 7 c 8 4 c 11 0 c 8 -4 c 4 -3 c 3 -12 c
0 -15 c -3 -11 c -4 -4 c -8 -4 c -11 0 c -8 4 c -7 8 c -4 11 c -4 15 c -3 8 c -8 3 c -8 0 c -7 -3 c -4 -12 c 0 -15 c
11 -4 8292 2422 l 7 -7 c 4 -12 c 0 -4 c -4 -11 c -7 -7 c -11 -4 c -4 0 c -12 4 c -7 7 c -4 11 c 0 4 c 4 12 c 7 7 c 16 4 c 18 0 c
19 -4 c 12 -7 c 3 -12 c 0 -7 c -3 -12 c -8 -3 c 4 -4 8337 2456 l 3 4 c -3 4 c -4 -4 c 0 41 8265 2494 l 30 -22 c 0 11 c 4 8 c 4 3 c
11 4 c 8 0 c 11 -4 c 8 -7 c 3 -12 c 0 -11 c -3 -11 c -4 -4 c -8 -4 c -4 8 8280 2573 l -11 11 c 79 0 c 0 -38 8265 2683 l 34 -4 c
-4 4 c -3 11 c 0 12 c 3 11 c 8 7 c 11 4 c 8 0 c 11 -4 c 8 -7 c 3 -11 c 0 -12 c -3 -11 c -4 -4 c -8 -4 c 0 -250 9067 1573 l
79 -37 9023 1697 l 0 53 9023 1644 l 0 -37 9023 1765 l 34 -4 c -4 4 c -3 11 c 0 11 c 3 12 c 8 7 c 11 4 c 8 0 c 11 -4 c 8 -7 c 3 -12 c
0 -11 c -3 -11 c -4 -4 c -8 -4 c 11 -4 9050 1845 l 7 -8 c 4 -11 c 0 -4 c -4 -11 c -7 -8 c -11 -3 c -4 0 c -12 3 c -7 8 c -4 11 c
0 4 c 4 11 c 7 8 c 16 4 c 18 0 c 19 -4 c 12 -8 c 3 -11 c 0 -8 c -3 -11 c -8 -4 c 4 -11 9023 1890 l 7 -4 c 8 0 c 8 4 c 3 7 c 4 15 c
4 12 c 7 7 c 8 4 c 11 0 c 8 -4 c 4 -3 c 3 -12 c 0 -15 c -3 -11 c -4 -4 c -8 -4 c -11 0 c -8 4 c -7 8 c -4 11 c -4 15 c -3 8 c -8 3 c
-8 0 c -7 -3 c -4 -12 c 0 -15 c 4 -3 9095 1954 l 3 3 c -3 4 c -4 -4 c -4 0 9042 1988 l -7 4 c -4 4 c -4 7 c 0 16 c 4 7 c 4 4 c 7 4 c
8 0 c 7 -4 c 12 -8 c 37 -37 c 0 52 c 4 -12 9023 2083 l 11 -7 c 19 -4 c 11 0 c 19 4 c 12 7 c 3 12 c 0 7 c -3 12 c -12 7 c -19 4 c
-11 0 c -19 -4 c -11 -7 c -4 -12 c 0 -7 c 0 -38 9023 2181 l 34 -3 c -4 3 c -3 12 c 0 11 c 3 11 c 8 8 c 11 4 c 8 0 c 11 -4 c 8 -8 c
3 -11 c 0 -11 c -3 -12 c -4 -3 c -8 -4 c
showpage PGPLOT restore
 
%%Trailer
%%DocumentFonts: 
%%Pages: 1
%%EOF
