%!PS-Adobe-3.0 EPSF-3.0
%%For: tab
%%Title: PGPLOT PostScript plot
%%Creator: PGPLOT
%%CreationDate: 20-Apr-1995 16:47
%%BoundingBox: 25 18 587 774
%%DocumentFonts: (atend)
%%LanguageLevel: 1
%%Orientation: Landscape
%%Pages: (atend)
%%EndComments
%%BeginProlog
/l {moveto rlineto currentpoint stroke moveto} bind def
/c {rlineto currentpoint stroke moveto} bind def
/d {moveto 0 0 rlineto currentpoint stroke moveto} bind def
/SLW {5 mul setlinewidth} bind def
/SCF /pop load def
/BP {newpath moveto} bind def
/LP /rlineto load def
/EP {rlineto closepath eofill} bind def
/MB {gsave translate MFAC dup scale 1 setlinewidth 2 setlinecap 0 setlinejoin newpath} bind def
/ME /grestore load def
/C {0 360 arc stroke} bind def
/FC {0 360 arc fill} bind def
%%EndProlog
 
%%Page: 1 1
%%BeginPageSetup
/PGPLOT save def
0.072 0.072 scale
8150 250 translate 90 rotate
1 setlinejoin 1 setlinecap 1 SLW 1 SCF
%%EndPageSetup
0.000 setgray 1 SLW 8939 0 780 780 l 0 6239 c -8939 0 c 0 -6239 c 0 -45 1116 780 l 0 -45 1554 780 l 0 -45 1991 780 l
0 -45 2428 780 l 0 -90 2865 780 l 0 -45 3302 780 l 0 -45 3739 780 l 0 -45 4176 780 l 0 -45 4613 780 l 0 -90 5051 780 l
0 -45 5488 780 l 0 -45 5925 780 l 0 -45 6362 780 l 0 -45 6799 780 l 0 -90 7236 780 l 0 -45 7673 780 l 0 -45 8110 780 l
0 -45 8548 780 l 0 -45 8985 780 l 0 -90 9422 780 l 0 -45 1116 7064 l 0 -45 1554 7064 l 0 -45 1991 7064 l 0 -45 2428 7064 l
0 -90 2865 7109 l 0 -45 3302 7064 l 0 -45 3739 7064 l 0 -45 4176 7064 l 0 -45 4613 7064 l 0 -90 5051 7109 l 0 -45 5488 7064 l
0 -45 5925 7064 l 0 -45 6362 7064 l 0 -45 6799 7064 l 0 -90 7236 7109 l 0 -45 7673 7064 l 0 -45 8110 7064 l 0 -45 8548 7064 l
0 -45 8985 7064 l 0 -90 9422 7109 l -60 0 2775 672 l -6 -54 c 6 6 c 18 6 c 18 0 c 18 -6 c 12 -12 c 6 -18 c 0 -12 c -6 -18 c
-12 -12 c -18 -6 c -18 0 c -18 6 c -6 6 c -6 12 c -18 -6 2859 672 l -12 -18 c -6 -30 c 0 -18 c 6 -30 c 12 -18 c 18 -6 c 12 0 c
18 6 c 12 18 c 6 30 c 0 18 c -6 30 c -12 18 c -18 6 c -12 0 c -18 -6 2979 672 l -12 -18 c -6 -30 c 0 -18 c 6 -30 c 12 -18 c 18 -6 c
12 0 c 18 6 c 12 18 c 6 30 c 0 18 c -6 30 c -12 18 c -18 6 c -12 0 c 12 6 4847 648 l 18 18 c 0 -126 c -18 -6 4985 672 l -12 -18 c
-6 -30 c 0 -18 c 6 -30 c 12 -18 c 18 -6 c 12 0 c 18 6 c 12 18 c 6 30 c 0 18 c -6 30 c -12 18 c -18 6 c -12 0 c -18 -6 5105 672 l
-12 -18 c -6 -30 c 0 -18 c 6 -30 c 12 -18 c 18 -6 c 12 0 c 18 6 c 12 18 c 6 30 c 0 18 c -6 30 c -12 18 c -18 6 c -12 0 c
-18 -6 5225 672 l -12 -18 c -6 -30 c 0 -18 c 6 -30 c 12 -18 c 18 -6 c 12 0 c 18 6 c 12 18 c 6 30 c 0 18 c -6 30 c -12 18 c -18 6 c
-12 0 c 12 6 7032 648 l 18 18 c 0 -126 c -60 0 7206 672 l -6 -54 c 6 6 c 18 6 c 18 0 c 18 -6 c 12 -12 c 6 -18 c 0 -12 c -6 -18 c
-12 -12 c -18 -6 c -18 0 c -18 6 c -6 6 c -6 12 c -18 -6 7290 672 l -12 -18 c -6 -30 c 0 -18 c 6 -30 c 12 -18 c 18 -6 c 12 0 c
18 6 c 12 18 c 6 30 c 0 18 c -6 30 c -12 18 c -18 6 c -12 0 c -18 -6 7410 672 l -12 -18 c -6 -30 c 0 -18 c 6 -30 c 12 -18 c 18 -6 c
12 0 c 18 6 c 12 18 c 6 30 c 0 18 c -6 30 c -12 18 c -18 6 c -12 0 c 0 6 9206 642 l 6 12 c 6 6 c 12 6 c 24 0 c 12 -6 c 6 -6 c
6 -12 c 0 -12 c -6 -12 c -12 -18 c -60 -60 c 84 0 c -18 -6 9356 672 l -12 -18 c -6 -30 c 0 -18 c 6 -30 c 12 -18 c 18 -6 c 12 0 c
18 6 c 12 18 c 6 30 c 0 18 c -6 30 c -12 18 c -18 6 c -12 0 c -18 -6 9476 672 l -12 -18 c -6 -30 c 0 -18 c 6 -30 c 12 -18 c 18 -6 c
12 0 c 18 6 c 12 18 c 6 30 c 0 18 c -6 30 c -12 18 c -18 6 c -12 0 c -18 -6 9596 672 l -12 -18 c -6 -30 c 0 -18 c 6 -30 c 12 -18 c
18 -6 c 12 0 c 18 6 c 12 18 c 6 30 c 0 18 c -6 30 c -12 18 c -18 6 c -12 0 c -90 0 780 808 l -45 0 780 1117 l -45 0 780 1426 l
-45 0 780 1735 l -45 0 780 2044 l -90 0 780 2353 l -45 0 780 2662 l -45 0 780 2971 l -45 0 780 3280 l -45 0 780 3590 l
-90 0 780 3899 l -45 0 780 4208 l -45 0 780 4517 l -45 0 780 4826 l -45 0 780 5135 l -90 0 780 5444 l -45 0 780 5753 l
-45 0 780 6062 l -45 0 780 6371 l -45 0 780 6680 l -90 0 780 6989 l -90 0 9809 808 l -45 0 9764 1117 l -45 0 9764 1426 l
-45 0 9764 1735 l -45 0 9764 2044 l -90 0 9809 2353 l -45 0 9764 2662 l -45 0 9764 2971 l -45 0 9764 3280 l -45 0 9764 3590 l
-90 0 9809 3899 l -45 0 9764 4208 l -45 0 9764 4517 l -45 0 9764 4826 l -45 0 9764 5135 l -90 0 9809 5444 l -45 0 9764 5753 l
-45 0 9764 6062 l -45 0 9764 6371 l -45 0 9764 6680 l -90 0 9809 6989 l 6 -18 517 802 l 18 -12 c 30 -6 c 18 0 c 30 6 c 18 12 c
6 18 c 0 12 c -6 18 c -18 12 c -30 6 c -18 0 c -30 -6 c -18 -12 c -6 -18 c 0 -12 c -6 12 541 2233 l -18 18 c 126 0 c
6 -18 517 2371 l 18 -12 c 30 -6 c 18 0 c 30 6 c 18 12 c 6 18 c 0 12 c -6 18 c -18 12 c -30 6 c -18 0 c -30 -6 c -18 -12 c -6 -18 c
0 -12 c 63 -45 453 2496 l 0 67 c 94 0 453 2496 l -6 0 547 3641 l -12 6 c -6 6 c -6 12 c 0 24 c 6 12 c 6 6 c 12 6 c 12 0 c 12 -6 c
18 -12 c 60 -60 c 0 84 c 84 84 547 3761 l 84 -84 547 3845 l -6 12 541 3905 l -18 18 c 126 0 c 6 -18 517 4043 l 18 -12 c 30 -6 c
18 0 c 30 6 c 18 12 c 6 18 c 0 12 c -6 18 c -18 12 c -30 6 c -18 0 c -30 -6 c -18 -12 c -6 -18 c 0 -12 c 63 -45 453 4167 l 0 68 c
94 0 453 4167 l 0 66 517 5192 l 48 -36 c 0 18 c 6 12 c 6 6 c 18 6 c 12 0 c 18 -6 c 12 -12 c 6 -18 c 0 -18 c -6 -18 c -6 -6 c
-12 -6 c 84 84 547 5306 l 84 -84 547 5390 l -6 12 541 5450 l -18 18 c 126 0 c 6 -18 517 5588 l 18 -12 c 30 -6 c 18 0 c 30 6 c
18 12 c 6 18 c 0 12 c -6 18 c -18 12 c -30 6 c -18 0 c -30 -6 c -18 -12 c -6 -18 c 0 -12 c 63 -45 453 5712 l 0 68 c 94 0 453 5712 l
84 -60 517 6785 l 0 90 c 126 0 517 6785 l 84 84 547 6851 l 84 -84 547 6935 l -6 12 541 6995 l -18 18 c 126 0 c 6 -18 517 7133 l
18 -12 c 30 -6 c 18 0 c 30 6 c 18 12 c 6 18 c 0 12 c -6 18 c -18 12 c -30 6 c -18 0 c -30 -6 c -18 -12 c -6 -18 c 0 -12 c
63 -45 453 7258 l 0 67 c 94 0 453 7258 l
4 -10 780 854 l 5 -7 c 4 -3 c 4 -3 c 5 -1 c 4 0 c 4 0 c 5 1 c 4 0 c 5 -1 c 4 0 c 4 0 c 5 0 c 4 0 c 4 0 c 5 0 c 4 0 c 5 1 c 4 1 c
4 3 c 5 0 c 4 -2 c 4 -2 c 5 -1 c 4 0 c 5 0 c 4 2 c 4 7 c 5 33 c 4 114 c 4 73 c 5 -36 c 4 -133 c 5 -53 c 4 -7 c 4 -1 c 5 -1 c 4 0 c
4 1 c 5 0 c 4 0 c 4 1 c 5 0 c 4 1 c 5 0 c 4 -1 c 4 -1 c 5 0 c 4 0 c 4 0 c 5 1 c 4 -1 c 5 0 c 4 0 c 4 1 c 5 0 c 4 4 c 4 6 c 5 4 c
4 11 c 5 53 c 4 38 c 4 -16 c 5 -65 c 4 -17 c 4 3 c 5 -4 c 4 -10 c 5 -7 c 4 -1 c 4 -1 c 5 0 c 4 0 c 4 0 c 5 -1 c 4 1 c 4 1 c 5 -1 c
4 1 c 5 1 c 4 1 c 4 7 c 5 39 c 4 -69 c 4 0 c 5 140 c 4 -90 c 5 -26 c 4 -3 c 4 -1 c 5 0 c 4 0 c 4 1 c 5 0 c 4 0 c 5 -1 c 4 -1 c 4 0 c
5 1 c 4 0 c 4 1 c 5 0 c 4 0 c 5 0 c 4 0 c 4 -1 c 5 0 c 4 0 c 4 0 c 5 1 c 4 0 c 4 0 c 5 0 c 4 -1 c 5 2 c 4 -1 c 4 0 c 5 0 c 4 0 c
4 0 c 5 0 c 4 0 c 5 2 c 4 3 c 4 0 c 5 -2 c 4 -1 c 4 -1 c 5 0 c 4 0 c 5 0 c 4 -1 c 4 1 c 5 1 c 4 1 c 4 1 c 5 -1 c 4 -2 c 5 -1 c 4 0 c
4 3 c 5 1 c 4 0 c 4 -1 c 5 -1 c 4 0 c 4 1 c 5 -1 c 4 0 c 5 0 c 4 -1 c 4 -1 c 5 2 c 4 0 c 4 -1 c 5 1 c 4 -1 c 5 0 c 4 0 c 4 0 c 5 1 c
4 0 c 4 0 c 5 0 c 4 0 c 5 -1 c 4 0 c 4 0 c 5 1 c 4 0 c 4 1 c 5 0 c 4 0 c 4 -1 c 5 0 c 4 0 c 5 0 c 4 1 c 4 0 c 5 0 c 4 0 c 4 -1 c
5 0 c 4 1 c 5 0 c 4 -1 c 4 0 c 5 0 c 4 1 c 4 0 c 5 0 c 4 0 c 5 0 c 4 0 c 4 0 c 5 1 c 4 1 c 4 2 c 5 0 c 4 -2 c 5 -1 c 4 0 c 4 0 c
5 0 c 4 0 c 4 0 c 5 0 c 4 0 c 4 0 c 5 1 c 4 1 c 5 2 c 4 2 c 4 3 c 5 11 c 4 59 c 4 313 c 5 616 c 4 233 c 5 -506 c 4 -545 c 4 -165 c
5 -15 c 4 -3 c 4 -1 c 5 -1 c 4 -2 c 5 -1 c 4 0 c 4 0 c 5 1 c 4 0 c 4 0 c 5 0 c 4 -1 c 5 -1 c 4 1 c 4 -1 c 5 0 c 4 0 c 4 0 c 5 0 c
4 1 c 4 1 c 5 0 c 4 -1 c 5 0 c 4 -1 c 4 1 c 5 0 c 4 0 c 4 0 c 5 2 c 4 2 c 5 6 c 4 10 c 4 1 c 5 -7 c 4 -9 c 4 -4 c 5 -1 c 4 1 c 5 1 c
4 0 c 4 0 c 5 0 c 4 0 c 4 1 c 5 0 c 4 0 c 5 -1 c 4 1 c 4 0 c 5 0 c 4 -1 c 4 1 c 5 1 c 4 -1 c 4 1 c 5 -1 c 4 1 c 5 1 c 4 0 c 4 0 c
5 0 c 4 0 c 4 0 c 5 4 c 4 2 c 5 -2 c 4 -1 c 4 0 c 5 0 c 4 1 c 4 -1 c 5 -1 c 4 0 c 5 2 c 4 1 c 4 0 c 5 0 c 4 0 c 4 1 c 5 0 c 4 2 c
5 0 c 4 2 c 4 -2 c 5 2 c 4 0 c 4 3 c 5 2 c 4 1 c 4 -1 c 5 0 c 4 2 c 5 2 c 4 4 c 4 3 c 5 11 c 4 62 c 4 105 c 5 315 c 4 338 c 5 5 c
4 -429 c 4 -315 c 5 -74 c 4 0 c 4 2 c 5 0 c 4 0 c 5 5 c 4 3 c 4 1 c 5 3 c 4 3 c 4 3 c 5 1 c 4 3 c 4 5 c 5 2 c 4 3 c 5 5 c 4 6 c
4 6 c 5 14 c 4 13 c 4 5 c 5 7 c 4 4 c 5 8 c 4 16 c 4 24 c 5 30 c 4 30 c 4 14 c 5 15 c 4 40 c 5 83 c 4 83 c 4 122 c 5 160 c 4 445 c
3 4971 c 2 -5128 2408 7019 l 5 -390 c 4 -101 c 4 -73 c 5 -81 c 4 -63 c 5 -33 c 4 -20 c 4 -11 c 5 -23 c 4 -13 c 4 -22 c 5 -22 c
4 -25 c 5 -8 c 4 -11 c 4 -14 c 5 -1 c 4 -10 c 4 -12 c 5 -7 c 4 -1 c 5 0 c 4 -9 c 4 -10 c 5 -4 c 4 -3 c 4 -2 c 5 -1 c 4 -6 c 5 -7 c
4 -2 c 4 -3 c 5 -5 c 4 -2 c 4 -5 c 5 -2 c 4 -4 c 4 -3 c 5 -1 c 4 0 c 5 -1 c 4 -3 c 4 -4 c 5 -1 c 4 -2 c 4 -2 c 5 0 c 4 -2 c 5 0 c
4 2 c 4 2 c 5 1 c 4 -5 c 4 -6 c 5 -2 c 4 0 c 5 -1 c 4 -2 c 4 1 c 5 -2 c 4 0 c 4 0 c 5 1 c 4 -1 c 5 -2 c 4 0 c 4 0 c 5 -1 c 4 1 c
4 0 c 5 -1 c 4 -1 c 4 -1 c 5 1 c 4 -1 c 5 -2 c 4 -1 c 4 -1 c 5 0 c 4 1 c 4 -1 c 5 0 c 4 -2 c 5 0 c 4 1 c 4 -2 c 5 1 c 4 0 c 4 0 c
5 0 c 4 0 c 5 1 c 4 -1 c 4 0 c 5 1 c 4 -1 c 4 0 c 5 -1 c 4 -1 c 5 1 c 4 -1 c 4 0 c 5 0 c 4 0 c 4 1 c 5 0 c 4 0 c 4 -1 c 5 1 c 4 0 c
5 0 c 4 1 c 4 1 c 5 1 c 4 -1 c 4 -1 c 5 -1 c 4 -2 c 5 0 c 4 0 c 4 -1 c 5 1 c 4 0 c 4 -1 c 5 -1 c 4 0 c 5 0 c 4 1 c 4 0 c 5 -1 c
4 0 c 4 0 c 5 1 c 4 0 c 4 0 c 5 0 c 4 0 c 5 1 c 4 3 c 4 10 c 5 19 c 4 7 c 4 -13 c 5 -18 c 4 -6 c 5 -2 c 4 -1 c 4 0 c 5 1 c 4 -1 c
4 0 c 5 1 c 4 0 c 5 0 c 4 0 c 4 0 c 5 0 c 4 -1 c 4 0 c 5 1 c 4 -1 c 5 0 c 4 0 c 4 0 c 5 0 c 4 0 c 4 1 c 5 0 c 4 -1 c 4 0 c 5 0 c
4 0 c 5 0 c 4 -1 c 4 1 c 5 0 c 4 1 c 4 1 c 5 -1 c 4 0 c 5 0 c 4 6 c 4 12 c 5 3 c 4 -5 c 4 -9 c 5 -4 c 4 -2 c 5 -1 c 4 0 c 4 0 c
5 0 c 4 0 c 4 1 c 5 0 c 4 -1 c 5 -1 c 4 1 c 4 0 c 5 0 c 4 0 c 4 1 c 5 0 c 4 1 c 4 -1 c 5 0 c 4 0 c 5 -1 c 4 1 c 4 1 c 5 0 c 4 2 c
4 4 c 5 16 c 4 33 c 5 11 c 4 -22 c 4 -25 c 5 -6 c 4 -1 c 4 -5 c 5 -3 c 4 1 c 5 2 c 4 5 c 4 37 c 5 391 c 4 1188 c 4 459 c 5 -616 c
4 -1150 c 5 -289 c 4 -23 c 4 -3 c 5 0 c 4 2 c 4 18 c 5 116 c 4 165 c 4 49 c 5 -155 c 4 -165 c 5 -31 c 4 -4 c 4 -1 c 5 0 c 4 0 c
4 0 c 5 -1 c 4 -1 c 5 1 c 4 0 c 4 0 c 5 -2 c 4 2 c 4 0 c 5 -1 c 4 -1 c 5 1 c 4 0 c 4 0 c 5 0 c 4 0 c 4 -1 c 5 1 c 4 0 c 4 1 c 5 0 c
4 1 c 5 0 c 4 0 c 4 0 c 5 0 c 4 2 c 4 0 c 5 -1 c 4 1 c 5 2 c 4 1 c 4 -1 c 5 -2 c 4 -1 c 4 -3 c 5 0 c 4 -1 c 5 0 c 4 0 c 4 -1 c 5 1 c
4 -1 c 4 0 c 5 1 c 4 0 c 5 -1 c 4 1 c 4 -1 c 5 -1 c 4 1 c 4 0 c 5 1 c 4 3 c 4 1 c 5 -2 c 4 -2 c 5 0 c 4 0 c 4 2 c 5 3 c 4 2 c 4 -1 c
5 -6 c 4 2 c 5 1 c 4 -1 c 4 -3 c 5 0 c 4 17 c 4 16 c 5 1 c 4 -21 c 5 -14 c 4 -2 c 4 1 c 5 0 c 4 1 c 4 0 c 5 -1 c 4 0 c 5 0 c 4 1 c
4 4 c 5 1 c 4 -1 c 4 -4 c 5 -1 c 4 1 c 4 -1 c 5 1 c 4 0 c 5 0 c 4 0 c 4 -1 c 5 1 c 4 0 c 4 0 c 5 1 c 4 2 c 5 10 c 4 20 c 4 5 c
5 -17 c 4 -18 c 4 -2 c 5 2 c 4 0 c 5 0 c 4 -3 c 4 -1 c 5 0 c 4 0 c 4 1 c 5 0 c 4 0 c 5 0 c 4 -1 c 4 1 c 5 0 c 4 1 c 4 -1 c 5 0 c
4 -1 c 4 0 c 5 0 c 4 1 c 5 0 c 4 3 c 4 3 c 5 -1 c 4 -3 c 4 1 c 5 27 c 4 26 c 5 -4 c 4 -30 c 4 -19 c 5 -1 c 4 0 c 4 0 c 5 -2 c 4 -1 c
5 1 c 4 0 c 4 0 c 5 0 c 4 2 c 4 0 c 5 0 c 4 -2 c 5 -3 c 4 2 c 4 -1 c 5 0 c 4 0 c 4 1 c 5 -1 c 4 0 c 4 -1 c 5 1 c 4 0 c 5 0 c 4 2 c
4 1 c 5 3 c 4 0 c 4 -1 c 5 -2 c 4 -3 c 5 0 c 4 -1 c 4 0 c 5 0 c 4 0 c 4 0 c 5 1 c 4 0 c 5 -1 c 4 1 c 4 -1 c 5 0 c 4 0 c 4 0 c 5 1 c
4 -1 c 4 1 c 5 0 c 4 -1 c 5 1 c 4 -1 c 4 0 c 5 0 c 4 0 c 4 1 c 5 -1 c 4 1 c 5 -1 c 4 0 c 4 0 c 5 1 c 4 -1 c 4 0 c 5 1 c 4 16 c
5 60 c 4 20 c 4 -27 c 5 -56 c 4 -14 c 4 0 c 5 -1 c 4 0 c 5 0 c 4 1 c 4 1 c 5 -1 c 4 0 c 4 0 c 5 0 c 4 -1 c 4 0 c 5 -1 c 4 1 c 5 -1 c
4 1 c 4 0 c 5 0 c 4 0 c 4 -1 c 5 0 c 4 1 c 5 0 c 4 -1 c 4 0 c 5 0 c 4 0 c 4 -1 c 5 1 c 4 1 c 5 1 c 4 7 c 4 36 c 5 41 c 4 -7 c
4 -43 c 5 -32 c 4 -4 c 5 0 c 4 0 c 4 -1 c 5 1 c 4 -1 c 4 0 c 5 1 c 4 -1 c 4 0 c 5 -1 c 4 0 c 5 0 c 4 0 c 4 0 c 5 2 c 4 -1 c 4 0 c
5 -1 c 4 1 c 5 1 c 4 1 c 4 -2 c 5 -1 c 4 0 c 4 1 c 5 0 c 4 -1 c 5 0 c 4 0 c 4 0 c 5 0 c 4 0 c 4 0 c 5 0 c 4 0 c 5 0 c 4 0 c 4 0 c
5 0 c 4 -1 c 4 1 c 5 0 c 4 0 c 4 1 c 5 1 c 4 0 c 5 -1 c 4 0 c 4 -1 c 5 0 c 4 -1 c 4 0 c 5 1 c 4 0 c 5 0 c 4 0 c 4 0 c 5 0 c 4 0 c
4 0 c 5 1 c 4 0 c 5 1 c 4 1 c 4 1 c 5 -1 c 4 0 c 4 -2 c 5 1 c 4 0 c 5 0 c 4 0 c 4 -1 c 5 1 c 4 0 c 4 5 c 5 4 c 4 0 c 4 -6 c 5 -2 c
4 1 c 5 3 c 4 0 c 4 -3 c 5 -2 c 4 1 c 4 -1 c 5 -1 c 4 1 c 5 0 c 4 0 c 4 0 c 5 1 c 4 -1 c 4 -1 c 5 0 c 4 1 c 5 0 c 4 0 c 4 0 c 5 0 c
4 0 c 4 0 c 5 0 c 4 0 c 4 1 c 5 0 c 4 0 c 5 0 c 4 -1 c 4 0 c 5 0 c 4 0 c 4 0 c 5 2 c 4 -2 c 5 0 c 4 0 c 4 -1 c 5 1 c 4 0 c 4 2 c
5 1 c 4 -1 c 5 -2 c 4 0 c 4 0 c 5 0 c 4 0 c 4 0 c 5 0 c 4 1 c 5 0 c 4 0 c 4 1 c 5 1 c 4 11 c 4 10 c 5 2 c 4 16 c 4 237 c 5 310 c
4 19 c 5 -288 c 4 -280 c 4 -24 c 5 7 c 4 -2 c 4 -11 c 5 -8 c 4 -1 c 5 0 c 4 -1 c 4 0 c 5 0 c 4 1 c 4 -1 c 5 0 c 4 -1 c 5 1 c 4 0 c
4 0 c 5 0 c 4 0 c 4 1 c 5 0 c 4 -1 c 5 0 c 4 0 c 4 0 c 5 0 c 4 -1 c 4 1 c 5 1 c 4 -1 c 4 0 c 5 2 c 4 2 c 5 -1 c 4 -1 c 4 -2 c 5 1 c
4 -1 c 4 1 c 5 0 c 4 -1 c 5 1 c 4 0 c 4 0 c 5 -1 c 4 0 c 4 0 c 5 1 c 4 0 c 5 -1 c 4 0 c 4 0 c 5 0 c 4 0 c 4 0 c 5 -1 c 4 1 c 5 2 c
4 12 c 4 16 c 5 4 c 4 13 c 4 4 c 5 -10 c 4 -32 c 4 -9 c 5 -1 c 4 0 c 5 0 c 4 0 c 4 -1 c 5 1 c 4 2 c 4 7 c 5 7 c 4 0 c 5 -8 c 4 -7 c
4 -1 c 5 1 c 4 -1 c 4 0 c 5 -1 c 4 0 c 5 0 c 4 0 c 4 0 c 5 0 c 4 0 c 4 0 c 5 -1 c 4 1 c 4 -1 c 5 2 c 4 1 c 5 0 c 4 -1 c 4 -1 c 5 0 c
4 0 c 4 0 c 5 0 c 4 1 c 5 0 c 4 1 c 4 0 c 5 0 c 4 1 c 4 0 c 5 3 c 4 2 c 5 0 c 4 -30 c 4 27 c 5 1 c 4 1 c 4 3 c 5 3 c 4 8 c 5 37 c
4 46 c 4 22 c 5 121 c 4 1059 c 4 1723 c 5 353 c 4 -1297 c 4 -1729 c 5 -282 c 4 -42 c 5 -10 c 4 -5 c 4 -3 c 5 -3 c 4 -1 c 4 -1 c
5 0 c 4 -1 c 5 -2 c 4 -1 c 4 0 c 5 -1 c 4 -1 c 4 1 c 5 0 c 4 0 c 5 0 c 4 1 c 4 0 c 5 0 c 4 1 c 4 -1 c 5 -2 c 4 0 c 5 0 c 4 1 c
4 -1 c 5 -1 c 4 0 c 4 0 c 5 1 c 4 0 c 4 0 c 5 0 c 4 0 c 5 0 c 4 -1 c 4 0 c 5 0 c 4 1 c 4 1 c 5 -1 c 4 0 c 5 0 c 4 0 c 4 1 c 5 0 c
4 0 c 4 -1 c 5 0 c 4 2 c 5 0 c 4 -1 c 4 1 c 5 -1 c 4 0 c 4 0 c 5 0 c 4 1 c 5 0 c 4 2 c 4 27 c 5 113 c 4 62 c 4 -29 c 5 -135 c
4 -36 c 4 -3 c 5 1 c 4 -1 c 5 1 c 4 0 c 4 3 c 5 12 c 4 11 c 4 1 c 5 -10 c 4 0 c 5 7 c 4 17 c 4 153 c 5 834 c 4 880 c 4 16 c
5 -1027 c 4 -744 c 5 -116 c 4 -22 c 4 -7 c 5 -3 c 4 -1 c 4 0 c 5 0 c 4 -1 c 5 -1 c 4 -1 c 4 -1 c 5 -1 c 4 0 c 4 -1 c 5 1 c 4 -1 c
4 0 c 5 0 c 4 1 c 5 0 c 4 1 c 4 -2 c 5 0 c 4 -1 c 4 1 c 5 1 c 4 -1 c 5 1 c 4 -1 c 4 0 c 5 -1 c 4 0 c 4 0 c 5 0 c 4 0 c 5 0 c 4 -1 c
4 0 c 5 -1 c 4 1 c 4 0 c 5 0 c 4 0 c 4 0 c 5 1 c 4 -1 c 5 1 c 4 0 c 4 1 c 5 2 c 4 0 c 4 -1 c 5 0 c 4 2 c 5 1 c 4 -1 c 4 -2 c 5 -2 c
4 0 c 4 -1 c 5 0 c 4 0 c 5 0 c 4 0 c 4 0 c 5 0 c 4 0 c 4 0 c 5 0 c 4 0 c 5 0 c 4 0 c 4 0 c 5 -1 c 4 0 c 4 0 c 5 0 c 4 1 c 4 -1 c
5 2 c 4 0 c 5 0 c 4 0 c 4 -1 c 5 0 c 4 -1 c 4 0 c 5 0 c 4 1 c 5 1 c 4 -1 c 4 0 c 5 0 c 4 -1 c 4 0 c 5 0 c 4 1 c 5 0 c 4 0 c 4 0 c
5 0 c 4 0 c 4 -25 c 5 25 c 4 0 c 5 0 c 4 0 c 4 1 c 5 0 c 4 -1 c 4 2 c 5 -1 c 4 -1 c 4 0 c 5 0 c 4 0 c 5 1 c 4 1 c 4 0 c 5 -1 c
4 -2 c 4 1 c 5 -1 c 4 1 c 5 0 c 4 0 c 4 0 c 5 0 c 4 1 c 4 0 c 5 0 c 4 -1 c 5 1 c 4 -1 c 4 1 c 5 -1 c 4 1 c 4 0 c 5 0 c 4 0 c 5 0 c
4 1 c 4 1 c 5 3 c 4 18 c 4 8 c 5 -4 c 4 -19 c 4 -3 c 3 6180 c 3 -6134 6840 7019 l 4 -23 c 5 -2 c 4 -3 c 4 -3 c 5 -2 c 4 -3 c 4 1 c
5 0 c 4 0 c 5 -2 c 4 -2 c 4 0 c 5 -1 c 4 -1 c 4 1 c 5 -1 c 4 0 c 5 3 c 4 13 c 4 111 c 5 77 c 4 -7 c 4 -119 c 5 -70 c 4 -6 c 4 -2 c
5 0 c 4 -1 c 5 0 c 4 -1 c 4 0 c 5 -1 c 4 1 c 4 0 c 5 0 c 4 -1 c 5 0 c 4 0 c 4 0 c 5 -1 c 4 0 c 4 0 c 5 0 c 4 1 c 5 1 c 4 5 c 4 35 c
5 186 c 4 128 c 4 -27 c 5 -187 c 4 -131 c 4 -9 c 5 -2 c 4 0 c 5 0 c 4 0 c 4 -1 c 5 0 c 4 0 c 4 0 c 5 1 c 4 -1 c 5 1 c 4 0 c 4 -2 c
5 0 c 4 0 c 4 0 c 5 0 c 4 0 c 5 0 c 4 0 c 4 0 c 5 0 c 4 1 c 4 -1 c 5 0 c 4 0 c 5 0 c 4 1 c 4 0 c 5 0 c 4 0 c 4 0 c 5 0 c 4 0 c 4 1 c
5 2 c 4 3 c 5 21 c 4 225 c 4 653 c 5 204 c 4 -273 c 4 -642 c 5 -178 c 4 -9 c 5 -3 c 4 -3 c 4 0 c 5 -1 c 4 0 c 4 -1 c 5 -1 c 4 -1 c
5 1 c 4 0 c 4 0 c 5 0 c 4 2 c 4 0 c 5 -2 c 4 0 c 5 0 c 4 0 c 4 8 c 5 45 c 4 34 c 4 -10 c 5 -54 c 4 -22 c 4 -2 c 5 -1 c 4 1 c 5 0 c
4 -1 c 4 0 c 5 0 c 4 0 c 4 0 c 5 0 c 4 -1 c 5 0 c 4 1 c 4 0 c 5 0 c 4 0 c 4 1 c 5 -1 c 4 0 c 5 0 c 4 -1 c 4 0 c 5 -1 c 4 1 c 4 0 c
5 0 c 4 0 c 5 1 c 4 -1 c 4 0 c 5 0 c 4 1 c 4 -1 c 5 1 c 4 0 c 4 -1 c 5 1 c 4 0 c 5 -1 c 4 0 c 4 1 c 5 0 c 4 0 c 4 0 c 5 0 c 4 1 c
5 0 c 4 2 c 4 3 c 5 4 c 4 0 c 4 -5 c 5 -2 c 4 -1 c 5 -1 c 4 0 c 4 0 c 5 0 c 4 -1 c 4 0 c 5 -1 c 4 1 c 5 1 c 4 0 c 4 0 c 5 0 c 4 0 c
4 -1 c 5 1 c 4 -1 c 4 0 c 5 0 c 4 0 c 5 0 c 4 0 c 4 1 c 5 0 c 4 0 c 4 0 c 5 0 c 4 0 c 5 -1 c 4 1 c 4 0 c 5 0 c 4 1 c 4 0 c 5 0 c
4 -1 c 5 0 c 4 -1 c 4 1 c 5 0 c 4 0 c 4 0 c 5 0 c 4 0 c 4 0 c 5 0 c 4 0 c 5 -1 c 4 0 c 4 2 c 5 0 c 4 -1 c 4 0 c 5 0 c 4 0 c 5 -1 c
4 1 c 4 -1 c 5 1 c 4 0 c 4 0 c 5 0 c 4 -1 c 5 1 c 4 -1 c 4 0 c 5 0 c 4 1 c 4 0 c 5 11 c 4 78 c 5 100 c 4 8 c 4 -70 c 5 -117 c 4 -9 c
4 -2 c 5 0 c 4 -1 c 4 1 c 5 1 c 4 -1 c 5 0 c 4 0 c 4 -1 c 5 1 c 4 -1 c 4 0 c 5 -1 c 4 1 c 5 -1 c 4 0 c 4 1 c 5 0 c 4 -1 c 4 1 c
5 0 c 4 0 c 5 0 c 4 -1 c 4 0 c 5 0 c 4 1 c 4 0 c 5 0 c 4 0 c 5 0 c 4 -1 c 4 2 c 5 1 c 4 1 c 4 -1 c 5 -1 c 4 0 c 4 0 c 5 0 c 4 4 c
5 30 c 4 29 c 4 -2 c 5 -30 c 4 -29 c 4 -2 c 5 -2 c 4 1 c 5 0 c 4 -1 c 4 0 c 5 0 c 4 0 c 4 0 c 5 -1 c 4 1 c 5 1 c 4 12 c 4 18 c 5 6 c
4 -15 c 4 -20 c 5 -3 c 4 0 c 5 1 c 4 0 c 4 3 c 5 2 c 4 -1 c 4 -1 c 5 -1 c 4 0 c 4 0 c 5 -1 c 4 1 c 5 4 c 4 2 c 4 0 c 5 0 c 4 19 c
4 12 c 5 -4 c 4 -21 c 5 -12 c 4 -1 c 4 0 c 5 -1 c 4 1 c 4 0 c 5 0 c 4 1 c 5 -1 c 4 -1 c 4 0 c 5 0 c 4 0 c 4 -1 c 5 1 c 4 -1 c 4 1 c
5 -1 c 4 0 c 5 0 c 4 0 c 4 0 c 5 0 c 4 0 c 4 1 c 5 0 c 4 1 c 5 7 c 4 58 c 4 271 c 5 221 c 4 -42 c 4 -279 c 5 -219 c 4 -15 c 5 -2 c
4 0 c 4 1 c 5 2 c 4 0 c 4 -1 c 5 -3 c 4 -1 c 5 0 c 4 1 c 4 0 c 5 0 c 4 1 c 4 4 c 5 2 c 4 0 c 4 -5 c 5 -2 c 4 9 c 5 24 c 4 5 c 4 -7 c
5 -24 c 4 -4 c 4 12 c 5 32 c 4 5 c 5 -11 c 4 -33 c 4 -5 c 5 0 c 4 -2 c 4 -2 c 5 0 c 4 0 c 5 0 c 4 0 c 4 0 c 5 0 c 4 0 c 4 0 c 5 0 c
4 2 c 5 0 c 4 1 c 4 -1 c 5 0 c 4 1 c 4 0 c 5 1 c 4 0 c 4 -1 c 5 -1 c 4 0 c 5 -1 c 4 0 c 4 0 c 5 0 c 4 1 c 4 -1 c 5 0 c 4 0 c 5 0 c
4 -1 c 4 0 c 5 0 c 4 1 c 4 0 c 5 -1 c 4 1 c 5 -1 c 4 0 c 4 1 c 5 0 c 4 -1 c 4 1 c 5 0 c 4 1 c 5 1 c 4 0 c 4 0 c 5 -1 c 4 0 c 4 0 c
5 5 c 4 23 c 4 27 c 5 5 c 4 -23 c 5 -30 c 4 -7 c 4 0 c 5 0 c 4 -1 c 4 1 c 5 -1 c 4 0 c 5 -1 c 4 0 c 4 0 c 5 1 c 4 -1 c 4 -1 c 5 1 c
4 2 c 5 14 c 4 43 c 4 15 c 5 -16 c 4 -40 c 4 -17 c 5 -2 c 4 0 c 5 1 c 4 0 c 4 -1 c 5 1 c 4 -1 c 4 1 c 5 -1 c 4 4 c 4 15 c 5 6 c
4 -3 c 5 -14 c 4 -6 c 4 -1 c 5 0 c 4 0 c 4 0 c 5 0 c 4 0 c 5 1 c 4 -1 c 4 0 c 5 0 c 4 1 c 4 -1 c 5 1 c 4 0 c 5 2 c 4 4 c 4 16 c
5 27 c 4 13 c 4 -14 c 5 -27 c 4 -14 c 4 -4 c 5 -3 c 4 0 c 5 1 c 4 -1 c 4 0 c 5 1 c 4 -2 c 4 1 c 5 0 c 4 1 c 5 0 c 4 -1 c 4 0 c
5 -1 c 4 1 c 4 0 c 5 -1 c 4 1 c 5 0 c 4 1 c 4 1 c 5 3 c 4 2 c 4 -1 c 5 -3 c 4 -1 c 5 0 c 4 0 c 4 1 c 5 0 c 4 -2 c 4 0 c 5 0 c 4 0 c
4 0 c 5 0 c 4 0 c 5 0 c 4 1 c 4 -2 c 5 1 c 4 1 c 4 -1 c 5 0 c 4 0 c 5 1 c 4 1 c 4 1 c 5 0 c 4 2 c 4 2 c 5 636 c 2 5542 c
3 -6106 9371 7019 l 4 -31 c 5 -4 c 4 -3 c 4 -3 c 5 -1 c 4 -3 c 4 -2 c 5 -1 c 4 1 c 4 -2 c 5 0 c 4 0 c 5 -3 c 4 1 c 4 -2 c 5 2 c
4 -3 c 4 -1 c 5 1 c 4 -1 c 5 0 c 4 0 c 4 -1 c 5 -1 c 4 0 c 4 -1 c 5 1 c 4 -1 c 5 0 c 4 1 c 4 0 c 5 -2 c 4 1 c 4 0 c
5 1 c 4 -2 c 5 -1 c 4 -1 c 4 -44 c 5 0 c 4 50 c 4 16 c 5 34 c 4 27 c 4 29 c 5 88 c 4 190 c 5 674 c 4 1551 c 4 754 c 5 -440 c
4 -1769 c 4 -999 c 5 -125 c 4 -17 c 5 -8 c 4 -4 c 4 -4 c 5 -3 c 4 -1 c 4 -2 c 5 -2 c 4 0 c 5 -1 c 4 -1 c 4 0 c 5 0 c 4 -1 c 4 -2 c
5 0 c 4 0 c 5 0 c 4 1 c 4 -1 c 5 -1 c 4 0 c 4 0 c 5 1 c 4 -1 c
0 -126 3303 418 l 54 0 3303 418 l 18 -6 c 6 -6 c 6 -12 c 0 -12 c -6 -12 c -6 -6 c -18 -6 c -54 0 c 42 -66 3345 358 l
-12 -6 3453 376 l -12 -12 c -6 -18 c 0 -12 c 6 -18 c 12 -12 c 12 -6 c 18 0 c 12 6 c 12 12 c 6 18 c 0 12 c -6 18 c -12 12 c -12 6 c
-18 0 c 24 -84 3537 376 l -24 -84 3585 376 l 24 -84 3585 376 l -24 -84 3633 376 l 108 0 3675 364 l 108 0 3675 328 l 12 6 3939 394 l
18 18 c 0 -126 c -6 12 4119 400 l -18 6 c -12 0 c -18 -6 c -12 -18 c -6 -30 c 0 -30 c 6 -24 c 12 -12 c 18 -6 c 6 0 c 18 6 c 12 12 c
6 18 c 0 6 c -6 18 c -12 12 c -18 6 c -6 0 c -18 -6 c -12 -12 c -6 -18 c -12 -6 4287 376 l -12 -12 c -6 -18 c 0 -12 c 6 -18 c
12 -12 c 12 -6 c 18 0 c 12 6 c 12 12 c 6 18 c 0 12 c -6 18 c -12 12 c -12 6 c -18 0 c -12 0 4413 418 l -12 -6 c -6 -18 c 0 -102 c
42 0 4365 376 l 0 6 4545 388 l 6 12 c 6 6 c 12 6 c 24 0 c 12 -6 c 6 -6 c 6 -12 c 0 -12 c -6 -12 c -12 -18 c -60 -60 c 84 0 c
-18 -6 4695 418 l -12 -18 c -6 -30 c 0 -18 c 6 -30 c 12 -18 c 18 -6 c 12 0 c 18 6 c 12 18 c 6 30 c 0 18 c -6 30 c -12 18 c -18 6 c
-12 0 c 12 6 5181 394 l 18 18 c 0 -126 c -6 -6 5294 376 l 6 -6 c 6 6 c -6 6 c -6 -6 5294 304 l 6 -6 c 6 6 c -6 6 c
-48 -126 5474 418 l 48 -126 5474 418 l 60 0 5444 334 l 0 -84 5552 376 l 6 18 5552 340 l 12 12 c 12 6 c 18 0 c -12 12 5696 358 l
-12 6 c -18 0 c -12 -6 c -12 -12 c -6 -18 c 0 -12 c 6 -18 c 12 -12 c 12 -6 c 18 0 c 12 6 c 12 12 c 108 0 5738 346 l 12 6 5906 394 l
18 18 c 0 -126 c 66 0 6020 418 l -36 -48 c 18 0 c 12 -6 c 6 -6 c 6 -18 c 0 -12 c -6 -18 c -12 -12 c -18 -6 c -18 0 c -18 6 c -6 6 c
-6 12 c -6 -18 6206 376 l -12 -12 c -18 -6 c -6 0 c -18 6 c -12 12 c -6 18 c 0 6 c 6 18 c 12 12 c 18 6 c 6 0 c 18 -6 c 12 -12 c
6 -24 c 0 -30 c -6 -30 c -12 -18 c -18 -6 c -12 0 c -18 6 c -6 12 c -6 -6 6260 304 l 6 -6 c 6 6 c -6 6 c -12 0 6350 418 l -12 -6 c
-6 -18 c 0 -102 c 42 0 6302 376 l 6 -6 6380 418 l 6 6 c -6 6 c -6 -6 c 0 -84 6386 376 l 0 -102 6440 418 l 6 -18 c 12 -6 c 12 0 c
42 0 6422 376 l -6 12 6566 358 l -18 6 c -18 0 c -18 -6 c -6 -12 c 6 -12 c 12 -6 c 30 -6 c 12 -6 c 6 -12 c 0 -6 c -6 -12 c -18 -6 c
-18 0 c -18 6 c -6 12 c 0 -192 6896 442 l 0 -192 6902 442 l 42 0 6896 442 l 42 0 6896 250 l 0 6 6980 388 l 6 12 c 6 6 c 12 6 c
24 0 c 12 -6 c 6 -6 c 6 -12 c 0 -12 c -6 -12 c -12 -18 c -60 -60 c 84 0 c -6 -6 7106 376 l 6 -6 c 6 6 c -6 6 c -6 -6 7106 304 l
6 -6 c 6 6 c -6 6 c 0 -192 7286 442 l 0 -192 7292 442 l 42 0 7250 442 l 42 0 7250 250 l
0 -250 916 1496 l 80 -38 872 1621 l 0 53 872 1568 l -3 0 891 1647 l -8 4 c -4 4 c -4 7 c 0 15 c 4 8 c 4 4 c 8 3 c 7 0 c 8 -3 c
11 -8 c 38 -38 c 0 53 c 0 -38 872 1764 l 34 -3 c -3 3 c -4 12 c 0 11 c 4 11 c 7 8 c 12 4 c 7 0 c 11 -4 c 8 -8 c 4 -11 c 0 -11 c
-4 -12 c -4 -3 c -7 -4 c 0 -38 872 1840 l 34 -4 c -3 4 c -4 11 c 0 12 c 4 11 c 7 8 c 12 3 c 7 0 c 11 -3 c 8 -8 c 4 -11 c 0 -12 c
-4 -11 c -4 -4 c -7 -4 c 4 -4 944 1878 l 4 4 c -4 3 c -4 -3 c 0 42 872 1915 l 31 -23 c 0 12 c 3 7 c 4 4 c 12 4 c 7 0 c 11 -4 c
8 -8 c 4 -11 c 0 -11 c -4 -12 c -4 -3 c -7 -4 c 0 -38 872 2029 l 34 -4 c -3 4 c -4 11 c 0 12 c 4 11 c 7 8 c 12 3 c 7 0 c 11 -3 c
8 -8 c 4 -11 c 0 -12 c -4 -11 c -4 -4 c -7 -4 c 53 -38 872 2097 l 0 57 c 80 0 872 2097 l 0 -249 1052 1383 l 79 -38 1008 1508 l
0 53 1008 1455 l -4 0 1027 1534 l -7 4 c -4 4 c -4 8 c 0 15 c 4 7 c 4 4 c 7 4 c 8 0 c 7 -4 c 12 -8 c 37 -37 c 0 53 c
0 -38 1008 1652 l 34 -4 c -4 4 c -3 11 c 0 11 c 3 12 c 8 7 c 11 4 c 8 0 c 11 -4 c 8 -7 c 3 -12 c 0 -11 c -3 -11 c -4 -4 c -8 -4 c
-7 -4 1019 1731 l -4 -11 c 0 -8 c 4 -11 c 11 -8 c 19 -3 c 19 0 c 15 3 c 8 8 c 3 11 c 0 4 c -3 11 c -8 8 c -11 4 c -4 0 c -11 -4 c
-8 -8 c -4 -11 c 0 -4 c 4 -11 c 8 -8 c 11 -3 c 4 -4 1080 1765 l 3 4 c -3 4 c -4 -4 c 11 -3 1035 1844 l 7 -8 c 4 -11 c 0 -4 c
-4 -11 c -7 -8 c -11 -4 c -4 0 c -12 4 c -7 8 c -4 11 c 0 4 c 4 11 c 7 8 c 16 3 c 18 0 c 19 -3 c 12 -8 c 3 -11 c 0 -8 c -3 -11 c
-8 -4 c 4 -12 1008 1890 l 7 -3 c 8 0 c 8 3 c 3 8 c 4 15 c 4 11 c 7 8 c 8 4 c 11 0 c 8 -4 c 4 -4 c 3 -11 c 0 -15 c -3 -12 c -4 -3 c
-8 -4 c -11 0 c -8 4 c -7 7 c -4 11 c -4 16 c -3 7 c -8 4 c -8 0 c -7 -4 c -4 -11 c 0 -15 c -7 -3 1019 1995 l -4 -12 c 0 -7 c
4 -12 c 11 -7 c 19 -4 c 19 0 c 15 4 c 8 7 c 3 12 c 0 4 c -3 11 c -8 7 c -11 4 c -4 0 c -11 -4 c -8 -7 c -4 -11 c 0 -4 c 4 -12 c
8 -7 c 11 -4 c 0 -250 1736 2511 l 79 -38 1693 2635 l 0 53 1693 2582 l -4 0 1712 2662 l -8 3 c -4 4 c -3 8 c 0 15 c 3 7 c 4 4 c 8 4 c
7 0 c 8 -4 c 11 -7 c 38 -38 c 0 53 c -8 -4 1704 2783 l -3 -11 c 0 -8 c 3 -11 c 12 -8 c 19 -4 c 19 0 c 15 4 c 7 8 c 4 11 c 0 4 c
-4 11 c -7 8 c -12 3 c -3 0 c -12 -3 c -7 -8 c -4 -11 c 0 -4 c 4 -11 c 7 -8 c 12 -4 c 0 -37 1693 2854 l 34 -4 c -4 4 c -4 11 c
0 11 c 4 12 c 7 7 c 12 4 c 7 0 c 12 -4 c 7 -7 c 4 -12 c 0 -11 c -4 -11 c -4 -4 c -7 -4 c 4 -4 1764 2892 l 4 4 c -4 4 c -4 -4 c
-4 7 1708 2934 l -11 12 c 79 0 c 79 -38 1693 3051 l 0 53 1693 2998 l -4 0 1712 3077 l -8 4 c -4 4 c -3 8 c 0 15 c 3 7 c 4 4 c 8 4 c
7 0 c 8 -4 c 11 -8 c 38 -37 c 0 53 c 0 -250 3411 3366 l 80 -37 3367 3490 l 0 53 3367 3437 l -3 0 3386 3517 l -8 4 c -4 3 c -4 8 c
0 15 c 4 8 c 4 3 c 8 4 c 7 0 c 8 -4 c 11 -7 c 38 -38 c 0 53 c 4 -11 3367 3607 l 8 -4 c 7 0 c 8 4 c 4 8 c 3 15 c 4 11 c 8 8 c 7 3 c
12 0 c 7 -3 c 4 -4 c 4 -11 c 0 -16 c -4 -11 c -4 -4 c -7 -3 c -12 0 c -7 3 c -8 8 c -4 11 c -3 15 c -4 8 c -8 4 c -7 0 c -8 -4 c
-4 -11 c 0 -16 c 53 -38 3367 3702 l 0 57 c 80 0 3367 3702 l 4 -3 3439 3747 l 4 3 c -4 4 c -4 -4 c 11 -4 3394 3827 l 8 -8 c 4 -11 c
0 -4 c -4 -11 c -8 -8 c -11 -3 c -4 0 c -11 3 c -8 8 c -4 11 c 0 4 c 4 11 c 8 8 c 15 4 c 19 0 c 19 -4 c 11 -8 c 4 -11 c 0 -8 c
-4 -11 c -8 -4 c 4 -12 3367 3876 l 12 -7 c 18 -4 c 12 0 c 19 4 c 11 7 c 4 12 c 0 7 c -4 12 c -11 7 c -19 4 c -12 0 c -18 -4 c
-12 -7 c -4 -12 c 0 -7 c 0 42 3367 3936 l 31 -23 c 0 12 c 3 7 c 4 4 c 12 4 c 7 0 c 11 -4 c 8 -8 c 4 -11 c 0 -11 c -4 -12 c -4 -3 c
-7 -4 c 0 -250 4395 1368 l 79 -38 4351 1493 l 0 53 4351 1440 l -4 0 4370 1519 l -7 4 c -4 4 c -4 7 c 0 15 c 4 8 c 4 4 c 7 3 c 8 0 c
7 -3 c 12 -8 c 37 -38 c 0 53 c 11 -4 4378 1640 l 7 -7 c 4 -12 c 0 -3 c -4 -12 c -7 -7 c -11 -4 c -4 0 c -12 4 c -7 7 c -4 12 c 0 3 c
4 12 c 7 7 c 16 4 c 18 0 c 19 -4 c 12 -7 c 3 -12 c 0 -7 c -3 -12 c -8 -3 c -7 -4 4362 1716 l -4 -11 c 0 -8 c 4 -11 c 11 -8 c 19 -4 c
19 0 c 15 4 c 8 8 c 3 11 c 0 4 c -3 11 c -8 8 c -11 3 c -4 0 c -11 -3 c -8 -8 c -4 -11 c 0 -4 c 4 -11 c 8 -8 c 11 -4 c
4 -4 4423 1750 l 3 4 c -3 3 c -4 -3 c -4 0 4370 1784 l -7 3 c -4 4 c -4 8 c 0 15 c 4 7 c 4 4 c 7 4 c 8 0 c 7 -4 c 12 -7 c 37 -38 c
0 53 c -7 -4 4362 1905 l -4 -11 c 0 -8 c 4 -11 c 11 -8 c 19 -4 c 19 0 c 15 4 c 8 8 c 3 11 c 0 4 c -3 11 c -8 8 c -11 3 c -4 0 c
-11 -3 c -8 -8 c -4 -11 c 0 -4 c 4 -11 c 8 -8 c 11 -4 c -7 -4 4362 1980 l -4 -11 c 0 -7 c 4 -12 c 11 -7 c 19 -4 c 19 0 c 15 4 c
8 7 c 3 12 c 0 3 c -3 12 c -8 7 c -11 4 c -4 0 c -11 -4 c -8 -7 c -4 -12 c 0 -3 c 4 -12 c 8 -7 c 11 -4 c 0 -249 4558 1354 l
79 -38 4515 1479 l 0 53 4515 1426 l -4 0 4534 1505 l -8 4 c -3 4 c -4 8 c 0 15 c 4 7 c 3 4 c 8 4 c 7 0 c 8 -4 c 11 -8 c 38 -37 c
0 53 c 12 -3 4541 1626 l 7 -8 c 4 -11 c 0 -4 c -4 -11 c -7 -8 c -12 -4 c -4 0 c -11 4 c -7 8 c -4 11 c 0 4 c 4 11 c 7 8 c 15 3 c
19 0 c 19 -3 c 11 -8 c 4 -11 c 0 -8 c -4 -11 c -7 -4 c 4 -12 4515 1672 l 7 -3 c 8 0 c 7 3 c 4 8 c 4 15 c 4 11 c 7 8 c 8 4 c 11 0 c
8 -4 c 3 -4 c 4 -11 c 0 -15 c -4 -12 c -3 -3 c -8 -4 c -11 0 c -8 4 c -7 7 c -4 12 c -4 15 c -4 7 c -7 4 c -8 0 c -7 -4 c -4 -11 c
0 -15 c 3 -4 4587 1736 l 4 4 c -4 4 c -3 -4 c -4 7 4530 1778 l -11 11 c 79 0 c 53 -38 4515 1880 l 0 57 c 79 0 4515 1880 l
0 42 4515 1925 l 30 -23 c 0 11 c 4 8 c 4 4 c 11 3 c 7 0 c 12 -3 c 7 -8 c 4 -11 c 0 -12 c -4 -11 c -3 -4 c -8 -4 c 0 -250 5197 1877 l
79 -38 5154 2001 l 0 53 5154 1948 l 0 42 5154 2031 l 30 -23 c 0 12 c 4 7 c 3 4 c 12 4 c 7 0 c 12 -4 c 7 -8 c 4 -11 c 0 -11 c
-4 -12 c -4 -3 c -7 -4 c 3 -11 5154 2122 l 12 -8 c 19 -3 c 11 0 c 19 3 c 11 8 c 4 11 c 0 8 c -4 11 c -11 8 c -19 3 c -11 0 c
-19 -3 c -12 -8 c -3 -11 c 0 -8 c 0 -37 5154 2220 l 34 -4 c -4 4 c -4 11 c 0 11 c 4 12 c 7 7 c 12 4 c 7 0 c 12 -4 c 7 -7 c 4 -12 c
0 -11 c -4 -11 c -4 -4 c -7 -4 c 4 -4 5225 2258 l 4 4 c -4 4 c -4 -4 c 53 -38 5154 2326 l 0 57 c 79 0 5154 2326 l 3 -12 5154 2387 l
12 -7 c 19 -4 c 11 0 c 19 4 c 11 7 c 4 12 c 0 7 c -4 12 c -11 7 c -19 4 c -11 0 c -19 -4 c -12 -7 c -3 -12 c 0 -7 c
53 -37 5154 2477 l 0 56 c 79 0 5154 2477 l 0 -249 5757 4648 l 79 -38 5714 4773 l 0 53 5714 4720 l 0 42 5714 4803 l 30 -23 c 0 12 c
4 7 c 4 4 c 11 4 c 8 0 c 11 -4 c 7 -8 c 4 -11 c 0 -11 c -4 -12 c -3 -3 c -8 -4 c -4 7 5729 4883 l -11 12 c 79 0 c -4 8 5729 4958 l
-11 11 c 79 0 c 3 -4 5786 5030 l 4 4 c -4 4 c -3 -4 c 79 -38 5714 5113 l 0 53 5714 5060 l -4 8 5729 5147 l -11 11 c 79 0 c
-7 -4 5725 5261 l -4 -11 c 0 -8 c 4 -11 c 11 -8 c 19 -4 c 19 0 c 15 4 c 7 8 c 4 11 c 0 4 c -4 11 c -7 8 c -11 3 c -4 0 c -12 -3 c
-7 -8 c -4 -11 c 0 -4 c 4 -11 c 7 -8 c 12 -4 c 0 -249 6057 1475 l 79 -38 6013 1600 l 0 53 6013 1547 l 0 42 6013 1630 l 30 -23 c
0 11 c 4 8 c 4 4 c 11 4 c 8 0 c 11 -4 c 8 -8 c 3 -11 c 0 -11 c -3 -12 c -4 -4 c -8 -3 c -4 7 6028 1710 l -11 11 c 79 0 c
0 -38 6013 1819 l 34 -3 c -4 3 c -4 12 c 0 11 c 4 11 c 8 8 c 11 4 c 8 0 c 11 -4 c 8 -8 c 3 -11 c 0 -11 c -3 -12 c -4 -3 c -8 -4 c
4 -4 6085 1857 l 3 4 c -3 4 c -4 -4 c 4 -11 6013 1910 l 11 -8 c 19 -4 c 11 0 c 19 4 c 12 8 c 3 11 c 0 7 c -3 12 c -12 7 c -19 4 c
-11 0 c -19 -4 c -11 -7 c -4 -12 c 0 -7 c -7 -4 6024 2012 l -4 -11 c 0 -8 c 4 -11 c 11 -8 c 19 -3 c 19 0 c 15 3 c 8 8 c 3 11 c 0 4 c
-3 11 c -8 8 c -11 4 c -4 0 c -11 -4 c -8 -8 c -4 -11 c 0 -4 c 4 -11 c 8 -8 c 11 -3 c -7 -4 6024 2088 l -4 -12 c 0 -7 c 4 -11 c
11 -8 c 19 -4 c 19 0 c 15 4 c 8 8 c 3 11 c 0 4 c -3 11 c -8 8 c -11 3 c -4 0 c -11 -3 c -8 -8 c -4 -11 c 0 -4 c 4 -11 c 8 -8 c
11 -4 c 0 -249 6141 3198 l 80 -38 6097 3323 l 0 53 6097 3270 l 0 42 6097 3353 l 31 -23 c 0 11 c 3 8 c 4 4 c 12 3 c 7 0 c 11 -3 c
8 -8 c 4 -11 c 0 -12 c -4 -11 c -4 -4 c -7 -3 c -4 7 6113 3433 l -12 11 c 80 0 c -8 -4 6109 3546 l -4 -11 c 0 -8 c 4 -11 c 12 -8 c
18 -3 c 19 0 c 15 3 c 8 8 c 4 11 c 0 4 c -4 11 c -8 8 c -11 4 c -4 0 c -11 -4 c -8 -8 c -3 -11 c 0 -4 c 3 -11 c 8 -8 c 11 -3 c
4 -4 6169 3580 l 4 4 c -4 4 c -4 -4 c 4 -12 6097 3633 l 12 -7 c 18 -4 c 12 0 c 19 4 c 11 7 c 4 12 c 0 7 c -4 12 c -11 7 c -19 4 c
-12 0 c -18 -4 c -12 -7 c -4 -12 c 0 -7 c 4 -11 6097 3708 l 12 -7 c 18 -4 c 12 0 c 19 4 c 11 7 c 4 11 c 0 8 c -4 11 c -11 8 c
-19 4 c -12 0 c -18 -4 c -12 -8 c -4 -11 c 0 -8 c 0 -38 6097 3807 l 34 -4 c -3 4 c -4 11 c 0 12 c 4 11 c 7 7 c 12 4 c 7 0 c 11 -4 c
8 -7 c 4 -11 c 0 -12 c -4 -11 c -4 -4 c -7 -4 c 0 -249 6936 1485 l 80 -38 6892 1610 l 0 53 6892 1557 l 0 42 6892 1640 l 31 -23 c
0 11 c 3 8 c 4 4 c 12 4 c 7 0 c 12 -4 c 7 -8 c 4 -11 c 0 -11 c -4 -12 c -4 -4 c -7 -3 c -3 0 6911 1712 l -8 4 c -4 4 c -4 7 c 0 15 c
4 8 c 4 4 c 8 3 c 7 0 c 8 -3 c 11 -8 c 38 -38 c 0 53 c 53 -38 6892 1822 l 0 56 c 80 0 6892 1822 l 4 -4 6964 1867 l 4 4 c -4 4 c
-4 -4 c 4 -11 6892 1916 l 8 -4 c 7 0 c 8 4 c 4 7 c 3 15 c 4 12 c 8 7 c 7 4 c 12 0 c 7 -4 c 4 -3 c 4 -12 c 0 -15 c -4 -11 c -4 -4 c
-7 -4 c -12 0 c -7 4 c -8 8 c -4 11 c -3 15 c -4 8 c -8 3 c -7 0 c -8 -3 c -4 -12 c 0 -15 c 4 -11 6892 1995 l 12 -7 c 18 -4 c 12 0 c
19 4 c 11 7 c 4 11 c 0 8 c -4 11 c -11 8 c -19 4 c -12 0 c -18 -4 c -12 -8 c -4 -11 c 0 -8 c 80 -38 6892 2101 l 0 53 6892 2048 l
0 -250 7058 1633 l 79 -38 7015 1758 l 0 53 7015 1705 l 0 42 7015 1788 l 30 -23 c 0 11 c 4 8 c 4 4 c 11 3 c 7 0 c 12 -3 c 7 -8 c
4 -11 c 0 -12 c -4 -11 c -3 -4 c -8 -4 c -4 0 7034 1860 l -8 4 c -4 3 c -3 8 c 0 15 c 3 8 c 4 3 c 8 4 c 7 0 c 8 -4 c 11 -7 c
38 -38 c 0 53 c -8 -4 7026 1981 l -3 -11 c 0 -8 c 3 -11 c 12 -8 c 19 -4 c 19 0 c 15 4 c 7 8 c 4 11 c 0 4 c -4 11 c -7 8 c -12 3 c
-3 0 c -12 -3 c -7 -8 c -4 -11 c 0 -4 c 4 -11 c 7 -8 c 12 -4 c 3 -4 7087 2015 l 4 4 c -4 4 c -3 -4 c -4 8 7030 2056 l -11 11 c
79 0 c 53 -37 7015 2158 l 0 56 c 79 0 7015 2158 l 12 -4 7041 2245 l 7 -7 c 4 -11 c 0 -4 c -4 -12 c -7 -7 c -12 -4 c -4 0 c -11 4 c
-8 7 c -3 12 c 0 4 c 3 11 c 8 7 c 15 4 c 19 0 c 19 -4 c 11 -7 c 4 -11 c 0 -8 c -4 -11 c -7 -4 c 0 -249 7253 2384 l
79 -38 7210 2509 l 0 53 7210 2456 l 0 42 7210 2539 l 30 -23 c 0 12 c 4 7 c 4 4 c 11 4 c 8 0 c 11 -4 c 7 -8 c 4 -11 c 0 -11 c
-4 -12 c -3 -3 c -8 -4 c -4 0 7229 2611 l -8 4 c -3 4 c -4 7 c 0 15 c 4 8 c 3 4 c 8 4 c 8 0 c 7 -4 c 11 -8 c 38 -38 c 0 53 c
4 -11 7210 2702 l 7 -4 c 8 0 c 7 4 c 4 7 c 4 15 c 4 12 c 7 7 c 8 4 c 11 0 c 8 -4 c 3 -4 c 4 -11 c 0 -15 c -4 -11 c -3 -4 c -8 -4 c
-11 0 c -8 4 c -7 7 c -4 12 c -4 15 c -4 7 c -7 4 c -8 0 c -7 -4 c -4 -11 c 0 -15 c 3 -4 7282 2766 l 4 4 c -4 4 c -3 -4 c
-4 0 7229 2800 l -8 4 c -3 4 c -4 7 c 0 15 c 4 8 c 3 4 c 8 4 c 8 0 c 7 -4 c 11 -8 c 38 -38 c 0 53 c 4 -11 7210 2891 l 7 -4 c 8 0 c
7 4 c 4 7 c 4 15 c 4 12 c 7 7 c 8 4 c 11 0 c 8 -4 c 3 -4 c 4 -11 c 0 -15 c -4 -11 c -3 -4 c -8 -4 c -11 0 c -8 4 c -7 7 c -4 12 c
-4 15 c -4 7 c -7 4 c -8 0 c -7 -4 c -4 -11 c 0 -15 c 0 -38 7210 2993 l 34 -4 c -4 4 c -4 11 c 0 12 c 4 11 c 8 8 c 11 3 c 8 0 c
11 -3 c 7 -8 c 4 -11 c 0 -12 c -4 -11 c -3 -4 c -8 -3 c 0 -250 7364 1361 l 80 -37 7320 1485 l 0 52 7320 1433 l 0 41 7320 1516 l
31 -22 c 0 11 c 3 7 c 4 4 c 12 4 c 7 0 c 11 -4 c 8 -7 c 4 -12 c 0 -11 c -4 -11 c -4 -4 c -7 -4 c -3 0 7339 1587 l -8 4 c -4 4 c
-4 8 c 0 15 c 4 7 c 4 4 c 8 4 c 7 0 c 8 -4 c 11 -8 c 38 -37 c 0 53 c 11 -3 7347 1708 l 8 -8 c 4 -11 c 0 -4 c -4 -11 c -8 -8 c
-11 -4 c -4 0 c -11 4 c -8 8 c -4 11 c 0 4 c 4 11 c 8 8 c 15 3 c 19 0 c 19 -3 c 11 -8 c 4 -11 c 0 -8 c -4 -11 c -8 -4 c
4 -3 7392 1742 l 4 3 c -4 4 c -4 -4 c 53 -37 7320 1810 l 0 56 c 80 0 7320 1810 l 11 -3 7347 1897 l 8 -8 c 4 -11 c 0 -4 c -4 -11 c
-8 -8 c -11 -4 c -4 0 c -11 4 c -8 8 c -4 11 c 0 4 c 4 11 c 8 8 c 15 3 c 19 0 c 19 -3 c 11 -8 c 4 -11 c 0 -8 c -4 -11 c -8 -4 c
-3 0 7339 1928 l -8 3 c -4 4 c -4 8 c 0 15 c 4 7 c 4 4 c 8 4 c 7 0 c 8 -4 c 11 -7 c 38 -38 c 0 53 c 0 -250 7925 1470 l
79 -38 7882 1595 l 0 53 7882 1542 l 0 41 7882 1625 l 30 -22 c 0 11 c 4 8 c 3 3 c 12 4 c 7 0 c 12 -4 c 7 -7 c 4 -12 c 0 -11 c
-4 -11 c -3 -4 c -8 -4 c 0 42 7882 1700 l 30 -23 c 0 12 c 4 7 c 3 4 c 12 4 c 7 0 c 12 -4 c 7 -8 c 4 -11 c 0 -11 c -4 -12 c -3 -3 c
-8 -4 c 0 -38 7882 1814 l 34 -4 c -4 4 c -4 11 c 0 12 c 4 11 c 7 8 c 12 3 c 7 0 c 12 -3 c 7 -8 c 4 -11 c 0 -12 c -4 -11 c -3 -4 c
-8 -4 c 3 -4 7954 1852 l 4 4 c -4 3 c -3 -3 c 0 -38 7882 1927 l 34 -3 c -4 3 c -4 12 c 0 11 c 4 11 c 7 8 c 12 4 c 7 0 c 12 -4 c
7 -8 c 4 -11 c 0 -11 c -4 -12 c -3 -3 c -8 -4 c 79 -37 7882 2010 l 0 53 7882 1957 l 79 -38 7882 2086 l 0 53 7882 2033 l
0 -250 8444 1828 l 79 -38 8401 1953 l 0 53 8401 1900 l 0 42 8401 1983 l 30 -23 c 0 11 c 4 8 c 3 4 c 12 3 c 7 0 c 12 -3 c 7 -8 c
4 -11 c 0 -12 c -4 -11 c -4 -4 c -7 -4 c 52 -38 8401 2089 l 0 57 c 79 0 8401 2089 l -4 7 8416 2138 l -11 12 c 79 0 c
4 -4 8472 2210 l 4 4 c -4 3 c -4 -3 c -4 8 8416 2251 l -11 11 c 79 0 c 0 -38 8401 2361 l 34 -4 c -4 4 c -4 11 c 0 12 c 4 11 c 7 8 c
12 3 c 7 0 c 12 -3 c 7 -8 c 4 -11 c 0 -12 c -4 -11 c -4 -4 c -7 -3 c -4 8 8416 2402 l -11 11 c 79 0 c 0 -250 9593 4658 l
79 -38 9549 4783 l 0 53 9549 4730 l 0 41 9549 4813 l 30 -22 c 0 11 c 4 8 c 4 3 c 11 4 c 8 0 c 11 -4 c 8 -7 c 3 -11 c 0 -12 c
-3 -11 c -4 -4 c -8 -4 c 0 -38 9549 4926 l 34 -3 c -4 3 c -4 12 c 0 11 c 4 12 c 8 7 c 11 4 c 8 0 c 11 -4 c 8 -7 c 3 -12 c 0 -11 c
-3 -12 c -4 -3 c -8 -4 c 0 42 9549 4964 l 30 -23 c 0 11 c 4 8 c 4 4 c 11 3 c 8 0 c 11 -3 c 8 -8 c 3 -11 c 0 -12 c -3 -11 c -4 -4 c
-8 -3 c 4 -4 9621 5040 l 3 4 c -3 3 c -4 -3 c -4 0 9568 5074 l -7 3 c -4 4 c -4 8 c 0 15 c 4 7 c 4 4 c 7 4 c 8 0 c 7 -4 c 12 -7 c
37 -38 c 0 53 c 12 -4 9575 5195 l 7 -8 c 4 -11 c 0 -4 c -4 -11 c -7 -8 c -12 -3 c -3 0 c -12 3 c -7 8 c -4 11 c 0 4 c 4 11 c 7 8 c
15 4 c 19 0 c 19 -4 c 12 -8 c 3 -11 c 0 -8 c -3 -11 c -8 -4 c 0 41 9549 5229 l 30 -22 c 0 11 c 4 7 c 4 4 c 11 4 c 8 0 c 11 -4 c
8 -7 c 3 -12 c 0 -11 c -3 -11 c -4 -4 c -8 -4 c
showpage PGPLOT restore
 
%%Trailer
%%DocumentFonts: 
%%Pages: 1
%%EOF
