%!PS-Adobe-3.0 EPSF-3.0
%%For: tab
%%Title: PGPLOT PostScript plot
%%Creator: PGPLOT
%%CreationDate: 20-Apr-1995 16:48
%%BoundingBox: 25 18 587 774
%%DocumentFonts: (atend)
%%LanguageLevel: 1
%%Orientation: Landscape
%%Pages: (atend)
%%EndComments
%%BeginProlog
/l {moveto rlineto currentpoint stroke moveto} bind def
/c {rlineto currentpoint stroke moveto} bind def
/d {moveto 0 0 rlineto currentpoint stroke moveto} bind def
/SLW {5 mul setlinewidth} bind def
/SCF /pop load def
/BP {newpath moveto} bind def
/LP /rlineto load def
/EP {rlineto closepath eofill} bind def
/MB {gsave translate MFAC dup scale 1 setlinewidth 2 setlinecap 0 setlinejoin newpath} bind def
/ME /grestore load def
/C {0 360 arc stroke} bind def
/FC {0 360 arc fill} bind def
%%EndProlog
 
%%Page: 1 1
%%BeginPageSetup
/PGPLOT save def
0.072 0.072 scale
8150 250 translate 90 rotate
1 setlinejoin 1 setlinecap 1 SLW 1 SCF
%%EndPageSetup
0.000 setgray 1 SLW 8939 0 780 780 l 0 6239 c -8939 0 c 0 -6239 c 0 -45 1116 780 l 0 -45 1554 780 l 0 -45 1991 780 l
0 -45 2428 780 l 0 -90 2865 780 l 0 -45 3302 780 l 0 -45 3739 780 l 0 -45 4176 780 l 0 -45 4613 780 l 0 -90 5051 780 l
0 -45 5488 780 l 0 -45 5925 780 l 0 -45 6362 780 l 0 -45 6799 780 l 0 -90 7236 780 l 0 -45 7673 780 l 0 -45 8110 780 l
0 -45 8548 780 l 0 -45 8985 780 l 0 -90 9422 780 l 0 -45 1116 7064 l 0 -45 1554 7064 l 0 -45 1991 7064 l 0 -45 2428 7064 l
0 -90 2865 7109 l 0 -45 3302 7064 l 0 -45 3739 7064 l 0 -45 4176 7064 l 0 -45 4613 7064 l 0 -90 5051 7109 l 0 -45 5488 7064 l
0 -45 5925 7064 l 0 -45 6362 7064 l 0 -45 6799 7064 l 0 -90 7236 7109 l 0 -45 7673 7064 l 0 -45 8110 7064 l 0 -45 8548 7064 l
0 -45 8985 7064 l 0 -90 9422 7109 l -60 0 2775 672 l -6 -54 c 6 6 c 18 6 c 18 0 c 18 -6 c 12 -12 c 6 -18 c 0 -12 c -6 -18 c
-12 -12 c -18 -6 c -18 0 c -18 6 c -6 6 c -6 12 c -18 -6 2859 672 l -12 -18 c -6 -30 c 0 -18 c 6 -30 c 12 -18 c 18 -6 c 12 0 c
18 6 c 12 18 c 6 30 c 0 18 c -6 30 c -12 18 c -18 6 c -12 0 c -18 -6 2979 672 l -12 -18 c -6 -30 c 0 -18 c 6 -30 c 12 -18 c 18 -6 c
12 0 c 18 6 c 12 18 c 6 30 c 0 18 c -6 30 c -12 18 c -18 6 c -12 0 c 12 6 4847 648 l 18 18 c 0 -126 c -18 -6 4985 672 l -12 -18 c
-6 -30 c 0 -18 c 6 -30 c 12 -18 c 18 -6 c 12 0 c 18 6 c 12 18 c 6 30 c 0 18 c -6 30 c -12 18 c -18 6 c -12 0 c -18 -6 5105 672 l
-12 -18 c -6 -30 c 0 -18 c 6 -30 c 12 -18 c 18 -6 c 12 0 c 18 6 c 12 18 c 6 30 c 0 18 c -6 30 c -12 18 c -18 6 c -12 0 c
-18 -6 5225 672 l -12 -18 c -6 -30 c 0 -18 c 6 -30 c 12 -18 c 18 -6 c 12 0 c 18 6 c 12 18 c 6 30 c 0 18 c -6 30 c -12 18 c -18 6 c
-12 0 c 12 6 7032 648 l 18 18 c 0 -126 c -60 0 7206 672 l -6 -54 c 6 6 c 18 6 c 18 0 c 18 -6 c 12 -12 c 6 -18 c 0 -12 c -6 -18 c
-12 -12 c -18 -6 c -18 0 c -18 6 c -6 6 c -6 12 c -18 -6 7290 672 l -12 -18 c -6 -30 c 0 -18 c 6 -30 c 12 -18 c 18 -6 c 12 0 c
18 6 c 12 18 c 6 30 c 0 18 c -6 30 c -12 18 c -18 6 c -12 0 c -18 -6 7410 672 l -12 -18 c -6 -30 c 0 -18 c 6 -30 c 12 -18 c 18 -6 c
12 0 c 18 6 c 12 18 c 6 30 c 0 18 c -6 30 c -12 18 c -18 6 c -12 0 c 0 6 9206 642 l 6 12 c 6 6 c 12 6 c 24 0 c 12 -6 c 6 -6 c
6 -12 c 0 -12 c -6 -12 c -12 -18 c -60 -60 c 84 0 c -18 -6 9356 672 l -12 -18 c -6 -30 c 0 -18 c 6 -30 c 12 -18 c 18 -6 c 12 0 c
18 6 c 12 18 c 6 30 c 0 18 c -6 30 c -12 18 c -18 6 c -12 0 c -18 -6 9476 672 l -12 -18 c -6 -30 c 0 -18 c 6 -30 c 12 -18 c 18 -6 c
12 0 c 18 6 c 12 18 c 6 30 c 0 18 c -6 30 c -12 18 c -18 6 c -12 0 c -18 -6 9596 672 l -12 -18 c -6 -30 c 0 -18 c 6 -30 c 12 -18 c
18 -6 c 12 0 c 18 6 c 12 18 c 6 30 c 0 18 c -6 30 c -12 18 c -18 6 c -12 0 c -90 0 780 795 l -45 0 780 1088 l -45 0 780 1382 l
-45 0 780 1675 l -45 0 780 1968 l -90 0 780 2261 l -45 0 780 2554 l -45 0 780 2847 l -45 0 780 3141 l -45 0 780 3434 l
-90 0 780 3727 l -45 0 780 4020 l -45 0 780 4313 l -45 0 780 4606 l -45 0 780 4900 l -90 0 780 5193 l -45 0 780 5486 l
-45 0 780 5779 l -45 0 780 6072 l -45 0 780 6365 l -90 0 780 6659 l -45 0 780 6952 l -90 0 9809 795 l -45 0 9764 1088 l
-45 0 9764 1382 l -45 0 9764 1675 l -45 0 9764 1968 l -90 0 9809 2261 l -45 0 9764 2554 l -45 0 9764 2847 l -45 0 9764 3141 l
-45 0 9764 3434 l -90 0 9809 3727 l -45 0 9764 4020 l -45 0 9764 4313 l -45 0 9764 4606 l -45 0 9764 4900 l -90 0 9809 5193 l
-45 0 9764 5486 l -45 0 9764 5779 l -45 0 9764 6072 l -45 0 9764 6365 l -90 0 9809 6659 l -45 0 9764 6952 l 6 -18 517 789 l 18 -12 c
30 -6 c 18 0 c 30 6 c 18 12 c 6 18 c 0 12 c -6 18 c -18 12 c -30 6 c -18 0 c -30 -6 c -18 -12 c -6 -18 c 0 -12 c 0 -60 517 2111 l
54 -6 c -6 6 c -6 18 c 0 18 c 6 18 c 12 12 c 18 6 c 12 0 c 18 -6 c 12 -12 c 6 -18 c 0 -18 c -6 -18 c -6 -6 c -12 -6 c
6 -18 517 2195 l 18 -12 c 30 -6 c 18 0 c 30 6 c 18 12 c 6 18 c 0 12 c -6 18 c -18 12 c -30 6 c -18 0 c -30 -6 c -18 -12 c -6 -18 c
0 -12 c 6 -18 517 2315 l 18 -12 c 30 -6 c 18 0 c 30 6 c 18 12 c 6 18 c 0 12 c -6 18 c -18 12 c -30 6 c -18 0 c -30 -6 c -18 -12 c
-6 -18 c 0 -12 c 6 -18 517 2435 l 18 -12 c 30 -6 c 18 0 c 30 6 c 18 12 c 6 18 c 0 12 c -6 18 c -18 12 c -30 6 c -18 0 c -30 -6 c
-18 -12 c -6 -18 c 0 -12 c -6 12 541 3607 l -18 18 c 126 0 c 6 -18 517 3745 l 18 -12 c 30 -6 c 18 0 c 30 6 c 18 12 c 6 18 c 0 12 c
-6 18 c -18 12 c -30 6 c -18 0 c -30 -6 c -18 -12 c -6 -18 c 0 -12 c 63 -45 453 3869 l 0 68 c 94 0 453 3869 l -6 12 541 4857 l
-18 18 c 126 0 c 6 -6 631 4971 l 6 6 c -6 6 c -6 -6 c 0 -60 517 5091 l 54 -6 c -6 6 c -6 18 c 0 18 c 6 18 c 12 12 c 18 6 c 12 0 c
18 -6 c 12 -12 c 6 -18 c 0 -18 c -6 -18 c -6 -6 c -12 -6 c 84 84 547 5145 l 84 -84 547 5229 l -6 12 541 5289 l -18 18 c 126 0 c
6 -18 517 5427 l 18 -12 c 30 -6 c 18 0 c 30 6 c 18 12 c 6 18 c 0 12 c -6 18 c -18 12 c -30 6 c -18 0 c -30 -6 c -18 -12 c -6 -18 c
0 -12 c 63 -45 453 5551 l 0 68 c 94 0 453 5551 l -6 0 547 6401 l -12 6 c -6 6 c -6 12 c 0 24 c 6 12 c 6 6 c 12 6 c 12 0 c 12 -6 c
18 -12 c 60 -60 c 0 84 c 84 84 547 6521 l 84 -84 547 6605 l -6 12 541 6665 l -18 18 c 126 0 c 6 -17 517 6802 l 18 -12 c 30 -6 c
18 0 c 30 6 c 18 12 c 6 17 c 0 12 c -6 18 c -18 12 c -30 6 c -18 0 c -30 -6 c -18 -12 c -6 -18 c 0 -12 c 63 -45 453 6927 l 0 67 c
94 0 453 6927 l
4 1 780 859 l 5 -1 c 4 -1 c 4 0 c 5 -1 c 4 1 c 4 -2 c 5 -1 c 4 1 c 5 0 c 4 0 c 4 0 c 5 -1 c 4 -1 c 4 -2 c 5 2 c 4 1 c 5 -1 c 4 -2 c
4 1 c 5 0 c 4 -2 c 4 2 c 5 2 c 4 2 c 5 -1 c 4 -4 c 4 -1 c 5 -1 c 4 2 c 4 5 c 5 8 c 4 -1 c 5 -6 c 4 -6 c 4 -4 c 5 0 c 4 0 c 4 0 c
5 1 c 4 1 c 4 -1 c 5 1 c 4 -1 c 5 2 c 4 -1 c 4 -2 c 5 -2 c 4 0 c 4 -1 c 5 1 c 4 -1 c 5 1 c 4 1 c 4 -2 c 5 2 c 4 1 c 4 -2 c 5 1 c
4 -1 c 5 2 c 4 14 c 4 47 c 5 42 c 4 -12 c 4 -55 c 5 -32 c 4 -7 c 5 1 c 4 -2 c 4 1 c 5 2 c 4 3 c 4 20 c 5 92 c 4 157 c 4 20 c
5 -100 c 4 -146 c 5 -39 c 4 -4 c 4 -3 c 5 0 c 4 -52 c 4 0 c 5 56 c 4 -1 c 5 -1 c 4 0 c 4 -2 c 5 5 c 4 5 c 4 9 c 5 40 c 4 184 c
5 252 c 4 818 c 4 1738 c 5 672 c 4 -1164 c 4 -1728 c 5 -678 c 4 -129 c 5 -16 c 4 -1 c 4 -4 c 5 0 c 4 -1 c 4 -2 c 5 -2 c 4 0 c 4 1 c
5 0 c 4 -1 c 5 0 c 4 -2 c 4 -1 c 5 1 c 4 1 c 4 -1 c 5 -1 c 4 0 c 5 0 c 4 0 c 4 1 c 5 1 c 4 2 c 4 13 c 5 42 c 4 187 c 5 135 c 4 -21 c
4 -183 c 5 -99 c 4 -32 c 4 -26 c 5 -11 c 4 -3 c 5 1 c 4 -1 c 4 -5 c 5 -1 c 4 0 c 4 0 c 5 0 c 4 1 c 4 -2 c 5 8 c 4 13 c 5 12 c 4 -3 c
4 -13 c 5 -11 c 4 -7 c 4 2 c 5 -2 c 4 3 c 5 10 c 4 9 c 4 -5 c 5 -10 c 4 -8 c 4 0 c 5 -1 c 4 -1 c 5 2 c 4 1 c 4 0 c 5 -2 c 4 0 c
4 1 c 5 0 c 4 0 c 4 0 c 5 1 c 4 1 c 5 -1 c 4 -1 c 4 -2 c 5 2 c 4 -1 c 4 1 c 5 0 c 4 2 c 5 2 c 4 0 c 4 -2 c 5 -1 c 4 -3 c 4 3 c
5 -2 c 4 0 c 5 3 c 4 1 c 4 3 c 5 0 c 4 4 c 4 4 c 5 3 c 4 20 c 5 47 c 4 8 c 4 -37 c 5 -40 c 4 -12 c 4 -1 c 5 -1 c 4 0 c 4 3 c 5 -1 c
4 -1 c 5 0 c 4 0 c 4 2 c 5 0 c 4 1 c 4 -1 c 5 3 c 4 6 c 5 1 c 4 -3 c 4 -3 c 5 0 c 4 -3 c 4 -2 c 5 -1 c 4 2 c 5 -1 c 4 2 c 4 -2 c
5 0 c 4 -2 c 4 -1 c 5 0 c 4 1 c 5 -1 c 4 0 c 4 -1 c 5 2 c 4 1 c 4 1 c 5 1 c 4 1 c 4 -1 c 5 0 c 4 -2 c 5 -3 c 4 4 c 4 -1 c 5 1 c
4 -2 c 4 0 c 5 0 c 4 1 c 5 0 c 4 0 c 4 0 c 5 -1 c 4 0 c 4 -1 c 5 2 c 4 0 c 5 0 c 4 0 c 4 0 c 5 0 c 4 -1 c 4 1 c 5 0 c 4 -1 c 5 0 c
4 2 c 4 2 c 5 3 c 4 -2 c 4 -2 c 5 -1 c 4 6 c 4 3 c 5 0 c 4 -4 c 5 -3 c 4 1 c 4 -2 c 5 -1 c 4 -2 c 4 0 c 5 1 c 4 0 c 5 1 c 4 0 c
4 0 c 5 2 c 4 -1 c 4 -2 c 5 4 c 4 2 c 5 5 c 4 -4 c 4 -5 c 5 -3 c 4 0 c 4 2 c 5 1 c 4 -1 c 5 4 c 4 -1 c 4 0 c 5 -1 c 4 -2 c 4 0 c
5 1 c 4 1 c 4 4 c 5 1 c 4 -2 c 5 0 c 4 8 c 4 14 c 5 18 c 4 5 c 4 -14 c 5 -15 c 4 -8 c 5 -5 c 4 -3 c 4 0 c 5 1 c 4 5 c 4 24 c 5 13 c
4 -8 c 5 -24 c 4 -12 c 4 1 c 5 12 c 4 11 c 4 2 c 5 -11 c 4 -7 c 4 -2 c 5 -4 c 4 -1 c 5 -2 c 4 -1 c 4 1 c 5 -3 c 4 2 c 4 0 c 5 2 c
4 -3 c 5 0 c 4 3 c 4 -1 c 5 0 c 4 0 c 4 0 c 5 2 c 4 6 c 5 -2 c 4 -1 c 4 -3 c 5 0 c 4 1 c 4 0 c 5 0 c 4 0 c 5 0 c 4 1 c 4 -1 c 5 -1 c
4 -2 c 4 1 c 5 0 c 4 0 c 4 1 c 5 1 c 4 -1 c 5 1 c 4 -1 c 4 -3 c 5 0 c 4 2 c 4 0 c 5 0 c 4 2 c 5 7 c 4 8 c 4 2 c 5 -8 c 4 -7 c 4 -4 c
5 0 c 4 -2 c 5 3 c 4 -2 c 4 -1 c 5 3 c 4 -1 c 4 -1 c 5 2 c 4 0 c 5 -2 c 4 3 c 4 -3 c 5 0 c 4 2 c 4 -1 c 5 1 c 4 0 c 4 -1 c 5 2 c
4 1 c 5 -1 c 4 1 c 4 0 c 5 2 c 4 0 c 4 0 c 5 4 c 4 8 c 5 3 c 4 -1 c 4 -4 c 5 1 c 4 7 c 4 15 c 5 72 c 4 408 c 5 952 c 4 2405 c
4 1923 c 5 -14 c 4 -2836 c 4 -2258 c 5 -605 c 4 -57 c 5 -1 c 4 19 c 4 22 c 5 -3 c 4 -29 c 4 -21 c 5 -3 c 4 -2 c 4 -2 c 5 2 c 4 -2 c
5 -1 c 4 0 c 4 -2 c 5 1 c 4 4 c 4 9 c 5 4 c 4 -5 c 5 -11 c 4 -3 c 4 1 c 5 -1 c 4 -1 c 4 2 c 5 -2 c 4 0 c 5 0 c 4 0 c 4 -1 c 5 0 c
4 -1 c 4 1 c 5 2 c 4 0 c 5 2 c 4 0 c 4 0 c 5 -1 c 4 1 c 4 -1 c 5 0 c 4 -1 c 4 2 c 5 0 c 4 1 c 5 4 c 4 7 c 4 3 c 5 -6 c 4 -7 c 4 -2 c
5 1 c 4 0 c 5 5 c 4 1 c 4 5 c 5 20 c 4 85 c 4 317 c 5 357 c 4 61 c 5 -353 c 4 -345 c 4 -120 c 5 -16 c 4 -5 c 4 -5 c 5 -2 c 4 -2 c
4 -2 c 5 -2 c 4 -1 c 5 3 c 4 -2 c 4 -4 c 5 3 c 4 -1 c 4 0 c 5 2 c 4 -2 c 5 0 c 4 1 c 4 -2 c 5 3 c 4 6 c 4 -3 c 5 -2 c 4 -3 c 5 1 c
4 -2 c 4 0 c 5 0 c 4 -1 c 4 -1 c 5 2 c 4 0 c 5 0 c 4 0 c 4 1 c 5 0 c 4 2 c 4 0 c 5 -1 c 4 0 c 4 -1 c 5 1 c 4 0 c 5 -2 c 4 0 c 4 2 c
5 4 c 4 -3 c 4 -2 c 5 -1 c 4 1 c 5 -1 c 4 -1 c 4 1 c 5 0 c 4 3 c 4 -3 c 5 2 c 4 -4 c 5 4 c 4 -2 c 4 0 c 5 2 c 4 -1 c 4 -2 c 5 2 c
4 1 c 5 -2 c 4 0 c 4 0 c 5 2 c 4 -1 c 4 -1 c 5 0 c 4 1 c 4 1 c 5 0 c 4 -3 c 5 2 c 4 2 c 4 -2 c 5 1 c 4 1 c 4 -2 c 5 1 c 4 1 c 5 -2 c
4 1 c 4 -1 c 5 1 c 4 -2 c 4 2 c 5 0 c 4 2 c 5 -2 c 4 -1 c 4 2 c 5 -2 c 4 2 c 4 -2 c 5 3 c 4 -1 c 5 3 c 4 0 c 4 -4 c 5 1 c 4 3 c
4 -3 c 5 2 c 4 -4 c 4 0 c 5 -2 c 4 3 c 5 2 c 4 1 c 4 -3 c 5 -1 c 4 0 c 4 2 c 5 -1 c 4 0 c 5 1 c 4 2 c 4 -2 c 5 2 c 4 1 c 4 0 c
5 -1 c 4 3 c 5 3 c 4 14 c 4 -1 c 5 -9 c 4 -6 c 4 -3 c 5 0 c 4 -1 c 4 3 c 5 -1 c 4 -1 c 5 1 c 4 2 c 4 1 c 5 -1 c 4 -1 c 4 0 c 5 3 c
4 3 c 5 -2 c 4 -2 c 4 0 c 5 -4 c 4 0 c 4 0 c 5 1 c 4 -2 c 5 1 c 4 1 c 4 0 c 5 0 c 4 6 c 4 74 c 5 162 c 4 75 c 5 -83 c 4 -155 c
4 -69 c 5 -11 c 4 2 c 4 0 c 5 -1 c 4 4 c 4 8 c 5 10 c 4 -1 c 5 -8 c 4 -11 c 4 -3 c 5 -3 c 4 2 c 4 -2 c 5 2 c 4 1 c 5 0 c 4 2 c
4 -3 c 5 2 c 4 0 c 4 -1 c 5 -3 c 4 6 c 5 -1 c 4 -2 c 4 3 c 5 -1 c 4 -1 c 4 -2 c 5 1 c 4 2 c 5 -3 c 4 -1 c 4 -1 c 5 0 c 4 2 c 4 -1 c
5 1 c 4 1 c 4 1 c 5 -1 c 4 -3 c 5 -1 c 4 3 c 4 -2 c 5 3 c 4 -2 c 4 1 c 5 2 c 4 -2 c 5 -1 c 4 -1 c 4 -1 c 5 2 c 4 -1 c 4 2 c 5 -2 c
4 1 c 5 -1 c 4 -1 c 4 3 c 5 3 c 4 1 c 4 -3 c 5 1 c 4 -1 c 5 -1 c 4 -1 c 4 1 c 5 -2 c 4 0 c 4 0 c 5 -1 c 4 4 c 4 0 c 5 4 c 4 -5 c
5 -2 c 4 -2 c 4 3 c 5 0 c 4 5 c 4 2 c 5 1 c 4 -5 c 5 -3 c 4 -3 c 4 1 c 5 3 c 4 0 c 4 6 c 5 4 c 4 -6 c 5 -6 c 4 0 c 4 0 c 5 13 c
4 24 c 4 9 c 5 -17 c 4 -19 c 5 -12 c 4 2 c 4 1 c 5 -1 c 4 -2 c 4 0 c 5 1 c 4 2 c 4 2 c 5 -4 c 4 -1 c 5 0 c 4 6 c 4 -1 c 5 0 c 4 -5 c
4 -1 c 5 1 c 4 1 c 5 -1 c 4 3 c 4 1 c 5 0 c 4 4 c 4 2 c 5 2 c 4 -2 c 5 -5 c 4 0 c 4 0 c 5 2 c 4 0 c 4 -3 c 5 0 c 4 1 c 4 3 c 5 0 c
4 -3 c 5 -2 c 4 -2 c 4 3 c 5 -2 c 4 0 c 4 1 c 5 0 c 4 1 c 5 -1 c 4 6 c 4 4 c 5 -2 c 4 -3 c 4 -2 c 5 3 c 4 -2 c 5 -1 c 4 -3 c 4 3 c
5 2 c 4 0 c 4 -4 c 5 -2 c 4 1 c 5 2 c 4 1 c 4 2 c 5 -4 c 4 0 c 4 -1 c 5 0 c 4 3 c 4 12 c 5 9 c 4 1 c 5 -12 c 4 3 c 4 100 c 5 338 c
4 231 c 4 -48 c 5 -352 c 4 -239 c 5 -41 c 4 -3 c 4 0 c 5 -3 c 4 1 c 4 1 c 5 -2 c 4 3 c 5 -1 c 4 0 c 4 7 c 5 23 c 4 26 c 4 -3 c
5 -26 c 4 -22 c 5 -3 c 4 -3 c 4 1 c 5 2 c 4 -2 c 4 1 c 5 -3 c 4 2 c 4 4 c 5 2 c 4 -2 c 5 -3 c 4 -1 c 4 0 c 5 2 c 4 0 c 4 -1 c 5 2 c
4 -1 c 5 2 c 4 7 c 4 1 c 5 1 c 4 6 c 4 -1 c 5 -3 c 4 -7 c 5 -6 c 4 1 c 4 3 c 5 1 c 4 3 c 4 -7 c 5 -2 c 4 -2 c 5 1 c 4 5 c 4 -4 c
5 0 c 4 -2 c 4 0 c 5 3 c 4 -1 c 4 2 c 5 2 c 4 1 c 5 0 c 4 1 c 4 -2 c 5 -5 c 4 -1 c 4 -1 c 5 -1 c 4 -1 c 5 1 c 4 -1 c 4 1 c 5 -1 c
4 0 c 4 -1 c 5 1 c 4 7 c 5 2 c 4 1 c 4 -2 c 5 -5 c 4 3 c 4 3 c 5 -1 c 4 0 c 5 -3 c 4 1 c 4 1 c 5 -2 c 4 -1 c 4 0 c 5 -2 c 4 0 c
4 0 c 5 2 c 4 2 c 5 -1 c 4 -1 c 4 -1 c 5 -1 c 4 -1 c 4 -2 c 5 0 c 4 4 c 5 0 c 4 3 c 4 -2 c 5 -1 c 4 0 c 4 -3 c 5 2 c 4 -1 c 5 1 c
4 0 c 4 2 c 5 -1 c 4 -1 c 4 1 c 5 1 c 4 0 c 4 -2 c 5 -2 c 4 3 c 5 1 c 4 1 c 4 -1 c 5 -1 c 4 2 c 4 10 c 5 8 c 4 -2 c 5 -6 c 4 -8 c
4 -1 c 5 -1 c 4 0 c 4 -1 c 5 -2 c 4 0 c 5 -1 c 4 0 c 4 1 c 5 0 c 4 4 c 4 -1 c 5 1 c 4 -2 c 5 1 c 4 1 c 4 -1 c 5 -1 c 4 0 c 4 -3 c
5 0 c 4 -2 c 4 2 c 5 -1 c 4 1 c 5 -2 c 4 0 c 4 3 c 5 1 c 4 12 c 4 18 c 5 12 c 4 5 c 5 -4 c 4 -16 c 4 -16 c 5 -12 c 4 0 c 4 4 c 5 2 c
4 -1 c 5 -1 c 4 -2 c 4 0 c 5 0 c 4 -2 c 4 0 c 5 0 c 4 1 c 5 -2 c 4 1 c 4 2 c 5 1 c 4 -1 c 4 -1 c 5 3 c 4 1 c 4 11 c 5 32 c 4 32 c
5 1 c 4 -30 c 4 -16 c 5 63 c 4 274 c 4 254 c 5 5 c 4 -308 c 5 -264 c 4 -47 c 4 -6 c 5 -1 c 4 -1 c 4 -1 c 5 -1 c 4 1 c 5 0 c 4 -1 c
4 0 c 5 0 c 4 0 c 4 2 c 5 0 c 4 0 c 5 1 c 4 1 c 4 -2 c 5 -1 c 4 -2 c 4 -1 c 5 -1 c 4 -1 c 4 3 c 5 0 c 4 0 c 5 1 c 4 3 c 4 17 c
5 49 c 4 31 c 4 -14 c 5 -54 c 4 -25 c 5 -7 c 4 -1 c 4 7 c 5 14 c 4 19 c 4 39 c 5 10 c 4 -15 c 5 -44 c 4 -22 c 4 -4 c 5 -2 c 4 1 c
4 -1 c 5 2 c 4 -2 c 4 -1 c 5 -2 c 4 2 c 5 -3 c 4 1 c 4 1 c 5 2 c 4 1 c 4 1 c 5 -2 c 4 -1 c 5 0 c 4 1 c 4 0 c 5 1 c 4 1 c 4 -1 c
5 -1 c 4 0 c 5 1 c 4 -61 c 4 61 c 5 -1 c 4 -1 c 4 1 c 5 0 c 4 -1 c 5 1 c 4 0 c 4 1 c 5 1 c 4 2 c 4 0 c 5 1 c 4 -1 c 4 0 c 5 0 c
4 -2 c 5 4 c 4 -1 c 4 -3 c 5 -2 c 4 4 c 4 0 c 5 5 c 4 8 c 5 17 c 4 57 c 4 50 c 5 -8 c 4 -75 c 4 -45 c 5 -6 c 4 -1 c 5 -1 c 4 -1 c
4 2 c 5 0 c 4 3 c 4 0 c 5 4 c 4 40 c 5 94 c 4 35 c 4 -39 c 5 -95 c 4 -31 c 4 -3 c 5 -4 c 4 -2 c 4 0 c 5 -1 c 4 3 c 5 -1 c 4 1 c
4 0 c 5 2 c 4 11 c 4 19 c 5 9 c 4 -12 c 5 -22 c 4 -6 c 4 1 c 5 0 c 4 -1 c 4 6 c 5 10 c 4 61 c 5 247 c 4 159 c 4 -33 c 5 -271 c
4 -161 c 4 -11 c 5 2 c 4 -4 c 5 -1 c 4 1 c 4 2 c 5 3 c 4 3 c 4 1 c 5 4 c 4 -1 c 4 -3 c 5 -3 c 4 -3 c 5 3 c 4 1 c 4 1 c 5 3 c 4 2 c
4 2 c 5 3 c 4 9 c 5 30 c 4 314 c 4 917 c 5 537 c 4 -308 c 4 -954 c 5 -475 c 4 -60 c 5 -4 c 4 -3 c 4 1 c 5 2 c 4 2 c 4 -4 c 5 5 c
4 4 c 5 3 c 4 -5 c 4 -3 c 5 0 c 4 2 c 4 3 c 5 3 c 4 5 c 4 2 c 5 -4 c 4 -7 c 5 -5 c 4 5 c 4 7 c 5 6 c 4 3 c 4 1 c 5 7 c 4 56 c
5 316 c 4 613 c 4 251 c 5 -335 c 4 -633 c 4 -246 c 5 -14 c 4 1 c 5 5 c 4 7 c 4 4 c 5 -4 c 4 -6 c 4 1 c 5 5 c 4 4 c 4 1 c 5 4 c 4 3 c
5 1 c 4 -2 c 4 6 c 5 9 c 4 6 c 4 1 c 5 1 c 4 2 c 5 16 c 4 139 c 4 366 c 5 198 c 4 -128 c 4 -383 c 5 -118 c 4 40 c 5 5 c 4 -19 c
4 -30 c 5 -3 c 4 -3 c 4 3 c 5 -2 c 4 8 c 5 13 c 4 22 c 4 13 c 5 -2 c 4 -7 c 4 4 c 5 10 c 4 21 c 4 23 c 5 25 c 4 18 c 5 -1 c 4 7 c
4 14 c 5 12 c 4 23 c 4 33 c 5 23 c 4 21 c 5 9 c 4 3 c 4 38 c 5 81 c 4 108 c 4 26 c 5 -44 c 4 -10 c 5 21 c 4 42 c 4 42 c 5 46 c
4 81 c 4 22 c 5 -7 c 4 61 c 5 66 c 4 49 c 4 55 c 5 137 c 4 61 c 4 12 c 5 44 c 4 105 c 4 146 c 5 51 c 4 -7 c 5 129 c 4 160 c 4 57 c
5 115 c 4 73 c 4 102 c 5 132 c 4 116 c 5 127 c 4 186 c 4 87 c 5 192 c 4 175 c 4 365 c 5 364 c 4 120 c 5 82 c 4 76 c 4 202 c 5 393 c
4 974 c 1 211 c 1 -45 6890 7019 l 4 -628 c 5 -574 c 4 -473 c 4 12 c 5 212 c 4 -200 c 5 -349 c 4 -443 c 4 -211 c 5 -334 c 4 -441 c
4 -127 c 5 -34 c 4 -11 c 4 -105 c 5 -158 c 4 -188 c 5 -28 c 4 -55 c 4 -86 c 5 -102 c 4 -125 c 4 -59 c 5 -106 c 4 -66 c 5 -7 c
4 -20 c 4 -29 c 5 -4 c 4 -50 c 4 -88 c 5 -152 c 4 -88 c 5 -24 c 4 -21 c 4 -54 c 5 -40 c 4 -48 c 4 -32 c 5 -73 c 4 -38 c 4 -43 c
5 -15 c 4 -13 c 5 -16 c 4 -23 c 4 -28 c 5 -28 c 4 -20 c 4 -23 c 5 -20 c 4 -21 c 5 -22 c 4 -13 c 4 -4 c 5 34 c 4 61 c 4 -3 c 5 -58 c
4 -97 c 5 -32 c 4 -14 c 4 -4 c 5 -6 c 4 -14 c 4 -3 c 5 -9 c 4 -8 c 5 -14 c 4 -13 c 4 -6 c 5 -2 c 4 6 c 4 -15 c 5 -8 c 4 -16 c 4 -4 c
5 -7 c 4 1 c 5 -1 c 4 -4 c 4 -11 c 5 -4 c 4 1 c 4 -1 c 5 -9 c 4 1 c 5 0 c 4 -2 c 4 -7 c 5 0 c 4 -7 c 4 -8 c 5 -7 c 4 4 c 5 6 c 4 1 c
4 -8 c 5 -5 c 4 -5 c 4 -2 c 5 -2 c 4 -6 c 5 1 c 4 0 c 4 -3 c 5 -4 c 4 -5 c 4 1 c 5 -2 c 4 0 c 4 -2 c 5 0 c 4 2 c 5 -3 c 4 -3 c
4 -4 c 5 -1 c 4 -2 c 4 0 c 5 0 c 4 5 c 5 -1 c 4 -2 c 4 -6 c 5 -4 c 4 -1 c 4 -3 c 5 0 c 4 0 c 5 -1 c 4 1 c 4 0 c 5 0 c 4 -2 c 4 -2 c
5 0 c 4 1 c 5 10 c 4 10 c 4 -2 c 5 -12 c 4 -10 c 4 -2 c 5 -2 c 4 1 c 4 -1 c 5 1 c 4 -1 c 5 2 c 4 0 c 4 4 c 5 -3 c 4 -3 c 4 -3 c
5 0 c 4 -4 c 5 0 c 4 0 c 4 -2 c 5 0 c 4 -1 c 4 -1 c 5 0 c 4 -2 c 5 3 c 4 2 c 4 -2 c 5 -2 c 4 -2 c 4 0 c 5 1 c 4 0 c 5 1 c 4 2 c
4 9 c 5 21 c 4 5 c 4 -10 c 5 -10 c 4 36 c 4 49 c 5 -9 c 4 -55 c 5 -42 c 4 -4 c 4 0 c 5 3 c 4 1 c 4 0 c 5 -2 c 4 -3 c 5 -3 c 4 3 c
4 2 c 5 -1 c 4 0 c 4 -1 c 5 0 c 4 -1 c 5 2 c 4 -2 c 4 -1 c 5 -2 c 4 0 c 4 3 c 5 1 c 4 0 c 4 1 c 5 -1 c 4 -1 c 5 1 c 4 -1 c 4 1 c
5 0 c 4 2 c 4 1 c 5 2 c 4 1 c 5 2 c 4 -4 c 4 2 c 5 1 c 4 2 c 4 4 c 5 7 c 4 14 c 5 58 c 4 487 c 4 2153 c 5 1955 c 4 -372 c 4 -2252 c
5 -1814 c 4 -211 c 5 -21 c 4 -5 c 4 -6 c 5 -1 c 4 0 c 4 -2 c 5 -1 c 4 -2 c 4 -3 c 5 0 c 4 0 c 5 0 c 4 2 c 4 -2 c 5 0 c 4 -2 c 4 1 c
5 -1 c 4 0 c 5 1 c 4 0 c 4 -2 c 5 -2 c 4 0 c 4 -1 c 5 -1 c 4 1 c 5 1 c 4 3 c 4 1 c 5 -1 c 4 -2 c 4 -2 c 5 -1 c 4 0 c 5 0 c 4 0 c
4 1 c 5 -2 c 4 1 c 4 0 c 5 1 c 4 0 c 4 1 c 5 0 c 4 1 c 5 -1 c 4 -1 c 4 -2 c 5 -2 c 4 0 c 4 4 c 5 0 c 4 -3 c 5 -3 c 4 -1 c 4 1 c
5 0 c 4 1 c 4 0 c 5 1 c 4 4 c 5 4 c 4 -1 c 4 -3 c 5 -3 c 4 0 c 4 3 c 5 10 c 4 9 c 5 -4 c 4 -10 c 4 -7 c 5 -3 c 4 -1 c 4 1 c 5 0 c
4 0 c 4 -2 c 5 1 c 4 0 c 5 0 c 4 8 c 4 22 c 5 23 c 4 -6 c 4 -21 c 5 -25 c 4 0 c 5 -1 c 4 0 c 4 0 c 5 1 c 4 6 c 4 41 c 5 142 c 4 99 c
5 -30 c 4 -149 c 4 -103 c 5 -7 c 4 0 c 4 -2 c 5 1 c 4 -1 c 4 0 c 5 0 c 4 0 c 5 0 c 4 0 c 4 2 c 5 0 c 4 -2 c 4 1 c 5 -1 c 4 2 c
5 -2 c 4 -1 c 4 1 c 5 2 c 4 -3 c 4 1 c 5 1 c 4 2 c 5 10 c 4 64 c 4 226 c 5 131 c 4 -38 c 4 -227 c 5 -144 c 4 -2 c 5 -3 c 4 -8 c
4 -5 c 5 3 c 4 2 c 4 -1 c 5 -8 c 4 -2 c 4 -1 c 5 1 c 4 2 c 5 17 c 4 55 c 4 27 c 5 -16 c 4 -52 c 4 -33 c 5 -3 c 4 0 c 5 0 c 4 -2 c
4 2 c 5 0 c 4 1 c 4 0 c 5 -1 c 4 -2 c 5 0 c 4 -1 c 4 3 c 5 -1 c 4 1 c 4 -1 c 5 2 c 4 0 c 5 0 c 4 -2 c 4 0 c 5 1 c 4 -2 c 4 -1 c
5 1 c 4 -1 c 4 1 c 5 0 c 4 1 c 5 1 c 4 -1 c 4 0 c 5 0 c 4 0 c 4 -1 c 5 -1 c 4 1 c 5 0 c 4 0 c 4 2 c 5 -1 c 4 0 c 4 0 c 5 0 c 4 -1 c
5 1 c 4 0 c 4 -1 c 5 3 c 4 1 c 4 -1 c 5 1 c 4 -1 c 5 -1 c 4 0 c 4 -2 c 5 1 c 4 -1 c 4 0 c 5 0 c 4 0 c 4 1 c 5 0 c 4 1 c 5 1 c 4 -1 c
4 -1 c 5 4 c 4 14 c 4 111 c 5 276 c 4 103 c 5 -90 c 4 -282 c 4 -125 c 5 -8 c 4 -2 c 4 0 c 5 -2 c 4 1 c 5 0 c 4 -1 c 4 1 c 5 -1 c
4 0 c 4 0 c 5 0 c 4 0 c 5 1 c 4 -2 c 4 1 c 5 -1 c 4 0 c 4 1 c 5 1 c 4 -3 c 4 2 c 5 -1 c 4 1 c 5 -1 c 4 1 c 4 1 c 5 1 c 4 0 c 4 10 c
5 32 c 4 22 c 5 -4 c 4 -32 c 4 -24 c 5 -4 c 4 0 c 4 -1 c 5 0 c 4 2 c 5 -1 c 4 0 c 4 -1 c 5 0 c 4 1 c 4 2 c 5 5 c 4 33 c 4 126 c
5 103 c 4 -16 c 5 -130 c 4 -110 c 4 -8 c 5 0 c 4 -1 c 4 1 c 5 -4 c 4 -1 c 5 -1 c 4 3 c 4 -2 c 5 2 c 4 4 c 4 4 c 5 0 c 4 -6 c 5 -4 c
4 -2 c 4 2 c 5 -2 c 4 0 c 4 1 c 5 0 c 4 0 c 5 -1 c 4 1 c 4 1 c 5 0 c 4 1 c 4 3 c 5 1 c 4 0 c 4 -2 c 5 -1 c 4 -2 c 5 0 c 4 -1 c 4 1 c
5 -2 c 4 0 c 4 1 c 5 0 c 4 2 c 5 -3 c 4 1 c 4 -2 c 5 2 c 4 2 c 4 1 c 5 1975 c 1 4199 c 2 -6000 9372 7019 l 4 -64 c 5 -4 c 4 -13 c
4 -4 c 5 -5 c 4 -5 c 4 -2 c 5 -6 c 4 -3 c 4 1 c 5 -1 c 4 -3 c 5 -4 c 4 -4 c 4 1 c 5 -2 c 4 -2 c 4 -2 c 5 0 c 4 -3 c 5 -1 c 4 2 c
4 12 c 5 24 c 4 15 c 4 -11 c 5 -27 c 4 -19 c 5 -7 c 4 0 c 4 -1 c 5 -2 c 4 -1 c 4 0 c
5 1 c 4 -1 c 5 1 c 4 -3 c 4 -81 c 5 0 c 4 77 c 4 1 c 5 -2 c 4 -1 c 4 0 c 5 -2 c 4 1 c 5 -2 c 4 0 c 4 -3 c 5 0 c 4 -1 c 4 1 c 5 -1 c
4 1 c 5 -1 c 4 0 c 4 7 c 5 13 c 4 9 c 4 -4 c 5 -15 c 4 -10 c 5 -1 c 4 1 c 4 0 c 5 7 c 4 11 c 4 21 c 5 14 c 4 -4 c 5 -15 c 4 -12 c
4 -11 c 5 -7 c 4 -4 c 4 0 c 5 2 c 4 -1 c
0 -126 3303 418 l 54 0 3303 418 l 18 -6 c 6 -6 c 6 -12 c 0 -12 c -6 -12 c -6 -6 c -18 -6 c -54 0 c 42 -66 3345 358 l
-12 -6 3453 376 l -12 -12 c -6 -18 c 0 -12 c 6 -18 c 12 -12 c 12 -6 c 18 0 c 12 6 c 12 12 c 6 18 c 0 12 c -6 18 c -12 12 c -12 6 c
-18 0 c 24 -84 3537 376 l -24 -84 3585 376 l 24 -84 3585 376 l -24 -84 3633 376 l 108 0 3675 364 l 108 0 3675 328 l 12 6 3939 394 l
18 18 c 0 -126 c -18 -6 4071 418 l -6 -12 c 0 -12 c 6 -12 c 12 -6 c 24 -6 c 18 -6 c 12 -12 c 6 -12 c 0 -18 c -6 -12 c -6 -6 c
-18 -6 c -24 0 c -18 6 c -6 6 c -6 12 c 0 18 c 6 12 c 12 12 c 18 6 c 24 6 c 12 6 c 6 12 c 0 12 c -6 12 c -18 6 c -24 0 c
-12 -6 4287 376 l -12 -12 c -6 -18 c 0 -12 c 6 -18 c 12 -12 c 12 -6 c 18 0 c 12 6 c 12 12 c 6 18 c 0 12 c -6 18 c -12 12 c -12 6 c
-18 0 c -12 0 4413 418 l -12 -6 c -6 -18 c 0 -102 c 42 0 4365 376 l 0 6 4545 388 l 6 12 c 6 6 c 12 6 c 24 0 c 12 -6 c 6 -6 c 6 -12 c
0 -12 c -6 -12 c -12 -18 c -60 -60 c 84 0 c -18 -6 4695 418 l -12 -18 c -6 -30 c 0 -18 c 6 -30 c 12 -18 c 18 -6 c 12 0 c 18 6 c
12 18 c 6 30 c 0 18 c -6 30 c -12 18 c -18 6 c -12 0 c 12 6 5181 394 l 18 18 c 0 -126 c -6 -6 5294 376 l 6 -6 c 6 6 c -6 6 c
-6 -6 5294 304 l 6 -6 c 6 6 c -6 6 c -48 -126 5474 418 l 48 -126 5474 418 l 60 0 5444 334 l 0 -84 5552 376 l 6 18 5552 340 l 12 12 c
12 6 c 18 0 c -12 12 5696 358 l -12 6 c -18 0 c -12 -6 c -12 -12 c -6 -18 c 0 -12 c 6 -18 c 12 -12 c 12 -6 c 18 0 c 12 6 c 12 12 c
108 0 5738 346 l 12 6 5906 394 l 18 18 c 0 -126 c 66 0 6020 418 l -36 -48 c 18 0 c 12 -6 c 6 -6 c 6 -18 c 0 -12 c -6 -18 c -12 -12 c
-18 -6 c -18 0 c -18 6 c -6 6 c -6 12 c -6 -18 6206 376 l -12 -12 c -18 -6 c -6 0 c -18 6 c -12 12 c -6 18 c 0 6 c 6 18 c 12 12 c
18 6 c 6 0 c 18 -6 c 12 -12 c 6 -24 c 0 -30 c -6 -30 c -12 -18 c -18 -6 c -12 0 c -18 6 c -6 12 c -6 -6 6260 304 l 6 -6 c 6 6 c
-6 6 c -12 0 6350 418 l -12 -6 c -6 -18 c 0 -102 c 42 0 6302 376 l 6 -6 6380 418 l 6 6 c -6 6 c -6 -6 c 0 -84 6386 376 l
0 -102 6440 418 l 6 -18 c 12 -6 c 12 0 c 42 0 6422 376 l -6 12 6566 358 l -18 6 c -18 0 c -18 -6 c -6 -12 c 6 -12 c 12 -6 c 30 -6 c
12 -6 c 6 -12 c 0 -6 c -6 -12 c -18 -6 c -18 0 c -18 6 c -6 12 c 0 -192 6896 442 l 0 -192 6902 442 l 42 0 6896 442 l 42 0 6896 250 l
0 6 6980 388 l 6 12 c 6 6 c 12 6 c 24 0 c 12 -6 c 6 -6 c 6 -12 c 0 -12 c -6 -12 c -12 -18 c -60 -60 c 84 0 c -6 -6 7106 376 l 6 -6 c
6 6 c -6 6 c -6 -6 7106 304 l 6 -6 c 6 6 c -6 6 c 0 -192 7286 442 l 0 -192 7292 442 l 42 0 7250 442 l 42 0 7250 250 l
0 -250 1061 1388 l 80 -38 1017 1512 l 0 53 1017 1459 l 0 -38 1017 1580 l 34 -3 c -3 3 c -4 12 c 0 11 c 4 12 c 7 7 c 11 4 c 8 0 c
11 -4 c 8 -7 c 4 -12 c 0 -11 c -4 -12 c -4 -3 c -7 -4 c -8 -4 1029 1660 l -4 -11 c 0 -8 c 4 -11 c 11 -8 c 19 -4 c 19 0 c 15 4 c
8 8 c 4 11 c 0 4 c -4 11 c -8 8 c -11 3 c -4 0 c -11 -3 c -8 -8 c -3 -11 c 0 -4 c 3 -11 c 8 -8 c 11 -4 c 0 -37 1017 1731 l 34 -4 c
-3 4 c -4 11 c 0 11 c 4 12 c 7 7 c 11 4 c 8 0 c 11 -4 c 8 -7 c 4 -12 c 0 -11 c -4 -11 c -4 -4 c -7 -4 c 4 -4 1089 1769 l 4 4 c
-4 4 c -4 -4 c 4 -11 1017 1818 l 8 -4 c 7 0 c 8 4 c 4 8 c 3 15 c 4 11 c 8 8 c 7 3 c 12 0 c 7 -3 c 4 -4 c 4 -11 c 0 -16 c -4 -11 c
-4 -4 c -7 -4 c -12 0 c -7 4 c -8 8 c -4 11 c -3 15 c -4 8 c -8 4 c -7 0 c -8 -4 c -4 -11 c 0 -16 c 0 -37 1017 1920 l 34 -4 c -3 4 c
-4 11 c 0 11 c 4 12 c 7 7 c 11 4 c 8 0 c 11 -4 c 8 -7 c 4 -12 c 0 -11 c -4 -11 c -4 -4 c -7 -4 c -3 8 1032 1962 l -12 11 c 80 0 c
0 -250 1115 1576 l 79 -38 1072 1701 l 0 53 1072 1648 l 0 -38 1072 1769 l 34 -4 c -4 4 c -4 11 c 0 12 c 4 11 c 8 7 c 11 4 c 7 0 c
12 -4 c 7 -7 c 4 -11 c 0 -12 c -4 -11 c -3 -4 c -8 -4 c -8 -4 1083 1848 l -3 -11 c 0 -8 c 3 -11 c 12 -8 c 19 -3 c 19 0 c 15 3 c
7 8 c 4 11 c 0 4 c -4 11 c -7 8 c -12 4 c -3 0 c -12 -4 c -7 -8 c -4 -11 c 0 -4 c 4 -11 c 7 -8 c 12 -3 c -8 -4 1083 1924 l -3 -12 c
0 -7 c 3 -11 c 12 -8 c 19 -4 c 19 0 c 15 4 c 7 8 c 4 11 c 0 4 c -4 11 c -7 8 c -12 3 c -3 0 c -12 -3 c -7 -8 c -4 -11 c 0 -4 c
4 -11 c 7 -8 c 12 -4 c 3 -4 1144 1958 l 4 4 c -4 3 c -3 -3 c 0 -38 1072 2033 l 34 -3 c -4 3 c -4 12 c 0 11 c 4 11 c 8 8 c 11 4 c
7 0 c 12 -4 c 7 -8 c 4 -11 c 0 -11 c -4 -12 c -3 -3 c -8 -4 c 0 42 1072 2071 l 30 -23 c 0 11 c 4 8 c 4 4 c 11 3 c 7 0 c 12 -3 c
7 -8 c 4 -11 c 0 -12 c -4 -11 c -3 -4 c -8 -4 c 3 -12 1072 2162 l 12 -7 c 19 -4 c 11 0 c 19 4 c 11 7 c 4 12 c 0 7 c -4 12 c -11 7 c
-19 4 c -11 0 c -19 -4 c -12 -7 c -3 -12 c 0 -7 c 0 -249 1212 5006 l 80 -38 1168 5131 l 0 53 1168 5078 l 0 -38 1168 5199 l 34 -3 c
-3 3 c -4 12 c 0 11 c 4 11 c 7 8 c 11 4 c 8 0 c 11 -4 c 8 -8 c 4 -11 c 0 -11 c -4 -12 c -4 -3 c -7 -4 c -8 -3 1180 5278 l -4 -12 c
0 -7 c 4 -12 c 11 -7 c 19 -4 c 19 0 c 15 4 c 8 7 c 4 12 c 0 4 c -4 11 c -8 7 c -11 4 c -4 0 c -11 -4 c -8 -7 c -3 -11 c 0 -4 c
3 -12 c 8 -7 c 11 -4 c 80 -38 1168 5358 l 0 53 1168 5305 l 4 -4 1240 5388 l 4 4 c -4 4 c -4 -4 c 80 -38 1168 5471 l 0 53 1168 5418 l
53 -38 1168 5532 l 0 57 c 80 0 1168 5532 l -4 0 1187 5573 l -7 4 c -4 4 c -4 7 c 0 15 c 4 8 c 4 4 c 7 4 c 8 0 c 8 -4 c 11 -8 c
38 -38 c 0 53 c 0 -250 1661 1368 l 79 -38 1618 1492 l 0 53 1618 1439 l 0 -38 1618 1560 l 34 -3 c -4 3 c -4 12 c 0 11 c 4 11 c 8 8 c
11 4 c 7 0 c 12 -4 c 7 -8 c 4 -11 c 0 -11 c -4 -12 c -3 -3 c -8 -4 c 79 -37 1618 1643 l 0 52 1618 1591 l 0 41 1618 1674 l 30 -22 c
0 11 c 4 7 c 4 4 c 11 4 c 7 0 c 12 -4 c 7 -7 c 4 -12 c 0 -11 c -4 -11 c -3 -4 c -8 -4 c 3 -4 1690 1749 l 4 4 c -4 4 c -3 -4 c
0 42 1618 1787 l 30 -23 c 0 11 c 4 8 c 4 4 c 11 3 c 7 0 c 12 -3 c 7 -8 c 4 -11 c 0 -12 c -4 -11 c -3 -4 c -8 -4 c 53 -38 1618 1893 l
0 57 c 79 0 1618 1893 l 53 -37 1618 1968 l 0 56 c 79 0 1618 1968 l 0 -250 2959 2141 l 79 -37 2916 2265 l 0 52 2916 2213 l
0 -38 2916 2334 l 34 -4 c -4 4 c -4 11 c 0 11 c 4 12 c 8 7 c 11 4 c 7 0 c 12 -4 c 7 -7 c 4 -12 c 0 -11 c -4 -11 c -3 -4 c -8 -4 c
4 -12 2916 2383 l 7 -3 c 8 0 c 7 3 c 4 8 c 4 15 c 4 11 c 7 8 c 8 4 c 11 0 c 8 -4 c 3 -4 c 4 -11 c 0 -15 c -4 -12 c -3 -3 c -8 -4 c
-11 0 c -8 4 c -7 7 c -4 11 c -4 16 c -4 7 c -7 4 c -8 0 c -7 -4 c -4 -11 c 0 -15 c 12 -3 2942 2488 l 7 -8 c 4 -11 c 0 -4 c -4 -11 c
-7 -8 c -12 -4 c -4 0 c -11 4 c -7 8 c -4 11 c 0 4 c 4 11 c 7 8 c 15 3 c 19 0 c 19 -3 c 11 -8 c 4 -11 c 0 -8 c -4 -11 c -7 -4 c
3 -4 2988 2523 l 4 4 c -4 3 c -3 -3 c 0 42 2916 2560 l 30 -23 c 0 12 c 4 7 c 4 4 c 11 4 c 7 0 c 12 -4 c 7 -8 c 4 -11 c 0 -11 c
-4 -12 c -3 -3 c -8 -4 c -4 7 2931 2640 l -11 12 c 79 0 c 0 -38 2916 2749 l 34 -3 c -4 3 c -4 12 c 0 11 c 4 11 c 8 8 c 11 4 c 7 0 c
12 -4 c 7 -8 c 4 -11 c 0 -11 c -4 -12 c -3 -3 c -8 -4 c 0 -250 3691 1610 l 80 -37 3647 1734 l 0 52 3647 1682 l 0 -38 3647 1803 l
34 -4 c -3 4 c -4 11 c 0 11 c 4 12 c 7 7 c 12 4 c 7 0 c 11 -4 c 8 -7 c 4 -12 c 0 -11 c -4 -11 c -4 -4 c -7 -4 c 11 -4 3674 1882 l
8 -7 c 4 -12 c 0 -4 c -4 -11 c -8 -7 c -11 -4 c -4 0 c -11 4 c -8 7 c -4 11 c 0 4 c 4 12 c 8 7 c 15 4 c 19 0 c 19 -4 c 11 -7 c
4 -12 c 0 -7 c -4 -12 c -8 -3 c 4 -11 3647 1927 l 8 -4 c 7 0 c 8 4 c 4 7 c 3 16 c 4 11 c 8 7 c 7 4 c 12 0 c 7 -4 c 4 -3 c 4 -12 c
0 -15 c -4 -11 c -4 -4 c -7 -4 c -12 0 c -7 4 c -8 8 c -4 11 c -3 15 c -4 8 c -8 3 c -7 0 c -8 -3 c -4 -12 c 0 -15 c
4 -3 3719 1991 l 4 3 c -4 4 c -4 -4 c -3 0 3666 2026 l -8 3 c -4 4 c -4 8 c 0 15 c 4 7 c 4 4 c 8 4 c 7 0 c 8 -4 c 11 -7 c 38 -38 c
0 53 c 4 -11 3647 2120 l 12 -8 c 18 -4 c 12 0 c 19 4 c 11 8 c 4 11 c 0 8 c -4 11 c -11 7 c -19 4 c -12 0 c -18 -4 c -12 -7 c
-4 -11 c 0 -8 c 0 -38 3647 2218 l 34 -3 c -3 3 c -4 12 c 0 11 c 4 11 c 7 8 c 12 4 c 7 0 c 11 -4 c 8 -8 c 4 -11 c 0 -11 c -4 -12 c
-4 -3 c -7 -4 c 0 -249 4492 1974 l 79 -38 4449 2099 l 0 53 4449 2046 l -7 -4 4460 2171 l -4 -11 c 0 -8 c 4 -11 c 11 -8 c 19 -3 c
19 0 c 15 3 c 7 8 c 4 11 c 0 4 c -4 11 c -7 8 c -12 4 c -3 0 c -12 -4 c -7 -8 c -4 -11 c 0 -4 c 4 -11 c 7 -8 c 12 -3 c
4 -11 4449 2220 l 11 -8 c 19 -4 c 11 0 c 19 4 c 11 8 c 4 11 c 0 8 c -4 11 c -11 8 c -19 3 c -11 0 c -19 -3 c -11 -8 c -4 -11 c
0 -8 c 79 -38 4449 2326 l 0 53 4449 2273 l 3 -4 4521 2356 l 4 4 c -4 4 c -3 -4 c 4 -11 4449 2405 l 7 -4 c 8 0 c 7 4 c 4 8 c 4 15 c
4 11 c 7 8 c 8 3 c 11 0 c 8 -3 c 3 -4 c 4 -12 c 0 -15 c -4 -11 c -3 -4 c -8 -4 c -11 0 c -8 4 c -7 8 c -4 11 c -4 15 c -4 8 c -7 4 c
-8 0 c -7 -4 c -4 -12 c 0 -15 c -4 0 4468 2466 l -8 4 c -3 3 c -4 8 c 0 15 c 4 8 c 3 3 c 8 4 c 7 0 c 8 -4 c 11 -7 c 38 -38 c 0 53 c
0 42 4449 2545 l 30 -23 c 0 11 c 4 8 c 4 4 c 11 4 c 7 0 c 12 -4 c 7 -8 c 4 -11 c 0 -11 c -4 -12 c -3 -4 c -8 -3 c 0 -250 5380 1920 l
79 -37 5337 2044 l 0 53 5337 1991 l -7 -4 5348 2116 l -4 -11 c 0 -8 c 4 -11 c 11 -7 c 19 -4 c 19 0 c 15 4 c 7 7 c 4 11 c 0 4 c
-4 12 c -7 7 c -12 4 c -3 0 c -12 -4 c -7 -7 c -4 -12 c 0 -4 c 4 -11 c 7 -7 c 12 -4 c -4 7 5352 2154 l -11 12 c 79 0 c
4 -11 5337 2237 l 7 -4 c 8 0 c 7 4 c 4 7 c 4 15 c 4 12 c 7 7 c 8 4 c 11 0 c 8 -4 c 3 -3 c 4 -12 c 0 -15 c -4 -11 c -3 -4 c -8 -4 c
-11 0 c -8 4 c -7 8 c -4 11 c -4 15 c -4 8 c -7 3 c -8 0 c -7 -3 c -4 -12 c 0 -15 c 3 -3 5409 2301 l 4 3 c -4 4 c -3 -4 c
0 42 5337 2339 l 30 -23 c 0 11 c 4 8 c 4 4 c 11 3 c 7 0 c 12 -3 c 7 -8 c 4 -11 c 0 -12 c -4 -11 c -3 -4 c -8 -3 c 53 -38 5337 2445 l
0 57 c 79 0 5337 2445 l 53 -38 5337 2521 l 0 56 c 79 0 5337 2521 l 0 -250 5528 1391 l 80 -38 5484 1516 l 0 53 5484 1463 l
-8 -4 5496 1588 l -4 -12 c 0 -7 c 4 -11 c 11 -8 c 19 -4 c 19 0 c 15 4 c 8 8 c 4 11 c 0 4 c -4 11 c -8 8 c -11 3 c -4 0 c -11 -3 c
-8 -8 c -4 -11 c 0 -4 c 4 -11 c 8 -8 c 11 -4 c -4 0 5503 1618 l -7 4 c -4 3 c -4 8 c 0 15 c 4 8 c 4 3 c 7 4 c 8 0 c 7 -4 c 12 -7 c
38 -38 c 0 53 c 4 -11 5484 1712 l 11 -8 c 19 -3 c 12 0 c 18 3 c 12 8 c 4 11 c 0 8 c -4 11 c -12 8 c -18 4 c -12 0 c -19 -4 c
-11 -8 c -4 -11 c 0 -8 c 4 -4 5556 1773 l 4 4 c -4 4 c -4 -4 c 4 -12 5484 1826 l 11 -7 c 19 -4 c 12 0 c 18 4 c 12 7 c 4 12 c 0 7 c
-4 12 c -12 7 c -18 4 c -12 0 c -19 -4 c -11 -7 c -4 -12 c 0 -7 c 80 -38 5484 1932 l 0 53 5484 1879 l 80 -38 5484 2007 l
0 53 5484 1954 l 0 -250 6009 1786 l 80 -38 5965 1910 l 0 53 5965 1857 l -8 -4 5977 1982 l -4 -11 c 0 -8 c 4 -11 c 12 -8 c 18 -3 c
19 0 c 15 3 c 8 8 c 4 11 c 0 4 c -4 11 c -8 8 c -11 4 c -4 0 c -11 -4 c -8 -8 c -3 -11 c 0 -4 c 3 -11 c 8 -8 c 11 -3 c
-3 0 5984 2012 l -8 4 c -4 4 c -4 7 c 0 16 c 4 7 c 4 4 c 8 4 c 7 0 c 8 -4 c 11 -8 c 38 -37 c 0 52 c 0 -37 5965 2129 l 34 -4 c -3 4 c
-4 11 c 0 11 c 4 12 c 7 7 c 12 4 c 7 0 c 11 -4 c 8 -7 c 4 -12 c 0 -11 c -4 -11 c -4 -4 c -7 -4 c 4 -4 6037 2167 l 4 4 c -4 4 c
-4 -4 c 80 -37 5965 2250 l 0 53 5965 2197 l 4 -12 5965 2296 l 12 -7 c 18 -4 c 12 0 c 19 4 c 11 7 c 4 12 c 0 7 c -4 12 c -11 7 c
-19 4 c -12 0 c -18 -4 c -12 -7 c -4 -12 c 0 -7 c 0 -38 5965 2394 l 34 -4 c -3 4 c -4 12 c 0 11 c 4 11 c 7 8 c 12 4 c 7 0 c 11 -4 c
8 -8 c 4 -11 c 0 -11 c -4 -12 c -4 -4 c -7 -3 c 0 -250 6135 3133 l 79 -37 6092 3257 l 0 52 6092 3205 l -8 -3 6103 3329 l -3 -12 c
0 -7 c 3 -12 c 12 -7 c 19 -4 c 19 0 c 15 4 c 7 7 c 4 12 c 0 3 c -4 12 c -7 7 c -12 4 c -3 0 c -12 -4 c -7 -7 c -4 -12 c 0 -3 c
4 -12 c 7 -7 c 12 -4 c -4 0 6111 3360 l -8 3 c -4 4 c -3 8 c 0 15 c 3 7 c 4 4 c 8 4 c 7 0 c 8 -4 c 11 -7 c 38 -38 c 0 53 c
79 -38 6092 3484 l 0 53 6092 3431 l 4 -3 6163 3514 l 4 3 c -4 4 c -4 -4 c -4 8 6107 3556 l -11 11 c 79 0 c 79 -38 6092 3673 l
0 53 6092 3620 l 0 -38 6092 3741 l 34 -3 c -4 3 c -4 12 c 0 11 c 4 11 c 7 8 c 12 4 c 7 0 c 12 -4 c 7 -8 c 4 -11 c 0 -11 c -4 -12 c
-4 -3 c -7 -4 c 0 -250 6406 2138 l 79 -37 6363 2262 l 0 52 6363 2210 l -8 -4 6374 2334 l -3 -11 c 0 -7 c 3 -12 c 12 -7 c 19 -4 c
19 0 c 15 4 c 7 7 c 4 12 c 0 3 c -4 12 c -7 7 c -12 4 c -3 0 c -12 -4 c -7 -7 c -4 -12 c 0 -3 c 4 -12 c 7 -7 c 12 -4 c
0 42 6363 2368 l 30 -23 c 0 12 c 4 7 c 3 4 c 12 4 c 7 0 c 12 -4 c 7 -8 c 4 -11 c 0 -11 c -4 -12 c -4 -3 c -7 -4 c 3 -11 6363 2459 l
12 -8 c 19 -4 c 11 0 c 19 4 c 11 8 c 4 11 c 0 8 c -4 11 c -11 7 c -19 4 c -11 0 c -19 -4 c -12 -7 c -3 -11 c 0 -8 c 4 -3 6434 2519 l
4 3 c -4 4 c -4 -4 c 0 42 6363 2557 l 30 -23 c 0 11 c 4 8 c 3 4 c 12 4 c 7 0 c 12 -4 c 7 -8 c 4 -11 c 0 -11 c -4 -12 c -4 -4 c
-7 -3 c -4 7 6378 2637 l -11 12 c 79 0 c -4 8 6378 2712 l -11 11 c 79 0 c 0 -249 7902 5985 l 79 -38 7859 6110 l 0 53 7859 6057 l
-8 -4 7870 6182 l -3 -11 c 0 -8 c 3 -11 c 12 -8 c 19 -3 c 19 0 c 15 3 c 7 8 c 4 11 c 0 4 c -4 11 c -7 8 c -12 4 c -3 0 c -12 -4 c
-7 -8 c -4 -11 c 0 -4 c 4 -11 c 7 -8 c 12 -3 c 53 -38 7859 6246 l 0 57 c 79 0 7859 6246 l 79 -38 7859 6337 l 0 53 7859 6284 l
4 -4 7930 6367 l 4 4 c -4 4 c -4 -4 c 0 42 7859 6405 l 30 -23 c 0 11 c 4 8 c 3 4 c 12 3 c 7 0 c 12 -3 c 7 -8 c 4 -11 c 0 -12 c
-4 -11 c -4 -4 c -7 -4 c 79 -38 7859 6526 l 0 53 7859 6473 l 11 -4 7885 6598 l 8 -8 c 4 -11 c 0 -4 c -4 -11 c -8 -8 c -11 -3 c
-4 0 c -11 3 c -8 8 c -3 11 c 0 4 c 3 11 c 8 8 c 15 4 c 19 0 c 19 -4 c 11 -8 c 4 -11 c 0 -8 c -4 -11 c -7 -4 c 0 -250 8343 1573 l
79 -38 8300 1698 l 0 53 8300 1645 l -8 -3 8311 1769 l -3 -12 c 0 -7 c 3 -12 c 12 -7 c 19 -4 c 19 0 c 15 4 c 7 7 c 4 12 c 0 3 c
-4 12 c -7 7 c -12 4 c -3 0 c -12 -4 c -7 -7 c -4 -12 c 0 -3 c 4 -12 c 7 -7 c 12 -4 c 0 -38 8300 1841 l 34 -3 c -4 3 c -4 12 c
0 11 c 4 11 c 7 8 c 12 4 c 7 0 c 12 -4 c 7 -8 c 4 -11 c 0 -11 c -4 -12 c -4 -3 c -7 -4 c -4 0 8319 1875 l -8 4 c -4 4 c -3 7 c
0 15 c 3 8 c 4 4 c 8 4 c 7 0 c 8 -4 c 11 -8 c 38 -38 c 0 53 c 4 -4 8371 1955 l 4 4 c -4 3 c -4 -3 c 0 42 8300 1992 l 30 -23 c 0 12 c
4 7 c 3 4 c 12 4 c 7 0 c 12 -4 c 7 -8 c 4 -11 c 0 -11 c -4 -12 c -4 -3 c -7 -4 c -4 0 8319 2064 l -8 4 c -4 4 c -3 7 c 0 15 c 3 8 c
4 4 c 8 3 c 7 0 c 8 -3 c 11 -8 c 38 -38 c 0 53 c 3 -12 8300 2159 l 12 -7 c 19 -4 c 11 0 c 19 4 c 11 7 c 4 12 c 0 7 c -4 12 c -11 7 c
-19 4 c -11 0 c -19 -4 c -12 -7 c -3 -12 c 0 -7 c 0 -249 8479 1715 l 79 -38 8435 1840 l 0 53 8435 1787 l -7 -4 8446 1912 l -4 -11 c
0 -8 c 4 -11 c 11 -8 c 19 -3 c 19 0 c 15 3 c 8 8 c 3 11 c 0 4 c -3 11 c -8 8 c -11 4 c -4 0 c -11 -4 c -8 -8 c -4 -11 c 0 -4 c
4 -11 c 8 -8 c 11 -3 c 0 -38 8435 1984 l 34 -4 c -4 4 c -3 11 c 0 12 c 3 11 c 8 8 c 11 3 c 8 0 c 11 -3 c 8 -8 c 3 -11 c 0 -12 c
-3 -11 c -4 -4 c -8 -4 c 0 41 8435 2022 l 30 -23 c 0 12 c 4 7 c 4 4 c 11 4 c 8 0 c 11 -4 c 8 -7 c 3 -12 c 0 -11 c -3 -11 c -4 -4 c
-8 -4 c 4 -4 8507 2097 l 3 4 c -3 4 c -4 -4 c 4 -11 8435 2146 l 7 -4 c 8 0 c 8 4 c 3 8 c 4 15 c 4 11 c 7 8 c 8 3 c 11 0 c 8 -3 c
4 -4 c 3 -12 c 0 -15 c -3 -11 c -4 -4 c -8 -4 c -11 0 c -8 4 c -7 8 c -4 11 c -4 15 c -3 8 c -8 4 c -8 0 c -7 -4 c -4 -12 c 0 -15 c
-4 0 8454 2207 l -7 4 c -4 3 c -4 8 c 0 15 c 4 8 c 4 3 c 7 4 c 8 0 c 7 -4 c 12 -7 c 37 -38 c 0 53 c 4 -12 8435 2298 l 7 -4 c 8 0 c
8 4 c 3 8 c 4 15 c 4 11 c 7 8 c 8 4 c 11 0 c 8 -4 c 4 -4 c 3 -11 c 0 -15 c -3 -12 c -4 -4 c -8 -3 c -11 0 c -8 3 c -7 8 c -4 11 c
-4 15 c -3 8 c -8 4 c -8 0 c -7 -4 c -4 -11 c 0 -15 c 0 -250 8557 1384 l 80 -37 8513 1508 l 0 52 8513 1456 l -8 -4 8525 1580 l
-4 -11 c 0 -7 c 4 -12 c 11 -7 c 19 -4 c 19 0 c 15 4 c 8 7 c 4 12 c 0 3 c -4 12 c -8 7 c -11 4 c -4 0 c -11 -4 c -8 -7 c -3 -12 c
0 -3 c 3 -12 c 8 -7 c 11 -4 c 0 -38 8513 1652 l 34 -4 c -3 4 c -4 12 c 0 11 c 4 11 c 7 8 c 11 4 c 8 0 c 11 -4 c 8 -8 c 4 -11 c
0 -11 c -4 -12 c -4 -4 c -7 -3 c 53 -38 8513 1720 l 0 57 c 80 0 8513 1720 l 4 -3 8585 1765 l 4 3 c -4 4 c -4 -4 c 80 -38 8513 1849 l
0 53 8513 1796 l 4 -11 8513 1894 l 11 -8 c 19 -4 c 12 0 c 19 4 c 11 8 c 4 11 c 0 7 c -4 12 c -11 7 c -19 4 c -12 0 c -19 -4 c
-11 -7 c -4 -12 c 0 -7 c 4 -12 8513 1970 l 11 -7 c 19 -4 c 12 0 c 19 4 c 11 7 c 4 12 c 0 7 c -4 11 c -11 8 c -19 4 c -12 0 c
-19 -4 c -11 -8 c -4 -11 c 0 -7 c 0 -249 8884 1787 l 79 -38 8841 1912 l 0 53 8841 1859 l -8 -4 8852 1984 l -3 -11 c 0 -8 c 3 -11 c
12 -8 c 19 -4 c 19 0 c 15 4 c 7 8 c 4 11 c 0 4 c -4 11 c -7 8 c -12 3 c -3 0 c -12 -3 c -7 -8 c -4 -11 c 0 -4 c 4 -11 c 7 -8 c
12 -4 c 0 -37 8841 2055 l 34 -4 c -4 4 c -4 11 c 0 11 c 4 12 c 7 7 c 12 4 c 7 0 c 12 -4 c 7 -7 c 4 -12 c 0 -11 c -4 -11 c -4 -4 c
-7 -4 c 3 -12 8841 2105 l 8 -4 c 8 0 c 7 4 c 4 8 c 4 15 c 3 11 c 8 8 c 8 4 c 11 0 c 7 -4 c 4 -4 c 4 -11 c 0 -15 c -4 -12 c -4 -4 c
-7 -3 c -11 0 c -8 3 c -8 8 c -3 11 c -4 15 c -4 8 c -7 4 c -8 0 c -8 -4 c -3 -11 c 0 -15 c 4 -4 8912 2169 l 4 4 c -4 4 c -4 -4 c
0 41 8841 2207 l 30 -22 c 0 11 c 4 7 c 3 4 c 12 4 c 7 0 c 12 -4 c 7 -7 c 4 -12 c 0 -11 c -4 -11 c -4 -4 c -7 -4 c -4 0 8860 2278 l
-8 4 c -4 4 c -3 8 c 0 15 c 3 7 c 4 4 c 8 4 c 7 0 c 8 -4 c 11 -8 c 38 -37 c 0 53 c 0 -38 8841 2396 l 34 -4 c -4 4 c -4 11 c 0 11 c
4 12 c 7 7 c 12 4 c 7 0 c 12 -4 c 7 -7 c 4 -12 c 0 -11 c -4 -11 c -4 -4 c -7 -4 c 0 -249 9039 1344 l 79 -38 8995 1469 l
0 53 8995 1416 l -7 -4 9006 1541 l -4 -11 c 0 -8 c 4 -11 c 11 -8 c 19 -4 c 19 0 c 15 4 c 8 8 c 3 11 c 0 4 c -3 11 c -8 8 c -11 4 c
-4 0 c -11 -4 c -8 -8 c -4 -11 c 0 -4 c 4 -11 c 8 -8 c 11 -4 c -7 -3 9006 1616 l -4 -12 c 0 -7 c 4 -12 c 11 -7 c 19 -4 c 19 0 c
15 4 c 8 7 c 3 12 c 0 3 c -3 12 c -8 7 c -11 4 c -4 0 c -11 -4 c -8 -7 c -4 -12 c 0 -3 c 4 -12 c 8 -7 c 11 -4 c 4 -11 8995 1665 l
11 -7 c 19 -4 c 11 0 c 19 4 c 12 7 c 3 11 c 0 8 c -3 11 c -12 8 c -19 4 c -11 0 c -19 -4 c -11 -8 c -4 -11 c 0 -8 c 4 -4 9067 1726 l
3 4 c -3 4 c -4 -4 c 4 -11 8995 1779 l 11 -8 c 19 -4 c 11 0 c 19 4 c 12 8 c 3 11 c 0 7 c -3 12 c -12 7 c -19 4 c -11 0 c -19 -4 c
-11 -7 c -4 -12 c 0 -7 c -4 0 9014 1836 l -7 3 c -4 4 c -4 8 c 0 15 c 4 7 c 4 4 c 7 4 c 8 0 c 7 -4 c 12 -7 c 37 -38 c 0 53 c
0 41 8995 1915 l 30 -22 c 0 11 c 4 8 c 4 3 c 11 4 c 8 0 c 11 -4 c 8 -7 c 3 -11 c 0 -12 c -3 -11 c -4 -4 c -8 -4 c 0 -249 9117 1549 l
79 -38 9074 1674 l 0 53 9074 1621 l -7 -4 9085 1746 l -4 -11 c 0 -8 c 4 -11 c 11 -8 c 19 -4 c 19 0 c 15 4 c 7 8 c 4 11 c 0 4 c
-4 11 c -7 8 c -12 4 c -3 0 c -12 -4 c -7 -8 c -4 -11 c 0 -4 c 4 -11 c 7 -8 c 12 -4 c -7 -3 9085 1821 l -4 -12 c 0 -7 c 4 -12 c
11 -7 c 19 -4 c 19 0 c 15 4 c 7 7 c 4 12 c 0 3 c -4 12 c -7 7 c -12 4 c -3 0 c -12 -4 c -7 -7 c -4 -12 c 0 -3 c 4 -12 c 7 -7 c
12 -4 c 4 -11 9074 1870 l 11 -7 c 19 -4 c 11 0 c 19 4 c 11 7 c 4 11 c 0 8 c -4 11 c -11 8 c -19 4 c -11 0 c -19 -4 c -11 -8 c
-4 -11 c 0 -8 c 3 -4 9146 1931 l 4 4 c -4 4 c -3 -4 c 4 -11 9074 1980 l 7 -4 c 8 0 c 7 4 c 4 7 c 4 15 c 4 12 c 7 7 c 8 4 c 11 0 c
8 -4 c 3 -3 c 4 -12 c 0 -15 c -4 -11 c -3 -4 c -8 -4 c -11 0 c -8 4 c -7 8 c -4 11 c -4 15 c -4 8 c -7 3 c -8 0 c -7 -3 c -4 -12 c
0 -15 c 12 -4 9100 2086 l 7 -7 c 4 -12 c 0 -4 c -4 -11 c -7 -7 c -12 -4 c -4 0 c -11 4 c -7 7 c -4 11 c 0 4 c 4 12 c 7 7 c 15 4 c
19 0 c 19 -4 c 11 -7 c 4 -12 c 0 -7 c -4 -12 c -7 -3 c 4 -11 9074 2135 l 11 -8 c 19 -4 c 11 0 c 19 4 c 11 8 c 4 11 c 0 8 c -4 11 c
-11 8 c -19 3 c -11 0 c -19 -3 c -11 -8 c -4 -11 c 0 -8 c 0 -250 9637 1329 l 79 -38 9593 1454 l 0 53 9593 1401 l -7 -3 9604 1525 l
-4 -12 c 0 -7 c 4 -12 c 11 -7 c 19 -4 c 19 0 c 15 4 c 8 7 c 3 12 c 0 3 c -3 12 c -8 7 c -11 4 c -4 0 c -11 -4 c -8 -7 c -4 -12 c
0 -3 c 4 -12 c 8 -7 c 11 -4 c -7 -4 9604 1601 l -4 -11 c 0 -8 c 4 -11 c 11 -8 c 19 -3 c 19 0 c 15 3 c 8 8 c 3 11 c 0 4 c -3 11 c
-8 8 c -11 4 c -4 0 c -11 -4 c -8 -8 c -4 -11 c 0 -4 c 4 -11 c 8 -8 c 11 -3 c -7 -4 9604 1677 l -4 -12 c 0 -7 c 4 -11 c 11 -8 c
19 -4 c 19 0 c 15 4 c 8 8 c 3 11 c 0 4 c -3 11 c -8 8 c -11 3 c -4 0 c -11 -3 c -8 -8 c -4 -11 c 0 -4 c 4 -11 c 8 -8 c 11 -4 c
4 -4 9665 1711 l 3 4 c -3 3 c -4 -3 c 0 -38 9593 1786 l 34 -3 c -4 3 c -3 12 c 0 11 c 3 11 c 8 8 c 11 4 c 8 0 c 11 -4 c 8 -8 c
3 -11 c 0 -11 c -3 -12 c -4 -3 c -8 -4 c -7 -4 9604 1866 l -4 -12 c 0 -7 c 4 -11 c 11 -8 c 19 -4 c 19 0 c 15 4 c 8 8 c 3 11 c 0 4 c
-3 11 c -8 8 c -11 3 c -4 0 c -11 -3 c -8 -8 c -4 -11 c 0 -4 c 4 -11 c 8 -8 c 11 -4 c 4 -11 9593 1911 l 7 -4 c 8 0 c 8 4 c 3 7 c
4 15 c 4 12 c 7 7 c 8 4 c 11 0 c 8 -4 c 4 -4 c 3 -11 c 0 -15 c -3 -11 c -4 -4 c -8 -4 c -11 0 c -8 4 c -7 7 c -4 12 c -4 15 c -3 7 c
-8 4 c -8 0 c -7 -4 c -4 -11 c 0 -15 c
showpage PGPLOT restore
 
%%Trailer
%%DocumentFonts: 
%%Pages: 1
%%EOF
