%!PS-Adobe-3.0 EPSF-3.0
%%For: tab
%%Title: PGPLOT PostScript plot
%%Creator: PGPLOT
%%CreationDate: 20-Apr-1995 16:42
%%BoundingBox: 25 18 587 774
%%DocumentFonts: (atend)
%%LanguageLevel: 1
%%Orientation: Landscape
%%Pages: (atend)
%%EndComments
%%BeginProlog
/l {moveto rlineto currentpoint stroke moveto} bind def
/c {rlineto currentpoint stroke moveto} bind def
/d {moveto 0 0 rlineto currentpoint stroke moveto} bind def
/SLW {5 mul setlinewidth} bind def
/SCF /pop load def
/BP {newpath moveto} bind def
/LP /rlineto load def
/EP {rlineto closepath eofill} bind def
/MB {gsave translate MFAC dup scale 1 setlinewidth 2 setlinecap 0 setlinejoin newpath} bind def
/ME /grestore load def
/C {0 360 arc stroke} bind def
/FC {0 360 arc fill} bind def
%%EndProlog
 
%%Page: 1 1
%%BeginPageSetup
/PGPLOT save def
0.072 0.072 scale
8150 250 translate 90 rotate
1 setlinejoin 1 setlinecap 1 SLW 1 SCF
%%EndPageSetup
0.000 setgray 1 SLW 8939 0 780 780 l 0 6239 c -8939 0 c 0 -6239 c 0 -45 1116 780 l 0 -45 1554 780 l 0 -45 1991 780 l
0 -45 2428 780 l 0 -90 2865 780 l 0 -45 3302 780 l 0 -45 3739 780 l 0 -45 4176 780 l 0 -45 4613 780 l 0 -90 5051 780 l
0 -45 5488 780 l 0 -45 5925 780 l 0 -45 6362 780 l 0 -45 6799 780 l 0 -90 7236 780 l 0 -45 7673 780 l 0 -45 8110 780 l
0 -45 8548 780 l 0 -45 8985 780 l 0 -90 9422 780 l 0 -45 1116 7064 l 0 -45 1554 7064 l 0 -45 1991 7064 l 0 -45 2428 7064 l
0 -90 2865 7109 l 0 -45 3302 7064 l 0 -45 3739 7064 l 0 -45 4176 7064 l 0 -45 4613 7064 l 0 -90 5051 7109 l 0 -45 5488 7064 l
0 -45 5925 7064 l 0 -45 6362 7064 l 0 -45 6799 7064 l 0 -90 7236 7109 l 0 -45 7673 7064 l 0 -45 8110 7064 l 0 -45 8548 7064 l
0 -45 8985 7064 l 0 -90 9422 7109 l -60 0 2775 672 l -6 -54 c 6 6 c 18 6 c 18 0 c 18 -6 c 12 -12 c 6 -18 c 0 -12 c -6 -18 c
-12 -12 c -18 -6 c -18 0 c -18 6 c -6 6 c -6 12 c -18 -6 2859 672 l -12 -18 c -6 -30 c 0 -18 c 6 -30 c 12 -18 c 18 -6 c 12 0 c
18 6 c 12 18 c 6 30 c 0 18 c -6 30 c -12 18 c -18 6 c -12 0 c -18 -6 2979 672 l -12 -18 c -6 -30 c 0 -18 c 6 -30 c 12 -18 c 18 -6 c
12 0 c 18 6 c 12 18 c 6 30 c 0 18 c -6 30 c -12 18 c -18 6 c -12 0 c 12 6 4847 648 l 18 18 c 0 -126 c -18 -6 4985 672 l -12 -18 c
-6 -30 c 0 -18 c 6 -30 c 12 -18 c 18 -6 c 12 0 c 18 6 c 12 18 c 6 30 c 0 18 c -6 30 c -12 18 c -18 6 c -12 0 c -18 -6 5105 672 l
-12 -18 c -6 -30 c 0 -18 c 6 -30 c 12 -18 c 18 -6 c 12 0 c 18 6 c 12 18 c 6 30 c 0 18 c -6 30 c -12 18 c -18 6 c -12 0 c
-18 -6 5225 672 l -12 -18 c -6 -30 c 0 -18 c 6 -30 c 12 -18 c 18 -6 c 12 0 c 18 6 c 12 18 c 6 30 c 0 18 c -6 30 c -12 18 c -18 6 c
-12 0 c 12 6 7032 648 l 18 18 c 0 -126 c -60 0 7206 672 l -6 -54 c 6 6 c 18 6 c 18 0 c 18 -6 c 12 -12 c 6 -18 c 0 -12 c -6 -18 c
-12 -12 c -18 -6 c -18 0 c -18 6 c -6 6 c -6 12 c -18 -6 7290 672 l -12 -18 c -6 -30 c 0 -18 c 6 -30 c 12 -18 c 18 -6 c 12 0 c
18 6 c 12 18 c 6 30 c 0 18 c -6 30 c -12 18 c -18 6 c -12 0 c -18 -6 7410 672 l -12 -18 c -6 -30 c 0 -18 c 6 -30 c 12 -18 c 18 -6 c
12 0 c 18 6 c 12 18 c 6 30 c 0 18 c -6 30 c -12 18 c -18 6 c -12 0 c 0 6 9206 642 l 6 12 c 6 6 c 12 6 c 24 0 c 12 -6 c 6 -6 c
6 -12 c 0 -12 c -6 -12 c -12 -18 c -60 -60 c 84 0 c -18 -6 9356 672 l -12 -18 c -6 -30 c 0 -18 c 6 -30 c 12 -18 c 18 -6 c 12 0 c
18 6 c 12 18 c 6 30 c 0 18 c -6 30 c -12 18 c -18 6 c -12 0 c -18 -6 9476 672 l -12 -18 c -6 -30 c 0 -18 c 6 -30 c 12 -18 c 18 -6 c
12 0 c 18 6 c 12 18 c 6 30 c 0 18 c -6 30 c -12 18 c -18 6 c -12 0 c -18 -6 9596 672 l -12 -18 c -6 -30 c 0 -18 c 6 -30 c 12 -18 c
18 -6 c 12 0 c 18 6 c 12 18 c 6 30 c 0 18 c -6 30 c -12 18 c -18 6 c -12 0 c -90 0 780 783 l -45 0 780 1129 l -45 0 780 1475 l
-45 0 780 1821 l -45 0 780 2167 l -90 0 780 2514 l -45 0 780 2860 l -45 0 780 3206 l -45 0 780 3552 l -45 0 780 3898 l
-90 0 780 4244 l -45 0 780 4590 l -45 0 780 4936 l -45 0 780 5282 l -45 0 780 5629 l -90 0 780 5975 l -45 0 780 6321 l
-45 0 780 6667 l -45 0 780 7013 l -90 0 9809 783 l -45 0 9764 1129 l -45 0 9764 1475 l -45 0 9764 1821 l -45 0 9764 2167 l
-90 0 9809 2514 l -45 0 9764 2860 l -45 0 9764 3206 l -45 0 9764 3552 l -45 0 9764 3898 l -90 0 9809 4244 l -45 0 9764 4590 l
-45 0 9764 4936 l -45 0 9764 5282 l -45 0 9764 5629 l -90 0 9809 5975 l -45 0 9764 6321 l -45 0 9764 6667 l -45 0 9764 7013 l
6 -18 517 777 l 18 -12 c 30 -6 c 18 0 c 30 6 c 18 12 c 6 18 c 0 12 c -6 18 c -18 12 c -30 6 c -18 0 c -30 -6 c -18 -12 c -6 -18 c
0 -12 c 0 -60 517 2364 l 54 -6 c -6 6 c -6 18 c 0 18 c 6 18 c 12 12 c 18 6 c 12 0 c 18 -6 c 12 -12 c 6 -18 c 0 -18 c -6 -18 c
-6 -6 c -12 -6 c 6 -18 517 2448 l 18 -12 c 30 -6 c 18 0 c 30 6 c 18 12 c 6 18 c 0 12 c -6 18 c -18 12 c -30 6 c -18 0 c -30 -6 c
-18 -12 c -6 -18 c 0 -12 c 6 -18 517 2568 l 18 -12 c 30 -6 c 18 0 c 30 6 c 18 12 c 6 18 c 0 12 c -6 18 c -18 12 c -30 6 c -18 0 c
-30 -6 c -18 -12 c -6 -18 c 0 -12 c 6 -18 517 2688 l 18 -12 c 30 -6 c 18 0 c 30 6 c 18 12 c 6 18 c 0 12 c -6 18 c -18 12 c -30 6 c
-18 0 c -30 -6 c -18 -12 c -6 -18 c 0 -12 c -6 12 541 4124 l -18 18 c 126 0 c 6 -18 517 4262 l 18 -12 c 30 -6 c 18 0 c 30 6 c
18 12 c 6 18 c 0 12 c -6 18 c -18 12 c -30 6 c -18 0 c -30 -6 c -18 -12 c -6 -18 c 0 -12 c 63 -45 453 4387 l 0 67 c 94 0 453 4387 l
-6 12 541 5639 l -18 18 c 126 0 c 6 -6 631 5753 l 6 6 c -6 6 c -6 -6 c 0 -60 517 5873 l 54 -6 c -6 6 c -6 18 c 0 18 c 6 18 c 12 12 c
18 6 c 12 0 c 18 -6 c 12 -12 c 6 -18 c 0 -18 c -6 -18 c -6 -6 c -12 -6 c 84 84 547 5927 l 84 -84 547 6011 l -6 12 541 6071 l
-18 18 c 126 0 c 6 -18 517 6209 l 18 -12 c 30 -6 c 18 0 c 30 6 c 18 12 c 6 18 c 0 12 c -6 18 c -18 12 c -30 6 c -18 0 c -30 -6 c
-18 -12 c -6 -18 c 0 -12 c 63 -45 453 6333 l 0 68 c 94 0 453 6333 l
4 3 780 832 l 5 8 c 4 10 c 4 -1 c 5 -10 c 4 -5 c 4 -2 c 5 0 c 4 1 c 5 -4 c 4 1 c 4 -1 c 5 1 c 4 1 c 4 -1 c 5 2 c 4 -4 c 5 1 c 4 0 c
4 0 c 5 1 c 4 0 c 4 -1 c 5 0 c 4 0 c 5 2 c 4 1 c 4 -1 c 5 -1 c 4 0 c 4 -1 c 5 0 c 4 0 c 5 0 c 4 0 c 4 0 c 5 0 c 4 1 c 4 -2 c 5 1 c
4 1 c 4 1 c 5 0 c 4 1 c 5 1 c 4 0 c 4 -2 c 5 0 c 4 0 c 4 -1 c 5 1 c 4 -1 c 5 1 c 4 -1 c 4 0 c 5 0 c 4 3 c 4 -2 c 5 0 c 4 1 c 5 -2 c
4 0 c 4 2 c 5 -1 c 4 0 c 4 -1 c 5 3 c 4 -1 c 5 0 c 4 0 c 4 -1 c 5 0 c 4 1 c 4 0 c 5 0 c 4 0 c 4 0 c 5 0 c 4 1 c 5 -1 c 4 2 c 4 -2 c
5 1 c 4 -53 c 4 0 c 5 53 c 4 1 c 5 1 c 4 -1 c 4 1 c 5 -1 c 4 -1 c 4 4 c 5 7 c 4 13 c 5 5 c 4 -7 c 4 -10 c 5 -7 c 4 -1 c 4 -3 c 5 1 c
4 5 c 5 9 c 4 50 c 4 161 c 5 163 c 4 13 c 4 -143 c 5 -145 c 4 -60 c 4 -15 c 5 -18 c 4 -5 c 5 -4 c 4 -3 c 4 -2 c 5 -2 c 4 2 c 4 3 c
5 1 c 4 0 c 5 -2 c 4 3 c 4 15 c 5 31 c 4 17 c 4 -15 c 5 -26 c 4 -13 c 5 -3 c 4 2 c 4 4 c 5 4 c 4 0 c 4 -4 c 5 -5 c 4 2 c 5 12 c
4 27 c 4 13 c 5 -9 c 4 -7 c 4 4 c 5 -4 c 4 -18 c 4 -11 c 5 -5 c 4 -2 c 5 0 c 4 -4 c 4 3 c 5 2 c 1 6160 c 2 -5336 1469 7019 l
4 -768 c 4 -31 c 5 -3 c 4 1 c 4 0 c 5 -2 c 4 -2 c 5 2 c 4 -1 c 4 3 c 5 -9 c 4 -5 c 4 -4 c 5 -2 c 4 4 c 4 5 c 5 2 c 4 5 c 5 -4 c
4 -3 c 4 1 c 5 -4 c 4 2 c 4 2 c 5 3 c 4 -4 c 5 -4 c 4 3 c 4 6 c 5 3 c 4 -4 c 4 0 c 5 -7 c 4 -3 c 5 2 c 4 5 c 4 0 c 5 -4 c 4 -5 c
4 5 c 5 0 c 4 4 c 5 -9 c 4 8 c 4 28 c 5 82 c 4 73 c 4 22 c 5 -47 c 4 -55 c 4 -42 c 5 -39 c 4 -20 c 5 -4 c 4 -4 c 4 -2 c 5 0 c 4 4 c
4 5 c 5 5 c 4 -2 c 5 3 c 4 -7 c 4 -3 c 5 -5 c 4 -1 c 4 2 c 5 7 c 4 9 c 5 65 c 4 202 c 4 222 c 5 41 c 4 -188 c 4 -231 c 5 -111 c
4 -17 c 5 13 c 4 34 c 4 45 c 5 8 c 4 -41 c 4 -41 c 5 -18 c 4 -5 c 4 -1 c 5 0 c 4 0 c 5 -1 c 4 2 c 4 -1 c 5 -2 c 4 2 c 4 0 c 5 0 c
4 -1 c 5 -1 c 4 0 c 4 1 c 5 2 c 4 0 c 4 2 c 5 0 c 4 -3 c 5 -1 c 4 -1 c 4 0 c 5 1 c 4 0 c 4 -3 c 5 1 c 4 2 c 5 -3 c 4 1 c 4 -1 c
5 0 c 4 0 c 4 0 c 5 -1 c 4 1 c 4 0 c 5 1 c 4 -3 c 5 2 c 4 3 c 4 2 c 5 0 c 4 -3 c 4 -1 c 5 -2 c 4 2 c 5 -1 c 4 1 c 4 -3 c 5 -1 c
4 2 c 4 1 c 5 0 c 4 -1 c 5 1 c 4 0 c 4 0 c 5 0 c 4 0 c 4 -1 c 5 1 c 4 0 c 5 0 c 4 0 c 4 3 c 5 7 c 4 15 c 4 8 c 5 -1 c 4 -12 c
4 -10 c 5 -5 c 4 0 c 5 0 c 4 0 c 4 1 c 5 3 c 4 1 c 4 5 c 5 12 c 4 66 c 5 501 c 4 1483 c 4 1764 c 5 411 c 4 -1394 c 4 -1688 c
5 -852 c 4 -157 c 5 -32 c 4 -64 c 4 -40 c 5 -13 c 4 -2 c 4 -2 c 5 -1 c 4 7 c 4 39 c 5 372 c 1 5741 c 1 -3305 2300 7019 l 4 -2785 c
5 -40 c 4 -4 c 5 -2 c 4 -3 c 4 -2 c 5 -1 c 4 5 c 4 14 c 5 25 c 4 16 c 5 7 c 4 13 c 4 39 c 5 36 c 4 -22 c 4 -79 c 5 -47 c 4 -12 c
5 0 c 4 -5 c 4 -1 c 5 0 c 4 -1 c 4 -1 c 5 -2 c 4 1 c 4 1 c 5 -1 c 4 -2 c 5 1 c 4 -2 c 4 2 c 5 -2 c 4 0 c 4 1 c 5 -1 c 4 1 c 5 1 c
4 -1 c 4 -3 c 5 1 c 4 0 c 4 -1 c 5 0 c 4 1 c 5 -3 c 4 -1 c 4 2 c 5 1 c 4 -2 c 4 -1 c 5 0 c 4 0 c 5 1 c 4 -1 c 4 -1 c 5 3 c 4 -3 c
4 1 c 5 -2 c 4 1 c 4 -2 c 5 1 c 4 0 c 5 -1 c 4 1 c 4 -1 c 5 -1 c 4 3 c 4 0 c 5 0 c 4 0 c 5 2 c 4 1 c 4 4 c 5 2 c 4 2 c 4 5 c 5 -1 c
4 -2 c 5 -6 c 4 -5 c 4 -2 c 5 -1 c 4 -1 c 4 0 c 5 -2 c 4 1 c 5 0 c 4 -1 c 4 1 c 5 1 c 4 0 c 4 0 c 5 1 c 4 1 c 4 0 c 5 3 c 4 2 c
5 -1 c 4 0 c 4 1 c 5 3 c 4 1 c 4 3 c 5 -2 c 4 1 c 5 -2 c 4 -1 c 4 -4 c 5 1 c 4 0 c 4 3 c 5 5 c 4 12 c 5 18 c 4 22 c 4 6 c 5 -7 c
4 -18 c 4 -15 c 5 -14 c 4 -5 c 5 -4 c 4 -2 c 4 1 c 5 -2 c 4 -1 c 4 -1 c 5 0 c 4 -1 c 4 -1 c 5 -3 c 4 1 c 5 0 c 4 0 c 4 1 c 5 -3 c
4 0 c 4 1 c 5 -1 c 4 1 c 5 -2 c 4 -1 c 4 0 c 5 -1 c 4 -3 c 4 0 c 5 -3 c 4 0 c 5 -1 c 4 -2 c 4 0 c 5 0 c 4 2 c 4 2 c 5 0 c 4 0 c
4 1 c 5 -1 c 4 -1 c 5 3 c 4 -1 c 4 -1 c 5 -1 c 4 3 c 4 1 c 5 0 c 4 -3 c 5 1 c 4 -2 c 4 1 c 5 0 c 4 -2 c 4 1 c 5 0 c 4 1 c 5 2 c
4 1 c 4 1 c 5 -2 c 4 -1 c 4 1 c 5 -1 c 4 -1 c 5 1 c 4 0 c 4 -1 c 5 0 c 4 -1 c 4 0 c 5 3 c 4 -2 c 4 2 c 5 2 c 4 4 c 5 6 c 4 5 c 4 3 c
5 -2 c 4 -6 c 4 -3 c 5 -5 c 4 -2 c 5 -1 c 4 -1 c 4 -1 c 5 1 c 4 0 c 4 -1 c 5 -1 c 4 1 c 5 -1 c 4 1 c 4 0 c 5 0 c 4 1 c 4 0 c 5 4 c
4 12 c 5 64 c 4 127 c 4 115 c 5 32 c 4 -108 c 4 -136 c 5 -91 c 4 -14 c 4 -2 c 5 4 c 4 3 c 5 -1 c 4 -4 c 4 -6 c 5 -1 c 4 0 c 4 0 c
5 -1 c 4 0 c 5 1 c 4 2 c 4 1 c 5 -1 c 4 0 c 4 -1 c 5 5 c 4 15 c 5 25 c 4 17 c 4 0 c 5 -22 c 4 -24 c 4 -14 c 5 -3 c 4 0 c 5 2 c
4 21 c 4 48 c 5 52 c 4 19 c 4 -37 c 5 -52 c 4 -43 c 4 -8 c 5 -1 c 4 -2 c 5 1 c 4 -1 c 4 3 c 5 1 c 4 -1 c 4 1 c 5 0 c 4 -3 c 5 2 c
4 0 c 4 1 c 5 3 c 4 1 c 4 4 c 5 4 c 4 -2 c 5 -6 c 4 -2 c 4 -3 c 5 0 c 4 1 c 4 2 c 5 4 c 4 43 c 4 188 c 5 304 c 4 202 c 5 6 c
4 -285 c 4 -281 c 5 -165 c 4 -17 c 4 0 c 5 -1 c 4 -1 c 5 0 c 4 0 c 4 1 c 5 0 c 4 1 c 4 0 c 5 -1 c 4 -1 c 5 -1 c 4 0 c 4 0 c 5 1 c
4 1 c 4 4 c 5 3 c 4 1 c 5 -2 c 4 -3 c 4 0 c 5 7 c 4 11 c 4 6 c 5 -3 c 4 -10 c 4 -6 c 5 1 c 4 22 c 5 130 c 4 277 c 4 272 c 5 147 c
4 -195 c 4 -283 c 5 -262 c 4 -68 c 5 -18 c 4 -13 c 4 -8 c 5 -3 c 4 0 c 4 -2 c 5 4 c 4 1 c 5 0 c 4 -1 c 4 -2 c 5 -3 c 4 -1 c 4 -3 c
5 3 c 4 -3 c 5 0 c 4 0 c 4 1 c 5 0 c 4 2 c 4 4 c 5 1 c 4 -2 c 4 -2 c 5 -4 c 4 -1 c 5 1 c 4 -1 c 4 -1 c 5 0 c 4 2 c 4 -3 c 5 4 c
4 -1 c 5 0 c 4 0 c 4 -2 c 5 1 c 4 -1 c 4 -3 c 5 1 c 4 -3 c 5 -1 c 4 -1 c 4 2 c 5 -1 c 4 1 c 4 0 c 5 -2 c 4 1 c 5 -2 c 4 0 c 4 0 c
5 1 c 4 -1 c 4 -1 c 5 1 c 4 0 c 4 0 c 5 1 c 4 -2 c 5 1 c 4 -1 c 4 2 c 5 -1 c 4 -1 c 4 2 c 5 3 c 4 21 c 5 44 c 4 23 c 4 4 c 5 -27 c
4 -39 c 4 -25 c 5 -4 c 4 -1 c 5 2 c 4 0 c 4 0 c 5 -2 c 4 -1 c 4 1 c 5 1 c 4 -2 c 5 0 c 4 1 c 4 0 c 5 0 c 4 1 c 4 1 c 5 -1 c 4 -2 c
4 0 c 5 2 c 4 1 c 5 1 c 4 0 c 4 -2 c 5 -1 c 4 0 c 4 -1 c 5 2 c 4 -1 c 5 -1 c 4 1 c 4 -2 c 5 2 c 4 -1 c 4 0 c 5 1 c 4 -1 c 5 1 c
4 0 c 4 0 c 5 1 c 4 4 c 4 18 c 5 47 c 4 38 c 4 9 c 5 -32 c 4 -40 c 5 -38 c 4 -5 c 4 -1 c 5 -1 c 4 1 c 4 0 c 2 6182 c
1 -5187 4363 7019 l 5 -924 c 4 -34 c 4 -4 c 5 -3 c 4 -1 c 5 -1 c 4 -1 c 4 -1 c 5 0 c 4 -5 c 4 4 c 5 24 c 4 43 c 5 46 c 4 13 c
4 -31 c 5 -48 c 4 -45 c 4 -8 c 5 -3 c 4 0 c 4 -1 c 5 3 c 4 1 c 5 0 c 4 -1 c 4 2 c 5 2 c 4 1 c 4 -1 c 5 -4 c 4 -2 c 5 1 c 4 -1 c
4 -1 c 5 0 c 4 2 c 4 5 c 5 2 c 4 -2 c 5 1 c 4 -2 c 4 0 c 5 -4 c 4 -1 c 4 -2 c 5 -2 c 4 0 c 5 0 c 4 2 c 4 -1 c 5 0 c 4 -1 c 4 0 c
5 -1 c 4 0 c 4 0 c 5 1 c 4 -2 c 5 -2 c 4 2 c 4 0 c 5 1 c 4 1 c 4 1 c 5 0 c 4 -1 c 5 0 c 4 -3 c 4 2 c 5 1 c 4 0 c 4 2 c 5 -4 c 4 1 c
5 6 c 4 18 c 4 29 c 5 19 c 4 -2 c 4 -32 c 5 -25 c 4 -12 c 5 1 c 4 -2 c 4 -3 c 5 0 c 4 -1 c 4 3 c 5 0 c 4 0 c 4 -1 c 5 0 c 4 -2 c
5 1 c 4 0 c 4 -2 c 5 0 c 4 0 c 4 1 c 5 3 c 4 3 c 5 -1 c 4 -2 c 4 -2 c 5 1 c 4 1 c 4 0 c 5 0 c 4 -2 c 5 -2 c 4 -1 c 4 0 c 5 1 c 4 1 c
4 -2 c 5 0 c 4 0 c 5 0 c 4 2 c 4 0 c 5 1 c 4 -2 c 4 -1 c 5 -1 c 4 1 c 4 1 c 5 2 c 4 0 c 5 -2 c 4 0 c 4 0 c 5 -1 c 4 2 c 4 2 c 5 -2 c
4 -1 c 5 0 c 4 -1 c 4 0 c 5 1 c 4 1 c 4 0 c 5 -1 c 4 -2 c 5 -1 c 4 1 c 4 3 c 5 1 c 4 2 c 4 -3 c 5 0 c 4 -1 c 4 1 c 5 0 c 4 1 c 5 2 c
4 -1 c 4 -2 c 5 0 c 4 -1 c 4 0 c 5 1 c 4 2 c 5 1 c 4 2 c 4 -2 c 5 -1 c 4 1 c 4 2 c 5 4 c 4 19 c 5 158 c 4 388 c 4 430 c 5 205 c
4 -243 c 4 -430 c 5 -391 c 4 -125 c 5 -9 c 4 -2 c 4 -3 c 5 -2 c 4 -1 c 4 -1 c 5 1 c 4 2 c 4 -2 c 5 4 c 4 -3 c 5 0 c 4 -1 c 4 -2 c
5 -1 c 4 1 c 4 2 c 5 0 c 4 0 c 5 -3 c 4 1 c 4 0 c 5 0 c 4 0 c 4 2 c 5 1 c 4 -1 c 5 0 c 4 0 c 4 0 c 5 0 c 4 0 c 4 1 c 5 1 c 4 2 c
5 -2 c 4 1 c 4 -3 c 5 0 c 4 -1 c 4 2 c 5 -1 c 4 2 c 4 2 c 5 1 c 4 -1 c 5 -1 c 4 2 c 4 -2 c 5 0 c 4 -1 c 4 2 c 5 2 c 4 -1 c 5 4 c
4 -2 c 4 0 c 5 0 c 4 3 c 4 0 c 5 0 c 4 1 c 5 0 c 4 1 c 4 2 c 5 2 c 4 -1 c 4 3 c 5 -1 c 4 1 c 5 4 c 4 3 c 4 3 c 5 4 c 4 10 c 4 36 c
5 239 c 4 918 c 4 1829 c 5 1486 c 4 319 c 5 -1553 c 4 -1760 c 4 -1166 c 5 -306 c 4 -38 c 4 -9 c 5 -4 c 4 -2 c 5 5 c 4 13 c 4 10 c
5 1 c 4 -8 c 4 -16 c 5 -11 c 4 -6 c 5 -1 c 4 2 c 4 1 c 5 0 c 4 0 c 4 -3 c 5 -1 c 4 1 c 4 -1 c 5 -2 c 4 -1 c 5 1 c 4 2 c 4 2 c 5 1 c
4 -3 c 4 0 c 5 -1 c 4 -1 c 5 0 c 4 2 c 4 3 c 5 0 c 4 -1 c 4 3 c 5 7 c 4 19 c 5 13 c 4 -125 c 4 110 c 5 -16 c 4 -14 c 4 2 c 5 -3 c
4 1 c 5 1 c 4 0 c 4 -2 c 5 3 c 4 -2 c 4 -4 c 5 4 c 4 -2 c 4 1 c 5 0 c 4 8 c 5 13 c 4 24 c 4 15 c 5 -5 c 4 -18 c 4 -23 c 5 -10 c
4 0 c 5 -2 c 2 6155 c 1 -5917 5889 7019 l 4 -75 c 5 -10 c 4 -6 c 4 8 c 5 26 c 4 34 c 4 1 c 5 -31 c 4 -40 c 5 -25 c 4 -8 c 4 -4 c
5 -5 c 4 -3 c 4 -5 c 5 -3 c 4 -1 c 5 -3 c 4 1 c 4 4 c 5 -4 c 4 -3 c 4 -7 c 5 -3 c 4 -3 c 5 -2 c 4 -3 c 4 -4 c 5 1 c 4 -3 c 4 3 c
5 -1 c 4 5 c 5 5 c 4 -3 c 4 -3 c 5 -3 c 4 -3 c 4 -3 c 5 -3 c 4 -1 c 4 -2 c 5 -2 c 4 1 c 5 0 c 4 -3 c 4 -1 c 5 -1 c 4 -2 c 4 0 c
5 -2 c 4 1 c 5 0 c 4 -2 c 4 0 c 5 -5 c 4 -1 c 4 1 c 5 1 c 4 4 c 5 20 c 4 45 c 4 44 c 5 13 c 4 -41 c 4 -52 c 5 -30 c 4 -6 c 5 -1 c
4 -2 c 4 0 c 5 4 c 4 41 c 4 131 c 5 191 c 4 104 c 4 -38 c 5 -174 c 4 -168 c 5 -66 c 4 -21 c 4 -5 c 5 3 c 4 2 c 4 1 c 5 -4 c 4 -5 c
5 -5 c 4 -2 c 4 -1 c 5 0 c 4 1 c 4 -2 c 5 0 c 4 1 c 5 -1 c 4 -2 c 4 0 c 5 1 c 4 1 c 4 -1 c 5 -1 c 4 1 c 4 -1 c 5 0 c 4 -1 c 5 -2 c
4 1 c 4 -1 c 5 0 c 4 1 c 4 -1 c 5 -1 c 4 0 c 5 0 c 4 0 c 4 1 c 5 0 c 4 -1 c 4 -1 c 5 -1 c 4 2 c 5 -1 c 4 -2 c 4 0 c 5 1 c 4 -1 c
4 4 c 5 1 c 4 3 c 5 1 c 4 -5 c 4 -2 c 5 -2 c 4 -2 c 4 -1 c 5 -2 c 4 2 c 4 1 c 5 -1 c 4 0 c 5 -1 c 4 -1 c 4 3 c 5 0 c 4 2 c 4 7 c
5 9 c 4 14 c 5 8 c 4 -11 c 4 -14 c 5 -9 c 4 3 c 4 11 c 5 6 c 4 -2 c 5 -9 c 4 -9 c 4 -8 c 5 0 c 4 1 c 4 0 c 5 -1 c 4 0 c 5 3 c 4 -3 c
4 2 c 5 0 c 4 3 c 4 -2 c 5 -1 c 4 0 c 4 2 c 5 -1 c 4 3 c 5 -1 c 4 2 c 4 -1 c 5 4 c 4 1 c 4 0 c 5 0 c 4 -4 c 5 -1 c 4 2 c 4 1 c 5 4 c
4 3 c 4 0 c 5 -2 c 4 -1 c 5 1 c 4 2 c 4 0 c 5 3 c 4 0 c 4 1 c 5 -1 c 4 5 c 5 -3 c 4 -1 c 4 -2 c 5 -3 c 4 -2 c 4 0 c 5 -2 c 4 1 c
4 2 c 5 2 c 4 -2 c 5 1 c 4 -3 c 4 4 c 5 1 c 4 3 c 4 -1 c 5 -1 c 4 -4 c 5 -4 c 4 3 c 4 2 c 5 1 c 4 1 c 4 -3 c 5 -3 c 4 1 c 5 -1 c
4 1 c 4 1 c 5 -6 c 4 2 c 4 -2 c 5 0 c 4 -1 c 5 -1 c 4 1 c 4 3 c 5 -2 c 4 1 c 4 -1 c 5 -2 c 4 5 c 4 -1 c 5 1 c 4 2 c 5 2 c 4 1 c
4 2 c 5 1 c 4 9 c 4 10 c 5 21 c 4 14 c 5 7 c 4 -7 c 4 -14 c 5 -13 c 4 -11 c 4 -4 c 5 -4 c 4 1 c 5 -1 c 4 3 c 4 -1 c 5 -5 c 4 -2 c
4 0 c 5 0 c 4 0 c 4 2 c 5 1 c 4 0 c 5 1 c 4 -3 c 4 -4 c 5 2 c 4 1 c 4 0 c 5 3 c 4 -2 c 5 1 c 4 1 c 4 1 c 5 -1 c 4 -2 c 4 0 c 5 0 c
4 1 c 5 3 c 4 1 c 4 -3 c 5 1 c 4 -3 c 4 -2 c 5 1 c 4 4 c 5 -1 c 4 -1 c 4 -5 c 5 -2 c 4 1 c 4 0 c 5 2 c 4 0 c 4 -3 c 5 3 c 4 0 c
5 0 c 4 1 c 4 6 c 5 5 c 4 1 c 4 -6 c 5 -4 c 4 -2 c 5 -2 c 4 2 c 4 -1 c 5 2 c 4 -1 c 4 -1 c 5 1 c 4 1 c 5 -1 c 4 0 c 4 0 c 5 -1 c
4 3 c 4 1 c 5 3 c 4 10 c 5 0 c 4 -2 c 4 3 c 5 -4 c 4 0 c 4 -5 c 5 -1 c 4 1 c 4 -2 c 5 4 c 4 -4 c 5 5 c 4 0 c 4 -2 c 5 3 c 4 -4 c
4 2 c 5 3 c 4 0 c 5 3 c 4 -6 c 4 4 c 5 12 c 4 6 c 4 -1 c 5 -4 c 4 -7 c 5 -6 c 4 -1 c 4 -1 c 5 4 c 4 10 c 4 47 c 5 117 c 4 178 c
5 87 c 4 -86 c 4 -185 c 5 -129 c 4 -33 c 4 -2 c 5 1 c 4 -2 c 4 1 c 5 -3 c 4 0 c 5 -6 c 4 6 c 4 -2 c 5 1 c 4 0 c 4 -1 c 5 0 c 4 1 c
5 2 c 4 -2 c 4 -4 c 5 5 c 4 1 c 4 -2 c 5 1 c 4 -3 c 5 1 c 4 0 c 4 3 c 5 1 c 4 1 c 4 0 c 5 -1 c 4 2 c 5 3 c 4 1 c 4 -1 c 5 4 c 4 0 c
4 -5 c 5 1 c 4 5 c 4 -2 c 5 -1 c 4 2 c 5 -1 c 4 2 c 4 -1 c 5 -2 c 4 2 c 4 -2 c 5 3 c 4 3 c 5 -6 c 4 3 c 4 -2 c 5 2 c 4 -4 c 4 3 c
5 3 c 4 -2 c 5 5 c 4 -2 c 4 -3 c 5 6 c 4 3 c 4 1 c 5 5 c 4 -3 c 4 8 c 5 3 c 4 -3 c 5 5 c 4 2 c 4 -7 c 5 10 c 4 14 c 4 20 c 5 28 c
4 50 c 5 7 c 4 -27 c 4 -41 c 5 -38 c 4 -3 c 4 -3 c 5 -6 c 4 3 c 5 -10 c 4 0 c 4 -2 c 5 8 c 4 -7 c 4 7 c 5 -2 c 4 -2 c 5 -1 c 4 -1 c
4 0 c 5 -1 c 4 -4 c 4 4 c 5 -8 c 4 20 c 4 5 c 5 8 c 4 -2 c 5 3 c 4 -12 c 4 0 c 5 8 c 4 18 c 4 -4 c 5 -6 c 4 -8 c 5 1 c 4 -5 c 4 10 c
5 5 c 4 -4 c 4 -4 c 5 -7 c 4 2 c 5 0 c 4 -1 c 4 10 c 5 -2 c 4 7 c 4 0 c 5 16 c 4 43 c 5 4 c 4 -4 c 4 -37 c 5 -20 c 4 -1 c 4 -2 c
5 2 c 4 -1 c 4 5 c 5 0 c 4 1 c 5 8 c 4 2 c 4 -1 c 5 -3 c 4 4 c 4 1 c 5 1 c 4 4 c 5 4 c 4 -4 c 4 7 c 5 -4 c 4 10 c 4 25 c 5 32 c
4 -18 c 5 -27 c 4 -24 c 4 -9 c 5 3 c 4 -3 c 4 -14 c 5 7 c 4 -7 c 5 -4 c 4 2 c 4 4 c 5 18 c 4 -3 c 4 9 c 5 -24 c 4 -1 c 4 -16 c 5 3 c
4 -5 c 5 2 c 4 -5 c 4 1 c 5 -7 c 4 4 c 4 -7 c 5 2 c 4 3 c 5 -1 c 4 -6 c 4 8 c 5 -1 c 4 0 c 4 6 c 5 -2 c 4 6 c 5 3 c 4 9 c 4 -8 c
5 11 c 4 9 c 4 29 c 5 39 c 4 16 c 4 -29 c 5 -39 c 4 -23 c 5 -8 c 4 -4 c 4 0 c 5 -3 c 4 -5 c 4 1 c 5 -1 c 4 -2 c 5 1 c 4 9 c 4 -9 c
5 -1 c 4 0 c 4 -6 c 5 4 c 4 -6 c 5 1 c 4 4 c 4 1 c 5 -8 c 4 7 c 4 0 c 5 -10 c 4 3 c 5 15 c 4 22 c 4 13 c 5 -10 c 4 -19 c 4 -26 c
5 3 c 4 2 c 4 -2 c 5 0 c 4 2 c 5 -3 c 4 0 c 4 -2 c 5 -4 c 4 1 c 4 1 c 5 5 c 4 14 c 5 11 c 4 -4 c 4 -6 c 5 -5 c 4 -13 c 4 -4 c 5 8 c
4 -1 c 5 4 c 4 -2 c 4 5 c 5 5 c 4 2 c 4 -4 c 5 6 c 4 -9 c 5 7 c 4 -4 c 4 4 c 5 2 c 4 -4 c 4 3 c 5 8 c 4 0 c 4 0 c 5 2 c 4 -7 c 5 1 c
4 -1 c 4 -4 c 5 10 c 4 3 c 4 -1 c 5 -5 c 4 1 c 5 4 c 4 0 c 4 0 c 5 0 c 4 -14 c 4 4 c 5 9 c 4 -3 c 5 5 c 4 -3 c 4 -7 c 5 3 c 4 10 c
4 1 c 5 1 c 4 -9 c 5 10 c 4 3 c 4 10 c 5 -5 c 4 7 c 4 -6 c 5 1 c 4 9 c 4 -2 c 5 0 c 4 13 c 5 9 c 4 0 c 4 2 c 5 4 c 4 -16 c 4 9 c
5 -1 c 4 4 c 5 0 c 4 -5 c 4 -6 c 5 11 c 4 2 c 4 1 c 5 3 c 4 -2 c 5 4 c 4 -3 c 4 -7 c 5 -2 c 4 10 c 4 -6 c 5 -5 c 4 3 c 5 -2 c 4 -1 c
4 13 c 5 -1 c 4 23 c 4 7 c 5 16 c 4 16 c 4 17 c 5 50 c 4 20 c 5 -34 c 4 -79 c 4 -32 c 5 -17 c 4 8 c 4 -16 c 5 11 c 4 -8 c 5 -3 c
4 -3 c 4 1 c 5 6 c 4 -2 c 4 -12 c 5 10 c 4 -4 c 5 -6 c 4 11 c 4 -5 c 5 -2 c 4 3 c 4 5 c 5 -10 c 4 6 c 4 -11 c 5 3 c 4 11 c 5 0 c
4 -4 c 4 10 c 5 -4 c 4 1 c 4 -2 c 5 -4 c 4 66 c 5 153 c 4 101 c 4 -35 c 5 -139 c 4 -134 c 4 -10 c 5 3 c 4 -14 c 5 -6 c 4 1 c 4 11 c
5 -3 c 4 -1 c 4 25 c 5 153 c 4 249 c 5 75 c 4 -105 c 4 -260 c 5 -141 c 4 -4 c 4 -3 c 5 -1 c 4 -7 c 4 -16 c 5 0 c 4 -4 c 5 -4 c
4 -6 c 4 1 c 5 -7 c 4 1 c 4 -4 c 5 6 c 4 -3 c 5 -5 c 4 -2 c 4 -6 c 5 0 c 4 4 c 4 3 c 5 0 c 4 -7 c 5 0 c 4 1 c 4 -3 c 5 5 c 4 -3 c
4 1 c 5 -2 c 4 -6 c 5 1 c 4 1 c 4 2 c 5 -1 c 4 -1 c 4 -2 c 5 -1 c 4 0 c 4 1 c 5 -3 c 4 5 c 5 -3 c 4 2 c 4 1 c 5 0 c 4 4 c 4 -4 c
5 -2 c 4 2 c 5 1 c 4 3 c 4 0 c 5 4 c 4 -5 c 4 1 c 5 -3 c 4 4 c 5 4 c 4 5 c 4 3 c 5 1 c 4 0 c 4 -2 c
5 8 c 4 -4 c 5 8 c 4 3 c 4 -171 c 5 0 c 4 429 c 4 253 c 5 54 c 4 -160 c 4 -281 c 5 -91 c 4 -3 c 5 -1 c 4 3 c 4 8 c 5 4 c 4 10 c
4 11 c 5 11 c 4 11 c 5 7 c 4 1 c 4 5 c 5 5 c 4 10 c 4 5 c 5 1 c 4 12 c 5 11 c 4 11 c 4 18 c 5 20 c 4 16 c 4 5 c 5 2 c 4 11 c 5 18 c
4 22 c 4 15 c 5 23 c 4 14 c 4 19 c 5 16 c 4 9 c
0 -126 3303 418 l 54 0 3303 418 l 18 -6 c 6 -6 c 6 -12 c 0 -12 c -6 -12 c -6 -6 c -18 -6 c -54 0 c 42 -66 3345 358 l
-12 -6 3453 376 l -12 -12 c -6 -18 c 0 -12 c 6 -18 c 12 -12 c 12 -6 c 18 0 c 12 6 c 12 12 c 6 18 c 0 12 c -6 18 c -12 12 c -12 6 c
-18 0 c 24 -84 3537 376 l -24 -84 3585 376 l 24 -84 3585 376 l -24 -84 3633 376 l 108 0 3675 364 l 108 0 3675 328 l 0 6 3927 388 l
6 12 c 6 6 c 12 6 c 24 0 c 12 -6 c 6 -6 c 6 -12 c 0 -12 c -6 -12 c -12 -18 c -60 -60 c 84 0 c -18 -6 4077 418 l -12 -18 c -6 -30 c
0 -18 c 6 -30 c 12 -18 c 18 -6 c 12 0 c 18 6 c 12 18 c 6 30 c 0 18 c -6 30 c -12 18 c -18 6 c -12 0 c -12 -6 4287 376 l -12 -12 c
-6 -18 c 0 -12 c 6 -18 c 12 -12 c 12 -6 c 18 0 c 12 6 c 12 12 c 6 18 c 0 12 c -6 18 c -12 12 c -12 6 c -18 0 c -12 0 4413 418 l
-12 -6 c -6 -18 c 0 -102 c 42 0 4365 376 l 0 6 4545 388 l 6 12 c 6 6 c 12 6 c 24 0 c 12 -6 c 6 -6 c 6 -12 c 0 -12 c -6 -12 c
-12 -18 c -60 -60 c 84 0 c -18 -6 4695 418 l -12 -18 c -6 -30 c 0 -18 c 6 -30 c 12 -18 c 18 -6 c 12 0 c 18 6 c 12 18 c 6 30 c 0 18 c
-6 30 c -12 18 c -18 6 c -12 0 c 12 6 5181 394 l 18 18 c 0 -126 c -6 -6 5294 376 l 6 -6 c 6 6 c -6 6 c -6 -6 5294 304 l 6 -6 c 6 6 c
-6 6 c -48 -126 5474 418 l 48 -126 5474 418 l 60 0 5444 334 l 0 -84 5552 376 l 6 18 5552 340 l 12 12 c 12 6 c 18 0 c
-12 12 5696 358 l -12 6 c -18 0 c -12 -6 c -12 -12 c -6 -18 c 0 -12 c 6 -18 c 12 -12 c 12 -6 c 18 0 c 12 6 c 12 12 c
108 0 5738 346 l 12 6 5906 394 l 18 18 c 0 -126 c 66 0 6020 418 l -36 -48 c 18 0 c 12 -6 c 6 -6 c 6 -18 c 0 -12 c -6 -18 c -12 -12 c
-18 -6 c -18 0 c -18 6 c -6 6 c -6 12 c -60 -126 6212 418 l 84 0 6128 418 l -6 -6 6260 304 l 6 -6 c 6 6 c -6 6 c -12 0 6350 418 l
-12 -6 c -6 -18 c 0 -102 c 42 0 6302 376 l 6 -6 6380 418 l 6 6 c -6 6 c -6 -6 c 0 -84 6386 376 l 0 -102 6440 418 l 6 -18 c 12 -6 c
12 0 c 42 0 6422 376 l -6 12 6566 358 l -18 6 c -18 0 c -18 -6 c -6 -12 c 6 -12 c 12 -6 c 30 -6 c 12 -6 c 6 -12 c 0 -6 c -6 -12 c
-18 -6 c -18 0 c -18 6 c -6 12 c 0 -192 6896 442 l 0 -192 6902 442 l 42 0 6896 442 l 42 0 6896 250 l 0 6 6980 388 l 6 12 c 6 6 c
12 6 c 24 0 c 12 -6 c 6 -6 c 6 -12 c 0 -12 c -6 -12 c -12 -18 c -60 -60 c 84 0 c -6 -6 7106 376 l 6 -6 c 6 6 c -6 6 c
-6 -6 7106 304 l 6 -6 c 6 6 c -6 6 c 0 -192 7286 442 l 0 -192 7292 442 l 42 0 7250 442 l 42 0 7250 250 l
0 -249 1250 1676 l 79 -38 1207 1801 l 0 53 1207 1748 l 4 -11 1207 1842 l 7 -4 c 8 0 c 7 4 c 4 8 c 4 15 c 4 11 c 7 8 c 8 3 c 11 0 c
8 -3 c 3 -4 c 4 -11 c 0 -16 c -4 -11 c -3 -4 c -8 -3 c -11 0 c -8 3 c -7 8 c -4 11 c -4 15 c -4 8 c -7 4 c -8 0 c -7 -4 c -4 -11 c
0 -16 c 0 41 1207 1907 l 30 -22 c 0 11 c 4 8 c 4 3 c 11 4 c 7 0 c 12 -4 c 7 -7 c 4 -12 c 0 -11 c -4 -11 c -3 -4 c -8 -4 c
53 -38 1207 2013 l 0 56 c 79 0 1207 2013 l 3 -4 1279 2058 l 4 4 c -4 4 c -3 -4 c 53 -38 1207 2126 l 0 57 c 79 0 1207 2126 l
0 -38 1207 2209 l 34 -3 c -4 3 c -4 12 c 0 11 c 4 11 c 8 8 c 11 4 c 7 0 c 12 -4 c 7 -8 c 4 -11 c 0 -11 c -4 -12 c -3 -3 c -8 -4 c
4 -11 1207 2258 l 7 -4 c 8 0 c 7 4 c 4 7 c 4 16 c 4 11 c 7 7 c 8 4 c 11 0 c 8 -4 c 3 -3 c 4 -12 c 0 -15 c -4 -11 c -3 -4 c -8 -4 c
-11 0 c -8 4 c -7 8 c -4 11 c -4 15 c -4 8 c -7 3 c -8 0 c -7 -3 c -4 -12 c 0 -15 c 0 -250 1788 1847 l 79 -38 1745 1972 l
0 53 1745 1919 l 3 -11 1745 2013 l 8 -4 c 7 0 c 8 4 c 4 8 c 4 15 c 3 11 c 8 8 c 7 3 c 12 0 c 7 -3 c 4 -4 c 4 -12 c 0 -15 c -4 -11 c
-4 -4 c -7 -4 c -12 0 c -7 4 c -8 8 c -3 11 c -4 15 c -4 8 c -8 4 c -7 0 c -8 -4 c -3 -12 c 0 -15 c 52 -38 1745 2108 l 0 57 c
79 0 1745 2108 l -4 7 1760 2157 l -11 12 c 79 0 c 4 -4 1816 2229 l 4 4 c -4 4 c -4 -4 c 79 -38 1745 2312 l 0 53 1745 2259 l
11 -4 1771 2384 l 8 -8 c 4 -11 c 0 -4 c -4 -11 c -8 -8 c -11 -3 c -4 0 c -11 3 c -8 8 c -3 11 c 0 4 c 3 11 c 8 8 c 15 4 c 19 0 c
19 -4 c 11 -8 c 4 -11 c 0 -8 c -4 -11 c -7 -4 c -4 7 1760 2422 l -11 11 c 79 0 c 0 -250 2212 5542 l 79 -37 2169 5666 l
0 52 2169 5614 l 4 -11 2169 5708 l 7 -4 c 8 0 c 7 4 c 4 7 c 4 15 c 4 12 c 7 7 c 8 4 c 11 0 c 8 -4 c 3 -4 c 4 -11 c 0 -15 c -4 -11 c
-3 -4 c -8 -4 c -11 0 c -8 4 c -7 7 c -4 12 c -4 15 c -4 7 c -7 4 c -8 0 c -7 -4 c -4 -11 c 0 -15 c 53 -38 2169 5803 l 0 56 c
79 0 2169 5803 l 79 -38 2169 5893 l 0 53 2169 5840 l 3 -3 2241 5923 l 4 3 c -4 4 c -3 -4 c 0 -38 2169 5999 l 34 -4 c -4 4 c -4 12 c
0 11 c 4 11 c 8 8 c 11 4 c 8 0 c 11 -4 c 7 -8 c 4 -11 c 0 -11 c -4 -12 c -3 -4 c -8 -3 c 0 41 2169 6037 l 30 -22 c 0 11 c 4 8 c
4 3 c 11 4 c 8 0 c 11 -4 c 7 -7 c 4 -11 c 0 -12 c -4 -11 c -3 -4 c -8 -4 c 12 -4 2195 6154 l 7 -7 c 4 -12 c 0 -3 c -4 -12 c -7 -7 c
-12 -4 c -3 0 c -12 4 c -7 7 c -4 12 c 0 3 c 4 12 c 7 7 c 15 4 c 19 0 c 19 -4 c 11 -7 c 4 -12 c 0 -7 c -4 -12 c -7 -3 c
0 -249 3283 1636 l 80 -38 3239 1761 l 0 53 3239 1708 l 4 -11 3239 1802 l 8 -4 c 7 0 c 8 4 c 4 8 c 4 15 c 3 11 c 8 8 c 7 3 c 12 0 c
7 -3 c 4 -4 c 4 -12 c 0 -15 c -4 -11 c -4 -4 c -7 -4 c -12 0 c -7 4 c -8 8 c -3 11 c -4 15 c -4 8 c -8 4 c -7 0 c -8 -4 c -4 -12 c
0 -15 c -8 -4 3251 1908 l -4 -11 c 0 -7 c 4 -12 c 12 -7 c 19 -4 c 18 0 c 16 4 c 7 7 c 4 12 c 0 3 c -4 12 c -7 7 c -12 4 c -4 0 c
-11 -4 c -7 -7 c -4 -12 c 0 -3 c 4 -12 c 7 -7 c 11 -4 c -4 8 3255 1946 l -12 11 c 80 0 c 4 -4 3311 2018 l 4 4 c -4 4 c -4 -4 c
11 -4 3266 2097 l 8 -7 c 4 -11 c 0 -4 c -4 -12 c -8 -7 c -11 -4 c -4 0 c -11 4 c -8 7 c -4 12 c 0 4 c 4 11 c 8 7 c 15 4 c 19 0 c
19 -4 c 11 -7 c 4 -11 c 0 -8 c -4 -11 c -7 -4 c -4 8 3255 2135 l -12 11 c 80 0 c 4 -11 3239 2222 l 12 -8 c 19 -4 c 11 0 c 19 4 c
11 8 c 4 11 c 0 7 c -4 12 c -11 7 c -19 4 c -11 0 c -19 -4 c -12 -7 c -4 -12 c 0 -7 c 0 -250 3441 1422 l 79 -37 3398 1546 l
0 53 3398 1493 l 3 -11 3398 1588 l 8 -4 c 7 0 c 8 4 c 4 7 c 4 15 c 3 12 c 8 7 c 7 4 c 12 0 c 7 -4 c 4 -4 c 4 -11 c 0 -15 c -4 -11 c
-4 -4 c -7 -4 c -12 0 c -7 4 c -8 7 c -3 12 c -4 15 c -4 7 c -8 4 c -7 0 c -8 -4 c -3 -11 c 0 -15 c -8 -4 3409 1694 l -3 -11 c
0 -8 c 3 -11 c 12 -8 c 19 -4 c 18 0 c 16 4 c 7 8 c 4 11 c 0 4 c -4 11 c -7 8 c -12 4 c -4 0 c -11 -4 c -7 -8 c -4 -11 c 0 -4 c
4 -11 c 7 -8 c 11 -4 c 52 -38 3398 1758 l 0 57 c 79 0 3398 1758 l 4 -3 3469 1803 l 4 3 c -4 4 c -4 -4 c 3 -11 3398 1856 l 12 -8 c
19 -3 c 11 0 c 19 3 c 11 8 c 4 11 c 0 8 c -4 11 c -11 8 c -19 3 c -11 0 c -19 -3 c -12 -8 c -3 -11 c 0 -8 c -3 0 3416 1913 l -8 4 c
-4 4 c -3 7 c 0 15 c 3 8 c 4 4 c 8 3 c 7 0 c 8 -3 c 11 -8 c 38 -38 c 0 53 c -3 0 3416 1989 l -8 3 c -4 4 c -3 8 c 0 15 c 3 7 c 4 4 c
8 4 c 7 0 c 8 -4 c 11 -7 c 38 -38 c 0 53 c 0 -249 3588 2031 l 80 -38 3544 2156 l 0 53 3544 2103 l 4 -12 3544 2198 l 8 -3 c 7 0 c
8 3 c 4 8 c 3 15 c 4 11 c 8 8 c 7 4 c 12 0 c 7 -4 c 4 -4 c 4 -11 c 0 -15 c -4 -12 c -4 -3 c -7 -4 c -12 0 c -7 4 c -8 7 c -4 11 c
-3 16 c -4 7 c -8 4 c -7 0 c -8 -4 c -4 -11 c 0 -15 c -8 -4 3556 2304 l -4 -12 c 0 -7 c 4 -11 c 11 -8 c 19 -4 c 19 0 c 15 4 c 8 8 c
4 11 c 0 4 c -4 11 c -8 8 c -11 3 c -4 0 c -11 -3 c -8 -8 c -3 -11 c 0 -4 c 3 -11 c 8 -8 c 11 -4 c 0 -37 3544 2375 l 34 -4 c -3 4 c
-4 11 c 0 11 c 4 12 c 7 7 c 11 4 c 8 0 c 11 -4 c 8 -7 c 4 -12 c 0 -11 c -4 -11 c -4 -4 c -7 -4 c 4 -4 3616 2413 l 4 4 c -4 4 c
-4 -4 c 11 -4 3571 2493 l 8 -8 c 3 -11 c 0 -4 c -3 -11 c -8 -8 c -11 -4 c -4 0 c -11 4 c -8 8 c -4 11 c 0 4 c 4 11 c 8 8 c 15 4 c
19 0 c 19 -4 c 11 -8 c 4 -11 c 0 -8 c -4 -11 c -8 -4 c 80 -38 3544 2572 l 0 53 3544 2519 l 4 -11 3544 2617 l 11 -8 c 19 -3 c 12 0 c
19 3 c 11 8 c 4 11 c 0 8 c -4 11 c -11 8 c -19 3 c -12 0 c -19 -3 c -11 -8 c -4 -11 c 0 -8 c 0 -250 3756 2140 l 79 -38 3713 2265 l
0 53 3713 2212 l 3 -11 3713 2306 l 8 -4 c 8 0 c 7 4 c 4 7 c 4 15 c 3 12 c 8 7 c 8 4 c 11 0 c 7 -4 c 4 -3 c 4 -12 c 0 -15 c -4 -11 c
-4 -4 c -7 -4 c -11 0 c -8 4 c -8 8 c -3 11 c -4 15 c -4 8 c -7 3 c -8 0 c -8 -3 c -3 -12 c 0 -15 c -8 -4 3724 2412 l -3 -11 c
0 -8 c 3 -11 c 12 -8 c 19 -3 c 19 0 c 15 3 c 7 8 c 4 11 c 0 4 c -4 11 c -7 8 c -12 4 c -3 0 c -12 -4 c -7 -8 c -4 -11 c 0 -4 c
4 -11 c 7 -8 c 12 -3 c 3 -11 3713 2457 l 8 -4 c 8 0 c 7 4 c 4 8 c 4 15 c 3 11 c 8 8 c 8 3 c 11 0 c 7 -3 c 4 -4 c 4 -12 c 0 -15 c
-4 -11 c -4 -4 c -7 -4 c -11 0 c -8 4 c -8 8 c -3 11 c -4 15 c -4 8 c -7 4 c -8 0 c -8 -4 c -3 -12 c 0 -15 c 4 -4 3784 2522 l 4 4 c
-4 3 c -4 -3 c -4 8 3728 2563 l -11 11 c 79 0 c 11 -4 3739 2677 l 8 -8 c 4 -11 c 0 -4 c -4 -11 c -8 -8 c -11 -4 c -4 0 c -11 4 c
-8 8 c -3 11 c 0 4 c 3 11 c 8 8 c 15 4 c 19 0 c 19 -4 c 11 -8 c 4 -11 c 0 -8 c -4 -11 c -7 -4 c 0 -37 3713 2748 l 34 -4 c -4 4 c
-4 11 c 0 11 c 4 12 c 7 7 c 12 4 c 7 0 c 12 -4 c 7 -7 c 4 -12 c 0 -11 c -4 -11 c -4 -4 c -7 -4 c 0 -250 4091 1369 l
79 -37 4048 1493 l 0 53 4048 1440 l 3 -11 4048 1535 l 8 -4 c 8 0 c 7 4 c 4 7 c 4 15 c 3 12 c 8 7 c 8 4 c 11 0 c 7 -4 c 4 -4 c
4 -11 c 0 -15 c -4 -11 c -4 -4 c -7 -4 c -11 0 c -8 4 c -8 7 c -3 12 c -4 15 c -4 7 c -7 4 c -8 0 c -8 -4 c -3 -11 c 0 -15 c
79 -38 4048 1645 l 0 53 4048 1592 l -4 0 4067 1671 l -8 4 c -4 4 c -3 7 c 0 15 c 3 8 c 4 4 c 8 3 c 7 0 c 8 -3 c 11 -8 c 38 -38 c
0 53 c 4 -3 4119 1750 l 4 3 c -4 4 c -4 -4 c -8 -4 4059 1830 l -3 -11 c 0 -8 c 3 -11 c 12 -8 c 19 -4 c 19 0 c 15 4 c 7 8 c 4 11 c
0 4 c -4 11 c -7 8 c -12 3 c -3 0 c -12 -3 c -7 -8 c -4 -11 c 0 -4 c 4 -11 c 7 -8 c 12 -4 c 0 41 4048 1864 l 30 -22 c 0 11 c 4 8 c
3 3 c 12 4 c 7 0 c 12 -4 c 7 -7 c 4 -12 c 0 -11 c -4 -11 c -4 -4 c -7 -4 c -4 0 4067 1936 l -8 3 c -4 4 c -3 8 c 0 15 c 3 7 c 4 4 c
8 4 c 7 0 c 8 -4 c 11 -7 c 38 -38 c 0 53 c 0 -249 4306 1389 l 79 -38 4263 1514 l 0 53 4263 1461 l 3 -12 4263 1556 l 8 -3 c 8 0 c
7 3 c 4 8 c 4 15 c 3 11 c 8 8 c 8 4 c 11 0 c 7 -4 c 4 -4 c 4 -11 c 0 -15 c -4 -12 c -4 -3 c -7 -4 c -11 0 c -8 4 c -8 7 c -3 11 c
-4 16 c -4 7 c -7 4 c -8 0 c -8 -4 c -3 -11 c 0 -15 c 79 -38 4263 1665 l 0 53 4263 1612 l 0 -38 4263 1733 l 34 -3 c -4 3 c -4 12 c
0 11 c 4 12 c 7 7 c 12 4 c 7 0 c 12 -4 c 7 -7 c 4 -12 c 0 -11 c -4 -12 c -4 -3 c -7 -4 c 4 -4 4334 1771 l 4 4 c -4 4 c -4 -4 c
53 -38 4263 1839 l 0 57 c 79 0 4263 1839 l -8 -4 4274 1926 l -3 -11 c 0 -8 c 3 -11 c 12 -8 c 19 -3 c 19 0 c 15 3 c 7 8 c 4 11 c
0 4 c -4 11 c -7 8 c -12 4 c -3 0 c -12 -4 c -7 -8 c -4 -11 c 0 -4 c 4 -11 c 7 -8 c 12 -3 c 0 42 4263 1960 l 30 -23 c 0 11 c 4 8 c
3 4 c 12 3 c 7 0 c 12 -3 c 7 -8 c 4 -11 c 0 -12 c -4 -11 c -4 -4 c -7 -4 c 0 -249 4429 1425 l 80 -38 4385 1550 l 0 53 4385 1497 l
4 -12 4385 1592 l 8 -4 c 7 0 c 8 4 c 4 8 c 3 15 c 4 11 c 8 8 c 7 4 c 12 0 c 7 -4 c 4 -4 c 4 -11 c 0 -15 c -4 -12 c -4 -4 c -7 -3 c
-12 0 c -7 3 c -8 8 c -4 11 c -3 15 c -4 8 c -8 4 c -7 0 c -8 -4 c -4 -11 c 0 -15 c 80 -38 4385 1701 l 0 53 4385 1648 l
80 -38 4385 1777 l 0 53 4385 1724 l 4 -4 4457 1807 l 4 4 c -4 4 c -4 -4 c 4 -11 4385 1860 l 11 -8 c 19 -4 c 12 0 c 19 4 c 11 8 c
4 11 c 0 7 c -4 12 c -11 7 c -19 4 c -12 0 c -19 -4 c -11 -7 c -4 -12 c 0 -7 c 80 -38 4385 1966 l 0 53 4385 1913 l -8 -3 4397 2037 l
-4 -12 c 0 -7 c 4 -12 c 11 -7 c 19 -4 c 19 0 c 15 4 c 8 7 c 4 12 c 0 4 c -4 11 c -8 7 c -11 4 c -4 0 c -11 -4 c -8 -7 c -3 -11 c
0 -4 c 3 -12 c 8 -7 c 11 -4 c 0 -250 5133 2490 l 79 -38 5090 2615 l 0 53 5090 2562 l 4 -11 5090 2656 l 7 -4 c 8 0 c 7 4 c 4 7 c
4 16 c 4 11 c 7 7 c 8 4 c 11 0 c 8 -4 c 3 -3 c 4 -12 c 0 -15 c -4 -11 c -3 -4 c -8 -4 c -11 0 c -8 4 c -7 8 c -4 11 c -4 15 c -4 8 c
-7 3 c -8 0 c -7 -3 c -4 -12 c 0 -15 c 4 -12 5090 2732 l 7 -3 c 8 0 c 7 3 c 4 8 c 4 15 c 4 11 c 7 8 c 8 4 c 11 0 c 8 -4 c 3 -4 c
4 -11 c 0 -15 c -4 -12 c -3 -3 c -8 -4 c -11 0 c -8 4 c -7 7 c -4 12 c -4 15 c -4 7 c -7 4 c -8 0 c -7 -4 c -4 -11 c 0 -15 c
-7 -4 5101 2838 l -4 -12 c 0 -7 c 4 -11 c 11 -8 c 19 -4 c 19 0 c 15 4 c 7 8 c 4 11 c 0 4 c -4 11 c -7 8 c -11 3 c -4 0 c -12 -3 c
-7 -8 c -4 -11 c 0 -4 c 4 -11 c 7 -8 c 12 -4 c 3 -4 5162 2872 l 4 4 c -4 3 c -3 -3 c -4 0 5109 2906 l -8 3 c -3 4 c -4 8 c 0 15 c
4 7 c 3 4 c 8 4 c 8 0 c 7 -4 c 11 -7 c 38 -38 c 0 53 c 4 -11 5090 2996 l 7 -4 c 8 0 c 7 4 c 4 8 c 4 15 c 4 11 c 7 8 c 8 3 c 11 0 c
8 -3 c 3 -4 c 4 -12 c 0 -15 c -4 -11 c -3 -4 c -8 -4 c -11 0 c -8 4 c -7 8 c -4 11 c -4 15 c -4 8 c -7 4 c -8 0 c -7 -4 c -4 -12 c
0 -15 c 0 41 5090 3061 l 30 -23 c 0 12 c 4 7 c 4 4 c 11 4 c 8 0 c 11 -4 c 7 -7 c 4 -12 c 0 -11 c -4 -11 c -3 -4 c -8 -4 c
0 -249 5503 6153 l 79 -38 5460 6278 l 0 53 5460 6225 l 4 -11 5460 6319 l 7 -4 c 8 0 c 7 4 c 4 8 c 4 15 c 4 11 c 7 8 c 8 3 c 11 0 c
8 -3 c 3 -4 c 4 -11 c 0 -16 c -4 -11 c -3 -4 c -8 -4 c -11 0 c -8 4 c -7 8 c -4 11 c -4 15 c -4 8 c -7 4 c -8 0 c -7 -4 c -4 -11 c
0 -16 c 12 -4 5486 6425 l 7 -7 c 4 -11 c 0 -4 c -4 -12 c -7 -7 c -12 -4 c -3 0 c -12 4 c -7 7 c -4 12 c 0 4 c 4 11 c 7 7 c 15 4 c
19 0 c 19 -4 c 11 -7 c 4 -11 c 0 -8 c -4 -11 c -7 -4 c -4 8 5475 6463 l -11 11 c 79 0 c 3 -4 5532 6535 l 4 4 c -4 4 c -3 -4 c
4 -12 5460 6588 l 11 -7 c 19 -4 c 11 0 c 19 4 c 11 7 c 4 12 c 0 7 c -4 12 c -11 7 c -19 4 c -11 0 c -19 -4 c -11 -7 c -4 -12 c
0 -7 c 79 -38 5460 6694 l 0 53 5460 6641 l 0 -38 5460 6762 l 34 -4 c -4 4 c -4 11 c 0 11 c 4 12 c 8 7 c 11 4 c 8 0 c 11 -4 c 7 -7 c
4 -12 c 0 -11 c -4 -11 c -3 -4 c -8 -4 c 0 -249 6223 1804 l 80 -38 6179 1929 l 0 53 6179 1876 l 11 -4 6206 2001 l 8 -8 c 4 -11 c
0 -4 c -4 -11 c -8 -8 c -11 -3 c -4 0 c -11 3 c -8 8 c -4 11 c 0 4 c 4 11 c 8 8 c 15 4 c 19 0 c 19 -4 c 11 -8 c 4 -11 c 0 -7 c
-4 -12 c -8 -4 c 4 -11 6179 2050 l 12 -8 c 18 -4 c 12 0 c 19 4 c 11 8 c 4 11 c 0 7 c -4 12 c -11 7 c -19 4 c -12 0 c -18 -4 c
-12 -7 c -4 -12 c 0 -7 c 4 -12 6179 2126 l 12 -7 c 18 -4 c 12 0 c 19 4 c 11 7 c 4 12 c 0 7 c -4 11 c -11 8 c -19 4 c -12 0 c
-18 -4 c -12 -8 c -4 -11 c 0 -7 c 4 -4 6251 2186 l 4 4 c -4 4 c -4 -4 c 0 41 6179 2224 l 31 -22 c 0 11 c 3 8 c 4 3 c 12 4 c 7 0 c
11 -4 c 8 -7 c 4 -12 c 0 -11 c -4 -11 c -4 -4 c -7 -4 c -3 0 6198 2296 l -8 3 c -4 4 c -4 8 c 0 15 c 4 7 c 4 4 c 8 4 c 7 0 c 8 -4 c
11 -7 c 38 -38 c 0 53 c 4 -11 6179 2390 l 12 -8 c 18 -4 c 12 0 c 19 4 c 11 8 c 4 11 c 0 8 c -4 11 c -11 8 c -19 3 c -12 0 c -18 -3 c
-12 -8 c -4 -11 c 0 -8 c 0 -249 7498 1781 l 79 -38 7455 1906 l 0 53 7455 1853 l 12 -4 7481 1978 l 7 -7 c 4 -12 c 0 -4 c -4 -11 c
-7 -7 c -12 -4 c -4 0 c -11 4 c -7 7 c -4 11 c 0 4 c 4 12 c 7 7 c 15 4 c 19 0 c 19 -4 c 11 -7 c 4 -12 c 0 -7 c -4 -12 c -7 -3 c
-4 7 7470 2016 l -11 12 c 79 0 c -7 -4 7466 2129 l -4 -11 c 0 -8 c 4 -11 c 11 -7 c 19 -4 c 19 0 c 15 4 c 7 7 c 4 11 c 0 4 c -4 12 c
-7 7 c -11 4 c -4 0 c -12 -4 c -7 -7 c -4 -12 c 0 -4 c 4 -11 c 7 -7 c 12 -4 c 3 -4 7527 2163 l 4 4 c -4 4 c -3 -4 c
53 -38 7455 2231 l 0 57 c 79 0 7455 2231 l 53 -38 7455 2307 l 0 57 c 79 0 7455 2307 l -4 0 7474 2348 l -8 4 c -3 4 c -4 7 c 0 16 c
4 7 c 3 4 c 8 4 c 7 0 c 8 -4 c 11 -8 c 38 -37 c 0 52 c 0 -249 8185 1505 l 79 -38 8142 1630 l 0 53 8142 1577 l 12 -4 8168 1702 l
7 -8 c 4 -11 c 0 -4 c -4 -11 c -7 -8 c -12 -3 c -3 0 c -12 3 c -7 8 c -4 11 c 0 4 c 4 11 c 7 8 c 15 4 c 19 0 c 19 -4 c 11 -8 c
4 -11 c 0 -8 c -4 -11 c -7 -4 c -4 0 8161 1732 l -8 4 c -3 4 c -4 7 c 0 15 c 4 8 c 3 4 c 8 3 c 8 0 c 7 -3 c 11 -8 c 38 -38 c 0 53 c
53 -38 8142 1842 l 0 56 c 79 0 8142 1842 l 3 -4 8214 1887 l 4 4 c -4 4 c -3 -4 c 12 -3 8168 1966 l 7 -8 c 4 -11 c 0 -4 c -4 -11 c
-7 -8 c -12 -4 c -3 0 c -12 4 c -7 8 c -4 11 c 0 4 c 4 11 c 7 8 c 15 3 c 19 0 c 19 -3 c 11 -8 c 4 -11 c 0 -8 c -4 -11 c -7 -4 c
12 -4 8168 2042 l 7 -7 c 4 -12 c 0 -4 c -4 -11 c -7 -7 c -12 -4 c -3 0 c -12 4 c -7 7 c -4 11 c 0 4 c 4 12 c 7 7 c 15 4 c 19 0 c
19 -4 c 11 -7 c 4 -12 c 0 -7 c -4 -12 c -7 -3 c -4 7 8157 2080 l -11 12 c 79 0 c
showpage PGPLOT restore
 
%%Trailer
%%DocumentFonts: 
%%Pages: 1
%%EOF
