%!PS-Adobe-3.0 EPSF-3.0
%%For: tab
%%Title: PGPLOT PostScript plot
%%Creator: PGPLOT
%%CreationDate: 20-Apr-1995 17:01
%%BoundingBox: 25 18 587 774
%%DocumentFonts: (atend)
%%LanguageLevel: 1
%%Orientation: Landscape
%%Pages: (atend)
%%EndComments
%%BeginProlog
/l {moveto rlineto currentpoint stroke moveto} bind def
/c {rlineto currentpoint stroke moveto} bind def
/d {moveto 0 0 rlineto currentpoint stroke moveto} bind def
/SLW {5 mul setlinewidth} bind def
/SCF /pop load def
/BP {newpath moveto} bind def
/LP /rlineto load def
/EP {rlineto closepath eofill} bind def
/MB {gsave translate MFAC dup scale 1 setlinewidth 2 setlinecap 0 setlinejoin newpath} bind def
/ME /grestore load def
/C {0 360 arc stroke} bind def
/FC {0 360 arc fill} bind def
%%EndProlog
 
%%Page: 1 1
%%BeginPageSetup
/PGPLOT save def
0.072 0.072 scale
8150 250 translate 90 rotate
1 setlinejoin 1 setlinecap 1 SLW 1 SCF
%%EndPageSetup
0.000 setgray 1 SLW 8939 0 780 780 l 0 6239 c -8939 0 c 0 -6239 c 0 -45 1116 780 l 0 -45 1554 780 l 0 -45 1991 780 l
0 -45 2428 780 l 0 -90 2865 780 l 0 -45 3302 780 l 0 -45 3739 780 l 0 -45 4176 780 l 0 -45 4613 780 l 0 -90 5051 780 l
0 -45 5488 780 l 0 -45 5925 780 l 0 -45 6362 780 l 0 -45 6799 780 l 0 -90 7236 780 l 0 -45 7673 780 l 0 -45 8110 780 l
0 -45 8548 780 l 0 -45 8985 780 l 0 -90 9422 780 l 0 -45 1116 7064 l 0 -45 1554 7064 l 0 -45 1991 7064 l 0 -45 2428 7064 l
0 -90 2865 7109 l 0 -45 3302 7064 l 0 -45 3739 7064 l 0 -45 4176 7064 l 0 -45 4613 7064 l 0 -90 5051 7109 l 0 -45 5488 7064 l
0 -45 5925 7064 l 0 -45 6362 7064 l 0 -45 6799 7064 l 0 -90 7236 7109 l 0 -45 7673 7064 l 0 -45 8110 7064 l 0 -45 8548 7064 l
0 -45 8985 7064 l 0 -90 9422 7109 l -60 0 2775 672 l -6 -54 c 6 6 c 18 6 c 18 0 c 18 -6 c 12 -12 c 6 -18 c 0 -12 c -6 -18 c
-12 -12 c -18 -6 c -18 0 c -18 6 c -6 6 c -6 12 c -18 -6 2859 672 l -12 -18 c -6 -30 c 0 -18 c 6 -30 c 12 -18 c 18 -6 c 12 0 c
18 6 c 12 18 c 6 30 c 0 18 c -6 30 c -12 18 c -18 6 c -12 0 c -18 -6 2979 672 l -12 -18 c -6 -30 c 0 -18 c 6 -30 c 12 -18 c 18 -6 c
12 0 c 18 6 c 12 18 c 6 30 c 0 18 c -6 30 c -12 18 c -18 6 c -12 0 c 12 6 4847 648 l 18 18 c 0 -126 c -18 -6 4985 672 l -12 -18 c
-6 -30 c 0 -18 c 6 -30 c 12 -18 c 18 -6 c 12 0 c 18 6 c 12 18 c 6 30 c 0 18 c -6 30 c -12 18 c -18 6 c -12 0 c -18 -6 5105 672 l
-12 -18 c -6 -30 c 0 -18 c 6 -30 c 12 -18 c 18 -6 c 12 0 c 18 6 c 12 18 c 6 30 c 0 18 c -6 30 c -12 18 c -18 6 c -12 0 c
-18 -6 5225 672 l -12 -18 c -6 -30 c 0 -18 c 6 -30 c 12 -18 c 18 -6 c 12 0 c 18 6 c 12 18 c 6 30 c 0 18 c -6 30 c -12 18 c -18 6 c
-12 0 c 12 6 7032 648 l 18 18 c 0 -126 c -60 0 7206 672 l -6 -54 c 6 6 c 18 6 c 18 0 c 18 -6 c 12 -12 c 6 -18 c 0 -12 c -6 -18 c
-12 -12 c -18 -6 c -18 0 c -18 6 c -6 6 c -6 12 c -18 -6 7290 672 l -12 -18 c -6 -30 c 0 -18 c 6 -30 c 12 -18 c 18 -6 c 12 0 c
18 6 c 12 18 c 6 30 c 0 18 c -6 30 c -12 18 c -18 6 c -12 0 c -18 -6 7410 672 l -12 -18 c -6 -30 c 0 -18 c 6 -30 c 12 -18 c 18 -6 c
12 0 c 18 6 c 12 18 c 6 30 c 0 18 c -6 30 c -12 18 c -18 6 c -12 0 c 0 6 9206 642 l 6 12 c 6 6 c 12 6 c 24 0 c 12 -6 c 6 -6 c
6 -12 c 0 -12 c -6 -12 c -12 -18 c -60 -60 c 84 0 c -18 -6 9356 672 l -12 -18 c -6 -30 c 0 -18 c 6 -30 c 12 -18 c 18 -6 c 12 0 c
18 6 c 12 18 c 6 30 c 0 18 c -6 30 c -12 18 c -18 6 c -12 0 c -18 -6 9476 672 l -12 -18 c -6 -30 c 0 -18 c 6 -30 c 12 -18 c 18 -6 c
12 0 c 18 6 c 12 18 c 6 30 c 0 18 c -6 30 c -12 18 c -18 6 c -12 0 c -18 -6 9596 672 l -12 -18 c -6 -30 c 0 -18 c 6 -30 c 12 -18 c
18 -6 c 12 0 c 18 6 c 12 18 c 6 30 c 0 18 c -6 30 c -12 18 c -18 6 c -12 0 c -90 0 780 796 l -45 0 780 1068 l -45 0 780 1339 l
-45 0 780 1611 l -45 0 780 1883 l -90 0 780 2154 l -45 0 780 2426 l -45 0 780 2698 l -45 0 780 2969 l -45 0 780 3241 l
-90 0 780 3513 l -45 0 780 3784 l -45 0 780 4056 l -45 0 780 4328 l -45 0 780 4599 l -90 0 780 4871 l -45 0 780 5143 l
-45 0 780 5414 l -45 0 780 5686 l -45 0 780 5958 l -90 0 780 6229 l -45 0 780 6501 l -45 0 780 6773 l -90 0 9809 796 l
-45 0 9764 1068 l -45 0 9764 1339 l -45 0 9764 1611 l -45 0 9764 1883 l -90 0 9809 2154 l -45 0 9764 2426 l -45 0 9764 2698 l
-45 0 9764 2969 l -45 0 9764 3241 l -90 0 9809 3513 l -45 0 9764 3784 l -45 0 9764 4056 l -45 0 9764 4328 l -45 0 9764 4599 l
-90 0 9809 4871 l -45 0 9764 5143 l -45 0 9764 5414 l -45 0 9764 5686 l -45 0 9764 5958 l -90 0 9809 6229 l -45 0 9764 6501 l
-45 0 9764 6773 l 6 -18 517 790 l 18 -12 c 30 -6 c 18 0 c 30 6 c 18 12 c 6 18 c 0 12 c -6 18 c -18 12 c -30 6 c -18 0 c -30 -6 c
-18 -12 c -6 -18 c 0 -12 c 0 -60 517 2004 l 54 -6 c -6 6 c -6 18 c 0 18 c 6 18 c 12 12 c 18 6 c 12 0 c 18 -6 c 12 -12 c 6 -18 c
0 -18 c -6 -18 c -6 -6 c -12 -6 c 6 -18 517 2088 l 18 -12 c 30 -6 c 18 0 c 30 6 c 18 12 c 6 18 c 0 12 c -6 18 c -18 12 c -30 6 c
-18 0 c -30 -6 c -18 -12 c -6 -18 c 0 -12 c 6 -18 517 2208 l 18 -12 c 30 -6 c 18 0 c 30 6 c 18 12 c 6 18 c 0 12 c -6 18 c -18 12 c
-30 6 c -18 0 c -30 -6 c -18 -12 c -6 -18 c 0 -12 c 6 -18 517 2328 l 18 -12 c 30 -6 c 18 0 c 30 6 c 18 12 c 6 18 c 0 12 c -6 18 c
-18 12 c -30 6 c -18 0 c -30 -6 c -18 -12 c -6 -18 c 0 -12 c -6 12 541 3393 l -18 18 c 126 0 c 6 -18 517 3531 l 18 -12 c 30 -6 c
18 0 c 30 6 c 18 12 c 6 18 c 0 12 c -6 18 c -18 12 c -30 6 c -18 0 c -30 -6 c -18 -12 c -6 -18 c 0 -12 c 63 -45 453 3655 l 0 68 c
94 0 453 3655 l -6 12 541 4535 l -18 18 c 126 0 c 6 -6 631 4649 l 6 6 c -6 6 c -6 -6 c 0 -60 517 4769 l 54 -6 c -6 6 c -6 18 c
0 18 c 6 18 c 12 12 c 18 6 c 12 0 c 18 -6 c 12 -12 c 6 -18 c 0 -18 c -6 -18 c -6 -6 c -12 -6 c 84 84 547 4823 l 84 -84 547 4907 l
-6 12 541 4967 l -18 18 c 126 0 c 6 -18 517 5105 l 18 -12 c 30 -6 c 18 0 c 30 6 c 18 12 c 6 18 c 0 12 c -6 18 c -18 12 c -30 6 c
-18 0 c -30 -6 c -18 -12 c -6 -18 c 0 -12 c 63 -45 453 5229 l 0 68 c 94 0 453 5229 l -6 0 547 5971 l -12 6 c -6 6 c -6 12 c 0 24 c
6 12 c 6 6 c 12 6 c 12 0 c 12 -6 c 18 -12 c 60 -60 c 0 84 c 84 84 547 6091 l 84 -84 547 6175 l -6 12 541 6235 l -18 18 c 126 0 c
6 -18 517 6373 l 18 -12 c 30 -6 c 18 0 c 30 6 c 18 12 c 6 18 c 0 12 c -6 18 c -18 12 c -30 6 c -18 0 c -30 -6 c -18 -12 c -6 -18 c
0 -12 c 63 -45 453 6498 l 0 67 c 94 0 453 6498 l
4 -5 780 856 l 5 2 c 4 1 c 4 0 c 5 -2 c 4 0 c 4 0 c 5 0 c 4 0 c 5 1 c 4 -1 c 4 1 c 5 -2 c 4 3 c 4 -1 c 5 -3 c 4 1 c 5 2 c 4 -1 c
4 2 c 5 -2 c 4 -4 c 4 3 c 5 -1 c 4 2 c 5 -3 c 4 -1 c 4 0 c 5 0 c 4 -1 c 4 1 c 5 1 c 4 -1 c 5 0 c 4 1 c 4 -2 c 5 1 c 4 1 c 4 -1 c
5 -1 c 4 0 c 4 2 c 5 -1 c 4 1 c 5 -1 c 4 1 c 4 -2 c 5 1 c 4 -1 c 4 0 c 5 3 c 4 9 c 5 22 c 4 14 c 4 -6 c 5 -18 c 4 -15 c 4 -7 c
5 -1 c 4 -1 c 5 -1 c 4 -2 c 4 0 c 5 1 c 4 0 c 4 0 c 5 1 c 4 -1 c 5 -2 c 4 0 c 4 0 c 5 -2 c 4 1 c 4 -2 c 5 1 c 4 1 c 4 2 c 5 5 c
4 4 c 5 2 c 4 -7 c 4 -5 c 5 -2 c 4 -45 c 4 0 c 5 45 c 4 -1 c 5 0 c 4 0 c 4 0 c 5 -1 c 4 1 c 4 0 c 5 -1 c 4 0 c 5 1 c 4 1 c 4 5 c
5 14 c 4 7 c 4 -4 c 5 -15 c 4 -6 c 5 -3 c 4 -1 c 4 -1 c 5 0 c 4 2 c 4 -1 c 5 -1 c 4 1 c 4 1 c 5 -2 c 4 1 c 5 0 c 4 -3 c 4 1 c 5 1 c
4 1 c 4 -1 c 5 0 c 4 0 c 5 -1 c 4 0 c 4 -1 c 5 1 c 4 0 c 4 1 c 5 0 c 4 1 c 5 0 c 4 0 c 4 -2 c 5 1 c 4 1 c 4 0 c 5 1 c 4 -2 c 5 -1 c
4 -1 c 4 0 c 5 0 c 4 0 c 4 1 c 5 -1 c 4 0 c 4 2 c 5 2 c 4 2 c 5 2 c 4 11 c 4 40 c 5 99 c 4 78 c 4 -23 c 5 -98 c 4 -68 c 5 -27 c
4 -11 c 4 -3 c 5 -2 c 4 -1 c 4 0 c 5 0 c 4 -2 c 5 -1 c 4 -1 c 4 0 c 5 -1 c 4 1 c 4 1 c 5 1 c 4 6 c 4 15 c 5 22 c 4 4 c 5 -16 c
4 -20 c 4 -9 c 5 -4 c 4 -2 c 4 0 c 5 1 c 4 -1 c 5 1 c 4 -1 c 4 0 c 5 0 c 4 0 c 4 -1 c 5 0 c 4 0 c 5 0 c 4 1 c 4 0 c 5 7 c 4 4 c
4 4 c 5 -7 c 4 -6 c 5 -3 c 4 0 c 4 1 c 5 -1 c 4 -1 c 4 0 c 5 1 c 4 -1 c 4 0 c 5 -1 c 4 0 c 5 0 c 4 0 c 4 0 c 5 0 c 4 0 c 4 0 c 5 1 c
4 -1 c 5 1 c 4 0 c 4 -1 c 5 0 c 4 1 c 4 -1 c 5 0 c 4 0 c 5 0 c 4 0 c 4 1 c 5 0 c 4 -1 c 4 3 c 5 11 c 4 34 c 5 33 c 4 4 c 4 -41 c
5 -27 c 4 -13 c 4 -2 c 5 -1 c 4 0 c 4 1 c 5 0 c 4 -1 c 5 0 c 4 -2 c 4 -1 c 5 1 c 4 0 c 4 0 c 5 0 c 4 1 c 5 2 c 4 2 c 4 -1 c 5 0 c
4 -1 c 4 -2 c 5 0 c 4 -1 c 5 2 c 4 -1 c 4 4 c 5 5 c 4 5 c 4 -3 c 5 -3 c 4 -4 c 5 -4 c 4 0 c 4 -1 c 5 0 c 4 1 c 4 2 c 5 2 c 4 1 c
4 -1 c 5 -3 c 4 -1 c 5 -1 c 1 6191 c 2 -5457 2028 7019 l 4 -694 c 5 -13 c 4 -6 c 5 -3 c 4 -1 c 4 -1 c 5 0 c 4 -1 c 4 0 c 5 1 c 4 0 c
5 0 c 4 -2 c 4 -2 c 5 -1 c 4 0 c 4 0 c 5 0 c 4 -1 c 5 0 c 4 1 c 4 2 c 5 3 c 4 4 c 4 0 c 5 -3 c 4 -5 c 4 -3 c 5 0 c 4 -1 c 5 0 c
4 -1 c 4 0 c 5 0 c 4 0 c 4 -1 c 5 0 c 4 0 c 5 1 c 4 0 c 4 -1 c 5 0 c 4 0 c 4 0 c 5 0 c 4 0 c 5 -1 c 4 0 c 4 1 c 5 -1 c 4 0 c 4 -1 c
5 2 c 4 6 c 4 13 c 5 8 c 4 -4 c 5 -13 c 4 -8 c 4 -2 c 5 -1 c 4 -1 c 4 -1 c 5 0 c 4 -1 c 5 1 c 4 -1 c 4 0 c 5 1 c 4 0 c 4 0 c 5 0 c
4 1 c 5 -1 c 4 0 c 4 -1 c 5 0 c 4 0 c 4 1 c 5 -1 c 4 0 c 5 -1 c 4 0 c 4 0 c 5 1 c 4 0 c 4 0 c 5 -1 c 4 1 c 4 2 c 5 0 c 4 3 c 5 -1 c
4 -2 c 4 -1 c 5 -1 c 4 6 c 4 10 c 5 6 c 4 -4 c 5 -9 c 4 -7 c 4 -3 c 5 -2 c 4 1 c 4 0 c 5 -1 c 4 1 c 5 0 c 4 0 c 4 -1 c 5 1 c 4 1 c
4 0 c 5 2 c 4 1 c 5 -1 c 4 -2 c 4 -1 c 5 0 c 4 1 c 4 -1 c 5 0 c 4 0 c 4 -1 c 5 2 c 4 0 c 5 0 c 4 1 c 4 -1 c 5 -1 c 4 2 c 4 -1 c
5 -1 c 4 1 c 5 1 c 4 1 c 4 -1 c 5 0 c 4 -1 c 4 -1 c 5 0 c 4 1 c 5 -2 c 4 1 c 4 0 c 5 -1 c 4 1 c 4 -2 c 5 1 c 4 0 c 5 -1 c 4 0 c
4 1 c 5 1 c 4 -1 c 4 0 c 5 0 c 4 1 c 4 1 c 5 1 c 4 3 c 5 2 c 4 2 c 4 -3 c 5 -3 c 4 -4 c 4 0 c 5 0 c 4 0 c 5 -1 c 4 1 c 4 0 c 5 1 c
4 0 c 4 0 c 5 -1 c 4 0 c 5 0 c 4 2 c 4 -1 c 5 0 c 4 -1 c 4 0 c 5 -1 c 4 1 c 5 1 c 4 -1 c 4 1 c 5 0 c 4 2 c 4 0 c 5 2 c 4 1 c 4 -3 c
5 -1 c 4 -3 c 3 6193 c 2 -6074 2929 7019 l 4 -40 c 4 -8 c 5 -5 c 4 0 c 4 -3 c 5 1 c 4 0 c 5 0 c 4 -4 c 4 -2 c 5 0 c 4 3 c 4 9 c
5 1 c 4 -7 c 4 -6 c 5 1 c 4 17 c 5 18 c 4 4 c 4 -20 c 5 -18 c 4 -13 c 4 -2 c 5 1 c 4 -3 c 5 3 c 4 0 c 4 0 c 5 -3 c 4 -4 c 4 -1 c
5 -2 c 4 0 c 5 -2 c 4 1 c 4 -1 c 5 -1 c 4 0 c 4 0 c 5 -1 c 4 0 c 5 0 c 4 -1 c 4 -1 c 5 0 c 4 -1 c 4 1 c 5 -1 c 4 1 c 4 -1 c 5 0 c
4 -1 c 5 -2 c 4 0 c 4 0 c 5 0 c 4 0 c 4 -1 c 5 0 c 4 -1 c 5 0 c 4 2 c 4 2 c 5 0 c 4 -2 c 4 1 c 5 2 c 4 13 c 5 29 c 4 37 c 4 18 c
5 -18 c 4 -32 c 4 -29 c 5 -13 c 4 -8 c 5 -2 c 4 -1 c 4 -2 c 5 -1 c 4 0 c 4 -1 c 5 -1 c 4 1 c 4 -1 c 5 0 c 4 0 c 5 0 c 4 -1 c 4 2 c
5 -1 c 4 -1 c 4 1 c 5 -1 c 4 0 c 5 4 c 4 6 c 4 6 c 5 -4 c 4 -4 c 4 -5 c 5 -4 c 4 0 c 5 2 c 4 0 c 4 -2 c 5 -1 c 4 -1 c 4 1 c 5 0 c
4 -1 c 5 -1 c 4 1 c 4 -1 c 5 1 c 4 0 c 4 0 c 5 -1 c 4 1 c 4 0 c 5 -2 c 4 0 c 5 1 c 4 0 c 4 0 c 5 0 c 4 0 c 4 -1 c 5 0 c 4 0 c 5 0 c
4 0 c 4 0 c 5 1 c 4 1 c 4 1 c 5 1 c 4 1 c 5 -1 c 4 -2 c 4 2 c 5 9 c 4 7 c 4 4 c 5 -8 c 4 -10 c 4 -5 c 5 -2 c 4 0 c 5 0 c 4 0 c
4 -1 c 5 1 c 4 0 c 4 -1 c 5 0 c 4 1 c 5 0 c 4 -1 c 4 0 c 5 0 c 4 -1 c 4 1 c 5 -1 c 4 0 c 5 3 c 4 -1 c 4 0 c 5 2 c 4 0 c 4 1 c 5 0 c
4 -1 c 5 -2 c 4 -1 c 4 -1 c 5 0 c 4 2 c 4 1 c 5 -1 c 4 0 c 4 -1 c 5 -1 c 4 0 c 5 0 c 4 0 c 4 1 c 5 -1 c 4 0 c 4 -1 c 5 0 c 4 0 c
5 0 c 4 -1 c 4 1 c 5 0 c 4 0 c 4 1 c 5 1 c 4 -1 c 5 0 c 4 -2 c 4 1 c 5 0 c 4 1 c 4 0 c 5 -1 c 4 0 c 5 0 c 4 -1 c 4 1 c 5 1 c 4 0 c
4 0 c 5 0 c 4 -1 c 4 0 c 5 1 c 4 -1 c 5 0 c 4 -1 c 4 0 c 5 0 c 4 0 c 4 -1 c 5 1 c 4 0 c 5 0 c 4 0 c 4 0 c 5 0 c 4 0 c 4 1 c 5 -1 c
4 2 c 5 10 c 4 17 c 4 16 c 5 2 c 4 -17 c 4 -16 c 5 -11 c 4 -2 c 5 -1 c 4 0 c 4 -1 c 5 0 c 4 0 c 4 1 c 5 0 c 4 0 c 4 1 c 5 -2 c 4 1 c
5 -1 c 4 -1 c 4 0 c 5 0 c 4 1 c 4 -1 c 5 -1 c 4 0 c 5 1 c 4 0 c 4 0 c 5 0 c 4 2 c 4 -1 c 5 3 c 4 -1 c 5 0 c 4 -1 c 4 -2 c 5 0 c
4 -1 c 4 1 c 5 0 c 4 -1 c 5 1 c 4 -1 c 4 1 c 5 1 c 4 1 c 4 0 c 5 0 c 4 0 c 4 -2 c 5 0 c 4 0 c 5 0 c 4 -1 c 4 1 c 5 0 c 4 0 c 4 0 c
5 1 c 4 -1 c 5 0 c 4 0 c 4 -1 c 5 -1 c 4 0 c 4 1 c 5 0 c 4 1 c 5 0 c 4 0 c 4 -2 c 5 1 c 4 -1 c 4 1 c 5 0 c 4 0 c 4 0 c 5 -1 c 4 0 c
5 0 c 4 1 c 4 -2 c 5 2 c 4 0 c 4 0 c 5 0 c 4 0 c 5 0 c 4 -1 c 4 0 c 5 1 c 4 0 c 4 0 c 5 -1 c 4 2 c 5 -2 c 4 2 c 4 0 c 5 -1 c 4 -1 c
4 0 c 5 0 c 4 1 c 5 0 c 4 0 c 4 2 c 5 0 c 4 1 c 4 -4 c 5 3 c 4 2 c 4 1 c 5 0 c 4 -2 c 5 -3 c 4 0 c 4 1 c 5 0 c 4 3 c 4 5 c 5 31 c
4 86 c 5 91 c 4 44 c 4 -83 c 5 -94 c 4 -65 c 4 -14 c 5 -2 c 4 -2 c 5 0 c 4 -1 c 4 -1 c 5 0 c 4 0 c 4 -1 c 5 2 c 4 -1 c 5 1 c 4 -1 c
4 0 c 5 0 c 4 -2 c 4 0 c 5 0 c 4 1 c 4 0 c 5 0 c 4 -1 c 5 1 c 4 -1 c 4 0 c 5 -1 c 4 1 c 4 0 c 5 0 c 4 0 c 5 -1 c 4 0 c 4 1 c 5 0 c
4 0 c 4 0 c 5 -1 c 4 1 c 5 -2 c 4 1 c 4 0 c 5 1 c 4 -1 c 4 1 c 5 1 c 4 -1 c 5 1 c 4 0 c 4 -2 c 5 0 c 4 1 c 4 0 c 5 -1 c 4 0 c 4 0 c
5 0 c 4 0 c 5 0 c 4 -1 c 4 1 c 5 0 c 4 1 c 4 0 c 5 -1 c 4 1 c 5 0 c 4 -1 c 4 2 c 5 -1 c 4 1 c 4 -1 c 5 -1 c 4 1 c 5 0 c 4 -1 c 4 1 c
5 0 c 4 0 c 4 -1 c 5 1 c 4 0 c 5 -1 c 4 1 c 4 -1 c 5 0 c 4 1 c 4 1 c 5 3 c 4 2 c 4 1 c 5 0 c 4 -2 c 5 -2 c 4 -2 c 4 0 c 5 0 c 4 0 c
4 3 c 5 0 c 4 -1 c 5 3 c 4 1 c 4 3 c 5 11 c 4 64 c 4 172 c 5 181 c 4 77 c 5 -151 c 4 -200 c 4 -125 c 5 -25 c 4 -7 c 4 -3 c 5 0 c
4 -1 c 4 0 c 5 1 c 4 -1 c 5 0 c 4 -2 c 4 0 c 5 -1 c 4 0 c 4 0 c 5 0 c 4 1 c 5 -1 c 4 0 c 4 -2 c 5 1 c 4 -1 c 4 0 c 5 1 c 4 -2 c
5 1 c 4 1 c 4 1 c 5 2 c 4 13 c 4 60 c 5 111 c 4 76 c 5 -12 c 4 -106 c 4 -99 c 5 -38 c 4 -6 c 4 -2 c 5 -2 c 4 1 c 4 -1 c 5 0 c 4 -1 c
5 0 c 4 0 c 4 -1 c 5 1 c 4 0 c 4 0 c 5 1 c 4 0 c 5 1 c 4 -1 c 4 1 c 5 -1 c 4 -1 c 4 0 c 5 0 c 4 0 c 5 -1 c 4 0 c 4 -1 c 5 1 c 4 0 c
4 0 c 5 0 c 4 0 c 5 0 c 4 0 c 4 1 c 5 0 c 4 0 c 4 0 c 5 -1 c 4 0 c 4 1 c 5 0 c 4 -1 c 5 1 c 4 0 c 4 -1 c 5 1 c 4 0 c 4 0 c 5 0 c
4 0 c 5 0 c 4 1 c 4 0 c 5 1 c 4 2 c 4 2 c 5 2 c 4 -1 c 5 -2 c 4 0 c 4 3 c 5 10 c 4 43 c 4 115 c 5 116 c 4 38 c 5 -107 c 4 -130 c
4 -66 c 5 -18 c 4 -4 c 4 -1 c 5 0 c 4 -1 c 4 1 c 5 2 c 4 3 c 5 1 c 4 -3 c 4 -2 c 5 -3 c 4 -1 c 4 -1 c 5 1 c 4 0 c 5 0 c 4 -1 c 4 2 c
5 0 c 4 1 c 4 0 c 5 0 c 4 1 c 5 1 c 4 9 c 4 18 c 5 17 c 4 4 c 4 -17 c 5 -16 c 4 -3 c 4 8 c 5 12 c 4 9 c 5 -3 c 4 -8 c 4 -9 c 5 -7 c
4 -4 c 4 -2 c 5 0 c 4 2 c 5 3 c 4 3 c 4 -1 c 5 -2 c 4 -6 c 4 -2 c 5 -1 c 4 0 c 5 0 c 4 -36 c 4 36 c 5 0 c 4 0 c 4 3 c 5 0 c 4 -1 c
5 1 c 4 1 c 4 0 c 5 1 c 4 0 c 4 2 c 5 0 c 4 1 c 4 1 c 5 2 c 4 0 c 5 2 c 4 2 c 4 2 c 5 2 c 4 6 c 4 15 c 5 15 c 4 9 c 5 -4 c 4 -10 c
4 -4 c 5 11 c 4 27 c 4 49 c 5 130 c 4 742 c 5 2081 c 4 2130 c 4 690 c 5 -2141 c 4 -2335 c 4 -1084 c 5 -207 c 4 -57 c 5 -21 c 4 -16 c
4 -7 c 5 -7 c 4 -2 c 4 -4 c 5 -2 c 4 -2 c 4 -2 c 5 -2 c 4 -1 c 5 -1 c 4 2 c 4 4 c 5 13 c 4 13 c 4 1 c 5 -11 c 4 -15 c 5 -11 c 4 -3 c
4 -2 c 5 -1 c 4 0 c 4 -1 c 5 -1 c 4 1 c 5 0 c 4 7 c 4 29 c 5 56 c 4 38 c 4 -27 c 5 -56 c 4 -39 c 5 -10 c 4 -2 c 4 -1 c 5 -1 c 4 0 c
4 -1 c 5 -1 c 4 -1 c 4 2 c 5 1 c 1 6189 c 2 -6068 6106 7019 l 5 -34 c 4 6 c 5 34 c 4 62 c 4 51 c 5 -10 c 4 -70 c 4 -65 c 5 -32 c
4 -8 c 5 -2 c 4 -1 c 4 -1 c 5 -4 c 4 -3 c 4 -2 c 5 1 c 4 -2 c 5 1 c 4 -4 c 4 -2 c 5 0 c 4 -1 c 4 0 c 5 -1 c 4 -3 c 4 -1 c 5 1 c
4 -3 c 5 4 c 4 -7 c 4 0 c 5 2 c 4 -2 c 4 0 c 5 -1 c 4 -1 c 5 1 c 4 -1 c 4 0 c 5 -2 c 4 -1 c 4 0 c 5 1 c 4 0 c 5 0 c 4 -4 c 4 2 c
5 -1 c 4 -2 c 4 -1 c 5 2 c 4 -1 c 4 3 c 5 0 c 4 0 c 5 1 c 4 -5 c 4 0 c 5 -1 c 4 -1 c 4 1 c 5 0 c 4 0 c 5 -2 c 4 1 c 4 1 c 5 -3 c
4 0 c 4 0 c 5 1 c 4 0 c 5 1 c 4 1 c 4 -1 c 5 -2 c 4 -1 c 4 1 c 5 -1 c 4 -1 c 5 0 c 4 -1 c 4 1 c 5 -1 c 4 2 c 4 -2 c 5 1 c 4 1 c
4 -2 c 5 0 c 4 0 c 5 2 c 4 -1 c 4 1 c 5 0 c 4 0 c 4 -2 c 5 1 c 4 -1 c 5 -1 c 4 1 c 4 0 c 5 -1 c 4 1 c 4 -1 c 5 -2 c 4 1 c 5 1 c
4 -3 c 4 1 c 5 -1 c 4 1 c 4 0 c 5 0 c 4 0 c 5 -1 c 4 1 c 4 0 c 5 -1 c 4 1 c 4 -1 c 5 0 c 4 0 c 4 -1 c 5 -1 c 4 2 c 5 0 c 4 -1 c
4 0 c 5 0 c 4 1 c 4 2 c 5 3 c 4 0 c 5 -1 c 4 -3 c 4 -1 c 5 0 c 4 -2 c 4 0 c 5 -1 c 4 2 c 5 0 c 4 0 c 4 5 c 5 8 c 4 6 c 4 -4 c 5 -7 c
4 -8 c 5 0 c 4 0 c 4 -1 c 5 -1 c 4 -1 c 4 0 c 5 0 c 4 2 c 4 2 c 5 2 c 4 0 c 5 3 c 4 10 c 4 12 c 5 4 c 4 -12 c 4 -14 c 5 -6 c 4 1 c
5 3 c 4 -1 c 4 -2 c 5 -4 c 4 0 c 4 -2 c 5 0 c 4 0 c 5 1 c 4 0 c 4 0 c 5 0 c 4 -1 c 4 -1 c 5 1 c 4 1 c 5 -1 c 4 3 c 4 0 c 5 0 c 4 0 c
4 -2 c 5 -1 c 4 1 c 4 -1 c 5 1 c 4 -2 c 5 1 c 4 1 c 4 0 c 5 -1 c 4 0 c 4 1 c 5 0 c 4 1 c 5 0 c 4 1 c 4 -2 c 5 1 c 4 -1 c 4 1 c 5 1 c
4 -1 c 5 2 c 4 -1 c 4 1 c 5 -1 c 4 1 c 4 -1 c 5 0 c 4 1 c 4 -1 c 5 0 c 4 1 c 5 -1 c 4 0 c 4 0 c 5 1 c 4 0 c 4 0 c 5 0 c 4 0 c 5 -1 c
4 -1 c 4 1 c 5 -2 c 4 2 c 4 0 c 5 0 c 4 0 c 5 4 c 4 10 c 4 14 c 5 2 c 4 -11 c 4 -14 c 5 -5 c 4 -1 c 5 -1 c 4 1 c 4 1 c 5 1 c 4 -2 c
4 0 c 5 1 c 4 -2 c 4 1 c 5 1 c 4 0 c 5 0 c 4 3 c 4 5 c 5 6 c 4 16 c 4 39 c 5 58 c 4 14 c 5 -40 c 4 -56 c 4 -32 c 5 -7 c 4 -3 c 4 1 c
5 -3 c 4 -1 c 5 1 c 4 3 c 4 17 c 5 39 c 4 41 c 4 -9 c 5 -46 c 4 -37 c 5 -8 c 4 -1 c 4 0 c 5 -2 c 4 1 c 4 -1 c 5 0 c 4 3 c 4 5 c
5 14 c 4 11 c 5 2 c 4 -12 c 4 -13 c 5 -7 c 4 0 c 4 -1 c 5 -1 c 4 0 c 5 0 c 4 0 c 4 -1 c 5 1 c 4 0 c 4 0 c 5 0 c 4 -1 c 5 0 c 4 0 c
4 0 c 5 0 c 4 -1 c 4 -1 c 5 0 c 4 1 c 5 0 c 4 0 c 4 0 c 5 0 c 4 -2 c 4 0 c 5 0 c 4 0 c 4 1 c 5 0 c 4 1 c 5 0 c 4 1 c 4 3 c 5 6 c
4 0 c 4 -4 c 5 -4 c 4 -1 c 5 6 c 4 18 c 4 25 c 5 5 c 4 -16 c 4 -28 c 5 -8 c 4 -3 c 5 2 c 4 -4 c 4 0 c 5 0 c 4 -2 c 4 2 c 5 0 c 4 1 c
5 0 c 4 0 c 4 1 c 5 1 c 4 -1 c 4 -1 c 5 1 c 4 -1 c 4 0 c 5 0 c 4 0 c 5 -1 c 4 1 c 4 -1 c 5 1 c 4 -1 c 4 0 c 5 2 c 4 1 c 5 0 c 4 3 c
4 0 c 5 -1 c 4 -1 c 4 -3 c 5 0 c 4 1 c 5 0 c 4 0 c 4 0 c 5 -1 c 4 2 c 4 3 c 5 2 c 4 0 c 4 -1 c 5 0 c 4 4 c 5 8 c 4 3 c 4 8 c 5 13 c
4 19 c 4 -1 c 5 -18 c 4 -23 c 5 -10 c 4 -1 c 4 -1 c 5 -2 c 4 -1 c 4 -1 c 5 -1 c 4 -1 c 5 -1 c 4 1 c 4 -1 c 5 2 c 4 2 c 4 10 c 5 27 c
4 32 c 5 -1 c 4 -30 c 4 -33 c 5 -8 c 4 0 c 4 1 c 5 1 c 4 3 c 4 8 c 5 23 c 4 42 c 5 49 c 4 -5 c 4 -58 c 5 -96 c 4 0 c 4 0 c 5 0 c
4 0 c 5 0 c 4 0 c 4 0 c 5 0 c 4 0 c 4 0 c 5 0 c 4 0 c 5 0 c 4 0 c 4 0 c 5 0 c 4 0 c 4 0 c 5 0 c 4 0 c 5 0 c 4 0 c 4 0 c 5 0 c 4 0 c
4 0 c 5 0 c 4 0 c 4 0 c 5 0 c 4 0 c 5 0 c 4 0 c 4 0 c 5 0 c 4 0 c 4 0 c 5 0 c 4 0 c 5 0 c 4 0 c 4 0 c 5 0 c 4 0 c 4 0 c 5 0 c 4 0 c
5 0 c 4 0 c 4 0 c 5 0 c 4 0 c 4 0 c 5 0 c 4 0 c 5 0 c 4 0 c 4 0 c 5 0 c 4 0 c 4 0 c 5 0 c 4 0 c 4 0 c 5 0 c 4 0 c 5 0 c 4 0 c 4 0 c
5 0 c 4 0 c 4 0 c 5 0 c 4 0 c 5 0 c 4 0 c 4 0 c 5 0 c 4 0 c 4 0 c 5 0 c 4 0 c 5 0 c 4 0 c 4 0 c 5 0 c 4 0 c 4 0 c 5 0 c 4 0 c 4 0 c
5 0 c 4 0 c 5 0 c 4 0 c 4 0 c 5 0 c 4 0 c 4 0 c 5 0 c 4 0 c 5 0 c 4 0 c 4 0 c 5 0 c 4 0 c 4 0 c 5 0 c 4 0 c 5 0 c 4 0 c 4 0 c 5 0 c
4 0 c 4 0 c 5 0 c 4 0 c 5 0 c 4 0 c 4 0 c 5 0 c 4 0 c 4 0 c 5 0 c 4 0 c 4 0 c 5 0 c 4 0 c 5 0 c 4 0 c 4 0 c 5 0 c 4 0 c 4 0 c 5 0 c
4 0 c 5 0 c 4 0 c 4 0 c 5 0 c 4 0 c 4 0 c 5 0 c 4 0 c 5 0 c 4 0 c 4 0 c 5 0 c 4 0 c 4 0 c 5 0 c 4 0 c 5 0 c 4 0 c 4 0 c 5 0 c 4 0 c
4 0 c 5 0 c 4 0 c 4 0 c 5 0 c 4 0 c 5 0 c 4 0 c 4 0 c 5 0 c 4 0 c 4 0 c 5 0 c 4 0 c 5 0 c 4 0 c 4 0 c 5 0 c 4 0 c 4 0 c 5 0 c 4 0 c
5 0 c 4 0 c 4 0 c 5 0 c 4 0 c 4 0 c 5 0 c 4 0 c 5 0 c 4 0 c 4 0 c 5 0 c 4 0 c 4 0 c 5 0 c 4 0 c 4 0 c 5 0 c 4 0 c 5 0 c 4 0 c 4 0 c
5 0 c 4 0 c 4 0 c 5 0 c 4 0 c 5 0 c 4 0 c 4 0 c 5 0 c 4 0 c 4 0 c 5 0 c 4 0 c 5 0 c 4 0 c 4 0 c 5 0 c 4 0 c 4 0 c 5 0 c 4 0 c 5 0 c
4 0 c 4 0 c 5 0 c 4 0 c 4 0 c 5 0 c 4 0 c 4 0 c 5 0 c 4 0 c 5 0 c 4 0 c 4 0 c 5 0 c 4 0 c 4 0 c 5 0 c 4 0 c 5 0 c 4 0 c 4 0 c 5 0 c
4 0 c 4 0 c 5 0 c 4 0 c 5 0 c 4 0 c 4 0 c 5 0 c 4 0 c 4 0 c 5 0 c 4 0 c 4 0 c 5 0 c 4 0 c 5 0 c 4 0 c 4 0 c 5 0 c 4 0 c 4 0 c 5 0 c
4 0 c 5 0 c 4 0 c 4 0 c 5 0 c 4 0 c 4 0 c 5 0 c 4 0 c 5 0 c 4 0 c 4 0 c 5 0 c 4 0 c 4 0 c 5 0 c 4 0 c 5 0 c 4 0 c 4 0 c 5 0 c 4 0 c
4 0 c 5 0 c 4 0 c 4 0 c 5 0 c 4 0 c 5 0 c 4 0 c 4 0 c 5 0 c 4 0 c 4 0 c 5 0 c 4 0 c 5 0 c 4 0 c 4 0 c 5 0 c 4 0 c 4 0 c 5 0 c 4 0 c
5 0 c 4 0 c 4 0 c 5 0 c 4 0 c 4 0 c 5 0 c 4 0 c 5 0 c 4 0 c 4 0 c 5 0 c 4 0 c 4 0 c 5 0 c 4 0 c 4 0 c 5 0 c 4 0 c 5 0 c 4 0 c 4 0 c
5 0 c 4 0 c 4 0 c 5 0 c 4 0 c 5 0 c 4 0 c 4 0 c 5 0 c 4 0 c 4 0 c 5 0 c 4 0 c 5 0 c 4 0 c 4 0 c 5 0 c 4 0 c 4 0 c
5 0 c 4 0 c 5 0 c 4 0 c 4 0 c 5 0 c 4 0 c 4 0 c 5 0 c 4 0 c 4 0 c 5 0 c 4 0 c 5 0 c 4 0 c 4 0 c 5 0 c 4 0 c 4 0 c 5 0 c 4 0 c 5 0 c
4 0 c 4 0 c 5 0 c 4 0 c 4 0 c 5 0 c 4 0 c 5 0 c 4 0 c 4 0 c 5 0 c 4 0 c 4 0 c 5 0 c 4 0 c 5 0 c 4 0 c 4 0 c 5 0 c 4 0 c 4 0 c 5 0 c
4 0 c
0 -126 3303 418 l 54 0 3303 418 l 18 -6 c 6 -6 c 6 -12 c 0 -12 c -6 -12 c -6 -6 c -18 -6 c -54 0 c 42 -66 3345 358 l
-12 -6 3453 376 l -12 -12 c -6 -18 c 0 -12 c 6 -18 c 12 -12 c 12 -6 c 18 0 c 12 6 c 12 12 c 6 18 c 0 12 c -6 18 c -12 12 c -12 6 c
-18 0 c 24 -84 3537 376 l -24 -84 3585 376 l 24 -84 3585 376 l -24 -84 3633 376 l 108 0 3675 364 l 108 0 3675 328 l 12 6 3939 394 l
18 18 c 0 -126 c -60 0 4113 418 l -6 -54 c 6 6 c 18 6 c 18 0 c 18 -6 c 12 -12 c 6 -18 c 0 -12 c -6 -18 c -12 -12 c -18 -6 c -18 0 c
-18 6 c -6 6 c -6 12 c -12 -6 4287 376 l -12 -12 c -6 -18 c 0 -12 c 6 -18 c 12 -12 c 12 -6 c 18 0 c 12 6 c 12 12 c 6 18 c 0 12 c
-6 18 c -12 12 c -12 6 c -18 0 c -12 0 4413 418 l -12 -6 c -6 -18 c 0 -102 c 42 0 4365 376 l 12 6 4557 394 l 18 18 c 0 -126 c
-60 0 4731 418 l -6 -54 c 6 6 c 18 6 c 18 0 c 18 -6 c 12 -12 c 6 -18 c 0 -12 c -6 -18 c -12 -12 c -18 -6 c -18 0 c -18 6 c -6 6 c
-6 12 c 12 6 5181 394 l 18 18 c 0 -126 c -6 -6 5294 376 l 6 -6 c 6 6 c -6 6 c -6 -6 5294 304 l 6 -6 c 6 6 c -6 6 c
-48 -126 5474 418 l 48 -126 5474 418 l 60 0 5444 334 l 0 -84 5552 376 l 6 18 5552 340 l 12 12 c 12 6 c 18 0 c -12 12 5696 358 l
-12 6 c -18 0 c -12 -6 c -12 -12 c -6 -18 c 0 -12 c 6 -18 c 12 -12 c 12 -6 c 18 0 c 12 6 c 12 12 c 108 0 5738 346 l
-18 -6 5924 418 l -12 -18 c -6 -30 c 0 -18 c 6 -30 c 12 -18 c 18 -6 c 12 0 c 18 6 c 12 18 c 6 30 c 0 18 c -6 30 c -12 18 c -18 6 c
-12 0 c -60 -126 6092 418 l 84 0 6008 418 l 0 6 6134 388 l 6 12 c 6 6 c 12 6 c 24 0 c 12 -6 c 6 -6 c 6 -12 c 0 -12 c -6 -12 c
-12 -18 c -60 -60 c 84 0 c -6 -6 6260 304 l 6 -6 c 6 6 c -6 6 c -12 0 6350 418 l -12 -6 c -6 -18 c 0 -102 c 42 0 6302 376 l
6 -6 6380 418 l 6 6 c -6 6 c -6 -6 c 0 -84 6386 376 l 0 -102 6440 418 l 6 -18 c 12 -6 c 12 0 c 42 0 6422 376 l -6 12 6566 358 l
-18 6 c -18 0 c -18 -6 c -6 -12 c 6 -12 c 12 -6 c 30 -6 c 12 -6 c 6 -12 c 0 -6 c -6 -12 c -18 -6 c -18 0 c -18 6 c -6 12 c
0 -192 6896 442 l 0 -192 6902 442 l 42 0 6896 442 l 42 0 6896 250 l 0 6 6980 388 l 6 12 c 6 6 c 12 6 c 24 0 c 12 -6 c 6 -6 c 6 -12 c
0 -12 c -6 -12 c -12 -18 c -60 -60 c 84 0 c -6 -6 7106 376 l 6 -6 c 6 6 c -6 6 c -6 -6 7106 304 l 6 -6 c 6 6 c -6 6 c
0 -192 7286 442 l 0 -192 7292 442 l 42 0 7250 442 l 42 0 7250 250 l
0 -249 1017 1331 l 3 -11 974 1422 l 8 -4 c 7 0 c 8 4 c 4 7 c 4 15 c 3 12 c 8 7 c 7 4 c 12 0 c 7 -4 c 4 -4 c 4 -11 c 0 -15 c -4 -11 c
-4 -4 c -7 -4 c -12 0 c -7 4 c -8 7 c -3 12 c -4 15 c -4 7 c -8 4 c -7 0 c -8 -4 c -3 -11 c 0 -15 c 3 -12 974 1498 l 8 -4 c 7 0 c
8 4 c 4 8 c 4 15 c 3 11 c 8 8 c 7 4 c 12 0 c 7 -4 c 4 -4 c 4 -11 c 0 -15 c -4 -12 c -4 -4 c -7 -3 c -12 0 c -7 3 c -8 8 c -3 11 c
-4 15 c -4 8 c -8 4 c -7 0 c -8 -4 c -3 -11 c 0 -15 c 11 -3 1000 1603 l 8 -8 c 4 -11 c 0 -4 c -4 -11 c -8 -8 c -11 -4 c -4 0 c
-11 4 c -8 8 c -3 11 c 0 4 c 3 11 c 8 8 c 15 3 c 19 0 c 19 -3 c 11 -8 c 4 -11 c 0 -8 c -4 -11 c -7 -4 c 11 -4 1000 1679 l 8 -7 c
4 -12 c 0 -3 c -4 -12 c -8 -7 c -11 -4 c -4 0 c -11 4 c -8 7 c -3 12 c 0 3 c 3 12 c 8 7 c 15 4 c 19 0 c 19 -4 c 11 -7 c 4 -12 c
0 -7 c -4 -12 c -7 -3 c 4 -4 1045 1713 l 4 4 c -4 4 c -4 -4 c -3 0 992 1747 l -8 4 c -4 4 c -3 7 c 0 15 c 3 8 c 4 4 c 8 3 c 7 0 c
8 -3 c 11 -8 c 38 -38 c 0 53 c 11 -4 1000 1868 l 8 -7 c 4 -12 c 0 -4 c -4 -11 c -8 -7 c -11 -4 c -4 0 c -11 4 c -8 7 c -3 11 c 0 4 c
3 12 c 8 7 c 15 4 c 19 0 c 19 -4 c 11 -7 c 4 -12 c 0 -7 c -4 -12 c -7 -3 c 79 -37 974 1947 l 0 53 974 1894 l 0 -250 1454 1508 l
4 -11 1411 1598 l 7 -4 c 8 0 c 7 4 c 4 8 c 4 15 c 4 11 c 7 8 c 8 3 c 11 0 c 8 -3 c 3 -4 c 4 -11 c 0 -16 c -4 -11 c -3 -4 c -8 -3 c
-11 0 c -8 3 c -7 8 c -4 11 c -4 15 c -4 8 c -7 4 c -8 0 c -7 -4 c -4 -11 c 0 -16 c 12 -4 1437 1704 l 7 -7 c 4 -11 c 0 -4 c -4 -12 c
-7 -7 c -12 -4 c -4 0 c -11 4 c -7 7 c -4 12 c 0 4 c 4 11 c 7 7 c 15 4 c 19 0 c 19 -4 c 11 -7 c 4 -11 c 0 -8 c -4 -11 c -7 -4 c
4 -11 1411 1753 l 11 -7 c 19 -4 c 11 0 c 19 4 c 11 7 c 4 11 c 0 8 c -4 11 c -11 8 c -19 4 c -11 0 c -19 -4 c -11 -8 c -4 -11 c
0 -8 c 0 -38 1411 1852 l 34 -4 c -4 4 c -4 11 c 0 12 c 4 11 c 8 7 c 11 4 c 8 0 c 11 -4 c 7 -7 c 4 -11 c 0 -12 c -4 -11 c -3 -4 c
-8 -4 c 3 -3 1483 1889 l 4 3 c -4 4 c -3 -4 c -7 -4 1422 1969 l -4 -11 c 0 -8 c 4 -11 c 11 -8 c 19 -4 c 19 0 c 15 4 c 7 8 c 4 11 c
0 4 c -4 11 c -7 8 c -11 4 c -4 0 c -12 -4 c -7 -8 c -4 -11 c 0 -4 c 4 -11 c 7 -8 c 12 -4 c 0 -38 1411 2041 l 34 -4 c -4 4 c -4 11 c
0 12 c 4 11 c 8 7 c 11 4 c 8 0 c 11 -4 c 7 -7 c 4 -11 c 0 -12 c -4 -11 c -3 -4 c -8 -4 c 4 -12 1411 2090 l 7 -3 c 8 0 c 7 3 c 4 8 c
4 15 c 4 11 c 7 8 c 8 4 c 11 0 c 8 -4 c 3 -4 c 4 -11 c 0 -15 c -4 -12 c -3 -3 c -8 -4 c -11 0 c -8 4 c -7 7 c -4 12 c -4 15 c -4 7 c
-7 4 c -8 0 c -7 -4 c -4 -11 c 0 -15 c 0 -249 1814 1351 l 4 -12 1770 1442 l 7 -3 c 8 0 c 8 3 c 3 8 c 4 15 c 4 12 c 8 7 c 7 4 c
11 0 c 8 -4 c 4 -4 c 4 -11 c 0 -15 c -4 -12 c -4 -3 c -8 -4 c -11 0 c -7 4 c -8 7 c -4 12 c -4 15 c -3 7 c -8 4 c -8 0 c -7 -4 c
-4 -11 c 0 -15 c 11 -4 1797 1548 l 8 -8 c 3 -11 c 0 -4 c -3 -11 c -8 -8 c -11 -3 c -4 0 c -12 3 c -7 8 c -4 11 c 0 4 c 4 11 c 7 8 c
16 4 c 19 0 c 18 -4 c 12 -8 c 4 -11 c 0 -8 c -4 -11 c -8 -4 c -4 8 1785 1585 l -11 11 c 80 0 c 4 -11 1770 1672 l 11 -8 c 19 -3 c
12 0 c 18 3 c 12 8 c 4 11 c 0 8 c -4 11 c -12 8 c -18 4 c -12 0 c -19 -4 c -11 -8 c -4 -11 c 0 -8 c 4 -4 1842 1733 l 4 4 c -4 4 c
-4 -4 c 4 -11 1770 1782 l 7 -4 c 8 0 c 8 4 c 3 7 c 4 15 c 4 12 c 8 7 c 7 4 c 11 0 c 8 -4 c 4 -4 c 4 -11 c 0 -15 c -4 -11 c -4 -4 c
-8 -4 c -11 0 c -7 4 c -8 7 c -4 12 c -4 15 c -3 7 c -8 4 c -8 0 c -7 -4 c -4 -11 c 0 -15 c 0 -38 1770 1884 l 34 -4 c -4 4 c -3 12 c
0 11 c 3 11 c 8 8 c 11 4 c 8 0 c 11 -4 c 8 -8 c 4 -11 c 0 -11 c -4 -12 c -4 -4 c -8 -3 c 80 -38 1770 1967 l 0 53 1770 1914 l
0 -249 3016 1361 l 4 -12 2972 1452 l 8 -3 c 7 0 c 8 3 c 4 8 c 3 15 c 4 11 c 8 8 c 7 4 c 12 0 c 7 -4 c 4 -4 c 4 -11 c 0 -15 c
-4 -12 c -4 -3 c -7 -4 c -12 0 c -7 4 c -8 7 c -4 12 c -3 15 c -4 7 c -8 4 c -7 0 c -8 -4 c -4 -11 c 0 -15 c 11 -4 2999 1558 l
8 -8 c 4 -11 c 0 -4 c -4 -11 c -8 -8 c -11 -4 c -4 0 c -11 4 c -8 8 c -4 11 c 0 4 c 4 11 c 8 8 c 15 4 c 19 0 c 19 -4 c 11 -8 c
4 -11 c 0 -8 c -4 -11 c -7 -4 c -3 0 2991 1588 l -8 4 c -4 3 c -4 8 c 0 15 c 4 8 c 4 3 c 8 4 c 7 0 c 8 -4 c 11 -7 c 38 -38 c 0 53 c
4 -12 2972 1679 l 8 -4 c 7 0 c 8 4 c 4 8 c 3 15 c 4 11 c 8 8 c 7 4 c 12 0 c 7 -4 c 4 -4 c 4 -11 c 0 -15 c -4 -12 c -4 -4 c -7 -3 c
-12 0 c -7 3 c -8 8 c -4 11 c -3 15 c -4 8 c -8 4 c -7 0 c -8 -4 c -4 -11 c 0 -15 c 4 -4 3044 1743 l 4 4 c -4 4 c -4 -4 c
4 -12 2972 1796 l 12 -7 c 18 -4 c 12 0 c 19 4 c 11 7 c 4 12 c 0 7 c -4 12 c -11 7 c -19 4 c -12 0 c -18 -4 c -12 -7 c -4 -12 c
0 -7 c 11 -4 2999 1898 l 8 -8 c 4 -11 c 0 -4 c -4 -11 c -8 -8 c -11 -3 c -4 0 c -11 3 c -8 8 c -4 11 c 0 4 c 4 11 c 8 8 c 15 4 c
19 0 c 19 -4 c 11 -8 c 4 -11 c 0 -7 c -4 -12 c -7 -4 c 0 41 2972 1932 l 31 -22 c 0 11 c 3 8 c 4 3 c 12 4 c 7 0 c 12 -4 c 7 -7 c
4 -12 c 0 -11 c -4 -11 c -4 -4 c -7 -4 c 0 -250 3978 1317 l 4 -11 3934 1407 l 7 -4 c 8 0 c 8 4 c 3 8 c 4 15 c 4 11 c 7 8 c 8 3 c
11 0 c 8 -3 c 4 -4 c 3 -12 c 0 -15 c -3 -11 c -4 -4 c -8 -4 c -11 0 c -8 4 c -7 8 c -4 11 c -4 15 c -3 8 c -8 4 c -8 0 c -7 -4 c
-4 -12 c 0 -15 c 11 -4 3961 1513 l 7 -7 c 4 -11 c 0 -4 c -4 -12 c -7 -7 c -11 -4 c -4 0 c -12 4 c -7 7 c -4 12 c 0 4 c 4 11 c 7 7 c
16 4 c 18 0 c 19 -4 c 12 -7 c 3 -11 c 0 -8 c -3 -11 c -8 -4 c 53 -37 3934 1577 l 0 56 c 79 0 3934 1577 l -4 7 3949 1627 l -11 11 c
79 0 c 4 -3 4006 1698 l 3 3 c -3 4 c -4 -4 c -7 -4 3945 1778 l -4 -11 c 0 -8 c 4 -11 c 11 -8 c 19 -4 c 19 0 c 15 4 c 8 8 c 3 11 c
0 4 c -3 11 c -8 8 c -11 4 c -4 0 c -11 -4 c -8 -8 c -4 -11 c 0 -4 c 4 -11 c 8 -8 c 11 -4 c -7 -3 3945 1853 l -4 -12 c 0 -7 c
4 -12 c 11 -7 c 19 -4 c 19 0 c 15 4 c 8 7 c 3 12 c 0 3 c -3 12 c -8 7 c -11 4 c -4 0 c -11 -4 c -8 -7 c -4 -12 c 0 -3 c 4 -12 c
8 -7 c 11 -4 c -4 8 3949 1891 l -11 11 c 79 0 c 0 -250 4512 1528 l 4 -11 4468 1618 l 8 -4 c 7 0 c 8 4 c 4 8 c 3 15 c 4 11 c 8 8 c
7 3 c 12 0 c 7 -3 c 4 -4 c 4 -11 c 0 -16 c -4 -11 c -4 -4 c -7 -4 c -12 0 c -7 4 c -8 8 c -4 11 c -3 15 c -4 8 c -8 4 c -7 0 c
-8 -4 c -4 -11 c 0 -16 c 11 -4 4495 1724 l 8 -7 c 4 -11 c 0 -4 c -4 -12 c -8 -7 c -11 -4 c -4 0 c -11 4 c -8 7 c -4 12 c 0 4 c
4 11 c 8 7 c 15 4 c 19 0 c 19 -4 c 11 -7 c 4 -11 c 0 -8 c -4 -11 c -8 -4 c 53 -37 4468 1788 l 0 56 c 80 0 4468 1788 l
11 -3 4495 1875 l 8 -8 c 4 -11 c 0 -4 c -4 -11 c -8 -8 c -11 -4 c -4 0 c -11 4 c -8 8 c -4 11 c 0 4 c 4 11 c 8 8 c 15 3 c 19 0 c
19 -3 c 11 -8 c 4 -11 c 0 -8 c -4 -11 c -8 -4 c 4 -3 4540 1909 l 4 3 c -4 4 c -4 -4 c -4 8 4484 1951 l -12 11 c 80 0 c
-3 0 4487 2019 l -8 4 c -4 4 c -4 7 c 0 15 c 4 8 c 4 4 c 8 3 c 7 0 c 8 -3 c 11 -8 c 38 -38 c 0 53 c 0 42 4468 2098 l 31 -23 c 0 12 c
3 7 c 4 4 c 12 4 c 7 0 c 11 -4 c 8 -8 c 4 -11 c 0 -11 c -4 -12 c -4 -3 c -7 -4 c 0 -249 4997 1779 l 3 -11 4954 1870 l 8 -4 c 7 0 c
8 4 c 4 7 c 4 15 c 3 12 c 8 7 c 7 4 c 12 0 c 7 -4 c 4 -4 c 4 -11 c 0 -15 c -4 -11 c -4 -4 c -7 -4 c -12 0 c -7 4 c -8 7 c -3 12 c
-4 15 c -4 7 c -8 4 c -7 0 c -8 -4 c -3 -11 c 0 -15 c 11 -4 4980 1976 l 8 -8 c 4 -11 c 0 -4 c -4 -11 c -8 -8 c -11 -3 c -4 0 c
-11 3 c -8 8 c -3 11 c 0 4 c 3 11 c 8 8 c 15 4 c 19 0 c 19 -4 c 11 -8 c 4 -11 c 0 -8 c -4 -11 c -7 -4 c 0 -38 4954 2048 l 34 -4 c
-4 4 c -4 11 c 0 11 c 4 12 c 7 7 c 12 4 c 7 0 c 12 -4 c 7 -7 c 4 -12 c 0 -11 c -4 -11 c -4 -4 c -7 -4 c 0 -38 4954 2123 l 34 -3 c
-4 3 c -4 12 c 0 11 c 4 11 c 7 8 c 12 4 c 7 0 c 12 -4 c 7 -8 c 4 -11 c 0 -11 c -4 -12 c -4 -3 c -7 -4 c 4 -4 5025 2161 l 4 4 c
-4 4 c -4 -4 c 3 -11 4954 2210 l 8 -4 c 7 0 c 8 4 c 4 7 c 4 15 c 3 12 c 8 7 c 7 4 c 12 0 c 7 -4 c 4 -3 c 4 -12 c 0 -15 c -4 -11 c
-4 -4 c -7 -4 c -12 0 c -7 4 c -8 7 c -3 12 c -4 15 c -4 8 c -8 3 c -7 0 c -8 -3 c -3 -12 c 0 -15 c 52 -38 4954 2305 l 0 56 c
79 0 4954 2305 l 79 -38 4954 2395 l 0 53 4954 2342 l 0 -250 5153 1526 l 4 -11 5109 1616 l 7 -4 c 8 0 c 7 4 c 4 8 c 4 15 c 4 11 c
7 8 c 8 3 c 11 0 c 8 -3 c 4 -4 c 3 -12 c 0 -15 c -3 -11 c -4 -4 c -8 -4 c -11 0 c -8 4 c -7 8 c -4 11 c -4 15 c -4 8 c -7 4 c -8 0 c
-7 -4 c -4 -12 c 0 -15 c 12 -4 5135 1722 l 7 -7 c 4 -11 c 0 -4 c -4 -12 c -7 -7 c -12 -4 c -3 0 c -12 4 c -7 7 c -4 12 c 0 4 c
4 11 c 7 7 c 15 4 c 19 0 c 19 -4 c 12 -7 c 3 -11 c 0 -8 c -3 -11 c -8 -4 c 0 -38 5109 1794 l 34 -4 c -4 4 c -4 12 c 0 11 c 4 11 c
8 8 c 11 4 c 8 0 c 11 -4 c 8 -8 c 3 -11 c 0 -11 c -3 -12 c -4 -4 c -8 -3 c 79 -38 5109 1877 l 0 53 5109 1824 l 4 -3 5181 1907 l
3 3 c -3 4 c -4 -4 c 12 -4 5135 1987 l 7 -8 c 4 -11 c 0 -4 c -4 -11 c -7 -8 c -12 -3 c -3 0 c -12 3 c -7 8 c -4 11 c 0 4 c 4 11 c
7 8 c 15 4 c 19 0 c 19 -4 c 12 -8 c 3 -11 c 0 -7 c -3 -12 c -8 -4 c 4 -11 5109 2032 l 7 -4 c 8 0 c 7 4 c 4 7 c 4 15 c 4 12 c 7 7 c
8 4 c 11 0 c 8 -4 c 4 -3 c 3 -12 c 0 -15 c -3 -11 c -4 -4 c -8 -4 c -11 0 c -8 4 c -7 8 c -4 11 c -4 15 c -4 8 c -7 3 c -8 0 c
-7 -3 c -4 -12 c 0 -15 c -7 -4 5120 2138 l -4 -11 c 0 -8 c 4 -11 c 11 -8 c 19 -3 c 19 0 c 15 3 c 8 8 c 3 11 c 0 4 c -3 11 c -8 8 c
-11 4 c -4 0 c -11 -4 c -8 -8 c -4 -11 c 0 -4 c 4 -11 c 8 -8 c 11 -3 c 0 -250 5456 1590 l 4 -12 5412 1681 l 7 -3 c 8 0 c 8 3 c 3 8 c
4 15 c 4 11 c 8 8 c 7 4 c 11 0 c 8 -4 c 4 -4 c 4 -11 c 0 -15 c -4 -12 c -4 -3 c -8 -4 c -11 0 c -7 4 c -8 7 c -4 12 c -4 15 c -3 7 c
-8 4 c -8 0 c -7 -4 c -4 -11 c 0 -15 c 11 -4 5439 1787 l 8 -8 c 3 -11 c 0 -4 c -3 -11 c -8 -8 c -11 -4 c -4 0 c -12 4 c -7 8 c
-4 11 c 0 4 c 4 11 c 7 8 c 16 4 c 19 0 c 18 -4 c 12 -8 c 4 -11 c 0 -8 c -4 -11 c -8 -4 c -7 -4 5423 1862 l -4 -11 c 0 -8 c 4 -11 c
11 -7 c 19 -4 c 19 0 c 15 4 c 8 7 c 4 11 c 0 4 c -4 12 c -8 7 c -11 4 c -4 0 c -11 -4 c -8 -7 c -4 -12 c 0 -4 c 4 -11 c 8 -7 c
11 -4 c -4 0 5431 1892 l -7 4 c -4 4 c -4 8 c 0 15 c 4 7 c 4 4 c 7 4 c 8 0 c 7 -4 c 12 -8 c 38 -37 c 0 53 c 4 -4 5484 1972 l 4 4 c
-4 4 c -4 -4 c -4 8 5427 2013 l -11 11 c 80 0 c 53 -37 5412 2115 l 0 56 c 80 0 5412 2115 l 80 -38 5412 2206 l 0 53 5412 2153 l
0 -249 5858 7019 l 4 -12 5814 7110 l 8 -3 c 7 0 c 8 3 c 3 8 c 4 15 c 4 11 c 8 8 c 7 4 c 11 0 c 8 -4 c 4 -4 c 4 -11 c 0 -15 c
-4 -12 c -4 -3 c -8 -4 c -11 0 c -7 4 c -8 7 c -4 12 c -4 15 c -3 7 c -8 4 c -7 0 c -8 -4 c -4 -11 c 0 -15 c 11 -4 5841 7216 l
8 -8 c 3 -11 c 0 -4 c -3 -11 c -8 -8 c -11 -3 c -4 0 c -11 3 c -8 8 c -4 11 c 0 4 c 4 11 c 8 8 c 15 4 c 19 0 c 18 -4 c 12 -8 c
4 -11 c 0 -8 c -4 -11 c -8 -4 c -8 -4 5826 7291 l -4 -11 c 0 -7 c 4 -12 c 11 -7 c 19 -4 c 19 0 c 15 4 c 8 7 c 4 12 c 0 3 c -4 12 c
-8 7 c -11 4 c -4 0 c -11 -4 c -8 -7 c -4 -12 c 0 -3 c 4 -12 c 8 -7 c 11 -4 c 80 -38 5814 7371 l 0 53 5814 7318 l 4 -4 5886 7401 l
4 4 c -4 4 c -4 -4 c -8 -4 5826 7480 l -4 -11 c 0 -7 c 4 -12 c 11 -7 c 19 -4 c 19 0 c 15 4 c 8 7 c 4 12 c 0 3 c -4 12 c -8 7 c
-11 4 c -4 0 c -11 -4 c -8 -7 c -4 -12 c 0 -3 c 4 -12 c 8 -7 c 11 -4 c 53 -37 5814 7544 l 0 56 c 80 0 5814 7544 l 4 -11 5814 7605 l
11 -8 c 19 -4 c 12 0 c 18 4 c 12 8 c 4 11 c 0 7 c -4 12 c -12 7 c -18 4 c -12 0 c -19 -4 c -11 -7 c -4 -12 c 0 -7 c
0 -250 6021 1403 l 4 -11 5978 1493 l 7 -4 c 8 0 c 7 4 c 4 8 c 4 15 c 4 11 c 7 8 c 8 3 c 11 0 c 8 -3 c 3 -4 c 4 -12 c 0 -15 c
-4 -11 c -3 -4 c -8 -4 c -11 0 c -8 4 c -7 8 c -4 11 c -4 15 c -4 8 c -7 4 c -8 0 c -7 -4 c -4 -12 c 0 -15 c 12 -4 6004 1599 l
7 -7 c 4 -12 c 0 -3 c -4 -12 c -7 -7 c -12 -4 c -3 0 c -12 4 c -7 7 c -4 12 c 0 3 c 4 12 c 7 7 c 15 4 c 19 0 c 19 -4 c 11 -7 c
4 -12 c 0 -7 c -4 -11 c -7 -4 c -7 -4 5989 1675 l -4 -11 c 0 -8 c 4 -11 c 11 -8 c 19 -4 c 19 0 c 15 4 c 7 8 c 4 11 c 0 4 c -4 11 c
-7 8 c -11 4 c -4 0 c -12 -4 c -7 -8 c -4 -11 c 0 -4 c 4 -11 c 7 -8 c 12 -4 c 12 -3 6004 1750 l 7 -8 c 4 -11 c 0 -4 c -4 -11 c
-7 -8 c -12 -4 c -3 0 c -12 4 c -7 8 c -4 11 c 0 4 c 4 11 c 7 8 c 15 3 c 19 0 c 19 -3 c 11 -8 c 4 -11 c 0 -8 c -4 -11 c -7 -4 c
3 -3 6050 1784 l 4 3 c -4 4 c -3 -4 c 4 -11 5978 1833 l 7 -4 c 8 0 c 7 4 c 4 8 c 4 15 c 4 11 c 7 8 c 8 3 c 11 0 c 8 -3 c 3 -4 c
4 -11 c 0 -16 c -4 -11 c -3 -4 c -8 -3 c -11 0 c -8 3 c -7 8 c -4 11 c -4 15 c -4 8 c -7 4 c -8 0 c -7 -4 c -4 -11 c 0 -16 c
-7 -3 5989 1939 l -4 -12 c 0 -7 c 4 -12 c 11 -7 c 19 -4 c 19 0 c 15 4 c 7 7 c 4 12 c 0 3 c -4 12 c -7 7 c -11 4 c -4 0 c -12 -4 c
-7 -7 c -4 -12 c 0 -3 c 4 -12 c 7 -7 c 12 -4 c 79 -38 5978 2019 l 0 53 5978 1966 l 0 -249 7169 1297 l 4 -11 7125 1388 l 8 -4 c 7 0 c
8 4 c 4 7 c 3 16 c 4 11 c 8 7 c 7 4 c 12 0 c 7 -4 c 4 -3 c 4 -12 c 0 -15 c -4 -11 c -4 -4 c -7 -4 c -12 0 c -7 4 c -8 8 c -4 11 c
-3 15 c -4 8 c -8 3 c -7 0 c -8 -3 c -4 -12 c 0 -15 c 11 -4 7152 1494 l 8 -7 c 4 -12 c 0 -3 c -4 -12 c -8 -7 c -11 -4 c -4 0 c
-11 4 c -8 7 c -4 12 c 0 3 c 4 12 c 8 7 c 15 4 c 19 0 c 19 -4 c 11 -7 c 4 -12 c 0 -7 c -4 -12 c -8 -3 c 4 -11 7125 1539 l 8 -4 c
7 0 c 8 4 c 4 8 c 3 15 c 4 11 c 8 8 c 7 3 c 12 0 c 7 -3 c 4 -4 c 4 -12 c 0 -15 c -4 -11 c -4 -4 c -7 -4 c -12 0 c -7 4 c -8 8 c
-4 11 c -3 15 c -4 8 c -8 4 c -7 0 c -8 -4 c -4 -12 c 0 -15 c 0 -37 7125 1641 l 34 -4 c -3 4 c -4 11 c 0 11 c 4 12 c 7 7 c 12 4 c
7 0 c 11 -4 c 8 -7 c 4 -12 c 0 -11 c -4 -11 c -4 -4 c -7 -4 c 4 -4 7197 1679 l 4 4 c -4 4 c -4 -4 c -4 0 7144 1713 l -7 4 c -4 4 c
-4 7 c 0 15 c 4 8 c 4 4 c 7 4 c 8 0 c 8 -4 c 11 -8 c 38 -38 c 0 53 c 4 -11 7125 1804 l 8 -4 c 7 0 c 8 4 c 4 7 c 3 15 c 4 12 c 8 7 c
7 4 c 12 0 c 7 -4 c 4 -4 c 4 -11 c 0 -15 c -4 -11 c -4 -4 c -7 -4 c -12 0 c -7 4 c -8 7 c -4 12 c -3 15 c -4 7 c -8 4 c -7 0 c
-8 -4 c -4 -11 c 0 -15 c -3 8 7140 1872 l -12 11 c 80 0 c 0 -250 7329 1369 l 4 -12 7286 1460 l 7 -3 c 8 0 c 7 3 c 4 8 c 4 15 c
4 11 c 7 8 c 8 4 c 11 0 c 8 -4 c 3 -4 c 4 -11 c 0 -15 c -4 -12 c -3 -3 c -8 -4 c -11 0 c -8 4 c -7 7 c -4 12 c -4 15 c -4 7 c -7 4 c
-8 0 c -7 -4 c -4 -11 c 0 -15 c 12 -4 7312 1566 l 7 -8 c 4 -11 c 0 -4 c -4 -11 c -7 -8 c -12 -4 c -3 0 c -12 4 c -7 8 c -4 11 c
0 4 c 4 11 c 7 8 c 15 4 c 19 0 c 19 -4 c 11 -8 c 4 -11 c 0 -8 c -4 -11 c -7 -4 c 4 -11 7286 1611 l 7 -4 c 8 0 c 7 4 c 4 7 c 4 15 c
4 12 c 7 7 c 8 4 c 11 0 c 8 -4 c 3 -4 c 4 -11 c 0 -15 c -4 -11 c -3 -4 c -8 -4 c -11 0 c -8 4 c -7 7 c -4 12 c -4 15 c -4 7 c -7 4 c
-8 0 c -7 -4 c -4 -11 c 0 -15 c 79 -38 7286 1721 l 0 53 7286 1668 l 3 -4 7358 1751 l 4 4 c -4 4 c -3 -4 c 53 -38 7286 1819 l 0 57 c
79 0 7286 1819 l 4 -11 7286 1879 l 11 -8 c 19 -3 c 11 0 c 19 3 c 11 8 c 4 11 c 0 8 c -4 11 c -11 8 c -19 4 c -11 0 c -19 -4 c
-11 -8 c -4 -11 c 0 -8 c 4 -11 7286 1951 l 7 -4 c 8 0 c 7 4 c 4 7 c 4 15 c 4 12 c 7 7 c 8 4 c 11 0 c 8 -4 c 3 -3 c 4 -12 c 0 -15 c
-4 -11 c -3 -4 c -8 -4 c -11 0 c -8 4 c -7 8 c -4 11 c -4 15 c -4 8 c -7 3 c -8 0 c -7 -3 c -4 -12 c 0 -15 c 0 -250 7593 1320 l
4 -11 7550 1410 l 7 -4 c 8 0 c 7 4 c 4 8 c 4 15 c 4 11 c 7 8 c 8 4 c 11 0 c 8 -4 c 3 -4 c 4 -11 c 0 -16 c -4 -11 c -3 -4 c -8 -3 c
-11 0 c -8 3 c -7 8 c -4 11 c -4 15 c -4 8 c -7 4 c -8 0 c -7 -4 c -4 -11 c 0 -16 c 12 -3 7576 1516 l 7 -8 c 4 -11 c 0 -4 c -4 -11 c
-7 -8 c -12 -4 c -3 0 c -12 4 c -7 8 c -4 11 c 0 4 c 4 11 c 7 8 c 15 3 c 19 0 c 19 -3 c 11 -8 c 4 -11 c 0 -8 c -4 -11 c -7 -4 c
12 -4 7576 1592 l 7 -7 c 4 -12 c 0 -4 c -4 -11 c -7 -7 c -12 -4 c -3 0 c -12 4 c -7 7 c -4 11 c 0 4 c 4 12 c 7 7 c 15 4 c 19 0 c
19 -4 c 11 -7 c 4 -12 c 0 -7 c -4 -12 c -7 -3 c 4 -11 7550 1641 l 11 -8 c 19 -4 c 11 0 c 19 4 c 11 8 c 4 11 c 0 8 c -4 11 c -11 8 c
-19 3 c -11 0 c -19 -3 c -11 -8 c -4 -11 c 0 -8 c 3 -4 7622 1702 l 4 4 c -4 3 c -3 -3 c 4 -12 7550 1751 l 7 -3 c 8 0 c 7 3 c 4 8 c
4 15 c 4 11 c 7 8 c 8 4 c 11 0 c 8 -4 c 3 -4 c 4 -11 c 0 -15 c -4 -12 c -3 -3 c -8 -4 c -11 0 c -8 4 c -7 7 c -4 11 c -4 16 c -4 7 c
-7 4 c -8 0 c -7 -4 c -4 -11 c 0 -15 c 12 -3 7576 1856 l 7 -8 c 4 -11 c 0 -4 c -4 -11 c -7 -8 c -12 -4 c -3 0 c -12 4 c -7 8 c
-4 11 c 0 4 c 4 11 c 7 8 c 15 3 c 19 0 c 19 -3 c 11 -8 c 4 -11 c 0 -8 c -4 -11 c -7 -4 c 53 -38 7550 1921 l 0 57 c 79 0 7550 1921 l
0 -250 7920 1337 l 3 -11 7877 1427 l 8 -4 c 8 0 c 7 4 c 4 7 c 4 16 c 3 11 c 8 7 c 8 4 c 11 0 c 7 -4 c 4 -3 c 4 -12 c 0 -15 c
-4 -11 c -4 -4 c -7 -4 c -11 0 c -8 4 c -8 8 c -3 11 c -4 15 c -4 8 c -7 3 c -8 0 c -8 -3 c -3 -12 c 0 -15 c 11 -4 7903 1533 l
8 -7 c 4 -12 c 0 -3 c -4 -12 c -8 -7 c -11 -4 c -4 0 c -11 4 c -8 7 c -3 12 c 0 3 c 3 12 c 8 7 c 15 4 c 19 0 c 19 -4 c 11 -7 c
4 -12 c 0 -7 c -4 -12 c -7 -3 c 11 -4 7903 1609 l 8 -8 c 4 -11 c 0 -4 c -4 -11 c -8 -8 c -11 -3 c -4 0 c -11 3 c -8 8 c -3 11 c
0 4 c 3 11 c 8 8 c 15 4 c 19 0 c 19 -4 c 11 -8 c 4 -11 c 0 -8 c -4 -11 c -7 -4 c 0 -37 7877 1680 l 34 -4 c -4 4 c -4 11 c 0 11 c
4 12 c 7 7 c 12 4 c 7 0 c 12 -4 c 7 -7 c 4 -12 c 0 -11 c -4 -11 c -4 -4 c -7 -4 c 4 -4 7948 1718 l 4 4 c -4 4 c -4 -4 c
-4 7 7892 1760 l -11 12 c 79 0 c 3 -11 7877 1843 l 8 -4 c 8 0 c 7 4 c 4 7 c 4 15 c 3 12 c 8 7 c 8 4 c 11 0 c 7 -4 c 4 -4 c 4 -11 c
0 -15 c -4 -11 c -4 -4 c -7 -4 c -11 0 c -8 4 c -8 7 c -3 12 c -4 15 c -4 7 c -7 4 c -8 0 c -8 -4 c -3 -11 c 0 -15 c
11 -4 7903 1949 l 8 -8 c 4 -11 c 0 -4 c -4 -11 c -8 -8 c -11 -3 c -4 0 c -11 3 c -8 8 c -3 11 c 0 4 c 3 11 c 8 8 c 15 4 c 19 0 c
19 -4 c 11 -8 c 4 -11 c 0 -7 c -4 -12 c -7 -4 c
showpage PGPLOT restore
 
%%Trailer
%%DocumentFonts: 
%%Pages: 1
%%EOF
