%!PS-Adobe-3.0 EPSF-3.0
%%For: tab
%%Title: PGPLOT PostScript plot
%%Creator: PGPLOT
%%CreationDate: 20-Apr-1995 17:03
%%BoundingBox: 25 18 587 774
%%DocumentFonts: (atend)
%%LanguageLevel: 1
%%Orientation: Landscape
%%Pages: (atend)
%%EndComments
%%BeginProlog
/l {moveto rlineto currentpoint stroke moveto} bind def
/c {rlineto currentpoint stroke moveto} bind def
/d {moveto 0 0 rlineto currentpoint stroke moveto} bind def
/SLW {5 mul setlinewidth} bind def
/SCF /pop load def
/BP {newpath moveto} bind def
/LP /rlineto load def
/EP {rlineto closepath eofill} bind def
/MB {gsave translate MFAC dup scale 1 setlinewidth 2 setlinecap 0 setlinejoin newpath} bind def
/ME /grestore load def
/C {0 360 arc stroke} bind def
/FC {0 360 arc fill} bind def
%%EndProlog
 
%%Page: 1 1
%%BeginPageSetup
/PGPLOT save def
0.072 0.072 scale
8150 250 translate 90 rotate
1 setlinejoin 1 setlinecap 1 SLW 1 SCF
%%EndPageSetup
0.000 setgray 1 SLW 8939 0 780 780 l 0 6239 c -8939 0 c 0 -6239 c 0 -45 1116 780 l 0 -45 1554 780 l 0 -45 1991 780 l
0 -45 2428 780 l 0 -90 2865 780 l 0 -45 3302 780 l 0 -45 3739 780 l 0 -45 4176 780 l 0 -45 4613 780 l 0 -90 5051 780 l
0 -45 5488 780 l 0 -45 5925 780 l 0 -45 6362 780 l 0 -45 6799 780 l 0 -90 7236 780 l 0 -45 7673 780 l 0 -45 8110 780 l
0 -45 8548 780 l 0 -45 8985 780 l 0 -90 9422 780 l 0 -45 1116 7064 l 0 -45 1554 7064 l 0 -45 1991 7064 l 0 -45 2428 7064 l
0 -90 2865 7109 l 0 -45 3302 7064 l 0 -45 3739 7064 l 0 -45 4176 7064 l 0 -45 4613 7064 l 0 -90 5051 7109 l 0 -45 5488 7064 l
0 -45 5925 7064 l 0 -45 6362 7064 l 0 -45 6799 7064 l 0 -90 7236 7109 l 0 -45 7673 7064 l 0 -45 8110 7064 l 0 -45 8548 7064 l
0 -45 8985 7064 l 0 -90 9422 7109 l -60 0 2775 672 l -6 -54 c 6 6 c 18 6 c 18 0 c 18 -6 c 12 -12 c 6 -18 c 0 -12 c -6 -18 c
-12 -12 c -18 -6 c -18 0 c -18 6 c -6 6 c -6 12 c -18 -6 2859 672 l -12 -18 c -6 -30 c 0 -18 c 6 -30 c 12 -18 c 18 -6 c 12 0 c
18 6 c 12 18 c 6 30 c 0 18 c -6 30 c -12 18 c -18 6 c -12 0 c -18 -6 2979 672 l -12 -18 c -6 -30 c 0 -18 c 6 -30 c 12 -18 c 18 -6 c
12 0 c 18 6 c 12 18 c 6 30 c 0 18 c -6 30 c -12 18 c -18 6 c -12 0 c 12 6 4847 648 l 18 18 c 0 -126 c -18 -6 4985 672 l -12 -18 c
-6 -30 c 0 -18 c 6 -30 c 12 -18 c 18 -6 c 12 0 c 18 6 c 12 18 c 6 30 c 0 18 c -6 30 c -12 18 c -18 6 c -12 0 c -18 -6 5105 672 l
-12 -18 c -6 -30 c 0 -18 c 6 -30 c 12 -18 c 18 -6 c 12 0 c 18 6 c 12 18 c 6 30 c 0 18 c -6 30 c -12 18 c -18 6 c -12 0 c
-18 -6 5225 672 l -12 -18 c -6 -30 c 0 -18 c 6 -30 c 12 -18 c 18 -6 c 12 0 c 18 6 c 12 18 c 6 30 c 0 18 c -6 30 c -12 18 c -18 6 c
-12 0 c 12 6 7032 648 l 18 18 c 0 -126 c -60 0 7206 672 l -6 -54 c 6 6 c 18 6 c 18 0 c 18 -6 c 12 -12 c 6 -18 c 0 -12 c -6 -18 c
-12 -12 c -18 -6 c -18 0 c -18 6 c -6 6 c -6 12 c -18 -6 7290 672 l -12 -18 c -6 -30 c 0 -18 c 6 -30 c 12 -18 c 18 -6 c 12 0 c
18 6 c 12 18 c 6 30 c 0 18 c -6 30 c -12 18 c -18 6 c -12 0 c -18 -6 7410 672 l -12 -18 c -6 -30 c 0 -18 c 6 -30 c 12 -18 c 18 -6 c
12 0 c 18 6 c 12 18 c 6 30 c 0 18 c -6 30 c -12 18 c -18 6 c -12 0 c 0 6 9206 642 l 6 12 c 6 6 c 12 6 c 24 0 c 12 -6 c 6 -6 c
6 -12 c 0 -12 c -6 -12 c -12 -18 c -60 -60 c 84 0 c -18 -6 9356 672 l -12 -18 c -6 -30 c 0 -18 c 6 -30 c 12 -18 c 18 -6 c 12 0 c
18 6 c 12 18 c 6 30 c 0 18 c -6 30 c -12 18 c -18 6 c -12 0 c -18 -6 9476 672 l -12 -18 c -6 -30 c 0 -18 c 6 -30 c 12 -18 c 18 -6 c
12 0 c 18 6 c 12 18 c 6 30 c 0 18 c -6 30 c -12 18 c -18 6 c -12 0 c -18 -6 9596 672 l -12 -18 c -6 -30 c 0 -18 c 6 -30 c 12 -18 c
18 -6 c 12 0 c 18 6 c 12 18 c 6 30 c 0 18 c -6 30 c -12 18 c -18 6 c -12 0 c -90 0 780 785 l -45 0 780 1030 l -45 0 780 1275 l
-45 0 780 1519 l -45 0 780 1764 l -90 0 780 2009 l -45 0 780 2254 l -45 0 780 2498 l -45 0 780 2743 l -45 0 780 2988 l
-90 0 780 3232 l -45 0 780 3477 l -45 0 780 3722 l -45 0 780 3966 l -45 0 780 4211 l -90 0 780 4456 l -45 0 780 4701 l
-45 0 780 4945 l -45 0 780 5190 l -45 0 780 5435 l -90 0 780 5679 l -45 0 780 5924 l -45 0 780 6169 l -45 0 780 6413 l
-45 0 780 6658 l -90 0 780 6903 l -90 0 9809 785 l -45 0 9764 1030 l -45 0 9764 1275 l -45 0 9764 1519 l -45 0 9764 1764 l
-90 0 9809 2009 l -45 0 9764 2254 l -45 0 9764 2498 l -45 0 9764 2743 l -45 0 9764 2988 l -90 0 9809 3232 l -45 0 9764 3477 l
-45 0 9764 3722 l -45 0 9764 3966 l -45 0 9764 4211 l -90 0 9809 4456 l -45 0 9764 4701 l -45 0 9764 4945 l -45 0 9764 5190 l
-45 0 9764 5435 l -90 0 9809 5679 l -45 0 9764 5924 l -45 0 9764 6169 l -45 0 9764 6413 l -45 0 9764 6658 l -90 0 9809 6903 l
6 -18 517 779 l 18 -12 c 30 -6 c 18 0 c 30 6 c 18 12 c 6 18 c 0 12 c -6 18 c -18 12 c -30 6 c -18 0 c -30 -6 c -18 -12 c -6 -18 c
0 -12 c 0 -60 517 1859 l 54 -6 c -6 6 c -6 18 c 0 18 c 6 18 c 12 12 c 18 6 c 12 0 c 18 -6 c 12 -12 c 6 -18 c 0 -18 c -6 -18 c
-6 -6 c -12 -6 c 6 -18 517 1943 l 18 -12 c 30 -6 c 18 0 c 30 6 c 18 12 c 6 18 c 0 12 c -6 18 c -18 12 c -30 6 c -18 0 c -30 -6 c
-18 -12 c -6 -18 c 0 -12 c 6 -18 517 2063 l 18 -12 c 30 -6 c 18 0 c 30 6 c 18 12 c 6 18 c 0 12 c -6 18 c -18 12 c -30 6 c -18 0 c
-30 -6 c -18 -12 c -6 -18 c 0 -12 c 6 -18 517 2183 l 18 -12 c 30 -6 c 18 0 c 30 6 c 18 12 c 6 18 c 0 12 c -6 18 c -18 12 c -30 6 c
-18 0 c -30 -6 c -18 -12 c -6 -18 c 0 -12 c -6 12 541 3112 l -18 18 c 126 0 c 6 -18 517 3250 l 18 -12 c 30 -6 c 18 0 c 30 6 c
18 12 c 6 18 c 0 12 c -6 18 c -18 12 c -30 6 c -18 0 c -30 -6 c -18 -12 c -6 -18 c 0 -12 c 63 -45 453 3375 l 0 67 c 94 0 453 3375 l
-6 12 541 4120 l -18 18 c 126 0 c 6 -6 631 4234 l 6 6 c -6 6 c -6 -6 c 0 -60 517 4354 l 54 -6 c -6 6 c -6 18 c 0 18 c 6 18 c 12 12 c
18 6 c 12 0 c 18 -6 c 12 -12 c 6 -18 c 0 -18 c -6 -18 c -6 -6 c -12 -6 c 84 84 547 4408 l 84 -84 547 4492 l -6 12 541 4552 l
-18 18 c 126 0 c 6 -18 517 4690 l 18 -12 c 30 -6 c 18 0 c 30 6 c 18 12 c 6 18 c 0 12 c -6 18 c -18 12 c -30 6 c -18 0 c -30 -6 c
-18 -12 c -6 -18 c 0 -12 c 63 -45 453 4814 l 0 68 c 94 0 453 4814 l -6 0 547 5421 l -12 6 c -6 6 c -6 12 c 0 24 c 6 12 c 6 6 c
12 6 c 12 0 c 12 -6 c 18 -12 c 60 -60 c 0 84 c 84 84 547 5541 l 84 -84 547 5625 l -6 12 541 5685 l -18 18 c 126 0 c 6 -18 517 5823 l
18 -12 c 30 -6 c 18 0 c 30 6 c 18 12 c 6 18 c 0 12 c -6 18 c -18 12 c -30 6 c -18 0 c -30 -6 c -18 -12 c -6 -18 c 0 -12 c
63 -45 453 5948 l 0 67 c 94 0 453 5948 l -6 0 547 6555 l -12 6 c -6 6 c -6 12 c 0 24 c 6 12 c 6 6 c 12 6 c 12 0 c 12 -6 c 18 -12 c
60 -60 c 0 84 c 6 -6 631 6681 l 6 6 c -6 6 c -6 -6 c 0 -60 517 6801 l 54 -6 c -6 6 c -6 18 c 0 18 c 6 18 c 12 12 c 18 6 c 12 0 c
18 -6 c 12 -12 c 6 -18 c 0 -18 c -6 -18 c -6 -6 c -12 -6 c 84 84 547 6855 l 84 -84 547 6939 l -6 12 541 6999 l -18 18 c 126 0 c
6 -18 517 7137 l 18 -12 c 30 -6 c 18 0 c 30 6 c 18 12 c 6 18 c 0 12 c -6 18 c -18 12 c -30 6 c -18 0 c -30 -6 c -18 -12 c -6 -18 c
0 -12 c 63 -45 453 7261 l 0 68 c 94 0 453 7261 l
4 -1 780 860 l 5 0 c 4 0 c 4 1 c 5 -2 c 4 2 c 4 0 c 5 2 c 4 -2 c 5 0 c 4 1 c 4 1 c 5 1 c 4 0 c 4 -2 c 5 0 c 4 -1 c 5 2 c 4 0 c 4 1 c
5 1 c 4 5 c 4 7 c 5 5 c 4 -3 c 5 -6 c 4 -5 c 4 -2 c 5 0 c 4 -2 c 4 3 c 5 -1 c 4 0 c 5 0 c 4 2 c 4 -2 c 5 2 c 4 -1 c 4 0 c 5 2 c
4 -2 c 4 1 c 5 0 c 4 1 c 5 -2 c 4 2 c 4 2 c 5 -1 c 4 -1 c 4 0 c 5 1 c 4 3 c 5 -1 c 4 2 c 4 0 c 5 -1 c 4 1 c 4 -2 c 5 0 c 4 1 c 5 0 c
4 0 c 4 2 c 5 1 c 4 3 c 4 0 c 5 2 c 4 1 c 5 -1 c 4 1 c 4 11 c 5 34 c 4 38 c 4 5 c 5 -39 c 4 -33 c 4 -8 c 5 0 c 4 1 c 5 0 c 4 0 c
4 3 c 5 2 c 4 -110 c 4 0 c 5 119 c 4 3 c 5 1 c 4 0 c 4 3 c 5 4 c 4 1 c 4 3 c 5 3 c 4 3 c 5 3 c 4 4 c 4 1 c 5 5 c 4 2 c 4 7 c 5 7 c
4 3 c 5 3 c 4 6 c 4 5 c 5 10 c 4 8 c 4 5 c 5 0 c 4 1 c 4 8 c 5 15 c 4 7 c 5 8 c 4 4 c 4 8 c 5 8 c 4 3 c 4 15 c 5 16 c 4 13 c 5 13 c
4 16 c 4 19 c 5 5 c 4 26 c 4 16 c 5 18 c 4 13 c 5 1 c 4 23 c 4 20 c 5 26 c 4 10 c 4 33 c 5 40 c 4 36 c 5 21 c 4 15 c 4 33 c 5 28 c
4 33 c 4 39 c 5 28 c 4 55 c 4 33 c 5 29 c 4 58 c 5 78 c 4 66 c 4 85 c 5 79 c 4 62 c 4 59 c 5 97 c 4 148 c 5 184 c 4 139 c 4 86 c
5 93 c 4 90 c 4 292 c 5 419 c 4 443 c 5 533 c 4 900 c 0 1379 c 0 -1587 1562 7019 l 5 -542 c 4 -455 c 4 -396 c 5 -229 c 4 -149 c
5 -175 c 4 -149 c 4 -157 c 5 -143 c 4 -137 c 4 -100 c 5 -101 c 4 -97 c 5 -97 c 4 -99 c 4 -69 c 5 -78 c 4 -76 c 4 -66 c 5 -48 c
4 -62 c 5 -47 c 4 -53 c 4 -61 c 5 -47 c 4 -30 c 4 -37 c 5 -58 c 4 -14 c 4 -30 c 5 -37 c 4 -32 c 5 -35 c 4 -23 c 4 -52 c 5 -10 c
4 -31 c 4 -14 c 5 -14 c 4 -19 c 5 -15 c 4 -28 c 4 -12 c 5 -19 c 4 -15 c 4 -16 c 5 -14 c 4 -10 c 5 -8 c 4 -9 c 4 -7 c 5 -4 c 4 -15 c
4 -4 c 5 -11 c 4 -2 c 5 -3 c 4 -2 c 4 -3 c 5 -1 c 4 -1 c 4 -1 c 5 -3 c 4 7 c 4 8 c 5 4 c 4 10 c 5 3 c 4 -1 c 4 7 c 5 -1 c 4 6 c
4 3 c 5 11 c 4 18 c 5 16 c 4 1 c 4 23 c 5 10 c 4 16 c 4 5 c 5 25 c 4 20 c 5 29 c 4 32 c 4 28 c 5 33 c 4 17 c 4 15 c 5 32 c 4 25 c
5 27 c 4 41 c 4 39 c 5 50 c 4 14 c 4 36 c 5 75 c 4 65 c 4 15 c 5 60 c 4 86 c 5 38 c 4 47 c 4 84 c 5 45 c 4 74 c 4 59 c 5 117 c
4 82 c 5 106 c 4 154 c 4 137 c 5 107 c 4 194 c 4 63 c 5 109 c 4 127 c 5 220 c 4 332 c 4 351 c 5 354 c 4 195 c 4 251 c 5 388 c
4 700 c 4 615 c 1 -281 2200 7019 l 4 -687 c 4 -313 c 5 -113 c 4 -403 c 4 -459 c 5 -215 c 4 -161 c 5 -204 c 4 -206 c 4 -163 c 5 -96 c
4 -189 c 4 -109 c 5 -182 c 4 -76 c 4 -108 c 5 -85 c 4 -106 c 5 -138 c 4 -118 c 4 -12 c 5 -93 c 4 -75 c 4 -65 c 5 -70 c 4 -72 c
5 -82 c 4 -35 c 4 -57 c 5 -93 c 4 -50 c 4 33 c 5 37 c 4 -43 c 5 -120 c 4 -95 c 4 -48 c 5 -63 c 4 -38 c 4 -31 c 5 -39 c 4 -41 c
5 -26 c 4 -20 c 4 -25 c 5 -20 c 4 -24 c 4 -27 c 5 -26 c 4 -23 c 4 -16 c 5 -16 c 4 -12 c 5 -19 c 4 -19 c 4 -24 c 5 -7 c 4 -12 c
4 -11 c 5 -15 c 4 -7 c 5 -13 c 4 -10 c 4 -5 c 5 0 c 4 -9 c 4 -14 c 5 -9 c 4 -7 c 5 -6 c 4 -5 c 4 -4 c 5 -8 c 4 -11 c 4 -5 c 5 -1 c
4 -1 c 5 -1 c 4 -6 c 4 -5 c 5 -8 c 4 -6 c 4 -3 c 5 -2 c 4 -2 c 4 -4 c 5 -3 c 4 -6 c 5 -5 c 4 -1 c 4 -1 c 5 -3 c 4 -2 c 4 -3 c 5 0 c
4 -4 c 5 -2 c 4 -3 c 4 -1 c 5 -5 c 4 -2 c 4 0 c 5 2 c 4 -2 c 5 3 c 4 2 c 4 4 c 5 16 c 4 129 c 4 132 c 5 46 c 4 -86 c 5 -130 c
4 -67 c 4 -51 c 5 -12 c 4 -1 c 4 2 c 5 0 c 4 -1 c 4 -2 c 5 -2 c 4 -4 c 5 -2 c 4 3 c 4 0 c 5 -1 c 4 -1 c 4 -1 c 5 0 c 4 2 c 5 -1 c
4 -3 c 4 0 c 5 0 c 4 1 c 4 -1 c 5 0 c 4 1 c 5 -2 c 4 2 c 4 12 c 5 71 c 4 61 c 4 -2 c 5 -82 c 4 -57 c 5 -6 c 4 -3 c 4 1 c 5 0 c 4 0 c
4 1 c 5 0 c 4 12 c 4 15 c 5 2 c 4 -17 c 5 -13 c 4 -4 c 4 1 c 5 0 c 4 -1 c 4 1 c 5 1 c 4 5 c 5 38 c 4 69 c 4 17 c 5 -44 c 4 -69 c
4 -12 c 5 1 c 1 6126 c 2 -5481 2977 7019 l 4 -579 c 4 -20 c 5 -8 c 4 -12 c 4 -17 c 5 -5 c 4 -1 c 2 6123 c 2 -5534 3029 7019 l
4 -546 c 5 -24 c 4 -8 c 5 -4 c 4 -2 c 4 -2 c 5 -1 c 4 -3 c 4 -1 c 5 -1 c 4 0 c 5 0 c 4 -2 c 4 2 c 5 -2 c 4 -1 c 4 -2 c 5 -1 c 4 1 c
5 2 c 4 -1 c 4 -1 c 5 0 c 4 -1 c 4 -1 c 5 0 c 4 1 c 4 3 c 5 -3 c 4 0 c 5 -1 c 4 -3 c 4 1 c 5 3 c 4 0 c 4 -1 c 5 0 c 4 0 c 5 -2 c
4 0 c 4 1 c 5 0 c 4 -4 c 4 2 c 5 -1 c 4 3 c 5 -1 c 4 0 c 4 1 c 5 6 c 4 69 c 4 214 c 5 74 c 4 -66 c 5 -212 c 4 -67 c 4 -6 c 5 -5 c
4 -8 c 4 2 c 5 3 c 4 0 c 4 -2 c 5 -2 c 4 -2 c 5 1 c 4 1 c 4 2 c 5 -3 c 4 3 c 4 -2 c 5 1 c 4 0 c 5 0 c 4 2 c 4 1 c 5 -2 c 4 -1 c
4 0 c 5 0 c 4 2 c 5 -2 c 4 0 c 4 3 c 5 4 c 4 8 c 4 30 c 5 350 c 4 1696 c 5 897 c 4 -365 c 4 -1793 c 5 -734 c 4 -76 c 4 -8 c 5 4 c
4 20 c 4 11 c 5 -10 c 4 -27 c 5 -8 c 4 0 c 4 -2 c 5 1 c 4 -2 c 4 0 c 5 2 c 4 -1 c 5 0 c 4 -2 c 4 -1 c 5 0 c 4 0 c 4 -2 c 5 1 c 4 0 c
5 -5 c 4 4 c 4 -1 c 5 -1 c 4 0 c 4 1 c 5 0 c 4 -3 c 4 8 c 5 6 c 4 -1 c 5 -5 c 4 -6 c 4 -2 c 5 2 c 4 -1 c 4 -1 c 5 2 c 4 0 c 5 -2 c
4 1 c 4 -1 c 5 -1 c 4 -1 c 4 5 c 5 32 c 4 39 c 5 5 c 4 -33 c 4 -41 c 5 -4 c 4 0 c 4 -1 c 5 1 c 4 -1 c 5 -1 c 4 -2 c 4 3 c 5 1 c
4 0 c 4 1 c 5 0 c 4 2 c 4 1 c 5 10 c 4 40 c 5 86 c 4 31 c 4 -36 c 5 -80 c 4 -26 c 4 66 c 5 295 c 4 193 c 5 -53 c 4 -325 c 4 -178 c
5 -20 c 4 -4 c 4 -1 c 5 1 c 4 0 c 5 -1 c 4 -2 c 4 -2 c 5 1 c 4 -1 c 4 1 c 5 0 c 4 1 c 5 -2 c 4 1 c 4 0 c 5 2 c 4 -1 c 4 -1 c 5 0 c
4 4 c 4 -2 c 5 -3 c 4 -1 c 5 0 c 4 1 c 4 1 c 5 0 c 4 -3 c 4 1 c 5 1 c 4 1 c 5 0 c 4 -2 c 4 -2 c 5 2 c 4 -1 c 4 -1 c 5 -1 c 4 3 c
5 -1 c 4 -1 c 4 1 c 5 2 c 4 -2 c 4 1 c 5 -1 c 4 -2 c 5 1 c 4 -1 c 4 -1 c 5 -2 c 4 1 c 4 -1 c 5 -2 c 4 2 c 4 1 c 5 -1 c 4 0 c 5 -1 c
4 0 c 4 1 c 5 0 c 4 1 c 4 1 c 5 -1 c 4 -2 c 5 0 c 4 2 c 4 1 c 5 3130 c 1 3018 c 2 -6094 4131 7019 l 4 -31 c 4 -3 c 5 -1 c 4 -2 c
5 -2 c 4 -2 c 4 0 c 5 0 c 4 -2 c 4 -1 c 5 0 c 4 -2 c 4 0 c 5 0 c 4 1 c 5 0 c 4 0 c 4 -1 c 5 2 c 4 -4 c 4 0 c 5 0 c 4 0 c 5 -1 c
4 -2 c 4 0 c 5 1 c 4 -1 c 4 0 c 5 -1 c 4 3 c 5 0 c 4 -1 c 4 0 c 5 2 c 4 11 c 4 12 c 5 0 c 4 -13 c 4 -10 c 5 -1 c 4 0 c 5 -2 c 4 2 c
4 -2 c 5 2 c 4 0 c 4 3 c 5 3 c 4 1 c 5 -1 c 4 2 c 4 0 c 5 -5 c 4 -2 c 4 -1 c 5 0 c 4 -2 c 5 1 c 4 0 c 4 3 c 5 2 c 4 5 c 4 4 c 5 23 c
4 268 c 5 676 c 4 261 c 4 -291 c 5 -683 c 4 -233 c 4 -16 c 5 -9 c 4 -7 c 4 -1 c 5 0 c 4 -2 c 5 -2 c 4 4 c 4 1 c 5 0 c 4 -6 c 4 -2 c
5 0 c 4 0 c 5 1 c 4 0 c 4 1 c 5 -1 c 4 -3 c 4 -2 c 5 0 c 4 0 c 5 1 c 4 -1 c 4 0 c 5 0 c 4 0 c 4 -1 c 5 1 c 4 1 c 5 2 c 4 3 c 4 -2 c
5 -4 c 4 -2 c 4 -1 c 5 3 c 4 0 c 4 -1 c 5 1 c 4 0 c 5 3 c 4 1 c 4 -1 c 5 -4 c 4 0 c 4 0 c 5 2 c 4 1 c 5 -1 c 4 -1 c 4 3 c 5 0 c
4 -2 c 4 -4 c 5 -2 c 4 1 c 5 1 c 4 -1 c 4 -1 c 5 0 c 4 2 c 4 6 c 5 5 c 4 -3 c 5 -9 c 4 -1 c 4 -1 c 5 -2 c 4 2 c 4 0 c 5 13 c 4 17 c
4 3 c 5 -12 c 4 -15 c 5 -5 c 4 0 c 4 0 c 5 1 c 4 0 c 4 1 c 5 -1 c 4 0 c 5 2 c 4 1 c 4 0 c 5 -1 c 4 -1 c 4 -2 c 5 -1 c 4 0 c 5 3 c
4 -1 c 4 1 c 5 1 c 4 1 c 4 0 c 5 1 c 4 0 c 5 2 c 4 -3 c 4 2 c 5 0 c 4 2 c 4 1 c 5 0 c 4 4 c 4 1 c 5 2 c 4 -1 c 5 2 c 4 9 c 4 9 c
5 14 c 4 58 c 4 637 c 5 1902 c 4 709 c 5 -647 c 4 -1898 c 4 -685 c 5 -78 c 4 -13 c 4 -9 c 5 -4 c 4 -2 c 5 -4 c 4 -2 c 4 1 c 5 0 c
4 -3 c 4 -3 c 5 0 c 4 -1 c 4 -1 c 5 3 c 4 33 c 5 103 c 4 35 c 4 -42 c 5 -109 c 4 -26 c 4 0 c 5 -1 c 4 2 c 2 6154 c
2 -5529 5101 7019 l 4 -578 c 5 -20 c 4 -9 c 5 -6 c 4 -4 c 4 0 c 5 -1 c 4 0 c 4 -2 c 5 1 c 4 0 c 5 3 c 4 -2 c 4 2 c 5 -5 c 4 1 c
4 -1 c 5 2 c 4 -2 c 4 -3 c 5 1 c 4 1 c 5 3 c 4 -1 c 4 0 c 5 0 c 4 0 c 4 -2 c 5 -2 c 4 -1 c 5 -1 c 4 0 c 4 -1 c 5 3 c 4 -2 c 4 0 c
5 0 c 4 -1 c 5 0 c 4 3 c 4 -1 c 5 -5 c 4 2 c 4 1 c 5 1 c 4 4 c 5 8 c 4 3 c 4 -2 c 5 -4 c 4 -4 c 4 -5 c 5 0 c 4 -2 c 4 1 c 5 0 c
4 -3 c 5 1 c 4 0 c 4 -1 c 5 -2 c 4 2 c 4 -1 c 5 3 c 4 1 c 5 1 c 4 1 c 4 -5 c 5 2 c 4 -2 c 4 -1 c 5 1 c 4 0 c 5 -2 c 4 1 c 4 -1 c
5 -1 c 4 0 c 4 2 c 5 1 c 4 0 c 5 3 c 4 0 c 4 -2 c 5 -2 c 4 -1 c 4 1 c 5 1 c 4 2 c 4 -2 c 5 1 c 4 -2 c 5 1 c 4 0 c 4 1 c 5 2 c 4 -2 c
4 0 c 5 -1 c 4 0 c 5 3 c 4 8 c 4 6 c 5 -3 c 4 -6 c 4 -7 c 5 -2 c 4 -1 c 5 -1 c 4 1 c 4 2 c 5 2 c 4 2 c 4 3 c 5 3 c 4 0 c 4 -4 c
5 -1 c 4 -5 c 5 0 c 4 6 c 4 4 c 5 7 c 4 5 c 4 3 c 5 139 c 4 235 c 5 47 c 4 -145 c 4 -259 c 5 -36 c 4 -4 c 4 1 c 5 0 c 4 -2 c 5 0 c
4 -76 c 4 74 c 5 0 c 4 1 c 4 1 c 5 -1 c 4 1 c 5 -1 c 4 -1 c 4 1 c 5 3 c 4 2 c 4 -1 c 5 3 c 4 8 c 4 3 c 5 -6 c 4 -6 c 5 -3 c 4 -1 c
4 -1 c 5 2 c 4 1 c 4 -1 c 5 8 c 4 0 c 5 -1 c 4 -4 c 4 -1 c 5 1 c 4 -1 c 4 2 c 5 -2 c 4 0 c 5 0 c 4 2 c 4 -4 c 5 2 c 4 -2 c 4 1 c
5 1 c 4 0 c 5 -2 c 4 1 c 4 2 c 5 2 c 4 1 c 4 0 c 5 0 c 4 4 c 4 -2 c 5 -2 c 4 -3 c 5 0 c 4 3 c 4 3 c 5 7 c 4 34 c 4 180 c 5 141 c
4 -13 c 5 -142 c 4 -5 c 4 54 c 5 -31 c 4 -156 c 4 -69 c 5 -5 c 4 0 c 5 -1 c 4 0 c 4 1 c 5 1 c 4 -2 c 4 -1 c 5 1 c 4 2 c 5 0 c 4 -1 c
4 -2 c 5 1 c 4 1 c 4 1 c 5 1 c 4 0 c 4 0 c 5 1 c 4 0 c 5 -1 c 4 -1 c 4 0 c 5 1 c 4 0 c 4 -2 c 5 1 c 4 6 c 5 2 c 4 -1 c 4 -2 c 5 -3 c
4 -1 c 4 -1 c 5 -1 c 4 -3 c 5 -1 c 4 2 c 4 0 c 5 -1 c 4 0 c 4 1 c 5 2 c 4 1 c 5 0 c 4 1 c 4 -1 c 5 1 c 4 -1 c 4 1 c 5 0 c 4 3 c
4 0 c 5 0 c 4 -3 c 5 -2 c 4 0 c 4 0 c 5 2 c 4 -1 c 4 0 c 5 2 c 4 0 c 5 0 c 4 0 c 4 1 c 5 -1 c 4 -1 c 4 3 c 5 6 c 4 -1 c 5 0 c 4 -4 c
4 -4 c 5 1 c 4 1 c 4 -1 c 5 2 c 4 -4 c 4 2 c 5 -2 c 4 0 c 5 1 c 4 1 c 4 -1 c 5 0 c 4 2 c 4 1 c 5 0 c 4 0 c 5 0 c 4 1 c 4 -2 c 5 0 c
4 2 c 4 -2 c 5 2 c 4 -3 c 5 -1 c 4 3 c 4 -1 c 5 3 c 4 -1 c 4 -1 c 5 -1 c 4 1 c 5 1 c 4 -1 c 4 1 c 5 -1 c 4 1 c 4 3 c 5 4 c 4 2 c
4 0 c 5 -2 c 4 -3 c 5 1 c 4 -2 c 4 0 c 5 2 c 4 -1 c 4 1 c 5 0 c 4 4 c 5 2 c 4 -1 c 4 3 c 5 2 c 4 0 c 4 -3 c 2 6134 c
1 -3363 6593 7019 l 4 -2724 c 4 -147 c 2 6234 c 1 -3113 6628 7019 l 4 -2937 c 4 -20 c 5 129 c 4 247 c 4 52 c 5 -134 c 4 -275 c
5 -50 c 4 -7 c 4 3 c 5 -7 c 4 -2 c 4 3 c 5 2 c 4 -2 c 5 3 c 4 -4 c 4 2 c 5 3 c 4 362 c 2 5745 c 2 -6042 6749 7019 l 4 -32 c 5 -12 c
4 -9 c 5 -1 c 4 -10 c 4 7 c 5 -3 c 4 -3 c 4 1 c 5 2 c 4 19 c 4 3 c 5 1 c 4 -10 c 5 -16 c 4 0 c 4 -8 c 5 4 c 4 4 c 4 0 c 5 -1 c 4 0 c
5 -9 c 4 4 c 4 -7 c 5 -1 c 4 3 c 4 1 c 5 -1 c 4 3 c 5 -2 c 4 3 c 4 -5 c 5 -1 c 4 3 c 4 -1 c 5 3 c 4 0 c 5 -2 c 4 1 c 4 -2 c 5 1 c
4 2 c 4 11 c 5 29 c 4 78 c 4 65 c 5 -1 c 4 -69 c 5 -63 c 4 -22 c 4 -11 c 5 -7 c 4 -3 c 4 -2 c 5 0 c 4 0 c 5 -2 c 4 2 c 4 1 c 5 -2 c
4 -5 c 4 -4 c 5 0 c 4 -4 c 5 3 c 4 -3 c 4 -2 c 5 4 c 4 -1 c 4 -3 c 5 1 c 4 1 c 4 -1 c 5 -3 c 4 0 c 5 -1 c 4 0 c 4 -1 c 5 3 c 4 1 c
4 -2 c 5 2 c 4 2 c 5 -1 c 4 -3 c 4 2 c 5 -2 c 4 -2 c 4 0 c 5 1 c 4 -1 c 5 1 c 4 2 c 4 -3 c 5 2 c 4 0 c 4 0 c 5 4 c 4 3 c 5 1 c
4 -3 c 4 -1 c 5 9 c 4 11 c 4 9 c 5 3 c 4 -10 c 4 -9 c 5 -6 c 4 -8 c 5 0 c 4 1 c 4 -1 c 5 1 c 4 0 c 4 3 c 5 19 c 4 8 c 5 2 c 4 -13 c
4 -14 c 5 -4 c 4 -1 c 4 3 c 5 3 c 4 0 c 5 -1 c 4 -1 c 4 -2 c 5 -2 c 4 1 c 4 -1 c 5 -1 c 4 -2 c 5 -2 c 4 2 c 4 0 c 5 3 c 4 4 c 4 4 c
5 11 c 4 141 c 4 652 c 5 304 c 4 -95 c 5 -654 c 4 -327 c 4 -33 c 5 -6 c 4 1 c 4 -2 c 5 -2 c 4 2 c 5 1 c 4 -1 c 4 0 c 5 0 c 4 3 c
4 5 c 5 0 c 4 0 c 5 11 c 4 20 c 4 2 c 5 -15 c 4 -23 c 4 2 c 5 1 c 4 -1 c 5 -5 c 4 -3 c 4 -2 c 5 1 c 4 0 c 4 -3 c 5 -1 c 4 1 c 4 1 c
5 4 c 4 4 c 5 2 c 4 -5 c 4 3 c 5 2 c 4 3 c 4 -2 c 5 -4 c 4 -3 c 5 4 c 4 -3 c 4 0 c 5 -2 c 4 3 c 4 -4 c 5 3 c 4 0 c 5 -1 c 4 1 c
4 3 c 5 -3 c 4 0 c 4 -1 c 5 -2 c 4 1 c 5 7 c 4 0 c 4 -1 c 5 -5 c 4 1 c 4 0 c 5 -1 c 4 1 c 4 1 c 5 -2 c 4 0 c 5 1 c 4 5 c 4 35 c
5 78 c 4 21 c 4 -32 c 5 -77 c 4 -26 c 5 1 c 4 2 c 4 5 c 5 2 c 4 -1 c 4 -5 c 5 -5 c 4 2 c 5 -2 c 4 0 c 4 0 c 5 3 c 4 0 c 4 0 c 5 0 c
4 -1 c 4 -2 c 5 1 c 4 1 c 5 4 c 4 0 c 4 0 c 5 0 c 4 -3 c 4 1 c 5 -1 c 4 1 c 5 2 c 4 0 c 4 1 c 5 -1 c 4 -1 c 4 2 c 5 0 c 4 2 c 5 -1 c
4 0 c 4 -1 c 5 1 c 4 1 c 4 2 c 5 0 c 4 0 c 5 17 c 4 74 c 4 27 c 5 -18 c 4 -66 c 4 -32 c 5 -2 c 4 1 c 4 -4 c 5 0 c 4 -1 c 5 -1 c
4 4 c 4 0 c 5 0 c 4 0 c 4 0 c 5 0 c 4 5 c 5 0 c 4 3 c 4 4 c 5 2 c 4 16 c 4 78 c 5 748 c 4 1968 c 5 360 c 4 -670 c 4 -1967 c 5 -465 c
4 -46 c 4 6 c 5 114 c 4 147 c 5 19 c 4 -100 c 4 -167 c 5 -37 c 4 -2 c 4 -1 c 5 -2 c 4 0 c 4 -2 c 5 -4 c 4 -1 c 5 2 c 4 3 c 4 3 c
5 -3 c 4 2 c 4 -4 c 5 0 c 4 -1 c 5 3 c 4 0 c 4 -1 c 5 1 c 4 -1 c 4 2 c 5 -2 c 4 2 c 5 0 c 4 3 c 4 0 c 5 2 c 4 4 c 4 0 c 5 -2 c
4 -2 c 5 -1 c 4 0 c 4 8 c 5 18 c 4 14 c 4 -5 c 5 -12 c 4 -11 c 4 2 c 5 1 c 4 -3 c 5 2 c 4 2 c 4 2 c 5 -1 c 4 0 c 4 3 c 5 5 c 4 6 c
5 6 c 4 0 c 4 2 c 5 -1 c 4 2 c 4 -1 c 5 6 c 4 6 c 5 3 c 4 -3 c 4 2 c 5 -2 c 4 5 c 4 11 c 5 3 c 4 2 c 4 5 c 5 -2 c 4 4 c 5 6 c 4 4 c
4 4 c 5 2 c 4 7 c 4 4 c 5 6 c 4 3 c 5 8 c 4 14 c 4 6 c 5 3 c 4 5 c 4 13 c 5 10 c 4 2 c 5 12 c 4 5 c 4 12 c 5 8 c 4 18 c 4 8 c 5 13 c
4 10 c 5 18 c 4 18 c 4 20 c 5 9 c 4 23 c 4 15 c 5 22 c 4 24 c 4 24 c 5 20 c 4 19 c 5 31 c 4 23 c 4 32 c 5 38 c 4 21 c 4 34 c 5 55 c
4 51 c 5 31 c 4 54 c 4 63 c 5 43 c 4 34 c 4 72 c 5 44 c 4 63 c 5 55 c 4 73 c 4 73 c 5 36 c 4 129 c 4 53 c 5 37 c 4 87 c 5 78 c
4 172 c 4 166 c 5 91 c 4 121 c 4 102 c 5 176 c 4 109 c 4 95 c 5 187 c 4 103 c 5 185 c 4 192 c 4 185 c 5 252 c 4 172 c 4 210 c
5 398 c 4 217 c 5 334 c 4 172 c 4 288 c 5 305 c 0 78 c 2 -261 8908 7019 l 5 -533 c 4 -419 c 5 -173 c 4 -222 c 4 -298 c 5 -181 c
4 -258 c 4 -159 c 5 -289 c 4 -229 c 5 -105 c 4 -21 c 4 15 c 5 -57 c 4 -261 c 4 -314 c 5 -192 c 4 -20 c 4 -64 c 5 -116 c 4 -120 c
5 -109 c 4 -61 c 4 -119 c 5 -57 c 4 -59 c 4 -28 c 5 -100 c 4 -92 c 5 -66 c 4 -49 c 4 -46 c 5 -42 c 4 -30 c 4 -48 c 5 -39 c 4 -59 c
5 -49 c 4 -16 c 4 -56 c 5 -43 c 4 -42 c 4 -19 c 5 -32 c 4 -22 c 4 -11 c 5 -18 c 4 -18 c 5 -22 c 4 -17 c 4 -30 c 5 -20 c 4 -22 c
4 -14 c 5 -9 c 4 -13 c 5 -15 c 4 -13 c 4 -17 c 5 -9 c 4 -16 c 4 -11 c 5 -6 c 4 -4 c 5 -9 c 4 -4 c 4 -7 c 5 -10 c 4 -3 c 4 -12 c
5 -7 c 4 6 c 5 8 c 4 -6 c 4 -9 c 5 -6 c 4 -3 c 4 -4 c 5 -4 c 4 -9 c 4 -1 c 5 -1 c 4 -1 c 5 -5 c 4 -3 c 4 7 c 5 8 c 4 6 c 4 4 c
5 -8 c 4 -12 c 5 -2 c 4 0 c 4 -1 c 5 1 c 4 -5 c 4 0 c 5 4 c 4 6 c 5 4 c 4 4 c 4 12 c 5 4 c 4 2 c 4 -6 c 5 10 c 4 6 c 5 1 c 4 4 c
4 5 c 5 0 c 4 1 c 4 10 c 5 8 c 4 1 c 4 6 c 5 15 c 4 7 c 5 12 c 4 12 c 4 6 c 5 3 c 4 10 c 4 9 c 5 15 c 4 26 c 5 10 c 4 23 c 4 18 c
5 16 c 4 28 c 4 8 c 5 17 c 4 16 c 5 27 c 4 32 c 4 50 c 5 39 c 4 30 c 4 34 c
5 24 c 4 18 c 5 33 c 4 24 c 4 -941 c 5 0 c 4 1057 c 4 56 c 5 83 c 4 36 c 4 9 c 5 55 c 4 94 c 5 144 c 4 57 c 4 41 c 5 43 c 4 112 c
4 60 c 5 88 c 4 65 c 5 108 c 4 122 c 4 102 c 5 73 c 4 180 c 4 173 c 5 172 c 4 139 c 5 245 c 4 255 c 4 316 c 5 208 c 4 164 c 4 284 c
5 285 c 4 378 c 5 689 c 2 341 c
0 -126 3303 418 l 54 0 3303 418 l 18 -6 c 6 -6 c 6 -12 c 0 -12 c -6 -12 c -6 -6 c -18 -6 c -54 0 c 42 -66 3345 358 l
-12 -6 3453 376 l -12 -12 c -6 -18 c 0 -12 c 6 -18 c 12 -12 c 12 -6 c 18 0 c 12 6 c 12 12 c 6 18 c 0 12 c -6 18 c -12 12 c -12 6 c
-18 0 c 24 -84 3537 376 l -24 -84 3585 376 l 24 -84 3585 376 l -24 -84 3633 376 l 108 0 3675 364 l 108 0 3675 328 l 12 6 3939 394 l
18 18 c 0 -126 c 12 6 4059 394 l 18 18 c 0 -126 c -12 -6 4287 376 l -12 -12 c -6 -18 c 0 -12 c 6 -18 c 12 -12 c 12 -6 c 18 0 c
12 6 c 12 12 c 6 18 c 0 12 c -6 18 c -12 12 c -12 6 c -18 0 c -12 0 4413 418 l -12 -6 c -6 -18 c 0 -102 c 42 0 4365 376 l
12 6 4557 394 l 18 18 c 0 -126 c -60 0 4731 418 l -6 -54 c 6 6 c 18 6 c 18 0 c 18 -6 c 12 -12 c 6 -18 c 0 -12 c -6 -18 c -12 -12 c
-18 -6 c -18 0 c -18 6 c -6 6 c -6 12 c 12 6 5181 394 l 18 18 c 0 -126 c -6 -6 5294 376 l 6 -6 c 6 6 c -6 6 c -6 -6 5294 304 l
6 -6 c 6 6 c -6 6 c -48 -126 5474 418 l 48 -126 5474 418 l 60 0 5444 334 l 0 -84 5552 376 l 6 18 5552 340 l 12 12 c 12 6 c 18 0 c
-12 12 5696 358 l -12 6 c -18 0 c -12 -6 c -12 -12 c -6 -18 c 0 -12 c 6 -18 c 12 -12 c 12 -6 c 18 0 c 12 6 c 12 12 c
108 0 5738 346 l -18 -6 5924 418 l -12 -18 c -6 -30 c 0 -18 c 6 -30 c 12 -18 c 18 -6 c 12 0 c 18 6 c 12 18 c 6 30 c 0 18 c -6 30 c
-12 18 c -18 6 c -12 0 c -60 -126 6092 418 l 84 0 6008 418 l 12 6 6146 394 l 18 18 c 0 -126 c -6 -6 6260 304 l 6 -6 c 6 6 c -6 6 c
-12 0 6350 418 l -12 -6 c -6 -18 c 0 -102 c 42 0 6302 376 l 6 -6 6380 418 l 6 6 c -6 6 c -6 -6 c 0 -84 6386 376 l 0 -102 6440 418 l
6 -18 c 12 -6 c 12 0 c 42 0 6422 376 l -6 12 6566 358 l -18 6 c -18 0 c -18 -6 c -6 -12 c 6 -12 c 12 -6 c 30 -6 c 12 -6 c 6 -12 c
0 -6 c -6 -12 c -18 -6 c -18 0 c -18 6 c -6 12 c 0 -192 6896 442 l 0 -192 6902 442 l 42 0 6896 442 l 42 0 6896 250 l 0 6 6980 388 l
6 12 c 6 6 c 12 6 c 24 0 c 12 -6 c 6 -6 c 6 -12 c 0 -12 c -6 -12 c -12 -18 c -60 -60 c 84 0 c -6 -6 7106 376 l 6 -6 c 6 6 c -6 6 c
-6 -6 7106 304 l 6 -6 c 6 6 c -6 6 c 0 -192 7286 442 l 0 -192 7292 442 l 42 0 7250 442 l 42 0 7250 250 l
0 -249 1102 1405 l 4 -11 1058 1496 l 7 -4 c 8 0 c 7 4 c 4 7 c 4 15 c 4 12 c 7 7 c 8 4 c 11 0 c 8 -4 c 4 -3 c 3 -12 c 0 -15 c
-3 -11 c -4 -4 c -8 -4 c -11 0 c -8 4 c -7 8 c -4 11 c -4 15 c -4 8 c -7 3 c -8 0 c -7 -3 c -4 -12 c 0 -15 c 4 -12 1058 1576 l
11 -7 c 19 -4 c 11 0 c 19 4 c 12 7 c 3 12 c 0 7 c -3 11 c -12 8 c -19 4 c -11 0 c -19 -4 c -11 -8 c -4 -11 c 0 -7 c
4 -11 1058 1651 l 11 -8 c 19 -4 c 11 0 c 19 4 c 12 8 c 3 11 c 0 8 c -3 11 c -12 8 c -19 3 c -11 0 c -19 -3 c -11 -8 c -4 -11 c
0 -8 c 4 -12 1058 1727 l 11 -7 c 19 -4 c 11 0 c 19 4 c 12 7 c 3 12 c 0 7 c -3 12 c -12 7 c -19 4 c -11 0 c -19 -4 c -11 -7 c
-4 -12 c 0 -7 c 4 -4 1130 1787 l 3 4 c -3 4 c -4 -4 c 4 -11 1058 1840 l 11 -8 c 19 -4 c 11 0 c 19 4 c 12 8 c 3 11 c 0 8 c -3 11 c
-12 8 c -19 3 c -11 0 c -19 -3 c -11 -8 c -4 -11 c 0 -8 c 53 -38 1058 1931 l 0 57 c 79 0 1058 1931 l 0 -38 1058 2014 l 34 -4 c
-4 4 c -4 11 c 0 12 c 4 11 c 8 8 c 11 4 c 8 0 c 11 -4 c 8 -8 c 3 -11 c 0 -12 c -3 -11 c -4 -4 c -8 -3 c 0 -249 2832 1475 l
4 -11 2788 1566 l 7 -4 c 8 0 c 8 4 c 3 7 c 4 15 c 4 12 c 7 7 c 8 4 c 11 0 c 8 -4 c 4 -4 c 3 -11 c 0 -15 c -3 -11 c -4 -4 c -8 -4 c
-11 0 c -8 4 c -7 7 c -4 12 c -4 15 c -3 7 c -8 4 c -8 0 c -7 -4 c -4 -11 c 0 -15 c 4 -11 2788 1645 l 11 -7 c 19 -4 c 11 0 c 19 4 c
12 7 c 3 11 c 0 8 c -3 11 c -12 8 c -19 4 c -11 0 c -19 -4 c -11 -8 c -4 -11 c 0 -8 c -4 0 2807 1702 l -7 4 c -4 4 c -4 7 c 0 15 c
4 8 c 4 4 c 7 3 c 8 0 c 7 -3 c 12 -8 c 37 -38 c 0 53 c 53 -38 2788 1812 l 0 57 c 79 0 2788 1812 l 4 -4 2860 1857 l 3 4 c -3 4 c
-4 -4 c -4 0 2807 1891 l -7 4 c -4 4 c -4 7 c 0 15 c 4 8 c 4 4 c 7 3 c 8 0 c 7 -3 c 12 -8 c 37 -38 c 0 53 c 0 -38 2788 2008 l
34 -3 c -4 3 c -3 12 c 0 11 c 3 11 c 8 8 c 11 4 c 8 0 c 11 -4 c 8 -8 c 3 -11 c 0 -11 c -3 -12 c -4 -3 c -8 -4 c 0 42 2788 2046 l
30 -23 c 0 11 c 4 8 c 4 4 c 11 3 c 8 0 c 11 -3 c 8 -8 c 3 -11 c 0 -12 c -3 -11 c -4 -4 c -8 -4 c 0 -249 2938 1453 l
4 -11 2895 1544 l 7 -4 c 8 0 c 7 4 c 4 7 c 4 15 c 4 12 c 7 7 c 8 4 c 11 0 c 8 -4 c 3 -4 c 4 -11 c 0 -15 c -4 -11 c -3 -4 c -8 -4 c
-11 0 c -8 4 c -7 7 c -4 12 c -4 15 c -4 7 c -7 4 c -8 0 c -7 -4 c -4 -11 c 0 -15 c 4 -11 2895 1623 l 11 -7 c 19 -4 c 11 0 c 19 4 c
11 7 c 4 11 c 0 8 c -4 11 c -11 8 c -19 4 c -11 0 c -19 -4 c -11 -8 c -4 -11 c 0 -8 c -4 0 2914 1680 l -8 4 c -3 4 c -4 7 c 0 15 c
4 8 c 3 4 c 8 3 c 7 0 c 8 -3 c 11 -8 c 38 -38 c 0 53 c 0 -38 2895 1797 l 34 -3 c -4 3 c -4 12 c 0 11 c 4 11 c 8 8 c 11 4 c 7 0 c
12 -4 c 7 -8 c 4 -11 c 0 -11 c -4 -12 c -3 -3 c -8 -4 c 3 -4 2967 1835 l 4 4 c -4 4 c -3 -4 c 79 -38 2895 1918 l 0 53 2895 1865 l
-4 0 2914 1945 l -8 3 c -3 4 c -4 8 c 0 15 c 4 7 c 3 4 c 8 4 c 7 0 c 8 -4 c 11 -7 c 38 -38 c 0 53 c 79 -37 2895 2069 l
0 53 2895 2016 l 0 -249 3263 1684 l 4 -11 3219 1775 l 8 -4 c 7 0 c 8 4 c 4 7 c 3 15 c 4 12 c 8 7 c 7 4 c 12 0 c 7 -4 c 4 -4 c
4 -11 c 0 -15 c -4 -11 c -4 -4 c -7 -4 c -12 0 c -7 4 c -8 7 c -4 12 c -3 15 c -4 7 c -8 4 c -7 0 c -8 -4 c -4 -11 c 0 -15 c
4 -11 3219 1854 l 11 -8 c 19 -3 c 12 0 c 19 3 c 11 8 c 4 11 c 0 8 c -4 11 c -11 8 c -19 4 c -12 0 c -19 -4 c -11 -8 c -4 -11 c
0 -8 c 0 41 3219 1915 l 31 -22 c 0 11 c 3 8 c 4 3 c 11 4 c 8 0 c 11 -4 c 8 -7 c 4 -12 c 0 -11 c -4 -11 c -4 -4 c -7 -4 c
4 -12 3219 2006 l 11 -7 c 19 -4 c 12 0 c 19 4 c 11 7 c 4 12 c 0 7 c -4 11 c -11 8 c -19 4 c -12 0 c -19 -4 c -11 -8 c -4 -11 c
0 -7 c 4 -4 3291 2066 l 4 4 c -4 4 c -4 -4 c -4 0 3238 2100 l -7 4 c -4 4 c -4 7 c 0 15 c 4 8 c 4 4 c 7 3 c 8 0 c 8 -3 c 11 -8 c
38 -38 c 0 53 c 4 -12 3219 2195 l 11 -7 c 19 -4 c 12 0 c 19 4 c 11 7 c 4 12 c 0 7 c -4 11 c -11 8 c -19 4 c -12 0 c -19 -4 c
-11 -8 c -4 -11 c 0 -7 c 4 -11 3219 2270 l 11 -8 c 19 -4 c 12 0 c 19 4 c 11 8 c 4 11 c 0 8 c -4 11 c -11 8 c -19 3 c -12 0 c
-19 -3 c -11 -8 c -4 -11 c 0 -8 c 0 -250 3425 4311 l 3 -11 3382 4401 l 8 -4 c 8 0 c 7 4 c 4 8 c 4 15 c 3 11 c 8 8 c 8 3 c 11 0 c
7 -3 c 4 -4 c 4 -11 c 0 -16 c -4 -11 c -4 -4 c -7 -3 c -11 0 c -8 3 c -8 8 c -3 11 c -4 15 c -4 8 c -7 4 c -8 0 c -8 -4 c -3 -11 c
0 -16 c 3 -12 3382 4481 l 12 -7 c 19 -4 c 11 0 c 19 4 c 11 7 c 4 12 c 0 7 c -4 12 c -11 7 c -19 4 c -11 0 c -19 -4 c -12 -7 c
-3 -12 c 0 -7 c 0 42 3382 4541 l 30 -23 c 0 12 c 4 7 c 3 4 c 12 4 c 7 0 c 12 -4 c 7 -8 c 4 -11 c 0 -11 c -4 -12 c -4 -3 c -7 -4 c
-4 0 3401 4613 l -8 4 c -4 4 c -3 7 c 0 15 c 3 8 c 4 4 c 8 3 c 7 0 c 8 -3 c 11 -8 c 38 -38 c 0 53 c 4 -3 3453 4692 l 4 3 c -4 4 c
-4 -4 c 53 -38 3382 4761 l 0 56 c 79 0 3382 4761 l 0 41 3382 4806 l 30 -22 c 0 11 c 4 8 c 3 3 c 12 4 c 7 0 c 12 -4 c 7 -7 c 4 -11 c
0 -12 c -4 -11 c -4 -4 c -7 -4 c -4 8 3397 4885 l -11 11 c 79 0 c 0 -249 3775 1897 l 3 -11 3732 1988 l 8 -4 c 8 0 c 7 4 c 4 7 c
4 16 c 3 11 c 8 7 c 8 4 c 11 0 c 7 -4 c 4 -3 c 4 -12 c 0 -15 c -4 -11 c -4 -4 c -7 -4 c -11 0 c -8 4 c -8 8 c -3 11 c -4 15 c -4 8 c
-7 3 c -8 0 c -8 -3 c -3 -12 c 0 -15 c 3 -12 3732 2068 l 12 -7 c 19 -4 c 11 0 c 19 4 c 11 7 c 4 12 c 0 7 c -4 11 c -11 8 c -19 4 c
-11 0 c -19 -4 c -12 -8 c -3 -11 c 0 -7 c 0 42 3732 2128 l 30 -23 c 0 11 c 4 8 c 3 4 c 12 3 c 7 0 c 12 -3 c 7 -8 c 4 -11 c 0 -12 c
-4 -11 c -4 -4 c -7 -4 c 79 -38 3732 2249 l 0 53 3732 2196 l 4 -4 3803 2279 l 4 4 c -4 4 c -4 -4 c -4 0 3751 2313 l -8 4 c -4 4 c
-3 7 c 0 15 c 3 8 c 4 4 c 8 4 c 7 0 c 8 -4 c 11 -8 c 38 -38 c 0 53 c -4 8 3747 2396 l -11 11 c 79 0 c 3 -12 3732 2480 l 8 -4 c 8 0 c
7 4 c 4 8 c 4 15 c 3 11 c 8 8 c 8 4 c 11 0 c 7 -4 c 4 -4 c 4 -11 c 0 -15 c -4 -12 c -4 -4 c -7 -3 c -11 0 c -8 3 c -8 8 c -3 11 c
-4 15 c -4 8 c -7 4 c -8 0 c -8 -4 c -3 -11 c 0 -15 c 0 -250 4430 2554 l 4 -11 4386 2644 l 7 -4 c 8 0 c 8 4 c 3 8 c 4 15 c 4 11 c
8 8 c 7 3 c 11 0 c 8 -3 c 4 -4 c 4 -11 c 0 -16 c -4 -11 c -4 -4 c -8 -3 c -11 0 c -7 3 c -8 8 c -4 11 c -4 15 c -3 8 c -8 4 c -8 0 c
-7 -4 c -4 -11 c 0 -16 c 4 -12 4386 2724 l 11 -7 c 19 -4 c 12 0 c 18 4 c 12 7 c 4 12 c 0 7 c -4 12 c -12 7 c -18 4 c -12 0 c
-19 -4 c -11 -7 c -4 -12 c 0 -7 c 53 -38 4386 2815 l 0 56 c 80 0 4386 2815 l -7 -3 4397 2901 l -4 -12 c 0 -7 c 4 -12 c 11 -7 c
19 -4 c 19 0 c 15 4 c 8 7 c 4 12 c 0 4 c -4 11 c -8 7 c -11 4 c -4 0 c -11 -4 c -8 -7 c -4 -11 c 0 -4 c 4 -12 c 8 -7 c 11 -4 c
4 -3 4458 2935 l 4 3 c -4 4 c -4 -4 c -4 8 4401 2977 l -11 11 c 80 0 c -4 7 4401 3053 l -11 12 c 80 0 c 80 -38 4386 3170 l
0 53 4386 3117 l 0 -249 4963 4653 l 3 -11 4920 4744 l 8 -4 c 8 0 c 7 4 c 4 7 c 4 15 c 3 12 c 8 7 c 8 4 c 11 0 c 7 -4 c 4 -4 c
4 -11 c 0 -15 c -4 -11 c -4 -4 c -7 -4 c -11 0 c -8 4 c -8 7 c -3 12 c -4 15 c -4 7 c -7 4 c -8 0 c -8 -4 c -3 -11 c 0 -15 c
3 -11 4920 4823 l 12 -8 c 19 -3 c 11 0 c 19 3 c 11 8 c 4 11 c 0 8 c -4 11 c -11 8 c -19 4 c -11 0 c -19 -4 c -12 -8 c -3 -11 c
0 -8 c 0 -38 4920 4922 l 34 -4 c -4 4 c -4 11 c 0 11 c 4 12 c 7 7 c 12 4 c 7 0 c 12 -4 c 7 -7 c 4 -12 c 0 -11 c -4 -11 c -4 -4 c
-7 -4 c 0 42 4920 4959 l 30 -23 c 0 12 c 4 7 c 3 4 c 12 4 c 7 0 c 12 -4 c 7 -8 c 4 -11 c 0 -11 c -4 -12 c -4 -3 c -7 -4 c
4 -4 4991 5035 l 4 4 c -4 4 c -4 -4 c 0 41 4920 5073 l 30 -22 c 0 11 c 4 8 c 3 3 c 12 4 c 7 0 c 12 -4 c 7 -7 c 4 -12 c 0 -11 c
-4 -11 c -4 -4 c -7 -4 c 3 -11 4920 5163 l 12 -7 c 19 -4 c 11 0 c 19 4 c 11 7 c 4 11 c 0 8 c -4 11 c -11 8 c -19 4 c -11 0 c
-19 -4 c -12 -8 c -3 -11 c 0 -8 c 11 -3 4946 5265 l 8 -8 c 4 -11 c 0 -4 c -4 -11 c -8 -8 c -11 -4 c -4 0 c -11 4 c -8 8 c -3 11 c
0 4 c 3 11 c 8 8 c 15 3 c 19 0 c 19 -3 c 11 -8 c 4 -11 c 0 -8 c -4 -11 c -7 -4 c 0 -250 5661 1743 l 4 -12 5618 1834 l 7 -3 c 8 0 c
7 3 c 4 8 c 4 15 c 4 11 c 7 8 c 8 4 c 11 0 c 8 -4 c 3 -4 c 4 -11 c 0 -15 c -4 -12 c -3 -3 c -8 -4 c -11 0 c -8 4 c -7 7 c -4 12 c
-4 15 c -4 7 c -7 4 c -8 0 c -7 -4 c -4 -11 c 0 -15 c 4 -11 5618 1913 l 11 -8 c 19 -4 c 11 0 c 19 4 c 11 8 c 4 11 c 0 8 c -4 11 c
-11 8 c -19 3 c -11 0 c -19 -3 c -11 -8 c -4 -11 c 0 -8 c -7 -4 5629 2015 l -4 -11 c 0 -8 c 4 -11 c 11 -7 c 19 -4 c 19 0 c 15 4 c
7 7 c 4 11 c 0 4 c -4 12 c -7 7 c -11 4 c -4 0 c -12 -4 c -7 -7 c -4 -12 c 0 -4 c 4 -11 c 7 -7 c 12 -4 c -4 0 5637 2045 l -8 4 c
-3 4 c -4 8 c 0 15 c 4 7 c 3 4 c 8 4 c 8 0 c 7 -4 c 11 -8 c 38 -37 c 0 53 c 3 -4 5690 2125 l 4 4 c -4 4 c -3 -4 c -7 -4 5629 2204 l
-4 -11 c 0 -8 c 4 -11 c 11 -7 c 19 -4 c 19 0 c 15 4 c 7 7 c 4 11 c 0 4 c -4 12 c -7 7 c -11 4 c -4 0 c -12 -4 c -7 -7 c -4 -12 c
0 -4 c 4 -11 c 7 -7 c 12 -4 c 0 42 5618 2238 l 30 -23 c 0 11 c 4 8 c 4 4 c 11 4 c 8 0 c 11 -4 c 7 -8 c 4 -11 c 0 -12 c -4 -11 c
-3 -4 c -8 -3 c 4 -11 5618 2329 l 11 -8 c 19 -4 c 11 0 c 19 4 c 11 8 c 4 11 c 0 7 c -4 12 c -11 7 c -19 4 c -11 0 c -19 -4 c
-11 -7 c -4 -12 c 0 -7 c 0 -250 6650 1814 l 4 -11 6606 1904 l 7 -4 c 8 0 c 7 4 c 4 8 c 4 15 c 4 11 c 7 8 c 8 3 c 11 0 c 8 -3 c
4 -4 c 3 -11 c 0 -16 c -3 -11 c -4 -4 c -8 -3 c -11 0 c -8 3 c -7 8 c -4 11 c -4 15 c -4 8 c -7 4 c -8 0 c -7 -4 c -4 -11 c 0 -16 c
4 -12 6606 1984 l 11 -7 c 19 -4 c 11 0 c 19 4 c 12 7 c 3 12 c 0 7 c -3 12 c -12 7 c -19 4 c -11 0 c -19 -4 c -11 -7 c -4 -12 c
0 -7 c 79 -38 6606 2090 l 0 53 6606 2037 l 0 -38 6606 2158 l 34 -4 c -4 4 c -4 11 c 0 12 c 4 11 c 8 7 c 11 4 c 8 0 c 11 -4 c 8 -7 c
3 -11 c 0 -12 c -3 -11 c -4 -4 c -8 -4 c 4 -3 6678 2195 l 3 3 c -3 4 c -4 -4 c -7 -4 6617 2275 l -4 -11 c 0 -8 c 4 -11 c 11 -8 c
19 -4 c 19 0 c 15 4 c 8 8 c 3 11 c 0 4 c -3 11 c -8 8 c -11 4 c -4 0 c -12 -4 c -7 -8 c -4 -11 c 0 -4 c 4 -11 c 7 -8 c 12 -4 c
0 -38 6606 2347 l 34 -4 c -4 4 c -4 11 c 0 11 c 4 12 c 8 7 c 11 4 c 8 0 c 11 -4 c 8 -7 c 3 -12 c 0 -11 c -3 -11 c -4 -4 c -8 -4 c
-4 0 6625 2381 l -8 3 c -3 4 c -4 8 c 0 15 c 4 7 c 3 4 c 8 4 c 8 0 c 7 -4 c 11 -7 c 38 -38 c 0 53 c 0 -250 7386 2450 l
4 -12 7342 2541 l 7 -3 c 8 0 c 8 3 c 3 8 c 4 15 c 4 11 c 7 8 c 8 4 c 11 0 c 8 -4 c 4 -4 c 3 -11 c 0 -15 c -3 -12 c -4 -3 c -8 -4 c
-11 0 c -8 4 c -7 7 c -4 12 c -4 15 c -3 7 c -8 4 c -8 0 c -7 -4 c -4 -11 c 0 -15 c 4 -11 7342 2620 l 11 -8 c 19 -4 c 11 0 c 19 4 c
12 8 c 3 11 c 0 8 c -3 11 c -12 8 c -19 3 c -11 0 c -19 -3 c -11 -8 c -4 -11 c 0 -8 c 4 -11 7342 2692 l 7 -4 c 8 0 c 8 4 c 3 7 c
4 15 c 4 12 c 7 7 c 8 4 c 11 0 c 8 -4 c 4 -4 c 3 -11 c 0 -15 c -3 -11 c -4 -4 c -8 -4 c -11 0 c -8 4 c -7 7 c -4 12 c -4 15 c -3 7 c
-8 4 c -8 0 c -7 -4 c -4 -11 c 0 -15 c 0 -38 7342 2794 l 34 -4 c -4 4 c -3 12 c 0 11 c 3 11 c 8 8 c 11 4 c 8 0 c 11 -4 c 8 -8 c
3 -11 c 0 -11 c -3 -12 c -4 -4 c -8 -3 c 4 -4 7414 2832 l 3 4 c -3 4 c -4 -4 c -4 0 7361 2866 l -7 4 c -4 3 c -4 8 c 0 15 c 4 8 c
4 3 c 7 4 c 8 0 c 7 -4 c 12 -7 c 37 -38 c 0 53 c -4 7 7357 2949 l -11 12 c 79 0 c 11 -3 7369 3062 l 7 -8 c 4 -11 c 0 -4 c -4 -11 c
-7 -8 c -11 -4 c -4 0 c -12 4 c -7 8 c -4 11 c 0 4 c 4 11 c 7 8 c 16 3 c 18 0 c 19 -3 c 12 -8 c 3 -11 c 0 -8 c -3 -11 c -8 -4 c
0 -249 7717 1472 l 4 -12 7673 1563 l 7 -3 c 8 0 c 8 3 c 3 8 c 4 15 c 4 11 c 7 8 c 8 4 c 11 0 c 8 -4 c 4 -4 c 3 -11 c 0 -15 c
-3 -12 c -4 -3 c -8 -4 c -11 0 c -8 4 c -7 7 c -4 12 c -4 15 c -3 7 c -8 4 c -8 0 c -7 -4 c -4 -11 c 0 -15 c 4 -11 7673 1642 l
11 -8 c 19 -4 c 11 0 c 19 4 c 12 8 c 3 11 c 0 8 c -3 11 c -12 8 c -19 3 c -11 0 c -19 -3 c -11 -8 c -4 -11 c 0 -8 c
4 -11 7673 1714 l 7 -4 c 8 0 c 8 4 c 3 7 c 4 15 c 4 12 c 7 7 c 8 4 c 11 0 c 8 -4 c 4 -4 c 3 -11 c 0 -15 c -3 -11 c -4 -4 c -8 -4 c
-11 0 c -8 4 c -7 7 c -4 12 c -4 15 c -3 7 c -8 4 c -8 0 c -7 -4 c -4 -11 c 0 -15 c 11 -4 7700 1820 l 7 -8 c 4 -11 c 0 -4 c -4 -11 c
-7 -8 c -11 -3 c -4 0 c -12 3 c -7 8 c -4 11 c 0 4 c 4 11 c 7 8 c 16 4 c 18 0 c 19 -4 c 12 -8 c 3 -11 c 0 -7 c -3 -12 c -8 -4 c
4 -4 7745 1854 l 3 4 c -3 4 c -4 -4 c 53 -38 7673 1922 l 0 57 c 79 0 7673 1922 l 4 -12 7673 1979 l 7 -4 c 8 0 c 8 4 c 3 8 c 4 15 c
4 11 c 7 8 c 8 4 c 11 0 c 8 -4 c 4 -4 c 3 -11 c 0 -15 c -3 -12 c -4 -4 c -8 -3 c -11 0 c -8 3 c -7 8 c -4 11 c -4 15 c -3 8 c -8 4 c
-8 0 c -7 -4 c -4 -11 c 0 -15 c 0 -38 7673 2081 l 34 -4 c -4 4 c -3 11 c 0 11 c 3 12 c 8 7 c 11 4 c 8 0 c 11 -4 c 8 -7 c 3 -12 c
0 -11 c -3 -11 c -4 -4 c -8 -4 c 0 -250 8040 4530 l 4 -12 7996 4621 l 8 -3 c 7 0 c 8 3 c 4 8 c 4 15 c 3 11 c 8 8 c 7 4 c 12 0 c
7 -4 c 4 -4 c 4 -11 c 0 -15 c -4 -12 c -4 -3 c -7 -4 c -12 0 c -7 4 c -8 7 c -3 11 c -4 16 c -4 7 c -8 4 c -7 0 c -8 -4 c -4 -11 c
0 -15 c 4 -11 7996 4700 l 12 -8 c 19 -4 c 11 0 c 19 4 c 11 8 c 4 11 c 0 8 c -4 11 c -11 7 c -19 4 c -11 0 c -19 -4 c -12 -7 c
-4 -11 c 0 -8 c 11 -4 8023 4802 l 8 -7 c 4 -12 c 0 -3 c -4 -12 c -8 -7 c -11 -4 c -4 0 c -11 4 c -8 7 c -4 12 c 0 3 c 4 12 c 8 7 c
15 4 c 19 0 c 19 -4 c 11 -7 c 4 -12 c 0 -7 c -4 -12 c -7 -3 c 0 42 7996 4836 l 31 -23 c 0 11 c 4 8 c 3 4 c 12 3 c 7 0 c 12 -3 c
7 -8 c 4 -11 c 0 -12 c -4 -11 c -4 -4 c -7 -3 c 4 -4 8068 4912 l 4 4 c -4 3 c -4 -3 c -8 -4 8008 4991 l -4 -11 c 0 -8 c 4 -11 c
12 -8 c 19 -3 c 18 0 c 16 3 c 7 8 c 4 11 c 0 4 c -4 11 c -7 8 c -12 4 c -4 0 c -11 -4 c -7 -8 c -4 -11 c 0 -4 c 4 -11 c 7 -8 c
11 -3 c -3 0 8015 5021 l -8 4 c -4 4 c -4 7 c 0 16 c 4 7 c 4 4 c 8 4 c 7 0 c 8 -4 c 11 -8 c 38 -38 c 0 53 c 53 -38 7996 5131 l
0 57 c 80 0 7996 5131 l
showpage PGPLOT restore
 
%%Trailer
%%DocumentFonts: 
%%Pages: 1
%%EOF
