%!PS-Adobe-3.0 EPSF-3.0
%%For: tab
%%Title: PGPLOT PostScript plot
%%Creator: PGPLOT
%%CreationDate: 20-Apr-1995 17:03
%%BoundingBox: 25 18 587 774
%%DocumentFonts: (atend)
%%LanguageLevel: 1
%%Orientation: Landscape
%%Pages: (atend)
%%EndComments
%%BeginProlog
/l {moveto rlineto currentpoint stroke moveto} bind def
/c {rlineto currentpoint stroke moveto} bind def
/d {moveto 0 0 rlineto currentpoint stroke moveto} bind def
/SLW {5 mul setlinewidth} bind def
/SCF /pop load def
/BP {newpath moveto} bind def
/LP /rlineto load def
/EP {rlineto closepath eofill} bind def
/MB {gsave translate MFAC dup scale 1 setlinewidth 2 setlinecap 0 setlinejoin newpath} bind def
/ME /grestore load def
/C {0 360 arc stroke} bind def
/FC {0 360 arc fill} bind def
%%EndProlog
 
%%Page: 1 1
%%BeginPageSetup
/PGPLOT save def
0.072 0.072 scale
8150 250 translate 90 rotate
1 setlinejoin 1 setlinecap 1 SLW 1 SCF
%%EndPageSetup
0.000 setgray 1 SLW 8939 0 780 780 l 0 6239 c -8939 0 c 0 -6239 c 0 -45 1116 780 l 0 -45 1554 780 l 0 -45 1991 780 l
0 -45 2428 780 l 0 -90 2865 780 l 0 -45 3302 780 l 0 -45 3739 780 l 0 -45 4176 780 l 0 -45 4613 780 l 0 -90 5051 780 l
0 -45 5488 780 l 0 -45 5925 780 l 0 -45 6362 780 l 0 -45 6799 780 l 0 -90 7236 780 l 0 -45 7673 780 l 0 -45 8110 780 l
0 -45 8548 780 l 0 -45 8985 780 l 0 -90 9422 780 l 0 -45 1116 7064 l 0 -45 1554 7064 l 0 -45 1991 7064 l 0 -45 2428 7064 l
0 -90 2865 7109 l 0 -45 3302 7064 l 0 -45 3739 7064 l 0 -45 4176 7064 l 0 -45 4613 7064 l 0 -90 5051 7109 l 0 -45 5488 7064 l
0 -45 5925 7064 l 0 -45 6362 7064 l 0 -45 6799 7064 l 0 -90 7236 7109 l 0 -45 7673 7064 l 0 -45 8110 7064 l 0 -45 8548 7064 l
0 -45 8985 7064 l 0 -90 9422 7109 l -60 0 2775 672 l -6 -54 c 6 6 c 18 6 c 18 0 c 18 -6 c 12 -12 c 6 -18 c 0 -12 c -6 -18 c
-12 -12 c -18 -6 c -18 0 c -18 6 c -6 6 c -6 12 c -18 -6 2859 672 l -12 -18 c -6 -30 c 0 -18 c 6 -30 c 12 -18 c 18 -6 c 12 0 c
18 6 c 12 18 c 6 30 c 0 18 c -6 30 c -12 18 c -18 6 c -12 0 c -18 -6 2979 672 l -12 -18 c -6 -30 c 0 -18 c 6 -30 c 12 -18 c 18 -6 c
12 0 c 18 6 c 12 18 c 6 30 c 0 18 c -6 30 c -12 18 c -18 6 c -12 0 c 12 6 4847 648 l 18 18 c 0 -126 c -18 -6 4985 672 l -12 -18 c
-6 -30 c 0 -18 c 6 -30 c 12 -18 c 18 -6 c 12 0 c 18 6 c 12 18 c 6 30 c 0 18 c -6 30 c -12 18 c -18 6 c -12 0 c -18 -6 5105 672 l
-12 -18 c -6 -30 c 0 -18 c 6 -30 c 12 -18 c 18 -6 c 12 0 c 18 6 c 12 18 c 6 30 c 0 18 c -6 30 c -12 18 c -18 6 c -12 0 c
-18 -6 5225 672 l -12 -18 c -6 -30 c 0 -18 c 6 -30 c 12 -18 c 18 -6 c 12 0 c 18 6 c 12 18 c 6 30 c 0 18 c -6 30 c -12 18 c -18 6 c
-12 0 c 12 6 7032 648 l 18 18 c 0 -126 c -60 0 7206 672 l -6 -54 c 6 6 c 18 6 c 18 0 c 18 -6 c 12 -12 c 6 -18 c 0 -12 c -6 -18 c
-12 -12 c -18 -6 c -18 0 c -18 6 c -6 6 c -6 12 c -18 -6 7290 672 l -12 -18 c -6 -30 c 0 -18 c 6 -30 c 12 -18 c 18 -6 c 12 0 c
18 6 c 12 18 c 6 30 c 0 18 c -6 30 c -12 18 c -18 6 c -12 0 c -18 -6 7410 672 l -12 -18 c -6 -30 c 0 -18 c 6 -30 c 12 -18 c 18 -6 c
12 0 c 18 6 c 12 18 c 6 30 c 0 18 c -6 30 c -12 18 c -18 6 c -12 0 c 0 6 9206 642 l 6 12 c 6 6 c 12 6 c 24 0 c 12 -6 c 6 -6 c
6 -12 c 0 -12 c -6 -12 c -12 -18 c -60 -60 c 84 0 c -18 -6 9356 672 l -12 -18 c -6 -30 c 0 -18 c 6 -30 c 12 -18 c 18 -6 c 12 0 c
18 6 c 12 18 c 6 30 c 0 18 c -6 30 c -12 18 c -18 6 c -12 0 c -18 -6 9476 672 l -12 -18 c -6 -30 c 0 -18 c 6 -30 c 12 -18 c 18 -6 c
12 0 c 18 6 c 12 18 c 6 30 c 0 18 c -6 30 c -12 18 c -18 6 c -12 0 c -18 -6 9596 672 l -12 -18 c -6 -30 c 0 -18 c 6 -30 c 12 -18 c
18 -6 c 12 0 c 18 6 c 12 18 c 6 30 c 0 18 c -6 30 c -12 18 c -18 6 c -12 0 c -90 0 780 818 l -45 0 780 1131 l -45 0 780 1444 l
-45 0 780 1756 l -45 0 780 2069 l -90 0 780 2382 l -45 0 780 2694 l -45 0 780 3007 l -45 0 780 3320 l -45 0 780 3632 l
-90 0 780 3945 l -45 0 780 4258 l -45 0 780 4571 l -45 0 780 4883 l -45 0 780 5196 l -90 0 780 5509 l -45 0 780 5821 l
-45 0 780 6134 l -45 0 780 6447 l -45 0 780 6759 l -90 0 9809 818 l -45 0 9764 1131 l -45 0 9764 1444 l -45 0 9764 1756 l
-45 0 9764 2069 l -90 0 9809 2382 l -45 0 9764 2694 l -45 0 9764 3007 l -45 0 9764 3320 l -45 0 9764 3632 l -90 0 9809 3945 l
-45 0 9764 4258 l -45 0 9764 4571 l -45 0 9764 4883 l -45 0 9764 5196 l -90 0 9809 5509 l -45 0 9764 5821 l -45 0 9764 6134 l
-45 0 9764 6447 l -45 0 9764 6759 l 6 -18 517 812 l 18 -12 c 30 -6 c 18 0 c 30 6 c 18 12 c 6 18 c 0 12 c -6 18 c -18 12 c -30 6 c
-18 0 c -30 -6 c -18 -12 c -6 -18 c 0 -12 c 0 -60 517 2232 l 54 -6 c -6 6 c -6 18 c 0 18 c 6 18 c 12 12 c 18 6 c 12 0 c 18 -6 c
12 -12 c 6 -18 c 0 -18 c -6 -18 c -6 -6 c -12 -6 c 6 -18 517 2316 l 18 -12 c 30 -6 c 18 0 c 30 6 c 18 12 c 6 18 c 0 12 c -6 18 c
-18 12 c -30 6 c -18 0 c -30 -6 c -18 -12 c -6 -18 c 0 -12 c 6 -18 517 2436 l 18 -12 c 30 -6 c 18 0 c 30 6 c 18 12 c 6 18 c 0 12 c
-6 18 c -18 12 c -30 6 c -18 0 c -30 -6 c -18 -12 c -6 -18 c 0 -12 c 6 -18 517 2556 l 18 -12 c 30 -6 c 18 0 c 30 6 c 18 12 c 6 18 c
0 12 c -6 18 c -18 12 c -30 6 c -18 0 c -30 -6 c -18 -12 c -6 -18 c 0 -12 c -6 12 541 3825 l -18 18 c 126 0 c 6 -18 517 3963 l
18 -12 c 30 -6 c 18 0 c 30 6 c 18 12 c 6 18 c 0 12 c -6 18 c -18 12 c -30 6 c -18 0 c -30 -6 c -18 -12 c -6 -18 c 0 -12 c
63 -45 453 4088 l 0 67 c 94 0 453 4088 l -6 12 541 5173 l -18 18 c 126 0 c 6 -6 631 5287 l 6 6 c -6 6 c -6 -6 c 0 -60 517 5407 l
54 -6 c -6 6 c -6 18 c 0 18 c 6 18 c 12 12 c 18 6 c 12 0 c 18 -6 c 12 -12 c 6 -18 c 0 -18 c -6 -18 c -6 -6 c -12 -6 c
84 84 547 5461 l 84 -84 547 5545 l -6 12 541 5605 l -18 18 c 126 0 c 6 -18 517 5743 l 18 -12 c 30 -6 c 18 0 c 30 6 c 18 12 c 6 18 c
0 12 c -6 18 c -18 12 c -30 6 c -18 0 c -30 -6 c -18 -12 c -6 -18 c 0 -12 c 63 -45 453 5867 l 0 68 c 94 0 453 5867 l
4 -4 780 891 l 5 1 c 4 -4 c 4 2 c 5 0 c 4 -1 c 4 1 c 5 0 c 4 -1 c 5 0 c 4 0 c 4 4 c 5 4 c 4 4 c 4 -4 c 5 -4 c 4 -2 c 5 1 c 4 0 c
4 3 c 5 9 c 4 9 c 4 1 c 5 -1 c 4 3 c 5 -3 c 4 -9 c 4 -8 c 5 -2 c 4 0 c 4 -2 c 5 -1 c 4 -1 c 5 0 c 4 3 c 4 3 c 5 3 c 4 3 c 4 -1 c
5 -2 c 4 -4 c 4 -3 c 5 -1 c 4 4 c 5 1 c 4 2 c 4 2 c 5 -1 c 4 -1 c 4 -3 c 5 -2 c 4 1 c 5 -1 c 4 1 c 4 3 c 5 -3 c 4 1 c 4 1 c 5 -2 c
4 2 c 5 1 c 4 -3 c 4 -1 c 5 2 c 4 1 c 4 1 c 5 1 c 4 -3 c 5 1 c 4 0 c 4 1 c 5 2 c 4 3 c 4 2 c 5 2 c 4 2 c 4 0 c 5 -1 c 4 2 c 5 3 c
4 6 c 4 12 c 5 20 c 4 -128 c 4 0 c 5 2909 c 4 1777 c 5 -162 c 4 -2428 c 4 -1560 c 5 -377 c 4 -46 c 4 -11 c 5 -5 c 4 -1 c 5 -1 c
4 1 c 4 -1 c 5 -2 c 4 -2 c 4 0 c 5 0 c 4 0 c 5 -2 c 4 -3 c 4 1 c 5 -1 c 4 -3 c 4 1 c 5 0 c 4 -4 c 4 3 c 5 0 c 4 0 c 5 -2 c 4 0 c
4 1 c 5 0 c 4 -2 c 4 0 c 5 0 c 4 2 c 5 -3 c 4 -2 c 4 -1 c 5 1 c 4 -2 c 4 2 c 5 2 c 4 0 c 5 0 c 4 -3 c 4 0 c 5 1 c 4 0 c 4 1 c 5 -3 c
4 -4 c 5 1 c 4 -2 c 4 1 c 5 -4 c 4 3 c 4 -2 c 5 1 c 4 -1 c 4 -1 c 5 3 c 4 17 c 5 13 c 4 -2 c 4 -16 c 5 -8 c 4 1 c 4 1 c 5 -3 c 4 0 c
5 3 c 4 -6 c 4 1 c 5 -3 c 4 1 c 4 1 c 5 0 c 4 -1 c 5 -1 c 4 1 c 4 0 c 5 5 c 4 3 c 1 6124 c 1 -5181 1548 7019 l 5 -894 c 4 -30 c
4 -5 c 5 -1 c 4 -1 c 4 -1 c 5 0 c 4 -1 c 5 -1 c 4 0 c 4 1 c 5 -1 c 4 2 c 4 -1 c 5 2 c 4 0 c 5 -4 c 4 -2 c 4 -1 c 5 1 c 4 -3 c 4 1 c
5 1 c 4 0 c 5 -2 c 4 4 c 4 2 c 5 7 c 4 23 c 4 10 c 5 -8 c 4 -23 c 4 -14 c 5 -1 c 4 0 c 5 -2 c 4 -2 c 4 1 c 5 0 c 4 0 c 4 3 c 5 -2 c
4 2 c 5 -3 c 4 2 c 4 -2 c 5 2 c 4 1 c 4 2 c 5 -3 c 4 -1 c 5 -1 c 4 7 c 4 7 c 5 3 c 4 -5 c 4 -6 c 5 -4 c 4 1 c 5 -2 c 4 4 c 4 -1 c
5 -4 c 4 0 c 4 0 c 5 -1 c 4 -1 c 4 2 c 5 1 c 4 -2 c 5 0 c 4 2 c 4 0 c 5 0 c 4 -1 c 4 1 c 5 -1 c 4 0 c 5 0 c 4 1 c 4 0 c 5 1 c 4 1 c
4 -1 c 5 0 c 4 3 c 5 0 c 4 5 c 4 2 c 5 1 c 4 -4 c 4 -2 c 5 5 c 4 4 c 5 8 c 4 -6 c 4 -11 c 5 -4 c 4 0 c 4 0 c 5 -2 c 4 1 c 4 1 c
5 -1 c 4 0 c 5 0 c 4 -2 c 4 -1 c 5 2 c 4 0 c 4 0 c 5 2 c 4 0 c 5 -2 c 4 1 c 4 -1 c 5 1 c 4 -1 c 4 3 c 5 -2 c 4 0 c 5 1 c 4 0 c
4 -1 c 5 1 c 4 2 c 4 -1 c 5 -1 c 4 2 c 5 1 c 4 1 c 4 1 c 5 -3 c 4 6119 c 1 -6046 2169 7019 l 4 -34 c 5 -4 c 1 6084 c
2 -6014 2194 7019 l 5 -68 c 4 -4 c 4 1 c 5 18 c 4 66 c 4 29 c 5 -24 c 4 -65 c 5 -31 c 4 -4 c 4 -1 c 5 -1 c 4 0 c 4 -1 c 5 0 c 4 -1 c
4 1 c 5 0 c 4 3 c 5 17 c 4 111 c 4 299 c 5 175 c 4 -113 c 4 -255 c 5 -56 c 4 13 c 5 -71 c 4 -93 c 4 -31 c 5 -3 c 4 -3 c 4 1 c 5 -1 c
4 -1 c 5 -2 c 4 0 c 4 1 c 5 -1 c 4 -1 c 4 1 c 5 -3 c 4 0 c 5 1 c 4 1 c 4 -2 c 5 0 c 4 0 c 4 -1 c 5 -2 c 4 3 c 4 8 c 5 7 c 4 -2 c
5 -6 c 4 -7 c 4 -5 c 5 1 c 4 -1 c 4 2 c 5 0 c 4 -2 c 5 0 c 4 1 c 4 4 c 5 0 c 4 0 c 4 -3 c 5 1 c 4 -2 c 5 -1 c 4 -1 c 4 1 c 5 -2 c
4 2 c 4 -2 c 5 0 c 4 2 c 5 0 c 4 1 c 4 4 c 5 4 c 4 2 c 4 -5 c 5 -7 c 4 1 c 4 1 c 5 2 c 4 6 c 5 39 c 4 62 c 4 19 c 5 -52 c 4 -58 c
4 -15 c 5 -4 c 4 1 c 5 0 c 4 -2 c 4 1 c 5 2 c 4 -1 c 4 -1 c 5 2 c 4 -1 c 5 0 c 4 1 c 4 -1 c 5 -1 c 4 1 c 4 0 c 5 -2 c 4 0 c 5 1 c
4 1 c 4 0 c 5 0 c 4 1 c 4 -3 c 5 4 c 4 4 c 4 26 c 5 26 c 4 -1 c 5 -33 c 4 -20 c 4 -1 c 5 4 c 4 -3 c 4 -1 c 5 -2 c 4 3 c 5 3 c 4 1 c
4 -3 c 5 -2 c 4 0 c 4 -2 c 5 -1 c 4 -1 c 5 1 c 4 2 c 4 -2 c 5 -1 c 4 2 c 4 -1 c 5 0 c 4 0 c 5 0 c 4 0 c 4 0 c 5 1 c 4 -2 c 4 0 c
5 2 c 4 1 c 4 1 c 5 0 c 4 -1 c 5 0 c 4 1 c 4 -1 c 5 2 c 4 0 c 4 -2 c 5 2 c 4 9 c 5 9 c 4 0 c 4 -8 c 5 -6 c 4 -1 c 3 6109 c
1 -6037 2986 7019 l 5 -40 c 4 -2 c 4 -4 c 5 -2 c 4 3 c 5 3 c 4 4 c 4 -6 c 5 -5 c 4 -1 c 4 0 c 5 -4 c 4 -3 c 5 1 c 4 -3 c 4 10 c
5 56 c 4 63 c 4 0 c 5 -68 c 4 -57 c 5 -8 c 4 -4 c 4 -1 c 5 -1 c 4 1 c 4 -1 c 5 2 c 4 -2 c 5 0 c 4 1 c 4 0 c 5 -1 c 4 -1 c 4 0 c
5 -2 c 4 3 c 4 -1 c 5 1 c 4 -1 c 5 -1 c 4 1 c 4 -1 c 5 2 c 4 -2 c 4 1 c 5 -1 c 4 0 c 5 -2 c 4 0 c 4 1 c 5 1 c 4 -1 c 4 1 c 5 0 c
4 -3 c 5 2 c 4 2 c 4 -1 c 5 -2 c 4 0 c 4 3 c 5 -1 c 4 -1 c 5 5 c 4 31 c 4 193 c 5 246 c 4 44 c 4 -234 c 5 -243 c 4 -37 c 4 -3 c
5 1 c 4 4 c 5 3 c 4 1 c 4 -2 c 5 -4 c 4 -3 c 4 -2 c 5 -2 c 4 1 c 5 -1 c 4 2 c 4 -1 c 5 0 c 4 3 c 4 -1 c 5 -3 c 4 -3 c 5 4 c 4 -2 c
4 5 c 5 -3 c 4 0 c 4 0 c 5 -2 c 4 1 c 5 3 c 4 0 c 4 0 c 5 -3 c 4 0 c 4 -1 c 5 3 c 4 -1 c 4 0 c 5 0 c 4 -2 c 5 -2 c 4 1 c 4 0 c 5 3 c
4 2 c 4 -1 c 5 -2 c 4 0 c 5 1 c 4 5 c 4 12 c 5 4 c 4 -4 c 4 5 c 5 37 c 4 20 c 5 -20 c 4 -41 c 4 -15 c 5 -1 c 4 -1 c 4 3 c 5 5 c
4 -1 c 4 -5 c 5 -3 c 4 0 c 5 -1 c 4 1 c 4 3 c 5 2 c 4 1 c 4 -4 c 5 -2 c 4 1 c 5 1 c 4 1 c 4 -1 c 5 1 c 4 -1 c 4 -1 c 5 1 c 4 0 c
5 1 c 4 4 c 4 -4 c 5 1 c 4 -2 c 4 2 c 5 0 c 4 1 c 5 0 c 4 -1 c 4 4 c 5 -2 c 4 1 c 4 1 c 5 2 c 4 1 c 4 2 c 5 -3 c 4 11 c 5 9 c 4 -2 c
4 -12 c 5 -8 c 4 0 c 4 2 c 5 5 c 4 3 c 5 -1 c 4 -3 c 4 -3 c 5 -1 c 4 2 c 4 2 c 5 2 c 4 3 c 5 16 c 4 26 c 4 7 c 5 -22 c 4 -19 c 4 1 c
5 0 c 4 -6 c 5 -4 c 4 -4 c 4 2 c 5 -1 c 4 0 c 4 1 c 5 -2 c 4 3 c 4 -1 c 5 -2 c 4 0 c 5 -1 c 4 1 c 4 2 c 5 -1 c 4 1 c 4 -1 c 5 0 c
4 1 c 5 -2 c 4 2 c 4 2 c 5 0 c 4 0 c 4 0 c 5 1 c 4 -4 c 5 2 c 4 1 c 4 0 c 5 2 c 4 3 c 4 2 c 5 -2 c 4 0 c 5 -3 c 4 3 c 4 23 c 5 61 c
4 24 c 4 -24 c 5 -41 c 4 -11 c 4 -3 c 5 -18 c 4 -12 c 5 0 c 4 0 c 4 -1 c 5 1 c 4 -1 c 4 2 c 5 -1 c 4 1 c 5 4 c 4 -1 c 4 0 c 2 6084 c
1 -5928 4136 7019 l 4 -112 c 5 -7 c 4 -1 c 5 -3 c 4 1 c 4 -5 c 5 -3 c 4 2 c 4 -2 c 5 -4 c 4 5 c 4 -4 c 5 2 c 4 -4 c 5 1 c 4 -3 c
4 -2 c 5 0 c 4 1 c 4 -4 c 5 0 c 4 1 c 5 0 c 4 0 c 4 1 c 5 -4 c 4 1 c 4 3 c 5 -4 c 4 1 c 5 -3 c 4 -3 c 4 4 c 5 3 c 4 6 c 4 90 c
5 150 c 4 34 c 4 -106 c 5 -147 c 4 -31 c 5 3 c 4 -5 c 4 -3 c 5 0 c 4 3 c 4 -6 c 5 5 c 4 -3 c 5 -1 c 4 -1 c 4 4 c 5 2 c 4 -2 c 4 3 c
5 1 c 4 -4 c 5 -6 c 4 -1 c 4 -4 c 5 2 c 4 0 c 4 1 c 5 0 c 4 -6 c 5 3 c 4 3 c 4 -1 c 5 1 c 4 0 c 4 -1 c 5 -3 c 4 0 c 4 0 c 5 -1 c
4 0 c 5 -5 c 4 3 c 4 -2 c 5 0 c 4 -2 c 4 3 c 5 -1 c 4 3 c 5 19 c 4 18 c 4 -7 c 5 -20 c 4 -14 c 4 -3 c 5 0 c 4 1 c 5 1 c 4 13 c
4 47 c 5 21 c 4 -17 c 4 -45 c 5 -12 c 4 -3 c 5 0 c 4 -3 c 4 -3 c 5 1 c 4 0 c 4 1 c 5 -2 c 4 0 c 4 -1 c 5 1 c 4 -1 c 5 -2 c 4 -1 c
4 -3 c 5 3 c 4 -2 c 4 2 c 5 5 c 4 2 c 5 -2 c 4 -4 c 4 -2 c 5 -1 c 4 -1 c 4 0 c 5 -1 c 4 0 c 5 1 c 4 0 c 4 -3 c 5 -2 c 4 -1 c 4 0 c
5 0 c 4 -1 c 5 0 c 4 0 c 4 2 c 5 0 c 4 1 c 4 6 c 5 6 c 4 0 c 4 -4 c 5 -6 c 4 -1 c 5 0 c 4 -2 c 4 -2 c 5 2 c 4 0 c 4 -1 c 5 1 c 4 0 c
5 3 c 4 -1 c 4 0 c 5 -2 c 4 -3 c 4 -1 c 5 0 c 4 2 c 5 0 c 4 1 c 4 1 c 5 -3 c 4 4 c 4 -4 c 5 2 c 4 -3 c 5 -1 c 4 6 c 4 8 c 5 1 c
4 -3 c 4 -6 c 5 -3 c 4 -1 c 4 0 c 5 1 c 4 0 c 5 -1 c 4 0 c 4 0 c 5 -1 c 4 1 c 4 0 c 5 0 c 4 0 c 5 0 c 4 1 c 4 2 c 5 -2 c 4 0 c 4 0 c
5 1 c 4 -1 c 5 -1 c 4 2 c 4 0 c 5 5 c 4 7 c 4 5 c 5 -6 c 4 -8 c 4 -2 c 5 -1 c 4 4 c 5 1 c 4 0 c 4 -1 c 5 -1 c 4 0 c 4 0 c 5 1 c
4 -1 c 2 6109 c 1 -5316 5102 7019 l 4 -746 c 5 -27 c 4 -1 c 5 -3 c 4 0 c 4 -4 c 5 -1 c 4 2 c 4 -3 c 5 0 c 4 -2 c 5 3 c 4 -3 c 4 1 c
5 -2 c 4 1 c 4 1 c 5 2 c 4 -2 c 4 -1 c 5 -1 c 4 0 c 5 -1 c 4 -2 c 4 1 c 5 0 c 4 -1 c 4 0 c 5 -2 c 4 3 c 5 -3 c 4 0 c 4 2 c 5 0 c
4 -1 c 4 -3 c 5 -1 c 4 2 c 5 2 c 4 1 c 4 0 c 5 0 c 4 0 c 4 -1 c 5 -2 c 4 0 c 5 0 c 4 1 c 4 0 c 5 0 c 4 1 c 4 -2 c 5 -1 c 4 0 c 4 1 c
5 0 c 4 0 c 5 3 c 4 3 c 4 3 c 5 -5 c 4 -5 c 4 0 c 5 -2 c 4 1 c 5 0 c 4 0 c 4 -2 c 5 2 c 4 -1 c 4 1 c 5 -3 c 4 2 c 5 -2 c 4 -3 c
4 5 c 5 -3 c 4 1 c 4 2 c 5 0 c 4 1 c 5 -1 c 4 3 c 4 1 c 5 -2 c 4 2 c 4 2 c 5 2 c 4 3 c 4 -2 c 5 -1 c 4 -1 c 5 -1 c 4 -2 c 4 0 c
5 0 c 4 -2 c 4 2 c 5 -1 c 4 0 c 5 2 c 4 2 c 4 0 c 5 1 c 4 3 c 4 3 c 5 2 c 4 -6 c 5 -7 c 4 0 c 4 0 c 5 -1 c 4 -2 c 4 1 c 5 2 c 4 2 c
4 3 c 5 6 c 4 6 c 5 1 c 4 -8 c 4 -4 c 5 -2 c 4 0 c 4 1 c 5 1 c 4 0 c 5 -3 c 4 -2 c 4 -3 c 5 0 c 4 1 c 4 3 c 5 2 c 4 -3 c 5 -2 c
4 -92 c 4 93 c 5 1 c 4 0 c 4 3 c 5 -1 c 4 0 c 5 0 c 4 0 c 4 1 c 5 1 c 4 0 c 4 1 c 5 3 c 4 3 c 4 4 c 5 0 c 4 0 c 5 -1 c 4 2 c 4 4 c
5 3 c 4 0 c 4 3 c 5 8 c 4 9 c 5 19 c 4 129 c 4 1201 c 5 2689 c 4 530 c 4 -1261 c 5 -2673 c 4 -556 c 5 -68 c 4 -13 c 4 -1 c 5 10 c
4 8 c 4 -4 c 5 -14 c 4 -7 c 5 -5 c 4 -1 c 4 3 c 5 3 c 4 -3 c 4 -3 c 5 11 c 4 88 c 4 87 c 5 5 c 4 -93 c 5 -83 c 4 -14 c 4 -3 c 5 -1 c
4 3 c 4 -1 c 5 -1 c 4 -1 c 5 0 c 4 1 c 4 3 c 5 5 c 4 -4 c 4 6 c 5 25 c 4 221 c 5 222 c 4 20 c 4 -186 c 5 -225 c 4 15 c 4 83 c 5 54 c
4 -22 c 5 -75 c 4 -59 c 4 -32 c 5 -17 c 4 -10 c 4 -5 c 5 -2 c 4 1 c 4 0 c 5 2 c 4 -1 c 5 -3 c 4 -2 c 4 0 c 5 0 c 4 -1 c 4 -2 c 5 1 c
4 1 c 5 0 c 4 3 c 4 -1 c 5 -2 c 4 4 c 4 3 c 5 0 c 4 -3 c 5 0 c 4 2 c 4 0 c 5 0 c 4 3 c 4 0 c 5 4 c 4 2 c 5 -1 c 4 0 c 4 0 c 5 3 c
4 4 c 4 4 c 5 7 c 4 1 c 4 -3 c 5 0 c 4 3 c 5 2 c 4 1 c 4 4 c 5 3 c 4 6 c 4 4 c 5 1 c 4 9 c 5 0 c 4 6 c 4 -1 c 5 5 c 4 8 c 4 4 c
5 5 c 4 1 c 5 0 c 4 1 c 4 8 c 5 1 c 4 7 c 4 5 c 5 8 c 4 13 c 4 15 c 5 35 c 4 170 c 5 135 c 4 24 c 4 -137 c 5 -164 c 4 -16 c 4 11 c
5 9 c 4 9 c 5 7 c 4 11 c 4 11 c 5 14 c 4 14 c 4 17 c 5 10 c 4 14 c 5 16 c 4 12 c 4 20 c 5 26 c 4 17 c 4 29 c 5 25 c 4 25 c 5 85 c
4 185 c 4 78 c 5 -11 c 4 -131 c 4 -21 c 5 27 c 4 33 c 4 39 c 5 53 c 4 41 c 5 41 c 4 39 c 4 37 c 5 56 c 4 30 c 4 73 c 5 69 c 4 59 c
5 79 c 4 48 c 4 97 c 5 81 c 4 64 c 4 102 c 5 95 c 4 131 c 5 79 c 4 100 c 4 115 c 5 74 c 4 113 c 4 -2584 c 2 6201 c
0 -1475 6624 7019 l 5 -857 c 4 68 c 4 245 c 5 210 c 4 247 c 4 259 c 5 253 c 4 418 c 5 472 c 1 160 c 3 -318 6800 7019 l 5 -385 c
4 -436 c 5 -384 c 4 -257 c 4 -180 c 5 -192 c 4 -228 c 4 -227 c 5 -148 c 4 -211 c 5 -191 c 4 -139 c 4 -130 c 5 -128 c 4 -96 c
4 -108 c 5 -154 c 4 -89 c 5 -95 c 4 -84 c 4 -78 c 5 -70 c 4 -100 c 4 -103 c 5 -86 c 4 -28 c 5 -62 c 4 -75 c 4 -87 c 5 -59 c 4 -42 c
4 -41 c 5 -50 c 4 -41 c 4 -50 c 5 -31 c 4 -56 c 5 -55 c 4 -25 c 4 -39 c 5 -37 c 4 -30 c 4 -37 c 5 -29 c 4 -23 c 5 -26 c 4 -26 c
4 -24 c 5 -27 c 4 -24 c 4 -16 c 5 -26 c 4 -17 c 5 -16 c 4 -15 c 4 -16 c 5 -10 c 4 -21 c 4 -16 c 5 -14 c 4 -13 c 4 -10 c 5 -6 c
4 -14 c 5 -7 c 4 -10 c 4 -10 c 5 -4 c 4 -5 c 4 -14 c 5 -4 c 4 -6 c 5 -5 c 4 -5 c 4 -10 c 5 0 c 4 2 c 4 -7 c 5 -8 c 4 -11 c 5 -10 c
4 -2 c 4 -8 c 5 -5 c 4 -3 c 4 -2 c 5 -4 c 4 -6 c 5 0 c 4 -5 c 4 -7 c 5 -2 c 4 -3 c 4 -3 c 5 -3 c 4 -5 c 4 -5 c 5 -1 c 4 0 c 5 -2 c
4 5 c 4 -5 c 5 -4 c 4 -5 c 4 1 c 5 -2 c 4 2 c 5 -4 c 4 1 c 4 -2 c 5 -2 c 4 0 c 4 -4 c 5 -1 c 4 -2 c 5 0 c 4 -2 c 4 1 c 5 -1 c 4 -1 c
4 -1 c 5 -2 c 4 -2 c 5 1 c 4 -1 c 4 0 c 5 1 c 4 -1 c 4 -1 c 5 2 c 4 -2 c 4 -3 c 5 0 c 4 0 c 5 3 c 4 -5 c 4 1 c 5 1 c 4 0 c 4 6 c
5 1 c 4 -2 c 5 -3 c 4 -3 c 4 4 c 5 7 c 4 -1 c 4 -4 c 5 -6 c 4 0 c 5 3 c 4 4 c 4 1 c 5 -1 c 4 -6 c 4 1 c 5 1 c 4 -1 c 5 -1 c 4 -2 c
4 -2 c 5 4 c 4 6 c 4 -2 c 5 0 c 4 -5 c 4 0 c 5 1 c 4 4 c 5 5 c 4 9 c 4 26 c 5 226 c 4 1506 c 4 1828 c 5 208 c 4 -1493 c 5 -1921 c
4 -341 c 4 -38 c 5 -11 c 4 -4 c 4 -4 c 5 4 c 4 20 c 5 9 c 4 -3 c 4 -25 c 5 -14 c 4 0 c 4 1 c 5 -3 c 4 0 c 5 2 c 4 0 c 4 -2 c 5 -5 c
4 1 c 4 -1 c 5 -3 c 4 2 c 4 1 c 5 -2 c 4 0 c 5 -2 c 4 1 c 4 -1 c 5 0 c 4 0 c 4 2 c 5 -1 c 4 -3 c 5 1 c 4 -2 c 4 0 c 5 2 c 4 0 c
4 -1 c 5 1 c 4 0 c 5 0 c 4 -1 c 4 0 c 5 -1 c 4 -4 c 4 0 c 5 0 c 4 1 c 4 3 c 5 -4 c 4 1 c 5 3 c 4 -1 c 4 0 c 5 0 c 4 0 c 4 -3 c 5 0 c
4 0 c 5 0 c 4 -1 c 4 2 c 5 0 c 4 1 c 4 0 c 5 4 c 4 2 c 5 -1 c 4 -4 c 4 -1 c 5 0 c 4 1 c 4 0 c 5 0 c 4 0 c 5 -3 c 4 0 c 4 1 c 5 2 c
4 -2 c 4 0 c 5 0 c 4 0 c 4 -2 c 5 -1 c 4 1 c 5 5 c 4 3 c 4 0 c 5 -5 c 4 -4 c 4 -2 c 5 0 c 4 0 c 5 1 c 4 -2 c 4 0 c 5 0 c 4 -1 c
4 1 c 5 5 c 4 0 c 5 -2 c 4 -1 c 4 -1 c 5 0 c 4 -1 c 4 4 c 5 24 c 4 77 c 5 33 c 4 -15 c 4 -80 c 5 -40 c 4 -3 c 4 0 c 5 1 c 4 -1 c
4 -1 c 5 0 c 4 -1 c 5 -2 c 4 2 c 4 1 c 5 -2 c 4 0 c 4 -2 c 5 1 c 4 -1 c 5 0 c 4 2 c 4 -2 c 5 1 c 4 1 c 4 0 c 5 -3 c 4 0 c 5 0 c
4 0 c 4 0 c 5 2 c 4 1 c 4 -1 c 5 0 c 4 -1 c 5 0 c 4 -3 c 4 1 c 5 0 c 4 0 c 4 -1 c 5 -1 c 4 -1 c 4 -1 c 5 -1 c 4 2 c 5 -2 c 4 0 c
4 1 c 5 2 c 4 0 c 4 -2 c 5 -1 c 4 2 c 5 1 c 4 1 c 4 -1 c 5 2 c 4 2 c 4 2 c 5 -4 c 4 -2 c 5 -4 c 4 3 c 4 4 c 5 17 c 4 20 c 4 -3 c
5 -16 c 4 -21 c 4 -4 c 5 1 c 4 0 c 5 -1 c 4 0 c 4 1 c 5 2 c 4 -2 c 4 1 c 5 1 c 4 -1 c 5 1 c 4 4 c 4 15 c 5 10 c 4 11 c 4 -10 c
5 -9 c 4 -16 c 5 -5 c 4 0 c 4 -2 c 5 1 c 4 2 c 4 -2 c 5 1 c 4 -3 c 5 2 c 4 -1 c 4 0 c 5 4 c 4 -2 c 4 3 c 5 -1 c 4 3 c 4 1 c 5 5 c
4 38 c 5 39 c 4 -2 c 4 -33 c 5 -45 c 4 -6 c 4 0 c 5 1 c 4 -1 c 5 0 c 4 0 c 4 -1 c 5 2 c 4 1 c 4 -2 c 5 -2 c 4 0 c 5 2 c 4 1 c 4 0 c
5 0 c 4 -2 c 4 -2 c 5 1 c 4 -4 c 5 5 c 4 2 c 4 1 c 5 2 c 4 -3 c 4 3 c 5 -3 c 4 2 c 4 -1 c 5 0 c 4 -2 c 5 -2 c 4 1 c 4 2 c 5 -2 c
4 0 c 4 1 c 5 0 c 4 3 c 5 5 c 4 2 c 4 -3 c 5 -2 c 4 -3 c 4 -2 c 5 3 c 4 2 c 5 -1 c 4 0 c 4 3 c 5 -2 c 4 -2 c 4 3 c 5 0 c 4 0 c 5 8 c
4 12 c 4 12 c 5 4452 c 0 1615 c 2 -5977 8852 7019 l 4 -38 c 4 79 c 5 58 c 4 -13 c 4 -75 c 5 -90 c 4 -12 c 5 -4 c 4 -3 c 4 -1 c
5 -1 c 4 0 c 4 -4 c 5 3 c 4 1 c 5 -4 c 4 3 c 4 3 c 5 2 c 4 -2 c 4 -5 c 5 -1 c 4 -3 c 5 -1 c 4 -4 c 4 -1 c 5 2 c 4 -2 c 4 2 c 5 -3 c
4 2 c 4 -2 c 5 1 c 4 0 c 5 -1 c 4 0 c 4 0 c 5 -1 c 4 2 c 4 -3 c 5 1 c 4 2 c 5 -3 c 4 7 c 4 0 c 5 24 c 4 46 c 4 14 c 5 -17 c 4 -48 c
5 -27 c 4 -1 c 4 -1 c 5 3 c 4 28 c 4 82 c 5 37 c 4 -12 c 4 -79 c 5 -56 c 4 -4 c 5 -3 c 4 -2 c 4 0 c 5 -1 c 4 0 c 4 0 c 5 0 c 4 1 c
5 -1 c 4 -1 c 4 5 c 5 -1 c 4 -1 c 4 0 c 5 4 c 4 8 c 5 6 c 4 -6 c 4 -6 c 5 -7 c 4 1 c 4 4 c 5 59 c 4 180 c 5 98 c 4 -34 c 4 -161 c
5 -114 c 4 -9 c 4 -4 c 5 -15 c 4 -12 c 4 1 c 5 3 c 4 2 c 5 -2 c 4 -2 c 4 -1 c 5 0 c 4 -1 c 4 0 c 5 -1 c 4 1 c 5 -1 c 4 5 c 4 5 c
5 0 c 4 -4 c 4 -6 c 5 0 c 4 -1 c 5 -2 c 4 0 c 4 0 c 5 -2 c 4 0 c 4 4 c 5 -2 c 4 -2 c 5 1 c 4 0 c 4 2 c 5 -2 c 4 0 c 4 -2 c 5 0 c
4 0 c 4 0 c 5 -2 c 4 1 c 5 0 c 4 0 c 4 1 c 5 0 c 4 2 c 4 -1 c 5 1 c 4 1 c 5 2 c 4 3 c 4 -4 c 5 1 c 4 -4 c 4 0 c 5 0 c 4 1 c 5 -1 c
4 0 c 4 2 c 5 -1 c 4 0 c 4 0 c
5 0 c 4 3 c 5 -2 c 4 1 c 4 -89 c 5 0 c 4 91 c 4 3 c 5 0 c 4 3 c 4 -2 c 5 -2 c 4 -1 c 5 -3 c 4 -1 c 4 1 c 5 -2 c 4 1 c 4 4 c 5 0 c
4 -3 c 5 -2 c 4 1 c 4 0 c 5 0 c 4 1 c 4 2 c 5 2 c 4 8 c 5 4 c 4 -2 c 4 -6 c 5 -8 c 4 1 c 4 -2 c 5 1 c 4 1 c 5 0 c 4 1 c 4 -1 c 5 2 c
4 2 c 4 1 c 5 -5 c 4 7 c
0 -126 3303 418 l 54 0 3303 418 l 18 -6 c 6 -6 c 6 -12 c 0 -12 c -6 -12 c -6 -6 c -18 -6 c -54 0 c 42 -66 3345 358 l
-12 -6 3453 376 l -12 -12 c -6 -18 c 0 -12 c 6 -18 c 12 -12 c 12 -6 c 18 0 c 12 6 c 12 12 c 6 18 c 0 12 c -6 18 c -12 12 c -12 6 c
-18 0 c 24 -84 3537 376 l -24 -84 3585 376 l 24 -84 3585 376 l -24 -84 3633 376 l 108 0 3675 364 l 108 0 3675 328 l 12 6 3939 394 l
18 18 c 0 -126 c 0 6 4047 388 l 6 12 c 6 6 c 12 6 c 24 0 c 12 -6 c 6 -6 c 6 -12 c 0 -12 c -6 -12 c -12 -18 c -60 -60 c 84 0 c
-12 -6 4287 376 l -12 -12 c -6 -18 c 0 -12 c 6 -18 c 12 -12 c 12 -6 c 18 0 c 12 6 c 12 12 c 6 18 c 0 12 c -6 18 c -12 12 c -12 6 c
-18 0 c -12 0 4413 418 l -12 -6 c -6 -18 c 0 -102 c 42 0 4365 376 l 12 6 4557 394 l 18 18 c 0 -126 c -60 0 4731 418 l -6 -54 c 6 6 c
18 6 c 18 0 c 18 -6 c 12 -12 c 6 -18 c 0 -12 c -6 -18 c -12 -12 c -18 -6 c -18 0 c -18 6 c -6 6 c -6 12 c 12 6 5181 394 l 18 18 c
0 -126 c -6 -6 5294 376 l 6 -6 c 6 6 c -6 6 c -6 -6 5294 304 l 6 -6 c 6 6 c -6 6 c -48 -126 5474 418 l 48 -126 5474 418 l
60 0 5444 334 l 0 -84 5552 376 l 6 18 5552 340 l 12 12 c 12 6 c 18 0 c -12 12 5696 358 l -12 6 c -18 0 c -12 -6 c -12 -12 c -6 -18 c
0 -12 c 6 -18 c 12 -12 c 12 -6 c 18 0 c 12 6 c 12 12 c 108 0 5738 346 l -18 -6 5924 418 l -12 -18 c -6 -30 c 0 -18 c 6 -30 c
12 -18 c 18 -6 c 12 0 c 18 6 c 12 18 c 6 30 c 0 18 c -6 30 c -12 18 c -18 6 c -12 0 c -60 -126 6092 418 l 84 0 6008 418 l
12 6 6146 394 l 18 18 c 0 -126 c -6 -6 6260 304 l 6 -6 c 6 6 c -6 6 c -12 0 6350 418 l -12 -6 c -6 -18 c 0 -102 c 42 0 6302 376 l
6 -6 6380 418 l 6 6 c -6 6 c -6 -6 c 0 -84 6386 376 l 0 -102 6440 418 l 6 -18 c 12 -6 c 12 0 c 42 0 6422 376 l -6 12 6566 358 l
-18 6 c -18 0 c -18 -6 c -6 -12 c 6 -12 c 12 -6 c 30 -6 c 12 -6 c 6 -12 c 0 -6 c -6 -12 c -18 -6 c -18 0 c -18 6 c -6 12 c
0 -192 6896 442 l 0 -192 6902 442 l 42 0 6896 442 l 42 0 6896 250 l 0 6 6980 388 l 6 12 c 6 6 c 12 6 c 24 0 c 12 -6 c 6 -6 c 6 -12 c
0 -12 c -6 -12 c -12 -18 c -60 -60 c 84 0 c -6 -6 7106 376 l 6 -6 c 6 6 c -6 6 c -6 -6 7106 304 l 6 -6 c 6 6 c -6 6 c
0 -192 7286 442 l 0 -192 7292 442 l 42 0 7250 442 l 42 0 7250 250 l
0 -250 1162 5941 l 4 -11 1118 6031 l 8 -4 c 7 0 c 8 4 c 4 7 c 3 16 c 4 11 c 8 7 c 7 4 c 12 0 c 7 -4 c 4 -3 c 4 -12 c 0 -15 c
-4 -11 c -4 -4 c -7 -4 c -12 0 c -7 4 c -8 8 c -4 11 c -3 15 c -4 8 c -8 3 c -7 0 c -8 -3 c -4 -12 c 0 -15 c -3 8 1133 6099 l
-12 11 c 80 0 c 4 -11 1118 6182 l 8 -4 c 7 0 c 8 4 c 4 8 c 3 15 c 4 11 c 8 8 c 7 3 c 12 0 c 7 -3 c 4 -4 c 4 -11 c 0 -16 c -4 -11 c
-4 -4 c -7 -3 c -12 0 c -7 3 c -8 8 c -4 11 c -3 15 c -4 8 c -8 4 c -7 0 c -8 -4 c -4 -11 c 0 -16 c -8 -4 1130 6288 l -4 -11 c
0 -7 c 4 -12 c 11 -7 c 19 -4 c 19 0 c 15 4 c 8 7 c 4 12 c 0 3 c -4 12 c -8 7 c -11 4 c -4 0 c -11 -4 c -8 -7 c -3 -12 c 0 -3 c
3 -12 c 8 -7 c 11 -4 c 4 -4 1190 6322 l 4 4 c -4 4 c -4 -4 c 11 -4 1145 6402 l 8 -8 c 3 -11 c 0 -4 c -3 -11 c -8 -8 c -11 -4 c
-4 0 c -11 4 c -8 8 c -4 11 c 0 4 c 4 11 c 8 8 c 15 4 c 19 0 c 19 -4 c 11 -8 c 4 -11 c 0 -8 c -4 -11 c -8 -4 c -3 8 1133 6439 l
-12 11 c 80 0 c -3 8 1133 6515 l -12 11 c 80 0 c 0 -250 1438 1355 l 4 -11 1394 1445 l 8 -4 c 7 0 c 8 4 c 3 8 c 4 15 c 4 11 c 8 8 c
7 3 c 11 0 c 8 -3 c 4 -4 c 4 -11 c 0 -16 c -4 -11 c -4 -4 c -8 -3 c -11 0 c -7 3 c -8 8 c -4 11 c -4 15 c -3 8 c -8 4 c -7 0 c
-8 -4 c -4 -11 c 0 -16 c -3 8 1409 1513 l -12 11 c 80 0 c 11 -4 1421 1627 l 8 -8 c 3 -11 c 0 -4 c -3 -11 c -8 -8 c -11 -3 c -4 0 c
-11 3 c -8 8 c -4 11 c 0 4 c 4 11 c 8 8 c 15 4 c 19 0 c 18 -4 c 12 -8 c 4 -11 c 0 -7 c -4 -12 c -8 -4 c 4 -11 1394 1676 l 11 -8 c
19 -4 c 12 0 c 18 4 c 12 8 c 4 11 c 0 8 c -4 11 c -12 7 c -18 4 c -12 0 c -19 -4 c -11 -7 c -4 -11 c 0 -8 c 4 -3 1466 1736 l 4 3 c
-4 4 c -4 -4 c 4 -12 1394 1786 l 8 -4 c 7 0 c 8 4 c 3 8 c 4 15 c 4 11 c 8 8 c 7 4 c 11 0 c 8 -4 c 4 -4 c 4 -11 c 0 -15 c -4 -12 c
-4 -4 c -8 -3 c -11 0 c -7 3 c -8 8 c -4 11 c -4 15 c -3 8 c -8 4 c -7 0 c -8 -4 c -4 -11 c 0 -15 c 4 -11 1394 1861 l 8 -4 c 7 0 c
8 4 c 3 7 c 4 16 c 4 11 c 8 7 c 7 4 c 11 0 c 8 -4 c 4 -3 c 4 -12 c 0 -15 c -4 -11 c -4 -4 c -8 -4 c -11 0 c -7 4 c -8 8 c -4 11 c
-4 15 c -3 8 c -8 3 c -7 0 c -8 -3 c -4 -12 c 0 -15 c 0 -38 1394 1963 l 34 -3 c -4 3 c -3 12 c 0 11 c 3 11 c 8 8 c 11 4 c 8 0 c
11 -4 c 8 -8 c 4 -11 c 0 -11 c -4 -12 c -4 -3 c -8 -4 c 0 -250 1680 1381 l 4 -12 1637 1472 l 7 -4 c 8 0 c 7 4 c 4 8 c 4 15 c 4 11 c
7 8 c 8 4 c 11 0 c 8 -4 c 3 -4 c 4 -11 c 0 -15 c -4 -12 c -3 -4 c -8 -3 c -11 0 c -8 3 c -7 8 c -4 11 c -4 15 c -4 8 c -7 4 c -8 0 c
-7 -4 c -4 -11 c 0 -15 c -4 7 1652 1540 l -11 11 c 79 0 c 12 -4 1663 1653 l 7 -7 c 4 -12 c 0 -4 c -4 -11 c -7 -7 c -12 -4 c -3 0 c
-12 4 c -7 7 c -4 11 c 0 4 c 4 12 c 7 7 c 15 4 c 19 0 c 19 -4 c 11 -7 c 4 -12 c 0 -7 c -4 -12 c -7 -3 c 53 -38 1637 1717 l 0 57 c
79 0 1637 1717 l 3 -4 1709 1763 l 4 4 c -4 3 c -3 -3 c 0 42 1637 1800 l 30 -23 c 0 12 c 4 7 c 4 4 c 11 4 c 8 0 c 11 -4 c 7 -8 c
4 -11 c 0 -11 c -4 -12 c -3 -3 c -8 -4 c 12 -3 1663 1917 l 7 -8 c 4 -11 c 0 -4 c -4 -11 c -7 -8 c -12 -4 c -3 0 c -12 4 c -7 8 c
-4 11 c 0 4 c 4 11 c 7 8 c 15 3 c 19 0 c 19 -3 c 11 -8 c 4 -11 c 0 -8 c -4 -11 c -7 -4 c 53 -38 1637 1982 l 0 57 c 79 0 1637 1982 l
0 -250 2223 1484 l 4 -12 2179 1575 l 7 -3 c 8 0 c 7 3 c 4 8 c 4 15 c 4 11 c 7 8 c 8 4 c 11 0 c 8 -4 c 4 -4 c 3 -11 c 0 -15 c
-3 -12 c -4 -3 c -8 -4 c -11 0 c -8 4 c -7 7 c -4 11 c -4 16 c -4 7 c -7 4 c -8 0 c -7 -4 c -4 -11 c 0 -15 c -4 0 2198 1635 l -7 4 c
-4 4 c -4 7 c 0 15 c 4 8 c 4 4 c 7 4 c 8 0 c 7 -4 c 12 -8 c 37 -38 c 0 53 c 4 -12 2179 1730 l 11 -7 c 19 -4 c 11 0 c 19 4 c 12 7 c
3 12 c 0 7 c -3 12 c -12 7 c -19 4 c -11 0 c -19 -4 c -11 -7 c -4 -12 c 0 -7 c -4 0 2198 1786 l -7 4 c -4 4 c -4 7 c 0 16 c 4 7 c
4 4 c 7 4 c 8 0 c 7 -4 c 12 -8 c 37 -37 c 0 52 c 4 -4 2251 1866 l 3 4 c -3 4 c -4 -4 c -4 8 2194 1907 l -11 11 c 79 0 c
53 -37 2179 2009 l 0 56 c 79 0 2179 2009 l 79 -38 2179 2100 l 0 53 2179 2047 l 0 -250 2597 1468 l 3 -12 2554 1559 l 8 -3 c 7 0 c
8 3 c 4 8 c 4 15 c 3 11 c 8 8 c 7 4 c 12 0 c 7 -4 c 4 -4 c 4 -11 c 0 -15 c -4 -12 c -4 -3 c -7 -4 c -12 0 c -7 4 c -8 7 c -3 11 c
-4 16 c -4 7 c -8 4 c -7 0 c -8 -4 c -3 -11 c 0 -15 c -3 0 2572 1619 l -8 4 c -4 4 c -3 7 c 0 15 c 3 8 c 4 4 c 8 3 c 7 0 c 8 -3 c
11 -8 c 38 -38 c 0 53 c 3 -12 2554 1714 l 12 -7 c 19 -4 c 11 0 c 19 4 c 11 7 c 4 12 c 0 7 c -4 12 c -11 7 c -19 4 c -11 0 c -19 -4 c
-12 -7 c -3 -12 c 0 -7 c 79 -37 2554 1819 l 0 52 2554 1767 l 4 -4 2625 1850 l 4 4 c -4 3 c -4 -3 c 52 -38 2554 1918 l 0 57 c
79 0 2554 1918 l 79 -37 2554 2008 l 0 52 2554 1956 l 3 -11 2554 2050 l 8 -4 c 7 0 c 8 4 c 4 7 c 4 15 c 3 12 c 8 7 c 7 4 c 12 0 c
7 -4 c 4 -4 c 4 -11 c 0 -15 c -4 -11 c -4 -4 c -7 -4 c -12 0 c -7 4 c -8 7 c -3 12 c -4 15 c -4 7 c -8 4 c -7 0 c -8 -4 c -3 -11 c
0 -15 c 0 -250 3068 1489 l 4 -12 3024 1580 l 8 -3 c 7 0 c 8 3 c 4 8 c 3 15 c 4 11 c 8 8 c 7 4 c 12 0 c 7 -4 c 4 -4 c 4 -11 c 0 -15 c
-4 -12 c -4 -3 c -7 -4 c -12 0 c -7 4 c -8 7 c -4 12 c -3 15 c -4 7 c -8 4 c -7 0 c -8 -4 c -4 -11 c 0 -15 c -3 0 3043 1640 l -8 4 c
-4 4 c -4 7 c 0 15 c 4 8 c 4 4 c 8 4 c 7 0 c 8 -4 c 11 -8 c 38 -38 c 0 53 c -4 8 3040 1723 l -12 11 c 80 0 c 53 -37 3024 1825 l
0 56 c 80 0 3024 1825 l 4 -4 3096 1871 l 4 4 c -4 4 c -4 -4 c -4 8 3040 1912 l -12 11 c 80 0 c 53 -37 3024 2014 l 0 56 c
80 0 3024 2014 l 80 -38 3024 2105 l 0 53 3024 2052 l 0 -249 3287 1866 l 3 -11 3244 1957 l 8 -4 c 8 0 c 7 4 c 4 7 c 4 15 c 3 12 c
8 7 c 8 4 c 11 0 c 7 -4 c 4 -4 c 4 -11 c 0 -15 c -4 -11 c -4 -4 c -7 -4 c -11 0 c -8 4 c -8 7 c -3 12 c -4 15 c -4 7 c -7 4 c -8 0 c
-8 -4 c -3 -11 c 0 -15 c -4 0 3263 2017 l -8 4 c -4 4 c -3 7 c 0 16 c 3 7 c 4 4 c 8 4 c 7 0 c 8 -4 c 11 -8 c 38 -37 c 0 53 c
-4 7 3259 2101 l -11 11 c 79 0 c 79 -38 3244 2218 l 0 53 3244 2165 l 4 -4 3315 2248 l 4 4 c -4 4 c -4 -4 c -4 0 3263 2282 l -8 4 c
-4 3 c -3 8 c 0 15 c 3 8 c 4 4 c 8 3 c 7 0 c 8 -3 c 11 -8 c 38 -38 c 0 53 c -4 0 3263 2358 l -8 3 c -4 4 c -3 8 c 0 15 c 3 7 c 4 4 c
8 4 c 7 0 c 8 -4 c 11 -7 c 38 -38 c 0 53 c -8 -3 3255 2478 l -3 -12 c 0 -7 c 3 -12 c 12 -7 c 19 -4 c 19 0 c 15 4 c 7 7 c 4 12 c
0 4 c -4 11 c -7 7 c -12 4 c -3 0 c -12 -4 c -7 -7 c -4 -11 c 0 -4 c 4 -12 c 7 -7 c 12 -4 c 0 -249 4302 1665 l 4 -11 4258 1756 l
8 -4 c 7 0 c 8 4 c 4 7 c 3 16 c 4 11 c 8 7 c 7 4 c 12 0 c 7 -4 c 4 -3 c 4 -12 c 0 -15 c -4 -11 c -4 -4 c -7 -4 c -12 0 c -7 4 c
-8 8 c -4 11 c -3 15 c -4 8 c -8 3 c -7 0 c -8 -3 c -4 -12 c 0 -15 c -4 0 4277 1817 l -7 3 c -4 4 c -4 8 c 0 15 c 4 7 c 4 4 c 7 4 c
8 0 c 8 -4 c 11 -7 c 38 -38 c 0 53 c 0 42 4258 1896 l 31 -23 c 0 11 c 3 8 c 4 4 c 11 3 c 8 0 c 11 -3 c 8 -8 c 4 -11 c 0 -12 c
-4 -11 c -4 -4 c -7 -4 c -3 8 4273 1975 l -12 11 c 80 0 c 4 -4 4330 2047 l 4 4 c -4 4 c -4 -4 c 53 -38 4258 2115 l 0 57 c
80 0 4258 2115 l 4 -12 4258 2176 l 11 -7 c 19 -4 c 12 0 c 19 4 c 11 7 c 4 12 c 0 7 c -4 12 c -11 7 c -19 4 c -12 0 c -19 -4 c
-11 -7 c -4 -12 c 0 -7 c 80 -38 4258 2282 l 0 53 4258 2229 l 0 -249 4557 1439 l 4 -11 4513 1530 l 8 -4 c 7 0 c 8 4 c 4 7 c 3 15 c
4 12 c 8 7 c 7 4 c 12 0 c 7 -4 c 4 -4 c 4 -11 c 0 -15 c -4 -11 c -4 -4 c -7 -4 c -12 0 c -7 4 c -8 7 c -4 12 c -3 15 c -4 7 c -8 4 c
-7 0 c -8 -4 c -4 -11 c 0 -15 c -4 0 4532 1590 l -7 4 c -4 4 c -4 8 c 0 15 c 4 7 c 4 4 c 7 4 c 8 0 c 8 -4 c 11 -8 c 38 -37 c 0 53 c
0 41 4513 1670 l 31 -22 c 0 11 c 3 8 c 4 3 c 11 4 c 8 0 c 11 -4 c 8 -7 c 4 -11 c 0 -12 c -4 -11 c -4 -4 c -7 -4 c 53 -38 4513 1776 l
0 57 c 80 0 4513 1776 l 4 -4 4585 1821 l 4 4 c -4 4 c -4 -4 c 11 -3 4540 1900 l 8 -8 c 3 -11 c 0 -4 c -3 -11 c -8 -8 c -11 -4 c
-4 0 c -11 4 c -8 8 c -4 11 c 0 4 c 4 11 c 8 8 c 15 3 c 19 0 c 19 -3 c 11 -8 c 4 -11 c 0 -8 c -4 -11 c -8 -4 c 0 42 4513 1934 l
31 -23 c 0 12 c 3 7 c 4 4 c 11 4 c 8 0 c 11 -4 c 8 -8 c 4 -11 c 0 -11 c -4 -12 c -4 -3 c -7 -4 c 4 -11 4513 2021 l 8 -4 c 7 0 c
8 4 c 4 8 c 3 15 c 4 11 c 8 8 c 7 3 c 12 0 c 7 -3 c 4 -4 c 4 -12 c 0 -15 c -4 -11 c -4 -4 c -7 -4 c -12 0 c -7 4 c -8 8 c -4 11 c
-3 15 c -4 8 c -8 4 c -7 0 c -8 -4 c -4 -12 c 0 -15 c 0 -249 5832 5960 l 4 -12 5789 6051 l 7 -3 c 8 0 c 7 3 c 4 8 c 4 15 c 4 11 c
7 8 c 8 4 c 11 0 c 8 -4 c 3 -4 c 4 -11 c 0 -15 c -4 -12 c -3 -3 c -8 -4 c -11 0 c -8 4 c -7 7 c -4 12 c -4 15 c -4 7 c -7 4 c -8 0 c
-7 -4 c -4 -11 c 0 -15 c -4 0 5808 6111 l -8 4 c -3 4 c -4 7 c 0 15 c 4 8 c 3 4 c 8 4 c 7 0 c 8 -4 c 11 -8 c 38 -38 c 0 53 c
0 -37 5789 6228 l 34 -4 c -4 4 c -4 11 c 0 11 c 4 12 c 8 7 c 11 4 c 7 0 c 12 -4 c 7 -7 c 4 -12 c 0 -11 c -4 -11 c -3 -4 c -8 -4 c
-4 0 5808 6262 l -8 4 c -3 4 c -4 8 c 0 15 c 4 7 c 3 4 c 8 4 c 7 0 c 8 -4 c 11 -8 c 38 -37 c 0 53 c 3 -4 5861 6342 l 4 4 c -4 4 c
-3 -4 c 0 41 5789 6380 l 30 -22 c 0 11 c 4 7 c 4 4 c 11 4 c 7 0 c 12 -4 c 7 -7 c 4 -12 c 0 -11 c -4 -11 c -3 -4 c -8 -4 c
12 -4 5815 6497 l 7 -8 c 4 -11 c 0 -4 c -4 -11 c -7 -8 c -12 -3 c -4 0 c -11 3 c -7 8 c -4 11 c 0 4 c 4 11 c 7 8 c 15 4 c 19 0 c
19 -4 c 11 -8 c 4 -11 c 0 -7 c -4 -12 c -7 -4 c 53 -38 5789 6561 l 0 57 c 79 0 5789 6561 l 0 -250 5923 1566 l 4 -12 5879 1657 l
7 -4 c 8 0 c 8 4 c 3 8 c 4 15 c 4 11 c 7 8 c 8 4 c 11 0 c 8 -4 c 4 -4 c 3 -11 c 0 -15 c -3 -12 c -4 -4 c -8 -3 c -11 0 c -8 3 c
-7 8 c -4 11 c -4 15 c -3 8 c -8 4 c -8 0 c -7 -4 c -4 -11 c 0 -15 c -4 0 5898 1717 l -7 4 c -4 4 c -4 7 c 0 15 c 4 8 c 4 4 c 7 3 c
8 0 c 7 -3 c 12 -8 c 37 -38 c 0 53 c 0 -38 5879 1834 l 34 -3 c -4 3 c -3 12 c 0 11 c 3 11 c 8 8 c 11 4 c 8 0 c 11 -4 c 8 -8 c
3 -11 c 0 -11 c -3 -12 c -4 -3 c -8 -4 c 0 42 5879 1872 l 30 -23 c 0 11 c 4 8 c 4 4 c 11 3 c 8 0 c 11 -3 c 8 -8 c 3 -11 c 0 -12 c
-3 -11 c -4 -4 c -8 -4 c 4 -4 5951 1948 l 3 4 c -3 3 c -4 -3 c -7 -4 5890 2027 l -4 -11 c 0 -8 c 4 -11 c 11 -8 c 19 -3 c 19 0 c
15 3 c 8 8 c 3 11 c 0 4 c -3 11 c -8 8 c -11 4 c -4 0 c -11 -4 c -8 -8 c -4 -11 c 0 -4 c 4 -11 c 8 -8 c 11 -3 c -4 7 5894 2065 l
-11 12 c 79 0 c -7 -4 5890 2178 l -4 -11 c 0 -8 c 4 -11 c 11 -7 c 19 -4 c 19 0 c 15 4 c 8 7 c 3 11 c 0 4 c -3 12 c -8 7 c -11 4 c
-4 0 c -11 -4 c -8 -7 c -4 -12 c 0 -4 c 4 -11 c 8 -7 c 11 -4 c 0 -250 6006 1871 l 4 -11 5963 1961 l 7 -4 c 8 0 c 7 4 c 4 8 c 4 15 c
4 11 c 7 8 c 8 3 c 11 0 c 8 -3 c 3 -4 c 4 -11 c 0 -16 c -4 -11 c -3 -4 c -8 -4 c -11 0 c -8 4 c -7 8 c -4 11 c -4 15 c -4 8 c -7 4 c
-8 0 c -7 -4 c -4 -11 c 0 -16 c -4 0 5982 2022 l -8 4 c -3 3 c -4 8 c 0 15 c 4 8 c 3 3 c 8 4 c 8 0 c 7 -4 c 11 -7 c 38 -38 c 0 53 c
0 -38 5963 2139 l 34 -4 c -4 4 c -4 12 c 0 11 c 4 11 c 8 8 c 11 4 c 8 0 c 11 -4 c 7 -8 c 4 -11 c 0 -11 c -4 -12 c -3 -4 c -8 -3 c
53 -38 5963 2207 l 0 57 c 79 0 5963 2207 l 3 -3 6035 2252 l 4 3 c -4 4 c -3 -4 c 79 -38 5963 2336 l 0 53 5963 2283 l
53 -38 5963 2396 l 0 57 c 79 0 5963 2396 l -4 0 5982 2438 l -8 3 c -3 4 c -4 8 c 0 15 c 4 7 c 3 4 c 8 4 c 8 0 c 7 -4 c 11 -7 c
38 -38 c 0 53 c 0 -250 6360 1899 l 4 -12 6317 1990 l 7 -3 c 8 0 c 7 3 c 4 8 c 4 15 c 4 11 c 7 8 c 8 4 c 11 0 c 8 -4 c 3 -4 c 4 -11 c
0 -15 c -4 -12 c -3 -3 c -8 -4 c -11 0 c -8 4 c -7 7 c -4 11 c -4 16 c -4 7 c -7 4 c -8 0 c -7 -4 c -4 -11 c 0 -15 c
-4 0 6336 2050 l -8 4 c -3 4 c -4 7 c 0 15 c 4 8 c 3 4 c 8 3 c 7 0 c 8 -3 c 11 -8 c 38 -38 c 0 53 c 0 -37 6317 2167 l 34 -4 c -4 4 c
-4 11 c 0 11 c 4 12 c 8 7 c 11 4 c 7 0 c 12 -4 c 7 -7 c 4 -12 c 0 -11 c -4 -11 c -3 -4 c -8 -4 c 12 -4 6343 2247 l 7 -8 c 4 -11 c
0 -4 c -4 -11 c -7 -8 c -12 -3 c -4 0 c -11 3 c -7 8 c -4 11 c 0 4 c 4 11 c 7 8 c 15 4 c 19 0 c 19 -4 c 11 -8 c 4 -11 c 0 -8 c
-4 -11 c -7 -4 c 3 -4 6389 2281 l 4 4 c -4 3 c -3 -3 c 0 -38 6317 2356 l 34 -3 c -4 3 c -4 12 c 0 11 c 4 12 c 8 7 c 11 4 c 7 0 c
12 -4 c 7 -7 c 4 -12 c 0 -11 c -4 -12 c -3 -3 c -8 -4 c -4 7 6332 2398 l -11 12 c 79 0 c -4 8 6332 2473 l -11 11 c 79 0 c
0 -249 7571 5202 l 3 -11 7528 5293 l 8 -4 c 7 0 c 8 4 c 4 7 c 4 15 c 3 12 c 8 7 c 7 4 c 12 0 c 7 -4 c 4 -3 c 4 -12 c 0 -15 c
-4 -11 c -4 -4 c -7 -4 c -12 0 c -7 4 c -8 8 c -3 11 c -4 15 c -4 8 c -8 3 c -7 0 c -8 -3 c -3 -12 c 0 -15 c -3 0 7546 5354 l -8 3 c
-4 4 c -3 8 c 0 15 c 3 7 c 4 4 c 8 4 c 7 0 c 8 -4 c 11 -7 c 38 -38 c 0 53 c 79 -37 7528 5478 l 0 53 7528 5425 l 0 -37 7528 5546 l
34 -4 c -4 4 c -4 11 c 0 11 c 4 12 c 7 7 c 12 4 c 7 0 c 12 -4 c 7 -7 c 4 -12 c 0 -11 c -4 -11 c -4 -4 c -7 -4 c 4 -4 7599 5584 l
4 4 c -4 4 c -4 -4 c -8 -4 7539 5664 l -3 -12 c 0 -7 c 3 -12 c 12 -7 c 19 -4 c 18 0 c 16 4 c 7 7 c 4 12 c 0 4 c -4 11 c -7 8 c
-12 3 c -4 0 c -11 -3 c -7 -8 c -4 -11 c 0 -4 c 4 -12 c 7 -7 c 11 -4 c -3 0 7546 5694 l -8 4 c -4 3 c -3 8 c 0 15 c 3 8 c 4 3 c
8 4 c 7 0 c 8 -4 c 11 -7 c 38 -38 c 0 53 c 79 -37 7528 5818 l 0 52 7528 5766 l 0 -250 8550 1437 l 4 -12 8506 1528 l 8 -3 c 7 0 c
8 3 c 4 8 c 3 15 c 4 11 c 8 8 c 7 4 c 12 0 c 7 -4 c 4 -4 c 4 -11 c 0 -15 c -4 -12 c -4 -3 c -7 -4 c -12 0 c -7 4 c -8 7 c -4 11 c
-3 16 c -4 7 c -8 4 c -7 0 c -8 -4 c -4 -11 c 0 -15 c -4 0 8525 1588 l -7 4 c -4 4 c -4 7 c 0 15 c 4 8 c 4 4 c 7 3 c 8 0 c 8 -3 c
11 -8 c 38 -38 c 0 53 c 4 -12 8506 1679 l 8 -3 c 7 0 c 8 3 c 4 8 c 3 15 c 4 11 c 8 8 c 7 4 c 12 0 c 7 -4 c 4 -4 c 4 -11 c 0 -15 c
-4 -12 c -4 -3 c -7 -4 c -12 0 c -7 4 c -8 7 c -4 12 c -3 15 c -4 7 c -8 4 c -7 0 c -8 -4 c -4 -11 c 0 -15 c 4 -11 8506 1754 l
8 -4 c 7 0 c 8 4 c 4 8 c 3 15 c 4 11 c 8 8 c 7 3 c 12 0 c 7 -3 c 4 -4 c 4 -11 c 0 -16 c -4 -11 c -4 -4 c -7 -4 c -12 0 c -7 4 c
-8 8 c -4 11 c -3 15 c -4 8 c -8 4 c -7 0 c -8 -4 c -4 -11 c 0 -16 c 4 -4 8578 1819 l 4 4 c -4 3 c -4 -3 c 53 -38 8506 1887 l 0 57 c
80 0 8506 1887 l -3 7 8521 1936 l -12 12 c 80 0 c 53 -38 8506 2038 l 0 57 c 80 0 8506 2038 l 0 -249 8867 7019 l 4 -12 8823 7110 l
8 -3 c 7 0 c 8 3 c 3 8 c 4 15 c 4 11 c 8 8 c 7 4 c 11 0 c 8 -4 c 4 -4 c 4 -11 c 0 -15 c -4 -12 c -4 -3 c -8 -4 c -11 0 c -7 4 c
-8 7 c -4 12 c -4 15 c -3 7 c -8 4 c -7 0 c -8 -4 c -4 -11 c 0 -15 c -4 0 8842 7170 l -7 4 c -4 4 c -4 7 c 0 16 c 4 7 c 4 4 c 7 4 c
8 0 c 7 -4 c 12 -8 c 38 -37 c 0 52 c 11 -4 8850 7291 l 8 -7 c 3 -11 c 0 -4 c -3 -12 c -8 -7 c -11 -4 c -4 0 c -11 4 c -8 7 c -4 12 c
0 4 c 4 11 c 8 7 c 15 4 c 19 0 c 18 -4 c 12 -7 c 4 -11 c 0 -8 c -4 -11 c -8 -4 c -4 0 8842 7321 l -7 4 c -4 4 c -4 8 c 0 15 c 4 7 c
4 4 c 7 4 c 8 0 c 7 -4 c 12 -8 c 38 -37 c 0 53 c 4 -4 8895 7401 l 4 4 c -4 4 c -4 -4 c 0 -37 8823 7476 l 34 -4 c -4 4 c -3 11 c
0 11 c 3 12 c 8 7 c 11 4 c 8 0 c 11 -4 c 8 -7 c 4 -12 c 0 -11 c -4 -11 c -4 -4 c -8 -4 c -4 0 8842 7510 l -7 4 c -4 4 c -4 8 c
0 15 c 4 7 c 4 4 c 7 4 c 8 0 c 7 -4 c 12 -8 c 38 -37 c 0 53 c 80 -38 8823 7635 l 0 53 8823 7582 l 0 -249 9104 1509 l
4 -11 9060 1600 l 7 -4 c 8 0 c 7 4 c 4 7 c 4 15 c 4 12 c 7 7 c 8 4 c 11 0 c 8 -4 c 4 -4 c 3 -11 c 0 -15 c -3 -11 c -4 -4 c -8 -4 c
-11 0 c -8 4 c -7 7 c -4 12 c -4 15 c -4 7 c -7 4 c -8 0 c -7 -4 c -4 -11 c 0 -15 c -4 0 9079 1661 l -7 3 c -4 4 c -4 8 c 0 15 c
4 7 c 4 4 c 7 4 c 8 0 c 7 -4 c 12 -7 c 37 -38 c 0 53 c 12 -3 9086 1781 l 7 -8 c 4 -11 c 0 -4 c -4 -11 c -7 -8 c -12 -4 c -3 0 c
-12 4 c -7 8 c -4 11 c 0 4 c 4 11 c 7 8 c 15 3 c 19 0 c 19 -3 c 12 -8 c 3 -11 c 0 -8 c -3 -11 c -8 -4 c 0 -38 9060 1853 l 34 -3 c
-4 3 c -4 12 c 0 11 c 4 11 c 8 8 c 11 4 c 8 0 c 11 -4 c 8 -8 c 3 -11 c 0 -11 c -3 -12 c -4 -3 c -8 -4 c 4 -4 9132 1891 l 3 4 c
-3 4 c -4 -4 c 0 -38 9060 1967 l 34 -4 c -4 4 c -4 11 c 0 12 c 4 11 c 8 7 c 11 4 c 8 0 c 11 -4 c 8 -7 c 3 -11 c 0 -12 c -3 -11 c
-4 -4 c -8 -4 c 0 -38 9060 2042 l 34 -3 c -4 3 c -4 12 c 0 11 c 4 11 c 8 8 c 11 4 c 8 0 c 11 -4 c 8 -8 c 3 -11 c 0 -11 c -3 -12 c
-4 -3 c -8 -4 c 4 -11 9060 2095 l 11 -8 c 19 -4 c 11 0 c 19 4 c 12 8 c 3 11 c 0 8 c -3 11 c -12 8 c -19 3 c -11 0 c -19 -3 c
-11 -8 c -4 -11 c 0 -8 c 0 -249 9231 1695 l 4 -11 9187 1786 l 7 -4 c 8 0 c 7 4 c 4 7 c 4 15 c 4 12 c 7 7 c 8 4 c 11 0 c 8 -4 c
4 -3 c 3 -12 c 0 -15 c -3 -11 c -4 -4 c -8 -4 c -11 0 c -8 4 c -7 8 c -4 11 c -4 15 c -4 8 c -7 3 c -8 0 c -7 -3 c -4 -12 c 0 -15 c
-4 0 9206 1847 l -7 3 c -4 4 c -4 8 c 0 15 c 4 7 c 4 4 c 7 4 c 8 0 c 7 -4 c 12 -7 c 37 -38 c 0 53 c 12 -4 9213 1968 l 7 -8 c 4 -11 c
0 -4 c -4 -11 c -7 -8 c -12 -4 c -3 0 c -12 4 c -7 8 c -4 11 c 0 4 c 4 11 c 7 8 c 15 4 c 19 0 c 19 -4 c 12 -8 c 3 -11 c 0 -8 c
-3 -11 c -8 -4 c 79 -38 9187 2047 l 0 53 9187 1994 l 4 -4 9259 2077 l 3 4 c -3 4 c -4 -4 c -4 7 9202 2119 l -11 12 c 79 0 c
79 -38 9187 2236 l 0 53 9187 2183 l -7 -4 9198 2308 l -4 -11 c 0 -8 c 4 -11 c 11 -8 c 19 -4 c 19 0 c 15 4 c 8 8 c 3 11 c 0 4 c
-3 11 c -8 8 c -11 4 c -4 0 c -11 -4 c -8 -8 c -4 -11 c 0 -4 c 4 -11 c 8 -8 c 11 -4 c
showpage PGPLOT restore
 
%%Trailer
%%DocumentFonts: 
%%Pages: 1
%%EOF
