%!PS-Adobe-3.0 EPSF-3.0
%%For: tab
%%Title: PGPLOT PostScript plot
%%Creator: PGPLOT
%%CreationDate: 20-Apr-1995 17:04
%%BoundingBox: 25 18 587 774
%%DocumentFonts: (atend)
%%LanguageLevel: 1
%%Orientation: Landscape
%%Pages: (atend)
%%EndComments
%%BeginProlog
/l {moveto rlineto currentpoint stroke moveto} bind def
/c {rlineto currentpoint stroke moveto} bind def
/d {moveto 0 0 rlineto currentpoint stroke moveto} bind def
/SLW {5 mul setlinewidth} bind def
/SCF /pop load def
/BP {newpath moveto} bind def
/LP /rlineto load def
/EP {rlineto closepath eofill} bind def
/MB {gsave translate MFAC dup scale 1 setlinewidth 2 setlinecap 0 setlinejoin newpath} bind def
/ME /grestore load def
/C {0 360 arc stroke} bind def
/FC {0 360 arc fill} bind def
%%EndProlog
 
%%Page: 1 1
%%BeginPageSetup
/PGPLOT save def
0.072 0.072 scale
8150 250 translate 90 rotate
1 setlinejoin 1 setlinecap 1 SLW 1 SCF
%%EndPageSetup
0.000 setgray 1 SLW 8939 0 780 780 l 0 6239 c -8939 0 c 0 -6239 c 0 -45 1116 780 l 0 -45 1554 780 l 0 -45 1991 780 l
0 -45 2428 780 l 0 -90 2865 780 l 0 -45 3302 780 l 0 -45 3739 780 l 0 -45 4176 780 l 0 -45 4613 780 l 0 -90 5051 780 l
0 -45 5488 780 l 0 -45 5925 780 l 0 -45 6362 780 l 0 -45 6799 780 l 0 -90 7236 780 l 0 -45 7673 780 l 0 -45 8110 780 l
0 -45 8548 780 l 0 -45 8985 780 l 0 -90 9422 780 l 0 -45 1116 7064 l 0 -45 1554 7064 l 0 -45 1991 7064 l 0 -45 2428 7064 l
0 -90 2865 7109 l 0 -45 3302 7064 l 0 -45 3739 7064 l 0 -45 4176 7064 l 0 -45 4613 7064 l 0 -90 5051 7109 l 0 -45 5488 7064 l
0 -45 5925 7064 l 0 -45 6362 7064 l 0 -45 6799 7064 l 0 -90 7236 7109 l 0 -45 7673 7064 l 0 -45 8110 7064 l 0 -45 8548 7064 l
0 -45 8985 7064 l 0 -90 9422 7109 l -60 0 2775 672 l -6 -54 c 6 6 c 18 6 c 18 0 c 18 -6 c 12 -12 c 6 -18 c 0 -12 c -6 -18 c
-12 -12 c -18 -6 c -18 0 c -18 6 c -6 6 c -6 12 c -18 -6 2859 672 l -12 -18 c -6 -30 c 0 -18 c 6 -30 c 12 -18 c 18 -6 c 12 0 c
18 6 c 12 18 c 6 30 c 0 18 c -6 30 c -12 18 c -18 6 c -12 0 c -18 -6 2979 672 l -12 -18 c -6 -30 c 0 -18 c 6 -30 c 12 -18 c 18 -6 c
12 0 c 18 6 c 12 18 c 6 30 c 0 18 c -6 30 c -12 18 c -18 6 c -12 0 c 12 6 4847 648 l 18 18 c 0 -126 c -18 -6 4985 672 l -12 -18 c
-6 -30 c 0 -18 c 6 -30 c 12 -18 c 18 -6 c 12 0 c 18 6 c 12 18 c 6 30 c 0 18 c -6 30 c -12 18 c -18 6 c -12 0 c -18 -6 5105 672 l
-12 -18 c -6 -30 c 0 -18 c 6 -30 c 12 -18 c 18 -6 c 12 0 c 18 6 c 12 18 c 6 30 c 0 18 c -6 30 c -12 18 c -18 6 c -12 0 c
-18 -6 5225 672 l -12 -18 c -6 -30 c 0 -18 c 6 -30 c 12 -18 c 18 -6 c 12 0 c 18 6 c 12 18 c 6 30 c 0 18 c -6 30 c -12 18 c -18 6 c
-12 0 c 12 6 7032 648 l 18 18 c 0 -126 c -60 0 7206 672 l -6 -54 c 6 6 c 18 6 c 18 0 c 18 -6 c 12 -12 c 6 -18 c 0 -12 c -6 -18 c
-12 -12 c -18 -6 c -18 0 c -18 6 c -6 6 c -6 12 c -18 -6 7290 672 l -12 -18 c -6 -30 c 0 -18 c 6 -30 c 12 -18 c 18 -6 c 12 0 c
18 6 c 12 18 c 6 30 c 0 18 c -6 30 c -12 18 c -18 6 c -12 0 c -18 -6 7410 672 l -12 -18 c -6 -30 c 0 -18 c 6 -30 c 12 -18 c 18 -6 c
12 0 c 18 6 c 12 18 c 6 30 c 0 18 c -6 30 c -12 18 c -18 6 c -12 0 c 0 6 9206 642 l 6 12 c 6 6 c 12 6 c 24 0 c 12 -6 c 6 -6 c
6 -12 c 0 -12 c -6 -12 c -12 -18 c -60 -60 c 84 0 c -18 -6 9356 672 l -12 -18 c -6 -30 c 0 -18 c 6 -30 c 12 -18 c 18 -6 c 12 0 c
18 6 c 12 18 c 6 30 c 0 18 c -6 30 c -12 18 c -18 6 c -12 0 c -18 -6 9476 672 l -12 -18 c -6 -30 c 0 -18 c 6 -30 c 12 -18 c 18 -6 c
12 0 c 18 6 c 12 18 c 6 30 c 0 18 c -6 30 c -12 18 c -18 6 c -12 0 c -18 -6 9596 672 l -12 -18 c -6 -30 c 0 -18 c 6 -30 c 12 -18 c
18 -6 c 12 0 c 18 6 c 12 18 c 6 30 c 0 18 c -6 30 c -12 18 c -18 6 c -12 0 c -90 0 780 801 l -45 0 780 1206 l -45 0 780 1611 l
-45 0 780 2017 l -45 0 780 2422 l -90 0 780 2828 l -45 0 780 3233 l -45 0 780 3638 l -45 0 780 4044 l -45 0 780 4449 l
-90 0 780 4855 l -45 0 780 5260 l -45 0 780 5666 l -45 0 780 6071 l -45 0 780 6476 l -90 0 780 6882 l -90 0 9809 801 l
-45 0 9764 1206 l -45 0 9764 1611 l -45 0 9764 2017 l -45 0 9764 2422 l -90 0 9809 2828 l -45 0 9764 3233 l -45 0 9764 3638 l
-45 0 9764 4044 l -45 0 9764 4449 l -90 0 9809 4855 l -45 0 9764 5260 l -45 0 9764 5666 l -45 0 9764 6071 l -45 0 9764 6476 l
-90 0 9809 6882 l 6 -18 517 795 l 18 -12 c 30 -6 c 18 0 c 30 6 c 18 12 c 6 18 c 0 12 c -6 18 c -18 12 c -30 6 c -18 0 c -30 -6 c
-18 -12 c -6 -18 c 0 -12 c 0 -60 517 2678 l 54 -6 c -6 6 c -6 18 c 0 18 c 6 18 c 12 12 c 18 6 c 12 0 c 18 -6 c 12 -12 c 6 -18 c
0 -18 c -6 -18 c -6 -6 c -12 -6 c 6 -18 517 2762 l 18 -12 c 30 -6 c 18 0 c 30 6 c 18 12 c 6 18 c 0 12 c -6 18 c -18 12 c -30 6 c
-18 0 c -30 -6 c -18 -12 c -6 -18 c 0 -12 c 6 -18 517 2882 l 18 -12 c 30 -6 c 18 0 c 30 6 c 18 12 c 6 18 c 0 12 c -6 18 c -18 12 c
-30 6 c -18 0 c -30 -6 c -18 -12 c -6 -18 c 0 -12 c 6 -18 517 3002 l 18 -12 c 30 -6 c 18 0 c 30 6 c 18 12 c 6 18 c 0 12 c -6 18 c
-18 12 c -30 6 c -18 0 c -30 -6 c -18 -12 c -6 -18 c 0 -12 c -6 12 541 4735 l -18 18 c 126 0 c 6 -18 517 4873 l 18 -12 c 30 -6 c
18 0 c 30 6 c 18 12 c 6 18 c 0 12 c -6 18 c -18 12 c -30 6 c -18 0 c -30 -6 c -18 -12 c -6 -18 c 0 -12 c 63 -45 453 4997 l 0 68 c
94 0 453 4997 l -6 12 541 6546 l -18 18 c 126 0 c 6 -6 631 6660 l 6 6 c -6 6 c -6 -6 c 0 -60 517 6780 l 54 -6 c -6 6 c -6 18 c
0 18 c 6 18 c 12 12 c 18 6 c 12 0 c 18 -6 c 12 -12 c 6 -18 c 0 -18 c -6 -18 c -6 -6 c -12 -6 c 84 84 547 6834 l 84 -84 547 6918 l
-6 12 541 6978 l -18 18 c 126 0 c 6 -18 517 7116 l 18 -12 c 30 -6 c 18 0 c 30 6 c 18 12 c 6 18 c 0 12 c -6 18 c -18 12 c -30 6 c
-18 0 c -30 -6 c -18 -12 c -6 -18 c 0 -12 c 63 -45 453 7240 l 0 68 c 94 0 453 7240 l
4 0 780 850 l 5 0 c 4 2 c 4 -3 c 5 1 c 4 0 c 4 -1 c 5 -2 c 4 3 c 5 -1 c 4 -1 c 4 -1 c 5 1 c 4 -1 c 4 0 c 5 1 c 4 0 c 5 0 c 4 -3 c
4 0 c 5 1 c 4 -1 c 4 1 c 5 -2 c 4 0 c 5 -2 c 4 0 c 4 -3 c 5 2 c 4 -3 c 4 2 c 5 -2 c 4 2 c 5 -2 c 4 0 c 4 -2 c 5 -1 c 4 2 c 4 0 c
5 -1 c 4 1 c 4 -3 c 5 1 c 4 0 c 5 -1 c 4 2 c 4 0 c 5 -1 c 4 -1 c 4 1 c 5 0 c 4 -1 c 5 2 c 4 0 c 4 0 c 5 0 c 4 -2 c 4 -1 c 5 1 c
4 0 c 5 0 c 4 2 c 4 -3 c 5 2 c 4 1 c 4 -1 c 5 0 c 4 0 c 5 0 c 4 0 c 4 3 c 5 6 c 4 7 c 4 0 c 5 -8 c 4 -5 c 4 -3 c 5 0 c 4 0 c 5 -1 c
4 1 c 4 -1 c 5 2 c 4 -35 c 4 0 c 5 34 c 4 2 c 5 2 c 4 0 c 4 -1 c 5 -2 c 4 0 c 4 1 c 5 4 c 4 -2 c 5 -2 c 4 0 c 4 -2 c 5 0 c 4 -1 c
4 1 c 5 1 c 4 -1 c 5 0 c 4 2 c 4 1 c 5 5 c 4 21 c 4 20 c 5 -4 c 4 -24 c 4 -12 c 5 -6 c 4 -2 c 5 0 c 4 2 c 4 2 c 5 3 c 4 2 c 4 5 c
5 10 c 4 2 c 5 -12 c 4 -9 c 4 -5 c 5 0 c 4 1 c 4 -1 c 5 0 c 4 1 c 5 -1 c 4 0 c 4 0 c 5 1 c 4 0 c 4 0 c 5 0 c 4 -1 c 5 2 c 4 -1 c
4 2 c 5 -1 c 4 0 c 4 -1 c 5 0 c 4 2 c 4 0 c 5 -1 c 4 0 c 5 -1 c 4 1 c 4 1 c 5 0 c 4 3 c 4 4 c 5 8 c 4 3 c 5 -5 c 4 -7 c 4 -3 c 5 1 c
4 4 c 4 3 c 5 -1 c 4 -4 c 5 -2 c 4 -1 c 4 3 c 5 6 c 4 29 c 4 162 c 5 389 c 4 247 c 4 -105 c 5 -428 c 4 -238 c 5 -54 c 4 -4 c 4 -4 c
5 0 c 4 1 c 4 0 c 5 6 c 4 14 c 5 9 c 4 -8 c 4 -11 c 5 -8 c 4 1 c 4 18 c 5 56 c 4 47 c 5 -10 c 4 -60 c 4 -42 c 5 -14 c 4 -2 c 4 -1 c
5 0 c 4 -1 c 5 -1 c 4 0 c 4 1 c 5 -1 c 4 2 c 4 -2 c 5 0 c 4 1 c 4 -1 c 5 0 c 4 0 c 5 0 c 4 1 c 4 -1 c 5 0 c 4 -1 c 4 -1 c 5 1 c
4 1 c 5 1 c 4 0 c 4 -1 c 5 0 c 4 0 c 4 0 c 5 0 c 4 1 c 5 -1 c 4 -1 c 4 1 c 5 0 c 4 0 c 4 0 c 5 -1 c 4 1 c 5 -1 c 4 0 c 4 0 c 5 1 c
4 0 c 4 1 c 5 3 c 4 3 c 4 0 c 5 -2 c 4 2 c 5 0 c 4 -2 c 4 -3 c 5 -2 c 4 1 c 4 -1 c 5 1 c 4 -1 c 5 -1 c 4 1 c 4 3 c 5 4 c 4 3 c
4 -3 c 5 -4 c 4 -3 c 5 -1 c 4 -1 c 4 2 c 5 -1 c 4 1 c 4 -1 c 5 1 c 4 1 c 5 -1 c 4 0 c 4 -1 c 5 3 c 4 -2 c 4 0 c 5 2 c 4 -1 c 4 0 c
5 -1 c 4 2 c 5 -3 c 4 2 c 4 1 c 5 0 c 4 1 c 4 -2 c 5 4 c 4 0 c 5 3 c 4 9 c 4 41 c 5 56 c 4 16 c 4 -47 c 5 -56 c 4 -18 c 5 -4 c 4 0 c
4 -1 c 5 0 c 4 -1 c 4 1 c 5 -1 c 4 0 c 5 0 c 4 0 c 4 1 c 5 4 c 4 14 c 4 13 c 1 6145 c 1 -5234 2160 7019 l 5 -884 c 4 -32 c 4 -3 c
5 -2 c 4 -1 c 4 1 c 5 -3 c 4 2 c 5 -2 c 4 1 c 4 -1 c 5 3 c 4 0 c 4 -3 c 5 0 c 4 0 c 5 3 c 4 1 c 4 1 c 5 -4 c 4 -4 c 4 0 c 5 -1 c
4 -1 c 4 0 c 5 1 c 4 0 c 5 -1 c 4 1 c 4 0 c 5 -1 c 4 0 c 4 3 c 5 0 c 4 1 c 5 -1 c 4 2 c 4 -1 c 5 1 c 4 6 c 4 13 c 5 23 c 4 10 c
5 -14 c 4 -21 c 4 -12 c 5 -2 c 4 -1 c 4 1 c 5 1 c 4 0 c 5 0 c 4 -1 c 4 5 c 5 2 c 4 3 c 4 4 c 5 -1 c 4 -2 c 4 4 c 5 2 c 4 10 c 5 1 c
4 12 c 4 17 c 5 51 c 4 290 c 4 1286 c 5 1872 c 4 841 c 5 -1251 c 4 -1793 c 4 -1023 c 5 -231 c 4 -40 c 4 -14 c 5 -8 c 4 -10 c 5 -5 c
4 -1 c 4 -3 c 5 -1 c 4 0 c 4 -1 c 5 -4 c 4 0 c 5 -1 c 4 -1 c 4 -2 c 5 -1 c 4 0 c 4 -1 c 5 0 c 4 -2 c 4 2 c 5 -3 c 4 2 c 5 4 c 4 4 c
4 0 c 5 -6 c 4 -3 c 4 -1 c 5 -1 c 4 -3 c 5 -1 c 4 -1 c 4 1 c 5 -1 c 4 1 c 4 -1 c 5 -1 c 4 2 c 5 3 c 4 -3 c 4 1 c 5 -4 c 4 0 c 4 0 c
5 0 c 4 -1 c 5 3 c 4 -2 c 4 3 c 5 1 c 4 -2 c 4 0 c 5 -3 c 4 -1 c 4 4 c 5 -2 c 4 0 c 5 -1 c 4 1 c 4 1 c 5 0 c 4 1 c 4 0 c 5 0 c
4 -2 c 5 0 c 4 3 c 4 0 c 5 -2 c 4 0 c 4 -1 c 5 0 c 4 2 c 5 -1 c 4 3 c 4 -2 c 5 1 c 4 0 c 4 0 c 5 0 c 4 2 c 5 -1 c 4 2 c 4 -1 c 5 0 c
4 3 c 4 3 c 5 -4 c 4 -3 c 4 4 c 5 -2 c 4 0 c 5 2 c 4 -1 c 4 -2 c 5 3 c 4 -1 c 4 6 c 5 2 c 4 -2 c 5 -5 c 4 0 c 4 2 c 5 1 c 4 -2 c
2 6151 c 1 -6054 2986 7019 l 5 -49 c 4 -4 c 4 -4 c 5 -2 c 4 0 c 5 -4 c 4 -3 c 4 -1 c 5 -4 c 4 1 c 4 1 c 5 1 c 4 1 c 5 -4 c 4 -3 c
4 0 c 5 1 c 4 0 c 4 -1 c 5 -3 c 4 0 c 5 -2 c 4 -1 c 4 1 c 5 -1 c 4 0 c 4 -1 c 5 0 c 4 -2 c 5 -2 c 4 2 c 4 -2 c 5 1 c 4 -1 c 4 -2 c
5 3 c 4 -2 c 4 1 c 5 9 c 4 41 c 5 52 c 4 34 c 4 -33 c 5 -59 c 4 -34 c 4 -11 c 5 2 c 4 -4 c 5 -2 c 4 2 c 4 -1 c 5 0 c 4 2 c 4 5 c
5 8 c 4 4 c 5 -5 c 4 -7 c 4 -10 c 5 0 c 4 0 c 4 0 c 5 2 c 4 -1 c 5 1 c 4 -2 c 4 1 c 5 -1 c 4 1 c 4 0 c 5 -1 c 4 0 c 4 -1 c 5 -1 c
4 1 c 5 1 c 4 3 c 4 2 c 5 2 c 4 -2 c 4 -4 c 5 -2 c 4 0 c 5 1 c 4 3 c 4 6 c 5 8 c 4 1 c 4 -3 c 5 -5 c 4 -5 c 5 -1 c 4 1 c 4 1 c 5 2 c
4 0 c 4 -1 c 5 2 c 4 1 c 5 4 c 4 26 c 4 67 c 5 83 c 4 49 c 4 195 c 5 944 c 4 1136 c 4 484 c 5 -981 c 4 -1150 c 5 -668 c 4 -141 c
4 -26 c 5 -9 c 4 -5 c 4 -3 c 5 -1 c 4 5 c 5 31 c 4 71 c 4 39 c 5 -23 c 4 -66 c 4 -50 c 5 -13 c 4 -4 c 5 0 c 4 -1 c 4 -2 c 5 3 c
4 0 c 4 1 c 5 7 c 4 -3 c 4 -4 c 5 -6 c 4 -2 c 5 2 c 4 0 c 4 -1 c 5 1 c 4 -3 c 4 2 c 5 -1 c 4 1 c 5 -1 c 4 -1 c 4 1 c 5 2 c 4 -1 c
4 -1 c 5 -3 c 4 2 c 5 -1 c 4 0 c 4 2 c 5 3 c 4 16 c 4 19 c 5 4 c 4 -13 c 5 -16 c 4 -12 c 4 -3 c 5 0 c 4 -1 c 4 0 c 5 0 c 4 3 c 4 0 c
5 1 c 4 3 c 5 -2 c 4 2 c 4 -4 c 5 -1 c 4 5 c 4 -3 c 5 1 c 4 -3 c 5 0 c 4 0 c 4 0 c 5 1 c 4 0 c 4 0 c 5 2 c 4 -2 c 5 -1 c 4 -1 c
4 1 c 5 0 c 4 -1 c 4 0 c 5 -1 c 4 1 c 5 2 c 4 -1 c 4 2 c 5 -2 c 4 3 c 4 -1 c 5 2 c 4 -1 c 4 1 c 5 -3 c 4 3 c 5 -3 c 4 -1 c 4 4 c
5 -3 c 4 2 c 4 0 c 5 4 c 4 -5 c 5 4 c 4 -4 c 4 3 c 5 -2 c 4 1 c 4 3 c 5 -3 c 4 3 c 5 9 c 4 7 c 4 9 c 5 1 c 4 -10 c 4 -11 c 5 0 c
4 1 c 5 7 c 4 -3 c 4 -8 c 5 -3 c 4 2 c 4 1 c 5 1 c 4 2 c 4 7 c 5 30 c 4 61 c 5 44 c 4 -17 c 4 -54 c 5 -50 c 4 -21 c 4 -4 c 5 4 c
4 4 c 5 2 c 4 -1 c 4 1 c 3 6132 c 1 -6015 4132 7019 l 4 -52 c 4 -12 c 5 -1 c 4 -3 c 5 -1 c 4 -2 c 4 1 c 5 -3 c 4 -3 c 4 -2 c 5 -1 c
4 -4 c 4 1 c 5 12 c 4 16 c 5 13 c 4 -13 c 4 -21 c 5 -15 c 4 -4 c 4 1 c 5 -3 c 4 2 c 5 -1 c 4 -3 c 4 1 c 5 6 c 4 8 c 4 5 c 5 -10 c
4 -10 c 5 -6 c 4 8 c 4 5 c 5 -5 c 4 -3 c 4 -5 c 5 -1 c 4 -3 c 4 -1 c 5 3 c 4 -1 c 5 2 c 4 4 c 4 -1 c 5 -2 c 4 -2 c 4 -1 c 5 -1 c
4 1 c 5 -4 c 4 0 c 4 1 c 5 -1 c 4 -2 c 4 8 c 5 -1 c 4 2 c 5 -4 c 4 -2 c 4 -6 c 5 3 c 4 1 c 4 -4 c 5 1 c 4 0 c 5 0 c 4 0 c 4 -3 c
5 -2 c 4 5 c 4 -1 c 5 2 c 4 -1 c 4 3 c 5 2 c 4 14 c 5 6 c 4 8 c 4 -10 c 5 -14 c 4 -4 c 4 4 c 5 15 c 4 16 c 5 11 c 4 2 c 4 -13 c
5 -19 c 4 -16 c 4 -9 c 5 0 c 4 -3 c 5 2 c 4 -2 c 4 1 c 5 -3 c 4 2 c 4 1 c 5 2 c 4 1 c 5 -1 c 4 -1 c 4 -3 c 5 -1 c 4 2 c 4 4 c 5 5 c
4 3 c 4 -4 c 5 -3 c 4 -6 c 5 -1 c 4 -2 c 4 2 c 5 -2 c 4 2 c 4 0 c 5 -2 c 4 3 c 5 -2 c 4 -2 c 4 4 c 5 20 c 4 59 c 4 52 c 5 2 c
4 -47 c 5 -42 c 4 -21 c 4 -13 c 5 -9 c 4 -1 c 4 13 c 5 6 c 4 -4 c 5 -11 c 4 -1 c 4 3 c 5 14 c 4 97 c 4 321 c 5 251 c 4 51 c 4 -287 c
5 -304 c 4 -117 c 5 -16 c 4 -10 c 4 -6 c 5 -2 c 4 -1 c 4 1 c 5 -2 c 4 1 c 5 -2 c 4 0 c 4 0 c 5 -1 c 4 -1 c 4 3 c 5 -1 c 4 -2 c 5 0 c
4 -2 c 4 3 c 5 -1 c 4 1 c 4 -1 c 5 0 c 4 -3 c 5 1 c 4 2 c 4 0 c 5 -1 c 4 -3 c 4 -1 c 5 0 c 4 0 c 4 0 c 5 1 c 4 0 c 5 0 c 4 1 c 4 4 c
5 2 c 4 -1 c 4 -4 c 5 -2 c 4 -1 c 5 -1 c 4 1 c 4 -1 c 5 0 c 4 -1 c 4 3 c 5 3 c 4 6 c 5 5 c 4 -1 c 4 -4 c 5 -4 c 4 -3 c 4 -1 c 5 0 c
4 1 c 4 -1 c 5 -2 c 4 1 c 5 0 c 4 2 c 4 -2 c 5 1 c 4 0 c 4 0 c 5 0 c 4 1 c 5 0 c 4 0 c 4 -3 c 5 3 c 4 -1 c 4 0 c 5 1 c 4 1 c 5 0 c
4 2 c 4 -2 c 5 1 c 4 1 c 4 1 c 5 -1 c 4 4 c 5 36 c 4 172 c 4 173 c 5 62 c 4 -163 c 4 -189 c 5 -82 c 4 -13 c 4 -1 c 5 -1 c 4 0 c
5 -1 c 4 1 c 4 0 c 5 -2 c 4 -1 c 4 0 c 5 2 c 4 -1 c 5 1 c 4 -1 c 4 0 c 5 -1 c 4 0 c 4 2 c 5 -1 c 4 0 c 5 -1 c 4 1 c 4 1 c 5 0 c
4 1 c 4 -2 c 5 3 c 4 0 c 5 0 c 4 2 c 4 2 c 5 1 c 4 0 c 4 -5 c 5 -3 c 4 -2 c 4 0 c 5 2 c 4 -1 c 5 1 c 4 0 c 4 1 c 5 4 c 4 11 c 4 8 c
5 1 c 4 -8 c 5 -11 c 4 -7 c 4 0 c 5 0 c 4 0 c 4 2 c 5 -1 c 4 2 c 5 28 c 4 44 c 4 26 c 5 -18 c 4 -49 c 4 -29 c 5 -4 c 4 0 c 5 -2 c
4 -1 c 4 3 c 5 0 c 4 1 c 4 5 c 5 8 c 4 6 c 4 -8 c 5 -8 c 4 -4 c 5 -2 c 4 1 c 4 -1 c 5 2 c 4 1 c 4 1 c 5 -3 c 4 -1 c 5 -1 c 4 -1 c
4 2 c 5 -1 c 4 0 c 4 1 c 5 1 c 4 -2 c 5 0 c 4 -1 c 4 1 c 5 -2 c 4 -2 c 4 3 c 5 0 c 4 0 c 4 -1 c 5 1 c 4 1 c 5 0 c 4 0 c 4 0 c 5 -1 c
4 2 c 4 -2 c 5 2 c 4 0 c 5 0 c 4 0 c 4 -1 c 5 0 c 4 0 c 4 0 c 5 0 c 4 1 c 5 -1 c 4 -67 c 4 65 c 5 1 c 4 0 c 4 2 c 5 -1 c 4 2 c 5 0 c
4 0 c 4 0 c 5 -1 c 4 3 c 4 -1 c 5 0 c 4 0 c 4 -2 c 5 1 c 4 0 c 5 0 c 4 0 c 4 0 c 5 -1 c 4 2 c 4 -1 c 5 3 c 4 1 c 5 -1 c 4 0 c 4 -1 c
5 0 c 4 2 c 4 0 c 5 -2 c 4 1 c 5 0 c 4 -2 c 4 1 c 5 1 c 4 0 c 4 -2 c 5 1 c 4 1 c 5 2 c 4 0 c 4 11 c 5 52 c 4 98 c 4 46 c 5 -44 c
4 -101 c 4 -50 c 5 -10 c 4 -2 c 5 0 c 4 0 c 4 0 c 5 2 c 4 -1 c 4 -1 c 5 2 c 4 -2 c 5 -1 c 4 0 c 4 1 c 5 1 c 4 -1 c 4 0 c 5 0 c 4 1 c
5 4 c 4 3 c 4 2 c 5 0 c 4 -2 c 4 -2 c 5 -2 c 4 0 c 5 0 c 4 -2 c 4 0 c 5 1 c 4 2 c 4 -2 c 5 0 c 4 1 c 4 -1 c 5 0 c 4 -2 c 5 2 c 4 1 c
4 -1 c 5 -1 c 4 1 c 4 0 c 5 2 c 4 0 c 5 -2 c 4 1 c 4 1 c 5 3 c 4 -2 c 4 2 c 5 2 c 4 1 c 5 1 c 4 -1 c 4 -1 c 5 -3 c 4 1 c 4 1 c 5 3 c
4 -2 c 5 0 c 4 2 c 4 0 c 5 1 c 4 1 c 4 1 c 5 -1 c 4 2 c 4 -2 c 5 2 c 4 0 c 5 1 c 4 2 c 4 -1 c 5 0 c 4 1 c 4 1 c 5 1 c 4 1 c 5 1 c
4 1 c 4 1 c 5 1 c 4 2 c 4 1 c 5 1 c 4 3 c 5 3 c 4 0 c 4 1 c 5 3 c 4 2 c 4 7 c 5 2 c 4 13 c 4 27 c 5 28 c 4 1 c 5 -22 c 4 -23 c
4 -7 c 5 1 c 4 0 c 4 3 c 5 3 c 4 5 c 5 7 c 4 0 c 4 5 c 5 1 c 4 5 c 4 3 c 5 5 c 4 8 c 5 3 c 4 11 c 4 -1 c 5 4 c 4 9 c 4 6 c 5 11 c
4 4 c 5 10 c 4 14 c 4 12 c 5 11 c 4 5 c 4 14 c 5 3 c 4 20 c 4 9 c 5 23 c 4 15 c 5 12 c 4 18 c 4 10 c 5 12 c 4 21 c 4 22 c 5 21 c
4 24 c 5 21 c 4 18 c 4 22 c 5 39 c 4 41 c 4 36 c 5 102 c 4 469 c 5 1700 c 4 2473 c 4 418 c 5 -1487 c 4 -2482 c 4 -782 c 5 -104 c
4 10 c 5 29 c 4 47 c 4 36 c 5 48 c 4 53 c 4 53 c 5 36 c 4 60 c 4 70 c 5 53 c 4 77 c 5 84 c 4 65 c 4 98 c 5 50 c 4 98 c 4 140 c
5 131 c 4 108 c 5 69 c 4 50 c 4 122 c 5 165 c 4 261 c 4 249 c 1 2961 c 0 -1439 6790 7019 l 5 -682 c 4 -518 c 4 -295 c 5 -234 c
4 -214 c 5 -182 c 4 -86 c 4 -107 c 5 -119 c 4 -73 c 4 -110 c 5 -128 c 4 -127 c 5 -84 c 4 -70 c 4 -62 c 5 -86 c 4 -111 c 4 -22 c
5 -64 c 4 -77 c 5 -83 c 4 -50 c 4 -30 c 5 -24 c 4 -64 c 4 -27 c 5 -61 c 4 -26 c 5 -35 c 4 -40 c 4 -30 c 5 -47 c 4 -32 c 4 -35 c
5 -30 c 4 -38 c 4 -20 c 5 -22 c 4 -39 c 5 -24 c 4 -34 c 4 -15 c 5 -25 c 4 -6 c 4 -16 c 5 -32 c 4 -6 c 5 -18 c 4 -18 c 4 -14 c
5 -15 c 4 -9 c 4 -19 c 5 -8 c 4 -13 c 5 -10 c 4 -9 c 4 -17 c 5 -1 c 4 -7 c 4 -8 c 5 -7 c 4 -9 c 4 -9 c 5 -8 c 4 -12 c 5 -6 c 4 -5 c
4 -11 c 5 -3 c 4 -7 c 4 -4 c 5 -6 c 4 -4 c 5 -5 c 4 -4 c 4 -3 c 5 -5 c 4 -4 c 4 -2 c 5 -3 c 4 -4 c 5 -4 c 4 -3 c 4 -6 c 5 4 c 4 -4 c
4 3 c 5 -6 c 4 -4 c 5 -4 c 4 -4 c 4 -2 c 5 -2 c 4 1 c 4 -3 c 5 -4 c 4 1 c 4 0 c 5 -5 c 4 2 c 5 -3 c 4 4 c 4 7 c 5 -3 c 4 -3 c 4 -4 c
5 -2 c 4 -3 c 5 1 c 4 -1 c 4 -1 c 5 3 c 4 14 c 4 10 c 5 -4 c 4 -14 c 5 -9 c 4 -4 c 4 1 c 5 -2 c 4 -1 c 4 -1 c 5 -3 c 4 1 c 5 2 c
4 0 c 4 1 c 5 -1 c 4 -3 c 4 0 c 5 2 c 4 2 c 4 0 c 5 8 c 4 4 c 5 -6 c 4 -5 c 4 -4 c 5 1 c 4 -3 c 4 -2 c 5 2 c 4 0 c 5 3 c 4 0 c 4 2 c
5 -3 c 4 1 c 4 0 c 5 -2 c 4 1 c 5 3 c 4 3 c 4 1 c 5 7 c 4 8 c 4 -1 c 5 -3 c 4 0 c 5 16 c 4 78 c 4 362 c 5 615 c 4 277 c 4 -269 c
5 -638 c 4 -380 c 4 -57 c 5 -12 c 4 -6 c 5 -5 c 4 0 c 4 -4 c 5 2 c 4 -2 c 4 1 c 5 0 c 4 -2 c 5 4 c 4 8 c 4 8 c 5 -4 c 4 -11 c 4 -9 c
5 -1 c 4 -1 c 5 2 c 4 -2 c 4 -1 c 5 1 c 4 0 c 4 1 c 5 -2 c 4 -2 c 5 0 c 4 2 c 4 -2 c 5 -1 c 4 0 c 4 -3 c 5 2 c 4 0 c 4 0 c 5 -1 c
4 0 c 5 2 c 4 1 c 4 0 c 5 -2 c 4 0 c 4 -2 c 5 0 c 4 -1 c 5 1 c 4 -2 c 4 2 c 5 -1 c 4 -1 c 4 2 c 5 -1 c 4 0 c 5 1 c 4 -1 c 4 2 c
5 3 c 4 15 c 4 11 c 5 1 c 4 5 c 4 38 c 5 36 c 4 -10 c 5 -58 c 4 -38 c 4 -6 c 5 -2 c 4 1 c 4 0 c 5 2 c 4 -2 c 5 1 c 4 -1 c 4 2 c
5 0 c 4 2 c 4 0 c 5 1 c 4 0 c 5 -3 c 4 1 c 4 -2 c 5 0 c 4 -1 c 4 2 c 5 -1 c 4 0 c 5 -1 c 4 -1 c 4 0 c 5 -2 c 4 1 c 4 1 c 5 -3 c
4 2 c 4 0 c 5 0 c 4 1 c 5 0 c 4 -3 c 4 2 c 5 0 c 4 1 c 4 -2 c 5 2 c 4 0 c 5 0 c 4 -1 c 4 0 c 5 1 c 4 0 c 4 -1 c 5 2 c 4 -1 c 5 3 c
4 3 c 4 2 c 5 1 c 4 -2 c 4 20 c 5 95 c 4 185 c 5 57 c 4 -79 c 4 -213 c 5 -66 c 4 -4 c 4 2 c 5 13 c 4 49 c 4 69 c 5 7 c 4 -46 c
5 -82 c 4 -15 c 4 -3 c 5 -1 c 4 -2 c 4 1 c 5 0 c 4 0 c 5 -1 c 4 -1 c 4 1 c 5 -2 c 4 1 c 4 2 c 5 2 c 4 5 c 5 29 c 4 70 c 4 44 c
5 -28 c 4 -65 c 4 -51 c 5 -6 c 4 -2 c 5 -1 c 4 -2 c 4 0 c 5 0 c 4 0 c 4 3 c 5 8 c 4 4 c 4 -1 c 5 -7 c 4 -7 c 5 -2 c 4 0 c 4 -1 c
5 3 c 4 9 c 4 6 c 5 -1 c 4 -7 c 5 -6 c 4 -4 c 4 0 c 5 -1 c 4 0 c 4 -2 c 5 3 c 4 0 c 5 -1 c 4 1 c 4 1 c 5 4 c 4 8 c 4 1 c 5 1 c
4 -6 c 4 -6 c 5 -4 c 4 1 c 5 2 c 4 3 c 4 -1 c 5 -2 c 4 -2 c 4 -1 c 5 -1 c 4 1 c 5 0 c 4 -1 c 4 1 c 5 0 c 4 3 c 4 10 c 5 19 c 4 2 c
5 -9 c 4 -17 c 4 -7 c 5 -1 c 4 -2 c 4 0 c 5 0 c 4 -1 c 5 1 c 4 -1 c 4 2 c 5 -1 c 4 0 c 4 0 c 5 1 c 4 2 c 4 -2 c 5 1 c 4 -2 c 5 0 c
4 -1 c 4 2 c 5 -1 c 4 2 c 4 0 c 5 -1 c 4 2 c 5 5 c 4 5 c 4 1 c 5 -5 c 4 -8 c 4 -1 c 5 -1 c 4 1 c 5 -1 c 4 1 c 4 4 c 5 3 c 4 -1 c
4 -4 c 5 -5 c 4 0 c 5 1 c 4 0 c 4 0 c 5 2 c 4 -2 c 4 1 c 5 -1 c 4 0 c 4 -1 c 5 1 c 4 -1 c 5 0 c 4 2 c 4 -3 c 5 1 c 4 5 c 4 3 c 5 2 c
4 -2 c 5 -2 c 4 -4 c 4 3 c 5 2 c 4 -1 c 4 -4 c 5 -4 c 4 3 c 5 0 c 4 2 c 4 -1 c 5 -1 c 4 0 c 4 0 c 5 0 c 4 -4 c 5 0 c 4 1 c 4 0 c
4 6170 c 1 -5992 8853 7019 l 4 -86 c 4 -13 c 5 -8 c 4 -5 c 4 -1 c 5 -3 c 4 -2 c 5 -1 c 4 -2 c 4 -1 c 5 -3 c 4 0 c 4 -2 c 5 -1 c
4 -2 c 5 -1 c 4 -2 c 4 -1 c 5 -1 c 4 -1 c 4 -2 c 5 -1 c 4 -1 c 5 -1 c 4 1 c 4 -1 c 5 0 c 4 0 c 4 -2 c 5 3 c 4 18 c 4 22 c 5 -1 c
4 -16 c 5 -22 c 4 -6 c 4 -3 c 5 0 c 4 -2 c 4 -1 c 5 0 c 4 0 c 5 0 c 4 -2 c 4 0 c 5 1 c 4 -4 c 4 3 c 5 0 c 4 -4 c 5 3 c 4 -1 c 4 -1 c
5 0 c 4 0 c 4 -2 c 5 2 c 4 -2 c 4 0 c 5 0 c 4 0 c 5 0 c 4 1 c 4 0 c 5 0 c 4 0 c 4 0 c 5 0 c 4 1 c 5 5 c 4 6 c 4 7 c 5 14 c 4 32 c
4 46 c 5 -4 c 4 -37 c 5 -57 c 4 -14 c 4 -1 c 5 0 c 4 0 c 4 -1 c 5 -2 c 4 1 c 5 -1 c 4 -1 c 4 2 c 5 1 c 4 3 c 4 1 c 5 -3 c 4 -4 c
4 -2 c 5 -1 c 4 1 c 5 -1 c 4 1 c 4 1 c 5 0 c 4 -1 c 4 0 c 5 -1 c 4 1 c 5 0 c 4 -1 c 4 -1 c 5 0 c 4 1 c 4 -2 c 5 1 c 4 4 c 5 5 c
4 -1 c 4 -3 c 5 -4 c 4 11 c 4 29 c 5 42 c 4 8 c 5 -26 c 4 -48 c 4 -16 c 5 -1 c 4 -2 c 4 0 c 5 0 c 4 -1 c 4 0 c 5 1 c 4 -2 c 5 0 c
4 2 c 4 0 c 5 1 c 4 1 c 4 13 c 5 50 c 4 64 c 5 4 c 4 -44 c 4 -70 c 5 -16 c 4 -2 c 4 -4 c 5 1 c 4 0 c 5 1 c 4 -3 c 4 1 c 5 1 c 4 -1 c
4 1 c
5 0 c 4 0 c 5 0 c 4 1 c 4 -56 c 5 0 c 4 55 c 4 0 c 5 0 c 4 0 c 4 -1 c 5 2 c 4 -2 c 5 1 c 4 2 c 4 -2 c 5 -1 c 4 1 c 4 0 c 5 1 c 4 0 c
5 0 c 4 0 c 4 3 c 5 -2 c 4 2 c 4 11 c 5 36 c 4 46 c 5 -2 c 4 -30 c 4 -52 c 5 -9 c 4 -2 c 4 0 c 5 2 c 4 -3 c 5 1 c 4 1 c 4 0 c 5 0 c
4 0 c 4 3 c 5 1 c 4 -1 c
0 -126 3303 418 l 54 0 3303 418 l 18 -6 c 6 -6 c 6 -12 c 0 -12 c -6 -12 c -6 -6 c -18 -6 c -54 0 c 42 -66 3345 358 l
-12 -6 3453 376 l -12 -12 c -6 -18 c 0 -12 c 6 -18 c 12 -12 c 12 -6 c 18 0 c 12 6 c 12 12 c 6 18 c 0 12 c -6 18 c -12 12 c -12 6 c
-18 0 c 24 -84 3537 376 l -24 -84 3585 376 l 24 -84 3585 376 l -24 -84 3633 376 l 108 0 3675 364 l 108 0 3675 328 l 12 6 3939 394 l
18 18 c 0 -126 c -60 -84 4101 418 l 90 0 c 0 -126 4101 418 l -12 -6 4287 376 l -12 -12 c -6 -18 c 0 -12 c 6 -18 c 12 -12 c 12 -6 c
18 0 c 12 6 c 12 12 c 6 18 c 0 12 c -6 18 c -12 12 c -12 6 c -18 0 c -12 0 4413 418 l -12 -6 c -6 -18 c 0 -102 c 42 0 4365 376 l
12 6 4557 394 l 18 18 c 0 -126 c -60 0 4731 418 l -6 -54 c 6 6 c 18 6 c 18 0 c 18 -6 c 12 -12 c 6 -18 c 0 -12 c -6 -18 c -12 -12 c
-18 -6 c -18 0 c -18 6 c -6 6 c -6 12 c 12 6 5181 394 l 18 18 c 0 -126 c -6 -6 5294 376 l 6 -6 c 6 6 c -6 6 c -6 -6 5294 304 l
6 -6 c 6 6 c -6 6 c -48 -126 5474 418 l 48 -126 5474 418 l 60 0 5444 334 l 0 -84 5552 376 l 6 18 5552 340 l 12 12 c 12 6 c 18 0 c
-12 12 5696 358 l -12 6 c -18 0 c -12 -6 c -12 -12 c -6 -18 c 0 -12 c 6 -18 c 12 -12 c 12 -6 c 18 0 c 12 6 c 12 12 c
108 0 5738 346 l -18 -6 5924 418 l -12 -18 c -6 -30 c 0 -18 c 6 -30 c 12 -18 c 18 -6 c 12 0 c 18 6 c 12 18 c 6 30 c 0 18 c -6 30 c
-12 18 c -18 6 c -12 0 c -60 -126 6092 418 l 84 0 6008 418 l 12 6 6146 394 l 18 18 c 0 -126 c -6 -6 6260 304 l 6 -6 c 6 6 c -6 6 c
-12 0 6350 418 l -12 -6 c -6 -18 c 0 -102 c 42 0 6302 376 l 6 -6 6380 418 l 6 6 c -6 6 c -6 -6 c 0 -84 6386 376 l 0 -102 6440 418 l
6 -18 c 12 -6 c 12 0 c 42 0 6422 376 l -6 12 6566 358 l -18 6 c -18 0 c -18 -6 c -6 -12 c 6 -12 c 12 -6 c 30 -6 c 12 -6 c 6 -12 c
0 -6 c -6 -12 c -18 -6 c -18 0 c -18 6 c -6 12 c 0 -192 6896 442 l 0 -192 6902 442 l 42 0 6896 442 l 42 0 6896 250 l 0 6 6980 388 l
6 12 c 6 6 c 12 6 c 24 0 c 12 -6 c 6 -6 c 6 -12 c 0 -12 c -6 -12 c -12 -18 c -60 -60 c 84 0 c -6 -6 7106 376 l 6 -6 c 6 6 c -6 6 c
-6 -6 7106 304 l 6 -6 c 6 6 c -6 6 c 0 -192 7286 442 l 0 -192 7292 442 l 42 0 7250 442 l 42 0 7250 250 l
0 -249 1537 2114 l 4 -11 1493 2205 l 8 -4 c 7 0 c 8 4 c 4 7 c 3 15 c 4 12 c 8 7 c 7 4 c 12 0 c 7 -4 c 4 -3 c 4 -12 c 0 -15 c
-4 -11 c -4 -4 c -7 -4 c -12 0 c -7 4 c -8 8 c -4 11 c -3 15 c -4 8 c -8 3 c -7 0 c -8 -3 c -4 -12 c 0 -15 c 0 -38 1493 2307 l
34 -3 c -3 3 c -4 12 c 0 11 c 4 11 c 7 8 c 11 4 c 8 0 c 11 -4 c 8 -8 c 4 -11 c 0 -11 c -4 -12 c -4 -3 c -7 -4 c 11 -4 1520 2387 l
8 -8 c 3 -11 c 0 -4 c -3 -11 c -8 -8 c -11 -4 c -4 0 c -11 4 c -8 8 c -4 11 c 0 4 c 4 11 c 8 8 c 15 4 c 19 0 c 19 -4 c 11 -8 c
4 -11 c 0 -8 c -4 -11 c -8 -4 c -3 8 1508 2424 l -12 11 c 80 0 c 4 -4 1565 2496 l 4 4 c -4 4 c -4 -4 c 4 -11 1493 2545 l 8 -4 c
7 0 c 8 4 c 4 7 c 3 16 c 4 11 c 8 8 c 7 3 c 12 0 c 7 -3 c 4 -4 c 4 -12 c 0 -15 c -4 -11 c -4 -4 c -7 -4 c -12 0 c -7 4 c -8 8 c
-4 11 c -3 15 c -4 8 c -8 4 c -7 0 c -8 -4 c -4 -12 c 0 -15 c 0 41 1493 2610 l 31 -23 c 0 12 c 3 7 c 4 4 c 11 4 c 8 0 c 11 -4 c
8 -7 c 4 -12 c 0 -11 c -4 -11 c -4 -4 c -7 -4 c 11 -4 1520 2727 l 8 -8 c 3 -11 c 0 -4 c -3 -11 c -8 -8 c -11 -3 c -4 0 c -11 3 c
-8 8 c -4 11 c 0 4 c 4 11 c 8 8 c 15 4 c 19 0 c 19 -4 c 11 -8 c 4 -11 c 0 -8 c -4 -11 c -8 -4 c 0 -249 1621 1406 l 4 -11 1577 1497 l
7 -4 c 8 0 c 7 4 c 4 7 c 4 15 c 4 12 c 7 7 c 8 4 c 11 0 c 8 -4 c 4 -4 c 3 -11 c 0 -15 c -3 -11 c -4 -4 c -8 -4 c -11 0 c -8 4 c
-7 7 c -4 12 c -4 15 c -4 7 c -7 4 c -8 0 c -7 -4 c -4 -11 c 0 -15 c 0 -38 1577 1599 l 34 -3 c -4 3 c -4 12 c 0 11 c 4 11 c 8 8 c
11 4 c 8 0 c 11 -4 c 8 -8 c 3 -11 c 0 -11 c -3 -12 c -4 -3 c -8 -4 c 12 -3 1603 1678 l 7 -8 c 4 -11 c 0 -4 c -4 -11 c -7 -8 c
-12 -4 c -3 0 c -12 4 c -7 8 c -4 11 c 0 4 c 4 11 c 7 8 c 15 3 c 19 0 c 19 -3 c 12 -8 c 3 -11 c 0 -8 c -3 -11 c -8 -4 c
0 42 1577 1712 l 30 -23 c 0 12 c 4 7 c 4 4 c 11 4 c 8 0 c 11 -4 c 8 -8 c 3 -11 c 0 -11 c -3 -12 c -4 -3 c -8 -4 c 4 -4 1649 1788 l
3 4 c -3 4 c -4 -4 c -4 7 1592 1830 l -11 12 c 79 0 c 4 -12 1577 1917 l 11 -7 c 19 -4 c 11 0 c 19 4 c 12 7 c 3 12 c 0 7 c -3 11 c
-12 8 c -19 4 c -11 0 c -19 -4 c -11 -8 c -4 -11 c 0 -7 c 12 -4 1603 2019 l 7 -8 c 4 -11 c 0 -4 c -4 -11 c -7 -8 c -12 -4 c -3 0 c
-12 4 c -7 8 c -4 11 c 0 4 c 4 11 c 7 8 c 15 4 c 19 0 c 19 -4 c 12 -8 c 3 -11 c 0 -8 c -3 -11 c -8 -4 c 0 -249 2349 1350 l
4 -11 2305 1441 l 8 -4 c 7 0 c 8 4 c 4 7 c 3 15 c 4 12 c 8 7 c 7 4 c 12 0 c 7 -4 c 4 -4 c 4 -11 c 0 -15 c -4 -11 c -4 -4 c -7 -4 c
-12 0 c -7 4 c -8 7 c -4 12 c -3 15 c -4 7 c -8 4 c -7 0 c -8 -4 c -4 -11 c 0 -15 c -8 -4 2317 1547 l -4 -11 c 0 -8 c 4 -11 c
11 -8 c 19 -4 c 19 0 c 15 4 c 8 8 c 4 11 c 0 4 c -4 11 c -8 8 c -11 4 c -4 0 c -11 -4 c -8 -8 c -3 -11 c 0 -4 c 3 -11 c 8 -8 c
11 -4 c 4 -11 2305 1596 l 11 -8 c 19 -4 c 12 0 c 19 4 c 11 8 c 4 11 c 0 7 c -4 12 c -11 7 c -19 4 c -12 0 c -19 -4 c -11 -7 c
-4 -12 c 0 -7 c 53 -38 2305 1687 l 0 56 c 80 0 2305 1687 l 4 -4 2377 1732 l 4 4 c -4 4 c -4 -4 c 4 -12 2305 1785 l 11 -7 c 19 -4 c
12 0 c 19 4 c 11 7 c 4 12 c 0 7 c -4 12 c -11 7 c -19 4 c -12 0 c -19 -4 c -11 -7 c -4 -12 c 0 -7 c -3 8 2320 1849 l -12 11 c 80 0 c
-8 -3 2317 1962 l -4 -12 c 0 -7 c 4 -12 c 11 -7 c 19 -4 c 19 0 c 15 4 c 8 7 c 4 12 c 0 4 c -4 11 c -8 7 c -11 4 c -4 0 c -11 -4 c
-8 -7 c -3 -11 c 0 -4 c 3 -12 c 8 -7 c 11 -4 c 0 -249 2467 5697 l 4 -11 2423 5788 l 7 -4 c 8 0 c 8 4 c 3 7 c 4 15 c 4 12 c 7 7 c
8 4 c 11 0 c 8 -4 c 4 -3 c 3 -12 c 0 -15 c -3 -11 c -4 -4 c -8 -4 c -11 0 c -8 4 c -7 7 c -4 12 c -4 15 c -3 8 c -8 3 c -8 0 c
-7 -3 c -4 -12 c 0 -15 c -7 -4 2434 5894 l -4 -11 c 0 -8 c 4 -11 c 11 -8 c 19 -3 c 19 0 c 15 3 c 8 8 c 3 11 c 0 4 c -3 11 c -8 8 c
-11 4 c -4 0 c -11 -4 c -8 -8 c -4 -11 c 0 -4 c 4 -11 c 8 -8 c 11 -3 c 4 -11 2423 5943 l 11 -8 c 19 -4 c 11 0 c 19 4 c 12 8 c 3 11 c
0 8 c -3 11 c -12 7 c -19 4 c -11 0 c -19 -4 c -11 -7 c -4 -11 c 0 -8 c 0 -38 2423 6041 l 34 -3 c -4 3 c -3 12 c 0 11 c 3 12 c 8 7 c
11 4 c 8 0 c 11 -4 c 8 -7 c 3 -12 c 0 -11 c -3 -12 c -4 -3 c -8 -4 c 4 -4 2495 6079 l 3 4 c -3 4 c -4 -4 c 79 -38 2423 6162 l
0 53 2423 6109 l 79 -38 2423 6238 l 0 53 2423 6185 l -7 -4 2434 6310 l -4 -11 c 0 -8 c 4 -11 c 11 -8 c 19 -4 c 19 0 c 15 4 c 8 8 c
3 11 c 0 4 c -3 11 c -8 8 c -11 3 c -4 0 c -11 -3 c -8 -8 c -4 -11 c 0 -4 c 4 -11 c 8 -8 c 11 -4 c 0 -249 3171 1453 l
4 -12 3127 1544 l 8 -3 c 7 0 c 8 3 c 3 8 c 4 15 c 4 11 c 8 8 c 7 4 c 12 0 c 7 -4 c 4 -4 c 4 -11 c 0 -15 c -4 -12 c -4 -3 c -7 -4 c
-12 0 c -7 4 c -8 7 c -4 12 c -4 15 c -3 7 c -8 4 c -7 0 c -8 -4 c -4 -11 c 0 -15 c -8 -4 3139 1650 l -4 -11 c 0 -8 c 4 -11 c
11 -8 c 19 -4 c 19 0 c 15 4 c 8 8 c 4 11 c 0 4 c -4 11 c -8 8 c -11 3 c -4 0 c -11 -3 c -8 -8 c -4 -11 c 0 -4 c 4 -11 c 8 -8 c
11 -4 c -3 8 3142 1687 l -12 11 c 80 0 c -8 -4 3139 1801 l -4 -11 c 0 -8 c 4 -11 c 11 -8 c 19 -4 c 19 0 c 15 4 c 8 8 c 4 11 c 0 4 c
-4 11 c -8 8 c -11 4 c -4 0 c -11 -4 c -8 -8 c -4 -11 c 0 -4 c 4 -11 c 8 -8 c 11 -4 c 4 -4 3199 1835 l 4 4 c -4 4 c -4 -4 c
-4 0 3146 1869 l -7 4 c -4 3 c -4 8 c 0 15 c 4 8 c 4 3 c 7 4 c 8 0 c 7 -4 c 12 -7 c 38 -38 c 0 53 c -4 0 3146 1944 l -7 4 c -4 4 c
-4 8 c 0 15 c 4 7 c 4 4 c 7 4 c 8 0 c 7 -4 c 12 -8 c 38 -37 c 0 53 c -4 0 3146 2020 l -7 4 c -4 4 c -4 7 c 0 15 c 4 8 c 4 4 c 7 3 c
8 0 c 7 -3 c 12 -8 c 38 -38 c 0 53 c 0 -249 3458 4308 l 4 -12 3415 4399 l 7 -3 c 8 0 c 7 3 c 4 8 c 4 15 c 4 11 c 7 8 c 8 4 c 11 0 c
8 -4 c 3 -4 c 4 -11 c 0 -15 c -4 -12 c -3 -3 c -8 -4 c -11 0 c -8 4 c -7 7 c -4 12 c -4 15 c -4 7 c -7 4 c -8 0 c -7 -4 c -4 -11 c
0 -15 c -7 -4 3426 4505 l -4 -11 c 0 -8 c 4 -11 c 11 -8 c 19 -4 c 19 0 c 15 4 c 7 8 c 4 11 c 0 4 c -4 11 c -7 8 c -11 3 c -4 0 c
-12 -3 c -7 -8 c -4 -11 c 0 -4 c 4 -11 c 7 -8 c 12 -4 c -4 0 3434 4535 l -8 4 c -3 3 c -4 8 c 0 15 c 4 8 c 3 3 c 8 4 c 8 0 c 7 -4 c
11 -7 c 38 -38 c 0 53 c 4 -11 3415 4629 l 11 -8 c 19 -3 c 11 0 c 19 3 c 11 8 c 4 11 c 0 8 c -4 11 c -11 8 c -19 4 c -11 0 c -19 -4 c
-11 -8 c -4 -11 c 0 -8 c 3 -4 3487 4690 l 4 4 c -4 4 c -3 -4 c 53 -38 3415 4758 l 0 57 c 79 0 3415 4758 l -7 -4 3426 4845 l -4 -11 c
0 -8 c 4 -11 c 11 -8 c 19 -4 c 19 0 c 15 4 c 7 8 c 4 11 c 0 4 c -4 11 c -7 8 c -11 4 c -4 0 c -12 -4 c -7 -8 c -4 -11 c 0 -4 c
4 -11 c 7 -8 c 12 -4 c 4 -11 3415 4894 l 11 -8 c 19 -4 c 11 0 c 19 4 c 11 8 c 4 11 c 0 7 c -4 12 c -11 7 c -19 4 c -11 0 c -19 -4 c
-11 -7 c -4 -12 c 0 -7 c 0 -250 3517 1470 l 4 -11 3473 1560 l 8 -4 c 7 0 c 8 4 c 4 8 c 3 15 c 4 11 c 8 8 c 7 3 c 12 0 c 7 -3 c
4 -4 c 4 -11 c 0 -16 c -4 -11 c -4 -4 c -7 -3 c -12 0 c -7 3 c -8 8 c -4 11 c -3 15 c -4 8 c -8 4 c -7 0 c -8 -4 c -4 -11 c 0 -16 c
-8 -4 3485 1666 l -4 -11 c 0 -7 c 4 -12 c 11 -7 c 19 -4 c 19 0 c 15 4 c 8 7 c 4 12 c 0 3 c -4 12 c -8 7 c -11 4 c -4 0 c -11 -4 c
-8 -7 c -3 -12 c 0 -3 c 3 -12 c 8 -7 c 11 -4 c -4 0 3492 1696 l -7 4 c -4 4 c -4 8 c 0 15 c 4 7 c 4 4 c 7 4 c 8 0 c 8 -4 c 11 -8 c
38 -37 c 0 53 c -3 7 3488 1780 l -12 12 c 80 0 c 4 -3 3545 1851 l 4 3 c -4 4 c -4 -4 c 0 42 3473 1889 l 31 -23 c 0 11 c 3 8 c 4 4 c
11 4 c 8 0 c 11 -4 c 8 -8 c 4 -11 c 0 -11 c -4 -12 c -4 -4 c -7 -3 c -4 0 3492 1961 l -7 4 c -4 4 c -4 7 c 0 15 c 4 8 c 4 4 c 7 3 c
8 0 c 8 -3 c 11 -8 c 38 -38 c 0 53 c 0 42 3473 2040 l 31 -23 c 0 12 c 3 7 c 4 4 c 11 4 c 8 0 c 11 -4 c 8 -8 c 4 -11 c 0 -11 c
-4 -12 c -4 -3 c -7 -4 c 0 -249 4051 1460 l 4 -11 4007 1551 l 8 -4 c 7 0 c 8 4 c 3 7 c 4 15 c 4 12 c 8 7 c 7 4 c 11 0 c 8 -4 c
4 -4 c 4 -11 c 0 -15 c -4 -11 c -4 -4 c -8 -4 c -11 0 c -7 4 c -8 7 c -4 12 c -4 15 c -3 7 c -8 4 c -7 0 c -8 -4 c -4 -11 c 0 -15 c
-8 -4 4019 1657 l -4 -11 c 0 -8 c 4 -11 c 11 -8 c 19 -4 c 19 0 c 15 4 c 8 8 c 4 11 c 0 4 c -4 11 c -8 8 c -11 4 c -4 0 c -11 -4 c
-8 -8 c -4 -11 c 0 -4 c 4 -11 c 8 -8 c 11 -4 c -4 0 4026 1687 l -7 4 c -4 4 c -4 7 c 0 15 c 4 8 c 4 4 c 7 3 c 8 0 c 7 -3 c 12 -8 c
38 -38 c 0 53 c 11 -4 4034 1808 l 8 -7 c 3 -12 c 0 -4 c -3 -11 c -8 -7 c -11 -4 c -4 0 c -11 4 c -8 7 c -4 11 c 0 4 c 4 12 c 8 7 c
15 4 c 19 0 c 18 -4 c 12 -7 c 4 -12 c 0 -7 c -4 -12 c -8 -3 c 4 -4 4079 1842 l 4 4 c -4 4 c -4 -4 c -3 7 4022 1884 l -12 11 c 80 0 c
53 -38 4007 1986 l 0 56 c 80 0 4007 1986 l -3 7 4022 2035 l -12 12 c 80 0 c 0 -249 4202 1399 l 4 -11 4158 1490 l 8 -4 c 7 0 c 8 4 c
4 7 c 3 15 c 4 12 c 8 7 c 7 4 c 12 0 c 7 -4 c 4 -4 c 4 -11 c 0 -15 c -4 -11 c -4 -4 c -7 -4 c -12 0 c -7 4 c -8 7 c -4 12 c -3 15 c
-4 7 c -8 4 c -7 0 c -8 -4 c -4 -11 c 0 -15 c -8 -4 4170 1596 l -4 -11 c 0 -8 c 4 -11 c 12 -8 c 18 -4 c 19 0 c 16 4 c 7 8 c 4 11 c
0 4 c -4 11 c -7 8 c -12 4 c -4 0 c -11 -4 c -8 -8 c -3 -11 c 0 -4 c 3 -11 c 8 -8 c 11 -4 c 0 41 4158 1630 l 31 -22 c 0 11 c 3 8 c
4 3 c 12 4 c 7 0 c 12 -4 c 7 -7 c 4 -11 c 0 -12 c -4 -11 c -4 -4 c -7 -4 c -4 8 4174 1709 l -12 11 c 80 0 c 4 -4 4230 1781 l 4 4 c
-4 4 c -4 -4 c 0 41 4158 1819 l 31 -22 c 0 11 c 3 8 c 4 3 c 12 4 c 7 0 c 12 -4 c 7 -7 c 4 -12 c 0 -11 c -4 -11 c -4 -4 c -7 -4 c
0 -38 4158 1932 l 34 -3 c -3 3 c -4 12 c 0 11 c 4 11 c 7 8 c 12 4 c 7 0 c 12 -4 c 7 -8 c 4 -11 c 0 -11 c -4 -12 c -4 -3 c -7 -4 c
-8 -4 4170 2012 l -4 -12 c 0 -7 c 4 -11 c 12 -8 c 18 -4 c 19 0 c 16 4 c 7 8 c 4 11 c 0 4 c -4 11 c -7 8 c -12 3 c -4 0 c -11 -3 c
-8 -8 c -3 -11 c 0 -4 c 3 -11 c 8 -8 c 11 -4 c 0 -250 4686 1451 l 4 -11 4643 1541 l 7 -4 c 8 0 c 7 4 c 4 8 c 4 15 c 4 11 c 7 8 c
8 3 c 11 0 c 8 -3 c 3 -4 c 4 -11 c 0 -16 c -4 -11 c -3 -4 c -8 -4 c -11 0 c -8 4 c -7 8 c -4 11 c -4 15 c -4 8 c -7 4 c -8 0 c
-7 -4 c -4 -11 c 0 -16 c -7 -4 4654 1647 l -4 -11 c 0 -7 c 4 -12 c 11 -7 c 19 -4 c 19 0 c 15 4 c 7 7 c 4 12 c 0 3 c -4 12 c -7 7 c
-12 4 c -3 0 c -12 -4 c -7 -7 c -4 -12 c 0 -3 c 4 -12 c 7 -7 c 12 -4 c 0 42 4643 1681 l 30 -23 c 0 11 c 4 8 c 4 4 c 11 4 c 7 0 c
12 -4 c 7 -8 c 4 -11 c 0 -11 c -4 -12 c -3 -4 c -8 -3 c 4 -11 4643 1768 l 7 -4 c 8 0 c 7 4 c 4 7 c 4 16 c 4 11 c 7 7 c 8 4 c 11 0 c
8 -4 c 3 -3 c 4 -12 c 0 -15 c -4 -11 c -3 -4 c -8 -4 c -11 0 c -8 4 c -7 8 c -4 11 c -4 15 c -4 8 c -7 3 c -8 0 c -7 -3 c -4 -12 c
0 -15 c 3 -3 4715 1832 l 4 3 c -4 4 c -3 -4 c 0 42 4643 1870 l 30 -23 c 0 11 c 4 8 c 4 4 c 11 4 c 7 0 c 12 -4 c 7 -8 c 4 -11 c
0 -11 c -4 -12 c -3 -4 c -8 -3 c -7 -3 4654 1987 l -4 -12 c 0 -7 c 4 -12 c 11 -7 c 19 -4 c 19 0 c 15 4 c 7 7 c 4 12 c 0 3 c -4 12 c
-7 7 c -12 4 c -3 0 c -12 -4 c -7 -7 c -4 -12 c 0 -3 c 4 -12 c 7 -7 c 12 -4 c -4 0 4662 2018 l -8 3 c -3 4 c -4 8 c 0 15 c 4 7 c
3 4 c 8 4 c 7 0 c 8 -4 c 11 -7 c 38 -38 c 0 53 c 0 -250 4760 2058 l 3 -11 4717 2148 l 8 -4 c 7 0 c 8 4 c 4 8 c 4 15 c 3 11 c 8 8 c
7 3 c 12 0 c 7 -3 c 4 -4 c 4 -11 c 0 -16 c -4 -11 c -4 -4 c -7 -4 c -12 0 c -7 4 c -8 8 c -3 11 c -4 15 c -4 8 c -8 4 c -7 0 c
-8 -4 c -3 -11 c 0 -16 c -8 -4 4728 2254 l -3 -11 c 0 -7 c 3 -12 c 12 -7 c 19 -4 c 18 0 c 16 4 c 7 7 c 4 12 c 0 3 c -4 12 c -7 7 c
-12 4 c -4 0 c -11 -4 c -7 -7 c -4 -12 c 0 -3 c 4 -12 c 7 -7 c 11 -4 c 0 42 4717 2288 l 30 -23 c 0 11 c 4 8 c 3 4 c 12 4 c 7 0 c
12 -4 c 7 -8 c 4 -11 c 0 -11 c -4 -12 c -4 -4 c -7 -3 c 11 -3 4743 2405 l 8 -8 c 4 -11 c 0 -4 c -4 -11 c -8 -8 c -11 -4 c -4 0 c
-11 4 c -8 8 c -3 11 c 0 4 c 3 11 c 8 8 c 15 3 c 19 0 c 19 -3 c 11 -8 c 4 -11 c 0 -8 c -4 -11 c -7 -4 c 4 -3 4788 2439 l 4 3 c
-4 4 c -4 -4 c 52 -37 4717 2507 l 0 56 c 79 0 4717 2507 l 52 -38 4717 2583 l 0 57 c 79 0 4717 2583 l -3 0 4735 2625 l -8 3 c -4 4 c
-3 8 c 0 15 c 3 7 c 4 4 c 8 4 c 7 0 c 8 -4 c 11 -7 c 38 -38 c 0 53 c 0 -250 5167 1759 l 4 -12 5124 1850 l 7 -4 c 8 0 c 7 4 c 4 8 c
4 15 c 4 11 c 7 8 c 8 4 c 11 0 c 8 -4 c 3 -4 c 4 -11 c 0 -15 c -4 -12 c -3 -4 c -8 -3 c -11 0 c -8 3 c -7 8 c -4 11 c -4 15 c -4 8 c
-7 4 c -8 0 c -7 -4 c -4 -11 c 0 -15 c -7 -3 5135 1955 l -4 -12 c 0 -7 c 4 -12 c 11 -7 c 19 -4 c 19 0 c 15 4 c 7 7 c 4 12 c 0 4 c
-4 11 c -7 7 c -12 4 c -3 0 c -12 -4 c -7 -7 c -4 -11 c 0 -4 c 4 -12 c 7 -7 c 12 -4 c 53 -38 5124 2020 l 0 57 c 79 0 5124 2020 l
0 -38 5124 2103 l 34 -4 c -4 4 c -4 11 c 0 12 c 4 11 c 8 8 c 11 3 c 7 0 c 12 -3 c 7 -8 c 4 -11 c 0 -12 c -4 -11 c -3 -4 c -8 -4 c
3 -4 5196 2141 l 4 4 c -4 3 c -3 -3 c 0 42 5124 2178 l 30 -23 c 0 12 c 4 7 c 4 4 c 11 4 c 7 0 c 12 -4 c 7 -8 c 4 -11 c 0 -11 c
-4 -12 c -3 -3 c -8 -4 c 4 -11 5124 2269 l 11 -8 c 19 -4 c 11 0 c 19 4 c 11 8 c 4 11 c 0 8 c -4 11 c -11 8 c -19 3 c -11 0 c
-19 -3 c -11 -8 c -4 -11 c 0 -8 c 12 -4 5150 2371 l 7 -7 c 4 -12 c 0 -3 c -4 -12 c -7 -7 c -12 -4 c -4 0 c -11 4 c -7 7 c -4 12 c
0 3 c 4 12 c 7 7 c 15 4 c 19 0 c 19 -4 c 11 -7 c 4 -12 c 0 -7 c -4 -11 c -7 -4 c 0 -249 5436 1407 l 4 -11 5392 1498 l 7 -4 c 8 0 c
7 4 c 4 7 c 4 15 c 4 12 c 7 7 c 8 4 c 11 0 c 8 -4 c 4 -3 c 3 -12 c 0 -15 c -3 -11 c -4 -4 c -8 -4 c -11 0 c -8 4 c -7 8 c -4 11 c
-4 15 c -4 8 c -7 3 c -8 0 c -7 -3 c -4 -12 c 0 -15 c -7 -4 5403 1604 l -4 -11 c 0 -8 c 4 -11 c 11 -8 c 19 -3 c 19 0 c 15 3 c 8 8 c
3 11 c 0 4 c -3 11 c -8 8 c -11 4 c -4 0 c -11 -4 c -8 -8 c -4 -11 c 0 -4 c 4 -11 c 8 -8 c 11 -3 c 53 -38 5392 1668 l 0 57 c
79 0 5392 1668 l 12 -4 5418 1755 l 7 -7 c 4 -12 c 0 -3 c -4 -12 c -7 -7 c -12 -4 c -3 0 c -12 4 c -7 7 c -4 12 c 0 3 c 4 12 c 7 7 c
15 4 c 19 0 c 19 -4 c 12 -7 c 3 -12 c 0 -7 c -3 -12 c -8 -3 c 4 -4 5464 1789 l 3 4 c -3 4 c -4 -4 c -4 7 5407 1831 l -11 12 c 79 0 c
53 -38 5392 1933 l 0 57 c 79 0 5392 1933 l 12 -4 5418 2020 l 7 -8 c 4 -11 c 0 -4 c -4 -11 c -7 -8 c -12 -3 c -3 0 c -12 3 c -7 8 c
-4 11 c 0 4 c 4 11 c 7 8 c 15 4 c 19 0 c 19 -4 c 12 -8 c 3 -11 c 0 -8 c -3 -11 c -8 -4 c 0 -250 6352 1432 l 3 -11 6309 1522 l 8 -4 c
8 0 c 7 4 c 4 8 c 4 15 c 3 11 c 8 8 c 8 3 c 11 0 c 7 -3 c 4 -4 c 4 -12 c 0 -15 c -4 -11 c -4 -4 c -7 -4 c -11 0 c -8 4 c -8 8 c
-3 11 c -4 15 c -4 8 c -7 4 c -8 0 c -8 -4 c -3 -12 c 0 -15 c -8 -4 6320 1628 l -3 -11 c 0 -7 c 3 -12 c 12 -7 c 19 -4 c 19 0 c
15 4 c 7 7 c 4 12 c 0 3 c -4 12 c -7 7 c -12 4 c -3 0 c -12 -4 c -7 -7 c -4 -12 c 0 -3 c 4 -12 c 7 -7 c 12 -4 c -8 -4 6320 1704 l
-3 -11 c 0 -8 c 3 -11 c 12 -8 c 19 -4 c 19 0 c 15 4 c 7 8 c 4 11 c 0 4 c -4 11 c -7 8 c -12 4 c -3 0 c -12 -4 c -7 -8 c -4 -11 c
0 -4 c 4 -11 c 7 -8 c 12 -4 c -4 0 6328 1734 l -8 4 c -4 4 c -3 7 c 0 15 c 3 8 c 4 4 c 8 3 c 7 0 c 8 -3 c 11 -8 c 38 -38 c 0 53 c
4 -3 6380 1813 l 4 3 c -4 4 c -4 -4 c -4 8 6324 1855 l -11 11 c 79 0 c 0 41 6309 1927 l 30 -22 c 0 11 c 4 8 c 3 3 c 12 4 c 7 0 c
12 -4 c 7 -7 c 4 -12 c 0 -11 c -4 -11 c -4 -4 c -7 -4 c 79 -38 6309 2048 l 0 53 6309 1995 l 0 -249 6588 7019 l 3 -12 6545 7110 l
8 -3 c 8 0 c 7 3 c 4 8 c 4 15 c 3 11 c 8 8 c 8 4 c 11 0 c 7 -4 c 4 -4 c 4 -11 c 0 -15 c -4 -12 c -4 -3 c -7 -4 c -11 0 c -8 4 c
-8 7 c -3 12 c -4 15 c -4 7 c -7 4 c -8 0 c -8 -4 c -3 -11 c 0 -15 c -8 -4 6556 7216 l -3 -11 c 0 -8 c 3 -11 c 12 -8 c 19 -4 c
19 0 c 15 4 c 7 8 c 4 11 c 0 4 c -4 11 c -7 8 c -12 3 c -3 0 c -12 -3 c -7 -8 c -4 -11 c 0 -4 c 4 -11 c 7 -8 c 12 -4 c
-8 -4 6556 7291 l -3 -11 c 0 -7 c 3 -12 c 12 -7 c 19 -4 c 19 0 c 15 4 c 7 7 c 4 12 c 0 3 c -4 12 c -7 7 c -12 4 c -3 0 c -12 -4 c
-7 -7 c -4 -12 c 0 -3 c 4 -12 c 7 -7 c 12 -4 c 0 -38 6545 7363 l 34 -4 c -4 4 c -4 12 c 0 11 c 4 11 c 7 8 c 12 4 c 7 0 c 12 -4 c
7 -8 c 4 -11 c 0 -11 c -4 -12 c -4 -4 c -7 -3 c 4 -4 6616 7401 l 4 4 c -4 4 c -4 -4 c 53 -38 6545 7469 l 0 57 c 79 0 6545 7469 l
3 -12 6545 7526 l 8 -4 c 8 0 c 7 4 c 4 8 c 4 15 c 3 11 c 8 8 c 8 4 c 11 0 c 7 -4 c 4 -4 c 4 -11 c 0 -15 c -4 -12 c -4 -4 c -7 -3 c
-11 0 c -8 3 c -8 8 c -3 11 c -4 15 c -4 8 c -7 4 c -8 0 c -8 -4 c -3 -11 c 0 -15 c -8 -3 6556 7631 l -3 -12 c 0 -7 c 3 -12 c
12 -7 c 19 -4 c 19 0 c 15 4 c 7 7 c 4 12 c 0 3 c -4 12 c -7 7 c -12 4 c -3 0 c -12 -4 c -7 -7 c -4 -12 c 0 -3 c 4 -12 c 7 -7 c
12 -4 c 0 -250 7516 2697 l 4 -12 7472 2788 l 8 -3 c 7 0 c 8 3 c 4 8 c 3 15 c 4 11 c 8 8 c 7 4 c 12 0 c 7 -4 c 4 -4 c 4 -11 c 0 -15 c
-4 -12 c -4 -3 c -7 -4 c -12 0 c -7 4 c -8 7 c -4 12 c -3 15 c -4 7 c -8 4 c -7 0 c -8 -4 c -4 -11 c 0 -15 c -8 -4 7484 2894 l
-4 -12 c 0 -7 c 4 -11 c 11 -8 c 19 -4 c 19 0 c 15 4 c 8 8 c 4 11 c 0 4 c -4 11 c -8 8 c -11 3 c -4 0 c -11 -3 c -8 -8 c -3 -11 c
0 -4 c 3 -11 c 8 -8 c 11 -4 c 80 -38 7472 2973 l 0 53 7472 2920 l 4 -11 7472 3014 l 8 -4 c 7 0 c 8 4 c 4 8 c 3 15 c 4 11 c 8 8 c
7 4 c 12 0 c 7 -4 c 4 -4 c 4 -11 c 0 -16 c -4 -11 c -4 -4 c -7 -3 c -12 0 c -7 3 c -8 8 c -4 11 c -3 15 c -4 8 c -8 4 c -7 0 c
-8 -4 c -4 -11 c 0 -16 c 4 -4 7544 3079 l 4 4 c -4 4 c -4 -4 c 53 -38 7472 3147 l 0 57 c 80 0 7472 3147 l 4 -11 7472 3207 l 11 -8 c
19 -3 c 12 0 c 19 3 c 11 8 c 4 11 c 0 8 c -4 11 c -11 8 c -19 3 c -12 0 c -19 -3 c -11 -8 c -4 -11 c 0 -8 c 4 -11 7472 3279 l 8 -4 c
7 0 c 8 4 c 4 7 c 3 15 c 4 12 c 8 7 c 7 4 c 12 0 c 7 -4 c 4 -3 c 4 -12 c 0 -15 c -4 -11 c -4 -4 c -7 -4 c -12 0 c -7 4 c -8 8 c
-4 11 c -3 15 c -4 8 c -8 3 c -7 0 c -8 -3 c -4 -12 c 0 -15 c 0 -250 8203 1452 l 4 -11 8159 1542 l 8 -4 c 7 0 c 8 4 c 3 8 c 4 15 c
4 11 c 8 8 c 7 4 c 12 0 c 7 -4 c 4 -4 c 4 -11 c 0 -16 c -4 -11 c -4 -4 c -7 -3 c -12 0 c -7 3 c -8 8 c -4 11 c -4 15 c -3 8 c -8 4 c
-7 0 c -8 -4 c -4 -11 c 0 -16 c -8 -3 8171 1648 l -4 -12 c 0 -7 c 4 -12 c 11 -7 c 19 -4 c 19 0 c 15 4 c 8 7 c 4 12 c 0 3 c -4 12 c
-8 7 c -11 4 c -4 0 c -11 -4 c -8 -7 c -4 -12 c 0 -3 c 4 -12 c 8 -7 c 11 -4 c 4 -12 8159 1694 l 8 -3 c 7 0 c 8 3 c 3 8 c 4 15 c
4 11 c 8 8 c 7 4 c 12 0 c 7 -4 c 4 -4 c 4 -11 c 0 -15 c -4 -12 c -4 -3 c -7 -4 c -12 0 c -7 4 c -8 7 c -4 11 c -4 16 c -3 7 c -8 4 c
-7 0 c -8 -4 c -4 -11 c 0 -15 c 80 -38 8159 1803 l 0 53 8159 1750 l 4 -4 8231 1834 l 4 4 c -4 3 c -4 -3 c 4 -12 8159 1883 l 8 -3 c
7 0 c 8 3 c 3 8 c 4 15 c 4 11 c 8 8 c 7 4 c 12 0 c 7 -4 c 4 -4 c 4 -11 c 0 -15 c -4 -12 c -4 -3 c -7 -4 c -12 0 c -7 4 c -8 7 c
-4 11 c -4 16 c -3 7 c -8 4 c -7 0 c -8 -4 c -4 -11 c 0 -15 c 53 -38 8159 1977 l 0 57 c 80 0 8159 1977 l 4 -12 8159 2034 l 8 -3 c
7 0 c 8 3 c 3 8 c 4 15 c 4 12 c 8 7 c 7 4 c 12 0 c 7 -4 c 4 -4 c 4 -11 c 0 -15 c -4 -12 c -4 -3 c -7 -4 c -12 0 c -7 4 c -8 7 c
-4 12 c -4 15 c -3 7 c -8 4 c -7 0 c -8 -4 c -4 -11 c 0 -15 c 0 -250 9183 1418 l 3 -12 9140 1509 l 8 -4 c 7 0 c 8 4 c 4 8 c 4 15 c
3 11 c 8 8 c 7 4 c 12 0 c 7 -4 c 4 -4 c 4 -11 c 0 -15 c -4 -12 c -4 -4 c -7 -3 c -12 0 c -7 3 c -8 8 c -3 11 c -4 15 c -4 8 c -8 4 c
-7 0 c -8 -4 c -3 -11 c 0 -15 c 79 -38 9140 1618 l 0 53 9140 1565 l 3 -12 9140 1664 l 12 -7 c 19 -4 c 11 0 c 19 4 c 11 7 c 4 12 c
0 7 c -4 11 c -11 8 c -19 4 c -11 0 c -19 -4 c -12 -8 c -3 -11 c 0 -7 c -4 7 9155 1728 l -11 12 c 79 0 c 4 -4 9211 1800 l 4 4 c
-4 3 c -4 -3 c -4 8 9155 1841 l -11 11 c 79 0 c -3 0 9158 1909 l -8 4 c -4 4 c -3 7 c 0 15 c 3 8 c 4 4 c 8 4 c 7 0 c 8 -4 c 11 -8 c
38 -38 c 0 53 c -4 8 9155 1992 l -11 11 c 79 0 c 0 -249 9377 1387 l 4 -11 9333 1478 l 8 -4 c 7 0 c 8 4 c 4 7 c 3 15 c 4 12 c 8 7 c
7 4 c 12 0 c 7 -4 c 4 -3 c 4 -12 c 0 -15 c -4 -11 c -4 -4 c -7 -4 c -12 0 c -7 4 c -8 8 c -4 11 c -3 15 c -4 8 c -8 3 c -7 0 c
-8 -3 c -4 -12 c 0 -15 c 80 -38 9333 1588 l 0 53 9333 1535 l 4 -11 9333 1633 l 11 -8 c 19 -4 c 12 0 c 19 4 c 11 8 c 4 11 c 0 8 c
-4 11 c -11 8 c -19 3 c -12 0 c -19 -3 c -11 -8 c -4 -11 c 0 -8 c 0 41 9333 1694 l 31 -23 c 0 12 c 3 7 c 4 4 c 11 4 c 8 0 c 11 -4 c
8 -7 c 4 -12 c 0 -11 c -4 -11 c -4 -4 c -7 -4 c 4 -4 9405 1769 l 4 4 c -4 4 c -4 -4 c 80 -37 9333 1852 l 0 53 9333 1799 l
4 -12 9333 1898 l 11 -7 c 19 -4 c 12 0 c 19 4 c 11 7 c 4 12 c 0 7 c -4 12 c -11 7 c -19 4 c -12 0 c -19 -4 c -11 -7 c -4 -12 c
0 -7 c -4 0 9352 1954 l -7 4 c -4 4 c -4 7 c 0 16 c 4 7 c 4 4 c 7 4 c 8 0 c 8 -4 c 11 -8 c 38 -37 c 0 53 c 0 -249 9464 1427 l
4 -11 9420 1518 l 8 -4 c 7 0 c 8 4 c 4 7 c 3 15 c 4 12 c 8 7 c 7 4 c 12 0 c 7 -4 c 4 -3 c 4 -12 c 0 -15 c -4 -11 c -4 -4 c -7 -4 c
-12 0 c -7 4 c -8 8 c -4 11 c -3 15 c -4 8 c -8 3 c -7 0 c -8 -3 c -4 -12 c 0 -15 c 80 -38 9420 1628 l 0 53 9420 1575 l
4 -11 9420 1673 l 11 -8 c 19 -4 c 12 0 c 19 4 c 11 8 c 4 11 c 0 8 c -4 11 c -11 8 c -19 3 c -12 0 c -19 -3 c -11 -8 c -4 -11 c
0 -8 c 53 -38 9420 1764 l 0 57 c 80 0 9420 1764 l 4 -4 9492 1809 l 4 4 c -4 4 c -4 -4 c 4 -11 9420 1858 l 8 -4 c 7 0 c 8 4 c 4 8 c
3 15 c 4 11 c 8 8 c 7 3 c 12 0 c 7 -3 c 4 -4 c 4 -12 c 0 -15 c -4 -11 c -4 -4 c -7 -4 c -12 0 c -7 4 c -8 8 c -4 11 c -3 15 c -4 8 c
-8 4 c -7 0 c -8 -4 c -4 -12 c 0 -15 c -8 -4 9432 1964 l -4 -11 c 0 -8 c 4 -11 c 11 -7 c 19 -4 c 19 0 c 15 4 c 8 7 c 4 11 c 0 4 c
-4 12 c -8 7 c -11 4 c -4 0 c -11 -4 c -8 -7 c -3 -12 c 0 -4 c 3 -11 c 8 -7 c 11 -4 c 4 -11 9420 2013 l 11 -8 c 19 -3 c 12 0 c
19 3 c 11 8 c 4 11 c 0 8 c -4 11 c -11 8 c -19 4 c -12 0 c -19 -4 c -11 -8 c -4 -11 c 0 -8 c 0 -249 9652 1390 l 4 -12 9608 1481 l
7 -3 c 8 0 c 8 3 c 3 8 c 4 15 c 4 11 c 7 8 c 8 4 c 11 0 c 8 -4 c 4 -4 c 3 -11 c 0 -15 c -3 -12 c -4 -3 c -8 -4 c -11 0 c -8 4 c
-7 7 c -4 12 c -4 15 c -3 7 c -8 4 c -8 0 c -7 -4 c -4 -11 c 0 -15 c 79 -37 9608 1590 l 0 53 9608 1537 l 4 -12 9608 1636 l 11 -7 c
19 -4 c 11 0 c 19 4 c 12 7 c 3 12 c 0 7 c -3 12 c -12 7 c -19 4 c -11 0 c -19 -4 c -11 -7 c -4 -12 c 0 -7 c 79 -38 9608 1742 l
0 53 9608 1689 l 4 -4 9680 1772 l 3 4 c -3 4 c -4 -4 c 0 41 9608 1810 l 30 -23 c 0 12 c 4 7 c 4 4 c 11 4 c 8 0 c 11 -4 c 8 -7 c
3 -12 c 0 -11 c -3 -11 c -4 -4 c -8 -4 c 0 -38 9608 1923 l 34 -4 c -4 4 c -3 12 c 0 11 c 3 11 c 8 8 c 11 4 c 8 0 c 11 -4 c 8 -8 c
3 -11 c 0 -11 c -3 -12 c -4 -4 c -8 -3 c 11 -3 9635 2002 l 7 -8 c 4 -11 c 0 -4 c -4 -11 c -7 -8 c -11 -4 c -4 0 c -12 4 c -7 8 c
-4 11 c 0 4 c 4 11 c 7 8 c 16 3 c 18 0 c 19 -3 c 12 -8 c 3 -11 c 0 -8 c -3 -11 c -8 -4 c
showpage PGPLOT restore
 
%%Trailer
%%DocumentFonts: 
%%Pages: 1
%%EOF
