%!PS-Adobe-3.0 EPSF-3.0
%%For: tab
%%Title: PGPLOT PostScript plot
%%Creator: PGPLOT
%%CreationDate: 20-Apr-1995 17:00
%%BoundingBox: 25 18 587 774
%%DocumentFonts: (atend)
%%LanguageLevel: 1
%%Orientation: Landscape
%%Pages: (atend)
%%EndComments
%%BeginProlog
/l {moveto rlineto currentpoint stroke moveto} bind def
/c {rlineto currentpoint stroke moveto} bind def
/d {moveto 0 0 rlineto currentpoint stroke moveto} bind def
/SLW {5 mul setlinewidth} bind def
/SCF /pop load def
/BP {newpath moveto} bind def
/LP /rlineto load def
/EP {rlineto closepath eofill} bind def
/MB {gsave translate MFAC dup scale 1 setlinewidth 2 setlinecap 0 setlinejoin newpath} bind def
/ME /grestore load def
/C {0 360 arc stroke} bind def
/FC {0 360 arc fill} bind def
%%EndProlog
 
%%Page: 1 1
%%BeginPageSetup
/PGPLOT save def
0.072 0.072 scale
8150 250 translate 90 rotate
1 setlinejoin 1 setlinecap 1 SLW 1 SCF
%%EndPageSetup
0.000 setgray 1 SLW 8939 0 780 780 l 0 6239 c -8939 0 c 0 -6239 c 0 -45 1116 780 l 0 -45 1554 780 l 0 -45 1991 780 l
0 -45 2428 780 l 0 -90 2865 780 l 0 -45 3302 780 l 0 -45 3739 780 l 0 -45 4176 780 l 0 -45 4613 780 l 0 -90 5051 780 l
0 -45 5488 780 l 0 -45 5925 780 l 0 -45 6362 780 l 0 -45 6799 780 l 0 -90 7236 780 l 0 -45 7673 780 l 0 -45 8110 780 l
0 -45 8548 780 l 0 -45 8985 780 l 0 -90 9422 780 l 0 -45 1116 7064 l 0 -45 1554 7064 l 0 -45 1991 7064 l 0 -45 2428 7064 l
0 -90 2865 7109 l 0 -45 3302 7064 l 0 -45 3739 7064 l 0 -45 4176 7064 l 0 -45 4613 7064 l 0 -90 5051 7109 l 0 -45 5488 7064 l
0 -45 5925 7064 l 0 -45 6362 7064 l 0 -45 6799 7064 l 0 -90 7236 7109 l 0 -45 7673 7064 l 0 -45 8110 7064 l 0 -45 8548 7064 l
0 -45 8985 7064 l 0 -90 9422 7109 l -60 0 2775 672 l -6 -54 c 6 6 c 18 6 c 18 0 c 18 -6 c 12 -12 c 6 -18 c 0 -12 c -6 -18 c
-12 -12 c -18 -6 c -18 0 c -18 6 c -6 6 c -6 12 c -18 -6 2859 672 l -12 -18 c -6 -30 c 0 -18 c 6 -30 c 12 -18 c 18 -6 c 12 0 c
18 6 c 12 18 c 6 30 c 0 18 c -6 30 c -12 18 c -18 6 c -12 0 c -18 -6 2979 672 l -12 -18 c -6 -30 c 0 -18 c 6 -30 c 12 -18 c 18 -6 c
12 0 c 18 6 c 12 18 c 6 30 c 0 18 c -6 30 c -12 18 c -18 6 c -12 0 c 12 6 4847 648 l 18 18 c 0 -126 c -18 -6 4985 672 l -12 -18 c
-6 -30 c 0 -18 c 6 -30 c 12 -18 c 18 -6 c 12 0 c 18 6 c 12 18 c 6 30 c 0 18 c -6 30 c -12 18 c -18 6 c -12 0 c -18 -6 5105 672 l
-12 -18 c -6 -30 c 0 -18 c 6 -30 c 12 -18 c 18 -6 c 12 0 c 18 6 c 12 18 c 6 30 c 0 18 c -6 30 c -12 18 c -18 6 c -12 0 c
-18 -6 5225 672 l -12 -18 c -6 -30 c 0 -18 c 6 -30 c 12 -18 c 18 -6 c 12 0 c 18 6 c 12 18 c 6 30 c 0 18 c -6 30 c -12 18 c -18 6 c
-12 0 c 12 6 7032 648 l 18 18 c 0 -126 c -60 0 7206 672 l -6 -54 c 6 6 c 18 6 c 18 0 c 18 -6 c 12 -12 c 6 -18 c 0 -12 c -6 -18 c
-12 -12 c -18 -6 c -18 0 c -18 6 c -6 6 c -6 12 c -18 -6 7290 672 l -12 -18 c -6 -30 c 0 -18 c 6 -30 c 12 -18 c 18 -6 c 12 0 c
18 6 c 12 18 c 6 30 c 0 18 c -6 30 c -12 18 c -18 6 c -12 0 c -18 -6 7410 672 l -12 -18 c -6 -30 c 0 -18 c 6 -30 c 12 -18 c 18 -6 c
12 0 c 18 6 c 12 18 c 6 30 c 0 18 c -6 30 c -12 18 c -18 6 c -12 0 c 0 6 9206 642 l 6 12 c 6 6 c 12 6 c 24 0 c 12 -6 c 6 -6 c
6 -12 c 0 -12 c -6 -12 c -12 -18 c -60 -60 c 84 0 c -18 -6 9356 672 l -12 -18 c -6 -30 c 0 -18 c 6 -30 c 12 -18 c 18 -6 c 12 0 c
18 6 c 12 18 c 6 30 c 0 18 c -6 30 c -12 18 c -18 6 c -12 0 c -18 -6 9476 672 l -12 -18 c -6 -30 c 0 -18 c 6 -30 c 12 -18 c 18 -6 c
12 0 c 18 6 c 12 18 c 6 30 c 0 18 c -6 30 c -12 18 c -18 6 c -12 0 c -18 -6 9596 672 l -12 -18 c -6 -30 c 0 -18 c 6 -30 c 12 -18 c
18 -6 c 12 0 c 18 6 c 12 18 c 6 30 c 0 18 c -6 30 c -12 18 c -18 6 c -12 0 c -90 0 780 796 l -45 0 780 1040 l -45 0 780 1283 l
-45 0 780 1527 l -45 0 780 1771 l -90 0 780 2015 l -45 0 780 2258 l -45 0 780 2502 l -45 0 780 2746 l -45 0 780 2989 l
-90 0 780 3233 l -45 0 780 3477 l -45 0 780 3720 l -45 0 780 3964 l -45 0 780 4208 l -90 0 780 4452 l -45 0 780 4695 l
-45 0 780 4939 l -45 0 780 5183 l -45 0 780 5426 l -90 0 780 5670 l -45 0 780 5914 l -45 0 780 6157 l -45 0 780 6401 l
-45 0 780 6645 l -90 0 780 6888 l -90 0 9809 796 l -45 0 9764 1040 l -45 0 9764 1283 l -45 0 9764 1527 l -45 0 9764 1771 l
-90 0 9809 2015 l -45 0 9764 2258 l -45 0 9764 2502 l -45 0 9764 2746 l -45 0 9764 2989 l -90 0 9809 3233 l -45 0 9764 3477 l
-45 0 9764 3720 l -45 0 9764 3964 l -45 0 9764 4208 l -90 0 9809 4452 l -45 0 9764 4695 l -45 0 9764 4939 l -45 0 9764 5183 l
-45 0 9764 5426 l -90 0 9809 5670 l -45 0 9764 5914 l -45 0 9764 6157 l -45 0 9764 6401 l -45 0 9764 6645 l -90 0 9809 6888 l
6 -18 517 790 l 18 -12 c 30 -6 c 18 0 c 30 6 c 18 12 c 6 18 c 0 12 c -6 18 c -18 12 c -30 6 c -18 0 c -30 -6 c -18 -12 c -6 -18 c
0 -12 c -6 12 541 1895 l -18 18 c 126 0 c 6 -18 517 2033 l 18 -12 c 30 -6 c 18 0 c 30 6 c 18 12 c 6 18 c 0 12 c -6 18 c -18 12 c
-30 6 c -18 0 c -30 -6 c -18 -12 c -6 -18 c 0 -12 c 63 -45 453 2157 l 0 68 c 94 0 453 2157 l -6 0 547 2975 l -12 6 c -6 6 c -6 12 c
0 24 c 6 12 c 6 6 c 12 6 c 12 0 c 12 -6 c 18 -12 c 60 -60 c 0 84 c 84 84 547 3095 l 84 -84 547 3179 l -6 12 541 3239 l -18 18 c
126 0 c 6 -18 517 3377 l 18 -12 c 30 -6 c 18 0 c 30 6 c 18 12 c 6 18 c 0 12 c -6 18 c -18 12 c -30 6 c -18 0 c -30 -6 c -18 -12 c
-6 -18 c 0 -12 c 63 -45 453 3501 l 0 68 c 94 0 453 3501 l 0 66 517 4200 l 48 -36 c 0 18 c 6 12 c 6 6 c 18 6 c 12 0 c 18 -6 c
12 -12 c 6 -18 c 0 -18 c -6 -18 c -6 -6 c -12 -6 c 84 84 547 4314 l 84 -84 547 4398 l -6 12 541 4458 l -18 18 c 126 0 c
6 -18 517 4595 l 18 -12 c 30 -6 c 18 0 c 30 6 c 18 12 c 6 18 c 0 12 c -6 18 c -18 12 c -30 6 c -18 0 c -30 -6 c -18 -12 c -6 -18 c
0 -12 c 63 -45 453 4720 l 0 67 c 94 0 453 4720 l 84 -60 517 5466 l 0 90 c 126 0 517 5466 l 84 84 547 5532 l 84 -84 547 5616 l
-6 12 541 5676 l -18 18 c 126 0 c 6 -18 517 5814 l 18 -12 c 30 -6 c 18 0 c 30 6 c 18 12 c 6 18 c 0 12 c -6 18 c -18 12 c -30 6 c
-18 0 c -30 -6 c -18 -12 c -6 -18 c 0 -12 c 63 -45 453 5938 l 0 68 c 94 0 453 5938 l 0 -60 517 6696 l 54 -6 c -6 6 c -6 18 c 0 18 c
6 18 c 12 12 c 18 6 c 12 0 c 18 -6 c 12 -12 c 6 -18 c 0 -18 c -6 -18 c -6 -6 c -12 -6 c 84 84 547 6750 l 84 -84 547 6834 l
-6 12 541 6894 l -18 18 c 126 0 c 6 -18 517 7032 l 18 -12 c 30 -6 c 18 0 c 30 6 c 18 12 c 6 18 c 0 12 c -6 18 c -18 12 c -30 6 c
-18 0 c -30 -6 c -18 -12 c -6 -18 c 0 -12 c 63 -45 453 7157 l 0 67 c 94 0 453 7157 l
4 5 780 832 l 5 16 c 4 77 c 4 324 c 5 625 c 4 207 c 4 -487 c 5 -548 c 4 -179 c 5 -34 c 4 -4 c 4 -2 c 5 0 c 4 2 c 4 6 c 5 2 c 4 -3 c
5 -8 c 4 -2 c 4 0 c 5 -1 c 4 0 c 4 0 c 5 0 c 4 0 c 5 0 c 4 -1 c 4 -2 c 5 1 c 4 0 c 4 0 c 5 0 c 4 0 c 5 -1 c 4 1 c 4 0 c 5 0 c 4 0 c
4 0 c 5 -1 c 4 1 c 4 -1 c 5 0 c 4 -1 c 5 1 c 4 -1 c 4 0 c 5 1 c 4 0 c 4 0 c 5 0 c 4 -1 c 5 0 c 4 1 c 4 -1 c 5 0 c 4 1 c 4 0 c 5 -1 c
4 0 c 5 0 c 4 0 c 4 0 c 5 0 c 4 0 c 4 0 c 5 0 c 4 0 c 5 0 c 4 0 c 4 0 c 5 1 c 4 -1 c 4 2 c 5 0 c 4 -1 c 4 -1 c 5 0 c 4 0 c 5 0 c
4 -1 c 4 1 c 5 0 c 4 -28 c 4 0 c 5 28 c 4 0 c 5 0 c 4 0 c 4 0 c 5 -1 c 4 1 c 4 -1 c 5 3 c 4 1 c 5 0 c 4 -3 c 4 0 c 5 0 c 4 0 c 4 0 c
5 0 c 4 -1 c 5 0 c 4 0 c 4 1 c 5 0 c 4 1 c 4 0 c 5 -1 c 4 1 c 4 0 c 5 0 c 4 1 c 5 7 c 4 27 c 4 16 c 5 -10 c 4 -29 c 4 -11 c 5 -2 c
4 0 c 5 1 c 4 -1 c 4 1 c 5 -1 c 4 0 c 4 0 c 5 0 c 4 0 c 5 0 c 4 0 c 4 0 c 5 1 c 4 -1 c 4 1 c 5 1 c 4 0 c 5 0 c 4 0 c 4 0 c 5 0 c
4 0 c 4 1 c 5 -1 c 4 0 c 4 1 c 5 1 c 4 0 c 5 0 c 4 -1 c 4 0 c 5 1 c 4 0 c 4 -1 c 5 0 c 4 0 c 5 1 c 4 0 c 4 0 c 5 0 c 4 0 c 4 0 c
5 -1 c 4 1 c 5 -1 c 4 1 c 4 -1 c 5 1 c 4 0 c 4 0 c 5 2 c 4 1 c 4 -1 c 5 -2 c 4 0 c 5 1 c 4 1 c 4 2 c 5 8 c 4 3 c 4 -4 c 5 -8 c
4 -1 c 5 -2 c 4 0 c 4 0 c 5 0 c 4 0 c 4 0 c 5 0 c 4 -1 c 5 2 c 4 -1 c 4 2 c 5 0 c 4 5 c 4 5 c 5 0 c 4 -2 c 5 -4 c 4 -3 c 4 -2 c
5 1 c 4 -1 c 4 1 c 5 -1 c 4 0 c 4 0 c 5 0 c 4 0 c 5 0 c 4 1 c 4 0 c 5 -1 c 4 1 c 4 0 c 5 1 c 4 1 c 5 12 c 4 12 c 4 1 c 5 -15 c
4 -10 c 4 -3 c 5 1 c 4 1 c 5 0 c 4 -1 c 4 1 c 5 -1 c 4 0 c 4 1 c 5 0 c 4 -1 c 5 0 c 4 0 c 4 0 c 5 1 c 4 0 c 4 -2 c 5 1 c 4 1 c 4 0 c
5 -1 c 4 1 c 5 0 c 4 0 c 4 1 c 5 -1 c 4 0 c 4 1 c 5 -1 c 4 1 c 5 -1 c 4 1 c 4 -1 c 5 1 c 4 -1 c 4 0 c 5 -1 c 4 3 c 5 1 c 4 -1 c
4 0 c 5 -1 c 4 0 c 4 0 c 5 1 c 4 -1 c 5 -1 c 4 2 c 4 0 c 5 0 c 4 0 c 4 0 c 5 0 c 4 4 c 4 7 c 4 6175 c 3 -6131 2040 7019 l 5 -6 c
4 22 c 4 -1 c 5 -35 c 4 -21 c 4 -3 c 5 0 c 4 -1 c 5 -1 c 4 0 c 4 -1 c 5 0 c 4 0 c 4 0 c 5 -1 c 4 1 c 5 1 c 4 0 c 4 -2 c 5 -1 c 4 0 c
4 -1 c 5 0 c 4 1 c 4 -1 c 5 0 c 4 0 c 5 -1 c 4 0 c 4 1 c 5 -1 c 4 0 c 4 1 c 5 -1 c 4 0 c 5 0 c 4 -1 c 4 1 c 5 -1 c 4 1 c 4 -1 c
5 3 c 4 4 c 5 20 c 4 8 c 4 -6 c 5 -22 c 4 -8 c 4 0 c 5 2 c 4 0 c 4 11 c 5 28 c 4 11 c 5 -15 c 4 -28 c 4 -7 c 5 -2 c 4 0 c 4 -1 c
5 0 c 4 0 c 5 1 c 4 1 c 4 -3 c 5 0 c 4 0 c 4 2 c 5 0 c 4 0 c 5 -1 c 4 2 c 4 5 c 5 1 c 4 -2 c 4 -3 c 5 -1 c 4 0 c 5 3 c 4 37 c 4 61 c
5 23 c 4 -51 c 4 -53 c 5 -12 c 4 0 c 4 -6 c 5 -4 c 4 1 c 5 0 c 4 0 c 4 0 c 5 -2 c 4 1 c 4 1 c 5 0 c 4 1 c 5 -2 c 4 1 c 4 0 c 5 2 c
4 1 c 4 -2 c 5 -1 c 4 0 c 5 -1 c 4 0 c 4 1 c 5 -1 c 4 0 c 4 0 c 5 -1 c 4 1 c 5 0 c 4 0 c 4 0 c 5 1 c 4 -1 c 4 -1 c 5 1 c 4 1 c
4 -1 c 5 1 c 4 -1 c 5 3 c 4 -1 c 4 0 c 5 -1 c 4 1 c 4 -2 c 5 3 c 4 -1 c 5 0 c 4 2 c 4 -1 c 5 -1 c 4 1 c 4 -3 c 5 2 c 4 -1 c 5 1 c
4 1 c 4 -2 c 5 2 c 4 -1 c 4 1 c 5 -1 c 4 1 c 5 -1 c 4 1 c 4 -1 c 5 2 c 4 0 c 4 1 c 5 1 c 4 0 c 4 -1 c 5 -1 c 4 0 c 5 0 c 4 0 c 4 0 c
5 1 c 4 0 c 4 0 c 5 1 c 4 0 c 5 -2 c 4 1 c 4 -1 c 5 1 c 4 1 c 4 0 c 5 3 c 4 1 c 5 -2 c 4 -2 c 4 0 c 5 0 c 4 -2 c 4 1 c 5 0 c 4 0 c
5 -1 c 4 2 c 4 0 c 5 1 c 4 -3 c 4 2 c 5 1 c 4 1 c 4 -2 c 5 1 c 4 1 c 4 6177 c 4 -6106 2931 7019 l 4 -45 c 5 1 c 4 0 c 4 -10 c 5 -6 c
4 0 c 5 -1 c 4 -1 c 4 2 c 5 -1 c 4 0 c 4 -2 c 5 0 c 4 0 c 4 -1 c 5 -1 c 4 1 c 5 -3 c 4 -1 c 4 1 c 5 -1 c 4 1 c 4 -1 c 5 0 c 4 0 c
5 0 c 4 -2 c 4 1 c 5 1 c 4 -4 c 4 2 c 5 0 c 4 -1 c 5 0 c 4 -1 c 4 0 c 5 0 c 4 0 c 4 -2 c 5 1 c 4 1 c 5 0 c 4 -1 c 4 2 c 5 0 c 4 -2 c
4 0 c 5 0 c 4 -1 c 4 -1 c 5 1 c 4 0 c 5 -1 c 4 1 c 4 -1 c 5 1 c 4 1 c 4 -2 c 5 0 c 4 0 c 5 0 c 4 -1 c 4 0 c 5 -1 c 4 1 c 4 0 c
5 -1 c 4 1 c 5 -2 c 4 1 c 4 -1 c 5 0 c 4 0 c 4 -1 c 5 1 c 4 0 c 5 -1 c 4 1 c 4 -1 c 5 -1 c 4 1 c 4 -1 c 5 0 c 4 1 c 4 5 c 5 4 c
4 -2 c 5 -4 c 4 -2 c 4 -2 c 5 -1 c 4 1 c 4 -1 c 5 1 c 4 0 c 5 -1 c 4 1 c 4 0 c 5 2 c 4 1 c 4 -1 c 5 -2 c 4 0 c 5 -1 c 4 -1 c 4 0 c
5 1 c 4 0 c 4 0 c 5 -1 c 4 -1 c 5 0 c 4 0 c 4 1 c 5 3 c 4 1 c 4 -3 c 5 -2 c 4 0 c 4 0 c 5 -1 c 4 0 c 5 -1 c 4 1 c 4 7 c 5 35 c
4 24 c 4 -11 c 5 -39 c 4 -15 c 5 -1 c 4 -1 c 4 1 c 5 -1 c 4 0 c 4 0 c 5 0 c 4 0 c 5 0 c 4 1 c 4 0 c 5 0 c 4 -2 c 4 1 c 5 0 c 4 0 c
4 -1 c 5 0 c 4 0 c 5 1 c 4 -1 c 4 1 c 5 -1 c 4 1 c 4 0 c 5 -1 c 4 2 c 5 1 c 4 1 c 4 -1 c 5 -1 c 4 -1 c 4 0 c 5 0 c 4 0 c 5 -1 c
4 0 c 4 3 c 5 3 c 4 2 c 4 -3 c 5 -2 c 4 0 c 5 0 c 4 -1 c 4 -1 c 5 0 c 4 0 c 4 0 c 5 0 c 4 -1 c 4 1 c 5 -1 c 4 1 c 5 -1 c 4 0 c 4 0 c
5 0 c 4 0 c 4 1 c 5 -1 c 4 1 c 5 -1 c 4 0 c 4 0 c 5 0 c 4 0 c 4 1 c 5 1 c 4 0 c 5 0 c 4 -1 c 4 -1 c 5 -1 c 4 1 c 4 0 c 5 -1 c 4 -1 c
5 2 c 4 0 c 4 0 c 5 1 c 4 4 c 4 2 c 5 -1 c 4 -4 c 4 -1 c 5 0 c 4 -1 c 5 0 c 4 1 c 4 1 c 5 0 c 4 -1 c 4 -2 c 5 1 c 4 0 c 5 0 c 4 0 c
4 0 c 5 1 c 3 6191 c 3 -5651 3968 7019 l 4 -518 c 5 -14 c 4 0 c 4 0 c 5 -1 c 4 1 c 5 -1 c 4 -1 c 4 0 c 5 0 c 4 0 c 4 -1 c 5 1 c
4 -1 c 4 0 c 5 0 c 4 0 c 5 -1 c 4 1 c 4 -1 c 5 1 c 4 0 c 4 1 c 5 -1 c 4 0 c 5 1 c 4 -1 c 4 1 c 5 0 c 4 0 c 4 0 c 5 -1 c 4 1 c 5 0 c
4 0 c 4 0 c 5 1 c 4 0 c 4 1 c 5 0 c 4 0 c 5 0 c 4 1 c 4 1 c 5 1 c 4 3 c 4 4 c 5 14 c 4 71 c 4 677 c 5 1045 c 4 129 c 5 -1066 c
4 -761 c 4 -95 c 5 -6 c 4 -2 c 4 -4 c 5 -8 c 4 -1 c 5 -1 c 4 0 c 4 0 c 5 0 c 4 0 c 4 1 c 5 -2 c 4 -1 c 5 0 c 4 0 c 4 1 c 5 -1 c
4 -1 c 4 0 c 5 0 c 4 -1 c 4 0 c 5 0 c 4 1 c 5 -1 c 4 0 c 4 -1 c 5 1 c 4 0 c 4 -1 c 5 2 c 4 3 c 5 1 c 4 -3 c 4 -3 c 5 0 c 4 3 c
4 6183 c 3 -5690 4396 7019 l 5 -474 c 4 -12 c 4 -1 c 5 -1 c 4 -2 c 5 -1 c 4 1 c 4 3 c 5 -1 c 4 -2 c 4 -1 c 5 -2 c 4 1 c 4 0 c 5 0 c
4 -1 c 5 -1 c 4 1 c 4 1 c 5 -1 c 4 -1 c 4 -1 c 5 0 c 4 0 c 5 -1 c 4 0 c 4 0 c 5 -1 c 4 0 c 4 0 c 5 0 c 4 0 c 5 0 c 4 -1 c 4 0 c
5 0 c 4 0 c 4 -1 c 5 1 c 4 0 c 5 0 c 4 0 c 4 0 c 5 2 c 4 1 c 4 0 c 5 -3 c 4 -2 c 4 0 c 5 0 c 4 1 c 5 -1 c 4 1 c 4 0 c 5 0 c 4 1 c
4 0 c 5 0 c 4 -1 c 5 -1 c 4 2 c 4 2 c 5 0 c 4 2 c 4 4 c 5 2 c 4 -4 c 5 -7 c 4 0 c 4 0 c 5 -1 c 4 1 c 4 -1 c 5 0 c 4 1 c 5 -1 c 4 2 c
4 0 c 5 0 c 4 0 c 4 0 c 5 -1 c 4 0 c 4 1 c 5 3 c 4 2 c 5 -2 c 4 -2 c 4 -1 c 5 1 c 4 0 c 4 -1 c 5 1 c 4 1 c 5 0 c 4 4 c 4 5 c 5 0 c
4 -4 c 4 -3 c 5 1 c 4 1 c 5 1 c 4 0 c 4 0 c 5 1 c 4 2 c 4 0 c 5 0 c 4 0 c 5 2 c 4 1 c 4 2 c 5 1 c 4 2 c 4 3 c 5 5 c 4 9 c 4 15 c
5 59 c 4 500 c 5 2640 c 4 2304 c 4 -585 c 5 -3327 c 4 -1467 c 4 -108 c 5 -27 c 4 -10 c 5 -5 c 4 -1 c 4 -2 c 5 -1 c 4 -1 c 4 -2 c
5 -2 c 4 -1 c 5 -1 c 4 -2 c 4 -1 c 5 -1 c 4 0 c 4 -2 c 5 -1 c 4 0 c 4 0 c 5 -1 c 4 0 c 5 0 c 4 2 c 4 5 c 5 5 c 4 19 c 4 48 c 5 34 c
4 -22 c 5 -57 c 4 -21 c 4 -6 c 5 -2 c 4 -3 c 4 -3 c 5 0 c 4 -1 c 5 -1 c 4 -2 c 4 1 c 5 -1 c 4 -1 c 4 -1 c 5 -1 c 4 0 c 5 0 c 4 0 c
4 3 c 5 1 c 4 1 c 4 -3 c 5 -2 c 4 -2 c 4 0 c 5 1 c 4 0 c 5 -1 c 4 0 c 4 1 c 5 -2 c 4 -1 c 4 0 c 5 0 c 4 0 c 5 0 c 4 0 c 4 0 c 5 0 c
4 0 c 4 0 c 5 0 c 4 0 c 5 0 c 4 -1 c 4 1 c 5 0 c 4 -1 c 4 1 c 5 0 c 4 0 c 5 0 c 4 0 c 4 2 c 5 -1 c 4 0 c 4 -1 c 5 1 c 4 3 c 4 14 c
5 7 c 4 -5 c 5 -15 c 4 -5 c 4 -1 c 5 0 c 4 1 c 4 0 c 5 -1 c 4 0 c 5 0 c 4 0 c 4 0 c 5 0 c 4 0 c 4 0 c 5 0 c 4 0 c 5 -1 c 4 1 c 4 0 c
5 2 c 4 1 c 4 0 c 5 -2 c 4 -2 c 5 0 c 4 0 c 4 1 c 5 0 c 4 -1 c 4 0 c 5 0 c 4 -1 c 4 1 c 5 0 c 4 0 c 5 0 c 4 -1 c 4 0 c 5 1 c 4 0 c
4 1 c 5 0 c 4 -1 c 5 0 c 4 2 c 4 4 c 5 3 c 4 -1 c 4 -5 c 5 -2 c 4 -1 c 5 0 c 4 0 c 4 0 c 5 -1 c 4 0 c 4 0 c 5 0 c 4 0 c 4 2 c 5 -1 c
4 1 c 5 1 c 4 1 c 4 0 c 5 0 c 4 -1 c 4 -2 c 5 -1 c 4 -1 c 5 0 c 4 1 c 4 0 c 5 -1 c 4 1 c 4 -1 c 5 0 c 4 0 c 5 0 c 4 -24 c 4 24 c
5 1 c 4 -1 c 4 1 c 5 -1 c 4 0 c 5 1 c 4 -1 c 4 0 c 5 0 c 4 1 c 4 0 c 5 0 c 4 0 c 4 -2 c 5 2 c 4 4 c 5 1 c 4 -3 c 4 -2 c 5 3 c 4 10 c
4 2 c 5 -4 c 4 -9 c 5 -3 c 4 0 c 4 -1 c 5 0 c 4 1 c 4 0 c 5 1 c 4 0 c 5 0 c 4 -1 c 4 1 c 5 1 c 4 -1 c 4 1 c 5 -1 c 4 2 c 5 1 c 4 1 c
4 0 c 5 0 c 4 -2 c 4 1 c 5 1 c 4 -1 c 4 0 c 5 -1 c 4 0 c 5 -1 c 4 -1 c 4 0 c 5 2 c 4 0 c 4 0 c 5 0 c 4 1 c 5 -1 c 4 -1 c 4 -1 c
5 0 c 4 -1 c 4 -1 c 5 0 c 4 -1 c 5 1 c 4 1 c 4 2 c 5 1 c 4 -1 c 4 -3 c 5 0 c 4 0 c 5 0 c 4 0 c 4 0 c 5 1 c 4 1 c 4 0 c 5 -1 c 4 2 c
4 0 c 5 2 c 3 6195 c 3 -5070 6101 7019 l 4 -1096 c 5 -14 c 4 -5 c 5 -1 c 4 0 c 4 -1 c 5 0 c 4 -1 c 4 4 c 5 3 c 4 -1 c 5 -4 c 4 -3 c
4 -1 c 5 0 c 4 -1 c 4 0 c 5 3 c 4 4 c 5 1 c 4 4 c 4 10 c 5 -1 c 4 -12 c 4 -10 c 5 0 c 4 0 c 4 0 c 5 0 c 4 0 c 5 -1 c 4 0 c 4 0 c
5 0 c 4 -1 c 4 0 c 5 0 c 4 1 c 5 0 c 4 -1 c 4 0 c 5 -1 c 4 1 c 4 1 c 5 1 c 4 0 c 5 -1 c 4 -1 c 4 -1 c 5 0 c 4 1 c 4 1 c 5 0 c 4 -1 c
4 0 c 5 -1 c 4 1 c 5 1 c 4 -1 c 4 0 c 5 1 c 4 0 c 4 0 c 5 0 c 4 0 c 5 -1 c 4 0 c 4 0 c 5 0 c 4 1 c 4 1 c 5 -1 c 4 0 c 5 0 c 4 0 c
4 -1 c 5 1 c 4 0 c 4 1 c 5 -1 c 4 0 c 5 1 c 4 2 c 4 0 c 5 -1 c 4 -1 c 4 -1 c 5 1 c 4 -1 c 4 1 c 5 -1 c 4 0 c 5 0 c 4 -1 c 4 0 c
5 0 c 4 1 c 4 0 c 5 0 c 4 -2 c 5 1 c 4 0 c 4 1 c 5 4 c 4 3 c 4 -1 c 5 -6 c 4 0 c 5 6 c 4 14 c 4 3 c 5 -7 c 4 -15 c 4 -31 c 5 29 c
4 1 c 5 3 c 4 16 c 4 8 c 5 -5 c 4 -18 c 4 -5 c 5 0 c 4 0 c 4 2 c 5 1 c 4 0 c 5 -2 c 4 -1 c 4 1 c 5 1 c 4 0 c 4 0 c 5 -1 c 4 1 c
5 0 c 4 -1 c 4 0 c 5 -1 c 4 0 c 4 0 c 5 1 c 4 1 c 5 0 c 4 -1 c 4 0 c 5 1 c 4 1 c 4 1 c 5 1 c 4 -1 c 5 -2 c 4 0 c 4 0 c 5 0 c 4 -1 c
4 0 c 5 -1 c 4 1 c 4 -1 c 5 0 c 4 0 c 5 0 c 4 1 c 4 0 c 5 1 c 4 1 c 4 0 c 5 1 c 4 -1 c 5 0 c 4 0 c 4 1 c 5 -2 c 4 0 c 4 1 c 5 -1 c
4 1 c 5 2 c 4 0 c 4 0 c 5 -2 c 4 0 c 4 1 c 5 -1 c 4 -1 c 5 1 c 4 -1 c 4 0 c 5 0 c 4 1 c 4 0 c 5 -1 c 4 0 c 4 3 c 5 10 c 4 3 c 5 -6 c
4 -10 c 4 -2 c 5 1 c 4 0 c 4 1 c 5 -2 c 4 1 c 5 1 c 4 0 c 4 -1 c 5 0 c 4 1 c 4 0 c 5 2 c 4 0 c 5 -1 c 4 -1 c 4 0 c 5 0 c 4 0 c 4 1 c
5 -1 c 4 0 c 4 0 c 5 2 c 4 0 c 5 -1 c 4 -1 c 4 0 c 5 6 c 4 8 c 4 1 c 5 -9 c 4 -6 c 5 0 c 4 0 c 4 1 c 5 -1 c 4 0 c 4 0 c 5 1 c 4 -1 c
5 1 c 4 1 c 4 5 c 5 51 c 4 153 c 4 59 c 5 -64 c 4 -158 c 5 -43 c 4 -3 c 4 -1 c 5 -1 c 4 0 c 4 -1 c 5 0 c 4 1 c 4 0 c 5 -1 c 4 0 c
5 1 c 4 -1 c 4 0 c 5 1 c 4 -1 c 4 -1 c 5 1 c 4 0 c 5 -1 c 4 1 c 4 0 c 5 0 c 4 1 c 4 0 c 5 2 c 4 0 c 5 0 c 4 4 c 4 5 c 5 -1 c 4 -5 c
4 -6 c 5 -1 c 4 1 c 5 0 c 4 -1 c 4 0 c 5 0 c 4 0 c 4 0 c 5 0 c 4 -1 c 4 0 c 5 1 c 4 0 c 5 -1 c 4 0 c 4 1 c 5 0 c 4 0 c 4 1 c 5 0 c
4 1 c 5 -1 c 4 0 c 4 -1 c 5 0 c 4 0 c 4 0 c 5 0 c 4 0 c 5 0 c 4 0 c 4 -1 c 5 0 c 4 0 c 4 0 c 5 0 c 4 0 c 5 0 c 4 0 c 4 0 c 5 1 c
4 -1 c 4 1 c 5 3 c 4 3 c 4 -1 c 5 -3 c 4 -2 c 5 0 c 4 -1 c 4 0 c 5 0 c 4 0 c 4 0 c 5 0 c 4 0 c 5 0 c 4 -1 c 4 0 c 5 1 c 4 3 c 4 1 c
5 -1 c 4 -1 c 5 -2 c 4 -1 c 4 0 c 5 0 c 4 1 c 4 0 c 5 0 c 4 -1 c 5 1 c 4 0 c 4 0 c 5 0 c 4 0 c 4 0 c 5 0 c 4 0 c 4 0 c 5 0 c 4 0 c
5 -1 c 4 1 c 4 -1 c 5 1 c 4 -1 c 4 1 c 5 0 c 4 0 c 5 0 c 4 0 c 4 0 c 5 -1 c 4 0 c 4 0 c 5 1 c 4 5 c 5 35 c 4 48 c 4 4 c 5 -45 c
4 -44 c 4 -3 c 5 0 c 4 1 c 4 -2 c 5 0 c 4 -1 c 5 1 c 4 0 c 4 0 c 5 0 c 4 1 c 4 -1 c 5 2 c 4 4 c 5 2 c 4 -2 c 4 -5 c 5 -1 c 4 0 c
4 8 c 5 40 c 4 25 c 5 -7 c 4 -44 c 4 -19 c 5 -1 c 4 0 c 4 0 c 5 -1 c 4 -1 c 5 -1 c 4 0 c 4 1 c 5 0 c 4 -1 c 4 2 c 5 1 c 4 -1 c 4 0 c
5 2 c 4 0 c 5 -1 c 4 -2 c 4 -1 c 5 1 c 4 -1 c 4 0 c 5 0 c 4 0 c 5 0 c 4 0 c 4 0 c 5 0 c 4 1 c 4 2 c 5 4 c 4 25 c 5 54 c 4 12 c
4 -31 c 5 -57 c 4 -8 c 4 -2 c 5 0 c 4 0 c 5 -1 c 4 0 c 4 1 c 5 -1 c 4 1 c 4 -1 c 5 1 c 4 -1 c 4 0 c 5 -1 c 4 1 c 5 -1 c 4 0 c 4 0 c
5 0 c 4 0 c 4 1 c 5 0 c 4 1 c 5 1 c 4 -1 c 4 0 c 5 -1 c 4 0 c 4 1 c 5 0 c 4 0 c 5 -1 c 4 -1 c 4 0 c 5 1 c 4 0 c 4 -1 c 5 1 c 4 0 c
5 0 c 4 0 c 4 0 c 5 0 c 4 -1 c 4 0 c 5 0 c 4 1 c 4 0 c 5 0 c 4 0 c 5 -1 c 4 0 c 4 0 c 5 0 c 4 0 c 4 0 c 5 0 c 4 0 c 5 -1 c 4 0 c
4 0 c 5 1 c 4 -1 c 4 1 c 5 -1 c 4 0 c 5 0 c 4 0 c 4 1 c 5 0 c 4 -1 c 4 0 c 5 -1 c 4 0 c 4 0 c 5 0 c 4 1 c 5 -1 c 4 1 c 4 0 c 5 -1 c
4 1 c 4 0 c 5 0 c 4 0 c 5 0 c 4 1 c 4 1 c 5 5 c 4 0 c 4 -3 c 5 -3 c 4 -2 c 5 1 c 4 0 c 4 0 c 5 0 c 4 0 c 4 1 c 5 1 c 4 0 c 5 0 c
4 -2 c 4 0 c 5 1 c 4 -1 c 4 1 c 5 0 c 4 -1 c 4 0 c 5 1 c 4 -1 c 5 0 c 4 1 c 4 0 c 5 -1 c 4 0 c 4 -1 c 5 0 c 4 1 c 5 0 c 4 1 c 4 -1 c
5 0 c 4 1 c 4 0 c 5 0 c 4 -1 c 5 0 c 4 0 c 4 1 c 5 0 c 4 -1 c 4 0 c 5 1 c 4 -1 c 5 1 c 4 -2 c 4 1 c 5 1 c 4 0 c 4 0 c 5 0 c 4 -1 c
4 0 c 5 1 c 4 0 c 5 0 c 4 0 c 4 0 c 5 -1 c 4 0 c 4 0 c 5 0 c 4 0 c 5 0 c 4 0 c 4 0 c 5 0 c 4 0 c 4 0 c 5 0 c 4 0 c 5 0 c 4 0 c 4 0 c
5 -1 c 3 6201 c 4 -5745 8802 7019 l 4 -420 c 4 -16 c 5 -3 c 4 -2 c 4 -1 c 5 -1 c 4 0 c 4 0 c 5 -2 c 4 2 c 5 12 c 4 33 c 4 11 c
5 -9 c 4 -37 c 4 -11 c 5 -1 c 4 -1 c 5 0 c 4 0 c 4 -1 c 5 4 c 4 2 c 4 -1 c 5 -4 c 4 -3 c 5 0 c 4 0 c 4 0 c 5 0 c 4 0 c 4 0 c 5 -1 c
4 -1 c 5 0 c 4 0 c 4 -1 c 5 0 c 4 0 c 4 1 c 5 -1 c 4 1 c 4 -1 c 5 0 c 4 0 c 5 -1 c 4 1 c 4 0 c 5 0 c 4 -1 c 4 0 c 5 -1 c 4 1 c 5 0 c
4 -1 c 4 1 c 5 -1 c 4 1 c 4 0 c 5 0 c 4 -1 c 5 0 c 4 -1 c 4 0 c 5 -1 c 4 1 c 4 -1 c 5 1 c 4 0 c 4 1 c 5 0 c 4 -1 c 5 0 c 4 0 c
4 -1 c 5 0 c 4 0 c 4 0 c 5 0 c 4 -1 c 5 1 c 4 0 c 4 1 c 5 0 c 4 1 c 4 1 c 5 2 c 4 -2 c 5 -2 c 4 0 c 4 0 c 5 -1 c 4 0 c 4 1 c 5 0 c
4 0 c 5 -1 c 4 1 c 4 -1 c 5 1 c 4 0 c 4 -1 c 5 1 c 4 0 c 4 1 c 5 -1 c 4 0 c 5 0 c 4 0 c 4 0 c 5 1 c 4 0 c 4 2 c 5 2 c 4 5 c 5 35 c
4 127 c 4 124 c 5 9 c 4 -135 c 4 -141 c 5 -22 c 4 -4 c 5 -1 c 4 -1 c 4 0 c 5 0 c 4 0 c 4 0 c 5 -1 c 4 0 c 5 0 c 4 0 c 4 0 c 5 1 c
4 9 c 4 14 c 5 4 c 4 -8 c 4 -16 c 5 -4 c 4 0 c 5 -1 c 4 0 c 4 1 c 5 0 c 4 -1 c 4 1 c 5 -1 c 4 1 c 5 -1 c 4 0 c 4 1 c 5 0 c 4 1 c
4 1 c 5 -1 c 4 1 c 5 0 c 4 1 c 4 4 c 5 22 c 4 98 c 4 97 c
5 3 c 4 -91 c 5 -122 c 4 -12 c 4 -25 c 5 0 c 3 6223 c 3 -4222 9563 7019 l 4 -1918 c 5 -22 c 4 -3 c 5 -2 c 4 -4 c 4 -2 c 5 -1 c
4 -1 c 4 -1 c 5 -1 c 4 -1 c 5 -1 c 4 0 c 4 0 c 5 1 c 4 14 c 4 39 c 5 19 c 4 -14 c 5 -41 c 4 -21 c 4 -2 c 5 -1 c 4 -1 c 4 0 c 5 1 c
4 2 c 5 0 c 4 -2 c 4 -2 c 5 -1 c 4 1 c 4 -2 c 5 0 c 4 -1 c
0 -126 3303 418 l 54 0 3303 418 l 18 -6 c 6 -6 c 6 -12 c 0 -12 c -6 -12 c -6 -6 c -18 -6 c -54 0 c 42 -66 3345 358 l
-12 -6 3453 376 l -12 -12 c -6 -18 c 0 -12 c 6 -18 c 12 -12 c 12 -6 c 18 0 c 12 6 c 12 12 c 6 18 c 0 12 c -6 18 c -12 12 c -12 6 c
-18 0 c 24 -84 3537 376 l -24 -84 3585 376 l 24 -84 3585 376 l -24 -84 3633 376 l 108 0 3675 364 l 108 0 3675 328 l 12 6 3939 394 l
18 18 c 0 -126 c 0 6 4047 388 l 6 12 c 6 6 c 12 6 c 24 0 c 12 -6 c 6 -6 c 6 -12 c 0 -12 c -6 -12 c -12 -18 c -60 -60 c 84 0 c
-12 -6 4287 376 l -12 -12 c -6 -18 c 0 -12 c 6 -18 c 12 -12 c 12 -6 c 18 0 c 12 6 c 12 12 c 6 18 c 0 12 c -6 18 c -12 12 c -12 6 c
-18 0 c -12 0 4413 418 l -12 -6 c -6 -18 c 0 -102 c 42 0 4365 376 l 12 6 4557 394 l 18 18 c 0 -126 c -60 0 4731 418 l -6 -54 c 6 6 c
18 6 c 18 0 c 18 -6 c 12 -12 c 6 -18 c 0 -12 c -6 -18 c -12 -12 c -18 -6 c -18 0 c -18 6 c -6 6 c -6 12 c 12 6 5181 394 l 18 18 c
0 -126 c -6 -6 5294 376 l 6 -6 c 6 6 c -6 6 c -6 -6 5294 304 l 6 -6 c 6 6 c -6 6 c -48 -126 5474 418 l 48 -126 5474 418 l
60 0 5444 334 l 0 -84 5552 376 l 6 18 5552 340 l 12 12 c 12 6 c 18 0 c -12 12 5696 358 l -12 6 c -18 0 c -12 -6 c -12 -12 c -6 -18 c
0 -12 c 6 -18 c 12 -12 c 12 -6 c 18 0 c 12 6 c 12 12 c 108 0 5738 346 l -18 -6 5924 418 l -12 -18 c -6 -30 c 0 -18 c 6 -30 c
12 -18 c 18 -6 c 12 0 c 18 6 c 12 18 c 6 30 c 0 18 c -6 30 c -12 18 c -18 6 c -12 0 c -60 -126 6092 418 l 84 0 6008 418 l
0 6 6134 388 l 6 12 c 6 6 c 12 6 c 24 0 c 12 -6 c 6 -6 c 6 -12 c 0 -12 c -6 -12 c -12 -18 c -60 -60 c 84 0 c -6 -6 6260 304 l 6 -6 c
6 6 c -6 6 c -12 0 6350 418 l -12 -6 c -6 -18 c 0 -102 c 42 0 6302 376 l 6 -6 6380 418 l 6 6 c -6 6 c -6 -6 c 0 -84 6386 376 l
0 -102 6440 418 l 6 -18 c 12 -6 c 12 0 c 42 0 6422 376 l -6 12 6566 358 l -18 6 c -18 0 c -18 -6 c -6 -12 c 6 -12 c 12 -6 c 30 -6 c
12 -6 c 6 -12 c 0 -6 c -6 -12 c -18 -6 c -18 0 c -18 6 c -6 12 c 0 -192 6896 442 l 0 -192 6902 442 l 42 0 6896 442 l 42 0 6896 250 l
0 6 6980 388 l 6 12 c 6 6 c 12 6 c 24 0 c 12 -6 c 6 -6 c 6 -12 c 0 -12 c -6 -12 c -12 -18 c -60 -60 c 84 0 c -6 -6 7106 376 l 6 -6 c
6 6 c -6 6 c -6 -6 7106 304 l 6 -6 c 6 6 c -6 6 c 0 -192 7286 442 l 0 -192 7292 442 l 42 0 7250 442 l 42 0 7250 250 l
0 -249 805 2523 l 3 -11 762 2614 l 8 -4 c 7 0 c 8 4 c 4 7 c 4 15 c 3 12 c 8 7 c 7 4 c 12 0 c 7 -4 c 4 -4 c 4 -11 c 0 -15 c -4 -11 c
-4 -4 c -7 -4 c -12 0 c -7 4 c -8 7 c -3 12 c -4 15 c -4 7 c -8 4 c -7 0 c -8 -4 c -3 -11 c 0 -15 c -3 0 780 2674 l -8 4 c -4 4 c
-3 7 c 0 16 c 3 7 c 4 4 c 8 4 c 7 0 c 8 -4 c 11 -8 c 38 -37 c 0 53 c 79 -38 762 2799 l 0 53 762 2746 l 0 -38 762 2867 l 34 -3 c
-4 3 c -4 12 c 0 11 c 4 11 c 7 8 c 12 4 c 7 0 c 12 -4 c 7 -8 c 4 -11 c 0 -11 c -4 -12 c -4 -3 c -7 -4 c 4 -4 833 2905 l 4 4 c -4 4 c
-4 -4 c -8 -3 773 2984 l -3 -12 c 0 -7 c 3 -12 c 12 -7 c 19 -4 c 18 0 c 16 4 c 7 7 c 4 12 c 0 3 c -4 12 c -7 7 c -12 4 c -4 0 c
-11 -4 c -7 -7 c -4 -12 c 0 -3 c 4 -12 c 7 -7 c 11 -4 c -3 0 780 3015 l -8 3 c -4 4 c -3 8 c 0 15 c 3 7 c 4 4 c 8 4 c 7 0 c 8 -4 c
11 -7 c 38 -38 c 0 53 c 79 -38 762 3139 l 0 53 762 3086 l 0 -249 1748 1293 l 4 -11 1704 1384 l 8 -4 c 7 0 c 8 4 c 3 7 c 4 16 c
4 11 c 8 7 c 7 4 c 12 0 c 7 -4 c 4 -3 c 4 -12 c 0 -15 c -4 -11 c -4 -4 c -7 -4 c -12 0 c -7 4 c -8 8 c -4 11 c -4 15 c -3 8 c -8 3 c
-7 0 c -8 -3 c -4 -12 c 0 -15 c -4 0 1723 1445 l -7 3 c -4 4 c -4 8 c 0 15 c 4 7 c 4 4 c 7 4 c 8 0 c 7 -4 c 12 -7 c 38 -38 c 0 53 c
4 -11 1704 1535 l 8 -4 c 7 0 c 8 4 c 3 8 c 4 15 c 4 11 c 8 8 c 7 3 c 12 0 c 7 -3 c 4 -4 c 4 -12 c 0 -15 c -4 -11 c -4 -4 c -7 -4 c
-12 0 c -7 4 c -8 8 c -4 11 c -4 15 c -3 8 c -8 4 c -7 0 c -8 -4 c -4 -12 c 0 -15 c 4 -11 1704 1611 l 8 -4 c 7 0 c 8 4 c 3 7 c
4 15 c 4 12 c 8 7 c 7 4 c 12 0 c 7 -4 c 4 -4 c 4 -11 c 0 -15 c -4 -11 c -4 -4 c -7 -4 c -12 0 c -7 4 c -8 7 c -4 12 c -4 15 c -3 7 c
-8 4 c -7 0 c -8 -4 c -4 -11 c 0 -15 c 4 -4 1776 1675 l 4 4 c -4 4 c -4 -4 c 53 -38 1704 1743 l 0 57 c 80 0 1704 1743 l
-3 8 1719 1792 l -12 11 c 80 0 c 53 -37 1704 1894 l 0 56 c 80 0 1704 1894 l 0 -249 2279 1323 l 4 -11 2235 1414 l 8 -4 c 7 0 c 8 4 c
3 7 c 4 16 c 4 11 c 8 7 c 7 4 c 12 0 c 7 -4 c 4 -3 c 4 -12 c 0 -15 c -4 -11 c -4 -4 c -7 -4 c -12 0 c -7 4 c -8 8 c -4 11 c -4 15 c
-3 8 c -8 3 c -7 0 c -8 -3 c -4 -12 c 0 -15 c -4 0 2254 1475 l -7 3 c -4 4 c -4 8 c 0 15 c 4 7 c 4 4 c 7 4 c 8 0 c 7 -4 c 12 -7 c
38 -38 c 0 53 c 11 -4 2262 1596 l 8 -8 c 3 -11 c 0 -4 c -3 -11 c -8 -8 c -11 -4 c -4 0 c -11 4 c -8 8 c -4 11 c 0 4 c 4 11 c 8 8 c
15 4 c 19 0 c 19 -4 c 11 -8 c 4 -11 c 0 -8 c -4 -11 c -8 -4 c 0 -37 2235 1667 l 34 -4 c -4 4 c -3 11 c 0 11 c 3 12 c 8 7 c 11 4 c
8 0 c 11 -4 c 8 -7 c 4 -12 c 0 -11 c -4 -11 c -4 -4 c -7 -4 c 4 -4 2307 1705 l 4 4 c -4 4 c -4 -4 c 0 -38 2235 1781 l 34 -4 c -4 4 c
-3 11 c 0 12 c 3 11 c 8 8 c 11 3 c 8 0 c 11 -3 c 8 -8 c 4 -11 c 0 -12 c -4 -11 c -4 -4 c -7 -4 c 0 -37 2235 1856 l 34 -4 c -4 4 c
-3 11 c 0 11 c 3 12 c 8 7 c 11 4 c 8 0 c 11 -4 c 8 -7 c 4 -12 c 0 -11 c -4 -11 c -4 -4 c -7 -4 c 4 -11 2235 1909 l 11 -8 c 19 -3 c
12 0 c 19 3 c 11 8 c 4 11 c 0 8 c -4 11 c -11 8 c -19 4 c -12 0 c -19 -4 c -11 -8 c -4 -11 c 0 -8 c 0 -250 2401 1397 l
4 -11 2357 1487 l 7 -4 c 8 0 c 8 4 c 3 8 c 4 15 c 4 11 c 7 8 c 8 3 c 11 0 c 8 -3 c 4 -4 c 3 -12 c 0 -15 c -3 -11 c -4 -4 c -8 -4 c
-11 0 c -8 4 c -7 8 c -4 11 c -4 15 c -3 8 c -8 4 c -8 0 c -7 -4 c -4 -12 c 0 -15 c -4 0 2376 1548 l -7 4 c -4 3 c -4 8 c 0 15 c
4 8 c 4 3 c 7 4 c 8 0 c 7 -4 c 12 -7 c 37 -38 c 0 53 c 11 -4 2384 1669 l 7 -8 c 4 -11 c 0 -4 c -4 -11 c -7 -8 c -11 -3 c -4 0 c
-12 3 c -7 8 c -4 11 c 0 4 c 4 11 c 7 8 c 16 4 c 18 0 c 19 -4 c 12 -8 c 3 -11 c 0 -7 c -3 -12 c -8 -4 c 79 -38 2357 1748 l
0 53 2357 1695 l 4 -3 2429 1778 l 3 3 c -3 4 c -4 -4 c -4 8 2372 1820 l -11 11 c 79 0 c 79 -38 2357 1937 l 0 53 2357 1884 l
-7 -4 2368 2009 l -4 -11 c 0 -8 c 4 -11 c 11 -8 c 19 -3 c 19 0 c 15 3 c 8 8 c 3 11 c 0 4 c -3 11 c -8 8 c -11 4 c -4 0 c -11 -4 c
-8 -8 c -4 -11 c 0 -4 c 4 -11 c 8 -8 c 11 -3 c 0 -249 3491 1331 l 4 -11 3447 1422 l 8 -4 c 7 0 c 8 4 c 3 7 c 4 15 c 4 12 c 8 7 c
7 4 c 11 0 c 8 -4 c 4 -3 c 4 -12 c 0 -15 c -4 -11 c -4 -4 c -8 -4 c -11 0 c -7 4 c -8 8 c -4 11 c -4 15 c -3 8 c -8 3 c -7 0 c
-8 -3 c -4 -12 c 0 -15 c 0 42 3447 1486 l 30 -23 c 0 12 c 4 7 c 4 4 c 11 4 c 8 0 c 11 -4 c 8 -8 c 4 -11 c 0 -11 c -4 -12 c -4 -3 c
-8 -4 c -3 7 3462 1566 l -12 12 c 80 0 c -3 8 3462 1641 l -12 11 c 80 0 c 4 -4 3519 1713 l 4 4 c -4 4 c -4 -4 c -8 -4 3459 1793 l
-4 -12 c 0 -7 c 4 -11 c 11 -8 c 19 -4 c 19 0 c 15 4 c 8 8 c 4 11 c 0 4 c -4 11 c -8 8 c -11 3 c -4 0 c -11 -3 c -8 -8 c -4 -11 c
0 -4 c 4 -11 c 8 -8 c 11 -4 c 0 41 3447 1827 l 30 -23 c 0 12 c 4 7 c 4 4 c 11 4 c 8 0 c 11 -4 c 8 -7 c 4 -12 c 0 -11 c -4 -11 c
-4 -4 c -8 -4 c -3 7 3462 1906 l -12 12 c 80 0 c 0 -249 4196 3218 l 3 -11 4153 3309 l 8 -4 c 8 0 c 7 4 c 4 7 c 4 15 c 3 12 c 8 7 c
8 4 c 11 0 c 7 -4 c 4 -3 c 4 -12 c 0 -15 c -4 -11 c -4 -4 c -7 -4 c -11 0 c -8 4 c -8 8 c -3 11 c -4 15 c -4 8 c -7 3 c -8 0 c
-8 -3 c -3 -12 c 0 -15 c 0 42 4153 3373 l 30 -23 c 0 12 c 4 7 c 3 4 c 12 4 c 7 0 c 12 -4 c 7 -8 c 4 -11 c 0 -11 c -4 -12 c -4 -3 c
-7 -4 c -4 0 4172 3445 l -8 4 c -4 4 c -3 7 c 0 15 c 3 8 c 4 4 c 8 4 c 7 0 c 8 -4 c 11 -8 c 38 -38 c 0 53 c 3 -12 4153 3540 l
12 -7 c 19 -4 c 11 0 c 19 4 c 11 7 c 4 12 c 0 7 c -4 12 c -11 7 c -19 4 c -11 0 c -19 -4 c -12 -7 c -3 -12 c 0 -7 c 4 -4 4224 3600 l
4 4 c -4 4 c -4 -4 c 3 -11 4153 3649 l 8 -4 c 8 0 c 7 4 c 4 7 c 4 16 c 3 11 c 8 7 c 8 4 c 11 0 c 7 -4 c 4 -3 c 4 -12 c 0 -15 c
-4 -11 c -4 -4 c -7 -4 c -11 0 c -8 4 c -8 8 c -3 11 c -4 15 c -4 8 c -7 3 c -8 0 c -8 -3 c -3 -12 c 0 -15 c 0 -37 4153 3751 l
34 -4 c -4 4 c -4 11 c 0 11 c 4 12 c 7 7 c 12 4 c 7 0 c 12 -4 c 7 -7 c 4 -12 c 0 -11 c -4 -11 c -4 -4 c -7 -4 c 0 -38 4153 3827 l
34 -4 c -4 4 c -4 11 c 0 12 c 4 11 c 7 8 c 12 3 c 7 0 c 12 -3 c 7 -8 c 4 -11 c 0 -12 c -4 -11 c -4 -4 c -7 -3 c 0 -249 4938 6820 l
3 -11 4895 6911 l 8 -4 c 7 0 c 8 4 c 4 7 c 4 15 c 3 12 c 8 7 c 7 4 c 12 0 c 7 -4 c 4 -4 c 4 -11 c 0 -15 c -4 -11 c -4 -4 c -7 -4 c
-12 0 c -7 4 c -8 7 c -3 12 c -4 15 c -4 7 c -8 4 c -7 0 c -8 -4 c -3 -11 c 0 -15 c 0 42 4895 6975 l 30 -23 c 0 12 c 4 7 c 3 4 c
12 4 c 7 0 c 12 -4 c 7 -8 c 4 -11 c 0 -11 c -4 -12 c -4 -4 c -7 -3 c 0 41 4895 7051 l 30 -22 c 0 11 c 4 8 c 3 3 c 12 4 c 7 0 c
12 -4 c 7 -7 c 4 -11 c 0 -12 c -4 -11 c -4 -4 c -7 -4 c 3 -12 4895 7142 l 12 -7 c 19 -4 c 11 0 c 19 4 c 11 7 c 4 12 c 0 7 c -4 11 c
-11 8 c -19 4 c -11 0 c -19 -4 c -12 -8 c -3 -11 c 0 -7 c 4 -4 4966 7202 l 4 4 c -4 4 c -4 -4 c 52 -38 4895 7270 l 0 57 c
79 0 4895 7270 l 52 -38 4895 7346 l 0 57 c 79 0 4895 7346 l 11 -4 4921 7433 l 8 -8 c 4 -11 c 0 -4 c -4 -11 c -8 -8 c -11 -4 c -4 0 c
-11 4 c -8 8 c -3 11 c 0 4 c 3 11 c 8 8 c 15 4 c 19 0 c 19 -4 c 11 -8 c 4 -11 c 0 -8 c -4 -11 c -7 -4 c 0 -250 5348 1286 l
3 -12 5305 1377 l 8 -4 c 7 0 c 8 4 c 4 8 c 4 15 c 3 11 c 8 8 c 7 4 c 12 0 c 7 -4 c 4 -4 c 4 -11 c 0 -15 c -4 -12 c -4 -4 c -7 -3 c
-12 0 c -7 3 c -8 8 c -3 11 c -4 15 c -4 8 c -8 4 c -7 0 c -8 -4 c -3 -11 c 0 -15 c 0 41 5305 1441 l 30 -22 c 0 11 c 4 8 c 3 3 c
12 4 c 7 0 c 12 -4 c 7 -7 c 4 -12 c 0 -11 c -4 -11 c -4 -4 c -7 -4 c 0 42 5305 1516 l 30 -23 c 0 12 c 4 7 c 3 4 c 12 4 c 7 0 c
12 -4 c 7 -8 c 4 -11 c 0 -11 c -4 -12 c -4 -3 c -7 -4 c 0 -38 5305 1630 l 34 -4 c -4 4 c -4 11 c 0 12 c 4 11 c 7 8 c 12 3 c 7 0 c
12 -3 c 7 -8 c 4 -11 c 0 -12 c -4 -11 c -4 -4 c -7 -4 c 4 -4 5376 1668 l 4 4 c -4 3 c -4 -3 c 79 -38 5305 1751 l 0 53 5305 1698 l
3 -11 5305 1796 l 12 -8 c 19 -4 c 11 0 c 19 4 c 11 8 c 4 11 c 0 8 c -4 11 c -11 8 c -19 3 c -11 0 c -19 -3 c -12 -8 c -3 -11 c
0 -8 c 79 -38 5305 1902 l 0 53 5305 1849 l 0 -250 5802 1273 l 4 -12 5758 1364 l 8 -3 c 7 0 c 8 3 c 4 8 c 3 15 c 4 11 c 8 8 c 7 4 c
12 0 c 7 -4 c 4 -4 c 4 -11 c 0 -15 c -4 -12 c -4 -3 c -7 -4 c -12 0 c -7 4 c -8 7 c -4 11 c -3 16 c -4 7 c -8 4 c -7 0 c -8 -4 c
-4 -11 c 0 -15 c 0 42 5758 1428 l 31 -23 c 0 11 c 3 8 c 4 4 c 11 3 c 8 0 c 11 -3 c 8 -8 c 4 -11 c 0 -12 c -4 -11 c -4 -4 c -7 -4 c
53 -38 5758 1534 l 0 57 c 80 0 5758 1534 l -3 7 5773 1583 l -12 12 c 80 0 c 4 -4 5830 1655 l 4 4 c -4 4 c -4 -4 c 53 -38 5758 1723 l
0 57 c 80 0 5758 1723 l 80 -37 5758 1813 l 0 52 5758 1761 l 80 -38 5758 1889 l 0 53 5758 1836 l 0 -250 6964 1280 l 4 -12 6921 1371 l
7 -3 c 8 0 c 7 3 c 4 8 c 4 15 c 4 11 c 7 8 c 8 4 c 11 0 c 8 -4 c 3 -4 c 4 -11 c 0 -15 c -4 -12 c -3 -3 c -8 -4 c -11 0 c -8 4 c
-7 7 c -4 12 c -4 15 c -4 7 c -7 4 c -8 0 c -7 -4 c -4 -11 c 0 -15 c 0 42 6921 1435 l 30 -23 c 0 11 c 4 8 c 4 4 c 11 3 c 7 0 c
12 -3 c 7 -8 c 4 -11 c 0 -12 c -4 -11 c -3 -4 c -8 -4 c 0 -37 6921 1548 l 34 -4 c -4 4 c -4 11 c 0 11 c 4 12 c 8 7 c 11 4 c 7 0 c
12 -4 c 7 -7 c 4 -12 c 0 -11 c -4 -11 c -3 -4 c -8 -4 c -7 -4 6932 1628 l -4 -11 c 0 -8 c 4 -11 c 11 -8 c 19 -4 c 19 0 c 15 4 c
7 8 c 4 11 c 0 4 c -4 11 c -7 8 c -12 4 c -3 0 c -12 -4 c -7 -8 c -4 -11 c 0 -4 c 4 -11 c 7 -8 c 12 -4 c 3 -4 6993 1662 l 4 4 c
-4 4 c -3 -4 c 4 -12 6921 1715 l 11 -7 c 19 -4 c 11 0 c 19 4 c 11 7 c 4 12 c 0 7 c -4 12 c -11 7 c -19 4 c -11 0 c -19 -4 c -11 -7 c
-4 -12 c 0 -7 c -7 -4 6932 1817 l -4 -11 c 0 -8 c 4 -11 c 11 -8 c 19 -4 c 19 0 c 15 4 c 7 8 c 4 11 c 0 4 c -4 11 c -7 8 c -12 3 c
-3 0 c -12 -3 c -7 -8 c -4 -11 c 0 -4 c 4 -11 c 7 -8 c 12 -4 c 0 41 6921 1851 l 30 -22 c 0 11 c 4 8 c 4 3 c 11 4 c 7 0 c 12 -4 c
7 -7 c 4 -12 c 0 -11 c -4 -11 c -3 -4 c -8 -4 c 0 -250 7179 1534 l 3 -12 7136 1625 l 8 -4 c 8 0 c 7 4 c 4 8 c 4 15 c 3 11 c 8 8 c
8 4 c 11 0 c 7 -4 c 4 -4 c 4 -11 c 0 -15 c -4 -12 c -4 -4 c -7 -3 c -11 0 c -8 3 c -8 8 c -3 11 c -4 15 c -4 8 c -7 4 c -8 0 c
-8 -4 c -3 -11 c 0 -15 c 0 41 7136 1689 l 30 -22 c 0 11 c 4 8 c 3 3 c 12 4 c 7 0 c 12 -4 c 7 -7 c 4 -12 c 0 -11 c -4 -11 c -4 -4 c
-7 -4 c 0 -38 7136 1802 l 34 -3 c -4 3 c -4 12 c 0 11 c 4 11 c 7 8 c 12 4 c 7 0 c 12 -4 c 7 -8 c 4 -11 c 0 -11 c -4 -12 c -4 -3 c
-7 -4 c 3 -11 7136 1851 l 8 -4 c 8 0 c 7 4 c 4 8 c 4 15 c 3 11 c 8 8 c 8 3 c 11 0 c 7 -3 c 4 -4 c 4 -12 c 0 -15 c -4 -11 c -4 -4 c
-7 -4 c -11 0 c -8 4 c -8 8 c -3 11 c -4 15 c -4 8 c -7 4 c -8 0 c -8 -4 c -3 -12 c 0 -15 c 4 -4 7207 1916 l 4 4 c -4 3 c -4 -3 c
79 -38 7136 1999 l 0 53 7136 1946 l -4 0 7155 2025 l -8 4 c -4 4 c -3 7 c 0 15 c 3 8 c 4 4 c 8 4 c 7 0 c 8 -4 c 11 -8 c 38 -38 c
0 53 c -8 -4 7147 2146 l -3 -11 c 0 -8 c 3 -11 c 12 -7 c 19 -4 c 19 0 c 15 4 c 7 7 c 4 11 c 0 4 c -4 12 c -7 7 c -12 4 c -3 0 c
-12 -4 c -7 -7 c -4 -12 c 0 -4 c 4 -11 c 7 -7 c 12 -4 c 0 -250 7776 1353 l 4 -12 7733 1444 l 7 -4 c 8 0 c 7 4 c 4 8 c 4 15 c 4 11 c
7 8 c 8 4 c 11 0 c 8 -4 c 3 -4 c 4 -11 c 0 -15 c -4 -12 c -3 -4 c -8 -3 c -11 0 c -8 3 c -7 8 c -4 11 c -4 15 c -4 8 c -7 4 c -8 0 c
-7 -4 c -4 -11 c 0 -15 c 0 41 7733 1508 l 30 -22 c 0 11 c 4 8 c 4 3 c 11 4 c 7 0 c 12 -4 c 7 -7 c 4 -12 c 0 -11 c -4 -11 c -3 -4 c
-8 -4 c -7 -4 7744 1625 l -4 -11 c 0 -8 c 4 -11 c 11 -8 c 19 -3 c 19 0 c 15 3 c 7 8 c 4 11 c 0 4 c -4 11 c -7 8 c -12 4 c -3 0 c
-12 -4 c -7 -8 c -4 -11 c 0 -4 c 4 -11 c 7 -8 c 12 -3 c -7 -4 7744 1701 l -4 -12 c 0 -7 c 4 -11 c 11 -8 c 19 -4 c 19 0 c 15 4 c
7 8 c 4 11 c 0 4 c -4 11 c -7 8 c -12 3 c -3 0 c -12 -3 c -7 -8 c -4 -11 c 0 -4 c 4 -11 c 7 -8 c 12 -4 c 3 -4 7805 1735 l 4 4 c
-4 3 c -3 -3 c 4 -11 7733 1787 l 11 -7 c 19 -4 c 11 0 c 19 4 c 11 7 c 4 11 c 0 8 c -4 11 c -11 8 c -19 4 c -11 0 c -19 -4 c -11 -8 c
-4 -11 c 0 -8 c 79 -38 7733 1893 l 0 53 7733 1840 l 53 -38 7733 1954 l 0 57 c 79 0 7733 1954 l 0 -249 7884 1333 l 3 -12 7841 1424 l
8 -3 c 8 0 c 7 3 c 4 8 c 4 15 c 3 11 c 8 8 c 8 4 c 11 0 c 7 -4 c 4 -4 c 4 -11 c 0 -15 c -4 -12 c -4 -3 c -7 -4 c -11 0 c -8 4 c
-8 7 c -3 12 c -4 15 c -4 7 c -7 4 c -8 0 c -8 -4 c -3 -11 c 0 -15 c 0 42 7841 1488 l 30 -23 c 0 11 c 4 8 c 3 4 c 12 3 c 7 0 c
12 -3 c 7 -8 c 4 -11 c 0 -12 c -4 -11 c -4 -4 c -7 -4 c -8 -4 7852 1605 l -3 -11 c 0 -7 c 3 -12 c 12 -7 c 19 -4 c 19 0 c 15 4 c
7 7 c 4 12 c 0 3 c -4 12 c -7 7 c -12 4 c -3 0 c -12 -4 c -7 -7 c -4 -12 c 0 -3 c 4 -12 c 7 -7 c 12 -4 c 79 -38 7841 1685 l
0 53 7841 1632 l 4 -4 7912 1715 l 4 4 c -4 4 c -4 -4 c 0 41 7841 1753 l 30 -22 c 0 11 c 4 7 c 3 4 c 12 4 c 7 0 c 12 -4 c 7 -7 c
4 -12 c 0 -11 c -4 -11 c -4 -4 c -7 -4 c 11 -4 7867 1870 l 8 -8 c 4 -11 c 0 -4 c -4 -11 c -8 -8 c -11 -3 c -4 0 c -11 3 c -8 8 c
-3 11 c 0 4 c 3 11 c 8 8 c 15 4 c 19 0 c 19 -4 c 11 -8 c 4 -11 c 0 -7 c -4 -12 c -7 -4 c 53 -38 7841 1934 l 0 57 c 79 0 7841 1934 l
0 -249 8044 1356 l 4 -11 8000 1447 l 8 -4 c 7 0 c 8 4 c 4 7 c 3 16 c 4 11 c 8 7 c 7 4 c 12 0 c 7 -4 c 4 -3 c 4 -12 c 0 -15 c
-4 -11 c -4 -4 c -7 -4 c -12 0 c -7 4 c -8 8 c -4 11 c -3 15 c -4 8 c -8 3 c -7 0 c -8 -3 c -4 -12 c 0 -15 c 0 42 8000 1511 l
31 -23 c 0 12 c 3 7 c 4 4 c 11 4 c 8 0 c 11 -4 c 8 -8 c 4 -11 c 0 -11 c -4 -12 c -4 -3 c -7 -4 c -8 -4 8012 1629 l -4 -11 c 0 -8 c
4 -11 c 11 -8 c 19 -4 c 19 0 c 15 4 c 8 8 c 4 11 c 0 4 c -4 11 c -8 8 c -11 3 c -4 0 c -11 -3 c -8 -8 c -3 -11 c 0 -4 c 3 -11 c
8 -8 c 11 -4 c 11 -4 8027 1704 l 8 -7 c 3 -11 c 0 -4 c -3 -12 c -8 -7 c -11 -4 c -4 0 c -11 4 c -8 7 c -4 12 c 0 4 c 4 11 c 8 7 c
15 4 c 19 0 c 19 -4 c 11 -7 c 4 -11 c 0 -8 c -4 -11 c -8 -4 c 4 -4 8072 1738 l 4 4 c -4 4 c -4 -4 c 0 42 8000 1776 l 31 -23 c 0 11 c
3 8 c 4 4 c 11 3 c 8 0 c 11 -3 c 8 -8 c 4 -11 c 0 -12 c -4 -11 c -4 -4 c -7 -4 c 53 -38 8000 1882 l 0 57 c 80 0 8000 1882 l
4 -11 8000 1942 l 11 -8 c 19 -3 c 12 0 c 19 3 c 11 8 c 4 11 c 0 8 c -4 11 c -11 8 c -19 4 c -12 0 c -19 -4 c -11 -8 c -4 -11 c
0 -8 c 0 -250 8862 1324 l 3 -12 8819 1415 l 8 -4 c 8 0 c 7 4 c 4 8 c 4 15 c 3 11 c 8 8 c 8 4 c 11 0 c 8 -4 c 3 -4 c 4 -11 c 0 -15 c
-4 -12 c -3 -4 c -8 -3 c -11 0 c -8 3 c -8 8 c -3 11 c -4 15 c -4 8 c -7 4 c -8 0 c -8 -4 c -3 -11 c 0 -15 c 0 41 8819 1479 l
30 -22 c 0 11 c 4 8 c 3 3 c 12 4 c 7 0 c 12 -4 c 7 -7 c 4 -12 c 0 -11 c -4 -11 c -3 -4 c -8 -4 c 79 -38 8819 1600 l 0 53 8819 1547 l
11 -4 8845 1672 l 8 -8 c 4 -11 c 0 -4 c -4 -11 c -8 -8 c -11 -4 c -4 0 c -11 4 c -8 8 c -3 11 c 0 4 c 3 11 c 8 8 c 15 4 c 19 0 c
19 -4 c 11 -8 c 4 -11 c 0 -8 c -4 -11 c -7 -4 c 3 -4 8891 1706 l 4 4 c -4 3 c -3 -3 c -4 0 8838 1740 l -8 3 c -4 4 c -3 8 c 0 15 c
3 7 c 4 4 c 8 4 c 7 0 c 8 -4 c 11 -7 c 38 -38 c 0 53 c -4 0 8838 1815 l -8 4 c -4 4 c -3 7 c 0 15 c 3 8 c 4 4 c 8 4 c 7 0 c 8 -4 c
11 -8 c 38 -38 c 0 53 c -8 -4 8830 1936 l -3 -11 c 0 -8 c 3 -11 c 12 -7 c 19 -4 c 19 0 c 15 4 c 7 7 c 4 11 c 0 4 c -4 12 c -7 7 c
-12 4 c -3 0 c -12 -4 c -7 -7 c -4 -12 c 0 -4 c 4 -11 c 7 -7 c 12 -4 c 0 -249 9323 1561 l 4 -11 9280 1652 l 7 -4 c 8 0 c 7 4 c 4 7 c
4 15 c 4 12 c 7 7 c 8 4 c 11 0 c 8 -4 c 3 -4 c 4 -11 c 0 -15 c -4 -11 c -3 -4 c -8 -4 c -11 0 c -8 4 c -7 7 c -4 12 c -4 15 c -4 7 c
-7 4 c -8 0 c -7 -4 c -4 -11 c 0 -15 c 0 42 9280 1716 l 30 -23 c 0 11 c 4 8 c 4 4 c 11 3 c 8 0 c 11 -3 c 7 -8 c 4 -11 c 0 -12 c
-4 -11 c -3 -4 c -8 -3 c 4 -11 9280 1803 l 7 -4 c 8 0 c 7 4 c 4 7 c 4 15 c 4 12 c 7 7 c 8 4 c 11 0 c 8 -4 c 3 -3 c 4 -12 c 0 -15 c
-4 -11 c -3 -4 c -8 -4 c -11 0 c -8 4 c -7 7 c -4 12 c -4 15 c -4 8 c -7 3 c -8 0 c -7 -3 c -4 -12 c 0 -15 c 53 -38 9280 1898 l
0 56 c 79 0 9280 1898 l 3 -4 9352 1943 l 4 4 c -4 4 c -3 -4 c 79 -38 9280 2026 l 0 53 9280 1973 l -4 0 9299 2053 l -8 3 c -3 4 c
-4 8 c 0 15 c 4 7 c 3 4 c 8 4 c 8 0 c 7 -4 c 11 -7 c 38 -38 c 0 53 c 53 -38 9280 2162 l 0 57 c 79 0 9280 2162 l 0 -249 9408 1283 l
4 -11 9364 1374 l 8 -4 c 7 0 c 8 4 c 3 7 c 4 15 c 4 12 c 8 7 c 7 4 c 11 0 c 8 -4 c 4 -4 c 4 -11 c 0 -15 c -4 -11 c -4 -4 c -8 -4 c
-11 0 c -7 4 c -8 7 c -4 12 c -4 15 c -3 7 c -8 4 c -7 0 c -8 -4 c -4 -11 c 0 -15 c 0 42 9364 1438 l 30 -23 c 0 11 c 4 8 c 4 4 c
11 4 c 8 0 c 11 -4 c 8 -8 c 4 -11 c 0 -11 c -4 -12 c -4 -4 c -8 -3 c 4 -11 9364 1525 l 8 -4 c 7 0 c 8 4 c 3 7 c 4 16 c 4 11 c 8 7 c
7 4 c 11 0 c 8 -4 c 4 -3 c 4 -12 c 0 -15 c -4 -11 c -4 -4 c -8 -4 c -11 0 c -7 4 c -8 8 c -4 11 c -4 15 c -3 8 c -8 3 c -7 0 c
-8 -3 c -4 -12 c 0 -15 c 0 -38 9364 1627 l 34 -3 c -4 3 c -3 12 c 0 11 c 3 11 c 8 8 c 11 4 c 8 0 c 11 -4 c 8 -8 c 4 -11 c 0 -11 c
-4 -12 c -4 -3 c -8 -4 c 4 -4 9436 1665 l 4 4 c -4 4 c -4 -4 c 80 -38 9364 1748 l 0 53 9364 1695 l -4 0 9383 1775 l -7 3 c -4 4 c
-4 8 c 0 15 c 4 7 c 4 4 c 7 4 c 8 0 c 7 -4 c 12 -7 c 38 -38 c 0 53 c 4 -11 9364 1865 l 8 -4 c 7 0 c 8 4 c 3 8 c 4 15 c 4 11 c 8 8 c
7 3 c 11 0 c 8 -3 c 4 -4 c 4 -12 c 0 -15 c -4 -11 c -4 -4 c -8 -4 c -11 0 c -7 4 c -8 8 c -4 11 c -4 15 c -3 8 c -8 4 c -7 0 c
-8 -4 c -4 -12 c 0 -15 c 0 -249 9525 1483 l 4 -11 9481 1574 l 7 -4 c 8 0 c 8 4 c 3 7 c 4 15 c 4 12 c 7 7 c 8 4 c 11 0 c 8 -4 c
4 -4 c 3 -11 c 0 -15 c -3 -11 c -4 -4 c -8 -4 c -11 0 c -8 4 c -7 7 c -4 12 c -4 15 c -3 7 c -8 4 c -8 0 c -7 -4 c -4 -11 c 0 -15 c
0 42 9481 1638 l 30 -23 c 0 11 c 4 8 c 4 4 c 11 4 c 8 0 c 11 -4 c 8 -8 c 3 -11 c 0 -11 c -3 -12 c -4 -4 c -8 -3 c 4 -11 9481 1725 l
7 -4 c 8 0 c 8 4 c 3 7 c 4 15 c 4 12 c 7 7 c 8 4 c 11 0 c 8 -4 c 4 -3 c 3 -12 c 0 -15 c -3 -11 c -4 -4 c -8 -4 c -11 0 c -8 4 c
-7 8 c -4 11 c -4 15 c -3 8 c -8 3 c -8 0 c -7 -3 c -4 -12 c 0 -15 c 79 -38 9481 1835 l 0 53 9481 1782 l 4 -4 9553 1865 l 3 4 c
-3 4 c -4 -4 c -4 7 9496 1907 l -11 11 c 79 0 c 4 -11 9481 1993 l 11 -7 c 19 -4 c 11 0 c 19 4 c 12 7 c 3 11 c 0 8 c -3 11 c -12 8 c
-19 4 c -11 0 c -19 -4 c -11 -8 c -4 -11 c 0 -8 c 0 -38 9481 2092 l 34 -4 c -4 4 c -3 11 c 0 12 c 3 11 c 8 7 c 11 4 c 8 0 c 11 -4 c
8 -7 c 3 -11 c 0 -12 c -3 -11 c -4 -4 c -8 -4 c 0 -249 9645 1350 l 4 -12 9601 1441 l 8 -3 c 7 0 c 8 3 c 4 8 c 3 15 c 4 11 c 8 8 c
7 4 c 12 0 c 7 -4 c 4 -4 c 4 -11 c 0 -15 c -4 -12 c -4 -3 c -7 -4 c -12 0 c -7 4 c -8 7 c -4 12 c -3 15 c -4 7 c -8 4 c -7 0 c
-8 -4 c -4 -11 c 0 -15 c 0 42 9601 1505 l 31 -23 c 0 11 c 3 8 c 4 4 c 12 3 c 7 0 c 11 -3 c 8 -8 c 4 -11 c 0 -12 c -4 -11 c -4 -4 c
-7 -4 c 4 -11 9601 1592 l 8 -4 c 7 0 c 8 4 c 4 7 c 3 15 c 4 12 c 8 7 c 7 4 c 12 0 c 7 -4 c 4 -4 c 4 -11 c 0 -15 c -4 -11 c -4 -4 c
-7 -4 c -12 0 c -7 4 c -8 7 c -4 12 c -3 15 c -4 7 c -8 4 c -7 0 c -8 -4 c -4 -11 c 0 -15 c 4 -12 9601 1668 l 8 -4 c 7 0 c 8 4 c
4 8 c 3 15 c 4 11 c 8 8 c 7 4 c 12 0 c 7 -4 c 4 -4 c 4 -11 c 0 -15 c -4 -12 c -4 -4 c -7 -3 c -12 0 c -7 3 c -8 8 c -4 11 c -3 15 c
-4 8 c -8 4 c -7 0 c -8 -4 c -4 -11 c 0 -15 c 4 -4 9673 1732 l 4 4 c -4 4 c -4 -4 c 0 -37 9601 1807 l 34 -4 c -3 4 c -4 11 c 0 11 c
4 12 c 7 7 c 12 4 c 7 0 c 11 -4 c 8 -7 c 4 -12 c 0 -11 c -4 -11 c -4 -4 c -7 -4 c 0 42 9601 1845 l 31 -23 c 0 11 c 3 8 c 4 4 c
12 4 c 7 0 c 11 -4 c 8 -8 c 4 -11 c 0 -11 c -4 -12 c -4 -4 c -7 -3 c -8 -3 9613 1962 l -4 -12 c 0 -7 c 4 -12 c 12 -7 c 18 -4 c
19 0 c 15 4 c 8 7 c 4 12 c 0 3 c -4 12 c -8 7 c -11 4 c -4 0 c -11 -4 c -8 -7 c -3 -12 c 0 -3 c 3 -12 c 8 -7 c 11 -4 c
showpage PGPLOT restore
 
%%Trailer
%%DocumentFonts: 
%%Pages: 1
%%EOF
