%!PS-Adobe-3.0 EPSF-3.0
%%For: tab
%%Title: PGPLOT PostScript plot
%%Creator: PGPLOT
%%CreationDate: 20-Apr-1995 17:04
%%BoundingBox: 25 18 587 774
%%DocumentFonts: (atend)
%%LanguageLevel: 1
%%Orientation: Landscape
%%Pages: (atend)
%%EndComments
%%BeginProlog
/l {moveto rlineto currentpoint stroke moveto} bind def
/c {rlineto currentpoint stroke moveto} bind def
/d {moveto 0 0 rlineto currentpoint stroke moveto} bind def
/SLW {5 mul setlinewidth} bind def
/SCF /pop load def
/BP {newpath moveto} bind def
/LP /rlineto load def
/EP {rlineto closepath eofill} bind def
/MB {gsave translate MFAC dup scale 1 setlinewidth 2 setlinecap 0 setlinejoin newpath} bind def
/ME /grestore load def
/C {0 360 arc stroke} bind def
/FC {0 360 arc fill} bind def
%%EndProlog
 
%%Page: 1 1
%%BeginPageSetup
/PGPLOT save def
0.072 0.072 scale
8150 250 translate 90 rotate
1 setlinejoin 1 setlinecap 1 SLW 1 SCF
%%EndPageSetup
0.000 setgray 1 SLW 8939 0 780 780 l 0 6239 c -8939 0 c 0 -6239 c 0 -45 1116 780 l 0 -45 1554 780 l 0 -45 1991 780 l
0 -45 2428 780 l 0 -90 2865 780 l 0 -45 3302 780 l 0 -45 3739 780 l 0 -45 4176 780 l 0 -45 4613 780 l 0 -90 5051 780 l
0 -45 5488 780 l 0 -45 5925 780 l 0 -45 6362 780 l 0 -45 6799 780 l 0 -90 7236 780 l 0 -45 7673 780 l 0 -45 8110 780 l
0 -45 8548 780 l 0 -45 8985 780 l 0 -90 9422 780 l 0 -45 1116 7064 l 0 -45 1554 7064 l 0 -45 1991 7064 l 0 -45 2428 7064 l
0 -90 2865 7109 l 0 -45 3302 7064 l 0 -45 3739 7064 l 0 -45 4176 7064 l 0 -45 4613 7064 l 0 -90 5051 7109 l 0 -45 5488 7064 l
0 -45 5925 7064 l 0 -45 6362 7064 l 0 -45 6799 7064 l 0 -90 7236 7109 l 0 -45 7673 7064 l 0 -45 8110 7064 l 0 -45 8548 7064 l
0 -45 8985 7064 l 0 -90 9422 7109 l -60 0 2775 672 l -6 -54 c 6 6 c 18 6 c 18 0 c 18 -6 c 12 -12 c 6 -18 c 0 -12 c -6 -18 c
-12 -12 c -18 -6 c -18 0 c -18 6 c -6 6 c -6 12 c -18 -6 2859 672 l -12 -18 c -6 -30 c 0 -18 c 6 -30 c 12 -18 c 18 -6 c 12 0 c
18 6 c 12 18 c 6 30 c 0 18 c -6 30 c -12 18 c -18 6 c -12 0 c -18 -6 2979 672 l -12 -18 c -6 -30 c 0 -18 c 6 -30 c 12 -18 c 18 -6 c
12 0 c 18 6 c 12 18 c 6 30 c 0 18 c -6 30 c -12 18 c -18 6 c -12 0 c 12 6 4847 648 l 18 18 c 0 -126 c -18 -6 4985 672 l -12 -18 c
-6 -30 c 0 -18 c 6 -30 c 12 -18 c 18 -6 c 12 0 c 18 6 c 12 18 c 6 30 c 0 18 c -6 30 c -12 18 c -18 6 c -12 0 c -18 -6 5105 672 l
-12 -18 c -6 -30 c 0 -18 c 6 -30 c 12 -18 c 18 -6 c 12 0 c 18 6 c 12 18 c 6 30 c 0 18 c -6 30 c -12 18 c -18 6 c -12 0 c
-18 -6 5225 672 l -12 -18 c -6 -30 c 0 -18 c 6 -30 c 12 -18 c 18 -6 c 12 0 c 18 6 c 12 18 c 6 30 c 0 18 c -6 30 c -12 18 c -18 6 c
-12 0 c 12 6 7032 648 l 18 18 c 0 -126 c -60 0 7206 672 l -6 -54 c 6 6 c 18 6 c 18 0 c 18 -6 c 12 -12 c 6 -18 c 0 -12 c -6 -18 c
-12 -12 c -18 -6 c -18 0 c -18 6 c -6 6 c -6 12 c -18 -6 7290 672 l -12 -18 c -6 -30 c 0 -18 c 6 -30 c 12 -18 c 18 -6 c 12 0 c
18 6 c 12 18 c 6 30 c 0 18 c -6 30 c -12 18 c -18 6 c -12 0 c -18 -6 7410 672 l -12 -18 c -6 -30 c 0 -18 c 6 -30 c 12 -18 c 18 -6 c
12 0 c 18 6 c 12 18 c 6 30 c 0 18 c -6 30 c -12 18 c -18 6 c -12 0 c 0 6 9206 642 l 6 12 c 6 6 c 12 6 c 24 0 c 12 -6 c 6 -6 c
6 -12 c 0 -12 c -6 -12 c -12 -18 c -60 -60 c 84 0 c -18 -6 9356 672 l -12 -18 c -6 -30 c 0 -18 c 6 -30 c 12 -18 c 18 -6 c 12 0 c
18 6 c 12 18 c 6 30 c 0 18 c -6 30 c -12 18 c -18 6 c -12 0 c -18 -6 9476 672 l -12 -18 c -6 -30 c 0 -18 c 6 -30 c 12 -18 c 18 -6 c
12 0 c 18 6 c 12 18 c 6 30 c 0 18 c -6 30 c -12 18 c -18 6 c -12 0 c -18 -6 9596 672 l -12 -18 c -6 -30 c 0 -18 c 6 -30 c 12 -18 c
18 -6 c 12 0 c 18 6 c 12 18 c 6 30 c 0 18 c -6 30 c -12 18 c -18 6 c -12 0 c -90 0 780 785 l -45 0 780 1075 l -45 0 780 1366 l
-45 0 780 1656 l -45 0 780 1947 l -90 0 780 2238 l -45 0 780 2528 l -45 0 780 2819 l -45 0 780 3109 l -45 0 780 3400 l
-90 0 780 3690 l -45 0 780 3981 l -45 0 780 4271 l -45 0 780 4562 l -45 0 780 4852 l -90 0 780 5143 l -45 0 780 5433 l
-45 0 780 5724 l -45 0 780 6014 l -45 0 780 6305 l -90 0 780 6595 l -45 0 780 6886 l -90 0 9809 785 l -45 0 9764 1075 l
-45 0 9764 1366 l -45 0 9764 1656 l -45 0 9764 1947 l -90 0 9809 2238 l -45 0 9764 2528 l -45 0 9764 2819 l -45 0 9764 3109 l
-45 0 9764 3400 l -90 0 9809 3690 l -45 0 9764 3981 l -45 0 9764 4271 l -45 0 9764 4562 l -45 0 9764 4852 l -90 0 9809 5143 l
-45 0 9764 5433 l -45 0 9764 5724 l -45 0 9764 6014 l -45 0 9764 6305 l -90 0 9809 6595 l -45 0 9764 6886 l 6 -18 517 779 l 18 -12 c
30 -6 c 18 0 c 30 6 c 18 12 c 6 18 c 0 12 c -6 18 c -18 12 c -30 6 c -18 0 c -30 -6 c -18 -12 c -6 -18 c 0 -12 c -6 12 541 2118 l
-18 18 c 126 0 c 6 -18 517 2256 l 18 -12 c 30 -6 c 18 0 c 30 6 c 18 12 c 6 18 c 0 12 c -6 18 c -18 12 c -30 6 c -18 0 c -30 -6 c
-18 -12 c -6 -18 c 0 -12 c 63 -45 453 2380 l 0 68 c 94 0 453 2380 l -6 0 547 3432 l -12 6 c -6 6 c -6 12 c 0 24 c 6 12 c 6 6 c
12 6 c 12 0 c 12 -6 c 18 -12 c 60 -60 c 0 84 c 84 84 547 3552 l 84 -84 547 3636 l -6 12 541 3696 l -18 18 c 126 0 c 6 -18 517 3834 l
18 -12 c 30 -6 c 18 0 c 30 6 c 18 12 c 6 18 c 0 12 c -6 18 c -18 12 c -30 6 c -18 0 c -30 -6 c -18 -12 c -6 -18 c 0 -12 c
63 -45 453 3959 l 0 67 c 94 0 453 3959 l 0 66 517 4891 l 48 -36 c 0 18 c 6 12 c 6 6 c 18 6 c 12 0 c 18 -6 c 12 -12 c 6 -18 c 0 -18 c
-6 -18 c -6 -6 c -12 -6 c 84 84 547 5005 l 84 -84 547 5089 l -6 12 541 5149 l -18 18 c 126 0 c 6 -18 517 5287 l 18 -12 c 30 -6 c
18 0 c 30 6 c 18 12 c 6 18 c 0 12 c -6 18 c -18 12 c -30 6 c -18 0 c -30 -6 c -18 -12 c -6 -18 c 0 -12 c 63 -45 453 5411 l 0 68 c
94 0 453 5411 l 84 -60 517 6391 l 0 90 c 126 0 517 6391 l 84 84 547 6457 l 84 -84 547 6541 l -6 12 541 6601 l -18 18 c 126 0 c
6 -18 517 6739 l 18 -12 c 30 -6 c 18 0 c 30 6 c 18 12 c 6 18 c 0 12 c -6 18 c -18 12 c -30 6 c -18 0 c -30 -6 c -18 -12 c -6 -18 c
0 -12 c 63 -45 453 6864 l 0 67 c 94 0 453 6864 l
4 -1 780 815 l 5 0 c 4 0 c 4 -1 c 5 0 c 4 0 c 4 0 c 5 0 c 4 0 c 5 0 c 4 2 c 4 -1 c 5 0 c 4 0 c 4 -1 c 5 1 c 4 0 c 5 0 c 4 0 c 4 0 c
5 0 c 4 -1 c 4 0 c 5 0 c 4 0 c 5 0 c 4 0 c 4 1 c 5 0 c 4 -1 c 4 1 c 5 -1 c 4 1 c 5 0 c 4 0 c 4 0 c 5 0 c 4 0 c 4 0 c 5 0 c 4 0 c
4 0 c 5 0 c 4 1 c 5 4 c 4 21 c 4 30 c 5 10 c 4 -23 c 4 -29 c 5 -12 c 4 -2 c 5 1 c 4 1 c 4 5 c 5 3 c 4 -3 c 4 -4 c 5 -3 c 4 0 c
5 -1 c 4 0 c 4 0 c 5 0 c 4 0 c 4 0 c 5 0 c 4 0 c 5 0 c 4 1 c 4 -1 c 5 0 c 4 0 c 4 1 c 5 -1 c 4 1 c 4 0 c 5 0 c 4 0 c 5 0 c 4 0 c
4 0 c 5 -1 c 4 -28 c 4 0 c 5 29 c 4 1 c 5 -1 c 4 1 c 4 -1 c 5 -1 c 4 0 c 4 0 c 5 0 c 4 0 c 5 0 c 4 0 c 4 0 c 5 0 c 4 0 c 4 0 c 5 0 c
4 -1 c 5 0 c 4 1 c 4 2 c 5 2 c 4 1 c 4 -3 c 5 -3 c 4 0 c 4 1 c 5 -1 c 4 0 c 5 0 c 4 0 c 4 0 c 5 0 c 4 0 c 4 0 c 5 0 c 4 1 c 5 0 c
4 1 c 4 0 c 5 1 c 4 0 c 4 1 c 5 6 c 4 19 c 5 104 c 4 167 c 4 76 c 5 -109 c 4 -165 c 4 -80 c 5 -14 c 4 -3 c 5 -2 c 4 0 c 4 0 c 5 -1 c
4 1 c 4 -1 c 5 1 c 4 3 c 4 19 c 5 14 c 4 0 c 5 -19 c 4 -13 c 4 -3 c 5 -2 c 4 -1 c 4 1 c 5 0 c 4 1 c 5 -1 c 4 0 c 4 0 c 5 0 c 4 2 c
4 0 c 5 2 c 4 0 c 5 4 c 4 14 c 4 82 c 5 130 c 4 51 c 4 -32 c 3 5952 c 0 -882 1540 7019 l 5 -5266 c 4 -49 c 5 -2 c 4 0 c 4 0 c 5 1 c
4 0 c 4 -1 c 5 -2 c 4 0 c 5 0 c 4 1 c 4 -1 c 5 0 c 4 4 c 4 20 c 5 54 c 4 24 c 5 -22 c 4 -52 c 4 -24 c 5 -4 c 4 -1 c 4 2 c 5 1 c
4 1 c 5 -3 c 4 -2 c 4 1 c 5 -1 c 4 0 c 4 0 c 5 -1 c 4 1 c 4 0 c 5 0 c 4 1 c 5 0 c 4 0 c 4 0 c 5 0 c 4 0 c 4 0 c 5 -1 c 4 1 c 5 0 c
4 0 c 4 0 c 5 -1 c 4 1 c 4 0 c 5 -1 c 4 1 c 5 1 c 4 0 c 4 0 c 5 0 c 4 -1 c 4 0 c 5 1 c 4 -1 c 5 -1 c 4 1 c 4 0 c 5 0 c 4 0 c 4 1 c
5 1 c 4 0 c 4 1 c 5 4 c 4 5 c 5 11 c 4 30 c 4 53 c 5 40 c 4 -10 c 4 -52 c 5 -35 c 4 -13 c 5 -6 c 4 -9 c 4 -7 c 5 1 c 4 0 c 4 -2 c
5 -2 c 4 -4 c 5 1 c 4 -1 c 4 0 c 5 -1 c 4 0 c 4 0 c 5 1 c 4 -1 c 5 0 c 4 -1 c 4 1 c 5 1 c 4 0 c 4 1 c 5 -1 c 4 -2 c 4 0 c 5 0 c
4 0 c 5 -1 c 4 1 c 4 0 c 5 -1 c 4 1 c 4 1 c 5 0 c 4 -1 c 5 0 c 4 -1 c 4 0 c 5 0 c 4 0 c 4 0 c 5 0 c 4 1 c 5 0 c 4 1 c 4 2 c 5 1 c
4 4 c 4 8 c 5 6 c 4 -5 c 5 -8 c 4 -5 c 4 -2 c 5 1 c 4 3237 c 2 2957 c 3 -6162 2167 7019 l 4 -18 c 5 -1 c 4 -1 c 4 0 c 5 0 c 4 2 c
5 1 c 4 -1 c 4 -2 c 5 -2 c 4 0 c 4 0 c 5 1 c 4 0 c 5 0 c 4 -1 c 4 0 c 5 0 c 4 -1 c 4 2 c 5 0 c 4 2 c 4 5 c 5 6 c 4 1 c 5 -7 c 4 -6 c
4 -1 c 5 0 c 4 0 c 4 0 c 5 1 c 4 -1 c 5 0 c 4 0 c 4 1 c 5 2 c 4 1 c 4 3 c 5 18 c 4 26 c 5 14 c 4 -6 c 4 -18 c 5 -17 c 4 -7 c 4 -4 c
5 -3 c 4 -1 c 5 0 c 4 0 c 4 -1 c 5 1 c 4 1 c 4 0 c 5 1 c 4 1 c 4 0 c 5 0 c 4 1 c 5 2 c 4 0 c 4 0 c 5 1 c 4 2 c 4 1 c 5 0 c 4 2 c
5 2 c 4 3 c 4 0 c 5 0 c 4 1 c 4 3 c 5 1 c 4 1 c 5 0 c 4 3 c 4 3 c 5 2 c 4 2 c 4 11 c 5 26 c 4 25 c 5 3 c 4 -25 c 4 -17 c 5 -4 c
4 3 c 4 2 c 5 3 c 4 5 c 4 2 c 5 3 c 4 5 c 5 5 c 4 3 c 4 6 c 5 4 c 4 3 c 4 5 c 5 4 c 4 3 c 5 8 c 4 7 c 4 11 c 5 22 c 4 42 c 4 39 c
5 12 c 4 78 c 5 191 c 4 117 c 4 -101 c 5 -205 c 4 -94 c 4 -4 c 5 9 c 4 15 c 5 18 c 4 12 c 4 10 c 5 16 c 4 16 c 4 8 c 5 20 c 4 26 c
4 21 c 5 29 c 4 15 c 5 31 c 4 26 c 4 25 c 5 26 c 4 24 c 4 24 c 5 44 c 4 19 c 5 45 c 4 25 c 4 49 c 5 25 c 4 65 c 4 45 c 5 62 c 4 37 c
5 39 c 4 79 c 4 56 c 5 57 c 4 43 c 4 86 c 5 82 c 4 88 c 5 88 c 4 84 c 4 88 c 5 136 c 4 103 c 4 101 c 5 109 c 4 151 c 4 136 c 5 141 c
4 212 c 5 188 c 4 201 c 4 292 c 5 283 c 4 271 c 4 210 c 5 401 c 4 699 c 4 732 c 3 -408 3011 7019 l 4 -378 c 4 -352 c 5 -257 c
4 -359 c 4 -185 c 5 -244 c 4 -274 c 5 -268 c 4 -122 c 4 -185 c 5 -127 c 4 -174 c 4 -142 c 5 -142 c 4 -127 c 5 -121 c 4 -81 c
4 -194 c 5 -75 c 4 -89 c 4 -97 c 5 -69 c 4 -74 c 5 -82 c 4 -50 c 4 -39 c 5 -63 c 4 -90 c 4 -92 c 5 -79 c 4 -49 c 4 -51 c 5 -57 c
4 -66 c 5 -29 c 4 -40 c 4 -42 c 5 -41 c 4 -34 c 4 -26 c 5 -37 c 4 -38 c 5 -41 c 4 -24 c 4 -24 c 5 -11 c 4 14 c 4 1 c 5 -32 c 4 -56 c
5 -43 c 4 -33 c 4 -11 c 5 -27 c 4 -11 c 4 -12 c 5 -10 c 4 -19 c 5 -16 c 4 -12 c 4 -11 c 5 -9 c 4 -6 c 4 8 c 5 3 c 4 -13 c 4 -27 c
5 -21 c 4 -17 c 5 -3 c 4 -5 c 4 -9 c 5 -5 c 4 -9 c 4 -5 c 5 -2 c 4 -5 c 5 -4 c 4 -5 c 4 -5 c 5 -6 c 4 -3 c 4 -3 c 5 -1 c 4 -2 c
5 -2 c 4 -3 c 4 -4 c 5 -4 c 4 -2 c 4 1 c 5 -1 c 4 -2 c 5 -2 c 4 1 c 4 1 c 5 1 c 4 -5 c 4 -5 c 5 -1 c 4 -2 c 4 5 c 5 7 c 4 0 c 5 -6 c
4 -2 c 4 6 c 5 13 c 4 6 c 4 -7 c 5 -10 c 4 -3 c 5 -3 c 4 1 c 4 2 c 5 2 c 4 4 c 4 3 c 5 8 c 4 17 c 5 42 c 4 274 c 4 2297 c 5 3454 c
1 -827 3563 7019 l 5 -3458 c 4 -1606 c 4 -124 c 5 -26 c 4 -7 c 5 -16 c 4 -16 c 4 -4 c 5 1 c 4 2 c 4 6 c 5 8 c 4 1 c 5 -3 c 4 -4 c
4 10 c 5 123 c 4 353 c 4 206 c 5 -107 c 4 -350 c 5 -192 c 4 -36 c 4 -2 c 5 1 c 4 1 c 4 3 c 5 1 c 4 2 c 5 4 c 4 5 c 4 3 c 5 4 c 4 2 c
4 5 c 5 9 c 4 5 c 4 7 c 5 4 c 4 7 c 5 4 c 4 8 c 4 5 c 5 7 c 4 10 c 4 11 c 5 8 c 4 9 c 5 13 c 4 13 c 4 10 c 5 16 c 4 16 c 4 9 c
5 12 c 4 17 c 5 11 c 4 16 c 4 17 c 5 18 c 4 19 c 4 14 c 5 24 c 4 32 c 5 34 c 4 21 c 4 59 c 5 163 c 4 1096 c 4 1341 c 5 406 c
4 -969 c 4 -1314 c 5 -446 c 4 -20 c 5 36 c 4 43 c 4 36 c 5 54 c 4 42 c 4 42 c 5 62 c 4 89 c 5 63 c 4 34 c 4 84 c 5 105 c 4 62 c
4 34 c 5 66 c 4 110 c 5 121 c 4 79 c 4 92 c 5 171 c 4 70 c 4 128 c 5 129 c 4 150 c 5 166 c 4 181 c 4 105 c 5 261 c 4 197 c 4 147 c
5 171 c 4 201 c 4 262 c 5 324 c 4 328 c 5 338 c 4 291 c 4 290 c 2 151 c 2 -192 4183 7019 l 4 -332 c 5 -275 c 4 -293 c 5 -351 c
4 -229 c 4 -205 c 5 -167 c 4 -228 c 4 -204 c 5 -202 c 4 -96 c 5 -113 c 4 -228 c 4 -166 c 5 -127 c 4 -235 c 4 -73 c 5 -128 c 4 -111 c
5 -82 c 4 -96 c 4 -88 c 5 -116 c 4 -102 c 4 -64 c 5 -79 c 4 -116 c 4 -52 c 5 -80 c 4 -46 c 5 -72 c 4 -51 c 4 -56 c 5 -48 c 4 -36 c
4 -52 c 5 -64 c 4 -41 c 5 -49 c 4 -43 c 4 -21 c 5 -47 c 4 -26 c 4 -36 c 5 -21 c 4 -41 c 5 -22 c 4 -27 c 4 -24 c 5 -22 c 4 -23 c
4 -24 c 5 -24 c 4 -15 c 5 -17 c 4 -25 c 4 -14 c 5 -15 c 4 -15 c 4 -17 c 5 -13 c 4 -14 c 4 -7 c 5 -14 c 4 -8 c 5 -12 c 4 -10 c
4 -16 c 5 -13 c 4 -7 c 4 -3 c 5 -8 c 4 -13 c 5 -4 c 4 -8 c 4 -8 c 5 -7 c 4 -2 c 4 -1 c 5 -7 c 4 -11 c 5 -8 c 4 -2 c 4 -6 c 5 -2 c
4 -6 c 4 -2 c 5 -3 c 4 -2 c 5 -4 c 4 -3 c 4 -6 c 5 -2 c 4 -3 c 4 -1 c 5 -2 c 4 -2 c 4 -2 c 5 -3 c 4 -3 c 5 -4 c 4 -3 c 4 -2 c 5 -1 c
4 -2 c 4 -3 c 5 -1 c 4 0 c 5 8 c 4 3 c 4 -5 c 5 -9 c 4 -4 c 4 -3 c 5 -2 c 4 0 c 5 -3 c 4 2 c 4 -3 c 5 -2 c 4 -1 c 4 -2 c 5 -1 c
4 -1 c 5 0 c 4 -2 c 4 0 c 5 -3 c 4 -2 c 4 0 c 5 1 c 4 3 c 4 0 c 5 -3 c 4 -3 c 5 0 c 4 -1 c 4 2 c 5 1 c 4 -2 c 4 -1 c 5 -1 c 4 -1 c
5 -1 c 4 2 c 4 4 c 5 1 c 4 0 c 4 -4 c 5 -4 c 4 0 c 5 -1 c 4 -1 c 4 0 c 5 -2 c 4 0 c 4 0 c 5 2 c 4 -1 c 5 0 c 4 0 c 4 1 c 5 0 c
4 -1 c 4 -2 c 5 2 c 4 10 c 4 12 c 5 -3 c 4 -11 c 5 -10 c 4 -3 c 4 0 c 5 0 c 4 -1 c 4 0 c 5 0 c 4 0 c 5 0 c 4 -1 c 4 -1 c 5 1 c 4 0 c
4 0 c 5 0 c 4 0 c 5 0 c 4 -1 c 4 -1 c 5 3 c 4 0 c 4 0 c 5 1 c 4 4 c 4 2 c 5 -3 c 4 -2 c 5 -1 c 4 -1 c 4 -2 c 5 1 c 4 -2 c 4 1 c
5 3 c 4 -2 c 5 2 c 4 -1 c 4 -1 c 5 0 c 4 -2 c 4 2 c 5 3 c 4 3 c 5 -2 c 4 -3 c 4 -2 c 5 0 c 4 0 c 4 -2 c 5 1 c 4 -1 c 5 0 c 4 0 c
4 0 c 5 0 c 4 1 c 4 1 c 5 -2 c 4 0 c 4 -1 c 5 1 c 4 0 c 5 0 c 4 1 c 4 0 c 5 -2 c 4 1 c 4 1 c 5 0 c 4 6 c 5 9 c 4 3 c 4 1 c 5 -2 c
4 -2 c 4 -8 c 5 -6 c 4 -2 c 5 1 c 4 -1 c 4 0 c 5 0 c 4 1 c 4 0 c 5 -1 c 4 -1 c 5 -1 c 4 1 c 4 -2 c 5 0 c 4 0 c 4 2 c 5 -1 c 4 1 c
4 0 c 5 0 c 4 0 c 5 -2 c 4 2 c 4 -1 c 5 1 c 4 0 c 4 0 c 5 0 c 4 0 c 5 0 c 4 0 c 4 0 c 5 -1 c 4 1 c 4 0 c 5 1 c 4 1 c 5 2 c 4 4 c
4 7 c 5 22 c 4 17 c 4 2 c 5 -14 c 4 -20 c 5 -7 c 4 -5 c 4 0 c 5 -1 c 4 -1 c 4 -1 c 5 -1 c 4 2 c 4 0 c 5 -1 c 4 1 c 5 -1 c 4 1 c
4 1 c 5 -1 c 4 2 c 4 1 c 5 1 c 4 0 c 5 0 c 4 0 c 4 0 c 5 2 c 4 4 c 4 17 c 5 15 c 4 9 c 5 20 c 4 274 c 4 810 c 5 429 c 4 -256 c
4 -840 c 5 -405 c 4 -59 c 4 -8 c 5 -4 c 4 1 c 5 1 c 4 3 c 4 0 c 5 9 c 4 8 c 4 21 c 5 105 c 4 828 c 5 1875 c 4 636 c 4 -739 c
5 -1964 c 4 -673 c 4 -79 c 5 -18 c 4 -11 c 5 -5 c 4 -73 c 4 71 c 5 -2 c 4 -1 c 4 0 c 5 -2 c 4 -3 c 5 1 c 4 1 c 4 -1 c 5 -1 c 4 0 c
4 -2 c 5 0 c 4 1 c 4 0 c 5 1 c 4 -2 c 5 0 c 4 -1 c 4 -2 c 5 0 c 4 -2 c 4 0 c 5 -1 c 4 2 c 5 0 c 4 0 c 4 0 c 5 -1 c 4 -2 c 4 1 c
5 -2 c 4 0 c 5 -1 c 4 1 c 4 0 c 5 1 c 4 -2 c 4 -1 c 5 2 c 4 1 c 5 -1 c 4 -1 c 4 -1 c 5 -1 c 4 1 c 4 1 c 5 -1 c 4 1 c 4 0 c 5 0 c
4 -1 c 5 0 c 4 -1 c 4 2 c 5 -1 c 4 2 c 4 15 c 5 90 c 4 120 c 5 19 c 4 -79 c 4 -124 c 5 -27 c 4 -10 c 4 -5 c 5 -1 c 4 -2 c 5 1 c
4 -1 c 4 1 c 5 1 c 4 1 c 4 0 c 5 -1 c 4 0 c 5 -2 c 4 -1 c 4 0 c 5 4 c 4 0 c 4 1 c 5 -2 c 4 -2 c 4 0 c 5 1 c 4 2 c 5 1 c 4 1 c 4 -2 c
5 -2 c 4 0 c 4 -1 c 5 -3 c 4 1 c 5 2 c 4 2 c 4 -2 c 5 -1 c 4 -1 c 4 0 c 5 1 c 4 -1 c 5 1 c 4 1 c 4 0 c 5 0 c 4 -3 c 4 1 c 5 2 c
4 0 c 5 0 c 4 0 c 4 -3 c 5 0 c 4 2 c 4 -1 c 5 3 c 4 -2 c 4 -3 c 5 1 c 4 2 c 5 0 c 4 0 c 4 0 c 5 0 c 4 -2 c 4 2 c 5 3 c 4 9 c 5 2 c
4 -2 c 4 -11 c 5 -2 c 4 1 c 4 0 c 5 1 c 4 -1 c 5 0 c 4 0 c 4 0 c 5 1 c 4 0 c 4 -1 c 5 0 c 4 1 c 4 0 c 5 0 c 4 2 c 5 -1 c 4 -1 c
4 2 c 5 15 c 4 15 c 4 1 c 5 -12 c 4 -18 c 5 -3 c 4 -1 c 4 0 c 5 -1 c 4 -1 c 4 1 c 5 -1 c 4 1 c 5 0 c 4 -1 c 4 0 c 5 1 c 4 0 c 4 -1 c
5 0 c 4 1 c 5 0 c 4 -1 c 4 2 c 5 -1 c 4 1 c 4 1 c 5 1 c 4 -1 c 4 1 c 5 1 c 4 -1 c 5 0 c 4 3 c 4 -2 c 5 -1 c 4 -1 c 4 1 c 5 0 c 4 2 c
5 0 c 4 0 c 4 -2 c 5 -1 c 4 -1 c 4 2 c 5 0 c 4 1 c 5 -1 c 4 1 c 4 0 c 5 0 c 4 0 c 4 -1 c 5 0 c 4 2 c 5 2 c 4 -2 c 4 0 c 5 1 c 4 1 c
4 -1 c 5 -1 c 4 0 c 4 3 c 5 -3 c 4 0 c 5 0 c 4 0 c 4 0 c 5 0 c 4 0 c 4 0 c 5 1 c 4 1 c 5 -1 c 4 0 c 4 0 c 5 0 c 4 -1 c 4 3 c
3 6179 c 3 -3935 6744 7019 l 4 -2209 c 4 -18 c 5 -2 c 4 -2 c 5 -4 c 4 -1 c 4 0 c 5 -1 c 4 2 c 4 -1 c 5 -1 c 4 -1 c 4 -2 c 5 2 c
4 -1 c 5 -2 c 4 2 c 4 -2 c 5 1 c 4 -1 c 4 1 c 5 -1 c 4 0 c 5 0 c 4 -1 c 4 1 c 5 -2 c 4 -1 c 4 3 c 5 -1 c 4 -1 c 5 2 c 4 1 c 4 -1 c
5 -2 c 4 0 c 4 0 c 5 0 c 4 1 c 5 1 c 4 0 c 4 2 c 5 0 c 4 8 c 4 56 c 5 240 c 4 235 c 4 -13 c 5 -242 c 4 -241 c 5 -39 c 4 -6 c 4 -1 c
5 -1 c 4 6 c 4 5 c 5 -2 c 4 -5 c 5 -2 c 4 -3 c 4 0 c 5 -1 c 4 -2 c 4 -1 c 5 1 c 4 2 c 5 -1 c 4 1 c 4 8 c 5 42 c 4 39 c 4 1 c 5 -38 c
4 -46 c 4 -7 c 5 0 c 4 -2 c 5 0 c 4 -1 c 4 -1 c 5 1 c 4 -1 c 4 2 c 5 -1 c 4 0 c 5 -1 c 4 -2 c 4 3 c 5 -2 c 4 2 c 4 -1 c 5 -2 c 4 1 c
5 -1 c 4 2 c 4 1 c 5 1 c 4 -1 c 4 -2 c 5 0 c 4 -1 c 5 0 c 4 0 c 4 0 c 5 0 c 4 1 c 4 -2 c 5 0 c 4 0 c 4 0 c 5 -1 c 4 -1 c 5 2 c
4 -2 c 4 2 c 5 1 c 4 0 c 4 0 c 5 -1 c 4 0 c 5 0 c 4 0 c 4 0 c 5 -2 c 4 2 c 4 4 c 5 1 c 4 -1 c 5 -3 c 4 -1 c 4 3 c 5 0 c 4 0 c 4 -1 c
5 0 c 4 0 c 5 -1 c 4 -1 c 4 0 c 5 0 c 4 1 c 4 0 c 5 0 c 4 1 c 4 -1 c 5 -1 c 4 1 c 5 -2 c 4 3 c 4 0 c 5 1 c 4 -2 c 4 -1 c 5 -1 c
4 0 c 5 2 c 4 -2 c 4 1 c 5 -1 c 4 0 c 4 0 c 5 2 c 4 0 c 5 -1 c 4 1 c 4 1 c 5 3 c 4 -1 c 4 -2 c 5 -2 c 4 1 c 5 3 c 4 27 c 4 118 c
5 107 c 4 0 c 4 -104 c 5 -134 c 4 -15 c 4 -3 c 5 0 c 4 -1 c 5 1 c 4 -1 c 4 1 c 5 0 c 4 5 c 4 8 c 5 -1 c 4 -5 c 5 -7 c 4 -1 c 4 0 c
5 1 c 4 0 c 4 -1 c 5 -1 c 4 1 c 5 0 c 4 0 c 4 1 c 5 -2 c 4 0 c 4 0 c 5 1 c 4 0 c 5 -1 c 4 1 c 4 0 c 5 0 c 4 -1 c 4 -2 c 5 1 c 4 2 c
4 -1 c 5 0 c 4 1 c 5 -1 c 4 1 c 4 0 c 5 0 c 4 -1 c 4 0 c 5 1 c 4 -1 c 5 0 c 4 0 c 4 0 c 5 0 c 4 0 c 4 0 c 5 0 c 4 0 c 5 2 c 4 3 c
4 -1 c 5 1 c 4 -1 c 4 -1 c 5 -2 c 4 2 c 4 -1 c 5 -1 c 4 1 c 5 1 c 4 1 c 4 1 c 5 -1 c 4 2 c 4 0 c 5 0 c 4 0 c 5 1 c 4 -1 c 4 0 c
5 1 c 4 1 c 4 1 c 5 0 c 4 2 c 5 0 c 4 1 c 4 -1 c 5 0 c 4 2 c 4 1 c 5 1 c 4 2 c 5 1 c 4 1 c 4 2 c 5 -1 c 4 1 c 4 2 c 5 2 c 4 5 c
4 17 c 5 23 c 4 4 c 5 -8 c 4 -15 c 4 13 c 5 48 c 4 336 c 4 1867 c 5 2357 c 4 331 c 5 -1271 c 4 -2489 c 4 -566 c 5 -231 c 4 -332 c
4 -67 c 5 -10 c 4 -6 c 5 -1 c 4 -3 c 4 -3 c 5 -3 c 4 0 c 4 -3 c 5 1 c 4 -2 c 5 0 c 4 -1 c 4 -1 c 5 -2 c 4 0 c 4 -1 c 5 -2 c 4 0 c
4 -1 c 5 0 c 4 -2 c 5 -1 c 4 1 c 4 0 c 5 -1 c 4 0 c 4 -2 c 5 0 c 4 -1 c 5 1 c 4 0 c 4 -1 c 5 -1 c 4 -1 c 4 1 c 5 -2 c 4 1 c 5 0 c
4 -1 c 4 0 c 5 0 c 4 -1 c 4 0 c 5 -1 c 4 0 c 5 -1 c 4 0 c 4 0 c 5 0 c 4 6 c 4 8 c 5 0 c 4 -4 c 4 -11 c 5 -2 c 4 -1 c 5 -1 c 4 2 c
4 -1 c 5 2 c 4 -1 c 4 0 c 5 2 c 4 1 c 5 -2 c 4 -1 c 4 0 c 5 1 c 4 0 c 4 -2 c 5 -1 c 4 0 c 5 -1 c 4 -1 c 4 0 c 5 2 c 4 6 c 4 5 c
5 -1 c 4 -5 c 4 -7 c 5 -1 c 4 0 c 5 -1 c 4 1 c 4 0 c 5 -1 c 4 1 c 4 0 c 5 1 c 4 -1 c 5 0 c 4 -1 c 4 0 c 5 0 c 4 1 c 4 0 c 5 -1 c
4 1 c 5 0 c 4 -1 c 4 1 c 5 0 c 4 0 c 4 0 c 5 -1 c 4 0 c 5 0 c 4 -1 c 4 1 c 5 1 c 4 0 c 4 -2 c 5 1 c 4 2 c 4 0 c 5 0 c 4 1 c 5 0 c
4 -2 c 4 -1 c 5 1 c 4 0 c 4 0 c 5 0 c 4 0 c 5 0 c 4 1 c 4 -2 c 5 0 c 4 0 c 4 1 c 5 6 c 4 7 c 5 4 c 4 9 c 4 4 c 5 -4 c 4 -8 c 4 -12 c
5 -1 c 4 0 c 5 1 c 4 -2 c 4 0 c 5 1 c 4 1 c 4 2 c 5 4 c 4 4 c 4 0 c 5 -5 c 4 -5 c 5 -3 c 4 2 c 4 1 c 5 -1 c 4 -1 c 4 1 c 5 -1 c
4 1 c 5 -2 c 4 -1 c 4 0 c 5 1 c 4 2 c 4 0 c 5 1 c 4 0 c 5 0 c 4 -1 c 4 0 c 5 0 c 4 0 c 4 -1 c 5 0 c 4 -1 c 5 0 c 4 0 c 4 1 c
5 2250 c 2 3947 c 3 -6135 8851 7019 l 4 -30 c 4 -5 c 5 -3 c 4 -3 c 4 -1 c 5 1 c 4 5 c 5 31 c 4 105 c 4 112 c 5 4 c 4 -85 c 4 -135 c
5 -38 c 4 -3 c 5 -3 c 4 -1 c 4 -1 c 5 0 c 4 -1 c 4 0 c 5 0 c 4 0 c 5 -1 c 4 1 c 4 -1 c 5 0 c 4 -1 c 4 -1 c 5 1 c 4 -1 c 4 0 c 5 -1 c
4 0 c 5 2 c 4 5 c 4 1 c 5 -1 c 4 -6 c 4 -2 c 5 -1 c 4 -1 c 5 0 c 4 0 c 4 -1 c 5 1 c 4 0 c 4 0 c 5 -1 c 4 0 c 5 -1 c 4 0 c 4 -1 c
5 0 c 4 -1 c 4 1 c 5 0 c 4 0 c 4 0 c 5 1 c 4 -2 c 5 0 c 4 2 c 4 6 c 5 8 c 4 2 c 4 -2 c 5 -11 c 4 -7 c 5 0 c 4 -1 c 4 0 c 5 -1 c
4 1 c 4 -1 c 5 0 c 4 1 c 5 -1 c 4 1 c 4 0 c 5 1 c 4 0 c 4 -1 c 5 -1 c 4 -1 c 5 0 c 4 1 c 4 1 c 5 1 c 4 3 c 4 0 c 5 -2 c 4 -3 c 4 0 c
5 0 c 4 1 c 5 -1 c 4 1 c 4 -1 c 5 -1 c 4 0 c 4 0 c 5 0 c 4 1 c 5 0 c 4 -1 c 4 2 c 5 2 c 4 2 c 4 5 c 5 6 c 4 10 c 5 2 c 4 6 c 4 9 c
5 22 c 4 44 c 4 -2 c 5 -25 c 4 -52 c 5 -20 c 4 3 c 4 1 c 5 -2 c 4 -7 c 4 -5 c 5 -2 c 4 -1 c 4 0 c 5 0 c 4 -1 c 5 0 c 4 0 c 4 0 c
5 0 c 4 0 c 4 0 c 5 0 c 4 0 c 5 0 c 4 -1 c 4 2 c 5 0 c 4 3 c 4 2 c 5 -1 c 4 -2 c 5 -1 c 4 -1 c 4 0 c 5 0 c 4 0 c 4 0 c
5 2 c 4 0 c 5 -1 c 4 1 c 4 -32 c 5 0 c 4 29 c 4 0 c 5 -1 c 4 1 c 4 0 c 5 0 c 4 0 c 5 0 c 4 -1 c 4 0 c 5 0 c 4 0 c 4 1 c 5 0 c 4 0 c
5 0 c 4 0 c 4 0 c 5 1 c 4 1 c 4 1 c 5 1 c 4 -1 c 5 -2 c 4 -1 c 4 0 c 5 1 c 4 0 c 4 2 c 5 8 c 4 41 c 5 100 c 4 63 c 4 -11 c 5 -106 c
4 -82 c 4 -2 c 5 9 c 4 1 c
0 -126 3303 418 l 54 0 3303 418 l 18 -6 c 6 -6 c 6 -12 c 0 -12 c -6 -12 c -6 -6 c -18 -6 c -54 0 c 42 -66 3345 358 l
-12 -6 3453 376 l -12 -12 c -6 -18 c 0 -12 c 6 -18 c 12 -12 c 12 -6 c 18 0 c 12 6 c 12 12 c 6 18 c 0 12 c -6 18 c -12 12 c -12 6 c
-18 0 c 24 -84 3537 376 l -24 -84 3585 376 l 24 -84 3585 376 l -24 -84 3633 376 l 108 0 3675 364 l 108 0 3675 328 l 12 6 3939 394 l
18 18 c 0 -126 c 66 0 4053 418 l -36 -48 c 18 0 c 12 -6 c 6 -6 c 6 -18 c 0 -12 c -6 -18 c -12 -12 c -18 -6 c -18 0 c -18 6 c -6 6 c
-6 12 c -12 -6 4287 376 l -12 -12 c -6 -18 c 0 -12 c 6 -18 c 12 -12 c 12 -6 c 18 0 c 12 6 c 12 12 c 6 18 c 0 12 c -6 18 c -12 12 c
-12 6 c -18 0 c -12 0 4413 418 l -12 -6 c -6 -18 c 0 -102 c 42 0 4365 376 l 12 6 4557 394 l 18 18 c 0 -126 c -60 0 4731 418 l
-6 -54 c 6 6 c 18 6 c 18 0 c 18 -6 c 12 -12 c 6 -18 c 0 -12 c -6 -18 c -12 -12 c -18 -6 c -18 0 c -18 6 c -6 6 c -6 12 c
12 6 5181 394 l 18 18 c 0 -126 c -6 -6 5294 376 l 6 -6 c 6 6 c -6 6 c -6 -6 5294 304 l 6 -6 c 6 6 c -6 6 c -48 -126 5474 418 l
48 -126 5474 418 l 60 0 5444 334 l 0 -84 5552 376 l 6 18 5552 340 l 12 12 c 12 6 c 18 0 c -12 12 5696 358 l -12 6 c -18 0 c -12 -6 c
-12 -12 c -6 -18 c 0 -12 c 6 -18 c 12 -12 c 12 -6 c 18 0 c 12 6 c 12 12 c 108 0 5738 346 l -18 -6 5924 418 l -12 -18 c -6 -30 c
0 -18 c 6 -30 c 12 -18 c 18 -6 c 12 0 c 18 6 c 12 18 c 6 30 c 0 18 c -6 30 c -12 18 c -18 6 c -12 0 c -60 -126 6092 418 l
84 0 6008 418 l 12 6 6146 394 l 18 18 c 0 -126 c -6 -6 6260 304 l 6 -6 c 6 6 c -6 6 c -12 0 6350 418 l -12 -6 c -6 -18 c 0 -102 c
42 0 6302 376 l 6 -6 6380 418 l 6 6 c -6 6 c -6 -6 c 0 -84 6386 376 l 0 -102 6440 418 l 6 -18 c 12 -6 c 12 0 c 42 0 6422 376 l
-6 12 6566 358 l -18 6 c -18 0 c -18 -6 c -6 -12 c 6 -12 c 12 -6 c 30 -6 c 12 -6 c 6 -12 c 0 -6 c -6 -12 c -18 -6 c -18 0 c -18 6 c
-6 12 c 0 -192 6896 442 l 0 -192 6902 442 l 42 0 6896 442 l 42 0 6896 250 l 0 6 6980 388 l 6 12 c 6 6 c 12 6 c 24 0 c 12 -6 c 6 -6 c
6 -12 c 0 -12 c -6 -12 c -12 -18 c -60 -60 c 84 0 c -6 -6 7106 376 l 6 -6 c 6 6 c -6 6 c -6 -6 7106 304 l 6 -6 c 6 6 c -6 6 c
0 -192 7286 442 l 0 -192 7292 442 l 42 0 7250 442 l 42 0 7250 250 l
0 -249 989 1316 l 4 -11 945 1407 l 7 -4 c 8 0 c 8 4 c 3 7 c 4 15 c 4 12 c 7 7 c 8 4 c 11 0 c 8 -4 c 4 -4 c 3 -11 c 0 -15 c -3 -11 c
-4 -4 c -8 -4 c -11 0 c -8 4 c -7 7 c -4 12 c -4 15 c -3 7 c -8 4 c -8 0 c -7 -4 c -4 -11 c 0 -15 c 0 42 945 1471 l 30 -23 c 0 12 c
4 7 c 4 4 c 11 4 c 8 0 c 11 -4 c 8 -8 c 3 -11 c 0 -11 c -3 -12 c -4 -4 c -8 -3 c 79 -38 945 1592 l 0 53 945 1539 l 11 -4 972 1664 l
7 -7 c 4 -12 c 0 -3 c -4 -12 c -7 -7 c -11 -4 c -4 0 c -12 4 c -7 7 c -4 12 c 0 3 c 4 12 c 7 7 c 16 4 c 18 0 c 19 -4 c 12 -7 c
3 -12 c 0 -7 c -3 -12 c -8 -3 c 4 -4 1017 1698 l 3 4 c -3 4 c -4 -4 c -4 0 964 1732 l -7 4 c -4 4 c -4 7 c 0 15 c 4 8 c 4 4 c 7 3 c
8 0 c 7 -3 c 12 -8 c 37 -38 c 0 53 c -4 0 964 1808 l -7 3 c -4 4 c -4 8 c 0 15 c 4 7 c 4 4 c 7 4 c 8 0 c 7 -4 c 12 -7 c 37 -38 c
0 53 c -7 -4 956 1929 l -4 -12 c 0 -7 c 4 -11 c 11 -8 c 19 -4 c 19 0 c 15 4 c 8 8 c 3 11 c 0 4 c -3 11 c -8 8 c -11 3 c -4 0 c
-11 -3 c -8 -8 c -4 -11 c 0 -4 c 4 -11 c 8 -8 c 11 -4 c 0 -250 1361 1625 l 4 -11 1317 1715 l 8 -4 c 7 0 c 8 4 c 3 8 c 4 15 c 4 11 c
8 8 c 7 3 c 11 0 c 8 -3 c 4 -4 c 4 -11 c 0 -16 c -4 -11 c -4 -4 c -8 -3 c -11 0 c -7 3 c -8 8 c -4 11 c -4 15 c -3 8 c -8 4 c -7 0 c
-8 -4 c -4 -11 c 0 -16 c 0 41 1317 1780 l 30 -22 c 0 11 c 4 8 c 4 3 c 11 4 c 8 0 c 11 -4 c 8 -7 c 4 -12 c 0 -11 c -4 -11 c -4 -4 c
-8 -4 c 4 -12 1317 1867 l 8 -3 c 7 0 c 8 3 c 3 8 c 4 15 c 4 11 c 8 8 c 7 4 c 11 0 c 8 -4 c 4 -4 c 4 -11 c 0 -15 c -4 -12 c -4 -3 c
-8 -4 c -11 0 c -7 4 c -8 7 c -4 11 c -4 16 c -3 7 c -8 4 c -7 0 c -8 -4 c -4 -11 c 0 -15 c 53 -38 1317 1961 l 0 57 c
80 0 1317 1961 l 4 -3 1389 2006 l 4 3 c -4 4 c -4 -4 c 80 -38 1317 2090 l 0 53 1317 2037 l -4 0 1336 2116 l -7 4 c -4 4 c -4 7 c
0 15 c 4 8 c 4 4 c 7 3 c 8 0 c 7 -3 c 12 -8 c 38 -38 c 0 53 c 53 -38 1317 2226 l 0 57 c 80 0 1317 2226 l 0 -249 1429 1288 l
4 -11 1385 1379 l 7 -4 c 8 0 c 7 4 c 4 7 c 4 15 c 4 12 c 7 7 c 8 4 c 11 0 c 8 -4 c 4 -4 c 3 -11 c 0 -15 c -3 -11 c -4 -4 c -8 -4 c
-11 0 c -8 4 c -7 7 c -4 12 c -4 15 c -4 7 c -7 4 c -8 0 c -7 -4 c -4 -11 c 0 -15 c 0 42 1385 1443 l 30 -23 c 0 11 c 4 8 c 4 4 c
11 4 c 8 0 c 11 -4 c 8 -8 c 3 -11 c 0 -11 c -3 -12 c -4 -4 c -8 -3 c 4 -11 1385 1530 l 7 -4 c 8 0 c 7 4 c 4 7 c 4 15 c 4 12 c 7 7 c
8 4 c 11 0 c 8 -4 c 4 -3 c 3 -12 c 0 -15 c -3 -11 c -4 -4 c -8 -4 c -11 0 c -8 4 c -7 8 c -4 11 c -4 15 c -4 8 c -7 3 c -8 0 c
-7 -3 c -4 -12 c 0 -15 c 0 -38 1385 1632 l 34 -3 c -4 3 c -4 12 c 0 11 c 4 11 c 8 8 c 11 4 c 8 0 c 11 -4 c 8 -8 c 3 -11 c 0 -11 c
-3 -12 c -4 -3 c -8 -4 c 4 -4 1457 1670 l 3 4 c -3 4 c -4 -4 c 79 -38 1385 1753 l 0 53 1385 1700 l -4 0 1404 1780 l -7 3 c -4 4 c
-4 8 c 0 15 c 4 7 c 4 4 c 7 4 c 8 0 c 7 -4 c 12 -7 c 37 -38 c 0 53 c 4 -11 1385 1870 l 7 -4 c 8 0 c 7 4 c 4 8 c 4 15 c 4 11 c 7 8 c
8 3 c 11 0 c 8 -3 c 4 -4 c 3 -12 c 0 -15 c -3 -11 c -4 -4 c -8 -4 c -11 0 c -8 4 c -7 8 c -4 11 c -4 15 c -4 8 c -7 4 c -8 0 c
-7 -4 c -4 -12 c 0 -15 c 0 -249 1619 1357 l 3 -12 1576 1448 l 8 -3 c 8 0 c 7 3 c 4 8 c 4 15 c 3 11 c 8 8 c 8 4 c 11 0 c 7 -4 c
4 -4 c 4 -11 c 0 -15 c -4 -12 c -4 -3 c -7 -4 c -11 0 c -8 4 c -8 7 c -3 12 c -4 15 c -4 7 c -7 4 c -8 0 c -8 -4 c -3 -11 c 0 -15 c
0 42 1576 1512 l 30 -23 c 0 11 c 4 8 c 3 4 c 12 3 c 7 0 c 12 -3 c 7 -8 c 4 -11 c 0 -12 c -4 -11 c -4 -4 c -7 -4 c 3 -11 1576 1599 l
8 -4 c 8 0 c 7 4 c 4 7 c 4 15 c 3 12 c 8 7 c 8 4 c 11 0 c 7 -4 c 4 -4 c 4 -11 c 0 -15 c -4 -11 c -4 -4 c -7 -4 c -11 0 c -8 4 c
-8 7 c -3 12 c -4 15 c -4 7 c -7 4 c -8 0 c -8 -4 c -3 -11 c 0 -15 c 3 -12 1576 1675 l 8 -4 c 8 0 c 7 4 c 4 8 c 4 15 c 3 11 c 8 8 c
8 4 c 11 0 c 7 -4 c 4 -4 c 4 -11 c 0 -15 c -4 -12 c -4 -4 c -7 -3 c -11 0 c -8 3 c -8 8 c -3 11 c -4 15 c -4 8 c -7 4 c -8 0 c
-8 -4 c -3 -11 c 0 -15 c 4 -4 1647 1739 l 4 4 c -4 4 c -4 -4 c 0 -37 1576 1814 l 34 -4 c -4 4 c -4 11 c 0 11 c 4 12 c 7 7 c 12 4 c
7 0 c 12 -4 c 7 -7 c 4 -12 c 0 -11 c -4 -11 c -4 -4 c -7 -4 c 0 42 1576 1852 l 30 -23 c 0 11 c 4 8 c 3 4 c 12 4 c 7 0 c 12 -4 c
7 -8 c 4 -11 c 0 -11 c -4 -12 c -4 -4 c -7 -3 c -8 -3 1587 1969 l -3 -12 c 0 -7 c 3 -12 c 12 -7 c 19 -4 c 19 0 c 15 4 c 7 7 c 4 12 c
0 3 c -4 12 c -7 7 c -12 4 c -3 0 c -12 -4 c -7 -7 c -4 -12 c 0 -3 c 4 -12 c 7 -7 c 12 -4 c 0 -249 3559 7019 l 4 -12 3516 7110 l
7 -3 c 8 0 c 7 3 c 4 8 c 4 15 c 4 11 c 7 8 c 8 4 c 11 0 c 8 -4 c 3 -4 c 4 -11 c 0 -15 c -4 -12 c -3 -3 c -8 -4 c -11 0 c -8 4 c
-7 7 c -4 12 c -4 15 c -4 7 c -7 4 c -8 0 c -7 -4 c -4 -11 c 0 -15 c 53 -37 3516 7204 l 0 56 c 79 0 3516 7204 l -4 8 3531 7253 l
-11 11 c 79 0 c -7 -4 3527 7367 l -4 -11 c 0 -8 c 4 -11 c 11 -8 c 19 -4 c 19 0 c 15 4 c 7 8 c 4 11 c 0 4 c -4 11 c -7 8 c -11 4 c
-4 0 c -12 -4 c -7 -8 c -4 -11 c 0 -4 c 4 -11 c 7 -8 c 12 -4 c 3 -4 3588 7401 l 4 4 c -4 4 c -3 -4 c 79 -38 3516 7484 l
0 53 3516 7431 l -4 0 3535 7510 l -8 4 c -3 4 c -4 8 c 0 15 c 4 7 c 3 4 c 8 4 c 8 0 c 7 -4 c 11 -8 c 38 -37 c 0 53 c
79 -38 3516 7635 l 0 53 3516 7582 l 0 -249 3648 2075 l 3 -11 3605 2166 l 8 -4 c 7 0 c 8 4 c 4 7 c 4 15 c 3 12 c 8 7 c 7 4 c 12 0 c
7 -4 c 4 -4 c 4 -11 c 0 -15 c -4 -11 c -4 -4 c -7 -4 c -12 0 c -7 4 c -8 7 c -3 12 c -4 15 c -4 7 c -8 4 c -7 0 c -8 -4 c -3 -11 c
0 -15 c 52 -37 3605 2260 l 0 56 c 79 0 3605 2260 l -4 8 3620 2309 l -11 11 c 79 0 c 79 -38 3605 2427 l 0 53 3605 2374 l
4 -4 3676 2457 l 4 4 c -4 4 c -4 -4 c 11 -4 3631 2536 l 8 -7 c 4 -11 c 0 -4 c -4 -12 c -8 -7 c -11 -4 c -4 0 c -11 4 c -8 7 c
-3 12 c 0 4 c 3 11 c 8 7 c 15 4 c 19 0 c 19 -4 c 11 -7 c 4 -11 c 0 -8 c -4 -11 c -7 -4 c 11 -4 3631 2612 l 8 -7 c 4 -12 c 0 -4 c
-4 -11 c -8 -8 c -11 -3 c -4 0 c -11 3 c -8 8 c -3 11 c 0 4 c 3 12 c 8 7 c 15 4 c 19 0 c 19 -4 c 11 -7 c 4 -12 c 0 -7 c -4 -12 c
-7 -4 c 3 -11 3605 2657 l 8 -4 c 7 0 c 8 4 c 4 7 c 4 16 c 3 11 c 8 7 c 7 4 c 12 0 c 7 -4 c 4 -3 c 4 -12 c 0 -15 c -4 -11 c -4 -4 c
-7 -4 c -12 0 c -7 4 c -8 8 c -3 11 c -4 15 c -4 8 c -8 3 c -7 0 c -8 -3 c -3 -12 c 0 -15 c 0 -250 3874 4890 l 4 -12 3830 4981 l
8 -3 c 7 0 c 8 3 c 4 8 c 3 15 c 4 11 c 8 8 c 7 4 c 12 0 c 7 -4 c 4 -4 c 4 -11 c 0 -15 c -4 -12 c -4 -3 c -7 -4 c -12 0 c -7 4 c
-8 7 c -4 12 c -3 15 c -4 7 c -8 4 c -7 0 c -8 -4 c -4 -11 c 0 -15 c 53 -38 3830 5075 l 0 57 c 80 0 3830 5075 l -4 0 3849 5117 l
-7 4 c -4 3 c -4 8 c 0 15 c 4 8 c 4 3 c 7 4 c 8 0 c 8 -4 c 11 -7 c 38 -38 c 0 53 c -3 8 3845 5200 l -12 11 c 80 0 c 4 -4 3902 5272 l
4 4 c -4 4 c -4 -4 c -4 0 3849 5306 l -7 4 c -4 3 c -4 8 c 0 15 c 4 8 c 4 3 c 7 4 c 8 0 c 8 -4 c 11 -7 c 38 -38 c 0 53 c
-4 0 3849 5381 l -7 4 c -4 4 c -4 7 c 0 16 c 4 7 c 4 4 c 7 4 c 8 0 c 8 -4 c 11 -8 c 38 -37 c 0 52 c 0 -38 3830 5499 l 34 -4 c -3 4 c
-4 11 c 0 11 c 4 12 c 7 7 c 11 4 c 8 0 c 11 -4 c 8 -7 c 4 -12 c 0 -11 c -4 -11 c -4 -4 c -7 -4 c 0 -249 5593 2868 l
3 -11 5550 2959 l 8 -4 c 7 0 c 8 4 c 4 7 c 4 15 c 3 12 c 8 7 c 7 4 c 12 0 c 7 -4 c 4 -3 c 4 -12 c 0 -15 c -4 -11 c -4 -4 c -7 -4 c
-12 0 c -7 4 c -8 8 c -3 11 c -4 15 c -4 8 c -8 3 c -7 0 c -8 -3 c -3 -12 c 0 -15 c 52 -38 5550 3054 l 0 56 c 79 0 5550 3054 l
52 -38 5550 3129 l 0 57 c 79 0 5550 3129 l 0 -37 5550 3212 l 34 -4 c -4 4 c -4 11 c 0 11 c 4 12 c 7 7 c 12 4 c 7 0 c 12 -4 c 7 -7 c
4 -12 c 0 -11 c -4 -11 c -4 -4 c -7 -4 c 4 -4 5621 3250 l 4 4 c -4 4 c -4 -4 c 52 -38 5550 3318 l 0 57 c 79 0 5550 3318 l
3 -11 5550 3375 l 8 -4 c 7 0 c 8 4 c 4 7 c 4 15 c 3 12 c 8 7 c 7 4 c 12 0 c 7 -4 c 4 -4 c 4 -11 c 0 -15 c -4 -11 c -4 -4 c -7 -4 c
-12 0 c -7 4 c -8 7 c -3 12 c -4 15 c -4 7 c -8 4 c -7 0 c -8 -4 c -3 -11 c 0 -15 c 79 -37 5550 3484 l 0 52 5550 3432 l
0 -249 5667 4783 l 4 -11 5623 4874 l 7 -4 c 8 0 c 8 4 c 3 7 c 4 15 c 4 12 c 8 7 c 7 4 c 11 0 c 8 -4 c 4 -3 c 4 -12 c 0 -15 c
-4 -11 c -4 -4 c -8 -4 c -11 0 c -7 4 c -8 8 c -4 11 c -4 15 c -3 8 c -8 3 c -8 0 c -7 -3 c -4 -12 c 0 -15 c 53 -38 5623 4969 l
0 56 c 80 0 5623 4969 l 53 -38 5623 5044 l 0 57 c 80 0 5623 5044 l -7 -4 5634 5131 l -4 -11 c 0 -8 c 4 -11 c 11 -7 c 19 -4 c 19 0 c
15 4 c 8 7 c 4 11 c 0 4 c -4 12 c -8 7 c -11 4 c -4 0 c -11 -4 c -8 -7 c -4 -12 c 0 -4 c 4 -11 c 8 -7 c 11 -4 c 4 -4 5695 5165 l
4 4 c -4 4 c -4 -4 c 0 -38 5623 5241 l 34 -4 c -4 4 c -3 11 c 0 12 c 3 11 c 8 7 c 11 4 c 8 0 c 11 -4 c 8 -7 c 4 -11 c 0 -12 c
-4 -11 c -4 -4 c -8 -4 c -4 8 5638 5282 l -11 11 c 80 0 c -4 0 5642 5350 l -7 4 c -4 4 c -4 7 c 0 16 c 4 7 c 4 4 c 7 4 c 8 0 c
7 -4 c 12 -8 c 38 -37 c 0 52 c 0 -250 6378 1304 l 4 -12 6334 1395 l 7 -4 c 8 0 c 8 4 c 3 8 c 4 15 c 4 11 c 7 8 c 8 4 c 11 0 c 8 -4 c
4 -4 c 3 -11 c 0 -15 c -3 -12 c -4 -4 c -8 -3 c -11 0 c -8 3 c -7 8 c -4 11 c -4 15 c -3 8 c -8 4 c -8 0 c -7 -4 c -4 -11 c 0 -15 c
53 -38 6334 1489 l 0 57 c 79 0 6334 1489 l 0 -38 6334 1572 l 34 -3 c -4 3 c -3 12 c 0 11 c 3 11 c 8 8 c 11 4 c 8 0 c 11 -4 c 8 -8 c
3 -11 c 0 -11 c -3 -12 c -4 -3 c -8 -4 c -7 -4 6345 1652 l -4 -12 c 0 -7 c 4 -11 c 11 -8 c 19 -4 c 19 0 c 15 4 c 8 8 c 3 11 c 0 4 c
-3 11 c -8 8 c -11 3 c -4 0 c -11 -3 c -8 -8 c -4 -11 c 0 -4 c 4 -11 c 8 -8 c 11 -4 c 4 -4 6406 1686 l 3 4 c -3 3 c -4 -3 c
0 42 6334 1723 l 30 -23 c 0 12 c 4 7 c 4 4 c 11 4 c 8 0 c 11 -4 c 8 -8 c 3 -11 c 0 -11 c -3 -12 c -4 -3 c -8 -4 c 53 -38 6334 1829 l
0 57 c 79 0 6334 1829 l 79 -38 6334 1920 l 0 53 6334 1867 l 0 -250 6954 1821 l 4 -11 6910 1911 l 8 -4 c 7 0 c 8 4 c 4 8 c 4 15 c
3 11 c 8 8 c 7 3 c 12 0 c 7 -3 c 4 -4 c 4 -12 c 0 -15 c -4 -11 c -4 -4 c -7 -4 c -12 0 c -7 4 c -8 8 c -3 11 c -4 15 c -4 8 c -8 4 c
-7 0 c -8 -4 c -4 -12 c 0 -15 c 53 -38 6910 2006 l 0 57 c 80 0 6910 2006 l -8 -4 6922 2093 l -4 -11 c 0 -8 c 4 -11 c 12 -8 c 19 -4 c
18 0 c 16 4 c 7 8 c 4 11 c 0 4 c -4 11 c -7 8 c -12 4 c -4 0 c -11 -4 c -7 -8 c -4 -11 c 0 -4 c 4 -11 c 7 -8 c 11 -4 c
53 -38 6910 2157 l 0 57 c 80 0 6910 2157 l 4 -3 6982 2202 l 4 3 c -4 4 c -4 -4 c -3 0 6929 2236 l -8 4 c -4 4 c -4 8 c 0 15 c 4 7 c
4 4 c 8 4 c 7 0 c 8 -4 c 11 -8 c 38 -37 c 0 53 c 0 41 6910 2316 l 31 -22 c 0 11 c 4 8 c 3 3 c 12 4 c 7 0 c 12 -4 c 7 -7 c 4 -12 c
0 -11 c -4 -11 c -4 -4 c -7 -4 c 80 -38 6910 2437 l 0 53 6910 2384 l 0 -249 7059 1366 l 3 -11 7016 1457 l 8 -4 c 8 0 c 7 4 c 4 7 c
4 15 c 3 12 c 8 7 c 8 4 c 11 0 c 7 -4 c 4 -4 c 4 -11 c 0 -15 c -4 -11 c -4 -4 c -7 -4 c -11 0 c -8 4 c -8 7 c -3 12 c -4 15 c -4 7 c
-7 4 c -8 0 c -8 -4 c -3 -11 c 0 -15 c 53 -37 7016 1551 l 0 56 c 79 0 7016 1551 l -8 -4 7027 1638 l -3 -11 c 0 -7 c 3 -12 c 12 -7 c
19 -4 c 19 0 c 15 4 c 7 7 c 4 12 c 0 3 c -4 12 c -7 7 c -12 4 c -3 0 c -12 -4 c -7 -7 c -4 -12 c 0 -3 c 4 -12 c 7 -7 c 12 -4 c
0 -38 7016 1710 l 34 -3 c -4 3 c -4 12 c 0 11 c 4 11 c 7 8 c 12 4 c 7 0 c 12 -4 c 7 -8 c 4 -11 c 0 -11 c -4 -12 c -4 -3 c -7 -4 c
4 -4 7087 1748 l 4 4 c -4 4 c -4 -4 c -8 -4 7027 1827 l -3 -11 c 0 -7 c 3 -12 c 12 -7 c 19 -4 c 19 0 c 15 4 c 7 7 c 4 12 c 0 3 c
-4 12 c -7 7 c -12 4 c -3 0 c -12 -4 c -7 -7 c -4 -12 c 0 -3 c 4 -12 c 7 -7 c 12 -4 c 79 -38 7016 1907 l 0 53 7016 1854 l
-4 7 7031 1941 l -11 12 c 79 0 c 0 -249 7514 1524 l 4 -11 7470 1615 l 8 -4 c 7 0 c 8 4 c 3 7 c 4 15 c 4 12 c 8 7 c 7 4 c 11 0 c
8 -4 c 4 -4 c 4 -11 c 0 -15 c -4 -11 c -4 -4 c -8 -4 c -11 0 c -7 4 c -8 7 c -4 12 c -4 15 c -3 7 c -8 4 c -7 0 c -8 -4 c -4 -11 c
0 -15 c 53 -37 7470 1709 l 0 56 c 80 0 7470 1709 l 80 -38 7470 1800 l 0 53 7470 1747 l -3 8 7485 1834 l -12 11 c 80 0 c
4 -4 7542 1906 l 4 4 c -4 4 c -4 -4 c 4 -11 7470 1955 l 8 -4 c 7 0 c 8 4 c 3 7 c 4 15 c 4 12 c 8 7 c 7 4 c 11 0 c 8 -4 c 4 -3 c
4 -12 c 0 -15 c -4 -11 c -4 -4 c -8 -4 c -11 0 c -7 4 c -8 8 c -4 11 c -4 15 c -3 8 c -8 3 c -7 0 c -8 -3 c -4 -12 c 0 -15 c
-4 0 7489 2016 l -7 3 c -4 4 c -4 8 c 0 15 c 4 7 c 4 4 c 7 4 c 8 0 c 7 -4 c 12 -7 c 38 -38 c 0 53 c -8 -4 7482 2137 l -4 -12 c
0 -7 c 4 -12 c 11 -7 c 19 -4 c 19 0 c 15 4 c 8 7 c 4 12 c 0 4 c -4 11 c -8 8 c -11 3 c -4 0 c -11 -3 c -8 -8 c -4 -11 c 0 -4 c
4 -12 c 8 -7 c 11 -4 c 0 -249 8000 6268 l 3 -11 7957 6359 l 8 -4 c 8 0 c 7 4 c 4 7 c 4 15 c 3 12 c 8 7 c 8 4 c 11 0 c 7 -4 c 4 -3 c
4 -12 c 0 -15 c -4 -11 c -4 -4 c -7 -4 c -11 0 c -8 4 c -8 7 c -3 12 c -4 15 c -4 8 c -7 3 c -8 0 c -8 -3 c -3 -12 c 0 -15 c
53 -38 7957 6454 l 0 56 c 79 0 7957 6454 l 79 -38 7957 6544 l 0 53 7957 6491 l 3 -12 7957 6586 l 8 -3 c 8 0 c 7 3 c 4 8 c 4 15 c
3 11 c 8 8 c 8 4 c 11 0 c 7 -4 c 4 -4 c 4 -11 c 0 -15 c -4 -12 c -4 -3 c -7 -4 c -11 0 c -8 4 c -8 7 c -3 12 c -4 15 c -4 7 c -7 4 c
-8 0 c -8 -4 c -3 -11 c 0 -15 c 4 -4 8028 6650 l 4 4 c -4 4 c -4 -4 c 0 41 7957 6688 l 30 -22 c 0 11 c 4 8 c 3 3 c 12 4 c 7 0 c
12 -4 c 7 -7 c 4 -11 c 0 -12 c -4 -11 c -4 -4 c -7 -4 c 0 -38 7957 6801 l 34 -3 c -4 3 c -4 12 c 0 11 c 4 11 c 7 8 c 12 4 c 7 0 c
12 -4 c 7 -8 c 4 -11 c 0 -11 c -4 -12 c -4 -3 c -7 -4 c 3 -11 7957 6850 l 8 -4 c 8 0 c 7 4 c 4 8 c 4 15 c 3 11 c 8 8 c 8 3 c 11 0 c
7 -3 c 4 -4 c 4 -11 c 0 -16 c -4 -11 c -4 -4 c -7 -4 c -11 0 c -8 4 c -8 8 c -3 11 c -4 15 c -4 8 c -7 4 c -8 0 c -8 -4 c -3 -11 c
0 -16 c 0 -249 8900 1536 l 4 -11 8856 1627 l 8 -4 c 7 0 c 8 4 c 3 7 c 4 15 c 4 12 c 8 7 c 7 4 c 11 0 c 8 -4 c 4 -3 c 4 -12 c 0 -15 c
-4 -11 c -4 -4 c -8 -4 c -11 0 c -7 4 c -8 8 c -4 11 c -4 15 c -3 8 c -8 3 c -7 0 c -8 -3 c -4 -12 c 0 -15 c 53 -38 8856 1722 l
0 56 c 80 0 8856 1722 l 11 -3 8883 1808 l 8 -8 c 3 -11 c 0 -4 c -3 -11 c -8 -8 c -11 -4 c -4 0 c -11 4 c -8 8 c -4 11 c 0 4 c 4 11 c
8 8 c 15 3 c 19 0 c 18 -3 c 12 -8 c 4 -11 c 0 -8 c -4 -11 c -8 -4 c 4 -12 8856 1858 l 11 -7 c 19 -4 c 12 0 c 18 4 c 12 7 c 4 12 c
0 7 c -4 12 c -12 7 c -18 4 c -12 0 c -19 -4 c -11 -7 c -4 -12 c 0 -7 c 4 -4 8928 1918 l 4 4 c -4 4 c -4 -4 c 0 41 8856 1956 l
30 -22 c 0 11 c 4 8 c 4 3 c 11 4 c 8 0 c 11 -4 c 8 -7 c 4 -11 c 0 -12 c -4 -11 c -4 -4 c -8 -4 c 4 -12 8856 2047 l 11 -7 c 19 -4 c
12 0 c 18 4 c 12 7 c 4 12 c 0 7 c -4 11 c -12 8 c -18 4 c -12 0 c -19 -4 c -11 -8 c -4 -11 c 0 -7 c 80 -37 8856 2152 l
0 52 8856 2100 l 0 -249 9694 1466 l 4 -12 9650 1557 l 8 -3 c 7 0 c 8 3 c 4 8 c 3 15 c 4 11 c 8 8 c 7 4 c 12 0 c 7 -4 c 4 -4 c
4 -11 c 0 -15 c -4 -12 c -4 -3 c -7 -4 c -12 0 c -7 4 c -8 7 c -4 12 c -3 15 c -4 7 c -8 4 c -7 0 c -8 -4 c -4 -11 c 0 -15 c
0 -38 9650 1659 l 34 -4 c -3 4 c -4 11 c 0 12 c 4 11 c 7 8 c 12 3 c 7 0 c 11 -3 c 8 -8 c 4 -11 c 0 -12 c -4 -11 c -4 -4 c -7 -4 c
4 -12 9650 1712 l 12 -7 c 18 -4 c 12 0 c 19 4 c 11 7 c 4 12 c 0 7 c -4 12 c -11 7 c -19 4 c -12 0 c -18 -4 c -12 -7 c -4 -12 c
0 -7 c 4 -11 9650 1787 l 12 -8 c 18 -3 c 12 0 c 19 3 c 11 8 c 4 11 c 0 8 c -4 11 c -11 8 c -19 4 c -12 0 c -18 -4 c -12 -8 c
-4 -11 c 0 -8 c 4 -4 9722 1848 l 4 4 c -4 4 c -4 -4 c -8 -4 9662 1927 l -4 -11 c 0 -8 c 4 -11 c 12 -7 c 18 -4 c 19 0 c 15 4 c 8 7 c
4 11 c 0 4 c -4 12 c -8 7 c -11 4 c -4 0 c -11 -4 c -8 -7 c -3 -12 c 0 -4 c 3 -11 c 8 -7 c 11 -4 c 4 -12 9650 1973 l 8 -4 c 7 0 c
8 4 c 4 8 c 3 15 c 4 11 c 8 8 c 7 4 c 12 0 c 7 -4 c 4 -4 c 4 -11 c 0 -15 c -4 -12 c -4 -4 c -7 -3 c -12 0 c -7 3 c -8 8 c -4 11 c
-3 15 c -4 8 c -8 4 c -7 0 c -8 -4 c -4 -11 c 0 -15 c 4 -11 9650 2052 l 12 -8 c 18 -4 c 12 0 c 19 4 c 11 8 c 4 11 c 0 7 c -4 12 c
-11 7 c -19 4 c -12 0 c -18 -4 c -12 -7 c -4 -12 c 0 -7 c
showpage PGPLOT restore
 
%%Trailer
%%DocumentFonts: 
%%Pages: 1
%%EOF
