%!PS-Adobe-3.0 EPSF-3.0
%%For: tab
%%Title: PGPLOT PostScript plot
%%Creator: PGPLOT
%%CreationDate: 20-Apr-1995 17:00
%%BoundingBox: 25 18 587 774
%%DocumentFonts: (atend)
%%LanguageLevel: 1
%%Orientation: Landscape
%%Pages: (atend)
%%EndComments
%%BeginProlog
/l {moveto rlineto currentpoint stroke moveto} bind def
/c {rlineto currentpoint stroke moveto} bind def
/d {moveto 0 0 rlineto currentpoint stroke moveto} bind def
/SLW {5 mul setlinewidth} bind def
/SCF /pop load def
/BP {newpath moveto} bind def
/LP /rlineto load def
/EP {rlineto closepath eofill} bind def
/MB {gsave translate MFAC dup scale 1 setlinewidth 2 setlinecap 0 setlinejoin newpath} bind def
/ME /grestore load def
/C {0 360 arc stroke} bind def
/FC {0 360 arc fill} bind def
%%EndProlog
 
%%Page: 1 1
%%BeginPageSetup
/PGPLOT save def
0.072 0.072 scale
8150 250 translate 90 rotate
1 setlinejoin 1 setlinecap 1 SLW 1 SCF
%%EndPageSetup
0.000 setgray 1 SLW 8939 0 780 780 l 0 6239 c -8939 0 c 0 -6239 c 0 -45 1116 780 l 0 -45 1554 780 l 0 -45 1991 780 l
0 -45 2428 780 l 0 -90 2865 780 l 0 -45 3302 780 l 0 -45 3739 780 l 0 -45 4176 780 l 0 -45 4613 780 l 0 -90 5051 780 l
0 -45 5488 780 l 0 -45 5925 780 l 0 -45 6362 780 l 0 -45 6799 780 l 0 -90 7236 780 l 0 -45 7673 780 l 0 -45 8110 780 l
0 -45 8548 780 l 0 -45 8985 780 l 0 -90 9422 780 l 0 -45 1116 7064 l 0 -45 1554 7064 l 0 -45 1991 7064 l 0 -45 2428 7064 l
0 -90 2865 7109 l 0 -45 3302 7064 l 0 -45 3739 7064 l 0 -45 4176 7064 l 0 -45 4613 7064 l 0 -90 5051 7109 l 0 -45 5488 7064 l
0 -45 5925 7064 l 0 -45 6362 7064 l 0 -45 6799 7064 l 0 -90 7236 7109 l 0 -45 7673 7064 l 0 -45 8110 7064 l 0 -45 8548 7064 l
0 -45 8985 7064 l 0 -90 9422 7109 l -60 0 2775 672 l -6 -54 c 6 6 c 18 6 c 18 0 c 18 -6 c 12 -12 c 6 -18 c 0 -12 c -6 -18 c
-12 -12 c -18 -6 c -18 0 c -18 6 c -6 6 c -6 12 c -18 -6 2859 672 l -12 -18 c -6 -30 c 0 -18 c 6 -30 c 12 -18 c 18 -6 c 12 0 c
18 6 c 12 18 c 6 30 c 0 18 c -6 30 c -12 18 c -18 6 c -12 0 c -18 -6 2979 672 l -12 -18 c -6 -30 c 0 -18 c 6 -30 c 12 -18 c 18 -6 c
12 0 c 18 6 c 12 18 c 6 30 c 0 18 c -6 30 c -12 18 c -18 6 c -12 0 c 12 6 4847 648 l 18 18 c 0 -126 c -18 -6 4985 672 l -12 -18 c
-6 -30 c 0 -18 c 6 -30 c 12 -18 c 18 -6 c 12 0 c 18 6 c 12 18 c 6 30 c 0 18 c -6 30 c -12 18 c -18 6 c -12 0 c -18 -6 5105 672 l
-12 -18 c -6 -30 c 0 -18 c 6 -30 c 12 -18 c 18 -6 c 12 0 c 18 6 c 12 18 c 6 30 c 0 18 c -6 30 c -12 18 c -18 6 c -12 0 c
-18 -6 5225 672 l -12 -18 c -6 -30 c 0 -18 c 6 -30 c 12 -18 c 18 -6 c 12 0 c 18 6 c 12 18 c 6 30 c 0 18 c -6 30 c -12 18 c -18 6 c
-12 0 c 12 6 7032 648 l 18 18 c 0 -126 c -60 0 7206 672 l -6 -54 c 6 6 c 18 6 c 18 0 c 18 -6 c 12 -12 c 6 -18 c 0 -12 c -6 -18 c
-12 -12 c -18 -6 c -18 0 c -18 6 c -6 6 c -6 12 c -18 -6 7290 672 l -12 -18 c -6 -30 c 0 -18 c 6 -30 c 12 -18 c 18 -6 c 12 0 c
18 6 c 12 18 c 6 30 c 0 18 c -6 30 c -12 18 c -18 6 c -12 0 c -18 -6 7410 672 l -12 -18 c -6 -30 c 0 -18 c 6 -30 c 12 -18 c 18 -6 c
12 0 c 18 6 c 12 18 c 6 30 c 0 18 c -6 30 c -12 18 c -18 6 c -12 0 c 0 6 9206 642 l 6 12 c 6 6 c 12 6 c 24 0 c 12 -6 c 6 -6 c
6 -12 c 0 -12 c -6 -12 c -12 -18 c -60 -60 c 84 0 c -18 -6 9356 672 l -12 -18 c -6 -30 c 0 -18 c 6 -30 c 12 -18 c 18 -6 c 12 0 c
18 6 c 12 18 c 6 30 c 0 18 c -6 30 c -12 18 c -18 6 c -12 0 c -18 -6 9476 672 l -12 -18 c -6 -30 c 0 -18 c 6 -30 c 12 -18 c 18 -6 c
12 0 c 18 6 c 12 18 c 6 30 c 0 18 c -6 30 c -12 18 c -18 6 c -12 0 c -18 -6 9596 672 l -12 -18 c -6 -30 c 0 -18 c 6 -30 c 12 -18 c
18 -6 c 12 0 c 18 6 c 12 18 c 6 30 c 0 18 c -6 30 c -12 18 c -18 6 c -12 0 c -90 0 780 812 l -45 0 780 1218 l -45 0 780 1624 l
-45 0 780 2030 l -45 0 780 2436 l -90 0 780 2843 l -45 0 780 3249 l -45 0 780 3655 l -45 0 780 4061 l -45 0 780 4467 l
-90 0 780 4874 l -45 0 780 5280 l -45 0 780 5686 l -45 0 780 6092 l -45 0 780 6498 l -90 0 780 6905 l -90 0 9809 812 l
-45 0 9764 1218 l -45 0 9764 1624 l -45 0 9764 2030 l -45 0 9764 2436 l -90 0 9809 2843 l -45 0 9764 3249 l -45 0 9764 3655 l
-45 0 9764 4061 l -45 0 9764 4467 l -90 0 9809 4874 l -45 0 9764 5280 l -45 0 9764 5686 l -45 0 9764 6092 l -45 0 9764 6498 l
-90 0 9809 6905 l 6 -18 517 806 l 18 -12 c 30 -6 c 18 0 c 30 6 c 18 12 c 6 18 c 0 12 c -6 18 c -18 12 c -30 6 c -18 0 c -30 -6 c
-18 -12 c -6 -18 c 0 -12 c -6 12 541 2723 l -18 18 c 126 0 c 6 -18 517 2861 l 18 -12 c 30 -6 c 18 0 c 30 6 c 18 12 c 6 18 c 0 12 c
-6 18 c -18 12 c -30 6 c -18 0 c -30 -6 c -18 -12 c -6 -18 c 0 -12 c 63 -45 453 2985 l 0 68 c 94 0 453 2985 l -6 0 547 4616 l
-12 6 c -6 6 c -6 12 c 0 24 c 6 12 c 6 6 c 12 6 c 12 0 c 12 -6 c 18 -12 c 60 -60 c 0 84 c 84 84 547 4736 l 84 -84 547 4820 l
-6 12 541 4880 l -18 18 c 126 0 c 6 -18 517 5018 l 18 -12 c 30 -6 c 18 0 c 30 6 c 18 12 c 6 18 c 0 12 c -6 18 c -18 12 c -30 6 c
-18 0 c -30 -6 c -18 -12 c -6 -18 c 0 -12 c 63 -45 453 5142 l 0 68 c 94 0 453 5142 l 0 66 517 6653 l 48 -36 c 0 18 c 6 12 c 6 6 c
18 6 c 12 0 c 18 -6 c 12 -12 c 6 -18 c 0 -18 c -6 -18 c -6 -6 c -12 -6 c 84 84 547 6767 l 84 -84 547 6851 l -6 12 541 6911 l
-18 18 c 126 0 c 6 -18 517 7049 l 18 -12 c 30 -6 c 18 0 c 30 6 c 18 12 c 6 18 c 0 12 c -6 18 c -18 12 c -30 6 c -18 0 c -30 -6 c
-18 -12 c -6 -18 c 0 -12 c 63 -45 453 7173 l 0 68 c 94 0 453 7173 l
4 1 780 879 l 5 0 c 4 1 c 4 3 c 5 -1 c 4 -3 c 4 -1 c 5 0 c 4 -1 c 5 0 c 4 -1 c 4 1 c 5 -1 c 4 2 c 4 1 c 5 1 c 4 -1 c 5 -1 c 4 0 c
4 -3 c 5 2 c 4 -1 c 4 1 c 5 1 c 4 1 c 5 0 c 4 -4 c 4 1 c 5 0 c 4 0 c 4 0 c 5 0 c 4 -1 c 5 2 c 4 5 c 4 14 c 5 45 c 4 32 c 4 -20 c
5 -49 c 4 -22 c 4 -2 c 5 2 c 4 2 c 5 -1 c 4 1 c 4 -2 c 5 -4 c 4 0 c 4 1 c 5 -1 c 4 1 c 5 0 c 4 1 c 4 1 c 5 0 c 4 -2 c 4 0 c 5 -2 c
4 3 c 5 1 c 4 1 c 4 1 c 5 -2 c 4 -1 c 4 1 c 5 1 c 4 1 c 5 1 c 4 0 c 4 1 c 5 -1 c 4 0 c 4 0 c 5 3 c 4 -1 c 4 -2 c 5 2 c 4 1 c 5 1 c
4 1 c 4 1 c 5 4 c 4 -83 c 4 0 c 5 154 c 4 -39 c 5 -31 c 4 -1 c 4 0 c 5 1 c 4 -3 c 4 -1 c 5 0 c 4 1 c 5 2 c 4 -1 c 4 2 c 5 0 c 4 0 c
4 1 c 5 1 c 4 1 c 5 8 c 4 12 c 4 38 c 5 131 c 4 806 c 4 1115 c 5 67 c 4 -1296 c 4 -705 c 5 -141 c 4 -2 c 5 37 c 4 116 c 4 68 c
5 -67 c 4 -130 c 4 -39 c 5 -8 c 4 -1 c 5 -1 c 4 0 c 4 -1 c 5 0 c 4 -3 c 4 3 c 5 1 c 4 1 c 5 -1 c 4 0 c 4 0 c 5 -2 c 4 1 c 4 0 c
5 4 c 4 3 c 5 -2 c 4 1 c 4 0 c 5 -2 c 4 1 c 4 2 c 5 1 c 4 2 c 4 1 c 5 1 c 4 -2 c 5 -1 c 4 0 c 4 0 c 5 6 c 4 15 c 4 7 c 5 -4 c
4 -12 c 5 -3 c 4 1 c 4 4 c 5 0 c 4 -2 c 4 2 c 5 0 c 4 -2 c 5 3 c 4 6 c 4 2 c 5 5 c 4 3 c 4 -3 c 5 -3 c 4 3 c 4 4 c 5 7 c 4 0 c
5 -4 c 4 -1 c 4 0 c 5 4 c 4 6 c 4 9 c 5 6 c 4 -3 c 5 -3 c 4 4 c 4 4 c 5 4 c 4 5 c 4 3 c 5 0 c 4 2 c 5 3 c 4 6 c 4 4 c 5 11 c 4 10 c
4 0 c 5 2 c 4 6 c 5 7 c 4 6 c 4 8 c 5 5 c 4 4 c 4 7 c 5 4 c 4 16 c 4 2 c 5 16 c 4 12 c 5 11 c 4 7 c 4 4 c 5 13 c 4 20 c 4 16 c
5 17 c 4 17 c 5 17 c 4 14 c 4 17 c 5 26 c 4 18 c 4 18 c 5 5 c 4 33 c 5 30 c 4 31 c 4 28 c 5 43 c 4 31 c 4 41 c 5 18 c 4 8 c 5 29 c
4 41 c 4 52 c 5 39 c 4 57 c 4 58 c 5 39 c 4 35 c 4 43 c 5 108 c 4 78 c 5 48 c 4 30 c 4 91 c 5 106 c 4 42 c 4 52 c 5 119 c 4 129 c
5 58 c 4 45 c 4 163 c 5 137 c 4 146 c 4 196 c 5 129 c 4 114 c 5 253 c 4 132 c 4 159 c 5 235 c 4 276 c 4 272 c 5 410 c 4 331 c
5 312 c 4 354 c 4 489 c 0 10 c 4 -331 2087 7019 l 5 -313 c 4 -325 c 4 -261 c 5 -298 c 4 -217 c 5 -290 c 4 -183 c 4 -189 c 5 -262 c
4 -128 c 4 -179 c 5 -142 c 4 32 c 4 -77 c 5 -232 c 4 -303 c 5 -128 c 4 -88 c 4 -71 c 5 -119 c 4 -133 c 4 -20 c 5 -61 c 4 -127 c
5 -108 c 4 -40 c 4 -72 c 5 -88 c 4 -64 c 4 -68 c 5 -61 c 4 -31 c 5 -61 c 4 -33 c 4 -48 c 5 -49 c 4 -49 c 4 -52 c 5 -26 c 4 -34 c
4 -55 c 5 -34 c 4 -26 c 5 -27 c 4 -29 c 4 -37 c 5 -25 c 4 -21 c 4 -23 c 5 -18 c 4 -20 c 5 -23 c 4 -18 c 4 -14 c 5 -14 c 4 -11 c
4 -16 c 5 -10 c 4 -17 c 5 -7 c 4 -12 c 4 -12 c 5 -7 c 4 -7 c 4 -7 c 5 -7 c 4 -14 c 5 -7 c 4 -2 c 4 2 c 5 3 c 4 -2 c 4 -9 c 5 -10 c
4 -6 c 4 2 c 5 -6 c 4 -5 c 5 1 c 4 0 c 4 -5 c 5 2 c 4 4 c 4 11 c 5 11 c 4 1 c 5 -6 c 4 -4 c 4 1 c 5 5 c 4 6 c 4 0 c 5 -2 c 4 7 c
5 7 c 4 8 c 4 6 c 5 17 c 4 21 c 4 10 c 5 1 c 4 4 c 5 6 c 4 11 c 4 18 c 5 9 c 4 13 c 4 13 c 5 11 c 4 3 c 4 19 c 5 15 c 4 35 c 5 25 c
4 26 c 4 18 c 5 28 c 4 20 c 4 17 c 5 25 c 4 41 c 5 30 c 4 51 c 4 25 c 5 24 c 4 45 c 4 52 c 5 32 c 4 43 c 5 68 c 4 60 c 4 87 c 5 28 c
4 62 c 4 88 c 5 77 c 4 88 c 5 6 c 4 76 c 4 93 c 5 67 c 4 62 c 4 156 c 5 158 c 4 65 c 4 103 c 5 134 c 4 184 c 5 120 c 4 134 c 4 194 c
5 175 c 4 97 c 4 254 c 5 93 c 4 178 c 5 295 c 4 235 c 4 134 c 5 193 c 4 330 c 4 291 c 5 405 c 3 329 c 2 -91 3038 7019 l 4 -249 c
5 -270 c 4 -379 c 4 -239 c 5 -174 c 4 -193 c 4 -272 c 5 -182 c 4 -184 c 5 -231 c 4 -181 c 4 -205 c 5 -129 c 4 -177 c 4 -180 c
5 -171 c 4 -124 c 5 -118 c 4 -94 c 4 -102 c 5 -71 c 4 -136 c 4 -103 c 5 -88 c 4 -95 c 4 -56 c 5 -73 c 4 -78 c 5 -96 c 4 -71 c
4 -76 c 5 -47 c 4 -48 c 4 -46 c 5 -30 c 4 -39 c 5 97 c 4 362 c 4 209 c 5 -121 c 4 -529 c 4 -247 c 5 -45 c 4 -39 c 5 -39 c 4 -38 c
4 -30 c 5 -20 c 4 -32 c 4 -12 c 5 -24 c 4 -15 c 5 -20 c 4 -18 c 4 -28 c 5 -16 c 4 -16 c 4 -9 c 5 -15 c 4 -11 c 4 -18 c 5 -14 c
4 -17 c 5 -10 c 4 -15 c 4 -8 c 5 -9 c 4 -12 c 4 -18 c 5 -9 c 4 -3 c 5 3 c 4 -5 c 4 -15 c 5 -14 c 4 -8 c 4 -4 c 5 -7 c 4 -5 c 5 -10 c
4 -10 c 4 -2 c 5 -2 c 4 -2 c 4 -3 c 5 -5 c 4 -4 c 5 -4 c 4 -7 c 4 -9 c 5 -7 c 4 -1 c 4 -3 c 5 16 c 4 13 c 4 -1 c 5 -27 c 4 -15 c
5 -2 c 4 21 c 4 89 c 5 44 c 4 -31 c 4 -103 c 5 -35 c 4 -3 c 5 -5 c 4 1 c 4 -2 c 5 4 c 4 -2 c 4 -3 c 5 -5 c 4 -1 c 5 0 c 4 -2 c 4 6 c
5 21 c 4 5 c 4 -12 c 5 -21 c 4 -7 c 4 0 c 5 -2 c 4 -1 c 5 -1 c 4 0 c 4 2 c 5 -2 c 4 -2 c 4 -3 c 5 -1 c 4 -1 c 5 -1 c 4 0 c 4 -1 c
5 1 c 4 1 c 4 2 c 5 -1 c 4 -1 c 5 -3 c 4 -1 c 4 -2 c 5 -1 c 4 -2 c 4 2 c 5 1 c 4 -1 c 5 -2 c 4 4 c 4 0 c 5 0 c 4 -5 c 4 -3 c 5 1 c
4 -1 c 4 -2 c 5 1 c 4 1 c 5 1 c 4 0 c 4 2 c 5 -3 c 4 -2 c 4 1 c 5 -1 c 4 3 c 5 -4 c 4 3 c 4 -3 c 5 -1 c 4 -1 c 4 4 c 5 -2 c 4 1 c
5 0 c 4 -2 c 4 -1 c 5 -3 c 4 1 c 4 3 c 5 -2 c 4 1 c 5 2 c 4 0 c 4 -1 c 5 4 c 4 10 c 4 2 c 5 -7 c 4 -11 c 4 1 c 5 1 c 4 0 c 5 0 c
4 -2 c 4 -2 c 5 2 c 4 -2 c 4 3 c 5 1 c 4 6 c 5 -5 c 4 1 c 4 5506 c 1 588 c 0 -930 3975 7019 l 5 -5131 c 4 -12 c 4 -1 c 5 7 c 4 22 c
5 279 c 4 359 c 4 47 c 5 -404 c 4 -284 c 4 -27 c 5 19 c 4 4 c 4 -18 c 5 -16 c 4 -6 c 5 0 c 4 -4 c 4 3 c 5 25 c 4 41 c 4 11 c 5 -19 c
4 -44 c 5 -11 c 4 -7 c 4 -3 c 5 1 c 4 1 c 4 -4 c 5 -1 c 4 1 c 5 -3 c 4 -3 c 4 2 c 5 0 c 4 0 c 4 -1 c 5 0 c 4 0 c 5 0 c 4 -2 c 4 -1 c
5 1 c 4 0 c 4 -3 c 5 1 c 4 -2 c 4 0 c 5 2 c 4 0 c 5 -2 c 4 3 c 4 -1 c 5 1 c 4 -3 c 4 -1 c 5 -1 c 4 2 c 5 1 c 4 -2 c 4 -1 c 5 -1 c
4 5 c 4 7 c 5 1 c 4 -10 c 5 -7 c 4 -1 c 4 4 c 5 0 c 4 1 c 4 -4 c 5 -2 c 4 -4 c 4 2 c 5 0 c 4 0 c 5 0 c 4 0 c 4 -2 c 5 -1 c 4 0 c
4 1 c 5 -1 c 4 -2 c 5 1 c 4 2 c 4 -1 c 5 2 c 4 2 c 4 1 c 2 6122 c 3 -6002 4392 7019 l 4 -113 c 5 -3 c 4 -4 c 4 -1 c 5 -1 c 4 1 c
5 -2 c 4 -2 c 4 1 c 5 0 c 4 0 c 4 0 c 5 -1 c 4 -2 c 4 1 c 5 -1 c 4 1 c 5 1 c 4 -2 c 4 0 c 5 1 c 4 1 c 4 -1 c 5 1 c 4 -1 c 5 1 c
4 3 c 4 1 c 5 -2 c 4 -5 c 4 -3 c 5 -2 c 4 1 c 5 1 c 4 0 c 4 1 c 5 0 c 4 0 c 4 -2 c 5 2 c 4 0 c 5 0 c 4 -2 c 4 -1 c 5 -1 c 4 1 c
4 1 c 5 -3 c 4 -1 c 4 0 c 5 1 c 4 1 c 5 2 c 4 2 c 4 3 c 5 -2 c 4 -1 c 4 -3 c 5 2 c 4 3 c 5 1 c 4 0 c 4 7 c 5 55 c 4 52 c 4 -9 c
5 -63 c 4 -39 c 5 -1 c 4 2 c 4 15 c 5 124 c 4 413 c 4 860 c 5 332 c 4 -491 c 5 -939 c 4 -287 c 4 -26 c 5 -2 c 4 -2 c 4 -1 c 5 -2 c
4 -1 c 4 -2 c 5 1 c 4 -3 c 5 -1 c 4 0 c 4 2 c 5 -2 c 4 0 c 4 3 c 5 -1 c 4 -2 c 5 0 c 4 0 c 4 4 c 5 42 c 4 140 c 4 83 c 5 -40 c
4 -174 c 5 -53 c 4 -4 c 4 -1 c 5 0 c 4 1 c 4 2 c 5 2 c 4 -1 c 5 -1 c 4 0 c 4 -1 c 5 0 c 4 -4 c 4 0 c 5 2 c 4 0 c 4 1 c 5 0 c 4 1 c
5 1 c 4 0 c 4 -2 c 5 0 c 4 -2 c 4 1 c 5 0 c 4 2 c 5 0 c 4 -1 c 4 0 c 5 -1 c 4 0 c 4 1 c 5 1 c 4 -2 c 5 1 c 4 2 c 4 2 c 5 -2 c 4 1 c
4 3 c 5 3 c 4 -1 c 4 -2 c 5 1 c 4 4 c 5 22 c 4 19 c 4 -1 c 5 -21 c 4 -6 c 4 5 c 5 34 c 4 97 c 5 800 c 4 2843 c 4 1297 c 5 -1213 c
4 -3108 c 4 -672 c 5 -60 c 4 41 c 5 76 c 4 22 c 4 -70 c 5 -87 c 4 -17 c 4 -3 c 5 -1 c 4 1 c 5 1 c 4 0 c 4 2 c 5 -3 c 4 -3 c 4 -1 c
5 -1 c 4 -1 c 4 -2 c 5 1 c 4 -1 c 5 -3 c 4 2 c 4 1 c 5 -2 c 4 -1 c 4 -1 c 5 0 c 4 1 c 5 -1 c 4 -3 c 4 2 c 5 -2 c 4 2 c 4 -1 c 5 2 c
4 0 c 5 1 c 4 0 c 4 0 c 5 -1 c 4 -3 c 4 1 c 5 0 c 4 -1 c 5 0 c 4 -2 c 4 1 c 5 0 c 4 -1 c 4 1 c 5 2 c 4 0 c 4 0 c 5 -1 c 4 -3 c
5 -1 c 4 2 c 4 1 c 5 -2 c 4 1 c 4 3 c 5 0 c 4 1 c 5 -4 c 4 -1 c 4 -1 c 5 -1 c 4 0 c 4 1 c 5 -1 c 4 3 c 5 -1 c 4 0 c 4 1 c 5 2 c
4 3 c 4 -6 c 5 0 c 4 -2 c 5 2 c 4 0 c 4 2 c 5 -3 c 4 0 c 4 -1 c 5 3 c 4 -1 c 4 -2 c 5 -1 c 4 3 c 5 -4 c 4 2 c 4 0 c 5 -2 c 4 3 c
4 -3 c 5 1 c 4 0 c 5 1 c 4 2 c 4 1 c 5 0 c 4 2 c 4 -2 c 5 -4 c 4 2 c 5 2 c 4 -3 c 4 1 c 5 -3 c 4 1 c 4 2 c 5 0 c 4 2 c 4 13 c 5 23 c
4 -5 c 5 -22 c 4 -11 c 4 -1 c 5 -2 c 4 0 c 4 -1 c 5 2 c 4 -1 c 5 3 c 4 3 c 4 2 c 5 -1 c 4 1 c 4 3 c 5 0 c 4 -2 c 5 7 c 4 -71 c
4 63 c 5 -7 c 4 0 c 4 1 c 5 1 c 4 -3 c 5 2 c 4 1 c 4 -1 c 5 2 c 4 -3 c 4 0 c 5 -1 c 4 0 c 4 1 c 5 0 c 4 -2 c 5 1 c 4 1 c 4 15 c
5 10 c 4 -1 c 4 -11 c 5 -9 c 4 -1 c 5 0 c 4 1 c 4 5 c 5 53 c 4 107 c 4 24 c 5 -58 c 4 -115 c 5 -16 c 4 0 c 4 -2 c 5 2 c 4 -1 c
4 -1 c 5 5 c 4 5 c 5 -1 c 4 -6 c 4 -5 c 5 0 c 4 -1 c 4 1 c 5 -4 c 4 0 c 4 2 c 5 -3 c 4 2 c 5 1 c 4 -1 c 4 0 c 5 0 c 4 2 c 4 0 c
5 -3 c 4 2 c 5 0 c 4 -2 c 4 7 c 5 4 c 4 -2 c 4 -9 c 5 -5 c 4 3 c 5 1 c 4 -3 c 4 1 c 5 0 c 4 2 c 4 -1 c 5 0 c 4 4 c 5 0 c 4 2 c
4 -1 c 5 -3 c 4 -2 c 4 1 c 5 0 c 4 -1 c 4 4 c 5 655 c 2 5498 c 2 -6101 6111 7019 l 4 -24 c 5 -5 c 4 -3 c 4 0 c 5 -6 c 4 1 c 4 -2 c
5 -1 c 4 2 c 5 -1 c 4 -1 c 4 -3 c 5 2 c 4 0 c 4 0 c 5 -3 c 4 0 c 5 0 c 4 -2 c 4 -1 c 5 3 c 4 3 c 4 -3 c 5 0 c 4 1 c 4 -1 c 5 -2 c
4 1 c 5 1 c 4 1 c 4 32 c 5 28 c 4 -2 c 4 -31 c 5 -27 c 4 -5 c 5 3 c 4 2 c 4 -1 c 5 1 c 4 -1 c 4 2 c 5 0 c 4 -2 c 5 -2 c 4 1 c 4 2 c
5 -1 c 4 2 c 4 1 c 5 0 c 4 2 c 4 0 c 5 -2 c 4 -1 c 5 1 c 4 1 c 4 0 c 5 2 c 4 -1 c 4 1 c 5 6 c 4 1 c 5 -3 c 4 -2 c 4 0 c 5 4 c 4 2 c
4 8 c 5 23 c 4 252 c 5 1516 c 4 995 c 4 -341 c 5 -1737 c 4 -624 c 4 -77 c 5 -12 c 4 -6 c 5 -1 c 4 1 c 4 -2 c 5 1 c 4 0 c 4 -3 c
5 -1 c 4 -1 c 4 0 c 5 -2 c 4 -2 c 5 3 c 4 -1 c 4 -1 c 5 -1 c 4 0 c 4 0 c 5 1 c 4 -2 c 5 1 c 4 0 c 4 -2 c 5 0 c 4 -2 c 4 2 c 5 0 c
4 0 c 5 3 c 4 -1 c 4 -2 c 5 -1 c 4 2 c 4 -62 c 5 62 c 4 1 c 5 5 c 4 11 c 4 4 c 5 -8 c 4 -13 c 4 -1 c 5 1 c 4 -1 c 4 -2 c 5 0 c 4 1 c
5 -1 c 4 1 c 4 3 c 5 0 c 4 0 c 4 0 c 5 0 c 4 5 c 5 17 c 4 200 c 4 388 c 5 112 c 4 -231 c 4 -413 c 5 -70 c 4 -7 c 5 -2 c 4 0 c 4 -3 c
5 1 c 4 2 c 4 -2 c 5 -1 c 4 0 c 5 -1 c 4 0 c 4 1 c 5 0 c 4 -1 c 4 0 c 5 2 c 4 -2 c 4 -1 c 5 2 c 4 0 c 5 1 c 4 2 c 4 -2 c 5 1 c 4 0 c
4 -1 c 5 2 c 4 0 c 5 -1 c 4 0 c 4 -1 c 5 1 c 4 11 c 4 23 c 5 2 c 4 -11 c 5 -19 c 4 -2 c 4 0 c 5 1 c 4 -4 c 4 -2 c 5 -1 c 4 1 c 5 4 c
4 8 c 4 -2 c 5 -4 c 4 -4 c 4 -1 c 5 -1 c 4 -1 c 4 -1 c 5 5 c 4 3 c 5 4 c 4 32 c 4 201 c 5 161 c 4 10 c 4 -245 c 5 -154 c 4 -10 c
5 -3 c 4 -2 c 4 -1 c 5 1 c 4 3 c 4 -1 c 5 0 c 4 -2 c 5 1 c 4 0 c 4 0 c 5 0 c 4 0 c 4 2 c 5 0 c 4 1 c 4 -4 c 5 3 c 4 -1 c 5 -3 c
4 -1 c 4 0 c 5 2 c 4 -1 c 4 1 c 5 -1 c 4 0 c 5 0 c 4 -2 c 4 0 c 5 1 c 4 -2 c 4 1 c 5 2 c 4 -1 c 5 0 c 4 1 c 4 1 c 5 1 c 4 0 c 4 0 c
5 -3 c 4 3 c 5 -1 c 4 0 c 4 0 c 5 -1 c 4 0 c 4 -1 c 5 -1 c 4 3 c 4 2 c 5 3 c 4 0 c 5 2 c 4 5 c 4 57 c 5 437 c 4 425 c 4 13 c
5 -548 c 4 -340 c 5 -46 c 4 -3 c 4 18 c 5 11 c 4 -2 c 4 -18 c 5 -12 c 4 -2 c 5 -2 c 4 0 c 4 0 c 5 0 c 4 0 c 4 0 c 5 0 c 4 1 c 5 -3 c
4 0 c 4 0 c 5 0 c 4 1 c 4 0 c 5 0 c 4 -2 c 4 0 c 5 -1 c 4 1 c 5 2 c 4 -1 c 4 -1 c 5 0 c 4 0 c 4 2 c 5 1 c 4 0 c 5 6 c 4 18 c 4 20 c
5 9 c 4 7 c 4 23 c 5 -2 c 4 -27 c 5 -44 c 4 -9 c 4 -1 c 5 -1 c 4 0 c 4 0 c 5 0 c 4 -2 c 5 0 c 4 0 c 4 -1 c 5 1 c 4 -1 c 4 0 c 5 -1 c
4 0 c 4 1 c 5 0 c 4 -1 c 5 3 c 4 -1 c 4 -1 c 5 1 c 4 -1 c 4 -1 c 5 2 c 4 2 c 5 0 c 4 -1 c 4 -2 c 5 0 c 4 -2 c 4 -1 c 5 0 c 4 1 c
5 0 c 4 1 c 4 -1 c 5 0 c 4 1 c 4 0 c 5 1 c 4 -2 c 5 1 c 4 -1 c 4 0 c 5 0 c 4 0 c 4 -1 c 5 -1 c 4 1 c 4 0 c 5 -1 c 4 -1 c 5 2 c 4 0 c
4 -1 c 5 0 c 4 1 c 4 -1 c 5 0 c 4 1 c 5 -2 c 4 1 c 4 -2 c 5 1 c 4 1 c 4 -1 c 5 0 c 4 0 c 5 -2 c 4 1 c 4 1 c 5 -2 c 4 1 c 4 1 c 5 0 c
4 0 c 4 -1 c 5 0 c 4 0 c 5 2 c 4 -1 c 4 -1 c 5 1 c 4 2 c 4 -1 c 5 0 c 4 0 c 5 0 c 4 0 c 4 -1 c 5 7 c 4 39 c 4 28 c 5 -4 c 4 -44 c
5 -24 c 4 -2 c 4 -1 c 5 2 c 4 -1 c 4 0 c 5 1 c 4 -1 c 5 1 c 4 1 c 4 0 c 5 -1 c 4 1 c 4 -1 c 5 1 c 4 12 c 4 24 c 5 5 c 4 -13 c
5 -23 c 4 -3 c 4 -2 c 5 0 c 4 0 c 4 2 c 5 3 c 4 6 c 5 28 c 4 62 c 4 46 c 5 4 c 4 -22 c 4 -4 c 5 -13 c 4 -41 c 5 -39 c 4 -13 c 4 -6 c
5 -5 c 4 0 c 4 -2 c 5 -2 c 4 0 c 5 1 c 4 -1 c 4 0 c 5 -1 c 4 0 c 4 1 c 5 -3 c 4 -1 c 4 -1 c 5 0 c 4 -2 c 5 -1 c 4 0 c 4 -1 c 5 0 c
4 1 c 4 -1 c 5 -1 c 4 1 c 5 0 c 4 0 c 4 0 c 5 1 c 4 -1 c 4 0 c 5 0 c 4 -1 c 5 1 c 4 0 c 4 0 c 5 1 c 4 -1 c 4 0 c 5 1 c 4 1 c 5 0 c
4 -3 c 4 0 c 5 -2 c 4 0 c 4 -1 c 5 1 c 4 1 c 4 -1 c 5 0 c 4 -1 c 5 0 c 4 1 c 4 -1 c 5 0 c 4 2 c 4 3 c 5 3 c 4 -2 c 5 -5 c 4 -1 c
4 0 c 5 1 c 4 -1 c 4 1 c 5 2 c 4 6 c 5 8 c 4 2 c 4 -3 c 5 -2 c 4 5 c 4 -2 c 5 -8 c 4 -8 c 4 1 c 5 1 c 4 0 c 5 0 c 4 -1 c 4 -2 c
5 1 c 4 0 c 4 1 c 5 2 c 4 -1 c 5 4 c 4 1 c 4 0 c 5 -2 c 4 -4 c 4 2 c 5 -3 c 4 2 c 5 1 c 4 -1 c 4 -1 c 5 2 c 4 1 c 4 -1 c 5 0 c
4 -1 c 5 0 c 4 1 c 4 -2 c 5 0 c 4 0 c 4 1 c 5 1 c 4 -1 c 4 1 c 5 0 c 4 1 c 5 0 c 4 -1 c 4 1 c 5 0 c 4 0 c 4 1 c 5 0 c 4 3 c 5 -1 c
4 1 c 4 -3 c 5 2 c 4 1 c 2 6154 c 3 -5905 8615 7019 l 4 -230 c 4 -3 c 5 -2 c 4 0 c 4 -1 c 5 -1 c 4 -1 c 5 1 c 4 -1 c 4 2 c 5 1 c
4 3 c 4 6 c 5 13 c 4 40 c 4 375 c 5 1749 c 4 1200 c 5 -382 c 4 -1985 c 4 -906 c 5 -91 c 4 -16 c 4 -6 c 5 -3 c 4 -1 c 5 -1 c 4 -1 c
4 1 c 5 0 c 4 -3 c 4 -2 c 5 0 c 4 -3 c 5 1 c 4 2 c 4 2493 c 2 3657 c 2 -6078 8812 7019 l 5 -35 c 4 -2 c 4 -5 c 5 -4 c 4 -4 c 4 1 c
5 -4 c 4 1 c 5 -1 c 4 0 c 4 -3 c 5 -1 c 4 0 c 4 -2 c 5 1 c 4 -2 c 5 -1 c 4 -2 c 4 0 c 5 -3 c 4 1 c 4 -1 c 5 1 c 4 -1 c 5 2 c 4 0 c
4 -2 c 5 1 c 4 -2 c 4 -1 c 5 -2 c 4 -1 c 5 0 c 4 -1 c 4 -2 c 5 -1 c 4 2 c 4 -2 c 5 1 c 4 1 c 4 -3 c 5 1 c 4 -2 c 5 2 c 4 -3 c 4 1 c
5 -1 c 4 1 c 4 6 c 5 7 c 4 3 c 5 -4 c 4 -9 c 4 -2 c 5 0 c 4 -1 c 4 -3 c 5 -1 c 4 -1 c 5 1 c 4 -2 c 4 0 c 5 -2 c 4 1 c 4 0 c 5 -1 c
4 0 c 4 0 c 5 0 c 4 0 c 5 -2 c 4 1 c 4 0 c 5 1 c 4 -1 c 4 0 c 5 -1 c 4 0 c 5 -1 c 4 1 c 4 1 c 5 0 c 4 -2 c 4 0 c 5 -2 c 4 2 c 5 -1 c
4 1 c 4 1 c 5 1 c 4 -1 c 4 -1 c 5 0 c 4 -2 c 5 1 c 4 0 c 4 3 c 5 -1 c 4 -1 c 4 0 c 5 1 c 4 0 c 4 -1 c 5 0 c 4 -2 c 5 -1 c 4 1 c
4 0 c 5 -1 c 4 1 c 4 1 c 5 1 c 4 0 c 5 -2 c 4 0 c 4 2 c 5 1 c 4 6 c 4 13 c 5 1 c 4 -6 c 5 -14 c 4 -3 c 4 -1 c 5 2 c 4 -1 c 4 1 c
5 -2 c 4 1 c 5 -1 c 4 0 c 4 0 c 5 0 c 4 0 c 4 -1 c 5 0 c 4 0 c 4 1 c 5 -1 c 4 1 c 5 0 c 4 0 c 4 1 c 5 -2 c 4 -1 c 4 1 c 5 1 c 4 1 c
5 2 c 4 5 c 4 0 c 5 -3 c 4 -4 c 4 0 c 5 -1 c 4 2 c 5 1 c 4 0 c 4 0 c 5 -1 c 4 -2 c 4 0 c
5 1 c 4 0 c 5 3318 c 1 2850 c 2 -6207 9542 7019 l 5 0 c 2 6207 c 2 -6063 9573 7019 l 4 -59 c 5 -3 c 4 -7 c 4 0 c 5 -2 c 4 -2 c 4 1 c
5 -3 c 4 1 c 5 -2 c 4 -2 c 4 -1 c 5 0 c 4 1 c 4 -1 c 5 -2 c 4 -1 c 5 0 c 4 0 c 4 0 c 5 -2 c 4 -2 c 4 0 c 5 2 c 4 5 c 5 3 c 4 -4 c
4 -5 c 5 -1 c 4 -3 c 4 -1 c 5 0 c 4 -1 c
0 -126 3303 418 l 54 0 3303 418 l 18 -6 c 6 -6 c 6 -12 c 0 -12 c -6 -12 c -6 -6 c -18 -6 c -54 0 c 42 -66 3345 358 l
-12 -6 3453 376 l -12 -12 c -6 -18 c 0 -12 c 6 -18 c 12 -12 c 12 -6 c 18 0 c 12 6 c 12 12 c 6 18 c 0 12 c -6 18 c -12 12 c -12 6 c
-18 0 c 24 -84 3537 376 l -24 -84 3585 376 l 24 -84 3585 376 l -24 -84 3633 376 l 108 0 3675 364 l 108 0 3675 328 l 12 6 3939 394 l
18 18 c 0 -126 c 12 6 4059 394 l 18 18 c 0 -126 c -12 -6 4287 376 l -12 -12 c -6 -18 c 0 -12 c 6 -18 c 12 -12 c 12 -6 c 18 0 c
12 6 c 12 12 c 6 18 c 0 12 c -6 18 c -12 12 c -12 6 c -18 0 c -12 0 4413 418 l -12 -6 c -6 -18 c 0 -102 c 42 0 4365 376 l
12 6 4557 394 l 18 18 c 0 -126 c -60 0 4731 418 l -6 -54 c 6 6 c 18 6 c 18 0 c 18 -6 c 12 -12 c 6 -18 c 0 -12 c -6 -18 c -12 -12 c
-18 -6 c -18 0 c -18 6 c -6 6 c -6 12 c 12 6 5181 394 l 18 18 c 0 -126 c -6 -6 5294 376 l 6 -6 c 6 6 c -6 6 c -6 -6 5294 304 l
6 -6 c 6 6 c -6 6 c -48 -126 5474 418 l 48 -126 5474 418 l 60 0 5444 334 l 0 -84 5552 376 l 6 18 5552 340 l 12 12 c 12 6 c 18 0 c
-12 12 5696 358 l -12 6 c -18 0 c -12 -6 c -12 -12 c -6 -18 c 0 -12 c 6 -18 c 12 -12 c 12 -6 c 18 0 c 12 6 c 12 12 c
108 0 5738 346 l -18 -6 5924 418 l -12 -18 c -6 -30 c 0 -18 c 6 -30 c 12 -18 c 18 -6 c 12 0 c 18 6 c 12 18 c 6 30 c 0 18 c -6 30 c
-12 18 c -18 6 c -12 0 c -60 -126 6092 418 l 84 0 6008 418 l 0 6 6134 388 l 6 12 c 6 6 c 12 6 c 24 0 c 12 -6 c 6 -6 c 6 -12 c
0 -12 c -6 -12 c -12 -18 c -60 -60 c 84 0 c -6 -6 6260 304 l 6 -6 c 6 6 c -6 6 c -12 0 6350 418 l -12 -6 c -6 -18 c 0 -102 c
42 0 6302 376 l 6 -6 6380 418 l 6 6 c -6 6 c -6 -6 c 0 -84 6386 376 l 0 -102 6440 418 l 6 -18 c 12 -6 c 12 0 c 42 0 6422 376 l
-6 12 6566 358 l -18 6 c -18 0 c -18 -6 c -6 -12 c 6 -12 c 12 -6 c 30 -6 c 12 -6 c 6 -12 c 0 -6 c -6 -12 c -18 -6 c -18 0 c -18 6 c
-6 12 c 0 -192 6896 442 l 0 -192 6902 442 l 42 0 6896 442 l 42 0 6896 250 l 0 6 6980 388 l 6 12 c 6 6 c 12 6 c 24 0 c 12 -6 c 6 -6 c
6 -12 c 0 -12 c -6 -12 c -12 -18 c -60 -60 c 84 0 c -6 -6 7106 376 l 6 -6 c 6 6 c -6 6 c -6 -6 7106 304 l 6 -6 c 6 6 c -6 6 c
0 -192 7286 442 l 0 -192 7292 442 l 42 0 7250 442 l 42 0 7250 250 l
0 -249 947 1410 l 4 -11 903 1501 l 7 -4 c 8 0 c 7 4 c 4 7 c 4 15 c 4 12 c 7 7 c 8 4 c 11 0 c 8 -4 c 3 -3 c 4 -12 c 0 -15 c -4 -11 c
-3 -4 c -8 -4 c -11 0 c -8 4 c -7 8 c -4 11 c -4 15 c -4 8 c -7 3 c -8 0 c -7 -3 c -4 -12 c 0 -15 c 4 -11 903 1580 l 11 -7 c 19 -4 c
11 0 c 19 4 c 11 7 c 4 11 c 0 8 c -4 11 c -11 8 c -19 4 c -11 0 c -19 -4 c -11 -8 c -4 -11 c 0 -8 c 4 -11 903 1652 l 7 -4 c 8 0 c
7 4 c 4 7 c 4 16 c 4 11 c 7 7 c 8 4 c 11 0 c 8 -4 c 3 -3 c 4 -12 c 0 -15 c -4 -11 c -3 -4 c -8 -4 c -11 0 c -8 4 c -7 8 c -4 11 c
-4 15 c -4 8 c -7 3 c -8 0 c -7 -3 c -4 -12 c 0 -15 c 12 -4 929 1758 l 7 -7 c 4 -12 c 0 -3 c -4 -12 c -7 -7 c -12 -4 c -3 0 c
-12 4 c -7 7 c -4 12 c 0 3 c 4 12 c 7 7 c 15 4 c 19 0 c 19 -4 c 11 -7 c 4 -12 c 0 -7 c -4 -11 c -7 -4 c 3 -4 975 1792 l 4 4 c -4 4 c
-3 -4 c 53 -38 903 1860 l 0 57 c 79 0 903 1860 l 4 -12 903 1917 l 7 -3 c 8 0 c 7 3 c 4 8 c 4 15 c 4 11 c 7 8 c 8 4 c 11 0 c 8 -4 c
3 -4 c 4 -11 c 0 -15 c -4 -12 c -3 -3 c -8 -4 c -11 0 c -8 4 c -7 7 c -4 12 c -4 15 c -4 7 c -7 4 c -8 0 c -7 -4 c -4 -11 c 0 -15 c
0 -38 903 2019 l 34 -4 c -4 4 c -4 11 c 0 12 c 4 11 c 8 8 c 11 3 c 8 0 c 11 -3 c 7 -8 c 4 -11 c 0 -12 c -4 -11 c -3 -4 c -8 -3 c
0 -250 1258 3513 l 4 -11 1215 3603 l 7 -4 c 8 0 c 7 4 c 4 7 c 4 16 c 4 11 c 7 8 c 8 3 c 11 0 c 8 -3 c 3 -4 c 4 -12 c 0 -15 c
-4 -11 c -3 -4 c -8 -4 c -11 0 c -8 4 c -7 8 c -4 11 c -4 15 c -4 8 c -7 4 c -8 0 c -7 -4 c -4 -12 c 0 -15 c 4 -12 1215 3683 l
11 -7 c 19 -4 c 11 0 c 19 4 c 11 7 c 4 12 c 0 7 c -4 12 c -11 7 c -19 4 c -11 0 c -19 -4 c -11 -7 c -4 -12 c 0 -7 c
12 -4 1241 3785 l 7 -8 c 4 -11 c 0 -4 c -4 -11 c -7 -8 c -12 -3 c -3 0 c -12 3 c -7 8 c -4 11 c 0 4 c 4 11 c 7 8 c 15 4 c 19 0 c
19 -4 c 11 -8 c 4 -11 c 0 -8 c -4 -11 c -7 -4 c 0 41 1215 3819 l 30 -22 c 0 11 c 4 7 c 4 4 c 11 4 c 8 0 c 11 -4 c 7 -7 c 4 -12 c
0 -11 c -4 -11 c -3 -4 c -8 -4 c 3 -3 1287 3894 l 4 3 c -4 4 c -3 -4 c -7 -4 1226 3974 l -4 -11 c 0 -8 c 4 -11 c 11 -8 c 19 -4 c
19 0 c 15 4 c 7 8 c 4 11 c 0 4 c -4 11 c -7 8 c -11 3 c -4 0 c -12 -3 c -7 -8 c -4 -11 c 0 -4 c 4 -11 c 7 -8 c 12 -4 c
-4 0 1234 4004 l -8 4 c -3 3 c -4 8 c 0 15 c 4 8 c 3 3 c 8 4 c 8 0 c 7 -4 c 11 -7 c 38 -38 c 0 53 c 53 -38 1215 4114 l 0 56 c
79 0 1215 4114 l 0 -249 3486 1582 l 4 -11 3442 1673 l 8 -4 c 7 0 c 8 4 c 3 7 c 4 15 c 4 12 c 8 7 c 7 4 c 11 0 c 8 -4 c 4 -4 c
4 -11 c 0 -15 c -4 -11 c -4 -4 c -8 -4 c -11 0 c -7 4 c -8 7 c -4 12 c -4 15 c -3 7 c -8 4 c -7 0 c -8 -4 c -4 -11 c 0 -15 c
-3 8 3457 1741 l -12 11 c 80 0 c -4 0 3461 1809 l -7 4 c -4 4 c -4 7 c 0 15 c 4 8 c 4 4 c 7 3 c 8 0 c 7 -3 c 12 -8 c 38 -38 c 0 53 c
-4 0 3461 1885 l -7 3 c -4 4 c -4 8 c 0 15 c 4 7 c 4 4 c 7 4 c 8 0 c 7 -4 c 12 -7 c 38 -38 c 0 53 c 4 -4 3514 1964 l 4 4 c -4 4 c
-4 -4 c 80 -38 3442 2047 l 0 53 3442 1994 l -4 0 3461 2074 l -7 3 c -4 4 c -4 8 c 0 15 c 4 7 c 4 4 c 7 4 c 8 0 c 7 -4 c 12 -7 c
38 -38 c 0 53 c 0 42 3442 2153 l 30 -23 c 0 11 c 4 8 c 4 4 c 11 3 c 8 0 c 11 -3 c 8 -8 c 4 -11 c 0 -12 c -4 -11 c -4 -4 c -8 -4 c
0 -249 4008 2096 l 3 -11 3965 2187 l 8 -4 c 7 0 c 8 4 c 4 7 c 4 15 c 3 12 c 8 7 c 7 4 c 12 0 c 7 -4 c 4 -4 c 4 -11 c 0 -15 c
-4 -11 c -4 -4 c -7 -4 c -12 0 c -7 4 c -8 7 c -3 12 c -4 15 c -4 7 c -8 4 c -7 0 c -8 -4 c -3 -11 c 0 -15 c -4 8 3980 2255 l
-11 11 c 79 0 c -3 0 3983 2323 l -8 4 c -4 4 c -3 7 c 0 15 c 3 8 c 4 4 c 8 3 c 7 0 c 8 -3 c 11 -8 c 38 -38 c 0 53 c
11 -4 3991 2444 l 8 -7 c 4 -12 c 0 -4 c -4 -11 c -8 -7 c -11 -4 c -4 0 c -11 4 c -8 7 c -3 11 c 0 4 c 3 12 c 8 7 c 15 4 c 19 0 c
19 -4 c 11 -7 c 4 -12 c 0 -7 c -4 -12 c -7 -3 c 4 -4 4036 2478 l 4 4 c -4 4 c -4 -4 c 52 -38 3965 2546 l 0 57 c 79 0 3965 2546 l
3 -11 3965 2606 l 12 -7 c 19 -4 c 11 0 c 19 4 c 11 7 c 4 11 c 0 8 c -4 11 c -11 8 c -19 4 c -11 0 c -19 -4 c -12 -8 c -3 -11 c
0 -8 c 0 -38 3965 2705 l 34 -4 c -4 4 c -4 11 c 0 12 c 4 11 c 7 8 c 12 3 c 7 0 c 12 -3 c 7 -8 c 4 -11 c 0 -12 c -4 -11 c -4 -4 c
-7 -4 c 0 -250 4722 3075 l 3 -11 4679 3165 l 8 -4 c 7 0 c 8 4 c 4 8 c 4 15 c 3 11 c 8 8 c 8 3 c 11 0 c 7 -3 c 4 -4 c 4 -11 c 0 -16 c
-4 -11 c -4 -4 c -7 -3 c -11 0 c -8 3 c -8 8 c -3 11 c -4 15 c -4 8 c -8 4 c -7 0 c -8 -4 c -3 -11 c 0 -16 c -4 8 4694 3233 l
-11 11 c 79 0 c 0 42 4679 3305 l 30 -23 c 0 12 c 4 7 c 3 4 c 12 4 c 7 0 c 12 -4 c 7 -8 c 4 -11 c 0 -11 c -4 -12 c -4 -4 c -7 -3 c
3 -11 4679 3392 l 8 -4 c 7 0 c 8 4 c 4 7 c 4 16 c 3 11 c 8 7 c 8 4 c 11 0 c 7 -4 c 4 -3 c 4 -12 c 0 -15 c -4 -11 c -4 -4 c -7 -4 c
-11 0 c -8 4 c -8 8 c -3 11 c -4 15 c -4 8 c -8 3 c -7 0 c -8 -3 c -3 -12 c 0 -15 c 4 -3 4750 3456 l 4 3 c -4 4 c -4 -4 c
53 -37 4679 3524 l 0 56 c 79 0 4679 3524 l 79 -38 4679 3615 l 0 53 4679 3562 l 0 -38 4679 3683 l 34 -3 c -4 3 c -4 12 c 0 11 c
4 11 c 7 8 c 12 4 c 7 0 c 12 -4 c 7 -8 c 4 -11 c 0 -11 c -4 -12 c -4 -3 c -7 -4 c 0 -249 4837 1587 l 4 -11 4793 1678 l 8 -4 c 7 0 c
8 4 c 4 7 c 3 16 c 4 11 c 8 7 c 7 4 c 12 0 c 7 -4 c 4 -3 c 4 -12 c 0 -15 c -4 -11 c -4 -4 c -7 -4 c -12 0 c -7 4 c -8 8 c -4 11 c
-3 15 c -4 8 c -8 3 c -7 0 c -8 -3 c -4 -12 c 0 -15 c -3 8 4808 1746 l -12 11 c 80 0 c 0 42 4793 1818 l 31 -23 c 0 11 c 3 8 c 4 4 c
11 3 c 8 0 c 11 -3 c 8 -8 c 4 -11 c 0 -12 c -4 -11 c -4 -4 c -7 -4 c 11 -4 4820 1935 l 8 -7 c 3 -11 c 0 -4 c -3 -12 c -8 -7 c
-11 -4 c -4 0 c -11 4 c -8 7 c -4 12 c 0 4 c 4 11 c 8 7 c 15 4 c 19 0 c 19 -4 c 11 -7 c 4 -11 c 0 -8 c -4 -11 c -8 -4 c
4 -4 4865 1969 l 4 4 c -4 4 c -4 -4 c 11 -4 4820 2049 l 8 -8 c 3 -11 c 0 -4 c -3 -11 c -8 -8 c -11 -4 c -4 0 c -11 4 c -8 8 c
-4 11 c 0 4 c 4 11 c 8 8 c 15 4 c 19 0 c 19 -4 c 11 -8 c 4 -11 c 0 -8 c -4 -11 c -8 -4 c 4 -12 4793 2098 l 11 -7 c 19 -4 c 12 0 c
19 4 c 11 7 c 4 12 c 0 7 c -4 12 c -11 7 c -19 4 c -12 0 c -19 -4 c -11 -7 c -4 -12 c 0 -7 c 0 42 4793 2158 l 31 -23 c 0 11 c 3 8 c
4 4 c 11 4 c 8 0 c 11 -4 c 8 -8 c 4 -11 c 0 -11 c -4 -12 c -4 -4 c -7 -3 c 0 -250 5094 6417 l 3 -12 5051 6508 l 8 -3 c 8 0 c 7 3 c
4 8 c 4 15 c 4 11 c 7 8 c 8 4 c 11 0 c 8 -4 c 3 -4 c 4 -11 c 0 -15 c -4 -12 c -3 -3 c -8 -4 c -11 0 c -8 4 c -7 7 c -4 12 c -4 15 c
-4 7 c -7 4 c -8 0 c -8 -4 c -3 -11 c 0 -15 c -4 7 5066 6576 l -11 12 c 79 0 c 53 -38 5051 6678 l 0 57 c 79 0 5051 6678 l
0 42 5051 6723 l 30 -23 c 0 11 c 4 8 c 4 4 c 11 4 c 7 0 c 12 -4 c 7 -8 c 4 -11 c 0 -11 c -4 -12 c -3 -4 c -8 -3 c 3 -4 5123 6799 l
4 4 c -4 4 c -3 -4 c -4 8 5066 6840 l -11 11 c 79 0 c 0 42 5051 6912 l 30 -23 c 0 11 c 4 8 c 4 4 c 11 4 c 7 0 c 12 -4 c 7 -8 c
4 -11 c 0 -11 c -4 -12 c -3 -4 c -8 -3 c 3 -11 5051 6999 l 8 -4 c 8 0 c 7 4 c 4 7 c 4 15 c 4 12 c 7 7 c 8 4 c 11 0 c 8 -4 c 3 -3 c
4 -12 c 0 -15 c -4 -11 c -3 -4 c -8 -4 c -11 0 c -8 4 c -7 8 c -4 11 c -4 15 c -4 8 c -7 3 c -8 0 c -8 -3 c -3 -12 c 0 -15 c
0 -249 5621 1344 l 4 -11 5577 1435 l 7 -4 c 8 0 c 7 4 c 4 7 c 4 16 c 4 11 c 7 7 c 8 4 c 11 0 c 8 -4 c 3 -3 c 4 -12 c 0 -15 c
-4 -11 c -3 -4 c -8 -4 c -11 0 c -8 4 c -7 8 c -4 11 c -4 15 c -4 8 c -7 3 c -8 0 c -7 -3 c -4 -12 c 0 -15 c -4 8 5592 1503 l
-11 11 c 79 0 c 53 -38 5577 1605 l 0 57 c 79 0 5577 1605 l 12 -4 5603 1692 l 7 -7 c 4 -11 c 0 -4 c -4 -12 c -7 -7 c -12 -4 c -3 0 c
-12 4 c -7 7 c -4 12 c 0 4 c 4 11 c 7 7 c 15 4 c 19 0 c 19 -4 c 11 -7 c 4 -11 c 0 -8 c -4 -11 c -7 -4 c 3 -4 5649 1726 l 4 4 c
-4 4 c -3 -4 c 79 -37 5577 1809 l 0 53 5577 1756 l 4 -12 5577 1855 l 11 -7 c 19 -4 c 11 0 c 19 4 c 11 7 c 4 12 c 0 7 c -4 12 c
-11 7 c -19 4 c -11 0 c -19 -4 c -11 -7 c -4 -12 c 0 -7 c -4 0 5596 1911 l -8 4 c -3 4 c -4 8 c 0 15 c 4 7 c 3 4 c 8 4 c 8 0 c
7 -4 c 11 -8 c 38 -37 c 0 53 c 0 -249 5837 1497 l 4 -11 5793 1588 l 7 -4 c 8 0 c 7 4 c 4 7 c 4 15 c 4 12 c 7 7 c 8 4 c 11 0 c 8 -4 c
4 -3 c 3 -12 c 0 -15 c -3 -11 c -4 -4 c -8 -4 c -11 0 c -8 4 c -7 8 c -4 11 c -4 15 c -4 8 c -7 3 c -8 0 c -7 -3 c -4 -12 c 0 -15 c
-4 8 5808 1656 l -11 11 c 79 0 c 0 -38 5793 1766 l 34 -4 c -4 4 c -4 11 c 0 12 c 4 11 c 8 8 c 11 3 c 8 0 c 11 -3 c 8 -8 c 3 -11 c
0 -12 c -3 -11 c -4 -4 c -8 -4 c -4 0 5812 1800 l -7 4 c -4 3 c -4 8 c 0 15 c 4 8 c 4 3 c 7 4 c 8 0 c 7 -4 c 12 -7 c 37 -38 c 0 53 c
4 -4 5865 1879 l 3 4 c -3 4 c -4 -4 c 0 41 5793 1917 l 30 -22 c 0 11 c 4 8 c 4 3 c 11 4 c 8 0 c 11 -4 c 8 -7 c 3 -11 c 0 -12 c
-3 -11 c -4 -4 c -8 -4 c 4 -12 5793 2004 l 7 -3 c 8 0 c 7 3 c 4 8 c 4 15 c 4 12 c 7 7 c 8 4 c 11 0 c 8 -4 c 4 -4 c 3 -11 c 0 -15 c
-3 -12 c -4 -3 c -8 -4 c -11 0 c -8 4 c -7 7 c -4 12 c -4 15 c -4 7 c -7 4 c -8 0 c -7 -4 c -4 -11 c 0 -15 c -4 0 5812 2064 l -7 4 c
-4 4 c -4 7 c 0 16 c 4 7 c 4 4 c 7 4 c 8 0 c 7 -4 c 12 -8 c 37 -37 c 0 52 c 0 -250 6255 1372 l 4 -11 6211 1462 l 7 -4 c 8 0 c 7 4 c
4 8 c 4 15 c 4 11 c 7 8 c 8 3 c 11 0 c 8 -3 c 4 -4 c 3 -11 c 0 -16 c -3 -11 c -4 -4 c -8 -3 c -11 0 c -8 3 c -7 8 c -4 11 c -4 15 c
-4 8 c -7 4 c -8 0 c -7 -4 c -4 -11 c 0 -16 c -4 8 6226 1530 l -11 11 c 79 0 c 0 -38 6211 1640 l 34 -4 c -4 4 c -4 12 c 0 11 c
4 11 c 8 8 c 11 4 c 8 0 c 11 -4 c 8 -8 c 3 -11 c 0 -11 c -3 -12 c -4 -4 c -8 -3 c 79 -38 6211 1723 l 0 53 6211 1670 l
4 -3 6283 1753 l 3 3 c -3 4 c -4 -4 c 0 -38 6211 1829 l 34 -4 c -4 4 c -4 12 c 0 11 c 4 11 c 8 8 c 11 4 c 8 0 c 11 -4 c 8 -8 c
3 -11 c 0 -11 c -3 -12 c -4 -4 c -8 -3 c 53 -38 6211 1897 l 0 57 c 79 0 6211 1897 l 0 42 6211 1942 l 30 -23 c 0 12 c 4 7 c 4 4 c
11 4 c 8 0 c 11 -4 c 8 -8 c 3 -11 c 0 -11 c -3 -12 c -4 -3 c -8 -4 c 0 -250 6433 4119 l 4 -12 6389 4210 l 8 -3 c 7 0 c 8 3 c 3 8 c
4 15 c 4 11 c 8 8 c 7 4 c 11 0 c 8 -4 c 4 -4 c 4 -11 c 0 -15 c -4 -12 c -4 -3 c -8 -4 c -11 0 c -7 4 c -8 7 c -4 11 c -4 16 c -3 7 c
-8 4 c -7 0 c -8 -4 c -4 -11 c 0 -15 c -3 7 6404 4278 l -12 12 c 80 0 c 0 -38 6389 4387 l 34 -3 c -4 3 c -3 12 c 0 11 c 3 11 c 8 8 c
11 4 c 8 0 c 11 -4 c 8 -8 c 4 -11 c 0 -11 c -4 -12 c -4 -3 c -8 -4 c 11 -4 6416 4467 l 8 -8 c 3 -11 c 0 -4 c -3 -11 c -8 -8 c
-11 -3 c -4 0 c -11 3 c -8 8 c -4 11 c 0 4 c 4 11 c 8 8 c 15 4 c 19 0 c 18 -4 c 12 -8 c 4 -11 c 0 -8 c -4 -11 c -8 -4 c
4 -4 6461 4501 l 4 4 c -4 3 c -4 -3 c 80 -38 6389 4584 l 0 53 6389 4531 l -4 0 6408 4610 l -7 4 c -4 4 c -4 7 c 0 16 c 4 7 c 4 4 c
7 4 c 8 0 c 7 -4 c 12 -8 c 38 -38 c 0 53 c 4 -11 6389 4701 l 8 -4 c 7 0 c 8 4 c 3 7 c 4 15 c 4 12 c 8 7 c 7 4 c 11 0 c 8 -4 c 4 -4 c
4 -11 c 0 -15 c -4 -11 c -4 -4 c -8 -4 c -11 0 c -7 4 c -8 7 c -4 12 c -4 15 c -3 7 c -8 4 c -7 0 c -8 -4 c -4 -11 c 0 -15 c
0 -249 6711 2033 l 4 -11 6667 2124 l 8 -4 c 7 0 c 8 4 c 4 7 c 3 16 c 4 11 c 8 7 c 7 4 c 12 0 c 7 -4 c 4 -3 c 4 -12 c 0 -15 c
-4 -11 c -4 -4 c -7 -4 c -12 0 c -7 4 c -8 8 c -4 11 c -3 15 c -4 8 c -8 3 c -7 0 c -8 -3 c -4 -12 c 0 -15 c -3 8 6682 2192 l
-12 11 c 80 0 c -8 -4 6679 2306 l -4 -12 c 0 -7 c 4 -11 c 11 -8 c 19 -4 c 19 0 c 15 4 c 8 8 c 4 11 c 0 4 c -4 11 c -8 8 c -11 3 c
-4 0 c -11 -3 c -8 -8 c -3 -11 c 0 -4 c 3 -11 c 8 -8 c 11 -4 c 0 41 6667 2340 l 31 -22 c 0 11 c 3 7 c 4 4 c 11 4 c 8 0 c 11 -4 c
8 -7 c 4 -12 c 0 -11 c -4 -11 c -4 -4 c -7 -4 c 4 -4 6739 2415 l 4 4 c -4 4 c -4 -4 c -3 7 6682 2457 l -12 12 c 80 0 c
-4 0 6686 2525 l -7 4 c -4 3 c -4 8 c 0 15 c 4 8 c 4 3 c 7 4 c 8 0 c 8 -4 c 11 -7 c 38 -38 c 0 53 c -3 8 6682 2608 l -12 11 c 80 0 c
0 -249 6984 1722 l 4 -11 6941 1813 l 7 -4 c 8 0 c 7 4 c 4 7 c 4 16 c 4 11 c 7 7 c 8 4 c 11 0 c 8 -4 c 3 -3 c 4 -12 c 0 -15 c
-4 -11 c -3 -4 c -8 -4 c -11 0 c -8 4 c -7 8 c -4 11 c -4 15 c -4 8 c -7 3 c -8 0 c -7 -3 c -4 -12 c 0 -15 c -4 8 6956 1881 l
-11 11 c 79 0 c -7 -4 6952 1995 l -4 -12 c 0 -7 c 4 -11 c 11 -8 c 19 -4 c 19 0 c 15 4 c 7 8 c 4 11 c 0 4 c -4 11 c -7 8 c -12 3 c
-3 0 c -12 -3 c -7 -8 c -4 -11 c 0 -4 c 4 -11 c 7 -8 c 12 -4 c -7 -4 6952 2070 l -4 -11 c 0 -7 c 4 -12 c 11 -7 c 19 -4 c 19 0 c
15 4 c 7 7 c 4 12 c 0 3 c -4 12 c -7 7 c -12 4 c -3 0 c -12 -4 c -7 -7 c -4 -12 c 0 -3 c 4 -12 c 7 -7 c 12 -4 c 3 -4 7013 2104 l
4 4 c -4 4 c -3 -4 c 53 -38 6941 2172 l 0 57 c 79 0 6941 2172 l 53 -38 6941 2248 l 0 57 c 79 0 6941 2248 l 4 -12 6941 2305 l 7 -4 c
8 0 c 7 4 c 4 8 c 4 15 c 4 11 c 7 8 c 8 4 c 11 0 c 8 -4 c 3 -4 c 4 -11 c 0 -15 c -4 -12 c -3 -4 c -8 -3 c -11 0 c -8 3 c -7 8 c
-4 11 c -4 15 c -4 8 c -7 4 c -8 0 c -7 -4 c -4 -11 c 0 -15 c 0 -250 7260 2253 l 4 -12 7216 2344 l 8 -3 c 7 0 c 8 3 c 4 8 c 3 15 c
4 11 c 8 8 c 7 4 c 12 0 c 7 -4 c 4 -4 c 4 -11 c 0 -15 c -4 -12 c -4 -3 c -7 -4 c -12 0 c -7 4 c -8 7 c -4 12 c -3 15 c -4 7 c -8 4 c
-7 0 c -8 -4 c -4 -11 c 0 -15 c -3 7 7231 2412 l -12 12 c 80 0 c -8 -4 7228 2525 l -4 -11 c 0 -7 c 4 -12 c 11 -7 c 19 -4 c 19 0 c
15 4 c 8 7 c 4 12 c 0 3 c -4 12 c -8 7 c -11 4 c -4 0 c -11 -4 c -8 -7 c -3 -12 c 0 -3 c 3 -12 c 8 -7 c 11 -4 c 11 -4 7243 2601 l
8 -8 c 4 -11 c 0 -4 c -4 -11 c -8 -8 c -11 -3 c -4 0 c -11 3 c -8 8 c -4 11 c 0 4 c 4 11 c 8 8 c 15 4 c 19 0 c 19 -4 c 11 -8 c
4 -11 c 0 -7 c -4 -12 c -8 -4 c 4 -4 7288 2635 l 4 4 c -4 4 c -4 -4 c 80 -38 7216 2718 l 0 53 7216 2665 l 4 -12 7216 2760 l 8 -4 c
7 0 c 8 4 c 4 8 c 3 15 c 4 11 c 8 8 c 7 4 c 12 0 c 7 -4 c 4 -4 c 4 -11 c 0 -15 c -4 -12 c -4 -4 c -7 -3 c -12 0 c -7 3 c -8 8 c
-4 11 c -3 15 c -4 8 c -8 4 c -7 0 c -8 -4 c -4 -11 c 0 -15 c 80 -38 7216 2869 l 0 53 7216 2816 l 0 -250 8697 4702 l
3 -11 8654 4792 l 8 -4 c 7 0 c 8 4 c 4 7 c 4 16 c 3 11 c 8 7 c 8 4 c 11 0 c 7 -4 c 4 -3 c 4 -12 c 0 -15 c -4 -11 c -4 -4 c -7 -4 c
-11 0 c -8 4 c -8 8 c -3 11 c -4 15 c -4 8 c -8 3 c -7 0 c -8 -3 c -3 -12 c 0 -15 c -4 8 8669 4860 l -11 11 c 79 0 c
3 -11 8654 4943 l 8 -4 c 7 0 c 8 4 c 4 8 c 4 15 c 3 11 c 8 8 c 8 3 c 11 0 c 7 -3 c 4 -4 c 4 -11 c 0 -16 c -4 -11 c -4 -4 c -7 -3 c
-11 0 c -8 3 c -8 8 c -3 11 c -4 15 c -4 8 c -8 4 c -7 0 c -8 -4 c -3 -11 c 0 -16 c -8 -4 8665 5049 l -3 -11 c 0 -7 c 3 -12 c
12 -7 c 19 -4 c 19 0 c 15 4 c 7 7 c 4 12 c 0 3 c -4 12 c -7 7 c -12 4 c -3 0 c -12 -4 c -7 -7 c -4 -12 c 0 -3 c 4 -12 c 7 -7 c
12 -4 c 4 -4 8725 5083 l 4 4 c -4 4 c -4 -4 c 11 -4 8680 5163 l 8 -8 c 4 -11 c 0 -4 c -4 -11 c -8 -8 c -11 -4 c -4 0 c -11 4 c
-8 8 c -3 11 c 0 4 c 3 11 c 8 8 c 15 4 c 19 0 c 19 -4 c 11 -8 c 4 -11 c 0 -8 c -4 -11 c -7 -4 c -4 8 8669 5200 l -11 11 c 79 0 c
-4 8 8669 5276 l -11 11 c 79 0 c 0 -250 9037 1317 l 4 -11 8993 1407 l 8 -4 c 7 0 c 8 4 c 3 7 c 4 16 c 4 11 c 8 8 c 7 3 c 11 0 c
8 -3 c 4 -4 c 4 -12 c 0 -15 c -4 -11 c -4 -4 c -8 -4 c -11 0 c -7 4 c -8 8 c -4 11 c -4 15 c -3 8 c -8 4 c -7 0 c -8 -4 c -4 -12 c
0 -15 c -3 8 9008 1475 l -12 11 c 80 0 c 11 -4 9020 1589 l 8 -8 c 3 -11 c 0 -4 c -3 -11 c -8 -8 c -11 -3 c -4 0 c -11 3 c -8 8 c
-4 11 c 0 4 c 4 11 c 8 8 c 15 4 c 19 0 c 18 -4 c 12 -8 c 4 -11 c 0 -8 c -4 -11 c -8 -4 c 4 -12 8993 1638 l 11 -7 c 19 -4 c 12 0 c
18 4 c 12 7 c 4 12 c 0 7 c -4 12 c -12 7 c -18 4 c -12 0 c -19 -4 c -11 -7 c -4 -12 c 0 -7 c 4 -3 9065 1698 l 4 3 c -4 4 c -4 -4 c
4 -11 8993 1747 l 8 -4 c 7 0 c 8 4 c 3 8 c 4 15 c 4 11 c 8 8 c 7 3 c 11 0 c 8 -3 c 4 -4 c 4 -11 c 0 -16 c -4 -11 c -4 -4 c -8 -3 c
-11 0 c -7 3 c -8 8 c -4 11 c -4 15 c -3 8 c -8 4 c -7 0 c -8 -4 c -4 -11 c 0 -16 c 4 -11 8993 1823 l 8 -4 c 7 0 c 8 4 c 3 7 c
4 15 c 4 12 c 8 7 c 7 4 c 11 0 c 8 -4 c 4 -4 c 4 -11 c 0 -15 c -4 -11 c -4 -4 c -8 -4 c -11 0 c -7 4 c -8 7 c -4 12 c -4 15 c -3 7 c
-8 4 c -7 0 c -8 -4 c -4 -11 c 0 -15 c 0 -38 8993 1925 l 34 -4 c -4 4 c -3 12 c 0 11 c 3 11 c 8 8 c 11 4 c 8 0 c 11 -4 c 8 -8 c
4 -11 c 0 -11 c -4 -12 c -4 -4 c -8 -3 c 0 -250 9338 1311 l 4 -12 9294 1402 l 7 -3 c 8 0 c 7 3 c 4 8 c 4 15 c 4 11 c 7 8 c 8 4 c
11 0 c 8 -4 c 4 -4 c 3 -11 c 0 -15 c -3 -12 c -4 -3 c -8 -4 c -11 0 c -8 4 c -7 7 c -4 11 c -4 16 c -4 7 c -7 4 c -8 0 c -7 -4 c
-4 -11 c 0 -15 c -4 7 9309 1470 l -11 12 c 79 0 c 12 -4 9320 1583 l 7 -7 c 4 -12 c 0 -3 c -4 -12 c -7 -7 c -12 -4 c -3 0 c -12 4 c
-7 7 c -4 12 c 0 3 c 4 12 c 7 7 c 15 4 c 19 0 c 19 -4 c 12 -7 c 3 -12 c 0 -7 c -3 -12 c -8 -3 c 53 -37 9294 1647 l 0 56 c
79 0 9294 1647 l 4 -4 9366 1693 l 3 4 c -3 3 c -4 -3 c 0 42 9294 1730 l 30 -23 c 0 12 c 4 7 c 4 4 c 11 4 c 8 0 c 11 -4 c 8 -8 c
3 -11 c 0 -11 c -3 -12 c -4 -3 c -8 -4 c 12 -4 9320 1848 l 7 -8 c 4 -11 c 0 -4 c -4 -11 c -7 -8 c -12 -4 c -3 0 c -12 4 c -7 8 c
-4 11 c 0 4 c 4 11 c 7 8 c 15 4 c 19 0 c 19 -4 c 12 -8 c 3 -11 c 0 -8 c -3 -11 c -8 -4 c 53 -38 9294 1912 l 0 57 c 79 0 9294 1912 l
showpage PGPLOT restore
 
%%Trailer
%%DocumentFonts: 
%%Pages: 1
%%EOF
