%!PS-Adobe-3.0 EPSF-3.0
%%For: tab
%%Title: PGPLOT PostScript plot
%%Creator: PGPLOT
%%CreationDate: 20-Apr-1995 17:01
%%BoundingBox: 25 18 587 774
%%DocumentFonts: (atend)
%%LanguageLevel: 1
%%Orientation: Landscape
%%Pages: (atend)
%%EndComments
%%BeginProlog
/l {moveto rlineto currentpoint stroke moveto} bind def
/c {rlineto currentpoint stroke moveto} bind def
/d {moveto 0 0 rlineto currentpoint stroke moveto} bind def
/SLW {5 mul setlinewidth} bind def
/SCF /pop load def
/BP {newpath moveto} bind def
/LP /rlineto load def
/EP {rlineto closepath eofill} bind def
/MB {gsave translate MFAC dup scale 1 setlinewidth 2 setlinecap 0 setlinejoin newpath} bind def
/ME /grestore load def
/C {0 360 arc stroke} bind def
/FC {0 360 arc fill} bind def
%%EndProlog
 
%%Page: 1 1
%%BeginPageSetup
/PGPLOT save def
0.072 0.072 scale
8150 250 translate 90 rotate
1 setlinejoin 1 setlinecap 1 SLW 1 SCF
%%EndPageSetup
0.000 setgray 1 SLW 8939 0 780 780 l 0 6239 c -8939 0 c 0 -6239 c 0 -45 1116 780 l 0 -45 1554 780 l 0 -45 1991 780 l
0 -45 2428 780 l 0 -90 2865 780 l 0 -45 3302 780 l 0 -45 3739 780 l 0 -45 4176 780 l 0 -45 4613 780 l 0 -90 5051 780 l
0 -45 5488 780 l 0 -45 5925 780 l 0 -45 6362 780 l 0 -45 6799 780 l 0 -90 7236 780 l 0 -45 7673 780 l 0 -45 8110 780 l
0 -45 8548 780 l 0 -45 8985 780 l 0 -90 9422 780 l 0 -45 1116 7064 l 0 -45 1554 7064 l 0 -45 1991 7064 l 0 -45 2428 7064 l
0 -90 2865 7109 l 0 -45 3302 7064 l 0 -45 3739 7064 l 0 -45 4176 7064 l 0 -45 4613 7064 l 0 -90 5051 7109 l 0 -45 5488 7064 l
0 -45 5925 7064 l 0 -45 6362 7064 l 0 -45 6799 7064 l 0 -90 7236 7109 l 0 -45 7673 7064 l 0 -45 8110 7064 l 0 -45 8548 7064 l
0 -45 8985 7064 l 0 -90 9422 7109 l -60 0 2775 672 l -6 -54 c 6 6 c 18 6 c 18 0 c 18 -6 c 12 -12 c 6 -18 c 0 -12 c -6 -18 c
-12 -12 c -18 -6 c -18 0 c -18 6 c -6 6 c -6 12 c -18 -6 2859 672 l -12 -18 c -6 -30 c 0 -18 c 6 -30 c 12 -18 c 18 -6 c 12 0 c
18 6 c 12 18 c 6 30 c 0 18 c -6 30 c -12 18 c -18 6 c -12 0 c -18 -6 2979 672 l -12 -18 c -6 -30 c 0 -18 c 6 -30 c 12 -18 c 18 -6 c
12 0 c 18 6 c 12 18 c 6 30 c 0 18 c -6 30 c -12 18 c -18 6 c -12 0 c 12 6 4847 648 l 18 18 c 0 -126 c -18 -6 4985 672 l -12 -18 c
-6 -30 c 0 -18 c 6 -30 c 12 -18 c 18 -6 c 12 0 c 18 6 c 12 18 c 6 30 c 0 18 c -6 30 c -12 18 c -18 6 c -12 0 c -18 -6 5105 672 l
-12 -18 c -6 -30 c 0 -18 c 6 -30 c 12 -18 c 18 -6 c 12 0 c 18 6 c 12 18 c 6 30 c 0 18 c -6 30 c -12 18 c -18 6 c -12 0 c
-18 -6 5225 672 l -12 -18 c -6 -30 c 0 -18 c 6 -30 c 12 -18 c 18 -6 c 12 0 c 18 6 c 12 18 c 6 30 c 0 18 c -6 30 c -12 18 c -18 6 c
-12 0 c 12 6 7032 648 l 18 18 c 0 -126 c -60 0 7206 672 l -6 -54 c 6 6 c 18 6 c 18 0 c 18 -6 c 12 -12 c 6 -18 c 0 -12 c -6 -18 c
-12 -12 c -18 -6 c -18 0 c -18 6 c -6 6 c -6 12 c -18 -6 7290 672 l -12 -18 c -6 -30 c 0 -18 c 6 -30 c 12 -18 c 18 -6 c 12 0 c
18 6 c 12 18 c 6 30 c 0 18 c -6 30 c -12 18 c -18 6 c -12 0 c -18 -6 7410 672 l -12 -18 c -6 -30 c 0 -18 c 6 -30 c 12 -18 c 18 -6 c
12 0 c 18 6 c 12 18 c 6 30 c 0 18 c -6 30 c -12 18 c -18 6 c -12 0 c 0 6 9206 642 l 6 12 c 6 6 c 12 6 c 24 0 c 12 -6 c 6 -6 c
6 -12 c 0 -12 c -6 -12 c -12 -18 c -60 -60 c 84 0 c -18 -6 9356 672 l -12 -18 c -6 -30 c 0 -18 c 6 -30 c 12 -18 c 18 -6 c 12 0 c
18 6 c 12 18 c 6 30 c 0 18 c -6 30 c -12 18 c -18 6 c -12 0 c -18 -6 9476 672 l -12 -18 c -6 -30 c 0 -18 c 6 -30 c 12 -18 c 18 -6 c
12 0 c 18 6 c 12 18 c 6 30 c 0 18 c -6 30 c -12 18 c -18 6 c -12 0 c -18 -6 9596 672 l -12 -18 c -6 -30 c 0 -18 c 6 -30 c 12 -18 c
18 -6 c 12 0 c 18 6 c 12 18 c 6 30 c 0 18 c -6 30 c -12 18 c -18 6 c -12 0 c -45 0 780 1197 l -45 0 780 1631 l -45 0 780 2065 l
-45 0 780 2499 l -90 0 780 2933 l -45 0 780 3367 l -45 0 780 3801 l -45 0 780 4235 l -45 0 780 4669 l -90 0 780 5103 l
-45 0 780 5538 l -45 0 780 5972 l -45 0 780 6406 l -45 0 780 6840 l -45 0 9764 1197 l -45 0 9764 1631 l -45 0 9764 2065 l
-45 0 9764 2499 l -90 0 9809 2933 l -45 0 9764 3367 l -45 0 9764 3801 l -45 0 9764 4235 l -45 0 9764 4669 l -90 0 9809 5103 l
-45 0 9764 5538 l -45 0 9764 5972 l -45 0 9764 6406 l -45 0 9764 6840 l 0 -60 517 2783 l 54 -6 c -6 6 c -6 18 c 0 18 c 6 18 c
12 12 c 18 6 c 12 0 c 18 -6 c 12 -12 c 6 -18 c 0 -18 c -6 -18 c -6 -6 c -12 -6 c 6 -18 517 2867 l 18 -12 c 30 -6 c 18 0 c 30 6 c
18 12 c 6 18 c 0 12 c -6 18 c -18 12 c -30 6 c -18 0 c -30 -6 c -18 -12 c -6 -18 c 0 -12 c 6 -18 517 2987 l 18 -12 c 30 -6 c 18 0 c
30 6 c 18 12 c 6 18 c 0 12 c -6 18 c -18 12 c -30 6 c -18 0 c -30 -6 c -18 -12 c -6 -18 c 0 -12 c 6 -18 517 3107 l 18 -12 c 30 -6 c
18 0 c 30 6 c 18 12 c 6 18 c 0 12 c -6 18 c -18 12 c -30 6 c -18 0 c -30 -6 c -18 -12 c -6 -18 c 0 -12 c -6 12 541 4983 l -18 18 c
126 0 c 6 -18 517 5121 l 18 -12 c 30 -6 c 18 0 c 30 6 c 18 12 c 6 18 c 0 12 c -6 18 c -18 12 c -30 6 c -18 0 c -30 -6 c -18 -12 c
-6 -18 c 0 -12 c 63 -45 453 5246 l 0 67 c 94 0 453 5246 l
4 -2 780 829 l 5 0 c 4 0 c 4 1 c 5 1 c 4 1 c 4 1 c 5 10 c 4 7 c 5 -8 c 4 -8 c 4 -6 c 5 -1 c 4 2 c 4 -2 c 5 -2 c 4 3 c 5 0 c 4 1 c
4 0 c 5 0 c 4 -2 c 4 -1 c 5 0 c 4 -1 c 5 0 c 4 -1 c 4 1 c 5 1 c 4 0 c 4 0 c 5 1 c 4 2 c 5 2 c 4 -1 c 4 -1 c 5 -3 c 4 -2 c 4 -1 c
5 2 c 4 0 c 4 0 c 5 0 c 4 -1 c 5 3 c 4 -1 c 4 -1 c 5 1 c 4 1 c 4 -2 c 5 3 c 4 13 c 5 10 c 4 3 c 4 3 c 5 42 c 4 39 c 4 -11 c 5 -56 c
4 -37 c 5 -8 c 4 -1 c 4 0 c 5 0 c 4 0 c 4 -1 c 5 0 c 4 -2 c 5 2 c 4 2 c 4 -1 c 5 2 c 4 -1 c 4 0 c 5 -1 c 4 -2 c 4 2 c 5 -1 c 4 -1 c
5 1 c 4 2 c 4 -2 c 5 -1 c 3 -41 c 3 40 1153 780 l 4 0 c 5 1 c 4 1 c 4 -1 c 5 -1 c 4 0 c 4 1 c 5 -1 c 4 0 c 5 1 c 4 -1 c 4 1 c 5 -1 c
4 2 c 4 0 c 5 -1 c 4 0 c 5 1 c 4 -1 c 4 2 c 5 -2 c 4 3 c 4 4 c 5 2 c 4 -1 c 4 4 c 5 17 c 4 107 c 5 172 c 4 66 c 4 -139 c 5 -159 c
4 -57 c 4 -9 c 5 1 c 4 17 c 5 71 c 4 49 c 4 -14 c 5 -73 c 4 -44 c 4 -14 c 5 -2 c 4 0 c 5 -1 c 4 2 c 4 -1 c 5 0 c 4 1 c 4 0 c 5 -1 c
4 -1 c 5 2 c 4 1 c 4 5 c 5 25 c 4 64 c 4 34 c 5 -30 c 4 -62 c 4 -31 c 5 -5 c 4 -1 c 5 2 c 4 -2 c 4 -2 c 5 -1 c 4 2 c 4 8 c 5 9 c
4 3 c 5 -9 c 4 -8 c 4 -4 c 5 0 c 4 -2 c 4 3 c 5 6 c 4 7 c 5 1 c 4 -7 c 4 -6 c 5 -4 c 4 1 c 4 0 c 5 0 c 4 -1 c 4 -1 c 5 1 c 4 -1 c
5 2 c 4 1 c 4 7 c 5 4 c 4 6 c 4 -8 c 5 -7 c 4 -3 c 5 -2 c 4 3 c 4 3 c 5 0 c 4 -2 c 4 -2 c 5 -1 c 4 -2 c 5 0 c 4 3 c 4 -1 c 5 0 c
4 1 c 4 6 c 5 14 c 4 12 c 5 -1 c 4 -15 c 4 -11 c 5 -3 c 4 -2 c 4 0 c 5 -1 c 4 -1 c 4 0 c 5 0 c 4 1 c 5 3 c 4 -2 c 4 -1 c 5 -1 c
4 2 c 4 0 c 5 0 c 4 0 c 5 0 c 4 -2 c 4 1 c 5 0 c 4 -1 c 4 1 c 5 2 c 4 4 c 5 8 c 4 2 c 4 -5 c 5 -5 c 4 -4 c 4 0 c 5 1 c 4 -4 c 5 1 c
4 5 c 4 2 c 5 2 c 4 -6 c 4 -3 c 5 -2 c 4 2 c 4 0 c 5 -1 c 4 -1 c 5 1 c 4 0 c 4 -1 c 5 0 c 4 1 c 4 0 c 5 -2 c 4 1 c 5 1 c 4 1 c 4 1 c
5 5 c 4 2 c 4 0 c 5 -4 c 4 -3 c 5 2 c 4 2 c 4 -1 c 5 -3 c 4 -3 c 4 2 c 5 3 c 4 1 c 5 1 c 4 -1 c 4 0 c 5 -2 c 4 0 c 4 -1 c 5 -2 c
4 0 c 4 1 c 5 -1 c 4 3 c 1 6198 c 0 -4583 2034 7019 l 5 -1535 c 4 -46 c 5 -4 c 4 -3 c 4 1 c 5 -3 c 4 1 c 4 -2 c 5 -3 c 4 -1 c 5 2 c
4 -2 c 4 -1 c 5 -2 c 4 0 c 4 1 c 5 -3 c 4 1 c 5 0 c 4 -1 c 4 -1 c 5 0 c 4 0 c 4 -2 c 5 2 c 4 -1 c 4 -1 c 5 1 c 4 4 c 5 20 c 4 14 c
4 1 c 5 -25 c 4 -11 c 4 -4 c 5 -1 c 4 -1 c 5 -2 c 4 2 c 4 -1 c 5 0 c 4 -2 c 4 -1 c 5 1 c 4 -2 c 5 1 c 4 0 c 4 0 c 5 0 c 4 0 c 4 0 c
5 2 c 4 -2 c 4 0 c 5 0 c 4 1 c 5 2 c 4 0 c 4 -1 c 5 2 c 4 -1 c 4 -3 c 5 3 c 4 0 c 5 -1 c 4 3 c 4 3 c 5 7 c 4 11 c 4 6 c 5 36 c
4 36 c 5 0 c 4 -50 c 4 -36 c 5 -13 c 4 -2 c 4 -2 c 5 0 c 4 1 c 5 0 c 4 -4 c 4 2 c 5 -1 c 4 2 c 4 3 c 5 -2 c 4 1 c 4 -4 c 5 -1 c
4 0 c 5 -1 c 4 -1 c 4 2 c 5 0 c 4 0 c 4 -2 c 5 2 c 4 0 c 5 0 c 4 0 c 4 -1 c 5 1 c 4 -1 c 4 -1 c 5 0 c 4 5 c 5 3 c 4 1 c 4 -3 c
5 -1 c 4 3 c 4 27 c 5 37 c 4 12 c 5 -32 c 4 -33 c 4 -15 c 5 -1 c 4 0 c 4 0 c 5 0 c 4 -1 c 4 -1 c 5 1 c 4 0 c 5 1 c 4 1 c 4 1 c 5 0 c
4 7 c 4 46 c 5 53 c 4 23 c 5 -52 c 4 -50 c 4 -23 c 5 -6 c 4 -2 c 4 0 c 5 -1 c 4 2 c 5 0 c 4 -1 c 4 2 c 5 1 c 4 -3 c 4 1 c 5 0 c
4 3 c 5 -1 c 4 -1 c 4 1 c 5 0 c 4 1 c 4 -2 c 5 -1 c 4 1 c 4 -1 c 5 0 c 4 1 c 5 -1 c 4 0 c 4 1 c 5 -1 c 4 0 c 4 -2 c 5 3 c 4 0 c
5 -1 c 4 2 c 4 7 c 5 26 c 4 36 c 4 14 c 5 -32 c 4 -31 c 5 -16 c 4 -2 c 4 -1 c 5 -1 c 4 1 c 4 0 c 5 0 c 4 1 c 5 0 c 4 1 c 4 -1 c
5 1 c 4 1 c 4 2 c 5 -2 c 4 2 c 4 0 c 5 1 c 4 0 c 2 6185 c 1 -4007 2930 7019 l 4 273 c 4 -1061 c 5 -903 c 4 -369 c 4 -41 c 5 -14 c
4 -8 c 5 -5 c 4 -2 c 4 -2 c 5 -3 c 4 -2 c 4 -1 c 5 -2 c 4 1 c 4 -3 c 5 3 c 4 21 c 5 47 c 4 33 c 4 -30 c 5 -47 c 4 -26 c 4 -6 c
5 -3 c 4 -2 c 5 -2 c 4 0 c 4 -2 c 5 1 c 4 -2 c 4 2 c 5 -2 c 4 -1 c 5 0 c 4 0 c 4 -1 c 5 0 c 4 0 c 4 -3 c 5 0 c 4 1 c 5 -2 c 4 -1 c
4 2 c 5 0 c 4 -1 c 4 0 c 5 6 c 4 18 c 4 23 c 5 9 c 4 -26 c 5 -24 c 4 -8 c 4 -2 c 5 2 c 4 5 c 4 16 c 5 9 c 4 -4 c 5 -18 c 4 -10 c
4 -3 c 5 -1 c 4 -2 c 4 1 c 5 0 c 4 0 c 5 5 c 4 6 c 4 25 c 5 25 c 4 17 c 4 -14 c 5 -20 c 4 -13 c 5 -12 c 4 -7 c 4 -7 c 5 2 c 4 6 c
4 12 c 5 2 c 4 -13 c 4 -11 c 5 -6 c 4 0 c 5 2 c 4 -2 c 4 0 c 5 1 c 4 0 c 4 1 c 5 -2 c 4 0 c 5 -1 c 4 -1 c 4 -1 c 5 1 c 4 -1 c 4 -2 c
5 1 c 4 2 c 5 0 c 4 -2 c 4 -1 c 5 2 c 4 -2 c 4 3 c 5 0 c 4 0 c 5 2 c 4 -2 c 4 0 c 5 -1 c 4 -1 c 4 1 c 5 0 c 4 -1 c 4 -1 c 5 -3 c
4 0 c 5 4 c 4 -1 c 4 0 c 5 0 c 4 2 c 4 0 c 5 -5 c 4 2 c 5 -1 c 4 0 c 4 0 c 5 3 c 4 0 c 4 -2 c 5 1 c 4 0 c 5 6 c 4 6 c 4 -2 c 5 -7 c
4 -5 c 4 -2 c 5 1 c 4 -1 c 4 0 c 5 1 c 4 -2 c 5 3 c 4 -2 c 4 0 c 5 0 c 4 0 c 4 0 c 5 0 c 4 1 c 5 0 c 4 0 c 4 -1 c 5 1 c 4 -3 c 4 3 c
5 2 c 4 3 c 5 8 c 4 8 c 4 2 c 5 8 c 4 67 c 4 78 c 5 38 c 4 -81 c 5 -90 c 4 -31 c 4 -6 c 5 -1 c 4 -2 c 4 -2 c 5 -1 c 4 2 c 4 -3 c
5 2 c 4 -1 c 5 0 c 4 0 c 4 0 c 5 0 c 4 0 c 4 -1 c 5 -1 c 4 2 c 5 0 c 4 -1 c 4 1 c 5 -1 c 4 2 c 4 2 c 5 -1 c 4 2 c 5 -3 c 4 7 c
4 23 c 5 106 c 4 102 c 4 23 c 5 -113 c 4 -104 c 5 -35 c 4 -6 c 4 -1 c 5 -1 c 4 -1 c 4 1 c 5 -1 c 4 1 c 4 10 c 5 15 c 4 10 c 5 -14 c
4 -13 c 4 -9 c 5 -2 c 4 1 c 4 -2 c 5 2 c 4 -1 c 5 0 c 4 2 c 4 1 c 5 1 c 4 -3 c 1 6190 c 2 -5924 3965 7019 l 4 -241 c 4 14 c 5 17 c
4 13 c 4 -19 c 5 -22 c 4 -15 c 5 -2 c 4 -1 c 4 -2 c 5 1 c 4 5 c 4 22 c 5 36 c 4 20 c 4 -28 c 5 -34 c 4 -18 c 5 -5 c 4 -2 c 4 -2 c
5 1 c 4 -1 c 4 -1 c 5 1 c 4 0 c 5 2 c 4 -1 c 4 -3 c 5 0 c 4 3 c 4 1 c 5 -2 c 4 -1 c 5 0 c 4 1 c 4 -1 c 5 0 c 4 0 c 4 0 c 5 0 c
4 -1 c 5 -1 c 4 1 c 4 -1 c 5 2 c 4 -2 c 4 0 c 5 -1 c 4 1 c 4 3 c 5 1 c 4 -1 c 5 0 c 4 -1 c 4 -2 c 5 0 c 4 1 c 4 -1 c 5 2 c 4 -2 c
5 1 c 4 2 c 4 1 c 5 2 c 4 2 c 4 -1 c 5 -3 c 4 -1 c 5 0 c 4 8 c 4 5 c 5 1 c 4 -7 c 4 -5 c 5 -3 c 4 -3 c 4 -1 c 5 4 c 4 -2 c 5 0 c
4 1 c 4 0 c 5 -1 c 4 2 c 4 1 c 5 -2 c 4 0 c 5 0 c 4 0 c 4 1 c 5 0 c 4 1 c 1 6187 c 0 -2689 4399 7019 l 5 -3409 c 4 -50 c 4 -5 c
5 -3 c 4 -2 c 5 -2 c 4 -2 c 4 -3 c 5 1 c 4 -3 c 4 -1 c 5 -1 c 4 -1 c 4 0 c 5 -1 c 4 -2 c 5 0 c 4 1 c 4 2 c 5 -4 c 4 0 c 4 4 c 5 7 c
4 5 c 5 -5 c 4 -7 c 4 -5 c 5 -2 c 4 -1 c 4 0 c 5 -2 c 4 4 c 5 -1 c 4 1 c 4 -2 c 5 0 c 4 -1 c 4 -2 c 5 -2 c 4 3 c 5 2 c 4 0 c 4 -3 c
5 3 c 4 -1 c 4 5 c 5 7 c 4 31 c 4 194 c 5 357 c 4 194 c 5 -185 c 4 -359 c 4 -201 c 5 -33 c 4 -8 c 4 1 c 5 -1 c 4 -4 c 5 2 c 4 -1 c
4 -3 c 5 -1 c 4 -1 c 4 3 c 5 -3 c 4 0 c 5 -4 c 4 2 c 4 -3 c 5 1 c 4 0 c 4 -4 c 5 2 c 4 3 c 5 14 c 4 36 c 4 25 c 5 -15 c 4 -36 c
4 -23 c 5 -6 c 4 1 c 4 -1 c 5 3 c 4 2 c 5 -3 c 4 -2 c 4 -3 c 5 0 c 4 -1 c 4 0 c 5 0 c 4 -1 c 5 1 c 4 0 c 4 2 c 5 -1 c 4 0 c 4 0 c
5 1 c 4 4 c 5 1 c 4 -3 c 4 -2 c 5 1 c 4 0 c 4 0 c 5 -4 c 4 -1 c 5 -1 c 4 3 c 4 6 c 5 7 c 4 3 c 4 -2 c 5 -3 c 4 -3 c 4 -3 c 5 -5 c
4 3 c 5 6 c 4 12 c 4 19 c 5 16 c 4 1 c 4 -11 c 5 -21 c 4 -9 c 5 -4 c 4 1 c 4 0 c 5 1 c 4 -4 c 4 -6 c 5 -6 c 4 -2 c 5 -1 c 4 1 c
4 -1 c 5 -1 c 4 -2 c 4 1 c 5 -1 c 4 0 c 4 -2 c 5 1 c 4 1 c 5 -1 c 4 1 c 4 -1 c 5 -1 c 4 1 c 4 -1 c 5 -1 c 4 1 c 5 0 c 4 0 c 4 0 c
5 -1 c 4 0 c 4 1 c 5 -3 c 4 1 c 5 1 c 4 0 c 4 2 c 5 1 c 4 4 c 4 3 c 5 3 c 4 -1 c 5 1 c 4 11 c 4 27 c 5 12 c 4 -18 c 4 -26 c 5 -14 c
4 -3 c 4 0 c 5 -1 c 4 1 c 5 0 c 4 1 c 4 -1 c 5 0 c 4 -2 c 4 1 c 5 -1 c 4 0 c 5 0 c 4 0 c 4 1 c 5 -1 c 4 1 c 4 -2 c 5 1 c 4 1 c 5 2 c
4 3 c 4 -1 c 5 -3 c 4 -3 c 4 0 c 5 0 c 4 0 c 5 2 c 4 0 c 4 -1 c 5 0 c 4 2 c 4 -2 c 5 2 c 4 -1 c 4 2 c 5 -1 c 4 0 c 5 0 c 4 -1 c
4 1 c 5 -1 c 4 0 c 4 0 c 5 -1 c 4 1 c 5 0 c 4 0 c 4 -1 c 5 1 c 4 0 c 4 2 c 5 2 c 4 5 c 5 3 c 4 -3 c 4 -6 c 5 -4 c 4 0 c 4 -2 c 5 2 c
4 2 c 5 0 c 4 0 c 4 1 c 5 1 c 4 5 c 4 1 c 5 -4 c 4 -4 c 4 -1 c 5 -1 c 4 2 c 5 -1 c 4 3 c 4 2 c 5 3 c 4 1 c 4 0 c 5 -4 c 4 -2 c
5 -1 c 4 0 c 4 4 c 5 4 c 4 -1 c 4 -3 c 5 -2 c 4 -1 c 5 0 c 4 0 c 4 5 c 5 4 c 4 1 c 4 -2 c 5 -4 c 4 -1 c 4 1 c 5 0 c 4 0 c 5 0 c
4 -1 c 4 3 c 5 -1 c 4 -2 c 4 1 c 5 0 c 4 1 c 5 1 c 4 0 c 4 0 c 5 2 c 4 1 c 4 0 c 5 2 c 4 0 c 5 -1 c 3 -45 c 3 46 5703 780 l 5 1 c
4 -2 c 4 6 c 5 1 c 4 1 c 5 -1 c 4 2 c 4 5 c 5 4 c 4 -1 c 4 6 c 5 7 c 4 15 c 4 38 c 5 148 c 4 955 c 5 2391 c 4 1872 c 4 -1031 c
5 -2789 c 4 -1309 c 4 -227 c 5 -39 c 4 -19 c 5 -8 c 4 -4 c 4 -3 c 5 -3 c 4 -5 c 4 -1 c 5 -3 c 4 -1 c 5 1 c 4 2 c 4 9 c 5 74 c
4 114 c 4 30 c 5 -94 c 4 -106 c 5 -31 c 4 -7 c 4 1 c 5 -2 c 4 0 c 4 -1 c 5 0 c 4 0 c 4 -2 c 5 0 c 4 -2 c 5 1 c 4 -1 c 4 1 c 5 2 c
4 -2 c 4 -3 c 5 0 c 4 -1 c 5 0 c 4 -1 c 4 0 c 5 -1 c 4 1 c 4 -2 c 5 2 c 4 -1 c 5 0 c 4 -1 c 4 2 c 5 5 c 4 12 c 4 2 c 5 -7 c 4 -11 c
5 -5 c 4 -2 c 4 2 c 5 -1 c 4 -1 c 4 3 c 5 -2 c 4 1 c 4 -1 c 5 0 c 1 6210 c 4 -6115 6104 7019 l 5 -49 c 4 0 c 5 -5 c 4 -6 c 4 -2 c
5 -3 c 4 -3 c 4 -1 c 5 1 c 4 -3 c 5 0 c 4 -1 c 4 -1 c 5 -1 c 4 0 c 4 -1 c 5 -1 c 4 1 c 5 0 c 4 -1 c 4 0 c 5 0 c 4 -2 c 4 0 c 5 0 c
4 -1 c 4 5 c 5 6 c 4 7 c 5 0 c 4 -8 c 4 -8 c 5 -2 c 4 0 c 4 1 c 5 -3 c 4 0 c 5 -1 c 4 0 c 4 0 c 5 -1 c 4 1 c 4 -2 c 5 0 c 4 5 c
5 6 c 4 2 c 4 -3 c 5 -7 c 4 -4 c 4 1 c 5 0 c 4 -1 c 4 0 c 5 2 c 4 0 c 5 0 c 4 0 c 4 -1 c 5 -1 c 4 3 c 4 2 c 5 0 c 4 -3 c 5 1 c
4 -1 c 4 -1 c 5 -1 c 4 -1 c 4 2 c 5 -1 c 4 1 c 5 0 c 4 0 c 4 1 c 5 1 c 4 1 c 4 -1 c 5 0 c 4 0 c 5 1 c 4 1 c 4 3 c 5 1 c 4 0 c 4 3 c
5 0 c 4 2 c 4 1 c 5 -2 c 4 1 c 5 2 c 4 -1 c 4 2 c 5 3 c 4 2 c 4 11 c 5 15 c 4 29 c 5 130 c 4 696 c 4 1787 c 5 1276 c 4 -837 c
4 -2096 c 5 -841 c 4 -123 c 5 -27 c 4 -14 c 4 -5 c 5 -2 c 4 -6 c 4 1 c 5 -3 c 4 0 c 5 1 c 4 -1 c 4 -1 c 5 -1 c 4 0 c 4 0 c 5 1 c
4 -2 c 4 -4 c 5 0 c 4 2 c 5 1 c 4 1 c 4 -2 c 5 1 c 4 -1 c 4 2 c 5 -2 c 4 2 c 5 2 c 4 4 c 4 0 c 5 8 c 4 37 c 4 155 c 5 224 c 4 28 c
5 -186 c 4 -223 c 4 -35 c 5 -4 c 4 -2 c 4 -1 c 5 0 c 4 3 c 5 0 c 4 3 c 4 1 c 5 4 c 4 2 c 4 4 c 5 12 c 4 19 c 4 33 c 5 143 c 4 695 c
5 2015 c 4 1915 c 4 -383 c 5 -2481 c 4 -1556 c 4 -317 c 5 -55 c 4 -21 c 5 -9 c 4 -10 c 4 -5 c 5 -3 c 4 -3 c 4 -2 c 5 -2 c 4 -2 c
5 -2 c 4 -2 c 4 2 c 5 -2 c 4 -2 c 4 0 c 5 -1 c 4 -2 c 5 1 c 4 -2 c 4 -2 c 5 0 c 4 -2 c 4 -1 c 5 -1 c 4 -1 c 4 0 c 5 0 c 4 -1 c 5 0 c
4 -2 c 4 1 c 5 -2 c 4 1 c 4 -3 c 5 1 c 4 -2 c 5 2 c 4 -1 c 4 1 c 5 0 c 4 0 c 4 0 c 5 -2 c 4 1 c 5 -2 c 4 1 c 4 -1 c 5 1 c 4 0 c
4 -1 c 5 1 c 4 -1 c 4 -2 c 5 2 c 4 -1 c 5 1 c 4 -1 c 4 0 c 5 0 c 4 -1 c 4 1 c 5 1 c 4 -1 c 5 -1 c 4 1 c 4 1 c 5 0 c 4 -2 c 4 0 c
5 0 c 4 1 c 5 0 c 4 1 c 4 0 c 5 1 c 4 -1 c 4 0 c 5 2 c 4 1 c 5 4 c 4 13 c 4 83 c 5 252 c 4 202 c 4 -80 c 5 -298 c 4 -157 c 4 -15 c
5 -4 c 4 -2 c 5 -1 c 4 0 c 4 0 c 5 0 c 4 2 c 4 -3 c 5 0 c 4 -1 c 5 2 c 4 0 c 4 1 c 5 -1 c 4 0 c 4 0 c 5 0 c 4 1 c 5 3 c 4 6 c 4 12 c
5 5 c 4 -4 c 4 -10 c 5 -10 c 4 -2 c 5 -1 c 4 -1 c 4 -1 c 5 -1 c 4 1 c 4 0 c 5 0 c 4 -1 c 4 2 c 5 0 c 4 0 c 5 0 c 4 1 c 4 -2 c 5 0 c
4 1 c 4 -1 c 5 1 c 4 -2 c 5 1 c 4 0 c 4 1 c 5 -1 c 4 1 c 4 0 c 5 1 c 4 -1 c 5 0 c 4 0 c 4 -1 c 5 2 c 4 0 c 4 0 c 5 -1 c 4 1 c 5 -2 c
4 0 c 4 2 c 5 -1 c 4 1 c 4 -1 c 5 3 c 4 2 c 4 -1 c 5 -1 c 4 1 c 5 -1 c 4 0 c 4 1 c 5 -1 c 4 2 c 4 1 c 5 3 c 4 2 c 5 6 c 4 7 c 4 16 c
5 61 c 4 248 c 4 435 c 5 263 c 4 -257 c 5 -538 c 4 -185 c 4 -33 c 5 -10 c 4 -5 c 4 -2 c 5 7 c 4 9 c 5 -4 c 4 -11 c 4 -3 c 5 6 c
4 48 c 4 204 c 5 361 c 4 64 c 4 -259 c 5 -360 c 4 -59 c 5 -9 c 4 -2 c 4 -2 c 5 0 c 4 -2 c 4 1 c 5 0 c 4 6 c 5 12 c 4 1 c 4 -10 c
5 -10 c 4 -3 c 4 0 c 5 0 c 4 -2 c 5 1 c 4 0 c 4 1 c 5 0 c 4 0 c 4 -1 c 5 -2 c 4 2 c 4 -2 c 5 4 c 4 2 c 5 1 c 4 -3 c 4 -1 c 5 -2 c
4 1 c 4 -1 c 5 -1 c 4 2 c 5 0 c 4 1 c 4 1 c 5 2 c 4 4 c 4 4 c 5 12 c 4 46 c 5 269 c 4 670 c 4 458 c 5 -256 c 4 -817 c 4 -344 c
5 -31 c 4 -11 c 5 -5 c 4 -2 c 4 0 c 5 0 c 4 0 c 4 -3 c 5 0 c 4 -1 c 4 0 c 5 0 c 4 -1 c 5 0 c 4 -1 c 4 0 c 5 -2 c 4 1 c 4 0 c 5 0 c
4 1 c 5 1 c 4 0 c 4 0 c 5 -2 c 4 1 c 4 8 c 5 17 c 4 2 c 5 -5 c 4 -20 c 4 -3 c 5 0 c 4 0 c 4 0 c 5 0 c 4 -1 c 5 2 c 4 -1 c 4 2 c
5 0 c 4 3 c 4 1 c 5 5 c 4 3 c 4 -2 c 5 -2 c 4 -2 c 5 0 c 4 0 c 4 -2 c 5 1 c 4 0 c 4 1 c 5 0 c 4 0 c 5 1 c 4 -2 c 4 0 c 5 -2 c 4 2 c
4 0 c 5 1 c 4 -1 c 5 -1 c 4 0 c 4 -1 c 5 2 c 4 2 c 4 -1 c 5 -1 c 4 1 c 5 2 c 4 -2 c 4 1 c 5 -2 c 4 -2 c 4 2 c 5 -2 c 4 3 c 4 -1 c
5 1 c 4 0 c 5 -1 c 4 1 c 4 2 c 5 9 c 4 17 c 4 8 c 5 -6 c 4 -17 c 5 -11 c 4 2 c 4 13 c 5 27 c 4 22 c 4 -13 c 5 -33 c 4 -19 c 5 -3 c
4 0 c 4 0 c 5 0 c 4 0 c 4 -2 c 5 2 c 4 -2 c 4 4 c 5 -1 c 4 0 c 5 0 c 4 0 c 4 0 c 5 0 c 4 1 c 4 0 c 5 0 c 4 0 c 5 0 c 4 2 c 4 0 c
5 2 c 4 3 c 4 8 c 5 15 c 4 1 c 5 -11 c 4 -14 c 4 -3 c 5 0 c 4 -2 c 4 0 c 5 1 c 4 0 c 5 -1 c 4 1 c 4 1 c 5 1 c 4 1 c 4 -1 c 5 -3 c
4 1 c 4 0 c 5 0 c 4 -2 c 5 1 c 4 2 c 4 -1 c 5 2 c 4 4 c 4 2 c 5 1 c 4 -1 c 5 5 c 4 12 c 4 58 c 5 302 c 4 533 c 4 265 c 5 -217 c
4 -673 c 5 -259 c 4 -21 c 4 -7 c 5 -2 c 4 -1 c 4 -1 c 5 0 c 4 -1 c 5 -3 c 4 2 c 4 -2 c 5 1 c 4 -2 c 4 1 c 5 0 c 4 1 c 4 -2 c 5 1 c
4 -1 c 5 -1 c 4 0 c 4 1 c 5 1 c 4 2 c 4 0 c 5 -1 c 4 -3 c 5 0 c 4 -1 c 4 -1 c 5 -1 c 4 2 c 4 -1 c 5 0 c 4 1 c 5 0 c 4 -1 c 4 1 c
5 -2 c 4 0 c 4 0 c 5 1 c 4 1 c 5 0 c 4 -1 c 4 1 c 5 0 c 4 -1 c 4 -1 c 5 1 c 4 -1 c 4 0 c 5 -1 c 4 1 c 5 -1 c 4 0 c 4 0 c 5 0 c 4 2 c
4 -1 c 5 1 c 4 2 c 5 -1 c 4 0 c 4 -3 c 5 2 c 4 3 c 4 1 c 5 -1 c 4 -2 c 5 0 c 4 -1 c 4 1 c 5 0 c 4 0 c 4 -1 c 5 -1 c 4 0 c 5 0 c
4 0 c 4 -1 c 5 1 c 4 1 c 4 0 c 5 0 c 4 -1 c 4 1 c 5 1 c 4 2 c 5 1 c 4 -1 c 4 -3 c 5 -1 c 4 -1 c 4 -1 c 5 1 c 4 0 c 5 0 c 4 0 c 4 3 c
5 -1 c 4 7 c 4 10 c 5 5 c 4 -6 c 5 -10 c 4 -3 c 4 -2 c 5 -2 c 4 -2 c 4 2 c 5 0 c 4 -1 c 4 1 c 5 1 c 4 -3 c 5 0 c 4 1 c 4 -2 c 5 2 c
4 0 c 4 0 c 5 1 c 4 0 c 5 0 c 4 0 c 4 1 c 5 -1 c 4 1 c 4 2 c 5 4 c 4 23 c 5 98 c 4 134 c 4 24 c 5 -114 c 4 -143 c 4 -22 c 5 -5 c
4 -2 c 5 1 c 4 0 c 4 2 c 5 -1 c 4 0 c 4 -1 c 5 -3 c 4 0 c 4 -1 c 5 1 c 4 0 c 5 0 c 4 -1 c 4 0 c 5 0 c 4 0 c 4 2 c 5 2 c 4 0 c 5 -2 c
4 -1 c 4 -1 c 5 0 c 4 -1 c 4 1 c 5 0 c 4 -2 c 5 -1 c 4 -4 c 4 0 c 5 1 c 4 0 c 4 6 c 5 2 c 4 2 c 5 0 c 4 -2 c 4 -1 c 5 1 c 4 -1 c
4 1 c 5 -1 c 4 2 c 4 -2 c 5 0 c 4 2 c 5 -1 c 4 0 c 4 -1 c 5 -1 c 4 1 c 4 0 c 5 1 c 4 0 c 5 1 c 4 0 c 4 -1 c 5 0 c 4 -1 c 4 -1 c
5 2 c 4 0 c 5 0 c 4 1 c 4 -1 c 5 1 c 4 4 c 4 9 c
5 18 c 4 10 c 5 -8 c 4 -20 c 3 -41 c 3 31 9550 780 l 4 -1 c 5 0 c 4 -2 c 4 0 c 5 2 c 4 1 c 5 -2 c 4 -1 c 4 1 c 5 0 c 4 0 c 4 0 c
5 0 c 4 0 c 5 0 c 4 0 c 4 0 c 5 0 c 4 2 c 4 1 c 5 0 c 4 2 c 5 0 c 4 -2 c 4 0 c 5 0 c 4 2 c 4 1 c 5 0 c 4 6 c 5 10 c 4 12 c 4 -5 c
5 -11 c 4 -11 c 4 10 c 5 22 c 4 3 c
0 -126 3303 418 l 54 0 3303 418 l 18 -6 c 6 -6 c 6 -12 c 0 -12 c -6 -12 c -6 -6 c -18 -6 c -54 0 c 42 -66 3345 358 l
-12 -6 3453 376 l -12 -12 c -6 -18 c 0 -12 c 6 -18 c 12 -12 c 12 -6 c 18 0 c 12 6 c 12 12 c 6 18 c 0 12 c -6 18 c -12 12 c -12 6 c
-18 0 c 24 -84 3537 376 l -24 -84 3585 376 l 24 -84 3585 376 l -24 -84 3633 376 l 108 0 3675 364 l 108 0 3675 328 l 12 6 3939 394 l
18 18 c 0 -126 c -60 -84 4101 418 l 90 0 c 0 -126 4101 418 l -12 -6 4287 376 l -12 -12 c -6 -18 c 0 -12 c 6 -18 c 12 -12 c 12 -6 c
18 0 c 12 6 c 12 12 c 6 18 c 0 12 c -6 18 c -12 12 c -12 6 c -18 0 c -12 0 4413 418 l -12 -6 c -6 -18 c 0 -102 c 42 0 4365 376 l
12 6 4557 394 l 18 18 c 0 -126 c -60 0 4731 418 l -6 -54 c 6 6 c 18 6 c 18 0 c 18 -6 c 12 -12 c 6 -18 c 0 -12 c -6 -18 c -12 -12 c
-18 -6 c -18 0 c -18 6 c -6 6 c -6 12 c 12 6 5181 394 l 18 18 c 0 -126 c -6 -6 5294 376 l 6 -6 c 6 6 c -6 6 c -6 -6 5294 304 l
6 -6 c 6 6 c -6 6 c -48 -126 5474 418 l 48 -126 5474 418 l 60 0 5444 334 l 0 -84 5552 376 l 6 18 5552 340 l 12 12 c 12 6 c 18 0 c
-12 12 5696 358 l -12 6 c -18 0 c -12 -6 c -12 -12 c -6 -18 c 0 -12 c 6 -18 c 12 -12 c 12 -6 c 18 0 c 12 6 c 12 12 c
108 0 5738 346 l -18 -6 5924 418 l -12 -18 c -6 -30 c 0 -18 c 6 -30 c 12 -18 c 18 -6 c 12 0 c 18 6 c 12 18 c 6 30 c 0 18 c -6 30 c
-12 18 c -18 6 c -12 0 c -60 -126 6092 418 l 84 0 6008 418 l 0 6 6134 388 l 6 12 c 6 6 c 12 6 c 24 0 c 12 -6 c 6 -6 c 6 -12 c
0 -12 c -6 -12 c -12 -18 c -60 -60 c 84 0 c -6 -6 6260 304 l 6 -6 c 6 6 c -6 6 c -12 0 6350 418 l -12 -6 c -6 -18 c 0 -102 c
42 0 6302 376 l 6 -6 6380 418 l 6 6 c -6 6 c -6 -6 c 0 -84 6386 376 l 0 -102 6440 418 l 6 -18 c 12 -6 c 12 0 c 42 0 6422 376 l
-6 12 6566 358 l -18 6 c -18 0 c -18 -6 c -6 -12 c 6 -12 c 12 -6 c 30 -6 c 12 -6 c 6 -12 c 0 -6 c -6 -12 c -18 -6 c -18 0 c -18 6 c
-6 12 c 0 -192 6896 442 l 0 -192 6902 442 l 42 0 6896 442 l 42 0 6896 250 l 0 6 6980 388 l 6 12 c 6 6 c 12 6 c 24 0 c 12 -6 c 6 -6 c
6 -12 c 0 -12 c -6 -12 c -12 -18 c -60 -60 c 84 0 c -6 -6 7106 376 l 6 -6 c 6 6 c -6 6 c -6 -6 7106 304 l 6 -6 c 6 6 c -6 6 c
0 -192 7286 442 l 0 -192 7292 442 l 42 0 7250 442 l 42 0 7250 250 l
0 -249 1410 1388 l 4 -11 1366 1479 l 7 -4 c 8 0 c 7 4 c 4 7 c 4 16 c 4 11 c 7 7 c 8 4 c 11 0 c 8 -4 c 4 -3 c 3 -12 c 0 -15 c
-3 -11 c -4 -4 c -8 -4 c -11 0 c -8 4 c -7 8 c -4 11 c -4 15 c -4 8 c -7 3 c -8 0 c -7 -3 c -4 -12 c 0 -15 c -7 -4 1377 1585 l
-4 -11 c 0 -8 c 4 -11 c 11 -8 c 19 -3 c 19 0 c 15 3 c 8 8 c 3 11 c 0 4 c -3 11 c -8 8 c -11 4 c -4 0 c -11 -4 c -8 -8 c -4 -11 c
0 -4 c 4 -11 c 8 -8 c 11 -3 c 4 -11 1366 1630 l 7 -4 c 8 0 c 7 4 c 4 8 c 4 15 c 4 11 c 7 8 c 8 3 c 11 0 c 8 -3 c 4 -4 c 3 -12 c
0 -15 c -3 -11 c -4 -4 c -8 -4 c -11 0 c -8 4 c -7 8 c -4 11 c -4 15 c -4 8 c -7 4 c -8 0 c -7 -4 c -4 -12 c 0 -15 c
79 -38 1366 1740 l 0 53 1366 1687 l 4 -4 1438 1770 l 3 4 c -3 4 c -4 -4 c 4 -11 1366 1819 l 7 -4 c 8 0 c 7 4 c 4 8 c 4 15 c 4 11 c
7 8 c 8 3 c 11 0 c 8 -3 c 4 -4 c 3 -12 c 0 -15 c -3 -11 c -4 -4 c -8 -4 c -11 0 c -8 4 c -7 8 c -4 11 c -4 15 c -4 8 c -7 4 c -8 0 c
-7 -4 c -4 -12 c 0 -15 c 53 -38 1366 1914 l 0 57 c 79 0 1366 1914 l 4 -12 1366 1971 l 7 -4 c 8 0 c 7 4 c 4 8 c 4 15 c 4 11 c 7 8 c
8 4 c 11 0 c 8 -4 c 4 -4 c 3 -11 c 0 -15 c -3 -12 c -4 -4 c -8 -3 c -11 0 c -8 3 c -7 8 c -4 11 c -4 15 c -4 8 c -7 4 c -8 0 c
-7 -4 c -4 -11 c 0 -15 c 0 -250 2350 1368 l 4 -11 2307 1458 l 7 -4 c 8 0 c 7 4 c 4 8 c 4 15 c 4 11 c 7 8 c 8 3 c 11 0 c 8 -3 c
3 -4 c 4 -12 c 0 -15 c -4 -11 c -3 -4 c -8 -4 c -11 0 c -8 4 c -7 8 c -4 11 c -4 15 c -4 8 c -7 4 c -8 0 c -7 -4 c -4 -12 c 0 -15 c
79 -38 2307 1568 l 0 53 2307 1515 l 4 -11 2307 1613 l 11 -8 c 19 -3 c 11 0 c 19 3 c 11 8 c 4 11 c 0 8 c -4 11 c -11 8 c -19 3 c
-11 0 c -19 -3 c -11 -8 c -4 -11 c 0 -8 c -4 7 2322 1678 l -11 11 c 79 0 c 3 -3 2379 1749 l 4 3 c -4 4 c -3 -4 c -4 7 2322 1791 l
-11 12 c 79 0 c -4 0 2326 1859 l -8 4 c -3 3 c -4 8 c 0 15 c 4 8 c 3 4 c 8 3 c 7 0 c 8 -3 c 11 -8 c 38 -38 c 0 53 c -4 8 2322 1942 l
-11 11 c 79 0 c 0 -250 2536 1344 l 4 -11 2492 1434 l 8 -4 c 7 0 c 8 4 c 4 8 c 3 15 c 4 11 c 8 8 c 7 3 c 12 0 c 7 -3 c 4 -4 c 4 -12 c
0 -15 c -4 -11 c -4 -4 c -7 -4 c -12 0 c -7 4 c -8 8 c -4 11 c -3 15 c -4 8 c -8 4 c -7 0 c -8 -4 c -4 -12 c 0 -15 c
80 -38 2492 1544 l 0 53 2492 1491 l 4 -11 2492 1589 l 12 -8 c 18 -3 c 12 0 c 19 3 c 11 8 c 4 11 c 0 8 c -4 11 c -11 8 c -19 4 c
-12 0 c -18 -4 c -12 -8 c -4 -11 c 0 -8 c 0 41 2492 1650 l 31 -22 c 0 11 c 3 8 c 4 3 c 12 4 c 7 0 c 11 -4 c 8 -7 c 4 -12 c 0 -11 c
-4 -11 c -4 -4 c -7 -4 c 4 -3 2564 1725 l 4 3 c -4 4 c -4 -4 c 80 -38 2492 1809 l 0 53 2492 1756 l 4 -11 2492 1854 l 12 -8 c 18 -4 c
12 0 c 19 4 c 11 8 c 4 11 c 0 7 c -4 12 c -11 7 c -19 4 c -12 0 c -18 -4 c -12 -7 c -4 -12 c 0 -7 c -3 0 2511 1911 l -8 3 c -4 4 c
-4 8 c 0 15 c 4 7 c 4 4 c 8 4 c 7 0 c 8 -4 c 11 -7 c 38 -38 c 0 53 c 0 -250 2619 1394 l 4 -11 2575 1484 l 8 -4 c 7 0 c 8 4 c 4 7 c
4 16 c 3 11 c 8 7 c 7 4 c 12 0 c 7 -4 c 4 -3 c 4 -12 c 0 -15 c -4 -11 c -4 -4 c -7 -4 c -12 0 c -7 4 c -8 8 c -3 11 c -4 15 c -4 8 c
-8 3 c -7 0 c -8 -3 c -4 -12 c 0 -15 c 80 -38 2575 1594 l 0 53 2575 1541 l 4 -11 2575 1639 l 12 -8 c 19 -3 c 11 0 c 19 3 c 11 8 c
4 11 c 0 8 c -4 11 c -11 8 c -19 3 c -11 0 c -19 -3 c -12 -8 c -4 -11 c 0 -8 c 53 -38 2575 1730 l 0 57 c 80 0 2575 1730 l
4 -4 2647 1775 l 4 4 c -4 4 c -4 -4 c 4 -11 2575 1824 l 8 -4 c 7 0 c 8 4 c 4 8 c 4 15 c 3 11 c 8 8 c 7 3 c 12 0 c 7 -3 c 4 -4 c
4 -12 c 0 -15 c -4 -11 c -4 -4 c -7 -4 c -12 0 c -7 4 c -8 8 c -3 11 c -4 15 c -4 8 c -8 4 c -7 0 c -8 -4 c -4 -12 c 0 -15 c
-8 -4 2587 1930 l -4 -11 c 0 -7 c 4 -12 c 12 -7 c 19 -4 c 18 0 c 16 4 c 7 7 c 4 12 c 0 3 c -4 12 c -7 7 c -12 4 c -4 0 c -11 -4 c
-7 -7 c -4 -12 c 0 -3 c 4 -12 c 7 -7 c 11 -4 c 4 -11 2575 1979 l 12 -8 c 19 -3 c 11 0 c 19 3 c 11 8 c 4 11 c 0 8 c -4 11 c -11 8 c
-19 4 c -11 0 c -19 -4 c -12 -8 c -4 -11 c 0 -8 c 0 -250 2798 1347 l 4 -12 2755 1438 l 7 -3 c 8 0 c 7 3 c 4 8 c 4 15 c 4 11 c 7 8 c
8 4 c 11 0 c 8 -4 c 3 -4 c 4 -11 c 0 -15 c -4 -12 c -3 -3 c -8 -4 c -11 0 c -8 4 c -7 7 c -4 11 c -4 16 c -4 7 c -7 4 c -8 0 c
-7 -4 c -4 -11 c 0 -15 c 79 -38 2755 1547 l 0 53 2755 1494 l 4 -12 2755 1593 l 11 -7 c 19 -4 c 11 0 c 19 4 c 11 7 c 4 12 c 0 7 c
-4 12 c -11 7 c -19 4 c -11 0 c -19 -4 c -11 -7 c -4 -12 c 0 -7 c 79 -37 2755 1698 l 0 52 2755 1646 l 3 -4 2827 1729 l 4 4 c -4 3 c
-3 -3 c 0 42 2755 1766 l 30 -23 c 0 12 c 4 7 c 4 4 c 11 4 c 8 0 c 11 -4 c 7 -8 c 4 -11 c 0 -11 c -4 -12 c -3 -3 c -8 -4 c
0 -38 2755 1880 l 34 -4 c -4 4 c -4 11 c 0 12 c 4 11 c 8 8 c 11 3 c 8 0 c 11 -3 c 7 -8 c 4 -11 c 0 -12 c -4 -11 c -3 -4 c -8 -3 c
12 -4 2781 1959 l 7 -7 c 4 -11 c 0 -4 c -4 -12 c -7 -7 c -12 -4 c -3 0 c -12 4 c -7 7 c -4 12 c 0 4 c 4 11 c 7 7 c 15 4 c 19 0 c
19 -4 c 11 -7 c 4 -11 c 0 -8 c -4 -11 c -7 -4 c 0 -250 3018 1411 l 4 -12 2974 1502 l 8 -3 c 7 0 c 8 3 c 4 8 c 3 15 c 4 11 c 8 8 c
7 4 c 12 0 c 7 -4 c 4 -4 c 4 -11 c 0 -15 c -4 -12 c -4 -3 c -7 -4 c -12 0 c -7 4 c -8 7 c -4 11 c -3 16 c -4 7 c -8 4 c -7 0 c
-8 -4 c -4 -11 c 0 -15 c 80 -37 2974 1611 l 0 53 2974 1558 l -4 8 2990 1645 l -12 11 c 80 0 c 4 -11 2974 1732 l 12 -8 c 18 -3 c
12 0 c 19 3 c 11 8 c 4 11 c 0 8 c -4 11 c -11 8 c -19 3 c -12 0 c -18 -3 c -12 -8 c -4 -11 c 0 -8 c 4 -4 3046 1793 l 4 4 c -4 3 c
-4 -3 c 53 -38 2974 1861 l 0 57 c 80 0 2974 1861 l -4 7 2990 1910 l -12 12 c 80 0 c 53 -38 2974 2012 l 0 57 c 80 0 2974 2012 l
0 -249 3686 1479 l 4 -11 3642 1570 l 7 -4 c 8 0 c 7 4 c 4 7 c 4 15 c 4 12 c 7 7 c 8 4 c 11 0 c 8 -4 c 3 -3 c 4 -12 c 0 -15 c
-4 -11 c -3 -4 c -8 -4 c -11 0 c -8 4 c -7 8 c -4 11 c -4 15 c -4 8 c -7 3 c -8 0 c -7 -3 c -4 -12 c 0 -15 c 79 -38 3642 1680 l
0 53 3642 1627 l -4 7 3657 1714 l -11 12 c 79 0 c 12 -4 3668 1827 l 7 -7 c 4 -12 c 0 -3 c -4 -12 c -7 -7 c -12 -4 c -3 0 c -12 4 c
-7 7 c -4 12 c 0 3 c 4 12 c 7 7 c 15 4 c 19 0 c 19 -4 c 11 -7 c 4 -12 c 0 -7 c -4 -11 c -7 -4 c 3 -4 3714 1861 l 4 4 c -4 4 c
-3 -4 c -7 -4 3653 1941 l -4 -12 c 0 -7 c 4 -11 c 11 -8 c 19 -4 c 19 0 c 15 4 c 7 8 c 4 11 c 0 4 c -4 11 c -7 8 c -11 3 c -4 0 c
-12 -3 c -7 -8 c -4 -11 c 0 -4 c 4 -11 c 7 -8 c 12 -4 c -4 0 3661 1971 l -8 4 c -3 3 c -4 8 c 0 15 c 4 8 c 3 3 c 8 4 c 8 0 c 7 -4 c
11 -7 c 38 -38 c 0 53 c 12 -4 3668 2092 l 7 -8 c 4 -11 c 0 -4 c -4 -11 c -7 -8 c -12 -3 c -3 0 c -12 3 c -7 8 c -4 11 c 0 4 c 4 11 c
7 8 c 15 4 c 19 0 c 19 -4 c 11 -8 c 4 -11 c 0 -8 c -4 -11 c -7 -4 c 0 -250 3834 1528 l 4 -11 3790 1618 l 7 -4 c 8 0 c 7 4 c 4 8 c
4 15 c 4 11 c 7 8 c 8 3 c 11 0 c 8 -3 c 4 -4 c 3 -11 c 0 -16 c -3 -11 c -4 -4 c -8 -3 c -11 0 c -8 3 c -7 8 c -4 11 c -4 15 c -4 8 c
-7 4 c -8 0 c -7 -4 c -4 -11 c 0 -16 c 79 -38 3790 1728 l 0 53 3790 1675 l -4 0 3809 1755 l -7 3 c -4 4 c -4 8 c 0 15 c 4 7 c 4 4 c
7 4 c 8 0 c 7 -4 c 12 -7 c 37 -38 c 0 53 c -4 7 3805 1838 l -11 12 c 79 0 c 4 -3 3862 1909 l 3 3 c -3 4 c -4 -4 c -7 -4 3801 1989 l
-4 -11 c 0 -8 c 4 -11 c 11 -8 c 19 -4 c 19 0 c 15 4 c 8 8 c 3 11 c 0 4 c -3 11 c -8 8 c -11 4 c -4 0 c -11 -4 c -8 -8 c -4 -11 c
0 -4 c 4 -11 c 8 -8 c 11 -4 c 0 -38 3790 2061 l 34 -4 c -4 4 c -4 11 c 0 12 c 4 11 c 8 7 c 11 4 c 8 0 c 11 -4 c 8 -7 c 3 -11 c
0 -12 c -3 -11 c -4 -4 c -8 -4 c 12 -4 3816 2140 l 7 -7 c 4 -12 c 0 -3 c -4 -12 c -7 -7 c -12 -4 c -3 0 c -12 4 c -7 7 c -4 12 c
0 3 c 4 12 c 7 7 c 15 4 c 19 0 c 19 -4 c 12 -7 c 3 -12 c 0 -7 c -3 -12 c -8 -3 c 0 -250 3983 1532 l 4 -12 3939 1623 l 8 -3 c 7 0 c
8 3 c 3 8 c 4 15 c 4 11 c 8 8 c 7 4 c 11 0 c 8 -4 c 4 -4 c 4 -11 c 0 -15 c -4 -12 c -4 -3 c -8 -4 c -11 0 c -7 4 c -8 7 c -4 11 c
-4 16 c -3 7 c -8 4 c -7 0 c -8 -4 c -4 -11 c 0 -15 c 80 -38 3939 1732 l 0 53 3939 1679 l -4 0 3958 1759 l -7 4 c -4 3 c -4 8 c
0 15 c 4 8 c 4 3 c 7 4 c 8 0 c 7 -4 c 12 -7 c 38 -38 c 0 53 c 0 42 3939 1838 l 30 -23 c 0 11 c 4 8 c 4 4 c 11 3 c 8 0 c 11 -3 c
8 -8 c 4 -11 c 0 -12 c -4 -11 c -4 -4 c -8 -3 c 4 -4 4011 1914 l 4 4 c -4 3 c -4 -3 c 80 -38 3939 1997 l 0 53 3939 1944 l
-3 7 3954 2031 l -12 12 c 80 0 c 4 -11 3939 2114 l 8 -4 c 7 0 c 8 4 c 3 7 c 4 15 c 4 12 c 8 7 c 7 4 c 11 0 c 8 -4 c 4 -4 c 4 -11 c
0 -15 c -4 -11 c -4 -4 c -8 -4 c -11 0 c -7 4 c -8 7 c -4 12 c -4 15 c -3 7 c -8 4 c -7 0 c -8 -4 c -4 -11 c 0 -15 c
0 -249 4032 1358 l 4 -11 3988 1449 l 7 -4 c 8 0 c 7 4 c 4 7 c 4 15 c 4 12 c 7 7 c 8 4 c 11 0 c 8 -4 c 4 -4 c 3 -11 c 0 -15 c
-3 -11 c -4 -4 c -8 -4 c -11 0 c -8 4 c -7 7 c -4 12 c -4 15 c -4 7 c -7 4 c -8 0 c -7 -4 c -4 -11 c 0 -15 c 79 -37 3988 1558 l
0 52 3988 1506 l -4 0 4007 1585 l -7 4 c -4 4 c -4 7 c 0 15 c 4 8 c 4 4 c 7 3 c 8 0 c 7 -3 c 12 -8 c 37 -38 c 0 53 c
53 -38 3988 1695 l 0 56 c 79 0 3988 1695 l 4 -4 4060 1740 l 3 4 c -3 4 c -4 -4 c 0 41 3988 1778 l 30 -22 c 0 11 c 4 8 c 4 3 c 11 4 c
8 0 c 11 -4 c 8 -7 c 3 -12 c 0 -11 c -3 -11 c -4 -4 c -8 -4 c 79 -38 3988 1899 l 0 53 3988 1846 l -7 -3 3999 1970 l -4 -12 c 0 -7 c
4 -12 c 11 -7 c 19 -4 c 19 0 c 15 4 c 8 7 c 3 12 c 0 4 c -3 11 c -8 7 c -11 4 c -4 0 c -11 -4 c -8 -7 c -4 -11 c 0 -4 c 4 -12 c
8 -7 c 11 -4 c 0 -250 4622 2065 l 3 -12 4579 2156 l 8 -3 c 8 0 c 7 3 c 4 8 c 4 15 c 3 11 c 8 8 c 8 4 c 11 0 c 7 -4 c 4 -4 c 4 -11 c
0 -15 c -4 -12 c -4 -3 c -7 -4 c -11 0 c -8 4 c -8 7 c -3 12 c -4 15 c -4 7 c -7 4 c -8 0 c -8 -4 c -3 -11 c 0 -15 c
79 -37 4579 2265 l 0 53 4579 2212 l 0 41 4579 2296 l 30 -23 c 0 12 c 4 7 c 3 4 c 12 4 c 7 0 c 12 -4 c 7 -7 c 4 -12 c 0 -11 c
-4 -11 c -4 -4 c -7 -4 c -4 0 4598 2367 l -8 4 c -4 4 c -3 7 c 0 16 c 3 7 c 4 4 c 8 4 c 7 0 c 8 -4 c 11 -8 c 38 -37 c 0 53 c
4 -4 4650 2447 l 4 4 c -4 4 c -4 -4 c 53 -38 4579 2515 l 0 57 c 79 0 4579 2515 l -4 0 4598 2556 l -8 4 c -4 4 c -3 7 c 0 16 c 3 7 c
4 4 c 8 4 c 7 0 c 8 -4 c 11 -8 c 38 -37 c 0 52 c 53 -38 4579 2666 l 0 57 c 79 0 4579 2666 l 0 -249 4741 1343 l 4 -11 4697 1434 l
8 -4 c 7 0 c 8 4 c 4 7 c 3 15 c 4 12 c 8 7 c 7 4 c 12 0 c 7 -4 c 4 -4 c 4 -11 c 0 -15 c -4 -11 c -4 -4 c -7 -4 c -12 0 c -7 4 c
-8 7 c -4 12 c -3 15 c -4 7 c -8 4 c -7 0 c -8 -4 c -4 -11 c 0 -15 c 80 -38 4697 1544 l 0 53 4697 1491 l 0 41 4697 1574 l 31 -22 c
0 11 c 3 8 c 4 3 c 11 4 c 8 0 c 11 -4 c 8 -7 c 4 -12 c 0 -11 c -4 -11 c -4 -4 c -7 -4 c 53 -38 4697 1680 l 0 56 c 80 0 4697 1680 l
4 -4 4769 1725 l 4 4 c -4 4 c -4 -4 c 4 -11 4697 1778 l 11 -8 c 19 -4 c 12 0 c 19 4 c 11 8 c 4 11 c 0 7 c -4 12 c -11 7 c -19 4 c
-12 0 c -19 -4 c -11 -7 c -4 -12 c 0 -7 c -4 0 4716 1835 l -7 3 c -4 4 c -4 8 c 0 15 c 4 7 c 4 4 c 7 4 c 8 0 c 8 -4 c 11 -7 c
38 -38 c 0 53 c 0 41 4697 1914 l 31 -22 c 0 11 c 3 8 c 4 3 c 11 4 c 8 0 c 11 -4 c 8 -7 c 4 -11 c 0 -12 c -4 -11 c -4 -4 c -7 -4 c
0 -250 5168 1311 l 4 -12 5124 1402 l 8 -3 c 7 0 c 8 3 c 4 8 c 3 15 c 4 11 c 8 8 c 7 4 c 12 0 c 7 -4 c 4 -4 c 4 -11 c 0 -15 c
-4 -12 c -4 -3 c -7 -4 c -12 0 c -7 4 c -8 7 c -4 11 c -3 16 c -4 7 c -8 4 c -7 0 c -8 -4 c -4 -11 c 0 -15 c 80 -37 5124 1511 l
0 53 5124 1458 l 0 41 5124 1542 l 31 -23 c 0 12 c 3 7 c 4 4 c 12 4 c 7 0 c 11 -4 c 8 -7 c 4 -12 c 0 -11 c -4 -11 c -4 -4 c -7 -4 c
11 -4 5151 1659 l 8 -8 c 4 -11 c 0 -4 c -4 -11 c -8 -8 c -11 -3 c -4 0 c -11 3 c -8 8 c -4 11 c 0 4 c 4 11 c 8 8 c 15 4 c 19 0 c
19 -4 c 11 -8 c 4 -11 c 0 -8 c -4 -11 c -8 -4 c 4 -4 5196 1693 l 4 4 c -4 4 c -4 -4 c 80 -38 5124 1776 l 0 53 5124 1723 l
4 -11 5124 1817 l 8 -4 c 7 0 c 8 4 c 4 8 c 3 15 c 4 11 c 8 8 c 7 3 c 12 0 c 7 -3 c 4 -4 c 4 -11 c 0 -16 c -4 -11 c -4 -4 c -7 -3 c
-12 0 c -7 3 c -8 8 c -4 11 c -3 15 c -4 8 c -8 4 c -7 0 c -8 -4 c -4 -11 c 0 -16 c -3 0 5143 1878 l -8 4 c -4 3 c -4 8 c 0 15 c
4 8 c 4 4 c 8 3 c 7 0 c 8 -3 c 11 -8 c 38 -38 c 0 53 c 0 -250 5786 6711 l 4 -11 5742 6801 l 7 -4 c 8 0 c 7 4 c 4 8 c 4 15 c 4 11 c
7 8 c 8 4 c 11 0 c 8 -4 c 4 -4 c 3 -11 c 0 -16 c -3 -11 c -4 -4 c -8 -3 c -11 0 c -8 3 c -7 8 c -4 11 c -4 15 c -4 8 c -7 4 c -8 0 c
-7 -4 c -4 -11 c 0 -16 c 79 -38 5742 6911 l 0 53 5742 6858 l 53 -38 5742 6972 l 0 56 c 79 0 5742 6972 l 4 -11 5742 7028 l 7 -4 c
8 0 c 7 4 c 4 7 c 4 16 c 4 11 c 7 8 c 8 3 c 11 0 c 8 -3 c 4 -4 c 3 -12 c 0 -15 c -3 -11 c -4 -4 c -8 -4 c -11 0 c -8 4 c -7 8 c
-4 11 c -4 15 c -4 8 c -7 4 c -8 0 c -7 -4 c -4 -12 c 0 -15 c 4 -4 5814 7093 l 3 4 c -3 3 c -4 -3 c 4 -11 5742 7145 l 11 -7 c
19 -4 c 11 0 c 19 4 c 12 7 c 3 11 c 0 8 c -3 11 c -12 8 c -19 4 c -11 0 c -19 -4 c -11 -8 c -4 -11 c 0 -8 c 0 41 5742 7206 l
30 -22 c 0 11 c 4 8 c 4 3 c 11 4 c 8 0 c 11 -4 c 8 -7 c 3 -11 c 0 -12 c -3 -11 c -4 -4 c -8 -4 c -4 8 5757 7285 l -11 11 c 79 0 c
0 -250 5871 1499 l 3 -12 5828 1590 l 8 -4 c 7 0 c 8 4 c 4 8 c 4 15 c 3 11 c 8 8 c 7 4 c 12 0 c 7 -4 c 4 -4 c 4 -11 c 0 -15 c
-4 -12 c -4 -4 c -7 -3 c -12 0 c -7 3 c -8 8 c -3 11 c -4 15 c -4 8 c -8 4 c -7 0 c -8 -4 c -3 -11 c 0 -15 c 79 -38 5828 1699 l
0 53 5828 1646 l 52 -38 5828 1760 l 0 56 c 79 0 5828 1760 l 11 -4 5854 1847 l 8 -8 c 4 -11 c 0 -4 c -4 -11 c -8 -8 c -11 -4 c -4 0 c
-11 4 c -8 8 c -3 11 c 0 4 c 3 11 c 8 8 c 15 4 c 19 0 c 19 -4 c 11 -8 c 4 -11 c 0 -8 c -4 -11 c -7 -4 c 4 -4 5899 1881 l 4 4 c
-4 3 c -4 -3 c -4 8 5843 1922 l -11 11 c 79 0 c 79 -38 5828 2039 l 0 53 5828 1986 l 3 -12 5828 2085 l 12 -7 c 19 -4 c 11 0 c 19 4 c
11 7 c 4 12 c 0 7 c -4 12 c -11 7 c -19 4 c -11 0 c -19 -4 c -12 -7 c -3 -12 c 0 -7 c 0 -249 6559 5221 l 4 -11 6515 5312 l 8 -4 c
7 0 c 8 4 c 4 7 c 3 16 c 4 11 c 8 7 c 7 4 c 12 0 c 7 -4 c 4 -3 c 4 -12 c 0 -15 c -4 -11 c -4 -4 c -7 -4 c -12 0 c -7 4 c -8 8 c
-4 11 c -3 15 c -4 8 c -8 3 c -7 0 c -8 -3 c -4 -12 c 0 -15 c 80 -38 6515 5422 l 0 53 6515 5369 l 0 -38 6515 5490 l 34 -4 c -3 4 c
-4 11 c 0 12 c 4 11 c 7 8 c 12 3 c 7 0 c 11 -3 c 8 -8 c 4 -11 c 0 -12 c -4 -11 c -4 -4 c -7 -4 c 4 -11 6515 5539 l 8 -4 c 7 0 c
8 4 c 4 7 c 3 15 c 4 12 c 8 7 c 7 4 c 12 0 c 7 -4 c 4 -4 c 4 -11 c 0 -15 c -4 -11 c -4 -4 c -7 -4 c -12 0 c -7 4 c -8 7 c -4 12 c
-3 15 c -4 7 c -8 4 c -7 0 c -8 -4 c -4 -11 c 0 -15 c 4 -4 6587 5603 l 4 4 c -4 4 c -4 -4 c -3 0 6534 5637 l -8 4 c -4 4 c -4 7 c
0 15 c 4 8 c 4 4 c 8 4 c 7 0 c 8 -4 c 11 -8 c 38 -38 c 0 53 c 53 -38 6515 5747 l 0 57 c 80 0 6515 5747 l 0 42 6515 5792 l 31 -23 c
0 11 c 3 8 c 4 4 c 12 4 c 7 0 c 11 -4 c 8 -8 c 4 -11 c 0 -11 c -4 -12 c -4 -4 c -7 -3 c 0 -250 6727 1724 l 4 -11 6684 1814 l 7 -4 c
8 0 c 7 4 c 4 8 c 4 15 c 4 11 c 7 8 c 8 3 c 11 0 c 8 -3 c 3 -4 c 4 -11 c 0 -16 c -4 -11 c -3 -4 c -8 -3 c -11 0 c -8 3 c -7 8 c
-4 11 c -4 15 c -4 8 c -7 4 c -8 0 c -7 -4 c -4 -11 c 0 -16 c 79 -38 6684 1924 l 0 53 6684 1871 l -7 -4 6695 1996 l -4 -11 c 0 -8 c
4 -11 c 11 -8 c 19 -3 c 19 0 c 15 3 c 7 8 c 4 11 c 0 4 c -4 11 c -7 8 c -11 4 c -4 0 c -12 -4 c -7 -8 c -4 -11 c 0 -4 c 4 -11 c
7 -8 c 12 -3 c 4 -11 6684 2045 l 11 -8 c 19 -4 c 11 0 c 19 4 c 11 8 c 4 11 c 0 8 c -4 11 c -11 7 c -19 4 c -11 0 c -19 -4 c -11 -7 c
-4 -11 c 0 -8 c 3 -4 6756 2106 l 4 4 c -4 3 c -3 -3 c 53 -38 6684 2174 l 0 56 c 79 0 6684 2174 l 0 -38 6684 2257 l 34 -4 c -4 4 c
-4 11 c 0 12 c 4 11 c 8 7 c 11 4 c 8 0 c 11 -4 c 7 -7 c 4 -11 c 0 -12 c -4 -11 c -3 -4 c -8 -4 c 4 -12 6684 2310 l 11 -7 c 19 -4 c
11 0 c 19 4 c 11 7 c 4 12 c 0 7 c -4 11 c -11 8 c -19 4 c -11 0 c -19 -4 c -11 -8 c -4 -11 c 0 -7 c 0 -250 6822 6122 l
4 -11 6779 6212 l 7 -4 c 8 0 c 7 4 c 4 8 c 4 15 c 4 11 c 7 8 c 8 3 c 11 0 c 8 -3 c 3 -4 c 4 -11 c 0 -16 c -4 -11 c -3 -4 c -8 -3 c
-11 0 c -8 3 c -7 8 c -4 11 c -4 15 c -4 8 c -7 4 c -8 0 c -7 -4 c -4 -11 c 0 -16 c 79 -38 6779 6322 l 0 53 6779 6269 l
-7 -4 6790 6394 l -4 -11 c 0 -8 c 4 -11 c 11 -8 c 19 -4 c 19 0 c 15 4 c 7 8 c 4 11 c 0 4 c -4 11 c -7 8 c -12 4 c -3 0 c -12 -4 c
-7 -8 c -4 -11 c 0 -4 c 4 -11 c 7 -8 c 12 -4 c -4 7 6794 6432 l -11 12 c 79 0 c 3 -3 6851 6503 l 4 3 c -4 4 c -3 -4 c
-7 -4 6790 6583 l -4 -11 c 0 -8 c 4 -11 c 11 -8 c 19 -4 c 19 0 c 15 4 c 7 8 c 4 11 c 0 4 c -4 11 c -7 8 c -12 4 c -3 0 c -12 -4 c
-7 -8 c -4 -11 c 0 -4 c 4 -11 c 7 -8 c 12 -4 c 4 -11 6779 6628 l 7 -4 c 8 0 c 7 4 c 4 7 c 4 15 c 4 12 c 7 7 c 8 4 c 11 0 c 8 -4 c
3 -3 c 4 -12 c 0 -15 c -4 -11 c -3 -4 c -8 -4 c -11 0 c -8 4 c -7 8 c -4 11 c -4 15 c -4 8 c -7 3 c -8 0 c -7 -3 c -4 -12 c 0 -15 c
-7 -4 6790 6734 l -4 -11 c 0 -8 c 4 -11 c 11 -8 c 19 -3 c 19 0 c 15 3 c 7 8 c 4 11 c 0 4 c -4 11 c -7 8 c -12 4 c -3 0 c -12 -4 c
-7 -8 c -4 -11 c 0 -4 c 4 -11 c 7 -8 c 12 -3 c 0 -250 7211 1805 l 4 -11 7167 1895 l 8 -4 c 7 0 c 8 4 c 4 7 c 3 16 c 4 11 c 8 7 c
7 4 c 12 0 c 7 -4 c 4 -3 c 4 -12 c 0 -15 c -4 -11 c -4 -4 c -7 -4 c -12 0 c -7 4 c -8 8 c -4 11 c -3 15 c -4 8 c -8 3 c -7 0 c
-8 -3 c -4 -12 c 0 -15 c 80 -38 7167 2005 l 0 53 7167 1952 l -8 -4 7179 2077 l -4 -11 c 0 -8 c 4 -11 c 11 -8 c 19 -4 c 19 0 c 15 4 c
8 8 c 4 11 c 0 4 c -4 11 c -8 8 c -11 3 c -4 0 c -11 -3 c -8 -8 c -3 -11 c 0 -4 c 3 -11 c 8 -8 c 11 -4 c -8 -4 7179 2152 l -4 -11 c
0 -7 c 4 -12 c 11 -7 c 19 -4 c 19 0 c 15 4 c 8 7 c 4 12 c 0 3 c -4 12 c -8 7 c -11 4 c -4 0 c -11 -4 c -8 -7 c -3 -12 c 0 -3 c
3 -12 c 8 -7 c 11 -4 c 4 -4 7239 2186 l 4 4 c -4 4 c -4 -4 c 80 -37 7167 2269 l 0 53 7167 2216 l 53 -38 7167 2330 l 0 57 c
80 0 7167 2330 l 0 -38 7167 2413 l 34 -4 c -3 4 c -4 12 c 0 11 c 4 11 c 7 8 c 11 4 c 8 0 c 11 -4 c 8 -8 c 4 -11 c 0 -11 c -4 -12 c
-4 -4 c -7 -3 c 0 -249 7608 2293 l 4 -11 7564 2384 l 7 -4 c 8 0 c 7 4 c 4 7 c 4 15 c 4 12 c 7 7 c 8 4 c 11 0 c 8 -4 c 4 -3 c 3 -12 c
0 -15 c -3 -11 c -4 -4 c -8 -4 c -11 0 c -8 4 c -7 8 c -4 11 c -4 15 c -4 8 c -7 3 c -8 0 c -7 -3 c -4 -12 c 0 -15 c
79 -38 7564 2494 l 0 53 7564 2441 l 79 -38 7564 2569 l 0 53 7564 2516 l -4 8 7579 2603 l -11 11 c 79 0 c 4 -4 7636 2675 l 3 4 c
-3 4 c -4 -4 c 4 -11 7564 2724 l 7 -4 c 8 0 c 7 4 c 4 7 c 4 16 c 4 11 c 7 7 c 8 4 c 11 0 c 8 -4 c 4 -3 c 3 -12 c 0 -15 c -3 -11 c
-4 -4 c -8 -4 c -11 0 c -8 4 c -7 8 c -4 11 c -4 15 c -4 8 c -7 3 c -8 0 c -7 -3 c -4 -12 c 0 -15 c -7 -4 7575 2830 l -4 -11 c
0 -8 c 4 -11 c 11 -7 c 19 -4 c 19 0 c 15 4 c 8 7 c 3 11 c 0 4 c -3 12 c -8 7 c -11 4 c -4 0 c -11 -4 c -8 -7 c -4 -12 c 0 -4 c
4 -11 c 8 -7 c 11 -4 c 4 -11 7564 2879 l 11 -8 c 19 -3 c 11 0 c 19 3 c 12 8 c 3 11 c 0 8 c -3 11 c -12 8 c -19 3 c -11 0 c -19 -3 c
-11 -8 c -4 -11 c 0 -8 c 0 -249 7681 1945 l 4 -12 7637 2036 l 7 -3 c 8 0 c 8 3 c 3 8 c 4 15 c 4 11 c 7 8 c 8 4 c 11 0 c 8 -4 c
4 -4 c 4 -11 c 0 -15 c -4 -12 c -4 -3 c -8 -4 c -11 0 c -8 4 c -7 7 c -4 12 c -4 15 c -3 7 c -8 4 c -8 0 c -7 -4 c -4 -11 c 0 -15 c
80 -37 7637 2145 l 0 53 7637 2092 l 80 -38 7637 2221 l 0 53 7637 2168 l -4 0 7656 2247 l -7 4 c -4 4 c -4 8 c 0 15 c 4 7 c 4 4 c
7 4 c 8 0 c 7 -4 c 12 -8 c 38 -37 c 0 53 c 4 -4 7709 2327 l 4 4 c -4 4 c -4 -4 c 4 -11 7637 2376 l 7 -4 c 8 0 c 8 4 c 3 7 c 4 15 c
4 12 c 7 7 c 8 4 c 11 0 c 8 -4 c 4 -4 c 4 -11 c 0 -15 c -4 -11 c -4 -4 c -8 -4 c -11 0 c -8 4 c -7 7 c -4 12 c -4 15 c -3 7 c -8 4 c
-8 0 c -7 -4 c -4 -11 c 0 -15 c 4 -11 7637 2455 l 11 -8 c 19 -3 c 11 0 c 19 3 c 12 8 c 4 11 c 0 8 c -4 11 c -12 8 c -19 4 c -11 0 c
-19 -4 c -11 -8 c -4 -11 c 0 -8 c 0 -38 7637 2554 l 34 -4 c -4 4 c -3 11 c 0 11 c 3 12 c 8 7 c 11 4 c 8 0 c 11 -4 c 8 -7 c 4 -12 c
0 -11 c -4 -11 c -4 -4 c -8 -4 c 0 -250 7897 2715 l 4 -12 7853 2806 l 7 -3 c 8 0 c 8 3 c 3 8 c 4 15 c 4 11 c 7 8 c 8 4 c 11 0 c
8 -4 c 4 -4 c 4 -11 c 0 -15 c -4 -12 c -4 -3 c -8 -4 c -11 0 c -8 4 c -7 7 c -4 11 c -4 16 c -3 7 c -8 4 c -8 0 c -7 -4 c -4 -11 c
0 -15 c 80 -38 7853 2915 l 0 53 7853 2862 l 80 -38 7853 2991 l 0 53 7853 2938 l 0 -38 7853 3059 l 34 -4 c -4 4 c -3 11 c 0 12 c
3 11 c 8 8 c 11 3 c 8 0 c 11 -3 c 8 -8 c 4 -11 c 0 -12 c -4 -11 c -4 -4 c -8 -3 c 4 -4 7925 3097 l 4 4 c -4 3 c -4 -3 c
0 -38 7853 3172 l 34 -3 c -4 3 c -3 12 c 0 11 c 3 12 c 8 7 c 11 4 c 8 0 c 11 -4 c 8 -7 c 4 -12 c 0 -11 c -4 -12 c -4 -3 c -8 -4 c
80 -37 7853 3255 l 0 52 7853 3203 l 0 41 7853 3286 l 30 -22 c 0 11 c 4 7 c 4 4 c 11 4 c 8 0 c 11 -4 c 8 -7 c 4 -12 c 0 -11 c
-4 -11 c -4 -4 c -8 -4 c 0 -249 8459 1280 l 4 -11 8415 1371 l 7 -4 c 8 0 c 7 4 c 4 7 c 4 15 c 4 12 c 7 7 c 8 4 c 11 0 c 8 -4 c
3 -4 c 4 -11 c 0 -15 c -4 -11 c -3 -4 c -8 -4 c -11 0 c -8 4 c -7 7 c -4 12 c -4 15 c -4 7 c -7 4 c -8 0 c -7 -4 c -4 -11 c 0 -15 c
79 -38 8415 1481 l 0 53 8415 1428 l 4 -11 8415 1522 l 7 -4 c 8 0 c 7 4 c 4 7 c 4 16 c 4 11 c 7 7 c 8 4 c 11 0 c 8 -4 c 3 -3 c
4 -12 c 0 -15 c -4 -11 c -3 -4 c -8 -4 c -11 0 c -8 4 c -7 8 c -4 11 c -4 15 c -4 8 c -7 3 c -8 0 c -7 -3 c -4 -12 c 0 -15 c
-4 0 8434 1583 l -8 3 c -3 4 c -4 8 c 0 15 c 4 7 c 3 4 c 8 4 c 8 0 c 7 -4 c 11 -7 c 38 -38 c 0 53 c 3 -4 8487 1662 l 4 4 c -4 4 c
-3 -4 c 79 -38 8415 1745 l 0 53 8415 1692 l -4 8 8430 1779 l -11 11 c 79 0 c -7 -4 8426 1893 l -4 -12 c 0 -7 c 4 -11 c 11 -8 c
19 -4 c 19 0 c 15 4 c 7 8 c 4 11 c 0 4 c -4 11 c -7 8 c -11 3 c -4 0 c -12 -3 c -7 -8 c -4 -11 c 0 -4 c 4 -11 c 7 -8 c 12 -4 c
0 -250 8604 2435 l 4 -12 8561 2526 l 7 -4 c 8 0 c 7 4 c 4 8 c 4 15 c 4 11 c 7 8 c 8 4 c 11 0 c 8 -4 c 3 -4 c 4 -11 c 0 -15 c
-4 -12 c -3 -4 c -8 -3 c -11 0 c -8 3 c -7 8 c -4 11 c -4 15 c -4 8 c -7 4 c -8 0 c -7 -4 c -4 -11 c 0 -15 c 79 -38 8561 2635 l
0 53 8561 2582 l 4 -12 8561 2677 l 7 -3 c 8 0 c 7 3 c 4 8 c 4 15 c 4 11 c 7 8 c 8 4 c 11 0 c 8 -4 c 3 -4 c 4 -11 c 0 -15 c -4 -12 c
-3 -3 c -8 -4 c -11 0 c -8 4 c -7 7 c -4 11 c -4 16 c -4 7 c -7 4 c -8 0 c -7 -4 c -4 -11 c 0 -15 c 53 -38 8561 2771 l 0 57 c
79 0 8561 2771 l 3 -4 8633 2817 l 4 4 c -4 3 c -3 -3 c 0 -38 8561 2892 l 34 -3 c -4 3 c -4 12 c 0 11 c 4 11 c 8 8 c 11 4 c 7 0 c
12 -4 c 7 -8 c 4 -11 c 0 -11 c -4 -12 c -3 -3 c -8 -4 c -7 -4 8572 2972 l -4 -12 c 0 -7 c 4 -12 c 11 -7 c 19 -4 c 19 0 c 15 4 c
7 7 c 4 12 c 0 4 c -4 11 c -7 8 c -12 3 c -3 0 c -12 -3 c -7 -8 c -4 -11 c 0 -4 c 4 -12 c 7 -7 c 12 -4 c -4 0 8580 3002 l -8 4 c
-3 3 c -4 8 c 0 15 c 4 8 c 3 3 c 8 4 c 7 0 c 8 -4 c 11 -7 c 38 -38 c 0 53 c 0 -250 9202 1531 l 4 -12 9158 1622 l 7 -3 c 8 0 c 8 3 c
3 8 c 4 15 c 4 11 c 7 8 c 8 4 c 11 0 c 8 -4 c 4 -4 c 3 -11 c 0 -15 c -3 -12 c -4 -3 c -8 -4 c -11 0 c -8 4 c -7 7 c -4 11 c -4 16 c
-3 7 c -8 4 c -8 0 c -7 -4 c -4 -11 c 0 -15 c 79 -38 9158 1731 l 0 53 9158 1678 l 11 -4 9185 1803 l 7 -7 c 4 -12 c 0 -3 c -4 -12 c
-7 -7 c -11 -4 c -4 0 c -12 4 c -7 7 c -4 12 c 0 3 c 4 12 c 7 7 c 16 4 c 18 0 c 19 -4 c 12 -7 c 3 -12 c 0 -7 c -3 -12 c -8 -3 c
-4 0 9177 1833 l -7 4 c -4 4 c -4 7 c 0 16 c 4 7 c 4 4 c 7 4 c 8 0 c 7 -4 c 12 -8 c 37 -37 c 0 52 c 4 -4 9230 1913 l 3 4 c -3 3 c
-4 -3 c 4 -12 9158 1966 l 11 -7 c 19 -4 c 11 0 c 19 4 c 12 7 c 3 12 c 0 7 c -3 11 c -12 8 c -19 4 c -11 0 c -19 -4 c -11 -8 c
-4 -11 c 0 -7 c 0 -38 9158 2064 l 34 -4 c -4 4 c -3 11 c 0 12 c 3 11 c 8 8 c 11 3 c 8 0 c 11 -3 c 8 -8 c 3 -11 c 0 -12 c -3 -11 c
-4 -4 c -8 -4 c 79 -38 9158 2147 l 0 53 9158 2094 l
showpage PGPLOT restore
 
%%Trailer
%%DocumentFonts: 
%%Pages: 1
%%EOF
