%!PS-Adobe-3.0 EPSF-3.0
%%For: tab
%%Title: PGPLOT PostScript plot
%%Creator: PGPLOT
%%CreationDate: 20-Apr-1995 17:05
%%BoundingBox: 25 18 587 774
%%DocumentFonts: (atend)
%%LanguageLevel: 1
%%Orientation: Landscape
%%Pages: (atend)
%%EndComments
%%BeginProlog
/l {moveto rlineto currentpoint stroke moveto} bind def
/c {rlineto currentpoint stroke moveto} bind def
/d {moveto 0 0 rlineto currentpoint stroke moveto} bind def
/SLW {5 mul setlinewidth} bind def
/SCF /pop load def
/BP {newpath moveto} bind def
/LP /rlineto load def
/EP {rlineto closepath eofill} bind def
/MB {gsave translate MFAC dup scale 1 setlinewidth 2 setlinecap 0 setlinejoin newpath} bind def
/ME /grestore load def
/C {0 360 arc stroke} bind def
/FC {0 360 arc fill} bind def
%%EndProlog
 
%%Page: 1 1
%%BeginPageSetup
/PGPLOT save def
0.072 0.072 scale
8150 250 translate 90 rotate
1 setlinejoin 1 setlinecap 1 SLW 1 SCF
%%EndPageSetup
0.000 setgray 1 SLW 8939 0 780 780 l 0 6239 c -8939 0 c 0 -6239 c 0 -45 1116 780 l 0 -45 1554 780 l 0 -45 1991 780 l
0 -45 2428 780 l 0 -90 2865 780 l 0 -45 3302 780 l 0 -45 3739 780 l 0 -45 4176 780 l 0 -45 4613 780 l 0 -90 5051 780 l
0 -45 5488 780 l 0 -45 5925 780 l 0 -45 6362 780 l 0 -45 6799 780 l 0 -90 7236 780 l 0 -45 7673 780 l 0 -45 8110 780 l
0 -45 8548 780 l 0 -45 8985 780 l 0 -90 9422 780 l 0 -45 1116 7064 l 0 -45 1554 7064 l 0 -45 1991 7064 l 0 -45 2428 7064 l
0 -90 2865 7109 l 0 -45 3302 7064 l 0 -45 3739 7064 l 0 -45 4176 7064 l 0 -45 4613 7064 l 0 -90 5051 7109 l 0 -45 5488 7064 l
0 -45 5925 7064 l 0 -45 6362 7064 l 0 -45 6799 7064 l 0 -90 7236 7109 l 0 -45 7673 7064 l 0 -45 8110 7064 l 0 -45 8548 7064 l
0 -45 8985 7064 l 0 -90 9422 7109 l -60 0 2775 672 l -6 -54 c 6 6 c 18 6 c 18 0 c 18 -6 c 12 -12 c 6 -18 c 0 -12 c -6 -18 c
-12 -12 c -18 -6 c -18 0 c -18 6 c -6 6 c -6 12 c -18 -6 2859 672 l -12 -18 c -6 -30 c 0 -18 c 6 -30 c 12 -18 c 18 -6 c 12 0 c
18 6 c 12 18 c 6 30 c 0 18 c -6 30 c -12 18 c -18 6 c -12 0 c -18 -6 2979 672 l -12 -18 c -6 -30 c 0 -18 c 6 -30 c 12 -18 c 18 -6 c
12 0 c 18 6 c 12 18 c 6 30 c 0 18 c -6 30 c -12 18 c -18 6 c -12 0 c 12 6 4847 648 l 18 18 c 0 -126 c -18 -6 4985 672 l -12 -18 c
-6 -30 c 0 -18 c 6 -30 c 12 -18 c 18 -6 c 12 0 c 18 6 c 12 18 c 6 30 c 0 18 c -6 30 c -12 18 c -18 6 c -12 0 c -18 -6 5105 672 l
-12 -18 c -6 -30 c 0 -18 c 6 -30 c 12 -18 c 18 -6 c 12 0 c 18 6 c 12 18 c 6 30 c 0 18 c -6 30 c -12 18 c -18 6 c -12 0 c
-18 -6 5225 672 l -12 -18 c -6 -30 c 0 -18 c 6 -30 c 12 -18 c 18 -6 c 12 0 c 18 6 c 12 18 c 6 30 c 0 18 c -6 30 c -12 18 c -18 6 c
-12 0 c 12 6 7032 648 l 18 18 c 0 -126 c -60 0 7206 672 l -6 -54 c 6 6 c 18 6 c 18 0 c 18 -6 c 12 -12 c 6 -18 c 0 -12 c -6 -18 c
-12 -12 c -18 -6 c -18 0 c -18 6 c -6 6 c -6 12 c -18 -6 7290 672 l -12 -18 c -6 -30 c 0 -18 c 6 -30 c 12 -18 c 18 -6 c 12 0 c
18 6 c 12 18 c 6 30 c 0 18 c -6 30 c -12 18 c -18 6 c -12 0 c -18 -6 7410 672 l -12 -18 c -6 -30 c 0 -18 c 6 -30 c 12 -18 c 18 -6 c
12 0 c 18 6 c 12 18 c 6 30 c 0 18 c -6 30 c -12 18 c -18 6 c -12 0 c 0 6 9206 642 l 6 12 c 6 6 c 12 6 c 24 0 c 12 -6 c 6 -6 c
6 -12 c 0 -12 c -6 -12 c -12 -18 c -60 -60 c 84 0 c -18 -6 9356 672 l -12 -18 c -6 -30 c 0 -18 c 6 -30 c 12 -18 c 18 -6 c 12 0 c
18 6 c 12 18 c 6 30 c 0 18 c -6 30 c -12 18 c -18 6 c -12 0 c -18 -6 9476 672 l -12 -18 c -6 -30 c 0 -18 c 6 -30 c 12 -18 c 18 -6 c
12 0 c 18 6 c 12 18 c 6 30 c 0 18 c -6 30 c -12 18 c -18 6 c -12 0 c -18 -6 9596 672 l -12 -18 c -6 -30 c 0 -18 c 6 -30 c 12 -18 c
18 -6 c 12 0 c 18 6 c 12 18 c 6 30 c 0 18 c -6 30 c -12 18 c -18 6 c -12 0 c -90 0 780 849 l -45 0 780 1655 l -90 0 780 2461 l
-45 0 780 3266 l -90 0 780 4072 l -45 0 780 4878 l -90 0 780 5684 l -45 0 780 6490 l -90 0 9809 849 l -45 0 9764 1655 l
-90 0 9809 2461 l -45 0 9764 3266 l -90 0 9809 4072 l -45 0 9764 4878 l -90 0 9809 5684 l -45 0 9764 6490 l 6 -18 517 843 l 18 -12 c
30 -6 c 18 0 c 30 6 c 18 12 c 6 18 c 0 12 c -6 18 c -18 12 c -30 6 c -18 0 c -30 -6 c -18 -12 c -6 -18 c 0 -12 c -6 0 547 2245 l
-12 6 c -6 6 c -6 12 c 0 24 c 6 12 c 6 6 c 12 6 c 12 0 c 12 -6 c 18 -12 c 60 -60 c 0 84 c 6 -18 517 2395 l 18 -12 c 30 -6 c 18 0 c
30 6 c 18 12 c 6 18 c 0 12 c -6 18 c -18 12 c -30 6 c -18 0 c -30 -6 c -18 -12 c -6 -18 c 0 -12 c 6 -18 517 2515 l 18 -12 c 30 -6 c
18 0 c 30 6 c 18 12 c 6 18 c 0 12 c -6 18 c -18 12 c -30 6 c -18 0 c -30 -6 c -18 -12 c -6 -18 c 0 -12 c 6 -18 517 2635 l 18 -12 c
30 -6 c 18 0 c 30 6 c 18 12 c 6 18 c 0 12 c -6 18 c -18 12 c -30 6 c -18 0 c -30 -6 c -18 -12 c -6 -18 c 0 -12 c 84 -60 517 3910 l
0 90 c 126 0 517 3910 l 6 -18 517 4006 l 18 -12 c 30 -6 c 18 0 c 30 6 c 18 12 c 6 18 c 0 12 c -6 18 c -18 12 c -30 6 c -18 0 c
-30 -6 c -18 -12 c -6 -18 c 0 -12 c 6 -18 517 4126 l 18 -12 c 30 -6 c 18 0 c 30 6 c 18 12 c 6 18 c 0 12 c -6 18 c -18 12 c -30 6 c
-18 0 c -30 -6 c -18 -12 c -6 -18 c 0 -12 c 6 -18 517 4246 l 18 -12 c 30 -6 c 18 0 c 30 6 c 18 12 c 6 18 c 0 12 c -6 18 c -18 12 c
-30 6 c -18 0 c -30 -6 c -18 -12 c -6 -18 c 0 -12 c -12 -6 535 5540 l -6 -18 c 0 -12 c 6 -18 c 18 -12 c 30 -6 c 30 0 c 24 6 c
12 12 c 6 18 c 0 6 c -6 18 c -12 12 c -18 6 c -6 0 c -18 -6 c -12 -12 c -6 -18 c 0 -6 c 6 -18 c 12 -12 c 18 -6 c 6 -18 517 5618 l
18 -12 c 30 -6 c 18 0 c 30 6 c 18 12 c 6 18 c 0 12 c -6 18 c -18 12 c -30 6 c -18 0 c -30 -6 c -18 -12 c -6 -18 c 0 -12 c
6 -18 517 5738 l 18 -12 c 30 -6 c 18 0 c 30 6 c 18 12 c 6 18 c 0 12 c -6 18 c -18 12 c -30 6 c -18 0 c -30 -6 c -18 -12 c -6 -18 c
0 -12 c 6 -18 517 5858 l 18 -12 c 30 -6 c 18 0 c 30 6 c 18 12 c 6 18 c 0 12 c -6 18 c -18 12 c -30 6 c -18 0 c -30 -6 c -18 -12 c
-6 -18 c 0 -12 c
4 -1 780 901 l 5 0 c 4 0 c 4 0 c 5 0 c 4 2 c 4 -1 c 5 0 c 4 0 c 5 1 c 4 -1 c 4 -1 c 5 3 c 4 1 c 4 1 c 5 13 c 4 22 c 5 25 c 4 12 c
4 -24 c 5 -24 c 4 -12 c 4 -5 c 5 -2 c 4 -4 c 5 -1 c 4 1 c 4 0 c 5 1 c 4 -3 c 4 1 c 5 -2 c 4 0 c 5 1 c 4 1 c 4 0 c 5 -3 c 4 5 c
4 -2 c 5 0 c 4 2 c 4 -1 c 5 5 c 4 0 c 5 5 c 4 8 c 4 27 c 5 21 c 4 6 c 4 -22 c 5 3 c 4 18 c 5 15 c 4 -26 c 4 -25 c 5 -12 c 4 5 c
4 28 c 5 110 c 4 467 c 5 842 c 4 544 c 4 -253 c 5 -886 c 4 -614 c 4 -187 c 5 -42 c 4 -13 c 5 -6 c 4 -5 c 4 -3 c 5 -3 c 4 0 c 4 -1 c
5 -1 c 4 0 c 4 0 c 5 -2 c 4 2 c 5 -2 c 4 1 c 4 0 c 5 -1 c 4 -60 c 4 0 c 5 55 c 4 0 c 5 0 c 4 2 c 4 1 c 5 1 c 4 -1 c 4 -1 c 5 1 c
4 -3 c 5 5 c 4 -2 c 4 -2 c 5 -1 c 4 2 c 4 -3 c 5 -1 c 4 -1 c 5 2 c 4 -2 c 4 3 c 5 -1 c 4 0 c 4 -1 c 5 -2 c 4 0 c 4 1 c 5 0 c 4 -1 c
5 -1 c 4 0 c 4 0 c 5 2 c 4 -2 c 4 1 c 5 -1 c 4 2 c 5 1 c 4 1 c 4 2 c 5 1 c 4 -3 c 4 2 c 5 -4 c 4 2 c 5 4 c 4 7 c 4 3 c 5 -6 c 4 1 c
4 -4 c 5 0 c 4 -1 c 5 0 c 4 15 c 4 69 c 5 191 c 4 158 c 4 -18 c 5 -198 c 4 -145 c 4 -62 c 5 -6 c 4 3 c 5 13 c 4 7 c 4 1 c 5 -13 c
4 -9 c 4 -4 c 5 -3 c 4 -4 c 5 -1 c 4 0 c 4 3 c 5 9 c 4 13 c 4 5 c 5 -7 c 4 -11 c 5 3 c 4 12 c 4 4 c 5 -11 c 4 -11 c 4 -7 c 5 -3 c
4 1 c 4 0 c 5 2 c 4 1 c 5 -1 c 4 -1 c 4 -1 c 5 -3 c 4 3 c 4 -2 c 5 0 c 4 2 c 5 1 c 4 -3 c 4 1 c 5 0 c 4 2 c 4 2 c 5 0 c 4 1 c 5 -3 c
4 -1 c 4 3 c 5 -2 c 4 3 c 4 -1 c 5 9 c 4 8 c 5 6 c 4 0 c 4 4 c 5 -1 c 4 -7 c 4 -11 c 5 -3 c 4 -3 c 4 -3 c 5 -2 c 4 1 c 5 -1 c 4 -1 c
4 0 c 5 0 c 4 2 c 4 -2 c 5 1 c 4 1 c 5 0 c 4 -2 c 4 1 c 5 0 c 4 6 c 4 18 c 5 47 c 4 40 c 5 0 c 4 -44 c 4 -42 c 5 -19 c 4 -3 c 4 0 c
5 1 c 4 -5 c 5 1 c 4 0 c 4 0 c 5 0 c 4 1 c 4 -3 c 5 2 c 4 0 c 4 2 c 5 -2 c 4 0 c 5 -1 c 4 4 c 4 -2 c 5 1 c 4 0 c 4 -1 c 5 1 c 4 0 c
5 1 c 4 -2 c 4 3 c 5 2 c 4 14 c 4 26 c 5 11 c 4 -13 c 5 -20 c 4 -13 c 4 2 c 5 8 c 4 -2 c 4 -6 c 5 -8 c 4 -1 c 5 0 c 4 1 c 4 -2 c
5 1 c 4 -1 c 4 3 c 5 -1 c 4 0 c 4 2 c 5 -2 c 4 1 c 5 -1 c 4 3 c 4 -2 c 5 -2 c 4 1 c 4 -1 c 5 1 c 4 2 c 5 1 c 4 -3 c 4 1 c 5 3 c
4 -2 c 4 -1 c 5 1 c 4 2 c 5 3 c 4 -1 c 4 0 c 5 0 c 4 2 c 4 0 c 5 -2 c 4 5 c 5 6 c 4 7 c 4 1 c 5 -3 c 4 -2 c 4 -1 c 5 28 c 4 175 c
4 519 c 5 561 c 4 222 c 5 -420 c 4 -669 c 4 -334 c 5 -63 c 4 -14 c 4 -7 c 5 -3 c 4 -1 c 5 0 c 4 2 c 4 -1 c 5 -1 c 4 -1 c 4 -1 c
5 -1 c 4 0 c 5 -3 c 4 3 c 4 2 c 5 16 c 4 74 c 4 110 c 5 68 c 4 -25 c 4 -118 c 5 -79 c 4 -30 c 5 -9 c 4 -4 c 4 -7 c 5 1 c 4 -1 c
4 2 c 5 5 c 4 4 c 5 12 c 4 2 c 4 -3 c 5 -12 c 4 -6 c 4 1 c 5 -2 c 4 -1 c 5 -1 c 4 5 c 4 1 c 5 6 c 4 0 c 4 -3 c 5 -4 c 4 0 c 5 0 c
4 0 c 4 1 c 5 1 c 4 1 c 4 19 c 5 80 c 4 164 c 4 170 c 5 201 c 4 223 c 5 102 c 4 -146 c 4 -354 c 5 -313 c 4 -118 c 4 -16 c 5 -5 c
4 -1 c 5 0 c 4 1 c 4 -3 c 5 -4 c 4 0 c 4 -1 c 5 0 c 4 -1 c 5 0 c 4 5 c 4 10 c 5 24 c 4 18 c 4 -5 c 5 -26 c 4 -20 c 5 -10 c 4 1 c
4 0 c 5 -3 c 4 -3 c 4 0 c 5 -1 c 4 1 c 4 2 c 5 -3 c 4 -1 c 5 1 c 4 0 c 4 0 c 5 -2 c 4 2 c 4 -3 c 5 4 c 4 -3 c 5 2 c 4 4 c 4 -2 c
5 -2 c 4 -1 c 4 0 c 5 1 c 4 -1 c 5 -2 c 4 2 c 4 2 c 5 0 c 4 4 c 4 0 c 5 2 c 4 0 c 5 -3 c 4 -1 c 4 1 c 5 -2 c 4 -1 c 4 2 c 5 -1 c
4 0 c 4 -3 c 5 1 c 4 0 c 5 -2 c 4 1 c 4 1 c 5 -2 c 4 1 c 4 1 c 5 -2 c 4 -1 c 5 -2 c 4 2 c 4 1 c 5 2 c 4 -3 c 4 3 c 5 -1 c 4 0 c
5 0 c 4 5 c 4 -2 c 5 2 c 4 1 c 4 -3 c 5 1 c 4 0 c 5 0 c 4 0 c 4 -1 c 5 -1 c 4 1 c 4 -2 c 5 1 c 4 -2 c 4 2 c 5 -1 c 4 1 c 5 2 c
4 -2 c 4 3 c 5 -2 c 4 -1 c 4 4 c 5 4 c 4 8 c 5 1 c 4 -4 c 4 -8 c 5 -2 c 4 -3 c 4 2 c 5 1 c 0 6104 c 1 -3954 2978 7019 l 4 -1980 c
4 -75 c 5 -8 c 4 -5 c 4 -3 c 5 -3 c 4 4 c 5 -8 c 4 3 c 4 -2 c 5 5 c 4 3 c 4 11 c 5 16 c 4 19 c 5 5 c 4 -22 c 4 -27 c 5 -14 c 4 -2 c
4 -7 c 5 -3 c 4 -2 c 5 -3 c 4 1 c 4 -1 c 5 -3 c 4 0 c 4 2 c 5 -3 c 4 -1 c 5 -2 c 4 0 c 4 4 c 5 -3 c 4 0 c 4 3 c 5 0 c 4 4 c 4 3 c
5 -1 c 4 -6 c 5 -1 c 4 -6 c 4 -2 c 5 -1 c 4 1 c 4 0 c 5 0 c 4 1 c 5 -2 c 4 -1 c 4 1 c 5 -2 c 4 0 c 4 -1 c 5 -3 c 4 0 c 5 2 c 4 -3 c
4 2 c 5 -2 c 4 1 c 4 -2 c 5 -3 c 4 4 c 5 0 c 4 0 c 4 0 c 5 0 c 4 0 c 4 1 c 5 5 c 4 3 c 4 5 c 5 0 c 4 -3 c 5 -6 c 4 -2 c 4 -1 c 5 0 c
4 2 c 4 -5 c 5 0 c 4 -3 c 5 -1 c 4 3 c 4 0 c 5 0 c 4 0 c 4 -2 c 5 -3 c 4 3 c 5 -1 c 4 3 c 4 -4 c 5 1 c 4 4 c 4 0 c 5 0 c 4 -3 c
5 1 c 4 -3 c 4 -2 c 5 0 c 4 3 c 4 1 c 5 0 c 4 -1 c 4 -2 c 5 6 c 4 6 c 5 7 c 4 -2 c 4 -7 c 5 -5 c 4 -4 c 4 0 c 5 -2 c 4 1 c 5 1 c
4 -2 c 4 0 c 5 -1 c 4 4 c 4 1 c 5 -1 c 4 0 c 5 -3 c 4 1 c 4 4 c 5 -2 c 4 1 c 4 -2 c 5 1 c 4 2 c 4 1 c 5 -2 c 4 5 c 5 9 c 4 8 c 4 3 c
5 -4 c 4 -8 c 4 -4 c 5 -2 c 4 -1 c 5 1 c 4 0 c 4 -4 c 5 1 c 4 -3 c 4 3 c 5 -1 c 4 -1 c 5 0 c 4 5 c 4 -2 c 5 -3 c 4 0 c 4 0 c 5 0 c
4 2 c 5 -2 c 4 0 c 4 0 c 5 3 c 4 1 c 4 -2 c 5 4 c 4 3 c 4 2 c 5 1 c 4 2 c 5 12 c 4 11 c 4 12 c 5 7 c 4 -7 c 4 -7 c 5 10 c 4 35 c
5 45 c 4 34 c 4 2 c 5 -12 c 4 133 c 4 502 c 5 652 c 4 426 c 5 -248 c 4 -644 c 4 -656 c 5 -233 c 4 -28 c 4 -10 c 5 1 c 4 17 c 5 39 c
4 92 c 4 465 c 5 1048 c 4 976 c 4 393 c 5 -881 c 4 -1034 c 4 -885 c 5 -174 c 4 -21 c 5 -8 c 4 -3 c 4 -10 c 5 -8 c 4 -9 c 4 -8 c
5 -4 c 4 -9 c 5 -1 c 4 -6 c 4 -1 c 5 -2 c 4 2 c 4 1 c 5 2 c 4 2 c 5 2 c 4 -6 c 4 -5 c 5 -2 c 4 -1 c 4 -3 c 5 -1 c 4 2 c 5 -2 c
4 -3 c 4 6 c 5 2 c 4 4 c 4 -1 c 5 -5 c 4 -5 c 4 1 c 5 -5 c 4 1 c 5 0 c 4 -3 c 4 -1 c 5 2 c 4 -2 c 4 2 c 5 -2 c 4 -3 c 5 5 c 4 -3 c
4 2 c 1 6074 c 1 -5650 4132 7019 l 4 -124 c 4 -17 c 5 -17 c 4 -18 c 5 -12 c 4 -10 c 4 -11 c 5 -9 c 4 -7 c 4 -10 c 5 -8 c 4 -2 c
4 -8 c 5 0 c 4 -4 c 5 -4 c 4 3 c 4 -8 c 5 -7 c 4 -7 c 4 11 c 5 3 c 4 4 c 5 -5 c 4 -13 c 4 -9 c 5 -3 c 4 11 c 4 14 c 5 3 c 4 0 c
5 -14 c 4 17 c 4 23 c 5 16 c 4 -22 c 4 -30 c 5 -32 c 4 -14 c 4 2 c 5 -4 c 4 1 c 5 -2 c 4 0 c 4 3 c 5 -5 c 4 12 c 4 34 c 5 67 c
4 47 c 5 18 c 4 -58 c 4 -40 c 5 -17 c 4 34 c 4 121 c 5 335 c 4 543 c 5 442 c 4 165 c 4 -364 c 5 -485 c 4 -418 c 4 -155 c 5 -61 c
4 -24 c 5 -33 c 4 -42 c 4 -21 c 5 -11 c 4 -3 c 4 -8 c 5 -7 c 4 -17 c 4 -8 c 5 -12 c 4 -8 c 5 -1 c 4 -3 c 4 -6 c 5 -10 c 4 -5 c
4 -1 c 5 0 c 4 -8 c 5 -1 c 4 -2 c 4 -9 c 5 2 c 4 -6 c 4 1 c 5 -2 c 4 1 c 5 -3 c 4 -7 c 4 2 c 5 -4 c 4 1 c 4 -2 c 5 -2 c 4 14 c
5 42 c 4 36 c 4 27 c 5 -29 c 4 -51 c 4 -39 c 5 -17 c 4 -2 c 4 0 c 5 -6 c 4 2 c 5 1 c 4 -1 c 4 -1 c 5 -4 c 4 3 c 4 -1 c 5 4 c 4 2 c
5 -2 c 4 1 c 4 2 c 5 3 c 4 -2 c 4 0 c 5 -2 c 4 -1 c 5 -1 c 4 -1 c 4 4 c 5 -1 c 4 1 c 4 28 c 5 55 c 4 56 c 5 8 c 4 -46 c 4 -60 c
5 -38 c 4 -11 c 4 1 c 5 -3 c 4 1 c 4 -3 c 5 -1 c 4 1 c 5 1 c 4 -3 c 4 3 c 5 -4 c 4 2 c 4 0 c 5 0 c 4 2 c 5 -4 c 4 0 c 4 2 c 5 2 c
4 0 c 4 0 c 5 5 c 4 -6 c 5 -1 c 4 2 c 4 5 c 5 2 c 4 2 c 4 -6 c 5 -3 c 4 -4 c 5 0 c 4 3 c 4 -4 c 5 5 c 4 -2 c 4 2 c 5 -6 c 4 3 c
4 5 c 5 2 c 4 5 c 5 -1 c 4 -7 c 4 -1 c 5 -3 c 4 -1 c 4 -1 c 5 0 c 4 -2 c 5 3 c 4 0 c 4 3 c 5 12 c 4 22 c 4 15 c 5 9 c 4 10 c 5 37 c
4 27 c 4 -6 c 5 -50 c 4 -30 c 4 22 c 5 81 c 4 66 c 4 10 c 5 -96 c 4 -73 c 5 -50 c 4 -7 c 4 -2 c 5 -1 c 4 -1 c 4 0 c 5 -2 c 4 2 c
5 0 c 4 0 c 4 0 c 5 2 c 4 -2 c 4 -1 c 5 0 c 4 0 c 5 3 c 4 3 c 4 6 c 5 16 c 4 12 c 4 4 c 5 -14 c 4 -15 c 5 -14 c 4 0 c 4 -4 c 5 4 c
4 -3 c 4 1 c 5 -1 c 4 2 c 4 -3 c 5 -2 c 4 4 c 5 -3 c 4 0 c 4 -1 c 5 3 c 4 9 c 4 1 c 5 7 c 4 -3 c 5 -7 c 4 -3 c 4 11 c 5 24 c 4 32 c
4 15 c 5 -19 c 4 -31 c 5 -23 c 4 -7 c 4 -3 c 5 1 c 4 -2 c 4 0 c 5 -1 c 4 -1 c 5 0 c 4 -1 c 4 0 c 5 4 c 4 -2 c 4 -5 c 5 7 c 4 -2 c
4 -2 c 5 2 c 4 3 c 5 -2 c 4 1 c 4 6 c 5 5 c 4 22 c 4 17 c 5 11 c 4 -21 c 5 -12 c 4 -21 c 4 -1 c 5 0 c 4 -5 c 4 3 c 5 5 c 4 3 c 5 9 c
4 19 c 4 4 c 5 21 c 4 79 c 4 135 c 5 106 c 4 -21 c 5 -147 c 4 -126 c 4 -73 c 5 -5 c 4 -6 c 4 -4 c 5 4 c 4 -5 c 4 4 c 5 -4 c 4 -2 c
5 3 c 4 0 c 4 8 c 5 13 c 4 24 c 4 16 c 5 -8 c 4 -24 c 5 -13 c 4 -4 c 4 12 c 5 18 c 4 10 c 4 4 c 5 -13 c 4 -19 c 5 -14 c 4 -3 c 4 3 c
5 -2 c 4 4 c 4 2 c 5 2 c 4 -4 c 4 0 c 5 1 c 4 3 c 5 2 c 4 -1 c 4 8 c 5 -1 c 4 9 c 4 11 c 5 25 c 4 55 c 5 324 c 4 1106 c 4 1930 c
5 1157 c 4 -274 c 4 -1821 c 5 -1548 c 4 -791 c 5 -112 c 4 -218 c 4 167 c 5 -11 c 4 -6 c 4 2 c 5 -7 c 4 -5 c 5 4 c 4 -6 c 4 0 c
5 -2 c 4 -3 c 4 4 c 5 4 c 4 8 c 4 9 c 5 2 c 4 -5 c 5 -15 c 4 -5 c 4 -5 c 5 -2 c 4 4 c 4 -4 c 5 2 c 4 -3 c 5 1 c 4 -2 c 4 5 c 5 -6 c
4 0 c 4 1 c 5 -1 c 4 -3 c 5 2 c 4 -2 c 4 -2 c 5 1 c 4 2 c 4 -3 c 5 3 c 4 -2 c 5 9 c 4 4 c 4 0 c 5 -1 c 4 10 c 4 6 c 5 3 c 4 -13 c
4 -4 c 5 -7 c 4 -1 c 5 -1 c 4 -1 c 4 -4 c 5 -2 c 4 1 c 4 -1 c 5 3 c 4 -2 c 5 -1 c 4 3 c 4 0 c 5 3 c 4 -2 c 4 0 c 5 -1 c 4 -1 c 5 3 c
4 1 c 4 3 c 5 3 c 4 -4 c 4 -1 c 5 -2 c 4 9 c 5 1 c 4 4 c 4 -4 c 5 -3 c 4 -2 c 4 5 c 5 -2 c 4 2 c 4 24 c 5 42 c 4 64 c 5 45 c 4 -24 c
4 -67 c 5 -46 c 4 25 c 4 111 c 5 152 c 4 71 c 5 -87 c 4 -172 c 4 -103 c 5 -25 c 4 -5 c 4 1 c 5 8 c 4 17 c 5 10 c 4 -9 c 4 -13 c
5 -11 c 4 -7 c 4 -3 c 5 1 c 4 4 c 5 5 c 4 4 c 4 -2 c 5 -3 c 4 -1 c 4 -5 c 5 3 c 4 4 c 4 -2 c 5 -2 c 4 0 c 5 0 c 4 -1 c 4 -2 c 5 2 c
4 0 c 4 2 c 5 -1 c 4 0 c 5 0 c 4 1 c 4 -2 c 5 6 c 4 -3 c 4 2 c 5 1 c 4 6 c 5 -3 c 4 -1 c 4 4 c 5 -4 c 4 -1 c 4 3 c 5 -4 c 4 -2 c
4 0 c 5 2 c 4 0 c 5 2 c 4 -2 c 4 -1 c 5 0 c 4 0 c 4 1 c 5 1 c 4 0 c 5 -2 c 4 -4 c 4 6 c 5 3 c 4 -1 c 4 2 c 5 -2 c 4 2 c 5 2 c 4 -1 c
4 1 c 5 2 c 4 1 c 4 -1 c 5 3 c 4 0 c 5 0 c 4 2 c 4 3 c 5 -3 c 4 4 c 4 0 c 5 -1 c 4 3 c 4 6 c 5 9 c 4 15 c 5 -1 c 4 -11 c 4 -4 c
5 -5 c 4 3 c 4 -1 c 5 -3 c 4 -1 c 5 2 c 4 -1 c 4 2 c 5 0 c 4 5 c 4 7 c 5 15 c 4 12 c 5 5 c 4 -15 c 4 -16 c 5 -6 c 4 -2 c 4 10 c
5 -6 c 4 9 c 5 3 c 4 7 c 4 0 c 5 1 c 4 -9 c 4 -1 c 5 0 c 4 -4 c 4 -3 c 5 -1 c 4 -4 c 5 -4 c 4 0 c 4 -3 c 5 -5 c 4 -4 c 4 -2 c 5 3 c
4 -6 c 5 -3 c 4 3 c 4 1 c 5 -5 c 4 2 c 4 0 c 5 -3 c 4 1 c 5 1 c 4 -1 c 4 0 c 5 6 c 4 0 c 4 0 c 5 0 c 4 11 c 5 10 c 4 -5 c 4 -11 c
5 -5 c 4 -1 c 4 -3 c 5 1 c 4 -4 c 4 3 c 5 -1 c 4 -1 c 5 4 c 4 -3 c 4 4 c 5 3 c 4 6 c 4 12 c 5 22 c 4 15 c 5 -7 c 4 -19 c 4 -9 c
5 1 c 4 -1 c 4 0 c 5 -6 c 4 3 c 5 0 c 4 1 c 4 -3 c 5 -1 c 4 -1 c 4 5 c 5 -3 c 4 3 c 5 1 c 4 6 c 4 1 c 5 -1 c 4 2 c 4 2 c 5 1 c
4 -2 c 4 5 c 5 1 c 4 -3 c 5 5 c 4 3 c 4 6 c 5 2 c 4 2 c 4 1 c 5 -17 c 4 3 c 5 0 c 4 -1 c 4 -3 c 5 9 c 4 -5 c 4 1 c 5 -3 c 4 -1 c
5 -3 c 4 9 c 4 2 c 5 -3 c 4 9 c 4 1 c 5 -2 c 4 18 c 4 65 c 5 176 c 4 252 c 5 125 c 4 -127 c 4 -276 c 5 -184 c 4 -32 c 4 -11 c 5 7 c
4 -6 c 5 -1 c 4 1 c 4 -1 c 5 14 c 4 25 c 4 41 c 5 76 c 4 61 c 5 23 c 4 -40 c 4 -66 c 5 -66 c 4 -46 c 4 -4 c 5 -8 c 4 -24 c 5 2 c
4 -3 c 4 0 c 5 -9 c 4 3 c 4 -5 c 5 2 c 4 -7 c 4 2 c 5 0 c 4 4 c 5 9 c 4 1 c 4 0 c 5 0 c 4 16 c 4 0 c 5 0 c 4 -13 c 5 -2 c 4 3 c
4 6 c 5 -6 c 4 3 c 4 -3 c 5 6 c 4 7 c 5 3 c 4 -3 c 4 7 c 5 8 c 4 6 c 4 14 c 5 68 c 4 242 c 5 660 c 4 954 c 4 482 c 5 -550 c 4 -983 c
4 -737 c 5 -99 c 4 -20 c 4 11 c 5 41 c 4 67 c 5 14 c 4 -35 c 4 -64 c 5 -41 c 4 5 c 4 -8 c 5 6 c 4 7 c 5 9 c 4 0 c 4 4 c 5 -5 c
4 -5 c 4 7 c 5 -5 c 4 2 c 5 1 c 4 3 c 4 4 c 5 28 c 4 50 c 4 87 c 5 8 c 4 -58 c 5 -77 c 4 -13 c 4 0 c 5 -3 c 4 -27 c 4 -10 c 5 -1 c
4 -3 c 4 -5 c 5 -10 c 4 -6 c 5 4 c 4 -18 c 4 -4 c 5 0 c 4 -3 c 4 2 c 5 -7 c 4 1 c 5 -8 c 4 4 c 4 3 c 5 -8 c 4 5 c 4 -10 c 5 9 c
4 -3 c 5 -12 c 4 8 c 4 1 c 5 7 c 4 -4 c 4 10 c 5 -5 c 4 -3 c 5 -2 c 4 -6 c 4 -1 c 5 6 c 4 -1 c 4 -4 c 5 -6 c 4 3 c 4 -7 c 5 2 c
4 2 c 5 -2 c 4 -4 c 4 -5 c 5 8 c 4 -6 c 4 14 c 5 2 c 4 -10 c 5 2 c 4 8 c 4 0 c 5 -9 c 4 6 c 4 6 c 5 0 c 4 -11 c 5 -2 c 4 2 c 4 1 c
5 9 c 4 16 c 4 49 c 5 58 c 4 21 c 4 -23 c 5 -66 c 4 -39 c 5 -12 c 4 -5 c 4 1 c 5 -6 c 4 -3 c 4 -5 c 5 1 c 4 -2 c 5 -3 c 4 9 c 4 -6 c
5 -4 c 4 -5 c 4 -5 c 5 7 c 4 -8 c 5 4 c 4 -3 c 4 -3 c 5 3 c 4 14 c 4 14 c 5 16 c 4 -15 c 5 -21 c 4 -19 c 4 -3 c 5 2 c 4 -5 c 4 0 c
5 -7 c 4 -3 c 4 -1 c 5 3 c 4 0 c 5 -3 c 4 -1 c 4 3 c 5 -1 c 4 -5 c 4 5 c 5 13 c 4 29 c 5 36 c 4 -3 c 4 -26 c 5 -45 c 4 -11 c 4 -5 c
5 -4 c 4 -2 c 5 3 c 4 -2 c 4 4 c 5 1 c 4 -3 c 4 0 c 5 -1 c 4 -1 c 5 -2 c 4 -3 c 4 2 c 5 5 c 4 3 c 4 -1 c 5 -1 c 4 -2 c 4 -1 c 5 -1 c
4 -1 c 5 2 c 4 1 c 4 -2 c 5 7 c 4 2 c 4 0 c 5 5 c 4 -7 c 5 -2 c 4 5 c 4 3 c 5 1 c 4 1 c 4 -7 c 5 -4 c 4 1 c 5 -4 c 4 3 c 4 1 c
5 -5 c 4 2 c 4 1 c 5 4 c 4 5 c 5 5 c 4 10 c 4 21 c 5 100 c 4 207 c 4 265 c 5 66 c 4 -184 c 4 -288 c 5 -153 c 4 -25 c 5 -18 c 4 -13 c
4 0 c 5 2 c 4 -2 c 4 -4 c 5 -4 c 4 -4 c 5 0 c 4 -1 c 4 1 c 5 -2 c 4 2 c 4 9 c 5 17 c 4 48 c 5 65 c 4 42 c 4 -39 c 5 -77 c 4 -59 c
4 -9 c 5 -5 c 4 -4 c 4 3 c 5 -3 c 4 0 c 5 3 c 4 -5 c 4 1 c 5 -2 c 4 -1 c 4 -2 c 5 4 c 4 1 c 5 -5 c 4 6 c 4 1 c 5 18 c 4 21 c 4 4 c
5 -8 c 4 -30 c 5 -9 c 4 5 c 4 -6 c 5 3 c 4 -1 c 4 -5 c 5 -1 c 4 -2 c 5 1 c 4 0 c 4 -4 c 5 0 c 4 0 c 4 2 c 5 -1 c 4 2 c 4 -2 c 5 -1 c
4 0 c 5 -1 c 4 -3 c 4 6 c 5 -4 c 4 0 c 4 1 c 5 -2 c 4 -4 c 5 1 c 4 4 c 4 -3 c 5 -1 c 4 4 c 4 -1 c 5 4 c 4 15 c 5 71 c 4 129 c 4 89 c
5 -48 c 4 -128 c 4 -108 c 5 -19 c 4 -1 c 5 -5 c 4 6 c 4 0 c 5 0 c 4 -1 c 4 -6 c 5 -1 c 4 1 c 4 1 c 5 -4 c 4 1 c 5 2 c 4 4 c 4 1 c
5 2 c 4 3 c 4 -2 c 5 5 c 4 -6 c 5 -3 c 4 -5 c 4 3 c 5 0 c 4 2 c 4 10 c 5 25 c 4 8 c 5 -8 c 4 -16 c 4 -11 c 5 -10 c 4 -7 c 4 1 c
5 2 c 4 0 c 5 6 c 4 9 c 4 -2 c 5 -6 c 4 1 c 1 6064 c 0 -1968 8845 7019 l 4 -3781 c 5 -108 c 4 -16 c 4 -13 c 5 -15 c 4 -20 c 4 -4 c
5 -5 c 4 -1 c 5 -9 c 4 -7 c 4 -1 c 5 -1 c 4 -8 c 4 -4 c 5 -10 c 4 -7 c 5 1 c 4 -2 c 4 -4 c 5 0 c 4 -4 c 4 3 c 5 -5 c 4 10 c 5 15 c
4 12 c 4 -8 c 5 -22 c 4 -18 c 4 -7 c 5 -5 c 4 -1 c 4 -2 c 5 -2 c 4 -1 c 5 -6 c 4 3 c 4 -5 c 5 4 c 4 2 c 4 -5 c 5 -3 c 4 2 c 5 -1 c
4 -3 c 4 -1 c 5 -1 c 4 2 c 4 1 c 5 -2 c 4 -1 c 5 -2 c 4 4 c 4 -6 c 5 1 c 4 0 c 4 15 c 5 43 c 4 36 c 4 0 c 5 -40 c 4 -46 c 5 -6 c
4 -4 c 4 2 c 5 -4 c 4 -5 c 4 -1 c 5 4 c 4 -4 c 5 -1 c 4 3 c 4 1 c 5 3 c 4 -8 c 4 4 c 5 1 c 4 -4 c 5 2 c 4 -4 c 4 1 c 5 1 c 4 2 c
4 -8 c 5 1 c 4 3 c 5 -5 c 4 -1 c 4 1 c 5 2 c 4 -2 c 4 2 c 5 -3 c 4 3 c 4 6 c 5 7 c 4 1 c 5 0 c 4 -7 c 4 -5 c 5 -4 c 4 22 c 4 24 c
5 23 c 4 -8 c 5 -27 c 4 -25 c 4 -11 c 5 -2 c 4 -6 c 4 1 c 5 3 c 4 -4 c 5 4 c 4 -4 c 4 0 c 5 4 c 4 -4 c 4 1 c 5 7 c 4 5 c 5 -4 c
4 6 c 4 -15 c 5 -2 c 4 -3 c 4 1 c 5 1 c 4 -2 c 4 0 c 5 -3 c 4 4 c 5 -3 c 4 5 c 4 0 c 5 0 c 4 -1 c 4 -1 c 5 2 c 4 0 c 5 -6 c 4 4 c
4 8 c 5 -1 c 4 -2 c 4 -6 c 5 -2 c 4 3 c 5 1 c 4 -2 c 4 -2 c 5 -7 c 4 4 c 4 0 c
5 1 c 4 -98 c 5 0 c 4 0 c 4 0 c 5 0 c 4 0 c 4 0 c 5 0 c 4 0 c 4 0 c 5 0 c 4 0 c 5 0 c 4 0 c 4 0 c 5 0 c 4 0 c 4 0 c 5 0 c 4 0 c
5 0 c 4 0 c 4 0 c 5 0 c 4 0 c 4 0 c 5 0 c 4 0 c 5 0 c 4 0 c 4 0 c 5 0 c 4 0 c 4 0 c 5 0 c 4 0 c 5 0 c 4 0 c 4 0 c 5 0 c 4 0 c 4 0 c
5 0 c 4 0 c
0 -126 3303 418 l 54 0 3303 418 l 18 -6 c 6 -6 c 6 -12 c 0 -12 c -6 -12 c -6 -6 c -18 -6 c -54 0 c 42 -66 3345 358 l
-12 -6 3453 376 l -12 -12 c -6 -18 c 0 -12 c 6 -18 c 12 -12 c 12 -6 c 18 0 c 12 6 c 12 12 c 6 18 c 0 12 c -6 18 c -12 12 c -12 6 c
-18 0 c 24 -84 3537 376 l -24 -84 3585 376 l 24 -84 3585 376 l -24 -84 3633 376 l 108 0 3675 364 l 108 0 3675 328 l 12 6 3939 394 l
18 18 c 0 -126 c -60 0 4113 418 l -6 -54 c 6 6 c 18 6 c 18 0 c 18 -6 c 12 -12 c 6 -18 c 0 -12 c -6 -18 c -12 -12 c -18 -6 c -18 0 c
-18 6 c -6 6 c -6 12 c -12 -6 4287 376 l -12 -12 c -6 -18 c 0 -12 c 6 -18 c 12 -12 c 12 -6 c 18 0 c 12 6 c 12 12 c 6 18 c 0 12 c
-6 18 c -12 12 c -12 6 c -18 0 c -12 0 4413 418 l -12 -6 c -6 -18 c 0 -102 c 42 0 4365 376 l 12 6 4557 394 l 18 18 c 0 -126 c
-60 0 4731 418 l -6 -54 c 6 6 c 18 6 c 18 0 c 18 -6 c 12 -12 c 6 -18 c 0 -12 c -6 -18 c -12 -12 c -18 -6 c -18 0 c -18 6 c -6 6 c
-6 12 c 12 6 5181 394 l 18 18 c 0 -126 c -6 -6 5294 376 l 6 -6 c 6 6 c -6 6 c -6 -6 5294 304 l 6 -6 c 6 6 c -6 6 c
-48 -126 5474 418 l 48 -126 5474 418 l 60 0 5444 334 l 0 -84 5552 376 l 6 18 5552 340 l 12 12 c 12 6 c 18 0 c -12 12 5696 358 l
-12 6 c -18 0 c -12 -6 c -12 -12 c -6 -18 c 0 -12 c 6 -18 c 12 -12 c 12 -6 c 18 0 c 12 6 c 12 12 c 108 0 5738 346 l
-18 -6 5924 418 l -12 -18 c -6 -30 c 0 -18 c 6 -30 c 12 -18 c 18 -6 c 12 0 c 18 6 c 12 18 c 6 30 c 0 18 c -6 30 c -12 18 c -18 6 c
-12 0 c -60 -126 6092 418 l 84 0 6008 418 l 12 6 6146 394 l 18 18 c 0 -126 c -6 -6 6260 304 l 6 -6 c 6 6 c -6 6 c -12 0 6350 418 l
-12 -6 c -6 -18 c 0 -102 c 42 0 6302 376 l 6 -6 6380 418 l 6 6 c -6 6 c -6 -6 c 0 -84 6386 376 l 0 -102 6440 418 l 6 -18 c 12 -6 c
12 0 c 42 0 6422 376 l -6 12 6566 358 l -18 6 c -18 0 c -18 -6 c -6 -12 c 6 -12 c 12 -6 c 30 -6 c 12 -6 c 6 -12 c 0 -6 c -6 -12 c
-18 -6 c -18 0 c -18 6 c -6 12 c 0 -192 6896 442 l 0 -192 6902 442 l 42 0 6896 442 l 42 0 6896 250 l 0 6 6980 388 l 6 12 c 6 6 c
12 6 c 24 0 c 12 -6 c 6 -6 c 6 -12 c 0 -12 c -6 -12 c -12 -18 c -60 -60 c 84 0 c -6 -6 7106 376 l 6 -6 c 6 6 c -6 6 c
-6 -6 7106 304 l 6 -6 c 6 6 c -6 6 c 0 -192 7286 442 l 0 -192 7292 442 l 42 0 7250 442 l 42 0 7250 250 l
0 -250 1052 3362 l 4 -11 1008 3452 l 7 -4 c 8 0 c 8 4 c 3 7 c 4 16 c 4 11 c 7 7 c 8 4 c 11 0 c 8 -4 c 4 -3 c 3 -12 c 0 -15 c
-3 -11 c -4 -4 c -8 -4 c -11 0 c -8 4 c -7 8 c -4 11 c -4 15 c -3 8 c -8 3 c -8 0 c -7 -3 c -4 -12 c 0 -15 c 79 -38 1008 3562 l
0 53 1008 3509 l 11 -4 1035 3634 l 7 -8 c 4 -11 c 0 -4 c -4 -11 c -7 -8 c -11 -3 c -4 0 c -12 3 c -7 8 c -4 11 c 0 4 c 4 11 c 7 8 c
16 4 c 18 0 c 19 -4 c 12 -8 c 3 -11 c 0 -8 c -3 -11 c -8 -4 c 11 -4 1035 3709 l 7 -7 c 4 -11 c 0 -4 c -4 -12 c -7 -7 c -11 -4 c
-4 0 c -12 4 c -7 7 c -4 12 c 0 4 c 4 11 c 7 7 c 16 4 c 18 0 c 19 -4 c 12 -7 c 3 -11 c 0 -8 c -3 -11 c -8 -4 c 4 -4 1080 3743 l
3 4 c -3 4 c -4 -4 c 4 -11 1008 3796 l 11 -8 c 19 -4 c 11 0 c 19 4 c 12 8 c 3 11 c 0 8 c -3 11 c -12 8 c -19 3 c -11 0 c -19 -3 c
-11 -8 c -4 -11 c 0 -8 c 4 -11 1008 3868 l 7 -4 c 8 0 c 8 4 c 3 7 c 4 15 c 4 12 c 7 7 c 8 4 c 11 0 c 8 -4 c 4 -4 c 3 -11 c 0 -15 c
-3 -11 c -4 -4 c -8 -4 c -11 0 c -8 4 c -7 7 c -4 12 c -4 15 c -3 7 c -8 4 c -8 0 c -7 -4 c -4 -11 c 0 -15 c 79 -38 1008 3978 l
0 53 1008 3925 l 0 -250 1407 1777 l 4 -12 1363 1868 l 7 -4 c 8 0 c 8 4 c 3 8 c 4 15 c 4 11 c 7 8 c 8 4 c 11 0 c 8 -4 c 4 -4 c
3 -11 c 0 -15 c -3 -12 c -4 -4 c -8 -3 c -11 0 c -8 3 c -7 8 c -4 11 c -4 15 c -3 8 c -8 4 c -8 0 c -7 -4 c -4 -11 c 0 -15 c
4 -11 1363 1943 l 7 -4 c 8 0 c 8 4 c 3 7 c 4 16 c 4 11 c 7 7 c 8 4 c 11 0 c 8 -4 c 4 -3 c 3 -12 c 0 -15 c -3 -11 c -4 -4 c -8 -4 c
-11 0 c -8 4 c -7 8 c -4 11 c -4 15 c -3 8 c -8 3 c -8 0 c -7 -3 c -4 -12 c 0 -15 c 4 -12 1363 2023 l 11 -7 c 19 -4 c 11 0 c 19 4 c
12 7 c 3 12 c 0 7 c -3 11 c -12 8 c -19 4 c -11 0 c -19 -4 c -11 -8 c -4 -11 c 0 -7 c 53 -38 1363 2113 l 0 57 c 79 0 1363 2113 l
4 -4 1435 2159 l 3 4 c -3 3 c -4 -3 c 0 -38 1363 2234 l 34 -3 c -4 3 c -3 12 c 0 11 c 3 11 c 8 8 c 11 4 c 8 0 c 11 -4 c 8 -8 c
3 -11 c 0 -11 c -3 -12 c -4 -3 c -8 -4 c 4 -11 1363 2283 l 7 -4 c 8 0 c 8 4 c 3 8 c 4 15 c 4 11 c 7 8 c 8 3 c 11 0 c 8 -3 c 4 -4 c
3 -12 c 0 -15 c -3 -11 c -4 -4 c -8 -4 c -11 0 c -8 4 c -7 8 c -4 11 c -4 15 c -3 8 c -8 4 c -8 0 c -7 -4 c -4 -12 c 0 -15 c
11 -4 1390 2389 l 7 -7 c 4 -12 c 0 -3 c -4 -12 c -7 -7 c -11 -4 c -4 0 c -12 4 c -7 7 c -4 12 c 0 3 c 4 12 c 7 7 c 16 4 c 18 0 c
19 -4 c 12 -7 c 3 -12 c 0 -7 c -3 -11 c -8 -4 c 0 -250 1774 1449 l 3 -11 1731 1539 l 8 -4 c 8 0 c 7 4 c 4 8 c 4 15 c 3 11 c 8 8 c
8 3 c 11 0 c 7 -3 c 4 -4 c 4 -11 c 0 -16 c -4 -11 c -4 -4 c -7 -3 c -11 0 c -8 3 c -8 8 c -3 11 c -4 15 c -4 8 c -7 4 c -8 0 c
-8 -4 c -3 -11 c 0 -16 c 3 -11 1731 1615 l 8 -4 c 8 0 c 7 4 c 4 7 c 4 15 c 3 12 c 8 7 c 8 4 c 11 0 c 7 -4 c 4 -4 c 4 -11 c 0 -15 c
-4 -11 c -4 -4 c -7 -4 c -11 0 c -8 4 c -8 7 c -3 12 c -4 15 c -4 7 c -7 4 c -8 0 c -8 -4 c -3 -11 c 0 -15 c -4 8 1746 1683 l
-11 11 c 79 0 c 3 -11 1731 1770 l 12 -8 c 19 -4 c 11 0 c 19 4 c 11 8 c 4 11 c 0 8 c -4 11 c -11 7 c -19 4 c -11 0 c -19 -4 c
-12 -7 c -3 -11 c 0 -8 c 4 -3 1802 1830 l 4 3 c -4 4 c -4 -4 c -4 0 1750 1864 l -8 4 c -4 4 c -3 8 c 0 15 c 3 7 c 4 4 c 8 4 c 7 0 c
8 -4 c 11 -8 c 38 -37 c 0 53 c 0 -38 1731 1982 l 34 -4 c -4 4 c -4 11 c 0 11 c 4 12 c 7 7 c 12 4 c 7 0 c 12 -4 c 7 -7 c 4 -12 c
0 -11 c -4 -11 c -4 -4 c -7 -4 c 53 -38 1731 2050 l 0 57 c 79 0 1731 2050 l 0 -250 2160 2867 l 3 -11 2117 2957 l 8 -4 c 8 0 c 7 4 c
4 8 c 4 15 c 3 11 c 8 8 c 8 3 c 11 0 c 7 -3 c 4 -4 c 4 -12 c 0 -15 c -4 -11 c -4 -4 c -7 -4 c -11 0 c -8 4 c -8 8 c -3 11 c -4 15 c
-4 8 c -7 4 c -8 0 c -8 -4 c -3 -12 c 0 -15 c 3 -11 2117 3033 l 8 -4 c 8 0 c 7 4 c 4 7 c 4 15 c 3 12 c 8 7 c 8 4 c 11 0 c 7 -4 c
4 -4 c 4 -11 c 0 -15 c -4 -11 c -4 -4 c -7 -4 c -11 0 c -8 4 c -8 7 c -3 12 c -4 15 c -4 7 c -7 4 c -8 0 c -8 -4 c -3 -11 c 0 -15 c
-4 7 2132 3101 l -11 12 c 79 0 c -8 -3 2128 3214 l -3 -12 c 0 -7 c 3 -12 c 12 -7 c 19 -4 c 19 0 c 15 4 c 7 7 c 4 12 c 0 3 c -4 12 c
-7 7 c -12 4 c -3 0 c -12 -4 c -7 -7 c -4 -12 c 0 -3 c 4 -12 c 7 -7 c 12 -4 c 4 -3 2188 3248 l 4 3 c -4 4 c -4 -4 c -4 7 2132 3290 l
-11 12 c 79 0 c 79 -38 2117 3407 l 0 53 2117 3354 l 0 42 2117 3437 l 30 -23 c 0 12 c 4 7 c 3 4 c 12 4 c 7 0 c 12 -4 c 7 -8 c 4 -11 c
0 -11 c -4 -12 c -4 -3 c -7 -4 c 0 -249 2263 1622 l 4 -11 2219 1713 l 7 -4 c 8 0 c 7 4 c 4 7 c 4 15 c 4 12 c 7 7 c 8 4 c 11 0 c
8 -4 c 4 -3 c 3 -12 c 0 -15 c -3 -11 c -4 -4 c -8 -4 c -11 0 c -8 4 c -7 8 c -4 11 c -4 15 c -4 8 c -7 3 c -8 0 c -7 -3 c -4 -12 c
0 -15 c 4 -12 2219 1789 l 7 -3 c 8 0 c 7 3 c 4 8 c 4 15 c 4 11 c 7 8 c 8 4 c 11 0 c 8 -4 c 4 -4 c 3 -11 c 0 -15 c -3 -12 c -4 -3 c
-8 -4 c -11 0 c -8 4 c -7 7 c -4 11 c -4 16 c -4 7 c -7 4 c -8 0 c -7 -4 c -4 -11 c 0 -15 c -4 7 2234 1857 l -11 12 c 79 0 c
79 -38 2219 1974 l 0 53 2219 1921 l 4 -4 2291 2004 l 3 4 c -3 4 c -4 -4 c 79 -37 2219 2087 l 0 53 2219 2034 l 53 -38 2219 2148 l
0 57 c 79 0 2219 2148 l 0 42 2219 2193 l 30 -23 c 0 11 c 4 8 c 4 4 c 11 3 c 8 0 c 11 -3 c 8 -8 c 3 -11 c 0 -12 c -3 -11 c -4 -4 c
-8 -3 c 0 -249 3046 1484 l 4 -12 3003 1575 l 7 -3 c 8 0 c 7 3 c 4 8 c 4 15 c 4 11 c 7 8 c 8 4 c 11 0 c 8 -4 c 3 -4 c 4 -11 c 0 -15 c
-4 -12 c -3 -3 c -8 -4 c -11 0 c -8 4 c -7 7 c -4 12 c -4 15 c -4 7 c -7 4 c -8 0 c -7 -4 c -4 -11 c 0 -15 c 4 -11 3003 1650 l
7 -4 c 8 0 c 7 4 c 4 8 c 4 15 c 4 11 c 7 8 c 8 3 c 11 0 c 8 -3 c 3 -4 c 4 -11 c 0 -16 c -4 -11 c -3 -4 c -8 -3 c -11 0 c -8 3 c
-7 8 c -4 11 c -4 15 c -4 8 c -7 4 c -8 0 c -7 -4 c -4 -11 c 0 -16 c -4 0 3022 1711 l -8 4 c -3 3 c -4 8 c 0 15 c 4 8 c 3 3 c 8 4 c
8 0 c 7 -4 c 11 -7 c 38 -38 c 0 53 c 12 -4 3029 1832 l 7 -8 c 4 -11 c 0 -4 c -4 -11 c -7 -8 c -12 -3 c -3 0 c -12 3 c -7 8 c -4 11 c
0 4 c 4 11 c 7 8 c 15 4 c 19 0 c 19 -4 c 11 -8 c 4 -11 c 0 -7 c -4 -12 c -7 -4 c 3 -4 3075 1866 l 4 4 c -4 4 c -3 -4 c
-7 -4 3014 1945 l -4 -11 c 0 -7 c 4 -12 c 11 -7 c 19 -4 c 19 0 c 15 4 c 7 7 c 4 12 c 0 3 c -4 12 c -7 7 c -11 4 c -4 0 c -12 -4 c
-7 -7 c -4 -12 c 0 -3 c 4 -12 c 7 -7 c 12 -4 c 12 -4 3029 2021 l 7 -8 c 4 -11 c 0 -4 c -4 -11 c -7 -8 c -12 -3 c -3 0 c -12 3 c
-7 8 c -4 11 c 0 4 c 4 11 c 7 8 c 15 4 c 19 0 c 19 -4 c 11 -8 c 4 -11 c 0 -7 c -4 -12 c -7 -4 c 53 -38 3003 2085 l 0 57 c
79 0 3003 2085 l 0 -250 3810 3251 l 4 -11 3766 3341 l 7 -4 c 8 0 c 8 4 c 3 7 c 4 16 c 4 11 c 7 7 c 8 4 c 11 0 c 8 -4 c 4 -3 c
3 -12 c 0 -15 c -3 -11 c -4 -4 c -8 -4 c -11 0 c -8 4 c -7 8 c -4 11 c -4 15 c -3 8 c -8 3 c -8 0 c -7 -3 c -4 -12 c 0 -15 c
4 -12 3766 3417 l 7 -3 c 8 0 c 8 3 c 3 8 c 4 15 c 4 11 c 7 8 c 8 4 c 11 0 c 8 -4 c 4 -4 c 3 -11 c 0 -15 c -3 -12 c -4 -3 c -8 -4 c
-11 0 c -8 4 c -7 7 c -4 12 c -4 15 c -3 7 c -8 4 c -8 0 c -7 -4 c -4 -11 c 0 -15 c 53 -37 3766 3511 l 0 56 c 79 0 3766 3511 l
-4 8 3781 3560 l -11 11 c 79 0 c 4 -4 3838 3632 l 3 4 c -3 4 c -4 -4 c -4 7 3781 3674 l -11 12 c 79 0 c 4 -11 3766 3757 l 7 -4 c
8 0 c 8 4 c 3 7 c 4 15 c 4 12 c 7 7 c 8 4 c 11 0 c 8 -4 c 4 -4 c 3 -11 c 0 -15 c -3 -11 c -4 -4 c -8 -4 c -11 0 c -8 4 c -7 7 c
-4 12 c -4 15 c -3 7 c -8 4 c -8 0 c -7 -4 c -4 -11 c 0 -15 c -4 0 3785 3817 l -7 4 c -4 4 c -4 8 c 0 15 c 4 7 c 4 4 c 7 4 c 8 0 c
7 -4 c 12 -8 c 37 -37 c 0 53 c 0 -249 3869 4462 l 3 -11 3826 4553 l 8 -4 c 8 0 c 7 4 c 4 7 c 4 15 c 3 12 c 8 7 c 8 4 c 11 0 c 7 -4 c
4 -4 c 4 -11 c 0 -15 c -4 -11 c -4 -4 c -7 -4 c -11 0 c -8 4 c -8 7 c -3 12 c -4 15 c -4 7 c -7 4 c -8 0 c -8 -4 c -3 -11 c 0 -15 c
3 -12 3826 4629 l 8 -4 c 8 0 c 7 4 c 4 8 c 4 15 c 3 11 c 8 8 c 8 4 c 11 0 c 7 -4 c 4 -4 c 4 -11 c 0 -15 c -4 -12 c -4 -4 c -7 -3 c
-11 0 c -8 3 c -8 8 c -3 11 c -4 15 c -4 8 c -7 4 c -8 0 c -8 -4 c -3 -11 c 0 -15 c 53 -38 3826 4723 l 0 57 c 79 0 3826 4723 l
-4 0 3845 4765 l -8 3 c -4 4 c -3 8 c 0 15 c 3 7 c 4 4 c 8 4 c 7 0 c 8 -4 c 11 -7 c 38 -38 c 0 53 c 4 -4 3897 4844 l 4 4 c -4 4 c
-4 -4 c 3 -11 3826 4897 l 12 -8 c 19 -4 c 11 0 c 19 4 c 11 8 c 4 11 c 0 7 c -4 12 c -11 7 c -19 4 c -11 0 c -19 -4 c -12 -7 c
-3 -12 c 0 -7 c 79 -38 3826 5003 l 0 53 3826 4950 l 53 -38 3826 5063 l 0 57 c 79 0 3826 5063 l 0 -249 4394 3184 l 4 -11 4350 3275 l
8 -4 c 7 0 c 8 4 c 4 7 c 3 15 c 4 12 c 8 7 c 7 4 c 12 0 c 7 -4 c 4 -4 c 4 -11 c 0 -15 c -4 -11 c -4 -4 c -7 -4 c -12 0 c -7 4 c
-8 7 c -4 12 c -3 15 c -4 7 c -8 4 c -7 0 c -8 -4 c -4 -11 c 0 -15 c 4 -12 4350 3351 l 8 -4 c 7 0 c 8 4 c 4 8 c 3 15 c 4 11 c 8 8 c
7 4 c 12 0 c 7 -4 c 4 -4 c 4 -11 c 0 -15 c -4 -12 c -4 -4 c -7 -3 c -12 0 c -7 3 c -8 8 c -4 11 c -3 15 c -4 8 c -8 4 c -7 0 c
-8 -4 c -4 -11 c 0 -15 c 53 -38 4350 3445 l 0 57 c 80 0 4350 3445 l 11 -4 4377 3532 l 8 -7 c 4 -12 c 0 -4 c -4 -11 c -8 -7 c
-11 -4 c -4 0 c -11 4 c -8 7 c -4 11 c 0 4 c 4 12 c 8 7 c 15 4 c 19 0 c 19 -4 c 11 -7 c 4 -12 c 0 -7 c -4 -12 c -8 -3 c
4 -4 4422 3566 l 4 4 c -4 4 c -4 -4 c 11 -3 4377 3645 l 8 -8 c 4 -11 c 0 -4 c -4 -11 c -8 -8 c -11 -4 c -4 0 c -11 4 c -8 8 c
-4 11 c 0 4 c 4 11 c 8 8 c 15 3 c 19 0 c 19 -3 c 11 -8 c 4 -11 c 0 -8 c -4 -11 c -8 -4 c -4 8 4366 3683 l -12 11 c 80 0 c
-8 -3 4362 3796 l -4 -12 c 0 -7 c 4 -12 c 12 -7 c 18 -4 c 19 0 c 15 4 c 8 7 c 4 12 c 0 4 c -4 11 c -8 7 c -11 4 c -4 0 c -11 -4 c
-8 -7 c -3 -11 c 0 -4 c 3 -12 c 8 -7 c 11 -4 c 0 -250 4587 1561 l 4 -11 4543 1651 l 7 -4 c 8 0 c 7 4 c 4 8 c 4 15 c 4 11 c 7 8 c
8 3 c 11 0 c 8 -3 c 4 -4 c 3 -12 c 0 -15 c -3 -11 c -4 -4 c -8 -4 c -11 0 c -8 4 c -7 8 c -4 11 c -4 15 c -4 8 c -7 4 c -8 0 c
-7 -4 c -4 -12 c 0 -15 c 4 -11 4543 1727 l 7 -4 c 8 0 c 7 4 c 4 7 c 4 15 c 4 12 c 7 7 c 8 4 c 11 0 c 8 -4 c 4 -4 c 3 -11 c 0 -15 c
-3 -11 c -4 -4 c -8 -4 c -11 0 c -8 4 c -7 7 c -4 12 c -4 15 c -4 7 c -7 4 c -8 0 c -7 -4 c -4 -11 c 0 -15 c 0 -38 4543 1829 l
34 -4 c -4 4 c -4 11 c 0 12 c 4 11 c 8 8 c 11 3 c 8 0 c 11 -3 c 8 -8 c 3 -11 c 0 -12 c -3 -11 c -4 -4 c -8 -3 c -4 0 4562 1863 l
-7 4 c -4 3 c -4 8 c 0 15 c 4 8 c 4 4 c 7 3 c 8 0 c 7 -3 c 12 -8 c 37 -38 c 0 53 c 4 -3 4615 1942 l 3 3 c -3 4 c -4 -4 c
79 -37 4543 2025 l 0 52 4543 1973 l 12 -4 4569 2097 l 7 -7 c 4 -11 c 0 -4 c -4 -12 c -7 -7 c -12 -4 c -3 0 c -12 4 c -7 7 c -4 12 c
0 4 c 4 11 c 7 7 c 15 4 c 19 0 c 19 -4 c 12 -7 c 3 -11 c 0 -8 c -3 -11 c -8 -4 c -4 0 4562 2128 l -7 3 c -4 4 c -4 8 c 0 15 c 4 7 c
4 4 c 7 4 c 8 0 c 7 -4 c 12 -7 c 37 -38 c 0 53 c 0 -249 4730 1570 l 4 -11 4686 1661 l 8 -4 c 7 0 c 8 4 c 4 7 c 3 15 c 4 12 c 8 7 c
7 4 c 12 0 c 7 -4 c 4 -4 c 4 -11 c 0 -15 c -4 -11 c -4 -4 c -7 -4 c -12 0 c -7 4 c -8 7 c -4 12 c -3 15 c -4 7 c -8 4 c -7 0 c
-8 -4 c -4 -11 c 0 -15 c 4 -11 4686 1736 l 8 -4 c 7 0 c 8 4 c 4 8 c 3 15 c 4 11 c 8 8 c 7 4 c 12 0 c 7 -4 c 4 -4 c 4 -11 c 0 -16 c
-4 -11 c -4 -4 c -7 -3 c -12 0 c -7 3 c -8 8 c -4 11 c -3 15 c -4 8 c -8 4 c -7 0 c -8 -4 c -4 -11 c 0 -16 c 0 -38 4686 1839 l
34 -4 c -3 4 c -4 11 c 0 11 c 4 12 c 7 7 c 11 4 c 8 0 c 11 -4 c 8 -7 c 4 -12 c 0 -11 c -4 -11 c -4 -4 c -7 -4 c 53 -38 4686 1907 l
0 56 c 80 0 4686 1907 l 4 -4 4758 1952 l 4 4 c -4 4 c -4 -4 c 11 -3 4713 2031 l 8 -8 c 3 -11 c 0 -4 c -3 -12 c -8 -7 c -11 -4 c
-4 0 c -11 4 c -8 7 c -4 12 c 0 4 c 4 11 c 8 8 c 15 3 c 19 0 c 19 -3 c 11 -8 c 4 -11 c 0 -8 c -4 -11 c -8 -4 c 4 -11 4686 2080 l
11 -7 c 19 -4 c 12 0 c 19 4 c 11 7 c 4 11 c 0 8 c -4 11 c -11 8 c -19 4 c -12 0 c -19 -4 c -11 -8 c -4 -11 c 0 -8 c
4 -11 4686 2152 l 8 -4 c 7 0 c 8 4 c 4 7 c 3 16 c 4 11 c 8 7 c 7 4 c 12 0 c 7 -4 c 4 -3 c 4 -12 c 0 -15 c -4 -11 c -4 -4 c -7 -4 c
-12 0 c -7 4 c -8 8 c -4 11 c -3 15 c -4 8 c -8 3 c -7 0 c -8 -3 c -4 -12 c 0 -15 c 0 -249 5677 6049 l 4 -11 5633 6140 l 8 -4 c
7 0 c 8 4 c 4 7 c 3 16 c 4 11 c 8 7 c 7 4 c 12 0 c 7 -4 c 4 -3 c 4 -12 c 0 -15 c -4 -11 c -4 -4 c -7 -4 c -12 0 c -7 4 c -8 8 c
-4 11 c -3 15 c -4 8 c -8 3 c -7 0 c -8 -3 c -4 -12 c 0 -15 c 4 -12 5633 6216 l 8 -3 c 7 0 c 8 3 c 4 8 c 3 15 c 4 11 c 8 8 c 7 4 c
12 0 c 7 -4 c 4 -4 c 4 -11 c 0 -15 c -4 -12 c -4 -3 c -7 -4 c -12 0 c -7 4 c -8 7 c -4 12 c -3 15 c -4 7 c -8 4 c -7 0 c -8 -4 c
-4 -11 c 0 -15 c -8 -4 5645 6322 l -4 -11 c 0 -8 c 4 -11 c 11 -8 c 19 -4 c 19 0 c 15 4 c 8 8 c 4 11 c 0 4 c -4 11 c -8 8 c -11 3 c
-4 0 c -11 -3 c -8 -8 c -3 -11 c 0 -4 c 3 -11 c 8 -8 c 11 -4 c 4 -11 5633 6367 l 8 -4 c 7 0 c 8 4 c 4 7 c 3 15 c 4 12 c 8 7 c 7 4 c
12 0 c 7 -4 c 4 -4 c 4 -11 c 0 -15 c -4 -11 c -4 -4 c -7 -4 c -12 0 c -7 4 c -8 7 c -4 12 c -3 15 c -4 7 c -8 4 c -7 0 c -8 -4 c
-4 -11 c 0 -15 c 4 -4 5705 6431 l 4 4 c -4 4 c -4 -4 c 4 -11 5633 6480 l 8 -4 c 7 0 c 8 4 c 4 8 c 3 15 c 4 11 c 8 8 c 7 3 c 12 0 c
7 -3 c 4 -4 c 4 -12 c 0 -15 c -4 -11 c -4 -4 c -7 -4 c -12 0 c -7 4 c -8 8 c -4 11 c -3 15 c -4 8 c -8 4 c -7 0 c -8 -4 c -4 -12 c
0 -15 c 0 41 5633 6545 l 31 -22 c 0 11 c 3 7 c 4 4 c 11 4 c 8 0 c 11 -4 c 8 -7 c 4 -12 c 0 -11 c -4 -11 c -4 -4 c -7 -4 c
0 42 5633 6620 l 31 -23 c 0 11 c 3 8 c 4 4 c 11 4 c 8 0 c 11 -4 c 8 -8 c 4 -11 c 0 -11 c -4 -12 c -4 -4 c -7 -3 c 0 -249 6117 1816 l
4 -11 6073 1907 l 7 -4 c 8 0 c 8 4 c 3 7 c 4 15 c 4 12 c 8 7 c 7 4 c 11 0 c 8 -4 c 4 -3 c 4 -12 c 0 -15 c -4 -11 c -4 -4 c -8 -4 c
-11 0 c -7 4 c -8 8 c -4 11 c -4 15 c -3 8 c -8 3 c -8 0 c -7 -3 c -4 -12 c 0 -15 c 4 -12 6073 1983 l 7 -3 c 8 0 c 8 3 c 3 8 c
4 15 c 4 11 c 8 8 c 7 4 c 11 0 c 8 -4 c 4 -4 c 4 -11 c 0 -15 c -4 -12 c -4 -3 c -8 -4 c -11 0 c -7 4 c -8 7 c -4 11 c -4 16 c -3 7 c
-8 4 c -8 0 c -7 -4 c -4 -11 c 0 -15 c 80 -37 6073 2092 l 0 53 6073 2039 l 0 -37 6073 2160 l 34 -4 c -4 4 c -3 11 c 0 11 c 3 12 c
8 7 c 11 4 c 8 0 c 11 -4 c 8 -7 c 4 -12 c 0 -11 c -4 -11 c -4 -4 c -8 -4 c 4 -4 6145 2198 l 4 4 c -4 4 c -4 -4 c -4 0 6092 2232 l
-7 4 c -4 4 c -4 7 c 0 15 c 4 8 c 4 4 c 7 4 c 8 0 c 7 -4 c 12 -8 c 38 -38 c 0 53 c 0 41 6073 2312 l 30 -23 c 0 12 c 4 7 c 4 4 c
11 4 c 8 0 c 11 -4 c 8 -7 c 4 -12 c 0 -11 c -4 -11 c -4 -4 c -8 -4 c -4 0 6092 2383 l -7 4 c -4 4 c -4 7 c 0 16 c 4 7 c 4 4 c 7 4 c
8 0 c 7 -4 c 12 -8 c 38 -37 c 0 52 c 0 -250 7087 2131 l 4 -12 7044 2222 l 7 -4 c 8 0 c 7 4 c 4 8 c 4 15 c 4 11 c 7 8 c 8 4 c 11 0 c
8 -4 c 3 -4 c 4 -11 c 0 -15 c -4 -12 c -3 -4 c -8 -3 c -11 0 c -8 3 c -7 8 c -4 11 c -4 16 c -4 7 c -7 4 c -8 0 c -7 -4 c -4 -11 c
0 -15 c 4 -11 7044 2297 l 7 -4 c 8 0 c 7 4 c 4 7 c 4 16 c 4 11 c 7 7 c 8 4 c 11 0 c 8 -4 c 3 -3 c 4 -12 c 0 -15 c -4 -11 c -3 -4 c
-8 -4 c -11 0 c -8 4 c -7 8 c -4 11 c -4 15 c -4 8 c -7 3 c -8 0 c -7 -3 c -4 -12 c 0 -15 c 4 -12 7044 2373 l 7 -3 c 8 0 c 7 3 c
4 8 c 4 15 c 4 11 c 7 8 c 8 4 c 11 0 c 8 -4 c 3 -4 c 4 -11 c 0 -15 c -4 -12 c -3 -3 c -8 -4 c -11 0 c -8 4 c -7 7 c -4 12 c -4 15 c
-4 7 c -7 4 c -8 0 c -7 -4 c -4 -11 c 0 -15 c 12 -4 7070 2479 l 7 -8 c 4 -11 c 0 -4 c -4 -11 c -7 -8 c -12 -4 c -4 0 c -11 4 c
-7 8 c -4 11 c 0 4 c 4 11 c 7 8 c 15 4 c 19 0 c 19 -4 c 11 -8 c 4 -11 c 0 -8 c -4 -11 c -7 -4 c 3 -4 7116 2513 l 4 4 c -4 3 c
-3 -3 c -4 8 7059 2554 l -11 11 c 79 0 c 12 -4 7070 2668 l 7 -8 c 4 -11 c 0 -4 c -4 -11 c -7 -8 c -12 -4 c -4 0 c -11 4 c -7 8 c
-4 11 c 0 4 c 4 11 c 7 8 c 15 4 c 19 0 c 19 -4 c 11 -8 c 4 -11 c 0 -8 c -4 -11 c -7 -4 c 53 -38 7044 2732 l 0 57 c 79 0 7044 2732 l
0 -250 7354 3944 l 4 -11 7310 4034 l 8 -4 c 7 0 c 8 4 c 4 8 c 3 15 c 4 11 c 8 8 c 7 3 c 12 0 c 7 -3 c 4 -4 c 4 -12 c 0 -15 c
-4 -11 c -4 -4 c -7 -4 c -12 0 c -7 4 c -8 8 c -4 11 c -3 15 c -4 8 c -8 4 c -7 0 c -8 -4 c -4 -12 c 0 -15 c 4 -11 7310 4110 l
8 -4 c 7 0 c 8 4 c 4 7 c 3 15 c 4 12 c 8 7 c 7 4 c 12 0 c 7 -4 c 4 -4 c 4 -11 c 0 -15 c -4 -11 c -4 -4 c -7 -4 c -12 0 c -7 4 c
-8 7 c -4 12 c -3 15 c -4 7 c -8 4 c -7 0 c -8 -4 c -4 -11 c 0 -15 c 11 -4 7337 4216 l 8 -8 c 4 -11 c 0 -4 c -4 -11 c -8 -8 c
-11 -3 c -4 0 c -11 3 c -8 8 c -4 11 c 0 4 c 4 11 c 8 8 c 15 4 c 19 0 c 19 -4 c 11 -8 c 4 -11 c 0 -8 c -4 -11 c -8 -4 c
-3 0 7329 4246 l -8 4 c -4 4 c -4 7 c 0 15 c 4 8 c 4 4 c 8 3 c 7 0 c 8 -3 c 11 -8 c 38 -38 c 0 53 c 4 -3 7382 4325 l 4 3 c -4 4 c
-4 -4 c 11 -4 7337 4405 l 8 -8 c 4 -11 c 0 -4 c -4 -11 c -8 -8 c -11 -3 c -4 0 c -11 3 c -8 8 c -4 11 c 0 4 c 4 11 c 8 8 c 15 4 c
19 0 c 19 -4 c 11 -8 c 4 -11 c 0 -8 c -4 -11 c -8 -4 c 4 -11 7310 4450 l 8 -4 c 7 0 c 8 4 c 4 7 c 3 15 c 4 12 c 8 7 c 7 4 c 12 0 c
7 -4 c 4 -4 c 4 -11 c 0 -15 c -4 -11 c -4 -4 c -7 -4 c -12 0 c -7 4 c -8 7 c -4 12 c -3 15 c -4 7 c -8 4 c -7 0 c -8 -4 c -4 -11 c
0 -15 c 80 -38 7310 4560 l 0 53 7310 4507 l 0 -250 7800 1641 l 4 -11 7756 1731 l 8 -4 c 7 0 c 8 4 c 4 8 c 3 15 c 4 11 c 8 8 c 7 3 c
12 0 c 7 -3 c 4 -4 c 4 -11 c 0 -16 c -4 -11 c -4 -4 c -7 -3 c -12 0 c -7 3 c -8 8 c -4 11 c -3 15 c -4 8 c -8 4 c -7 0 c -8 -4 c
-4 -11 c 0 -16 c 4 -11 7756 1807 l 8 -4 c 7 0 c 8 4 c 4 7 c 3 15 c 4 12 c 8 7 c 7 4 c 12 0 c 7 -4 c 4 -4 c 4 -11 c 0 -15 c -4 -11 c
-4 -4 c -7 -4 c -12 0 c -7 4 c -8 7 c -4 12 c -3 15 c -4 7 c -8 4 c -7 0 c -8 -4 c -4 -11 c 0 -15 c 11 -4 7783 1913 l 8 -8 c 3 -11 c
0 -4 c -3 -11 c -8 -8 c -11 -3 c -4 0 c -11 3 c -8 8 c -4 11 c 0 4 c 4 11 c 8 8 c 15 4 c 19 0 c 19 -4 c 11 -8 c 4 -11 c 0 -7 c
-4 -12 c -8 -4 c 11 -3 7783 1988 l 8 -8 c 3 -11 c 0 -4 c -3 -11 c -8 -8 c -11 -4 c -4 0 c -11 4 c -8 8 c -4 11 c 0 4 c 4 11 c 8 8 c
15 3 c 19 0 c 19 -3 c 11 -8 c 4 -11 c 0 -8 c -4 -11 c -8 -4 c 4 -3 7828 2022 l 4 3 c -4 4 c -4 -4 c -4 0 7775 2056 l -7 4 c -4 4 c
-4 8 c 0 15 c 4 7 c 4 4 c 7 4 c 8 0 c 8 -4 c 11 -8 c 38 -37 c 0 53 c 11 -3 7783 2177 l 8 -8 c 3 -11 c 0 -4 c -3 -11 c -8 -8 c
-11 -4 c -4 0 c -11 4 c -8 8 c -4 11 c 0 4 c 4 11 c 8 8 c 15 3 c 19 0 c 19 -3 c 11 -8 c 4 -11 c 0 -8 c -4 -11 c -8 -4 c
80 -38 7756 2257 l 0 53 7756 2204 l 0 -249 8254 2109 l 4 -12 8210 2200 l 7 -3 c 8 0 c 7 3 c 4 8 c 4 15 c 4 11 c 7 8 c 8 4 c 11 0 c
8 -4 c 4 -4 c 3 -11 c 0 -15 c -3 -12 c -4 -3 c -8 -4 c -11 0 c -8 4 c -7 7 c -4 12 c -4 15 c -4 7 c -7 4 c -8 0 c -7 -4 c -4 -11 c
0 -15 c 12 -4 8236 2306 l 7 -8 c 4 -11 c 0 -4 c -4 -11 c -7 -8 c -12 -4 c -3 0 c -12 4 c -7 8 c -4 11 c 0 4 c 4 11 c 7 8 c 15 4 c
19 0 c 19 -4 c 12 -8 c 3 -11 c 0 -8 c -3 -11 c -8 -4 c 4 -12 8210 2355 l 11 -7 c 19 -4 c 11 0 c 19 4 c 12 7 c 3 12 c 0 7 c -3 12 c
-12 7 c -19 4 c -11 0 c -19 -4 c -11 -7 c -4 -12 c 0 -7 c 0 -38 8210 2453 l 34 -4 c -4 4 c -4 12 c 0 11 c 4 11 c 8 8 c 11 4 c 8 0 c
11 -4 c 8 -8 c 3 -11 c 0 -11 c -3 -12 c -4 -4 c -8 -3 c 4 -4 8282 2491 l 3 4 c -3 4 c -4 -4 c -7 -4 8221 2570 l -4 -11 c 0 -8 c
4 -11 c 11 -7 c 19 -4 c 19 0 c 15 4 c 8 7 c 3 11 c 0 4 c -3 12 c -8 7 c -11 4 c -4 0 c -11 -4 c -8 -7 c -4 -12 c 0 -4 c 4 -11 c
8 -7 c 11 -4 c 0 -38 8210 2642 l 34 -4 c -4 4 c -4 12 c 0 11 c 4 11 c 8 8 c 11 4 c 8 0 c 11 -4 c 8 -8 c 3 -11 c 0 -11 c -3 -12 c
-4 -4 c -8 -3 c 4 -11 8210 2691 l 7 -4 c 8 0 c 7 4 c 4 7 c 4 15 c 4 12 c 7 7 c 8 4 c 11 0 c 8 -4 c 4 -3 c 3 -12 c 0 -15 c -3 -11 c
-4 -4 c -8 -4 c -11 0 c -8 4 c -7 8 c -4 11 c -4 15 c -4 8 c -7 3 c -8 0 c -7 -3 c -4 -12 c 0 -15 c 0 -249 8627 1695 l
4 -11 8583 1786 l 8 -4 c 7 0 c 8 4 c 4 7 c 3 15 c 4 12 c 8 7 c 7 4 c 12 0 c 7 -4 c 4 -3 c 4 -12 c 0 -15 c -4 -11 c -4 -4 c -7 -4 c
-12 0 c -7 4 c -8 8 c -4 11 c -3 15 c -4 8 c -8 3 c -7 0 c -8 -3 c -4 -12 c 0 -15 c 11 -4 8610 1892 l 8 -7 c 4 -12 c 0 -3 c -4 -12 c
-8 -7 c -11 -4 c -4 0 c -11 4 c -8 7 c -4 12 c 0 3 c 4 12 c 8 7 c 15 4 c 19 0 c 19 -4 c 11 -7 c 4 -12 c 0 -7 c -4 -12 c -8 -3 c
-4 7 8599 1930 l -12 12 c 80 0 c 4 -12 8583 2017 l 12 -7 c 18 -4 c 12 0 c 19 4 c 11 7 c 4 12 c 0 7 c -4 12 c -11 7 c -19 4 c -12 0 c
-18 -4 c -12 -7 c -4 -12 c 0 -7 c 4 -4 8655 2077 l 4 4 c -4 4 c -4 -4 c 4 -11 8583 2126 l 8 -4 c 7 0 c 8 4 c 4 8 c 3 15 c 4 11 c
8 8 c 7 3 c 12 0 c 7 -3 c 4 -4 c 4 -12 c 0 -15 c -4 -11 c -4 -4 c -7 -4 c -12 0 c -7 4 c -8 8 c -4 11 c -3 15 c -4 8 c -8 4 c -7 0 c
-8 -4 c -4 -12 c 0 -15 c 0 -37 8583 2228 l 34 -4 c -3 4 c -4 11 c 0 11 c 4 12 c 7 7 c 12 4 c 7 0 c 11 -4 c 8 -7 c 4 -12 c 0 -11 c
-4 -11 c -4 -4 c -7 -4 c 80 -37 8583 2311 l 0 52 8583 2259 l
showpage PGPLOT restore
 
%%Trailer
%%DocumentFonts: 
%%Pages: 1
%%EOF
