%!PS-Adobe-3.0 EPSF-3.0
%%For: tab
%%Title: PGPLOT PostScript plot
%%Creator: PGPLOT
%%CreationDate: 20-Apr-1995 17:01
%%BoundingBox: 25 18 587 774
%%DocumentFonts: (atend)
%%LanguageLevel: 1
%%Orientation: Landscape
%%Pages: (atend)
%%EndComments
%%BeginProlog
/l {moveto rlineto currentpoint stroke moveto} bind def
/c {rlineto currentpoint stroke moveto} bind def
/d {moveto 0 0 rlineto currentpoint stroke moveto} bind def
/SLW {5 mul setlinewidth} bind def
/SCF /pop load def
/BP {newpath moveto} bind def
/LP /rlineto load def
/EP {rlineto closepath eofill} bind def
/MB {gsave translate MFAC dup scale 1 setlinewidth 2 setlinecap 0 setlinejoin newpath} bind def
/ME /grestore load def
/C {0 360 arc stroke} bind def
/FC {0 360 arc fill} bind def
%%EndProlog
 
%%Page: 1 1
%%BeginPageSetup
/PGPLOT save def
0.072 0.072 scale
8150 250 translate 90 rotate
1 setlinejoin 1 setlinecap 1 SLW 1 SCF
%%EndPageSetup
0.000 setgray 1 SLW 8939 0 780 780 l 0 6239 c -8939 0 c 0 -6239 c 0 -45 1116 780 l 0 -45 1554 780 l 0 -45 1991 780 l
0 -45 2428 780 l 0 -90 2865 780 l 0 -45 3302 780 l 0 -45 3739 780 l 0 -45 4176 780 l 0 -45 4613 780 l 0 -90 5051 780 l
0 -45 5488 780 l 0 -45 5925 780 l 0 -45 6362 780 l 0 -45 6799 780 l 0 -90 7236 780 l 0 -45 7673 780 l 0 -45 8110 780 l
0 -45 8548 780 l 0 -45 8985 780 l 0 -90 9422 780 l 0 -45 1116 7064 l 0 -45 1554 7064 l 0 -45 1991 7064 l 0 -45 2428 7064 l
0 -90 2865 7109 l 0 -45 3302 7064 l 0 -45 3739 7064 l 0 -45 4176 7064 l 0 -45 4613 7064 l 0 -90 5051 7109 l 0 -45 5488 7064 l
0 -45 5925 7064 l 0 -45 6362 7064 l 0 -45 6799 7064 l 0 -90 7236 7109 l 0 -45 7673 7064 l 0 -45 8110 7064 l 0 -45 8548 7064 l
0 -45 8985 7064 l 0 -90 9422 7109 l -60 0 2775 672 l -6 -54 c 6 6 c 18 6 c 18 0 c 18 -6 c 12 -12 c 6 -18 c 0 -12 c -6 -18 c
-12 -12 c -18 -6 c -18 0 c -18 6 c -6 6 c -6 12 c -18 -6 2859 672 l -12 -18 c -6 -30 c 0 -18 c 6 -30 c 12 -18 c 18 -6 c 12 0 c
18 6 c 12 18 c 6 30 c 0 18 c -6 30 c -12 18 c -18 6 c -12 0 c -18 -6 2979 672 l -12 -18 c -6 -30 c 0 -18 c 6 -30 c 12 -18 c 18 -6 c
12 0 c 18 6 c 12 18 c 6 30 c 0 18 c -6 30 c -12 18 c -18 6 c -12 0 c 12 6 4847 648 l 18 18 c 0 -126 c -18 -6 4985 672 l -12 -18 c
-6 -30 c 0 -18 c 6 -30 c 12 -18 c 18 -6 c 12 0 c 18 6 c 12 18 c 6 30 c 0 18 c -6 30 c -12 18 c -18 6 c -12 0 c -18 -6 5105 672 l
-12 -18 c -6 -30 c 0 -18 c 6 -30 c 12 -18 c 18 -6 c 12 0 c 18 6 c 12 18 c 6 30 c 0 18 c -6 30 c -12 18 c -18 6 c -12 0 c
-18 -6 5225 672 l -12 -18 c -6 -30 c 0 -18 c 6 -30 c 12 -18 c 18 -6 c 12 0 c 18 6 c 12 18 c 6 30 c 0 18 c -6 30 c -12 18 c -18 6 c
-12 0 c 12 6 7032 648 l 18 18 c 0 -126 c -60 0 7206 672 l -6 -54 c 6 6 c 18 6 c 18 0 c 18 -6 c 12 -12 c 6 -18 c 0 -12 c -6 -18 c
-12 -12 c -18 -6 c -18 0 c -18 6 c -6 6 c -6 12 c -18 -6 7290 672 l -12 -18 c -6 -30 c 0 -18 c 6 -30 c 12 -18 c 18 -6 c 12 0 c
18 6 c 12 18 c 6 30 c 0 18 c -6 30 c -12 18 c -18 6 c -12 0 c -18 -6 7410 672 l -12 -18 c -6 -30 c 0 -18 c 6 -30 c 12 -18 c 18 -6 c
12 0 c 18 6 c 12 18 c 6 30 c 0 18 c -6 30 c -12 18 c -18 6 c -12 0 c 0 6 9206 642 l 6 12 c 6 6 c 12 6 c 24 0 c 12 -6 c 6 -6 c
6 -12 c 0 -12 c -6 -12 c -12 -18 c -60 -60 c 84 0 c -18 -6 9356 672 l -12 -18 c -6 -30 c 0 -18 c 6 -30 c 12 -18 c 18 -6 c 12 0 c
18 6 c 12 18 c 6 30 c 0 18 c -6 30 c -12 18 c -18 6 c -12 0 c -18 -6 9476 672 l -12 -18 c -6 -30 c 0 -18 c 6 -30 c 12 -18 c 18 -6 c
12 0 c 18 6 c 12 18 c 6 30 c 0 18 c -6 30 c -12 18 c -18 6 c -12 0 c -18 -6 9596 672 l -12 -18 c -6 -30 c 0 -18 c 6 -30 c 12 -18 c
18 -6 c 12 0 c 18 6 c 12 18 c 6 30 c 0 18 c -6 30 c -12 18 c -18 6 c -12 0 c -90 0 780 799 l -45 0 780 1164 l -45 0 780 1529 l
-45 0 780 1894 l -45 0 780 2259 l -90 0 780 2624 l -45 0 780 2989 l -45 0 780 3354 l -45 0 780 3719 l -45 0 780 4084 l
-90 0 780 4449 l -45 0 780 4814 l -45 0 780 5179 l -45 0 780 5543 l -45 0 780 5908 l -90 0 780 6273 l -45 0 780 6638 l
-45 0 780 7003 l -90 0 9809 799 l -45 0 9764 1164 l -45 0 9764 1529 l -45 0 9764 1894 l -45 0 9764 2259 l -90 0 9809 2624 l
-45 0 9764 2989 l -45 0 9764 3354 l -45 0 9764 3719 l -45 0 9764 4084 l -90 0 9809 4449 l -45 0 9764 4814 l -45 0 9764 5179 l
-45 0 9764 5543 l -45 0 9764 5908 l -90 0 9809 6273 l -45 0 9764 6638 l -45 0 9764 7003 l 6 -18 517 793 l 18 -12 c 30 -6 c 18 0 c
30 6 c 18 12 c 6 18 c 0 12 c -6 18 c -18 12 c -30 6 c -18 0 c -30 -6 c -18 -12 c -6 -18 c 0 -12 c -6 12 541 2504 l -18 18 c 126 0 c
6 -18 517 2642 l 18 -12 c 30 -6 c 18 0 c 30 6 c 18 12 c 6 18 c 0 12 c -6 18 c -18 12 c -30 6 c -18 0 c -30 -6 c -18 -12 c -6 -18 c
0 -12 c 63 -45 453 2766 l 0 68 c 94 0 453 2766 l -6 0 547 4191 l -12 6 c -6 6 c -6 12 c 0 24 c 6 12 c 6 6 c 12 6 c 12 0 c 12 -6 c
18 -12 c 60 -60 c 0 84 c 84 84 547 4311 l 84 -84 547 4395 l -6 12 541 4455 l -18 18 c 126 0 c 6 -18 517 4593 l 18 -12 c 30 -6 c
18 0 c 30 6 c 18 12 c 6 18 c 0 12 c -6 18 c -18 12 c -30 6 c -18 0 c -30 -6 c -18 -12 c -6 -18 c 0 -12 c 63 -45 453 4717 l 0 68 c
94 0 453 4717 l 0 66 517 6021 l 48 -36 c 0 18 c 6 12 c 6 6 c 18 6 c 12 0 c 18 -6 c 12 -12 c 6 -18 c 0 -18 c -6 -18 c -6 -6 c
-12 -6 c 84 84 547 6135 l 84 -84 547 6219 l -6 12 541 6279 l -18 18 c 126 0 c 6 -18 517 6417 l 18 -12 c 30 -6 c 18 0 c 30 6 c
18 12 c 6 18 c 0 12 c -6 18 c -18 12 c -30 6 c -18 0 c -30 -6 c -18 -12 c -6 -18 c 0 -12 c 63 -45 453 6542 l 0 67 c 94 0 453 6542 l
4 0 780 836 l 5 -1 c 4 1 c 4 7 c 5 5 c 4 0 c 4 -8 c 5 -3 c 4 -2 c 5 0 c 4 -2 c 4 2 c 5 0 c 4 1 c 4 0 c 5 0 c 4 0 c 5 0 c 4 -1 c
4 0 c 5 0 c 4 0 c 4 0 c 5 0 c 4 0 c 5 1 c 4 -2 c 4 0 c 5 0 c 4 0 c 4 -1 c 5 1 c 4 0 c 5 0 c 4 2 c 4 -1 c 5 1 c 4 -1 c 4 0 c 5 0 c
4 0 c 4 -1 c 5 1 c 4 1 c 5 -1 c 4 0 c 4 0 c 5 1 c 4 3 c 4 1 c 5 1 c 4 -2 c 5 0 c 4 -2 c 4 1 c 5 0 c 4 0 c 4 0 c 5 1 c 4 0 c 5 1 c
4 0 c 4 -1 c 5 1 c 4 1 c 4 -1 c 5 0 c 4 1 c 5 0 c 4 2 c 4 -1 c 5 0 c 4 2 c 4 0 c 5 0 c 4 1 c 4 0 c 5 3 c 4 -1 c 5 2 c 4 -1 c 4 3 c
5 -1 c 4 -51 c 4 0 c 5 54 c 4 2 c 5 1 c 4 3 c 4 9 c 5 27 c 4 18 c 4 -7 c 5 -18 c 4 6 c 5 59 c 4 216 c 4 1172 c 5 2804 c 4 1357 c
4 -1561 c 5 -2347 c 4 -894 c 5 -412 c 4 -272 c 4 -117 c 5 -19 c 4 -6 c 4 -2 c 5 -4 c 4 0 c 4 -5 c 5 0 c 4 -2 c 5 -1 c 4 -2 c 4 -1 c
5 0 c 4 -3 c 4 0 c 5 -1 c 4 0 c 5 -2 c 4 -1 c 4 -1 c 5 0 c 4 -2 c 4 -1 c 5 1 c 4 -2 c 5 1 c 4 -2 c 4 1 c 5 -1 c 4 0 c 4 0 c 5 -2 c
4 0 c 5 1 c 4 -2 c 4 0 c 5 -1 c 4 -1 c 4 0 c 5 0 c 4 0 c 4 -1 c 5 0 c 4 1 c 5 1 c 4 0 c 4 -1 c 5 2 c 4 3 c 4 11 c 5 4 c 4 -7 c
5 -9 c 4 -6 c 4 0 c 5 1 c 4 -1 c 4 1 c 5 -2 c 4 0 c 5 0 c 4 -1 c 4 1 c 5 0 c 4 -2 c 4 2 c 5 1 c 4 -1 c 4 0 c 5 0 c 4 0 c 5 -1 c
4 1 c 4 -1 c 5 6 c 4 5 c 4 0 c 5 -6 c 4 -4 c 5 -2 c 4 0 c 4 1 c 5 -1 c 4 1 c 4 -1 c 5 0 c 4 0 c 5 1 c 4 0 c 4 -1 c 5 0 c 4 0 c 4 0 c
5 0 c 4 1 c 5 -2 c 4 2 c 4 -1 c 5 0 c 4 0 c 4 1 c 5 -1 c 4 0 c 4 0 c 5 1 c 4 -1 c 5 0 c 4 1 c 4 -1 c 5 0 c 4 0 c 4 -1 c 5 2 c 4 0 c
5 1 c 4 -2 c 4 0 c 5 -1 c 4 2 c 4 -1 c 5 0 c 4 2 c 5 -1 c 4 0 c 4 -1 c 5 0 c 4 0 c 4 1 c 5 4 c 4 7 c 5 5 c 4 10 c 4 5 c 5 -6 c
4 -16 c 4 -7 c 5 0 c 4 -2 c 4 0 c 5 0 c 4 0 c 5 1 c 4 1 c 4 2 c 5 7 c 4 1 c 4 -3 c 5 -6 c 4 -3 c 5 0 c 4 -1 c 4 1 c 5 0 c 4 0 c
4 0 c 5 2 c 4 0 c 5 -1 c 4 0 c 4 1 c 5 0 c 4 1 c 4 0 c 5 1 c 4 -1 c 5 0 c 4 0 c 4 0 c 5 -1 c 4 1 c 4 0 c 5 -1 c 4 1 c 4 0 c 5 0 c
4 1 c 3 6180 c 2 -5552 2032 7019 l 5 -593 c 4 -19 c 5 -2 c 4 -1 c 4 0 c 5 1 c 4 3 c 4 12 c 5 82 c 4 162 c 5 79 c 4 -108 c 4 -161 c
5 -61 c 4 -9 c 4 -3 c 5 -1 c 4 0 c 5 0 c 4 0 c 4 -1 c 5 0 c 4 -1 c 4 0 c 5 0 c 4 0 c 4 0 c 5 1 c 4 0 c 5 -1 c 4 0 c 4 -1 c 5 1 c
4 1 c 4 6 c 5 1 c 4 -2 c 5 -5 c 4 -3 c 4 0 c 5 -1 c 4 -2 c 4 1 c 5 0 c 4 1 c 5 -1 c 4 1 c 4 -1 c 5 0 c 4 0 c 4 1 c 5 -1 c 4 0 c
4 1 c 5 0 c 4 0 c 5 -1 c 4 1 c 4 -1 c 5 0 c 4 1 c 4 5 c 5 13 c 4 4 c 5 -6 c 4 -12 c 4 -5 c 5 -1 c 4 -1 c 4 2 c 5 0 c 4 -1 c 5 -1 c
4 1 c 4 -1 c 5 1 c 4 1 c 4 -1 c 5 1 c 4 1 c 5 -3 c 4 -1 c 4 1 c 5 2 c 4 0 c 4 1 c 5 3 c 4 0 c 4 -2 c 5 -2 c 4 0 c 5 0 c 4 1 c 4 -2 c
5 0 c 4 0 c 4 1 c 5 -1 c 4 1 c 5 2 c 4 -1 c 4 0 c 5 2 c 4 1 c 4 2 c 5 4 c 4 9 c 5 9 c 4 4 c 4 5 c 5 8 c 4 38 c 4 35 c 5 6 c 4 -55 c
5 -42 c 4 -9 c 4 1 c 5 0 c 4 -5 c 4 -7 c 5 -3 c 4 0 c 4 -1 c 5 -1 c 4 0 c 5 1 c 4 0 c 4 0 c 5 -2 c 4 1 c 4 0 c 5 -1 c 4 0 c 5 -1 c
4 3 c 4 0 c 5 3 c 4 2 c 4 3 c 5 -3 c 4 -4 c 5 -2 c 4 0 c 4 -1 c 5 0 c 4 2 c 4 1 c 5 0 c 4 -1 c 5 2 c 4 0 c 4 1 c 5 -2 c 4 -3 c 4 1 c
5 0 c 4 0 c 4 0 c 5 1 c 4 -1 c 5 0 c 4 1 c 4 0 c 5 -1 c 4 1 c 4 -1 c 5 0 c 4 1 c 5 -2 c 4 1 c 4 1 c 5 3 c 4 0 c 4 -3 c 5 -2 c 4 2 c
5 -1 c 4 1 c 4 1 c 5 3 c 4 15 c 4 98 c 5 115 c 4 24 c 5 -113 c 4 -113 c 4 -17 c 5 10 c 4 7 c 4 -10 c 5 -12 c 4 -6 c 4 0 c 5 1 c
4 14 c 5 5019 c 0 1138 c 3 -6127 2928 7019 l 4 -25 c 4 -2 c 5 -2 c 4 -1 c 4 -1 c 5 -1 c 4 -2 c 5 0 c 4 -1 c 4 -1 c 5 -1 c 4 0 c
4 -1 c 5 0 c 4 -1 c 4 0 c 5 -1 c 4 -2 c 5 0 c 4 0 c 4 0 c 5 -1 c 4 0 c 4 0 c 5 0 c 4 0 c 5 -1 c 4 1 c 4 0 c 5 0 c 4 -1 c 4 1 c
5 -2 c 4 1 c 5 -1 c 4 0 c 4 0 c 5 0 c 4 -1 c 4 1 c 5 -1 c 4 0 c 5 0 c 4 0 c 4 -1 c 5 0 c 4 0 c 4 -2 c 5 0 c 4 1 c 4 -1 c 5 1 c 4 0 c
5 1 c 4 0 c 4 -1 c 5 1 c 4 1 c 4 -1 c 5 -1 c 4 0 c 5 0 c 4 0 c 4 0 c 5 1 c 4 0 c 4 0 c 5 0 c 4 1 c 5 0 c 4 1 c 4 0 c 5 0 c 4 0 c
4 -1 c 5 -1 c 4 1 c 5 -1 c 4 1 c 4 -1 c 5 0 c 4 1 c 4 0 c 5 0 c 4 -1 c 4 1 c 5 -1 c 4 0 c 5 0 c 4 0 c 4 0 c 5 1 c 4 0 c 4 0 c 5 -1 c
4 0 c 5 0 c 4 0 c 4 1 c 5 0 c 4 0 c 4 -2 c 5 0 c 4 0 c 5 0 c 4 1 c 4 1 c 5 -1 c 4 -1 c 4 1 c 5 0 c 4 -1 c 5 0 c 4 0 c 4 -1 c 5 1 c
4 -1 c 4 -1 c 5 -1 c 4 0 c 4 -1 c 5 0 c 4 0 c 5 1 c 4 0 c 4 -1 c 5 0 c 4 0 c 4 1 c 5 0 c 4 1 c 5 2 c 4 0 c 4 -1 c 5 -1 c 4 1 c 4 2 c
5 0 c 4 0 c 5 0 c 4 1 c 4 0 c 5 1 c 4 3 c 4 11 c 5 92 c 4 175 c 4 95 c 5 -124 c 4 -184 c 5 -61 c 4 -5 c 4 -1 c 5 0 c 4 1 c 4 -1 c
5 0 c 4 -2 c 5 0 c 4 -1 c 4 1 c 5 1 c 4 0 c 4 2 c 5 0 c 4 1 c 5 0 c 4 4 c 4 9 c 5 3 c 4 -7 c 4 -7 c 5 0 c 4 -1 c 5 1 c 4 -1 c 4 1 c
5 -1 c 4 2 c 4 15 c 5 15 c 4 0 c 4 -15 c 5 -12 c 4 -4 c 5 0 c 4 1 c 4 -1 c 5 -1 c 4 1 c 4 2 c 5 1 c 4 2 c 5 5 c 4 5 c 4 0 c 5 -5 c
4 -3 c 4 0 c 5 1 c 4 0 c 5 0 c 4 0 c 4 1 c 5 1 c 4 0 c 4 0 c 5 2 c 4 2 c 5 -3 c 4 1 c 4 -1 c 5 2 c 4 4 c 4 1 c 5 0 c 4 1 c 4 3 c
5 3 c 4 5 c 5 3 c 4 1 c 4 -6 c 5 -1 c 4 0 c 4 3 c 5 4 c 4 3 c 5 2 c 4 -2 c 4 2 c 5 4 c 2 6124 c 2 -5210 3969 7019 l 4 -863 c 5 -20 c
4 1 c 4 4 c 5 1 c 4 3 c 5 6 c 4 7 c 4 27 c 5 96 c 4 48 c 4 -19 c 5 -87 c 4 -41 c 4 2 c 5 6 c 4 4 c 5 5 c 4 7 c 4 5 c 5 3 c 4 10 c
4 8 c 5 8 c 4 8 c 5 11 c 4 7 c 4 14 c 5 11 c 4 15 c 4 8 c 5 9 c 4 18 c 5 11 c 4 19 c 4 15 c 5 21 c 4 19 c 4 20 c 5 20 c 4 17 c
5 10 c 4 22 c 4 21 c 5 31 c 4 22 c 4 23 c 5 35 c 4 35 c 4 20 c 5 30 c 4 35 c 5 50 c 4 38 c 4 29 c 5 48 c 4 100 c 4 91 c 5 61 c
4 21 c 5 -2 c 4 39 c 4 62 c 5 51 c 4 78 c 4 75 c 5 53 c 4 98 c 5 108 c 4 101 c 4 94 c 5 72 c 4 128 c 4 74 c 5 149 c 4 134 c 4 136 c
5 111 c 4 233 c 5 169 c 4 124 c 4 171 c 5 330 c 4 336 c 4 439 c 5 471 c 4 611 c 3 579 c 0 -149 4421 7019 l 5 -719 c 4 -459 c
4 -349 c 5 -216 c 4 -321 c 4 -194 c 5 -190 c 4 -168 c 4 -171 c 5 -194 c 4 -126 c 5 -220 c 4 -116 c 4 -129 c 5 -144 c 4 -104 c
4 -105 c 5 -124 c 4 -85 c 5 -91 c 4 -118 c 4 -67 c 5 -89 c 4 -60 c 4 -55 c 5 -79 c 4 -86 c 5 -51 c 4 -37 c 4 -71 c 5 -43 c 4 -48 c
4 -31 c 5 -53 c 4 -47 c 5 -60 c 4 -17 c 4 -37 c 5 -32 c 4 -37 c 4 -38 c 5 -32 c 4 -24 c 4 -45 c 5 -22 c 4 -22 c 5 -23 c 4 -19 c
4 -21 c 5 -22 c 4 -22 c 4 -17 c 5 -21 c 4 -20 c 5 -10 c 4 -17 c 4 -10 c 5 -15 c 4 -13 c 4 -13 c 5 -16 c 4 -11 c 5 -8 c 4 -14 c
4 -8 c 5 -10 c 4 -11 c 4 -8 c 5 -6 c 4 -4 c 5 -10 c 4 -8 c 4 -4 c 5 -7 c 4 -8 c 4 -6 c 5 -6 c 4 -2 c 4 -4 c 5 -4 c 4 -4 c 5 -5 c
4 -5 c 4 -5 c 5 -3 c 4 -6 c 4 -1 c 5 -4 c 4 -3 c 5 -4 c 4 -4 c 4 -3 c 5 -2 c 4 -2 c 4 -3 c 5 -3 c 4 -3 c 5 0 c 4 -1 c 4 -2 c 5 -3 c
4 -1 c 4 -1 c 5 -1 c 4 -1 c 5 -3 c 4 0 c 4 -2 c 5 -1 c 4 -2 c 4 -2 c 5 -1 c 4 0 c 4 -1 c 5 -1 c 4 -1 c 5 0 c 4 1 c 4 -3 c 5 0 c
4 -1 c 4 -3 c 5 1 c 4 0 c 5 -1 c 4 -1 c 4 1 c 5 -1 c 4 -3 c 4 2 c 5 -1 c 4 -1 c 5 -1 c 4 0 c 4 0 c 5 -1 c 4 1 c 4 -3 c 5 1 c 4 0 c
4 -1 c 5 0 c 4 -1 c 5 -1 c 4 -1 c 4 0 c 5 0 c 4 1 c 4 0 c 5 -2 c 4 1 c 5 0 c 4 0 c 4 1 c 5 7 c 4 2 c 4 0 c 5 -8 c 4 -1 c 5 1 c
4 -1 c 4 0 c 5 0 c 4 9 c 4 13 c 5 1 c 4 -11 c 5 -12 c 4 -1 c 4 1 c 5 8 c 4 15 c 4 3 c 5 -11 c 4 -11 c 4 -4 c 5 0 c 4 -2 c 5 1 c
4 1 c 4 -1 c 5 0 c 4 -3 c 4 0 c 5 1 c 4 -1 c 5 1 c 4 0 c 4 2 c 5 8 c 4 4 c 4 -3 c 5 -7 c 4 -4 c 5 -2 c 4 0 c 4 0 c 5 -1 c 4 0 c
4 0 c 5 0 c 4 -1 c 5 0 c 4 1 c 4 -1 c 5 0 c 4 1 c 4 1 c 5 2 c 4 2 c 4 4 c 5 -1 c 4 -5 c 5 -2 c 4 0 c 4 -1 c 5 0 c 4 0 c 4 1 c 5 5 c
4 11 c 5 4 c 4 -5 c 4 -12 c 5 -5 c 4 -1 c 4 1 c 5 1 c 4 0 c 5 -2 c 4 0 c 4 1 c 5 -1 c 4 0 c 4 -1 c 5 1 c 4 -2 c 5 2 c 4 -1 c 4 0 c
5 1 c 4 1 c 4 0 c 5 -1 c 4 -1 c 4 0 c 5 0 c 4 0 c 5 0 c 4 3 c 4 0 c 5 -1 c 4 0 c 4 0 c 5 0 c 4 -1 c 5 0 c 4 -1 c 4 1 c 5 0 c 4 0 c
4 -2 c 5 1 c 4 0 c 5 0 c 4 0 c 4 0 c 5 0 c 4 1 c 4 -1 c 5 0 c 4 0 c 4 -1 c 5 1 c 4 0 c 5 -1 c 4 0 c 4 0 c 5 1 c 4 0 c 4 0 c 5 0 c
4 0 c 5 -1 c 4 0 c 4 -1 c 5 3 c 4 0 c 4 0 c 5 -1 c 4 1 c 5 -2 c 4 -37 c 4 37 c 5 1 c 4 0 c 4 1 c 5 -1 c 4 -1 c 5 1 c 4 0 c 4 1 c
5 1 c 4 0 c 4 0 c 5 1 c 4 1 c 4 3 c 5 15 c 4 116 c 5 240 c 4 98 c 4 -156 c 5 -258 c 4 -55 c 4 -6 c 5 -1 c 4 0 c 5 0 c 4 0 c 4 -2 c
5 -1 c 4 0 c 4 0 c 5 1 c 4 -1 c 5 1 c 4 0 c 4 0 c 5 1 c 4 1 c 4 1 c 5 0 c 4 -2 c 5 0 c 4 0 c 4 0 c 5 1 c 4 -1 c 4 0 c 5 0 c 4 1 c
4 -1 c 5 1 c 4 -1 c 5 0 c 4 0 c 4 1 c 5 1 c 4 8 c 4 26 c 5 26 c 4 -2 c 5 -33 c 4 -23 c 4 -3 c 5 0 c 4 0 c 4 0 c 5 0 c 4 1 c 5 -1 c
4 -2 c 4 -1 c 5 0 c 4 0 c 4 -1 c 5 0 c 4 -1 c 5 1 c 4 0 c 4 0 c 5 0 c 4 1 c 4 7 c 5 3 c 4 -1 c 4 -3 c 5 13 c 2 6166 c
2 -4297 6102 7019 l 4 -1846 c 5 -19 c 4 -3 c 5 -4 c 4 -2 c 4 -1 c 5 -1 c 4 1 c 4 3 c 5 22 c 4 39 c 5 9 c 4 -29 c 4 -38 c 5 -9 c
4 -1 c 4 0 c 5 -1 c 4 0 c 5 1 c 4 0 c 4 -2 c 5 1 c 4 0 c 4 0 c 5 -1 c 4 1 c 4 -2 c 5 -1 c 4 1 c 5 0 c 4 1 c 4 0 c 5 -2 c 4 2 c 4 0 c
5 -1 c 4 -1 c 5 0 c 4 -1 c 4 0 c 5 0 c 4 0 c 4 0 c 5 1 c 4 -2 c 5 -1 c 4 0 c 4 -1 c 5 1 c 4 0 c 4 1 c 5 5 c 4 8 c 4 3 c 5 -4 c
4 -8 c 5 -4 c 4 1 c 4 -1 c 5 -1 c 4 0 c 4 -2 c 5 2 c 4 0 c 5 -1 c 4 1 c 4 1 c 5 0 c 4 0 c 4 1 c 5 0 c 4 -3 c 5 0 c 4 0 c 4 0 c 5 2 c
4 1 c 4 0 c 5 0 c 4 -1 c 5 0 c 4 1 c 4 -1 c 5 -1 c 4 0 c 4 0 c 5 1 c 4 -1 c 4 0 c 5 0 c 4 0 c 5 -1 c 4 0 c 4 0 c 5 0 c 4 1 c 4 1 c
5 -1 c 4 0 c 5 -2 c 4 0 c 4 0 c 5 2 c 4 -2 c 4 1 c 5 0 c 4 1 c 5 -1 c 4 0 c 4 0 c 5 -1 c 4 1 c 4 0 c 5 -1 c 4 0 c 5 0 c 4 0 c 4 1 c
5 0 c 4 0 c 4 0 c 5 0 c 4 -1 c 4 0 c 5 0 c 4 0 c 5 1 c 4 -1 c 4 0 c 5 -1 c 4 2 c 4 -1 c 5 2 c 4 -1 c 5 -1 c 4 2 c 4 0 c 5 2 c 4 0 c
4 -2 c 5 -2 c 4 -1 c 5 0 c 4 1 c 4 0 c 5 -1 c 4 0 c 4 1 c 5 0 c 4 -1 c 5 -1 c 4 1 c 4 0 c 5 -1 c 4 1 c 4 -1 c 5 0 c 4 1 c 4 1 c
5 0 c 4 0 c 5 0 c 4 0 c 4 2 c 5 0 c 4 0 c 4 0 c 5 0 c 4 1 c 5 1 c 4 0 c 4 -1 c 5 2 c 4 -1 c 4 1 c 5 -1 c 4 0 c 5 0 c 4 0 c 4 2 c
5 -1 c 4 0 c 4 0 c 5 0 c 4 0 c 5 2 c 4 -1 c 4 0 c 5 0 c 4 0 c 4 4 c 5 8 c 4 41 c 4 287 c 5 445 c 4 103 c 5 -389 c 4 -425 c 4 -63 c
5 -8 c 4 -1 c 4 -2 c 5 0 c 4 2 c 5 0 c 4 -1 c 4 -1 c 5 -2 c 4 0 c 4 -1 c 5 0 c 4 1 c 5 1 c 4 -1 c 4 0 c 5 1 c 4 2 c 4 11 c 5 77 c
4 80 c 4 -1 c 5 -87 c 4 -73 c 5 -3 c 4 5 c 4 -1 c 5 -7 c 4 -3 c 4 1 c 5 0 c 4 -3 c 5 -2 c 4 -1 c 4 0 c 5 0 c 4 1 c 4 -1 c 5 2 c
4 0 c 5 0 c 4 -1 c 4 -2 c 5 2 c 4 -1 c 4 0 c 5 0 c 4 0 c 5 0 c 4 0 c 4 0 c 5 0 c 4 0 c 4 -1 c 5 -1 c 4 0 c 4 2 c 5 10 c 4 15 c 5 5 c
4 -8 c 4 -17 c 5 -4 c 4 -1 c 4 0 c 5 -1 c 4 0 c 5 -1 c 4 0 c 4 1 c 5 -1 c 4 1 c 4 0 c 5 0 c 4 1 c 5 -1 c 4 1 c 4 -2 c 5 0 c 4 -1 c
4 1 c 5 0 c 4 1 c 5 1 c 4 -1 c 4 1 c 5 -2 c 4 -1 c 4 0 c 5 2 c 4 -1 c 4 2 c 5 2 c 4 8 c 5 15 c 4 2 c 4 -9 c 5 -16 c 4 -4 c 4 -1 c
5 0 c 4 2 c 5 1 c 4 0 c 4 -1 c 5 -1 c 4 1 c 4 0 c 5 2 c 4 0 c 5 2 c 4 0 c 4 1 c 5 -1 c 4 -2 c 4 -1 c 5 -1 c 4 2 c 5 -1 c 4 -2 c
4 -1 c 5 -1 c 4 2 c 4 -2 c 5 2 c 4 0 c 4 0 c 5 0 c 4 -1 c 5 1 c 4 -2 c 4 1 c 5 2 c 4 1 c 4 -2 c 5 -2 c 4 0 c 5 -1 c 4 1 c 4 0 c
5 0 c 4 2 c 4 -1 c 5 2 c 4 0 c 5 0 c 4 -2 c 4 -1 c 5 -1 c 4 2 c 4 -1 c 5 -1 c 4 1 c 5 0 c 4 0 c 4 0 c 5 0 c 4 0 c 4 0 c 5 2 c 4 1 c
4 3 c 5 2 c 4 -1 c 5 -5 c 4 -2 c 4 0 c 5 -1 c 4 2 c 4 1 c 5 1 c 4 1 c 5 1 c 4 3 c 4 1 c 5 -4 c 4 -4 c 4 -2 c 5 -1 c 4 0 c 5 1 c
4 0 c 4 -1 c 5 1 c 4 -2 c 4 1 c 5 0 c 4 -1 c 4 0 c 5 0 c 4 0 c 5 1 c 4 0 c 4 -1 c 5 1 c 4 -2 c 4 1 c 5 0 c 4 -2 c 5 0 c 4 1 c 4 -2 c
5 0 c 4 2 c 4 -1 c 5 0 c 4 1 c 5 -2 c 4 1 c 4 -1 c 5 1 c 4 0 c 4 -1 c 5 0 c 4 0 c 5 -1 c 4 1 c 4 1 c 5 0 c 4 0 c 4 0 c 5 -1 c 4 1 c
4 -1 c 5 0 c 4 1 c 5 0 c 4 0 c 4 0 c 5 -1 c 4 0 c 4 1 c 5 0 c 4 1 c 5 5 c 4 23 c 4 37 c 5 7 c 4 -27 c 4 -39 c 5 -7 c 4 -1 c 5 0 c
4 1 c 4 0 c 5 0 c 4 0 c 4 0 c 5 0 c 4 -1 c 5 0 c 4 0 c 4 0 c 5 0 c 4 1 c 4 2 c 5 0 c 4 0 c 4 -3 c 5 0 c 4 -1 c 5 0 c 4 1 c 4 0 c
5 -1 c 4 0 c 4 1 c 5 -1 c 4 1 c 5 -1 c 4 1 c 4 0 c 5 -1 c 4 2 c 4 0 c 5 0 c 4 -1 c 5 0 c 4 0 c 4 0 c 5 0 c 4 0 c 4 1 c 5 0 c 4 0 c
5 0 c 4 0 c 4 0 c 5 0 c 4 0 c 4 0 c 5 1 c 4 -1 c 4 1 c 5 0 c 4 1 c 5 -1 c 4 1 c 4 -1 c 5 0 c 4 1 c 4 -1 c 5 1 c 4 0 c 5 -1 c 4 1 c
4 1 c 5 2 c 4 0 c 4 0 c 5 0 c 4 -2 c 5 1 c 4 2 c 4 1 c 5 1 c 4 -1 c 4 0 c 5 1 c 4 0 c 4 2 c 5 1 c 4 4 c 5 11 c 4 38 c 4 271 c
5 877 c 4 540 c 4 -265 c 5 -1007 c 4 -408 c 5 -49 c 4 -8 c 4 -4 c 5 -1 c 4 -1 c 4 -2 c 5 0 c 4 -1 c 5 -1 c 4 0 c 4 -2 c 5 1 c 4 1 c
4 9 c 5 7 c 4 -1 c 5 -6 c 4 -10 c 4 0 c 5 -2 c 4 -1 c 4 0 c 5 -1 c 4 0 c 4 0 c 5 0 c 4 -1 c 5 -1 c 4 0 c 4 2 c 5 1 c 4 -2 c 4 0 c
5 -2 c 4 1 c 5 4 c 4 12 c 4 5 c 5 -3 c 4 -12 c 4 -6 c 5 0 c 4 -1 c 5 1 c 4 -1 c 4 -1 c 5 1 c 4 1 c 4 -1 c 5 0 c 4 -1 c 5 0 c 4 1 c
4 -1 c 5 1 c 4 0 c 4 0 c 5 0 c 4 0 c 4 -1 c 5 0 c 4 0 c 5 1 c 4 -1 c 4 1 c 5 -1 c 4 1 c 4 0 c 5 -1 c 4 1 c 5 3 c 4 18 c 4 67 c
5 46 c 4 -12 c 4 -78 c 5 -40 c 4 -4 c 5 -1 c 4 -2 c 4 0 c 5 0 c 4 0 c 4 0 c 5 1 c 4 1 c 5 7 c 4 8 c 4 4 c 5 -5 c 4 -10 c 4 -5 c
5 -1 c 4 1 c 4 1 c 5 2 c 4 1 c 5 0 c 4 -2 c 4 -1 c 5 -1 c 4 0 c 4 0 c 5 -1 c 4 1 c 5 0 c 4 -1 c 4 0 c 5 1 c 4 -1 c 4 0 c 5 1 c 4 0 c
5 0 c 4 -1 c 4 0 c 5 0 c 4 0 c 4 1 c 5 -1 c 4 0 c 5 0 c 4 0 c 4 0 c 5 -1 c 4 1 c 4 0 c 5 0 c 4 1 c 4 -1 c 5 0 c 4 1 c 5 -1 c 4 0 c
4 0 c 5 0 c 4 -1 c 4 0 c 5 0 c 4 -1 c 5 1 c 4 0 c 4 0 c 5 1 c 4 -1 c 4 1 c 5 0 c 4 0 c 5 -1 c 4 0 c 4 0 c 5 0 c 4 -1 c 4 2 c 5 -1 c
4 -1 c 4 1 c 5 -1 c 4 0 c 5 0 c 4 0 c 4 1 c 5 -2 c 4 1 c 4 0 c 5 0 c 4 1 c 5 0 c 4 0 c 4 1 c 5 0 c 4 -1 c 4 -1 c 5 0 c 4 0 c 5 0 c
4 0 c 4 0 c 5 0 c 4 -1 c 4 1 c 5 0 c 4 -1 c 5 1 c 4 0 c 4 0 c 5 -1 c 4 1 c 4 0 c 5 1 c 4 -1 c 4 0 c 5 0 c 4 -1 c 5 1 c 4 -1 c 4 1 c
5 0 c 4 1 c 4 -1 c 5 1 c 4 -1 c 5 0 c 4 0 c 4 -1 c 5 1 c 4 0 c 4 -1 c 5 1 c 4 -1 c 5 0 c 4 0 c 4 0 c 5 0 c 4 0 c 4 1 c 5 0 c 4 -1 c
5 1 c 4 0 c 4 0 c 5 2 c 4 2 c 4 2 c 5 -2 c 4 -4 c 4 -1 c 5 0 c 4 -1 c 5 0 c 4 0 c 4 0 c 5 0 c 4 1 c 4 0 c 5 -1 c 4 0 c 5 0 c 4 0 c
4 0 c 5 1 c 4 2 c 4 0 c 5 0 c 4 -1 c 5 -1 c 4 0 c 4 1 c 5 0 c 4 2 c 4 -2 c
5 -1 c 4 0 c 5 0 c 4 0 c 4 -17 c 5 0 c 2 6220 c 2 -5030 9560 7019 l 4 -1090 c 4 -29 c 5 -5 c 4 -4 c 5 -4 c 4 0 c 4 4 c 5 10 c 4 -2 c
4 -7 c 5 -12 c 4 -5 c 5 -1 c 4 0 c 4 -2 c 5 0 c 4 -1 c 4 -1 c 5 2 c 4 0 c 5 -2 c 4 -1 c 4 5 c 5 2 c 4 -2 c 4 -6 c 5 -4 c 4 0 c 5 0 c
4 -1 c 4 0 c 5 -1 c 4 0 c 4 -1 c 5 0 c 4 0 c
0 -126 3303 418 l 54 0 3303 418 l 18 -6 c 6 -6 c 6 -12 c 0 -12 c -6 -12 c -6 -6 c -18 -6 c -54 0 c 42 -66 3345 358 l
-12 -6 3453 376 l -12 -12 c -6 -18 c 0 -12 c 6 -18 c 12 -12 c 12 -6 c 18 0 c 12 6 c 12 12 c 6 18 c 0 12 c -6 18 c -12 12 c -12 6 c
-18 0 c 24 -84 3537 376 l -24 -84 3585 376 l 24 -84 3585 376 l -24 -84 3633 376 l 108 0 3675 364 l 108 0 3675 328 l 12 6 3939 394 l
18 18 c 0 -126 c 66 0 4053 418 l -36 -48 c 18 0 c 12 -6 c 6 -6 c 6 -18 c 0 -12 c -6 -18 c -12 -12 c -18 -6 c -18 0 c -18 6 c -6 6 c
-6 12 c -12 -6 4287 376 l -12 -12 c -6 -18 c 0 -12 c 6 -18 c 12 -12 c 12 -6 c 18 0 c 12 6 c 12 12 c 6 18 c 0 12 c -6 18 c -12 12 c
-12 6 c -18 0 c -12 0 4413 418 l -12 -6 c -6 -18 c 0 -102 c 42 0 4365 376 l 12 6 4557 394 l 18 18 c 0 -126 c -60 0 4731 418 l
-6 -54 c 6 6 c 18 6 c 18 0 c 18 -6 c 12 -12 c 6 -18 c 0 -12 c -6 -18 c -12 -12 c -18 -6 c -18 0 c -18 6 c -6 6 c -6 12 c
12 6 5181 394 l 18 18 c 0 -126 c -6 -6 5294 376 l 6 -6 c 6 6 c -6 6 c -6 -6 5294 304 l 6 -6 c 6 6 c -6 6 c -48 -126 5474 418 l
48 -126 5474 418 l 60 0 5444 334 l 0 -84 5552 376 l 6 18 5552 340 l 12 12 c 12 6 c 18 0 c -12 12 5696 358 l -12 6 c -18 0 c -12 -6 c
-12 -12 c -6 -18 c 0 -12 c 6 -18 c 12 -12 c 12 -6 c 18 0 c 12 6 c 12 12 c 108 0 5738 346 l -18 -6 5924 418 l -12 -18 c -6 -30 c
0 -18 c 6 -30 c 12 -18 c 18 -6 c 12 0 c 18 6 c 12 18 c 6 30 c 0 18 c -6 30 c -12 18 c -18 6 c -12 0 c -60 -126 6092 418 l
84 0 6008 418 l 0 6 6134 388 l 6 12 c 6 6 c 12 6 c 24 0 c 12 -6 c 6 -6 c 6 -12 c 0 -12 c -6 -12 c -12 -18 c -60 -60 c 84 0 c
-6 -6 6260 304 l 6 -6 c 6 6 c -6 6 c -12 0 6350 418 l -12 -6 c -6 -18 c 0 -102 c 42 0 6302 376 l 6 -6 6380 418 l 6 6 c -6 6 c
-6 -6 c 0 -84 6386 376 l 0 -102 6440 418 l 6 -18 c 12 -6 c 12 0 c 42 0 6422 376 l -6 12 6566 358 l -18 6 c -18 0 c -18 -6 c -6 -12 c
6 -12 c 12 -6 c 30 -6 c 12 -6 c 6 -12 c 0 -6 c -6 -12 c -18 -6 c -18 0 c -18 6 c -6 12 c 0 -192 6896 442 l 0 -192 6902 442 l
42 0 6896 442 l 42 0 6896 250 l 0 6 6980 388 l 6 12 c 6 6 c 12 6 c 24 0 c 12 -6 c 6 -6 c 6 -12 c 0 -12 c -6 -12 c -12 -18 c
-60 -60 c 84 0 c -6 -6 7106 376 l 6 -6 c 6 6 c -6 6 c -6 -6 7106 304 l 6 -6 c 6 6 c -6 6 c 0 -192 7286 442 l 0 -192 7292 442 l
42 0 7250 442 l 42 0 7250 250 l
0 -250 1217 6939 l 3 -12 1174 7030 l 8 -3 c 7 0 c 8 3 c 4 8 c 4 15 c 3 11 c 8 8 c 7 4 c 12 0 c 7 -4 c 4 -4 c 4 -11 c 0 -15 c
-4 -12 c -4 -3 c -7 -4 c -12 0 c -7 4 c -8 7 c -3 12 c -4 15 c -4 7 c -8 4 c -7 0 c -8 -4 c -3 -11 c 0 -15 c 52 -38 1174 7124 l
0 57 c 79 0 1174 7124 l 79 -38 1174 7215 l 0 53 1174 7162 l 3 -12 1174 7257 l 8 -4 c 7 0 c 8 4 c 4 8 c 4 15 c 3 11 c 8 8 c 7 4 c
12 0 c 7 -4 c 4 -4 c 4 -11 c 0 -15 c -4 -12 c -4 -4 c -7 -3 c -12 0 c -7 3 c -8 8 c -3 11 c -4 15 c -4 8 c -8 4 c -7 0 c -8 -4 c
-3 -11 c 0 -15 c 4 -4 1245 7321 l 4 4 c -4 4 c -4 -4 c 0 41 1174 7359 l 30 -23 c 0 12 c 4 7 c 3 4 c 12 4 c 7 0 c 12 -4 c 7 -7 c
4 -12 c 0 -11 c -4 -11 c -4 -4 c -7 -4 c 0 -38 1174 7472 l 34 -4 c -4 4 c -4 11 c 0 12 c 4 11 c 7 8 c 12 4 c 7 0 c 12 -4 c 7 -8 c
4 -11 c 0 -12 c -4 -11 c -4 -4 c -7 -3 c 3 -11 1174 7521 l 8 -4 c 7 0 c 8 4 c 4 7 c 4 15 c 3 12 c 8 7 c 7 4 c 12 0 c 7 -4 c 4 -3 c
4 -12 c 0 -15 c -4 -11 c -4 -4 c -7 -4 c -12 0 c -7 4 c -8 8 c -3 11 c -4 15 c -4 8 c -8 3 c -7 0 c -8 -3 c -3 -12 c 0 -15 c
0 -249 2082 1627 l 4 -11 2038 1718 l 8 -4 c 7 0 c 8 4 c 4 7 c 4 16 c 3 11 c 8 7 c 7 4 c 12 0 c 7 -4 c 4 -3 c 4 -12 c 0 -15 c
-4 -11 c -4 -4 c -7 -4 c -12 0 c -7 4 c -8 8 c -3 11 c -4 15 c -4 8 c -8 3 c -7 0 c -8 -3 c -4 -12 c 0 -15 c 53 -38 2038 1813 l
0 57 c 80 0 2038 1813 l 11 -4 2065 1900 l 8 -8 c 4 -11 c 0 -4 c -4 -11 c -8 -8 c -11 -4 c -4 0 c -11 4 c -8 8 c -4 11 c 0 4 c 4 11 c
8 8 c 15 4 c 19 0 c 19 -4 c 11 -8 c 4 -11 c 0 -8 c -4 -11 c -7 -4 c 4 -12 2038 1949 l 12 -7 c 19 -4 c 11 0 c 19 4 c 11 7 c 4 12 c
0 7 c -4 12 c -11 7 c -19 4 c -11 0 c -19 -4 c -12 -7 c -4 -12 c 0 -7 c 4 -4 2110 2009 l 4 4 c -4 4 c -4 -4 c 0 42 2038 2047 l
31 -23 c 0 11 c 4 8 c 3 4 c 12 3 c 7 0 c 12 -3 c 7 -8 c 4 -11 c 0 -12 c -4 -11 c -4 -4 c -7 -4 c 4 -12 2038 2138 l 12 -7 c 19 -4 c
11 0 c 19 4 c 11 7 c 4 12 c 0 7 c -4 12 c -11 7 c -19 4 c -11 0 c -19 -4 c -12 -7 c -4 -12 c 0 -7 c 80 -38 2038 2244 l
0 53 2038 2191 l 0 -249 2841 1537 l 4 -11 2798 1628 l 7 -4 c 8 0 c 7 4 c 4 7 c 4 16 c 4 11 c 7 7 c 8 4 c 11 0 c 8 -4 c 3 -3 c
4 -12 c 0 -15 c -4 -11 c -3 -4 c -8 -4 c -11 0 c -8 4 c -7 8 c -4 11 c -4 15 c -4 8 c -7 3 c -8 0 c -7 -3 c -4 -12 c 0 -15 c
0 -38 2798 1730 l 34 -3 c -4 3 c -4 12 c 0 11 c 4 11 c 8 8 c 11 4 c 8 0 c 11 -4 c 7 -8 c 4 -11 c 0 -11 c -4 -12 c -3 -3 c -8 -4 c
4 -11 2798 1783 l 11 -8 c 19 -4 c 11 0 c 19 4 c 11 8 c 4 11 c 0 8 c -4 11 c -11 8 c -19 3 c -11 0 c -19 -3 c -11 -8 c -4 -11 c
0 -8 c 4 -12 2798 1859 l 11 -7 c 19 -4 c 11 0 c 19 4 c 11 7 c 4 12 c 0 7 c -4 12 c -11 7 c -19 4 c -11 0 c -19 -4 c -11 -7 c
-4 -12 c 0 -7 c 3 -4 2870 1919 l 4 4 c -4 4 c -3 -4 c -7 -4 2809 1999 l -4 -12 c 0 -7 c 4 -11 c 11 -8 c 19 -4 c 19 0 c 15 4 c 7 8 c
4 11 c 0 4 c -4 11 c -7 8 c -11 3 c -4 0 c -12 -3 c -7 -8 c -4 -11 c 0 -4 c 4 -11 c 7 -8 c 12 -4 c 4 -11 2798 2044 l 7 -4 c 8 0 c
7 4 c 4 7 c 4 15 c 4 12 c 7 7 c 8 4 c 11 0 c 8 -4 c 3 -4 c 4 -11 c 0 -15 c -4 -11 c -3 -4 c -8 -4 c -11 0 c -8 4 c -7 7 c -4 12 c
-4 15 c -4 7 c -7 4 c -8 0 c -7 -4 c -4 -11 c 0 -15 c 4 -11 2798 2123 l 11 -8 c 19 -3 c 11 0 c 19 3 c 11 8 c 4 11 c 0 8 c -4 11 c
-11 8 c -19 4 c -11 0 c -19 -4 c -11 -8 c -4 -11 c 0 -8 c 0 -250 3577 1660 l 4 -12 3533 1751 l 8 -3 c 7 0 c 8 3 c 4 8 c 3 15 c
4 11 c 8 8 c 7 4 c 12 0 c 7 -4 c 4 -4 c 4 -11 c 0 -15 c -4 -12 c -4 -3 c -7 -4 c -12 0 c -7 4 c -8 7 c -4 12 c -3 15 c -4 7 c -8 4 c
-7 0 c -8 -4 c -4 -11 c 0 -15 c 0 -38 3533 1853 l 34 -4 c -3 4 c -4 11 c 0 12 c 4 11 c 7 8 c 12 3 c 7 0 c 11 -3 c 8 -8 c 4 -11 c
0 -12 c -4 -11 c -4 -4 c -7 -4 c -4 8 3549 1894 l -12 11 c 80 0 c 4 -11 3533 1981 l 12 -8 c 18 -3 c 12 0 c 19 3 c 11 8 c 4 11 c
0 8 c -4 11 c -11 8 c -19 4 c -12 0 c -18 -4 c -12 -8 c -4 -11 c 0 -8 c 4 -4 3605 2042 l 4 4 c -4 4 c -4 -4 c -8 -4 3545 2121 l
-4 -11 c 0 -8 c 4 -11 c 12 -7 c 18 -4 c 19 0 c 15 4 c 8 7 c 4 11 c 0 4 c -4 12 c -8 7 c -11 4 c -4 0 c -11 -4 c -8 -7 c -3 -12 c
0 -4 c 3 -11 c 8 -7 c 11 -4 c -3 0 3552 2151 l -8 4 c -4 4 c -4 7 c 0 16 c 4 7 c 4 4 c 8 4 c 7 0 c 8 -4 c 11 -8 c 38 -37 c 0 52 c
53 -38 3533 2261 l 0 57 c 80 0 3533 2261 l 0 -249 4020 1555 l 4 -11 3976 1646 l 8 -4 c 7 0 c 8 4 c 4 7 c 3 15 c 4 12 c 8 7 c 7 4 c
12 0 c 7 -4 c 4 -3 c 4 -12 c 0 -15 c -4 -11 c -4 -4 c -7 -4 c -12 0 c -7 4 c -8 8 c -4 11 c -3 15 c -4 8 c -8 3 c -7 0 c -8 -3 c
-4 -12 c 0 -15 c 0 -38 3976 1748 l 34 -3 c -3 3 c -4 12 c 0 11 c 4 11 c 7 8 c 12 4 c 7 0 c 11 -4 c 8 -8 c 4 -11 c 0 -11 c -4 -12 c
-4 -3 c -7 -4 c -4 7 3992 1790 l -12 12 c 80 0 c -8 -4 3988 1903 l -4 -11 c 0 -8 c 4 -11 c 12 -7 c 18 -4 c 19 0 c 15 4 c 8 7 c
4 11 c 0 4 c -4 12 c -8 7 c -11 4 c -4 0 c -11 -4 c -8 -7 c -3 -12 c 0 -4 c 3 -11 c 8 -7 c 11 -4 c 4 -4 4048 1937 l 4 4 c -4 4 c
-4 -4 c 0 -38 3976 2013 l 34 -4 c -3 4 c -4 11 c 0 12 c 4 11 c 7 8 c 12 3 c 7 0 c 11 -3 c 8 -8 c 4 -11 c 0 -12 c -4 -11 c -4 -4 c
-7 -4 c 0 -37 3976 2088 l 34 -4 c -3 4 c -4 11 c 0 11 c 4 12 c 7 7 c 12 4 c 7 0 c 11 -4 c 8 -7 c 4 -12 c 0 -11 c -4 -11 c -4 -4 c
-7 -4 c 53 -37 3976 2156 l 0 56 c 80 0 3976 2156 l 0 -250 5784 1750 l 4 -11 5741 1840 l 7 -4 c 8 0 c 7 4 c 4 8 c 4 15 c 4 11 c 7 8 c
8 3 c 11 0 c 8 -3 c 3 -4 c 4 -12 c 0 -15 c -4 -11 c -3 -4 c -8 -4 c -11 0 c -8 4 c -7 8 c -4 11 c -4 15 c -4 8 c -7 4 c -8 0 c
-7 -4 c -4 -12 c 0 -15 c 0 -37 5741 1942 l 34 -4 c -4 4 c -4 11 c 0 11 c 4 12 c 8 7 c 11 4 c 7 0 c 12 -4 c 7 -7 c 4 -12 c 0 -11 c
-4 -11 c -3 -4 c -8 -4 c 0 42 5741 1980 l 30 -23 c 0 11 c 4 8 c 4 4 c 11 4 c 7 0 c 12 -4 c 7 -8 c 4 -11 c 0 -12 c -4 -11 c -3 -4 c
-8 -3 c 12 -3 5767 2097 l 7 -8 c 4 -11 c 0 -4 c -4 -11 c -7 -8 c -12 -4 c -4 0 c -11 4 c -7 8 c -4 11 c 0 4 c 4 11 c 7 8 c 15 3 c
19 0 c 19 -3 c 11 -8 c 4 -11 c 0 -8 c -4 -11 c -7 -4 c 3 -3 5813 2131 l 4 3 c -4 4 c -3 -4 c 79 -37 5741 2214 l 0 52 5741 2162 l
12 -3 5767 2286 l 7 -8 c 4 -11 c 0 -4 c -4 -11 c -7 -8 c -12 -4 c -4 0 c -11 4 c -7 8 c -4 11 c 0 4 c 4 11 c 7 8 c 15 3 c 19 0 c
19 -3 c 11 -8 c 4 -11 c 0 -8 c -4 -11 c -7 -4 c 0 42 5741 2320 l 30 -23 c 0 12 c 4 7 c 4 4 c 11 4 c 7 0 c 12 -4 c 7 -8 c 4 -11 c
0 -11 c -4 -12 c -3 -3 c -8 -4 c 0 -249 5961 1335 l 4 -11 5918 1426 l 7 -4 c 8 0 c 7 4 c 4 7 c 4 15 c 4 12 c 7 7 c 8 4 c 11 0 c
8 -4 c 3 -4 c 4 -11 c 0 -15 c -4 -11 c -3 -4 c -8 -4 c -11 0 c -8 4 c -7 7 c -4 12 c -4 15 c -4 7 c -7 4 c -8 0 c -7 -4 c -4 -11 c
0 -15 c 0 -38 5918 1528 l 34 -4 c -4 4 c -4 11 c 0 12 c 4 11 c 8 8 c 11 3 c 8 0 c 11 -3 c 7 -8 c 4 -11 c 0 -12 c -4 -11 c -3 -4 c
-8 -3 c 53 -38 5918 1596 l 0 57 c 79 0 5918 1596 l -4 0 5937 1638 l -8 3 c -3 4 c -4 8 c 0 15 c 4 7 c 3 4 c 8 4 c 8 0 c 7 -4 c
11 -7 c 38 -38 c 0 53 c 3 -4 5990 1717 l 4 4 c -4 4 c -3 -4 c 4 -12 5918 1770 l 11 -7 c 19 -4 c 11 0 c 19 4 c 11 7 c 4 12 c 0 7 c
-4 12 c -11 7 c -19 4 c -11 0 c -19 -4 c -11 -7 c -4 -12 c 0 -7 c 4 -12 5918 1842 l 7 -4 c 8 0 c 7 4 c 4 8 c 4 15 c 4 11 c 7 8 c
8 4 c 11 0 c 8 -4 c 3 -4 c 4 -11 c 0 -15 c -4 -12 c -3 -4 c -8 -3 c -11 0 c -8 3 c -7 8 c -4 11 c -4 16 c -4 7 c -7 4 c -8 0 c
-7 -4 c -4 -11 c 0 -15 c 79 -38 5918 1951 l 0 53 5918 1898 l 0 -250 6155 1357 l 3 -12 6112 1448 l 8 -4 c 8 0 c 7 4 c 4 8 c 4 15 c
3 11 c 8 8 c 8 4 c 11 0 c 7 -4 c 4 -4 c 4 -11 c 0 -15 c -4 -12 c -4 -4 c -7 -3 c -11 0 c -8 3 c -8 8 c -3 11 c -4 16 c -4 7 c -7 4 c
-8 0 c -8 -4 c -3 -11 c 0 -15 c 0 -38 6112 1550 l 34 -4 c -4 4 c -4 11 c 0 12 c 4 11 c 7 7 c 12 4 c 7 0 c 12 -4 c 7 -7 c 4 -11 c
0 -12 c -4 -11 c -4 -4 c -7 -4 c 53 -38 6112 1618 l 0 57 c 79 0 6112 1618 l 53 -38 6112 1693 l 0 57 c 79 0 6112 1693 l
4 -4 6183 1739 l 4 4 c -4 3 c -4 -3 c 0 -38 6112 1814 l 34 -3 c -4 3 c -4 12 c 0 11 c 4 11 c 7 8 c 12 4 c 7 0 c 12 -4 c 7 -8 c
4 -11 c 0 -11 c -4 -12 c -4 -3 c -7 -4 c 11 -4 6138 1894 l 8 -8 c 4 -11 c 0 -4 c -4 -11 c -8 -8 c -11 -4 c -4 0 c -11 4 c -8 8 c
-3 11 c 0 4 c 3 11 c 8 8 c 15 4 c 19 0 c 19 -4 c 11 -8 c 4 -11 c 0 -8 c -4 -11 c -7 -4 c 0 -37 6112 1965 l 34 -4 c -4 4 c -4 11 c
0 11 c 4 12 c 7 7 c 12 4 c 7 0 c 12 -4 c 7 -7 c 4 -12 c 0 -11 c -4 -11 c -4 -4 c -7 -4 c 0 -250 6964 2165 l 4 -11 6920 2255 l 7 -4 c
8 0 c 8 4 c 3 7 c 4 16 c 4 11 c 7 8 c 8 3 c 11 0 c 8 -3 c 4 -4 c 4 -12 c 0 -15 c -4 -11 c -4 -4 c -8 -4 c -11 0 c -8 4 c -7 8 c
-4 11 c -4 15 c -3 8 c -8 4 c -8 0 c -7 -4 c -4 -12 c 0 -15 c 0 -37 6920 2357 l 34 -4 c -4 4 c -3 11 c 0 11 c 3 12 c 8 7 c 11 4 c
8 0 c 11 -4 c 8 -7 c 4 -12 c 0 -11 c -4 -11 c -4 -4 c -8 -4 c 0 -38 6920 2433 l 34 -4 c -4 4 c -3 11 c 0 12 c 3 11 c 8 8 c 11 3 c
8 0 c 11 -3 c 8 -8 c 4 -11 c 0 -12 c -4 -11 c -4 -4 c -8 -3 c 53 -38 6920 2501 l 0 57 c 80 0 6920 2501 l 4 -3 6992 2546 l 4 3 c
-4 4 c -4 -4 c 11 -4 6947 2626 l 7 -8 c 4 -11 c 0 -4 c -4 -11 c -7 -8 c -11 -3 c -4 0 c -12 3 c -7 8 c -4 11 c 0 4 c 4 11 c 7 8 c
16 4 c 18 0 c 19 -4 c 12 -8 c 4 -11 c 0 -8 c -4 -11 c -8 -4 c 53 -38 6920 2690 l 0 57 c 80 0 6920 2690 l 53 -38 6920 2766 l 0 56 c
80 0 6920 2766 l 0 -249 7072 1446 l 3 -11 7029 1537 l 8 -4 c 7 0 c 8 4 c 4 7 c 4 15 c 3 12 c 8 7 c 7 4 c 12 0 c 7 -4 c 4 -4 c
4 -11 c 0 -15 c -4 -11 c -4 -4 c -7 -4 c -12 0 c -7 4 c -8 7 c -3 12 c -4 15 c -4 7 c -8 4 c -7 0 c -8 -4 c -3 -11 c 0 -15 c
0 -38 7029 1639 l 34 -4 c -4 4 c -4 11 c 0 12 c 4 11 c 7 8 c 12 3 c 7 0 c 12 -3 c 7 -8 c 4 -11 c 0 -12 c -4 -11 c -4 -4 c -7 -3 c
0 -37 7029 1714 l 34 -4 c -4 4 c -4 11 c 0 11 c 4 12 c 7 7 c 12 4 c 7 0 c 12 -4 c 7 -7 c 4 -12 c 0 -11 c -4 -11 c -4 -4 c -7 -4 c
-8 -4 7040 1794 l -3 -11 c 0 -8 c 3 -11 c 12 -8 c 19 -3 c 18 0 c 16 3 c 7 8 c 4 11 c 0 4 c -4 11 c -7 8 c -12 4 c -4 0 c -11 -4 c
-7 -8 c -4 -11 c 0 -4 c 4 -11 c 7 -8 c 11 -3 c 4 -4 7100 1828 l 4 4 c -4 4 c -4 -4 c 0 41 7029 1866 l 30 -22 c 0 11 c 4 7 c 3 4 c
12 4 c 7 0 c 12 -4 c 7 -7 c 4 -12 c 0 -11 c -4 -11 c -4 -4 c -7 -4 c -3 0 7047 1937 l -8 4 c -4 4 c -3 8 c 0 15 c 3 7 c 4 4 c 8 4 c
7 0 c 8 -4 c 11 -7 c 38 -38 c 0 53 c 0 -38 7029 2055 l 34 -4 c -4 4 c -4 11 c 0 12 c 4 11 c 7 7 c 12 4 c 7 0 c 12 -4 c 7 -7 c
4 -11 c 0 -12 c -4 -11 c -4 -4 c -7 -4 c 0 -249 7240 1300 l 4 -11 7196 1391 l 8 -4 c 7 0 c 8 4 c 4 7 c 3 16 c 4 11 c 8 7 c 7 4 c
12 0 c 7 -4 c 4 -3 c 4 -12 c 0 -15 c -4 -11 c -4 -4 c -7 -4 c -12 0 c -7 4 c -8 8 c -4 11 c -3 15 c -4 8 c -8 3 c -7 0 c -8 -3 c
-4 -12 c 0 -15 c 0 -38 7196 1493 l 34 -3 c -3 3 c -4 12 c 0 11 c 4 11 c 7 8 c 12 4 c 7 0 c 11 -4 c 8 -8 c 4 -11 c 0 -11 c -4 -12 c
-4 -3 c -7 -4 c 0 -38 7196 1569 l 34 -4 c -3 4 c -4 11 c 0 12 c 4 11 c 7 8 c 12 3 c 7 0 c 11 -3 c 8 -8 c 4 -11 c 0 -12 c -4 -11 c
-4 -4 c -7 -4 c 4 -11 7196 1618 l 8 -4 c 7 0 c 8 4 c 4 7 c 3 15 c 4 12 c 8 7 c 7 4 c 12 0 c 7 -4 c 4 -4 c 4 -11 c 0 -15 c -4 -11 c
-4 -4 c -7 -4 c -12 0 c -7 4 c -8 7 c -4 12 c -3 15 c -4 7 c -8 4 c -7 0 c -8 -4 c -4 -11 c 0 -15 c 4 -4 7268 1682 l 4 4 c -4 4 c
-4 -4 c 53 -38 7196 1750 l 0 57 c 80 0 7196 1750 l 53 -38 7196 1826 l 0 57 c 80 0 7196 1826 l -8 -4 7208 1913 l -4 -11 c 0 -8 c
4 -11 c 12 -8 c 18 -4 c 19 0 c 15 4 c 8 8 c 4 11 c 0 4 c -4 11 c -8 8 c -11 4 c -4 0 c -11 -4 c -8 -8 c -3 -11 c 0 -4 c 3 -11 c
8 -8 c 11 -4 c 0 -250 7397 1298 l 4 -12 7353 1389 l 7 -4 c 8 0 c 8 4 c 3 8 c 4 15 c 4 11 c 7 8 c 8 4 c 11 0 c 8 -4 c 4 -4 c 3 -11 c
0 -15 c -3 -12 c -4 -4 c -8 -3 c -11 0 c -8 3 c -7 8 c -4 11 c -4 15 c -3 8 c -8 4 c -8 0 c -7 -4 c -4 -11 c 0 -15 c
0 -38 7353 1491 l 34 -4 c -4 4 c -3 11 c 0 11 c 3 12 c 8 7 c 11 4 c 8 0 c 11 -4 c 8 -7 c 3 -12 c 0 -11 c -3 -11 c -4 -4 c -8 -4 c
-7 -4 7364 1570 l -4 -11 c 0 -8 c 4 -11 c 11 -8 c 19 -3 c 19 0 c 15 3 c 8 8 c 3 11 c 0 4 c -3 11 c -8 8 c -11 4 c -4 0 c -11 -4 c
-8 -8 c -4 -11 c 0 -4 c 4 -11 c 8 -8 c 11 -3 c 4 -11 7353 1619 l 11 -8 c 19 -4 c 11 0 c 19 4 c 12 8 c 3 11 c 0 8 c -3 11 c -12 8 c
-19 3 c -11 0 c -19 -3 c -11 -8 c -4 -11 c 0 -8 c 4 -4 7425 1680 l 3 4 c -3 3 c -4 -3 c 53 -38 7353 1748 l 0 56 c 79 0 7353 1748 l
0 42 7353 1793 l 30 -23 c 0 11 c 4 8 c 4 4 c 11 3 c 8 0 c 11 -3 c 8 -8 c 3 -11 c 0 -12 c -3 -11 c -4 -4 c -8 -4 c 0 -37 7353 1906 l
34 -4 c -4 4 c -3 11 c 0 11 c 3 12 c 8 7 c 11 4 c 8 0 c 11 -4 c 8 -7 c 3 -12 c 0 -11 c -3 -11 c -4 -4 c -8 -4 c 0 -249 8017 1334 l
4 -11 7974 1425 l 7 -4 c 8 0 c 7 4 c 4 7 c 4 16 c 4 11 c 7 7 c 8 4 c 11 0 c 8 -4 c 3 -3 c 4 -12 c 0 -15 c -4 -11 c -3 -4 c -8 -4 c
-11 0 c -8 4 c -7 8 c -4 11 c -4 15 c -4 8 c -7 3 c -8 0 c -7 -3 c -4 -12 c 0 -15 c 0 -38 7974 1527 l 34 -3 c -4 3 c -4 12 c 0 11 c
4 11 c 8 8 c 11 4 c 7 0 c 12 -4 c 7 -8 c 4 -11 c 0 -11 c -4 -12 c -3 -3 c -8 -4 c -7 -4 7985 1607 l -4 -12 c 0 -7 c 4 -11 c 11 -8 c
19 -4 c 19 0 c 15 4 c 7 8 c 4 11 c 0 4 c -4 11 c -7 8 c -12 3 c -3 0 c -12 -3 c -7 -8 c -4 -11 c 0 -4 c 4 -11 c 7 -8 c 12 -4 c
4 -11 7974 1652 l 7 -4 c 8 0 c 7 4 c 4 7 c 4 15 c 4 12 c 7 7 c 8 4 c 11 0 c 8 -4 c 3 -4 c 4 -11 c 0 -15 c -4 -11 c -3 -4 c -8 -4 c
-11 0 c -8 4 c -7 7 c -4 12 c -4 15 c -4 7 c -7 4 c -8 0 c -7 -4 c -4 -11 c 0 -15 c 3 -4 8046 1716 l 4 4 c -4 4 c -3 -4 c
-4 0 7993 1750 l -8 4 c -3 4 c -4 7 c 0 15 c 4 8 c 3 4 c 8 4 c 7 0 c 8 -4 c 11 -8 c 38 -38 c 0 53 c 4 -12 7974 1845 l 11 -7 c
19 -4 c 11 0 c 19 4 c 11 7 c 4 12 c 0 7 c -4 12 c -11 7 c -19 4 c -11 0 c -19 -4 c -11 -7 c -4 -12 c 0 -7 c 12 -4 8000 1947 l 7 -8 c
4 -11 c 0 -4 c -4 -11 c -7 -8 c -12 -3 c -4 0 c -11 3 c -7 8 c -4 11 c 0 4 c 4 11 c 7 8 c 15 4 c 19 0 c 19 -4 c 11 -8 c 4 -11 c
0 -7 c -4 -12 c -7 -4 c 0 -250 8413 3014 l 4 -11 8369 3104 l 7 -4 c 8 0 c 8 4 c 3 8 c 4 15 c 4 11 c 7 8 c 8 3 c 11 0 c 8 -3 c 4 -4 c
3 -11 c 0 -16 c -3 -11 c -4 -4 c -8 -3 c -11 0 c -8 3 c -7 8 c -4 11 c -4 15 c -3 8 c -8 4 c -8 0 c -7 -4 c -4 -11 c 0 -16 c
0 -38 8369 3207 l 34 -4 c -4 4 c -3 11 c 0 11 c 3 12 c 8 7 c 11 4 c 8 0 c 11 -4 c 8 -7 c 3 -12 c 0 -11 c -3 -11 c -4 -4 c -8 -4 c
79 -38 8369 3290 l 0 53 8369 3237 l 0 41 8369 3320 l 30 -22 c 0 11 c 4 8 c 4 3 c 11 4 c 8 0 c 11 -4 c 8 -7 c 3 -11 c 0 -12 c
-3 -11 c -4 -4 c -8 -4 c 4 -3 8441 3395 l 3 3 c -3 4 c -4 -4 c -4 8 8384 3437 l -11 11 c 79 0 c -4 0 8388 3505 l -7 4 c -4 4 c
-4 7 c 0 15 c 4 8 c 4 4 c 7 3 c 8 0 c 7 -3 c 12 -8 c 37 -38 c 0 53 c -4 8 8384 3588 l -11 11 c 79 0 c 0 -249 8750 1392 l
4 -11 8706 1483 l 7 -4 c 8 0 c 8 4 c 3 7 c 4 16 c 4 11 c 7 7 c 8 4 c 11 0 c 8 -4 c 4 -3 c 3 -12 c 0 -15 c -3 -11 c -4 -4 c -8 -4 c
-11 0 c -8 4 c -7 8 c -4 11 c -4 15 c -3 8 c -8 3 c -8 0 c -7 -3 c -4 -12 c 0 -15 c 0 -38 8706 1585 l 34 -3 c -4 3 c -3 12 c 0 11 c
3 11 c 8 8 c 11 4 c 8 0 c 11 -4 c 8 -8 c 3 -11 c 0 -11 c -3 -12 c -4 -3 c -8 -4 c 79 -37 8706 1668 l 0 53 8706 1615 l
79 -38 8706 1744 l 0 53 8706 1691 l 4 -4 8778 1774 l 3 4 c -3 4 c -4 -4 c -4 0 8725 1808 l -7 4 c -4 4 c -4 7 c 0 15 c 4 8 c 4 4 c
7 4 c 8 0 c 7 -4 c 12 -8 c 37 -38 c 0 53 c 79 -38 8706 1933 l 0 53 8706 1880 l 79 -38 8706 2009 l 0 53 8706 1956 l
showpage PGPLOT restore
 
%%Trailer
%%DocumentFonts: 
%%Pages: 1
%%EOF
